ModelID,SalesID,SalePrice,MachineID,datasource,auctioneerID,YearMade,MachineHoursCurrentMeter,UsageBand,saledate,fiModelDesc,fiBaseModel,fiSecondaryDesc,fiModelSeries,fiModelDescriptor,ProductSize,fiProductClassDesc,state,ProductGroup,ProductGroupDesc,Drive_System,Enclosure,Forks,Pad_Type,Ride_Control,Stick,Transmission,Turbocharged,Blade_Extension,Blade_Width,Enclosure_Type,Engine_Horsepower,Hydraulics,Pushblock,Ripper,Scarifier,Tip_Control,Tire_Size,Coupler,Coupler_System,Grouser_Tracks,Hydraulics_Flow,Track_Type,Undercarriage_Pad_Width,Stick_Length,Thumb,Pattern_Changer,Grouser_Type,Backhoe_Mounting,Blade_Type,Travel_Controls,Differential_Type,Steering_Controls
10213,1212016,22000,1068063,121,3.0,2001,,,3/3/2011 0:00,RG100,RG100,,,,,Motorgrader - 45.0 to 130.0 Horsepower,Texas,MG,Motor Graders,No,OROPS,,,,,None or Unspecified,,None or Unspecified,12',None or Unspecified,No,Base + 1 Function,None or Unspecified,None or Unspecified,Yes,None or Unspecified,None or Unspecified,,,,,,,,,,,,,,,
10213,1222066,44000,1062728,121,3.0,2000,1233.0,Low,12/15/2011 0:00,RG100,RG100,,,,,Motorgrader - 45.0 to 130.0 Horsepower,New Mexico,MG,Motor Graders,No,EROPS,,,,,None or Unspecified,,None or Unspecified,12',None or Unspecified,No,Base + 1 Function,None or Unspecified,None or Unspecified,Yes,None or Unspecified,None or Unspecified,,,,,,,,,,,,,,,
10213,2439374,22500,1768827,136,,1000,0.0,,11/19/2008 0:00,RG100,RG100,,,,,Motorgrader - 45.0 to 130.0 Horsepower,South Carolina,MG,Motor Graders,No,OROPS,,,,,None or Unspecified,,None or Unspecified,None or Unspecified,None or Unspecified,No,Base + 1 Function,None or Unspecified,None or Unspecified,Yes,None or Unspecified,None or Unspecified,,,,,,,,,,,,,,,
10213,2439376,22000,1667771,136,,1999,0.0,,12/9/2008 0:00,RG100,RG100,,,,,Motorgrader - 45.0 to 130.0 Horsepower,South Carolina,MG,Motor Graders,No,OROPS,,,,,None or Unspecified,,None or Unspecified,None or Unspecified,None or Unspecified,No,Base + 1 Function,None or Unspecified,None or Unspecified,None or Unspecified,None or Unspecified,None or Unspecified,,,,,,,,,,,,,,,
10213,2439377,30000,1738066,136,1.0,2001,0.0,,5/8/2009 0:00,RG100,RG100,,,,,Motorgrader - 45.0 to 130.0 Horsepower,Utah,MG,Motor Graders,No,EROPS,,,,,None or Unspecified,,None or Unspecified,None or Unspecified,None or Unspecified,No,Base + 1 Function,None or Unspecified,Yes,None or Unspecified,None or Unspecified,None or Unspecified,,,,,,,,,,,,,,,
10213,2439378,27500,1729928,136,1.0,2001,0.0,,2/15/2010 0:00,RG100,RG100,,,,,Motorgrader - 45.0 to 130.0 Horsepower,Florida,MG,Motor Graders,No,OROPS,,,,,Powershift,,None or Unspecified,12',None or Unspecified,No,Base + 1 Function,None or Unspecified,None or Unspecified,Yes,None or Unspecified,None or Unspecified,,,,,,,,,,,,,,,
10213,2439379,28000,1718405,136,,1000,2450.0,Low,6/21/2008 0:00,RG100,RG100,,,,,Motorgrader - 45.0 to 130.0 Horsepower,Wisconsin,MG,Motor Graders,No,OROPS,,,,,None or Unspecified,,None or Unspecified,None or Unspecified,None or Unspecified,No,Base + 1 Function,None or Unspecified,None or Unspecified,Yes,None or Unspecified,None or Unspecified,,,,,,,,,,,,,,,
10213,2733309,35000,1926199,149,1.0,2001,1860.0,Low,3/31/2011 0:00,RG100,RG100,,,,,Motorgrader - 45.0 to 130.0 Horsepower,Missouri,MG,Motor Graders,No,EROPS,,,,,None or Unspecified,,None or Unspecified,12',None or Unspecified,No,Base + 1 Function,None or Unspecified,None or Unspecified,None or Unspecified,None or Unspecified,None or Unspecified,,,,,,,,,,,,,,,
10213,4380460,33000,2278415,172,1.0,2000,3154.0,Low,6/21/2011 0:00,RG100,RG100,,,,,Motorgrader - 45.0 to 130.0 Horsepower,Texas,MG,Motor Graders,No,EROPS w AC,,,,,None or Unspecified,,None or Unspecified,12',None or Unspecified,No,Base + 1 Function,None or Unspecified,Yes,Yes,None or Unspecified,None or Unspecified,,,,,,,,,,,,,,,
10213,4380461,31000,2278415,172,1.0,2000,,,7/26/2011 0:00,RG100,RG100,,,,,Motorgrader - 45.0 to 130.0 Horsepower,Texas,MG,Motor Graders,No,EROPS w AC,,,,,None or Unspecified,,None or Unspecified,12',None or Unspecified,No,Base + 1 Function,None or Unspecified,Yes,Yes,None or Unspecified,None or Unspecified,,,,,,,,,,,,,,,
10213,6315139,33000,1805128,149,1.0,2000,,,6/22/2011 0:00,RG100,RG100,,,,,Motorgrader - 45.0 to 130.0 Horsepower,Texas,MG,Motor Graders,No,EROPS w AC,,,,,None or Unspecified,,None or Unspecified,12',None or Unspecified,No,Base + 1 Function,None or Unspecified,Yes,None or Unspecified,None or Unspecified,None or Unspecified,,,,,,,,,,,,,,,
10213,6315140,31000,1797732,149,1.0,2000,,,7/27/2011 0:00,RG100,RG100,,,,,Motorgrader - 45.0 to 130.0 Horsepower,Texas,MG,Motor Graders,No,OROPS,,,,,None or Unspecified,,None or Unspecified,12',None or Unspecified,No,Base + 1 Function,None or Unspecified,None or Unspecified,Yes,None or Unspecified,None or Unspecified,,,,,,,,,,,,,,,
