ModelID,SalesID,SalePrice,MachineID,datasource,auctioneerID,YearMade,MachineHoursCurrentMeter,UsageBand,saledate,fiModelDesc,fiBaseModel,fiSecondaryDesc,fiModelSeries,fiModelDescriptor,ProductSize,fiProductClassDesc,state,ProductGroup,ProductGroupDesc,Drive_System,Enclosure,Forks,Pad_Type,Ride_Control,Stick,Transmission,Turbocharged,Blade_Extension,Blade_Width,Enclosure_Type,Engine_Horsepower,Hydraulics,Pushblock,Ripper,Scarifier,Tip_Control,Tire_Size,Coupler,Coupler_System,Grouser_Tracks,Hydraulics_Flow,Track_Type,Undercarriage_Pad_Width,Stick_Length,Thumb,Pattern_Changer,Grouser_Type,Backhoe_Mounting,Blade_Type,Travel_Controls,Differential_Type,Steering_Controls
10212,1155817,6200,1012072,121,3.0,1999,0.0,,12/15/2010 0:00,LX985,LX985,,,,,Skid Steer Loader - Unidentified,Kentucky,SSL,Skid Steer Loaders,,OROPS,None or Unspecified,,,,,,,,,,Standard,,,,,,None or Unspecified,None or Unspecified,None or Unspecified,Standard,,,,,,,,,,,
10212,1164818,8000,1001289,121,3.0,1998,3227.0,Medium,8/21/2009 0:00,LX985,LX985,,,,,Skid Steer Loader - Unidentified,Indiana,SSL,Skid Steer Loaders,,EROPS,None or Unspecified,,,,,,,,,,Auxiliary,,,,,,Manual,Yes,None or Unspecified,Standard,,,,,,,,,,,
10212,2438427,9500,1730411,136,,1999,1278.0,Low,5/15/2009 0:00,LX985,LX985,,,,,Skid Steer Loader - Unidentified,Michigan,SSL,Skid Steer Loaders,,OROPS,Yes,,,,,,,,,,Auxiliary,,,,,,None or Unspecified,None or Unspecified,None or Unspecified,Standard,,,,,,,,,,,
10212,2438431,11500,1759330,136,99.0,1999,0.0,,3/20/2010 0:00,LX985,LX985,,,,,Skid Steer Loader - Unidentified,Washington,SSL,Skid Steer Loaders,,OROPS,None or Unspecified,,,,,,,,,,Standard,,,,,,None or Unspecified,None or Unspecified,None or Unspecified,Standard,,,,,,,,,,,
10212,2731572,9500,165045,149,5.0,1000,0.0,,11/17/2010 0:00,LX985,LX985,,,,,Skid Steer Loader - Unidentified,Mississippi,SSL,Skid Steer Loaders,,OROPS,None or Unspecified,,,,,,,,,,Standard,,,,,,None or Unspecified,None or Unspecified,None or Unspecified,Standard,,,,,,,,,,,
10212,2731580,12250,1851181,149,16.0,1000,0.0,,8/24/2010 0:00,LX985,LX985,,,,,Skid Steer Loader - Unidentified,Ohio,SSL,Skid Steer Loaders,,OROPS,None or Unspecified,,,,,,,,,,Standard,,,,,,None or Unspecified,None or Unspecified,None or Unspecified,Standard,,,,,,,,,,,
