ModelID,SalesID,SalePrice,MachineID,datasource,auctioneerID,YearMade,MachineHoursCurrentMeter,UsageBand,saledate,fiModelDesc,fiBaseModel,fiSecondaryDesc,fiModelSeries,fiModelDescriptor,ProductSize,fiProductClassDesc,state,ProductGroup,ProductGroupDesc,Drive_System,Enclosure,Forks,Pad_Type,Ride_Control,Stick,Transmission,Turbocharged,Blade_Extension,Blade_Width,Enclosure_Type,Engine_Horsepower,Hydraulics,Pushblock,Ripper,Scarifier,Tip_Control,Tire_Size,Coupler,Coupler_System,Grouser_Tracks,Hydraulics_Flow,Track_Type,Undercarriage_Pad_Width,Stick_Length,Thumb,Pattern_Changer,Grouser_Type,Backhoe_Mounting,Blade_Type,Travel_Controls,Differential_Type,Steering_Controls
10442,1159910,16000,1011475,121,3.0,1989,5591.0,Low,5/4/2006 0:00,4500,4500,,,,Medium,Wheel Loader - 225.0 to 250.0 Horsepower,New York,WL,Wheel Loader,,OROPS,None or Unspecified,,None or Unspecified,,,,,,,,2 Valve,,,,,None or Unspecified,None or Unspecified,,,,,,,,,,,,,Standard,Conventional
10442,1843962,16000,1241123,132,3.0,1989,,,5/4/2006 0:00,4500,4500,,,,Medium,Wheel Loader - 225.0 to 250.0 Horsepower,Unspecified,WL,Wheel Loader,,OROPS,None or Unspecified,,None or Unspecified,,,,,,,,2 Valve,,,,,None or Unspecified,None or Unspecified,,,,,,,,,,,,,Standard,Conventional
10442,1843999,8750,1249077,132,15.0,1988,,,9/30/2010 0:00,4500,4500,,,,Medium,Wheel Loader - 225.0 to 250.0 Horsepower,Pennsylvania,WL,Wheel Loader,,EROPS,None or Unspecified,,None or Unspecified,,,,,,,,2 Valve,,,,,23.5,None or Unspecified,,,,,,,,,,,,,Standard,Conventional
10442,1844003,15000,1402052,132,4.0,1000,,,2/17/2001 0:00,4500,4500,,,,Medium,Wheel Loader - 225.0 to 250.0 Horsepower,Florida,WL,Wheel Loader,,EROPS w AC,None or Unspecified,,None or Unspecified,,,,,,,,2 Valve,,,,,23.5,None or Unspecified,,,,,,,,,,,,,Standard,Conventional
10442,1844524,20000,1460072,132,1.0,1000,,,5/2/1995 0:00,4500,4500,,,,Medium,Wheel Loader - 225.0 to 250.0 Horsepower,Delaware,WL,Wheel Loader,,EROPS,None or Unspecified,,None or Unspecified,,,,,,,,2 Valve,,,,,None or Unspecified,None or Unspecified,,,,,,,,,,,,,Standard,Conventional
10442,1844525,27500,1319984,132,2.0,1985,,,5/14/1994 0:00,4500,4500,,,,Medium,Wheel Loader - 225.0 to 250.0 Horsepower,New York,WL,Wheel Loader,,EROPS,None or Unspecified,,None or Unspecified,,,,,,,,2 Valve,,,,,26.5,None or Unspecified,,,,,,,,,,,,,Standard,Conventional
10442,1844526,19000,1358009,132,1.0,1000,,,4/15/1998 0:00,4500,4500,,,,Medium,Wheel Loader - 225.0 to 250.0 Horsepower,Idaho,WL,Wheel Loader,,EROPS,None or Unspecified,,None or Unspecified,,,,,,,,2 Valve,,,,,None or Unspecified,None or Unspecified,,,,,,,,,,,,,Standard,Conventional
10442,1844527,18750,858567,132,2.0,1000,,,5/20/1995 0:00,4500,4500,,,,Medium,Wheel Loader - 225.0 to 250.0 Horsepower,New Hampshire,WL,Wheel Loader,,EROPS,None or Unspecified,,None or Unspecified,,,,,,,,2 Valve,,,,,None or Unspecified,None or Unspecified,,,,,,,,,,,,,Standard,Conventional
10442,1844528,12500,1186614,132,1.0,1986,,,3/23/2000 0:00,4500,4500,,,,Medium,Wheel Loader - 225.0 to 250.0 Horsepower,North Carolina,WL,Wheel Loader,,EROPS,None or Unspecified,,None or Unspecified,,,,,,,,2 Valve,,,,,26.5,None or Unspecified,,,,,,,,,,,,,Standard,Conventional
10442,1844529,20000,1511976,132,2.0,1000,,,7/11/1998 0:00,4500,4500,,,,Medium,Wheel Loader - 225.0 to 250.0 Horsepower,New York,WL,Wheel Loader,,EROPS,None or Unspecified,,None or Unspecified,,,,,,,,2 Valve,,,,,None or Unspecified,None or Unspecified,,,,,,,,,,,,,Standard,Conventional
10442,1844530,11500,1156731,132,1.0,1984,,,9/22/1994 0:00,4500,4500,,,,Medium,Wheel Loader - 225.0 to 250.0 Horsepower,Colorado,WL,Wheel Loader,,EROPS,None or Unspecified,,None or Unspecified,,,,,,,,2 Valve,,,,,26.5,None or Unspecified,,,,,,,,,,,,,Standard,Conventional
10442,1844533,21500,1223891,132,1.0,1000,,,3/2/2000 0:00,4500,4500,,,,Medium,Wheel Loader - 225.0 to 250.0 Horsepower,Nevada,WL,Wheel Loader,,EROPS,None or Unspecified,,None or Unspecified,,,,,,,,2 Valve,,,,,26.5,None or Unspecified,,,,,,,,,,,,,Standard,Conventional
10442,1844534,18500,1358082,132,2.0,1985,,,11/7/1997 0:00,4500,4500,,,,Medium,Wheel Loader - 225.0 to 250.0 Horsepower,New York,WL,Wheel Loader,,EROPS,None or Unspecified,,None or Unspecified,,,,,,,,2 Valve,,,,,None or Unspecified,None or Unspecified,,,,,,,,,,,,,Standard,Conventional
10442,1844535,24000,1097694,132,1.0,1985,,,5/14/1991 0:00,4500,4500,,,,Medium,Wheel Loader - 225.0 to 250.0 Horsepower,Illinois,WL,Wheel Loader,,EROPS,None or Unspecified,,None or Unspecified,,,,,,,,2 Valve,,,,,26.5,Manual,,,,,,,,,,,,,Standard,Conventional
10442,1844538,12000,1177205,132,1.0,1000,,,6/8/2007 0:00,4500,4500,,,,Medium,Wheel Loader - 225.0 to 250.0 Horsepower,Nevada,WL,Wheel Loader,,EROPS,None or Unspecified,,None or Unspecified,,,,,,,,2 Valve,,,,,26.5,None or Unspecified,,,,,,,,,,,,,Standard,Conventional
10442,1844709,24000,1246400,132,2.0,1000,,,6/28/1997 0:00,4500,4500,,,,Medium,Wheel Loader - 225.0 to 250.0 Horsepower,New York,WL,Wheel Loader,,EROPS,None or Unspecified,,None or Unspecified,,,,,,,,2 Valve,,,,,None or Unspecified,None or Unspecified,,,,,,,,,,,,,Standard,Conventional
10442,1844715,12000,1414065,132,1.0,1000,,,4/25/2001 0:00,4500,4500,,,,Medium,Wheel Loader - 225.0 to 250.0 Horsepower,New York,WL,Wheel Loader,,EROPS,None or Unspecified,,None or Unspecified,,,,,,,,2 Valve,,,,,23.5,None or Unspecified,,,,,,,,,,,,,Standard,Conventional
10442,1844716,18000,815533,132,5.0,1000,,,6/9/2001 0:00,4500,4500,,,,Medium,Wheel Loader - 225.0 to 250.0 Horsepower,New York,WL,Wheel Loader,,EROPS,None or Unspecified,,None or Unspecified,,,,,,,,2 Valve,,,,,23.5,None or Unspecified,,,,,,,,,,,,,Standard,Conventional
10442,1844717,16500,770070,132,1.0,1000,,,2/16/2000 0:00,4500,4500,,,,Medium,Wheel Loader - 225.0 to 250.0 Horsepower,Florida,WL,Wheel Loader,,EROPS,None or Unspecified,,None or Unspecified,,,,,,,,2 Valve,,,,,26.5,None or Unspecified,,,,,,,,,,,,,Standard,Conventional
10442,1844718,19000,770070,132,5.0,1000,,,11/5/2004 0:00,4500,4500,,,,Medium,Wheel Loader - 225.0 to 250.0 Horsepower,Connecticut,WL,Wheel Loader,,EROPS,None or Unspecified,,None or Unspecified,,,,,,,,2 Valve,,,,,26.5,None or Unspecified,,,,,,,,,,,,,Standard,Conventional
10442,1844719,11000,558546,132,19.0,1989,,,3/7/2003 0:00,4500,4500,,,,Medium,Wheel Loader - 225.0 to 250.0 Horsepower,Texas,WL,Wheel Loader,,EROPS,None or Unspecified,,None or Unspecified,,,,,,,,2 Valve,,,,,26.5,None or Unspecified,,,,,,,,,,,,,Standard,Conventional
10442,1844720,11000,552325,132,2.0,1000,,,12/5/2003 0:00,4500,4500,,,,Medium,Wheel Loader - 225.0 to 250.0 Horsepower,Kentucky,WL,Wheel Loader,,EROPS,None or Unspecified,,None or Unspecified,,,,,,,,2 Valve,,,,,None or Unspecified,None or Unspecified,,,,,,,,,,,,,Standard,Conventional
10442,1844721,38000,1201981,132,6.0,1000,,,12/15/1997 0:00,4500,4500,,,,Medium,Wheel Loader - 225.0 to 250.0 Horsepower,Kentucky,WL,Wheel Loader,,EROPS,None or Unspecified,,None or Unspecified,,,,,,,,2 Valve,,,,,None or Unspecified,None or Unspecified,,,,,,,,,,,,,Standard,Conventional
10442,1844722,8000,1239089,132,1.0,1988,,,10/3/2007 0:00,4500,4500,,,,Medium,Wheel Loader - 225.0 to 250.0 Horsepower,Maryland,WL,Wheel Loader,,EROPS,None or Unspecified,,None or Unspecified,,,,,,,,2 Valve,,,,,26.5,None or Unspecified,,,,,,,,,,,,,Standard,Conventional
10442,1844723,28000,1237524,132,1.0,1990,,,3/22/2000 0:00,4500,4500,,,,Medium,Wheel Loader - 225.0 to 250.0 Horsepower,Washington,WL,Wheel Loader,,EROPS,None or Unspecified,,None or Unspecified,,,,,,,,2 Valve,,,,,26.5,None or Unspecified,,,,,,,,,,,,,Standard,Conventional
10442,1844726,11500,1342349,132,2.0,1000,,,6/16/2004 0:00,4500,4500,,,,Medium,Wheel Loader - 225.0 to 250.0 Horsepower,Texas,WL,Wheel Loader,,EROPS,None or Unspecified,,None or Unspecified,,,,,,,,2 Valve,,,,,26.5,None or Unspecified,,,,,,,,,,,,,Standard,Conventional
10442,1844727,24000,1342349,132,1.0,1991,,,2/21/2001 0:00,4500,4500,,,,Medium,Wheel Loader - 225.0 to 250.0 Horsepower,Florida,WL,Wheel Loader,,EROPS,None or Unspecified,,None or Unspecified,,,,,,,,2 Valve,,,,,26.5,None or Unspecified,,,,,,,,,,,,,Standard,Conventional
10442,2746172,8750,1817656,149,15.0,1000,,,9/30/2010 0:00,4500,4500,,,,Medium,Wheel Loader - 225.0 to 250.0 Horsepower,Pennsylvania,WL,Wheel Loader,,EROPS,None or Unspecified,,None or Unspecified,,,,,,,,2 Valve,,,,,23.5,None or Unspecified,,,,,,,,,,,,,Standard,Conventional
