SalesID,1854935
SalePrice,47500
MachineID,1164947
datasource,132
auctioneerID,1.0
YearMade,1997
MachineHoursCurrentMeter,
UsageBand,
saledate,12/15/2000 0:00
fiModelDesc,HA380
fiBaseModel,HA380
fiSecondaryDesc,
fiModelSeries,
fiModelDescriptor,
ProductSize,Medium
fiProductClassDesc,Wheel Loader - 275.0 to 350.0 Horsepower
state,Minnesota
ProductGroup,WL
ProductGroupDesc,Wheel Loader
Drive_System,
Enclosure,EROPS w AC
Forks,
Pad_Type,
Ride_Control,
Stick,
Transmission,
Turbocharged,
Blade_Extension,
Blade_Width,
Enclosure_Type,
Engine_Horsepower,
Hydraulics,Auxiliary
Pushblock,
Ripper,
Scarifier,
Tip_Control,
Tire_Size,
Coupler,None or Unspecified
Coupler_System,
Grouser_Tracks,
Hydraulics_Flow,
Track_Type,
Undercarriage_Pad_Width,
Stick_Length,
Thumb,
Pattern_Changer,
Grouser_Type,
Backhoe_Mounting,
Blade_Type,
Travel_Controls,
Differential_Type,
Steering_Controls,
