ModelID,SalesID,SalePrice,MachineID,datasource,auctioneerID,YearMade,MachineHoursCurrentMeter,UsageBand,saledate,fiModelDesc,fiBaseModel,fiSecondaryDesc,fiModelSeries,fiModelDescriptor,ProductSize,fiProductClassDesc,state,ProductGroup,ProductGroupDesc,Drive_System,Enclosure,Forks,Pad_Type,Ride_Control,Stick,Transmission,Turbocharged,Blade_Extension,Blade_Width,Enclosure_Type,Engine_Horsepower,Hydraulics,Pushblock,Ripper,Scarifier,Tip_Control,Tire_Size,Coupler,Coupler_System,Grouser_Tracks,Hydraulics_Flow,Track_Type,Undercarriage_Pad_Width,Stick_Length,Thumb,Pattern_Changer,Grouser_Type,Backhoe_Mounting,Blade_Type,Travel_Controls,Differential_Type,Steering_Controls
1077,1140301,33000,357344,121,3.0,2007,1362.0,Medium,6/16/2011 0:00,304CCR,304,C,,CR,Mini,"Hydraulic Excavator, Track - 4.0 to 5.0 Metric Tons",Missouri,TEX,Track Excavators,,EROPS w AC,,,,,,,,,,,Auxiliary,,,,,,Manual,,,,Rubber,16 inch,None or Unspecified,Hydraulic,Yes,Double,,,,,
1077,1163781,27000,359692,121,3.0,2008,1089.0,Medium,6/16/2011 0:00,304CCR,304,C,,CR,Mini,"Hydraulic Excavator, Track - 4.0 to 5.0 Metric Tons",Missouri,TEX,Track Excavators,,EROPS,,,,,,,,,,,Auxiliary,,,,,,Manual,,,,Rubber,16 inch,None or Unspecified,Manual,Yes,Double,,,,,
1077,1179054,24500,983965,121,3.0,2006,1658.0,High,4/24/2008 0:00,304CCR,304,C,,CR,Mini,"Hydraulic Excavator, Track - 4.0 to 5.0 Metric Tons",Utah,TEX,Track Excavators,,EROPS,,,,,,,,,,,Auxiliary,,,,,,None or Unspecified,,,,Rubber,24 inch,None or Unspecified,Manual,Yes,Double,,,,,
1077,1184984,24500,690216,121,3.0,2006,912.0,Medium,11/25/2008 0:00,304CCR,304,C,,CR,Mini,"Hydraulic Excavator, Track - 4.0 to 5.0 Metric Tons",Illinois,TEX,Track Excavators,,EROPS w AC,,,,,,,,,,,Auxiliary,,,,,,Manual,,,,Rubber,16 inch,None or Unspecified,Manual,Yes,Double,,,,,
1077,1186273,22000,309001,121,3.0,2007,768.0,High,12/18/2008 0:00,304CCR,304,C,,CR,Mini,"Hydraulic Excavator, Track - 4.0 to 5.0 Metric Tons",Nevada,TEX,Track Excavators,,EROPS,,,,,,,,,,,Auxiliary,,,,,,None or Unspecified,,,,Rubber,None or Unspecified,None or Unspecified,None or Unspecified,Yes,Double,,,,,
1077,1186943,18500,307468,121,3.0,2006,828.0,Low,1/15/2009 0:00,304CCR,304,C,,CR,Mini,"Hydraulic Excavator, Track - 4.0 to 5.0 Metric Tons",Nevada,TEX,Track Excavators,,EROPS,,,,,,,,,,,Auxiliary,,,,,,Manual,,,,Rubber,16 inch,None or Unspecified,None or Unspecified,Yes,Double,,,,,
1077,1206472,30500,748553,121,3.0,2008,192.0,Low,9/23/2010 0:00,304CCR,304,C,,CR,Mini,"Hydraulic Excavator, Track - 4.0 to 5.0 Metric Tons",Arizona,TEX,Track Excavators,,EROPS,,,,,,,,,,,Auxiliary,,,,,,Manual,,,,Rubber,16 inch,None or Unspecified,Hydraulic,Yes,Double,,,,,
1077,1206476,29500,1038193,121,3.0,2008,702.0,Medium,9/23/2010 0:00,304CCR,304,C,,CR,Mini,"Hydraulic Excavator, Track - 4.0 to 5.0 Metric Tons",Kansas,TEX,Track Excavators,,EROPS,,,,,,,,,,,Auxiliary,,,,,,None or Unspecified,,,,Rubber,None or Unspecified,None or Unspecified,Manual,None or Unspecified,Double,,,,,
1077,1215243,28000,724987,121,3.0,2008,820.0,Low,6/30/2011 0:00,304CCR,304,C,,CR,Mini,"Hydraulic Excavator, Track - 4.0 to 5.0 Metric Tons",California,TEX,Track Excavators,,EROPS,,,,,,,,,,,Auxiliary,,,,,,None or Unspecified,,,,Rubber,16 inch,None or Unspecified,None or Unspecified,Yes,Double,,,,,
1077,1216101,27000,233847,121,3.0,2007,829.0,Low,8/4/2011 0:00,304CCR,304,C,,CR,Mini,"Hydraulic Excavator, Track - 4.0 to 5.0 Metric Tons",Iowa,TEX,Track Excavators,,EROPS w AC,,,,,,,,,,,Auxiliary,,,,,,None or Unspecified,,,,Rubber,None or Unspecified,None or Unspecified,Manual,Yes,Double,,,,,
1077,1561012,22500,647361,132,1.0,2006,,,3/8/2011 0:00,304CCR,304,C,,CR,Mini,"Hydraulic Excavator, Track - 4.0 to 5.0 Metric Tons",Washington,TEX,Track Excavators,,EROPS,,,,,,,,,,,Auxiliary,,,,,,None or Unspecified,,,,Rubber,None or Unspecified,None or Unspecified,Hydraulic,Yes,Double,,,,,
1077,1561019,27000,1269323,132,2.0,2006,,,2/4/2011 0:00,304CCR,304,C,,CR,Mini,"Hydraulic Excavator, Track - 4.0 to 5.0 Metric Tons",Florida,TEX,Track Excavators,,EROPS w AC,,,,,,,,,,,Auxiliary,,,,,,None or Unspecified,,,,Steel,None or Unspecified,None or Unspecified,None or Unspecified,None or Unspecified,Double,,,,,
1077,1561020,31000,1269323,132,2.0,2006,,,1/29/2011 0:00,304CCR,304,C,,CR,Mini,"Hydraulic Excavator, Track - 4.0 to 5.0 Metric Tons",Florida,TEX,Track Excavators,,EROPS w AC,,,,,,,,,,,Auxiliary,,,,,,None or Unspecified,,,,Steel,None or Unspecified,None or Unspecified,None or Unspecified,None or Unspecified,Double,,,,,
1077,1561028,18000,144732,132,2.0,2006,,,2/5/2009 0:00,304CCR,304,C,,CR,Mini,"Hydraulic Excavator, Track - 4.0 to 5.0 Metric Tons",Florida,TEX,Track Excavators,,EROPS,,,,,,,,,,,Auxiliary,,,,,,None or Unspecified,,,,Rubber,None or Unspecified,None or Unspecified,None or Unspecified,Yes,Double,,,,,
1077,1561029,32000,136019,132,1.0,2006,181.0,Low,2/18/2011 0:00,304CCR,304,C,,CR,Mini,"Hydraulic Excavator, Track - 4.0 to 5.0 Metric Tons",Florida,TEX,Track Excavators,,EROPS,,,,,,,,,,,Auxiliary,,,,,,None or Unspecified,,,,Rubber,None or Unspecified,None or Unspecified,None or Unspecified,Yes,Double,,,,,
1077,1561030,32000,136019,132,1.0,2006,,,2/15/2011 0:00,304CCR,304,C,,CR,Mini,"Hydraulic Excavator, Track - 4.0 to 5.0 Metric Tons",Florida,TEX,Track Excavators,,EROPS,,,,,,,,,,,Auxiliary,,,,,,None or Unspecified,,,,Rubber,None or Unspecified,None or Unspecified,None or Unspecified,Yes,Double,,,,,
1077,1561031,22500,641204,132,1.0,2006,,,3/8/2011 0:00,304CCR,304,C,,CR,Mini,"Hydraulic Excavator, Track - 4.0 to 5.0 Metric Tons",Washington,TEX,Track Excavators,,EROPS,,,,,,,,,,,Auxiliary,,,,,,None or Unspecified,,,,Rubber,None or Unspecified,None or Unspecified,Hydraulic,Yes,Double,,,,,
1077,1561037,18500,756724,132,10.0,2006,,,12/9/2009 0:00,304CCR,304,C,,CR,Mini,"Hydraulic Excavator, Track - 4.0 to 5.0 Metric Tons",Louisiana,TEX,Track Excavators,,EROPS,,,,,,,,,,,Auxiliary,,,,,,None or Unspecified,,,,Rubber,None or Unspecified,None or Unspecified,None or Unspecified,Yes,Double,,,,,
1077,1561039,19000,756724,132,99.0,2006,1900.0,Medium,1/7/2010 0:00,304CCR,304,C,,CR,Mini,"Hydraulic Excavator, Track - 4.0 to 5.0 Metric Tons",Louisiana,TEX,Track Excavators,,EROPS,,,,,,,,,,,Auxiliary,,,,,,None or Unspecified,,,,Rubber,None or Unspecified,None or Unspecified,None or Unspecified,Yes,Double,,,,,
1077,1561044,21500,768119,132,2.0,2006,,,5/26/2009 0:00,304CCR,304,C,,CR,Mini,"Hydraulic Excavator, Track - 4.0 to 5.0 Metric Tons",Florida,TEX,Track Excavators,,EROPS w AC,,,,,,,,,,,Auxiliary,,,,,,None or Unspecified,,,,Rubber,None or Unspecified,None or Unspecified,None or Unspecified,Yes,Double,,,,,
1077,1561045,28000,368223,132,3.0,2006,,,5/29/2008 0:00,304CCR,304,C,,CR,Mini,"Hydraulic Excavator, Track - 4.0 to 5.0 Metric Tons",Unspecified,TEX,Track Excavators,,EROPS,,,,,,,,,,,Auxiliary,,,,,,Manual,,,,Rubber,15 inch,None or Unspecified,None or Unspecified,None or Unspecified,Double,,,,,
1077,1561046,28500,422901,132,27.0,2006,,,10/1/2009 0:00,304CCR,304,C,,CR,Mini,"Hydraulic Excavator, Track - 4.0 to 5.0 Metric Tons",North Carolina,TEX,Track Excavators,,EROPS w AC,,,,,,,,,,,Auxiliary,,,,,,Manual,,,,Rubber,None or Unspecified,None or Unspecified,None or Unspecified,Yes,Double,,,,,
1077,1561051,24000,940670,132,14.0,2007,,,12/11/2009 0:00,304CCR,304,C,,CR,Mini,"Hydraulic Excavator, Track - 4.0 to 5.0 Metric Tons",Indiana,TEX,Track Excavators,,EROPS w AC,,,,,,,,,,,Auxiliary,,,,,,Manual,,,,Steel,None or Unspecified,None or Unspecified,None or Unspecified,Yes,Double,,,,,
1077,1561054,18500,1127533,132,12.0,2006,,,6/23/2010 0:00,304CCR,304,C,,CR,Mini,"Hydraulic Excavator, Track - 4.0 to 5.0 Metric Tons",Mississippi,TEX,Track Excavators,,EROPS,,,,,,,,,,,Standard,,,,,,None or Unspecified,,,,Steel,None or Unspecified,None or Unspecified,None or Unspecified,None or Unspecified,Double,,,,,
1077,1561056,32000,128687,132,99.0,2007,,,7/14/2011 0:00,304CCR,304,C,,CR,Mini,"Hydraulic Excavator, Track - 4.0 to 5.0 Metric Tons",Georgia,TEX,Track Excavators,,EROPS w AC,,,,,,,,,,,Auxiliary,,,,,,None or Unspecified,,,,Rubber,None or Unspecified,None or Unspecified,None or Unspecified,Yes,Double,,,,,
1077,1561068,22000,1058682,132,3.0,2007,,,10/1/2009 0:00,304CCR,304,C,,CR,Mini,"Hydraulic Excavator, Track - 4.0 to 5.0 Metric Tons",California,TEX,Track Excavators,,EROPS,,,,,,,,,,,Auxiliary,,,,,,None or Unspecified,,,,Rubber,None or Unspecified,None or Unspecified,None or Unspecified,None or Unspecified,Double,,,,,
1077,1561078,22000,156814,132,4.0,2008,,,10/6/2010 0:00,304CCR,304,C,,CR,Mini,"Hydraulic Excavator, Track - 4.0 to 5.0 Metric Tons",Georgia,TEX,Track Excavators,,EROPS,,,,,,,,,,,Auxiliary,,,,,,None or Unspecified,,,,Rubber,16 inch,None or Unspecified,None or Unspecified,Yes,Double,,,,,
1077,1561079,27500,156814,132,1.0,2008,2039.0,High,2/18/2011 0:00,304CCR,304,C,,CR,Mini,"Hydraulic Excavator, Track - 4.0 to 5.0 Metric Tons",Florida,TEX,Track Excavators,,EROPS,,,,,,,,,,,Auxiliary,,,,,,None or Unspecified,,,,Rubber,16 inch,None or Unspecified,None or Unspecified,Yes,Double,,,,,
1077,1561080,27500,156814,132,1.0,2008,,,2/15/2011 0:00,304CCR,304,C,,CR,Mini,"Hydraulic Excavator, Track - 4.0 to 5.0 Metric Tons",Florida,TEX,Track Excavators,,EROPS,,,,,,,,,,,Auxiliary,,,,,,None or Unspecified,,,,Rubber,16 inch,None or Unspecified,None or Unspecified,Yes,Double,,,,,
1077,1561081,29000,641405,132,1.0,2008,,,3/8/2011 0:00,304CCR,304,C,,CR,Mini,"Hydraulic Excavator, Track - 4.0 to 5.0 Metric Tons",Washington,TEX,Track Excavators,,EROPS,,,,,,,,,,,Auxiliary,,,,,,None or Unspecified,,,,Rubber,None or Unspecified,None or Unspecified,Hydraulic,Yes,Double,,,,,
1077,1561084,31500,127917,132,4.0,2008,,,2/7/2011 0:00,304CCR,304,C,,CR,Mini,"Hydraulic Excavator, Track - 4.0 to 5.0 Metric Tons",Florida,TEX,Track Excavators,,EROPS,,,,,,,,,,,Standard,,,,,,None or Unspecified,,,,Rubber,None or Unspecified,None or Unspecified,Hydraulic,Yes,Double,,,,,
1077,1561085,31500,127917,132,4.0,2008,,,2/10/2011 0:00,304CCR,304,C,,CR,Mini,"Hydraulic Excavator, Track - 4.0 to 5.0 Metric Tons",Florida,TEX,Track Excavators,,EROPS,,,,,,,,,,,Standard,,,,,,None or Unspecified,,,,Rubber,None or Unspecified,None or Unspecified,Hydraulic,Yes,Double,,,,,
1077,1561086,41000,755697,132,1.0,2008,,,3/4/2011 0:00,304CCR,304,C,,CR,Mini,"Hydraulic Excavator, Track - 4.0 to 5.0 Metric Tons",California,TEX,Track Excavators,,EROPS,,,,,,,,,,,Standard,,,,,,None or Unspecified,,,,Rubber,None or Unspecified,None or Unspecified,Hydraulic,Yes,Double,,,,,
1077,1561089,45000,117206,132,1.0,2009,266.0,Low,3/30/2011 0:00,304CCR,304,C,,CR,Mini,"Hydraulic Excavator, Track - 4.0 to 5.0 Metric Tons",North Carolina,TEX,Track Excavators,,EROPS w AC,,,,,,,,,,,Standard,,,,,,None or Unspecified,,,,Rubber,None or Unspecified,None or Unspecified,None or Unspecified,Yes,Double,,,,,
1077,1561090,39000,128078,132,1.0,2009,,,3/30/2011 0:00,304CCR,304,C,,CR,Mini,"Hydraulic Excavator, Track - 4.0 to 5.0 Metric Tons",North Carolina,TEX,Track Excavators,,EROPS w AC,,,,,,,,,,,Auxiliary,,,,,,None or Unspecified,,,,Rubber,None or Unspecified,None or Unspecified,None or Unspecified,Yes,Double,,,,,
1077,2308183,23500,877883,136,1.0,2006,2459.0,High,3/4/2010 0:00,304CCR,304,C,,CR,Mini,"Hydraulic Excavator, Track - 4.0 to 5.0 Metric Tons",Washington,TEX,Track Excavators,,EROPS w AC,,,,,,,,,,,Auxiliary,,,,,,None or Unspecified,,,,Rubber,None or Unspecified,None or Unspecified,Hydraulic,Yes,Double,,,,,
1077,2308188,23500,879212,136,1.0,2006,1801.0,Medium,3/4/2010 0:00,304CCR,304,C,,CR,Mini,"Hydraulic Excavator, Track - 4.0 to 5.0 Metric Tons",Washington,TEX,Track Excavators,,EROPS w AC,,,,,,,,,,,Auxiliary,,,,,,None or Unspecified,,,,Rubber,None or Unspecified,None or Unspecified,Hydraulic,Yes,Double,,,,,
1077,2308196,27000,790557,136,1.0,2006,745.0,Low,2/16/2009 0:00,304CCR,304,C,,CR,Mini,"Hydraulic Excavator, Track - 4.0 to 5.0 Metric Tons",Florida,TEX,Track Excavators,,EROPS,,,,,,,,,,,Auxiliary,,,,,,None or Unspecified,,,,Rubber,None or Unspecified,None or Unspecified,None or Unspecified,Yes,Double,,,,,
1077,2308199,28000,685097,136,1.0,2006,1474.0,Medium,9/21/2009 0:00,304CCR,304,C,,CR,Mini,"Hydraulic Excavator, Track - 4.0 to 5.0 Metric Tons",Illinois,TEX,Track Excavators,,EROPS w AC,,,,,,,,,,,Auxiliary,,,,,,None or Unspecified,,,,Rubber,None or Unspecified,None or Unspecified,Manual,Yes,Double,,,,,
1077,2308201,18000,144732,136,2.0,2006,0.0,,1/31/2009 0:00,304CCR,304,C,,CR,Mini,"Hydraulic Excavator, Track - 4.0 to 5.0 Metric Tons",Florida,TEX,Track Excavators,,EROPS,,,,,,,,,,,Auxiliary,,,,,,None or Unspecified,,,,Rubber,None or Unspecified,None or Unspecified,None or Unspecified,Yes,Double,,,,,
1077,2308209,29000,991230,136,1.0,2006,1043.0,Medium,11/21/2008 0:00,304CCR,304,C,,CR,Mini,"Hydraulic Excavator, Track - 4.0 to 5.0 Metric Tons",Utah,TEX,Track Excavators,,EROPS,,,,,,,,,,,Auxiliary,,,,,,None or Unspecified,,,,Rubber,None or Unspecified,None or Unspecified,Hydraulic,Yes,Double,,,,,
1077,2308212,19000,756724,136,8.0,2006,0.0,,9/17/2009 0:00,304CCR,304,C,,CR,Mini,"Hydraulic Excavator, Track - 4.0 to 5.0 Metric Tons",Mississippi,TEX,Track Excavators,,EROPS,,,,,,,,,,,Auxiliary,,,,,,None or Unspecified,,,,Rubber,None or Unspecified,None or Unspecified,None or Unspecified,Yes,Double,,,,,
1077,2308215,31000,802288,136,1.0,2006,0.0,,2/16/2009 0:00,304CCR,304,C,,CR,Mini,"Hydraulic Excavator, Track - 4.0 to 5.0 Metric Tons",Florida,TEX,Track Excavators,,EROPS w AC,,,,,,,,,,,Auxiliary,,,,,,None or Unspecified,,,,Rubber,None or Unspecified,None or Unspecified,None or Unspecified,Yes,Double,,,,,
1077,2308229,20000,782290,136,1.0,2006,2849.0,High,2/15/2010 0:00,304CCR,304,C,,CR,Mini,"Hydraulic Excavator, Track - 4.0 to 5.0 Metric Tons",Florida,TEX,Track Excavators,,EROPS,,,,,,,,,,,Auxiliary,,,,,,None or Unspecified,,,,Rubber,None or Unspecified,None or Unspecified,None or Unspecified,Yes,Double,,,,,
1077,2308247,25000,822850,136,1.0,2006,2794.0,High,5/27/2010 0:00,304CCR,304,C,,CR,Mini,"Hydraulic Excavator, Track - 4.0 to 5.0 Metric Tons",New York,TEX,Track Excavators,,EROPS w AC,,,,,,,,,,,Auxiliary,,,,,,None or Unspecified,,,,Rubber,None or Unspecified,None or Unspecified,Manual,Yes,Double,,,,,
1077,2308252,22500,119558,136,1.0,2007,0.0,,12/9/2008 0:00,304CCR,304,C,,CR,Mini,"Hydraulic Excavator, Track - 4.0 to 5.0 Metric Tons",North Carolina,TEX,Track Excavators,,EROPS w AC,,,,,,,,,,,Auxiliary,,,,,,None or Unspecified,,,,Rubber,None or Unspecified,None or Unspecified,Hydraulic,Yes,Double,,,,,
1077,2308258,27000,878946,136,1.0,2007,0.0,,5/27/2010 0:00,304CCR,304,C,,CR,Mini,"Hydraulic Excavator, Track - 4.0 to 5.0 Metric Tons",Washington,TEX,Track Excavators,,EROPS w AC,,,,,,,,,,,Auxiliary,,,,,,Manual,,,,Rubber,None or Unspecified,None or Unspecified,Hydraulic,Yes,Double,,,,,
1077,2308262,36000,252583,136,1.0,2007,0.0,,6/24/2008 0:00,304CCR,304,C,,CR,Mini,"Hydraulic Excavator, Track - 4.0 to 5.0 Metric Tons",North Carolina,TEX,Track Excavators,,EROPS,,,,,,,,,,,Auxiliary,,,,,,Manual,,,,Rubber,None or Unspecified,None or Unspecified,Manual,Yes,Double,,,,,
1077,2308265,27500,673781,136,1.0,2007,1148.0,Medium,9/17/2009 0:00,304CCR,304,C,,CR,Mini,"Hydraulic Excavator, Track - 4.0 to 5.0 Metric Tons",Ohio,TEX,Track Excavators,,EROPS w AC,,,,,,,,,,,Auxiliary,,,,,,None or Unspecified,,,,Rubber,None or Unspecified,None or Unspecified,Manual,Yes,Double,,,,,
1077,2308266,30000,786009,136,1.0,2007,654.0,Medium,5/27/2009 0:00,304CCR,304,C,,CR,Mini,"Hydraulic Excavator, Track - 4.0 to 5.0 Metric Tons",Florida,TEX,Track Excavators,,EROPS,,,,,,,,,,,Auxiliary,,,,,,None or Unspecified,,,,Rubber,None or Unspecified,None or Unspecified,None or Unspecified,Yes,Double,,,,,
1077,2308268,24000,1156386,136,1.0,2007,1734.0,Medium,2/15/2010 0:00,304CCR,304,C,,CR,Mini,"Hydraulic Excavator, Track - 4.0 to 5.0 Metric Tons",Florida,TEX,Track Excavators,,EROPS,,,,,,,,,,,Auxiliary,,,,,,None or Unspecified,,,,Steel,None or Unspecified,None or Unspecified,None or Unspecified,None or Unspecified,Double,,,,,
1077,2591763,22500,652035,149,1.0,2006,0.0,,3/8/2011 0:00,304CCR,304,C,,CR,Mini,"Hydraulic Excavator, Track - 4.0 to 5.0 Metric Tons",Washington,TEX,Track Excavators,,EROPS,,,,,,,,,,,Auxiliary,,,,,,Manual,,,,Rubber,None or Unspecified,None or Unspecified,Hydraulic,Yes,Double,,,,,
1077,2592008,45000,117206,149,99.0,2009,266.0,Low,4/16/2011 0:00,304CCR,304,C,,CR,Mini,"Hydraulic Excavator, Track - 4.0 to 5.0 Metric Tons",Iowa,TEX,Track Excavators,,EROPS w AC,,,,,,,,,,,Standard,,,,,,None or Unspecified,,,,Rubber,None or Unspecified,None or Unspecified,None or Unspecified,Yes,Double,,,,,
1077,2592009,41000,128078,149,99.0,2009,320.0,Low,4/16/2011 0:00,304CCR,304,C,,CR,Mini,"Hydraulic Excavator, Track - 4.0 to 5.0 Metric Tons",Iowa,TEX,Track Excavators,,EROPS w AC,,,,,,,,,,,Auxiliary,,,,,,None or Unspecified,,,,Rubber,None or Unspecified,None or Unspecified,None or Unspecified,Yes,Double,,,,,
1077,4299163,27000,739210,172,1.0,2006,704.0,Low,9/14/2010 0:00,304CCR,304,C,,CR,Mini,"Hydraulic Excavator, Track - 4.0 to 5.0 Metric Tons",California,TEX,Track Excavators,,EROPS,,,,,,,,,,,Auxiliary,,,,,,None or Unspecified,,,,Rubber,None or Unspecified,None or Unspecified,None or Unspecified,Yes,Double,,,,,
1077,4299165,19500,764474,172,1.0,2006,2137.0,Medium,10/27/2010 0:00,304CCR,304,C,,CR,Mini,"Hydraulic Excavator, Track - 4.0 to 5.0 Metric Tons",Florida,TEX,Track Excavators,,EROPS,,,,,,,,,,,Auxiliary,,,,,,None or Unspecified,,,,Rubber,None or Unspecified,None or Unspecified,None or Unspecified,Yes,Double,,,,,
1077,4299170,20500,713589,172,1.0,2006,2260.0,High,9/16/2009 0:00,304CCR,304,C,,CR,Mini,"Hydraulic Excavator, Track - 4.0 to 5.0 Metric Tons",Washington,TEX,Track Excavators,,EROPS,,,,,,,,,,,Auxiliary,,,,,,Manual,,,,Rubber,None or Unspecified,None or Unspecified,Hydraulic,Yes,Double,,,,,
1077,4299172,27000,905444,172,1.0,2006,1429.0,Medium,9/10/2010 0:00,304CCR,304,C,,CR,Mini,"Hydraulic Excavator, Track - 4.0 to 5.0 Metric Tons",Indiana,TEX,Track Excavators,,EROPS w AC,,,,,,,,,,,Auxiliary,,,,,,Manual,,,,Rubber,None or Unspecified,None or Unspecified,Manual,Yes,Double,,,,,
1077,4299176,27000,878309,172,1.0,2007,3420.0,High,5/27/2010 0:00,304CCR,304,C,,CR,Mini,"Hydraulic Excavator, Track - 4.0 to 5.0 Metric Tons",Washington,TEX,Track Excavators,,EROPS w AC,,,,,,,,,,,Auxiliary,,,,,,None or Unspecified,,,,Rubber,None or Unspecified,None or Unspecified,Hydraulic,Yes,Double,,,,,
1077,4299181,25000,878258,172,1.0,2007,1410.0,High,6/17/2009 0:00,304CCR,304,C,,CR,Mini,"Hydraulic Excavator, Track - 4.0 to 5.0 Metric Tons",Washington,TEX,Track Excavators,,EROPS w AC,,,,,,,,,,,Auxiliary,,,,,,Manual,,,,Rubber,None or Unspecified,None or Unspecified,Hydraulic,Yes,Double,,,,,
1077,4299185,30000,879260,172,1.0,2007,205.0,Low,6/17/2009 0:00,304CCR,304,C,,CR,Mini,"Hydraulic Excavator, Track - 4.0 to 5.0 Metric Tons",Washington,TEX,Track Excavators,,EROPS,,,,,,,,,,,Auxiliary,,,,,,Manual,,,,Rubber,None or Unspecified,None or Unspecified,Hydraulic,Yes,Double,,,,,
1077,4299190,24000,2299854,172,1.0,2007,2040.0,High,12/6/2011 0:00,304CCR,304,C,,CR,Mini,"Hydraulic Excavator, Track - 4.0 to 5.0 Metric Tons",Georgia,TEX,Track Excavators,,EROPS w AC,,,,,,,,,,,Auxiliary,,,,,,None or Unspecified,,,,Rubber,None or Unspecified,None or Unspecified,Hydraulic,None or Unspecified,Double,,,,,
1077,4299197,35000,2299854,172,1.0,2008,863.0,Medium,12/19/2011 0:00,304CCR,304,C,,CR,Mini,"Hydraulic Excavator, Track - 4.0 to 5.0 Metric Tons",Washington,TEX,Track Excavators,,EROPS w AC,,,,,,,,,,,Auxiliary,,,,,,None or Unspecified,,,,Rubber,None or Unspecified,None or Unspecified,Hydraulic,None or Unspecified,Double,,,,,
1077,4299201,29000,2299854,172,1.0,2007,824.0,Low,10/17/2011 0:00,304CCR,304,C,,CR,Mini,"Hydraulic Excavator, Track - 4.0 to 5.0 Metric Tons",Maryland,TEX,Track Excavators,,EROPS w AC,,,,,,,,,,,Auxiliary,,,,,,None or Unspecified,,,,Rubber,None or Unspecified,None or Unspecified,Hydraulic,None or Unspecified,Double,,,,,
1077,4299203,21000,2299854,172,1.0,2007,3933.0,High,9/20/2011 0:00,304CCR,304,C,,CR,Mini,"Hydraulic Excavator, Track - 4.0 to 5.0 Metric Tons",Washington,TEX,Track Excavators,,EROPS w AC,,,,,,,,,,,Auxiliary,,,,,,None or Unspecified,,,,Rubber,None or Unspecified,None or Unspecified,Hydraulic,None or Unspecified,Double,,,,,
1077,4299205,48000,2299854,172,1.0,2008,141.0,Low,9/28/2011 0:00,304CCR,304,C,,CR,Mini,"Hydraulic Excavator, Track - 4.0 to 5.0 Metric Tons",Tennessee,TEX,Track Excavators,,EROPS w AC,,,,,,,,,,,Auxiliary,,,,,,None or Unspecified,,,,Rubber,None or Unspecified,None or Unspecified,Hydraulic,None or Unspecified,Double,,,,,
1077,6276706,24000,147742,149,1.0,2006,,,12/7/2011 0:00,304CCR,304,C,,CR,Mini,"Hydraulic Excavator, Track - 4.0 to 5.0 Metric Tons",Georgia,TEX,Track Excavators,,EROPS,,,,,,,,,,,Auxiliary,,,,,,None or Unspecified,,,,Rubber,None or Unspecified,None or Unspecified,Manual,Yes,Double,,,,,
1077,6276714,24000,221780,149,1.0,2007,,,10/18/2011 0:00,304CCR,304,C,,CR,Mini,"Hydraulic Excavator, Track - 4.0 to 5.0 Metric Tons",Maryland,TEX,Track Excavators,,EROPS w AC,,,,,,,,,,,Auxiliary,,,,,,None or Unspecified,,,,Rubber,None or Unspecified,None or Unspecified,None or Unspecified,Yes,Double,,,,,
1077,6276722,21000,715057,149,1.0,2007,,,9/21/2011 0:00,304CCR,304,C,,CR,Mini,"Hydraulic Excavator, Track - 4.0 to 5.0 Metric Tons",Washington,TEX,Track Excavators,,EROPS,,,,,,,,,,,Auxiliary,,,,,,None or Unspecified,,,,Rubber,None or Unspecified,None or Unspecified,Manual,Yes,Double,,,,,
1077,6276725,24000,130921,149,1.0,2007,,,12/7/2011 0:00,304CCR,304,C,,CR,Mini,"Hydraulic Excavator, Track - 4.0 to 5.0 Metric Tons",Georgia,TEX,Track Excavators,,EROPS,,,,,,,,,,,Auxiliary,,,,,,None or Unspecified,,,,Rubber,None or Unspecified,None or Unspecified,Manual,Yes,Double,,,,,
1077,6276726,30500,285947,149,99.0,2007,,,12/28/2011 0:00,304CCR,304,C,,CR,Mini,"Hydraulic Excavator, Track - 4.0 to 5.0 Metric Tons",Oklahoma,TEX,Track Excavators,,EROPS w AC,,,,,,,,,,,Auxiliary,,,,,,None or Unspecified,,,,Rubber,16 inch,None or Unspecified,Manual,Yes,Double,,,,,
1077,6276727,28500,285947,149,2.0,2007,,,6/29/2011 0:00,304CCR,304,C,,CR,Mini,"Hydraulic Excavator, Track - 4.0 to 5.0 Metric Tons",Missouri,TEX,Track Excavators,,EROPS w AC,,,,,,,,,,,Auxiliary,,,,,,None or Unspecified,,,,Rubber,16 inch,None or Unspecified,Manual,Yes,Double,,,,,
1077,6276729,29000,634740,149,1.0,2007,,,10/18/2011 0:00,304CCR,304,C,,CR,Mini,"Hydraulic Excavator, Track - 4.0 to 5.0 Metric Tons",Maryland,TEX,Track Excavators,,EROPS,,,,,,,,,,,Auxiliary,,,,,,Manual,,,,Rubber,16 inch,None or Unspecified,Hydraulic,Yes,Double,,,,,
1077,6276730,26000,1928196,149,1.0,2007,,,12/20/2011 0:00,304CCR,304,C,,CR,Mini,"Hydraulic Excavator, Track - 4.0 to 5.0 Metric Tons",Washington,TEX,Track Excavators,,EROPS w AC,,,,,,,,,,,Auxiliary,,,,,,Manual,,,,Rubber,None or Unspecified,None or Unspecified,Hydraulic,Yes,Double,,,,,
1077,6276734,24000,22247,149,1.0,2007,,,12/7/2011 0:00,304CCR,304,C,,CR,Mini,"Hydraulic Excavator, Track - 4.0 to 5.0 Metric Tons",Georgia,TEX,Track Excavators,,EROPS,,,,,,,,,,,Auxiliary,,,,,,None or Unspecified,,,,Rubber,None or Unspecified,None or Unspecified,None or Unspecified,Yes,Double,,,,,
1077,6276736,48000,883246,149,1.0,2008,,,9/29/2011 0:00,304CCR,304,C,,CR,Mini,"Hydraulic Excavator, Track - 4.0 to 5.0 Metric Tons",Tennessee,TEX,Track Excavators,,EROPS,,,,,,,,,,,Standard,,,,,,Manual,,,,Steel,None or Unspecified,None or Unspecified,Hydraulic,None or Unspecified,Double,,,,,
1077,6276738,35000,713750,149,1.0,2008,,,12/20/2011 0:00,304CCR,304,C,,CR,Mini,"Hydraulic Excavator, Track - 4.0 to 5.0 Metric Tons",Washington,TEX,Track Excavators,,EROPS,,,,,,,,,,,Auxiliary,,,,,,None or Unspecified,,,,Rubber,None or Unspecified,None or Unspecified,Hydraulic,Yes,Double,,,,,
1077,6276739,35000,702216,149,1.0,2008,,,12/20/2011 0:00,304CCR,304,C,,CR,Mini,"Hydraulic Excavator, Track - 4.0 to 5.0 Metric Tons",Washington,TEX,Track Excavators,,EROPS,,,,,,,,,,,Standard,,,,,,None or Unspecified,,,,Rubber,None or Unspecified,None or Unspecified,Hydraulic,Yes,Double,,,,,
1077,6276742,34000,385047,149,2.0,2008,,,6/29/2011 0:00,304CCR,304,C,,CR,Mini,"Hydraulic Excavator, Track - 4.0 to 5.0 Metric Tons",Missouri,TEX,Track Excavators,,EROPS,,,,,,,,,,,Standard,,,,,,None or Unspecified,,,,Rubber,None or Unspecified,None or Unspecified,None or Unspecified,Yes,Double,,,,,
