ModelID,SalesID,SalePrice,MachineID,datasource,auctioneerID,YearMade,MachineHoursCurrentMeter,UsageBand,saledate,fiModelDesc,fiBaseModel,fiSecondaryDesc,fiModelSeries,fiModelDescriptor,ProductSize,fiProductClassDesc,state,ProductGroup,ProductGroupDesc,Drive_System,Enclosure,Forks,Pad_Type,Ride_Control,Stick,Transmission,Turbocharged,Blade_Extension,Blade_Width,Enclosure_Type,Engine_Horsepower,Hydraulics,Pushblock,Ripper,Scarifier,Tip_Control,Tire_Size,Coupler,Coupler_System,Grouser_Tracks,Hydraulics_Flow,Track_Type,Undercarriage_Pad_Width,Stick_Length,Thumb,Pattern_Changer,Grouser_Type,Backhoe_Mounting,Blade_Type,Travel_Controls,Differential_Type,Steering_Controls
10913,1152224,13500,240775,121,3.0,2001,1974.0,High,6/3/2004 0:00,TL126,TL126,,,,,Skid Steer Loader - 2201.0 to 2701.0 Lb Operating Capacity,Iowa,SSL,Skid Steer Loaders,,OROPS,None or Unspecified,,,,,,,,,,Standard,,,,,,None or Unspecified,None or Unspecified,Yes,Standard,,,,,,,,,,,
10913,1160404,12000,1018293,121,3.0,1999,2132.0,Medium,5/4/2006 0:00,TL126,TL126,,,,,Skid Steer Loader - 2201.0 to 2701.0 Lb Operating Capacity,Ohio,SSL,Skid Steer Loaders,,OROPS,None or Unspecified,,,,,,,,,,Auxiliary,,,,,,None or Unspecified,None or Unspecified,Yes,Standard,,,,,,,,,,,
10913,1164477,18500,698576,121,3.0,2001,534.0,Low,2/26/2004 0:00,TL126,TL126,,,,,Skid Steer Loader - 2201.0 to 2701.0 Lb Operating Capacity,Illinois,SSL,Skid Steer Loaders,,OROPS,None or Unspecified,,,,,,,,,,Standard,,,,,,None or Unspecified,None or Unspecified,Yes,Standard,,,,,,,,,,,
10913,1180478,8500,1056871,121,3.0,2000,2697.0,Medium,6/26/2008 0:00,TL126,TL126,,,,,Skid Steer Loader - 2201.0 to 2701.0 Lb Operating Capacity,Oklahoma,SSL,Skid Steer Loaders,,OROPS,None or Unspecified,,,,,,,,,,Standard,,,,,,None or Unspecified,None or Unspecified,Yes,Standard,,,,,,,,,,,
10913,1882771,14000,1346730,132,1.0,2001,,,4/4/2006 0:00,TL126,TL126,,,,,Skid Steer Loader - 2201.0 to 2701.0 Lb Operating Capacity,Maryland,SSL,Skid Steer Loaders,,OROPS,None or Unspecified,,,,,,,,,,Standard,,,,,,None or Unspecified,None or Unspecified,None or Unspecified,Standard,,,,,,,,,,,
10913,1883636,10500,1278308,132,1.0,1999,,,6/21/2006 0:00,TL126,TL126,,,,,Skid Steer Loader - 2201.0 to 2701.0 Lb Operating Capacity,Maryland,SSL,Skid Steer Loaders,,OROPS,None or Unspecified,,,,,,,,,,Standard,,,,,,None or Unspecified,None or Unspecified,None or Unspecified,Standard,,,,,,,,,,,
10913,1883637,8500,1435825,132,1.0,2000,,,9/20/2005 0:00,TL126,TL126,,,,,Skid Steer Loader - 2201.0 to 2701.0 Lb Operating Capacity,Illinois,SSL,Skid Steer Loaders,,OROPS,None or Unspecified,,,,,,,,,,Standard,,,,,,None or Unspecified,None or Unspecified,None or Unspecified,Standard,,,,,,,,,,,
10913,1885246,11000,1381288,132,1.0,2001,,,5/28/2008 0:00,TL126,TL126,,,,,Skid Steer Loader - 2201.0 to 2701.0 Lb Operating Capacity,Florida,SSL,Skid Steer Loaders,,OROPS,None or Unspecified,,,,,,,,,,Standard,,,,,,None or Unspecified,None or Unspecified,None or Unspecified,Standard,,,,,,,,,,,
10913,1885247,12500,1210052,132,1.0,1999,,,2/23/2007 0:00,TL126,TL126,,,,,Skid Steer Loader - 2201.0 to 2701.0 Lb Operating Capacity,Florida,SSL,Skid Steer Loaders,,OROPS,None or Unspecified,,,,,,,,,,Standard,,,,,,None or Unspecified,None or Unspecified,None or Unspecified,Standard,,,,,,,,,,,
10913,1885248,12500,1210052,132,1.0,1999,,,2/20/2007 0:00,TL126,TL126,,,,,Skid Steer Loader - 2201.0 to 2701.0 Lb Operating Capacity,Florida,SSL,Skid Steer Loaders,,OROPS,None or Unspecified,,,,,,,,,,Standard,,,,,,None or Unspecified,None or Unspecified,None or Unspecified,Standard,,,,,,,,,,,
10913,1885250,8000,1408776,132,1.0,2001,,,9/22/2006 0:00,TL126,TL126,,,,,Skid Steer Loader - 2201.0 to 2701.0 Lb Operating Capacity,Arizona,SSL,Skid Steer Loaders,,OROPS,None or Unspecified,,,,,,,,,,Standard,,,,,,None or Unspecified,None or Unspecified,None or Unspecified,Standard,,,,,,,,,,,
10913,1885251,14500,1213917,132,1.0,1999,,,11/18/2004 0:00,TL126,TL126,,,,,Skid Steer Loader - 2201.0 to 2701.0 Lb Operating Capacity,Georgia,SSL,Skid Steer Loaders,,OROPS,None or Unspecified,,,,,,,,,,Standard,,,,,,None or Unspecified,None or Unspecified,None or Unspecified,Standard,,,,,,,,,,,
10913,1885252,18000,1549350,132,4.0,1999,,,2/11/2002 0:00,TL126,TL126,,,,,Skid Steer Loader - 2201.0 to 2701.0 Lb Operating Capacity,Florida,SSL,Skid Steer Loaders,,OROPS,None or Unspecified,,,,,,,,,,Standard,,,,,,None or Unspecified,None or Unspecified,None or Unspecified,Standard,,,,,,,,,,,
10913,1885253,11500,1431692,132,2.0,2001,,,3/28/2007 0:00,TL126,TL126,,,,,Skid Steer Loader - 2201.0 to 2701.0 Lb Operating Capacity,Texas,SSL,Skid Steer Loaders,,OROPS,None or Unspecified,,,,,,,,,,Standard,,,,,,None or Unspecified,None or Unspecified,None or Unspecified,Standard,,,,,,,,,,,
10913,1885254,10750,1431692,132,2.0,2001,,,2/28/2007 0:00,TL126,TL126,,,,,Skid Steer Loader - 2201.0 to 2701.0 Lb Operating Capacity,Texas,SSL,Skid Steer Loaders,,OROPS,None or Unspecified,,,,,,,,,,Standard,,,,,,None or Unspecified,None or Unspecified,None or Unspecified,Standard,,,,,,,,,,,
10913,1885256,10000,1482184,132,1.0,1999,,,4/3/2003 0:00,TL126,TL126,,,,,Skid Steer Loader - 2201.0 to 2701.0 Lb Operating Capacity,Georgia,SSL,Skid Steer Loaders,,OROPS,None or Unspecified,,,,,,,,,,Standard,,,,,,None or Unspecified,None or Unspecified,None or Unspecified,Standard,,,,,,,,,,,
10913,1885257,12000,1115298,132,1.0,1999,,,2/20/2007 0:00,TL126,TL126,,,,,Skid Steer Loader - 2201.0 to 2701.0 Lb Operating Capacity,Florida,SSL,Skid Steer Loaders,,OROPS,None or Unspecified,,,,,,,,,,Standard,,,,,,None or Unspecified,None or Unspecified,None or Unspecified,Standard,,,,,,,,,,,
10913,1885258,12000,1115298,132,1.0,1999,,,2/23/2007 0:00,TL126,TL126,,,,,Skid Steer Loader - 2201.0 to 2701.0 Lb Operating Capacity,Florida,SSL,Skid Steer Loaders,,OROPS,None or Unspecified,,,,,,,,,,Standard,,,,,,None or Unspecified,None or Unspecified,None or Unspecified,Standard,,,,,,,,,,,
10913,1885259,16500,1538188,132,1.0,1999,,,9/26/2002 0:00,TL126,TL126,,,,,Skid Steer Loader - 2201.0 to 2701.0 Lb Operating Capacity,Illinois,SSL,Skid Steer Loaders,,OROPS,None or Unspecified,,,,,,,,,,Standard,,,,,,None or Unspecified,None or Unspecified,None or Unspecified,Standard,,,,,,,,,,,
10913,1885260,16500,1368299,132,1.0,1999,,,9/9/2003 0:00,TL126,TL126,,,,,Skid Steer Loader - 2201.0 to 2701.0 Lb Operating Capacity,Illinois,SSL,Skid Steer Loaders,,OROPS,None or Unspecified,,,,,,,,,,Standard,,,,,,None or Unspecified,None or Unspecified,None or Unspecified,Standard,,,,,,,,,,,
10913,1885261,12000,1501528,132,1.0,1999,,,8/14/2002 0:00,TL126,TL126,,,,,Skid Steer Loader - 2201.0 to 2701.0 Lb Operating Capacity,Texas,SSL,Skid Steer Loaders,,OROPS,None or Unspecified,,,,,,,,,,Standard,,,,,,None or Unspecified,None or Unspecified,None or Unspecified,Standard,,,,,,,,,,,
10913,1885262,8000,1501528,132,1.0,1999,,,3/16/2006 0:00,TL126,TL126,,,,,Skid Steer Loader - 2201.0 to 2701.0 Lb Operating Capacity,Colorado,SSL,Skid Steer Loaders,,OROPS,None or Unspecified,,,,,,,,,,Standard,,,,,,None or Unspecified,None or Unspecified,None or Unspecified,Standard,,,,,,,,,,,
10913,1885263,11500,1455064,132,2.0,1999,,,1/30/2005 0:00,TL126,TL126,,,,,Skid Steer Loader - 2201.0 to 2701.0 Lb Operating Capacity,Florida,SSL,Skid Steer Loaders,,OROPS,None or Unspecified,,,,,,,,,,Standard,,,,,,None or Unspecified,None or Unspecified,None or Unspecified,Standard,,,,,,,,,,,
10913,1885264,11500,1455064,132,2.0,1999,,,2/2/2005 0:00,TL126,TL126,,,,,Skid Steer Loader - 2201.0 to 2701.0 Lb Operating Capacity,Florida,SSL,Skid Steer Loaders,,OROPS,None or Unspecified,,,,,,,,,,Standard,,,,,,None or Unspecified,None or Unspecified,None or Unspecified,Standard,,,,,,,,,,,
10913,1885265,8000,1455064,132,1.0,1999,,,10/14/2004 0:00,TL126,TL126,,,,,Skid Steer Loader - 2201.0 to 2701.0 Lb Operating Capacity,Florida,SSL,Skid Steer Loaders,,OROPS,None or Unspecified,,,,,,,,,,Standard,,,,,,None or Unspecified,None or Unspecified,None or Unspecified,Standard,,,,,,,,,,,
10913,1885266,8500,1224424,132,1.0,1999,,,9/20/2005 0:00,TL126,TL126,,,,,Skid Steer Loader - 2201.0 to 2701.0 Lb Operating Capacity,Illinois,SSL,Skid Steer Loaders,,OROPS,None or Unspecified,,,,,,,,,,Standard,,,,,,None or Unspecified,None or Unspecified,None or Unspecified,Standard,,,,,,,,,,,
10913,1885267,13500,1311062,132,1.0,1999,,,9/22/2005 0:00,TL126,TL126,,,,,Skid Steer Loader - 2201.0 to 2701.0 Lb Operating Capacity,Washington,SSL,Skid Steer Loaders,,OROPS,None or Unspecified,,,,,,,,,,Standard,,,,,,None or Unspecified,None or Unspecified,None or Unspecified,Standard,,,,,,,,,,,
10913,1885268,8500,1519982,132,12.0,2000,,,9/24/2008 0:00,TL126,TL126,,,,,Skid Steer Loader - 2201.0 to 2701.0 Lb Operating Capacity,South Carolina,SSL,Skid Steer Loaders,,OROPS,None or Unspecified,,,,,,,,,,Standard,,,,,,None or Unspecified,None or Unspecified,None or Unspecified,Standard,,,,,,,,,,,
10913,1885269,12000,1519982,132,99.0,2000,,,10/3/2009 0:00,TL126,TL126,,,,,Skid Steer Loader - 2201.0 to 2701.0 Lb Operating Capacity,New York,SSL,Skid Steer Loaders,,OROPS,None or Unspecified,,,,,,,,,,Standard,,,,,,None or Unspecified,None or Unspecified,None or Unspecified,Standard,,,,,,,,,,,
10913,1885270,15000,1519982,132,1.0,1999,,,2/15/2005 0:00,TL126,TL126,,,,,Skid Steer Loader - 2201.0 to 2701.0 Lb Operating Capacity,Florida,SSL,Skid Steer Loaders,,OROPS,None or Unspecified,,,,,,,,,,Standard,,,,,,None or Unspecified,None or Unspecified,None or Unspecified,Standard,,,,,,,,,,,
10913,1885271,8500,1519982,132,99.0,2000,2164.0,Medium,8/13/2009 0:00,TL126,TL126,,,,,Skid Steer Loader - 2201.0 to 2701.0 Lb Operating Capacity,New York,SSL,Skid Steer Loaders,,OROPS,None or Unspecified,,,,,,,,,,Standard,,,,,,None or Unspecified,None or Unspecified,None or Unspecified,Standard,,,,,,,,,,,
10913,1885272,12000,1519982,132,1.0,1999,,,3/22/2007 0:00,TL126,TL126,,,,,Skid Steer Loader - 2201.0 to 2701.0 Lb Operating Capacity,Tennessee,SSL,Skid Steer Loaders,,OROPS,None or Unspecified,,,,,,,,,,Standard,,,,,,None or Unspecified,None or Unspecified,None or Unspecified,Standard,,,,,,,,,,,
10913,1885273,7750,1519982,132,7.0,2000,,,6/4/2008 0:00,TL126,TL126,,,,,Skid Steer Loader - 2201.0 to 2701.0 Lb Operating Capacity,Alabama,SSL,Skid Steer Loaders,,OROPS,None or Unspecified,,,,,,,,,,Standard,,,,,,None or Unspecified,None or Unspecified,None or Unspecified,Standard,,,,,,,,,,,
10913,1885274,13000,1096878,132,2.0,2000,,,2/8/2006 0:00,TL126,TL126,,,,,Skid Steer Loader - 2201.0 to 2701.0 Lb Operating Capacity,Florida,SSL,Skid Steer Loaders,,OROPS,None or Unspecified,,,,,,,,,,Standard,,,,,,None or Unspecified,None or Unspecified,None or Unspecified,Standard,,,,,,,,,,,
10913,1885276,10500,1227677,132,1.0,1999,,,3/27/2007 0:00,TL126,TL126,,,,,Skid Steer Loader - 2201.0 to 2701.0 Lb Operating Capacity,Georgia,SSL,Skid Steer Loaders,,OROPS,None or Unspecified,,,,,,,,,,Standard,,,,,,None or Unspecified,None or Unspecified,None or Unspecified,Standard,,,,,,,,,,,
10913,1885277,6500,1155612,132,2.0,2000,,,1/13/2007 0:00,TL126,TL126,,,,,Skid Steer Loader - 2201.0 to 2701.0 Lb Operating Capacity,Ohio,SSL,Skid Steer Loaders,,OROPS,None or Unspecified,,,,,,,,,,Standard,,,,,,None or Unspecified,None or Unspecified,None or Unspecified,Standard,,,,,,,,,,,
10913,1885278,5200,1124662,132,14.0,2000,,,9/17/2010 0:00,TL126,TL126,,,,,Skid Steer Loader - 2201.0 to 2701.0 Lb Operating Capacity,Indiana,SSL,Skid Steer Loaders,,OROPS,None or Unspecified,,,,,,,,,,Standard,,,,,,None or Unspecified,None or Unspecified,None or Unspecified,Standard,,,,,,,,,,,
10913,1885279,15000,1489312,132,1.0,2000,,,9/29/2005 0:00,TL126,TL126,,,,,Skid Steer Loader - 2201.0 to 2701.0 Lb Operating Capacity,Texas,SSL,Skid Steer Loaders,,OROPS,None or Unspecified,,,,,,,,,,Standard,,,,,,None or Unspecified,None or Unspecified,None or Unspecified,Standard,,,,,,,,,,,
10913,1885280,9000,1500540,132,1.0,1999,,,6/25/2008 0:00,TL126,TL126,,,,,Skid Steer Loader - 2201.0 to 2701.0 Lb Operating Capacity,Maryland,SSL,Skid Steer Loaders,,OROPS,None or Unspecified,,,,,,,,,,Standard,,,,,,None or Unspecified,None or Unspecified,None or Unspecified,Standard,,,,,,,,,,,
10913,1885281,9000,1206711,132,14.0,2000,,,3/21/2008 0:00,TL126,TL126,,,,,Skid Steer Loader - 2201.0 to 2701.0 Lb Operating Capacity,Indiana,SSL,Skid Steer Loaders,,OROPS,None or Unspecified,,,,,,,,,,Standard,,,,,,None or Unspecified,None or Unspecified,None or Unspecified,Standard,,,,,,,,,,,
10913,1885282,13000,1504558,132,1.0,1999,,,4/2/2008 0:00,TL126,TL126,,,,,Skid Steer Loader - 2201.0 to 2701.0 Lb Operating Capacity,Maryland,SSL,Skid Steer Loaders,,OROPS,None or Unspecified,,,,,,,,,,Standard,,,,,,None or Unspecified,None or Unspecified,Yes,Standard,,,,,,,,,,,
10913,1885283,11000,1402664,132,1.0,1999,,,3/28/2007 0:00,TL126,TL126,,,,,Skid Steer Loader - 2201.0 to 2701.0 Lb Operating Capacity,Missouri,SSL,Skid Steer Loaders,,OROPS,None or Unspecified,,,,,,,,,,Standard,,,,,,None or Unspecified,None or Unspecified,None or Unspecified,Standard,,,,,,,,,,,
10913,1885284,12000,1297152,132,2.0,1000,,,9/29/2004 0:00,TL126,TL126,,,,,Skid Steer Loader - 2201.0 to 2701.0 Lb Operating Capacity,Florida,SSL,Skid Steer Loaders,,OROPS,None or Unspecified,,,,,,,,,,Auxiliary,,,,,,None or Unspecified,None or Unspecified,Yes,Standard,,,,,,,,,,,
10913,1885285,10000,1320089,132,1.0,2000,,,3/27/2007 0:00,TL126,TL126,,,,,Skid Steer Loader - 2201.0 to 2701.0 Lb Operating Capacity,Georgia,SSL,Skid Steer Loaders,,OROPS,None or Unspecified,,,,,,,,,,Standard,,,,,,None or Unspecified,None or Unspecified,None or Unspecified,Standard,,,,,,,,,,,
10913,1885286,15000,1180928,132,1.0,1997,,,10/11/2002 0:00,TL126,TL126,,,,,Skid Steer Loader - 2201.0 to 2701.0 Lb Operating Capacity,Minnesota,SSL,Skid Steer Loaders,,OROPS,None or Unspecified,,,,,,,,,,Standard,,,,,,None or Unspecified,None or Unspecified,None or Unspecified,Standard,,,,,,,,,,,
10913,1885287,11000,1271639,132,1.0,2000,,,10/5/2005 0:00,TL126,TL126,,,,,Skid Steer Loader - 2201.0 to 2701.0 Lb Operating Capacity,Maryland,SSL,Skid Steer Loaders,,OROPS,None or Unspecified,,,,,,,,,,Auxiliary,,,,,,None or Unspecified,None or Unspecified,Yes,Standard,,,,,,,,,,,
10913,1885288,9000,1271639,132,1.0,1999,,,10/4/2006 0:00,TL126,TL126,,,,,Skid Steer Loader - 2201.0 to 2701.0 Lb Operating Capacity,Maryland,SSL,Skid Steer Loaders,,OROPS,None or Unspecified,,,,,,,,,,Auxiliary,,,,,,None or Unspecified,None or Unspecified,Yes,Standard,,,,,,,,,,,
10913,1885289,9000,1334089,132,1.0,2000,,,6/25/2008 0:00,TL126,TL126,,,,,Skid Steer Loader - 2201.0 to 2701.0 Lb Operating Capacity,Maryland,SSL,Skid Steer Loaders,,OROPS,None or Unspecified,,,,,,,,,,Standard,,,,,,None or Unspecified,None or Unspecified,None or Unspecified,Standard,,,,,,,,,,,
10913,1885290,13000,1091998,132,1.0,1999,,,2/24/2006 0:00,TL126,TL126,,,,,Skid Steer Loader - 2201.0 to 2701.0 Lb Operating Capacity,Florida,SSL,Skid Steer Loaders,,OROPS,None or Unspecified,,,,,,,,,,Standard,,,,,,None or Unspecified,None or Unspecified,None or Unspecified,Standard,,,,,,,,,,,
10913,1885291,11000,1269824,132,2.0,2001,,,12/9/2005 0:00,TL126,TL126,,,,,Skid Steer Loader - 2201.0 to 2701.0 Lb Operating Capacity,Pennsylvania,SSL,Skid Steer Loaders,,OROPS,None or Unspecified,,,,,,,,,,Standard,,,,,,None or Unspecified,None or Unspecified,None or Unspecified,Standard,,,,,,,,,,,
10913,1885292,9250,1217013,132,2.0,2000,,,5/24/2006 0:00,TL126,TL126,,,,,Skid Steer Loader - 2201.0 to 2701.0 Lb Operating Capacity,Florida,SSL,Skid Steer Loaders,,OROPS,None or Unspecified,,,,,,,,,,Standard,,,,,,None or Unspecified,None or Unspecified,None or Unspecified,Standard,,,,,,,,,,,
10913,1885293,14500,1341633,132,1.0,1999,,,5/27/2004 0:00,TL126,TL126,,,,,Skid Steer Loader - 2201.0 to 2701.0 Lb Operating Capacity,Florida,SSL,Skid Steer Loaders,,OROPS,None or Unspecified,,,,,,,,,,Standard,,,,,,None or Unspecified,None or Unspecified,None or Unspecified,Standard,,,,,,,,,,,
10913,1885295,13500,1558260,132,2.0,1999,,,1/30/2005 0:00,TL126,TL126,,,,,Skid Steer Loader - 2201.0 to 2701.0 Lb Operating Capacity,Florida,SSL,Skid Steer Loaders,,OROPS,None or Unspecified,,,,,,,,,,Standard,,,,,,None or Unspecified,None or Unspecified,None or Unspecified,Standard,,,,,,,,,,,
10913,1885296,14000,1491129,132,1.0,2000,,,9/20/2006 0:00,TL126,TL126,,,,,Skid Steer Loader - 2201.0 to 2701.0 Lb Operating Capacity,Washington,SSL,Skid Steer Loaders,,OROPS,None or Unspecified,,,,,,,,,,Standard,,,,,,None or Unspecified,None or Unspecified,None or Unspecified,Standard,,,,,,,,,,,
10913,1885297,14000,1350602,132,1.0,1999,,,9/22/2005 0:00,TL126,TL126,,,,,Skid Steer Loader - 2201.0 to 2701.0 Lb Operating Capacity,Washington,SSL,Skid Steer Loaders,,OROPS,None or Unspecified,,,,,,,,,,Standard,,,,,,None or Unspecified,None or Unspecified,None or Unspecified,Standard,,,,,,,,,,,
10913,1885298,13000,1189869,132,2.0,1000,,,5/9/2006 0:00,TL126,TL126,,,,,Skid Steer Loader - 2201.0 to 2701.0 Lb Operating Capacity,Texas,SSL,Skid Steer Loaders,,OROPS,None or Unspecified,,,,,,,,,,Standard,,,,,,None or Unspecified,None or Unspecified,None or Unspecified,Standard,,,,,,,,,,,
10913,1885299,13500,1189869,132,2.0,1000,,,6/7/2006 0:00,TL126,TL126,,,,,Skid Steer Loader - 2201.0 to 2701.0 Lb Operating Capacity,Texas,SSL,Skid Steer Loaders,,OROPS,None or Unspecified,,,,,,,,,,Standard,,,,,,None or Unspecified,None or Unspecified,None or Unspecified,Standard,,,,,,,,,,,
10913,1885300,15000,1316663,132,1.0,2001,,,6/19/2003 0:00,TL126,TL126,,,,,Skid Steer Loader - 2201.0 to 2701.0 Lb Operating Capacity,Illinois,SSL,Skid Steer Loaders,,OROPS,None or Unspecified,,,,,,,,,,Standard,,,,,,None or Unspecified,None or Unspecified,None or Unspecified,Standard,,,,,,,,,,,
10913,1885301,9000,1223616,132,2.0,2000,,,12/16/2005 0:00,TL126,TL126,,,,,Skid Steer Loader - 2201.0 to 2701.0 Lb Operating Capacity,Georgia,SSL,Skid Steer Loaders,,OROPS,None or Unspecified,,,,,,,,,,Standard,,,,,,None or Unspecified,None or Unspecified,None or Unspecified,Standard,,,,,,,,,,,
10913,1885302,14500,1139898,132,1.0,1999,,,11/16/2004 0:00,TL126,TL126,,,,,Skid Steer Loader - 2201.0 to 2701.0 Lb Operating Capacity,Texas,SSL,Skid Steer Loaders,,OROPS,None or Unspecified,,,,,,,,,,Standard,,,,,,None or Unspecified,None or Unspecified,None or Unspecified,Standard,,,,,,,,,,,
10913,1885304,6300,1531444,132,14.0,2000,,,9/18/2009 0:00,TL126,TL126,,,,,Skid Steer Loader - 2201.0 to 2701.0 Lb Operating Capacity,Indiana,SSL,Skid Steer Loaders,,OROPS,None or Unspecified,,,,,,,,,,Standard,,,,,,None or Unspecified,None or Unspecified,None or Unspecified,Standard,,,,,,,,,,,
10913,1885305,11000,1530542,132,14.0,2000,,,9/24/2004 0:00,TL126,TL126,,,,,Skid Steer Loader - 2201.0 to 2701.0 Lb Operating Capacity,Indiana,SSL,Skid Steer Loaders,,OROPS,None or Unspecified,,,,,,,,,,Standard,,,,,,None or Unspecified,None or Unspecified,None or Unspecified,Standard,,,,,,,,,,,
10913,1885306,19500,1085536,132,1.0,2000,,,12/5/2002 0:00,TL126,TL126,,,,,Skid Steer Loader - 2201.0 to 2701.0 Lb Operating Capacity,Illinois,SSL,Skid Steer Loaders,,OROPS,None or Unspecified,,,,,,,,,,Standard,,,,,,None or Unspecified,None or Unspecified,None or Unspecified,Standard,,,,,,,,,,,
10913,1885307,11500,1443116,132,2.0,2000,,,12/9/2005 0:00,TL126,TL126,,,,,Skid Steer Loader - 2201.0 to 2701.0 Lb Operating Capacity,Pennsylvania,SSL,Skid Steer Loaders,,OROPS,None or Unspecified,,,,,,,,,,Standard,,,,,,None or Unspecified,None or Unspecified,None or Unspecified,Standard,,,,,,,,,,,
10913,1885308,15000,1439684,132,1.0,1999,,,6/14/2005 0:00,TL126,TL126,,,,,Skid Steer Loader - 2201.0 to 2701.0 Lb Operating Capacity,California,SSL,Skid Steer Loaders,,OROPS,None or Unspecified,,,,,,,,,,Standard,,,,,,None or Unspecified,None or Unspecified,None or Unspecified,Standard,,,,,,,,,,,
10913,1885309,19000,1520596,132,1.0,2000,,,9/22/2005 0:00,TL126,TL126,,,,,Skid Steer Loader - 2201.0 to 2701.0 Lb Operating Capacity,Washington,SSL,Skid Steer Loaders,,OROPS,None or Unspecified,,,,,,,,,,Auxiliary,,,,,,None or Unspecified,None or Unspecified,None or Unspecified,Standard,,,,,,,,,,,
10913,1885311,10500,1406980,132,1.0,2000,,,3/4/2008 0:00,TL126,TL126,,,,,Skid Steer Loader - 2201.0 to 2701.0 Lb Operating Capacity,California,SSL,Skid Steer Loaders,,OROPS,None or Unspecified,,,,,,,,,,Standard,,,,,,None or Unspecified,None or Unspecified,None or Unspecified,Standard,,,,,,,,,,,
10913,1885312,8500,1555261,132,1.0,2000,,,2/22/2008 0:00,TL126,TL126,,,,,Skid Steer Loader - 2201.0 to 2701.0 Lb Operating Capacity,Florida,SSL,Skid Steer Loaders,,OROPS,None or Unspecified,,,,,,,,,,Standard,,,,,,None or Unspecified,None or Unspecified,None or Unspecified,Standard,,,,,,,,,,,
10913,1885313,8500,1555261,132,1.0,2000,,,2/19/2008 0:00,TL126,TL126,,,,,Skid Steer Loader - 2201.0 to 2701.0 Lb Operating Capacity,Florida,SSL,Skid Steer Loaders,,OROPS,None or Unspecified,,,,,,,,,,Standard,,,,,,None or Unspecified,None or Unspecified,None or Unspecified,Standard,,,,,,,,,,,
10913,1885314,15000,1310794,132,1.0,2000,,,11/16/2004 0:00,TL126,TL126,,,,,Skid Steer Loader - 2201.0 to 2701.0 Lb Operating Capacity,Texas,SSL,Skid Steer Loaders,,OROPS,None or Unspecified,,,,,,,,,,Standard,,,,,,None or Unspecified,None or Unspecified,None or Unspecified,Standard,,,,,,,,,,,
10913,1885315,10000,1192035,132,1.0,2000,,,11/17/2005 0:00,TL126,TL126,,,,,Skid Steer Loader - 2201.0 to 2701.0 Lb Operating Capacity,Texas,SSL,Skid Steer Loaders,,OROPS,None or Unspecified,,,,,,,,,,Standard,,,,,,None or Unspecified,None or Unspecified,None or Unspecified,Standard,,,,,,,,,,,
10913,1885316,8500,1310812,132,1.0,2000,,,6/25/2008 0:00,TL126,TL126,,,,,Skid Steer Loader - 2201.0 to 2701.0 Lb Operating Capacity,Maryland,SSL,Skid Steer Loaders,,OROPS,None or Unspecified,,,,,,,,,,Standard,,,,,,None or Unspecified,None or Unspecified,None or Unspecified,Standard,,,,,,,,,,,
10913,1885317,12500,1133037,132,2.0,2000,,,3/23/2006 0:00,TL126,TL126,,,,,Skid Steer Loader - 2201.0 to 2701.0 Lb Operating Capacity,New Jersey,SSL,Skid Steer Loaders,,OROPS,None or Unspecified,,,,,,,,,,Standard,,,,,,None or Unspecified,None or Unspecified,None or Unspecified,Standard,,,,,,,,,,,
10913,1885318,14500,1411623,132,2.0,2000,,,2/2/2005 0:00,TL126,TL126,,,,,Skid Steer Loader - 2201.0 to 2701.0 Lb Operating Capacity,Florida,SSL,Skid Steer Loaders,,OROPS,None or Unspecified,,,,,,,,,,Standard,,,,,,None or Unspecified,None or Unspecified,None or Unspecified,Standard,,,,,,,,,,,
10913,1885319,14000,1411623,132,1.0,2000,,,5/27/2004 0:00,TL126,TL126,,,,,Skid Steer Loader - 2201.0 to 2701.0 Lb Operating Capacity,Florida,SSL,Skid Steer Loaders,,OROPS,None or Unspecified,,,,,,,,,,Standard,,,,,,None or Unspecified,None or Unspecified,None or Unspecified,Standard,,,,,,,,,,,
10913,1885320,14500,1411623,132,2.0,2000,,,1/30/2005 0:00,TL126,TL126,,,,,Skid Steer Loader - 2201.0 to 2701.0 Lb Operating Capacity,Florida,SSL,Skid Steer Loaders,,OROPS,None or Unspecified,,,,,,,,,,Standard,,,,,,None or Unspecified,None or Unspecified,None or Unspecified,Standard,,,,,,,,,,,
10913,1885321,11500,1468674,132,1.0,2000,,,9/8/2005 0:00,TL126,TL126,,,,,Skid Steer Loader - 2201.0 to 2701.0 Lb Operating Capacity,California,SSL,Skid Steer Loaders,,OROPS,None or Unspecified,,,,,,,,,,Standard,,,,,,None or Unspecified,None or Unspecified,None or Unspecified,Standard,,,,,,,,,,,
10913,1885322,12000,1509020,132,1.0,2000,,,6/14/2005 0:00,TL126,TL126,,,,,Skid Steer Loader - 2201.0 to 2701.0 Lb Operating Capacity,California,SSL,Skid Steer Loaders,,OROPS,None or Unspecified,,,,,,,,,,Standard,,,,,,None or Unspecified,None or Unspecified,None or Unspecified,Standard,,,,,,,,,,,
10913,1885323,11000,1320316,132,1.0,2000,,,2/24/2006 0:00,TL126,TL126,,,,,Skid Steer Loader - 2201.0 to 2701.0 Lb Operating Capacity,Florida,SSL,Skid Steer Loaders,,OROPS,None or Unspecified,,,,,,,,,,Standard,,,,,,None or Unspecified,None or Unspecified,None or Unspecified,Standard,,,,,,,,,,,
10913,1885324,14000,1146257,132,1.0,2000,,,9/8/2005 0:00,TL126,TL126,,,,,Skid Steer Loader - 2201.0 to 2701.0 Lb Operating Capacity,California,SSL,Skid Steer Loaders,,OROPS,None or Unspecified,,,,,,,,,,Standard,,,,,,None or Unspecified,None or Unspecified,None or Unspecified,Standard,,,,,,,,,,,
10913,1885325,12500,1117248,132,1.0,2000,,,6/27/2007 0:00,TL126,TL126,,,,,Skid Steer Loader - 2201.0 to 2701.0 Lb Operating Capacity,Georgia,SSL,Skid Steer Loaders,,OROPS,None or Unspecified,,,,,,,,,,Standard,,,,,,None or Unspecified,None or Unspecified,None or Unspecified,Standard,,,,,,,,,,,
10913,1885326,9000,1251304,132,1.0,2001,,,9/20/2006 0:00,TL126,TL126,,,,,Skid Steer Loader - 2201.0 to 2701.0 Lb Operating Capacity,Illinois,SSL,Skid Steer Loaders,,OROPS,None or Unspecified,,,,,,,,,,Standard,,,,,,None or Unspecified,None or Unspecified,None or Unspecified,Standard,,,,,,,,,,,
10913,1885327,12500,1210536,132,1.0,2001,,,6/27/2007 0:00,TL126,TL126,,,,,Skid Steer Loader - 2201.0 to 2701.0 Lb Operating Capacity,Georgia,SSL,Skid Steer Loaders,,OROPS,None or Unspecified,,,,,,,,,,Standard,,,,,,None or Unspecified,None or Unspecified,None or Unspecified,Standard,,,,,,,,,,,
10913,1885328,10000,1439251,132,1.0,2000,,,11/15/2005 0:00,TL126,TL126,,,,,Skid Steer Loader - 2201.0 to 2701.0 Lb Operating Capacity,Georgia,SSL,Skid Steer Loaders,,OROPS,None or Unspecified,,,,,,,,,,Standard,,,,,,None or Unspecified,None or Unspecified,None or Unspecified,Standard,,,,,,,,,,,
10913,1885329,12000,1417432,132,5.0,2001,,,4/6/2006 0:00,TL126,TL126,,,,,Skid Steer Loader - 2201.0 to 2701.0 Lb Operating Capacity,Connecticut,SSL,Skid Steer Loaders,,OROPS,None or Unspecified,,,,,,,,,,Standard,,,,,,None or Unspecified,None or Unspecified,None or Unspecified,Standard,,,,,,,,,,,
10913,1885330,11000,1240909,132,5.0,2001,,,1/27/2006 0:00,TL126,TL126,,,,,Skid Steer Loader - 2201.0 to 2701.0 Lb Operating Capacity,Connecticut,SSL,Skid Steer Loaders,,OROPS,None or Unspecified,,,,,,,,,,Standard,,,,,,None or Unspecified,None or Unspecified,None or Unspecified,Standard,,,,,,,,,,,
10913,1885331,10500,1503224,132,1.0,2000,,,11/28/2007 0:00,TL126,TL126,,,,,Skid Steer Loader - 2201.0 to 2701.0 Lb Operating Capacity,Connecticut,SSL,Skid Steer Loaders,,OROPS,None or Unspecified,,,,,,,,,,Standard,,,,,,None or Unspecified,None or Unspecified,None or Unspecified,Standard,,,,,,,,,,,
10913,1885332,17000,1137636,132,1.0,2000,,,8/25/2005 0:00,TL126,TL126,,,,,Skid Steer Loader - 2201.0 to 2701.0 Lb Operating Capacity,Texas,SSL,Skid Steer Loaders,,OROPS,None or Unspecified,,,,,,,,,,Standard,,,,,,None or Unspecified,None or Unspecified,None or Unspecified,Standard,,,,,,,,,,,
10913,1885334,12000,1283248,132,1.0,1000,,,12/13/2006 0:00,TL126,TL126,,,,,Skid Steer Loader - 2201.0 to 2701.0 Lb Operating Capacity,Maryland,SSL,Skid Steer Loaders,,OROPS,None or Unspecified,,,,,,,,,,Standard,,,,,,None or Unspecified,None or Unspecified,None or Unspecified,Standard,,,,,,,,,,,
10913,1885335,10500,1389473,132,2.0,2001,,,9/28/2007 0:00,TL126,TL126,,,,,Skid Steer Loader - 2201.0 to 2701.0 Lb Operating Capacity,New Jersey,SSL,Skid Steer Loaders,,OROPS,None or Unspecified,,,,,,,,,,Standard,,,,,,None or Unspecified,None or Unspecified,None or Unspecified,Standard,,,,,,,,,,,
10913,1885336,9500,1332485,132,1.0,2000,,,12/13/2006 0:00,TL126,TL126,,,,,Skid Steer Loader - 2201.0 to 2701.0 Lb Operating Capacity,Maryland,SSL,Skid Steer Loaders,,OROPS,None or Unspecified,,,,,,,,,,Standard,,,,,,None or Unspecified,None or Unspecified,None or Unspecified,Standard,,,,,,,,,,,
10913,1885338,13500,1139631,132,1.0,2001,,,3/8/2007 0:00,TL126,TL126,,,,,Skid Steer Loader - 2201.0 to 2701.0 Lb Operating Capacity,Illinois,SSL,Skid Steer Loaders,,OROPS,None or Unspecified,,,,,,,,,,Standard,,,,,,None or Unspecified,None or Unspecified,None or Unspecified,Standard,,,,,,,,,,,
10913,1885339,9500,1389699,132,4.0,2001,,,2/14/2006 0:00,TL126,TL126,,,,,Skid Steer Loader - 2201.0 to 2701.0 Lb Operating Capacity,Florida,SSL,Skid Steer Loaders,,OROPS,None or Unspecified,,,,,,,,,,Standard,,,,,,None or Unspecified,None or Unspecified,None or Unspecified,Standard,,,,,,,,,,,
10913,1885340,9500,1389699,132,4.0,2001,,,2/13/2006 0:00,TL126,TL126,,,,,Skid Steer Loader - 2201.0 to 2701.0 Lb Operating Capacity,Florida,SSL,Skid Steer Loaders,,OROPS,None or Unspecified,,,,,,,,,,Standard,,,,,,None or Unspecified,None or Unspecified,None or Unspecified,Standard,,,,,,,,,,,
10913,1885342,15000,1365104,132,1.0,2001,,,6/19/2003 0:00,TL126,TL126,,,,,Skid Steer Loader - 2201.0 to 2701.0 Lb Operating Capacity,Illinois,SSL,Skid Steer Loaders,,OROPS,None or Unspecified,,,,,,,,,,Standard,,,,,,None or Unspecified,None or Unspecified,None or Unspecified,Standard,,,,,,,,,,,
10913,1885343,13000,1480775,132,8.0,1000,,,2/15/2008 0:00,TL126,TL126,,,,,Skid Steer Loader - 2201.0 to 2701.0 Lb Operating Capacity,Florida,SSL,Skid Steer Loaders,,OROPS,None or Unspecified,,,,,,,,,,Standard,,,,,,None or Unspecified,None or Unspecified,None or Unspecified,Standard,,,,,,,,,,,
10913,1885344,17000,1497465,132,1.0,2001,,,6/19/2003 0:00,TL126,TL126,,,,,Skid Steer Loader - 2201.0 to 2701.0 Lb Operating Capacity,Illinois,SSL,Skid Steer Loaders,,OROPS,None or Unspecified,,,,,,,,,,Standard,,,,,,None or Unspecified,None or Unspecified,None or Unspecified,Standard,,,,,,,,,,,
10913,1885345,10500,1308633,132,27.0,2001,,,12/29/2006 0:00,TL126,TL126,,,,,Skid Steer Loader - 2201.0 to 2701.0 Lb Operating Capacity,North Carolina,SSL,Skid Steer Loaders,,OROPS,None or Unspecified,,,,,,,,,,Standard,,,,,,None or Unspecified,None or Unspecified,None or Unspecified,Standard,,,,,,,,,,,
10913,1885346,11000,1308633,132,1.0,2001,,,12/13/2006 0:00,TL126,TL126,,,,,Skid Steer Loader - 2201.0 to 2701.0 Lb Operating Capacity,Maryland,SSL,Skid Steer Loaders,,OROPS,None or Unspecified,,,,,,,,,,Standard,,,,,,None or Unspecified,None or Unspecified,None or Unspecified,Standard,,,,,,,,,,,
10913,1885347,12000,1317478,132,1.0,2001,,,12/13/2006 0:00,TL126,TL126,,,,,Skid Steer Loader - 2201.0 to 2701.0 Lb Operating Capacity,Maryland,SSL,Skid Steer Loaders,,OROPS,None or Unspecified,,,,,,,,,,Standard,,,,,,None or Unspecified,None or Unspecified,None or Unspecified,Standard,,,,,,,,,,,
10913,1885348,12000,1184833,132,1.0,2001,,,4/2/2008 0:00,TL126,TL126,,,,,Skid Steer Loader - 2201.0 to 2701.0 Lb Operating Capacity,Maryland,SSL,Skid Steer Loaders,,OROPS,None or Unspecified,,,,,,,,,,Standard,,,,,,None or Unspecified,None or Unspecified,None or Unspecified,Standard,,,,,,,,,,,
10913,1885349,19500,1356501,132,14.0,2000,,,9/24/2004 0:00,TL126,TL126,,,,,Skid Steer Loader - 2201.0 to 2701.0 Lb Operating Capacity,Indiana,SSL,Skid Steer Loaders,,OROPS,None or Unspecified,,,,,,,,,,Standard,,,,,,None or Unspecified,None or Unspecified,None or Unspecified,Standard,,,,,,,,,,,
10913,1885350,12000,1136884,132,1.0,2001,,,4/2/2008 0:00,TL126,TL126,,,,,Skid Steer Loader - 2201.0 to 2701.0 Lb Operating Capacity,Maryland,SSL,Skid Steer Loaders,,OROPS,None or Unspecified,,,,,,,,,,Standard,,,,,,None or Unspecified,None or Unspecified,None or Unspecified,Standard,,,,,,,,,,,
10913,1885351,13000,1270166,132,2.0,2001,,,12/9/2005 0:00,TL126,TL126,,,,,Skid Steer Loader - 2201.0 to 2701.0 Lb Operating Capacity,Pennsylvania,SSL,Skid Steer Loaders,,OROPS,None or Unspecified,,,,,,,,,,Standard,,,,,,None or Unspecified,None or Unspecified,None or Unspecified,Standard,,,,,,,,,,,
10913,1885352,11000,1386015,132,2.0,2001,,,12/13/2006 0:00,TL126,TL126,,,,,Skid Steer Loader - 2201.0 to 2701.0 Lb Operating Capacity,Florida,SSL,Skid Steer Loaders,,OROPS,None or Unspecified,,,,,,,,,,Standard,,,,,,None or Unspecified,None or Unspecified,None or Unspecified,Standard,,,,,,,,,,,
10913,1885353,7000,1439871,132,4.0,2001,,,2/12/2008 0:00,TL126,TL126,,,,,Skid Steer Loader - 2201.0 to 2701.0 Lb Operating Capacity,Florida,SSL,Skid Steer Loaders,,OROPS,None or Unspecified,,,,,,,,,,Standard,,,,,,None or Unspecified,None or Unspecified,None or Unspecified,Standard,,,,,,,,,,,
10913,1885354,10000,1439871,132,1.0,1000,,,5/24/2007 0:00,TL126,TL126,,,,,Skid Steer Loader - 2201.0 to 2701.0 Lb Operating Capacity,Florida,SSL,Skid Steer Loaders,,OROPS,None or Unspecified,,,,,,,,,,Standard,,,,,,None or Unspecified,None or Unspecified,None or Unspecified,Standard,,,,,,,,,,,
10913,1885355,7000,1439871,132,4.0,2001,,,2/11/2008 0:00,TL126,TL126,,,,,Skid Steer Loader - 2201.0 to 2701.0 Lb Operating Capacity,Florida,SSL,Skid Steer Loaders,,OROPS,None or Unspecified,,,,,,,,,,Standard,,,,,,None or Unspecified,None or Unspecified,None or Unspecified,Standard,,,,,,,,,,,
10913,1885418,13000,1169195,132,2.0,1000,,,2/5/2006 0:00,TL126,TL126,,,,,Skid Steer Loader - 2201.0 to 2701.0 Lb Operating Capacity,Florida,SSL,Skid Steer Loaders,,OROPS,None or Unspecified,,,,,,,,,,Standard,,,,,,None or Unspecified,None or Unspecified,None or Unspecified,Standard,,,,,,,,,,,
10913,1885451,12500,532327,132,1.0,1998,,,2/17/2004 0:00,TL126,TL126,,,,,Skid Steer Loader - 2201.0 to 2701.0 Lb Operating Capacity,Florida,SSL,Skid Steer Loaders,,OROPS,None or Unspecified,,,,,,,,,,Standard,,,,,,None or Unspecified,None or Unspecified,None or Unspecified,Standard,,,,,,,,,,,
10913,1885452,10000,1308313,132,1.0,1999,,,9/8/2005 0:00,TL126,TL126,,,,,Skid Steer Loader - 2201.0 to 2701.0 Lb Operating Capacity,California,SSL,Skid Steer Loaders,,OROPS,None or Unspecified,,,,,,,,,,Standard,,,,,,None or Unspecified,None or Unspecified,None or Unspecified,Standard,,,,,,,,,,,
10913,1885453,13000,1514434,132,1.0,2001,,,3/22/2007 0:00,TL126,TL126,,,,,Skid Steer Loader - 2201.0 to 2701.0 Lb Operating Capacity,Tennessee,SSL,Skid Steer Loaders,,OROPS,None or Unspecified,,,,,,,,,,Standard,,,,,,None or Unspecified,None or Unspecified,None or Unspecified,Standard,,,,,,,,,,,
10913,1885454,14000,1515185,132,1.0,1999,,,7/21/2005 0:00,TL126,TL126,,,,,Skid Steer Loader - 2201.0 to 2701.0 Lb Operating Capacity,Texas,SSL,Skid Steer Loaders,,OROPS,None or Unspecified,,,,,,,,,,Standard,,,,,,None or Unspecified,None or Unspecified,None or Unspecified,Standard,,,,,,,,,,,
10913,1885455,12500,1503999,132,1.0,1999,,,6/23/2005 0:00,TL126,TL126,,,,,Skid Steer Loader - 2201.0 to 2701.0 Lb Operating Capacity,Washington,SSL,Skid Steer Loaders,,OROPS,None or Unspecified,,,,,,,,,,Standard,,,,,,None or Unspecified,None or Unspecified,None or Unspecified,Standard,,,,,,,,,,,
10913,1885456,13000,1275673,132,2.0,1000,,,2/2/2005 0:00,TL126,TL126,,,,,Skid Steer Loader - 2201.0 to 2701.0 Lb Operating Capacity,Florida,SSL,Skid Steer Loaders,,OROPS,None or Unspecified,,,,,,,,,,Standard,,,,,,None or Unspecified,None or Unspecified,None or Unspecified,Standard,,,,,,,,,,,
10913,2467475,7000,1341633,136,4.0,1999,0.0,,5/12/2009 0:00,TL126,TL126,,,,,Skid Steer Loader - 2201.0 to 2701.0 Lb Operating Capacity,Maine,SSL,Skid Steer Loaders,,OROPS,None or Unspecified,,,,,,,,,,Standard,,,,,,None or Unspecified,None or Unspecified,None or Unspecified,Standard,,,,,,,,,,,
10913,2467478,6500,1520596,136,1.0,2000,0.0,,6/17/2009 0:00,TL126,TL126,,,,,Skid Steer Loader - 2201.0 to 2701.0 Lb Operating Capacity,Washington,SSL,Skid Steer Loaders,,OROPS,None or Unspecified,,,,,,,,,,Auxiliary,,,,,,None or Unspecified,None or Unspecified,None or Unspecified,Standard,,,,,,,,,,,
10913,2467898,8800,1401440,136,12.0,2004,0.0,,6/17/2009 0:00,TL126,TL126,,,,,Skid Steer Loader - 2201.0 to 2701.0 Lb Operating Capacity,South Carolina,SSL,Skid Steer Loaders,,OROPS,None or Unspecified,,,,,,,,,,Auxiliary,,,,,,None or Unspecified,None or Unspecified,Yes,Standard,,,,,,,,,,,
10913,2467910,7750,1746625,136,,2001,0.0,,9/11/2009 0:00,TL126,TL126,,,,,Skid Steer Loader - 2201.0 to 2701.0 Lb Operating Capacity,Georgia,SSL,Skid Steer Loaders,,OROPS,None or Unspecified,,,,,,,,,,Auxiliary,,,,,,None or Unspecified,None or Unspecified,Yes,Standard,,,,,,,,,,,
10913,2467949,8500,1717354,136,1.0,1000,2164.0,Low,8/13/2009 0:00,TL126,TL126,,,,,Skid Steer Loader - 2201.0 to 2701.0 Lb Operating Capacity,New York,SSL,Skid Steer Loaders,,OROPS,None or Unspecified,,,,,,,,,,Standard,,,,,,None or Unspecified,None or Unspecified,None or Unspecified,Standard,,,,,,,,,,,
10913,2782464,7500,1279590,149,10.0,2002,1261.0,Low,4/6/2011 0:00,TL126,TL126,,,,,Skid Steer Loader - 2201.0 to 2701.0 Lb Operating Capacity,Louisiana,SSL,Skid Steer Loaders,,OROPS,None or Unspecified,,,,,,,,,,Standard,,,,,,None or Unspecified,None or Unspecified,Yes,Standard,,,,,,,,,,,
10913,2782471,7500,1535261,149,10.0,2002,1063.0,Low,4/6/2011 0:00,TL126,TL126,,,,,Skid Steer Loader - 2201.0 to 2701.0 Lb Operating Capacity,Louisiana,SSL,Skid Steer Loaders,,OROPS,None or Unspecified,,,,,,,,,,Standard,,,,,,None or Unspecified,None or Unspecified,Yes,Standard,,,,,,,,,,,
10913,6327975,8500,1801624,149,1.0,2000,,,10/7/2011 0:00,TL126,TL126,,,,,Skid Steer Loader - 2201.0 to 2701.0 Lb Operating Capacity,California,SSL,Skid Steer Loaders,,OROPS,None or Unspecified,,,,,,,,,,Auxiliary,,,,,,None or Unspecified,None or Unspecified,None or Unspecified,Standard,,,,,,,,,,,
