ModelID,SalesID,SalePrice,MachineID,datasource,auctioneerID,YearMade,MachineHoursCurrentMeter,UsageBand,saledate,fiModelDesc,fiBaseModel,fiSecondaryDesc,fiModelSeries,fiModelDescriptor,ProductSize,fiProductClassDesc,state,ProductGroup,ProductGroupDesc,Drive_System,Enclosure,Forks,Pad_Type,Ride_Control,Stick,Transmission,Turbocharged,Blade_Extension,Blade_Width,Enclosure_Type,Engine_Horsepower,Hydraulics,Pushblock,Ripper,Scarifier,Tip_Control,Tire_Size,Coupler,Coupler_System,Grouser_Tracks,Hydraulics_Flow,Track_Type,Undercarriage_Pad_Width,Stick_Length,Thumb,Pattern_Changer,Grouser_Type,Backhoe_Mounting,Blade_Type,Travel_Controls,Differential_Type,Steering_Controls
1118,1141370,21500,636147,121,3.0,1998,6381.0,Medium,8/27/2009 0:00,312BL,312,B,,L,Small,"Hydraulic Excavator, Track - 12.0 to 14.0 Metric Tons",Washington,TEX,Track Excavators,,EROPS,,,,,,,,,,,Auxiliary,,,,,,Manual,,,,Steel,None or Unspecified,None or Unspecified,Hydraulic,Yes,Triple,,,,,
1118,1154220,44000,506053,121,3.0,1998,4338.0,Medium,7/15/2004 0:00,312BL,312,B,,L,Small,"Hydraulic Excavator, Track - 12.0 to 14.0 Metric Tons",Texas,TEX,Track Excavators,,EROPS w AC,,,,,,,,,,,Auxiliary,,,,,,None or Unspecified,,,,Steel,27 inch,None or Unspecified,None or Unspecified,Yes,Triple,,,,,
1118,1156243,22500,637312,121,3.0,1998,6540.0,Medium,8/27/2009 0:00,312BL,312,B,,L,Small,"Hydraulic Excavator, Track - 12.0 to 14.0 Metric Tons",Washington,TEX,Track Excavators,,EROPS,,,,,,,,,,,Standard,,,,,,Manual,,,,Steel,None or Unspecified,None or Unspecified,Hydraulic,Yes,Triple,,,,,
1118,1158321,55000,64044,121,3.0,2001,3619.0,High,8/25/2005 0:00,312BL,312,B,,L,Small,"Hydraulic Excavator, Track - 12.0 to 14.0 Metric Tons",Louisiana,TEX,Track Excavators,,EROPS w AC,,,,,,,,,,,Standard,,,,,,None or Unspecified,,,,Steel,28 inch,None or Unspecified,None or Unspecified,None or Unspecified,Triple,,,,,
1118,1160088,39000,317339,121,3.0,2000,4620.0,Medium,4/12/2007 0:00,312BL,312,B,,L,Small,"Hydraulic Excavator, Track - 12.0 to 14.0 Metric Tons",Ohio,TEX,Track Excavators,,EROPS w AC,,,,,,,,,,,Auxiliary,,,,,,None or Unspecified,,,,Steel,None or Unspecified,"8' 2""",None or Unspecified,Yes,Double,,,,,
1118,1160238,29000,321684,121,3.0,2000,5199.0,Medium,10/4/2007 0:00,312BL,312,B,,L,Small,"Hydraulic Excavator, Track - 12.0 to 14.0 Metric Tons",West Virginia,TEX,Track Excavators,,EROPS w AC,,,,,,,,,,,Auxiliary,,,,,,None or Unspecified,,,,Steel,None or Unspecified,None or Unspecified,None or Unspecified,Yes,Double,,,,,
1118,1160632,35500,1066961,121,3.0,1998,3590.0,Medium,8/11/2005 0:00,312BL,312,B,,L,Small,"Hydraulic Excavator, Track - 12.0 to 14.0 Metric Tons",Mississippi,TEX,Track Excavators,,EROPS w AC,,,,,,,,,,,Standard,,,,,,None or Unspecified,,,,Steel,30 inch,None or Unspecified,Manual,None or Unspecified,Triple,,,,,
1118,1161530,65000,579301,121,3.0,2000,196.0,Low,2/26/2004 0:00,312BL,312,B,,L,Small,"Hydraulic Excavator, Track - 12.0 to 14.0 Metric Tons",Pennsylvania,TEX,Track Excavators,,EROPS,,,,,,,,,,,Auxiliary,,,,,,None or Unspecified,,,,Steel,24 inch,"8' 4""",Manual,None or Unspecified,Double,,,,,
1118,1162240,18000,167547,121,3.0,1998,7670.0,Medium,1/28/2010 0:00,312BL,312,B,,L,Small,"Hydraulic Excavator, Track - 12.0 to 14.0 Metric Tons",California,TEX,Track Excavators,,EROPS w AC,,,,,,,,,,,Auxiliary,,,,,,Hydraulic,,,,Steel,None or Unspecified,None or Unspecified,None or Unspecified,None or Unspecified,Double,,,,,
1118,1164666,17000,592063,121,3.0,1997,4692.0,Low,2/25/2010 0:00,312BL,312,B,,L,Small,"Hydraulic Excavator, Track - 12.0 to 14.0 Metric Tons",Texas,TEX,Track Excavators,,EROPS,,,,,,,,,,,Standard,,,,,,None or Unspecified,,,,Steel,None or Unspecified,None or Unspecified,None or Unspecified,None or Unspecified,Double,,,,,
1118,1165737,30500,1012184,121,3.0,1998,6632.0,High,10/20/2005 0:00,312BL,312,B,,L,Small,"Hydraulic Excavator, Track - 12.0 to 14.0 Metric Tons",Arkansas,TEX,Track Excavators,,EROPS w AC,,,,,,,,,,,Standard,,,,,,None or Unspecified,,,,Steel,None or Unspecified,None or Unspecified,None or Unspecified,None or Unspecified,Triple,,,,,
1118,1173531,38000,614098,121,3.0,1999,2748.0,Medium,8/26/2004 0:00,312BL,312,B,,L,Small,"Hydraulic Excavator, Track - 12.0 to 14.0 Metric Tons",Texas,TEX,Track Excavators,,EROPS w AC,,,,,,,,,,,Standard,,,,,,None or Unspecified,,,,Steel,24 inch,None or Unspecified,Manual,None or Unspecified,Double,,,,,
1118,1174009,35000,1054708,121,3.0,1997,6397.0,High,9/30/2004 0:00,312BL,312,B,,L,Small,"Hydraulic Excavator, Track - 12.0 to 14.0 Metric Tons",Minnesota,TEX,Track Excavators,,EROPS w AC,,,,,,,,,,,Standard,,,,,,None or Unspecified,,,,Steel,30 inch,None or Unspecified,None or Unspecified,None or Unspecified,Double,,,,,
1118,1174916,37000,64594,121,3.0,1998,4398.0,Medium,2/10/2005 0:00,312BL,312,B,,L,Small,"Hydraulic Excavator, Track - 12.0 to 14.0 Metric Tons",Louisiana,TEX,Track Excavators,,EROPS,,,,,,,,,,,Auxiliary,,,,,,None or Unspecified,,,,Steel,None or Unspecified,None or Unspecified,None or Unspecified,None or Unspecified,Triple,,,,,
1118,1175337,37000,461903,121,3.0,1998,3353.0,Low,4/7/2005 0:00,312BL,312,B,,L,Small,"Hydraulic Excavator, Track - 12.0 to 14.0 Metric Tons",Texas,TEX,Track Excavators,,EROPS w AC,,,,,,,,,,,Auxiliary,,,,,,None or Unspecified,,,,Steel,28 inch,None or Unspecified,None or Unspecified,Yes,Triple,,,,,
1118,1175725,49000,45553,121,3.0,2001,3233.0,Medium,6/2/2005 0:00,312BL,312,B,,L,Small,"Hydraulic Excavator, Track - 12.0 to 14.0 Metric Tons",Louisiana,TEX,Track Excavators,,EROPS w AC,,,,,,,,,,,Standard,,,,,,None or Unspecified,,,,Steel,28 inch,None or Unspecified,None or Unspecified,None or Unspecified,Triple,,,,,
1118,1189332,23500,647282,121,3.0,1999,5239.0,Medium,4/23/2009 0:00,312BL,312,B,,L,Small,"Hydraulic Excavator, Track - 12.0 to 14.0 Metric Tons",Wyoming,TEX,Track Excavators,,EROPS,,,,,,,,,,,Auxiliary,,,,,,None or Unspecified,,,,Steel,None or Unspecified,None or Unspecified,Hydraulic,Yes,Double,,,,,
1118,1214702,23000,304459,121,3.0,2000,8379.0,Medium,6/30/2011 0:00,312BL,312,B,,L,Small,"Hydraulic Excavator, Track - 12.0 to 14.0 Metric Tons",Kentucky,TEX,Track Excavators,,EROPS w AC,,,,,,,,,,,Standard,,,,,,None or Unspecified,,,,Steel,28 inch,"9' 10""",None or Unspecified,None or Unspecified,Triple,,,,,
1118,1336100,48000,1551706,132,4.0,2000,2668.0,Low,2/15/2007 0:00,312BL,312,B,,L,Small,"Hydraulic Excavator, Track - 12.0 to 14.0 Metric Tons",Florida,TEX,Track Excavators,,EROPS,,,,,,,,,,,Standard,,,,,,None or Unspecified,,,,Steel,None or Unspecified,None or Unspecified,None or Unspecified,None or Unspecified,Double,,,,,
1118,1336102,48000,1187362,132,4.0,1999,,,2/12/2007 0:00,312BL,312,B,,L,Small,"Hydraulic Excavator, Track - 12.0 to 14.0 Metric Tons",Florida,TEX,Track Excavators,,EROPS,,,,,,,,,,,Auxiliary,,,,,,None or Unspecified,,,,Steel,24 inch,None or Unspecified,None or Unspecified,None or Unspecified,Double,,,,,
1118,1336103,46000,1187362,132,4.0,1999,,,2/13/2006 0:00,312BL,312,B,,L,Small,"Hydraulic Excavator, Track - 12.0 to 14.0 Metric Tons",Florida,TEX,Track Excavators,,EROPS,,,,,,,,,,,Auxiliary,,,,,,None or Unspecified,,,,Steel,24 inch,None or Unspecified,None or Unspecified,None or Unspecified,Double,,,,,
1118,1336104,46000,1187362,132,4.0,1999,,,2/16/2006 0:00,312BL,312,B,,L,Small,"Hydraulic Excavator, Track - 12.0 to 14.0 Metric Tons",Florida,TEX,Track Excavators,,EROPS,,,,,,,,,,,Auxiliary,,,,,,None or Unspecified,,,,Steel,24 inch,None or Unspecified,None or Unspecified,None or Unspecified,Double,,,,,
1118,1336106,73000,339203,132,2.0,2000,,,12/14/2002 0:00,312BL,312,B,,L,Small,"Hydraulic Excavator, Track - 12.0 to 14.0 Metric Tons",Pennsylvania,TEX,Track Excavators,,EROPS,,,,,,,,,,,Standard,,,,,,None or Unspecified,,,,Steel,None or Unspecified,None or Unspecified,None or Unspecified,None or Unspecified,Double,,,,,
1118,1489119,41000,1266149,132,1.0,1997,,,11/15/2000 0:00,312BL,312,B,,L,Small,"Hydraulic Excavator, Track - 12.0 to 14.0 Metric Tons",Texas,TEX,Track Excavators,,EROPS,,,,,,,,,,,Standard,,,,,,None or Unspecified,,,,Steel,None or Unspecified,None or Unspecified,None or Unspecified,None or Unspecified,Double,,,,,
1118,1489120,51500,540752,132,14.0,1997,,,9/20/2000 0:00,312BL,312,B,,L,Small,"Hydraulic Excavator, Track - 12.0 to 14.0 Metric Tons",Indiana,TEX,Track Excavators,,EROPS w AC,,,,,,,,,,,Standard,,,,,,Manual,,,,Steel,28 inch,"9' 10""",Hydraulic,None or Unspecified,Triple,,,,,
1118,1489122,21500,1120414,132,7.0,1997,,,3/12/2008 0:00,312BL,312,B,,L,Small,"Hydraulic Excavator, Track - 12.0 to 14.0 Metric Tons",Alabama,TEX,Track Excavators,,EROPS,,,,,,,,,,,Standard,,,,,,None or Unspecified,,,,Steel,28 inch,None or Unspecified,None or Unspecified,None or Unspecified,Triple,,,,,
1118,1489123,37000,325753,132,2.0,1997,,,2/10/2006 0:00,312BL,312,B,,L,Small,"Hydraulic Excavator, Track - 12.0 to 14.0 Metric Tons",Florida,TEX,Track Excavators,,EROPS,,,,,,,,,,,Standard,,,,,,None or Unspecified,,,,Steel,24 inch,"8' 2""",None or Unspecified,None or Unspecified,Double,,,,,
1118,1489124,32500,325753,132,2.0,1997,,,12/10/2005 0:00,312BL,312,B,,L,Small,"Hydraulic Excavator, Track - 12.0 to 14.0 Metric Tons",Pennsylvania,TEX,Track Excavators,,EROPS,,,,,,,,,,,Standard,,,,,,None or Unspecified,,,,Steel,24 inch,"8' 2""",None or Unspecified,None or Unspecified,Double,,,,,
1118,1489125,37000,325753,132,2.0,1997,,,2/5/2006 0:00,312BL,312,B,,L,Small,"Hydraulic Excavator, Track - 12.0 to 14.0 Metric Tons",Florida,TEX,Track Excavators,,EROPS,,,,,,,,,,,Standard,,,,,,None or Unspecified,,,,Steel,24 inch,"8' 2""",None or Unspecified,None or Unspecified,Double,,,,,
1118,1489126,31000,77137,132,2.0,1997,,,3/22/2007 0:00,312BL,312,B,,L,Small,"Hydraulic Excavator, Track - 12.0 to 14.0 Metric Tons",New Jersey,TEX,Track Excavators,,EROPS,,,,,,,,,,,Standard,,,,,,None or Unspecified,,,,Steel,24 inch,"8' 2""",None or Unspecified,None or Unspecified,Double,,,,,
1118,1489129,45000,832481,132,2.0,1997,,,3/25/2004 0:00,312BL,312,B,,L,Small,"Hydraulic Excavator, Track - 12.0 to 14.0 Metric Tons",New Jersey,TEX,Track Excavators,,EROPS,,,,,,,,,,,Standard,,,,,,None or Unspecified,,,,Steel,28 inch,"9' 10""",None or Unspecified,None or Unspecified,Triple,,,,,
1118,1489130,48000,288094,132,2.0,1997,,,10/2/2004 0:00,312BL,312,B,,L,Small,"Hydraulic Excavator, Track - 12.0 to 14.0 Metric Tons",Pennsylvania,TEX,Track Excavators,,EROPS,,,,,,,,,,,Auxiliary,,,,,,None or Unspecified,,,,Steel,28 inch,None or Unspecified,Manual,None or Unspecified,Triple,,,,,
1118,1489131,34000,1328690,132,3.0,1997,,,7/11/2003 0:00,312BL,312,B,,L,Small,"Hydraulic Excavator, Track - 12.0 to 14.0 Metric Tons",Unspecified,TEX,Track Excavators,,EROPS,,,,,,,,,,,Standard,,,,,,None or Unspecified,,,,Steel,28 inch,None or Unspecified,None or Unspecified,None or Unspecified,Triple,,,,,
1118,1489133,35000,61438,132,1.0,1997,,,2/20/2007 0:00,312BL,312,B,,L,Small,"Hydraulic Excavator, Track - 12.0 to 14.0 Metric Tons",Florida,TEX,Track Excavators,,EROPS w AC,,,,,,,,,,,Auxiliary,,,,,,None or Unspecified,,,,Steel,None or Unspecified,None or Unspecified,None or Unspecified,None or Unspecified,Triple,,,,,
1118,1489136,37500,890958,132,1.0,1997,,,4/3/2003 0:00,312BL,312,B,,L,Small,"Hydraulic Excavator, Track - 12.0 to 14.0 Metric Tons",Georgia,TEX,Track Excavators,,EROPS w AC,,,,,,,,,,,Standard,,,,,,None or Unspecified,,,,Rubber,None or Unspecified,None or Unspecified,None or Unspecified,None or Unspecified,Double,,,,,
1118,1489137,33500,27373,132,8.0,1997,,,9/13/2006 0:00,312BL,312,B,,L,Small,"Hydraulic Excavator, Track - 12.0 to 14.0 Metric Tons",Mississippi,TEX,Track Excavators,,EROPS w AC,,,,,,,,,,,Standard,,,,,,None or Unspecified,,,,Steel,None or Unspecified,None or Unspecified,Manual,Yes,Triple,,,,,
1118,1489139,26000,35405,132,1.0,1997,,,8/30/2006 0:00,312BL,312,B,,L,Small,"Hydraulic Excavator, Track - 12.0 to 14.0 Metric Tons",Georgia,TEX,Track Excavators,,EROPS w AC,,,,,,,,,,,Standard,,,,,,None or Unspecified,,,,Steel,None or Unspecified,"9' 10""",None or Unspecified,None or Unspecified,Triple,,,,,
1118,1489142,44000,1124856,132,1.0,1997,,,6/23/2005 0:00,312BL,312,B,,L,Small,"Hydraulic Excavator, Track - 12.0 to 14.0 Metric Tons",Washington,TEX,Track Excavators,,EROPS,,,,,,,,,,,Auxiliary,,,,,,None or Unspecified,,,,Steel,None or Unspecified,None or Unspecified,None or Unspecified,None or Unspecified,Double,,,,,
1118,1489143,37000,461374,132,1.0,1997,,,9/17/2003 0:00,312BL,312,B,,L,Small,"Hydraulic Excavator, Track - 12.0 to 14.0 Metric Tons",Texas,TEX,Track Excavators,,EROPS w AC,,,,,,,,,,,Standard,,,,,,None or Unspecified,,,,Steel,None or Unspecified,"9' 10""",None or Unspecified,Yes,Triple,,,,,
1118,1489144,37000,1426460,132,1.0,1997,,,12/4/2002 0:00,312BL,312,B,,L,Small,"Hydraulic Excavator, Track - 12.0 to 14.0 Metric Tons",North Carolina,TEX,Track Excavators,,EROPS,,,,,,,,,,,Auxiliary,,,,,,None or Unspecified,,,,Steel,None or Unspecified,"9' 10""",None or Unspecified,Yes,Triple,,,,,
1118,1489145,48000,1271327,132,1.0,1997,,,12/5/2000 0:00,312BL,312,B,,L,Small,"Hydraulic Excavator, Track - 12.0 to 14.0 Metric Tons",Illinois,TEX,Track Excavators,,EROPS,,,,,,,,,,,Standard,,,,,,None or Unspecified,,,,Steel,None or Unspecified,"9' 10""",None or Unspecified,None or Unspecified,Double,,,,,
1118,1489146,23500,853570,132,4.0,1997,,,11/2/2006 0:00,312BL,312,B,,L,Small,"Hydraulic Excavator, Track - 12.0 to 14.0 Metric Tons",New Hampshire,TEX,Track Excavators,,EROPS,,,,,,,,,,,Standard,,,,,,None or Unspecified,,,,Steel,28 inch,"9' 10""",None or Unspecified,None or Unspecified,Triple,,,,,
1118,1489147,41000,1131573,132,15.0,1997,,,4/20/2006 0:00,312BL,312,B,,L,Small,"Hydraulic Excavator, Track - 12.0 to 14.0 Metric Tons",Pennsylvania,TEX,Track Excavators,,EROPS,,,,,,,,,,,Auxiliary,,,,,,None or Unspecified,,,,Steel,None or Unspecified,None or Unspecified,None or Unspecified,None or Unspecified,Double,,,,,
1118,1489148,38000,863493,132,5.0,1997,,,4/2/2004 0:00,312BL,312,B,,L,Small,"Hydraulic Excavator, Track - 12.0 to 14.0 Metric Tons",Connecticut,TEX,Track Excavators,,EROPS,,,,,,,,,,,Standard,,,,,,None or Unspecified,,,,Steel,28 inch,"9' 10""",Manual,None or Unspecified,Triple,,,,,
1118,1489151,49000,219137,132,1.0,1997,,,10/12/2000 0:00,312BL,312,B,,L,Small,"Hydraulic Excavator, Track - 12.0 to 14.0 Metric Tons",North Carolina,TEX,Track Excavators,,EROPS,,,,,,,,,,,Auxiliary,,,,,,None or Unspecified,,,,Steel,None or Unspecified,"9' 10""",None or Unspecified,Yes,Triple,,,,,
1118,1489152,30000,733532,132,8.0,1997,,,3/26/2003 0:00,312BL,312,B,,L,Small,"Hydraulic Excavator, Track - 12.0 to 14.0 Metric Tons",Mississippi,TEX,Track Excavators,,EROPS w AC,,,,,,,,,,,Standard,,,,,,None or Unspecified,,,,Steel,None or Unspecified,None or Unspecified,None or Unspecified,None or Unspecified,Triple,,,,,
1118,1489153,57000,298217,132,8.0,1997,,,11/15/2006 0:00,312BL,312,B,,L,Small,"Hydraulic Excavator, Track - 12.0 to 14.0 Metric Tons",Mississippi,TEX,Track Excavators,,EROPS,,,,,,,,,,,Auxiliary,,,,,,None or Unspecified,,,,Steel,None or Unspecified,None or Unspecified,Hydraulic,None or Unspecified,Triple,,,,,
1118,1489154,35000,283377,132,1.0,1997,,,4/4/2006 0:00,312BL,312,B,,L,Small,"Hydraulic Excavator, Track - 12.0 to 14.0 Metric Tons",Maryland,TEX,Track Excavators,,EROPS,,,,,,,,,,,Standard,,,,,,None or Unspecified,,,,Steel,None or Unspecified,"9' 6""",None or Unspecified,None or Unspecified,Triple,,,,,
1118,1489156,41000,15348,132,4.0,1997,,,2/7/2005 0:00,312BL,312,B,,L,Small,"Hydraulic Excavator, Track - 12.0 to 14.0 Metric Tons",Florida,TEX,Track Excavators,,EROPS,,,,,,,,,,,Standard,,,,,,None or Unspecified,,,,Steel,None or Unspecified,None or Unspecified,None or Unspecified,None or Unspecified,Triple,,,,,
1118,1489159,41000,631759,132,1.0,1997,,,6/20/2006 0:00,312BL,312,B,,L,Small,"Hydraulic Excavator, Track - 12.0 to 14.0 Metric Tons",Washington,TEX,Track Excavators,,EROPS,,,,,,,,,,,Standard,,,,,,Hydraulic,,,,Steel,None or Unspecified,None or Unspecified,Hydraulic,None or Unspecified,Double,,,,,
1118,1489160,43500,11120,132,7.0,1997,,,9/6/2001 0:00,312BL,312,B,,L,Small,"Hydraulic Excavator, Track - 12.0 to 14.0 Metric Tons",Alabama,TEX,Track Excavators,,EROPS w AC,,,,,,,,,,,Standard,,,,,,None or Unspecified,,,,Steel,None or Unspecified,None or Unspecified,None or Unspecified,None or Unspecified,Triple,,,,,
1118,1489161,49000,425813,132,1.0,1997,,,10/12/2000 0:00,312BL,312,B,,L,Small,"Hydraulic Excavator, Track - 12.0 to 14.0 Metric Tons",North Carolina,TEX,Track Excavators,,EROPS,,,,,,,,,,,Auxiliary,,,,,,None or Unspecified,,,,Steel,None or Unspecified,"9' 10""",None or Unspecified,Yes,Triple,,,,,
1118,1489163,30000,644715,132,1.0,1997,,,9/25/2001 0:00,312BL,312,B,,L,Small,"Hydraulic Excavator, Track - 12.0 to 14.0 Metric Tons",Washington,TEX,Track Excavators,,EROPS,,,,,,,,,,,Standard,,,,,,None or Unspecified,,,,Steel,None or Unspecified,None or Unspecified,Hydraulic,None or Unspecified,Double,,,,,
1118,1489164,31000,6652,132,1.0,1997,,,3/27/2007 0:00,312BL,312,B,,L,Small,"Hydraulic Excavator, Track - 12.0 to 14.0 Metric Tons",Georgia,TEX,Track Excavators,,EROPS w AC,,,,,,,,,,,Standard,,,,,,None or Unspecified,,,,Steel,None or Unspecified,"9' 10""",Manual,None or Unspecified,Triple,,,,,
1118,1489165,36000,396335,132,8.0,1997,,,11/15/2006 0:00,312BL,312,B,,L,Small,"Hydraulic Excavator, Track - 12.0 to 14.0 Metric Tons",Mississippi,TEX,Track Excavators,,EROPS w AC,,,,,,,,,,,Auxiliary,,,,,,None or Unspecified,,,,Steel,24 inch,None or Unspecified,None or Unspecified,None or Unspecified,Triple,,,,,
1118,1489166,30000,59315,132,3.0,1997,,,10/30/2003 0:00,312BL,312,B,,L,Small,"Hydraulic Excavator, Track - 12.0 to 14.0 Metric Tons",Unspecified,TEX,Track Excavators,,EROPS w AC,,,,,,,,,,,Standard,,,,,,None or Unspecified,,,,Steel,28 inch,None or Unspecified,None or Unspecified,None or Unspecified,Triple,,,,,
1118,1489167,35500,59315,132,2.0,1997,,,11/13/2003 0:00,312BL,312,B,,L,Small,"Hydraulic Excavator, Track - 12.0 to 14.0 Metric Tons",Texas,TEX,Track Excavators,,EROPS w AC,,,,,,,,,,,Standard,,,,,,None or Unspecified,,,,Steel,28 inch,None or Unspecified,None or Unspecified,None or Unspecified,Triple,,,,,
1118,1489168,37500,118703,132,12.0,1997,,,9/26/2001 0:00,312BL,312,B,,L,Small,"Hydraulic Excavator, Track - 12.0 to 14.0 Metric Tons",South Carolina,TEX,Track Excavators,,EROPS,,,,,,,,,,,Auxiliary,,,,,,None or Unspecified,,,,Steel,28 inch,"9' 10""",None or Unspecified,Yes,Triple,,,,,
1118,1489169,48000,118703,132,1.0,1997,,,10/12/2000 0:00,312BL,312,B,,L,Small,"Hydraulic Excavator, Track - 12.0 to 14.0 Metric Tons",North Carolina,TEX,Track Excavators,,EROPS,,,,,,,,,,,Auxiliary,,,,,,None or Unspecified,,,,Steel,28 inch,"9' 10""",None or Unspecified,Yes,Triple,,,,,
1118,1489170,50000,118703,132,11.0,1997,,,1/25/2001 0:00,312BL,312,B,,L,Small,"Hydraulic Excavator, Track - 12.0 to 14.0 Metric Tons",South Carolina,TEX,Track Excavators,,EROPS,,,,,,,,,,,Auxiliary,,,,,,None or Unspecified,,,,Steel,28 inch,"9' 10""",None or Unspecified,Yes,Triple,,,,,
1118,1489171,39000,118703,132,7.0,1997,,,4/19/2002 0:00,312BL,312,B,,L,Small,"Hydraulic Excavator, Track - 12.0 to 14.0 Metric Tons",South Carolina,TEX,Track Excavators,,EROPS,,,,,,,,,,,Auxiliary,,,,,,None or Unspecified,,,,Steel,28 inch,"9' 10""",None or Unspecified,Yes,Triple,,,,,
1118,1489172,29000,42193,132,1.0,1997,,,8/11/2006 0:00,312BL,312,B,,L,Small,"Hydraulic Excavator, Track - 12.0 to 14.0 Metric Tons",Texas,TEX,Track Excavators,,EROPS w AC,,,,,,,,,,,Standard,,,,,,None or Unspecified,,,,Steel,None or Unspecified,"9' 6""",None or Unspecified,None or Unspecified,Triple,,,,,
1118,1489173,35000,1168435,132,1.0,1997,,,12/13/2000 0:00,312BL,312,B,,L,Small,"Hydraulic Excavator, Track - 12.0 to 14.0 Metric Tons",Texas,TEX,Track Excavators,,EROPS,,,,,,,,,,,Standard,,,,,,None or Unspecified,,,,Steel,None or Unspecified,None or Unspecified,None or Unspecified,Yes,Triple,,,,,
1118,1489174,45000,1510602,132,2.0,1997,,,2/8/2001 0:00,312BL,312,B,,L,Small,"Hydraulic Excavator, Track - 12.0 to 14.0 Metric Tons",Florida,TEX,Track Excavators,,EROPS w AC,,,,,,,,,,,Standard,,,,,,None or Unspecified,,,,Steel,None or Unspecified,None or Unspecified,None or Unspecified,None or Unspecified,Triple,,,,,
1118,1489175,30000,1510602,132,1.0,1997,,,12/13/2000 0:00,312BL,312,B,,L,Small,"Hydraulic Excavator, Track - 12.0 to 14.0 Metric Tons",Texas,TEX,Track Excavators,,EROPS w AC,,,,,,,,,,,Standard,,,,,,None or Unspecified,,,,Steel,None or Unspecified,None or Unspecified,None or Unspecified,None or Unspecified,Triple,,,,,
1118,1489176,32000,50884,132,3.0,1997,,,12/13/2001 0:00,312BL,312,B,,L,Small,"Hydraulic Excavator, Track - 12.0 to 14.0 Metric Tons",Unspecified,TEX,Track Excavators,,EROPS w AC,,,,,,,,,,,Standard,,,,,,None or Unspecified,,,,Steel,28 inch,None or Unspecified,Hydraulic,None or Unspecified,Triple,,,,,
1118,1489177,48500,50884,132,4.0,1997,,,2/11/2002 0:00,312BL,312,B,,L,Small,"Hydraulic Excavator, Track - 12.0 to 14.0 Metric Tons",Florida,TEX,Track Excavators,,EROPS w AC,,,,,,,,,,,Standard,,,,,,None or Unspecified,,,,Steel,28 inch,None or Unspecified,Hydraulic,None or Unspecified,Triple,,,,,
1118,1489180,35000,148394,132,13.0,1997,,,12/4/2004 0:00,312BL,312,B,,L,Small,"Hydraulic Excavator, Track - 12.0 to 14.0 Metric Tons",Tennessee,TEX,Track Excavators,,EROPS,,,,,,,,,,,Standard,,,,,,None or Unspecified,,,,Steel,None or Unspecified,None or Unspecified,None or Unspecified,Yes,Triple,,,,,
1118,1489181,31000,89661,132,2.0,1997,,,3/22/2007 0:00,312BL,312,B,,L,Small,"Hydraulic Excavator, Track - 12.0 to 14.0 Metric Tons",New Jersey,TEX,Track Excavators,,EROPS,,,,,,,,,,,Standard,,,,,,None or Unspecified,,,,Steel,24 inch,"8' 2""",None or Unspecified,None or Unspecified,Double,,,,,
1118,1489182,56000,26564,132,1.0,1997,,,4/6/2000 0:00,312BL,312,B,,L,Small,"Hydraulic Excavator, Track - 12.0 to 14.0 Metric Tons",Georgia,TEX,Track Excavators,,EROPS,,,,,,,,,,,Standard,,,,,,None or Unspecified,,,,Steel,None or Unspecified,None or Unspecified,None or Unspecified,None or Unspecified,Double,,,,,
1118,1489183,27000,465875,132,3.0,1997,,,9/15/2003 0:00,312BL,312,B,,L,Small,"Hydraulic Excavator, Track - 12.0 to 14.0 Metric Tons",Unspecified,TEX,Track Excavators,,EROPS w AC,,,,,,,,,,,Auxiliary,,,,,,None or Unspecified,,,,Steel,28 inch,"9' 10""",None or Unspecified,Yes,Triple,,,,,
1118,1489184,37000,465875,132,8.0,1997,,,11/19/2003 0:00,312BL,312,B,,L,Small,"Hydraulic Excavator, Track - 12.0 to 14.0 Metric Tons",Mississippi,TEX,Track Excavators,,EROPS w AC,,,,,,,,,,,Auxiliary,,,,,,None or Unspecified,,,,Steel,28 inch,"9' 10""",None or Unspecified,Yes,Triple,,,,,
1118,1489185,37000,465875,132,7.0,1997,,,12/4/2003 0:00,312BL,312,B,,L,Small,"Hydraulic Excavator, Track - 12.0 to 14.0 Metric Tons",Alabama,TEX,Track Excavators,,EROPS w AC,,,,,,,,,,,Auxiliary,,,,,,None or Unspecified,,,,Steel,28 inch,"9' 10""",None or Unspecified,Yes,Triple,,,,,
1118,1489188,31000,893406,132,2.0,1997,,,9/20/2002 0:00,312BL,312,B,,L,Small,"Hydraulic Excavator, Track - 12.0 to 14.0 Metric Tons",Alabama,TEX,Track Excavators,,EROPS w AC,,,,,,,,,,,Standard,,,,,,None or Unspecified,,,,Steel,None or Unspecified,None or Unspecified,None or Unspecified,None or Unspecified,Double,,,,,
1118,1489190,29000,15199,132,1.0,1997,,,9/19/2002 0:00,312BL,312,B,,L,Small,"Hydraulic Excavator, Track - 12.0 to 14.0 Metric Tons",Georgia,TEX,Track Excavators,,EROPS,,,,,,,,,,,Standard,,,,,,None or Unspecified,,,,Steel,None or Unspecified,"9' 10""",None or Unspecified,None or Unspecified,Triple,,,,,
1118,1489191,42500,854382,132,2.0,1997,,,3/31/2001 0:00,312BL,312,B,,L,Small,"Hydraulic Excavator, Track - 12.0 to 14.0 Metric Tons",New Jersey,TEX,Track Excavators,,EROPS,,,,,,,,,,,Standard,,,,,,None or Unspecified,,,,Steel,None or Unspecified,None or Unspecified,None or Unspecified,None or Unspecified,Triple,,,,,
1118,1489192,31000,36642,132,2.0,1997,,,6/26/2004 0:00,312BL,312,B,,L,Small,"Hydraulic Excavator, Track - 12.0 to 14.0 Metric Tons",Ohio,TEX,Track Excavators,,EROPS,,,,,,,,,,,Auxiliary,,,,,,None or Unspecified,,,,Steel,28 inch,"9' 6""",None or Unspecified,None or Unspecified,Triple,,,,,
1118,1489193,32500,36642,132,1.0,1997,,,9/19/2002 0:00,312BL,312,B,,L,Small,"Hydraulic Excavator, Track - 12.0 to 14.0 Metric Tons",Georgia,TEX,Track Excavators,,EROPS,,,,,,,,,,,Auxiliary,,,,,,None or Unspecified,,,,Steel,28 inch,"9' 6""",None or Unspecified,None or Unspecified,Triple,,,,,
1118,1489196,50000,1234182,132,1.0,1997,,,6/5/2001 0:00,312BL,312,B,,L,Small,"Hydraulic Excavator, Track - 12.0 to 14.0 Metric Tons",Maine,TEX,Track Excavators,,EROPS,,,,,,,,,,,Standard,,,,,,None or Unspecified,,,,Steel,None or Unspecified,"9' 6""",None or Unspecified,None or Unspecified,Double,,,,,
1118,1489198,48000,1288274,132,99.0,1997,,,4/13/2002 0:00,312BL,312,B,,L,Small,"Hydraulic Excavator, Track - 12.0 to 14.0 Metric Tons",Maine,TEX,Track Excavators,,EROPS,,,,,,,,,,,Standard,,,,,,None or Unspecified,,,,Steel,None or Unspecified,"9' 10""",None or Unspecified,None or Unspecified,Double,,,,,
1118,1489199,46000,1288274,132,1.0,1997,,,3/14/2001 0:00,312BL,312,B,,L,Small,"Hydraulic Excavator, Track - 12.0 to 14.0 Metric Tons",Illinois,TEX,Track Excavators,,EROPS,,,,,,,,,,,Standard,,,,,,None or Unspecified,,,,Steel,None or Unspecified,"9' 10""",None or Unspecified,None or Unspecified,Double,,,,,
1118,1489200,60000,890115,132,11.0,1997,,,9/6/2000 0:00,312BL,312,B,,L,Small,"Hydraulic Excavator, Track - 12.0 to 14.0 Metric Tons",Mississippi,TEX,Track Excavators,,EROPS w AC,,,,,,,,,,,Standard,,,,,,None or Unspecified,,,,Steel,24 inch,None or Unspecified,None or Unspecified,None or Unspecified,Double,,,,,
1118,1489201,38500,406924,132,2.0,1997,,,1/12/2002 0:00,312BL,312,B,,L,Small,"Hydraulic Excavator, Track - 12.0 to 14.0 Metric Tons",New York,TEX,Track Excavators,,EROPS,,,,,,,,,,,Auxiliary,,,,,,None or Unspecified,,,,Steel,None or Unspecified,None or Unspecified,None or Unspecified,Yes,Double,,,,,
1118,1489204,35500,887776,132,13.0,1998,,,12/4/2004 0:00,312BL,312,B,,L,Small,"Hydraulic Excavator, Track - 12.0 to 14.0 Metric Tons",Tennessee,TEX,Track Excavators,,EROPS,,,,,,,,,,,Standard,,,,,,None or Unspecified,,,,Steel,None or Unspecified,None or Unspecified,None or Unspecified,None or Unspecified,Double,,,,,
1118,1489205,42000,810585,132,7.0,1998,,,3/6/2003 0:00,312BL,312,B,,L,Small,"Hydraulic Excavator, Track - 12.0 to 14.0 Metric Tons",Alabama,TEX,Track Excavators,,EROPS w AC,,,,,,,,,,,Standard,,,,,,None or Unspecified,,,,Steel,None or Unspecified,None or Unspecified,None or Unspecified,None or Unspecified,Double,,,,,
1118,1489206,40500,810585,132,8.0,1998,,,3/26/2003 0:00,312BL,312,B,,L,Small,"Hydraulic Excavator, Track - 12.0 to 14.0 Metric Tons",Mississippi,TEX,Track Excavators,,EROPS w AC,,,,,,,,,,,Standard,,,,,,None or Unspecified,,,,Steel,None or Unspecified,None or Unspecified,None or Unspecified,None or Unspecified,Double,,,,,
1118,1489207,39000,810585,132,1.0,1998,,,12/17/2002 0:00,312BL,312,B,,L,Small,"Hydraulic Excavator, Track - 12.0 to 14.0 Metric Tons",Maryland,TEX,Track Excavators,,EROPS w AC,,,,,,,,,,,Standard,,,,,,None or Unspecified,,,,Steel,None or Unspecified,None or Unspecified,None or Unspecified,None or Unspecified,Double,,,,,
1118,1489209,62500,700002,132,2.0,1998,,,2/8/2001 0:00,312BL,312,B,,L,Small,"Hydraulic Excavator, Track - 12.0 to 14.0 Metric Tons",Florida,TEX,Track Excavators,,EROPS,,,,,,,,,,,Standard,,,,,,None or Unspecified,,,,Steel,24 inch,"9' 10""",None or Unspecified,Yes,Triple,,,,,
1118,1489210,42500,700002,132,2.0,1998,,,5/17/2003 0:00,312BL,312,B,,L,Small,"Hydraulic Excavator, Track - 12.0 to 14.0 Metric Tons",New York,TEX,Track Excavators,,EROPS,,,,,,,,,,,Standard,,,,,,None or Unspecified,,,,Steel,24 inch,"9' 10""",None or Unspecified,Yes,Triple,,,,,
1118,1489211,49000,1255118,132,2.0,1998,,,5/18/2002 0:00,312BL,312,B,,L,Small,"Hydraulic Excavator, Track - 12.0 to 14.0 Metric Tons",Pennsylvania,TEX,Track Excavators,,EROPS,,,,,,,,,,,Standard,,,,,,Manual,,,,Steel,24 inch,None or Unspecified,None or Unspecified,None or Unspecified,Double,,,,,
1118,1489213,34000,1093694,132,1.0,1998,,,12/12/2001 0:00,312BL,312,B,,L,Small,"Hydraulic Excavator, Track - 12.0 to 14.0 Metric Tons",Texas,TEX,Track Excavators,,EROPS,,,,,,,,,,,Standard,,,,,,None or Unspecified,,,,Steel,None or Unspecified,None or Unspecified,None or Unspecified,None or Unspecified,Double,,,,,
1118,1489216,34500,11220,132,2.0,1998,,,2/2/2003 0:00,312BL,312,B,,L,Small,"Hydraulic Excavator, Track - 12.0 to 14.0 Metric Tons",Florida,TEX,Track Excavators,,EROPS w AC,,,,,,,,,,,Standard,,,,,,None or Unspecified,,,,Steel,28 inch,"9' 6""",Manual,Yes,Triple,,,,,
1118,1489217,34500,11220,132,2.0,1998,,,2/5/2006 0:00,312BL,312,B,,L,Small,"Hydraulic Excavator, Track - 12.0 to 14.0 Metric Tons",Florida,TEX,Track Excavators,,EROPS w AC,,,,,,,,,,,Standard,,,,,,None or Unspecified,,,,Steel,28 inch,"9' 6""",Manual,Yes,Triple,,,,,
1118,1489218,36000,11623,132,3.0,1998,,,9/15/2003 0:00,312BL,312,B,,L,Small,"Hydraulic Excavator, Track - 12.0 to 14.0 Metric Tons",Unspecified,TEX,Track Excavators,,EROPS w AC,,,,,,,,,,,Standard,,,,,,None or Unspecified,,,,Steel,28 inch,None or Unspecified,None or Unspecified,Yes,Triple,,,,,
1118,1489219,36000,11623,132,2.0,1998,,,11/13/2003 0:00,312BL,312,B,,L,Small,"Hydraulic Excavator, Track - 12.0 to 14.0 Metric Tons",Texas,TEX,Track Excavators,,EROPS w AC,,,,,,,,,,,Standard,,,,,,None or Unspecified,,,,Steel,28 inch,None or Unspecified,None or Unspecified,Yes,Triple,,,,,
1118,1489221,43000,160583,132,8.0,1998,,,9/22/2004 0:00,312BL,312,B,,L,Small,"Hydraulic Excavator, Track - 12.0 to 14.0 Metric Tons",Mississippi,TEX,Track Excavators,,EROPS,,,,,,,,,,,Standard,,,,,,None or Unspecified,,,,Steel,28 inch,None or Unspecified,None or Unspecified,Yes,Triple,,,,,
1118,1489223,38000,201809,132,3.0,1998,,,5/30/2002 0:00,312BL,312,B,,L,Small,"Hydraulic Excavator, Track - 12.0 to 14.0 Metric Tons",Unspecified,TEX,Track Excavators,,EROPS w AC,,,,,,,,,,,Standard,,,,,,None or Unspecified,,,,Steel,24 inch,None or Unspecified,None or Unspecified,None or Unspecified,Double,,,,,
1118,1489224,39000,1315088,132,15.0,1998,,,11/18/2004 0:00,312BL,312,B,,L,Small,"Hydraulic Excavator, Track - 12.0 to 14.0 Metric Tons",Pennsylvania,TEX,Track Excavators,,EROPS,,,,,,,,,,,Auxiliary,,,,,,Hydraulic,,,,Steel,24 inch,"9' 10""",None or Unspecified,None or Unspecified,Triple,,,,,
1118,1489225,18500,373178,132,4.0,1998,,,2/14/2008 0:00,312BL,312,B,,L,Small,"Hydraulic Excavator, Track - 12.0 to 14.0 Metric Tons",Florida,TEX,Track Excavators,,EROPS w AC,,,,,,,,,,,Standard,,,,,,None or Unspecified,,,,Steel,24 inch,"9' 6""",Manual,None or Unspecified,Triple,,,,,
1118,1489226,40000,373178,132,19.0,1998,,,11/8/2001 0:00,312BL,312,B,,L,Small,"Hydraulic Excavator, Track - 12.0 to 14.0 Metric Tons",California,TEX,Track Excavators,,EROPS w AC,,,,,,,,,,,Standard,,,,,,None or Unspecified,,,,Steel,24 inch,"9' 6""",Manual,None or Unspecified,Triple,,,,,
1118,1489231,44000,1368455,132,27.0,1998,,,12/29/2006 0:00,312BL,312,B,,L,Small,"Hydraulic Excavator, Track - 12.0 to 14.0 Metric Tons",North Carolina,TEX,Track Excavators,,EROPS,,,,,,,,,,,Auxiliary,,,,,,None or Unspecified,,,,Steel,None or Unspecified,None or Unspecified,None or Unspecified,None or Unspecified,Double,,,,,
1118,1489232,36000,812854,132,5.0,1998,,,1/21/2005 0:00,312BL,312,B,,L,Small,"Hydraulic Excavator, Track - 12.0 to 14.0 Metric Tons",Connecticut,TEX,Track Excavators,,EROPS,,,,,,,,,,,Standard,,,,,,None or Unspecified,,,,Steel,28 inch,"9' 10""",None or Unspecified,None or Unspecified,Triple,,,,,
1118,1489235,32000,812854,132,2.0,1998,,,11/4/2006 0:00,312BL,312,B,,L,Small,"Hydraulic Excavator, Track - 12.0 to 14.0 Metric Tons",New York,TEX,Track Excavators,,EROPS,,,,,,,,,,,Standard,,,,,,None or Unspecified,,,,Steel,28 inch,"9' 10""",None or Unspecified,None or Unspecified,Triple,,,,,
1118,1489237,42000,710308,132,3.0,1998,,,5/29/2003 0:00,312BL,312,B,,L,Small,"Hydraulic Excavator, Track - 12.0 to 14.0 Metric Tons",Unspecified,TEX,Track Excavators,,EROPS w AC,,,,,,,,,,,Standard,,,,,,None or Unspecified,,,,Steel,24 inch,"9' 10""",None or Unspecified,None or Unspecified,Double,,,,,
1118,1489238,35000,1311463,132,1.0,1998,,,3/13/2002 0:00,312BL,312,B,,L,Small,"Hydraulic Excavator, Track - 12.0 to 14.0 Metric Tons",Illinois,TEX,Track Excavators,,EROPS,,,,,,,,,,,Auxiliary,,,,,,None or Unspecified,,,,Steel,None or Unspecified,"9' 10""",None or Unspecified,None or Unspecified,Double,,,,,
1118,1489239,45000,730852,132,7.0,1998,,,8/31/2005 0:00,312BL,312,B,,L,Small,"Hydraulic Excavator, Track - 12.0 to 14.0 Metric Tons",Alabama,TEX,Track Excavators,,EROPS w AC,,,,,,,,,,,Standard,,,,,,None or Unspecified,,,,Steel,30 inch,None or Unspecified,Manual,None or Unspecified,Triple,,,,,
1118,1489244,30000,1470266,132,1.0,1998,,,5/3/2007 0:00,312BL,312,B,,L,Small,"Hydraulic Excavator, Track - 12.0 to 14.0 Metric Tons",Arizona,TEX,Track Excavators,,EROPS w AC,,,,,,,,,,,Auxiliary,,,,,,Manual,,,,Steel,None or Unspecified,"9' 7""",Hydraulic,None or Unspecified,Double,,,,,
1118,1489246,75000,1470266,132,1.0,1998,,,11/28/2000 0:00,312BL,312,B,,L,Small,"Hydraulic Excavator, Track - 12.0 to 14.0 Metric Tons",Arizona,TEX,Track Excavators,,EROPS w AC,,,,,,,,,,,Auxiliary,,,,,,Manual,,,,Steel,None or Unspecified,"9' 7""",Hydraulic,None or Unspecified,Double,,,,,
1118,1489248,28000,66495,132,1.0,1998,,,11/17/2005 0:00,312BL,312,B,,L,Small,"Hydraulic Excavator, Track - 12.0 to 14.0 Metric Tons",Texas,TEX,Track Excavators,,EROPS w AC,,,,,,,,,,,Auxiliary,,,,,,None or Unspecified,,,,Steel,None or Unspecified,"9' 6""",Manual,None or Unspecified,Triple,,,,,
1118,1489250,38000,54215,132,10.0,1998,,,6/22/2006 0:00,312BL,312,B,,L,Small,"Hydraulic Excavator, Track - 12.0 to 14.0 Metric Tons",Louisiana,TEX,Track Excavators,,EROPS w AC,,,,,,,,,,,Standard,,,,,,None or Unspecified,,,,Steel,None or Unspecified,None or Unspecified,None or Unspecified,None or Unspecified,Triple,,,,,
1118,1489251,33500,829587,132,5.0,1998,,,3/29/2005 0:00,312BL,312,B,,L,Small,"Hydraulic Excavator, Track - 12.0 to 14.0 Metric Tons",Connecticut,TEX,Track Excavators,,EROPS,,,,,,,,,,,Standard,,,,,,None or Unspecified,,,,Steel,28 inch,"9' 10""",None or Unspecified,None or Unspecified,Triple,,,,,
1118,1489252,38000,1457424,132,2.0,1998,,,9/23/2005 0:00,312BL,312,B,,L,Small,"Hydraulic Excavator, Track - 12.0 to 14.0 Metric Tons",New Jersey,TEX,Track Excavators,,EROPS,,,,,,,,,,,Standard,,,,,,None or Unspecified,,,,Steel,28 inch,None or Unspecified,None or Unspecified,Yes,Triple,,,,,
1118,1489253,38000,854736,132,5.0,1998,,,8/26/2005 0:00,312BL,312,B,,L,Small,"Hydraulic Excavator, Track - 12.0 to 14.0 Metric Tons",Connecticut,TEX,Track Excavators,,EROPS,,,,,,,,,,,Standard,,,,,,None or Unspecified,,,,Steel,28 inch,"9' 10""",Manual,None or Unspecified,Triple,,,,,
1118,1489256,56000,731023,132,11.0,1998,,,10/12/2000 0:00,312BL,312,B,,L,Small,"Hydraulic Excavator, Track - 12.0 to 14.0 Metric Tons",Mississippi,TEX,Track Excavators,,EROPS,,,,,,,,,,,Standard,,,,,,None or Unspecified,,,,Steel,28 inch,"9' 6""",Manual,None or Unspecified,Triple,,,,,
1118,1489257,57000,731023,132,1.0,1998,,,8/16/2000 0:00,312BL,312,B,,L,Small,"Hydraulic Excavator, Track - 12.0 to 14.0 Metric Tons",Texas,TEX,Track Excavators,,EROPS,,,,,,,,,,,Standard,,,,,,None or Unspecified,,,,Steel,28 inch,"9' 6""",Manual,None or Unspecified,Triple,,,,,
1118,1489260,39000,312202,132,19.0,1998,,,9/26/2002 0:00,312BL,312,B,,L,Small,"Hydraulic Excavator, Track - 12.0 to 14.0 Metric Tons",Nevada,TEX,Track Excavators,,EROPS w AC,,,,,,,,,,,Auxiliary,,,,,,None or Unspecified,,,,Steel,24 inch,"8' 4""",None or Unspecified,None or Unspecified,Triple,,,,,
1118,1489261,47500,1544140,132,2.0,1998,,,9/15/2001 0:00,312BL,312,B,,L,Small,"Hydraulic Excavator, Track - 12.0 to 14.0 Metric Tons",New Jersey,TEX,Track Excavators,,EROPS w AC,,,,,,,,,,,Standard,,,,,,None or Unspecified,,,,Steel,None or Unspecified,None or Unspecified,None or Unspecified,None or Unspecified,Triple,,,,,
1118,1489262,47500,281878,132,2.0,1998,,,9/16/2006 0:00,312BL,312,B,,L,Small,"Hydraulic Excavator, Track - 12.0 to 14.0 Metric Tons",New Jersey,TEX,Track Excavators,,EROPS w AC,,,,,,,,,,,Standard,,,,,,None or Unspecified,,,,Steel,28 inch,None or Unspecified,Manual,None or Unspecified,Triple,,,,,
1118,1489263,39000,281878,132,12.0,1998,,,9/21/2006 0:00,312BL,312,B,,L,Small,"Hydraulic Excavator, Track - 12.0 to 14.0 Metric Tons",South Carolina,TEX,Track Excavators,,EROPS w AC,,,,,,,,,,,Standard,,,,,,None or Unspecified,,,,Steel,28 inch,None or Unspecified,Manual,None or Unspecified,Triple,,,,,
1118,1489266,47000,693579,132,1.0,1998,,,11/12/2003 0:00,312BL,312,B,,L,Small,"Hydraulic Excavator, Track - 12.0 to 14.0 Metric Tons",Iowa,TEX,Track Excavators,,EROPS,,,,,,,,,,,Auxiliary,,,,,,None or Unspecified,,,,Steel,None or Unspecified,"9' 6""",None or Unspecified,Yes,Double,,,,,
1118,1489274,36000,1378853,132,1.0,1998,,,3/13/2002 0:00,312BL,312,B,,L,Small,"Hydraulic Excavator, Track - 12.0 to 14.0 Metric Tons",Illinois,TEX,Track Excavators,,EROPS,,,,,,,,,,,Auxiliary,,,,,,None or Unspecified,,,,Steel,None or Unspecified,"9' 10""",None or Unspecified,None or Unspecified,Double,,,,,
1118,1489277,37000,161469,132,9.0,1998,,,2/16/2005 0:00,312BL,312,B,,L,Small,"Hydraulic Excavator, Track - 12.0 to 14.0 Metric Tons",Florida,TEX,Track Excavators,,EROPS,,,,,,,,,,,Standard,,,,,,None or Unspecified,,,,Steel,None or Unspecified,None or Unspecified,None or Unspecified,None or Unspecified,Triple,,,,,
1118,1489278,40000,528361,132,1.0,1998,,,5/14/2003 0:00,312BL,312,B,,L,Small,"Hydraulic Excavator, Track - 12.0 to 14.0 Metric Tons",Florida,TEX,Track Excavators,,EROPS w AC,,,,,,,,,,,Standard,,,,,,None or Unspecified,,,,Steel,None or Unspecified,"9' 10""",None or Unspecified,None or Unspecified,Double,,,,,
1118,1489280,45000,11479,132,3.0,1998,,,12/13/2001 0:00,312BL,312,B,,L,Small,"Hydraulic Excavator, Track - 12.0 to 14.0 Metric Tons",Unspecified,TEX,Track Excavators,,EROPS w AC,,,,,,,,,,,Standard,,,,,,None or Unspecified,,,,Steel,27 inch,None or Unspecified,Manual,Yes,Triple,,,,,
1118,1489281,30000,125703,132,1.0,1998,,,6/17/2005 0:00,312BL,312,B,,L,Small,"Hydraulic Excavator, Track - 12.0 to 14.0 Metric Tons",North Carolina,TEX,Track Excavators,,EROPS,,,,,,,,,,,Standard,,,,,,None or Unspecified,,,,Steel,None or Unspecified,None or Unspecified,Manual,None or Unspecified,Double,,,,,
1118,1489283,32000,1167556,132,16.0,1998,,,4/26/2007 0:00,312BL,312,B,,L,Small,"Hydraulic Excavator, Track - 12.0 to 14.0 Metric Tons",Ohio,TEX,Track Excavators,,EROPS,,,,,,,,,,,Auxiliary,,,,,,None or Unspecified,,,,Steel,None or Unspecified,None or Unspecified,None or Unspecified,Yes,Triple,,,,,
1118,1489284,44000,1155275,132,2.0,1999,,,2/1/2004 0:00,312BL,312,B,,L,Small,"Hydraulic Excavator, Track - 12.0 to 14.0 Metric Tons",Florida,TEX,Track Excavators,,EROPS,,,,,,,,,,,Standard,,,,,,None or Unspecified,,,,Steel,None or Unspecified,None or Unspecified,None or Unspecified,None or Unspecified,Double,,,,,
1118,1489285,37000,556315,132,14.0,1998,,,9/22/2006 0:00,312BL,312,B,,L,Small,"Hydraulic Excavator, Track - 12.0 to 14.0 Metric Tons",Indiana,TEX,Track Excavators,,EROPS,,,,,,,,,,,Standard,,,,,,None or Unspecified,,,,Steel,None or Unspecified,None or Unspecified,None or Unspecified,None or Unspecified,Triple,,,,,
1118,1489287,38000,1344464,132,1.0,1998,,,11/19/2002 0:00,312BL,312,B,,L,Small,"Hydraulic Excavator, Track - 12.0 to 14.0 Metric Tons",Pennsylvania,TEX,Track Excavators,,EROPS w AC,,,,,,,,,,,Auxiliary,,,,,,Manual,,,,Steel,None or Unspecified,"9' 10""",None or Unspecified,Yes,Triple,,,,,
1118,1489288,31000,865113,132,5.0,1998,2461.0,Low,1/27/2006 0:00,312BL,312,B,,L,Small,"Hydraulic Excavator, Track - 12.0 to 14.0 Metric Tons",Connecticut,TEX,Track Excavators,,EROPS,,,,,,,,,,,Standard,,,,,,None or Unspecified,,,,Steel,28 inch,"9' 10""",None or Unspecified,None or Unspecified,Triple,,,,,
1118,1489289,70000,1425381,132,16.0,1999,,,10/6/2010 0:00,312BL,312,B,,L,Small,"Hydraulic Excavator, Track - 12.0 to 14.0 Metric Tons",Ohio,TEX,Track Excavators,,EROPS,,,,,,,,,,,Auxiliary,,,,,,None or Unspecified,,,,Steel,None or Unspecified,None or Unspecified,None or Unspecified,Yes,Triple,,,,,
1118,1489290,50000,326664,132,2.0,1998,,,2/4/2002 0:00,312BL,312,B,,L,Small,"Hydraulic Excavator, Track - 12.0 to 14.0 Metric Tons",Florida,TEX,Track Excavators,,EROPS,,,,,,,,,,,Standard,,,,,,None or Unspecified,,,,Steel,None or Unspecified,None or Unspecified,None or Unspecified,None or Unspecified,Double,,,,,
1118,1489291,49000,90459,132,1.0,1998,,,6/24/2003 0:00,312BL,312,B,,L,Small,"Hydraulic Excavator, Track - 12.0 to 14.0 Metric Tons",Maryland,TEX,Track Excavators,,EROPS,,,,,,,,,,,Auxiliary,,,,,,None or Unspecified,,,,Steel,None or Unspecified,"8' 2""",Manual,None or Unspecified,Double,,,,,
1118,1489292,55000,1311820,132,1.0,1998,,,10/5/2001 0:00,312BL,312,B,,L,Small,"Hydraulic Excavator, Track - 12.0 to 14.0 Metric Tons",Nevada,TEX,Track Excavators,,EROPS w AC,,,,,,,,,,,Auxiliary,,,,,,None or Unspecified,,,,Steel,None or Unspecified,"8' 6""",None or Unspecified,None or Unspecified,Triple,,,,,
1118,1489294,59000,880367,132,1.0,1998,,,9/25/2001 0:00,312BL,312,B,,L,Small,"Hydraulic Excavator, Track - 12.0 to 14.0 Metric Tons",Washington,TEX,Track Excavators,,EROPS,,,,,,,,,,,Auxiliary,,,,,,Manual,,,,Steel,None or Unspecified,None or Unspecified,Manual,Yes,Triple,,,,,
1118,1489296,46000,877142,132,1.0,1998,,,10/5/2001 0:00,312BL,312,B,,L,Small,"Hydraulic Excavator, Track - 12.0 to 14.0 Metric Tons",Nevada,TEX,Track Excavators,,EROPS w AC,,,,,,,,,,,Auxiliary,,,,,,Manual,,,,Steel,None or Unspecified,"9' 10""",Hydraulic,Yes,Triple,,,,,
1118,1489298,46000,882491,132,1.0,1999,,,6/8/2004 0:00,312BL,312,B,,L,Small,"Hydraulic Excavator, Track - 12.0 to 14.0 Metric Tons",Tennessee,TEX,Track Excavators,,EROPS,,,,,,,,,,,Standard,,,,,,None or Unspecified,,,,Steel,None or Unspecified,"9' 10""",None or Unspecified,None or Unspecified,Double,,,,,
1118,1489299,57000,893181,132,11.0,1999,,,12/6/2000 0:00,312BL,312,B,,L,Small,"Hydraulic Excavator, Track - 12.0 to 14.0 Metric Tons",Mississippi,TEX,Track Excavators,,EROPS w AC,,,,,,,,,,,Standard,,,,,,None or Unspecified,,,,Steel,24 inch,None or Unspecified,Manual,None or Unspecified,Double,,,,,
1118,1489300,43000,609717,132,1.0,1999,,,8/12/2004 0:00,312BL,312,B,,L,Small,"Hydraulic Excavator, Track - 12.0 to 14.0 Metric Tons",Texas,TEX,Track Excavators,,EROPS w AC,,,,,,,,,,,Standard,,,,,,None or Unspecified,,,,Steel,None or Unspecified,"8' 6""",Manual,None or Unspecified,Double,,,,,
1118,1489302,63000,748089,132,1.0,1999,,,10/5/2001 0:00,312BL,312,B,,L,Small,"Hydraulic Excavator, Track - 12.0 to 14.0 Metric Tons",Nevada,TEX,Track Excavators,,EROPS w AC,,,,,,,,,,,Auxiliary,,,,,,Manual,,,,Steel,None or Unspecified,"9' 10""",Hydraulic,Yes,Triple,,,,,
1118,1489303,46000,732699,132,8.0,1999,,,3/24/2004 0:00,312BL,312,B,,L,Small,"Hydraulic Excavator, Track - 12.0 to 14.0 Metric Tons",Mississippi,TEX,Track Excavators,,EROPS,,,,,,,,,,,Standard,,,,,,None or Unspecified,,,,Steel,None or Unspecified,None or Unspecified,None or Unspecified,None or Unspecified,Triple,,,,,
1118,1489305,46000,17091,132,1.0,1999,,,9/1/2004 0:00,312BL,312,B,,L,Small,"Hydraulic Excavator, Track - 12.0 to 14.0 Metric Tons",Georgia,TEX,Track Excavators,,EROPS w AC,,,,,,,,,,,Standard,,,,,,None or Unspecified,,,,Steel,None or Unspecified,None or Unspecified,None or Unspecified,Yes,Triple,,,,,
1118,1489308,42000,248693,132,27.0,1999,,,12/28/2005 0:00,312BL,312,B,,L,Small,"Hydraulic Excavator, Track - 12.0 to 14.0 Metric Tons",North Carolina,TEX,Track Excavators,,EROPS,,,,,,,,,,,Standard,,,,,,None or Unspecified,,,,Steel,30 inch,"9' 10""",None or Unspecified,Yes,Triple,,,,,
1118,1489309,44000,248693,132,27.0,1999,,,4/21/2006 0:00,312BL,312,B,,L,Small,"Hydraulic Excavator, Track - 12.0 to 14.0 Metric Tons",North Carolina,TEX,Track Excavators,,EROPS,,,,,,,,,,,Standard,,,,,,None or Unspecified,,,,Steel,30 inch,"9' 10""",None or Unspecified,Yes,Triple,,,,,
1118,1489315,42000,699480,132,3.0,1999,,,12/6/2001 0:00,312BL,312,B,,L,Small,"Hydraulic Excavator, Track - 12.0 to 14.0 Metric Tons",Unspecified,TEX,Track Excavators,,EROPS,,,,,,,,,,,Standard,,,,,,None or Unspecified,,,,Steel,24 inch,"9' 10""",None or Unspecified,Yes,Double,,,,,
1118,1489316,41000,331892,132,2.0,1999,,,9/14/2002 0:00,312BL,312,B,,L,Small,"Hydraulic Excavator, Track - 12.0 to 14.0 Metric Tons",New Jersey,TEX,Track Excavators,,EROPS,,,,,,,,,,,Standard,,,,,,None or Unspecified,,,,Steel,None or Unspecified,"8' 2""",None or Unspecified,None or Unspecified,Double,,,,,
1118,1489318,95000,868917,132,2.0,1999,,,4/15/2000 0:00,312BL,312,B,,L,Small,"Hydraulic Excavator, Track - 12.0 to 14.0 Metric Tons",New York,TEX,Track Excavators,,EROPS,,,,,,,,,,,Standard,,,,,,None or Unspecified,,,,Steel,None or Unspecified,None or Unspecified,None or Unspecified,None or Unspecified,Double,,,,,
1118,1489319,51000,255129,132,3.0,1999,,,12/4/2003 0:00,312BL,312,B,,L,Small,"Hydraulic Excavator, Track - 12.0 to 14.0 Metric Tons",Unspecified,TEX,Track Excavators,,EROPS w AC,,,,,,,,,,,Standard,,,,,,None or Unspecified,,,,Steel,28 inch,None or Unspecified,None or Unspecified,None or Unspecified,Triple,,,,,
1118,1489323,30000,1348522,132,4.0,1999,,,2/7/2011 0:00,312BL,312,B,,L,Small,"Hydraulic Excavator, Track - 12.0 to 14.0 Metric Tons",Florida,TEX,Track Excavators,,EROPS w AC,,,,,,,,,,,Auxiliary,,,,,,Hydraulic,,,,Steel,28 inch,"9' 10""",None or Unspecified,Yes,Triple,,,,,
1118,1489324,30000,1348522,132,4.0,1999,,,2/10/2011 0:00,312BL,312,B,,L,Small,"Hydraulic Excavator, Track - 12.0 to 14.0 Metric Tons",Florida,TEX,Track Excavators,,EROPS w AC,,,,,,,,,,,Auxiliary,,,,,,Hydraulic,,,,Steel,28 inch,"9' 10""",None or Unspecified,Yes,Triple,,,,,
1118,1489326,45000,358973,132,1.0,1999,,,6/6/2006 0:00,312BL,312,B,,L,Small,"Hydraulic Excavator, Track - 12.0 to 14.0 Metric Tons",Missouri,TEX,Track Excavators,,EROPS w AC,,,,,,,,,,,Auxiliary,,,,,,Hydraulic,,,,Steel,None or Unspecified,None or Unspecified,None or Unspecified,None or Unspecified,Triple,,,,,
1118,1489327,39000,292192,132,3.0,1999,,,9/5/2002 0:00,312BL,312,B,,L,Small,"Hydraulic Excavator, Track - 12.0 to 14.0 Metric Tons",Unspecified,TEX,Track Excavators,,EROPS,,,,,,,,,,,Standard,,,,,,None or Unspecified,,,,Steel,20 inch,None or Unspecified,None or Unspecified,None or Unspecified,Double,,,,,
1118,1489328,44000,383746,132,3.0,1999,,,12/13/2001 0:00,312BL,312,B,,L,Small,"Hydraulic Excavator, Track - 12.0 to 14.0 Metric Tons",Unspecified,TEX,Track Excavators,,EROPS w AC,,,,,,,,,,,Standard,,,,,,Manual,,,,Steel,24 inch,"9' 10""",Hydraulic,None or Unspecified,Double,,,,,
1118,1489330,39000,325581,132,3.0,1999,,,12/6/2001 0:00,312BL,312,B,,L,Small,"Hydraulic Excavator, Track - 12.0 to 14.0 Metric Tons",Unspecified,TEX,Track Excavators,,EROPS w AC,,,,,,,,,,,Auxiliary,,,,,,None or Unspecified,,,,Steel,24 inch,"8' 2""",None or Unspecified,None or Unspecified,Double,,,,,
1118,1489331,54500,325581,132,4.0,1999,,,2/11/2002 0:00,312BL,312,B,,L,Small,"Hydraulic Excavator, Track - 12.0 to 14.0 Metric Tons",Florida,TEX,Track Excavators,,EROPS w AC,,,,,,,,,,,Auxiliary,,,,,,None or Unspecified,,,,Steel,24 inch,"8' 2""",None or Unspecified,None or Unspecified,Double,,,,,
1118,1489332,24000,1333713,132,21.0,1999,11009.0,High,5/20/2011 0:00,312BL,312,B,,L,Small,"Hydraulic Excavator, Track - 12.0 to 14.0 Metric Tons",Maine,TEX,Track Excavators,,EROPS,,,,,,,,,,,Standard,,,,,,None or Unspecified,,,,Steel,None or Unspecified,None or Unspecified,None or Unspecified,None or Unspecified,Triple,,,,,
1118,1489333,51000,346099,132,2.0,1999,,,9/14/2002 0:00,312BL,312,B,,L,Small,"Hydraulic Excavator, Track - 12.0 to 14.0 Metric Tons",New Jersey,TEX,Track Excavators,,EROPS,,,,,,,,,,,Auxiliary,,,,,,None or Unspecified,,,,Steel,None or Unspecified,None or Unspecified,Manual,None or Unspecified,Double,,,,,
1118,1489334,49000,1422902,132,2.0,1999,,,7/30/2004 0:00,312BL,312,B,,L,Small,"Hydraulic Excavator, Track - 12.0 to 14.0 Metric Tons",Kentucky,TEX,Track Excavators,,EROPS,,,,,,,,,,,Standard,,,,,,None or Unspecified,,,,Steel,None or Unspecified,None or Unspecified,Hydraulic,None or Unspecified,Double,,,,,
1118,1489335,40000,1214080,132,5.0,1999,,,6/15/2005 0:00,312BL,312,B,,L,Small,"Hydraulic Excavator, Track - 12.0 to 14.0 Metric Tons",Connecticut,TEX,Track Excavators,,EROPS w AC,,,,,,,,,,,Auxiliary,,,,,,None or Unspecified,,,,Steel,28 inch,None or Unspecified,None or Unspecified,Yes,Triple,,,,,
1118,1489338,26000,1408292,132,21.0,1999,10794.0,High,5/20/2011 0:00,312BL,312,B,,L,Small,"Hydraulic Excavator, Track - 12.0 to 14.0 Metric Tons",Maine,TEX,Track Excavators,,EROPS,,,,,,,,,,,Standard,,,,,,None or Unspecified,,,,Steel,None or Unspecified,None or Unspecified,None or Unspecified,None or Unspecified,Triple,,,,,
1118,1489340,35500,66073,132,2.0,1999,,,11/16/2005 0:00,312BL,312,B,,L,Small,"Hydraulic Excavator, Track - 12.0 to 14.0 Metric Tons",Texas,TEX,Track Excavators,,EROPS w AC,,,,,,,,,,,Auxiliary,,,,,,None or Unspecified,,,,Steel,28 inch,None or Unspecified,None or Unspecified,None or Unspecified,Triple,,,,,
1118,1489343,55500,986819,132,2.0,1999,,,3/25/2004 0:00,312BL,312,B,,L,Small,"Hydraulic Excavator, Track - 12.0 to 14.0 Metric Tons",New Jersey,TEX,Track Excavators,,EROPS w AC,,,,,,,,,,,Auxiliary,,,,,,None or Unspecified,,,,Steel,None or Unspecified,"9' 10""",None or Unspecified,None or Unspecified,Double,,,,,
1118,1489344,35500,1307367,132,7.0,1999,,,8/30/2006 0:00,312BL,312,B,,L,Small,"Hydraulic Excavator, Track - 12.0 to 14.0 Metric Tons",Alabama,TEX,Track Excavators,,EROPS w AC,,,,,,,,,,,Standard,,,,,,None or Unspecified,,,,Steel,28 inch,"9' 10""",None or Unspecified,Yes,Triple,,,,,
1118,1489345,24000,1223438,132,21.0,1999,10205.0,Medium,5/20/2011 0:00,312BL,312,B,,L,Small,"Hydraulic Excavator, Track - 12.0 to 14.0 Metric Tons",Maine,TEX,Track Excavators,,EROPS,,,,,,,,,,,Standard,,,,,,None or Unspecified,,,,Steel,None or Unspecified,None or Unspecified,None or Unspecified,None or Unspecified,Triple,,,,,
1118,1489346,40000,6409,132,8.0,1999,,,7/23/2005 0:00,312BL,312,B,,L,Small,"Hydraulic Excavator, Track - 12.0 to 14.0 Metric Tons",Alabama,TEX,Track Excavators,,EROPS w AC,,,,,,,,,,,Standard,,,,,,None or Unspecified,,,,Steel,None or Unspecified,None or Unspecified,Manual,Yes,Triple,,,,,
1118,1489350,39000,897816,132,1.0,1999,,,12/7/2005 0:00,312BL,312,B,,L,Small,"Hydraulic Excavator, Track - 12.0 to 14.0 Metric Tons",North Carolina,TEX,Track Excavators,,EROPS w AC,,,,,,,,,,,Standard,,,,,,None or Unspecified,,,,Steel,None or Unspecified,"9' 10""",None or Unspecified,None or Unspecified,Double,,,,,
1118,1489353,35000,59446,132,19.0,1999,,,10/4/2006 0:00,312BL,312,B,,L,Small,"Hydraulic Excavator, Track - 12.0 to 14.0 Metric Tons",Texas,TEX,Track Excavators,,EROPS w AC,,,,,,,,,,,Auxiliary,,,,,,None or Unspecified,,,,Steel,28 inch,"9' 10""",Manual,None or Unspecified,Triple,,,,,
1118,1489354,48000,59446,132,10.0,2000,,,3/13/2007 0:00,312BL,312,B,,L,Small,"Hydraulic Excavator, Track - 12.0 to 14.0 Metric Tons",Louisiana,TEX,Track Excavators,,EROPS w AC,,,,,,,,,,,Auxiliary,,,,,,None or Unspecified,,,,Steel,28 inch,"9' 10""",Manual,None or Unspecified,Triple,,,,,
1118,1489356,48000,367101,132,3.0,2000,,,12/6/2001 0:00,312BL,312,B,,L,Small,"Hydraulic Excavator, Track - 12.0 to 14.0 Metric Tons",Unspecified,TEX,Track Excavators,,EROPS w AC,,,,,,,,,,,Standard,,,,,,None or Unspecified,,,,Steel,24 inch,None or Unspecified,None or Unspecified,None or Unspecified,Double,,,,,
1118,1489357,46000,89531,132,1.0,2000,,,10/4/2006 0:00,312BL,312,B,,L,Small,"Hydraulic Excavator, Track - 12.0 to 14.0 Metric Tons",Maryland,TEX,Track Excavators,,EROPS,,,,,,,,,,,Standard,,,,,,None or Unspecified,,,,Steel,None or Unspecified,"8' 2""",None or Unspecified,None or Unspecified,Double,,,,,
1118,1489358,44000,861244,132,1.0,2000,,,6/26/2004 0:00,312BL,312,B,,L,Small,"Hydraulic Excavator, Track - 12.0 to 14.0 Metric Tons",Hawaii,TEX,Track Excavators,,EROPS,,,,,,,,,,,Auxiliary,,,,,,None or Unspecified,,,,Steel,None or Unspecified,None or Unspecified,Manual,None or Unspecified,Triple,,,,,
1118,1489360,44500,26844,132,10.0,2000,,,6/22/2006 0:00,312BL,312,B,,L,Small,"Hydraulic Excavator, Track - 12.0 to 14.0 Metric Tons",Louisiana,TEX,Track Excavators,,EROPS w AC,,,,,,,,,,,Standard,,,,,,None or Unspecified,,,,Steel,28 inch,None or Unspecified,Manual,Yes,Triple,,,,,
1118,1489365,48000,1352685,132,3.0,2000,,,3/13/2003 0:00,312BL,312,B,,L,Small,"Hydraulic Excavator, Track - 12.0 to 14.0 Metric Tons",Unspecified,TEX,Track Excavators,,EROPS,,,,,,,,,,,Standard,,,,,,None or Unspecified,,,,Steel,26 inch,None or Unspecified,None or Unspecified,None or Unspecified,Double,,,,,
1118,1489367,42000,839607,132,5.0,2000,,,9/28/2006 0:00,312BL,312,B,,L,Small,"Hydraulic Excavator, Track - 12.0 to 14.0 Metric Tons",Connecticut,TEX,Track Excavators,,EROPS,,,,,,,,,,,Auxiliary,,,,,,None or Unspecified,,,,Steel,24 inch,"9' 10""",Hydraulic,None or Unspecified,Triple,,,,,
1118,1489374,57000,294430,132,3.0,2000,,,4/24/2003 0:00,312BL,312,B,,L,Small,"Hydraulic Excavator, Track - 12.0 to 14.0 Metric Tons",Unspecified,TEX,Track Excavators,,EROPS,,,,,,,,,,,Standard,,,,,,None or Unspecified,,,,Steel,None or Unspecified,None or Unspecified,None or Unspecified,Yes,Double,,,,,
1118,1489378,52000,1205981,132,1.0,2000,,,3/20/2002 0:00,312BL,312,B,,L,Small,"Hydraulic Excavator, Track - 12.0 to 14.0 Metric Tons",Texas,TEX,Track Excavators,,EROPS w AC,,,,,,,,,,,Standard,,,,,,None or Unspecified,,,,Steel,None or Unspecified,None or Unspecified,None or Unspecified,None or Unspecified,Double,,,,,
1118,1489379,55500,1195855,132,2.0,2000,,,3/25/2004 0:00,312BL,312,B,,L,Small,"Hydraulic Excavator, Track - 12.0 to 14.0 Metric Tons",New Jersey,TEX,Track Excavators,,EROPS,,,,,,,,,,,Standard,,,,,,None or Unspecified,,,,Steel,None or Unspecified,"9' 10""",Manual,None or Unspecified,Double,,,,,
1118,1489380,46000,605670,132,1.0,2000,,,8/25/2005 0:00,312BL,312,B,,L,Small,"Hydraulic Excavator, Track - 12.0 to 14.0 Metric Tons",Texas,TEX,Track Excavators,,EROPS,,,,,,,,,,,Standard,,,,,,None or Unspecified,,,,Steel,None or Unspecified,None or Unspecified,Manual,None or Unspecified,Double,,,,,
1118,1489384,57000,1325436,132,1.0,2000,,,9/26/2002 0:00,312BL,312,B,,L,Small,"Hydraulic Excavator, Track - 12.0 to 14.0 Metric Tons",Illinois,TEX,Track Excavators,,EROPS w AC,,,,,,,,,,,Standard,,,,,,None or Unspecified,,,,Steel,None or Unspecified,"9' 10""",None or Unspecified,None or Unspecified,Double,,,,,
1118,1489385,40000,149398,132,1.0,2001,,,3/22/2007 0:00,312BL,312,B,,L,Small,"Hydraulic Excavator, Track - 12.0 to 14.0 Metric Tons",Tennessee,TEX,Track Excavators,,EROPS w AC,,,,,,,,,,,Auxiliary,,,,,,None or Unspecified,,,,Steel,None or Unspecified,"9' 10""",None or Unspecified,Yes,Double,,,,,
1118,1489388,47000,27870,132,7.0,2000,,,8/30/2006 0:00,312BL,312,B,,L,Small,"Hydraulic Excavator, Track - 12.0 to 14.0 Metric Tons",Alabama,TEX,Track Excavators,,EROPS w AC,,,,,,,,,,,Standard,,,,,,None or Unspecified,,,,Steel,28 inch,None or Unspecified,Manual,Yes,Triple,,,,,
1118,1489391,70000,1520706,132,1.0,2000,,,3/21/2005 0:00,312BL,312,B,,L,Small,"Hydraulic Excavator, Track - 12.0 to 14.0 Metric Tons",Arizona,TEX,Track Excavators,,EROPS w AC,,,,,,,,,,,Standard,,,,,,Manual,,,,Steel,None or Unspecified,"9' 6""",Manual,Yes,Double,,,,,
1118,1489395,74000,57807,132,3.0,2001,,,11/13/2003 0:00,312BL,312,B,,L,Small,"Hydraulic Excavator, Track - 12.0 to 14.0 Metric Tons",Unspecified,TEX,Track Excavators,,EROPS w AC,,,,,,,,,,,Standard,,,,,,None or Unspecified,,,,Steel,None or Unspecified,None or Unspecified,None or Unspecified,None or Unspecified,Triple,,,,,
1118,1520889,25000,1314713,132,2.0,1998,,,3/23/2006 0:00,312BL,312,B,,L,Small,"Hydraulic Excavator, Track - 12.0 to 14.0 Metric Tons",New Jersey,TEX,Track Excavators,,EROPS,,,,,,,,,,,Standard,,,,,,Manual,,,,Steel,None or Unspecified,None or Unspecified,None or Unspecified,None or Unspecified,Double,,,,,
1118,1520890,22500,1127144,132,2.0,1999,,,3/31/2005 0:00,312BL,312,B,,L,Small,"Hydraulic Excavator, Track - 12.0 to 14.0 Metric Tons",New Jersey,TEX,Track Excavators,,EROPS,,,,,,,,,,,Auxiliary,,,,,,Hydraulic,,,,Steel,None or Unspecified,None or Unspecified,None or Unspecified,None or Unspecified,Double,,,,,
1118,1520891,31000,1450891,132,4.0,1998,,,5/18/2006 0:00,312BL,312,B,,L,Small,"Hydraulic Excavator, Track - 12.0 to 14.0 Metric Tons",New Hampshire,TEX,Track Excavators,,EROPS,,,,,,,,,,,Standard,,,,,,None or Unspecified,,,,Steel,None or Unspecified,None or Unspecified,None or Unspecified,None or Unspecified,Double,,,,,
1118,1520892,38500,1192006,132,2.0,1998,,,3/25/2004 0:00,312BL,312,B,,L,Small,"Hydraulic Excavator, Track - 12.0 to 14.0 Metric Tons",New Jersey,TEX,Track Excavators,,EROPS,,,,,,,,,,,Standard,,,,,,None or Unspecified,,,,Steel,None or Unspecified,None or Unspecified,None or Unspecified,None or Unspecified,Double,,,,,
1118,1520893,38500,1347702,132,2.0,1998,,,3/25/2004 0:00,312BL,312,B,,L,Small,"Hydraulic Excavator, Track - 12.0 to 14.0 Metric Tons",New Jersey,TEX,Track Excavators,,EROPS,,,,,,,,,,,Standard,,,,,,Manual,,,,Steel,None or Unspecified,None or Unspecified,None or Unspecified,None or Unspecified,Double,,,,,
1118,1520894,29000,1347702,132,12.0,1998,,,9/21/2006 0:00,312BL,312,B,,L,Small,"Hydraulic Excavator, Track - 12.0 to 14.0 Metric Tons",South Carolina,TEX,Track Excavators,,EROPS,,,,,,,,,,,Standard,,,,,,Manual,,,,Steel,None or Unspecified,None or Unspecified,None or Unspecified,None or Unspecified,Double,,,,,
1118,1520895,37000,1347702,132,4.0,1998,,,2/9/2004 0:00,312BL,312,B,,L,Small,"Hydraulic Excavator, Track - 12.0 to 14.0 Metric Tons",Florida,TEX,Track Excavators,,EROPS,,,,,,,,,,,Standard,,,,,,Manual,,,,Steel,None or Unspecified,None or Unspecified,None or Unspecified,None or Unspecified,Double,,,,,
1118,1520896,36500,1101120,132,4.0,1998,,,2/9/2004 0:00,312BL,312,B,,L,Small,"Hydraulic Excavator, Track - 12.0 to 14.0 Metric Tons",Florida,TEX,Track Excavators,,EROPS,,,,,,,,,,,Standard,,,,,,None or Unspecified,,,,Steel,None or Unspecified,None or Unspecified,None or Unspecified,None or Unspecified,Double,,,,,
1118,1520897,40000,1195666,132,2.0,1998,,,3/25/2004 0:00,312BL,312,B,,L,Small,"Hydraulic Excavator, Track - 12.0 to 14.0 Metric Tons",New Jersey,TEX,Track Excavators,,EROPS,,,,,,,,,,,Standard,,,,,,None or Unspecified,,,,Steel,None or Unspecified,None or Unspecified,None or Unspecified,None or Unspecified,Double,,,,,
1118,1520899,37500,1483761,132,5.0,1999,,,12/8/2006 0:00,312BL,312,B,,L,Small,"Hydraulic Excavator, Track - 12.0 to 14.0 Metric Tons",Connecticut,TEX,Track Excavators,,EROPS w AC,,,,,,,,,,,Auxiliary,,,,,,None or Unspecified,,,,Steel,28 inch,None or Unspecified,None or Unspecified,None or Unspecified,Triple,,,,,
1118,1520901,35500,1483761,132,4.0,1999,,,5/18/2006 0:00,312BL,312,B,,L,Small,"Hydraulic Excavator, Track - 12.0 to 14.0 Metric Tons",New Hampshire,TEX,Track Excavators,,EROPS w AC,,,,,,,,,,,Auxiliary,,,,,,None or Unspecified,,,,Steel,28 inch,None or Unspecified,None or Unspecified,None or Unspecified,Triple,,,,,
1118,1520902,38500,1291204,132,2.0,1999,,,7/19/2003 0:00,312BL,312,B,,L,Small,"Hydraulic Excavator, Track - 12.0 to 14.0 Metric Tons",Connecticut,TEX,Track Excavators,,EROPS,,,,,,,,,,,Standard,,,,,,None or Unspecified,,,,Steel,None or Unspecified,None or Unspecified,None or Unspecified,None or Unspecified,Double,,,,,
1118,1520906,45000,1271305,132,2.0,1999,,,6/27/2003 0:00,312BL,312,B,,L,Small,"Hydraulic Excavator, Track - 12.0 to 14.0 Metric Tons",Wisconsin,TEX,Track Excavators,,EROPS,,,,,,,,,,,Standard,,,,,,None or Unspecified,,,,Steel,None or Unspecified,None or Unspecified,None or Unspecified,None or Unspecified,Double,,,,,
1118,1520907,27000,1447857,132,4.0,1998,,,11/2/2006 0:00,312BL,312,B,,L,Small,"Hydraulic Excavator, Track - 12.0 to 14.0 Metric Tons",New Hampshire,TEX,Track Excavators,,EROPS,,,,,,,,,,,Standard,,,,,,None or Unspecified,,,,Steel,None or Unspecified,None or Unspecified,None or Unspecified,None or Unspecified,Double,,,,,
1118,1520908,40000,1447857,132,4.0,1999,,,5/13/2004 0:00,312BL,312,B,,L,Small,"Hydraulic Excavator, Track - 12.0 to 14.0 Metric Tons",New Hampshire,TEX,Track Excavators,,EROPS,,,,,,,,,,,Standard,,,,,,None or Unspecified,,,,Steel,None or Unspecified,None or Unspecified,None or Unspecified,None or Unspecified,Double,,,,,
1118,1520909,37000,1379763,132,4.0,1999,,,2/9/2004 0:00,312BL,312,B,,L,Small,"Hydraulic Excavator, Track - 12.0 to 14.0 Metric Tons",Florida,TEX,Track Excavators,,EROPS,,,,,,,,,,,Standard,,,,,,Manual,,,,Steel,None or Unspecified,None or Unspecified,None or Unspecified,None or Unspecified,Double,,,,,
1118,1520911,15000,1017114,132,3.0,1999,,,10/1/2009 0:00,312BL,312,B,,L,Small,"Hydraulic Excavator, Track - 12.0 to 14.0 Metric Tons",California,TEX,Track Excavators,,EROPS,,,,,,,,,,,Standard,,,,,,Manual,,,,Steel,None or Unspecified,None or Unspecified,None or Unspecified,None or Unspecified,Double,,,,,
1118,1520916,41000,1535240,132,1.0,2000,,,2/20/2007 0:00,312BL,312,B,,L,Small,"Hydraulic Excavator, Track - 12.0 to 14.0 Metric Tons",Florida,TEX,Track Excavators,,EROPS,,,,,,,,,,,Auxiliary,,,,,,Manual,,,,Steel,None or Unspecified,"9' 10""",None or Unspecified,None or Unspecified,Double,,,,,
1118,1520917,40000,1105670,132,4.0,2000,,,5/13/2004 0:00,312BL,312,B,,L,Small,"Hydraulic Excavator, Track - 12.0 to 14.0 Metric Tons",New Hampshire,TEX,Track Excavators,,EROPS,,,,,,,,,,,Standard,,,,,,None or Unspecified,,,,Steel,None or Unspecified,None or Unspecified,None or Unspecified,None or Unspecified,Double,,,,,
1118,1520918,51000,1402721,132,2.0,2000,,,10/27/2001 0:00,312BL,312,B,,L,Small,"Hydraulic Excavator, Track - 12.0 to 14.0 Metric Tons",Florida,TEX,Track Excavators,,EROPS,,,,,,,,,,,Standard,,,,,,None or Unspecified,,,,Steel,None or Unspecified,None or Unspecified,None or Unspecified,None or Unspecified,Double,,,,,
1118,1520923,64000,1550849,132,5.0,2001,,,8/12/2006 0:00,312BL,312,B,,L,Small,"Hydraulic Excavator, Track - 12.0 to 14.0 Metric Tons",Connecticut,TEX,Track Excavators,,EROPS,,,,,,,,,,,Auxiliary,,,,,,None or Unspecified,,,,Steel,30 inch,None or Unspecified,None or Unspecified,None or Unspecified,Triple,,,,,
1118,1520924,40500,1396749,132,99.0,2001,,,10/26/2006 0:00,312BL,312,B,,L,Small,"Hydraulic Excavator, Track - 12.0 to 14.0 Metric Tons",Texas,TEX,Track Excavators,,EROPS w AC,,,,,,,,,,,Standard,,,,,,Manual,,,,Steel,28 inch,None or Unspecified,None or Unspecified,None or Unspecified,Triple,,,,,
1118,1520925,42000,1396749,132,4.0,2001,,,2/13/2006 0:00,312BL,312,B,,L,Small,"Hydraulic Excavator, Track - 12.0 to 14.0 Metric Tons",Florida,TEX,Track Excavators,,EROPS w AC,,,,,,,,,,,Standard,,,,,,Manual,,,,Steel,28 inch,None or Unspecified,None or Unspecified,None or Unspecified,Triple,,,,,
1118,1520926,41000,1396749,132,8.0,2001,,,2/16/2007 0:00,312BL,312,B,,L,Small,"Hydraulic Excavator, Track - 12.0 to 14.0 Metric Tons",Florida,TEX,Track Excavators,,EROPS w AC,,,,,,,,,,,Standard,,,,,,Manual,,,,Steel,28 inch,None or Unspecified,None or Unspecified,None or Unspecified,Triple,,,,,
1118,1520927,44000,1396749,132,9.0,2001,,,2/22/2006 0:00,312BL,312,B,,L,Small,"Hydraulic Excavator, Track - 12.0 to 14.0 Metric Tons",Florida,TEX,Track Excavators,,EROPS w AC,,,,,,,,,,,Standard,,,,,,Manual,,,,Steel,28 inch,None or Unspecified,None or Unspecified,None or Unspecified,Triple,,,,,
1118,1520928,76000,1386690,132,4.0,2001,,,2/10/2003 0:00,312BL,312,B,,L,Small,"Hydraulic Excavator, Track - 12.0 to 14.0 Metric Tons",Florida,TEX,Track Excavators,,EROPS w AC,,,,,,,,,,,Standard,,,,,,None or Unspecified,,,,Steel,None or Unspecified,None or Unspecified,None or Unspecified,None or Unspecified,Double,,,,,
1118,1520930,53000,1495463,132,4.0,2001,,,2/9/2004 0:00,312BL,312,B,,L,Small,"Hydraulic Excavator, Track - 12.0 to 14.0 Metric Tons",Florida,TEX,Track Excavators,,EROPS,,,,,,,,,,,Standard,,,,,,None or Unspecified,,,,Steel,None or Unspecified,None or Unspecified,None or Unspecified,None or Unspecified,Double,,,,,
1118,1520931,50000,1369639,132,2.0,2001,,,3/25/2004 0:00,312BL,312,B,,L,Small,"Hydraulic Excavator, Track - 12.0 to 14.0 Metric Tons",New Jersey,TEX,Track Excavators,,EROPS,,,,,,,,,,,Standard,,,,,,Manual,,,,Steel,None or Unspecified,None or Unspecified,None or Unspecified,None or Unspecified,Double,,,,,
1118,1520932,46000,1369639,132,4.0,2001,,,2/9/2004 0:00,312BL,312,B,,L,Small,"Hydraulic Excavator, Track - 12.0 to 14.0 Metric Tons",Florida,TEX,Track Excavators,,EROPS,,,,,,,,,,,Standard,,,,,,Manual,,,,Steel,None or Unspecified,None or Unspecified,None or Unspecified,None or Unspecified,Double,,,,,
1118,1520933,71000,1334863,132,2.0,2002,,,12/14/2002 0:00,312BL,312,B,,L,Small,"Hydraulic Excavator, Track - 12.0 to 14.0 Metric Tons",Pennsylvania,TEX,Track Excavators,,EROPS,,,,,,,,,,,Standard,,,,,,None or Unspecified,,,,Steel,None or Unspecified,None or Unspecified,None or Unspecified,None or Unspecified,Double,,,,,
1118,1520934,47500,854159,132,4.0,2002,,,10/14/2004 0:00,312BL,312,B,,L,Small,"Hydraulic Excavator, Track - 12.0 to 14.0 Metric Tons",New Hampshire,TEX,Track Excavators,,EROPS,,,,,,,,,,,Standard,,,,,,None or Unspecified,,,,Steel,None or Unspecified,None or Unspecified,None or Unspecified,None or Unspecified,Double,,,,,
1118,1520935,50000,1452617,132,2.0,2001,,,3/25/2004 0:00,312BL,312,B,,L,Small,"Hydraulic Excavator, Track - 12.0 to 14.0 Metric Tons",New Jersey,TEX,Track Excavators,,EROPS,,,,,,,,,,,Standard,,,,,,None or Unspecified,,,,Steel,None or Unspecified,None or Unspecified,None or Unspecified,None or Unspecified,Double,,,,,
1118,2270161,32000,540752,136,8.0,1997,0.0,,5/23/2007 0:00,312BL,312,B,,L,Small,"Hydraulic Excavator, Track - 12.0 to 14.0 Metric Tons",Mississippi,TEX,Track Excavators,,EROPS w AC,,,,,,,,,,,Standard,,,,,,Manual,,,,Steel,28 inch,"9' 10""",Hydraulic,None or Unspecified,Triple,,,,,
1118,2270162,21500,138693,136,7.0,1996,0.0,,3/12/2008 0:00,312BL,312,B,,L,Small,"Hydraulic Excavator, Track - 12.0 to 14.0 Metric Tons",Alabama,TEX,Track Excavators,,EROPS,,,,,,,,,,,Standard,,,,,,None or Unspecified,,,,Steel,28 inch,None or Unspecified,None or Unspecified,Yes,Triple,,,,,
1118,2270163,16000,358780,136,1.0,1000,0.0,,12/16/2009 0:00,312BL,312,B,,L,Small,"Hydraulic Excavator, Track - 12.0 to 14.0 Metric Tons",Missouri,TEX,Track Excavators,,EROPS,,,,,,,,,,,Standard,,,,,,Manual,,,,Steel,28 inch,"8' 2""",None or Unspecified,None or Unspecified,Triple,,,,,
1118,2270166,32000,489779,136,1.0,1997,0.0,,6/19/2008 0:00,312BL,312,B,,L,Small,"Hydraulic Excavator, Track - 12.0 to 14.0 Metric Tons",Arizona,TEX,Track Excavators,,EROPS w AC,,,,,,,,,,,Auxiliary,,,,,,Manual,,,,Steel,None or Unspecified,None or Unspecified,None or Unspecified,Yes,Triple,,,,,
1118,2270169,35000,283788,136,,1997,0.0,,9/27/2008 0:00,312BL,312,B,,L,Small,"Hydraulic Excavator, Track - 12.0 to 14.0 Metric Tons",New Jersey,TEX,Track Excavators,,EROPS w AC,,,,,,,,,,,Auxiliary,,,,,,None or Unspecified,,,,Steel,None or Unspecified,None or Unspecified,Hydraulic,None or Unspecified,Triple,,,,,
1118,2270171,25000,1092125,136,1.0,1997,0.0,,3/24/2009 0:00,312BL,312,B,,L,Small,"Hydraulic Excavator, Track - 12.0 to 14.0 Metric Tons",North Carolina,TEX,Track Excavators,,EROPS,,,,,,,,,,,Auxiliary,,,,,,None or Unspecified,,,,Steel,28 inch,"9' 10""",Hydraulic,Yes,Triple,,,,,
1118,2270174,25000,52052,136,1.0,1997,0.0,,6/5/2008 0:00,312BL,312,B,,L,Small,"Hydraulic Excavator, Track - 12.0 to 14.0 Metric Tons",Texas,TEX,Track Excavators,,EROPS w AC,,,,,,,,,,,Standard,,,,,,None or Unspecified,,,,Steel,None or Unspecified,None or Unspecified,None or Unspecified,None or Unspecified,Triple,,,,,
1118,2270177,25500,864029,136,2.0,1997,0.0,,3/19/2009 0:00,312BL,312,B,,L,Small,"Hydraulic Excavator, Track - 12.0 to 14.0 Metric Tons",New Jersey,TEX,Track Excavators,,EROPS,,,,,,,,,,,Standard,,,,,,None or Unspecified,,,,Steel,None or Unspecified,None or Unspecified,Hydraulic,None or Unspecified,Double,,,,,
1118,2270178,28000,864029,136,2.0,1997,0.0,,11/1/2008 0:00,312BL,312,B,,L,Small,"Hydraulic Excavator, Track - 12.0 to 14.0 Metric Tons",New York,TEX,Track Excavators,,EROPS,,,,,,,,,,,Standard,,,,,,None or Unspecified,,,,Steel,None or Unspecified,None or Unspecified,Hydraulic,None or Unspecified,Double,,,,,
1118,2270179,29000,864029,136,2.0,1997,0.0,,7/19/2008 0:00,312BL,312,B,,L,Small,"Hydraulic Excavator, Track - 12.0 to 14.0 Metric Tons",New York,TEX,Track Excavators,,EROPS,,,,,,,,,,,Standard,,,,,,None or Unspecified,,,,Steel,None or Unspecified,None or Unspecified,Hydraulic,None or Unspecified,Double,,,,,
1118,2270180,24000,864029,136,2.0,1000,0.0,,7/18/2009 0:00,312BL,312,B,,L,Small,"Hydraulic Excavator, Track - 12.0 to 14.0 Metric Tons",New York,TEX,Track Excavators,,EROPS,,,,,,,,,,,Standard,,,,,,None or Unspecified,,,,Steel,None or Unspecified,None or Unspecified,Hydraulic,None or Unspecified,Double,,,,,
1118,2270181,24000,3634,136,1.0,1997,0.0,,7/9/2008 0:00,312BL,312,B,,L,Small,"Hydraulic Excavator, Track - 12.0 to 14.0 Metric Tons",Texas,TEX,Track Excavators,,EROPS w AC,,,,,,,,,,,Standard,,,,,,None or Unspecified,,,,Steel,None or Unspecified,None or Unspecified,None or Unspecified,Yes,Triple,,,,,
1118,2270183,22500,671569,136,1.0,1997,0.0,,12/30/2008 0:00,312BL,312,B,,L,Small,"Hydraulic Excavator, Track - 12.0 to 14.0 Metric Tons",North Carolina,TEX,Track Excavators,,EROPS,,,,,,,,,,,Standard,,,,,,Hydraulic,,,,Steel,24 inch,None or Unspecified,None or Unspecified,None or Unspecified,Double,,,,,
1118,2270184,33000,102245,136,10.0,1997,0.0,,9/20/2007 0:00,312BL,312,B,,L,Small,"Hydraulic Excavator, Track - 12.0 to 14.0 Metric Tons",Louisiana,TEX,Track Excavators,,EROPS w AC,,,,,,,,,,,Standard,,,,,,None or Unspecified,,,,Steel,24 inch,"8' 2""",None or Unspecified,None or Unspecified,Triple,,,,,
1118,2270185,31000,102245,136,10.0,1997,0.0,,12/11/2007 0:00,312BL,312,B,,L,Small,"Hydraulic Excavator, Track - 12.0 to 14.0 Metric Tons",Louisiana,TEX,Track Excavators,,EROPS w AC,,,,,,,,,,,Standard,,,,,,None or Unspecified,,,,Steel,24 inch,"8' 2""",None or Unspecified,None or Unspecified,Triple,,,,,
1118,2270186,16500,887776,136,13.0,1000,8055.0,Medium,6/19/2010 0:00,312BL,312,B,,L,Small,"Hydraulic Excavator, Track - 12.0 to 14.0 Metric Tons",Tennessee,TEX,Track Excavators,,EROPS,,,,,,,,,,,Standard,,,,,,None or Unspecified,,,,Steel,None or Unspecified,None or Unspecified,None or Unspecified,None or Unspecified,Double,,,,,
1118,2270188,23000,1204325,136,1.0,1998,0.0,,2/16/2009 0:00,312BL,312,B,,L,Small,"Hydraulic Excavator, Track - 12.0 to 14.0 Metric Tons",Florida,TEX,Track Excavators,,EROPS,,,,,,,,,,,Auxiliary,,,,,,None or Unspecified,,,,Steel,None or Unspecified,"9' 10""",Hydraulic,Yes,Triple,,,,,
1118,2270190,22000,346242,136,1.0,1998,0.0,,2/16/2009 0:00,312BL,312,B,,L,Small,"Hydraulic Excavator, Track - 12.0 to 14.0 Metric Tons",Florida,TEX,Track Excavators,,EROPS,,,,,,,,,,,Auxiliary,,,,,,None or Unspecified,,,,Steel,None or Unspecified,"9' 10""",None or Unspecified,None or Unspecified,Double,,,,,
1118,2270191,32500,167547,136,1.0,1998,0.0,,5/22/2007 0:00,312BL,312,B,,L,Small,"Hydraulic Excavator, Track - 12.0 to 14.0 Metric Tons",California,TEX,Track Excavators,,EROPS w AC,,,,,,,,,,,Auxiliary,,,,,,Hydraulic,,,,Steel,None or Unspecified,None or Unspecified,None or Unspecified,None or Unspecified,Double,,,,,
1118,2270192,21500,111480,136,1.0,1998,0.0,,3/24/2009 0:00,312BL,312,B,,L,Small,"Hydraulic Excavator, Track - 12.0 to 14.0 Metric Tons",North Carolina,TEX,Track Excavators,,EROPS w AC,,,,,,,,,,,Standard,,,,,,None or Unspecified,,,,Steel,None or Unspecified,"9' 10""",None or Unspecified,None or Unspecified,Double,,,,,
1118,2270193,11000,639603,136,,1998,0.0,,6/13/2009 0:00,312BL,312,B,,L,Small,"Hydraulic Excavator, Track - 12.0 to 14.0 Metric Tons",Washington,TEX,Track Excavators,,EROPS,,,,,,,,,,,Standard,,,,,,None or Unspecified,,,,Steel,None or Unspecified,None or Unspecified,Manual,Yes,Triple,,,,,
1118,2270194,17500,731293,136,,1998,0.0,,10/29/2008 0:00,312BL,312,B,,L,Small,"Hydraulic Excavator, Track - 12.0 to 14.0 Metric Tons",Arkansas,TEX,Track Excavators,,EROPS,,,,,,,,,,,Standard,,,,,,None or Unspecified,,,,Steel,None or Unspecified,None or Unspecified,Manual,None or Unspecified,Triple,,,,,
1118,2270195,29000,377068,136,1.0,1998,0.0,,9/13/2007 0:00,312BL,312,B,,L,Small,"Hydraulic Excavator, Track - 12.0 to 14.0 Metric Tons",Arizona,TEX,Track Excavators,,EROPS,,,,,,,,,,,Standard,,,,,,Manual,,,,Steel,None or Unspecified,None or Unspecified,None or Unspecified,None or Unspecified,Double,,,,,
1118,2270196,18500,157406,136,4.0,1998,0.0,,2/11/2008 0:00,312BL,312,B,,L,Small,"Hydraulic Excavator, Track - 12.0 to 14.0 Metric Tons",Florida,TEX,Track Excavators,,EROPS w AC,,,,,,,,,,,Standard,,,,,,None or Unspecified,,,,Steel,None or Unspecified,None or Unspecified,Manual,Yes,Triple,,,,,
1118,2270197,32000,812854,136,4.0,1999,0.0,,2/11/2008 0:00,312BL,312,B,,L,Small,"Hydraulic Excavator, Track - 12.0 to 14.0 Metric Tons",Florida,TEX,Track Excavators,,EROPS,,,,,,,,,,,Standard,,,,,,None or Unspecified,,,,Steel,28 inch,"9' 10""",None or Unspecified,None or Unspecified,Triple,,,,,
1118,2270198,34500,812854,136,4.0,1998,0.0,,6/15/2007 0:00,312BL,312,B,,L,Small,"Hydraulic Excavator, Track - 12.0 to 14.0 Metric Tons",Connecticut,TEX,Track Excavators,,EROPS,,,,,,,,,,,Standard,,,,,,None or Unspecified,,,,Steel,28 inch,"9' 10""",None or Unspecified,None or Unspecified,Triple,,,,,
1118,2270199,27500,730852,136,7.0,1998,0.0,,10/18/2007 0:00,312BL,312,B,,L,Small,"Hydraulic Excavator, Track - 12.0 to 14.0 Metric Tons",South Carolina,TEX,Track Excavators,,EROPS w AC,,,,,,,,,,,Standard,,,,,,None or Unspecified,,,,Steel,30 inch,None or Unspecified,Manual,None or Unspecified,Triple,,,,,
1118,2270200,32000,730852,136,7.0,1998,0.0,,12/14/2007 0:00,312BL,312,B,,L,Small,"Hydraulic Excavator, Track - 12.0 to 14.0 Metric Tons",North Carolina,TEX,Track Excavators,,EROPS w AC,,,,,,,,,,,Standard,,,,,,None or Unspecified,,,,Steel,30 inch,None or Unspecified,Manual,None or Unspecified,Triple,,,,,
1118,2270201,31500,730852,136,4.0,1998,0.0,,2/11/2008 0:00,312BL,312,B,,L,Small,"Hydraulic Excavator, Track - 12.0 to 14.0 Metric Tons",Florida,TEX,Track Excavators,,EROPS w AC,,,,,,,,,,,Standard,,,,,,None or Unspecified,,,,Steel,30 inch,None or Unspecified,Manual,None or Unspecified,Triple,,,,,
1118,2270202,32500,369880,136,1.0,1998,0.0,,5/22/2007 0:00,312BL,312,B,,L,Small,"Hydraulic Excavator, Track - 12.0 to 14.0 Metric Tons",California,TEX,Track Excavators,,EROPS w AC,,,,,,,,,,,Standard,,,,,,None or Unspecified,,,,Steel,24 inch,None or Unspecified,None or Unspecified,None or Unspecified,Double,,,,,
1118,2270203,20000,647036,136,1.0,1998,0.0,,6/17/2008 0:00,312BL,312,B,,L,Small,"Hydraulic Excavator, Track - 12.0 to 14.0 Metric Tons",Washington,TEX,Track Excavators,,EROPS w AC,,,,,,,,,,,Auxiliary,,,,,,Hydraulic,,,,Steel,None or Unspecified,"9' 10""",None or Unspecified,None or Unspecified,Double,,,,,
1118,2270204,34000,1277262,136,1.0,1998,0.0,,3/5/2008 0:00,312BL,312,B,,L,Small,"Hydraulic Excavator, Track - 12.0 to 14.0 Metric Tons",Texas,TEX,Track Excavators,,EROPS,,,,,,,,,,,Standard,,,,,,None or Unspecified,,,,Steel,None or Unspecified,"9' 6""",None or Unspecified,None or Unspecified,Double,,,,,
1118,2270205,26000,608173,136,1.0,1999,0.0,,7/24/2008 0:00,312BL,312,B,,L,Small,"Hydraulic Excavator, Track - 12.0 to 14.0 Metric Tons",Tennessee,TEX,Track Excavators,,EROPS w AC,,,,,,,,,,,Standard,,,,,,None or Unspecified,,,,Steel,None or Unspecified,"8' 2""",None or Unspecified,None or Unspecified,Double,,,,,
1118,2270206,22000,65667,136,1.0,1998,0.0,,9/24/2008 0:00,312BL,312,B,,L,Small,"Hydraulic Excavator, Track - 12.0 to 14.0 Metric Tons",Texas,TEX,Track Excavators,,EROPS w AC,,,,,,,,,,,Auxiliary,,,,,,None or Unspecified,,,,Steel,None or Unspecified,"9' 8""",None or Unspecified,None or Unspecified,Triple,,,,,
1118,2270207,25000,1378853,136,1.0,1998,0.0,,9/19/2007 0:00,312BL,312,B,,L,Small,"Hydraulic Excavator, Track - 12.0 to 14.0 Metric Tons",Illinois,TEX,Track Excavators,,EROPS,,,,,,,,,,,Auxiliary,,,,,,None or Unspecified,,,,Steel,None or Unspecified,"9' 10""",None or Unspecified,None or Unspecified,Double,,,,,
1118,2270212,27000,1375461,136,4.0,1998,7572.0,Medium,6/27/2007 0:00,312BL,312,B,,L,Small,"Hydraulic Excavator, Track - 12.0 to 14.0 Metric Tons",Ohio,TEX,Track Excavators,,EROPS,,,,,,,,,,,Auxiliary,,,,,,None or Unspecified,,,,Steel,None or Unspecified,None or Unspecified,None or Unspecified,Yes,Triple,,,,,
1118,2270213,23000,112951,136,12.0,1998,0.0,,12/9/2009 0:00,312BL,312,B,,L,Small,"Hydraulic Excavator, Track - 12.0 to 14.0 Metric Tons",South Carolina,TEX,Track Excavators,,EROPS,,,,,,,,,,,Standard,,,,,,None or Unspecified,,,,Steel,None or Unspecified,None or Unspecified,Hydraulic,None or Unspecified,Double,,,,,
1118,2270214,35000,1311820,136,1.0,1998,0.0,,5/22/2007 0:00,312BL,312,B,,L,Small,"Hydraulic Excavator, Track - 12.0 to 14.0 Metric Tons",California,TEX,Track Excavators,,EROPS w AC,,,,,,,,,,,Auxiliary,,,,,,None or Unspecified,,,,Steel,None or Unspecified,"8' 6""",None or Unspecified,None or Unspecified,Triple,,,,,
1118,2270216,28000,877880,136,1.0,1999,0.0,,3/18/2008 0:00,312BL,312,B,,L,Small,"Hydraulic Excavator, Track - 12.0 to 14.0 Metric Tons",Washington,TEX,Track Excavators,,EROPS,,,,,,,,,,,Auxiliary,,,,,,Hydraulic,,,,Steel,None or Unspecified,None or Unspecified,Hydraulic,Yes,Triple,,,,,
1118,2270217,27500,578536,136,2.0,1998,0.0,,2/3/2008 0:00,312BL,312,B,,L,Small,"Hydraulic Excavator, Track - 12.0 to 14.0 Metric Tons",Florida,TEX,Track Excavators,,EROPS,,,,,,,,,,,Standard,,,,,,None or Unspecified,,,,Steel,None or Unspecified,None or Unspecified,None or Unspecified,None or Unspecified,Double,,,,,
1118,2270218,39000,1555849,136,1.0,1999,0.0,,6/6/2007 0:00,312BL,312,B,,L,Small,"Hydraulic Excavator, Track - 12.0 to 14.0 Metric Tons",Illinois,TEX,Track Excavators,,EROPS,,,,,,,,,,,Auxiliary,,,,,,Manual,,,,Rubber,None or Unspecified,"10' 2""",None or Unspecified,None or Unspecified,Double,,,,,
1118,2270220,34000,1554038,136,8.0,1000,0.0,,9/12/2007 0:00,312BL,312,B,,L,Small,"Hydraulic Excavator, Track - 12.0 to 14.0 Metric Tons",Mississippi,TEX,Track Excavators,,EROPS w AC,,,,,,,,,,,Standard,,,,,,None or Unspecified,,,,Steel,None or Unspecified,None or Unspecified,None or Unspecified,Yes,Triple,,,,,
1118,2270222,26000,868917,136,,1999,0.0,,7/18/2009 0:00,312BL,312,B,,L,Small,"Hydraulic Excavator, Track - 12.0 to 14.0 Metric Tons",New York,TEX,Track Excavators,,EROPS,,,,,,,,,,,Standard,,,,,,None or Unspecified,,,,Steel,None or Unspecified,None or Unspecified,None or Unspecified,None or Unspecified,Double,,,,,
1118,2270223,37500,744419,136,1.0,1999,0.0,,3/18/2008 0:00,312BL,312,B,,L,Small,"Hydraulic Excavator, Track - 12.0 to 14.0 Metric Tons",Washington,TEX,Track Excavators,,EROPS,,,,,,,,,,,Standard,,,,,,Hydraulic,,,,Steel,None or Unspecified,"9' 8""",Hydraulic,None or Unspecified,Double,,,,,
1118,2270224,32000,1506825,136,5.0,1999,0.0,,5/16/2008 0:00,312BL,312,B,,L,Small,"Hydraulic Excavator, Track - 12.0 to 14.0 Metric Tons",Ohio,TEX,Track Excavators,,EROPS w AC,,,,,,,,,,,Standard,,,,,,None or Unspecified,,,,Steel,None or Unspecified,None or Unspecified,Manual,None or Unspecified,Triple,,,,,
1118,2270226,38500,822117,136,5.0,1999,0.0,,8/24/2007 0:00,312BL,312,B,,L,Small,"Hydraulic Excavator, Track - 12.0 to 14.0 Metric Tons",Connecticut,TEX,Track Excavators,,EROPS,,,,,,,,,,,Auxiliary,,,,,,None or Unspecified,,,,Steel,24 inch,None or Unspecified,None or Unspecified,None or Unspecified,Triple,,,,,
1118,2270227,25000,1258841,136,1.0,1000,0.0,,3/17/2010 0:00,312BL,312,B,,L,Small,"Hydraulic Excavator, Track - 12.0 to 14.0 Metric Tons",Ohio,TEX,Track Excavators,,EROPS,,,,,,,,,,,Auxiliary,,,,,,None or Unspecified,,,,Steel,None or Unspecified,None or Unspecified,Manual,Yes,Triple,,,,,
1118,2270228,33000,54760,136,1.0,2000,0.0,,12/11/2008 0:00,312BL,312,B,,L,Small,"Hydraulic Excavator, Track - 12.0 to 14.0 Metric Tons",Ohio,TEX,Track Excavators,,EROPS w AC,,,,,,,,,,,Standard,,,,,,None or Unspecified,,,,Steel,None or Unspecified,"9' 10""",None or Unspecified,None or Unspecified,Double,,,,,
1118,2270229,21000,628419,136,1.0,2000,0.0,,9/16/2008 0:00,312BL,312,B,,L,Small,"Hydraulic Excavator, Track - 12.0 to 14.0 Metric Tons",Washington,TEX,Track Excavators,,EROPS,,,,,,,,,,,Standard,,,,,,None or Unspecified,,,,Steel,None or Unspecified,None or Unspecified,None or Unspecified,None or Unspecified,Triple,,,,,
1118,2270230,30000,897816,136,1.0,1999,0.0,,5/7/2008 0:00,312BL,312,B,,L,Small,"Hydraulic Excavator, Track - 12.0 to 14.0 Metric Tons",Texas,TEX,Track Excavators,,EROPS w AC,,,,,,,,,,,Standard,,,,,,None or Unspecified,,,,Steel,None or Unspecified,"9' 10""",None or Unspecified,None or Unspecified,Double,,,,,
1118,2270232,24000,113414,136,27.0,1999,0.0,,7/23/2009 0:00,312BL,312,B,,L,Small,"Hydraulic Excavator, Track - 12.0 to 14.0 Metric Tons",North Carolina,TEX,Track Excavators,,EROPS w AC,,,,,,,,,,,Standard,,,,,,None or Unspecified,,,,Steel,24 inch,None or Unspecified,None or Unspecified,None or Unspecified,Double,,,,,
1118,2270233,39000,47173,136,10.0,2000,0.0,,9/20/2007 0:00,312BL,312,B,,L,Small,"Hydraulic Excavator, Track - 12.0 to 14.0 Metric Tons",Louisiana,TEX,Track Excavators,,EROPS w AC,,,,,,,,,,,Standard,,,,,,None or Unspecified,,,,Steel,None or Unspecified,"9' 10""",None or Unspecified,None or Unspecified,Double,,,,,
1118,2270235,17500,820625,136,1.0,2000,0.0,,7/9/2009 0:00,312BL,312,B,,L,Small,"Hydraulic Excavator, Track - 12.0 to 14.0 Metric Tons",Texas,TEX,Track Excavators,,EROPS,,,,,,,,,,,Auxiliary,,,,,,None or Unspecified,,,,Steel,None or Unspecified,None or Unspecified,Hydraulic,None or Unspecified,Triple,,,,,
1118,2270237,35000,250743,136,1.0,2000,0.0,,2/15/2010 0:00,312BL,312,B,,L,Small,"Hydraulic Excavator, Track - 12.0 to 14.0 Metric Tons",Florida,TEX,Track Excavators,,EROPS w AC,,,,,,,,,,,Standard,,,,,,None or Unspecified,,,,Steel,None or Unspecified,"9' 10""",None or Unspecified,Yes,Triple,,,,,
1118,2270238,35000,54878,136,1.0,2000,0.0,,5/22/2007 0:00,312BL,312,B,,L,Small,"Hydraulic Excavator, Track - 12.0 to 14.0 Metric Tons",California,TEX,Track Excavators,,EROPS w AC,,,,,,,,,,,Auxiliary,,,,,,None or Unspecified,,,,Steel,20 inch,None or Unspecified,None or Unspecified,None or Unspecified,Double,,,,,
1118,2270240,19500,574577,136,99.0,2000,0.0,,12/1/2009 0:00,312BL,312,B,,L,Small,"Hydraulic Excavator, Track - 12.0 to 14.0 Metric Tons",Missouri,TEX,Track Excavators,,EROPS,,,,,,,,,,,Standard,,,,,,None or Unspecified,,,,Steel,None or Unspecified,"9' 10""",None or Unspecified,None or Unspecified,Triple,,,,,
1118,2270241,22000,579301,136,3.0,2000,6377.0,Medium,3/26/2009 0:00,312BL,312,B,,L,Small,"Hydraulic Excavator, Track - 12.0 to 14.0 Metric Tons",Minnesota,TEX,Track Excavators,,EROPS,,,,,,,,,,,Auxiliary,,,,,,None or Unspecified,,,,Steel,24 inch,"8' 4""",Manual,None or Unspecified,Double,,,,,
1118,2270242,31000,865286,136,2.0,2000,0.0,,12/1/2007 0:00,312BL,312,B,,L,Small,"Hydraulic Excavator, Track - 12.0 to 14.0 Metric Tons",New York,TEX,Track Excavators,,EROPS,,,,,,,,,,,Standard,,,,,,None or Unspecified,,,,Steel,None or Unspecified,None or Unspecified,None or Unspecified,None or Unspecified,Triple,,,,,
1118,2270246,29000,1549062,136,2.0,2000,0.0,,8/15/2009 0:00,312BL,312,B,,L,Small,"Hydraulic Excavator, Track - 12.0 to 14.0 Metric Tons",Ohio,TEX,Track Excavators,,EROPS w AC,,,,,,,,,,,Standard,,,,,,Manual,,,,Steel,None or Unspecified,None or Unspecified,None or Unspecified,None or Unspecified,Triple,,,,,
1118,2270247,22500,958801,136,1.0,2000,0.0,,12/16/2008 0:00,312BL,312,B,,L,Small,"Hydraulic Excavator, Track - 12.0 to 14.0 Metric Tons",Washington,TEX,Track Excavators,,EROPS w AC,,,,,,,,,,,Auxiliary,,,,,,Manual,,,,Steel,None or Unspecified,None or Unspecified,Hydraulic,Yes,Double,,,,,
1118,2277861,31000,1483761,136,5.0,1999,0.0,,9/15/2007 0:00,312BL,312,B,,L,Small,"Hydraulic Excavator, Track - 12.0 to 14.0 Metric Tons",New Jersey,TEX,Track Excavators,,EROPS w AC,,,,,,,,,,,Auxiliary,,,,,,None or Unspecified,,,,Steel,28 inch,None or Unspecified,None or Unspecified,None or Unspecified,Triple,,,,,
1118,2277867,19000,582330,136,99.0,1997,0.0,,3/26/2009 0:00,312BL,312,B,,L,Small,"Hydraulic Excavator, Track - 12.0 to 14.0 Metric Tons",Minnesota,TEX,Track Excavators,,EROPS,,,,,,,,,,,Auxiliary,,,,,,None or Unspecified,,,,Steel,20 inch,"9' 10""",None or Unspecified,None or Unspecified,Double,,,,,
1118,2277872,25000,963540,136,1.0,2001,0.0,,8/20/2009 0:00,312BL,312,B,,L,Small,"Hydraulic Excavator, Track - 12.0 to 14.0 Metric Tons",Colorado,TEX,Track Excavators,,EROPS,,,,,,,,,,,Auxiliary,,,,,,None or Unspecified,,,,Steel,None or Unspecified,None or Unspecified,Hydraulic,None or Unspecified,Double,,,,,
1118,2311371,17000,1651861,136,,1000,0.0,,6/30/2009 0:00,312BL,312,B,,L,Small,"Hydraulic Excavator, Track - 12.0 to 14.0 Metric Tons",Wyoming,TEX,Track Excavators,,EROPS,,,,,,,,,,,Standard,,,,,,None or Unspecified,,,,Steel,None or Unspecified,None or Unspecified,Hydraulic,None or Unspecified,Double,,,,,
1118,2555138,30000,152906,149,12.0,2000,0.0,,3/30/2011 0:00,312BL,312,B,,L,Small,"Hydraulic Excavator, Track - 12.0 to 14.0 Metric Tons",South Carolina,TEX,Track Excavators,,EROPS w AC,,,,,,,,,,,Standard,,,,,,None or Unspecified,,,,Steel,None or Unspecified,None or Unspecified,Manual,Yes,Triple,,,,,
1118,2555153,34250,125818,149,12.0,2001,0.0,,6/15/2011 0:00,312BL,312,B,,L,Small,"Hydraulic Excavator, Track - 12.0 to 14.0 Metric Tons",South Carolina,TEX,Track Excavators,,EROPS w AC,,,,,,,,,,,Standard,,,,,,None or Unspecified,,,,Steel,None or Unspecified,None or Unspecified,Hydraulic,None or Unspecified,Double,,,,,
1118,4280395,17000,1427399,172,1.0,1997,5061.0,Low,6/30/2009 0:00,312BL,312,B,,L,Small,"Hydraulic Excavator, Track - 12.0 to 14.0 Metric Tons",Wyoming,TEX,Track Excavators,,EROPS,,,,,,,,,,,Standard,,,,,,None or Unspecified,,,,Steel,None or Unspecified,"8' 6""",Hydraulic,None or Unspecified,Double,,,,,
1118,4280399,20000,325300,172,1.0,1997,8142.0,Medium,3/30/2010 0:00,312BL,312,B,,L,Small,"Hydraulic Excavator, Track - 12.0 to 14.0 Metric Tons",Maryland,TEX,Track Excavators,,EROPS,,,,,,,,,,,Standard,,,,,,None or Unspecified,,,,Steel,None or Unspecified,"8' 4""",None or Unspecified,None or Unspecified,Double,,,,,
1118,4280409,34000,643806,172,1.0,1998,5350.0,Low,12/10/2009 0:00,312BL,312,B,,L,Small,"Hydraulic Excavator, Track - 12.0 to 14.0 Metric Tons",Washington,TEX,Track Excavators,,EROPS w AC,,,,,,,,,,,Standard,,,,,,Manual,,,,Steel,None or Unspecified,"8' 2""",Hydraulic,None or Unspecified,Double,,,,,
1118,4280410,26000,1474270,172,1.0,1998,8635.0,Medium,6/9/2010 0:00,312BL,312,B,,L,Small,"Hydraulic Excavator, Track - 12.0 to 14.0 Metric Tons",Michigan,TEX,Track Excavators,,EROPS,,,,,,,,,,,Standard,,,,,,None or Unspecified,,,,Steel,None or Unspecified,"9' 6""",None or Unspecified,None or Unspecified,Double,,,,,
1118,4280411,28000,877142,172,1.0,1998,12890.0,High,9/21/2010 0:00,312BL,312,B,,L,Small,"Hydraulic Excavator, Track - 12.0 to 14.0 Metric Tons",Washington,TEX,Track Excavators,,EROPS w AC,,,,,,,,,,,Auxiliary,,,,,,Manual,,,,Steel,None or Unspecified,"9' 10""",Hydraulic,Yes,Triple,,,,,
1118,4280412,25000,629330,172,1.0,1998,10256.0,Medium,5/27/2010 0:00,312BL,312,B,,L,Small,"Hydraulic Excavator, Track - 12.0 to 14.0 Metric Tons",Washington,TEX,Track Excavators,,EROPS,,,,,,,,,,,Auxiliary,,,,,,None or Unspecified,,,,Steel,None or Unspecified,"9' 10""",None or Unspecified,Yes,Triple,,,,,
1118,4280413,19000,1391283,172,1.0,1999,6557.0,Medium,12/16/2009 0:00,312BL,312,B,,L,Small,"Hydraulic Excavator, Track - 12.0 to 14.0 Metric Tons",Maryland,TEX,Track Excavators,,EROPS,,,,,,,,,,,Standard,,,,,,Manual,,,,Steel,None or Unspecified,"8' 2""",None or Unspecified,None or Unspecified,Double,,,,,
1118,4280415,22500,121977,172,1.0,1999,5997.0,Medium,3/26/2009 0:00,312BL,312,B,,L,Small,"Hydraulic Excavator, Track - 12.0 to 14.0 Metric Tons",Georgia,TEX,Track Excavators,,EROPS w AC,,,,,,,,,,,Standard,,,,,,None or Unspecified,,,,Steel,None or Unspecified,"9' 8""",Manual,None or Unspecified,Double,,,,,
1118,4280416,32000,325818,172,1.0,1999,,,3/29/2011 0:00,312BL,312,B,,L,Small,"Hydraulic Excavator, Track - 12.0 to 14.0 Metric Tons",Maryland,TEX,Track Excavators,,EROPS w AC,,,,,,,,,,,Standard,,,,,,None or Unspecified,,,,Steel,None or Unspecified,None or Unspecified,None or Unspecified,None or Unspecified,Double,,,,,
1118,4280417,28000,748571,172,1.0,1999,9069.0,Medium,7/29/2010 0:00,312BL,312,B,,L,Small,"Hydraulic Excavator, Track - 12.0 to 14.0 Metric Tons",Washington,TEX,Track Excavators,,EROPS,,,,,,,,,,,Standard,,,,,,Hydraulic,,,,Steel,None or Unspecified,"9' 8""",Hydraulic,None or Unspecified,Double,,,,,
1118,4280420,23000,61987,172,1.0,2000,6789.0,Medium,3/24/2010 0:00,312BL,312,B,,L,Small,"Hydraulic Excavator, Track - 12.0 to 14.0 Metric Tons",Texas,TEX,Track Excavators,,EROPS w AC,,,,,,,,,,,Standard,,,,,,None or Unspecified,,,,Steel,None or Unspecified,None or Unspecified,None or Unspecified,None or Unspecified,Double,,,,,
1118,4280424,28000,624135,172,1.0,2000,5223.0,Medium,12/9/2010 0:00,312BL,312,B,,L,Small,"Hydraulic Excavator, Track - 12.0 to 14.0 Metric Tons",Washington,TEX,Track Excavators,,EROPS,,,,,,,,,,,Standard,,,,,,Manual,,,,Steel,28 inch,"9' 10""",Hydraulic,None or Unspecified,Triple,,,,,
1118,4280425,31000,6225,172,1.0,2000,6192.0,Medium,12/9/2010 0:00,312BL,312,B,,L,Small,"Hydraulic Excavator, Track - 12.0 to 14.0 Metric Tons",Georgia,TEX,Track Excavators,,EROPS w AC,,,,,,,,,,,Standard,,,,,,None or Unspecified,,,,Steel,None or Unspecified,"9' 10""",Manual,Yes,Triple,,,,,
1118,4280427,28000,2270640,172,1.0,2000,8077.0,Medium,7/26/2011 0:00,312BL,312,B,,L,Small,"Hydraulic Excavator, Track - 12.0 to 14.0 Metric Tons",Texas,TEX,Track Excavators,,EROPS w AC,,,,,,,,,,,Auxiliary,,,,,,None or Unspecified,,,,Steel,None or Unspecified,None or Unspecified,Hydraulic,None or Unspecified,Triple,,,,,
1118,4280432,22500,2270640,172,1.0,1997,14326.0,High,12/18/2011 0:00,312BL,312,B,,L,Small,"Hydraulic Excavator, Track - 12.0 to 14.0 Metric Tons",Maryland,TEX,Track Excavators,,EROPS w AC,,,,,,,,,,,Auxiliary,,,,,,None or Unspecified,,,,Steel,None or Unspecified,None or Unspecified,Hydraulic,None or Unspecified,Triple,,,,,
1118,4280439,24000,2270640,172,1.0,1998,7323.0,Medium,12/14/2011 0:00,312BL,312,B,,L,Small,"Hydraulic Excavator, Track - 12.0 to 14.0 Metric Tons",California,TEX,Track Excavators,,EROPS w AC,,,,,,,,,,,Auxiliary,,,,,,None or Unspecified,,,,Steel,None or Unspecified,None or Unspecified,Hydraulic,None or Unspecified,Triple,,,,,
1118,4512352,17000,2386401,136,,1000,,,6/30/2009 0:00,312BL,312,B,,L,Small,"Hydraulic Excavator, Track - 12.0 to 14.0 Metric Tons",Wyoming,TEX,Track Excavators,,EROPS,,,,,,,,,,,Standard,,,,,,None or Unspecified,,,,Steel,None or Unspecified,None or Unspecified,Hydraulic,None or Unspecified,Double,,,,,
1118,6269684,22500,113886,149,1.0,1997,,,12/19/2011 0:00,312BL,312,B,,L,Small,"Hydraulic Excavator, Track - 12.0 to 14.0 Metric Tons",Maryland,TEX,Track Excavators,,EROPS,,,,,,,,,,,Standard,,,,,,None or Unspecified,,,,Steel,None or Unspecified,None or Unspecified,None or Unspecified,None or Unspecified,Double,,,,,
1118,6269689,24000,373178,149,1.0,1998,,,12/15/2011 0:00,312BL,312,B,,L,Small,"Hydraulic Excavator, Track - 12.0 to 14.0 Metric Tons",California,TEX,Track Excavators,,EROPS w AC,,,,,,,,,,,Standard,,,,,,None or Unspecified,,,,Steel,24 inch,"9' 6""",Manual,None or Unspecified,Triple,,,,,
1118,6269693,25000,1839282,149,2.0,1998,,,7/26/2011 0:00,312BL,312,B,,L,Small,"Hydraulic Excavator, Track - 12.0 to 14.0 Metric Tons",Texas,TEX,Track Excavators,,EROPS w AC,,,,,,,,,,,Standard,,,,,,None or Unspecified,,,,Steel,24 inch,None or Unspecified,None or Unspecified,None or Unspecified,Double,,,,,
1118,6269695,27000,609717,149,1.0,1999,,,7/27/2011 0:00,312BL,312,B,,L,Small,"Hydraulic Excavator, Track - 12.0 to 14.0 Metric Tons",Texas,TEX,Track Excavators,,EROPS w AC,,,,,,,,,,,Standard,,,,,,None or Unspecified,,,,Steel,None or Unspecified,"8' 6""",Manual,None or Unspecified,Double,,,,,
1118,6269697,28000,469011,149,1.0,2000,,,7/27/2011 0:00,312BL,312,B,,L,Small,"Hydraulic Excavator, Track - 12.0 to 14.0 Metric Tons",Texas,TEX,Track Excavators,,EROPS,,,,,,,,,,,Standard,,,,,,None or Unspecified,,,,Steel,None or Unspecified,None or Unspecified,None or Unspecified,Yes,Triple,,,,,
1118,6269698,25000,473061,149,99.0,2000,,,10/27/2011 0:00,312BL,312,B,,L,Small,"Hydraulic Excavator, Track - 12.0 to 14.0 Metric Tons",Texas,TEX,Track Excavators,,EROPS w AC,,,,,,,,,,,Standard,,,,,,None or Unspecified,,,,Steel,None or Unspecified,None or Unspecified,None or Unspecified,None or Unspecified,Triple,,,,,
1118,6269700,29500,439154,149,2.0,2000,,,11/19/2011 0:00,312BL,312,B,,L,Small,"Hydraulic Excavator, Track - 12.0 to 14.0 Metric Tons",Connecticut,TEX,Track Excavators,,EROPS,,,,,,,,,,,Standard,,,,,,None or Unspecified,,,,Steel,None or Unspecified,None or Unspecified,None or Unspecified,Yes,Double,,,,,
