ModelID,SalesID,SalePrice,MachineID,datasource,auctioneerID,YearMade,MachineHoursCurrentMeter,UsageBand,saledate,fiModelDesc,fiBaseModel,fiSecondaryDesc,fiModelSeries,fiModelDescriptor,ProductSize,fiProductClassDesc,state,ProductGroup,ProductGroupDesc,Drive_System,Enclosure,Forks,Pad_Type,Ride_Control,Stick,Transmission,Turbocharged,Blade_Extension,Blade_Width,Enclosure_Type,Engine_Horsepower,Hydraulics,Pushblock,Ripper,Scarifier,Tip_Control,Tire_Size,Coupler,Coupler_System,Grouser_Tracks,Hydraulics_Flow,Track_Type,Undercarriage_Pad_Width,Stick_Length,Thumb,Pattern_Changer,Grouser_Type,Backhoe_Mounting,Blade_Type,Travel_Controls,Differential_Type,Steering_Controls
1122,1150226,16000,563208,121,3.0,1996,10104.0,High,8/27/2009 0:00,313BSR,313,B,,SR,Small,"Hydraulic Excavator, Track - 12.0 to 14.0 Metric Tons",Michigan,TEX,Track Excavators,,EROPS w AC,,,,,,,,,,,Standard,,,,,,None or Unspecified,,,,Rubber,None or Unspecified,None or Unspecified,None or Unspecified,None or Unspecified,Double,,,,,
1122,1161343,21000,1019184,121,3.0,1997,6135.0,Medium,2/25/2010 0:00,313BSR,313,B,,SR,Small,"Hydraulic Excavator, Track - 12.0 to 14.0 Metric Tons",Oregon,TEX,Track Excavators,,EROPS w AC,,,,,,,,,,,Standard,,,,,,None or Unspecified,,,,Steel,20 inch,None or Unspecified,Hydraulic,None or Unspecified,Double,,,,,
1122,1183385,21000,1030238,121,3.0,1997,8486.0,High,10/16/2008 0:00,313BSR,313,B,,SR,Small,"Hydraulic Excavator, Track - 12.0 to 14.0 Metric Tons",Tennessee,TEX,Track Excavators,,EROPS,,,,,,,,,,,Standard,,,,,,None or Unspecified,,,,Steel,None or Unspecified,None or Unspecified,None or Unspecified,None or Unspecified,Double,,,,,
1122,1188223,20500,1011677,121,3.0,2001,4960.0,Medium,3/26/2009 0:00,313BSR,313,B,,SR,Small,"Hydraulic Excavator, Track - 12.0 to 14.0 Metric Tons",Texas,TEX,Track Excavators,,EROPS w AC,,,,,,,,,,,Standard,,,,,,None or Unspecified,,,,Steel,None or Unspecified,None or Unspecified,Manual,None or Unspecified,Double,,,,,
1122,1526940,32000,1250459,132,2.0,1996,,,7/27/2002 0:00,313BSR,313,B,,SR,Small,"Hydraulic Excavator, Track - 12.0 to 14.0 Metric Tons",Ohio,TEX,Track Excavators,,EROPS w AC,,,,,,,,,,,Standard,,,,,,None or Unspecified,,,,Steel,20 inch,None or Unspecified,None or Unspecified,None or Unspecified,Double,,,,,
1122,1526941,45000,1250459,132,2.0,1996,,,4/26/2003 0:00,313BSR,313,B,,SR,Small,"Hydraulic Excavator, Track - 12.0 to 14.0 Metric Tons",Ohio,TEX,Track Excavators,,EROPS w AC,,,,,,,,,,,Standard,,,,,,None or Unspecified,,,,Steel,20 inch,None or Unspecified,None or Unspecified,None or Unspecified,Double,,,,,
1122,1526942,40000,1534420,132,2.0,1996,,,3/23/2006 0:00,313BSR,313,B,,SR,Small,"Hydraulic Excavator, Track - 12.0 to 14.0 Metric Tons",New Jersey,TEX,Track Excavators,,EROPS w AC,,,,,,,,,,,Standard,,,,,,None or Unspecified,,,,Steel,None or Unspecified,None or Unspecified,None or Unspecified,None or Unspecified,Double,,,,,
1122,1526943,59000,1448708,132,1.0,1996,,,12/4/2006 0:00,313BSR,313,B,,SR,Small,"Hydraulic Excavator, Track - 12.0 to 14.0 Metric Tons",California,TEX,Track Excavators,,EROPS w AC,,,,,,,,,,,Standard,,,,,,None or Unspecified,,,,Steel,None or Unspecified,None or Unspecified,None or Unspecified,None or Unspecified,Double,,,,,
1122,1526945,29500,564747,132,21.0,1996,,,5/6/2004 0:00,313BSR,313,B,,SR,Small,"Hydraulic Excavator, Track - 12.0 to 14.0 Metric Tons",Maine,TEX,Track Excavators,,EROPS,,,,,,,,,,,Standard,,,,,,None or Unspecified,,,,Steel,None or Unspecified,None or Unspecified,None or Unspecified,None or Unspecified,Double,,,,,
1122,1526947,38000,1441892,132,2.0,1996,,,2/5/2006 0:00,313BSR,313,B,,SR,Small,"Hydraulic Excavator, Track - 12.0 to 14.0 Metric Tons",Florida,TEX,Track Excavators,,EROPS,,,,,,,,,,,Standard,,,,,,None or Unspecified,,,,Steel,None or Unspecified,None or Unspecified,None or Unspecified,None or Unspecified,Double,,,,,
1122,1526948,38000,1441892,132,2.0,1996,,,2/4/2007 0:00,313BSR,313,B,,SR,Small,"Hydraulic Excavator, Track - 12.0 to 14.0 Metric Tons",Florida,TEX,Track Excavators,,EROPS,,,,,,,,,,,Standard,,,,,,None or Unspecified,,,,Steel,None or Unspecified,None or Unspecified,None or Unspecified,None or Unspecified,Double,,,,,
1122,1526950,42000,563208,132,2.0,1996,,,7/27/2002 0:00,313BSR,313,B,,SR,Small,"Hydraulic Excavator, Track - 12.0 to 14.0 Metric Tons",Ohio,TEX,Track Excavators,,EROPS w AC,,,,,,,,,,,Standard,,,,,,None or Unspecified,,,,Rubber,None or Unspecified,None or Unspecified,None or Unspecified,None or Unspecified,Double,,,,,
1122,1526952,36500,1527636,132,2.0,1998,,,8/20/2004 0:00,313BSR,313,B,,SR,Small,"Hydraulic Excavator, Track - 12.0 to 14.0 Metric Tons",Tennessee,TEX,Track Excavators,,EROPS w AC,,,,,,,,,,,Standard,,,,,,None or Unspecified,,,,Steel,None or Unspecified,None or Unspecified,Manual,None or Unspecified,Double,,,,,
1122,1526954,32500,1146757,132,5.0,1996,,,9/28/2006 0:00,313BSR,313,B,,SR,Small,"Hydraulic Excavator, Track - 12.0 to 14.0 Metric Tons",Connecticut,TEX,Track Excavators,,EROPS,,,,,,,,,,,Standard,,,,,,None or Unspecified,,,,Steel,18 inch,None or Unspecified,None or Unspecified,None or Unspecified,Triple,,,,,
1122,1526955,36000,1125260,132,2.0,1996,,,7/31/2004 0:00,313BSR,313,B,,SR,Small,"Hydraulic Excavator, Track - 12.0 to 14.0 Metric Tons",Connecticut,TEX,Track Excavators,,EROPS w AC,,,,,,,,,,,Standard,,,,,,None or Unspecified,,,,Steel,None or Unspecified,None or Unspecified,None or Unspecified,None or Unspecified,Double,,,,,
1122,1526958,29500,1371032,132,2.0,1996,,,2/5/2009 0:00,313BSR,313,B,,SR,Small,"Hydraulic Excavator, Track - 12.0 to 14.0 Metric Tons",Florida,TEX,Track Excavators,,EROPS,,,,,,,,,,,Standard,,,,,,None or Unspecified,,,,Steel,20 inch,None or Unspecified,None or Unspecified,None or Unspecified,Double,,,,,
1122,1526961,47000,1303964,132,2.0,1997,,,2/4/2002 0:00,313BSR,313,B,,SR,Small,"Hydraulic Excavator, Track - 12.0 to 14.0 Metric Tons",Florida,TEX,Track Excavators,,EROPS,,,,,,,,,,,Standard,,,,,,None or Unspecified,,,,Rubber,None or Unspecified,None or Unspecified,None or Unspecified,None or Unspecified,Double,,,,,
1122,1526963,42000,1397118,132,2.0,1997,,,3/22/2007 0:00,313BSR,313,B,,SR,Small,"Hydraulic Excavator, Track - 12.0 to 14.0 Metric Tons",New Jersey,TEX,Track Excavators,,EROPS,,,,,,,,,,,Standard,,,,,,None or Unspecified,,,,Steel,20 inch,None or Unspecified,None or Unspecified,None or Unspecified,Double,,,,,
1122,1526964,37500,1078038,132,2.0,1997,,,3/31/2005 0:00,313BSR,313,B,,SR,Small,"Hydraulic Excavator, Track - 12.0 to 14.0 Metric Tons",New Jersey,TEX,Track Excavators,,EROPS w AC,,,,,,,,,,,Standard,,,,,,None or Unspecified,,,,Steel,20 inch,None or Unspecified,None or Unspecified,None or Unspecified,Double,,,,,
1122,1526965,42000,1217683,132,5.0,1996,,,4/2/2004 0:00,313BSR,313,B,,SR,Small,"Hydraulic Excavator, Track - 12.0 to 14.0 Metric Tons",Connecticut,TEX,Track Excavators,,EROPS,,,,,,,,,,,Standard,,,,,,None or Unspecified,,,,Steel,None or Unspecified,None or Unspecified,None or Unspecified,None or Unspecified,Double,,,,,
1122,1526966,36500,1117829,132,9.0,1996,,,2/22/2006 0:00,313BSR,313,B,,SR,Small,"Hydraulic Excavator, Track - 12.0 to 14.0 Metric Tons",Florida,TEX,Track Excavators,,EROPS,,,,,,,,,,,Standard,,,,,,None or Unspecified,,,,Steel,20 inch,None or Unspecified,None or Unspecified,None or Unspecified,Triple,,,,,
1122,1526967,37500,1117829,132,2.0,1996,,,2/5/2006 0:00,313BSR,313,B,,SR,Small,"Hydraulic Excavator, Track - 12.0 to 14.0 Metric Tons",Florida,TEX,Track Excavators,,EROPS,,,,,,,,,,,Standard,,,,,,None or Unspecified,,,,Steel,20 inch,None or Unspecified,None or Unspecified,None or Unspecified,Triple,,,,,
1122,1526969,39000,1529607,132,5.0,1996,,,4/6/2006 0:00,313BSR,313,B,,SR,Small,"Hydraulic Excavator, Track - 12.0 to 14.0 Metric Tons",Connecticut,TEX,Track Excavators,,EROPS,,,,,,,,,,,Standard,,,,,,None or Unspecified,,,,Steel,20 inch,None or Unspecified,None or Unspecified,None or Unspecified,Double,,,,,
1122,1526970,36000,1095927,132,4.0,1997,,,2/13/2006 0:00,313BSR,313,B,,SR,Small,"Hydraulic Excavator, Track - 12.0 to 14.0 Metric Tons",Florida,TEX,Track Excavators,,EROPS,,,,,,,,,,,Standard,,,,,,None or Unspecified,,,,Steel,None or Unspecified,None or Unspecified,None or Unspecified,None or Unspecified,Double,,,,,
1122,1526972,39500,1172585,132,2.0,1996,,,3/25/2004 0:00,313BSR,313,B,,SR,Small,"Hydraulic Excavator, Track - 12.0 to 14.0 Metric Tons",New Jersey,TEX,Track Excavators,,EROPS w AC,,,,,,,,,,,Standard,,,,,,None or Unspecified,,,,Steel,24 inch,None or Unspecified,Manual,None or Unspecified,Double,,,,,
1122,1526974,37500,1172585,132,2.0,1996,,,9/5/2002 0:00,313BSR,313,B,,SR,Small,"Hydraulic Excavator, Track - 12.0 to 14.0 Metric Tons",New Hampshire,TEX,Track Excavators,,EROPS w AC,,,,,,,,,,,Standard,,,,,,None or Unspecified,,,,Steel,24 inch,None or Unspecified,Manual,None or Unspecified,Double,,,,,
1122,1526975,50000,1501868,132,2.0,1996,,,3/27/2003 0:00,313BSR,313,B,,SR,Small,"Hydraulic Excavator, Track - 12.0 to 14.0 Metric Tons",New Jersey,TEX,Track Excavators,,EROPS,,,,,,,,,,,Standard,,,,,,None or Unspecified,,,,Steel,None or Unspecified,None or Unspecified,None or Unspecified,None or Unspecified,Double,,,,,
1122,1526976,37000,1343873,132,2.0,1996,,,2/5/2006 0:00,313BSR,313,B,,SR,Small,"Hydraulic Excavator, Track - 12.0 to 14.0 Metric Tons",Florida,TEX,Track Excavators,,EROPS w AC,,,,,,,,,,,Standard,,,,,,None or Unspecified,,,,Steel,20 inch,None or Unspecified,None or Unspecified,None or Unspecified,Double,,,,,
1122,1526977,37500,1343873,132,5.0,1996,,,6/16/2006 0:00,313BSR,313,B,,SR,Small,"Hydraulic Excavator, Track - 12.0 to 14.0 Metric Tons",Connecticut,TEX,Track Excavators,,EROPS w AC,,,,,,,,,,,Standard,,,,,,None or Unspecified,,,,Steel,20 inch,None or Unspecified,None or Unspecified,None or Unspecified,Double,,,,,
1122,1526978,35500,1343873,132,2.0,1996,,,12/3/2005 0:00,313BSR,313,B,,SR,Small,"Hydraulic Excavator, Track - 12.0 to 14.0 Metric Tons",New Jersey,TEX,Track Excavators,,EROPS w AC,,,,,,,,,,,Standard,,,,,,None or Unspecified,,,,Steel,20 inch,None or Unspecified,None or Unspecified,None or Unspecified,Double,,,,,
1122,1526979,34000,1145593,132,2.0,1997,,,8/9/2003 0:00,313BSR,313,B,,SR,Small,"Hydraulic Excavator, Track - 12.0 to 14.0 Metric Tons",Ohio,TEX,Track Excavators,,EROPS,,,,,,,,,,,Standard,,,,,,None or Unspecified,,,,Steel,20 inch,None or Unspecified,Manual,None or Unspecified,Double,,,,,
1122,1526980,30000,1399997,132,2.0,1996,,,11/18/2006 0:00,313BSR,313,B,,SR,Small,"Hydraulic Excavator, Track - 12.0 to 14.0 Metric Tons",Connecticut,TEX,Track Excavators,,EROPS w AC,,,,,,,,,,,Standard,,,,,,None or Unspecified,,,,Steel,None or Unspecified,None or Unspecified,None or Unspecified,None or Unspecified,Double,,,,,
1122,1526983,35500,1292295,132,2.0,1996,,,3/22/2007 0:00,313BSR,313,B,,SR,Small,"Hydraulic Excavator, Track - 12.0 to 14.0 Metric Tons",New Jersey,TEX,Track Excavators,,EROPS w AC,,,,,,,,,,,Standard,,,,,,None or Unspecified,,,,Steel,20 inch,None or Unspecified,None or Unspecified,None or Unspecified,Double,,,,,
1122,1526985,48000,565214,132,2.0,1997,,,7/29/2000 0:00,313BSR,313,B,,SR,Small,"Hydraulic Excavator, Track - 12.0 to 14.0 Metric Tons",Ohio,TEX,Track Excavators,,EROPS w AC,,,,,,,,,,,Standard,,,,,,None or Unspecified,,,,Steel,None or Unspecified,None or Unspecified,None or Unspecified,None or Unspecified,Double,,,,,
1122,1526986,27500,1401500,132,2.0,1997,,,2/4/2007 0:00,313BSR,313,B,,SR,Small,"Hydraulic Excavator, Track - 12.0 to 14.0 Metric Tons",Florida,TEX,Track Excavators,,EROPS,,,,,,,,,,,Standard,,,,,,None or Unspecified,,,,Steel,None or Unspecified,None or Unspecified,None or Unspecified,None or Unspecified,Double,,,,,
1122,1526987,27500,1072249,132,5.0,1997,,,1/23/2009 0:00,313BSR,313,B,,SR,Small,"Hydraulic Excavator, Track - 12.0 to 14.0 Metric Tons",Connecticut,TEX,Track Excavators,,EROPS w AC,,,,,,,,,,,Standard,,,,,,None or Unspecified,,,,Steel,20 inch,None or Unspecified,None or Unspecified,None or Unspecified,Double,,,,,
1122,1526990,20000,1304758,132,2.0,1997,,,2/6/2009 0:00,313BSR,313,B,,SR,Small,"Hydraulic Excavator, Track - 12.0 to 14.0 Metric Tons",Florida,TEX,Track Excavators,,EROPS w AC,,,,,,,,,,,Standard,,,,,,None or Unspecified,,,,Steel,20 inch,None or Unspecified,None or Unspecified,None or Unspecified,Double,,,,,
1122,1526991,32500,1076853,132,2.0,1997,,,9/9/2006 0:00,313BSR,313,B,,SR,Small,"Hydraulic Excavator, Track - 12.0 to 14.0 Metric Tons",New Hampshire,TEX,Track Excavators,,EROPS w AC,,,,,,,,,,,Standard,,,,,,None or Unspecified,,,,Steel,None or Unspecified,None or Unspecified,None or Unspecified,None or Unspecified,Double,,,,,
1122,1526992,31000,1523323,132,2.0,1997,,,2/4/2007 0:00,313BSR,313,B,,SR,Small,"Hydraulic Excavator, Track - 12.0 to 14.0 Metric Tons",Florida,TEX,Track Excavators,,EROPS w AC,,,,,,,,,,,Standard,,,,,,None or Unspecified,,,,Steel,20 inch,None or Unspecified,None or Unspecified,None or Unspecified,Double,,,,,
1122,1526993,38500,1383660,132,2.0,1997,,,1/30/2005 0:00,313BSR,313,B,,SR,Small,"Hydraulic Excavator, Track - 12.0 to 14.0 Metric Tons",Florida,TEX,Track Excavators,,EROPS w AC,,,,,,,,,,,Standard,,,,,,None or Unspecified,,,,Steel,18 inch,None or Unspecified,None or Unspecified,None or Unspecified,Double,,,,,
1122,1526994,51500,581917,132,2.0,1997,,,2/8/2001 0:00,313BSR,313,B,,SR,Small,"Hydraulic Excavator, Track - 12.0 to 14.0 Metric Tons",Florida,TEX,Track Excavators,,EROPS w AC,,,,,,,,,,,Standard,,,,,,None or Unspecified,,,,Rubber,None or Unspecified,None or Unspecified,None or Unspecified,None or Unspecified,Double,,,,,
1122,1526995,33000,1499997,132,1.0,1997,,,6/27/2006 0:00,313BSR,313,B,,SR,Small,"Hydraulic Excavator, Track - 12.0 to 14.0 Metric Tons",North Carolina,TEX,Track Excavators,,EROPS w AC,,,,,,,,,,,Auxiliary,,,,,,None or Unspecified,,,,Steel,None or Unspecified,None or Unspecified,Manual,None or Unspecified,Double,,,,,
1122,1526996,31000,1265482,132,2.0,1997,,,10/11/2006 0:00,313BSR,313,B,,SR,Small,"Hydraulic Excavator, Track - 12.0 to 14.0 Metric Tons",Florida,TEX,Track Excavators,,EROPS w AC,,,,,,,,,,,Standard,,,,,,None or Unspecified,,,,Steel,None or Unspecified,None or Unspecified,None or Unspecified,None or Unspecified,Double,,,,,
1122,1526999,37500,1374822,132,1.0,1998,,,12/8/2004 0:00,313BSR,313,B,,SR,Small,"Hydraulic Excavator, Track - 12.0 to 14.0 Metric Tons",North Carolina,TEX,Track Excavators,,EROPS w AC,,,,,,,,,,,Auxiliary,,,,,,None or Unspecified,,,,Steel,None or Unspecified,None or Unspecified,None or Unspecified,None or Unspecified,Double,,,,,
1122,1527000,40000,1211500,132,5.0,1998,,,1/27/2006 0:00,313BSR,313,B,,SR,Small,"Hydraulic Excavator, Track - 12.0 to 14.0 Metric Tons",Connecticut,TEX,Track Excavators,,EROPS,,,,,,,,,,,Standard,,,,,,None or Unspecified,,,,Steel,20 inch,None or Unspecified,None or Unspecified,None or Unspecified,Double,,,,,
1122,1527002,37000,1302787,132,1.0,1999,,,6/21/2006 0:00,313BSR,313,B,,SR,Small,"Hydraulic Excavator, Track - 12.0 to 14.0 Metric Tons",Maryland,TEX,Track Excavators,,EROPS w AC,,,,,,,,,,,Standard,,,,,,None or Unspecified,,,,Steel,None or Unspecified,"8' 2""",None or Unspecified,None or Unspecified,Double,,,,,
1122,1527003,45000,1467608,132,8.0,1998,,,3/22/2006 0:00,313BSR,313,B,,SR,Small,"Hydraulic Excavator, Track - 12.0 to 14.0 Metric Tons",Mississippi,TEX,Track Excavators,,EROPS,,,,,,,,,,,Standard,,,,,,None or Unspecified,,,,Steel,None or Unspecified,None or Unspecified,None or Unspecified,None or Unspecified,Double,,,,,
1122,1527004,43000,1161124,132,8.0,1999,,,11/16/2005 0:00,313BSR,313,B,,SR,Small,"Hydraulic Excavator, Track - 12.0 to 14.0 Metric Tons",Mississippi,TEX,Track Excavators,,EROPS,,,,,,,,,,,Standard,,,,,,None or Unspecified,,,,Steel,None or Unspecified,None or Unspecified,None or Unspecified,None or Unspecified,Double,,,,,
1122,1527006,44000,1535075,132,8.0,1999,,,5/24/2006 0:00,313BSR,313,B,,SR,Small,"Hydraulic Excavator, Track - 12.0 to 14.0 Metric Tons",Mississippi,TEX,Track Excavators,,EROPS w AC,,,,,,,,,,,Standard,,,,,,None or Unspecified,,,,Rubber,None or Unspecified,None or Unspecified,None or Unspecified,None or Unspecified,Double,,,,,
1122,1527007,39000,1535075,132,8.0,1999,,,3/22/2006 0:00,313BSR,313,B,,SR,Small,"Hydraulic Excavator, Track - 12.0 to 14.0 Metric Tons",Mississippi,TEX,Track Excavators,,EROPS w AC,,,,,,,,,,,Standard,,,,,,None or Unspecified,,,,Rubber,None or Unspecified,None or Unspecified,None or Unspecified,None or Unspecified,Double,,,,,
1122,1527010,34000,1349329,132,7.0,2000,,,3/7/2007 0:00,313BSR,313,B,,SR,Small,"Hydraulic Excavator, Track - 12.0 to 14.0 Metric Tons",Alabama,TEX,Track Excavators,,EROPS w AC,,,,,,,,,,,Standard,,,,,,None or Unspecified,,,,Rubber,None or Unspecified,None or Unspecified,None or Unspecified,None or Unspecified,Double,,,,,
1122,1527011,38000,1349329,132,4.0,2000,,,2/12/2007 0:00,313BSR,313,B,,SR,Small,"Hydraulic Excavator, Track - 12.0 to 14.0 Metric Tons",Florida,TEX,Track Excavators,,EROPS w AC,,,,,,,,,,,Standard,,,,,,None or Unspecified,,,,Rubber,None or Unspecified,None or Unspecified,None or Unspecified,None or Unspecified,Double,,,,,
1122,1527012,36000,1349329,132,8.0,2000,,,11/15/2006 0:00,313BSR,313,B,,SR,Small,"Hydraulic Excavator, Track - 12.0 to 14.0 Metric Tons",Mississippi,TEX,Track Excavators,,EROPS w AC,,,,,,,,,,,Standard,,,,,,None or Unspecified,,,,Rubber,None or Unspecified,None or Unspecified,None or Unspecified,None or Unspecified,Double,,,,,
1122,1527013,37000,1349329,132,7.0,2000,,,11/30/2006 0:00,313BSR,313,B,,SR,Small,"Hydraulic Excavator, Track - 12.0 to 14.0 Metric Tons",Alabama,TEX,Track Excavators,,EROPS w AC,,,,,,,,,,,Standard,,,,,,None or Unspecified,,,,Rubber,None or Unspecified,None or Unspecified,None or Unspecified,None or Unspecified,Double,,,,,
1122,1527014,37500,1349329,132,8.0,2000,,,9/13/2006 0:00,313BSR,313,B,,SR,Small,"Hydraulic Excavator, Track - 12.0 to 14.0 Metric Tons",Mississippi,TEX,Track Excavators,,EROPS w AC,,,,,,,,,,,Standard,,,,,,None or Unspecified,,,,Rubber,None or Unspecified,None or Unspecified,None or Unspecified,None or Unspecified,Double,,,,,
1122,1527018,40000,541631,132,2.0,2001,,,2/3/2008 0:00,313BSR,313,B,,SR,Small,"Hydraulic Excavator, Track - 12.0 to 14.0 Metric Tons",Florida,TEX,Track Excavators,,EROPS w AC,,,,,,,,,,,Standard,,,,,,None or Unspecified,,,,Steel,20 inch,None or Unspecified,None or Unspecified,None or Unspecified,Double,,,,,
1122,1527019,43000,1135858,132,2.0,2001,,,2/5/2006 0:00,313BSR,313,B,,SR,Small,"Hydraulic Excavator, Track - 12.0 to 14.0 Metric Tons",Florida,TEX,Track Excavators,,EROPS w AC,,,,,,,,,,,Standard,,,,,,None or Unspecified,,,,Steel,None or Unspecified,None or Unspecified,None or Unspecified,None or Unspecified,Double,,,,,
1122,1527020,33500,1071859,132,2.0,2002,,,4/12/2008 0:00,313BSR,313,B,,SR,Small,"Hydraulic Excavator, Track - 12.0 to 14.0 Metric Tons",South Carolina,TEX,Track Excavators,,EROPS w AC,,,,,,,,,,,Standard,,,,,,None or Unspecified,,,,Steel,20 inch,None or Unspecified,None or Unspecified,None or Unspecified,Double,,,,,
1122,2240041,27500,1730699,136,,1997,0.0,,1/23/2009 0:00,313BSR,313,B,,SR,Small,"Hydraulic Excavator, Track - 12.0 to 14.0 Metric Tons",Connecticut,TEX,Track Excavators,,EROPS,,,,,,,,,,,Standard,,,,,,None or Unspecified,,,,Steel,None or Unspecified,None or Unspecified,None or Unspecified,None or Unspecified,Double,,,,,
1122,2279437,30500,1070917,136,2.0,1997,0.0,,3/27/2008 0:00,313BSR,313,B,,SR,Small,"Hydraulic Excavator, Track - 12.0 to 14.0 Metric Tons",New Jersey,TEX,Track Excavators,,EROPS w AC,,,,,,,,,,,Standard,,,,,,None or Unspecified,,,,Steel,20 inch,None or Unspecified,None or Unspecified,None or Unspecified,Double,,,,,
1122,2279438,22500,1420011,136,1.0,1996,0.0,,11/20/2009 0:00,313BSR,313,B,,SR,Small,"Hydraulic Excavator, Track - 12.0 to 14.0 Metric Tons",Arizona,TEX,Track Excavators,,EROPS w AC,,,,,,,,,,,Standard,,,,,,None or Unspecified,,,,Rubber,None or Unspecified,None or Unspecified,None or Unspecified,None or Unspecified,Double,,,,,
1122,2279439,32000,1704999,136,,1997,0.0,,5/19/2007 0:00,313BSR,313,B,,SR,Small,"Hydraulic Excavator, Track - 12.0 to 14.0 Metric Tons",Connecticut,TEX,Track Excavators,,EROPS w AC,,,,,,,,,,,Standard,,,,,,None or Unspecified,,,,Steel,None or Unspecified,None or Unspecified,None or Unspecified,None or Unspecified,Double,,,,,
1122,2279443,19000,1490108,136,1.0,1996,0.0,,9/30/2008 0:00,313BSR,313,B,,SR,Small,"Hydraulic Excavator, Track - 12.0 to 14.0 Metric Tons",Minnesota,TEX,Track Excavators,,EROPS,,,,,,,,,,,Standard,,,,,,None or Unspecified,,,,Steel,None or Unspecified,None or Unspecified,Manual,None or Unspecified,Double,,,,,
1122,2279446,27500,1716414,136,,1996,0.0,,7/14/2007 0:00,313BSR,313,B,,SR,Small,"Hydraulic Excavator, Track - 12.0 to 14.0 Metric Tons",New York,TEX,Track Excavators,,EROPS w AC,,,,,,,,,,,Standard,,,,,,None or Unspecified,,,,Rubber,None or Unspecified,None or Unspecified,None or Unspecified,None or Unspecified,Double,,,,,
1122,2279447,33000,1716414,136,,1996,0.0,,8/25/2007 0:00,313BSR,313,B,,SR,Small,"Hydraulic Excavator, Track - 12.0 to 14.0 Metric Tons",New York,TEX,Track Excavators,,EROPS w AC,,,,,,,,,,,Standard,,,,,,None or Unspecified,,,,Rubber,None or Unspecified,None or Unspecified,None or Unspecified,None or Unspecified,Double,,,,,
1122,2279451,29500,1371032,136,2.0,1996,0.0,,1/31/2009 0:00,313BSR,313,B,,SR,Small,"Hydraulic Excavator, Track - 12.0 to 14.0 Metric Tons",Florida,TEX,Track Excavators,,EROPS,,,,,,,,,,,Standard,,,,,,None or Unspecified,,,,Steel,20 inch,None or Unspecified,None or Unspecified,None or Unspecified,Double,,,,,
1122,2279452,22500,1159072,136,5.0,1998,0.0,,11/14/2008 0:00,313BSR,313,B,,SR,Small,"Hydraulic Excavator, Track - 12.0 to 14.0 Metric Tons",Connecticut,TEX,Track Excavators,,EROPS,,,,,,,,,,,Standard,,,,,,None or Unspecified,,,,Steel,20 inch,None or Unspecified,Manual,None or Unspecified,Double,,,,,
1122,2279453,32500,1397118,136,2.0,1997,0.0,,12/8/2007 0:00,313BSR,313,B,,SR,Small,"Hydraulic Excavator, Track - 12.0 to 14.0 Metric Tons",Pennsylvania,TEX,Track Excavators,,EROPS,,,,,,,,,,,Standard,,,,,,None or Unspecified,,,,Steel,20 inch,None or Unspecified,None or Unspecified,None or Unspecified,Double,,,,,
1122,2279454,26000,1078038,136,2.0,1997,0.0,,6/6/2009 0:00,313BSR,313,B,,SR,Small,"Hydraulic Excavator, Track - 12.0 to 14.0 Metric Tons",Connecticut,TEX,Track Excavators,,EROPS w AC,,,,,,,,,,,Standard,,,,,,None or Unspecified,,,,Steel,20 inch,None or Unspecified,None or Unspecified,None or Unspecified,Double,,,,,
1122,2279455,21000,1186246,136,1.0,1000,0.0,,5/20/2010 0:00,313BSR,313,B,,SR,Small,"Hydraulic Excavator, Track - 12.0 to 14.0 Metric Tons",California,TEX,Track Excavators,,EROPS w AC,,,,,,,,,,,Auxiliary,,,,,,None or Unspecified,,,,Steel,None or Unspecified,None or Unspecified,Hydraulic,None or Unspecified,Double,,,,,
1122,2279457,33000,1172585,136,1.0,1996,0.0,,6/8/2007 0:00,313BSR,313,B,,SR,Small,"Hydraulic Excavator, Track - 12.0 to 14.0 Metric Tons",Nevada,TEX,Track Excavators,,EROPS w AC,,,,,,,,,,,Standard,,,,,,None or Unspecified,,,,Steel,24 inch,None or Unspecified,Manual,None or Unspecified,Double,,,,,
1122,2279458,29000,1535758,136,5.0,1998,0.0,,3/26/2009 0:00,313BSR,313,B,,SR,Small,"Hydraulic Excavator, Track - 12.0 to 14.0 Metric Tons",Connecticut,TEX,Track Excavators,,EROPS,,,,,,,,,,,Standard,,,,,,None or Unspecified,,,,Steel,20 inch,None or Unspecified,None or Unspecified,None or Unspecified,Double,,,,,
1122,2279459,18500,1535758,136,5.0,1996,0.0,,6/6/2009 0:00,313BSR,313,B,,SR,Small,"Hydraulic Excavator, Track - 12.0 to 14.0 Metric Tons",Connecticut,TEX,Track Excavators,,EROPS,,,,,,,,,,,Standard,,,,,,None or Unspecified,,,,Steel,20 inch,None or Unspecified,None or Unspecified,None or Unspecified,Double,,,,,
1122,2279460,28000,1535758,136,5.0,1998,0.0,,6/26/2009 0:00,313BSR,313,B,,SR,Small,"Hydraulic Excavator, Track - 12.0 to 14.0 Metric Tons",Connecticut,TEX,Track Excavators,,EROPS,,,,,,,,,,,Standard,,,,,,None or Unspecified,,,,Steel,20 inch,None or Unspecified,None or Unspecified,None or Unspecified,Double,,,,,
1122,2279461,23000,1292295,136,2.0,1999,0.0,,6/9/2007 0:00,313BSR,313,B,,SR,Small,"Hydraulic Excavator, Track - 12.0 to 14.0 Metric Tons",New Jersey,TEX,Track Excavators,,EROPS w AC,,,,,,,,,,,Standard,,,,,,None or Unspecified,,,,Steel,20 inch,None or Unspecified,None or Unspecified,None or Unspecified,Double,,,,,
1122,2279462,30000,1073544,136,2.0,2000,0.0,,3/7/2008 0:00,313BSR,313,B,,SR,Small,"Hydraulic Excavator, Track - 12.0 to 14.0 Metric Tons",Virginia,TEX,Track Excavators,,EROPS w AC,,,,,,,,,,,Standard,,,,,,None or Unspecified,,,,Steel,None or Unspecified,None or Unspecified,None or Unspecified,None or Unspecified,Double,,,,,
1122,2279464,35000,1678987,136,,1997,6057.0,Medium,1/23/2008 0:00,313BSR,313,B,,SR,Small,"Hydraulic Excavator, Track - 12.0 to 14.0 Metric Tons",New York,TEX,Track Excavators,,EROPS w AC,,,,,,,,,,,Standard,,,,,,None or Unspecified,,,,Steel,None or Unspecified,None or Unspecified,None or Unspecified,None or Unspecified,Double,,,,,
1122,2279466,27500,1072249,136,14.0,1997,0.0,,9/18/2009 0:00,313BSR,313,B,,SR,Small,"Hydraulic Excavator, Track - 12.0 to 14.0 Metric Tons",Indiana,TEX,Track Excavators,,EROPS w AC,,,,,,,,,,,Standard,,,,,,None or Unspecified,,,,Steel,20 inch,None or Unspecified,None or Unspecified,None or Unspecified,Double,,,,,
1122,2279467,20000,1304758,136,2.0,1997,0.0,,1/31/2009 0:00,313BSR,313,B,,SR,Small,"Hydraulic Excavator, Track - 12.0 to 14.0 Metric Tons",Florida,TEX,Track Excavators,,EROPS w AC,,,,,,,,,,,Standard,,,,,,None or Unspecified,,,,Steel,20 inch,None or Unspecified,None or Unspecified,None or Unspecified,Double,,,,,
1122,2279468,18500,1304758,136,2.0,1997,0.0,,6/6/2009 0:00,313BSR,313,B,,SR,Small,"Hydraulic Excavator, Track - 12.0 to 14.0 Metric Tons",Connecticut,TEX,Track Excavators,,EROPS w AC,,,,,,,,,,,Standard,,,,,,None or Unspecified,,,,Steel,20 inch,None or Unspecified,None or Unspecified,None or Unspecified,Double,,,,,
1122,2279471,17500,1762064,136,,1997,0.0,,9/13/2008 0:00,313BSR,313,B,,SR,Small,"Hydraulic Excavator, Track - 12.0 to 14.0 Metric Tons",California,TEX,Track Excavators,,EROPS w AC,,,,,,,,,,,Standard,,,,,,None or Unspecified,,,,Steel,None or Unspecified,None or Unspecified,None or Unspecified,None or Unspecified,Double,,,,,
1122,2279472,35000,1072098,136,,1997,0.0,,6/9/2007 0:00,313BSR,313,B,,SR,Small,"Hydraulic Excavator, Track - 12.0 to 14.0 Metric Tons",New Jersey,TEX,Track Excavators,,EROPS w AC,,,,,,,,,,,Standard,,,,,,None or Unspecified,,,,Steel,None or Unspecified,None or Unspecified,None or Unspecified,None or Unspecified,Double,,,,,
1122,2279475,33500,1639332,136,,1997,0.0,,11/16/2007 0:00,313BSR,313,B,,SR,Small,"Hydraulic Excavator, Track - 12.0 to 14.0 Metric Tons",South Carolina,TEX,Track Excavators,,EROPS w AC,,,,,,,,,,,Standard,,,,,,None or Unspecified,,,,Steel,None or Unspecified,None or Unspecified,None or Unspecified,None or Unspecified,Double,,,,,
1122,2279476,24000,1499997,136,1.0,1997,0.0,,12/14/2007 0:00,313BSR,313,B,,SR,Small,"Hydraulic Excavator, Track - 12.0 to 14.0 Metric Tons",North Carolina,TEX,Track Excavators,,EROPS w AC,,,,,,,,,,,Auxiliary,,,,,,None or Unspecified,,,,Steel,None or Unspecified,None or Unspecified,Manual,None or Unspecified,Double,,,,,
1122,2279481,17500,1404193,136,1.0,1998,0.0,,3/10/2009 0:00,313BSR,313,B,,SR,Small,"Hydraulic Excavator, Track - 12.0 to 14.0 Metric Tons",Colorado,TEX,Track Excavators,,EROPS,,,,,,,,,,,Standard,,,,,,None or Unspecified,,,,Steel,None or Unspecified,None or Unspecified,None or Unspecified,None or Unspecified,Double,,,,,
1122,2279484,32000,1535075,136,,2000,0.0,,12/11/2007 0:00,313BSR,313,B,,SR,Small,"Hydraulic Excavator, Track - 12.0 to 14.0 Metric Tons",Louisiana,TEX,Track Excavators,,EROPS w AC,,,,,,,,,,,Standard,,,,,,None or Unspecified,,,,Rubber,None or Unspecified,None or Unspecified,None or Unspecified,None or Unspecified,Double,,,,,
1122,2279485,32000,1535075,136,8.0,2000,0.0,,11/14/2007 0:00,313BSR,313,B,,SR,Small,"Hydraulic Excavator, Track - 12.0 to 14.0 Metric Tons",Mississippi,TEX,Track Excavators,,EROPS w AC,,,,,,,,,,,Standard,,,,,,None or Unspecified,,,,Rubber,None or Unspecified,None or Unspecified,None or Unspecified,None or Unspecified,Double,,,,,
1122,2279487,37000,1073081,136,2.0,2001,0.0,,3/27/2008 0:00,313BSR,313,B,,SR,Small,"Hydraulic Excavator, Track - 12.0 to 14.0 Metric Tons",New Jersey,TEX,Track Excavators,,EROPS w AC,,,,,,,,,,,Auxiliary,,,,,,None or Unspecified,,,,Steel,20 inch,None or Unspecified,None or Unspecified,None or Unspecified,Double,,,,,
1122,2279488,35000,1703771,136,,2001,0.0,,6/28/2008 0:00,313BSR,313,B,,SR,Small,"Hydraulic Excavator, Track - 12.0 to 14.0 Metric Tons",New Jersey,TEX,Track Excavators,,EROPS w AC,,,,,,,,,,,Standard,,,,,,None or Unspecified,,,,Steel,None or Unspecified,None or Unspecified,None or Unspecified,None or Unspecified,Double,,,,,
1122,2279489,32500,1610961,136,,2001,0.0,,9/15/2007 0:00,313BSR,313,B,,SR,Small,"Hydraulic Excavator, Track - 12.0 to 14.0 Metric Tons",New Hampshire,TEX,Track Excavators,,EROPS w AC,,,,,,,,,,,Standard,,,,,,None or Unspecified,,,,Steel,None or Unspecified,None or Unspecified,None or Unspecified,None or Unspecified,Double,,,,,
1122,2279490,29000,1111977,136,4.0,2001,0.0,,2/9/2009 0:00,313BSR,313,B,,SR,Small,"Hydraulic Excavator, Track - 12.0 to 14.0 Metric Tons",Florida,TEX,Track Excavators,,EROPS w AC,,,,,,,,,,,Standard,,,,,,None or Unspecified,,,,Steel,None or Unspecified,None or Unspecified,None or Unspecified,None or Unspecified,Triple,,,,,
1122,2279492,36500,1723047,136,,2002,0.0,,11/22/2008 0:00,313BSR,313,B,,SR,Small,"Hydraulic Excavator, Track - 12.0 to 14.0 Metric Tons",Connecticut,TEX,Track Excavators,,EROPS w AC,,,,,,,,,,,Standard,,,,,,None or Unspecified,,,,Steel,None or Unspecified,None or Unspecified,None or Unspecified,None or Unspecified,Double,,,,,
1122,2279493,38000,1644718,136,,2000,0.0,,9/27/2008 0:00,313BSR,313,B,,SR,Small,"Hydraulic Excavator, Track - 12.0 to 14.0 Metric Tons",New Jersey,TEX,Track Excavators,,EROPS w AC,,,,,,,,,,,Standard,,,,,,None or Unspecified,,,,Steel,None or Unspecified,None or Unspecified,None or Unspecified,None or Unspecified,Double,,,,,
1122,2279494,40000,1713235,136,,2001,0.0,,2/3/2008 0:00,313BSR,313,B,,SR,Small,"Hydraulic Excavator, Track - 12.0 to 14.0 Metric Tons",Florida,TEX,Track Excavators,,EROPS w AC,,,,,,,,,,,Standard,,,,,,None or Unspecified,,,,Steel,None or Unspecified,None or Unspecified,None or Unspecified,None or Unspecified,Double,,,,,
1122,2562884,31000,1818412,149,2.0,1996,0.0,,3/31/2011 0:00,313BSR,313,B,,SR,Small,"Hydraulic Excavator, Track - 12.0 to 14.0 Metric Tons",New Jersey,TEX,Track Excavators,,EROPS w AC,,,,,,,,,,,Standard,,,,,,None or Unspecified,,,,Steel,None or Unspecified,None or Unspecified,None or Unspecified,None or Unspecified,Double,,,,,
1122,2562893,22000,1762064,149,99.0,1997,6041.0,Medium,4/14/2011 0:00,313BSR,313,B,,SR,Small,"Hydraulic Excavator, Track - 12.0 to 14.0 Metric Tons",California,TEX,Track Excavators,,EROPS w AC,,,,,,,,,,,Standard,,,,,,None or Unspecified,,,,Steel,None or Unspecified,None or Unspecified,None or Unspecified,None or Unspecified,Double,,,,,
1122,4285387,27000,1400946,172,1.0,1996,5705.0,Medium,12/14/2010 0:00,313BSR,313,B,,SR,Small,"Hydraulic Excavator, Track - 12.0 to 14.0 Metric Tons",California,TEX,Track Excavators,,EROPS w AC,,,,,,,,,,,Standard,,,,,,Manual,,,,Steel,None or Unspecified,None or Unspecified,Hydraulic,None or Unspecified,Double,,,,,
1122,6271299,29000,1070917,149,2.0,1000,,,12/17/2011 0:00,313BSR,313,B,,SR,Small,"Hydraulic Excavator, Track - 12.0 to 14.0 Metric Tons",New Jersey,TEX,Track Excavators,,EROPS w AC,,,,,,,,,,,Standard,,,,,,None or Unspecified,,,,Steel,20 inch,None or Unspecified,None or Unspecified,None or Unspecified,Double,,,,,
1122,6271300,28500,1070917,149,2.0,1996,,,11/19/2011 0:00,313BSR,313,B,,SR,Small,"Hydraulic Excavator, Track - 12.0 to 14.0 Metric Tons",Connecticut,TEX,Track Excavators,,EROPS w AC,,,,,,,,,,,Standard,,,,,,None or Unspecified,,,,Steel,20 inch,None or Unspecified,None or Unspecified,None or Unspecified,Double,,,,,
1122,6271307,31000,1815361,149,2.0,1000,,,12/21/2011 0:00,313BSR,313,B,,SR,Small,"Hydraulic Excavator, Track - 12.0 to 14.0 Metric Tons",Kentucky,TEX,Track Excavators,,EROPS,,,,,,,,,,,Standard,,,,,,None or Unspecified,,,,Steel,None or Unspecified,None or Unspecified,None or Unspecified,None or Unspecified,Double,,,,,
1122,6271309,30000,541631,149,99.0,2002,,,12/6/2011 0:00,313BSR,313,B,,SR,Small,"Hydraulic Excavator, Track - 12.0 to 14.0 Metric Tons",Kentucky,TEX,Track Excavators,,EROPS w AC,,,,,,,,,,,Standard,,,,,,None or Unspecified,,,,Steel,20 inch,None or Unspecified,None or Unspecified,None or Unspecified,Double,,,,,
