SalesID,1172217
SalePrice,13500
MachineID,1002553
datasource,121
auctioneerID,3.0
YearMade,1992
MachineHoursCurrentMeter,13169.0
UsageBand,Medium
saledate,6/16/2005 0:00
fiModelDesc,200CLL
fiBaseModel,200
fiSecondaryDesc,C
fiModelSeries,
fiModelDescriptor,LL
ProductSize,Large / Medium
fiProductClassDesc,"Hydraulic Excavator, Track - 19.0 to 21.0 Metric Tons"
state,Nevada
ProductGroup,TEX
ProductGroupDesc,Track Excavators
Drive_System,
Enclosure,EROPS
Forks,
Pad_Type,
Ride_Control,
Stick,
Transmission,
Turbocharged,
Blade_Extension,
Blade_Width,
Enclosure_Type,
Engine_Horsepower,
Hydraulics,Standard
Pushblock,
Ripper,
Scarifier,
Tip_Control,
Tire_Size,
Coupler,None or Unspecified
Coupler_System,
Grouser_Tracks,
Hydraulics_Flow,
Track_Type,Steel
Undercarriage_Pad_Width,None or Unspecified
Stick_Length,None or Unspecified
Thumb,None or Unspecified
Pattern_Changer,None or Unspecified
Grouser_Type,Double
Backhoe_Mounting,
Blade_Type,
Travel_Controls,
Differential_Type,
Steering_Controls,
