ModelID,SalesID,SalePrice,MachineID,datasource,auctioneerID,YearMade,MachineHoursCurrentMeter,UsageBand,saledate,fiModelDesc,fiBaseModel,fiSecondaryDesc,fiModelSeries,fiModelDescriptor,ProductSize,fiProductClassDesc,state,ProductGroup,ProductGroupDesc,Drive_System,Enclosure,Forks,Pad_Type,Ride_Control,Stick,Transmission,Turbocharged,Blade_Extension,Blade_Width,Enclosure_Type,Engine_Horsepower,Hydraulics,Pushblock,Ripper,Scarifier,Tip_Control,Tire_Size,Coupler,Coupler_System,Grouser_Tracks,Hydraulics_Flow,Track_Type,Undercarriage_Pad_Width,Stick_Length,Thumb,Pattern_Changer,Grouser_Type,Backhoe_Mounting,Blade_Type,Travel_Controls,Differential_Type,Steering_Controls
11399,1152222,32000,1044980,121,3.0,2005,2621.0,Medium,12/16/2010 0:00,650JLT,650,J,,LT,,"Track Type Tractor, Dozer - 85.0 to 105.0 Horsepower",Ohio,TTT,Track Type Tractors,,OROPS,,,,,Hydrostatic,,,,,,2 Valve,,None or Unspecified,,,,,,,,,,,,,,None or Unspecified,PAT,None or Unspecified,,
11399,1153108,76000,1047690,121,3.0,2005,1076.0,Medium,12/14/2006 0:00,650JLT,650,J,,LT,,"Track Type Tractor, Dozer - 85.0 to 105.0 Horsepower",Texas,TTT,Track Type Tractors,,EROPS w AC,,,,,Hydrostatic,,,,,,2 Valve,,None or Unspecified,,,,,,,,,,,,,,None or Unspecified,None or Unspecified,None or Unspecified,,
11399,1167593,49000,1047154,121,3.0,2005,1579.0,Medium,9/4/2008 0:00,650JLT,650,J,,LT,,"Track Type Tractor, Dozer - 85.0 to 105.0 Horsepower",Kentucky,TTT,Track Type Tractors,,OROPS,,,,,Hydrostatic,,,,,,2 Valve,,None or Unspecified,,,,,,,,,,,,,,None or Unspecified,PAT,None or Unspecified,,
11399,1195086,38000,1055048,121,3.0,2005,2726.0,Medium,11/12/2009 0:00,650JLT,650,J,,LT,,"Track Type Tractor, Dozer - 85.0 to 105.0 Horsepower",Maryland,TTT,Track Type Tractors,,EROPS w AC,,,,,Standard,,,,,,2 Valve,,None or Unspecified,,,,,,,,,,,,,,None or Unspecified,None or Unspecified,None or Unspecified,,
11399,1202872,44000,1012393,121,3.0,2007,1719.0,Medium,7/8/2010 0:00,650JLT,650,J,,LT,,"Track Type Tractor, Dozer - 85.0 to 105.0 Horsepower",North Carolina,TTT,Track Type Tractors,,OROPS,,,,,Hydrostatic,,,,,,2 Valve,,None or Unspecified,,,,,,,,,,,,,,None or Unspecified,None or Unspecified,None or Unspecified,,
11399,1211085,37000,1065633,121,3.0,2006,5549.0,High,3/17/2011 0:00,650JLT,650,J,,LT,,"Track Type Tractor, Dozer - 85.0 to 105.0 Horsepower",Georgia,TTT,Track Type Tractors,,OROPS,,,,,Hydrostatic,,,,,,2 Valve,,None or Unspecified,,,,,,,,,,,,,,None or Unspecified,PAT,Differential Steer,,
11399,1211086,44000,1060644,121,3.0,2007,5182.0,High,3/17/2011 0:00,650JLT,650,J,,LT,,"Track Type Tractor, Dozer - 85.0 to 105.0 Horsepower",Georgia,TTT,Track Type Tractors,,EROPS w AC,,,,,Hydrostatic,,,,,,2 Valve,,None or Unspecified,,,,,,,,,,,,,,None or Unspecified,PAT,None or Unspecified,,
11399,1211181,42000,1000622,121,3.0,2006,6114.0,High,3/17/2011 0:00,650JLT,650,J,,LT,,"Track Type Tractor, Dozer - 85.0 to 105.0 Horsepower",Georgia,TTT,Track Type Tractors,,EROPS w AC,,,,,Hydrostatic,,,,,,2 Valve,,None or Unspecified,,,,,,,,,,,,,,None or Unspecified,PAT,None or Unspecified,,
11399,1213941,36000,1038533,121,3.0,2005,,,4/21/2011 0:00,650JLT,650,J,,LT,,"Track Type Tractor, Dozer - 85.0 to 105.0 Horsepower",Washington,TTT,Track Type Tractors,,OROPS,,,,,Hydrostatic,,,,,,2 Valve,,None or Unspecified,,,,,,,,,,,,,,None or Unspecified,PAT,None or Unspecified,,
11399,1214218,33500,999221,121,3.0,2005,5471.0,Medium,4/28/2011 0:00,650JLT,650,J,,LT,,"Track Type Tractor, Dozer - 85.0 to 105.0 Horsepower",Virginia,TTT,Track Type Tractors,,OROPS,,,,,Hydrostatic,,,,,,2 Valve,,None or Unspecified,,,,,,,,,,,,,,None or Unspecified,PAT,None or Unspecified,,
11399,1214941,46000,1027397,121,3.0,2006,2825.0,Medium,6/30/2011 0:00,650JLT,650,J,,LT,,"Track Type Tractor, Dozer - 85.0 to 105.0 Horsepower",Virginia,TTT,Track Type Tractors,,OROPS,,,,,Hydrostatic,,,,,,2 Valve,,None or Unspecified,,,,,,,,,,,,,,None or Unspecified,PAT,None or Unspecified,,
11399,1218378,62000,1068870,121,3.0,2006,1177.0,Low,9/29/2011 0:00,650JLT,650,J,,LT,,"Track Type Tractor, Dozer - 85.0 to 105.0 Horsepower",Georgia,TTT,Track Type Tractors,,EROPS w AC,,,,,Hydrostatic,,,,,,2 Valve,,None or Unspecified,,,,,,,,,,,,,,None or Unspecified,PAT,None or Unspecified,,
11399,1585781,38000,1251422,132,20.0,2005,2600.0,Medium,10/29/2009 0:00,650JLT,650,J,,LT,,"Track Type Tractor, Dozer - 85.0 to 105.0 Horsepower",Arkansas,TTT,Track Type Tractors,,EROPS w AC,,,,,Standard,,,,,,2 Valve,,None or Unspecified,,,,,,,,,,,,,,None or Unspecified,PAT,None or Unspecified,,
11399,1585782,41900,1251422,132,20.0,2005,2600.0,Medium,12/9/2009 0:00,650JLT,650,J,,LT,,"Track Type Tractor, Dozer - 85.0 to 105.0 Horsepower",Arkansas,TTT,Track Type Tractors,,EROPS w AC,,,,,Standard,,,,,,2 Valve,,None or Unspecified,,,,,,,,,,,,,,None or Unspecified,PAT,None or Unspecified,,
11399,1585786,42000,1311190,132,20.0,2005,2680.0,Medium,8/26/2009 0:00,650JLT,650,J,,LT,,"Track Type Tractor, Dozer - 85.0 to 105.0 Horsepower",Arkansas,TTT,Track Type Tractors,,EROPS w AC,,,,,Standard,,,,,,2 Valve,,None or Unspecified,,,,,,,,,,,,,,None or Unspecified,PAT,None or Unspecified,,
11399,1585787,43000,1311190,132,1.0,2005,2672.0,Medium,4/28/2009 0:00,650JLT,650,J,,LT,,"Track Type Tractor, Dozer - 85.0 to 105.0 Horsepower",Mississippi,TTT,Track Type Tractors,,EROPS w AC,,,,,Standard,,,,,,2 Valve,,None or Unspecified,,,,,,,,,,,,,,None or Unspecified,PAT,None or Unspecified,,
11399,1585829,60000,1536638,132,1.0,2005,3917.0,High,9/24/2008 0:00,650JLT,650,J,,LT,,"Track Type Tractor, Dozer - 85.0 to 105.0 Horsepower",Texas,TTT,Track Type Tractors,,EROPS w AC,,,,,Hydrostatic,,,,,,2 Valve,,Multi Shank,,,,,,,,,,,,,,None or Unspecified,PAT,None or Unspecified,,
11399,1585912,46000,1254237,132,1.0,2005,3268.0,Medium,8/26/2010 0:00,650JLT,650,J,,LT,,"Track Type Tractor, Dozer - 85.0 to 105.0 Horsepower",Texas,TTT,Track Type Tractors,,EROPS w AC,,,,,Standard,,,,,,2 Valve,,None or Unspecified,,,,,,,,,,,,,,None or Unspecified,PAT,None or Unspecified,,
11399,1585925,38750,1092445,132,20.0,2005,2085.0,Low,10/27/2010 0:00,650JLT,650,J,,LT,,"Track Type Tractor, Dozer - 85.0 to 105.0 Horsepower",Arkansas,TTT,Track Type Tractors,,OROPS,,,,,Standard,,,,,,2 Valve,,None or Unspecified,,,,,,,,,,,,,,None or Unspecified,PAT,None or Unspecified,,
11399,1586157,43000,1047690,132,3.0,2005,,,9/24/2009 0:00,650JLT,650,J,,LT,,"Track Type Tractor, Dozer - 85.0 to 105.0 Horsepower",California,TTT,Track Type Tractors,,EROPS w AC,,,,,Hydrostatic,,,,,,2 Valve,,None or Unspecified,,,,,,,,,,,,,,None or Unspecified,None or Unspecified,None or Unspecified,,
11399,1586158,38000,1047690,132,3.0,2005,,,11/12/2009 0:00,650JLT,650,J,,LT,,"Track Type Tractor, Dozer - 85.0 to 105.0 Horsepower",California,TTT,Track Type Tractors,,EROPS w AC,,,,,Hydrostatic,,,,,,2 Valve,,None or Unspecified,,,,,,,,,,,,,,None or Unspecified,None or Unspecified,None or Unspecified,,
11399,1586163,38500,1396679,132,7.0,2005,,,6/16/2009 0:00,650JLT,650,J,,LT,,"Track Type Tractor, Dozer - 85.0 to 105.0 Horsepower",Alabama,TTT,Track Type Tractors,,EROPS w AC,,,,,Standard,,,,,,2 Valve,,None or Unspecified,,,,,,,,,,,,,,None or Unspecified,PAT,None or Unspecified,,
11399,1586285,67500,1098997,132,15.0,2005,,,6/16/2011 0:00,650JLT,650,J,,LT,,"Track Type Tractor, Dozer - 85.0 to 105.0 Horsepower",Pennsylvania,TTT,Track Type Tractors,,EROPS w AC,,,,,Standard,,,,,,2 Valve,,None or Unspecified,,,,,,,,,,,,,,None or Unspecified,PAT,None or Unspecified,,
11399,1586459,34000,1161138,132,1.0,2005,2572.0,Medium,3/4/2009 0:00,650JLT,650,J,,LT,,"Track Type Tractor, Dozer - 85.0 to 105.0 Horsepower",Texas,TTT,Track Type Tractors,,OROPS,,,,,Hydrostatic,,,,,,2 Valve,,None or Unspecified,,,,,,,,,,,,,,None or Unspecified,PAT,None or Unspecified,,
11399,1586462,40000,1226434,132,1.0,2005,2053.0,Medium,9/18/2008 0:00,650JLT,650,J,,LT,,"Track Type Tractor, Dozer - 85.0 to 105.0 Horsepower",Georgia,TTT,Track Type Tractors,,OROPS,,,,,Standard,,,,,,2 Valve,,None or Unspecified,,,,,,,,,,,,,,None or Unspecified,PAT,None or Unspecified,,
11399,1586546,37000,1177952,132,1.0,2005,2148.0,Medium,9/10/2009 0:00,650JLT,650,J,,LT,,"Track Type Tractor, Dozer - 85.0 to 105.0 Horsepower",Georgia,TTT,Track Type Tractors,,OROPS,,,,,Standard,,,,,,2 Valve,,None or Unspecified,,,,,,,,,,,,,,None or Unspecified,PAT,None or Unspecified,,
11399,1586606,35000,1314308,132,1.0,2005,2124.0,Low,6/9/2011 0:00,650JLT,650,J,,LT,,"Track Type Tractor, Dozer - 85.0 to 105.0 Horsepower",Georgia,TTT,Track Type Tractors,,OROPS,,,,,Standard,,,,,,2 Valve,,None or Unspecified,,,,,,,,,,,,,,None or Unspecified,PAT,None or Unspecified,,
11399,1586614,34000,1161182,132,1.0,2005,2025.0,Medium,3/26/2009 0:00,650JLT,650,J,,LT,,"Track Type Tractor, Dozer - 85.0 to 105.0 Horsepower",Georgia,TTT,Track Type Tractors,,OROPS,,,,,Standard,,,,,,2 Valve,,None or Unspecified,,,,,,,,,,,,,,None or Unspecified,PAT,None or Unspecified,,
11399,1586648,30000,1235954,132,1.0,2005,2831.0,Medium,9/28/2010 0:00,650JLT,650,J,,LT,,"Track Type Tractor, Dozer - 85.0 to 105.0 Horsepower",California,TTT,Track Type Tractors,,OROPS,,,,,Standard,,,,,,2 Valve,,Multi Shank,,,,,,,,,,,,,,None or Unspecified,PAT,None or Unspecified,,
11399,1586657,45000,1328684,132,1.0,2005,1292.0,Low,9/18/2008 0:00,650JLT,650,J,,LT,,"Track Type Tractor, Dozer - 85.0 to 105.0 Horsepower",Georgia,TTT,Track Type Tractors,,OROPS,,,,,Standard,,,,,,2 Valve,,None or Unspecified,,,,,,,,,,,,,,None or Unspecified,PAT,None or Unspecified,,
11399,1586658,88000,1328403,132,8.0,2005,,,5/25/2005 0:00,650JLT,650,J,,LT,,"Track Type Tractor, Dozer - 85.0 to 105.0 Horsepower",Mississippi,TTT,Track Type Tractors,,OROPS,,,,,Standard,,,,,,2 Valve,,None or Unspecified,,,,,,,,,,,,,,None or Unspecified,None or Unspecified,None or Unspecified,,
11399,1586682,35000,1391074,132,1.0,2005,3386.0,Medium,6/23/2010 0:00,650JLT,650,J,,LT,,"Track Type Tractor, Dozer - 85.0 to 105.0 Horsepower",Ohio,TTT,Track Type Tractors,,OROPS,,,,,Standard,,,,,,2 Valve,,None or Unspecified,,,,,,,,,,,,,,None or Unspecified,PAT,None or Unspecified,,
11399,1586729,34000,1269228,132,1.0,2005,4952.0,High,12/9/2009 0:00,650JLT,650,J,,LT,,"Track Type Tractor, Dozer - 85.0 to 105.0 Horsepower",Ohio,TTT,Track Type Tractors,,OROPS,,,,,Standard,,,,,,2 Valve,,None or Unspecified,,,,,,,,,,,,,,None or Unspecified,PAT,None or Unspecified,,
11399,1586853,39000,1349290,132,1.0,2005,2121.0,Medium,9/18/2008 0:00,650JLT,650,J,,LT,,"Track Type Tractor, Dozer - 85.0 to 105.0 Horsepower",Georgia,TTT,Track Type Tractors,,OROPS,,,,,Standard,,,,,,2 Valve,,None or Unspecified,,,,,,,,,,,,,,None or Unspecified,PAT,None or Unspecified,,
11399,1586965,32500,1216609,132,1.0,2005,2660.0,Medium,5/24/2011 0:00,650JLT,650,J,,LT,,"Track Type Tractor, Dozer - 85.0 to 105.0 Horsepower",California,TTT,Track Type Tractors,,OROPS,,,,,Standard,,,,,,2 Valve,,Multi Shank,,,,,,,,,,,,,,None or Unspecified,PAT,None or Unspecified,,
11399,1586966,30000,1336572,132,1.0,2005,2812.0,Medium,6/29/2011 0:00,650JLT,650,J,,LT,,"Track Type Tractor, Dozer - 85.0 to 105.0 Horsepower",Mississippi,TTT,Track Type Tractors,,OROPS,,,,,Standard,,,,,,2 Valve,,None or Unspecified,,,,,,,,,,,,,,None or Unspecified,PAT,None or Unspecified,,
11399,1586994,34000,1164240,132,15.0,2005,,,6/30/2010 0:00,650JLT,650,J,,LT,,"Track Type Tractor, Dozer - 85.0 to 105.0 Horsepower",Nebraska,TTT,Track Type Tractors,,OROPS,,,,,Standard,,,,,,2 Valve,,None or Unspecified,,,,,,,,,,,,,,None or Unspecified,PAT,None or Unspecified,,
11399,1587049,41000,1352706,132,1.0,2005,2683.0,Medium,12/3/2008 0:00,650JLT,650,J,,LT,,"Track Type Tractor, Dozer - 85.0 to 105.0 Horsepower",Texas,TTT,Track Type Tractors,,EROPS w AC,,,,,Standard,,,,,,2 Valve,,None or Unspecified,,,,,,,,,,,,,,None or Unspecified,PAT,None or Unspecified,,
11399,1587251,36000,1128433,132,1.0,2005,1833.0,Medium,12/8/2008 0:00,650JLT,650,J,,LT,,"Track Type Tractor, Dozer - 85.0 to 105.0 Horsepower",Illinois,TTT,Track Type Tractors,,OROPS,,,,,Standard,,,,,,2 Valve,,None or Unspecified,,,,,,,,,,,,,,None or Unspecified,PAT,None or Unspecified,,
11399,1587267,67500,1309166,132,1.0,2005,3624.0,High,6/26/2008 0:00,650JLT,650,J,,LT,,"Track Type Tractor, Dozer - 85.0 to 105.0 Horsepower",Georgia,TTT,Track Type Tractors,,EROPS w AC,,,,,Standard,,,,,,2 Valve,,None or Unspecified,,,,,,,,,,,,,,None or Unspecified,PAT,None or Unspecified,,
11399,1587596,66000,1305781,132,2.0,2006,,,5/3/2008 0:00,650JLT,650,J,,LT,,"Track Type Tractor, Dozer - 85.0 to 105.0 Horsepower",New Hampshire,TTT,Track Type Tractors,,EROPS w AC,,,,,Standard,,,,,,2 Valve,,None or Unspecified,,,,,,,,,,,,,,None or Unspecified,PAT,None or Unspecified,,
11399,1587696,67500,1198475,132,1.0,2006,3549.0,High,6/26/2008 0:00,650JLT,650,J,,LT,,"Track Type Tractor, Dozer - 85.0 to 105.0 Horsepower",Georgia,TTT,Track Type Tractors,,EROPS w AC,,,,,Standard,,,,,,2 Valve,,None or Unspecified,,,,,,,,,,,,,,None or Unspecified,PAT,None or Unspecified,,
11399,1587772,47500,1391634,132,1.0,2005,966.0,Low,6/17/2009 0:00,650JLT,650,J,,LT,,"Track Type Tractor, Dozer - 85.0 to 105.0 Horsepower",Washington,TTT,Track Type Tractors,,OROPS,,,,,Standard,,,,,,2 Valve,,Multi Shank,,,,,,,,,,,,,,None or Unspecified,PAT,None or Unspecified,,
11399,1587863,65000,1473137,132,8.0,2006,335.0,Low,9/18/2008 0:00,650JLT,650,J,,LT,,"Track Type Tractor, Dozer - 85.0 to 105.0 Horsepower",Mississippi,TTT,Track Type Tractors,,EROPS w AC,,,,,Standard,,,,,,2 Valve,,None or Unspecified,,,,,,,,,,,,,,None or Unspecified,PAT,None or Unspecified,,
11399,1588039,86000,1552772,132,15.0,2006,,,6/26/2008 0:00,650JLT,650,J,,LT,,"Track Type Tractor, Dozer - 85.0 to 105.0 Horsepower",Pennsylvania,TTT,Track Type Tractors,,OROPS,,,,,Standard,,,,,,2 Valve,,None or Unspecified,,,,,,,,,,,,,,None or Unspecified,PAT,Differential Steer,,
11399,1588053,42500,1215661,132,1.0,2006,1386.0,Low,5/19/2011 0:00,650JLT,650,J,,LT,,"Track Type Tractor, Dozer - 85.0 to 105.0 Horsepower",Montana,TTT,Track Type Tractors,,OROPS,,,,,Standard,,,,,,2 Valve,,Single Shank,,,,,,,,,,,,,,None or Unspecified,PAT,None or Unspecified,,
11399,1588081,45000,1118285,132,1.0,2006,1851.0,Medium,9/10/2009 0:00,650JLT,650,J,,LT,,"Track Type Tractor, Dozer - 85.0 to 105.0 Horsepower",Georgia,TTT,Track Type Tractors,,EROPS w AC,,,,,Standard,,,,,,2 Valve,,None or Unspecified,,,,,,,,,,,,,,None or Unspecified,PAT,None or Unspecified,,
11399,1588108,42500,1481811,132,1.0,2006,2550.0,Medium,7/22/2011 0:00,650JLT,650,J,,LT,,"Track Type Tractor, Dozer - 85.0 to 105.0 Horsepower",California,TTT,Track Type Tractors,,OROPS,,,,,Standard,,,,,,2 Valve,,Multi Shank,,,,,,,,,,,,,,None or Unspecified,PAT,Differential Steer,,
11399,1588140,46000,1258553,132,1.0,2006,1262.0,Medium,9/18/2008 0:00,650JLT,650,J,,LT,,"Track Type Tractor, Dozer - 85.0 to 105.0 Horsepower",Georgia,TTT,Track Type Tractors,,OROPS,,,,,Standard,,,,,,2 Valve,,None or Unspecified,,,,,,,,,,,,,,None or Unspecified,PAT,None or Unspecified,,
11399,1588406,34000,1081352,132,5.0,2006,2226.0,Medium,12/3/2009 0:00,650JLT,650,J,,LT,,"Track Type Tractor, Dozer - 85.0 to 105.0 Horsepower",North Carolina,TTT,Track Type Tractors,,OROPS,,,,,Standard,,,,,,2 Valve,,None or Unspecified,,,,,,,,,,,,,,None or Unspecified,PAT,None or Unspecified,,
11399,1588762,61000,1244041,132,8.0,2007,1021.0,Low,1/28/2010 0:00,650JLT,650,J,,LT,,"Track Type Tractor, Dozer - 85.0 to 105.0 Horsepower",Alabama,TTT,Track Type Tractors,,EROPS w AC,,,,,Standard,,,,,,2 Valve,,None or Unspecified,,,,,,,,,,,,,,None or Unspecified,PAT,None or Unspecified,,
11399,1589275,42500,1462024,132,1.0,2007,1427.0,Low,2/17/2011 0:00,650JLT,650,J,,LT,,"Track Type Tractor, Dozer - 85.0 to 105.0 Horsepower",Florida,TTT,Track Type Tractors,,EROPS,,,,,Standard,,,,,,2 Valve,,None or Unspecified,,,,,,,,,,,,,,None or Unspecified,PAT,None or Unspecified,,
11399,1589326,46000,1355062,132,1.0,2007,2340.0,Medium,6/23/2011 0:00,650JLT,650,J,,LT,,"Track Type Tractor, Dozer - 85.0 to 105.0 Horsepower",Ohio,TTT,Track Type Tractors,,OROPS,,,,,Standard,,,,,,2 Valve,,None or Unspecified,,,,,,,,,,,,,,None or Unspecified,PAT,None or Unspecified,,
11399,1589656,44000,1324170,132,1.0,2007,,,11/3/2010 0:00,650JLT,650,J,,LT,,"Track Type Tractor, Dozer - 85.0 to 105.0 Horsepower",Texas,TTT,Track Type Tractors,,OROPS,,,,,Standard,,,,,,2 Valve,,None or Unspecified,,,,,,,,,,,,,,None or Unspecified,PAT,None or Unspecified,,
11399,1590552,63000,1125209,132,1.0,2008,1024.0,Medium,2/25/2010 0:00,650JLT,650,J,,LT,,"Track Type Tractor, Dozer - 85.0 to 105.0 Horsepower",Texas,TTT,Track Type Tractors,,OROPS,,,,,Standard,,,,,,2 Valve,,None or Unspecified,,,,,,,,,,,,,,None or Unspecified,PAT,None or Unspecified,,
11399,2328746,47000,1311190,136,8.0,2005,2676.0,Medium,5/28/2009 0:00,650JLT,650,J,,LT,,"Track Type Tractor, Dozer - 85.0 to 105.0 Horsepower",Mississippi,TTT,Track Type Tractors,,EROPS w AC,,,,,Standard,,,,,,2 Valve,,None or Unspecified,,,,,,,,,,,,,,None or Unspecified,PAT,None or Unspecified,,
11399,2328747,41000,1311190,136,8.0,2005,266900.0,High,4/2/2009 0:00,650JLT,650,J,,LT,,"Track Type Tractor, Dozer - 85.0 to 105.0 Horsepower",Mississippi,TTT,Track Type Tractors,,EROPS w AC,,,,,Standard,,,,,,2 Valve,,None or Unspecified,,,,,,,,,,,,,,None or Unspecified,PAT,None or Unspecified,,
11399,2328748,45000,1311190,136,8.0,2005,2683.0,Medium,9/17/2009 0:00,650JLT,650,J,,LT,,"Track Type Tractor, Dozer - 85.0 to 105.0 Horsepower",Mississippi,TTT,Track Type Tractors,,EROPS w AC,,,,,Standard,,,,,,2 Valve,,None or Unspecified,,,,,,,,,,,,,,None or Unspecified,PAT,None or Unspecified,,
11399,2329062,53550,1727957,136,,2005,0.0,,12/6/2008 0:00,650JLT,650,J,,LT,,"Track Type Tractor, Dozer - 85.0 to 105.0 Horsepower",Tennessee,TTT,Track Type Tractors,,EROPS w AC,,,,,Standard,,,,,,2 Valve,,None or Unspecified,,,,,,,,,,,,,,None or Unspecified,PAT,None or Unspecified,,
11399,2329143,71000,1473137,136,8.0,2006,355.0,Low,11/18/2008 0:00,650JLT,650,J,,LT,,"Track Type Tractor, Dozer - 85.0 to 105.0 Horsepower",Mississippi,TTT,Track Type Tractors,,EROPS w AC,,,,,Standard,,,,,,2 Valve,,None or Unspecified,,,,,,,,,,,,,,None or Unspecified,PAT,None or Unspecified,,
11399,2329145,65000,1757049,136,18.0,2006,354.0,Low,9/18/2008 0:00,650JLT,650,J,,LT,,"Track Type Tractor, Dozer - 85.0 to 105.0 Horsepower",Mississippi,TTT,Track Type Tractors,,OROPS,,,,,Standard,,,,,,2 Valve,,None or Unspecified,,,,,,,,,,,,,,None or Unspecified,PAT,None or Unspecified,,
11399,2345469,38000,1747542,136,,2005,250000.0,High,4/24/2009 0:00,650JLT,650,J,,LT,,"Track Type Tractor, Dozer - 85.0 to 105.0 Horsepower",Wisconsin,TTT,Track Type Tractors,,OROPS,,,,,Standard,,,,,,2 Valve,,None or Unspecified,,,,,,,,,,,,,,None or Unspecified,PAT,None or Unspecified,,
11399,2355905,43000,1682166,136,,2005,2680.0,Medium,6/17/2009 0:00,650JLT,650,J,,LT,,"Track Type Tractor, Dozer - 85.0 to 105.0 Horsepower",Arkansas,TTT,Track Type Tractors,,EROPS w AC,,,,,Standard,,,,,,2 Valve,,None or Unspecified,,,,,,,,,,,,,,None or Unspecified,PAT,None or Unspecified,,
11399,2355907,43000,1682166,136,1.0,2005,267200.0,High,4/28/2009 0:00,650JLT,650,J,,LT,,"Track Type Tractor, Dozer - 85.0 to 105.0 Horsepower",Mississippi,TTT,Track Type Tractors,,EROPS w AC,,,,,Standard,,,,,,2 Valve,,None or Unspecified,,,,,,,,,,,,,,None or Unspecified,PAT,None or Unspecified,,
11399,2355926,60000,1774260,136,1.0,2005,3917.0,High,9/24/2008 0:00,650JLT,650,J,,LT,,"Track Type Tractor, Dozer - 85.0 to 105.0 Horsepower",Texas,TTT,Track Type Tractors,,EROPS w AC,,,,,Standard,,,,,,2 Valve,,Multi Shank,,,,,,,,,,,,,,None or Unspecified,PAT,None or Unspecified,,
11399,2355942,40000,1652937,136,1.0,2005,0.0,,9/23/2008 0:00,650JLT,650,J,,LT,,"Track Type Tractor, Dozer - 85.0 to 105.0 Horsepower",Ohio,TTT,Track Type Tractors,,OROPS,,,,,Standard,,,,,,2 Valve,,None or Unspecified,,,,,,,,,,,,,,None or Unspecified,None or Unspecified,None or Unspecified,,
11399,2355970,40000,1656884,136,1.0,2005,0.0,,9/18/2008 0:00,650JLT,650,J,,LT,,"Track Type Tractor, Dozer - 85.0 to 105.0 Horsepower",Georgia,TTT,Track Type Tractors,,OROPS,,,,,Standard,,,,,,2 Valve,,None or Unspecified,,,,,,,,,,,,,,None or Unspecified,PAT,None or Unspecified,,
11399,2355995,34000,1734828,136,1.0,2005,0.0,,3/26/2009 0:00,650JLT,650,J,,LT,,"Track Type Tractor, Dozer - 85.0 to 105.0 Horsepower",Georgia,TTT,Track Type Tractors,,OROPS,,,,,Standard,,,,,,2 Valve,,None or Unspecified,,,,,,,,,,,,,,None or Unspecified,PAT,None or Unspecified,,
11399,2356000,45000,1771821,136,1.0,2005,0.0,,9/18/2008 0:00,650JLT,650,J,,LT,,"Track Type Tractor, Dozer - 85.0 to 105.0 Horsepower",Georgia,TTT,Track Type Tractors,,OROPS,,,,,Standard,,,,,,2 Valve,,None or Unspecified,,,,,,,,,,,,,,None or Unspecified,PAT,None or Unspecified,,
11399,2356001,35000,1694284,136,1.0,2005,0.0,,6/23/2010 0:00,650JLT,650,J,,LT,,"Track Type Tractor, Dozer - 85.0 to 105.0 Horsepower",Ohio,TTT,Track Type Tractors,,OROPS,,,,,Standard,,,,,,2 Valve,,None or Unspecified,,,,,,,,,,,,,,None or Unspecified,PAT,None or Unspecified,,
11399,2356005,34000,1686319,136,1.0,2005,0.0,,12/9/2009 0:00,650JLT,650,J,,LT,,"Track Type Tractor, Dozer - 85.0 to 105.0 Horsepower",Ohio,TTT,Track Type Tractors,,OROPS,,,,,Standard,,,,,,2 Valve,,None or Unspecified,,,,,,,,,,,,,,None or Unspecified,PAT,None or Unspecified,,
11399,2356007,41000,1776653,136,1.0,2005,0.0,,9/18/2008 0:00,650JLT,650,J,,LT,,"Track Type Tractor, Dozer - 85.0 to 105.0 Horsepower",Georgia,TTT,Track Type Tractors,,OROPS,,,,,Standard,,,,,,2 Valve,,None or Unspecified,,,,,,,,,,,,,,None or Unspecified,PAT,None or Unspecified,,
11399,2356009,30000,1047154,136,1.0,2005,2538.0,Medium,6/16/2010 0:00,650JLT,650,J,,LT,,"Track Type Tractor, Dozer - 85.0 to 105.0 Horsepower",Kentucky,TTT,Track Type Tractors,,OROPS,,,,,Hydrostatic,,,,,,2 Valve,,None or Unspecified,,,,,,,,,,,,,,None or Unspecified,PAT,None or Unspecified,,
11399,2356015,39000,1675310,136,1.0,2005,0.0,,9/18/2008 0:00,650JLT,650,J,,LT,,"Track Type Tractor, Dozer - 85.0 to 105.0 Horsepower",Georgia,TTT,Track Type Tractors,,OROPS,,,,,Standard,,,,,,2 Valve,,None or Unspecified,,,,,,,,,,,,,,None or Unspecified,PAT,None or Unspecified,,
11399,2356031,41000,1750613,136,1.0,2005,0.0,,12/3/2008 0:00,650JLT,650,J,,LT,,"Track Type Tractor, Dozer - 85.0 to 105.0 Horsepower",Texas,TTT,Track Type Tractors,,EROPS w AC,,,,,Standard,,,,,,2 Valve,,None or Unspecified,,,,,,,,,,,,,,None or Unspecified,PAT,None or Unspecified,,
11399,2356033,50000,1760071,136,1.0,2005,1906.0,Medium,10/22/2008 0:00,650JLT,650,J,,LT,,"Track Type Tractor, Dozer - 85.0 to 105.0 Horsepower",New Mexico,TTT,Track Type Tractors,,EROPS w AC,,,,,Standard,,,,,,2 Valve,,Multi Shank,,,,,,,,,,,,,,None or Unspecified,PAT,None or Unspecified,,
11399,2356046,36000,1778186,136,1.0,2005,1833.0,Medium,12/8/2008 0:00,650JLT,650,J,,LT,,"Track Type Tractor, Dozer - 85.0 to 105.0 Horsepower",Illinois,TTT,Track Type Tractors,,OROPS,,,,,Standard,,,,,,2 Valve,,None or Unspecified,,,,,,,,,,,,,,None or Unspecified,PAT,None or Unspecified,,
11399,2356049,67500,1652512,136,1.0,2005,0.0,,6/26/2008 0:00,650JLT,650,J,,LT,,"Track Type Tractor, Dozer - 85.0 to 105.0 Horsepower",Georgia,TTT,Track Type Tractors,,EROPS w AC,,,,,Standard,,,,,,2 Valve,,None or Unspecified,,,,,,,,,,,,,,None or Unspecified,PAT,None or Unspecified,,
11399,2356073,80000,1689179,136,1.0,2006,1103.0,High,12/13/2007 0:00,650JLT,650,J,,LT,,"Track Type Tractor, Dozer - 85.0 to 105.0 Horsepower",Colorado,TTT,Track Type Tractors,,EROPS,,,,,Standard,,,,,,2 Valve,,Single Shank,,,,,,,,,,,,,,None or Unspecified,PAT,None or Unspecified,,
11399,2356074,66000,1705704,136,,2006,0.0,,5/3/2008 0:00,650JLT,650,J,,LT,,"Track Type Tractor, Dozer - 85.0 to 105.0 Horsepower",New Hampshire,TTT,Track Type Tractors,,EROPS w AC,,,,,Standard,,,,,,2 Valve,,None or Unspecified,,,,,,,,,,,,,,None or Unspecified,PAT,None or Unspecified,,
11399,2356082,67500,1677523,136,1.0,2006,0.0,,6/26/2008 0:00,650JLT,650,J,,LT,,"Track Type Tractor, Dozer - 85.0 to 105.0 Horsepower",Georgia,TTT,Track Type Tractors,,EROPS w AC,,,,,Standard,,,,,,2 Valve,,None or Unspecified,,,,,,,,,,,,,,None or Unspecified,PAT,None or Unspecified,,
11399,2356088,47500,1710855,136,1.0,2005,966.0,Low,6/17/2009 0:00,650JLT,650,J,,LT,,"Track Type Tractor, Dozer - 85.0 to 105.0 Horsepower",Washington,TTT,Track Type Tractors,,OROPS,,,,,Standard,,,,,,2 Valve,,Multi Shank,,,,,,,,,,,,,,None or Unspecified,PAT,None or Unspecified,,
11399,2356108,86000,1707141,136,,2006,0.0,,6/26/2008 0:00,650JLT,650,J,,LT,,"Track Type Tractor, Dozer - 85.0 to 105.0 Horsepower",Pennsylvania,TTT,Track Type Tractors,,OROPS,,,,,Powershift,,,,,,2 Valve,,None or Unspecified,,,,,,,,,,,,,,None or Unspecified,PAT,Differential Steer,,
11399,2356114,45000,1712795,136,,2006,0.0,,9/10/2009 0:00,650JLT,650,J,,LT,,"Track Type Tractor, Dozer - 85.0 to 105.0 Horsepower",Georgia,TTT,Track Type Tractors,,EROPS w AC,,,,,Standard,,,,,,2 Valve,,None or Unspecified,,,,,,,,,,,,,,None or Unspecified,PAT,None or Unspecified,,
11399,2356119,46000,1720188,136,1.0,2006,0.0,,9/18/2008 0:00,650JLT,650,J,,LT,,"Track Type Tractor, Dozer - 85.0 to 105.0 Horsepower",Georgia,TTT,Track Type Tractors,,OROPS,,,,,Standard,,,,,,2 Valve,,None or Unspecified,,,,,,,,,,,,,,None or Unspecified,PAT,None or Unspecified,,
11399,2356144,34000,1696240,136,5.0,2006,0.0,,12/3/2009 0:00,650JLT,650,J,,LT,,"Track Type Tractor, Dozer - 85.0 to 105.0 Horsepower",North Carolina,TTT,Track Type Tractors,,OROPS,,,,,Standard,,,,,,2 Valve,,None or Unspecified,,,,,,,,,,,,,,None or Unspecified,PAT,None or Unspecified,,
11399,2356178,48000,1670516,136,,2007,1128.0,Medium,11/17/2009 0:00,650JLT,650,J,,LT,,"Track Type Tractor, Dozer - 85.0 to 105.0 Horsepower",Texas,TTT,Track Type Tractors,,OROPS,,,,,Standard,,,,,,2 Valve,,Multi Shank,,,,,,,,,,,,,,None or Unspecified,PAT,None or Unspecified,,
11399,2356180,61000,1737363,136,8.0,2007,1021.0,Low,1/28/2010 0:00,650JLT,650,J,,LT,,"Track Type Tractor, Dozer - 85.0 to 105.0 Horsepower",Alabama,TTT,Track Type Tractors,,OROPS,,,,,Standard,,,,,,2 Valve,,None or Unspecified,,,,,,,,,,,,,,None or Unspecified,PAT,None or Unspecified,,
11399,2358332,41900,1655409,136,20.0,2005,2600.0,Medium,12/9/2009 0:00,650JLT,650,J,,LT,,"Track Type Tractor, Dozer - 85.0 to 105.0 Horsepower",Arkansas,TTT,Track Type Tractors,,EROPS w AC,,,,,Standard,,,,,,2 Valve,,None or Unspecified,,,,,,,,,,,,,,None or Unspecified,PAT,None or Unspecified,,
11399,2640236,32000,1931286,149,2.0,2005,0.0,,4/12/2011 0:00,650JLT,650,J,,LT,,"Track Type Tractor, Dozer - 85.0 to 105.0 Horsepower",Texas,TTT,Track Type Tractors,,OROPS,,,,,Standard,,,,,,2 Valve,,None or Unspecified,,,,,,,,,,,,,,None or Unspecified,None or Unspecified,None or Unspecified,,
11399,2650769,67500,1839725,149,99.0,2005,1040.0,Low,6/16/2011 0:00,650JLT,650,J,,LT,,"Track Type Tractor, Dozer - 85.0 to 105.0 Horsepower",Pennsylvania,TTT,Track Type Tractors,,OROPS,,,,,Standard,,,,,,2 Valve,,None or Unspecified,,,,,,,,,,,,,,None or Unspecified,PAT,None or Unspecified,,
11399,2650799,35000,1920677,149,1.0,2005,2124.0,Low,6/9/2011 0:00,650JLT,650,J,,LT,,"Track Type Tractor, Dozer - 85.0 to 105.0 Horsepower",Georgia,TTT,Track Type Tractors,,OROPS,,,,,Standard,,,,,,2 Valve,,None or Unspecified,,,,,,,,,,,,,,None or Unspecified,PAT,None or Unspecified,,
11399,2650813,30000,1863482,149,1.0,2005,2831.0,Medium,9/28/2010 0:00,650JLT,650,J,,LT,,"Track Type Tractor, Dozer - 85.0 to 105.0 Horsepower",California,TTT,Track Type Tractors,,OROPS,,,,,Standard,,,,,,2 Valve,,Multi Shank,,,,,,,,,,,,,,None or Unspecified,PAT,None or Unspecified,,
11399,2650845,32500,1854699,149,1.0,2005,2660.0,Medium,5/24/2011 0:00,650JLT,650,J,,LT,,"Track Type Tractor, Dozer - 85.0 to 105.0 Horsepower",California,TTT,Track Type Tractors,,OROPS,,,,,Standard,,,,,,2 Valve,,None or Unspecified,,,,,,,,,,,,,,None or Unspecified,None or Unspecified,None or Unspecified,,
11399,2650857,34000,1805425,149,15.0,2005,0.0,,6/30/2010 0:00,650JLT,650,J,,LT,,"Track Type Tractor, Dozer - 85.0 to 105.0 Horsepower",Nebraska,TTT,Track Type Tractors,,OROPS,,,,,Standard,,,,,,2 Valve,,None or Unspecified,,,,,,,,,,,,,,None or Unspecified,None or Unspecified,None or Unspecified,,
11399,2650990,42500,1844933,149,1.0,2006,0.0,,5/19/2011 0:00,650JLT,650,J,,LT,,"Track Type Tractor, Dozer - 85.0 to 105.0 Horsepower",Montana,TTT,Track Type Tractors,,OROPS,,,,,Standard,,,,,,2 Valve,,Single Shank,,,,,,,,,,,,,,None or Unspecified,PAT,None or Unspecified,,
11399,2651016,41000,1911026,149,2.0,2006,0.0,,4/12/2011 0:00,650JLT,650,J,,LT,,"Track Type Tractor, Dozer - 85.0 to 105.0 Horsepower",Texas,TTT,Track Type Tractors,,OROPS,,,,,Standard,,,,,,2 Valve,,None or Unspecified,,,,,,,,,,,,,,None or Unspecified,None or Unspecified,None or Unspecified,,
11399,2651111,43000,1896379,149,99.0,2006,96.0,Low,8/13/2010 0:00,650JLT,650,J,,LT,,"Track Type Tractor, Dozer - 85.0 to 105.0 Horsepower",California,TTT,Track Type Tractors,,OROPS,,,,,Standard,,,,,,2 Valve,,None or Unspecified,,,,,,,,,,,,,,None or Unspecified,None or Unspecified,None or Unspecified,,
11399,2651229,42500,1831562,149,1.0,2007,0.0,,2/15/2011 0:00,650JLT,650,J,,LT,,"Track Type Tractor, Dozer - 85.0 to 105.0 Horsepower",Florida,TTT,Track Type Tractors,,EROPS,,,,,Standard,,,,,,2 Valve,,None or Unspecified,,,,,,,,,,,,,,None or Unspecified,PAT,None or Unspecified,,
11399,2651288,44000,1823793,149,1.0,2007,0.0,,11/3/2010 0:00,650JLT,650,J,,LT,,"Track Type Tractor, Dozer - 85.0 to 105.0 Horsepower",Texas,TTT,Track Type Tractors,,OROPS,,,,,Standard,,,,,,2 Valve,,None or Unspecified,,,,,,,,,,,,,,None or Unspecified,PAT,None or Unspecified,,
11399,4324143,41000,2290387,172,1.0,2005,4576.0,Medium,12/18/2011 0:00,650JLT,650,J,,LT,,"Track Type Tractor, Dozer - 85.0 to 105.0 Horsepower",Maryland,TTT,Track Type Tractors,,EROPS w AC,,,,,Standard,,,,,,2 Valve,,None or Unspecified,,,,,,,,,,,,,,None or Unspecified,PAT,None or Unspecified,,
11399,4324165,30000,2288977,172,1.0,2005,2812.0,Medium,6/28/2011 0:00,650JLT,650,J,,LT,,"Track Type Tractor, Dozer - 85.0 to 105.0 Horsepower",Mississippi,TTT,Track Type Tractors,,EROPS w AC,,,,,Standard,,,,,,2 Valve,,Multi Shank,,,,,,,,,,,,,,None or Unspecified,PAT,Differential Steer,,
11399,4324168,37000,2288977,172,1.0,2005,3047.0,Medium,9/22/2011 0:00,650JLT,650,J,,LT,,"Track Type Tractor, Dozer - 85.0 to 105.0 Horsepower",California,TTT,Track Type Tractors,,EROPS w AC,,,,,Standard,,,,,,2 Valve,,Multi Shank,,,,,,,,,,,,,,None or Unspecified,PAT,Differential Steer,,
11399,4324179,32500,2288977,172,1.0,2005,2895.0,Medium,10/6/2011 0:00,650JLT,650,J,,LT,,"Track Type Tractor, Dozer - 85.0 to 105.0 Horsepower",California,TTT,Track Type Tractors,,EROPS w AC,,,,,Standard,,,,,,2 Valve,,Multi Shank,,,,,,,,,,,,,,None or Unspecified,PAT,Differential Steer,,
11399,4324216,45000,2296171,172,1.0,2006,798.0,Low,12/15/2011 0:00,650JLT,650,J,,LT,,"Track Type Tractor, Dozer - 85.0 to 105.0 Horsepower",California,TTT,Track Type Tractors,,EROPS w AC,,,,,Standard,,,,,,2 Valve,,Multi Shank,,,,,,,,,,,,,,None or Unspecified,PAT,Differential Steer,,
11399,4324224,42500,2296171,172,1.0,2006,2550.0,Medium,7/21/2011 0:00,650JLT,650,J,,LT,,"Track Type Tractor, Dozer - 85.0 to 105.0 Horsepower",California,TTT,Track Type Tractors,,EROPS w AC,,,,,Standard,,,,,,2 Valve,,Multi Shank,,,,,,,,,,,,,,None or Unspecified,PAT,Differential Steer,,
11399,4324268,46000,2306089,172,1.0,2007,2340.0,Medium,6/22/2011 0:00,650JLT,650,J,,LT,,"Track Type Tractor, Dozer - 85.0 to 105.0 Horsepower",Ohio,TTT,Track Type Tractors,,EROPS w AC,,,,,Standard,,,,,,2 Valve,,None or Unspecified,,,,,,,,,,,,,,None or Unspecified,PAT,None or Unspecified,,
11399,4324285,47000,2310986,172,1.0,2008,1608.0,Medium,6/30/2011 0:00,650JLT,650,J,,LT,,"Track Type Tractor, Dozer - 85.0 to 105.0 Horsepower",North Carolina,TTT,Track Type Tractors,,EROPS w AC,,,,,Standard,,,,,,2 Valve,,None or Unspecified,,,,,,,,,,,,,,None or Unspecified,PAT,None or Unspecified,,
11399,4326008,47500,2308865,172,1.0,2005,966.0,Low,6/17/2009 0:00,650JLT,650,J,,LT,,"Track Type Tractor, Dozer - 85.0 to 105.0 Horsepower",Washington,TTT,Track Type Tractors,,OROPS,,,,,Standard,,,,,,2 Valve,,Multi Shank,,,,,,,,,,,,,,None or Unspecified,PAT,None or Unspecified,,
11399,6282345,46000,1830201,149,8.0,2005,,,11/16/2011 0:00,650JLT,650,J,,LT,,"Track Type Tractor, Dozer - 85.0 to 105.0 Horsepower",Mississippi,TTT,Track Type Tractors,,OROPS,,,,,Standard,,,,,,2 Valve,,None or Unspecified,,,,,,,,,,,,,,None or Unspecified,PAT,None or Unspecified,,
11399,6285400,62600,1824445,149,99.0,2011,1611.0,High,12/14/2011 0:00,650JLT,650,J,,LT,,"Track Type Tractor, Dozer - 85.0 to 105.0 Horsepower",Mississippi,TTT,Track Type Tractors,,OROPS,,,,,Standard,,,,,,2 Valve,,None or Unspecified,,,,,,,,,,,,,,None or Unspecified,None or Unspecified,None or Unspecified,,
11399,6287518,47000,1822468,149,1.0,2008,,,6/30/2011 0:00,650JLT,650,J,,LT,,"Track Type Tractor, Dozer - 85.0 to 105.0 Horsepower",North Carolina,TTT,Track Type Tractors,,OROPS,,,,,Standard,,,,,,2 Valve,,None or Unspecified,,,,,,,,,,,,,,None or Unspecified,PAT,None or Unspecified,,
11399,6287646,31000,1875331,149,1.0,2004,,,11/2/2011 0:00,650JLT,650,J,,LT,,"Track Type Tractor, Dozer - 85.0 to 105.0 Horsepower",Maryland,TTT,Track Type Tractors,,OROPS,,,,,Standard,,,,,,2 Valve,,None or Unspecified,,,,,,,,,,,,,,None or Unspecified,PAT,None or Unspecified,,
11399,6287658,32500,1807117,149,1.0,2005,,,10/7/2011 0:00,650JLT,650,J,,LT,,"Track Type Tractor, Dozer - 85.0 to 105.0 Horsepower",California,TTT,Track Type Tractors,,OROPS,,,,,Standard,,,,,,2 Valve,,None or Unspecified,,,,,,,,,,,,,,None or Unspecified,PAT,None or Unspecified,,
11399,6287660,37000,1895531,149,1.0,2005,,,9/23/2011 0:00,650JLT,650,J,,LT,,"Track Type Tractor, Dozer - 85.0 to 105.0 Horsepower",California,TTT,Track Type Tractors,,OROPS,,,,,Standard,,,,,,2 Valve,,None or Unspecified,,,,,,,,,,,,,,None or Unspecified,PAT,None or Unspecified,,
11399,6287661,30000,1853156,149,1.0,2005,,,6/29/2011 0:00,650JLT,650,J,,LT,,"Track Type Tractor, Dozer - 85.0 to 105.0 Horsepower",Mississippi,TTT,Track Type Tractors,,OROPS,,,,,Standard,,,,,,2 Valve,,None or Unspecified,,,,,,,,,,,,,,None or Unspecified,PAT,None or Unspecified,,
11399,6287691,42500,1943450,149,1.0,2006,,,7/22/2011 0:00,650JLT,650,J,,LT,,"Track Type Tractor, Dozer - 85.0 to 105.0 Horsepower",California,TTT,Track Type Tractors,,OROPS,,,,,Standard,,,,,,2 Valve,,None or Unspecified,,,,,,,,,,,,,,None or Unspecified,PAT,Differential Steer,,
11399,6287721,46000,1812716,149,1.0,2007,,,6/23/2011 0:00,650JLT,650,J,,LT,,"Track Type Tractor, Dozer - 85.0 to 105.0 Horsepower",Ohio,TTT,Track Type Tractors,,OROPS,,,,,Standard,,,,,,2 Valve,,None or Unspecified,,,,,,,,,,,,,,None or Unspecified,PAT,None or Unspecified,,
11399,6287735,65000,1876912,149,2.0,2011,,,9/15/2011 0:00,650JLT,650,J,,LT,,"Track Type Tractor, Dozer - 85.0 to 105.0 Horsepower",Georgia,TTT,Track Type Tractors,,OROPS,,,,,Standard,,,,,,2 Valve,,None or Unspecified,,,,,,,,,,,,,,None or Unspecified,None or Unspecified,None or Unspecified,,
11399,6287745,67500,1878280,149,2.0,2011,,,9/15/2011 0:00,650JLT,650,J,,LT,,"Track Type Tractor, Dozer - 85.0 to 105.0 Horsepower",Georgia,TTT,Track Type Tractors,,OROPS,,,,,Standard,,,,,,2 Valve,,None or Unspecified,,,,,,,,,,,,,,None or Unspecified,None or Unspecified,None or Unspecified,,
11399,6288271,34100,1872987,149,99.0,2005,,,12/14/2011 0:00,650JLT,650,J,,LT,,"Track Type Tractor, Dozer - 85.0 to 105.0 Horsepower",Michigan,TTT,Track Type Tractors,,OROPS,,,,,Standard,,,,,,2 Valve,,None or Unspecified,,,,,,,,,,,,,,None or Unspecified,PAT,None or Unspecified,,
