ModelID,SalesID,SalePrice,MachineID,datasource,auctioneerID,YearMade,MachineHoursCurrentMeter,UsageBand,saledate,fiModelDesc,fiBaseModel,fiSecondaryDesc,fiModelSeries,fiModelDescriptor,ProductSize,fiProductClassDesc,state,ProductGroup,ProductGroupDesc,Drive_System,Enclosure,Forks,Pad_Type,Ride_Control,Stick,Transmission,Turbocharged,Blade_Extension,Blade_Width,Enclosure_Type,Engine_Horsepower,Hydraulics,Pushblock,Ripper,Scarifier,Tip_Control,Tire_Size,Coupler,Coupler_System,Grouser_Tracks,Hydraulics_Flow,Track_Type,Undercarriage_Pad_Width,Stick_Length,Thumb,Pattern_Changer,Grouser_Type,Backhoe_Mounting,Blade_Type,Travel_Controls,Differential_Type,Steering_Controls
11405,1148275,69000,1057899,121,3.0,2004,2402.0,Medium,5/14/2009 0:00,750CII,750,C,II,,Medium,"Track Type Tractor, Dozer - 130.0 to 160.0 Horsepower",Texas,TTT,Track Type Tractors,,EROPS w AC,,,,,Hydrostatic,,,,,,2 Valve,,Single Shank,,,,,,,,,,,,,,None or Unspecified,None or Unspecified,None or Unspecified,,
11405,2335450,40000,793789,136,1.0,2000,0.0,,10/10/2007 0:00,750CII,750,C,II,,Medium,"Track Type Tractor, Dozer - 130.0 to 160.0 Horsepower",Florida,TTT,Track Type Tractors,,EROPS w AC,,,,,Standard,,,,,,2 Valve,,None or Unspecified,,,,,,,,,,,,,,None or Unspecified,PAT,None or Unspecified,,
11405,2335651,46000,1755133,136,,2001,0.0,,1/31/2008 0:00,750CII,750,C,II,,Medium,"Track Type Tractor, Dozer - 130.0 to 160.0 Horsepower",Alabama,TTT,Track Type Tractors,,OROPS,,,,,Standard,,,,,,2 Valve,,None or Unspecified,,,,,,,,,,,,,,None or Unspecified,None or Unspecified,None or Unspecified,,
11405,2335744,26500,288755,136,2.0,2003,0.0,,6/10/2010 0:00,750CII,750,C,II,,Medium,"Track Type Tractor, Dozer - 130.0 to 160.0 Horsepower",Virginia,TTT,Track Type Tractors,,OROPS,,,,,Standard,,,,,,2 Valve,,None or Unspecified,,,,,,,,,,,,,,None or Unspecified,PAT,None or Unspecified,,
11405,2336524,37500,1740420,136,99.0,2005,0.0,,12/2/2009 0:00,750CII,750,C,II,,Medium,"Track Type Tractor, Dozer - 130.0 to 160.0 Horsepower",Alabama,TTT,Track Type Tractors,,EROPS w AC,,,,,Standard,,,,,,2 Valve,,None or Unspecified,,,,,,,,,,,,,,None or Unspecified,PAT,None or Unspecified,,
11405,2357134,44000,1736269,136,1.0,2000,0.0,,12/6/2007 0:00,750CII,750,C,II,,Medium,"Track Type Tractor, Dozer - 130.0 to 160.0 Horsepower",Texas,TTT,Track Type Tractors,,EROPS w AC,,,,,Standard,,,,,,2 Valve,,None or Unspecified,,,,,,,,,,,,,,None or Unspecified,PAT,None or Unspecified,,
11405,2357146,40000,1762578,136,1.0,2001,0.0,,12/12/2008 0:00,750CII,750,C,II,,Medium,"Track Type Tractor, Dozer - 130.0 to 160.0 Horsepower",Colorado,TTT,Track Type Tractors,,EROPS,,,,,Standard,,,,,,2 Valve,,Multi Shank,,,,,,,,,,,,,,None or Unspecified,PAT,None or Unspecified,,
11405,2357170,35000,1661982,136,,2002,0.0,,7/24/2008 0:00,750CII,750,C,II,,Medium,"Track Type Tractor, Dozer - 130.0 to 160.0 Horsepower",Texas,TTT,Track Type Tractors,,OROPS,,,,,Standard,,,,,,2 Valve,,None or Unspecified,,,,,,,,,,,,,,None or Unspecified,PAT,None or Unspecified,,
11405,2357184,39000,1786914,136,,1000,0.0,,6/17/2009 0:00,750CII,750,C,II,,Medium,"Track Type Tractor, Dozer - 130.0 to 160.0 Horsepower",South Carolina,TTT,Track Type Tractors,,EROPS,,,,,Standard,,,,,,2 Valve,,None or Unspecified,,,,,,,,,,,,,,None or Unspecified,PAT,None or Unspecified,,
11405,2357192,30000,1709493,136,1.0,2003,0.0,,3/10/2010 0:00,750CII,750,C,II,,Medium,"Track Type Tractor, Dozer - 130.0 to 160.0 Horsepower",South Carolina,TTT,Track Type Tractors,,OROPS,,,,,Standard,,,,,,2 Valve,,None or Unspecified,,,,,,,,,,,,,,None or Unspecified,PAT,None or Unspecified,,
11405,2357216,53000,1726664,136,,2003,3888.0,Medium,2/11/2008 0:00,750CII,750,C,II,,Medium,"Track Type Tractor, Dozer - 130.0 to 160.0 Horsepower",Florida,TTT,Track Type Tractors,,OROPS,,,,,Standard,,,,,,2 Valve,,None or Unspecified,,,,,,,,,,,,,,None or Unspecified,None or Unspecified,None or Unspecified,,
11405,2357222,34000,1653817,136,1.0,2004,3826.0,Medium,8/26/2009 0:00,750CII,750,C,II,,Medium,"Track Type Tractor, Dozer - 130.0 to 160.0 Horsepower",Texas,TTT,Track Type Tractors,,OROPS,,,,,Standard,,,,,,2 Valve,,None or Unspecified,,,,,,,,,,,,,,None or Unspecified,PAT,Differential Steer,,
11405,2357223,35000,1689512,136,1.0,2004,3409.0,Medium,8/26/2009 0:00,750CII,750,C,II,,Medium,"Track Type Tractor, Dozer - 130.0 to 160.0 Horsepower",Texas,TTT,Track Type Tractors,,OROPS,,,,,Standard,,,,,,2 Valve,,None or Unspecified,,,,,,,,,,,,,,None or Unspecified,PAT,None or Unspecified,,
11405,2357225,36000,1740831,136,1.0,2004,3371.0,Medium,8/26/2009 0:00,750CII,750,C,II,,Medium,"Track Type Tractor, Dozer - 130.0 to 160.0 Horsepower",Texas,TTT,Track Type Tractors,,OROPS,,,,,Standard,,,,,,2 Valve,,None or Unspecified,,,,,,,,,,,,,,None or Unspecified,PAT,None or Unspecified,,
11405,2357229,65000,1650365,136,,2004,4200.0,Medium,2/11/2008 0:00,750CII,750,C,II,,Medium,"Track Type Tractor, Dozer - 130.0 to 160.0 Horsepower",Florida,TTT,Track Type Tractors,,OROPS,,,,,Standard,,,,,,2 Valve,,None or Unspecified,,,,,,,,,,,,,,None or Unspecified,None or Unspecified,None or Unspecified,,
11405,2357258,44000,1748789,136,,2004,4487.0,High,2/11/2008 0:00,750CII,750,C,II,,Medium,"Track Type Tractor, Dozer - 130.0 to 160.0 Horsepower",Florida,TTT,Track Type Tractors,,OROPS,,,,,Standard,,,,,,2 Valve,,None or Unspecified,,,,,,,,,,,,,,None or Unspecified,None or Unspecified,None or Unspecified,,
11405,2631222,29500,1850224,149,5.0,2003,5934.0,Medium,9/24/2010 0:00,750CII,750,C,II,,Medium,"Track Type Tractor, Dozer - 130.0 to 160.0 Horsepower",Connecticut,TTT,Track Type Tractors,,EROPS w AC,,,,,Standard,,,,,,2 Valve,,None or Unspecified,,,,,,,,,,,,,,None or Unspecified,PAT,None or Unspecified,,
11405,2652153,24500,1803493,149,12.0,1000,5628.0,Low,6/17/2011 0:00,750CII,750,C,II,,Medium,"Track Type Tractor, Dozer - 130.0 to 160.0 Horsepower",Mississippi,TTT,Track Type Tractors,,OROPS,,,,,Standard,,,,,,2 Valve,,None or Unspecified,,,,,,,,,,,,,,None or Unspecified,None or Unspecified,None or Unspecified,,
11405,2652205,54000,1767056,149,1.0,2000,10620.0,Medium,3/30/2011 0:00,750CII,750,C,II,,Medium,"Track Type Tractor, Dozer - 130.0 to 160.0 Horsepower",North Carolina,TTT,Track Type Tractors,,EROPS w AC,,,,,Standard,,,,,,2 Valve,,None or Unspecified,,,,,,,,,,,,,,None or Unspecified,PAT,None or Unspecified,,
11405,2652217,26500,1806583,149,2.0,2003,0.0,,6/10/2010 0:00,750CII,750,C,II,,Medium,"Track Type Tractor, Dozer - 130.0 to 160.0 Horsepower",Virginia,TTT,Track Type Tractors,,OROPS,,,,,Standard,,,,,,2 Valve,,None or Unspecified,,,,,,,,,,,,,,None or Unspecified,PAT,None or Unspecified,,
11405,2652246,46000,1861012,149,2.0,2003,0.0,,7/17/2010 0:00,750CII,750,C,II,,Medium,"Track Type Tractor, Dozer - 130.0 to 160.0 Horsepower",New York,TTT,Track Type Tractors,,EROPS w AC,,,,,Standard,,,,,,2 Valve,,None or Unspecified,,,,,,,,,,,,,,None or Unspecified,PAT,None or Unspecified,,
11405,2652262,45000,1691565,149,1.0,2004,4987.0,Medium,3/9/2011 0:00,750CII,750,C,II,,Medium,"Track Type Tractor, Dozer - 130.0 to 160.0 Horsepower",Texas,TTT,Track Type Tractors,,EROPS w AC,,,,,Hydrostatic,,,,,,2 Valve,,None or Unspecified,,,,,,,,,,,,,,None or Unspecified,PAT,None or Unspecified,,
11405,2652264,54000,1825023,149,1.0,2004,4393.0,Medium,3/25/2011 0:00,750CII,750,C,II,,Medium,"Track Type Tractor, Dozer - 130.0 to 160.0 Horsepower",Missouri,TTT,Track Type Tractors,,EROPS,,,,,Standard,,,,,,2 Valve,,None or Unspecified,,,,,,,,,,,,,,None or Unspecified,PAT,None or Unspecified,,
11405,2652287,50000,1820211,149,1.0,2005,7958.0,High,3/29/2011 0:00,750CII,750,C,II,,Medium,"Track Type Tractor, Dozer - 130.0 to 160.0 Horsepower",Maryland,TTT,Track Type Tractors,,EROPS w AC,,,,,Standard,,,,,,2 Valve,,None or Unspecified,,,,,,,,,,,,,,None or Unspecified,PAT,None or Unspecified,,
11405,4324964,42000,2302120,172,1.0,2002,8328.0,Medium,12/19/2011 0:00,750CII,750,C,II,,Medium,"Track Type Tractor, Dozer - 130.0 to 160.0 Horsepower",Washington,TTT,Track Type Tractors,,EROPS w AC,,,,,Standard,,,,,,2 Valve,,Multi Shank,,,,,,,,,,,,,,None or Unspecified,PAT,None or Unspecified,,
11405,6287977,42000,1943240,149,1.0,2002,,,12/20/2011 0:00,750CII,750,C,II,,Medium,"Track Type Tractor, Dozer - 130.0 to 160.0 Horsepower",Washington,TTT,Track Type Tractors,,OROPS,,,,,Standard,,,,,,2 Valve,,Multi Shank,,,,,,,,,,,,,,None or Unspecified,PAT,None or Unspecified,,
