SalesID,2365769
SalePrice,10500
MachineID,1770788
datasource,136
auctioneerID,1.0
YearMade,1989
MachineHoursCurrentMeter,0.0
UsageBand,
saledate,5/14/2009 0:00
fiModelDesc,FD5LGP
fiBaseModel,FD5
fiSecondaryDesc,LGP
fiModelSeries,
fiModelDescriptor,
ProductSize,
fiProductClassDesc,"Track Type Tractor, Dozer - 75.0 to 85.0 Horsepower"
state,Pennsylvania
ProductGroup,TTT
ProductGroupDesc,Track Type Tractors
Drive_System,
Enclosure,OROPS
Forks,
Pad_Type,
Ride_Control,
Stick,
Transmission,Standard
Turbocharged,
Blade_Extension,
Blade_Width,
Enclosure_Type,
Engine_Horsepower,
Hydraulics,2 Valve
Pushblock,
Ripper,None or Unspecified
Scarifier,
Tip_Control,
Tire_Size,
Coupler,
Coupler_System,
Grouser_Tracks,
Hydraulics_Flow,
Track_Type,
Undercarriage_Pad_Width,
Stick_Length,
Thumb,
Pattern_Changer,
Grouser_Type,
Backhoe_Mounting,None or Unspecified
Blade_Type,PAT
Travel_Controls,None or Unspecified
Differential_Type,
Steering_Controls,
