SalesID,6289655
SalePrice,8000
MachineID,1876559
datasource,149
auctioneerID,99.0
YearMade,1975
MachineHoursCurrentMeter,
UsageBand,
saledate,10/27/2011 0:00
fiModelDesc,HD11B
fiBaseModel,HD11
fiSecondaryDesc,B
fiModelSeries,
fiModelDescriptor,
ProductSize,Medium
fiProductClassDesc,"Track Type Tractor, Dozer - 105.0 to 130.0 Horsepower"
state,Texas
ProductGroup,TTT
ProductGroupDesc,Track Type Tractors
Drive_System,
Enclosure,OROPS
Forks,
Pad_Type,
Ride_Control,
Stick,
Transmission,Standard
Turbocharged,
Blade_Extension,
Blade_Width,
Enclosure_Type,
Engine_Horsepower,
Hydraulics,2 Valve
Pushblock,
Ripper,None or Unspecified
Scarifier,
Tip_Control,
Tire_Size,
Coupler,
Coupler_System,
Grouser_Tracks,
Hydraulics_Flow,
Track_Type,
Undercarriage_Pad_Width,
Stick_Length,
Thumb,
Pattern_Changer,
Grouser_Type,
Backhoe_Mounting,None or Unspecified
Blade_Type,None or Unspecified
Travel_Controls,None or Unspecified
Differential_Type,
Steering_Controls,
