ModelID,SalesID,SalePrice,MachineID,datasource,auctioneerID,YearMade,MachineHoursCurrentMeter,UsageBand,saledate,fiModelDesc,fiBaseModel,fiSecondaryDesc,fiModelSeries,fiModelDescriptor,ProductSize,fiProductClassDesc,state,ProductGroup,ProductGroupDesc,Drive_System,Enclosure,Forks,Pad_Type,Ride_Control,Stick,Transmission,Turbocharged,Blade_Extension,Blade_Width,Enclosure_Type,Engine_Horsepower,Hydraulics,Pushblock,Ripper,Scarifier,Tip_Control,Tire_Size,Coupler,Coupler_System,Grouser_Tracks,Hydraulics_Flow,Track_Type,Undercarriage_Pad_Width,Stick_Length,Thumb,Pattern_Changer,Grouser_Type,Backhoe_Mounting,Blade_Type,Travel_Controls,Differential_Type,Steering_Controls
11582,1691524,10250,1518907,132,4.0,1000,,,10/22/2005 0:00,DX45M,DX45,M,,,,"Track Type Tractor, Dozer - 20.0 to 75.0 Horsepower",Pennsylvania,TTT,Track Type Tractors,,OROPS,,,,,Standard,,,,,,2 Valve,,None or Unspecified,,,,,,,,,,,,,,None or Unspecified,None or Unspecified,None or Unspecified,,
11582,1691527,15500,1166436,132,1.0,1000,,,9/22/2005 0:00,DX45M,DX45,M,,,,"Track Type Tractor, Dozer - 20.0 to 75.0 Horsepower",Washington,TTT,Track Type Tractors,,OROPS,,,,,Standard,,,,,,2 Valve,,None or Unspecified,,,,,,,,,,,,,,None or Unspecified,PAT,None or Unspecified,,
11582,1691529,14000,1275833,132,2.0,1998,,,9/6/2003 0:00,DX45M,DX45,M,,,,"Track Type Tractor, Dozer - 20.0 to 75.0 Horsepower",New Hampshire,TTT,Track Type Tractors,,OROPS,,,,,Standard,,,,,,2 Valve,,None or Unspecified,,,,,,,,,,,,,,None or Unspecified,PAT,None or Unspecified,,
11582,1691530,10500,1452607,132,1.0,1996,,,9/12/2002 0:00,DX45M,DX45,M,,,,"Track Type Tractor, Dozer - 20.0 to 75.0 Horsepower",Texas,TTT,Track Type Tractors,,OROPS,,,,,Standard,,,,,,2 Valve,,None or Unspecified,,,,,,,,,,,,,,None or Unspecified,PAT,None or Unspecified,,
11582,1691531,18500,1440486,132,1.0,1000,,,3/30/2005 0:00,DX45M,DX45,M,,,,"Track Type Tractor, Dozer - 20.0 to 75.0 Horsepower",Washington,TTT,Track Type Tractors,,OROPS,,,,,Standard,,,,,,2 Valve,,None or Unspecified,,,,,,,,,,,,,,None or Unspecified,PAT,None or Unspecified,,
11582,1691638,11500,1408859,132,1.0,1000,,,9/26/2002 0:00,DX45M,DX45,M,,,,"Track Type Tractor, Dozer - 20.0 to 75.0 Horsepower",Illinois,TTT,Track Type Tractors,,OROPS,,,,,Standard,,,,,,2 Valve,,None or Unspecified,,,,,,,,,,,,,,None or Unspecified,PAT,None or Unspecified,,
11582,1693160,8500,1248302,132,1.0,1000,,,6/3/2003 0:00,DX45M,DX45,M,,,,"Track Type Tractor, Dozer - 20.0 to 75.0 Horsepower",California,TTT,Track Type Tractors,,OROPS,,,,,Standard,,,,,,2 Valve,,None or Unspecified,,,,,,,,,,,,,,None or Unspecified,PAT,None or Unspecified,,
