ModelID,SalesID,SalePrice,MachineID,datasource,auctioneerID,YearMade,MachineHoursCurrentMeter,UsageBand,saledate,fiModelDesc,fiBaseModel,fiSecondaryDesc,fiModelSeries,fiModelDescriptor,ProductSize,fiProductClassDesc,state,ProductGroup,ProductGroupDesc,Drive_System,Enclosure,Forks,Pad_Type,Ride_Control,Stick,Transmission,Turbocharged,Blade_Extension,Blade_Width,Enclosure_Type,Engine_Horsepower,Hydraulics,Pushblock,Ripper,Scarifier,Tip_Control,Tire_Size,Coupler,Coupler_System,Grouser_Tracks,Hydraulics_Flow,Track_Type,Undercarriage_Pad_Width,Stick_Length,Thumb,Pattern_Changer,Grouser_Type,Backhoe_Mounting,Blade_Type,Travel_Controls,Differential_Type,Steering_Controls
11630,1156626,12000,1063305,121,3.0,1995,22883.0,High,6/11/2009 0:00,EX550LC5,EX550,,LC,5,Large / Medium,"Hydraulic Excavator, Track - 50.0 to 66.0 Metric Tons",Florida,TEX,Track Excavators,,EROPS w AC,,,,,,,,,,,Standard,,,,,,None or Unspecified,,,,Steel,None or Unspecified,None or Unspecified,None or Unspecified,None or Unspecified,Double,,,,,
11630,1166319,103000,1055929,121,3.0,2001,7494.0,High,12/15/2005 0:00,EX550LC5,EX550,,LC,5,Large / Medium,"Hydraulic Excavator, Track - 50.0 to 66.0 Metric Tons",Texas,TEX,Track Excavators,,EROPS w AC,,,,,,,,,,,Standard,,,,,,None or Unspecified,,,,Steel,None or Unspecified,None or Unspecified,None or Unspecified,None or Unspecified,Double,,,,,
11630,1687625,62000,1327812,132,1.0,1995,,,12/13/2004 0:00,EX550LC5,EX550,,LC,5,Large / Medium,"Hydraulic Excavator, Track - 50.0 to 66.0 Metric Tons",California,TEX,Track Excavators,,EROPS,,,,,,,,,,,Standard,,,,,,None or Unspecified,,,,Steel,None or Unspecified,None or Unspecified,None or Unspecified,None or Unspecified,Triple,,,,,
11630,1687628,50000,1164113,132,1.0,1995,,,6/19/2003 0:00,EX550LC5,EX550,,LC,5,Large / Medium,"Hydraulic Excavator, Track - 50.0 to 66.0 Metric Tons",Illinois,TEX,Track Excavators,,EROPS w AC,,,,,,,,,,,Standard,,,,,,Manual,,,,Steel,None or Unspecified,None or Unspecified,None or Unspecified,None or Unspecified,Double,,,,,
11630,1687629,70000,1454876,132,19.0,1995,,,7/13/2002 0:00,EX550LC5,EX550,,LC,5,Large / Medium,"Hydraulic Excavator, Track - 50.0 to 66.0 Metric Tons",Alaska,TEX,Track Excavators,,EROPS,,,,,,,,,,,Standard,,,,,,Manual,,,,Steel,36 inch,None or Unspecified,Manual,None or Unspecified,Triple,,,,,
11630,1687630,39000,1357723,132,1.0,1995,,,8/28/2003 0:00,EX550LC5,EX550,,LC,5,Large / Medium,"Hydraulic Excavator, Track - 50.0 to 66.0 Metric Tons",Georgia,TEX,Track Excavators,,EROPS,,,,,,,,,,,Standard,,,,,,None or Unspecified,,,,Steel,None or Unspecified,None or Unspecified,None or Unspecified,None or Unspecified,Double,,,,,
11630,1687634,105000,1194415,132,7.0,1995,,,9/6/2001 0:00,EX550LC5,EX550,,LC,5,Large / Medium,"Hydraulic Excavator, Track - 50.0 to 66.0 Metric Tons",Alabama,TEX,Track Excavators,,EROPS w AC,,,,,,,,,,,Standard,,,,,,None or Unspecified,,,,Steel,36 inch,"13' 9""",None or Unspecified,None or Unspecified,Triple,,,,,
11630,1687636,65000,1487770,132,1.0,1995,,,4/6/2004 0:00,EX550LC5,EX550,,LC,5,Large / Medium,"Hydraulic Excavator, Track - 50.0 to 66.0 Metric Tons",Maryland,TEX,Track Excavators,,EROPS,,,,,,,,,,,Standard,,,,,,None or Unspecified,,,,Steel,None or Unspecified,"9' 6""",None or Unspecified,None or Unspecified,Double,,,,,
11630,1687638,87500,1146521,132,2.0,1995,,,5/11/2002 0:00,EX550LC5,EX550,,LC,5,Large / Medium,"Hydraulic Excavator, Track - 50.0 to 66.0 Metric Tons",Connecticut,TEX,Track Excavators,,EROPS w AC,,,,,,,,,,,Standard,,,,,,None or Unspecified,,,,Steel,None or Unspecified,"13' 9""",None or Unspecified,None or Unspecified,Double,,,,,
11630,1687641,62500,1115583,132,1.0,1995,,,6/12/2002 0:00,EX550LC5,EX550,,LC,5,Large / Medium,"Hydraulic Excavator, Track - 50.0 to 66.0 Metric Tons",Texas,TEX,Track Excavators,,EROPS w AC,,,,,,,,,,,Standard,,,,,,None or Unspecified,,,,Steel,None or Unspecified,"9' 6""",None or Unspecified,None or Unspecified,Double,,,,,
11630,1687642,85000,1115583,132,1.0,1995,,,3/20/2002 0:00,EX550LC5,EX550,,LC,5,Large / Medium,"Hydraulic Excavator, Track - 50.0 to 66.0 Metric Tons",Texas,TEX,Track Excavators,,EROPS w AC,,,,,,,,,,,Standard,,,,,,None or Unspecified,,,,Steel,None or Unspecified,"9' 6""",None or Unspecified,None or Unspecified,Double,,,,,
11630,1687643,30000,1098792,132,1.0,1996,,,2/17/2004 0:00,EX550LC5,EX550,,LC,5,Large / Medium,"Hydraulic Excavator, Track - 50.0 to 66.0 Metric Tons",Florida,TEX,Track Excavators,,EROPS,,,,,,,,,,,Standard,,,,,,None or Unspecified,,,,Steel,None or Unspecified,None or Unspecified,None or Unspecified,None or Unspecified,Double,,,,,
11630,1687644,36000,1413061,132,3.0,1995,,,9/1/2003 0:00,EX550LC5,EX550,,LC,5,Large / Medium,"Hydraulic Excavator, Track - 50.0 to 66.0 Metric Tons",Unspecified,TEX,Track Excavators,,EROPS,,,,,,,,,,,Standard,,,,,,None or Unspecified,,,,Steel,36 inch,None or Unspecified,None or Unspecified,None or Unspecified,Double,,,,,
11630,1687645,68000,1538570,132,1.0,1996,,,12/6/2005 0:00,EX550LC5,EX550,,LC,5,Large / Medium,"Hydraulic Excavator, Track - 50.0 to 66.0 Metric Tons",Washington,TEX,Track Excavators,,EROPS,,,,,,,,,,,Standard,,,,,,Manual,,,,Steel,None or Unspecified,None or Unspecified,None or Unspecified,None or Unspecified,Double,,,,,
11630,1687647,62500,1451688,132,7.0,1996,,,3/4/2004 0:00,EX550LC5,EX550,,LC,5,Large / Medium,"Hydraulic Excavator, Track - 50.0 to 66.0 Metric Tons",Alabama,TEX,Track Excavators,,EROPS w AC,,,,,,,,,,,Standard,,,,,,None or Unspecified,,,,Steel,36 inch,None or Unspecified,None or Unspecified,None or Unspecified,Triple,,,,,
11630,1687648,26000,1119253,132,1.0,1000,,,3/16/2006 0:00,EX550LC5,EX550,,LC,5,Large / Medium,"Hydraulic Excavator, Track - 50.0 to 66.0 Metric Tons",Colorado,TEX,Track Excavators,,EROPS,,,,,,,,,,,Standard,,,,,,None or Unspecified,,,,Steel,None or Unspecified,None or Unspecified,None or Unspecified,None or Unspecified,Double,,,,,
11630,1687736,72000,1115965,132,1.0,1997,,,7/21/2005 0:00,EX550LC5,EX550,,LC,5,Large / Medium,"Hydraulic Excavator, Track - 50.0 to 66.0 Metric Tons",Texas,TEX,Track Excavators,,EROPS w AC,,,,,,,,,,,Standard,,,,,,None or Unspecified,,,,Steel,None or Unspecified,None or Unspecified,None or Unspecified,None or Unspecified,Double,,,,,
11630,1687745,70000,1109431,132,1.0,1998,,,8/30/2006 0:00,EX550LC5,EX550,,LC,5,Large / Medium,"Hydraulic Excavator, Track - 50.0 to 66.0 Metric Tons",Georgia,TEX,Track Excavators,,EROPS w AC,,,,,,,,,,,Standard,,,,,,None or Unspecified,,,,Steel,None or Unspecified,"9' 6""",None or Unspecified,None or Unspecified,Double,,,,,
11630,1687746,92500,1277882,132,1.0,1998,,,2/20/2003 0:00,EX550LC5,EX550,,LC,5,Large / Medium,"Hydraulic Excavator, Track - 50.0 to 66.0 Metric Tons",Florida,TEX,Track Excavators,,EROPS,,,,,,,,,,,Standard,,,,,,None or Unspecified,,,,Steel,None or Unspecified,None or Unspecified,None or Unspecified,None or Unspecified,Double,,,,,
11630,1687747,92000,1512209,132,1.0,1998,,,9/21/2004 0:00,EX550LC5,EX550,,LC,5,Large / Medium,"Hydraulic Excavator, Track - 50.0 to 66.0 Metric Tons",North Carolina,TEX,Track Excavators,,EROPS w AC,,,,,,,,,,,Standard,,,,,,None or Unspecified,,,,Steel,None or Unspecified,None or Unspecified,None or Unspecified,None or Unspecified,Double,,,,,
11630,1687749,82500,1298216,132,1.0,1999,,,12/12/2006 0:00,EX550LC5,EX550,,LC,5,Large / Medium,"Hydraulic Excavator, Track - 50.0 to 66.0 Metric Tons",California,TEX,Track Excavators,,EROPS,,,,,,,,,,,Standard,,,,,,None or Unspecified,,,,Steel,None or Unspecified,None or Unspecified,None or Unspecified,None or Unspecified,Double,,,,,
11630,1687750,80000,1362988,132,1.0,1999,,,4/4/2006 0:00,EX550LC5,EX550,,LC,5,Large / Medium,"Hydraulic Excavator, Track - 50.0 to 66.0 Metric Tons",Maryland,TEX,Track Excavators,,EROPS w AC,,,,,,,,,,,Standard,,,,,,None or Unspecified,,,,Steel,None or Unspecified,"9' 8""",None or Unspecified,None or Unspecified,Double,,,,,
11630,1687754,58000,1174872,132,1.0,1999,,,9/21/2007 0:00,EX550LC5,EX550,,LC,5,Large / Medium,"Hydraulic Excavator, Track - 50.0 to 66.0 Metric Tons",Minnesota,TEX,Track Excavators,,EROPS,,,,,,,,,,,Standard,,,,,,None or Unspecified,,,,Steel,None or Unspecified,"9' 6""",None or Unspecified,None or Unspecified,Double,,,,,
11630,1691614,35000,1268485,132,3.0,1996,,,6/26/2003 0:00,EX550LC5,EX550,,LC,5,Large / Medium,"Hydraulic Excavator, Track - 50.0 to 66.0 Metric Tons",Unspecified,TEX,Track Excavators,,EROPS,,,,,,,,,,,Standard,,,,,,None or Unspecified,,,,Steel,36 inch,None or Unspecified,None or Unspecified,None or Unspecified,Double,,,,,
11630,2370640,35000,1710273,136,1.0,1995,0.0,,6/16/2010 0:00,EX550LC5,EX550,,LC,5,Large / Medium,"Hydraulic Excavator, Track - 50.0 to 66.0 Metric Tons",Kentucky,TEX,Track Excavators,,EROPS w AC,,,,,,,,,,,Standard,,,,,,None or Unspecified,,,,Steel,None or Unspecified,None or Unspecified,None or Unspecified,None or Unspecified,Double,,,,,
11630,2370650,28500,1115583,136,1.0,1000,0.0,,3/24/2009 0:00,EX550LC5,EX550,,LC,5,Large / Medium,"Hydraulic Excavator, Track - 50.0 to 66.0 Metric Tons",Texas,TEX,Track Excavators,,EROPS w AC,,,,,,,,,,,Standard,,,,,,None or Unspecified,,,,Steel,None or Unspecified,"9' 6""",None or Unspecified,None or Unspecified,Double,,,,,
11630,2370698,30000,1653439,136,1.0,1997,0.0,,2/2/2010 0:00,EX550LC5,EX550,,LC,5,Large / Medium,"Hydraulic Excavator, Track - 50.0 to 66.0 Metric Tons",Arizona,TEX,Track Excavators,,EROPS w AC,,,,,,,,,,,Standard,,,,,,None or Unspecified,,,,Steel,None or Unspecified,None or Unspecified,None or Unspecified,None or Unspecified,Double,,,,,
11630,2370715,58000,1666958,136,,1999,0.0,,9/21/2007 0:00,EX550LC5,EX550,,LC,5,Large / Medium,"Hydraulic Excavator, Track - 50.0 to 66.0 Metric Tons",Minnesota,TEX,Track Excavators,,EROPS,,,,,,,,,,,Standard,,,,,,None or Unspecified,,,,Steel,None or Unspecified,None or Unspecified,None or Unspecified,None or Unspecified,Double,,,,,
11630,4334342,25000,1363564,172,1.0,1997,777.0,Low,12/15/2010 0:00,EX550LC5,EX550,,LC,5,Large / Medium,"Hydraulic Excavator, Track - 50.0 to 66.0 Metric Tons",Missouri,TEX,Track Excavators,,EROPS w AC,,,,,,,,,,,Standard,,,,,,None or Unspecified,,,,Steel,None or Unspecified,None or Unspecified,None or Unspecified,None or Unspecified,Double,,,,,
