ModelID,SalesID,SalePrice,MachineID,datasource,auctioneerID,YearMade,MachineHoursCurrentMeter,UsageBand,saledate,fiModelDesc,fiBaseModel,fiSecondaryDesc,fiModelSeries,fiModelDescriptor,ProductSize,fiProductClassDesc,state,ProductGroup,ProductGroupDesc,Drive_System,Enclosure,Forks,Pad_Type,Ride_Control,Stick,Transmission,Turbocharged,Blade_Extension,Blade_Width,Enclosure_Type,Engine_Horsepower,Hydraulics,Pushblock,Ripper,Scarifier,Tip_Control,Tire_Size,Coupler,Coupler_System,Grouser_Tracks,Hydraulics_Flow,Track_Type,Undercarriage_Pad_Width,Stick_Length,Thumb,Pattern_Changer,Grouser_Type,Backhoe_Mounting,Blade_Type,Travel_Controls,Differential_Type,Steering_Controls
1166,1379922,50000,99903,132,1.0,1997,,,4/30/2002 0:00,320BN,320,B,,N,Large / Medium,"Hydraulic Excavator, Track - 21.0 to 24.0 Metric Tons",Pennsylvania,TEX,Track Excavators,,EROPS,,,,,,,,,,,Standard,,,,,,None or Unspecified,,,,Steel,None or Unspecified,"9' 6""",None or Unspecified,None or Unspecified,Double,,,,,
1166,1379924,50000,1465978,132,1.0,1997,,,9/28/2004 0:00,320BN,320,B,,N,Large / Medium,"Hydraulic Excavator, Track - 21.0 to 24.0 Metric Tons",Illinois,TEX,Track Excavators,,EROPS w AC,,,,,,,,,,,Standard,,,,,,Manual,,,,Steel,None or Unspecified,"9' 6""",None or Unspecified,Yes,Double,,,,,
1166,1379926,67000,421054,132,1.0,1999,,,3/13/2003 0:00,320BN,320,B,,N,Large / Medium,"Hydraulic Excavator, Track - 21.0 to 24.0 Metric Tons",Illinois,TEX,Track Excavators,,EROPS w AC,,,,,,,,,,,Standard,,,,,,None or Unspecified,,,,Steel,None or Unspecified,"9' 7""",None or Unspecified,None or Unspecified,Double,,,,,
1166,2239911,39000,1523071,136,1.0,1999,0.0,,11/13/2007 0:00,320BN,320,B,,N,Large / Medium,"Hydraulic Excavator, Track - 21.0 to 24.0 Metric Tons",California,TEX,Track Excavators,,EROPS,,,,,,,,,,,Auxiliary,,,,,,None or Unspecified,,,,Steel,None or Unspecified,"9' 6""",None or Unspecified,None or Unspecified,Double,,,,,
1166,6264343,42000,339099,149,2.0,1000,,,10/25/2011 0:00,320BN,320,B,,N,Large / Medium,"Hydraulic Excavator, Track - 21.0 to 24.0 Metric Tons",Florida,TEX,Track Excavators,,EROPS,,,,,,,,,,,Standard,,,,,,None or Unspecified,,,,Steel,None or Unspecified,None or Unspecified,None or Unspecified,None or Unspecified,Double,,,,,
