ModelID,SalesID,SalePrice,MachineID,datasource,auctioneerID,YearMade,MachineHoursCurrentMeter,UsageBand,saledate,fiModelDesc,fiBaseModel,fiSecondaryDesc,fiModelSeries,fiModelDescriptor,ProductSize,fiProductClassDesc,state,ProductGroup,ProductGroupDesc,Drive_System,Enclosure,Forks,Pad_Type,Ride_Control,Stick,Transmission,Turbocharged,Blade_Extension,Blade_Width,Enclosure_Type,Engine_Horsepower,Hydraulics,Pushblock,Ripper,Scarifier,Tip_Control,Tire_Size,Coupler,Coupler_System,Grouser_Tracks,Hydraulics_Flow,Track_Type,Undercarriage_Pad_Width,Stick_Length,Thumb,Pattern_Changer,Grouser_Type,Backhoe_Mounting,Blade_Type,Travel_Controls,Differential_Type,Steering_Controls
1174,1145103,87500,1050348,121,3.0,2003,2622.0,High,9/29/2005 0:00,320CU,320,C,,U,Large / Medium,"Hydraulic Excavator, Track - 21.0 to 24.0 Metric Tons",Pennsylvania,TEX,Track Excavators,,EROPS w AC,,,,,,,,,,,Auxiliary,,,,,,None or Unspecified,,,,Steel,None or Unspecified,"9' 6""",None or Unspecified,None or Unspecified,Double,,,,,
1174,1169828,45000,1053239,121,3.0,2001,6769.0,Medium,8/26/2010 0:00,320CU,320,C,,U,Large / Medium,"Hydraulic Excavator, Track - 21.0 to 24.0 Metric Tons",Massachusetts,TEX,Track Excavators,,EROPS w AC,,,,,,,,,,,Standard,,,,,,None or Unspecified,,,,Steel,None or Unspecified,"9' 8""",Manual,None or Unspecified,Double,,,,,
1174,1170877,73000,107105,121,3.0,2000,3893.0,Medium,12/7/2006 0:00,320CU,320,C,,U,Large / Medium,"Hydraulic Excavator, Track - 21.0 to 24.0 Metric Tons",North Carolina,TEX,Track Excavators,,EROPS w AC,,,,,,,,,,,Auxiliary,,,,,,None or Unspecified,,,,Steel,None or Unspecified,"9' 6""",Manual,None or Unspecified,Triple,,,,,
1174,1539484,74000,434002,132,2.0,2000,,,3/31/2005 0:00,320CU,320,C,,U,Large / Medium,"Hydraulic Excavator, Track - 21.0 to 24.0 Metric Tons",New Jersey,TEX,Track Excavators,,EROPS w AC,,,,,,,,,,,Auxiliary,,,,,,None or Unspecified,,,,Steel,None or Unspecified,"9' 6""",None or Unspecified,None or Unspecified,Triple,,,,,
1174,1539486,73000,267018,132,7.0,2000,,,10/19/2005 0:00,320CU,320,C,,U,Large / Medium,"Hydraulic Excavator, Track - 21.0 to 24.0 Metric Tons",South Carolina,TEX,Track Excavators,,EROPS w AC,,,,,,,,,,,Standard,,,,,,None or Unspecified,,,,Steel,32 inch,"9' 6""",None or Unspecified,None or Unspecified,Triple,,,,,
1174,1539488,87500,1109552,132,1.0,2000,,,5/22/2002 0:00,320CU,320,C,,U,Large / Medium,"Hydraulic Excavator, Track - 21.0 to 24.0 Metric Tons",Texas,TEX,Track Excavators,,EROPS w AC,,,,,,,,,,,Auxiliary,,,,,,Hydraulic,,,,Steel,None or Unspecified,"9' 6""",None or Unspecified,None or Unspecified,Double,,,,,
1174,1539491,71000,1276461,132,2.0,2000,,,3/28/2007 0:00,320CU,320,C,,U,Large / Medium,"Hydraulic Excavator, Track - 21.0 to 24.0 Metric Tons",Texas,TEX,Track Excavators,,EROPS w AC,,,,,,,,,,,Auxiliary,,,,,,None or Unspecified,,,,Steel,24 inch,None or Unspecified,None or Unspecified,None or Unspecified,Double,,,,,
1174,1539494,81000,254220,132,7.0,2000,,,4/22/2004 0:00,320CU,320,C,,U,Large / Medium,"Hydraulic Excavator, Track - 21.0 to 24.0 Metric Tons",South Carolina,TEX,Track Excavators,,EROPS w AC,,,,,,,,,,,Standard,,,,,,None or Unspecified,,,,Steel,32 inch,"9' 7""",Manual,None or Unspecified,Triple,,,,,
1174,1539495,76000,254220,132,1.0,2000,,,5/26/2005 0:00,320CU,320,C,,U,Large / Medium,"Hydraulic Excavator, Track - 21.0 to 24.0 Metric Tons",Florida,TEX,Track Excavators,,EROPS w AC,,,,,,,,,,,Standard,,,,,,None or Unspecified,,,,Steel,32 inch,"9' 7""",Manual,None or Unspecified,Triple,,,,,
1174,1539497,65000,1104923,132,2.0,2000,,,3/28/2007 0:00,320CU,320,C,,U,Large / Medium,"Hydraulic Excavator, Track - 21.0 to 24.0 Metric Tons",Texas,TEX,Track Excavators,,EROPS w AC,,,,,,,,,,,Auxiliary,,,,,,None or Unspecified,,,,Steel,None or Unspecified,None or Unspecified,None or Unspecified,None or Unspecified,Double,,,,,
1174,1539499,67500,565938,132,2.0,2000,,,2/4/2007 0:00,320CU,320,C,,U,Large / Medium,"Hydraulic Excavator, Track - 21.0 to 24.0 Metric Tons",Florida,TEX,Track Excavators,,EROPS w AC,,,,,,,,,,,Standard,,,,,,None or Unspecified,,,,Steel,None or Unspecified,None or Unspecified,None or Unspecified,None or Unspecified,Double,,,,,
1174,1539500,105000,565938,132,4.0,2000,,,2/10/2003 0:00,320CU,320,C,,U,Large / Medium,"Hydraulic Excavator, Track - 21.0 to 24.0 Metric Tons",Florida,TEX,Track Excavators,,EROPS w AC,,,,,,,,,,,Standard,,,,,,None or Unspecified,,,,Steel,None or Unspecified,None or Unspecified,None or Unspecified,None or Unspecified,Double,,,,,
1174,1539503,75000,815827,132,2.0,2000,,,3/23/2006 0:00,320CU,320,C,,U,Large / Medium,"Hydraulic Excavator, Track - 21.0 to 24.0 Metric Tons",New Jersey,TEX,Track Excavators,,EROPS w AC,,,,,,,,,,,Standard,,,,,,Hydraulic,,,,Steel,24 inch,None or Unspecified,Hydraulic,None or Unspecified,Double,,,,,
1174,1539504,87500,815827,132,2.0,2000,,,3/25/2004 0:00,320CU,320,C,,U,Large / Medium,"Hydraulic Excavator, Track - 21.0 to 24.0 Metric Tons",New Jersey,TEX,Track Excavators,,EROPS w AC,,,,,,,,,,,Standard,,,,,,Hydraulic,,,,Steel,24 inch,None or Unspecified,Hydraulic,None or Unspecified,Double,,,,,
1174,1539505,87500,1346371,132,2.0,2000,,,3/25/2004 0:00,320CU,320,C,,U,Large / Medium,"Hydraulic Excavator, Track - 21.0 to 24.0 Metric Tons",New Jersey,TEX,Track Excavators,,EROPS w AC,,,,,,,,,,,Standard,,,,,,None or Unspecified,,,,Steel,24 inch,None or Unspecified,None or Unspecified,None or Unspecified,Double,,,,,
1174,1539510,81000,1332132,132,4.0,2001,,,2/13/2006 0:00,320CU,320,C,,U,Large / Medium,"Hydraulic Excavator, Track - 21.0 to 24.0 Metric Tons",Florida,TEX,Track Excavators,,EROPS w AC,,,,,,,,,,,Auxiliary,,,,,,None or Unspecified,,,,Steel,None or Unspecified,None or Unspecified,None or Unspecified,None or Unspecified,Double,,,,,
1174,1539511,77000,1455396,132,2.0,2001,,,3/22/2007 0:00,320CU,320,C,,U,Large / Medium,"Hydraulic Excavator, Track - 21.0 to 24.0 Metric Tons",New Jersey,TEX,Track Excavators,,EROPS w AC,,,,,,,,,,,Standard,,,,,,None or Unspecified,,,,Steel,None or Unspecified,None or Unspecified,Hydraulic,None or Unspecified,Double,,,,,
1174,1539514,67500,1173117,132,2.0,2001,,,1/19/2007 0:00,320CU,320,C,,U,Large / Medium,"Hydraulic Excavator, Track - 21.0 to 24.0 Metric Tons",Ohio,TEX,Track Excavators,,EROPS w AC,,,,,,,,,,,Auxiliary,,,,,,None or Unspecified,,,,Steel,None or Unspecified,"9' 6""",None or Unspecified,None or Unspecified,Double,,,,,
1174,1539515,97500,1173117,132,1.0,2001,,,2/24/2006 0:00,320CU,320,C,,U,Large / Medium,"Hydraulic Excavator, Track - 21.0 to 24.0 Metric Tons",Florida,TEX,Track Excavators,,EROPS w AC,,,,,,,,,,,Auxiliary,,,,,,None or Unspecified,,,,Steel,None or Unspecified,"9' 6""",None or Unspecified,None or Unspecified,Double,,,,,
1174,1539517,82500,1242386,132,2.0,2001,,,2/4/2007 0:00,320CU,320,C,,U,Large / Medium,"Hydraulic Excavator, Track - 21.0 to 24.0 Metric Tons",Florida,TEX,Track Excavators,,EROPS w AC,,,,,,,,,,,Standard,,,,,,None or Unspecified,,,,Steel,24 inch,None or Unspecified,None or Unspecified,None or Unspecified,Double,,,,,
1174,1539521,86000,1119431,132,8.0,2001,,,9/22/2004 0:00,320CU,320,C,,U,Large / Medium,"Hydraulic Excavator, Track - 21.0 to 24.0 Metric Tons",Mississippi,TEX,Track Excavators,,EROPS w AC,,,,,,,,,,,Standard,,,,,,None or Unspecified,,,,Steel,None or Unspecified,"9' 6""",None or Unspecified,None or Unspecified,Double,,,,,
1174,1539522,78500,442259,132,2.0,2001,,,3/31/2005 0:00,320CU,320,C,,U,Large / Medium,"Hydraulic Excavator, Track - 21.0 to 24.0 Metric Tons",New Jersey,TEX,Track Excavators,,EROPS w AC,,,,,,,,,,,Auxiliary,,,,,,None or Unspecified,,,,Steel,32 inch,"9' 6""",None or Unspecified,None or Unspecified,Triple,,,,,
1174,1539523,86000,1341402,132,1.0,2001,,,8/13/2003 0:00,320CU,320,C,,U,Large / Medium,"Hydraulic Excavator, Track - 21.0 to 24.0 Metric Tons",Texas,TEX,Track Excavators,,EROPS w AC,,,,,,,,,,,Standard,,,,,,None or Unspecified,,,,Steel,None or Unspecified,"9' 6""",None or Unspecified,None or Unspecified,Double,,,,,
1174,1539524,76000,1402315,132,2.0,2001,,,3/31/2005 0:00,320CU,320,C,,U,Large / Medium,"Hydraulic Excavator, Track - 21.0 to 24.0 Metric Tons",New Jersey,TEX,Track Excavators,,EROPS w AC,,,,,,,,,,,Standard,,,,,,None or Unspecified,,,,Steel,24 inch,None or Unspecified,None or Unspecified,None or Unspecified,Double,,,,,
1174,1539525,80000,1213841,132,2.0,2001,,,1/30/2005 0:00,320CU,320,C,,U,Large / Medium,"Hydraulic Excavator, Track - 21.0 to 24.0 Metric Tons",Florida,TEX,Track Excavators,,EROPS w AC,,,,,,,,,,,Standard,,,,,,None or Unspecified,,,,Steel,None or Unspecified,None or Unspecified,Manual,None or Unspecified,Double,,,,,
1174,1539527,90000,1459114,132,4.0,2002,,,2/12/2007 0:00,320CU,320,C,,U,Large / Medium,"Hydraulic Excavator, Track - 21.0 to 24.0 Metric Tons",Florida,TEX,Track Excavators,,EROPS w AC,,,,,,,,,,,Auxiliary,,,,,,None or Unspecified,,,,Steel,None or Unspecified,None or Unspecified,None or Unspecified,None or Unspecified,Double,,,,,
1174,1557998,82500,1234332,132,9.0,2002,,,2/22/2006 0:00,320CU,320,C,,U,Large / Medium,"Hydraulic Excavator, Track - 21.0 to 24.0 Metric Tons",Florida,TEX,Track Excavators,,EROPS,,,,,,,,,,,Auxiliary,,,,,,None or Unspecified,,,,Steel,24 inch,None or Unspecified,None or Unspecified,None or Unspecified,Triple,,,,,
1174,1557999,82500,1234332,132,4.0,2002,,,2/13/2006 0:00,320CU,320,C,,U,Large / Medium,"Hydraulic Excavator, Track - 21.0 to 24.0 Metric Tons",Florida,TEX,Track Excavators,,EROPS,,,,,,,,,,,Auxiliary,,,,,,None or Unspecified,,,,Steel,24 inch,None or Unspecified,None or Unspecified,None or Unspecified,Triple,,,,,
1174,1558000,88000,1136664,132,2.0,2003,,,3/23/2006 0:00,320CU,320,C,,U,Large / Medium,"Hydraulic Excavator, Track - 21.0 to 24.0 Metric Tons",New Jersey,TEX,Track Excavators,,EROPS w AC,,,,,,,,,,,Standard,,,,,,None or Unspecified,,,,Steel,24 inch,None or Unspecified,None or Unspecified,None or Unspecified,Double,,,,,
1174,1558002,81000,1365600,132,2.0,2002,,,2/5/2006 0:00,320CU,320,C,,U,Large / Medium,"Hydraulic Excavator, Track - 21.0 to 24.0 Metric Tons",Florida,TEX,Track Excavators,,EROPS w AC,,,,,,,,,,,Standard,,,,,,None or Unspecified,,,,Steel,24 inch,None or Unspecified,None or Unspecified,None or Unspecified,Double,,,,,
1174,1558004,75000,1346065,132,4.0,2002,,,2/12/2007 0:00,320CU,320,C,,U,Large / Medium,"Hydraulic Excavator, Track - 21.0 to 24.0 Metric Tons",Florida,TEX,Track Excavators,,EROPS w AC,,,,,,,,,,,Standard,,,,,,None or Unspecified,,,,Steel,24 inch,"9' 6""",Manual,None or Unspecified,Triple,,,,,
1174,1558007,81000,1346065,132,8.0,1000,,,9/13/2006 0:00,320CU,320,C,,U,Large / Medium,"Hydraulic Excavator, Track - 21.0 to 24.0 Metric Tons",Mississippi,TEX,Track Excavators,,EROPS w AC,,,,,,,,,,,Standard,,,,,,None or Unspecified,,,,Steel,24 inch,"9' 6""",Manual,None or Unspecified,Triple,,,,,
1174,1558008,75000,1346065,132,8.0,1000,,,11/15/2006 0:00,320CU,320,C,,U,Large / Medium,"Hydraulic Excavator, Track - 21.0 to 24.0 Metric Tons",Mississippi,TEX,Track Excavators,,EROPS w AC,,,,,,,,,,,Standard,,,,,,None or Unspecified,,,,Steel,24 inch,"9' 6""",Manual,None or Unspecified,Triple,,,,,
1174,1558010,88000,1518419,132,4.0,2002,,,2/13/2006 0:00,320CU,320,C,,U,Large / Medium,"Hydraulic Excavator, Track - 21.0 to 24.0 Metric Tons",Florida,TEX,Track Excavators,,EROPS w AC,,,,,,,,,,,Standard,,,,,,Hydraulic,,,,Steel,None or Unspecified,None or Unspecified,Manual,None or Unspecified,Double,,,,,
1174,1558012,86000,1105789,132,2.0,2003,,,3/22/2007 0:00,320CU,320,C,,U,Large / Medium,"Hydraulic Excavator, Track - 21.0 to 24.0 Metric Tons",New Jersey,TEX,Track Excavators,,EROPS w AC,,,,,,,,,,,Standard,,,,,,None or Unspecified,,,,Steel,32 inch,"9' 6""",None or Unspecified,None or Unspecified,Double,,,,,
1174,1558013,87500,1283518,132,2.0,2003,,,2/4/2007 0:00,320CU,320,C,,U,Large / Medium,"Hydraulic Excavator, Track - 21.0 to 24.0 Metric Tons",Florida,TEX,Track Excavators,,EROPS w AC,,,,,,,,,,,Standard,,,,,,None or Unspecified,,,,Steel,32 inch,None or Unspecified,None or Unspecified,None or Unspecified,Double,,,,,
1174,1558016,81000,1355176,132,8.0,2002,,,11/15/2006 0:00,320CU,320,C,,U,Large / Medium,"Hydraulic Excavator, Track - 21.0 to 24.0 Metric Tons",Mississippi,TEX,Track Excavators,,EROPS,,,,,,,,,,,Standard,,,,,,None or Unspecified,,,,Steel,None or Unspecified,None or Unspecified,None or Unspecified,None or Unspecified,Double,,,,,
1174,1558019,62500,1317927,132,2.0,2005,,,2/6/2009 0:00,320CU,320,C,,U,Large / Medium,"Hydraulic Excavator, Track - 21.0 to 24.0 Metric Tons",Florida,TEX,Track Excavators,,EROPS w AC,,,,,,,,,,,Standard,,,,,,None or Unspecified,,,,Steel,24 inch,None or Unspecified,None or Unspecified,None or Unspecified,Double,,,,,
1174,2286387,40000,434002,136,2.0,2000,0.0,,12/19/2008 0:00,320CU,320,C,,U,Large / Medium,"Hydraulic Excavator, Track - 21.0 to 24.0 Metric Tons",New Jersey,TEX,Track Excavators,,EROPS w AC,,,,,,,,,,,Auxiliary,,,,,,None or Unspecified,,,,Steel,None or Unspecified,"9' 6""",None or Unspecified,None or Unspecified,Triple,,,,,
1174,2286388,69000,1768473,136,,2003,0.0,,8/25/2007 0:00,320CU,320,C,,U,Large / Medium,"Hydraulic Excavator, Track - 21.0 to 24.0 Metric Tons",New York,TEX,Track Excavators,,EROPS w AC,,,,,,,,,,,Auxiliary,,,,,,None or Unspecified,,,,Steel,None or Unspecified,None or Unspecified,None or Unspecified,None or Unspecified,Double,,,,,
1174,2286389,45000,565938,136,2.0,2000,0.0,,3/26/2009 0:00,320CU,320,C,,U,Large / Medium,"Hydraulic Excavator, Track - 21.0 to 24.0 Metric Tons",Minnesota,TEX,Track Excavators,,EROPS w AC,,,,,,,,,,,Standard,,,,,,None or Unspecified,,,,Steel,None or Unspecified,None or Unspecified,None or Unspecified,None or Unspecified,Double,,,,,
1174,2286390,49000,1377626,136,5.0,2001,0.0,,11/9/2007 0:00,320CU,320,C,,U,Large / Medium,"Hydraulic Excavator, Track - 21.0 to 24.0 Metric Tons",Connecticut,TEX,Track Excavators,,EROPS,,,,,,,,,,,Standard,,,,,,None or Unspecified,,,,Steel,20 inch,None or Unspecified,None or Unspecified,None or Unspecified,Triple,,,,,
1174,2286393,67500,1097555,136,2.0,2000,0.0,,5/23/2007 0:00,320CU,320,C,,U,Large / Medium,"Hydraulic Excavator, Track - 21.0 to 24.0 Metric Tons",Florida,TEX,Track Excavators,,EROPS w AC,,,,,,,,,,,Standard,,,,,,None or Unspecified,,,,Steel,24 inch,None or Unspecified,None or Unspecified,None or Unspecified,Double,,,,,
1174,2286394,77500,1073048,136,2.0,2001,0.0,,2/3/2008 0:00,320CU,320,C,,U,Large / Medium,"Hydraulic Excavator, Track - 21.0 to 24.0 Metric Tons",Florida,TEX,Track Excavators,,EROPS w AC,,,,,,,,,,,Standard,,,,,,None or Unspecified,,,,Steel,24 inch,None or Unspecified,None or Unspecified,None or Unspecified,Double,,,,,
1174,2286395,60000,1135305,136,1.0,2001,0.0,,11/8/2007 0:00,320CU,320,C,,U,Large / Medium,"Hydraulic Excavator, Track - 21.0 to 24.0 Metric Tons",Texas,TEX,Track Excavators,,EROPS w AC,,,,,,,,,,,Standard,,,,,,None or Unspecified,,,,Steel,None or Unspecified,None or Unspecified,None or Unspecified,None or Unspecified,Triple,,,,,
1174,2286396,40000,1147959,136,1.0,2001,0.0,,8/26/2008 0:00,320CU,320,C,,U,Large / Medium,"Hydraulic Excavator, Track - 21.0 to 24.0 Metric Tons",Utah,TEX,Track Excavators,,EROPS,,,,,,,,,,,Standard,,,,,,None or Unspecified,,,,Steel,None or Unspecified,"9' 6""",None or Unspecified,None or Unspecified,Double,,,,,
1174,2286397,45000,838935,136,2.0,2001,0.0,,3/25/2010 0:00,320CU,320,C,,U,Large / Medium,"Hydraulic Excavator, Track - 21.0 to 24.0 Metric Tons",New Jersey,TEX,Track Excavators,,EROPS,,,,,,,,,,,Standard,,,,,,None or Unspecified,,,,Steel,None or Unspecified,None or Unspecified,None or Unspecified,None or Unspecified,Double,,,,,
1174,2286401,45000,1784022,136,,2000,4659.0,Low,3/26/2009 0:00,320CU,320,C,,U,Large / Medium,"Hydraulic Excavator, Track - 21.0 to 24.0 Metric Tons",Minnesota,TEX,Track Excavators,,EROPS w AC,,,,,,,,,,,Standard,,,,,,None or Unspecified,,,,Steel,None or Unspecified,None or Unspecified,None or Unspecified,None or Unspecified,Double,,,,,
1174,2305755,63000,1296411,136,8.0,2002,2045.0,Low,1/31/2008 0:00,320CU,320,C,,U,Large / Medium,"Hydraulic Excavator, Track - 21.0 to 24.0 Metric Tons",Alabama,TEX,Track Excavators,,EROPS w AC,,,,,,,,,,,Standard,,,,,,None or Unspecified,,,,Steel,None or Unspecified,None or Unspecified,Manual,None or Unspecified,Double,,,,,
1174,2305756,58000,1346065,136,8.0,1000,4100.0,Medium,1/31/2008 0:00,320CU,320,C,,U,Large / Medium,"Hydraulic Excavator, Track - 21.0 to 24.0 Metric Tons",Alabama,TEX,Track Excavators,,EROPS w AC,,,,,,,,,,,Standard,,,,,,None or Unspecified,,,,Steel,24 inch,"9' 6""",Manual,None or Unspecified,Triple,,,,,
1174,2305757,62000,1346065,136,8.0,2002,0.0,,11/14/2007 0:00,320CU,320,C,,U,Large / Medium,"Hydraulic Excavator, Track - 21.0 to 24.0 Metric Tons",Mississippi,TEX,Track Excavators,,EROPS w AC,,,,,,,,,,,Standard,,,,,,None or Unspecified,,,,Steel,24 inch,"9' 6""",Manual,None or Unspecified,Triple,,,,,
1174,2305758,77000,1346065,136,8.0,2001,4100.0,Medium,2/11/2008 0:00,320CU,320,C,,U,Large / Medium,"Hydraulic Excavator, Track - 21.0 to 24.0 Metric Tons",Florida,TEX,Track Excavators,,EROPS w AC,,,,,,,,,,,Standard,,,,,,None or Unspecified,,,,Steel,24 inch,"9' 6""",Manual,None or Unspecified,Triple,,,,,
1174,2305759,62500,1346065,136,8.0,2002,4100.0,Medium,12/5/2007 0:00,320CU,320,C,,U,Large / Medium,"Hydraulic Excavator, Track - 21.0 to 24.0 Metric Tons",Alabama,TEX,Track Excavators,,EROPS w AC,,,,,,,,,,,Standard,,,,,,None or Unspecified,,,,Steel,24 inch,"9' 6""",Manual,None or Unspecified,Triple,,,,,
1174,2305768,41000,1317927,136,2.0,2004,0.0,,7/18/2009 0:00,320CU,320,C,,U,Large / Medium,"Hydraulic Excavator, Track - 21.0 to 24.0 Metric Tons",New York,TEX,Track Excavators,,EROPS w AC,,,,,,,,,,,Standard,,,,,,None or Unspecified,,,,Steel,24 inch,None or Unspecified,None or Unspecified,None or Unspecified,Double,,,,,
1174,2305769,39000,1317927,136,2.0,2004,0.0,,7/24/2009 0:00,320CU,320,C,,U,Large / Medium,"Hydraulic Excavator, Track - 21.0 to 24.0 Metric Tons",Virginia,TEX,Track Excavators,,EROPS w AC,,,,,,,,,,,Standard,,,,,,None or Unspecified,,,,Steel,24 inch,None or Unspecified,None or Unspecified,None or Unspecified,Double,,,,,
1174,2305770,62500,1317927,136,2.0,2004,0.0,,1/31/2009 0:00,320CU,320,C,,U,Large / Medium,"Hydraulic Excavator, Track - 21.0 to 24.0 Metric Tons",Florida,TEX,Track Excavators,,EROPS w AC,,,,,,,,,,,Standard,,,,,,None or Unspecified,,,,Steel,24 inch,None or Unspecified,None or Unspecified,None or Unspecified,Double,,,,,
1174,2305771,45500,1317927,136,2.0,2004,0.0,,6/27/2009 0:00,320CU,320,C,,U,Large / Medium,"Hydraulic Excavator, Track - 21.0 to 24.0 Metric Tons",New Jersey,TEX,Track Excavators,,EROPS w AC,,,,,,,,,,,Standard,,,,,,None or Unspecified,,,,Steel,24 inch,None or Unspecified,None or Unspecified,None or Unspecified,Double,,,,,
1174,2308078,46000,1662667,136,,2002,0.0,,1/28/2009 0:00,320CU,320,C,,U,Large / Medium,"Hydraulic Excavator, Track - 21.0 to 24.0 Metric Tons",Alabama,TEX,Track Excavators,,EROPS,,,,,,,,,,,Standard,,,,,,None or Unspecified,,,,Steel,None or Unspecified,None or Unspecified,None or Unspecified,None or Unspecified,Double,,,,,
1174,4289231,45000,1109552,172,1.0,2000,9709.0,High,9/16/2010 0:00,320CU,320,C,,U,Large / Medium,"Hydraulic Excavator, Track - 21.0 to 24.0 Metric Tons",California,TEX,Track Excavators,,EROPS w AC,,,,,,,,,,,Auxiliary,,,,,,Hydraulic,,,,Steel,None or Unspecified,"9' 6""",None or Unspecified,None or Unspecified,Double,,,,,
1174,4289232,54000,1468328,172,1.0,2000,6945.0,Medium,12/9/2010 0:00,320CU,320,C,,U,Large / Medium,"Hydraulic Excavator, Track - 21.0 to 24.0 Metric Tons",Washington,TEX,Track Excavators,,EROPS,,,,,,,,,,,Standard,,,,,,Hydraulic,,,,Steel,None or Unspecified,"9' 8""",None or Unspecified,None or Unspecified,Double,,,,,
1174,4289233,48000,2271517,172,1.0,1000,3061.0,Low,9/14/2011 0:00,320CU,320,C,,U,Large / Medium,"Hydraulic Excavator, Track - 21.0 to 24.0 Metric Tons",Georgia,TEX,Track Excavators,,EROPS w AC,,,,,,,,,,,Standard,,,,,,None or Unspecified,,,,Steel,None or Unspecified,None or Unspecified,None or Unspecified,None or Unspecified,Double,,,,,
1174,4289234,48000,2271517,172,1.0,1000,3061.0,Low,9/13/2011 0:00,320CU,320,C,,U,Large / Medium,"Hydraulic Excavator, Track - 21.0 to 24.0 Metric Tons",Georgia,TEX,Track Excavators,,EROPS w AC,,,,,,,,,,,Standard,,,,,,None or Unspecified,,,,Steel,None or Unspecified,None or Unspecified,None or Unspecified,None or Unspecified,Double,,,,,
1174,4298124,57000,1204792,172,1.0,2004,3712.0,Medium,7/29/2010 0:00,320CU,320,C,,U,Large / Medium,"Hydraulic Excavator, Track - 21.0 to 24.0 Metric Tons",Washington,TEX,Track Excavators,,EROPS,,,,,,,,,,,Standard,,,,,,None or Unspecified,,,,Steel,None or Unspecified,"9' 6""",Hydraulic,None or Unspecified,Double,,,,,
1174,4301868,59000,531151,172,1.0,2005,5071.0,High,10/27/2010 0:00,320CU,320,C,,U,Large / Medium,"Hydraulic Excavator, Track - 21.0 to 24.0 Metric Tons",Florida,TEX,Track Excavators,,EROPS w AC,,,,,,,,,,,Standard,,,,,,None or Unspecified,,,,Steel,None or Unspecified,"12' 10""",None or Unspecified,Yes,Double,,,,,
1174,6272695,34000,815827,149,5.0,2000,,,12/16/2011 0:00,320CU,320,C,,U,Large / Medium,"Hydraulic Excavator, Track - 21.0 to 24.0 Metric Tons",Connecticut,TEX,Track Excavators,,EROPS w AC,,,,,,,,,,,Standard,,,,,,Hydraulic,,,,Steel,24 inch,None or Unspecified,Hydraulic,None or Unspecified,Double,,,,,
1174,6276308,50500,1518419,149,15.0,2002,,,6/22/2011 0:00,320CU,320,C,,U,Large / Medium,"Hydraulic Excavator, Track - 21.0 to 24.0 Metric Tons",Pennsylvania,TEX,Track Excavators,,EROPS w AC,,,,,,,,,,,Standard,,,,,,Hydraulic,,,,Steel,None or Unspecified,None or Unspecified,Manual,None or Unspecified,Double,,,,,
1174,6276309,67000,1899376,149,2.0,2006,,,12/7/2011 0:00,320CU,320,C,,U,Large / Medium,"Hydraulic Excavator, Track - 21.0 to 24.0 Metric Tons",Texas,TEX,Track Excavators,,EROPS w AC,,,,,,,,,,,Standard,,,,,,None or Unspecified,,,,Steel,None or Unspecified,None or Unspecified,None or Unspecified,None or Unspecified,Double,,,,,
1174,6280687,48000,1900275,149,1.0,1980,,,9/14/2011 0:00,320CU,320,C,,U,Large / Medium,"Hydraulic Excavator, Track - 21.0 to 24.0 Metric Tons",Georgia,TEX,Track Excavators,,EROPS w AC,,,,,,,,,,,Standard,,,,,,None or Unspecified,,,,Steel,None or Unspecified,None or Unspecified,None or Unspecified,None or Unspecified,Double,,,,,
