ModelID,SalesID,SalePrice,MachineID,datasource,auctioneerID,YearMade,MachineHoursCurrentMeter,UsageBand,saledate,fiModelDesc,fiBaseModel,fiSecondaryDesc,fiModelSeries,fiModelDescriptor,ProductSize,fiProductClassDesc,state,ProductGroup,ProductGroupDesc,Drive_System,Enclosure,Forks,Pad_Type,Ride_Control,Stick,Transmission,Turbocharged,Blade_Extension,Blade_Width,Enclosure_Type,Engine_Horsepower,Hydraulics,Pushblock,Ripper,Scarifier,Tip_Control,Tire_Size,Coupler,Coupler_System,Grouser_Tracks,Hydraulics_Flow,Track_Type,Undercarriage_Pad_Width,Stick_Length,Thumb,Pattern_Changer,Grouser_Type,Backhoe_Mounting,Blade_Type,Travel_Controls,Differential_Type,Steering_Controls
11792,1178465,24000,1024343,121,3.0,1994,4510.0,Medium,4/17/2008 0:00,214SII,214,S,II,,,Backhoe Loader - 14.0 to 15.0 Ft Standard Digging Depth,Virginia,BL,Backhoe Loaders,Four Wheel Drive,EROPS,Yes,None or Unspecified,No,Standard,Standard,None or Unspecified,,,,,,,,,,,,,,,,,,,,,,,,,
11792,1180559,22000,1035862,121,3.0,1995,6826.0,Medium,7/10/2008 0:00,214SII,214,S,II,,,Backhoe Loader - 14.0 to 15.0 Ft Standard Digging Depth,Ohio,BL,Backhoe Loaders,Four Wheel Drive,EROPS,Yes,None or Unspecified,No,Extended,Powershift,None or Unspecified,,,,,,,,,,,,,,,,,,,,,,,,,
11792,1208947,16500,1068452,121,3.0,1000,8461.0,Low,12/9/2010 0:00,214SII,214,S,II,,,Backhoe Loader - 14.0 to 15.0 Ft Standard Digging Depth,Maryland,BL,Backhoe Loaders,Four Wheel Drive,EROPS,None or Unspecified,None or Unspecified,No,Extended,Standard,None or Unspecified,,,,,,,,,,,,,,,,,,,,,,,,,
11792,2391297,14500,1742862,136,2.0,1000,0.0,,5/5/2010 0:00,214SII,214,S,II,,,Backhoe Loader - 14.0 to 15.0 Ft Standard Digging Depth,Texas,BL,Backhoe Loaders,Four Wheel Drive,EROPS,None or Unspecified,None or Unspecified,No,Extended,Standard,None or Unspecified,,,,,,,,,,,,,,,,,,,,,,,,,
11792,2391299,15000,1738210,136,,1000,0.0,,9/29/2009 0:00,214SII,214,S,II,,,Backhoe Loader - 14.0 to 15.0 Ft Standard Digging Depth,California,BL,Backhoe Loaders,Two Wheel Drive,OROPS,None or Unspecified,None or Unspecified,No,Extended,Standard,None or Unspecified,,,,,,,,,,,,,,,,,,,,,,,,,
11792,2680204,18000,1845327,149,1.0,1000,0.0,,3/30/2010 0:00,214SII,214,S,II,,,Backhoe Loader - 14.0 to 15.0 Ft Standard Digging Depth,Maryland,BL,Backhoe Loaders,Four Wheel Drive,OROPS,None or Unspecified,None or Unspecified,No,Extended,Standard,None or Unspecified,,,,,,,,,,,,,,,,,,,,,,,,,
11792,2684261,10000,1927109,149,12.0,1000,2610.0,Low,3/11/2011 0:00,214SII,214,S,II,,,Backhoe Loader - 14.0 to 15.0 Ft Standard Digging Depth,Mississippi,BL,Backhoe Loaders,Two Wheel Drive,OROPS,None or Unspecified,None or Unspecified,No,Standard,Standard,None or Unspecified,,,,,,,,,,,,,,,,,,,,,,,,,
11792,4347406,12000,2312633,172,1.0,1996,6814.0,Medium,8/26/2009 0:00,214SII,214,S,II,,,Backhoe Loader - 14.0 to 15.0 Ft Standard Digging Depth,Texas,BL,Backhoe Loaders,Two Wheel Drive,OROPS,Yes,None or Unspecified,No,Standard,Standard,None or Unspecified,,,,,,,,,,,,,,,,,,,,,,,,,
11792,6294908,15500,1937668,149,2.0,1995,,,11/16/2011 0:00,214SII,214,S,II,,,Backhoe Loader - 14.0 to 15.0 Ft Standard Digging Depth,Mississippi,BL,Backhoe Loaders,Two Wheel Drive,OROPS,Yes,None or Unspecified,No,Standard,Standard,None or Unspecified,,,,,,,,,,,,,,,,,,,,,,,,,
