ModelID,SalesID,SalePrice,MachineID,datasource,auctioneerID,YearMade,MachineHoursCurrentMeter,UsageBand,saledate,fiModelDesc,fiBaseModel,fiSecondaryDesc,fiModelSeries,fiModelDescriptor,ProductSize,fiProductClassDesc,state,ProductGroup,ProductGroupDesc,Drive_System,Enclosure,Forks,Pad_Type,Ride_Control,Stick,Transmission,Turbocharged,Blade_Extension,Blade_Width,Enclosure_Type,Engine_Horsepower,Hydraulics,Pushblock,Ripper,Scarifier,Tip_Control,Tire_Size,Coupler,Coupler_System,Grouser_Tracks,Hydraulics_Flow,Track_Type,Undercarriage_Pad_Width,Stick_Length,Thumb,Pattern_Changer,Grouser_Type,Backhoe_Mounting,Blade_Type,Travel_Controls,Differential_Type,Steering_Controls
11818,1718099,25000,1350530,132,1.0,1999,12656.0,Medium,12/3/2010 0:00,60ZIV,60,Z,IV,,,Wheel Loader - 100.0 to 110.0 Horsepower,Utah,WL,Wheel Loader,,EROPS,None or Unspecified,,None or Unspecified,,,,,,,,2 Valve,,,,,17.5,None or Unspecified,,,,,,,,,,,,,Standard,Conventional
11818,1718100,29000,1186369,132,1.0,1998,5585.0,Low,2/16/2011 0:00,60ZIV,60,Z,IV,,,Wheel Loader - 100.0 to 110.0 Horsepower,Florida,WL,Wheel Loader,,EROPS w AC,Yes,,None or Unspecified,,,,,,,,2 Valve,,,,,17.5,None or Unspecified,,,,,,,,,,,,,Standard,Conventional
11818,2393635,20000,1788393,136,,1000,0.0,,9/5/2007 0:00,60ZIV,60,Z,IV,,,Wheel Loader - 100.0 to 110.0 Horsepower,Alabama,WL,Wheel Loader,,EROPS,None or Unspecified,,None or Unspecified,,,,,,,,2 Valve,,,,,17.5,None or Unspecified,,,,,,,,,,,,,Standard,Conventional
11818,2393754,23000,1768995,136,,1997,4600.0,Low,10/4/2008 0:00,60ZIV,60,Z,IV,,,Wheel Loader - 100.0 to 110.0 Horsepower,New York,WL,Wheel Loader,,EROPS,None or Unspecified,,None or Unspecified,,,,,,,,2 Valve,,,,,None or Unspecified,Manual,,,,,,,,,,,,,Standard,Conventional
11818,2393756,21000,1650258,136,,1998,0.0,,12/19/2008 0:00,60ZIV,60,Z,IV,,,Wheel Loader - 100.0 to 110.0 Horsepower,New Jersey,WL,Wheel Loader,,EROPS w AC,None or Unspecified,,None or Unspecified,,,,,,,,2 Valve,,,,,None or Unspecified,None or Unspecified,,,,,,,,,,,,,Standard,Conventional
11818,2393758,23000,1655886,136,,1998,0.0,,2/11/2008 0:00,60ZIV,60,Z,IV,,,Wheel Loader - 100.0 to 110.0 Horsepower,Florida,WL,Wheel Loader,,OROPS,None or Unspecified,,None or Unspecified,,,,,,,,2 Valve,,,,,None or Unspecified,None or Unspecified,,,,,,,,,,,,,Standard,Conventional
11818,2393759,20000,1726162,136,,1999,0.0,,2/11/2008 0:00,60ZIV,60,Z,IV,,,Wheel Loader - 100.0 to 110.0 Horsepower,Florida,WL,Wheel Loader,,OROPS,None or Unspecified,,None or Unspecified,,,,,,,,2 Valve,,,,,None or Unspecified,None or Unspecified,,,,,,,,,,,,,Standard,Conventional
11818,2393760,21000,1726162,136,,1998,0.0,,8/8/2007 0:00,60ZIV,60,Z,IV,,,Wheel Loader - 100.0 to 110.0 Horsepower,Florida,WL,Wheel Loader,,OROPS,None or Unspecified,,None or Unspecified,,,,,,,,2 Valve,,,,,None or Unspecified,None or Unspecified,,,,,,,,,,,,,Standard,Conventional
11818,2393762,25000,535952,136,1.0,1000,0.0,,2/19/2008 0:00,60ZIV,60,Z,IV,,,Wheel Loader - 100.0 to 110.0 Horsepower,Florida,WL,Wheel Loader,,EROPS w AC,None or Unspecified,,None or Unspecified,,,,,,,,2 Valve,,,,,None or Unspecified,None or Unspecified,,,,,,,,,,,,,Standard,Conventional
11818,2393764,19000,1764590,136,1.0,1999,0.0,,5/25/2010 0:00,60ZIV,60,Z,IV,,,Wheel Loader - 100.0 to 110.0 Horsepower,Florida,WL,Wheel Loader,,OROPS,None or Unspecified,,None or Unspecified,,,,,,,,2 Valve,,,,,None or Unspecified,None or Unspecified,,,,,,,,,,,,,Standard,Conventional
11818,2393769,21000,1407575,136,1.0,2001,0.0,,2/19/2008 0:00,60ZIV,60,Z,IV,,,Wheel Loader - 100.0 to 110.0 Horsepower,Florida,WL,Wheel Loader,,OROPS,None or Unspecified,,None or Unspecified,,,,,,,,2 Valve,,,,,17.5,None or Unspecified,,,,,,,,,,,,,Standard,Conventional
11818,2393770,20000,1214561,136,1.0,2001,0.0,,3/25/2010 0:00,60ZIV,60,Z,IV,,,Wheel Loader - 100.0 to 110.0 Horsepower,Georgia,WL,Wheel Loader,,OROPS,Yes,,None or Unspecified,,,,,,,,2 Valve,,,,,17.5,Manual,,,,,,,,,,,,,Standard,Conventional
11818,2393772,26750,1694583,136,,1000,0.0,,10/11/2008 0:00,60ZIV,60,Z,IV,,,Wheel Loader - 100.0 to 110.0 Horsepower,Florida,WL,Wheel Loader,,OROPS,None or Unspecified,,None or Unspecified,,,,,,,,2 Valve,,,,,None or Unspecified,None or Unspecified,,,,,,,,,,,,,Standard,Conventional
11818,2393773,27500,374869,136,1.0,2002,0.0,,11/12/2008 0:00,60ZIV,60,Z,IV,,,Wheel Loader - 100.0 to 110.0 Horsepower,Arizona,WL,Wheel Loader,,EROPS,None or Unspecified,,None or Unspecified,,,,,,,,2 Valve,,,,,None or Unspecified,Manual,,,,,,,,,,,,,Standard,Conventional
11818,2393774,24000,1767367,136,1.0,2002,0.0,,6/17/2008 0:00,60ZIV,60,Z,IV,,,Wheel Loader - 100.0 to 110.0 Horsepower,Washington,WL,Wheel Loader,,EROPS,None or Unspecified,,None or Unspecified,,,,,,,,2 Valve,,,,,None or Unspecified,Manual,,,,,,,,,,,,,Standard,Conventional
11818,2393775,23000,1776686,136,1.0,2002,0.0,,5/25/2010 0:00,60ZIV,60,Z,IV,,,Wheel Loader - 100.0 to 110.0 Horsepower,Florida,WL,Wheel Loader,,OROPS,Yes,,None or Unspecified,,,,,,,,2 Valve,,,,,None or Unspecified,None or Unspecified,,,,,,,,,,,,,Standard,Conventional
11818,2393778,31000,1737571,136,1.0,2002,0.0,,8/15/2008 0:00,60ZIV,60,Z,IV,,,Wheel Loader - 100.0 to 110.0 Horsepower,Nevada,WL,Wheel Loader,,EROPS w AC,None or Unspecified,,None or Unspecified,,,,,,,,2 Valve,,,,,None or Unspecified,None or Unspecified,,,,,,,,,,,,,Standard,Conventional
11818,2393779,29000,1784257,136,1.0,2002,0.0,,6/23/2008 0:00,60ZIV,60,Z,IV,,,Wheel Loader - 100.0 to 110.0 Horsepower,California,WL,Wheel Loader,,EROPS w AC,None or Unspecified,,None or Unspecified,,,,,,,,2 Valve,,,,,None or Unspecified,None or Unspecified,,,,,,,,,,,,,Standard,Conventional
11818,2393781,23000,1731239,136,1.0,2003,0.0,,5/28/2008 0:00,60ZIV,60,Z,IV,,,Wheel Loader - 100.0 to 110.0 Horsepower,Florida,WL,Wheel Loader,,OROPS,None or Unspecified,,None or Unspecified,,,,,,,,2 Valve,,,,,None or Unspecified,Manual,,,,,,,,,,,,,Standard,Conventional
11818,2393789,24000,1783708,136,,1996,0.0,,2/3/2008 0:00,60ZIV,60,Z,IV,,,Wheel Loader - 100.0 to 110.0 Horsepower,Florida,WL,Wheel Loader,,OROPS,None or Unspecified,,None or Unspecified,,,,,,,,2 Valve,,,,,None or Unspecified,None or Unspecified,,,,,,,,,,,,,Standard,Conventional
11818,2393790,27500,1787131,136,1.0,1000,0.0,,5/20/2009 0:00,60ZIV,60,Z,IV,,,Wheel Loader - 100.0 to 110.0 Horsepower,California,WL,Wheel Loader,,EROPS,None or Unspecified,,None or Unspecified,,,,,,,,2 Valve,,,,,None or Unspecified,None or Unspecified,,,,,,,,,,,,,Standard,Conventional
11818,2393792,27500,1741622,136,,1000,0.0,,2/11/2008 0:00,60ZIV,60,Z,IV,,,Wheel Loader - 100.0 to 110.0 Horsepower,Florida,WL,Wheel Loader,,EROPS w AC,None or Unspecified,,None or Unspecified,,,,,,,,2 Valve,,,,,None or Unspecified,None or Unspecified,,,,,,,,,,,,,Standard,Conventional
11818,2393875,30500,1709399,136,,1999,0.0,,11/7/2008 0:00,60ZIV,60,Z,IV,,,Wheel Loader - 100.0 to 110.0 Horsepower,Illinois,WL,Wheel Loader,,EROPS w AC,None or Unspecified,,None or Unspecified,,,,,,,,2 Valve,,,,,20.5,Manual,,,,,,,,,,,,,Standard,Conventional
11818,2394054,19000,1669527,136,,1000,8380.0,Low,5/15/2008 0:00,60ZIV,60,Z,IV,,,Wheel Loader - 100.0 to 110.0 Horsepower,Michigan,WL,Wheel Loader,,OROPS,None or Unspecified,,None or Unspecified,,,,,,,,2 Valve,,,,,20.5,None or Unspecified,,,,,,,,,,,,,Standard,Conventional
11818,2686148,29000,1816862,149,1.0,1998,5585.0,Low,2/15/2011 0:00,60ZIV,60,Z,IV,,,Wheel Loader - 100.0 to 110.0 Horsepower,Florida,WL,Wheel Loader,,EROPS w AC,Yes,,None or Unspecified,,,,,,,,2 Valve,,,,,None or Unspecified,None or Unspecified,,,,,,,,,,,,,Standard,Conventional
11818,4352418,24000,2297925,172,1.0,1996,6936.0,Low,12/13/2011 0:00,60ZIV,60,Z,IV,,,Wheel Loader - 100.0 to 110.0 Horsepower,North Carolina,WL,Wheel Loader,,EROPS w AC,None or Unspecified,,None or Unspecified,,,,,,,,2 Valve,,,,,None or Unspecified,None or Unspecified,,,,,,,,,,,,,Standard,Conventional
11818,6299249,25500,1886956,149,2.0,1000,,,12/30/2011 0:00,60ZIV,60,Z,IV,,,Wheel Loader - 100.0 to 110.0 Horsepower,New York,WL,Wheel Loader,,EROPS,None or Unspecified,,None or Unspecified,,,,,,,,3 Valve,,,,,None or Unspecified,Manual,,,,,,,,,,,,,Standard,Conventional
11818,6299251,32000,1784257,149,1.0,2003,,,12/15/2011 0:00,60ZIV,60,Z,IV,,,Wheel Loader - 100.0 to 110.0 Horsepower,California,WL,Wheel Loader,,EROPS w AC,None or Unspecified,,None or Unspecified,,,,,,,,2 Valve,,,,,None or Unspecified,None or Unspecified,,,,,,,,,,,,,Standard,Conventional
11818,6299254,24000,1913610,149,1.0,1996,,,12/14/2011 0:00,60ZIV,60,Z,IV,,,Wheel Loader - 100.0 to 110.0 Horsepower,North Carolina,WL,Wheel Loader,,EROPS,None or Unspecified,,None or Unspecified,,,,,,,,2 Valve,,,,,None or Unspecified,None or Unspecified,,,,,,,,,,,,,Standard,Conventional
11818,6299255,34000,1909834,149,1.0,1996,,,10/11/2011 0:00,60ZIV,60,Z,IV,,,Wheel Loader - 100.0 to 110.0 Horsepower,Colorado,WL,Wheel Loader,,EROPS,None or Unspecified,,None or Unspecified,,,,,,,,2 Valve,,,,,None or Unspecified,None or Unspecified,,,,,,,,,,,,,Standard,Conventional
