SalesID,2686064
SalePrice,26000
MachineID,1868574
datasource,149
auctioneerID,1.0
YearMade,1997
MachineHoursCurrentMeter,21809.0
UsageBand,High
saledate,5/18/2011 0:00
fiModelDesc,115Z
fiBaseModel,115
fiSecondaryDesc,Z
fiModelSeries,
fiModelDescriptor,
ProductSize,Large
fiProductClassDesc,Wheel Loader - 350.0 to 500.0 Horsepower
state,Florida
ProductGroup,WL
ProductGroupDesc,Wheel Loader
Drive_System,
Enclosure,EROPS w AC
Forks,None or Unspecified
Pad_Type,
Ride_Control,None or Unspecified
Stick,
Transmission,
Turbocharged,
Blade_Extension,
Blade_Width,
Enclosure_Type,
Engine_Horsepower,
Hydraulics,2 Valve
Pushblock,
Ripper,
Scarifier,
Tip_Control,
Tire_Size,None or Unspecified
Coupler,None or Unspecified
Coupler_System,
Grouser_Tracks,
Hydraulics_Flow,
Track_Type,
Undercarriage_Pad_Width,
Stick_Length,
Thumb,
Pattern_Changer,
Grouser_Type,
Backhoe_Mounting,
Blade_Type,
Travel_Controls,
Differential_Type,Standard
Steering_Controls,Conventional
