SalesID,1727884
SalePrice,61000
MachineID,1166581
datasource,132
auctioneerID,2.0
YearMade,1989
MachineHoursCurrentMeter,
UsageBand,
saledate,9/18/1993 0:00
fiModelDesc,D475A
fiBaseModel,D475
fiSecondaryDesc,A
fiModelSeries,
fiModelDescriptor,
ProductSize,Large
fiProductClassDesc,"Track Type Tractor, Dozer - 260.0 + Horsepower"
state,Pennsylvania
ProductGroup,TTT
ProductGroupDesc,Track Type Tractors
Drive_System,
Enclosure,EROPS w AC
Forks,
Pad_Type,
Ride_Control,
Stick,
Transmission,
Turbocharged,
Blade_Extension,
Blade_Width,
Enclosure_Type,
Engine_Horsepower,
Hydraulics,
Pushblock,
Ripper,
Scarifier,
Tip_Control,
Tire_Size,
Coupler,
Coupler_System,
Grouser_Tracks,
Hydraulics_Flow,
Track_Type,
Undercarriage_Pad_Width,
Stick_Length,
Thumb,
Pattern_Changer,
Grouser_Type,
Backhoe_Mounting,
Blade_Type,U
Travel_Controls,
Differential_Type,
Steering_Controls,
