ModelID,SalesID,SalePrice,MachineID,datasource,auctioneerID,YearMade,MachineHoursCurrentMeter,UsageBand,saledate,fiModelDesc,fiBaseModel,fiSecondaryDesc,fiModelSeries,fiModelDescriptor,ProductSize,fiProductClassDesc,state,ProductGroup,ProductGroupDesc,Drive_System,Enclosure,Forks,Pad_Type,Ride_Control,Stick,Transmission,Turbocharged,Blade_Extension,Blade_Width,Enclosure_Type,Engine_Horsepower,Hydraulics,Pushblock,Ripper,Scarifier,Tip_Control,Tire_Size,Coupler,Coupler_System,Grouser_Tracks,Hydraulics_Flow,Track_Type,Undercarriage_Pad_Width,Stick_Length,Thumb,Pattern_Changer,Grouser_Type,Backhoe_Mounting,Blade_Type,Travel_Controls,Differential_Type,Steering_Controls
11941,1761277,105000,1094938,132,4.0,2001,,,2/15/2006 0:00,D87E-2,D87,E,-2,,Large,"Track Type Tractor, Dozer - 190.0 to 260.0 Horsepower",Florida,TTT,Track Type Tractors,,EROPS w AC,,,,,Standard,,,,,,2 Valve,,None or Unspecified,,,,,,,,,,,,,,None or Unspecified,Semi U,None or Unspecified,,
11941,1761278,105000,1094938,132,4.0,2001,,,2/13/2006 0:00,D87E-2,D87,E,-2,,Large,"Track Type Tractor, Dozer - 190.0 to 260.0 Horsepower",Florida,TTT,Track Type Tractors,,EROPS w AC,,,,,Standard,,,,,,2 Valve,,None or Unspecified,,,,,,,,,,,,,,None or Unspecified,Semi U,None or Unspecified,,
11941,1761279,59000,1427645,132,4.0,2001,,,2/14/2007 0:00,D87E-2,D87,E,-2,,Large,"Track Type Tractor, Dozer - 190.0 to 260.0 Horsepower",Florida,TTT,Track Type Tractors,,EROPS w AC,,,,,Standard,,,,,,2 Valve,,None or Unspecified,,,,,,,,,,,,,,None or Unspecified,Semi U,None or Unspecified,,
11941,1761280,59000,1427645,132,4.0,2001,,,2/12/2007 0:00,D87E-2,D87,E,-2,,Large,"Track Type Tractor, Dozer - 190.0 to 260.0 Horsepower",Florida,TTT,Track Type Tractors,,EROPS w AC,,,,,Standard,,,,,,2 Valve,,None or Unspecified,,,,,,,,,,,,,,None or Unspecified,Semi U,None or Unspecified,,
11941,1761283,30000,1090418,132,2.0,2004,,,3/4/2009 0:00,D87E-2,D87,E,-2,,Large,"Track Type Tractor, Dozer - 190.0 to 260.0 Horsepower",Texas,TTT,Track Type Tractors,,EROPS w AC,,,,,Standard,,,,,,2 Valve,,None or Unspecified,,,,,,,,,,,,,,None or Unspecified,Semi U,None or Unspecified,,
11941,2406151,67500,1197162,136,1.0,2001,0.0,,5/7/2008 0:00,D87E-2,D87,E,-2,,Large,"Track Type Tractor, Dozer - 190.0 to 260.0 Horsepower",Texas,TTT,Track Type Tractors,,EROPS w AC,,,,,Standard,,,,,,2 Valve,,Multi Shank,,,,,,,,,,,,,,None or Unspecified,Semi U,None or Unspecified,,
