SalesID,1735455
SalePrice,30000
MachineID,1252631
datasource,132
auctioneerID,1.0
YearMade,1000
MachineHoursCurrentMeter,
UsageBand,
saledate,2/15/2007 0:00
fiModelDesc,GD705R-2
fiBaseModel,GD705
fiSecondaryDesc,R
fiModelSeries,-2
fiModelDescriptor,
ProductSize,
fiProductClassDesc,Motorgrader - 200.0 + Horsepower
state,Arizona
ProductGroup,MG
ProductGroupDesc,Motor Graders
Drive_System,
Enclosure,EROPS w AC
Forks,
Pad_Type,
Ride_Control,
Stick,
Transmission,
Turbocharged,
Blade_Extension,
Blade_Width,
Enclosure_Type,
Engine_Horsepower,
Hydraulics,Auxiliary
Pushblock,
Ripper,
Scarifier,
Tip_Control,
Tire_Size,
Coupler,
Coupler_System,
Grouser_Tracks,
Hydraulics_Flow,
Track_Type,
Undercarriage_Pad_Width,
Stick_Length,
Thumb,
Pattern_Changer,
Grouser_Type,
Backhoe_Mounting,
Blade_Type,
Travel_Controls,
Differential_Type,
Steering_Controls,
