ModelID,SalesID,SalePrice,MachineID,datasource,auctioneerID,YearMade,MachineHoursCurrentMeter,UsageBand,saledate,fiModelDesc,fiBaseModel,fiSecondaryDesc,fiModelSeries,fiModelDescriptor,ProductSize,fiProductClassDesc,state,ProductGroup,ProductGroupDesc,Drive_System,Enclosure,Forks,Pad_Type,Ride_Control,Stick,Transmission,Turbocharged,Blade_Extension,Blade_Width,Enclosure_Type,Engine_Horsepower,Hydraulics,Pushblock,Ripper,Scarifier,Tip_Control,Tire_Size,Coupler,Coupler_System,Grouser_Tracks,Hydraulics_Flow,Track_Type,Undercarriage_Pad_Width,Stick_Length,Thumb,Pattern_Changer,Grouser_Type,Backhoe_Mounting,Blade_Type,Travel_Controls,Differential_Type,Steering_Controls
11993,1145411,15000,1019376,121,3.0,2003,2120.0,Medium,10/5/2006 0:00,PC35MR-1,PC35,MR,-1,,Mini,"Hydraulic Excavator, Track - 3.0 to 4.0 Metric Tons",Florida,TEX,Track Excavators,,EROPS w AC,,,,,,,,,,,Standard,,,,,,None or Unspecified,,,,Rubber,None or Unspecified,None or Unspecified,None or Unspecified,None or Unspecified,Double,,,,,
11993,1155166,15500,1047485,121,3.0,2003,2150.0,Low,10/5/2006 0:00,PC35MR-1,PC35,MR,-1,,Mini,"Hydraulic Excavator, Track - 3.0 to 4.0 Metric Tons",Florida,TEX,Track Excavators,,EROPS w AC,,,,,,,,,,,,,,,,,,,,,,,,,,,,,,,
11993,1158343,15000,1057031,121,3.0,2003,1782.0,Medium,10/5/2006 0:00,PC35MR-1,PC35,MR,-1,,Mini,"Hydraulic Excavator, Track - 3.0 to 4.0 Metric Tons",Florida,TEX,Track Excavators,,EROPS,,,,,,,,,,,Standard,,,,,,None or Unspecified,,,,Rubber,None or Unspecified,None or Unspecified,None or Unspecified,None or Unspecified,Double,,,,,
11993,1159180,13000,1028069,121,3.0,2006,0.0,,3/25/2010 0:00,PC35MR-1,PC35,MR,-1,,Mini,"Hydraulic Excavator, Track - 3.0 to 4.0 Metric Tons",Texas,TEX,Track Excavators,,EROPS,,,,,,,,,,,Auxiliary,,,,,,None or Unspecified,,,,Rubber,None or Unspecified,None or Unspecified,None or Unspecified,None or Unspecified,Double,,,,,
11993,1159652,14000,1024717,121,3.0,2001,1947.0,Low,10/5/2006 0:00,PC35MR-1,PC35,MR,-1,,Mini,"Hydraulic Excavator, Track - 3.0 to 4.0 Metric Tons",Florida,TEX,Track Excavators,,EROPS,,,,,,,,,,,Auxiliary,,,,,,None or Unspecified,,,,Rubber,None or Unspecified,None or Unspecified,None or Unspecified,None or Unspecified,Double,,,,,
11993,1167710,16000,1027887,121,3.0,2003,1998.0,Medium,10/5/2006 0:00,PC35MR-1,PC35,MR,-1,,Mini,"Hydraulic Excavator, Track - 3.0 to 4.0 Metric Tons",Florida,TEX,Track Excavators,,EROPS,,,,,,,,,,,Standard,,,,,,None or Unspecified,,,,Rubber,30 inch,None or Unspecified,None or Unspecified,None or Unspecified,Double,,,,,
11993,1189149,8000,1012636,121,3.0,2003,1375.0,Low,4/16/2009 0:00,PC35MR-1,PC35,MR,-1,,Mini,"Hydraulic Excavator, Track - 3.0 to 4.0 Metric Tons",Illinois,TEX,Track Excavators,,EROPS,,,,,,,,,,,Auxiliary,,,,,,Manual,,,,Rubber,None or Unspecified,None or Unspecified,None or Unspecified,None or Unspecified,Double,,,,,
11993,1192762,8000,998665,121,3.0,2004,3524.0,Medium,9/17/2009 0:00,PC35MR-1,PC35,MR,-1,,Mini,"Hydraulic Excavator, Track - 3.0 to 4.0 Metric Tons",Florida,TEX,Track Excavators,,EROPS,,,,,,,,,,,Auxiliary,,,,,,None or Unspecified,,,,Rubber,None or Unspecified,None or Unspecified,Manual,None or Unspecified,Double,,,,,
11993,1206184,15000,1002439,121,3.0,2007,1705.0,Medium,9/9/2010 0:00,PC35MR-1,PC35,MR,-1,,Mini,"Hydraulic Excavator, Track - 3.0 to 4.0 Metric Tons",Texas,TEX,Track Excavators,,EROPS,,,,,,,,,,,Auxiliary,,,,,,None or Unspecified,,,,Rubber,None or Unspecified,None or Unspecified,None or Unspecified,None or Unspecified,Double,,,,,
11993,1744444,10750,1522836,132,4.0,1996,,,2/16/2006 0:00,PC35MR-1,PC35,MR,-1,,Mini,"Hydraulic Excavator, Track - 3.0 to 4.0 Metric Tons",Florida,TEX,Track Excavators,,EROPS,,,,,,,,,,,Standard,,,,,,None or Unspecified,,,,Rubber,None or Unspecified,None or Unspecified,None or Unspecified,None or Unspecified,Double,,,,,
11993,1744445,10750,1522836,132,4.0,1996,,,2/13/2006 0:00,PC35MR-1,PC35,MR,-1,,Mini,"Hydraulic Excavator, Track - 3.0 to 4.0 Metric Tons",Florida,TEX,Track Excavators,,EROPS,,,,,,,,,,,Standard,,,,,,None or Unspecified,,,,Rubber,None or Unspecified,None or Unspecified,None or Unspecified,None or Unspecified,Double,,,,,
11993,1745022,14500,1137296,132,2.0,1000,,,7/27/2002 0:00,PC35MR-1,PC35,MR,-1,,Mini,"Hydraulic Excavator, Track - 3.0 to 4.0 Metric Tons",Ohio,TEX,Track Excavators,,EROPS,,,,,,,,,,,Standard,,,,,,None or Unspecified,,,,Steel,None or Unspecified,None or Unspecified,None or Unspecified,None or Unspecified,Double,,,,,
11993,1745055,13000,1150844,132,2.0,1998,,,3/30/2005 0:00,PC35MR-1,PC35,MR,-1,,Mini,"Hydraulic Excavator, Track - 3.0 to 4.0 Metric Tons",Texas,TEX,Track Excavators,,EROPS,,,,,,,,,,,Auxiliary,,,,,,None or Unspecified,,,,Steel,None or Unspecified,None or Unspecified,None or Unspecified,None or Unspecified,Double,,,,,
11993,1745220,10500,1482046,132,2.0,1999,,,3/30/2005 0:00,PC35MR-1,PC35,MR,-1,,Mini,"Hydraulic Excavator, Track - 3.0 to 4.0 Metric Tons",Texas,TEX,Track Excavators,,EROPS,,,,,,,,,,,Standard,,,,,,None or Unspecified,,,,Steel,None or Unspecified,None or Unspecified,None or Unspecified,None or Unspecified,Double,,,,,
11993,1746724,13500,1507615,132,1.0,2003,,,11/16/2006 0:00,PC35MR-1,PC35,MR,-1,,Mini,"Hydraulic Excavator, Track - 3.0 to 4.0 Metric Tons",Texas,TEX,Track Excavators,,EROPS,,,,,,,,,,,Auxiliary,,,,,,None or Unspecified,,,,Steel,None or Unspecified,None or Unspecified,None or Unspecified,None or Unspecified,Double,,,,,
11993,1746762,22000,1537534,132,1.0,2003,,,5/26/2005 0:00,PC35MR-1,PC35,MR,-1,,Mini,"Hydraulic Excavator, Track - 3.0 to 4.0 Metric Tons",Florida,TEX,Track Excavators,,EROPS,,,,,,,,,,,Standard,,,,,,None or Unspecified,,,,Rubber,None or Unspecified,None or Unspecified,None or Unspecified,None or Unspecified,Double,,,,,
11993,1747396,13000,1391599,132,1.0,2003,,,2/22/2008 0:00,PC35MR-1,PC35,MR,-1,,Mini,"Hydraulic Excavator, Track - 3.0 to 4.0 Metric Tons",Florida,TEX,Track Excavators,,EROPS,,,,,,,,,,,Auxiliary,,,,,,None or Unspecified,,,,Rubber,None or Unspecified,None or Unspecified,None or Unspecified,None or Unspecified,Double,,,,,
11993,1750810,18000,1171696,132,99.0,2007,465.0,Low,11/18/2009 0:00,PC35MR-1,PC35,MR,-1,,Mini,"Hydraulic Excavator, Track - 3.0 to 4.0 Metric Tons",Arizona,TEX,Track Excavators,,EROPS,,,,,,,,,,,Standard,,,,,,None or Unspecified,,,,Steel,None or Unspecified,None or Unspecified,None or Unspecified,None or Unspecified,Double,,,,,
11993,1752413,9200,1540725,132,99.0,2004,,,5/5/2009 0:00,PC35MR-1,PC35,MR,-1,,Mini,"Hydraulic Excavator, Track - 3.0 to 4.0 Metric Tons",Texas,TEX,Track Excavators,,EROPS,,,,,,,,,,,Auxiliary,,,,,,None or Unspecified,,,,Steel,None or Unspecified,None or Unspecified,None or Unspecified,None or Unspecified,Double,,,,,
11993,1761577,15000,1452621,132,3.0,2007,,,9/9/2010 0:00,PC35MR-1,PC35,MR,-1,,Mini,"Hydraulic Excavator, Track - 3.0 to 4.0 Metric Tons",California,TEX,Track Excavators,,EROPS,,,,,,,,,,,Auxiliary,,,,,,None or Unspecified,,,,Steel,None or Unspecified,None or Unspecified,None or Unspecified,None or Unspecified,Double,,,,,
11993,1761793,11750,1090896,132,12.0,1000,,,3/17/2010 0:00,PC35MR-1,PC35,MR,-1,,Mini,"Hydraulic Excavator, Track - 3.0 to 4.0 Metric Tons",South Carolina,TEX,Track Excavators,,EROPS,,,,,,,,,,,Standard,,,,,,None or Unspecified,,,,Steel,None or Unspecified,None or Unspecified,Hydraulic,None or Unspecified,Double,,,,,
11993,1776718,13750,1199748,132,5.0,2005,,,6/26/2009 0:00,PC35MR-1,PC35,MR,-1,,Mini,"Hydraulic Excavator, Track - 3.0 to 4.0 Metric Tons",Connecticut,TEX,Track Excavators,,EROPS,,,,,,,,,,,Auxiliary,,,,,,None or Unspecified,,,,Steel,None or Unspecified,None or Unspecified,None or Unspecified,None or Unspecified,Double,,,,,
11993,2404632,15000,1127627,136,1.0,2001,1231.0,Low,6/18/2008 0:00,PC35MR-1,PC35,MR,-1,,Mini,"Hydraulic Excavator, Track - 3.0 to 4.0 Metric Tons",Illinois,TEX,Track Excavators,,EROPS,,,,,,,,,,,Standard,,,,,,None or Unspecified,,,,Rubber,None or Unspecified,None or Unspecified,None or Unspecified,None or Unspecified,Double,,,,,
11993,2405123,9600,1458618,136,9.0,1000,1400.0,Low,5/7/2009 0:00,PC35MR-1,PC35,MR,-1,,Mini,"Hydraulic Excavator, Track - 3.0 to 4.0 Metric Tons",South Carolina,TEX,Track Excavators,,EROPS,,,,,,,,,,,Standard,,,,,,None or Unspecified,,,,Rubber,None or Unspecified,None or Unspecified,None or Unspecified,None or Unspecified,Double,,,,,
11993,2405290,15500,1373413,136,2.0,2003,0.0,,8/7/2008 0:00,PC35MR-1,PC35,MR,-1,,Mini,"Hydraulic Excavator, Track - 3.0 to 4.0 Metric Tons",Florida,TEX,Track Excavators,,EROPS,,,,,,,,,,,Standard,,,,,,None or Unspecified,,,,Rubber,None or Unspecified,None or Unspecified,None or Unspecified,None or Unspecified,Double,,,,,
11993,2405350,22000,1684876,136,,2003,0.0,,9/13/2008 0:00,PC35MR-1,PC35,MR,-1,,Mini,"Hydraulic Excavator, Track - 3.0 to 4.0 Metric Tons",New Hampshire,TEX,Track Excavators,,EROPS,,,,,,,,,,,Auxiliary,,,,,,Manual,,,,Steel,None or Unspecified,None or Unspecified,None or Unspecified,None or Unspecified,Double,,,,,
11993,2405364,15500,1355566,136,1.0,2003,1757.0,Low,11/12/2008 0:00,PC35MR-1,PC35,MR,-1,,Mini,"Hydraulic Excavator, Track - 3.0 to 4.0 Metric Tons",Arizona,TEX,Track Excavators,,EROPS,,,,,,,,,,,Standard,,,,,,None or Unspecified,,,,Rubber,None or Unspecified,None or Unspecified,Hydraulic,None or Unspecified,Double,,,,,
11993,2405376,8500,1391599,136,1.0,2003,2283.0,Medium,2/19/2008 0:00,PC35MR-1,PC35,MR,-1,,Mini,"Hydraulic Excavator, Track - 3.0 to 4.0 Metric Tons",Florida,TEX,Track Excavators,,EROPS,,,,,,,,,,,Auxiliary,,,,,,None or Unspecified,,,,Rubber,None or Unspecified,None or Unspecified,None or Unspecified,None or Unspecified,Double,,,,,
11993,2410259,17000,1330250,136,7.0,2005,0.0,,12/5/2007 0:00,PC35MR-1,PC35,MR,-1,,Mini,"Hydraulic Excavator, Track - 3.0 to 4.0 Metric Tons",Alabama,TEX,Track Excavators,,EROPS,,,,,,,,,,,Standard,,,,,,None or Unspecified,,,,Rubber,None or Unspecified,None or Unspecified,None or Unspecified,None or Unspecified,Double,,,,,
11993,2411479,18000,1216786,136,8.0,2007,790.0,Low,4/2/2009 0:00,PC35MR-1,PC35,MR,-1,,Mini,"Hydraulic Excavator, Track - 3.0 to 4.0 Metric Tons",Mississippi,TEX,Track Excavators,,EROPS,,,,,,,,,,,Standard,,,,,,None or Unspecified,,,,Rubber,None or Unspecified,None or Unspecified,Manual,None or Unspecified,Double,,,,,
11993,2421095,16500,1719172,136,,2005,391.0,Low,6/1/2007 0:00,PC35MR-1,PC35,MR,-1,,Mini,"Hydraulic Excavator, Track - 3.0 to 4.0 Metric Tons",Mississippi,TEX,Track Excavators,,EROPS,,,,,,,,,,,Standard,,,,,,None or Unspecified,,,,Steel,None or Unspecified,None or Unspecified,None or Unspecified,None or Unspecified,Double,,,,,
11993,2421096,14000,1084827,136,1.0,2005,1464.0,Low,3/3/2009 0:00,PC35MR-1,PC35,MR,-1,,Mini,"Hydraulic Excavator, Track - 3.0 to 4.0 Metric Tons",California,TEX,Track Excavators,,EROPS,,,,,,,,,,,Auxiliary,,,,,,None or Unspecified,,,,Rubber,None or Unspecified,None or Unspecified,Hydraulic,None or Unspecified,Double,,,,,
11993,2421115,17000,1696679,136,,2005,415.0,Low,6/1/2007 0:00,PC35MR-1,PC35,MR,-1,,Mini,"Hydraulic Excavator, Track - 3.0 to 4.0 Metric Tons",Mississippi,TEX,Track Excavators,,EROPS,,,,,,,,,,,Standard,,,,,,None or Unspecified,,,,Steel,None or Unspecified,None or Unspecified,None or Unspecified,None or Unspecified,Double,,,,,
11993,2421118,9200,1782048,136,,2004,0.0,,5/5/2009 0:00,PC35MR-1,PC35,MR,-1,,Mini,"Hydraulic Excavator, Track - 3.0 to 4.0 Metric Tons",Texas,TEX,Track Excavators,,EROPS,,,,,,,,,,,Auxiliary,,,,,,None or Unspecified,,,,Rubber,None or Unspecified,None or Unspecified,None or Unspecified,None or Unspecified,Double,,,,,
11993,2421121,9500,1709683,136,2.0,1000,0.0,,6/19/2010 0:00,PC35MR-1,PC35,MR,-1,,Mini,"Hydraulic Excavator, Track - 3.0 to 4.0 Metric Tons",New Jersey,TEX,Track Excavators,,EROPS,,,,,,,,,,,Auxiliary,,,,,,None or Unspecified,,,,Rubber,None or Unspecified,None or Unspecified,None or Unspecified,None or Unspecified,Double,,,,,
11993,4361129,10500,1410420,172,1.0,2007,1957.0,Medium,10/19/2010 0:00,PC35MR-1,PC35,MR,-1,,Mini,"Hydraulic Excavator, Track - 3.0 to 4.0 Metric Tons",Texas,TEX,Track Excavators,,EROPS,,,,,,,,,,,Auxiliary,,,,,,None or Unspecified,,,,Steel,None or Unspecified,None or Unspecified,None or Unspecified,None or Unspecified,Double,,,,,
11993,4362606,10000,2276916,172,1.0,2004,,,10/25/2011 0:00,PC35MR-1,PC35,MR,-1,,Mini,"Hydraulic Excavator, Track - 3.0 to 4.0 Metric Tons",Florida,TEX,Track Excavators,,EROPS,,,,,,,,,,,Auxiliary,,,,,,None or Unspecified,,,,Rubber,None or Unspecified,None or Unspecified,None or Unspecified,None or Unspecified,Double,,,,,
11993,4362636,27000,1148851,172,1.0,2007,800.0,Low,12/17/2010 0:00,PC35MR-1,PC35,MR,-1,,Mini,"Hydraulic Excavator, Track - 3.0 to 4.0 Metric Tons",Missouri,TEX,Track Excavators,,EROPS w AC,,,,,,,,,,,Auxiliary,,,,,,None or Unspecified,,,,Steel,None or Unspecified,None or Unspecified,None or Unspecified,None or Unspecified,Double,,,,,
11993,6306136,10000,1801123,149,1.0,2004,,,10/26/2011 0:00,PC35MR-1,PC35,MR,-1,,Mini,"Hydraulic Excavator, Track - 3.0 to 4.0 Metric Tons",Florida,TEX,Track Excavators,,EROPS,,,,,,,,,,,Standard,,,,,,None or Unspecified,,,,Rubber,None or Unspecified,None or Unspecified,None or Unspecified,None or Unspecified,Double,,,,,
11993,6306149,13000,1860624,149,1.0,2006,,,10/26/2011 0:00,PC35MR-1,PC35,MR,-1,,Mini,"Hydraulic Excavator, Track - 3.0 to 4.0 Metric Tons",Florida,TEX,Track Excavators,,EROPS,,,,,,,,,,,Auxiliary,,,,,,None or Unspecified,,,,Rubber,None or Unspecified,None or Unspecified,None or Unspecified,None or Unspecified,Double,,,,,
