ModelID,SalesID,SalePrice,MachineID,datasource,auctioneerID,YearMade,MachineHoursCurrentMeter,UsageBand,saledate,fiModelDesc,fiBaseModel,fiSecondaryDesc,fiModelSeries,fiModelDescriptor,ProductSize,fiProductClassDesc,state,ProductGroup,ProductGroupDesc,Drive_System,Enclosure,Forks,Pad_Type,Ride_Control,Stick,Transmission,Turbocharged,Blade_Extension,Blade_Width,Enclosure_Type,Engine_Horsepower,Hydraulics,Pushblock,Ripper,Scarifier,Tip_Control,Tire_Size,Coupler,Coupler_System,Grouser_Tracks,Hydraulics_Flow,Track_Type,Undercarriage_Pad_Width,Stick_Length,Thumb,Pattern_Changer,Grouser_Type,Backhoe_Mounting,Blade_Type,Travel_Controls,Differential_Type,Steering_Controls
12005,1756369,100000,1402555,132,1.0,2006,2033.0,High,9/24/2008 0:00,WA380-6,WA380,,-6,,Medium,Wheel Loader - 175.0 to 200.0 Horsepower,Texas,WL,Wheel Loader,,EROPS w AC,None or Unspecified,,None or Unspecified,,,,,,,,3 Valve,,,,,23.5,None or Unspecified,,,,,,,,,,,,,Standard,Conventional
12005,1765293,75000,1263870,132,1.0,2006,4990.0,Medium,7/27/2011 0:00,WA380-6,WA380,,-6,,Medium,Wheel Loader - 175.0 to 200.0 Horsepower,Texas,WL,Wheel Loader,,OROPS,None or Unspecified,,None or Unspecified,,,,,,,,2 Valve,,,,,None or Unspecified,None or Unspecified,,,,,,,,,,,,,Standard,Conventional
12005,1765312,67500,1302020,132,1.0,2007,,,7/27/2011 0:00,WA380-6,WA380,,-6,,Medium,Wheel Loader - 175.0 to 200.0 Horsepower,Texas,WL,Wheel Loader,,OROPS,None or Unspecified,,None or Unspecified,,,,,,,,2 Valve,,,,,None or Unspecified,None or Unspecified,,,,,,,,,,,,,Standard,Conventional
12005,1765316,100000,1151217,132,1.0,2007,4514.0,Medium,7/28/2011 0:00,WA380-6,WA380,,-6,,Medium,Wheel Loader - 175.0 to 200.0 Horsepower,Connecticut,WL,Wheel Loader,,EROPS w AC,None or Unspecified,,Yes,,,,,,,,2 Valve,,,,,23.5,None or Unspecified,,,,,,,,,,,,,Standard,Conventional
12005,1777915,75000,1539585,132,1.0,2006,,,7/27/2011 0:00,WA380-6,WA380,,-6,,Medium,Wheel Loader - 175.0 to 200.0 Horsepower,Texas,WL,Wheel Loader,,EROPS w AC,Yes,,None or Unspecified,,,,,,,,2 Valve,,,,,None or Unspecified,Hydraulic,,,,,,,,,,,,,Standard,Conventional
12005,2413256,102500,1198462,136,1.0,2007,0.0,,10/15/2008 0:00,WA380-6,WA380,,-6,,Medium,Wheel Loader - 175.0 to 200.0 Horsepower,Florida,WL,Wheel Loader,,EROPS w AC,None or Unspecified,,None or Unspecified,,,,,,,,2 Valve,,,,,23.5,None or Unspecified,,,,,,,,,,,,,Standard,Conventional
12005,2421840,100000,1684098,136,1.0,2006,0.0,,9/24/2008 0:00,WA380-6,WA380,,-6,,Medium,Wheel Loader - 175.0 to 200.0 Horsepower,Texas,WL,Wheel Loader,,EROPS w AC,None or Unspecified,,None or Unspecified,,,,,,,,2 Valve,,,,,23.5,None or Unspecified,,,,,,,,,,,,,Standard,Conventional
12005,2421842,100000,1745931,136,1.0,2006,0.0,,9/24/2008 0:00,WA380-6,WA380,,-6,,Medium,Wheel Loader - 175.0 to 200.0 Horsepower,Texas,WL,Wheel Loader,,EROPS w AC,None or Unspecified,,None or Unspecified,,,,,,,,2 Valve,,,,,23.5,None or Unspecified,,,,,,,,,,,,,Standard,Conventional
12005,2705999,80000,1552710,149,1.0,2007,6641.0,High,9/29/2010 0:00,WA380-6,WA380,,-6,,Medium,Wheel Loader - 175.0 to 200.0 Horsepower,Texas,WL,Wheel Loader,,EROPS w AC,Yes,,None or Unspecified,,,,,,,,2 Valve,,,,,23.5,Manual,,,,,,,,,,,,,Standard,Conventional
12005,2706159,100000,1804396,149,1.0,2007,3708.0,Medium,9/29/2010 0:00,WA380-6,WA380,,-6,,Medium,Wheel Loader - 175.0 to 200.0 Horsepower,Texas,WL,Wheel Loader,,EROPS w AC,None or Unspecified,,None or Unspecified,,,,,,,,2 Valve,,,,,None or Unspecified,None or Unspecified,,,,,,,,,,,,,Standard,Conventional
12005,4358765,67500,2274670,172,1.0,2007,7702.0,Medium,7/26/2011 0:00,WA380-6,WA380,,-6,,Medium,Wheel Loader - 175.0 to 200.0 Horsepower,Texas,WL,Wheel Loader,,EROPS w AC,Yes,,Yes,,,,,,,,2 Valve,,,,,23.5,None or Unspecified,,,,,,,,,,,,,Standard,Conventional
12005,4363808,75000,2301265,172,1.0,2006,4998.0,Medium,7/26/2011 0:00,WA380-6,WA380,,-6,,Medium,Wheel Loader - 175.0 to 200.0 Horsepower,Texas,WL,Wheel Loader,,EROPS w AC,None or Unspecified,,Yes,,,,,,,,2 Valve,,,,,None or Unspecified,None or Unspecified,,,,,,,,,,,,,Standard,Conventional
12005,4363819,100000,1182806,172,1.0,2007,3708.0,Medium,9/29/2010 0:00,WA380-6,WA380,,-6,,Medium,Wheel Loader - 175.0 to 200.0 Horsepower,Texas,WL,Wheel Loader,,EROPS w AC,None or Unspecified,,None or Unspecified,,,,,,,,2 Valve,,,,,23.5,None or Unspecified,,,,,,,,,,,,,Standard,Conventional
12005,6304213,102500,1860297,149,1.0,2007,,,10/6/2011 0:00,WA380-6,WA380,,-6,,Medium,Wheel Loader - 175.0 to 200.0 Horsepower,Connecticut,WL,Wheel Loader,,EROPS w AC,None or Unspecified,,None or Unspecified,,,,,,,,2 Valve,,,,,23.5,None or Unspecified,,,,,,,,,,,,,Standard,Conventional
12005,6306575,100000,1836189,149,1.0,2007,,,7/28/2011 0:00,WA380-6,WA380,,-6,,Medium,Wheel Loader - 175.0 to 200.0 Horsepower,Connecticut,WL,Wheel Loader,,EROPS w AC,None or Unspecified,,Yes,,,,,,,,2 Valve,,,,,None or Unspecified,None or Unspecified,,,,,,,,,,,,,Standard,Conventional
