ModelID,SalesID,SalePrice,MachineID,datasource,auctioneerID,YearMade,MachineHoursCurrentMeter,UsageBand,saledate,fiModelDesc,fiBaseModel,fiSecondaryDesc,fiModelSeries,fiModelDescriptor,ProductSize,fiProductClassDesc,state,ProductGroup,ProductGroupDesc,Drive_System,Enclosure,Forks,Pad_Type,Ride_Control,Stick,Transmission,Turbocharged,Blade_Extension,Blade_Width,Enclosure_Type,Engine_Horsepower,Hydraulics,Pushblock,Ripper,Scarifier,Tip_Control,Tire_Size,Coupler,Coupler_System,Grouser_Tracks,Hydraulics_Flow,Track_Type,Undercarriage_Pad_Width,Stick_Length,Thumb,Pattern_Changer,Grouser_Type,Backhoe_Mounting,Blade_Type,Travel_Controls,Differential_Type,Steering_Controls
12028,1779406,7750,1019935,132,2.0,1000,,,9/16/2000 0:00,KH26,KH26,,,,Mini,"Hydraulic Excavator, Track - 2.0 to 3.0 Metric Tons",New Jersey,TEX,Track Excavators,,OROPS,,,,,,,,,,,2 Valve,,,,,,Manual,,,,,,,,,,,,,,
12028,1780182,7500,168609,132,27.0,1000,,,9/16/2005 0:00,KH26,KH26,,,,Mini,"Hydraulic Excavator, Track - 2.0 to 3.0 Metric Tons",North Carolina,TEX,Track Excavators,,EROPS w AC,,,,,,,,,,,Standard,,,,,,Hydraulic,,,,Rubber,36 inch,None or Unspecified,Hydraulic,None or Unspecified,Double,,,,,
12028,1780290,8250,1364093,132,2.0,1000,,,7/12/1997 0:00,KH26,KH26,,,,Mini,"Hydraulic Excavator, Track - 2.0 to 3.0 Metric Tons",New York,TEX,Track Excavators,,EROPS,,,,,,,,,,,Standard,,,,,,None or Unspecified,,,,Steel,None or Unspecified,None or Unspecified,None or Unspecified,None or Unspecified,Double,,,,,
12028,1780294,8500,1242750,132,2.0,1000,,,10/4/1997 0:00,KH26,KH26,,,,Mini,"Hydraulic Excavator, Track - 2.0 to 3.0 Metric Tons",Pennsylvania,TEX,Track Excavators,,EROPS,,,,,,,,,,,Standard,,,,,,None or Unspecified,,,,Rubber,None or Unspecified,None or Unspecified,None or Unspecified,None or Unspecified,Double,,,,,
12028,1780361,8000,1168106,132,4.0,1000,,,2/16/2006 0:00,KH26,KH26,,,,Mini,"Hydraulic Excavator, Track - 2.0 to 3.0 Metric Tons",Florida,TEX,Track Excavators,,EROPS,,,,,,,,,,,Standard,,,,,,None or Unspecified,,,,Steel,None or Unspecified,None or Unspecified,None or Unspecified,None or Unspecified,Double,,,,,
12028,1780369,8000,1251447,132,2.0,1000,,,12/13/1997 0:00,KH26,KH26,,,,Mini,"Hydraulic Excavator, Track - 2.0 to 3.0 Metric Tons",Pennsylvania,TEX,Track Excavators,,EROPS,,,,,,,,,,,Standard,,,,,,None or Unspecified,,,,Steel,None or Unspecified,None or Unspecified,None or Unspecified,None or Unspecified,Double,,,,,
12028,1780372,10500,1376125,132,2.0,1000,,,2/5/1997 0:00,KH26,KH26,,,,Mini,"Hydraulic Excavator, Track - 2.0 to 3.0 Metric Tons",Florida,TEX,Track Excavators,,EROPS,,,,,,,,,,,Standard,,,,,,None or Unspecified,,,,Rubber,None or Unspecified,None or Unspecified,None or Unspecified,None or Unspecified,Double,,,,,
