ModelID,SalesID,SalePrice,MachineID,datasource,auctioneerID,YearMade,MachineHoursCurrentMeter,UsageBand,saledate,fiModelDesc,fiBaseModel,fiSecondaryDesc,fiModelSeries,fiModelDescriptor,ProductSize,fiProductClassDesc,state,ProductGroup,ProductGroupDesc,Drive_System,Enclosure,Forks,Pad_Type,Ride_Control,Stick,Transmission,Turbocharged,Blade_Extension,Blade_Width,Enclosure_Type,Engine_Horsepower,Hydraulics,Pushblock,Ripper,Scarifier,Tip_Control,Tire_Size,Coupler,Coupler_System,Grouser_Tracks,Hydraulics_Flow,Track_Type,Undercarriage_Pad_Width,Stick_Length,Thumb,Pattern_Changer,Grouser_Type,Backhoe_Mounting,Blade_Type,Travel_Controls,Differential_Type,Steering_Controls
12124,1797710,6500,1168324,132,1.0,1995,,,6/22/1999 0:00,X320,X320,,,,,Skid Steer Loader - Unidentified,Washington,SSL,Skid Steer Loaders,,OROPS,None or Unspecified,,,,,,,,,,Standard,,,,,,None or Unspecified,None or Unspecified,None or Unspecified,Standard,,,,,,,,,,,
12124,1797726,5500,1390969,132,99.0,1995,,,3/5/2010 0:00,X320,X320,,,,,Skid Steer Loader - Unidentified,Minnesota,SSL,Skid Steer Loaders,,OROPS,None or Unspecified,,,,,,,,,,Standard,,,,,,None or Unspecified,None or Unspecified,None or Unspecified,Standard,,,,,,,,,,,
12124,1797771,6500,1336128,132,1.0,1994,,,6/22/1999 0:00,X320,X320,,,,,Skid Steer Loader - Unidentified,Washington,SSL,Skid Steer Loaders,,OROPS,None or Unspecified,,,,,,,,,,Standard,,,,,,None or Unspecified,None or Unspecified,None or Unspecified,Standard,,,,,,,,,,,
12124,1806058,7000,1362449,132,9.0,1000,,,2/18/2002 0:00,X320,X320,,,,,Skid Steer Loader - Unidentified,Florida,SSL,Skid Steer Loaders,,OROPS,None or Unspecified,,,,,,,,,,Standard,,,,,,None or Unspecified,None or Unspecified,None or Unspecified,Standard,,,,,,,,,,,
12124,1814565,6250,1461395,132,9.0,1999,,,2/23/2006 0:00,X320,X320,,,,,Skid Steer Loader - Unidentified,Florida,SSL,Skid Steer Loaders,,OROPS,None or Unspecified,,,,,,,,,,Standard,,,,,,None or Unspecified,None or Unspecified,None or Unspecified,Standard,,,,,,,,,,,
12124,1814570,9000,1178033,132,9.0,1000,,,2/21/2001 0:00,X320,X320,,,,,Skid Steer Loader - Unidentified,Florida,SSL,Skid Steer Loaders,,EROPS,,,,,,,,,,,Auxiliary,,,,,,None or Unspecified,None or Unspecified,,,,,,,,,,,,,
