ModelID,SalesID,SalePrice,MachineID,datasource,auctioneerID,YearMade,MachineHoursCurrentMeter,UsageBand,saledate,fiModelDesc,fiBaseModel,fiSecondaryDesc,fiModelSeries,fiModelDescriptor,ProductSize,fiProductClassDesc,state,ProductGroup,ProductGroupDesc,Drive_System,Enclosure,Forks,Pad_Type,Ride_Control,Stick,Transmission,Turbocharged,Blade_Extension,Blade_Width,Enclosure_Type,Engine_Horsepower,Hydraulics,Pushblock,Ripper,Scarifier,Tip_Control,Tire_Size,Coupler,Coupler_System,Grouser_Tracks,Hydraulics_Flow,Track_Type,Undercarriage_Pad_Width,Stick_Length,Thumb,Pattern_Changer,Grouser_Type,Backhoe_Mounting,Blade_Type,Travel_Controls,Differential_Type,Steering_Controls
12164,1816823,7750,1515953,132,2.0,1000,,,3/18/1999 0:00,MM45,MM45,,,,Mini,"Hydraulic Excavator, Track - 3.0 to 4.0 Metric Tons",New Jersey,TEX,Track Excavators,,EROPS,,,,,,,,,,,Standard,,,,,,None or Unspecified,,,,Steel,None or Unspecified,None or Unspecified,None or Unspecified,None or Unspecified,Double,,,,,
12164,1819316,8500,1167370,132,9.0,1992,,,2/16/2005 0:00,MM45,MM45,,,,Mini,"Hydraulic Excavator, Track - 3.0 to 4.0 Metric Tons",Florida,TEX,Track Excavators,,EROPS,,,,,,,,,,,Standard,,,,,,None or Unspecified,,,,Steel,None or Unspecified,None or Unspecified,None or Unspecified,None or Unspecified,Double,,,,,
12164,1819320,8000,1098318,132,1.0,1000,,,6/12/2007 0:00,MM45,MM45,,,,Mini,"Hydraulic Excavator, Track - 3.0 to 4.0 Metric Tons",Washington,TEX,Track Excavators,,EROPS,,,,,,,,,,,Standard,,,,,,None or Unspecified,,,,Rubber,None or Unspecified,None or Unspecified,None or Unspecified,None or Unspecified,Double,,,,,
12164,1819321,8800,1187913,132,13.0,1000,,,3/20/2004 0:00,MM45,MM45,,,,Mini,"Hydraulic Excavator, Track - 3.0 to 4.0 Metric Tons",Tennessee,TEX,Track Excavators,,EROPS,,,,,,,,,,,Standard,,,,,,None or Unspecified,,,,Rubber,None or Unspecified,None or Unspecified,None or Unspecified,None or Unspecified,Double,,,,,
12164,1819323,13000,1541991,132,10.0,1000,,,3/13/2007 0:00,MM45,MM45,,,,Mini,"Hydraulic Excavator, Track - 3.0 to 4.0 Metric Tons",Louisiana,TEX,Track Excavators,,EROPS,,,,,,,,,,,Standard,,,,,,None or Unspecified,,,,Steel,16 inch,None or Unspecified,None or Unspecified,None or Unspecified,Triple,,,,,
12164,1819325,10500,1235744,132,2.0,1995,,,4/24/1999 0:00,MM45,MM45,,,,Mini,"Hydraulic Excavator, Track - 3.0 to 4.0 Metric Tons",Ohio,TEX,Track Excavators,,EROPS,,,,,,,,,,,Auxiliary,,,,,,None or Unspecified,,,,Rubber,None or Unspecified,None or Unspecified,None or Unspecified,None or Unspecified,Double,,,,,
12164,1819326,11000,1235744,132,1.0,1000,,,9/18/2001 0:00,MM45,MM45,,,,Mini,"Hydraulic Excavator, Track - 3.0 to 4.0 Metric Tons",Ohio,TEX,Track Excavators,,EROPS,,,,,,,,,,,Auxiliary,,,,,,None or Unspecified,,,,Rubber,None or Unspecified,None or Unspecified,None or Unspecified,None or Unspecified,Double,,,,,
12164,1819332,9750,1277141,132,10.0,1000,,,9/20/2007 0:00,MM45,MM45,,,,Mini,"Hydraulic Excavator, Track - 3.0 to 4.0 Metric Tons",Louisiana,TEX,Track Excavators,,EROPS,,,,,,,,,,,Standard,,,,,,None or Unspecified,,,,Steel,16 inch,None or Unspecified,None or Unspecified,None or Unspecified,Triple,,,,,
12164,1819333,13000,1277141,132,10.0,1000,,,3/14/2007 0:00,MM45,MM45,,,,Mini,"Hydraulic Excavator, Track - 3.0 to 4.0 Metric Tons",Louisiana,TEX,Track Excavators,,EROPS,,,,,,,,,,,Standard,,,,,,None or Unspecified,,,,Steel,16 inch,None or Unspecified,None or Unspecified,None or Unspecified,Triple,,,,,
12164,1819698,8500,1323276,132,2.0,1000,,,3/18/1999 0:00,MM45,MM45,,,,Mini,"Hydraulic Excavator, Track - 3.0 to 4.0 Metric Tons",New Jersey,TEX,Track Excavators,,EROPS,,,,,,,,,,,Standard,,,,,,None or Unspecified,,,,Steel,None or Unspecified,None or Unspecified,None or Unspecified,None or Unspecified,Double,,,,,
12164,1819901,8000,1212174,132,2.0,1000,,,3/18/1999 0:00,MM45,MM45,,,,Mini,"Hydraulic Excavator, Track - 3.0 to 4.0 Metric Tons",New Jersey,TEX,Track Excavators,,EROPS,,,,,,,,,,,Standard,,,,,,None or Unspecified,,,,Steel,None or Unspecified,None or Unspecified,None or Unspecified,None or Unspecified,Double,,,,,
