ModelID,SalesID,SalePrice,MachineID,datasource,auctioneerID,YearMade,MachineHoursCurrentMeter,UsageBand,saledate,fiModelDesc,fiBaseModel,fiSecondaryDesc,fiModelSeries,fiModelDescriptor,ProductSize,fiProductClassDesc,state,ProductGroup,ProductGroupDesc,Drive_System,Enclosure,Forks,Pad_Type,Ride_Control,Stick,Transmission,Turbocharged,Blade_Extension,Blade_Width,Enclosure_Type,Engine_Horsepower,Hydraulics,Pushblock,Ripper,Scarifier,Tip_Control,Tire_Size,Coupler,Coupler_System,Grouser_Tracks,Hydraulics_Flow,Track_Type,Undercarriage_Pad_Width,Stick_Length,Thumb,Pattern_Changer,Grouser_Type,Backhoe_Mounting,Blade_Type,Travel_Controls,Differential_Type,Steering_Controls
12174,1818537,17000,1368978,132,1.0,1000,,,3/30/1995 0:00,MS120-2,MS120,,-2.0,,Small,"Hydraulic Excavator, Track - 11.0 to 12.0 Metric Tons",Washington,TEX,Track Excavators,,EROPS,,,,,,,,,,,Standard,,,,,,None or Unspecified,,,,Steel,None or Unspecified,None or Unspecified,None or Unspecified,None or Unspecified,Triple,,,,,
12174,1818563,9500,1411274,132,2.0,1984,,,9/7/2001 0:00,MS120-2,MS120,,-2.0,,Small,"Hydraulic Excavator, Track - 11.0 to 12.0 Metric Tons",New Hampshire,TEX,Track Excavators,,EROPS,,,,,,,,,,,Standard,,,,,,None or Unspecified,,,,Steel,None or Unspecified,None or Unspecified,None or Unspecified,None or Unspecified,Double,,,,,
12174,1818656,19000,1152016,132,1.0,1984,,,6/20/1995 0:00,MS120-2,MS120,,-2.0,,Small,"Hydraulic Excavator, Track - 11.0 to 12.0 Metric Tons",Minnesota,TEX,Track Excavators,,EROPS,,,,,,,,,,,Standard,,,,,,None or Unspecified,,,,Steel,None or Unspecified,None or Unspecified,None or Unspecified,None or Unspecified,Triple,,,,,
12174,1818678,18000,1163840,132,23.0,1984,,,12/14/1996 0:00,MS120-2,MS120,,-2.0,,Small,"Hydraulic Excavator, Track - 11.0 to 12.0 Metric Tons",New Jersey,TEX,Track Excavators,,EROPS,,,,,,,,,,,Standard,,,,,,None or Unspecified,,,,Steel,None or Unspecified,None or Unspecified,None or Unspecified,None or Unspecified,Double,,,,,
12174,1818679,11500,1163840,132,1.0,1984,,,12/8/1995 0:00,MS120-2,MS120,,-2.0,,Small,"Hydraulic Excavator, Track - 11.0 to 12.0 Metric Tons",Illinois,TEX,Track Excavators,,EROPS,,,,,,,,,,,Standard,,,,,,None or Unspecified,,,,Steel,None or Unspecified,None or Unspecified,None or Unspecified,None or Unspecified,Double,,,,,
12174,1818685,11000,1175587,132,21.0,1984,,,12/12/1998 0:00,MS120-2,MS120,,-2.0,,Small,"Hydraulic Excavator, Track - 11.0 to 12.0 Metric Tons",Maine,TEX,Track Excavators,,EROPS,,,,,,,,,,,Standard,,,,,,None or Unspecified,,,,Steel,None or Unspecified,None or Unspecified,None or Unspecified,None or Unspecified,Double,,,,,
12174,1819158,8800,1450701,132,9.0,1000,,,5/15/2003 0:00,MS120-2,MS120,,-2.0,,Small,"Hydraulic Excavator, Track - 11.0 to 12.0 Metric Tons",South Carolina,TEX,Track Excavators,,EROPS,,,,,,,,,,,Standard,,,,,,None or Unspecified,,,,Steel,25 inch,None or Unspecified,None or Unspecified,None or Unspecified,Double,,,,,
12174,1819214,9500,1459154,132,5.0,1986,,,1/28/2003 0:00,MS120-2,MS120,,-2.0,,Small,"Hydraulic Excavator, Track - 11.0 to 12.0 Metric Tons",Connecticut,TEX,Track Excavators,,EROPS,,,,,,,,,,,Standard,,,,,,None or Unspecified,,,,Steel,32 inch,None or Unspecified,None or Unspecified,None or Unspecified,Double,,,,,
12174,4377635,8000,1393500,172,1.0,1984,,,5/11/2011 0:00,MS120-2,MS120,,-2,,Small,"Hydraulic Excavator, Track - 11.0 to 12.0 Metric Tons",Texas,TEX,Track Excavators,,EROPS,,,,,,,,,,,Standard,,,,,,None or Unspecified,,,,Steel,None or Unspecified,None or Unspecified,None or Unspecified,None or Unspecified,Double,,,,,
