ModelID,SalesID,SalePrice,MachineID,datasource,auctioneerID,YearMade,MachineHoursCurrentMeter,UsageBand,saledate,fiModelDesc,fiBaseModel,fiSecondaryDesc,fiModelSeries,fiModelDescriptor,ProductSize,fiProductClassDesc,state,ProductGroup,ProductGroupDesc,Drive_System,Enclosure,Forks,Pad_Type,Ride_Control,Stick,Transmission,Turbocharged,Blade_Extension,Blade_Width,Enclosure_Type,Engine_Horsepower,Hydraulics,Pushblock,Ripper,Scarifier,Tip_Control,Tire_Size,Coupler,Coupler_System,Grouser_Tracks,Hydraulics_Flow,Track_Type,Undercarriage_Pad_Width,Stick_Length,Thumb,Pattern_Changer,Grouser_Type,Backhoe_Mounting,Blade_Type,Travel_Controls,Differential_Type,Steering_Controls
12196,1816951,8000,1493343,132,1.0,1000,,,8/12/2004 0:00,WS200,WS200,,,,Compact,Wheel Loader - 40.0 to 60.0 Horsepower,Texas,WL,Wheel Loader,,OROPS,None or Unspecified,,None or Unspecified,,,,,,,,2 Valve,,,,,None or Unspecified,None or Unspecified,,,,,,,,,,,,,Standard,Conventional
12196,1817519,8500,1349671,132,1.0,1000,,,3/4/2010 0:00,WS200,WS200,,,,Compact,Wheel Loader - 40.0 to 60.0 Horsepower,Washington,WL,Wheel Loader,,OROPS,None or Unspecified,,None or Unspecified,,,,,,,,2 Valve,,,,,None or Unspecified,None or Unspecified,,,,,,,,,,,,,Standard,Conventional
12196,1818785,9000,1219420,132,2.0,1000,,,4/9/1999 0:00,WS200,WS200,,,,Compact,Wheel Loader - 40.0 to 60.0 Horsepower,Georgia,WL,Wheel Loader,,OROPS,None or Unspecified,,None or Unspecified,,,,,,,,2 Valve,,,,,None or Unspecified,None or Unspecified,,,,,,,,,,,,,Standard,Conventional
12196,2435866,8500,1342868,136,1.0,1000,0.0,,3/4/2010 0:00,WS200,WS200,,,,Compact,Wheel Loader - 40.0 to 60.0 Horsepower,Washington,WL,Wheel Loader,,OROPS,None or Unspecified,,None or Unspecified,,,,,,,,2 Valve,,,,,None or Unspecified,None or Unspecified,,,,,,,,,,,,,Standard,Conventional
