ModelID,SalesID,SalePrice,MachineID,datasource,auctioneerID,YearMade,MachineHoursCurrentMeter,UsageBand,saledate,fiModelDesc,fiBaseModel,fiSecondaryDesc,fiModelSeries,fiModelDescriptor,ProductSize,fiProductClassDesc,state,ProductGroup,ProductGroupDesc,Drive_System,Enclosure,Forks,Pad_Type,Ride_Control,Stick,Transmission,Turbocharged,Blade_Extension,Blade_Width,Enclosure_Type,Engine_Horsepower,Hydraulics,Pushblock,Ripper,Scarifier,Tip_Control,Tire_Size,Coupler,Coupler_System,Grouser_Tracks,Hydraulics_Flow,Track_Type,Undercarriage_Pad_Width,Stick_Length,Thumb,Pattern_Changer,Grouser_Type,Backhoe_Mounting,Blade_Type,Travel_Controls,Differential_Type,Steering_Controls
12252,1190658,17000,1039405,121,3.0,1998,4204.0,Low,5/21/2009 0:00,SE130LC-2,SE130,LC,-2,,Small,"Hydraulic Excavator, Track - 12.0 to 14.0 Metric Tons",Oklahoma,TEX,Track Excavators,,EROPS w AC,,,,,,,,,,,Standard,,,,,,None or Unspecified,,,,Steel,None or Unspecified,None or Unspecified,Hydraulic,None or Unspecified,Double,,,,,
12252,1825549,22000,1259653,132,1.0,1993,,,8/18/1998 0:00,SE130LC-2,SE130,LC,-2.0,,Small,"Hydraulic Excavator, Track - 12.0 to 14.0 Metric Tons",Texas,TEX,Track Excavators,,EROPS,,,,,,,,,,,Standard,,,,,,None or Unspecified,,,,Steel,None or Unspecified,None or Unspecified,None or Unspecified,None or Unspecified,Double,,,,,
12252,1825608,23000,1498506,132,2.0,1995,,,3/30/2000 0:00,SE130LC-2,SE130,LC,-2.0,,Small,"Hydraulic Excavator, Track - 12.0 to 14.0 Metric Tons",New Jersey,TEX,Track Excavators,,EROPS,,,,,,,,,,,Standard,,,,,,None or Unspecified,,,,Steel,None or Unspecified,None or Unspecified,None or Unspecified,None or Unspecified,Double,,,,,
12252,1825610,17000,1407756,132,1.0,1995,,,8/14/2002 0:00,SE130LC-2,SE130,LC,-2.0,,Small,"Hydraulic Excavator, Track - 12.0 to 14.0 Metric Tons",Texas,TEX,Track Excavators,,EROPS w AC,,,,,,,,,,,Standard,,,,,,Manual,,,,Steel,None or Unspecified,None or Unspecified,None or Unspecified,None or Unspecified,Double,,,,,
12252,1825612,25000,1424711,132,1.0,1000,,,3/22/2007 0:00,SE130LC-2,SE130,LC,-2.0,,Small,"Hydraulic Excavator, Track - 12.0 to 14.0 Metric Tons",Tennessee,TEX,Track Excavators,,EROPS w AC,,,,,,,,,,,Standard,,,,,,None or Unspecified,,,,Steel,None or Unspecified,None or Unspecified,None or Unspecified,None or Unspecified,Double,,,,,
12252,1825614,9500,1255632,132,15.0,1995,,,6/23/2005 0:00,SE130LC-2,SE130,LC,-2.0,,Small,"Hydraulic Excavator, Track - 12.0 to 14.0 Metric Tons",Pennsylvania,TEX,Track Excavators,,EROPS,,,,,,,,,,,Auxiliary,,,,,,None or Unspecified,,,,Steel,24 inch,None or Unspecified,None or Unspecified,None or Unspecified,Triple,,,,,
12252,1825615,16500,1519180,132,2.0,1995,,,3/22/2007 0:00,SE130LC-2,SE130,LC,-2.0,,Small,"Hydraulic Excavator, Track - 12.0 to 14.0 Metric Tons",New Jersey,TEX,Track Excavators,,EROPS,,,,,,,,,,,Standard,,,,,,None or Unspecified,,,,Steel,None or Unspecified,None or Unspecified,None or Unspecified,None or Unspecified,Double,,,,,
12252,1825624,18000,1106048,132,13.0,1995,,,3/20/2004 0:00,SE130LC-2,SE130,LC,-2.0,,Small,"Hydraulic Excavator, Track - 12.0 to 14.0 Metric Tons",Tennessee,TEX,Track Excavators,,EROPS,,,,,,,,,,,Standard,,,,,,None or Unspecified,,,,Steel,None or Unspecified,None or Unspecified,None or Unspecified,None or Unspecified,Double,,,,,
12252,1825625,39000,1496667,132,4.0,1000,,,2/4/1999 0:00,SE130LC-2,SE130,LC,-2.0,,Small,"Hydraulic Excavator, Track - 12.0 to 14.0 Metric Tons",Florida,TEX,Track Excavators,,EROPS,,,,,,,,,,,Standard,,,,,,None or Unspecified,,,,Steel,None or Unspecified,None or Unspecified,None or Unspecified,None or Unspecified,Double,,,,,
12252,1825627,26000,1531428,132,15.0,1995,,,5/8/2003 0:00,SE130LC-2,SE130,LC,-2.0,,Small,"Hydraulic Excavator, Track - 12.0 to 14.0 Metric Tons",Pennsylvania,TEX,Track Excavators,,EROPS w AC,,,,,,,,,,,Standard,,,,,,None or Unspecified,,,,Steel,24 inch,None or Unspecified,None or Unspecified,None or Unspecified,Triple,,,,,
12252,1825640,32100,1378570,132,9.0,1995,,,5/17/2001 0:00,SE130LC-2,SE130,LC,-2.0,,Small,"Hydraulic Excavator, Track - 12.0 to 14.0 Metric Tons",South Carolina,TEX,Track Excavators,,EROPS,,,,,,,,,,,Standard,,,,,,None or Unspecified,,,,Steel,30 inch,None or Unspecified,None or Unspecified,None or Unspecified,Triple,,,,,
12252,1825642,27000,1249818,132,7.0,1995,,,6/6/2003 0:00,SE130LC-2,SE130,LC,-2.0,,Small,"Hydraulic Excavator, Track - 12.0 to 14.0 Metric Tons",Alabama,TEX,Track Excavators,,EROPS,,,,,,,,,,,Standard,,,,,,None or Unspecified,,,,Steel,28 inch,"9' 6""",None or Unspecified,None or Unspecified,Triple,,,,,
12252,1825646,17500,1201442,132,2.0,1996,,,11/16/2002 0:00,SE130LC-2,SE130,LC,-2.0,,Small,"Hydraulic Excavator, Track - 12.0 to 14.0 Metric Tons",Connecticut,TEX,Track Excavators,,EROPS,,,,,,,,,,,Standard,,,,,,None or Unspecified,,,,Steel,None or Unspecified,None or Unspecified,None or Unspecified,None or Unspecified,Double,,,,,
12252,1825647,32000,1321821,132,1.0,1996,,,3/30/1999 0:00,SE130LC-2,SE130,LC,-2.0,,Small,"Hydraulic Excavator, Track - 12.0 to 14.0 Metric Tons",Maryland,TEX,Track Excavators,,EROPS,,,,,,,,,,,Standard,,,,,,None or Unspecified,,,,Steel,None or Unspecified,None or Unspecified,None or Unspecified,None or Unspecified,Double,,,,,
12252,1825663,36000,1424415,132,1.0,1996,,,6/19/2000 0:00,SE130LC-2,SE130,LC,-2.0,,Small,"Hydraulic Excavator, Track - 12.0 to 14.0 Metric Tons",Missouri,TEX,Track Excavators,,EROPS,,,,,,,,,,,Standard,,,,,,None or Unspecified,,,,Steel,None or Unspecified,None or Unspecified,None or Unspecified,None or Unspecified,Double,,,,,
12252,1825668,25000,1176959,132,1.0,1996,,,12/8/2005 0:00,SE130LC-2,SE130,LC,-2.0,,Small,"Hydraulic Excavator, Track - 12.0 to 14.0 Metric Tons",Texas,TEX,Track Excavators,,EROPS,,,,,,,,,,,Standard,,,,,,None or Unspecified,,,,Steel,None or Unspecified,"9' 6""",Manual,None or Unspecified,Double,,,,,
12252,1825669,25000,1180268,132,2.0,1998,,,2/2/2003 0:00,SE130LC-2,SE130,LC,-2.0,,Small,"Hydraulic Excavator, Track - 12.0 to 14.0 Metric Tons",Florida,TEX,Track Excavators,,EROPS w AC,,,,,,,,,,,Standard,,,,,,None or Unspecified,,,,Steel,None or Unspecified,None or Unspecified,Manual,None or Unspecified,Double,,,,,
12252,1825670,20000,1180268,132,2.0,1997,,,6/12/2002 0:00,SE130LC-2,SE130,LC,-2.0,,Small,"Hydraulic Excavator, Track - 12.0 to 14.0 Metric Tons",Texas,TEX,Track Excavators,,EROPS w AC,,,,,,,,,,,Standard,,,,,,None or Unspecified,,,,Steel,None or Unspecified,None or Unspecified,Manual,None or Unspecified,Double,,,,,
12252,1825673,21000,1220980,132,13.0,1997,,,1/29/2005 0:00,SE130LC-2,SE130,LC,-2.0,,Small,"Hydraulic Excavator, Track - 12.0 to 14.0 Metric Tons",Georgia,TEX,Track Excavators,,EROPS,,,,,,,,,,,Standard,,,,,,None or Unspecified,,,,Steel,None or Unspecified,None or Unspecified,None or Unspecified,None or Unspecified,Double,,,,,
12252,1825676,36500,1198925,132,4.0,1997,,,6/7/2001 0:00,SE130LC-2,SE130,LC,-2.0,,Small,"Hydraulic Excavator, Track - 12.0 to 14.0 Metric Tons",Pennsylvania,TEX,Track Excavators,,EROPS w AC,,,,,,,,,,,Auxiliary,,,,,,Manual,,,,Steel,24 inch,None or Unspecified,None or Unspecified,None or Unspecified,Triple,,,,,
12252,1825677,33000,1198925,132,2.0,1997,,,4/5/2003 0:00,SE130LC-2,SE130,LC,-2.0,,Small,"Hydraulic Excavator, Track - 12.0 to 14.0 Metric Tons",Maine,TEX,Track Excavators,,EROPS w AC,,,,,,,,,,,Auxiliary,,,,,,Manual,,,,Steel,24 inch,None or Unspecified,None or Unspecified,None or Unspecified,Triple,,,,,
12252,1825680,27500,1219267,132,10.0,1997,,,8/9/2000 0:00,SE130LC-2,SE130,LC,-2.0,,Small,"Hydraulic Excavator, Track - 12.0 to 14.0 Metric Tons",Louisiana,TEX,Track Excavators,,EROPS,,,,,,,,,,,Standard,,,,,,None or Unspecified,,,,Steel,None or Unspecified,None or Unspecified,Manual,None or Unspecified,Double,,,,,
12252,1825683,42000,1201366,132,1.0,1000,,,9/28/1999 0:00,SE130LC-2,SE130,LC,-2.0,,Small,"Hydraulic Excavator, Track - 12.0 to 14.0 Metric Tons",Ohio,TEX,Track Excavators,,EROPS w AC,,,,,,,,,,,Auxiliary,,,,,,None or Unspecified,,,,Steel,None or Unspecified,None or Unspecified,None or Unspecified,None or Unspecified,Double,,,,,
12252,1825684,35000,1513423,132,1.0,1997,,,12/2/1999 0:00,SE130LC-2,SE130,LC,-2.0,,Small,"Hydraulic Excavator, Track - 12.0 to 14.0 Metric Tons",Georgia,TEX,Track Excavators,,EROPS,,,,,,,,,,,Standard,,,,,,None or Unspecified,,,,Steel,None or Unspecified,None or Unspecified,None or Unspecified,None or Unspecified,Double,,,,,
12252,1825709,20000,1134274,132,1.0,1997,,,2/24/2006 0:00,SE130LC-2,SE130,LC,-2.0,,Small,"Hydraulic Excavator, Track - 12.0 to 14.0 Metric Tons",Florida,TEX,Track Excavators,,EROPS w AC,,,,,,,,,,,Standard,,,,,,None or Unspecified,,,,Steel,28 inch,None or Unspecified,Manual,None or Unspecified,Triple,,,,,
12252,1825713,21000,1504760,132,12.0,1998,,,4/23/2008 0:00,SE130LC-2,SE130,LC,-2.0,,Small,"Hydraulic Excavator, Track - 12.0 to 14.0 Metric Tons",Tennessee,TEX,Track Excavators,,EROPS,,,,,,,,,,,Standard,,,,,,None or Unspecified,,,,Steel,None or Unspecified,None or Unspecified,Manual,None or Unspecified,Double,,,,,
12252,1825714,16500,1504760,132,1.0,1997,,,7/24/2008 0:00,SE130LC-2,SE130,LC,-2.0,,Small,"Hydraulic Excavator, Track - 12.0 to 14.0 Metric Tons",Tennessee,TEX,Track Excavators,,EROPS,,,,,,,,,,,Standard,,,,,,None or Unspecified,,,,Steel,None or Unspecified,None or Unspecified,Manual,None or Unspecified,Double,,,,,
12252,1825715,39000,1318183,132,1.0,1997,,,9/28/1999 0:00,SE130LC-2,SE130,LC,-2.0,,Small,"Hydraulic Excavator, Track - 12.0 to 14.0 Metric Tons",Ohio,TEX,Track Excavators,,EROPS w AC,,,,,,,,,,,Standard,,,,,,None or Unspecified,,,,Steel,None or Unspecified,None or Unspecified,None or Unspecified,None or Unspecified,Double,,,,,
12252,1825716,17000,1284267,132,99.0,1996,,,10/19/2000 0:00,SE130LC-2,SE130,LC,-2.0,,Small,"Hydraulic Excavator, Track - 12.0 to 14.0 Metric Tons",South Carolina,TEX,Track Excavators,,EROPS w AC,,,,,,,,,,,Standard,,,,,,None or Unspecified,,,,Steel,24 inch,None or Unspecified,None or Unspecified,None or Unspecified,Triple,,,,,
12252,1825717,20000,1284267,132,10.0,1996,,,2/1/2001 0:00,SE130LC-2,SE130,LC,-2.0,,Small,"Hydraulic Excavator, Track - 12.0 to 14.0 Metric Tons",Louisiana,TEX,Track Excavators,,EROPS w AC,,,,,,,,,,,Standard,,,,,,None or Unspecified,,,,Steel,24 inch,None or Unspecified,None or Unspecified,None or Unspecified,Triple,,,,,
12252,1825718,38000,1380492,132,1.0,1997,,,9/28/1999 0:00,SE130LC-2,SE130,LC,-2.0,,Small,"Hydraulic Excavator, Track - 12.0 to 14.0 Metric Tons",Ohio,TEX,Track Excavators,,EROPS,,,,,,,,,,,Standard,,,,,,None or Unspecified,,,,Steel,None or Unspecified,None or Unspecified,None or Unspecified,None or Unspecified,Double,,,,,
12252,1825721,23000,1104052,132,2.0,1998,,,9/17/2003 0:00,SE130LC-2,SE130,LC,-2.0,,Small,"Hydraulic Excavator, Track - 12.0 to 14.0 Metric Tons",Texas,TEX,Track Excavators,,EROPS,,,,,,,,,,,Standard,,,,,,None or Unspecified,,,,Steel,None or Unspecified,None or Unspecified,None or Unspecified,None or Unspecified,Double,,,,,
12252,1825722,25000,1104052,132,2.0,1998,,,10/4/2003 0:00,SE130LC-2,SE130,LC,-2.0,,Small,"Hydraulic Excavator, Track - 12.0 to 14.0 Metric Tons",Pennsylvania,TEX,Track Excavators,,EROPS,,,,,,,,,,,Standard,,,,,,None or Unspecified,,,,Steel,None or Unspecified,None or Unspecified,None or Unspecified,None or Unspecified,Double,,,,,
12252,1825726,37500,1326305,132,2.0,1998,,,9/16/2000 0:00,SE130LC-2,SE130,LC,-2.0,,Small,"Hydraulic Excavator, Track - 12.0 to 14.0 Metric Tons",New Jersey,TEX,Track Excavators,,EROPS w AC,,,,,,,,,,,Standard,,,,,,None or Unspecified,,,,Steel,None or Unspecified,None or Unspecified,None or Unspecified,None or Unspecified,Double,,,,,
12252,1825727,32000,1181965,132,1.0,1998,,,9/21/2004 0:00,SE130LC-2,SE130,LC,-2.0,,Small,"Hydraulic Excavator, Track - 12.0 to 14.0 Metric Tons",North Carolina,TEX,Track Excavators,,EROPS w AC,,,,,,,,,,,Standard,,,,,,None or Unspecified,,,,Steel,None or Unspecified,None or Unspecified,None or Unspecified,None or Unspecified,Double,,,,,
12252,1825728,31000,1187098,132,8.0,1998,,,9/13/2006 0:00,SE130LC-2,SE130,LC,-2.0,,Small,"Hydraulic Excavator, Track - 12.0 to 14.0 Metric Tons",Mississippi,TEX,Track Excavators,,EROPS w AC,,,,,,,,,,,Standard,,,,,,None or Unspecified,,,,Steel,26 inch,None or Unspecified,None or Unspecified,None or Unspecified,Double,,,,,
12252,1825729,23000,1187098,132,1.0,1998,,,8/24/2006 0:00,SE130LC-2,SE130,LC,-2.0,,Small,"Hydraulic Excavator, Track - 12.0 to 14.0 Metric Tons",Texas,TEX,Track Excavators,,EROPS w AC,,,,,,,,,,,Standard,,,,,,None or Unspecified,,,,Steel,26 inch,None or Unspecified,None or Unspecified,None or Unspecified,Double,,,,,
12252,1825736,40000,1439806,132,4.0,1998,,,2/17/2001 0:00,SE130LC-2,SE130,LC,-2.0,,Small,"Hydraulic Excavator, Track - 12.0 to 14.0 Metric Tons",Florida,TEX,Track Excavators,,EROPS,,,,,,,,,,,Standard,,,,,,None or Unspecified,,,,Steel,None or Unspecified,None or Unspecified,None or Unspecified,None or Unspecified,Double,,,,,
12252,1825737,43000,1439806,132,1.0,1998,,,11/4/1999 0:00,SE130LC-2,SE130,LC,-2.0,,Small,"Hydraulic Excavator, Track - 12.0 to 14.0 Metric Tons",Florida,TEX,Track Excavators,,EROPS,,,,,,,,,,,Standard,,,,,,None or Unspecified,,,,Steel,None or Unspecified,None or Unspecified,None or Unspecified,None or Unspecified,Double,,,,,
12252,1825738,25000,1442537,132,27.0,1998,,,7/21/2006 0:00,SE130LC-2,SE130,LC,-2.0,,Small,"Hydraulic Excavator, Track - 12.0 to 14.0 Metric Tons",North Carolina,TEX,Track Excavators,,EROPS,,,,,,,,,,,Auxiliary,,,,,,None or Unspecified,,,,Steel,None or Unspecified,None or Unspecified,None or Unspecified,None or Unspecified,Double,,,,,
12252,1825739,24000,1309579,132,1.0,1998,,,8/14/2002 0:00,SE130LC-2,SE130,LC,-2.0,,Small,"Hydraulic Excavator, Track - 12.0 to 14.0 Metric Tons",Texas,TEX,Track Excavators,,EROPS w AC,,,,,,,,,,,Standard,,,,,,None or Unspecified,,,,Steel,None or Unspecified,None or Unspecified,None or Unspecified,None or Unspecified,Double,,,,,
12252,1825747,32000,1338715,132,20.0,1998,,,6/19/2002 0:00,SE130LC-2,SE130,LC,-2.0,,Small,"Hydraulic Excavator, Track - 12.0 to 14.0 Metric Tons",Arkansas,TEX,Track Excavators,,EROPS w AC,,,,,,,,,,,Standard,,,,,,None or Unspecified,,,,Steel,24 inch,None or Unspecified,Manual,None or Unspecified,Triple,,,,,
12252,1825757,26000,1165288,132,8.0,1995,,,5/23/2007 0:00,SE130LC-2,SE130,LC,-2.0,,Small,"Hydraulic Excavator, Track - 12.0 to 14.0 Metric Tons",Mississippi,TEX,Track Excavators,,EROPS,,,,,,,,,,,Standard,,,,,,None or Unspecified,,,,Steel,24 inch,None or Unspecified,Manual,None or Unspecified,Double,,,,,
12252,1825759,17000,1294672,132,7.0,1998,,,11/30/2006 0:00,SE130LC-2,SE130,LC,-2.0,,Small,"Hydraulic Excavator, Track - 12.0 to 14.0 Metric Tons",Alabama,TEX,Track Excavators,,EROPS,,,,,,,,,,,Standard,,,,,,None or Unspecified,,,,Steel,24 inch,None or Unspecified,Manual,None or Unspecified,Triple,,,,,
12252,1825762,14000,1374283,132,5.0,1995,,,4/8/2010 0:00,SE130LC-2,SE130,LC,-2.0,,Small,"Hydraulic Excavator, Track - 12.0 to 14.0 Metric Tons",Connecticut,TEX,Track Excavators,,EROPS,,,,,,,,,,,Standard,,,,,,None or Unspecified,,,,Steel,24 inch,None or Unspecified,None or Unspecified,None or Unspecified,Double,,,,,
12252,1825769,16500,1507129,132,5.0,1998,,,9/24/2010 0:00,SE130LC-2,SE130,LC,-2.0,,Small,"Hydraulic Excavator, Track - 12.0 to 14.0 Metric Tons",Connecticut,TEX,Track Excavators,,EROPS w AC,,,,,,,,,,,Standard,,,,,,None or Unspecified,,,,Steel,20 inch,None or Unspecified,None or Unspecified,None or Unspecified,Double,,,,,
12252,1825771,27000,1302772,132,5.0,1997,,,4/2/2004 0:00,SE130LC-2,SE130,LC,-2.0,,Small,"Hydraulic Excavator, Track - 12.0 to 14.0 Metric Tons",Connecticut,TEX,Track Excavators,,EROPS,,,,,,,,,,,Standard,,,,,,None or Unspecified,,,,Steel,None or Unspecified,None or Unspecified,None or Unspecified,None or Unspecified,Triple,,,,,
12252,1825780,47500,1546452,132,1.0,1997,,,3/26/1998 0:00,SE130LC-2,SE130,LC,-2.0,,Small,"Hydraulic Excavator, Track - 12.0 to 14.0 Metric Tons",Texas,TEX,Track Excavators,,EROPS,,,,,,,,,,,Standard,,,,,,None or Unspecified,,,,Steel,None or Unspecified,None or Unspecified,None or Unspecified,None or Unspecified,Double,,,,,
12252,1825786,47000,1179052,132,1.0,1997,,,3/26/1998 0:00,SE130LC-2,SE130,LC,-2.0,,Small,"Hydraulic Excavator, Track - 12.0 to 14.0 Metric Tons",Texas,TEX,Track Excavators,,EROPS,,,,,,,,,,,Standard,,,,,,None or Unspecified,,,,Steel,None or Unspecified,None or Unspecified,None or Unspecified,None or Unspecified,Double,,,,,
12252,1825788,45000,1529240,132,1.0,1997,,,3/26/1998 0:00,SE130LC-2,SE130,LC,-2.0,,Small,"Hydraulic Excavator, Track - 12.0 to 14.0 Metric Tons",Texas,TEX,Track Excavators,,EROPS,,,,,,,,,,,Standard,,,,,,None or Unspecified,,,,Steel,None or Unspecified,None or Unspecified,None or Unspecified,None or Unspecified,Double,,,,,
12252,1825789,45000,1295803,132,1.0,1997,,,3/26/1998 0:00,SE130LC-2,SE130,LC,-2.0,,Small,"Hydraulic Excavator, Track - 12.0 to 14.0 Metric Tons",Texas,TEX,Track Excavators,,EROPS,,,,,,,,,,,Standard,,,,,,None or Unspecified,,,,Steel,None or Unspecified,"9' 6""",None or Unspecified,None or Unspecified,Double,,,,,
12252,1825790,47500,1329074,132,1.0,1997,,,3/26/1998 0:00,SE130LC-2,SE130,LC,-2.0,,Small,"Hydraulic Excavator, Track - 12.0 to 14.0 Metric Tons",Texas,TEX,Track Excavators,,EROPS,,,,,,,,,,,Auxiliary,,,,,,None or Unspecified,,,,Steel,None or Unspecified,None or Unspecified,None or Unspecified,None or Unspecified,Double,,,,,
12252,1825791,45000,1543728,132,1.0,1997,,,3/26/1998 0:00,SE130LC-2,SE130,LC,-2.0,,Small,"Hydraulic Excavator, Track - 12.0 to 14.0 Metric Tons",Texas,TEX,Track Excavators,,EROPS,,,,,,,,,,,Standard,,,,,,None or Unspecified,,,,Steel,None or Unspecified,None or Unspecified,None or Unspecified,None or Unspecified,Double,,,,,
12252,1825792,16500,1398294,132,1.0,1996,,,6/16/2004 0:00,SE130LC-2,SE130,LC,-2.0,,Small,"Hydraulic Excavator, Track - 12.0 to 14.0 Metric Tons",Texas,TEX,Track Excavators,,EROPS,,,,,,,,,,,Standard,,,,,,None or Unspecified,,,,Steel,22 inch,"9' 6""",None or Unspecified,None or Unspecified,Triple,,,,,
12252,1825793,22000,1398294,132,20.0,1996,,,10/27/2004 0:00,SE130LC-2,SE130,LC,-2.0,,Small,"Hydraulic Excavator, Track - 12.0 to 14.0 Metric Tons",Arkansas,TEX,Track Excavators,,EROPS,,,,,,,,,,,Standard,,,,,,None or Unspecified,,,,Steel,22 inch,"9' 6""",None or Unspecified,None or Unspecified,Triple,,,,,
12252,1825794,47500,1523736,132,1.0,1997,,,3/26/1998 0:00,SE130LC-2,SE130,LC,-2.0,,Small,"Hydraulic Excavator, Track - 12.0 to 14.0 Metric Tons",Texas,TEX,Track Excavators,,EROPS,,,,,,,,,,,Standard,,,,,,Manual,,,,Steel,None or Unspecified,"9' 10""",None or Unspecified,None or Unspecified,Double,,,,,
12252,1825795,19500,1523736,132,1.0,1996,,,3/19/2003 0:00,SE130LC-2,SE130,LC,-2.0,,Small,"Hydraulic Excavator, Track - 12.0 to 14.0 Metric Tons",Texas,TEX,Track Excavators,,EROPS,,,,,,,,,,,Standard,,,,,,Manual,,,,Steel,None or Unspecified,"9' 10""",None or Unspecified,None or Unspecified,Double,,,,,
12252,1825796,30000,1523736,132,1.0,1996,,,12/13/2000 0:00,SE130LC-2,SE130,LC,-2.0,,Small,"Hydraulic Excavator, Track - 12.0 to 14.0 Metric Tons",Texas,TEX,Track Excavators,,EROPS,,,,,,,,,,,Standard,,,,,,Manual,,,,Steel,None or Unspecified,"9' 10""",None or Unspecified,None or Unspecified,Double,,,,,
12252,1825797,45000,1495963,132,1.0,1997,,,3/26/1998 0:00,SE130LC-2,SE130,LC,-2.0,,Small,"Hydraulic Excavator, Track - 12.0 to 14.0 Metric Tons",Texas,TEX,Track Excavators,,EROPS,,,,,,,,,,,Standard,,,,,,None or Unspecified,,,,Steel,None or Unspecified,None or Unspecified,None or Unspecified,None or Unspecified,Double,,,,,
12252,1825798,47500,1268383,132,1.0,1997,,,3/26/1998 0:00,SE130LC-2,SE130,LC,-2.0,,Small,"Hydraulic Excavator, Track - 12.0 to 14.0 Metric Tons",Texas,TEX,Track Excavators,,EROPS w AC,,,,,,,,,,,Standard,,,,,,None or Unspecified,,,,Steel,None or Unspecified,None or Unspecified,None or Unspecified,None or Unspecified,Double,,,,,
12252,1825799,31000,1268383,132,1.0,1997,,,5/13/1999 0:00,SE130LC-2,SE130,LC,-2.0,,Small,"Hydraulic Excavator, Track - 12.0 to 14.0 Metric Tons",Texas,TEX,Track Excavators,,EROPS w AC,,,,,,,,,,,Standard,,,,,,None or Unspecified,,,,Steel,None or Unspecified,None or Unspecified,None or Unspecified,None or Unspecified,Double,,,,,
12252,1825800,11000,1479708,132,1.0,1997,,,11/6/2002 0:00,SE130LC-2,SE130,LC,-2.0,,Small,"Hydraulic Excavator, Track - 12.0 to 14.0 Metric Tons",Texas,TEX,Track Excavators,,EROPS w AC,,,,,,,,,,,Standard,,,,,,Manual,,,,Steel,None or Unspecified,"9' 6""",None or Unspecified,None or Unspecified,Double,,,,,
12252,1825801,8500,1479708,132,1.0,1000,,,11/13/2008 0:00,SE130LC-2,SE130,LC,-2.0,,Small,"Hydraulic Excavator, Track - 12.0 to 14.0 Metric Tons",Texas,TEX,Track Excavators,,EROPS w AC,,,,,,,,,,,Standard,,,,,,Manual,,,,Steel,None or Unspecified,"9' 6""",None or Unspecified,None or Unspecified,Double,,,,,
12252,1825802,48000,1479708,132,1.0,1997,,,3/26/1998 0:00,SE130LC-2,SE130,LC,-2.0,,Small,"Hydraulic Excavator, Track - 12.0 to 14.0 Metric Tons",Texas,TEX,Track Excavators,,EROPS w AC,,,,,,,,,,,Standard,,,,,,Manual,,,,Steel,None or Unspecified,"9' 6""",None or Unspecified,None or Unspecified,Double,,,,,
12252,1825805,30000,1552986,132,10.0,1000,,,11/16/2000 0:00,SE130LC-2,SE130,LC,-2.0,,Small,"Hydraulic Excavator, Track - 12.0 to 14.0 Metric Tons",Louisiana,TEX,Track Excavators,,EROPS w AC,,,,,,,,,,,Auxiliary,,,,,,None or Unspecified,,,,Steel,24 inch,None or Unspecified,None or Unspecified,None or Unspecified,Triple,,,,,
12252,1825806,33000,1552986,132,7.0,1997,,,9/15/2000 0:00,SE130LC-2,SE130,LC,-2.0,,Small,"Hydraulic Excavator, Track - 12.0 to 14.0 Metric Tons",Alabama,TEX,Track Excavators,,EROPS w AC,,,,,,,,,,,Auxiliary,,,,,,None or Unspecified,,,,Steel,24 inch,None or Unspecified,None or Unspecified,None or Unspecified,Triple,,,,,
12252,1825807,34500,1552986,132,10.0,1000,,,10/19/2000 0:00,SE130LC-2,SE130,LC,-2.0,,Small,"Hydraulic Excavator, Track - 12.0 to 14.0 Metric Tons",Louisiana,TEX,Track Excavators,,EROPS w AC,,,,,,,,,,,Auxiliary,,,,,,None or Unspecified,,,,Steel,24 inch,None or Unspecified,None or Unspecified,None or Unspecified,Triple,,,,,
12252,1825822,24000,1504886,132,8.0,1998,,,9/22/2004 0:00,SE130LC-2,SE130,LC,-2.0,,Small,"Hydraulic Excavator, Track - 12.0 to 14.0 Metric Tons",Mississippi,TEX,Track Excavators,,EROPS,,,,,,,,,,,Standard,,,,,,None or Unspecified,,,,Steel,None or Unspecified,None or Unspecified,None or Unspecified,None or Unspecified,Double,,,,,
12252,2441800,20000,1724022,136,2.0,1000,0.0,,7/17/2010 0:00,SE130LC-2,SE130,LC,-2,,Small,"Hydraulic Excavator, Track - 12.0 to 14.0 Metric Tons",New York,TEX,Track Excavators,,EROPS,,,,,,,,,,,Standard,,,,,,None or Unspecified,,,,Steel,None or Unspecified,None or Unspecified,Manual,None or Unspecified,Double,,,,,
12252,2441807,14000,1374341,136,27.0,1997,0.0,,4/16/2009 0:00,SE130LC-2,SE130,LC,-2,,Small,"Hydraulic Excavator, Track - 12.0 to 14.0 Metric Tons",North Carolina,TEX,Track Excavators,,EROPS w AC,,,,,,,,,,,Auxiliary,,,,,,Hydraulic,,,,Steel,None or Unspecified,None or Unspecified,Hydraulic,None or Unspecified,Double,,,,,
12252,2441809,12500,1555050,136,5.0,1997,0.0,,3/26/2009 0:00,SE130LC-2,SE130,LC,-2,,Small,"Hydraulic Excavator, Track - 12.0 to 14.0 Metric Tons",Connecticut,TEX,Track Excavators,,EROPS,,,,,,,,,,,Auxiliary,,,,,,None or Unspecified,,,,Steel,20 inch,None or Unspecified,Manual,None or Unspecified,Double,,,,,
12252,4383177,16000,1410936,172,1.0,1996,10344.0,Medium,9/23/2010 0:00,SE130LC-2,SE130,LC,-2,,Small,"Hydraulic Excavator, Track - 12.0 to 14.0 Metric Tons",Illinois,TEX,Track Excavators,,EROPS,,,,,,,,,,,Standard,,,,,,Manual,,,,Steel,None or Unspecified,None or Unspecified,None or Unspecified,None or Unspecified,Double,,,,,
12252,4383181,17000,2274243,172,1.0,1995,,,9/21/2011 0:00,SE130LC-2,SE130,LC,-2,,Small,"Hydraulic Excavator, Track - 12.0 to 14.0 Metric Tons",Ohio,TEX,Track Excavators,,EROPS w AC,,,,,,,,,,,Auxiliary,,,,,,None or Unspecified,,,,Steel,None or Unspecified,None or Unspecified,Manual,None or Unspecified,Triple,,,,,
12252,6316071,17000,1920065,149,1.0,1995,,,9/22/2011 0:00,SE130LC-2,SE130,LC,-2,,Small,"Hydraulic Excavator, Track - 12.0 to 14.0 Metric Tons",Ohio,TEX,Track Excavators,,EROPS,,,,,,,,,,,Standard,,,,,,None or Unspecified,,,,Steel,None or Unspecified,None or Unspecified,None or Unspecified,None or Unspecified,Double,,,,,
