ModelID,SalesID,SalePrice,MachineID,datasource,auctioneerID,YearMade,MachineHoursCurrentMeter,UsageBand,saledate,fiModelDesc,fiBaseModel,fiSecondaryDesc,fiModelSeries,fiModelDescriptor,ProductSize,fiProductClassDesc,state,ProductGroup,ProductGroupDesc,Drive_System,Enclosure,Forks,Pad_Type,Ride_Control,Stick,Transmission,Turbocharged,Blade_Extension,Blade_Width,Enclosure_Type,Engine_Horsepower,Hydraulics,Pushblock,Ripper,Scarifier,Tip_Control,Tire_Size,Coupler,Coupler_System,Grouser_Tracks,Hydraulics_Flow,Track_Type,Undercarriage_Pad_Width,Stick_Length,Thumb,Pattern_Changer,Grouser_Type,Backhoe_Mounting,Blade_Type,Travel_Controls,Differential_Type,Steering_Controls
12250,1825349,17000,1292069,132,5.0,1994,,,12/6/2003 0:00,MX8LC,MX8,LC,,,Mini,"Hydraulic Excavator, Track - 6.0 to 8.0 Metric Tons",New York,TEX,Track Excavators,,EROPS,,,,,,,,,,,Auxiliary,,,,,,None or Unspecified,,,,Steel,20 inch,None or Unspecified,None or Unspecified,None or Unspecified,Triple,,,,,
12250,1825407,18000,1312953,132,2.0,1000,,,12/15/2000 0:00,MX8LC,MX8,LC,,,Mini,"Hydraulic Excavator, Track - 6.0 to 8.0 Metric Tons",Georgia,TEX,Track Excavators,,EROPS,,,,,,,,,,,Standard,,,,,,None or Unspecified,,,,Steel,24 inch,None or Unspecified,None or Unspecified,None or Unspecified,Double,,,,,
12250,1825901,20000,1322513,132,2.0,1000,,,2/4/2002 0:00,MX8LC,MX8,LC,,,Mini,"Hydraulic Excavator, Track - 6.0 to 8.0 Metric Tons",Florida,TEX,Track Excavators,,EROPS w AC,,,,,,,,,,,Auxiliary,,,,,,None or Unspecified,,,,Steel,None or Unspecified,None or Unspecified,None or Unspecified,None or Unspecified,Double,,,,,
12250,1825909,25500,1393174,132,2.0,1992,,,9/18/1999 0:00,MX8LC,MX8,LC,,,Mini,"Hydraulic Excavator, Track - 6.0 to 8.0 Metric Tons",New Jersey,TEX,Track Excavators,,EROPS,,,,,,,,,,,Standard,,,,,,None or Unspecified,,,,Steel,None or Unspecified,None or Unspecified,None or Unspecified,None or Unspecified,Double,,,,,
12250,1825939,15500,1390400,132,5.0,1000,,,11/17/2001 0:00,MX8LC,MX8,LC,,,Mini,"Hydraulic Excavator, Track - 6.0 to 8.0 Metric Tons",Connecticut,TEX,Track Excavators,,EROPS,,,,,,,,,,,Standard,,,,,,None or Unspecified,,,,Steel,24 inch,"9' 6""",None or Unspecified,None or Unspecified,Double,,,,,
12250,1826045,17000,1200325,132,10.0,1000,,,3/14/2007 0:00,MX8LC,MX8,LC,,,Mini,"Hydraulic Excavator, Track - 6.0 to 8.0 Metric Tons",Louisiana,TEX,Track Excavators,,EROPS,,,,,,,,,,,Standard,,,,,,None or Unspecified,,,,Steel,24 inch,None or Unspecified,None or Unspecified,None or Unspecified,Triple,,,,,
