ModelID,SalesID,SalePrice,MachineID,datasource,auctioneerID,YearMade,MachineHoursCurrentMeter,UsageBand,saledate,fiModelDesc,fiBaseModel,fiSecondaryDesc,fiModelSeries,fiModelDescriptor,ProductSize,fiProductClassDesc,state,ProductGroup,ProductGroupDesc,Drive_System,Enclosure,Forks,Pad_Type,Ride_Control,Stick,Transmission,Turbocharged,Blade_Extension,Blade_Width,Enclosure_Type,Engine_Horsepower,Hydraulics,Pushblock,Ripper,Scarifier,Tip_Control,Tire_Size,Coupler,Coupler_System,Grouser_Tracks,Hydraulics_Flow,Track_Type,Undercarriage_Pad_Width,Stick_Length,Thumb,Pattern_Changer,Grouser_Type,Backhoe_Mounting,Blade_Type,Travel_Controls,Differential_Type,Steering_Controls
12287,1833859,8000,1493522,132,99.0,1976,8070.0,Low,5/8/1996 0:00,7251,7251,,,,Medium,Wheel Loader - 200.0 to 225.0 Horsepower,Pennsylvania,WL,Wheel Loader,,OROPS,None or Unspecified,,None or Unspecified,,,,,,,,2 Valve,,,,,None or Unspecified,None or Unspecified,,,,,,,,,,,,,Standard,Conventional
12287,1834478,9500,1273051,132,1.0,1000,,,4/5/2005 0:00,7251,7251,,,,Medium,Wheel Loader - 200.0 to 225.0 Horsepower,New Mexico,WL,Wheel Loader,,EROPS,None or Unspecified,,None or Unspecified,,,,,,,,2 Valve,,,,,26.5,None or Unspecified,,,,,,,,,,,,,Standard,Conventional
12287,6317223,10750,1851713,149,0.0,1000,,,12/10/2011 0:00,7251,7251,,,,Medium,Wheel Loader - 200.0 to 225.0 Horsepower,Iowa,WL,Wheel Loader,,OROPS,None or Unspecified,,None or Unspecified,,,,,,,,2 Valve,,,,,23.5,None or Unspecified,,,,,,,,,,,,,Standard,Conventional
