ModelID,SalesID,SalePrice,MachineID,datasource,auctioneerID,YearMade,MachineHoursCurrentMeter,UsageBand,saledate,fiModelDesc,fiBaseModel,fiSecondaryDesc,fiModelSeries,fiModelDescriptor,ProductSize,fiProductClassDesc,state,ProductGroup,ProductGroupDesc,Drive_System,Enclosure,Forks,Pad_Type,Ride_Control,Stick,Transmission,Turbocharged,Blade_Extension,Blade_Width,Enclosure_Type,Engine_Horsepower,Hydraulics,Pushblock,Ripper,Scarifier,Tip_Control,Tire_Size,Coupler,Coupler_System,Grouser_Tracks,Hydraulics_Flow,Track_Type,Undercarriage_Pad_Width,Stick_Length,Thumb,Pattern_Changer,Grouser_Type,Backhoe_Mounting,Blade_Type,Travel_Controls,Differential_Type,Steering_Controls
12297,1834209,12000,1488462,132,1.0,1000,,,3/17/2005 0:00,7231B,7231,B,,,Medium,Wheel Loader - 135.0 to 150.0 Horsepower,Colorado,WL,Wheel Loader,,EROPS,None or Unspecified,,None or Unspecified,,,,,,,,2 Valve,,,,,23.5,None or Unspecified,,,,,,,,,,,,,Standard,Conventional
12297,1834486,15500,1514568,132,1.0,1000,,,11/29/2005 0:00,7231B,7231,B,,,Medium,Wheel Loader - 135.0 to 150.0 Horsepower,Colorado,WL,Wheel Loader,,EROPS,None or Unspecified,,None or Unspecified,,,,,,,,2 Valve,,,,,23.5,None or Unspecified,,,,,,,,,,,,,Standard,Conventional
12297,2444463,14000,1744154,136,1.0,1000,0.0,,8/27/2008 0:00,7231B,7231,B,,,Medium,Wheel Loader - 135.0 to 150.0 Horsepower,Arkansas,WL,Wheel Loader,,EROPS,None or Unspecified,,None or Unspecified,,,,,,,,2 Valve,,,,,23.5,None or Unspecified,,,,,,,,,,,,,Standard,Conventional
12297,2444487,14750,1238220,136,5.0,1979,0.0,,4/10/2008 0:00,7231B,7231,B,,,Medium,Wheel Loader - 135.0 to 150.0 Horsepower,Connecticut,WL,Wheel Loader,,EROPS,Yes,,None or Unspecified,,,,,,,,2 Valve,,,,,20.5,Hydraulic,,,,,,,,,,,,,Standard,Conventional
12297,2444488,10500,1238220,136,5.0,1979,0.0,,12/1/2007 0:00,7231B,7231,B,,,Medium,Wheel Loader - 135.0 to 150.0 Horsepower,New York,WL,Wheel Loader,,EROPS,Yes,,None or Unspecified,,,,,,,,2 Valve,,,,,20.5,Hydraulic,,,,,,,,,,,,,Standard,Conventional
12297,2444496,13000,1320956,136,1.0,1000,0.0,,9/30/2008 0:00,7231B,7231,B,,,Medium,Wheel Loader - 135.0 to 150.0 Horsepower,Minnesota,WL,Wheel Loader,,EROPS,None or Unspecified,,None or Unspecified,,,,,,,,2 Valve,,,,,23.5,None or Unspecified,,,,,,,,,,,,,Standard,Conventional
12297,2742023,9000,1839081,149,1.0,1982,0.0,,5/19/2011 0:00,7231B,7231,B,,,Medium,Wheel Loader - 135.0 to 150.0 Horsepower,Montana,WL,Wheel Loader,,EROPS,None or Unspecified,,None or Unspecified,,,,,,,,2 Valve,,,,,23.5,None or Unspecified,,,,,,,,,,,,,Standard,Conventional
12297,6317294,11000,1262138,149,1.0,1000,,,8/25/2011 0:00,7231B,7231,B,,,Medium,Wheel Loader - 135.0 to 150.0 Horsepower,Maryland,WL,Wheel Loader,,EROPS,Yes,,None or Unspecified,,,,,,,,2 Valve,,,,,20.5,None or Unspecified,,,,,,,,,,,,,Standard,Conventional
