ModelID,SalesID,SalePrice,MachineID,datasource,auctioneerID,YearMade,MachineHoursCurrentMeter,UsageBand,saledate,fiModelDesc,fiBaseModel,fiSecondaryDesc,fiModelSeries,fiModelDescriptor,ProductSize,fiProductClassDesc,state,ProductGroup,ProductGroupDesc,Drive_System,Enclosure,Forks,Pad_Type,Ride_Control,Stick,Transmission,Turbocharged,Blade_Extension,Blade_Width,Enclosure_Type,Engine_Horsepower,Hydraulics,Pushblock,Ripper,Scarifier,Tip_Control,Tire_Size,Coupler,Coupler_System,Grouser_Tracks,Hydraulics_Flow,Track_Type,Undercarriage_Pad_Width,Stick_Length,Thumb,Pattern_Changer,Grouser_Type,Backhoe_Mounting,Blade_Type,Travel_Controls,Differential_Type,Steering_Controls
12326,1151295,42000,1039591,121,3.0,2001,4836.0,Low,3/12/2010 0:00,G720VHP,G720,,,VHP,,Motorgrader - 200.0 + Horsepower,Florida,MG,Motor Graders,No,EROPS w AC,,,,,Powershift,,None or Unspecified,14',None or Unspecified,No,Base + 1 Function,Yes,None or Unspecified,Yes,None or Unspecified,None or Unspecified,,,,,,,,,,,,,,,
12326,1188807,42000,1030252,121,3.0,2001,9496.0,High,4/16/2009 0:00,G720VHP,G720,,,VHP,,Motorgrader - 200.0 + Horsepower,South Dakota,MG,Motor Graders,No,EROPS w AC,,,,,Powershift,,None or Unspecified,14',None or Unspecified,No,Base + 1 Function,None or Unspecified,None or Unspecified,None or Unspecified,None or Unspecified,"14""",,,,,,,,,,,,,,,
12326,2449277,60000,1731455,136,1.0,2001,0.0,,2/16/2009 0:00,G720VHP,G720,,,VHP,,Motorgrader - 200.0 + Horsepower,Florida,MG,Motor Graders,No,EROPS w AC,,,,,None or Unspecified,,None or Unspecified,12',None or Unspecified,No,Base + 1 Function,None or Unspecified,None or Unspecified,None or Unspecified,None or Unspecified,"14""",,,,,,,,,,,,,,,
12326,2449288,96000,1678622,136,,2002,0.0,,8/7/2008 0:00,G720VHP,G720,,,VHP,,Motorgrader - 200.0 + Horsepower,New York,MG,Motor Graders,No,EROPS w AC,,,,,None or Unspecified,,None or Unspecified,None or Unspecified,None or Unspecified,No,Base + 1 Function,None or Unspecified,Yes,Yes,None or Unspecified,None or Unspecified,,,,,,,,,,,,,,,
12326,2449291,77000,1677415,136,8.0,2001,1273.0,Low,7/16/2008 0:00,G720VHP,G720,,,VHP,,Motorgrader - 200.0 + Horsepower,Mississippi,MG,Motor Graders,No,EROPS w AC,,,,,None or Unspecified,,None or Unspecified,None or Unspecified,Low Profile,No,Base + 1 Function,None or Unspecified,Yes,Yes,Sideshift & Tip,None or Unspecified,,,,,,,,,,,,,,,
12326,2449292,78000,1677415,136,,2002,0.0,,2/9/2009 0:00,G720VHP,G720,,,VHP,,Motorgrader - 200.0 + Horsepower,Florida,MG,Motor Graders,No,EROPS w AC,,,,,None or Unspecified,,None or Unspecified,None or Unspecified,Low Profile,No,Base + 1 Function,None or Unspecified,Yes,Yes,Sideshift & Tip,None or Unspecified,,,,,,,,,,,,,,,
12326,2450946,41000,1727446,136,1.0,2001,0.0,,5/27/2009 0:00,G720VHP,G720,,,VHP,,Motorgrader - 200.0 + Horsepower,Florida,MG,Motor Graders,No,EROPS w AC,,,,,None or Unspecified,,None or Unspecified,12',None or Unspecified,No,Base + 1 Function,None or Unspecified,None or Unspecified,None or Unspecified,None or Unspecified,"14""",,,,,,,,,,,,,,,
12326,2457204,80000,1705487,136,1.0,2002,0.0,,4/23/2008 0:00,G720VHP,G720,,,VHP,,Motorgrader - 200.0 + Horsepower,Arizona,MG,Motor Graders,No,EROPS w AC,,,,,None or Unspecified,,None or Unspecified,14',None or Unspecified,No,Base + 1 Function,Yes,Yes,None or Unspecified,None or Unspecified,None or Unspecified,,,,,,,,,,,,,,,
12326,2457209,87500,1779390,136,1.0,2002,0.0,,2/16/2009 0:00,G720VHP,G720,,,VHP,,Motorgrader - 200.0 + Horsepower,Florida,MG,Motor Graders,No,EROPS w AC,,,,,None or Unspecified,,None or Unspecified,14',Low Profile,No,Base + 1 Function,None or Unspecified,None or Unspecified,Yes,None or Unspecified,None or Unspecified,,,,,,,,,,,,,,,
12326,2746273,62500,1834564,149,1.0,2002,3905.0,Low,2/15/2011 0:00,G720VHP,G720,,,VHP,,Motorgrader - 200.0 + Horsepower,Florida,MG,Motor Graders,No,EROPS w AC,,,,,None or Unspecified,,None or Unspecified,14',Low Profile,No,Base + 1 Function,None or Unspecified,None or Unspecified,Yes,None or Unspecified,None or Unspecified,,,,,,,,,,,,,,,
12326,4390018,67000,2310910,172,1.0,2002,1512.0,Low,9/27/2011 0:00,G720VHP,G720,,,VHP,,Motorgrader - 200.0 + Horsepower,North Carolina,MG,Motor Graders,No,EROPS w AC,,,,,Powershift,,Yes,14',Low Profile,No,Base + 1 Function,Yes,Yes,Yes,Tip,"14""",,,,,,,,,,,,,,,
12326,4390028,73000,2310910,172,1.0,2006,11304.0,High,10/27/2011 0:00,G720VHP,G720,,,VHP,,Motorgrader - 200.0 + Horsepower,Florida,MG,Motor Graders,No,EROPS w AC,,,,,Powershift,,Yes,14',Low Profile,No,Base + 1 Function,Yes,Yes,Yes,Tip,"14""",,,,,,,,,,,,,,,
12326,6318314,73000,1864268,149,1.0,2006,,,10/28/2011 0:00,G720VHP,G720,,,VHP,,Motorgrader - 200.0 + Horsepower,Florida,MG,Motor Graders,No,EROPS w AC,,,,,None or Unspecified,,None or Unspecified,14',Low Profile,No,Base + 1 Function,Yes,Yes,Yes,None or Unspecified,None or Unspecified,,,,,,,,,,,,,,,
12326,6318315,67000,1906499,149,1.0,2002,,,9/28/2011 0:00,G720VHP,G720,,,VHP,,Motorgrader - 200.0 + Horsepower,North Carolina,MG,Motor Graders,No,OROPS,,,,,None or Unspecified,,None or Unspecified,None or Unspecified,None or Unspecified,No,Base + 1 Function,None or Unspecified,None or Unspecified,None or Unspecified,None or Unspecified,None or Unspecified,,,,,,,,,,,,,,,
