ModelID,SalesID,SalePrice,MachineID,datasource,auctioneerID,YearMade,MachineHoursCurrentMeter,UsageBand,saledate,fiModelDesc,fiBaseModel,fiSecondaryDesc,fiModelSeries,fiModelDescriptor,ProductSize,fiProductClassDesc,state,ProductGroup,ProductGroupDesc,Drive_System,Enclosure,Forks,Pad_Type,Ride_Control,Stick,Transmission,Turbocharged,Blade_Extension,Blade_Width,Enclosure_Type,Engine_Horsepower,Hydraulics,Pushblock,Ripper,Scarifier,Tip_Control,Tire_Size,Coupler,Coupler_System,Grouser_Tracks,Hydraulics_Flow,Track_Type,Undercarriage_Pad_Width,Stick_Length,Thumb,Pattern_Changer,Grouser_Type,Backhoe_Mounting,Blade_Type,Travel_Controls,Differential_Type,Steering_Controls
12343,1144325,6000,1025232,121,3.0,1000,1998.0,Low,11/18/2010 0:00,5625,5625,,,,,Skid Steer Loader - 1601.0 to 1751.0 Lb Operating Capacity,Illinois,SSL,Skid Steer Loaders,,OROPS,Yes,,,,,,,,,,Auxiliary,,,,,,Manual,Yes,Yes,Standard,,,,,,,,,,,
12343,1173786,8250,1006720,121,3.0,1995,2237.0,Medium,9/23/2004 0:00,5625,5625,,,,,Skid Steer Loader - 1601.0 to 1751.0 Lb Operating Capacity,Kentucky,SSL,Skid Steer Loaders,,OROPS,Yes,,,,,,,,,,Auxiliary,,,,,,None or Unspecified,None or Unspecified,None or Unspecified,Standard,,,,,,,,,,,
12343,2457707,5000,1107867,136,1.0,1996,0.0,,3/24/2009 0:00,5625,5625,,,,,Skid Steer Loader - 1601.0 to 1751.0 Lb Operating Capacity,North Carolina,SSL,Skid Steer Loaders,,OROPS,None or Unspecified,,,,,,,,,,Standard,,,,,,None or Unspecified,None or Unspecified,None or Unspecified,Standard,,,,,,,,,,,
12343,2758416,5000,1396311,149,1.0,1995,1095.0,Low,2/9/2011 0:00,5625,5625,,,,,Skid Steer Loader - 1601.0 to 1751.0 Lb Operating Capacity,Texas,SSL,Skid Steer Loaders,,OROPS,None or Unspecified,,,,,,,,,,Auxiliary,,,,,,None or Unspecified,None or Unspecified,None or Unspecified,Standard,,,,,,,,,,,
12343,2758440,5500,1850872,149,2.0,1000,,,7/17/2010 0:00,5625,5625,,,,,Skid Steer Loader - 1601.0 to 1751.0 Lb Operating Capacity,New York,SSL,Skid Steer Loaders,,OROPS,None or Unspecified,,,,,,,,,,Auxiliary,,,,,,Manual,Yes,None or Unspecified,Standard,,,,,,,,,,,
12343,2760111,6000,1936235,149,1.0,1000,,,1/28/2010 0:00,5625,5625,,,,,Skid Steer Loader - 1601.0 to 1751.0 Lb Operating Capacity,Alabama,SSL,Skid Steer Loaders,,OROPS,None or Unspecified,,,,,,,,,,Standard,,,,,,None or Unspecified,None or Unspecified,None or Unspecified,Standard,,,,,,,,,,,
12343,6321470,6500,1807437,149,1.0,1995,,,12/20/2011 0:00,5625,5625,,,,,Skid Steer Loader - 1601.0 to 1751.0 Lb Operating Capacity,Tennessee,SSL,Skid Steer Loaders,,OROPS,None or Unspecified,,,,,,,,,,Auxiliary,,,,,,None or Unspecified,None or Unspecified,None or Unspecified,Standard,,,,,,,,,,,
