ModelID,SalesID,SalePrice,MachineID,datasource,auctioneerID,YearMade,MachineHoursCurrentMeter,UsageBand,saledate,fiModelDesc,fiBaseModel,fiSecondaryDesc,fiModelSeries,fiModelDescriptor,ProductSize,fiProductClassDesc,state,ProductGroup,ProductGroupDesc,Drive_System,Enclosure,Forks,Pad_Type,Ride_Control,Stick,Transmission,Turbocharged,Blade_Extension,Blade_Width,Enclosure_Type,Engine_Horsepower,Hydraulics,Pushblock,Ripper,Scarifier,Tip_Control,Tire_Size,Coupler,Coupler_System,Grouser_Tracks,Hydraulics_Flow,Track_Type,Undercarriage_Pad_Width,Stick_Length,Thumb,Pattern_Changer,Grouser_Type,Backhoe_Mounting,Blade_Type,Travel_Controls,Differential_Type,Steering_Controls
12530,1885809,24500,1106710,132,2.0,2005,,,5/23/2007 0:00,820-2,820-2,,,,Compact,Wheel Loader - 40.0 to 60.0 Horsepower,Florida,WL,Wheel Loader,,OROPS,None or Unspecified,,None or Unspecified,,,,,,,,2 Valve,,,,,None or Unspecified,None or Unspecified,,,,,,,,,,,,,Standard,Conventional
12530,1885953,10000,1079961,132,1.0,1994,,,9/28/1999 0:00,820-2,820-2,,,,Compact,Wheel Loader - 40.0 to 60.0 Horsepower,Ohio,WL,Wheel Loader,,OROPS,None or Unspecified,,None or Unspecified,,,,,,,,2 Valve,,,,,None or Unspecified,None or Unspecified,,,,,,,,,,,,,Standard,Conventional
12530,1885956,13500,1475836,132,2.0,1993,,,2/2/2003 0:00,820-2,820-2,,,,Compact,Wheel Loader - 40.0 to 60.0 Horsepower,Florida,WL,Wheel Loader,,EROPS,Yes,,None or Unspecified,,,,,,,,2 Valve,,,,,None or Unspecified,None or Unspecified,,,,,,,,,,,,,Standard,Conventional
12530,1885957,8800,1475836,132,16.0,1000,,,5/16/2002 0:00,820-2,820-2,,,,Compact,Wheel Loader - 40.0 to 60.0 Horsepower,Ohio,WL,Wheel Loader,,EROPS,Yes,,None or Unspecified,,,,,,,,2 Valve,,,,,None or Unspecified,None or Unspecified,,,,,,,,,,,,,Standard,Conventional
12530,1885960,14500,1160850,132,4.0,1995,,,2/13/2006 0:00,820-2,820-2,,,,Compact,Wheel Loader - 40.0 to 60.0 Horsepower,Florida,WL,Wheel Loader,,EROPS,None or Unspecified,,None or Unspecified,,,,,,,,2 Valve,,,,,None or Unspecified,None or Unspecified,,,,,,,,,,,,,Standard,Conventional
12530,1885961,14500,1160850,132,4.0,1993,,,2/14/2006 0:00,820-2,820-2,,,,Compact,Wheel Loader - 40.0 to 60.0 Horsepower,Florida,WL,Wheel Loader,,EROPS,None or Unspecified,,None or Unspecified,,,,,,,,2 Valve,,,,,None or Unspecified,None or Unspecified,,,,,,,,,,,,,Standard,Conventional
12530,1885962,15500,1411185,132,4.0,1997,,,2/12/2007 0:00,820-2,820-2,,,,Compact,Wheel Loader - 40.0 to 60.0 Horsepower,Florida,WL,Wheel Loader,,OROPS,Yes,,None or Unspecified,,,,,,,,2 Valve,,,,,None or Unspecified,None or Unspecified,,,,,,,,,,,,,Standard,Conventional
12530,1885963,15500,1411185,132,4.0,1997,,,2/13/2007 0:00,820-2,820-2,,,,Compact,Wheel Loader - 40.0 to 60.0 Horsepower,Florida,WL,Wheel Loader,,OROPS,Yes,,None or Unspecified,,,,,,,,2 Valve,,,,,None or Unspecified,None or Unspecified,,,,,,,,,,,,,Standard,Conventional
12530,1886137,21000,1507134,132,1.0,2004,,,10/10/2007 0:00,820-2,820-2,,,,Compact,Wheel Loader - 40.0 to 60.0 Horsepower,Florida,WL,Wheel Loader,,OROPS,Yes,,None or Unspecified,,,,,,,,2 Valve,,,,,None or Unspecified,Manual,,,,,,,,,,,,,Standard,Conventional
12530,2468149,9000,1733314,136,2.0,1000,0.0,,8/13/2009 0:00,820-2,820-2,,,,Compact,Wheel Loader - 40.0 to 60.0 Horsepower,Florida,WL,Wheel Loader,,OROPS,None or Unspecified,,None or Unspecified,,,,,,,,2 Valve,,,,,None or Unspecified,None or Unspecified,,,,,,,,,,,,,Standard,Conventional
12530,2468150,12500,1473875,136,1.0,1993,0.0,,5/25/2010 0:00,820-2,820-2,,,,Compact,Wheel Loader - 40.0 to 60.0 Horsepower,Florida,WL,Wheel Loader,,OROPS,Yes,,None or Unspecified,,,,,,,,2 Valve,,,,,None or Unspecified,None or Unspecified,,,,,,,,,,,,,Standard,Conventional
12530,2783982,11000,1184156,149,1.0,1993,4577.0,Low,2/15/2011 0:00,820-2,820-2,,,,Compact,Wheel Loader - 40.0 to 60.0 Horsepower,Florida,WL,Wheel Loader,,OROPS,None or Unspecified,,None or Unspecified,,,,,,,,2 Valve,,,,,None or Unspecified,Manual,,,,,,,,,,,,,Standard,Conventional
