ModelID,SalesID,SalePrice,MachineID,datasource,auctioneerID,YearMade,MachineHoursCurrentMeter,UsageBand,saledate,fiModelDesc,fiBaseModel,fiSecondaryDesc,fiModelSeries,fiModelDescriptor,ProductSize,fiProductClassDesc,state,ProductGroup,ProductGroupDesc,Drive_System,Enclosure,Forks,Pad_Type,Ride_Control,Stick,Transmission,Turbocharged,Blade_Extension,Blade_Width,Enclosure_Type,Engine_Horsepower,Hydraulics,Pushblock,Ripper,Scarifier,Tip_Control,Tire_Size,Coupler,Coupler_System,Grouser_Tracks,Hydraulics_Flow,Track_Type,Undercarriage_Pad_Width,Stick_Length,Thumb,Pattern_Changer,Grouser_Type,Backhoe_Mounting,Blade_Type,Travel_Controls,Differential_Type,Steering_Controls
12707,1211628,77000,574998,121,3.0,2008,457.0,Low,2/24/2011 0:00,D4KXL,D4,K,,XL,,"Track Type Tractor, Dozer - 75.0 to 85.0 Horsepower",Michigan,TTT,Track Type Tractors,,EROPS w AC,,,,,Hydrostatic,,,,,,3 Valve,,None or Unspecified,,,,,,,,,,,,,,None or Unspecified,None or Unspecified,None or Unspecified,,
12707,2314569,75000,1492172,136,17.0,2008,9.0,Low,9/29/2009 0:00,D4KXL,D4,K,,XL,,"Track Type Tractor, Dozer - 75.0 to 85.0 Horsepower",Washington,TTT,Track Type Tractors,,OROPS,,,,,Standard,,,,,,4 Valve,,Multi Shank,,,,,,,,,,,,,,None or Unspecified,PAT,None or Unspecified,,
12707,2603457,67500,680271,149,1.0,2008,1411.0,Medium,4/14/2011 0:00,D4KXL,D4,K,,XL,,"Track Type Tractor, Dozer - 75.0 to 85.0 Horsepower",Connecticut,TTT,Track Type Tractors,,EROPS w AC,,,,,Standard,,,,,,3 Valve,,None or Unspecified,,,,,,,,,,,,,,None or Unspecified,PAT,None or Unspecified,,
12707,4302473,62000,2286385,172,1.0,2008,1603.0,Medium,12/7/2011 0:00,D4KXL,D4,K,,XL,,"Track Type Tractor, Dozer - 75.0 to 85.0 Horsepower",Texas,TTT,Track Type Tractors,,EROPS w AC,,,,,Standard,,,,,,2 Valve,,Multi Shank,,,,,,,,,,,,,,None or Unspecified,PAT,Differential Steer,,
12707,4302478,100000,2286385,172,1.0,2008,937.0,Medium,7/21/2011 0:00,D4KXL,D4,K,,XL,,"Track Type Tractor, Dozer - 75.0 to 85.0 Horsepower",California,TTT,Track Type Tractors,,EROPS w AC,,,,,Standard,,,,,,2 Valve,,Multi Shank,,,,,,,,,,,,,,None or Unspecified,PAT,Differential Steer,,
12707,6278641,59000,1876776,149,1.0,2008,,,12/8/2011 0:00,D4KXL,D4,K,,XL,,"Track Type Tractor, Dozer - 75.0 to 85.0 Horsepower",Texas,TTT,Track Type Tractors,,OROPS,,,,,Standard,,,,,,2 Valve,,None or Unspecified,,,,,,,,,,,,,,None or Unspecified,PAT,None or Unspecified,,
12707,6278642,62000,1863245,149,1.0,2008,,,12/8/2011 0:00,D4KXL,D4,K,,XL,,"Track Type Tractor, Dozer - 75.0 to 85.0 Horsepower",Texas,TTT,Track Type Tractors,,OROPS,,,,,Standard,,,,,,2 Valve,,None or Unspecified,,,,,,,,,,,,,,None or Unspecified,PAT,None or Unspecified,,
12707,6278645,100000,519700,149,1.0,2008,,,7/22/2011 0:00,D4KXL,D4,K,,XL,,"Track Type Tractor, Dozer - 75.0 to 85.0 Horsepower",California,TTT,Track Type Tractors,,EROPS w AC,,,,,Standard,,,,,,4 Valve,,Multi Shank,,,,,,,,,,,,,,None or Unspecified,PAT,Differential Steer,,
