ModelID,SalesID,SalePrice,MachineID,datasource,auctioneerID,YearMade,MachineHoursCurrentMeter,UsageBand,saledate,fiModelDesc,fiBaseModel,fiSecondaryDesc,fiModelSeries,fiModelDescriptor,ProductSize,fiProductClassDesc,state,ProductGroup,ProductGroupDesc,Drive_System,Enclosure,Forks,Pad_Type,Ride_Control,Stick,Transmission,Turbocharged,Blade_Extension,Blade_Width,Enclosure_Type,Engine_Horsepower,Hydraulics,Pushblock,Ripper,Scarifier,Tip_Control,Tire_Size,Coupler,Coupler_System,Grouser_Tracks,Hydraulics_Flow,Track_Type,Undercarriage_Pad_Width,Stick_Length,Thumb,Pattern_Changer,Grouser_Type,Backhoe_Mounting,Blade_Type,Travel_Controls,Differential_Type,Steering_Controls
12911,1147235,10000,1062206,121,3.0,1999,2775.0,High,4/29/2004 0:00,HD4500,HD4500,,,,,Skid Steer Loader - 2701.0+ Lb Operating Capacity,Michigan,SSL,Skid Steer Loaders,,OROPS,Yes,,,,,,,,,,Standard,,,,,,None or Unspecified,None or Unspecified,Yes,Standard,,,,,,,,,,,
12911,1149894,15500,1008993,121,3.0,1999,525.0,Low,7/1/2004 0:00,HD4500,HD4500,,,,,Skid Steer Loader - 2701.0+ Lb Operating Capacity,Louisiana,SSL,Skid Steer Loaders,,OROPS,None or Unspecified,,,,,,,,,,Standard,,,,,,None or Unspecified,None or Unspecified,Yes,Standard,,,,,,,,,,,
12911,1150655,17500,1064542,121,3.0,2000,463.0,Low,7/1/2004 0:00,HD4500,HD4500,,,,,Skid Steer Loader - 2701.0+ Lb Operating Capacity,Louisiana,SSL,Skid Steer Loaders,,OROPS,None or Unspecified,,,,,,,,,,Standard,,,,,,None or Unspecified,None or Unspecified,Yes,Standard,,,,,,,,,,,
12911,1157639,9000,1022452,121,3.0,2000,386.0,Low,8/9/2007 0:00,HD4500,HD4500,,,,,Skid Steer Loader - 2701.0+ Lb Operating Capacity,Louisiana,SSL,Skid Steer Loaders,,OROPS,None or Unspecified,,,,,,,,,,Auxiliary,,,,,,None or Unspecified,None or Unspecified,Yes,Standard,,,,,,,,,,,
12911,1158275,10000,47062,121,3.0,2000,103.0,Low,8/9/2007 0:00,HD4500,HD4500,,,,,Skid Steer Loader - 2701.0+ Lb Operating Capacity,Louisiana,SSL,Skid Steer Loaders,,OROPS,None or Unspecified,,,,,,,,,,Auxiliary,,,,,,None or Unspecified,None or Unspecified,Yes,Standard,,,,,,,,,,,
12911,1163008,15000,54649,121,3.0,1999,292.0,Low,6/14/2007 0:00,HD4500,HD4500,,,,,Skid Steer Loader - 2701.0+ Lb Operating Capacity,Louisiana,SSL,Skid Steer Loaders,,OROPS,None or Unspecified,,,,,,,,,,Standard,,,,,,None or Unspecified,None or Unspecified,Yes,Standard,,,,,,,,,,,
12911,1169023,16000,50960,121,3.0,1999,418.0,Low,6/14/2007 0:00,HD4500,HD4500,,,,,Skid Steer Loader - 2701.0+ Lb Operating Capacity,Louisiana,SSL,Skid Steer Loaders,,OROPS,None or Unspecified,,,,,,,,,,Standard,,,,,,None or Unspecified,None or Unspecified,Yes,Standard,,,,,,,,,,,
12911,1169288,17500,999039,121,3.0,2000,512.0,Low,7/1/2004 0:00,HD4500,HD4500,,,,,Skid Steer Loader - 2701.0+ Lb Operating Capacity,Louisiana,SSL,Skid Steer Loaders,,OROPS,None or Unspecified,,,,,,,,,,Standard,,,,,,None or Unspecified,None or Unspecified,Yes,Standard,,,,,,,,,,,
12911,1174536,15500,70870,121,3.0,2000,504.0,Low,12/2/2004 0:00,HD4500,HD4500,,,,,Skid Steer Loader - 2701.0+ Lb Operating Capacity,Louisiana,SSL,Skid Steer Loaders,,OROPS,None or Unspecified,,,,,,,,,,Auxiliary,,,,,,None or Unspecified,None or Unspecified,Yes,Standard,,,,,,,,,,,
12911,1174544,14500,54339,121,3.0,1999,849.0,Low,12/2/2004 0:00,HD4500,HD4500,,,,,Skid Steer Loader - 2701.0+ Lb Operating Capacity,Louisiana,SSL,Skid Steer Loaders,,OROPS,None or Unspecified,,,,,,,,,,Auxiliary,,,,,,None or Unspecified,None or Unspecified,Yes,Standard,,,,,,,,,,,
12911,2191871,7000,1751007,136,1.0,1000,,,6/9/2010 0:00,HD4500,HD4500,,,,,Skid Steer Loader - 2701.0+ Lb Operating Capacity,Michigan,SSL,Skid Steer Loaders,,OROPS,None or Unspecified,,,,,,,,,,Auxiliary,,,,,,None or Unspecified,None or Unspecified,None or Unspecified,Standard,,,,,,,,,,,
12911,2191873,9500,1641397,136,1.0,1000,,,5/25/2010 0:00,HD4500,HD4500,,,,,Skid Steer Loader - 2701.0+ Lb Operating Capacity,Florida,SSL,Skid Steer Loaders,,OROPS,None or Unspecified,,,,,,,,,,Standard,,,,,,None or Unspecified,None or Unspecified,Yes,Standard,,,,,,,,,,,
12911,2482765,13000,1885370,149,99.0,1000,0.0,,7/15/2010 0:00,HD4500,HD4500,,,,,Skid Steer Loader - 2701.0+ Lb Operating Capacity,Mississippi,SSL,Skid Steer Loaders,,OROPS,None or Unspecified,,,,,,,,,,Standard,,,,,,None or Unspecified,None or Unspecified,None or Unspecified,Standard,,,,,,,,,,,
12911,2482771,14000,1641397,149,27.0,1000,0.0,,11/17/2010 0:00,HD4500,HD4500,,,,,Skid Steer Loader - 2701.0+ Lb Operating Capacity,Mississippi,SSL,Skid Steer Loaders,,OROPS,None or Unspecified,,,,,,,,,,Standard,,,,,,None or Unspecified,None or Unspecified,Yes,Standard,,,,,,,,,,,
12911,2482784,7000,1805391,149,1.0,2000,0.0,,5/11/2011 0:00,HD4500,HD4500,,,,,Skid Steer Loader - 2701.0+ Lb Operating Capacity,Texas,SSL,Skid Steer Loaders,,OROPS,None or Unspecified,,,,,,,,,,Auxiliary,,,,,,None or Unspecified,None or Unspecified,Yes,Standard,,,,,,,,,,,
12911,2482785,7000,1795640,149,1.0,1999,0.0,,5/18/2011 0:00,HD4500,HD4500,,,,,Skid Steer Loader - 2701.0+ Lb Operating Capacity,Florida,SSL,Skid Steer Loaders,,EROPS w AC,None or Unspecified,,,,,,,,,,Standard,,,,,,None or Unspecified,None or Unspecified,None or Unspecified,Standard,,,,,,,,,,,
