ModelID,SalesID,SalePrice,MachineID,datasource,auctioneerID,YearMade,MachineHoursCurrentMeter,UsageBand,saledate,fiModelDesc,fiBaseModel,fiSecondaryDesc,fiModelSeries,fiModelDescriptor,ProductSize,fiProductClassDesc,state,ProductGroup,ProductGroupDesc,Drive_System,Enclosure,Forks,Pad_Type,Ride_Control,Stick,Transmission,Turbocharged,Blade_Extension,Blade_Width,Enclosure_Type,Engine_Horsepower,Hydraulics,Pushblock,Ripper,Scarifier,Tip_Control,Tire_Size,Coupler,Coupler_System,Grouser_Tracks,Hydraulics_Flow,Track_Type,Undercarriage_Pad_Width,Stick_Length,Thumb,Pattern_Changer,Grouser_Type,Backhoe_Mounting,Blade_Type,Travel_Controls,Differential_Type,Steering_Controls
131,1141875,31000,1067465,121,3.0,1000,0.0,,2/8/2007 0:00,D135A-1,D135,A,-1,,Large,"Track Type Tractor, Dozer - 260.0 + Horsepower",Kentucky,TTT,Track Type Tractors,,EROPS w AC,,,,,,,,,,,Auxiliary,,,,,,,,,,,,,,,,,No,,,
131,1165427,33500,1022904,121,3.0,1000,7846.0,High,8/5/2009 0:00,D135A-1,D135,A,-1,,Large,"Track Type Tractor, Dozer - 260.0 + Horsepower",California,TTT,Track Type Tractors,,EROPS w AC,,,,,Powershift,,,,,,2 Valve,,Multi Shank,,,,,,,,,,,,,,None or Unspecified,Semi U,Lever,,
131,1727102,42000,1205252,132,8.0,1988,,,8/25/2005 0:00,D135A-1,D135,A,-1,,Large,"Track Type Tractor, Dozer - 260.0 + Horsepower",Georgia,TTT,Track Type Tractors,,EROPS w AC,,,,,,,,,,,3 Valve,,,,,,,,,,,,,,,,,,,,
131,1727113,47500,99900,132,6.0,1988,,,10/15/1996 0:00,D135A-1,D135,A,-1,,Large,"Track Type Tractor, Dozer - 260.0 + Horsepower",Maine,TTT,Track Type Tractors,,EROPS w AC,,,,,,,,,,,Auxiliary,,,,,,,,,,,,,,,,,Straight,2 Pedal,,
131,1727164,16000,1188574,132,1.0,1988,,,3/29/2001 0:00,D135A-1,D135,A,-1,,Large,"Track Type Tractor, Dozer - 260.0 + Horsepower",Maryland,TTT,Track Type Tractors,,EROPS w AC,,,,,None or Unspecified,,,,,,Base + 1 Function,,Yes,,,,,,,,,,,,,,,,,,
131,1727165,35000,1188574,132,4.0,1988,,,2/11/2002 0:00,D135A-1,D135,A,-1,,Large,"Track Type Tractor, Dozer - 260.0 + Horsepower",Florida,TTT,Track Type Tractors,,EROPS w AC,,,,,None or Unspecified,,,,,,Base + 1 Function,,Yes,,,,,,,,,,,,,,,,,,
131,1727249,25000,810107,132,1.0,1988,,,9/28/1999 0:00,D135A-1,D135,A,-1,,Large,"Track Type Tractor, Dozer - 260.0 + Horsepower",Ohio,TTT,Track Type Tractors,,EROPS,,,,,Standard,,,,,,2 Valve,,None or Unspecified,,,,,,,,,,,,,,None or Unspecified,Semi U,None or Unspecified,,
131,1727252,36000,810107,132,1.0,1988,,,5/9/2006 0:00,D135A-1,D135,A,-1,,Large,"Track Type Tractor, Dozer - 260.0 + Horsepower",Texas,TTT,Track Type Tractors,,EROPS,,,,,Standard,,,,,,2 Valve,,None or Unspecified,,,,,,,,,,,,,,None or Unspecified,Semi U,None or Unspecified,,
131,1727261,40000,826840,132,6.0,1988,,,3/12/1996 0:00,D135A-1,D135,A,-1,,Large,"Track Type Tractor, Dozer - 260.0 + Horsepower",Florida,TTT,Track Type Tractors,,EROPS w AC,,,,,,,,,,,2 Valve,,,,,,,,,,,,,,,,,,,,
131,1727317,47500,182370,132,6.0,1988,,,3/12/1996 0:00,D135A-1,D135,A,-1,,Large,"Track Type Tractor, Dozer - 260.0 + Horsepower",Florida,TTT,Track Type Tractors,,EROPS w AC,,,,,,,,,,,2 Valve,,,,,,,,,,,,,,,,,,,,
131,1727330,26000,1044909,132,1.0,1988,,,6/8/2000 0:00,D135A-1,D135,A,-1,,Large,"Track Type Tractor, Dozer - 260.0 + Horsepower",Maryland,TTT,Track Type Tractors,,,,,,,,,,,,,,,,,,,,,,,,,,,,,,,,,
131,1727390,45000,536914,132,1.0,1988,,,11/19/1996 0:00,D135A-1,D135,A,-1,,Large,"Track Type Tractor, Dozer - 260.0 + Horsepower",Florida,TTT,Track Type Tractors,,EROPS w AC,,,,,,,,,,,2 Valve,,,,,,,,,,,,,,,,,,,,
131,1727406,39000,1046204,132,1.0,1988,,,6/11/1999 0:00,D135A-1,D135,A,-1,,Large,"Track Type Tractor, Dozer - 260.0 + Horsepower",California,TTT,Track Type Tractors,,EROPS w AC,,,,,,,,,,,Auxiliary,,,,,,,,,,,,,,,,,No,2 Pedal,,
131,1727431,45000,90321,132,23.0,1988,,,11/19/1994 0:00,D135A-1,D135,A,-1,,Large,"Track Type Tractor, Dozer - 260.0 + Horsepower",New Jersey,TTT,Track Type Tractors,,EROPS w AC,,,,,,,,,,,Auxiliary,,,,,,,,,,,,,,,,,Straight,2 Pedal,,
131,1727453,37000,402050,132,1.0,1988,,,6/28/2005 0:00,D135A-1,D135,A,-1,,Large,"Track Type Tractor, Dozer - 260.0 + Horsepower",Maryland,TTT,Track Type Tractors,,EROPS,,,,,,,,,,,2 Valve,,,,,,,,,,,,,,,,,,,,
131,1727466,27000,818118,132,1.0,1988,,,3/11/2005 0:00,D135A-1,D135,A,-1,,Large,"Track Type Tractor, Dozer - 260.0 + Horsepower",Missouri,TTT,Track Type Tractors,,EROPS w AC,,,,,None or Unspecified,,,,,,Base + 1 Function,,None or Unspecified,,,,,,,,,,,,,,,,,,
131,1727468,35000,818118,132,1.0,1988,,,9/15/2004 0:00,D135A-1,D135,A,-1,,Large,"Track Type Tractor, Dozer - 260.0 + Horsepower",Texas,TTT,Track Type Tractors,,EROPS w AC,,,,,None or Unspecified,,,,,,Base + 1 Function,,None or Unspecified,,,,,,,,,,,,,,,,,,
131,1727471,35000,818118,132,1.0,1988,,,9/24/2004 0:00,D135A-1,D135,A,-1,,Large,"Track Type Tractor, Dozer - 260.0 + Horsepower",Texas,TTT,Track Type Tractors,,EROPS w AC,,,,,None or Unspecified,,,,,,Base + 1 Function,,None or Unspecified,,,,,,,,,,,,,,,,,,
131,1727539,55000,861,132,6.0,1989,,,3/12/1996 0:00,D135A-1,D135,A,-1,,Large,"Track Type Tractor, Dozer - 260.0 + Horsepower",Florida,TTT,Track Type Tractors,,EROPS w AC,,,,,,,,,,,2 Valve,,,,,,,,,,,,,,,,,,,,
131,1727603,51000,1000956,132,1.0,1988,,,8/18/1998 0:00,D135A-1,D135,A,-1,,Large,"Track Type Tractor, Dozer - 260.0 + Horsepower",Texas,TTT,Track Type Tractors,,EROPS w AC,,,,,,,,,,,Standard,,,,,,,,,,,,,,,,,No,2 Pedal,,
131,1727626,30000,1031559,132,1.0,1000,,,9/1/2004 0:00,D135A-1,D135,A,-1,,Large,"Track Type Tractor, Dozer - 260.0 + Horsepower",Georgia,TTT,Track Type Tractors,,EROPS w AC,,,,,Powershift,,,,,,2 Valve,,None or Unspecified,,,,,,,,,,,,,,None or Unspecified,PAT,None or Unspecified,,
131,1727655,40000,819300,132,12.0,1000,,,11/19/1997 0:00,D135A-1,D135,A,-1,,Large,"Track Type Tractor, Dozer - 260.0 + Horsepower",Florida,TTT,Track Type Tractors,,EROPS w AC,,,,,,,,,,,Standard,,,,,,,,,,,,,,,,,No,2 Pedal,,
131,1727662,42500,436937,132,12.0,1988,,,11/19/1997 0:00,D135A-1,D135,A,-1,,Large,"Track Type Tractor, Dozer - 260.0 + Horsepower",Florida,TTT,Track Type Tractors,,EROPS w AC,,,,,Powershift,,,,,,2 Valve,,None or Unspecified,,,,,,,,,,,,,,None or Unspecified,PAT,None or Unspecified,,
131,1727674,80000,828147,132,1.0,1989,,,12/8/1995 0:00,D135A-1,D135,A,-1,,Large,"Track Type Tractor, Dozer - 260.0 + Horsepower",Illinois,TTT,Track Type Tractors,,EROPS,,,,,,,,,,,Standard,,,,,,,,,,,,,,,,,Straight,2 Pedal,,
131,1727702,20000,1093936,132,1.0,1988,,,10/30/2001 0:00,D135A-1,D135,A,-1,,Large,"Track Type Tractor, Dozer - 260.0 + Horsepower",Idaho,TTT,Track Type Tractors,,EROPS,,,,,,,,,,,Standard,,,,,,,,,,,,,,,,,Straight,2 Pedal,,
131,1727722,44000,1473674,132,4.0,1988,,,2/4/1999 0:00,D135A-1,D135,A,-1,,Large,"Track Type Tractor, Dozer - 260.0 + Horsepower",Florida,TTT,Track Type Tractors,,EROPS w AC,,,,,Standard,,,,,,2 Valve,,None or Unspecified,,,,,,,,,,,,,,None or Unspecified,Semi U,None or Unspecified,,
131,1727725,34000,1473674,132,4.0,1989,,,2/17/2001 0:00,D135A-1,D135,A,-1,,Large,"Track Type Tractor, Dozer - 260.0 + Horsepower",Florida,TTT,Track Type Tractors,,EROPS w AC,,,,,Standard,,,,,,2 Valve,,None or Unspecified,,,,,,,,,,,,,,None or Unspecified,Semi U,None or Unspecified,,
131,1727748,59000,1472427,132,1.0,1989,,,3/25/1996 0:00,D135A-1,D135,A,-1,,Large,"Track Type Tractor, Dozer - 260.0 + Horsepower",Nevada,TTT,Track Type Tractors,,EROPS,,,,,,,,,,,Auxiliary,,,,,,,,,,,,,,,,,No,2 Pedal,,
131,1727764,39000,105652,132,4.0,1989,,,2/17/2001 0:00,D135A-1,D135,A,-1,,Large,"Track Type Tractor, Dozer - 260.0 + Horsepower",Florida,TTT,Track Type Tractors,,EROPS w AC,,,,,,,,,,,2 Valve,,,,,,,,,,,,,,,,,,,,
131,1727766,30000,105652,132,1.0,1989,,,9/17/1998 0:00,D135A-1,D135,A,-1,,Large,"Track Type Tractor, Dozer - 260.0 + Horsepower",Florida,TTT,Track Type Tractors,,EROPS w AC,,,,,,,,,,,2 Valve,,,,,,,,,,,,,,,,,,,,
131,1727800,62000,1266939,132,6.0,1989,,,4/4/1997 0:00,D135A-1,D135,A,-1,,Large,"Track Type Tractor, Dozer - 260.0 + Horsepower",Wyoming,TTT,Track Type Tractors,,EROPS,,,,,,,,,,,Standard,,,,,,,,,,,,,,,,,Straight,2 Pedal,,
131,1727840,35500,1367151,132,13.0,1989,,,12/7/2002 0:00,D135A-1,D135,A,-1,,Large,"Track Type Tractor, Dozer - 260.0 + Horsepower",Tennessee,TTT,Track Type Tractors,,EROPS,,,,,,,,,,,2 Valve,,,,,,,,,,,,,,,,,,,,
131,1727870,14000,1166728,132,1.0,1989,,,6/4/2002 0:00,D135A-1,D135,A,-1,,Large,"Track Type Tractor, Dozer - 260.0 + Horsepower",Maine,TTT,Track Type Tractors,,EROPS,,,,,,,,,,,Auxiliary,,,,,,,,,,,,,,,,,Straight,2 Pedal,,
131,1727871,63000,1166728,132,4.0,1989,,,4/19/1994 0:00,D135A-1,D135,A,-1,,Large,"Track Type Tractor, Dozer - 260.0 + Horsepower",Alabama,TTT,Track Type Tractors,,EROPS,,,,,,,,,,,Auxiliary,,,,,,,,,,,,,,,,,Straight,2 Pedal,,
131,1727875,60000,1166728,132,21.0,1986,,,5/6/1999 0:00,D135A-1,D135,A,-1,,Large,"Track Type Tractor, Dozer - 260.0 + Horsepower",Maine,TTT,Track Type Tractors,,EROPS,,,,,,,,,,,Auxiliary,,,,,,,,,,,,,,,,,Straight,2 Pedal,,
131,1727936,45000,1417141,132,6.0,1989,,,11/18/1998 0:00,D135A-1,D135,A,-1,,Large,"Track Type Tractor, Dozer - 260.0 + Horsepower",Wisconsin,TTT,Track Type Tractors,,EROPS,,,,,,,,,,,Standard,,,,,,,,,,,,,,,,,No,2 Pedal,,
131,1727941,34000,1369165,132,1.0,1989,,,9/19/2001 0:00,D135A-1,D135,A,-1,,Large,"Track Type Tractor, Dozer - 260.0 + Horsepower",Texas,TTT,Track Type Tractors,,EROPS,,,,,,,,,,,2 Valve,,,,,,,,,,,,,,,,,,,,
131,1727950,46000,1339161,132,9.0,1989,,,2/11/1998 0:00,D135A-1,D135,A,-1,,Large,"Track Type Tractor, Dozer - 260.0 + Horsepower",Florida,TTT,Track Type Tractors,,EROPS w AC,,,,,,,,,,,2 Valve,,,,,,,,,,,,,,,,,,,,
131,1727963,39000,1065943,132,6.0,1989,,,12/15/1998 0:00,D135A-1,D135,A,-1,,Large,"Track Type Tractor, Dozer - 260.0 + Horsepower",Kentucky,TTT,Track Type Tractors,,EROPS,,,,,,,,,,,,,,,,,,,,,,,,,,,,Straight,,,
131,1727970,45000,1065943,132,1.0,1989,,,11/19/1996 0:00,D135A-1,D135,A,-1,,Large,"Track Type Tractor, Dozer - 260.0 + Horsepower",Florida,TTT,Track Type Tractors,,EROPS,,,,,,,,,,,,,,,,,,,,,,,,,,,,Straight,,,
131,1727972,26000,569515,132,7.0,1989,,,12/1/2000 0:00,D135A-1,D135,A,-1,,Large,"Track Type Tractor, Dozer - 260.0 + Horsepower",Alabama,TTT,Track Type Tractors,,EROPS w AC,,,,,,,,,,,Auxiliary,,,,,,,,,,,,,,,,,Straight,2 Pedal,,
131,1727976,22500,569515,132,7.0,1989,,,9/15/2000 0:00,D135A-1,D135,A,-1,,Large,"Track Type Tractor, Dozer - 260.0 + Horsepower",Alabama,TTT,Track Type Tractors,,EROPS w AC,,,,,,,,,,,Auxiliary,,,,,,,,,,,,,,,,,Straight,2 Pedal,,
131,1727996,25000,332564,132,11.0,1989,,,12/6/2000 0:00,D135A-1,D135,A,-1,,Large,"Track Type Tractor, Dozer - 260.0 + Horsepower",Mississippi,TTT,Track Type Tractors,,EROPS w AC,,,,,,,,,,,Auxiliary,,,,,,,,,,,,,,,,,Straight,2 Pedal,,
131,1728016,45000,1551709,132,1.0,1989,,,11/19/1996 0:00,D135A-1,D135,A,-1,,Large,"Track Type Tractor, Dozer - 260.0 + Horsepower",Florida,TTT,Track Type Tractors,,EROPS w AC,,,,,,,,,,,Auxiliary,,,,,,,,,,,,,,,,,No,2 Pedal,,
131,1728022,21000,1067465,132,3.0,1989,,,12/14/2006 0:00,D135A-1,D135,A,-1,,Large,"Track Type Tractor, Dozer - 260.0 + Horsepower",California,TTT,Track Type Tractors,,EROPS w AC,,,,,,,,,,,Auxiliary,,,,,,,,,,,,,,,,,No,,,
131,1728034,69500,1366671,132,6.0,1990,,,10/15/1996 0:00,D135A-1,D135,A,-1,,Large,"Track Type Tractor, Dozer - 260.0 + Horsepower",Maine,TTT,Track Type Tractors,,EROPS,,,,,,,,,,,2 Valve,,,,,,,,,,,,,,,,,,,,
131,1728050,42500,1004872,132,1.0,1989,,,12/2/1997 0:00,D135A-1,D135,A,-1,,Large,"Track Type Tractor, Dozer - 260.0 + Horsepower",Texas,TTT,Track Type Tractors,,EROPS w AC,,,,,,,,,,,Auxiliary,,,,,,,,,,,,,,,,,No,2 Pedal,,
131,1728052,26000,1004872,132,1.0,1989,,,11/17/1998 0:00,D135A-1,D135,A,-1,,Large,"Track Type Tractor, Dozer - 260.0 + Horsepower",Texas,TTT,Track Type Tractors,,EROPS w AC,,,,,,,,,,,Auxiliary,,,,,,,,,,,,,,,,,No,2 Pedal,,
131,1728064,44000,1546147,132,2.0,1990,,,2/8/2001 0:00,D135A-1,D135,A,-1,,Large,"Track Type Tractor, Dozer - 260.0 + Horsepower",Florida,TTT,Track Type Tractors,,EROPS w AC,,,,,Powershift,,,,,,2 Valve,,None or Unspecified,,,,,,,,,,,,,,None or Unspecified,PAT,None or Unspecified,,
131,1728070,68000,1424174,132,1.0,1989,,,3/30/1995 0:00,D135A-1,D135,A,-1,,Large,"Track Type Tractor, Dozer - 260.0 + Horsepower",Wisconsin,TTT,Track Type Tractors,,EROPS,,,,,,,,,,,2 Valve,,,,,,,,,,,,,,,,,,,,
131,1728090,50000,822213,132,99.0,1989,,,4/23/1997 0:00,D135A-1,D135,A,-1,,Large,"Track Type Tractor, Dozer - 260.0 + Horsepower",Wyoming,TTT,Track Type Tractors,,EROPS,,,,,,,,,,,Standard,,,,,,,,,,,,,,,,,No,2 Pedal,,
131,1728124,34000,1528000,132,1.0,1989,,,10/14/2004 0:00,D135A-1,D135,A,-1,,Large,"Track Type Tractor, Dozer - 260.0 + Horsepower",Florida,TTT,Track Type Tractors,,EROPS w AC,,,,,,,,,,,Standard,,,,,,,,,,,,,,,,,No,2 Pedal,,
131,1728202,64000,1496901,132,6.0,1990,,,10/15/1996 0:00,D135A-1,D135,A,-1,,Large,"Track Type Tractor, Dozer - 260.0 + Horsepower",Maine,TTT,Track Type Tractors,,EROPS w AC,,,,,,,,,,,2 Valve,,,,,,,,,,,,,,,,,,,,
131,1729204,23000,1447579,132,1.0,1992,,,12/17/1998 0:00,D135A-1,D135,A,-1,,Large,"Track Type Tractor, Dozer - 260.0 + Horsepower",Maryland,TTT,Track Type Tractors,,EROPS,,,,,,,,,,,2 Valve,,,,,,,,,,,,,,,,,,,,
131,1729357,75000,1287355,132,1.0,1990,,,12/5/1997 0:00,D135A-1,D135,A,-1,,Large,"Track Type Tractor, Dozer - 260.0 + Horsepower",Wyoming,TTT,Track Type Tractors,,EROPS w AC,,,,,,,,,,,Standard,,,,,,,,,,,,,,,,,No,2 Pedal,,
131,1734041,17500,895550,132,13.0,1978,,,3/18/2000 0:00,D135A-1,D135,A,-1,,Large,"Track Type Tractor, Dozer - 260.0 + Horsepower",Tennessee,TTT,Track Type Tractors,,OROPS,,,,,Standard,,,,,,2 Valve,,None or Unspecified,,,,,,,,,,,,,,None or Unspecified,Straight,None or Unspecified,,
131,1739866,33000,1239625,132,13.0,1983,,,3/18/2000 0:00,D135A-1,D135,A,-1,,Large,"Track Type Tractor, Dozer - 260.0 + Horsepower",Tennessee,TTT,Track Type Tractors,,OROPS,,,,,Standard,,,,,,2 Valve,,None or Unspecified,,,,,,,,,,,,,,None or Unspecified,Straight,None or Unspecified,,
131,1754388,26500,1517108,132,2.0,1990,,,4/19/2000 0:00,D135A-1,D135,A,-1,,Large,"Track Type Tractor, Dozer - 260.0 + Horsepower",Georgia,TTT,Track Type Tractors,,EROPS,,,,,,,,,,,Standard,,,,,,,,,,,,,,,,,Straight,2 Pedal,,
131,2396977,37000,410295,136,1.0,1000,0.0,,8/27/2008 0:00,D135A-1,D135,A,-1,,Large,"Track Type Tractor, Dozer - 260.0 + Horsepower",California,TTT,Track Type Tractors,,EROPS w AC,,,,,Standard,,,,,,2 Valve,,Multi Shank,,,,,,,,,,,,,,None or Unspecified,Semi U,None or Unspecified,,
131,2397035,40000,843769,136,1.0,1000,0.0,,6/26/2009 0:00,D135A-1,D135,A,-1,,Large,"Track Type Tractor, Dozer - 260.0 + Horsepower",New Mexico,TTT,Track Type Tractors,,EROPS w AC,,,,,,,,,,,,,,,,,,,,,,,,,,,,,,,
131,2397134,25000,1440903,136,1.0,1989,0.0,,3/27/2007 0:00,D135A-1,D135,A,-1,,Large,"Track Type Tractor, Dozer - 260.0 + Horsepower",Georgia,TTT,Track Type Tractors,,EROPS w AC,,,,,,,,,,,2 Valve,,,,,,,,,,,,,,,,,,,,
131,2397298,36500,880205,136,4.0,1989,0.0,,2/9/2009 0:00,D135A-1,D135,A,-1,,Large,"Track Type Tractor, Dozer - 260.0 + Horsepower",Florida,TTT,Track Type Tractors,,EROPS w AC,,,,,,,,,,,Standard,,,,,,,,,,,,,,,,,No,2 Pedal,,
131,2690801,27000,1057386,149,1.0,1990,0.0,,12/3/2010 0:00,D135A-1,D135,A,-1,,Large,"Track Type Tractor, Dozer - 260.0 + Horsepower",Utah,TTT,Track Type Tractors,,EROPS w AC,,,,,,,,,,,Auxiliary,,,,,,,,,,,,,,,,,Straight,2 Pedal,,
131,4354886,24000,1036006,172,1.0,1989,,,2/15/2010 0:00,D135A-1,D135,A,-1,,Large,"Track Type Tractor, Dozer - 260.0 + Horsepower",Florida,TTT,Track Type Tractors,,EROPS w AC,,,,,Powershift,,,,,,2 Valve,,None or Unspecified,,,,,,,,,,,,,,None or Unspecified,Semi U,None or Unspecified,,
