ModelID,SalesID,SalePrice,MachineID,datasource,auctioneerID,YearMade,MachineHoursCurrentMeter,UsageBand,saledate,fiModelDesc,fiBaseModel,fiSecondaryDesc,fiModelSeries,fiModelDescriptor,ProductSize,fiProductClassDesc,state,ProductGroup,ProductGroupDesc,Drive_System,Enclosure,Forks,Pad_Type,Ride_Control,Stick,Transmission,Turbocharged,Blade_Extension,Blade_Width,Enclosure_Type,Engine_Horsepower,Hydraulics,Pushblock,Ripper,Scarifier,Tip_Control,Tire_Size,Coupler,Coupler_System,Grouser_Tracks,Hydraulics_Flow,Track_Type,Undercarriage_Pad_Width,Stick_Length,Thumb,Pattern_Changer,Grouser_Type,Backhoe_Mounting,Blade_Type,Travel_Controls,Differential_Type,Steering_Controls
13181,1168592,38000,1007671,121,3.0,2005,880.0,Low,8/20/2009 0:00,221D,221,D,,,Compact,Wheel Loader - 40.0 to 60.0 Horsepower,Michigan,WL,Wheel Loader,,EROPS w AC,Yes,,None or Unspecified,,,,,,,,2 Valve,,,,,None or Unspecified,None or Unspecified,,,,,,,,,,,,,Standard,Conventional
13181,1256303,41000,1429558,132,1.0,2002,,,9/14/2004 0:00,221D,221,D,,,Compact,Wheel Loader - 40.0 to 60.0 Horsepower,Ohio,WL,Wheel Loader,,EROPS,None or Unspecified,,None or Unspecified,,,,,,,,2 Valve,,,,,None or Unspecified,None or Unspecified,,,,,,,,,,,,,Standard,Conventional
13181,1268348,38000,1314731,132,1.0,2002,,,9/13/2005 0:00,221D,221,D,,,Compact,Wheel Loader - 40.0 to 60.0 Horsepower,Ohio,WL,Wheel Loader,,EROPS,None or Unspecified,,None or Unspecified,,,,,,,,2 Valve,,,,,None or Unspecified,Manual,,,,,,,,,,,,,Standard,Conventional
13181,2201304,35000,1306577,136,1.0,1000,,,5/28/2008 0:00,221D,221,D,,,Compact,Wheel Loader - 40.0 to 60.0 Horsepower,Florida,WL,Wheel Loader,,EROPS w AC,Yes,,None or Unspecified,,,,,,,,2 Valve,,,,,None or Unspecified,Manual,,,,,,,,,,,,,Standard,Conventional
13181,2201311,31000,1644809,136,,2006,,,8/22/2009 0:00,221D,221,D,,,Compact,Wheel Loader - 40.0 to 60.0 Horsepower,Ohio,WL,Wheel Loader,,EROPS,None or Unspecified,,None or Unspecified,,,,,,,,2 Valve,,,,,None or Unspecified,Manual,,,,,,,,,,,,,Standard,Conventional
13181,2201313,33500,1775415,136,,1000,,,6/14/2008 0:00,221D,221,D,,,Compact,Wheel Loader - 40.0 to 60.0 Horsepower,Michigan,WL,Wheel Loader,,EROPS,None or Unspecified,,Yes,,,,,,,,3 Valve,,,,,None or Unspecified,None or Unspecified,,,,,,,,,,,,,Standard,Conventional
13181,2201316,46000,1112360,136,1.0,2005,226.0,Low,12/18/2007 0:00,221D,221,D,,,Compact,Wheel Loader - 40.0 to 60.0 Horsepower,Ohio,WL,Wheel Loader,,EROPS,None or Unspecified,,None or Unspecified,,,,,,,,2 Valve,,,,,None or Unspecified,Manual,,,,,,,,,,,,,Standard,Conventional
13181,2201324,27000,1549928,136,1.0,2004,,,8/20/2009 0:00,221D,221,D,,,Compact,Wheel Loader - 40.0 to 60.0 Horsepower,Colorado,WL,Wheel Loader,,EROPS,Yes,,None or Unspecified,,,,,,,,2 Valve,,,,,None or Unspecified,Manual,,,,,,,,,,,,,Standard,Conventional
13181,2494076,29000,1086838,149,1.0,2003,1650.0,Low,2/15/2011 0:00,221D,221,D,,,Compact,Wheel Loader - 40.0 to 60.0 Horsepower,Florida,WL,Wheel Loader,,EROPS w AC,None or Unspecified,,None or Unspecified,,,,,,,,2 Valve,,,,,None or Unspecified,Manual,,,,,,,,,,,,,Standard,Conventional
13181,2494079,21000,1332568,149,1.0,2004,1461.0,Low,9/29/2010 0:00,221D,221,D,,,Compact,Wheel Loader - 40.0 to 60.0 Horsepower,Texas,WL,Wheel Loader,,EROPS w AC,None or Unspecified,,None or Unspecified,,,,,,,,2 Valve,,,,,None or Unspecified,None or Unspecified,,,,,,,,,,,,,Standard,Conventional
