ModelID,SalesID,SalePrice,MachineID,datasource,auctioneerID,YearMade,MachineHoursCurrentMeter,UsageBand,saledate,fiModelDesc,fiBaseModel,fiSecondaryDesc,fiModelSeries,fiModelDescriptor,ProductSize,fiProductClassDesc,state,ProductGroup,ProductGroupDesc,Drive_System,Enclosure,Forks,Pad_Type,Ride_Control,Stick,Transmission,Turbocharged,Blade_Extension,Blade_Width,Enclosure_Type,Engine_Horsepower,Hydraulics,Pushblock,Ripper,Scarifier,Tip_Control,Tire_Size,Coupler,Coupler_System,Grouser_Tracks,Hydraulics_Flow,Track_Type,Undercarriage_Pad_Width,Stick_Length,Thumb,Pattern_Changer,Grouser_Type,Backhoe_Mounting,Blade_Type,Travel_Controls,Differential_Type,Steering_Controls
13182,1195792,42000,1016578,121,3.0,2007,12.0,Low,11/19/2009 0:00,221E,221,E,,,Compact,Wheel Loader - 60.0 to 80.0 Horsepower,Florida,WL,Wheel Loader,,EROPS w AC,Yes,,None or Unspecified,,,,,,,,2 Valve,,,,,None or Unspecified,Hydraulic,,,,,,,,,,,,,Standard,Conventional
13182,1195793,35000,1012778,121,3.0,2007,8.0,Low,11/19/2009 0:00,221E,221,E,,,Compact,Wheel Loader - 60.0 to 80.0 Horsepower,Florida,WL,Wheel Loader,,OROPS,Yes,,None or Unspecified,,,,,,,,2 Valve,,,,,None or Unspecified,Hydraulic,,,,,,,,,,,,,Standard,Conventional
13182,1195794,32000,1057700,121,3.0,2007,5.0,Low,11/19/2009 0:00,221E,221,E,,,Compact,Wheel Loader - 60.0 to 80.0 Horsepower,Florida,WL,Wheel Loader,,OROPS,Yes,,None or Unspecified,,,,,,,,2 Valve,,,,,None or Unspecified,Hydraulic,,,,,,,,,,,,,Standard,Conventional
13182,1195795,32000,1055414,121,3.0,2007,6.0,Low,11/19/2009 0:00,221E,221,E,,,Compact,Wheel Loader - 60.0 to 80.0 Horsepower,Florida,WL,Wheel Loader,,OROPS,Yes,,None or Unspecified,,,,,,,,2 Valve,,,,,None or Unspecified,Hydraulic,,,,,,,,,,,,,Standard,Conventional
13182,1195796,47000,1027963,121,3.0,2007,34.0,Low,11/19/2009 0:00,221E,221,E,,,Compact,Wheel Loader - 60.0 to 80.0 Horsepower,Florida,WL,Wheel Loader,,EROPS w AC,None or Unspecified,,None or Unspecified,,,,,,,,2 Valve,,,,,None or Unspecified,Hydraulic,,,,,,,,,,,,,Standard,Conventional
13182,1195797,33000,1029194,121,3.0,2007,18.0,Low,11/19/2009 0:00,221E,221,E,,,Compact,Wheel Loader - 60.0 to 80.0 Horsepower,Florida,WL,Wheel Loader,,OROPS,None or Unspecified,,None or Unspecified,,,,,,,,2 Valve,,,,,None or Unspecified,Hydraulic,,,,,,,,,,,,,Standard,Conventional
13182,1195798,35000,1054024,121,3.0,2007,19.0,Low,11/19/2009 0:00,221E,221,E,,,Compact,Wheel Loader - 60.0 to 80.0 Horsepower,Florida,WL,Wheel Loader,,OROPS,None or Unspecified,,None or Unspecified,,,,,,,,2 Valve,,,,,None or Unspecified,Hydraulic,,,,,,,,,,,,,Standard,Conventional
13182,1296477,42000,1555062,132,3.0,2007,,,11/19/2009 0:00,221E,221,E,,,Compact,Wheel Loader - 60.0 to 80.0 Horsepower,California,WL,Wheel Loader,,EROPS w AC,Yes,,None or Unspecified,,,,,,,,2 Valve,,,,,None or Unspecified,Hydraulic,,,,,,,,,,,,,Standard,Conventional
13182,1296478,47000,1268238,132,3.0,2007,,,11/19/2009 0:00,221E,221,E,,,Compact,Wheel Loader - 60.0 to 80.0 Horsepower,California,WL,Wheel Loader,,EROPS w AC,None or Unspecified,,None or Unspecified,,,,,,,,2 Valve,,,,,None or Unspecified,Hydraulic,,,,,,,,,,,,,Standard,Conventional
13182,1296480,35000,1283736,132,3.0,2007,,,11/19/2009 0:00,221E,221,E,,,Compact,Wheel Loader - 60.0 to 80.0 Horsepower,California,WL,Wheel Loader,,OROPS,Yes,,None or Unspecified,,,,,,,,2 Valve,,,,,None or Unspecified,Hydraulic,,,,,,,,,,,,,Standard,Conventional
13182,1296481,32000,1517788,132,3.0,2007,,,11/19/2009 0:00,221E,221,E,,,Compact,Wheel Loader - 60.0 to 80.0 Horsepower,California,WL,Wheel Loader,,OROPS,Yes,,None or Unspecified,,,,,,,,2 Valve,,,,,None or Unspecified,Hydraulic,,,,,,,,,,,,,Standard,Conventional
13182,1296482,35000,1113300,132,3.0,2007,,,11/19/2009 0:00,221E,221,E,,,Compact,Wheel Loader - 60.0 to 80.0 Horsepower,California,WL,Wheel Loader,,OROPS,None or Unspecified,,None or Unspecified,,,,,,,,2 Valve,,,,,None or Unspecified,Hydraulic,,,,,,,,,,,,,Standard,Conventional
13182,1296484,33000,1307155,132,3.0,2007,,,11/19/2009 0:00,221E,221,E,,,Compact,Wheel Loader - 60.0 to 80.0 Horsepower,California,WL,Wheel Loader,,OROPS,None or Unspecified,,None or Unspecified,,,,,,,,2 Valve,,,,,None or Unspecified,Hydraulic,,,,,,,,,,,,,Standard,Conventional
13182,1296486,32000,1516862,132,3.0,2007,,,11/19/2009 0:00,221E,221,E,,,Compact,Wheel Loader - 60.0 to 80.0 Horsepower,California,WL,Wheel Loader,,OROPS,Yes,,None or Unspecified,,,,,,,,2 Valve,,,,,None or Unspecified,Hydraulic,,,,,,,,,,,,,Standard,Conventional
13182,2201307,35000,1366850,136,1.0,2005,1366.0,Low,3/17/2010 0:00,221E,221,E,,,Compact,Wheel Loader - 60.0 to 80.0 Horsepower,Ohio,WL,Wheel Loader,,EROPS,Yes,,None or Unspecified,,,,,,,,2 Valve,,,,,None or Unspecified,Manual,,,,,,,,,,,,,Standard,Conventional
13182,2201308,21000,1773717,136,99.0,2006,934.0,Low,12/11/2009 0:00,221E,221,E,,,Compact,Wheel Loader - 60.0 to 80.0 Horsepower,California,WL,Wheel Loader,,OROPS,None or Unspecified,,None or Unspecified,,,,,,,,2 Valve,,,,,None or Unspecified,None or Unspecified,,,,,,,,,,,,,Standard,Conventional
13182,2490454,28500,1857268,149,2.0,2007,185.0,Low,7/14/2010 0:00,221E,221,E,,,Compact,Wheel Loader - 60.0 to 80.0 Horsepower,Texas,WL,Wheel Loader,,OROPS,None or Unspecified,,None or Unspecified,,,,,,,,2 Valve,,,,,None or Unspecified,None or Unspecified,,,,,,,,,,,,,Standard,Conventional
13182,2506114,42500,1436987,149,5.0,2007,0.0,,4/7/2011 0:00,221E,221,E,,,Compact,Wheel Loader - 60.0 to 80.0 Horsepower,Connecticut,WL,Wheel Loader,,EROPS,None or Unspecified,,None or Unspecified,,,,,,,,2 Valve,,,,,None or Unspecified,None or Unspecified,,,,,,,,,,,,,Standard,Conventional
