ModelID,SalesID,SalePrice,MachineID,datasource,auctioneerID,YearMade,MachineHoursCurrentMeter,UsageBand,saledate,fiModelDesc,fiBaseModel,fiSecondaryDesc,fiModelSeries,fiModelDescriptor,ProductSize,fiProductClassDesc,state,ProductGroup,ProductGroupDesc,Drive_System,Enclosure,Forks,Pad_Type,Ride_Control,Stick,Transmission,Turbocharged,Blade_Extension,Blade_Width,Enclosure_Type,Engine_Horsepower,Hydraulics,Pushblock,Ripper,Scarifier,Tip_Control,Tire_Size,Coupler,Coupler_System,Grouser_Tracks,Hydraulics_Flow,Track_Type,Undercarriage_Pad_Width,Stick_Length,Thumb,Pattern_Changer,Grouser_Type,Backhoe_Mounting,Blade_Type,Travel_Controls,Differential_Type,Steering_Controls
13313,1195540,80000,1029156,121,3.0,2006,2529.0,Medium,11/19/2009 0:00,CX240LR,CX240,LR,,,Large / Medium,"Hydraulic Excavator, Track - 24.0 to 28.0 Metric Tons",Florida,TEX,Track Excavators,,EROPS w AC,,,,,,,,,,,Standard,,,,,,None or Unspecified,,,,Steel,32 inch,None or Unspecified,None or Unspecified,None or Unspecified,Double,,,,,
13313,1195541,65000,1029068,121,3.0,2006,3364.0,High,11/19/2009 0:00,CX240LR,CX240,LR,,,Large / Medium,"Hydraulic Excavator, Track - 24.0 to 28.0 Metric Tons",Florida,TEX,Track Excavators,,EROPS w AC,,,,,,,,,,,Standard,,,,,,None or Unspecified,,,,Steel,32 inch,None or Unspecified,None or Unspecified,None or Unspecified,Double,,,,,
13313,1267275,60000,1381629,132,2.0,2004,,,2/5/2010 0:00,CX240LR,CX240,LR,,,Large / Medium,"Hydraulic Excavator, Track - 24.0 to 28.0 Metric Tons",Florida,TEX,Track Excavators,,EROPS,,,,,,,,,,,Standard,,,,,,None or Unspecified,,,,Steel,32 inch,None or Unspecified,None or Unspecified,None or Unspecified,Double,,,,,
13313,1267284,61000,1420305,132,2.0,2005,,,2/5/2010 0:00,CX240LR,CX240,LR,,,Large / Medium,"Hydraulic Excavator, Track - 24.0 to 28.0 Metric Tons",Florida,TEX,Track Excavators,,EROPS,,,,,,,,,,,Standard,,,,,,None or Unspecified,,,,Steel,32 inch,None or Unspecified,None or Unspecified,None or Unspecified,Double,,,,,
13313,1267301,57500,1458557,132,2.0,2005,,,2/5/2010 0:00,CX240LR,CX240,LR,,,Large / Medium,"Hydraulic Excavator, Track - 24.0 to 28.0 Metric Tons",Florida,TEX,Track Excavators,,EROPS,,,,,,,,,,,Standard,,,,,,None or Unspecified,,,,Steel,32 inch,None or Unspecified,None or Unspecified,None or Unspecified,Double,,,,,
13313,1267646,92500,1293038,132,8.0,2003,,,3/23/2005 0:00,CX240LR,CX240,LR,,,Large / Medium,"Hydraulic Excavator, Track - 24.0 to 28.0 Metric Tons",Mississippi,TEX,Track Excavators,,EROPS w AC,,,,,,,,,,,Standard,,,,,,None or Unspecified,,,,Steel,None or Unspecified,None or Unspecified,None or Unspecified,None or Unspecified,Double,,,,,
13313,1267649,63000,1348283,132,2.0,2003,,,2/4/2011 0:00,CX240LR,CX240,LR,,,Large / Medium,"Hydraulic Excavator, Track - 24.0 to 28.0 Metric Tons",Florida,TEX,Track Excavators,,EROPS w AC,,,,,,,,,,,Standard,,,,,,None or Unspecified,,,,Steel,None or Unspecified,None or Unspecified,None or Unspecified,None or Unspecified,Double,,,,,
13313,2200451,60000,1381629,136,2.0,2004,,,1/31/2010 0:00,CX240LR,CX240,LR,,,Large / Medium,"Hydraulic Excavator, Track - 24.0 to 28.0 Metric Tons",Florida,TEX,Track Excavators,,EROPS,,,,,,,,,,,Standard,,,,,,None or Unspecified,,,,Steel,32 inch,None or Unspecified,None or Unspecified,None or Unspecified,Double,,,,,
13313,2200453,73000,1519695,136,2.0,2004,,,2/3/2008 0:00,CX240LR,CX240,LR,,,Large / Medium,"Hydraulic Excavator, Track - 24.0 to 28.0 Metric Tons",Florida,TEX,Track Excavators,,EROPS w AC,,,,,,,,,,,Standard,,,,,,None or Unspecified,,,,Steel,None or Unspecified,None or Unspecified,None or Unspecified,None or Unspecified,Double,,,,,
13313,2200459,61000,1420305,136,2.0,2005,,,1/31/2010 0:00,CX240LR,CX240,LR,,,Large / Medium,"Hydraulic Excavator, Track - 24.0 to 28.0 Metric Tons",Florida,TEX,Track Excavators,,EROPS,,,,,,,,,,,Standard,,,,,,None or Unspecified,,,,Steel,32 inch,None or Unspecified,None or Unspecified,None or Unspecified,Double,,,,,
13313,2200481,100000,1706626,136,2.0,2005,2202.0,Medium,1/23/2010 0:00,CX240LR,CX240,LR,,,Large / Medium,"Hydraulic Excavator, Track - 24.0 to 28.0 Metric Tons",Ohio,TEX,Track Excavators,,EROPS w AC,,,,,,,,,,,Standard,,,,,,None or Unspecified,,,,Steel,None or Unspecified,None or Unspecified,None or Unspecified,None or Unspecified,Double,,,,,
