ModelID,SalesID,SalePrice,MachineID,datasource,auctioneerID,YearMade,MachineHoursCurrentMeter,UsageBand,saledate,fiModelDesc,fiBaseModel,fiSecondaryDesc,fiModelSeries,fiModelDescriptor,ProductSize,fiProductClassDesc,state,ProductGroup,ProductGroupDesc,Drive_System,Enclosure,Forks,Pad_Type,Ride_Control,Stick,Transmission,Turbocharged,Blade_Extension,Blade_Width,Enclosure_Type,Engine_Horsepower,Hydraulics,Pushblock,Ripper,Scarifier,Tip_Control,Tire_Size,Coupler,Coupler_System,Grouser_Tracks,Hydraulics_Flow,Track_Type,Undercarriage_Pad_Width,Stick_Length,Thumb,Pattern_Changer,Grouser_Type,Backhoe_Mounting,Blade_Type,Travel_Controls,Differential_Type,Steering_Controls
13391,1140030,18000,377421,121,3.0,2005,97.0,Low,9/7/2006 0:00,301.8,301.8,,,,Mini,"Hydraulic Excavator, Track - 0.0 to 2.0 Metric Tons",Iowa,TEX,Track Excavators,,EROPS,,,,,,,,,,,Auxiliary,,,,,,None or Unspecified,,,,Rubber,16 inch,None or Unspecified,None or Unspecified,None or Unspecified,Double,,,,,
13391,1142577,16000,1046210,121,3.0,2004,851.0,High,7/28/2005 0:00,301.8,301.8,,,,Mini,"Hydraulic Excavator, Track - 0.0 to 2.0 Metric Tons",Nevada,TEX,Track Excavators,,EROPS,,,,,,,,,,,Standard,,,,,,None or Unspecified,,,,Rubber,None or Unspecified,None or Unspecified,None or Unspecified,None or Unspecified,Double,,,,,
13391,1143075,15500,759021,121,3.0,2004,530.0,Medium,12/14/2006 0:00,301.8,301.8,,,,Mini,"Hydraulic Excavator, Track - 0.0 to 2.0 Metric Tons",Florida,TEX,Track Excavators,,EROPS,,,,,,,,,,,Auxiliary,,,,,,None or Unspecified,,,,Rubber,16 inch,None or Unspecified,None or Unspecified,Yes,Double,,,,,
13391,1144077,10500,1036836,121,3.0,2003,1295.0,Medium,10/25/2007 0:00,301.8,301.8,,,,Mini,"Hydraulic Excavator, Track - 0.0 to 2.0 Metric Tons",Wisconsin,TEX,Track Excavators,,EROPS,,,,,,,,,,,Auxiliary,,,,,,Manual,,,,Rubber,None or Unspecified,None or Unspecified,None or Unspecified,None or Unspecified,Double,,,,,
13391,1147888,8500,1040852,121,3.0,2003,0.0,,10/25/2007 0:00,301.8,301.8,,,,Mini,"Hydraulic Excavator, Track - 0.0 to 2.0 Metric Tons",Wisconsin,TEX,Track Excavators,,EROPS,,,,,,,,,,,Auxiliary,,,,,,Manual,,,,Rubber,None or Unspecified,None or Unspecified,None or Unspecified,None or Unspecified,Double,,,,,
13391,1150509,11500,307655,121,3.0,2005,0.0,,8/23/2007 0:00,301.8,301.8,,,,Mini,"Hydraulic Excavator, Track - 0.0 to 2.0 Metric Tons",Nevada,TEX,Track Excavators,,EROPS,,,,,,,,,,,Auxiliary,,,,,,None or Unspecified,,,,Rubber,None or Unspecified,None or Unspecified,None or Unspecified,Yes,Double,,,,,
13391,1150855,9500,779431,121,3.0,2002,934.0,Medium,10/25/2007 0:00,301.8,301.8,,,,Mini,"Hydraulic Excavator, Track - 0.0 to 2.0 Metric Tons",Florida,TEX,Track Excavators,,EROPS,,,,,,,,,,,Auxiliary,,,,,,None or Unspecified,,,,Rubber,None or Unspecified,None or Unspecified,None or Unspecified,Yes,Double,,,,,
13391,1150899,16500,305340,121,3.0,2004,559.0,High,7/28/2005 0:00,301.8,301.8,,,,Mini,"Hydraulic Excavator, Track - 0.0 to 2.0 Metric Tons",Nevada,TEX,Track Excavators,,EROPS,,,,,,,,,,,Auxiliary,,,,,,None or Unspecified,,,,Steel,None or Unspecified,None or Unspecified,None or Unspecified,Yes,Double,,,,,
13391,1155677,9000,1068848,121,3.0,2001,1246.0,Medium,11/3/2005 0:00,301.8,301.8,,,,Mini,"Hydraulic Excavator, Track - 0.0 to 2.0 Metric Tons",Texas,TEX,Track Excavators,,EROPS,,,,,,,,,,,Auxiliary,,,,,,None or Unspecified,,,,Rubber,None or Unspecified,None or Unspecified,None or Unspecified,None or Unspecified,Double,,,,,
13391,1158766,14500,528711,121,3.0,2005,843.0,High,9/20/2007 0:00,301.8,301.8,,,,Mini,"Hydraulic Excavator, Track - 0.0 to 2.0 Metric Tons",Florida,TEX,Track Excavators,,EROPS,,,,,,,,,,,Auxiliary,,,,,,None or Unspecified,,,,Rubber,None or Unspecified,None or Unspecified,None or Unspecified,Yes,Double,,,,,
13391,1160028,13500,383984,121,3.0,2005,737.0,High,4/12/2007 0:00,301.8,301.8,,,,Mini,"Hydraulic Excavator, Track - 0.0 to 2.0 Metric Tons",North Carolina,TEX,Track Excavators,,EROPS,,,,,,,,,,,Auxiliary,,,,,,Manual,,,,Rubber,None or Unspecified,None or Unspecified,None or Unspecified,None or Unspecified,Double,,,,,
13391,1161598,12000,305862,121,3.0,2002,722.0,Medium,6/16/2005 0:00,301.8,301.8,,,,Mini,"Hydraulic Excavator, Track - 0.0 to 2.0 Metric Tons",Nevada,TEX,Track Excavators,,EROPS,,,,,,,,,,,Auxiliary,,,,,,Manual,,,,Rubber,None or Unspecified,None or Unspecified,None or Unspecified,Yes,Double,,,,,
13391,1161680,16000,309524,121,3.0,2004,497.0,High,7/28/2005 0:00,301.8,301.8,,,,Mini,"Hydraulic Excavator, Track - 0.0 to 2.0 Metric Tons",Nevada,TEX,Track Excavators,,EROPS,,,,,,,,,,,Auxiliary,,,,,,None or Unspecified,,,,Rubber,None or Unspecified,None or Unspecified,None or Unspecified,Yes,Double,,,,,
13391,1161777,10500,1046694,121,3.0,2005,534.0,Medium,10/25/2007 0:00,301.8,301.8,,,,Mini,"Hydraulic Excavator, Track - 0.0 to 2.0 Metric Tons",Oregon,TEX,Track Excavators,,EROPS,,,,,,,,,,,Auxiliary,,,,,,Manual,,,,Rubber,None or Unspecified,None or Unspecified,None or Unspecified,None or Unspecified,Double,,,,,
13391,1164422,10000,366824,121,3.0,2004,1394.0,High,5/3/2007 0:00,301.8,301.8,,,,Mini,"Hydraulic Excavator, Track - 0.0 to 2.0 Metric Tons",North Carolina,TEX,Track Excavators,,EROPS,,,,,,,,,,,Auxiliary,,,,,,Manual,,,,Rubber,None or Unspecified,None or Unspecified,None or Unspecified,None or Unspecified,Double,,,,,
13391,1164755,7500,313035,121,3.0,2004,525.0,Medium,10/5/2006 0:00,301.8,301.8,,,,Mini,"Hydraulic Excavator, Track - 0.0 to 2.0 Metric Tons",Nevada,TEX,Track Excavators,,EROPS,,,,,,,,,,,Auxiliary,,,,,,None or Unspecified,,,,Rubber,None or Unspecified,None or Unspecified,None or Unspecified,Yes,Double,,,,,
13391,1165879,16500,767970,121,3.0,2004,484.0,Low,7/26/2007 0:00,301.8,301.8,,,,Mini,"Hydraulic Excavator, Track - 0.0 to 2.0 Metric Tons",Louisiana,TEX,Track Excavators,,EROPS,,,,,,,,,,,Auxiliary,,,,,,None or Unspecified,,,,Rubber,None or Unspecified,None or Unspecified,None or Unspecified,Yes,Double,,,,,
13391,1166798,13500,662783,121,3.0,2001,629.0,Low,9/21/2006 0:00,301.8,301.8,,,,Mini,"Hydraulic Excavator, Track - 0.0 to 2.0 Metric Tons",Nebraska,TEX,Track Excavators,,EROPS,,,,,,,,,,,Auxiliary,,,,,,Manual,,,,Rubber,None or Unspecified,None or Unspecified,None or Unspecified,Yes,Double,,,,,
13391,1167353,10500,307520,121,3.0,2005,843.0,High,8/23/2007 0:00,301.8,301.8,,,,Mini,"Hydraulic Excavator, Track - 0.0 to 2.0 Metric Tons",Nevada,TEX,Track Excavators,,EROPS,,,,,,,,,,,Auxiliary,,,,,,None or Unspecified,,,,Rubber,None or Unspecified,None or Unspecified,None or Unspecified,Yes,Double,,,,,
13391,1167662,9000,1001772,121,3.0,2003,1096.0,Medium,10/25/2007 0:00,301.8,301.8,,,,Mini,"Hydraulic Excavator, Track - 0.0 to 2.0 Metric Tons",Wisconsin,TEX,Track Excavators,,EROPS,,,,,,,,,,,Auxiliary,,,,,,Manual,,,,Rubber,None or Unspecified,None or Unspecified,None or Unspecified,None or Unspecified,Double,,,,,
13391,1169755,10250,1067606,121,3.0,2005,2444.0,High,6/9/2011 0:00,301.8,301.8,,,,Mini,"Hydraulic Excavator, Track - 0.0 to 2.0 Metric Tons",Texas,TEX,Track Excavators,,EROPS,,,,,,,,,,,Standard,,,,,,None or Unspecified,,,,Rubber,None or Unspecified,None or Unspecified,None or Unspecified,Yes,Double,,,,,
13391,1170372,8500,31030,121,3.0,2004,1077.0,Medium,3/12/2009 0:00,301.8,301.8,,,,Mini,"Hydraulic Excavator, Track - 0.0 to 2.0 Metric Tons",Alabama,TEX,Track Excavators,,EROPS,,,,,,,,,,,Standard,,,,,,Manual,,,,Rubber,None or Unspecified,None or Unspecified,None or Unspecified,Yes,Double,,,,,
13391,1170947,17500,528329,121,3.0,2005,920.0,High,5/21/2007 0:00,301.8,301.8,,,,Mini,"Hydraulic Excavator, Track - 0.0 to 2.0 Metric Tons",Florida,TEX,Track Excavators,,EROPS,,,,,,,,,,,Auxiliary,,,,,,None or Unspecified,,,,Rubber,None or Unspecified,None or Unspecified,None or Unspecified,Yes,Double,,,,,
13391,1171382,9500,308082,121,3.0,2004,598.0,Medium,10/5/2006 0:00,301.8,301.8,,,,Mini,"Hydraulic Excavator, Track - 0.0 to 2.0 Metric Tons",Nevada,TEX,Track Excavators,,EROPS,,,,,,,,,,,Auxiliary,,,,,,None or Unspecified,,,,Rubber,None or Unspecified,None or Unspecified,None or Unspecified,Yes,Double,,,,,
13391,1172271,16000,372279,121,3.0,2005,551.0,High,9/7/2006 0:00,301.8,301.8,,,,Mini,"Hydraulic Excavator, Track - 0.0 to 2.0 Metric Tons",Illinois,TEX,Track Excavators,,EROPS,,,,,,,,,,,Auxiliary,,,,,,None or Unspecified,,,,Rubber,None or Unspecified,None or Unspecified,None or Unspecified,None or Unspecified,Double,,,,,
13391,1175172,20000,376510,121,3.0,2004,11.0,Low,3/24/2005 0:00,301.8,301.8,,,,Mini,"Hydraulic Excavator, Track - 0.0 to 2.0 Metric Tons",Arizona,TEX,Track Excavators,,EROPS,,,,,,,,,,,Auxiliary,,,,,,None or Unspecified,,,,Rubber,None or Unspecified,None or Unspecified,None or Unspecified,None or Unspecified,Double,,,,,
13391,1178893,15000,103445,121,3.0,2005,706.0,Medium,5/15/2008 0:00,301.8,301.8,,,,Mini,"Hydraulic Excavator, Track - 0.0 to 2.0 Metric Tons",Texas,TEX,Track Excavators,,EROPS,,,,,,,,,,,Standard,,,,,,None or Unspecified,,,,Rubber,15 inch,None or Unspecified,None or Unspecified,Yes,Double,,,,,
13391,1179284,13000,1055439,121,3.0,2004,957.0,Medium,4/24/2008 0:00,301.8,301.8,,,,Mini,"Hydraulic Excavator, Track - 0.0 to 2.0 Metric Tons",Wisconsin,TEX,Track Excavators,,EROPS,,,,,,,,,,,Auxiliary,,,,,,None or Unspecified,,,,Rubber,None or Unspecified,None or Unspecified,None or Unspecified,None or Unspecified,Double,,,,,
13391,1179285,12000,1022867,121,3.0,2004,923.0,Medium,4/24/2008 0:00,301.8,301.8,,,,Mini,"Hydraulic Excavator, Track - 0.0 to 2.0 Metric Tons",Wisconsin,TEX,Track Excavators,,EROPS,,,,,,,,,,,Auxiliary,,,,,,None or Unspecified,,,,Rubber,24 inch,None or Unspecified,None or Unspecified,None or Unspecified,Double,,,,,
13391,1183115,13000,718451,121,3.0,2005,710.0,Medium,9/25/2008 0:00,301.8,301.8,,,,Mini,"Hydraulic Excavator, Track - 0.0 to 2.0 Metric Tons",California,TEX,Track Excavators,,EROPS,,,,,,,,,,,Auxiliary,,,,,,None or Unspecified,,,,Rubber,None or Unspecified,None or Unspecified,Hydraulic,Yes,Double,,,,,
13391,1185545,9500,309838,121,3.0,2005,1074.0,High,11/13/2008 0:00,301.8,301.8,,,,Mini,"Hydraulic Excavator, Track - 0.0 to 2.0 Metric Tons",Nevada,TEX,Track Excavators,,EROPS,,,,,,,,,,,Auxiliary,,,,,,None or Unspecified,,,,Rubber,None or Unspecified,None or Unspecified,None or Unspecified,Yes,Double,,,,,
13391,1191108,9000,716924,121,3.0,2005,844.0,Medium,6/18/2009 0:00,301.8,301.8,,,,Mini,"Hydraulic Excavator, Track - 0.0 to 2.0 Metric Tons",California,TEX,Track Excavators,,EROPS,,,,,,,,,,,Auxiliary,,,,,,Manual,,,,Rubber,None or Unspecified,None or Unspecified,Hydraulic,Yes,Double,,,,,
13391,1192020,8500,714164,121,3.0,2005,995.0,Medium,9/10/2009 0:00,301.8,301.8,,,,Mini,"Hydraulic Excavator, Track - 0.0 to 2.0 Metric Tons",California,TEX,Track Excavators,,EROPS,,,,,,,,,,,Auxiliary,,,,,,Hydraulic,,,,Rubber,None or Unspecified,None or Unspecified,Hydraulic,Yes,Double,,,,,
13391,1544078,15250,1162643,132,5.0,2000,,,3/25/2003 0:00,301.8,301.8,,,,Mini,"Hydraulic Excavator, Track - 0.0 to 2.0 Metric Tons",Connecticut,TEX,Track Excavators,,EROPS,,,,,,,,,,,Standard,,,,,,None or Unspecified,,,,Rubber,None or Unspecified,None or Unspecified,None or Unspecified,None or Unspecified,Double,,,,,
13391,1544079,14000,521403,132,3.0,2001,,,10/30/2003 0:00,301.8,301.8,,,,Mini,"Hydraulic Excavator, Track - 0.0 to 2.0 Metric Tons",Unspecified,TEX,Track Excavators,,EROPS,,,,,,,,,,,Standard,,,,,,None or Unspecified,,,,Rubber,None or Unspecified,None or Unspecified,None or Unspecified,Yes,Double,,,,,
13391,1544084,9750,1556259,132,4.0,2001,,,5/13/2004 0:00,301.8,301.8,,,,Mini,"Hydraulic Excavator, Track - 0.0 to 2.0 Metric Tons",New Hampshire,TEX,Track Excavators,,EROPS,,,,,,,,,,,Standard,,,,,,None or Unspecified,,,,Rubber,None or Unspecified,None or Unspecified,None or Unspecified,None or Unspecified,Double,,,,,
13391,1544085,13500,1556259,132,4.0,2001,,,6/19/2004 0:00,301.8,301.8,,,,Mini,"Hydraulic Excavator, Track - 0.0 to 2.0 Metric Tons",Pennsylvania,TEX,Track Excavators,,EROPS,,,,,,,,,,,Standard,,,,,,None or Unspecified,,,,Rubber,None or Unspecified,None or Unspecified,None or Unspecified,None or Unspecified,Double,,,,,
13391,1544086,17000,364967,132,1.0,2001,,,3/7/2006 0:00,301.8,301.8,,,,Mini,"Hydraulic Excavator, Track - 0.0 to 2.0 Metric Tons",California,TEX,Track Excavators,,EROPS,,,,,,,,,,,Auxiliary,,,,,,None or Unspecified,,,,Rubber,None or Unspecified,None or Unspecified,None or Unspecified,None or Unspecified,Double,,,,,
13391,1544087,13500,369381,132,1.0,2001,,,9/16/2005 0:00,301.8,301.8,,,,Mini,"Hydraulic Excavator, Track - 0.0 to 2.0 Metric Tons",Nevada,TEX,Track Excavators,,EROPS,,,,,,,,,,,Standard,,,,,,None or Unspecified,,,,Steel,None or Unspecified,None or Unspecified,None or Unspecified,None or Unspecified,Double,,,,,
13391,1544088,15500,375438,132,1.0,2001,,,6/16/2004 0:00,301.8,301.8,,,,Mini,"Hydraulic Excavator, Track - 0.0 to 2.0 Metric Tons",Texas,TEX,Track Excavators,,EROPS,,,,,,,,,,,Auxiliary,,,,,,None or Unspecified,,,,Rubber,None or Unspecified,None or Unspecified,None or Unspecified,None or Unspecified,Double,,,,,
13391,1544098,15000,364161,132,1.0,2001,,,10/6/2005 0:00,301.8,301.8,,,,Mini,"Hydraulic Excavator, Track - 0.0 to 2.0 Metric Tons",Arizona,TEX,Track Excavators,,EROPS,,,,,,,,,,,Auxiliary,,,,,,None or Unspecified,,,,Rubber,None or Unspecified,None or Unspecified,None or Unspecified,None or Unspecified,Double,,,,,
13391,1544103,11500,877182,132,22.0,2001,,,3/20/2010 0:00,301.8,301.8,,,,Mini,"Hydraulic Excavator, Track - 0.0 to 2.0 Metric Tons",Minnesota,TEX,Track Excavators,,EROPS,,,,,,,,,,,Auxiliary,,,,,,None or Unspecified,,,,Rubber,None or Unspecified,None or Unspecified,None or Unspecified,None or Unspecified,Double,,,,,
13391,1544109,15500,773106,132,1.0,2001,,,5/27/2004 0:00,301.8,301.8,,,,Mini,"Hydraulic Excavator, Track - 0.0 to 2.0 Metric Tons",Florida,TEX,Track Excavators,,EROPS,,,,,,,,,,,Auxiliary,,,,,,None or Unspecified,,,,Rubber,None or Unspecified,None or Unspecified,None or Unspecified,None or Unspecified,Double,,,,,
13391,1544110,15500,798796,132,1.0,2001,,,5/27/2004 0:00,301.8,301.8,,,,Mini,"Hydraulic Excavator, Track - 0.0 to 2.0 Metric Tons",Florida,TEX,Track Excavators,,EROPS,,,,,,,,,,,Auxiliary,,,,,,None or Unspecified,,,,Rubber,None or Unspecified,None or Unspecified,None or Unspecified,None or Unspecified,Double,,,,,
13391,1544111,9000,798796,132,1.0,2001,,,10/10/2006 0:00,301.8,301.8,,,,Mini,"Hydraulic Excavator, Track - 0.0 to 2.0 Metric Tons",Florida,TEX,Track Excavators,,EROPS,,,,,,,,,,,Auxiliary,,,,,,None or Unspecified,,,,Rubber,None or Unspecified,None or Unspecified,None or Unspecified,None or Unspecified,Double,,,,,
13391,1544113,12750,1178569,132,4.0,2001,,,5/13/2004 0:00,301.8,301.8,,,,Mini,"Hydraulic Excavator, Track - 0.0 to 2.0 Metric Tons",New Hampshire,TEX,Track Excavators,,EROPS,,,,,,,,,,,Standard,,,,,,None or Unspecified,,,,Steel,None or Unspecified,None or Unspecified,None or Unspecified,None or Unspecified,Double,,,,,
13391,1544114,12000,1284406,132,4.0,2001,,,10/30/2003 0:00,301.8,301.8,,,,Mini,"Hydraulic Excavator, Track - 0.0 to 2.0 Metric Tons",Pennsylvania,TEX,Track Excavators,,EROPS,,,,,,,,,,,Auxiliary,,,,,,None or Unspecified,,,,Rubber,None or Unspecified,None or Unspecified,None or Unspecified,None or Unspecified,Double,,,,,
13391,1544115,10000,220003,132,1.0,2001,,,4/4/2006 0:00,301.8,301.8,,,,Mini,"Hydraulic Excavator, Track - 0.0 to 2.0 Metric Tons",Maryland,TEX,Track Excavators,,EROPS,,,,,,,,,,,Auxiliary,,,,,,None or Unspecified,,,,Rubber,None or Unspecified,None or Unspecified,None or Unspecified,Yes,Double,,,,,
13391,1544119,12500,1442832,132,4.0,2002,,,10/9/2003 0:00,301.8,301.8,,,,Mini,"Hydraulic Excavator, Track - 0.0 to 2.0 Metric Tons",New Hampshire,TEX,Track Excavators,,EROPS,,,,,,,,,,,Standard,,,,,,None or Unspecified,,,,Rubber,None or Unspecified,None or Unspecified,None or Unspecified,None or Unspecified,Double,,,,,
13391,1544121,17000,770680,132,1.0,2002,,,5/26/2005 0:00,301.8,301.8,,,,Mini,"Hydraulic Excavator, Track - 0.0 to 2.0 Metric Tons",Florida,TEX,Track Excavators,,EROPS,,,,,,,,,,,Auxiliary,,,,,,None or Unspecified,,,,Rubber,None or Unspecified,None or Unspecified,None or Unspecified,Yes,Double,,,,,
13391,1544127,11000,763394,132,1.0,2002,,,2/15/2005 0:00,301.8,301.8,,,,Mini,"Hydraulic Excavator, Track - 0.0 to 2.0 Metric Tons",Florida,TEX,Track Excavators,,EROPS,,,,,,,,,,,Auxiliary,,,,,,None or Unspecified,,,,Rubber,None or Unspecified,None or Unspecified,None or Unspecified,Yes,Double,,,,,
13391,1544130,12000,524287,132,8.0,2002,,,10/12/2006 0:00,301.8,301.8,,,,Mini,"Hydraulic Excavator, Track - 0.0 to 2.0 Metric Tons",Florida,TEX,Track Excavators,,EROPS,,,,,,,,,,,Auxiliary,,,,,,None or Unspecified,,,,Rubber,None or Unspecified,None or Unspecified,None or Unspecified,Yes,Double,,,,,
13391,1544133,14500,524287,132,8.0,2002,,,11/15/2006 0:00,301.8,301.8,,,,Mini,"Hydraulic Excavator, Track - 0.0 to 2.0 Metric Tons",Mississippi,TEX,Track Excavators,,EROPS,,,,,,,,,,,Auxiliary,,,,,,None or Unspecified,,,,Rubber,None or Unspecified,None or Unspecified,None or Unspecified,Yes,Double,,,,,
13391,1544134,11000,724999,132,1.0,2002,,,6/28/2006 0:00,301.8,301.8,,,,Mini,"Hydraulic Excavator, Track - 0.0 to 2.0 Metric Tons",California,TEX,Track Excavators,,EROPS,,,,,,,,,,,Auxiliary,,,,,,None or Unspecified,,,,Rubber,None or Unspecified,None or Unspecified,None or Unspecified,Yes,Double,,,,,
13391,1544139,14500,758565,132,1.0,2003,,,2/18/2011 0:00,301.8,301.8,,,,Mini,"Hydraulic Excavator, Track - 0.0 to 2.0 Metric Tons",Florida,TEX,Track Excavators,,EROPS,,,,,,,,,,,Auxiliary,,,,,,None or Unspecified,,,,Rubber,None or Unspecified,None or Unspecified,None or Unspecified,Yes,Double,,,,,
13391,1544140,14500,758565,132,1.0,2003,,,2/15/2011 0:00,301.8,301.8,,,,Mini,"Hydraulic Excavator, Track - 0.0 to 2.0 Metric Tons",Florida,TEX,Track Excavators,,EROPS,,,,,,,,,,,Auxiliary,,,,,,None or Unspecified,,,,Rubber,None or Unspecified,None or Unspecified,None or Unspecified,Yes,Double,,,,,
13391,1544141,8500,382260,132,3.0,2003,,,3/13/2008 0:00,301.8,301.8,,,,Mini,"Hydraulic Excavator, Track - 0.0 to 2.0 Metric Tons",Unspecified,TEX,Track Excavators,,EROPS,,,,,,,,,,,Auxiliary,,,,,,None or Unspecified,,,,Rubber,None or Unspecified,None or Unspecified,None or Unspecified,None or Unspecified,Double,,,,,
13391,1544143,14000,523576,132,8.0,2003,,,11/15/2006 0:00,301.8,301.8,,,,Mini,"Hydraulic Excavator, Track - 0.0 to 2.0 Metric Tons",Mississippi,TEX,Track Excavators,,EROPS,,,,,,,,,,,Auxiliary,,,,,,None or Unspecified,,,,Rubber,None or Unspecified,None or Unspecified,None or Unspecified,Yes,Double,,,,,
13391,1544147,12000,523576,132,8.0,2003,,,10/12/2006 0:00,301.8,301.8,,,,Mini,"Hydraulic Excavator, Track - 0.0 to 2.0 Metric Tons",Florida,TEX,Track Excavators,,EROPS,,,,,,,,,,,Auxiliary,,,,,,None or Unspecified,,,,Rubber,None or Unspecified,None or Unspecified,None or Unspecified,Yes,Double,,,,,
13391,1544150,11000,927265,132,1.0,2003,,,5/9/2006 0:00,301.8,301.8,,,,Mini,"Hydraulic Excavator, Track - 0.0 to 2.0 Metric Tons",Texas,TEX,Track Excavators,,EROPS,,,,,,,,,,,Auxiliary,,,,,,None or Unspecified,,,,Rubber,None or Unspecified,None or Unspecified,None or Unspecified,Yes,Double,,,,,
13391,1544152,15000,776501,132,1.0,2003,,,2/24/2006 0:00,301.8,301.8,,,,Mini,"Hydraulic Excavator, Track - 0.0 to 2.0 Metric Tons",Florida,TEX,Track Excavators,,EROPS,,,,,,,,,,,Auxiliary,,,,,,None or Unspecified,,,,Rubber,None or Unspecified,None or Unspecified,None or Unspecified,Yes,Double,,,,,
13391,1544156,15000,521531,132,1.0,2003,,,2/24/2006 0:00,301.8,301.8,,,,Mini,"Hydraulic Excavator, Track - 0.0 to 2.0 Metric Tons",Florida,TEX,Track Excavators,,EROPS,,,,,,,,,,,Auxiliary,,,,,,None or Unspecified,,,,Rubber,None or Unspecified,None or Unspecified,None or Unspecified,Yes,Double,,,,,
13391,1544158,11000,306148,132,1.0,2003,,,9/22/2005 0:00,301.8,301.8,,,,Mini,"Hydraulic Excavator, Track - 0.0 to 2.0 Metric Tons",Washington,TEX,Track Excavators,,EROPS,,,,,,,,,,,Auxiliary,,,,,,None or Unspecified,,,,Rubber,None or Unspecified,None or Unspecified,None or Unspecified,Yes,Double,,,,,
13391,1544159,8000,311844,132,1.0,2004,,,11/7/2008 0:00,301.8,301.8,,,,Mini,"Hydraulic Excavator, Track - 0.0 to 2.0 Metric Tons",Nevada,TEX,Track Excavators,,EROPS,,,,,,,,,,,Auxiliary,,,,,,None or Unspecified,,,,Rubber,None or Unspecified,None or Unspecified,Hydraulic,None or Unspecified,Double,,,,,
13391,1544163,19500,1056745,132,3.0,2004,,,10/3/2008 0:00,301.8,301.8,,,,Mini,"Hydraulic Excavator, Track - 0.0 to 2.0 Metric Tons",California,TEX,Track Excavators,,EROPS,,,,,,,,,,,Auxiliary,,,,,,Manual,,,,Rubber,None or Unspecified,None or Unspecified,None or Unspecified,None or Unspecified,Double,,,,,
13391,1544175,16000,316098,132,3.0,2004,,,7/28/2005 0:00,301.8,301.8,,,,Mini,"Hydraulic Excavator, Track - 0.0 to 2.0 Metric Tons",Unspecified,TEX,Track Excavators,,EROPS,,,,,,,,,,,Auxiliary,,,,,,None or Unspecified,,,,Rubber,None or Unspecified,None or Unspecified,None or Unspecified,Yes,Double,,,,,
13391,1544176,17000,316098,132,3.0,2004,,,6/16/2005 0:00,301.8,301.8,,,,Mini,"Hydraulic Excavator, Track - 0.0 to 2.0 Metric Tons",Unspecified,TEX,Track Excavators,,EROPS,,,,,,,,,,,Auxiliary,,,,,,None or Unspecified,,,,Rubber,None or Unspecified,None or Unspecified,None or Unspecified,Yes,Double,,,,,
13391,1544183,14000,314508,132,1.0,2004,,,12/12/2006 0:00,301.8,301.8,,,,Mini,"Hydraulic Excavator, Track - 0.0 to 2.0 Metric Tons",California,TEX,Track Excavators,,EROPS,,,,,,,,,,,Auxiliary,,,,,,None or Unspecified,,,,Rubber,None or Unspecified,None or Unspecified,None or Unspecified,Yes,Double,,,,,
13391,1544184,16000,306565,132,19.0,2004,,,12/15/2005 0:00,301.8,301.8,,,,Mini,"Hydraulic Excavator, Track - 0.0 to 2.0 Metric Tons",California,TEX,Track Excavators,,EROPS,,,,,,,,,,,Auxiliary,,,,,,None or Unspecified,,,,Rubber,None or Unspecified,None or Unspecified,None or Unspecified,Yes,Double,,,,,
13391,1544187,14000,311763,132,1.0,2004,,,12/12/2006 0:00,301.8,301.8,,,,Mini,"Hydraulic Excavator, Track - 0.0 to 2.0 Metric Tons",California,TEX,Track Excavators,,EROPS,,,,,,,,,,,Auxiliary,,,,,,Manual,,,,Rubber,None or Unspecified,None or Unspecified,None or Unspecified,Yes,Double,,,,,
13391,1544193,8000,779266,132,2.0,2004,,,2/6/2009 0:00,301.8,301.8,,,,Mini,"Hydraulic Excavator, Track - 0.0 to 2.0 Metric Tons",Florida,TEX,Track Excavators,,EROPS,,,,,,,,,,,Auxiliary,,,,,,None or Unspecified,,,,Rubber,None or Unspecified,None or Unspecified,None or Unspecified,Yes,Double,,,,,
13391,1544194,8000,801693,132,13.0,2004,,,4/24/2010 0:00,301.8,301.8,,,,Mini,"Hydraulic Excavator, Track - 0.0 to 2.0 Metric Tons",Kentucky,TEX,Track Excavators,,EROPS,,,,,,,,,,,Auxiliary,,,,,,None or Unspecified,,,,Rubber,None or Unspecified,None or Unspecified,None or Unspecified,Yes,Double,,,,,
13391,1544195,11750,801693,132,13.0,2004,,,6/19/2010 0:00,301.8,301.8,,,,Mini,"Hydraulic Excavator, Track - 0.0 to 2.0 Metric Tons",Tennessee,TEX,Track Excavators,,EROPS,,,,,,,,,,,Auxiliary,,,,,,None or Unspecified,,,,Rubber,None or Unspecified,None or Unspecified,None or Unspecified,Yes,Double,,,,,
13391,1544198,14500,770153,132,1.0,2004,,,2/20/2007 0:00,301.8,301.8,,,,Mini,"Hydraulic Excavator, Track - 0.0 to 2.0 Metric Tons",Florida,TEX,Track Excavators,,EROPS,,,,,,,,,,,Auxiliary,,,,,,None or Unspecified,,,,Rubber,None or Unspecified,None or Unspecified,None or Unspecified,Yes,Double,,,,,
13391,1544199,14500,791785,132,1.0,2004,,,2/20/2007 0:00,301.8,301.8,,,,Mini,"Hydraulic Excavator, Track - 0.0 to 2.0 Metric Tons",Florida,TEX,Track Excavators,,EROPS,,,,,,,,,,,Auxiliary,,,,,,None or Unspecified,,,,Rubber,None or Unspecified,None or Unspecified,None or Unspecified,Yes,Double,,,,,
13391,1544200,12500,767970,132,1.0,2004,,,11/15/2006 0:00,301.8,301.8,,,,Mini,"Hydraulic Excavator, Track - 0.0 to 2.0 Metric Tons",Georgia,TEX,Track Excavators,,EROPS,,,,,,,,,,,Auxiliary,,,,,,None or Unspecified,,,,Rubber,None or Unspecified,None or Unspecified,None or Unspecified,Yes,Double,,,,,
13391,1544213,15000,103445,132,3.0,2005,,,5/29/2008 0:00,301.8,301.8,,,,Mini,"Hydraulic Excavator, Track - 0.0 to 2.0 Metric Tons",Unspecified,TEX,Track Excavators,,EROPS,,,,,,,,,,,Standard,,,,,,None or Unspecified,,,,Rubber,15 inch,None or Unspecified,None or Unspecified,Yes,Double,,,,,
13391,1544218,10000,1529056,132,8.0,2005,,,5/23/2007 0:00,301.8,301.8,,,,Mini,"Hydraulic Excavator, Track - 0.0 to 2.0 Metric Tons",Mississippi,TEX,Track Excavators,,EROPS,,,,,,,,,,,Standard,,,,,,None or Unspecified,,,,Steel,None or Unspecified,None or Unspecified,None or Unspecified,None or Unspecified,Double,,,,,
13391,1544228,8000,312511,132,1.0,2005,,,3/24/2011 0:00,301.8,301.8,,,,Mini,"Hydraulic Excavator, Track - 0.0 to 2.0 Metric Tons",Nevada,TEX,Track Excavators,,EROPS,,,,,,,,,,,Standard,,,,,,None or Unspecified,,,,Rubber,None or Unspecified,None or Unspecified,None or Unspecified,Yes,Double,,,,,
13391,1544232,10000,786132,132,1.0,2005,,,5/18/2011 0:00,301.8,301.8,,,,Mini,"Hydraulic Excavator, Track - 0.0 to 2.0 Metric Tons",Florida,TEX,Track Excavators,,EROPS,,,,,,,,,,,Auxiliary,,,,,,None or Unspecified,,,,Rubber,None or Unspecified,None or Unspecified,None or Unspecified,Yes,Double,,,,,
13391,2291992,9000,879332,136,1.0,2001,0.0,,9/16/2008 0:00,301.8,301.8,,,,Mini,"Hydraulic Excavator, Track - 0.0 to 2.0 Metric Tons",Washington,TEX,Track Excavators,,EROPS,,,,,,,,,,,Auxiliary,,,,,,Manual,,,,Rubber,None or Unspecified,None or Unspecified,None or Unspecified,Yes,Double,,,,,
13391,2291994,8500,877182,136,,2005,0.0,,4/21/2009 0:00,301.8,301.8,,,,Mini,"Hydraulic Excavator, Track - 0.0 to 2.0 Metric Tons",Idaho,TEX,Track Excavators,,EROPS,,,,,,,,,,,Auxiliary,,,,,,None or Unspecified,,,,Rubber,None or Unspecified,None or Unspecified,None or Unspecified,None or Unspecified,Double,,,,,
13391,2291996,9250,1463529,136,2.0,2001,0.0,,3/27/2008 0:00,301.8,301.8,,,,Mini,"Hydraulic Excavator, Track - 0.0 to 2.0 Metric Tons",New Jersey,TEX,Track Excavators,,EROPS,,,,,,,,,,,Auxiliary,,,,,,None or Unspecified,,,,Rubber,None or Unspecified,None or Unspecified,None or Unspecified,None or Unspecified,Double,,,,,
13391,2291997,8000,792700,136,1.0,2002,0.0,,2/19/2008 0:00,301.8,301.8,,,,Mini,"Hydraulic Excavator, Track - 0.0 to 2.0 Metric Tons",Florida,TEX,Track Excavators,,EROPS,,,,,,,,,,,Standard,,,,,,None or Unspecified,,,,Rubber,None or Unspecified,None or Unspecified,None or Unspecified,Yes,Double,,,,,
13391,2292004,8500,769478,136,1.0,2002,0.0,,2/16/2009 0:00,301.8,301.8,,,,Mini,"Hydraulic Excavator, Track - 0.0 to 2.0 Metric Tons",Florida,TEX,Track Excavators,,EROPS,,,,,,,,,,,Auxiliary,,,,,,None or Unspecified,,,,Rubber,None or Unspecified,None or Unspecified,None or Unspecified,Yes,Double,,,,,
13391,2292006,10500,524287,136,8.0,2002,0.0,,5/23/2007 0:00,301.8,301.8,,,,Mini,"Hydraulic Excavator, Track - 0.0 to 2.0 Metric Tons",Mississippi,TEX,Track Excavators,,EROPS,,,,,,,,,,,Auxiliary,,,,,,None or Unspecified,,,,Rubber,None or Unspecified,None or Unspecified,None or Unspecified,Yes,Double,,,,,
13391,2292007,13000,524287,136,8.0,2002,0.0,,3/21/2007 0:00,301.8,301.8,,,,Mini,"Hydraulic Excavator, Track - 0.0 to 2.0 Metric Tons",Mississippi,TEX,Track Excavators,,EROPS,,,,,,,,,,,Auxiliary,,,,,,None or Unspecified,,,,Rubber,None or Unspecified,None or Unspecified,None or Unspecified,Yes,Double,,,,,
13391,2292008,8600,524287,136,8.0,2002,1307.0,Medium,5/29/2008 0:00,301.8,301.8,,,,Mini,"Hydraulic Excavator, Track - 0.0 to 2.0 Metric Tons",Mississippi,TEX,Track Excavators,,EROPS,,,,,,,,,,,Auxiliary,,,,,,None or Unspecified,,,,Rubber,None or Unspecified,None or Unspecified,None or Unspecified,Yes,Double,,,,,
13391,2292009,11000,524287,136,8.0,2002,1263.0,Medium,7/11/2007 0:00,301.8,301.8,,,,Mini,"Hydraulic Excavator, Track - 0.0 to 2.0 Metric Tons",Mississippi,TEX,Track Excavators,,EROPS,,,,,,,,,,,Auxiliary,,,,,,None or Unspecified,,,,Rubber,None or Unspecified,None or Unspecified,None or Unspecified,Yes,Double,,,,,
13391,2292014,11000,1294608,136,2.0,2002,0.0,,2/3/2008 0:00,301.8,301.8,,,,Mini,"Hydraulic Excavator, Track - 0.0 to 2.0 Metric Tons",Florida,TEX,Track Excavators,,EROPS,,,,,,,,,,,Standard,,,,,,None or Unspecified,,,,Rubber,None or Unspecified,None or Unspecified,None or Unspecified,None or Unspecified,Double,,,,,
13391,2292025,12000,523576,136,8.0,2003,1118.0,Medium,7/11/2007 0:00,301.8,301.8,,,,Mini,"Hydraulic Excavator, Track - 0.0 to 2.0 Metric Tons",Mississippi,TEX,Track Excavators,,EROPS,,,,,,,,,,,Auxiliary,,,,,,None or Unspecified,,,,Rubber,None or Unspecified,None or Unspecified,None or Unspecified,Yes,Double,,,,,
13391,2292026,9750,523576,136,8.0,2003,0.0,,4/16/2008 0:00,301.8,301.8,,,,Mini,"Hydraulic Excavator, Track - 0.0 to 2.0 Metric Tons",Arkansas,TEX,Track Excavators,,EROPS,,,,,,,,,,,Auxiliary,,,,,,None or Unspecified,,,,Rubber,None or Unspecified,None or Unspecified,None or Unspecified,Yes,Double,,,,,
13391,2292027,13000,523576,136,8.0,2003,0.0,,3/21/2007 0:00,301.8,301.8,,,,Mini,"Hydraulic Excavator, Track - 0.0 to 2.0 Metric Tons",Mississippi,TEX,Track Excavators,,EROPS,,,,,,,,,,,Auxiliary,,,,,,None or Unspecified,,,,Rubber,None or Unspecified,None or Unspecified,None or Unspecified,Yes,Double,,,,,
13391,2292028,12000,523576,136,8.0,2003,1113.0,Medium,5/23/2007 0:00,301.8,301.8,,,,Mini,"Hydraulic Excavator, Track - 0.0 to 2.0 Metric Tons",Mississippi,TEX,Track Excavators,,EROPS,,,,,,,,,,,Auxiliary,,,,,,None or Unspecified,,,,Rubber,None or Unspecified,None or Unspecified,None or Unspecified,Yes,Double,,,,,
13391,2292029,9000,523576,136,8.0,2003,0.0,,3/26/2008 0:00,301.8,301.8,,,,Mini,"Hydraulic Excavator, Track - 0.0 to 2.0 Metric Tons",Mississippi,TEX,Track Excavators,,EROPS,,,,,,,,,,,Auxiliary,,,,,,None or Unspecified,,,,Rubber,None or Unspecified,None or Unspecified,None or Unspecified,Yes,Double,,,,,
13391,2292030,9500,523576,136,8.0,2003,1084.0,Medium,1/31/2008 0:00,301.8,301.8,,,,Mini,"Hydraulic Excavator, Track - 0.0 to 2.0 Metric Tons",Alabama,TEX,Track Excavators,,EROPS,,,,,,,,,,,Auxiliary,,,,,,None or Unspecified,,,,Rubber,None or Unspecified,None or Unspecified,None or Unspecified,Yes,Double,,,,,
13391,2292031,11500,523576,136,8.0,2003,0.0,,9/12/2007 0:00,301.8,301.8,,,,Mini,"Hydraulic Excavator, Track - 0.0 to 2.0 Metric Tons",Mississippi,TEX,Track Excavators,,EROPS,,,,,,,,,,,Auxiliary,,,,,,None or Unspecified,,,,Rubber,None or Unspecified,None or Unspecified,None or Unspecified,Yes,Double,,,,,
13391,2292033,10000,1464692,136,1.0,2003,1823.0,High,5/7/2008 0:00,301.8,301.8,,,,Mini,"Hydraulic Excavator, Track - 0.0 to 2.0 Metric Tons",Texas,TEX,Track Excavators,,EROPS,,,,,,,,,,,Auxiliary,,,,,,None or Unspecified,,,,Rubber,None or Unspecified,None or Unspecified,None or Unspecified,Yes,Double,,,,,
13391,2292034,11500,1786985,136,,2004,376.0,Low,7/11/2007 0:00,301.8,301.8,,,,Mini,"Hydraulic Excavator, Track - 0.0 to 2.0 Metric Tons",Texas,TEX,Track Excavators,,EROPS,,,,,,,,,,,Auxiliary,,,,,,None or Unspecified,,,,Steel,None or Unspecified,None or Unspecified,None or Unspecified,None or Unspecified,Double,,,,,
13391,2292035,9500,174886,136,1.0,2003,1365.0,High,5/22/2007 0:00,301.8,301.8,,,,Mini,"Hydraulic Excavator, Track - 0.0 to 2.0 Metric Tons",California,TEX,Track Excavators,,EROPS,,,,,,,,,,,Auxiliary,,,,,,Manual,,,,Rubber,None or Unspecified,None or Unspecified,None or Unspecified,Yes,Double,,,,,
13391,2292048,12000,311844,136,1.0,2004,1416.0,High,3/18/2008 0:00,301.8,301.8,,,,Mini,"Hydraulic Excavator, Track - 0.0 to 2.0 Metric Tons",Washington,TEX,Track Excavators,,EROPS,,,,,,,,,,,Auxiliary,,,,,,None or Unspecified,,,,Rubber,None or Unspecified,None or Unspecified,Hydraulic,None or Unspecified,Double,,,,,
13391,2292049,11500,308215,136,1.0,2003,925.0,Medium,8/31/2007 0:00,301.8,301.8,,,,Mini,"Hydraulic Excavator, Track - 0.0 to 2.0 Metric Tons",Nevada,TEX,Track Excavators,,EROPS,,,,,,,,,,,Auxiliary,,,,,,None or Unspecified,,,,Rubber,None or Unspecified,None or Unspecified,None or Unspecified,Yes,Double,,,,,
13391,2292050,12000,366824,136,3.0,2004,1394.0,High,4/12/2007 0:00,301.8,301.8,,,,Mini,"Hydraulic Excavator, Track - 0.0 to 2.0 Metric Tons",North Carolina,TEX,Track Excavators,,EROPS,,,,,,,,,,,Auxiliary,,,,,,Manual,,,,Rubber,None or Unspecified,None or Unspecified,None or Unspecified,None or Unspecified,Double,,,,,
13391,2292052,9500,174472,136,,2004,993.0,Medium,9/15/2007 0:00,301.8,301.8,,,,Mini,"Hydraulic Excavator, Track - 0.0 to 2.0 Metric Tons",California,TEX,Track Excavators,,EROPS,,,,,,,,,,,Auxiliary,,,,,,Manual,,,,Rubber,None or Unspecified,None or Unspecified,None or Unspecified,Yes,Double,,,,,
13391,2292053,11500,507993,136,2.0,2004,922.0,Medium,9/20/2007 0:00,301.8,301.8,,,,Mini,"Hydraulic Excavator, Track - 0.0 to 2.0 Metric Tons",California,TEX,Track Excavators,,EROPS,,,,,,,,,,,Auxiliary,,,,,,Manual,,,,Rubber,None or Unspecified,None or Unspecified,None or Unspecified,Yes,Double,,,,,
13391,2292057,9500,376536,136,1.0,2004,1956.0,High,2/25/2009 0:00,301.8,301.8,,,,Mini,"Hydraulic Excavator, Track - 0.0 to 2.0 Metric Tons",Arizona,TEX,Track Excavators,,EROPS,,,,,,,,,,,Auxiliary,,,,,,None or Unspecified,,,,Rubber,None or Unspecified,None or Unspecified,None or Unspecified,None or Unspecified,Double,,,,,
13391,2292058,11000,527707,136,8.0,2004,1350.0,High,7/11/2007 0:00,301.8,301.8,,,,Mini,"Hydraulic Excavator, Track - 0.0 to 2.0 Metric Tons",Mississippi,TEX,Track Excavators,,EROPS,,,,,,,,,,,Standard,,,,,,None or Unspecified,,,,Rubber,None or Unspecified,None or Unspecified,None or Unspecified,Yes,Double,,,,,
13391,2292059,10000,527707,136,8.0,2004,1364.0,High,11/14/2007 0:00,301.8,301.8,,,,Mini,"Hydraulic Excavator, Track - 0.0 to 2.0 Metric Tons",Mississippi,TEX,Track Excavators,,EROPS,,,,,,,,,,,Standard,,,,,,None or Unspecified,,,,Rubber,None or Unspecified,None or Unspecified,None or Unspecified,Yes,Double,,,,,
13391,2292060,11000,527707,136,,2004,1350.0,High,5/23/2007 0:00,301.8,301.8,,,,Mini,"Hydraulic Excavator, Track - 0.0 to 2.0 Metric Tons",Mississippi,TEX,Track Excavators,,EROPS,,,,,,,,,,,Standard,,,,,,None or Unspecified,,,,Rubber,None or Unspecified,None or Unspecified,None or Unspecified,Yes,Double,,,,,
13391,2292061,10500,527707,136,8.0,2004,1350.0,High,9/12/2007 0:00,301.8,301.8,,,,Mini,"Hydraulic Excavator, Track - 0.0 to 2.0 Metric Tons",Mississippi,TEX,Track Excavators,,EROPS,,,,,,,,,,,Standard,,,,,,None or Unspecified,,,,Rubber,None or Unspecified,None or Unspecified,None or Unspecified,Yes,Double,,,,,
13391,2292066,10500,180300,136,1.0,2004,979.0,Medium,4/29/2008 0:00,301.8,301.8,,,,Mini,"Hydraulic Excavator, Track - 0.0 to 2.0 Metric Tons",California,TEX,Track Excavators,,EROPS,,,,,,,,,,,Auxiliary,,,,,,Manual,,,,Rubber,None or Unspecified,None or Unspecified,None or Unspecified,Yes,Double,,,,,
13391,2292067,15500,169785,136,,2006,246.0,Low,9/20/2007 0:00,301.8,301.8,,,,Mini,"Hydraulic Excavator, Track - 0.0 to 2.0 Metric Tons",California,TEX,Track Excavators,,EROPS,,,,,,,,,,,Auxiliary,,,,,,Manual,,,,Rubber,None or Unspecified,None or Unspecified,None or Unspecified,Yes,Double,,,,,
13391,2292070,14000,371363,136,2.0,2004,0.0,,3/27/2008 0:00,301.8,301.8,,,,Mini,"Hydraulic Excavator, Track - 0.0 to 2.0 Metric Tons",New Jersey,TEX,Track Excavators,,EROPS,,,,,,,,,,,Auxiliary,,,,,,None or Unspecified,,,,Steel,None or Unspecified,None or Unspecified,None or Unspecified,None or Unspecified,Double,,,,,
13391,2292073,10000,790032,136,1.0,2004,1710.0,High,10/14/2009 0:00,301.8,301.8,,,,Mini,"Hydraulic Excavator, Track - 0.0 to 2.0 Metric Tons",Florida,TEX,Track Excavators,,EROPS,,,,,,,,,,,Auxiliary,,,,,,None or Unspecified,,,,Rubber,None or Unspecified,None or Unspecified,None or Unspecified,Yes,Double,,,,,
13391,2292075,8000,779266,136,2.0,2004,0.0,,1/31/2009 0:00,301.8,301.8,,,,Mini,"Hydraulic Excavator, Track - 0.0 to 2.0 Metric Tons",Florida,TEX,Track Excavators,,EROPS,,,,,,,,,,,Auxiliary,,,,,,None or Unspecified,,,,Rubber,None or Unspecified,None or Unspecified,None or Unspecified,Yes,Double,,,,,
13391,2292076,12000,418972,136,,2004,700.0,Low,6/18/2008 0:00,301.8,301.8,,,,Mini,"Hydraulic Excavator, Track - 0.0 to 2.0 Metric Tons",Arkansas,TEX,Track Excavators,,EROPS,,,,,,,,,,,Standard,,,,,,None or Unspecified,,,,Rubber,None or Unspecified,None or Unspecified,None or Unspecified,Yes,Double,,,,,
13391,2292078,10500,879528,136,1.0,2004,982.0,Medium,9/16/2008 0:00,301.8,301.8,,,,Mini,"Hydraulic Excavator, Track - 0.0 to 2.0 Metric Tons",Washington,TEX,Track Excavators,,EROPS,,,,,,,,,,,Auxiliary,,,,,,None or Unspecified,,,,Rubber,None or Unspecified,None or Unspecified,None or Unspecified,Yes,Double,,,,,
13391,2292079,11500,876993,136,1.0,2004,1025.0,Medium,9/16/2008 0:00,301.8,301.8,,,,Mini,"Hydraulic Excavator, Track - 0.0 to 2.0 Metric Tons",Washington,TEX,Track Excavators,,EROPS,,,,,,,,,,,Auxiliary,,,,,,None or Unspecified,,,,Rubber,None or Unspecified,None or Unspecified,None or Unspecified,Yes,Double,,,,,
13391,2292086,8000,305892,136,1.0,2005,2339.0,High,5/1/2009 0:00,301.8,301.8,,,,Mini,"Hydraulic Excavator, Track - 0.0 to 2.0 Metric Tons",Nevada,TEX,Track Excavators,,EROPS,,,,,,,,,,,Auxiliary,,,,,,None or Unspecified,,,,Rubber,None or Unspecified,None or Unspecified,None or Unspecified,Yes,Double,,,,,
13391,2292087,12500,507968,136,2.0,2004,546.0,Low,9/20/2007 0:00,301.8,301.8,,,,Mini,"Hydraulic Excavator, Track - 0.0 to 2.0 Metric Tons",California,TEX,Track Excavators,,EROPS,,,,,,,,,,,Auxiliary,,,,,,Manual,,,,Rubber,None or Unspecified,None or Unspecified,None or Unspecified,Yes,Double,,,,,
13391,2292088,12500,18549,136,1.0,2004,0.0,,3/26/2008 0:00,301.8,301.8,,,,Mini,"Hydraulic Excavator, Track - 0.0 to 2.0 Metric Tons",Georgia,TEX,Track Excavators,,EROPS,,,,,,,,,,,Auxiliary,,,,,,Manual,,,,Rubber,None or Unspecified,None or Unspecified,None or Unspecified,Yes,Double,,,,,
13391,2292107,11000,1784889,136,,2005,781.0,Medium,6/21/2008 0:00,301.8,301.8,,,,Mini,"Hydraulic Excavator, Track - 0.0 to 2.0 Metric Tons",California,TEX,Track Excavators,,EROPS,,,,,,,,,,,Auxiliary,,,,,,Manual,,,,Rubber,None or Unspecified,None or Unspecified,None or Unspecified,Yes,Double,,,,,
13391,2292108,12000,1757127,136,,2005,949.0,Medium,3/22/2008 0:00,301.8,301.8,,,,Mini,"Hydraulic Excavator, Track - 0.0 to 2.0 Metric Tons",California,TEX,Track Excavators,,EROPS,,,,,,,,,,,Standard,,,,,,None or Unspecified,,,,Rubber,None or Unspecified,None or Unspecified,None or Unspecified,Yes,Double,,,,,
13391,2292109,11500,1314369,136,1.0,2005,799.0,Medium,6/23/2008 0:00,301.8,301.8,,,,Mini,"Hydraulic Excavator, Track - 0.0 to 2.0 Metric Tons",California,TEX,Track Excavators,,EROPS,,,,,,,,,,,Auxiliary,,,,,,Manual,,,,Rubber,None or Unspecified,None or Unspecified,None or Unspecified,Yes,Double,,,,,
13391,2292110,11000,1214473,136,1.0,2005,802.0,Medium,4/29/2008 0:00,301.8,301.8,,,,Mini,"Hydraulic Excavator, Track - 0.0 to 2.0 Metric Tons",California,TEX,Track Excavators,,EROPS,,,,,,,,,,,Auxiliary,,,,,,Manual,,,,Rubber,None or Unspecified,None or Unspecified,None or Unspecified,Yes,Double,,,,,
13391,2292114,12500,170042,136,1.0,2005,981.0,Medium,4/29/2008 0:00,301.8,301.8,,,,Mini,"Hydraulic Excavator, Track - 0.0 to 2.0 Metric Tons",California,TEX,Track Excavators,,EROPS,,,,,,,,,,,Auxiliary,,,,,,None or Unspecified,,,,Rubber,None or Unspecified,None or Unspecified,None or Unspecified,Yes,Double,,,,,
13391,2292115,15500,173027,136,1.0,2005,673.0,Medium,4/29/2008 0:00,301.8,301.8,,,,Mini,"Hydraulic Excavator, Track - 0.0 to 2.0 Metric Tons",California,TEX,Track Excavators,,EROPS,,,,,,,,,,,Auxiliary,,,,,,None or Unspecified,,,,Rubber,None or Unspecified,None or Unspecified,None or Unspecified,Yes,Double,,,,,
13391,2292117,13500,308341,136,1.0,2005,673.0,Medium,10/10/2007 0:00,301.8,301.8,,,,Mini,"Hydraulic Excavator, Track - 0.0 to 2.0 Metric Tons",Florida,TEX,Track Excavators,,EROPS,,,,,,,,,,,Auxiliary,,,,,,None or Unspecified,,,,Rubber,None or Unspecified,None or Unspecified,None or Unspecified,Yes,Double,,,,,
13391,2292120,11000,520975,136,1.0,2005,611.0,Low,2/16/2009 0:00,301.8,301.8,,,,Mini,"Hydraulic Excavator, Track - 0.0 to 2.0 Metric Tons",Florida,TEX,Track Excavators,,EROPS,,,,,,,,,,,Auxiliary,,,,,,None or Unspecified,,,,Rubber,None or Unspecified,None or Unspecified,None or Unspecified,Yes,Double,,,,,
13391,2292125,15000,307654,136,1.0,2006,815.0,Medium,10/15/2008 0:00,301.8,301.8,,,,Mini,"Hydraulic Excavator, Track - 0.0 to 2.0 Metric Tons",Florida,TEX,Track Excavators,,EROPS,,,,,,,,,,,Auxiliary,,,,,,None or Unspecified,,,,Rubber,None or Unspecified,None or Unspecified,None or Unspecified,Yes,Double,,,,,
13391,2292128,8500,307655,136,3.0,2005,0.0,,5/20/2009 0:00,301.8,301.8,,,,Mini,"Hydraulic Excavator, Track - 0.0 to 2.0 Metric Tons",California,TEX,Track Excavators,,EROPS,,,,,,,,,,,Auxiliary,,,,,,None or Unspecified,,,,Rubber,None or Unspecified,None or Unspecified,None or Unspecified,Yes,Double,,,,,
13391,2292130,11000,160114,136,1.0,2005,1162.0,Medium,2/16/2009 0:00,301.8,301.8,,,,Mini,"Hydraulic Excavator, Track - 0.0 to 2.0 Metric Tons",Florida,TEX,Track Excavators,,EROPS,,,,,,,,,,,Auxiliary,,,,,,None or Unspecified,,,,Rubber,None or Unspecified,None or Unspecified,None or Unspecified,Yes,Double,,,,,
13391,2292132,9500,177411,136,1.0,2005,838.0,Medium,8/27/2008 0:00,301.8,301.8,,,,Mini,"Hydraulic Excavator, Track - 0.0 to 2.0 Metric Tons",California,TEX,Track Excavators,,EROPS,,,,,,,,,,,Auxiliary,,,,,,None or Unspecified,,,,Rubber,None or Unspecified,None or Unspecified,None or Unspecified,Yes,Double,,,,,
13391,2292141,11000,775764,136,2.0,2005,643.0,Medium,10/9/2007 0:00,301.8,301.8,,,,Mini,"Hydraulic Excavator, Track - 0.0 to 2.0 Metric Tons",Florida,TEX,Track Excavators,,EROPS,,,,,,,,,,,Auxiliary,,,,,,Manual,,,,Rubber,None or Unspecified,None or Unspecified,None or Unspecified,Yes,Double,,,,,
13391,2305673,10000,1736958,136,,2005,0.0,,5/23/2007 0:00,301.8,301.8,,,,Mini,"Hydraulic Excavator, Track - 0.0 to 2.0 Metric Tons",Mississippi,TEX,Track Excavators,,EROPS,,,,,,,,,,,Standard,,,,,,None or Unspecified,,,,Steel,None or Unspecified,None or Unspecified,None or Unspecified,None or Unspecified,Double,,,,,
13391,2576143,13500,1470833,149,0.0,2004,0.0,,4/26/2011 0:00,301.8,301.8,,,,Mini,"Hydraulic Excavator, Track - 0.0 to 2.0 Metric Tons",Minnesota,TEX,Track Excavators,,EROPS,,,,,,,,,,,Standard,,,,,,None or Unspecified,,,,Steel,None or Unspecified,None or Unspecified,None or Unspecified,None or Unspecified,Double,,,,,
13391,4292175,8000,383287,172,1.0,2003,2291.0,High,6/24/2010 0:00,301.8,301.8,,,,Mini,"Hydraulic Excavator, Track - 0.0 to 2.0 Metric Tons",Arizona,TEX,Track Excavators,,EROPS,,,,,,,,,,,Auxiliary,,,,,,None or Unspecified,,,,Steel,None or Unspecified,None or Unspecified,None or Unspecified,None or Unspecified,Double,,,,,
13391,4292179,11500,765664,172,1.0,2004,1955.0,Medium,10/27/2010 0:00,301.8,301.8,,,,Mini,"Hydraulic Excavator, Track - 0.0 to 2.0 Metric Tons",Florida,TEX,Track Excavators,,EROPS,,,,,,,,,,,Auxiliary,,,,,,None or Unspecified,,,,Rubber,None or Unspecified,None or Unspecified,None or Unspecified,Yes,Double,,,,,
13391,4292185,11500,797222,172,1.0,2005,1043.0,Medium,10/27/2010 0:00,301.8,301.8,,,,Mini,"Hydraulic Excavator, Track - 0.0 to 2.0 Metric Tons",Florida,TEX,Track Excavators,,EROPS,,,,,,,,,,,Auxiliary,,,,,,None or Unspecified,,,,Rubber,None or Unspecified,None or Unspecified,None or Unspecified,Yes,Double,,,,,
13391,4292189,8000,377166,172,1.0,2005,1847.0,High,6/24/2010 0:00,301.8,301.8,,,,Mini,"Hydraulic Excavator, Track - 0.0 to 2.0 Metric Tons",Arizona,TEX,Track Excavators,,EROPS,,,,,,,,,,,Auxiliary,,,,,,None or Unspecified,,,,Steel,None or Unspecified,None or Unspecified,None or Unspecified,None or Unspecified,Double,,,,,
13391,4292190,10500,2277974,172,1.0,2006,,,10/3/2011 0:00,301.8,301.8,,,,Mini,"Hydraulic Excavator, Track - 0.0 to 2.0 Metric Tons",Texas,TEX,Track Excavators,,EROPS,,,,,,,,,,,Auxiliary,,,,,,None or Unspecified,,,,Rubber,None or Unspecified,None or Unspecified,Hydraulic,None or Unspecified,Double,,,,,
13391,4292191,12000,2277974,172,1.0,2002,1500.0,Low,10/6/2011 0:00,301.8,301.8,,,,Mini,"Hydraulic Excavator, Track - 0.0 to 2.0 Metric Tons",California,TEX,Track Excavators,,EROPS,,,,,,,,,,,Auxiliary,,,,,,None or Unspecified,,,,Rubber,None or Unspecified,None or Unspecified,Hydraulic,None or Unspecified,Double,,,,,
13391,4292197,9000,2277974,172,1.0,2001,1595.0,Low,11/15/2011 0:00,301.8,301.8,,,,Mini,"Hydraulic Excavator, Track - 0.0 to 2.0 Metric Tons",Texas,TEX,Track Excavators,,EROPS,,,,,,,,,,,Auxiliary,,,,,,None or Unspecified,,,,Rubber,None or Unspecified,None or Unspecified,Hydraulic,None or Unspecified,Double,,,,,
13391,4304310,16500,2296256,172,1.0,2006,230.0,Low,9/29/2009 0:00,301.8,301.8,,,,Mini,"Hydraulic Excavator, Track - 0.0 to 2.0 Metric Tons",California,TEX,Track Excavators,,EROPS,,,,,,,,,,,Auxiliary,,,,,,None or Unspecified,,,,Steel,None or Unspecified,None or Unspecified,None or Unspecified,None or Unspecified,Double,,,,,
13391,6273790,9000,375438,149,1.0,2001,,,11/16/2011 0:00,301.8,301.8,,,,Mini,"Hydraulic Excavator, Track - 0.0 to 2.0 Metric Tons",Texas,TEX,Track Excavators,,EROPS,,,,,,,,,,,Auxiliary,,,,,,None or Unspecified,,,,Rubber,None or Unspecified,None or Unspecified,None or Unspecified,None or Unspecified,Double,,,,,
13391,6273793,12000,710065,149,1.0,2002,,,10/7/2011 0:00,301.8,301.8,,,,Mini,"Hydraulic Excavator, Track - 0.0 to 2.0 Metric Tons",California,TEX,Track Excavators,,EROPS,,,,,,,,,,,Auxiliary,,,,,,Manual,,,,Rubber,None or Unspecified,None or Unspecified,Hydraulic,Yes,Double,,,,,
13391,6273794,8250,703840,149,1.0,2004,,,9/8/2011 0:00,301.8,301.8,,,,Mini,"Hydraulic Excavator, Track - 0.0 to 2.0 Metric Tons",Nebraska,TEX,Track Excavators,,EROPS,,,,,,,,,,,Auxiliary,,,,,,Manual,,,,Rubber,None or Unspecified,None or Unspecified,None or Unspecified,Yes,Double,,,,,
13391,6273800,10000,369150,149,1.0,2005,,,9/27/2011 0:00,301.8,301.8,,,,Mini,"Hydraulic Excavator, Track - 0.0 to 2.0 Metric Tons",Arizona,TEX,Track Excavators,,EROPS,,,,,,,,,,,Auxiliary,,,,,,None or Unspecified,,,,Steel,None or Unspecified,None or Unspecified,None or Unspecified,None or Unspecified,Double,,,,,
13391,6273808,10000,382512,149,1.0,2005,,,9/27/2011 0:00,301.8,301.8,,,,Mini,"Hydraulic Excavator, Track - 0.0 to 2.0 Metric Tons",Arizona,TEX,Track Excavators,,EROPS,,,,,,,,,,,Auxiliary,,,,,,None or Unspecified,,,,Steel,None or Unspecified,None or Unspecified,None or Unspecified,None or Unspecified,Double,,,,,
