ModelID,SalesID,SalePrice,MachineID,datasource,auctioneerID,YearMade,MachineHoursCurrentMeter,UsageBand,saledate,fiModelDesc,fiBaseModel,fiSecondaryDesc,fiModelSeries,fiModelDescriptor,ProductSize,fiProductClassDesc,state,ProductGroup,ProductGroupDesc,Drive_System,Enclosure,Forks,Pad_Type,Ride_Control,Stick,Transmission,Turbocharged,Blade_Extension,Blade_Width,Enclosure_Type,Engine_Horsepower,Hydraulics,Pushblock,Ripper,Scarifier,Tip_Control,Tire_Size,Coupler,Coupler_System,Grouser_Tracks,Hydraulics_Flow,Track_Type,Undercarriage_Pad_Width,Stick_Length,Thumb,Pattern_Changer,Grouser_Type,Backhoe_Mounting,Blade_Type,Travel_Controls,Differential_Type,Steering_Controls
13425,1146963,98000,735915,121,3.0,2007,2147.0,Medium,12/16/2010 0:00,320DL,320,D,,L,Large / Medium,"Hydraulic Excavator, Track - 21.0 to 24.0 Metric Tons",Mississippi,TEX,Track Excavators,,EROPS w AC,,,,,,,,,,,Standard,,,,,,None or Unspecified,,,,Steel,None or Unspecified,"9' 7""",Manual,Yes,Triple,,,,,
13425,1212114,103000,580985,121,3.0,2007,3626.0,Medium,3/24/2011 0:00,320DL,320,D,,L,Large / Medium,"Hydraulic Excavator, Track - 21.0 to 24.0 Metric Tons",Michigan,TEX,Track Excavators,,EROPS w AC,,,,,,,,,,,Standard,,,,,,None or Unspecified,,,,Steel,None or Unspecified,"9' 7""",None or Unspecified,Yes,Triple,,,,,
13425,1569125,100000,280031,132,99.0,2007,,,9/30/2010 0:00,320DL,320,D,,L,Large / Medium,"Hydraulic Excavator, Track - 21.0 to 24.0 Metric Tons",Colorado,TEX,Track Excavators,,EROPS w AC,,,,,,,,,,,Standard,,,,,,Hydraulic,,,,Steel,None or Unspecified,"12' 8""",None or Unspecified,Yes,Triple,,,,,
13425,1569145,108000,469449,132,13.0,2007,1493.0,Low,9/18/2010 0:00,320DL,320,D,,L,Large / Medium,"Hydraulic Excavator, Track - 21.0 to 24.0 Metric Tons",Tennessee,TEX,Track Excavators,,EROPS w AC,,,,,,,,,,,Standard,,,,,,None or Unspecified,,,,Steel,None or Unspecified,None or Unspecified,None or Unspecified,Yes,Triple,,,,,
13425,1569153,107500,604962,132,99.0,2008,,,4/22/2010 0:00,320DL,320,D,,L,Large / Medium,"Hydraulic Excavator, Track - 21.0 to 24.0 Metric Tons",Texas,TEX,Track Excavators,,EROPS w AC,,,,,,,,,,,Standard,,,,,,None or Unspecified,,,,Steel,None or Unspecified,"9' 7""",None or Unspecified,Yes,Triple,,,,,
13425,2302582,97500,1041971,136,1.0,2007,0.0,,10/14/2009 0:00,320DL,320,D,,L,Large / Medium,"Hydraulic Excavator, Track - 21.0 to 24.0 Metric Tons",Florida,TEX,Track Excavators,,EROPS w AC,,,,,,,,,,,Standard,,,,,,None or Unspecified,,,,Steel,None or Unspecified,"9' 7""",None or Unspecified,None or Unspecified,Double,,,,,
13425,2302584,85000,1491551,136,1.0,2007,1674.0,Medium,12/1/2009 0:00,320DL,320,D,,L,Large / Medium,"Hydraulic Excavator, Track - 21.0 to 24.0 Metric Tons",California,TEX,Track Excavators,,EROPS w AC,,,,,,,,,,,Standard,,,,,,None or Unspecified,,,,Steel,None or Unspecified,"9' 8""",None or Unspecified,None or Unspecified,Double,,,,,
13425,2317602,97500,494182,136,1.0,2007,0.0,,9/23/2009 0:00,320DL,320,D,,L,Large / Medium,"Hydraulic Excavator, Track - 21.0 to 24.0 Metric Tons",Texas,TEX,Track Excavators,,EROPS w AC,,,,,,,,,,,Auxiliary,,,,,,Hydraulic,,,,Steel,None or Unspecified,None or Unspecified,None or Unspecified,Yes,Triple,,,,,
13425,2317604,90000,1443972,136,1.0,2007,1729.0,Medium,10/14/2009 0:00,320DL,320,D,,L,Large / Medium,"Hydraulic Excavator, Track - 21.0 to 24.0 Metric Tons",Florida,TEX,Track Excavators,,EROPS w AC,,,,,,,,,,,Standard,,,,,,None or Unspecified,,,,Steel,None or Unspecified,"9' 6""",None or Unspecified,None or Unspecified,Double,,,,,
13425,2317605,87500,468939,136,1.0,2007,0.0,,12/2/2009 0:00,320DL,320,D,,L,Large / Medium,"Hydraulic Excavator, Track - 21.0 to 24.0 Metric Tons",Texas,TEX,Track Excavators,,EROPS w AC,,,,,,,,,,,Standard,,,,,,Hydraulic,,,,Steel,None or Unspecified,"9' 6""",None or Unspecified,Yes,Triple,,,,,
13425,2317624,100000,988940,136,1.0,2007,1797.0,Medium,4/22/2010 0:00,320DL,320,D,,L,Large / Medium,"Hydraulic Excavator, Track - 21.0 to 24.0 Metric Tons",Utah,TEX,Track Excavators,,EROPS w AC,,,,,,,,,,,Standard,,,,,,Hydraulic,,,,Steel,None or Unspecified,"9' 6""",None or Unspecified,Yes,Triple,,,,,
13425,2317625,107500,991955,136,1.0,2007,1504.0,Low,4/22/2010 0:00,320DL,320,D,,L,Large / Medium,"Hydraulic Excavator, Track - 21.0 to 24.0 Metric Tons",Utah,TEX,Track Excavators,,EROPS w AC,,,,,,,,,,,Standard,,,,,,Hydraulic,,,,Steel,None or Unspecified,"9' 6""",None or Unspecified,Yes,Triple,,,,,
13425,2317627,105000,780878,136,1.0,2007,915.0,Low,5/27/2009 0:00,320DL,320,D,,L,Large / Medium,"Hydraulic Excavator, Track - 21.0 to 24.0 Metric Tons",Florida,TEX,Track Excavators,,EROPS w AC,,,,,,,,,,,Standard,,,,,,None or Unspecified,,,,Steel,None or Unspecified,"9' 7""",Manual,Yes,Triple,,,,,
13425,2317628,105000,799195,136,1.0,2007,108.0,Low,5/27/2009 0:00,320DL,320,D,,L,Large / Medium,"Hydraulic Excavator, Track - 21.0 to 24.0 Metric Tons",Florida,TEX,Track Excavators,,EROPS w AC,,,,,,,,,,,Standard,,,,,,None or Unspecified,,,,Steel,None or Unspecified,"9' 7""",None or Unspecified,Yes,Triple,,,,,
13425,2317631,105000,930035,136,1.0,2008,0.0,,11/17/2009 0:00,320DL,320,D,,L,Large / Medium,"Hydraulic Excavator, Track - 21.0 to 24.0 Metric Tons",Texas,TEX,Track Excavators,,EROPS w AC,,,,,,,,,,,Standard,,,,,,None or Unspecified,,,,Steel,None or Unspecified,"9' 6""",None or Unspecified,Yes,Triple,,,,,
13425,2317638,107500,981673,136,1.0,2008,1621.0,Medium,4/22/2010 0:00,320DL,320,D,,L,Large / Medium,"Hydraulic Excavator, Track - 21.0 to 24.0 Metric Tons",Utah,TEX,Track Excavators,,EROPS w AC,,,,,,,,,,,Standard,,,,,,Hydraulic,,,,Steel,None or Unspecified,"9' 6""",None or Unspecified,Yes,Triple,,,,,
13425,4304242,92500,877720,172,1.0,2007,2788.0,Medium,3/4/2010 0:00,320DL,320,D,,L,Large / Medium,"Hydraulic Excavator, Track - 21.0 to 24.0 Metric Tons",Washington,TEX,Track Excavators,,EROPS w AC,,,,,,,,,,,Standard,,,,,,Hydraulic,,,,Steel,None or Unspecified,"9' 6""",Hydraulic,Yes,Triple,,,,,
