ModelID,SalesID,SalePrice,MachineID,datasource,auctioneerID,YearMade,MachineHoursCurrentMeter,UsageBand,saledate,fiModelDesc,fiBaseModel,fiSecondaryDesc,fiModelSeries,fiModelDescriptor,ProductSize,fiProductClassDesc,state,ProductGroup,ProductGroupDesc,Drive_System,Enclosure,Forks,Pad_Type,Ride_Control,Stick,Transmission,Turbocharged,Blade_Extension,Blade_Width,Enclosure_Type,Engine_Horsepower,Hydraulics,Pushblock,Ripper,Scarifier,Tip_Control,Tire_Size,Coupler,Coupler_System,Grouser_Tracks,Hydraulics_Flow,Track_Type,Undercarriage_Pad_Width,Stick_Length,Thumb,Pattern_Changer,Grouser_Type,Backhoe_Mounting,Blade_Type,Travel_Controls,Differential_Type,Steering_Controls
135,2408324,117500,1150960,136,1.0,1000,0.0,,4/2/2008 0:00,D155A-3,D155,A,-3,,Large,"Track Type Tractor, Dozer - 260.0 + Horsepower",Maryland,TTT,Track Type Tractors,,EROPS,,,,,Standard,,,,,,2 Valve,,Multi Shank,,,,,,,,,,,,,,None or Unspecified,Semi U,None or Unspecified,,
135,2408343,70875,1293615,136,13.0,1995,0.0,,9/15/2007 0:00,D155A-3,D155,A,-3,,Large,"Track Type Tractor, Dozer - 260.0 + Horsepower",Tennessee,TTT,Track Type Tractors,,OROPS,,,,,Hydrostatic,,,,,,2 Valve,,Multi Shank,,,,,,,,,,,,,,None or Unspecified,Angle,None or Unspecified,,
