SalesID,2227033
SalePrice,80000
MachineID,1675359
datasource,136
auctioneerID,
YearMade,2000
MachineHoursCurrentMeter,0.0
UsageBand,
saledate,9/23/2008 0:00
fiModelDesc,988FII
fiBaseModel,988
fiSecondaryDesc,F
fiModelSeries,II
fiModelDescriptor,
ProductSize,Large
fiProductClassDesc,Wheel Loader - 350.0 to 500.0 Horsepower
state,Colorado
ProductGroup,WL
ProductGroupDesc,Wheel Loader
Drive_System,
Enclosure,OROPS
Forks,None or Unspecified
Pad_Type,
Ride_Control,None or Unspecified
Stick,
Transmission,
Turbocharged,
Blade_Extension,
Blade_Width,
Enclosure_Type,
Engine_Horsepower,
Hydraulics,2 Valve
Pushblock,
Ripper,
Scarifier,
Tip_Control,
Tire_Size,None or Unspecified
Coupler,None or Unspecified
Coupler_System,
Grouser_Tracks,
Hydraulics_Flow,
Track_Type,
Undercarriage_Pad_Width,
Stick_Length,
Thumb,
Pattern_Changer,
Grouser_Type,
Backhoe_Mounting,
Blade_Type,
Travel_Controls,
Differential_Type,Standard
Steering_Controls,Conventional
