SalesID,2326146
SalePrice,22500
MachineID,1658976
datasource,136
auctioneerID,
YearMade,1000
MachineHoursCurrentMeter,0.0
UsageBand,
saledate,5/17/2007 0:00
fiModelDesc,740III
fiBaseModel,740
fiSecondaryDesc,
fiModelSeries,III
fiModelDescriptor,
ProductSize,
fiProductClassDesc,Motorgrader - 200.0 + Horsepower
state,Montana
ProductGroup,MG
ProductGroupDesc,Motor Graders
Drive_System,No
Enclosure,EROPS
Forks,
Pad_Type,
Ride_Control,
Stick,
Transmission,None or Unspecified
Turbocharged,
Blade_Extension,None or Unspecified
Blade_Width,14'
Enclosure_Type,None or Unspecified
Engine_Horsepower,No
Hydraulics,Base + 1 Function
Pushblock,None or Unspecified
Ripper,None or Unspecified
Scarifier,None or Unspecified
Tip_Control,None or Unspecified
Tire_Size,"14"""
Coupler,
Coupler_System,
Grouser_Tracks,
Hydraulics_Flow,
Track_Type,
Undercarriage_Pad_Width,
Stick_Length,
Thumb,
Pattern_Changer,
Grouser_Type,
Backhoe_Mounting,
Blade_Type,
Travel_Controls,
Differential_Type,
Steering_Controls,
