ModelID,SalesID,SalePrice,MachineID,datasource,auctioneerID,YearMade,MachineHoursCurrentMeter,UsageBand,saledate,fiModelDesc,fiBaseModel,fiSecondaryDesc,fiModelSeries,fiModelDescriptor,ProductSize,fiProductClassDesc,state,ProductGroup,ProductGroupDesc,Drive_System,Enclosure,Forks,Pad_Type,Ride_Control,Stick,Transmission,Turbocharged,Blade_Extension,Blade_Width,Enclosure_Type,Engine_Horsepower,Hydraulics,Pushblock,Ripper,Scarifier,Tip_Control,Tire_Size,Coupler,Coupler_System,Grouser_Tracks,Hydraulics_Flow,Track_Type,Undercarriage_Pad_Width,Stick_Length,Thumb,Pattern_Changer,Grouser_Type,Backhoe_Mounting,Blade_Type,Travel_Controls,Differential_Type,Steering_Controls
14137,1209619,11000,1016253,121,3.0,1000,4512.0,Low,12/9/2010 0:00,DH320,DH320,,,,Large / Medium,"Hydraulic Excavator, Track - 28.0 to 33.0 Metric Tons",Kansas,TEX,Track Excavators,,EROPS w AC,,,,,,,,,,,Standard,,,,,,None or Unspecified,,,,Steel,34 inch,"10' 6""",None or Unspecified,None or Unspecified,Double,,,,,
14137,1209620,11000,1049593,121,3.0,1000,3324.0,Low,12/9/2010 0:00,DH320,DH320,,,,Large / Medium,"Hydraulic Excavator, Track - 28.0 to 33.0 Metric Tons",Kansas,TEX,Track Excavators,,EROPS w AC,,,,,,,,,,,Standard,,,,,,None or Unspecified,,,,Steel,None or Unspecified,"10' 2""",None or Unspecified,None or Unspecified,Double,,,,,
14137,1577295,70000,1261167,132,2.0,1994,,,2/5/1997 0:00,DH320,DH320,,,,Large / Medium,"Hydraulic Excavator, Track - 28.0 to 33.0 Metric Tons",Florida,TEX,Track Excavators,,EROPS,,,,,,,,,,,Standard,,,,,,None or Unspecified,,,,Steel,None or Unspecified,None or Unspecified,None or Unspecified,None or Unspecified,Double,,,,,
14137,1577325,26000,1342728,132,1.0,1991,,,9/19/1995 0:00,DH320,DH320,,,,Large / Medium,"Hydraulic Excavator, Track - 28.0 to 33.0 Metric Tons",Delaware,TEX,Track Excavators,,EROPS w AC,,,,,,,,,,,Standard,,,,,,None or Unspecified,,,,Steel,None or Unspecified,"10' 6""",None or Unspecified,None or Unspecified,Double,,,,,
14137,1577327,8500,1342728,132,1.0,1991,,,6/18/2001 0:00,DH320,DH320,,,,Large / Medium,"Hydraulic Excavator, Track - 28.0 to 33.0 Metric Tons",Maryland,TEX,Track Excavators,,EROPS w AC,,,,,,,,,,,Standard,,,,,,None or Unspecified,,,,Steel,None or Unspecified,"10' 6""",None or Unspecified,None or Unspecified,Double,,,,,
14137,1577355,33000,1263692,132,1.0,1991,,,9/21/1995 0:00,DH320,DH320,,,,Large / Medium,"Hydraulic Excavator, Track - 28.0 to 33.0 Metric Tons",Illinois,TEX,Track Excavators,,EROPS,,,,,,,,,,,Standard,,,,,,None or Unspecified,,,,Steel,None or Unspecified,None or Unspecified,None or Unspecified,None or Unspecified,Double,,,,,
14137,1577428,36500,1185325,132,14.0,1000,,,5/22/1996 0:00,DH320,DH320,,,,Large / Medium,"Hydraulic Excavator, Track - 28.0 to 33.0 Metric Tons",Ohio,TEX,Track Excavators,,OROPS,,,,,,,,,,,2 Valve,,,,,,Manual,,,,,,,,,,,,,,
14137,1577431,35000,1185325,132,1.0,1991,,,9/21/1995 0:00,DH320,DH320,,,,Large / Medium,"Hydraulic Excavator, Track - 28.0 to 33.0 Metric Tons",Illinois,TEX,Track Excavators,,OROPS,,,,,,,,,,,2 Valve,,,,,,Manual,,,,,,,,,,,,,,
14137,1577555,19000,816209,132,2.0,1000,,,4/20/2002 0:00,DH320,DH320,,,,Large / Medium,"Hydraulic Excavator, Track - 28.0 to 33.0 Metric Tons",Maine,TEX,Track Excavators,,EROPS,,,,,,,,,,,Standard,,,,,,None or Unspecified,,,,Steel,None or Unspecified,None or Unspecified,None or Unspecified,None or Unspecified,Double,,,,,
14137,1577609,22000,1369228,132,1.0,1994,,,3/23/2000 0:00,DH320,DH320,,,,Large / Medium,"Hydraulic Excavator, Track - 28.0 to 33.0 Metric Tons",North Carolina,TEX,Track Excavators,,EROPS,,,,,,,,,,,Standard,,,,,,None or Unspecified,,,,Steel,32 inch,"10' 6""",None or Unspecified,None or Unspecified,Triple,,,,,
14137,1577611,32000,1469948,132,99.0,1994,,,7/20/2000 0:00,DH320,DH320,,,,Large / Medium,"Hydraulic Excavator, Track - 28.0 to 33.0 Metric Tons",South Carolina,TEX,Track Excavators,,EROPS,,,,,,,,,,,Auxiliary,,,,,,Manual,,,,Steel,32 inch,None or Unspecified,None or Unspecified,None or Unspecified,Double,,,,,
14137,1577613,33500,1347670,132,2.0,1994,,,5/8/1999 0:00,DH320,DH320,,,,Large / Medium,"Hydraulic Excavator, Track - 28.0 to 33.0 Metric Tons",Maine,TEX,Track Excavators,,EROPS,,,,,,,,,,,Standard,,,,,,None or Unspecified,,,,Steel,None or Unspecified,None or Unspecified,None or Unspecified,None or Unspecified,Double,,,,,
14137,1577614,33000,1240270,132,1.0,1994,,,9/28/1999 0:00,DH320,DH320,,,,Large / Medium,"Hydraulic Excavator, Track - 28.0 to 33.0 Metric Tons",Ohio,TEX,Track Excavators,,EROPS,,,,,,,,,,,Standard,,,,,,None or Unspecified,,,,Steel,None or Unspecified,"10' 6""",None or Unspecified,None or Unspecified,Double,,,,,
14137,1577621,40000,1373464,132,1.0,1994,,,9/28/1999 0:00,DH320,DH320,,,,Large / Medium,"Hydraulic Excavator, Track - 28.0 to 33.0 Metric Tons",Ohio,TEX,Track Excavators,,EROPS,,,,,,,,,,,Standard,,,,,,None or Unspecified,,,,Steel,None or Unspecified,"10' 6""",None or Unspecified,None or Unspecified,Double,,,,,
14137,1577629,35000,1266727,132,1.0,1000,,,9/28/1999 0:00,DH320,DH320,,,,Large / Medium,"Hydraulic Excavator, Track - 28.0 to 33.0 Metric Tons",Ohio,TEX,Track Excavators,,EROPS,,,,,,,,,,,Standard,,,,,,None or Unspecified,,,,Steel,None or Unspecified,"10' 6""",None or Unspecified,None or Unspecified,Double,,,,,
14137,1577630,40000,1136376,132,1.0,1994,,,9/28/1999 0:00,DH320,DH320,,,,Large / Medium,"Hydraulic Excavator, Track - 28.0 to 33.0 Metric Tons",Ohio,TEX,Track Excavators,,EROPS,,,,,,,,,,,Standard,,,,,,None or Unspecified,,,,Steel,None or Unspecified,None or Unspecified,None or Unspecified,None or Unspecified,Double,,,,,
14137,1577642,12000,1476206,132,1.0,1994,,,4/8/2004 0:00,DH320,DH320,,,,Large / Medium,"Hydraulic Excavator, Track - 28.0 to 33.0 Metric Tons",Georgia,TEX,Track Excavators,,EROPS,,,,,,,,,,,Standard,,,,,,None or Unspecified,,,,Steel,None or Unspecified,"10' 6""",None or Unspecified,None or Unspecified,Double,,,,,
14137,1577646,29000,1193122,132,5.0,1998,,,11/17/2001 0:00,DH320,DH320,,,,Large / Medium,"Hydraulic Excavator, Track - 28.0 to 33.0 Metric Tons",Connecticut,TEX,Track Excavators,,EROPS,,,,,,,,,,,Standard,,,,,,None or Unspecified,,,,Steel,32 inch,None or Unspecified,None or Unspecified,None or Unspecified,Double,,,,,
14137,1577650,39000,1225096,132,1.0,1994,,,9/28/1999 0:00,DH320,DH320,,,,Large / Medium,"Hydraulic Excavator, Track - 28.0 to 33.0 Metric Tons",Ohio,TEX,Track Excavators,,EROPS,,,,,,,,,,,Standard,,,,,,None or Unspecified,,,,Steel,None or Unspecified,None or Unspecified,None or Unspecified,None or Unspecified,Double,,,,,
14137,1577651,35000,1016253,132,1.0,1994,,,9/28/1999 0:00,DH320,DH320,,,,Large / Medium,"Hydraulic Excavator, Track - 28.0 to 33.0 Metric Tons",Ohio,TEX,Track Excavators,,EROPS w AC,,,,,,,,,,,Standard,,,,,,None or Unspecified,,,,Steel,34 inch,"10' 6""",None or Unspecified,None or Unspecified,Double,,,,,
14137,1577652,72000,1246946,132,1.0,1995,,,8/19/1997 0:00,DH320,DH320,,,,Large / Medium,"Hydraulic Excavator, Track - 28.0 to 33.0 Metric Tons",Arkansas,TEX,Track Excavators,,EROPS w AC,,,,,,,,,,,Standard,,,,,,None or Unspecified,,,,Steel,None or Unspecified,"10' 6""",None or Unspecified,None or Unspecified,Triple,,,,,
14137,1577653,20500,1380621,132,4.0,1995,,,5/16/2002 0:00,DH320,DH320,,,,Large / Medium,"Hydraulic Excavator, Track - 28.0 to 33.0 Metric Tons",New Hampshire,TEX,Track Excavators,,EROPS w AC,,,,,,,,,,,Standard,,,,,,None or Unspecified,,,,Steel,None or Unspecified,None or Unspecified,None or Unspecified,None or Unspecified,Triple,,,,,
14137,1577655,17000,1513400,132,1.0,1995,,,11/13/2008 0:00,DH320,DH320,,,,Large / Medium,"Hydraulic Excavator, Track - 28.0 to 33.0 Metric Tons",Texas,TEX,Track Excavators,,EROPS,,,,,,,,,,,Standard,,,,,,None or Unspecified,,,,Steel,None or Unspecified,"11' 0""",Manual,None or Unspecified,Double,,,,,
14137,1577669,51000,1181813,132,2.0,1000,,,4/9/1999 0:00,DH320,DH320,,,,Large / Medium,"Hydraulic Excavator, Track - 28.0 to 33.0 Metric Tons",Georgia,TEX,Track Excavators,,EROPS,,,,,,,,,,,Standard,,,,,,None or Unspecified,,,,Steel,None or Unspecified,None or Unspecified,None or Unspecified,None or Unspecified,Double,,,,,
14137,1577672,40000,1089500,132,1.0,1995,,,9/28/1999 0:00,DH320,DH320,,,,Large / Medium,"Hydraulic Excavator, Track - 28.0 to 33.0 Metric Tons",Ohio,TEX,Track Excavators,,EROPS,,,,,,,,,,,Standard,,,,,,None or Unspecified,,,,Steel,None or Unspecified,"10' 6""",None or Unspecified,None or Unspecified,Double,,,,,
14137,1577677,14000,1117324,132,1.0,1000,,,11/2/2006 0:00,DH320,DH320,,,,Large / Medium,"Hydraulic Excavator, Track - 28.0 to 33.0 Metric Tons",New Mexico,TEX,Track Excavators,,EROPS,,,,,,,,,,,Standard,,,,,,None or Unspecified,,,,Steel,None or Unspecified,None or Unspecified,Manual,None or Unspecified,Double,,,,,
14137,1577678,37000,1117324,132,1.0,1995,,,9/21/2000 0:00,DH320,DH320,,,,Large / Medium,"Hydraulic Excavator, Track - 28.0 to 33.0 Metric Tons",Texas,TEX,Track Excavators,,EROPS,,,,,,,,,,,Standard,,,,,,None or Unspecified,,,,Steel,None or Unspecified,None or Unspecified,Manual,None or Unspecified,Double,,,,,
14137,1577679,32000,1441620,132,1.0,1995,,,9/28/1999 0:00,DH320,DH320,,,,Large / Medium,"Hydraulic Excavator, Track - 28.0 to 33.0 Metric Tons",Ohio,TEX,Track Excavators,,EROPS,,,,,,,,,,,Standard,,,,,,None or Unspecified,,,,Steel,None or Unspecified,None or Unspecified,None or Unspecified,None or Unspecified,Double,,,,,
14137,1577680,42000,1049593,132,1.0,1995,,,9/28/1999 0:00,DH320,DH320,,,,Large / Medium,"Hydraulic Excavator, Track - 28.0 to 33.0 Metric Tons",Ohio,TEX,Track Excavators,,EROPS w AC,,,,,,,,,,,Standard,,,,,,None or Unspecified,,,,Steel,None or Unspecified,"10' 2""",None or Unspecified,None or Unspecified,Double,,,,,
14137,1577681,37000,1281251,132,1.0,1995,,,9/21/2000 0:00,DH320,DH320,,,,Large / Medium,"Hydraulic Excavator, Track - 28.0 to 33.0 Metric Tons",Texas,TEX,Track Excavators,,EROPS w AC,,,,,,,,,,,Auxiliary,,,,,,None or Unspecified,,,,Steel,None or Unspecified,"10' 6""",None or Unspecified,None or Unspecified,Double,,,,,
14137,1577813,21000,1124845,132,1.0,1994,,,12/5/2000 0:00,DH320,DH320,,,,Large / Medium,"Hydraulic Excavator, Track - 28.0 to 33.0 Metric Tons",Illinois,TEX,Track Excavators,,EROPS,,,,,,,,,,,Standard,,,,,,None or Unspecified,,,,Steel,None or Unspecified,None or Unspecified,None or Unspecified,None or Unspecified,Double,,,,,
14137,1577991,47500,1413925,132,2.0,1996,,,6/27/1998 0:00,DH320,DH320,,,,Large / Medium,"Hydraulic Excavator, Track - 28.0 to 33.0 Metric Tons",New York,TEX,Track Excavators,,EROPS,,,,,,,,,,,Standard,,,,,,None or Unspecified,,,,Steel,None or Unspecified,None or Unspecified,None or Unspecified,None or Unspecified,Double,,,,,
14137,1578014,79000,1545328,132,99.0,1994,,,8/28/1997 0:00,DH320,DH320,,,,Large / Medium,"Hydraulic Excavator, Track - 28.0 to 33.0 Metric Tons",Ohio,TEX,Track Excavators,,EROPS,,,,,,,,,,,Standard,,,,,,None or Unspecified,,,,Steel,32 inch,None or Unspecified,None or Unspecified,None or Unspecified,Triple,,,,,
14137,1578016,28500,1180440,132,2.0,1000,,,9/25/1999 0:00,DH320,DH320,,,,Large / Medium,"Hydraulic Excavator, Track - 28.0 to 33.0 Metric Tons",Connecticut,TEX,Track Excavators,,EROPS,,,,,,,,,,,Auxiliary,,,,,,None or Unspecified,,,,Steel,None or Unspecified,None or Unspecified,None or Unspecified,None or Unspecified,Double,,,,,
14137,1578027,14000,1161172,132,1.0,1994,,,3/29/2000 0:00,DH320,DH320,,,,Large / Medium,"Hydraulic Excavator, Track - 28.0 to 33.0 Metric Tons",Maryland,TEX,Track Excavators,,EROPS,,,,,,,,,,,Standard,,,,,,None or Unspecified,,,,Steel,None or Unspecified,None or Unspecified,None or Unspecified,None or Unspecified,Double,,,,,
14137,1578071,21000,1372345,132,1.0,1995,,,11/28/2001 0:00,DH320,DH320,,,,Large / Medium,"Hydraulic Excavator, Track - 28.0 to 33.0 Metric Tons",Texas,TEX,Track Excavators,,EROPS w AC,,,,,,,,,,,Standard,,,,,,None or Unspecified,,,,Steel,None or Unspecified,"10' 6""",None or Unspecified,None or Unspecified,Double,,,,,
14137,1578086,9000,1252410,132,1.0,1995,,,3/25/2009 0:00,DH320,DH320,,,,Large / Medium,"Hydraulic Excavator, Track - 28.0 to 33.0 Metric Tons",Texas,TEX,Track Excavators,,EROPS,,,,,,,,,,,Standard,,,,,,None or Unspecified,,,,Steel,None or Unspecified,"11' 0""",None or Unspecified,None or Unspecified,Double,,,,,
14137,1578092,40000,1357022,132,2.0,1996,,,2/7/2000 0:00,DH320,DH320,,,,Large / Medium,"Hydraulic Excavator, Track - 28.0 to 33.0 Metric Tons",Florida,TEX,Track Excavators,,EROPS,,,,,,,,,,,Standard,,,,,,None or Unspecified,,,,Steel,None or Unspecified,None or Unspecified,None or Unspecified,None or Unspecified,Double,,,,,
14137,1578101,23000,1522576,132,4.0,1995,,,10/5/2001 0:00,DH320,DH320,,,,Large / Medium,"Hydraulic Excavator, Track - 28.0 to 33.0 Metric Tons",Ohio,TEX,Track Excavators,,EROPS,,,,,,,,,,,Standard,,,,,,Manual,,,,Steel,32 inch,None or Unspecified,None or Unspecified,None or Unspecified,Triple,,,,,
14137,1578113,23000,1522895,132,1.0,1996,,,7/29/2004 0:00,DH320,DH320,,,,Large / Medium,"Hydraulic Excavator, Track - 28.0 to 33.0 Metric Tons",Ohio,TEX,Track Excavators,,EROPS,,,,,,,,,,,Standard,,,,,,None or Unspecified,,,,Steel,None or Unspecified,None or Unspecified,None or Unspecified,None or Unspecified,Double,,,,,
14137,1578131,24000,1363758,132,1.0,1996,,,11/28/2001 0:00,DH320,DH320,,,,Large / Medium,"Hydraulic Excavator, Track - 28.0 to 33.0 Metric Tons",Texas,TEX,Track Excavators,,EROPS w AC,,,,,,,,,,,Auxiliary,,,,,,None or Unspecified,,,,Steel,None or Unspecified,"10' 6""",None or Unspecified,None or Unspecified,Double,,,,,
14137,1578497,43000,1212385,132,1.0,1995,,,9/28/1999 0:00,DH320,DH320,,,,Large / Medium,"Hydraulic Excavator, Track - 28.0 to 33.0 Metric Tons",Ohio,TEX,Track Excavators,,EROPS,,,,,,,,,,,Standard,,,,,,None or Unspecified,,,,Steel,None or Unspecified,"10' 6""",None or Unspecified,None or Unspecified,Double,,,,,
14137,1578507,34000,1270105,132,99.0,1993,,,3/10/2000 0:00,DH320,DH320,,,,Large / Medium,"Hydraulic Excavator, Track - 28.0 to 33.0 Metric Tons",Missouri,TEX,Track Excavators,,EROPS,,,,,,,,,,,Standard,,,,,,None or Unspecified,,,,Steel,32 inch,None or Unspecified,None or Unspecified,None or Unspecified,Triple,,,,,
14137,2326934,9000,1513400,136,1.0,1995,0.0,,3/25/2009 0:00,DH320,DH320,,,,Large / Medium,"Hydraulic Excavator, Track - 28.0 to 33.0 Metric Tons",Texas,TEX,Track Excavators,,EROPS,,,,,,,,,,,Standard,,,,,,None or Unspecified,,,,Steel,None or Unspecified,"11' 0""",Manual,None or Unspecified,Double,,,,,
