ModelID,SalesID,SalePrice,MachineID,datasource,auctioneerID,YearMade,MachineHoursCurrentMeter,UsageBand,saledate,fiModelDesc,fiBaseModel,fiSecondaryDesc,fiModelSeries,fiModelDescriptor,ProductSize,fiProductClassDesc,state,ProductGroup,ProductGroupDesc,Drive_System,Enclosure,Forks,Pad_Type,Ride_Control,Stick,Transmission,Turbocharged,Blade_Extension,Blade_Width,Enclosure_Type,Engine_Horsepower,Hydraulics,Pushblock,Ripper,Scarifier,Tip_Control,Tire_Size,Coupler,Coupler_System,Grouser_Tracks,Hydraulics_Flow,Track_Type,Undercarriage_Pad_Width,Stick_Length,Thumb,Pattern_Changer,Grouser_Type,Backhoe_Mounting,Blade_Type,Travel_Controls,Differential_Type,Steering_Controls
14248,1144397,19000,1023749,121,3.0,2003,1158.0,Low,1/31/2008 0:00,110TLB,110,,,TLB,,Backhoe Loader - 15.0 to 16.0 Ft Standard Digging Depth,Florida,BL,Backhoe Loaders,Two Wheel Drive,OROPS,None or Unspecified,None or Unspecified,No,Standard,Hydrostatic,None or Unspecified,,,,,,,,,,,,,,,,,,,,,,,,,
14248,1161815,16000,1040854,121,3.0,2004,2080.0,Low,7/29/2011 0:00,110TLB,110,,,TLB,,Backhoe Loader - 15.0 to 16.0 Ft Standard Digging Depth,Tennessee,BL,Backhoe Loaders,Four Wheel Drive,OROPS,None or Unspecified,None or Unspecified,No,Standard,Hydrostatic,None or Unspecified,,,,,,,,,,,,,,,,,,,,,,,,,
14248,1168639,20000,1007000,121,3.0,2004,1169.0,Low,8/7/2008 0:00,110TLB,110,,,TLB,,Backhoe Loader - 15.0 to 16.0 Ft Standard Digging Depth,Tennessee,BL,Backhoe Loaders,Four Wheel Drive,OROPS,None or Unspecified,None or Unspecified,No,Standard,Hydrostatic,None or Unspecified,,,,,,,,,,,,,,,,,,,,,,,,,
14248,1173160,15500,1004727,121,3.0,2003,0.0,,9/1/2011 0:00,110TLB,110,,,TLB,,Backhoe Loader - 15.0 to 16.0 Ft Standard Digging Depth,Alabama,BL,Backhoe Loaders,Four Wheel Drive,OROPS,None or Unspecified,None or Unspecified,No,Standard,Standard,None or Unspecified,,,,,,,,,,,,,,,,,,,,,,,,,
14248,1196761,16000,1011125,121,3.0,2005,2144.0,Medium,12/10/2009 0:00,110TLB,110,,,TLB,,Backhoe Loader - 15.0 to 16.0 Ft Standard Digging Depth,Florida,BL,Backhoe Loaders,Four Wheel Drive,OROPS,None or Unspecified,None or Unspecified,No,Standard,Hydrostatic,None or Unspecified,,,,,,,,,,,,,,,,,,,,,,,,,
14248,1219168,13000,1063027,121,3.0,1000,803.0,Low,10/13/2011 0:00,110TLB,110,,,TLB,,Backhoe Loader - 15.0 to 16.0 Ft Standard Digging Depth,Texas,BL,Backhoe Loaders,Two Wheel Drive,OROPS,None or Unspecified,None or Unspecified,No,Standard,Hydrostatic,None or Unspecified,,,,,,,,,,,,,,,,,,,,,,,,,
14248,1220704,17000,1046431,121,3.0,2005,1374.0,Low,11/18/2011 0:00,110TLB,110,,,TLB,,Backhoe Loader - 15.0 to 16.0 Ft Standard Digging Depth,Virginia,BL,Backhoe Loaders,Four Wheel Drive,OROPS,None or Unspecified,None or Unspecified,No,Standard,Standard,None or Unspecified,,,,,,,,,,,,,,,,,,,,,,,,,
14248,2346279,20000,1733673,136,,2005,0.0,,9/23/2009 0:00,110TLB,110,,,TLB,,Backhoe Loader - 15.0 to 16.0 Ft Standard Digging Depth,Texas,BL,Backhoe Loaders,Two Wheel Drive,OROPS,None or Unspecified,None or Unspecified,No,Standard,Standard,None or Unspecified,,,,,,,,,,,,,,,,,,,,,,,,,
14248,4317257,14500,2282239,172,1.0,2000,3098.0,Low,2/24/2011 0:00,110TLB,110,,,TLB,,Backhoe Loader - 15.0 to 16.0 Ft Standard Digging Depth,Arizona,BL,Backhoe Loaders,Two Wheel Drive,OROPS,None or Unspecified,None or Unspecified,No,Standard,Hydrostatic,None or Unspecified,,,,,,,,,,,,,,,,,,,,,,,,,
14248,4317258,14000,2299294,172,1.0,2000,,,2/24/2011 0:00,110TLB,110,,,TLB,,Backhoe Loader - 15.0 to 16.0 Ft Standard Digging Depth,Arizona,BL,Backhoe Loaders,Two Wheel Drive,OROPS,None or Unspecified,None or Unspecified,No,Standard,Hydrostatic,None or Unspecified,,,,,,,,,,,,,,,,,,,,,,,,,
14248,4317259,11500,2299294,172,1.0,2005,,,12/4/2011 0:00,110TLB,110,,,TLB,,Backhoe Loader - 15.0 to 16.0 Ft Standard Digging Depth,Arizona,BL,Backhoe Loaders,Two Wheel Drive,OROPS,None or Unspecified,None or Unspecified,No,Standard,Hydrostatic,None or Unspecified,,,,,,,,,,,,,,,,,,,,,,,,,
14248,4317261,16000,2281712,172,1.0,2005,,,2/15/2010 0:00,110TLB,110,,,TLB,,Backhoe Loader - 15.0 to 16.0 Ft Standard Digging Depth,Florida,BL,Backhoe Loaders,Two Wheel Drive,OROPS,None or Unspecified,None or Unspecified,No,Standard,Standard,None or Unspecified,,,,,,,,,,,,,,,,,,,,,,,,,
14248,4317270,16000,2290149,172,1.0,1000,786.0,Low,9/28/2010 0:00,110TLB,110,,,TLB,,Backhoe Loader - 15.0 to 16.0 Ft Standard Digging Depth,North Carolina,BL,Backhoe Loaders,Two Wheel Drive,OROPS,None or Unspecified,None or Unspecified,No,Standard,Hydrostatic,None or Unspecified,,,,,,,,,,,,,,,,,,,,,,,,,
14248,4317274,20000,2287430,172,1.0,2004,,,4/1/2009 0:00,110TLB,110,,,TLB,,Backhoe Loader - 15.0 to 16.0 Ft Standard Digging Depth,Maryland,BL,Backhoe Loaders,Two Wheel Drive,OROPS,None or Unspecified,None or Unspecified,No,Standard,Standard,None or Unspecified,,,,,,,,,,,,,,,,,,,,,,,,,
14248,4317277,15000,2267812,172,1.0,2002,,,12/12/2011 0:00,110TLB,110,,,TLB,,Backhoe Loader - 15.0 to 16.0 Ft Standard Digging Depth,Colorado,BL,Backhoe Loaders,Two Wheel Drive,OROPS,None or Unspecified,None or Unspecified,No,Standard,Hydrostatic,None or Unspecified,,,,,,,,,,,,,,,,,,,,,,,,,
14248,4317281,15000,2267812,172,1.0,2002,502.0,Low,9/26/2011 0:00,110TLB,110,,,TLB,,Backhoe Loader - 15.0 to 16.0 Ft Standard Digging Depth,Arizona,BL,Backhoe Loaders,Two Wheel Drive,OROPS,None or Unspecified,None or Unspecified,No,Standard,Hydrostatic,None or Unspecified,,,,,,,,,,,,,,,,,,,,,,,,,
14248,4317284,13000,2279727,172,1.0,2002,,,6/29/2011 0:00,110TLB,110,,,TLB,,Backhoe Loader - 15.0 to 16.0 Ft Standard Digging Depth,Missouri,BL,Backhoe Loaders,Two Wheel Drive,OROPS,None or Unspecified,None or Unspecified,No,Standard,Standard,None or Unspecified,,,,,,,,,,,,,,,,,,,,,,,,,
14248,4317285,13000,2279727,172,1.0,2002,,,6/30/2011 0:00,110TLB,110,,,TLB,,Backhoe Loader - 15.0 to 16.0 Ft Standard Digging Depth,Missouri,BL,Backhoe Loaders,Two Wheel Drive,OROPS,None or Unspecified,None or Unspecified,No,Standard,Standard,None or Unspecified,,,,,,,,,,,,,,,,,,,,,,,,,
14248,4317288,12000,2310035,172,1.0,2001,543.0,Low,8/20/2009 0:00,110TLB,110,,,TLB,,Backhoe Loader - 15.0 to 16.0 Ft Standard Digging Depth,Colorado,BL,Backhoe Loaders,Two Wheel Drive,OROPS,None or Unspecified,None or Unspecified,No,Standard,Standard,None or Unspecified,,,,,,,,,,,,,,,,,,,,,,,,,
14248,4317297,14000,2296780,172,1.0,2003,1239.0,Low,8/1/2011 0:00,110TLB,110,,,TLB,,Backhoe Loader - 15.0 to 16.0 Ft Standard Digging Depth,Illinois,BL,Backhoe Loaders,Two Wheel Drive,OROPS,None or Unspecified,None or Unspecified,No,Standard,Standard,None or Unspecified,,,,,,,,,,,,,,,,,,,,,,,,,
14248,4317299,14000,2296780,172,1.0,2003,1239.0,Low,8/2/2011 0:00,110TLB,110,,,TLB,,Backhoe Loader - 15.0 to 16.0 Ft Standard Digging Depth,Illinois,BL,Backhoe Loaders,Two Wheel Drive,OROPS,None or Unspecified,None or Unspecified,No,Standard,Standard,None or Unspecified,,,,,,,,,,,,,,,,,,,,,,,,,
14248,4317302,12500,2296780,172,1.0,2003,3997.0,Medium,12/7/2011 0:00,110TLB,110,,,TLB,,Backhoe Loader - 15.0 to 16.0 Ft Standard Digging Depth,Texas,BL,Backhoe Loaders,Two Wheel Drive,OROPS,None or Unspecified,None or Unspecified,No,Standard,Standard,None or Unspecified,,,,,,,,,,,,,,,,,,,,,,,,,
14248,4317304,17500,1689939,172,1.0,2004,596.0,Low,2/25/2010 0:00,110TLB,110,,,TLB,,Backhoe Loader - 15.0 to 16.0 Ft Standard Digging Depth,Texas,BL,Backhoe Loaders,Two Wheel Drive,OROPS,None or Unspecified,None or Unspecified,No,Standard,Standard,None or Unspecified,,,,,,,,,,,,,,,,,,,,,,,,,
14248,4317305,22500,2302294,172,1.0,2004,,,2/2/2010 0:00,110TLB,110,,,TLB,,Backhoe Loader - 15.0 to 16.0 Ft Standard Digging Depth,Arizona,BL,Backhoe Loaders,Two Wheel Drive,OROPS,None or Unspecified,None or Unspecified,No,Standard,Standard,None or Unspecified,,,,,,,,,,,,,,,,,,,,,,,,,
14248,4317306,17500,2266869,172,1.0,2004,1181.0,Low,2/12/2010 0:00,110TLB,110,,,TLB,,Backhoe Loader - 15.0 to 16.0 Ft Standard Digging Depth,California,BL,Backhoe Loaders,Two Wheel Drive,OROPS,None or Unspecified,None or Unspecified,No,Standard,Standard,None or Unspecified,,,,,,,,,,,,,,,,,,,,,,,,,
14248,4317307,20000,2276702,172,1.0,2006,1231.0,Medium,12/10/2009 0:00,110TLB,110,,,TLB,,Backhoe Loader - 15.0 to 16.0 Ft Standard Digging Depth,Illinois,BL,Backhoe Loaders,Two Wheel Drive,OROPS,None or Unspecified,None or Unspecified,No,Standard,Standard,None or Unspecified,,,,,,,,,,,,,,,,,,,,,,,,,
14248,4317310,14000,1942700,172,1.0,2005,1689.0,Low,9/22/2010 0:00,110TLB,110,,,TLB,,Backhoe Loader - 15.0 to 16.0 Ft Standard Digging Depth,Georgia,BL,Backhoe Loaders,,EROPS,,,,,,,,,,,,,,,,,,,,,,,,,,,,,,,
14248,4317312,17000,2270131,172,1.0,2004,893.0,Low,2/2/2010 0:00,110TLB,110,,,TLB,,Backhoe Loader - 15.0 to 16.0 Ft Standard Digging Depth,Arizona,BL,Backhoe Loaders,Two Wheel Drive,OROPS,None or Unspecified,None or Unspecified,No,Standard,Standard,None or Unspecified,,,,,,,,,,,,,,,,,,,,,,,,,
14248,4317313,17500,2288040,172,1.0,2006,1209.0,Medium,5/5/2009 0:00,110TLB,110,,,TLB,,Backhoe Loader - 15.0 to 16.0 Ft Standard Digging Depth,Arizona,BL,Backhoe Loaders,Two Wheel Drive,OROPS,None or Unspecified,None or Unspecified,No,Standard,Hydrostatic,None or Unspecified,,,,,,,,,,,,,,,,,,,,,,,,,
14248,4317318,22500,2296882,172,1.0,2005,1344.0,Low,12/19/2011 0:00,110TLB,110,,,TLB,,Backhoe Loader - 15.0 to 16.0 Ft Standard Digging Depth,Washington,BL,Backhoe Loaders,Two Wheel Drive,OROPS,None or Unspecified,None or Unspecified,No,Standard,Hydrostatic,None or Unspecified,,,,,,,,,,,,,,,,,,,,,,,,,
14248,4317329,12500,2274003,172,1.0,2005,2661.0,Medium,4/29/2011 0:00,110TLB,110,,,TLB,,Backhoe Loader - 15.0 to 16.0 Ft Standard Digging Depth,Arizona,BL,Backhoe Loaders,Two Wheel Drive,OROPS,None or Unspecified,None or Unspecified,No,Standard,Hydrostatic,None or Unspecified,,,,,,,,,,,,,,,,,,,,,,,,,
14248,4317330,11500,2274111,172,1.0,2005,,,4/29/2011 0:00,110TLB,110,,,TLB,,Backhoe Loader - 15.0 to 16.0 Ft Standard Digging Depth,Arizona,BL,Backhoe Loaders,Two Wheel Drive,OROPS,None or Unspecified,None or Unspecified,No,Standard,Hydrostatic,None or Unspecified,,,,,,,,,,,,,,,,,,,,,,,,,
14248,4317331,11500,2293143,172,1.0,2005,3727.0,Medium,4/29/2011 0:00,110TLB,110,,,TLB,,Backhoe Loader - 15.0 to 16.0 Ft Standard Digging Depth,Arizona,BL,Backhoe Loaders,Two Wheel Drive,OROPS,None or Unspecified,None or Unspecified,No,Standard,Hydrostatic,None or Unspecified,,,,,,,,,,,,,,,,,,,,,,,,,
14248,4317332,12500,2284111,172,1.0,2005,2502.0,Medium,4/29/2011 0:00,110TLB,110,,,TLB,,Backhoe Loader - 15.0 to 16.0 Ft Standard Digging Depth,Arizona,BL,Backhoe Loaders,Two Wheel Drive,OROPS,None or Unspecified,None or Unspecified,No,Standard,Hydrostatic,None or Unspecified,,,,,,,,,,,,,,,,,,,,,,,,,
14248,4317334,11500,2302466,172,1.0,2005,4293.0,High,4/29/2011 0:00,110TLB,110,,,TLB,,Backhoe Loader - 15.0 to 16.0 Ft Standard Digging Depth,Arizona,BL,Backhoe Loaders,Two Wheel Drive,OROPS,None or Unspecified,None or Unspecified,No,Standard,Hydrostatic,None or Unspecified,,,,,,,,,,,,,,,,,,,,,,,,,
14248,4317335,19000,2291643,172,1.0,2006,756.0,Low,12/10/2009 0:00,110TLB,110,,,TLB,,Backhoe Loader - 15.0 to 16.0 Ft Standard Digging Depth,Illinois,BL,Backhoe Loaders,Two Wheel Drive,OROPS,None or Unspecified,None or Unspecified,No,Standard,Standard,None or Unspecified,,,,,,,,,,,,,,,,,,,,,,,,,
14248,4317340,17000,2291177,172,1.0,2005,1662.0,Medium,12/7/2011 0:00,110TLB,110,,,TLB,,Backhoe Loader - 15.0 to 16.0 Ft Standard Digging Depth,Texas,BL,Backhoe Loaders,Two Wheel Drive,OROPS,Yes,None or Unspecified,No,Standard,Hydrostatic,None or Unspecified,,,,,,,,,,,,,,,,,,,,,,,,,
14248,4317349,25000,1697162,172,1.0,2007,200.0,Low,7/9/2009 0:00,110TLB,110,,,TLB,,Backhoe Loader - 15.0 to 16.0 Ft Standard Digging Depth,Texas,BL,Backhoe Loaders,Two Wheel Drive,OROPS,None or Unspecified,None or Unspecified,No,Standard,Standard,None or Unspecified,,,,,,,,,,,,,,,,,,,,,,,,,
14248,4317352,9500,2312535,172,1.0,2003,4232.0,Medium,12/7/2011 0:00,110TLB,110,,,TLB,,Backhoe Loader - 15.0 to 16.0 Ft Standard Digging Depth,Texas,BL,Backhoe Loaders,Two Wheel Drive,OROPS,None or Unspecified,None or Unspecified,No,Standard,Standard,None or Unspecified,,,,,,,,,,,,,,,,,,,,,,,,,
14248,4317358,17000,2275140,172,1.0,2003,,,6/28/2011 0:00,110TLB,110,,,TLB,,Backhoe Loader - 15.0 to 16.0 Ft Standard Digging Depth,Mississippi,BL,Backhoe Loaders,Two Wheel Drive,OROPS,None or Unspecified,None or Unspecified,No,Standard,Standard,None or Unspecified,,,,,,,,,,,,,,,,,,,,,,,,,
14248,4317361,19000,2306801,172,1.0,2004,2954.0,Medium,3/8/2011 0:00,110TLB,110,,,TLB,,Backhoe Loader - 15.0 to 16.0 Ft Standard Digging Depth,Washington,BL,Backhoe Loaders,Two Wheel Drive,OROPS,None or Unspecified,None or Unspecified,No,Standard,Standard,None or Unspecified,,,,,,,,,,,,,,,,,,,,,,,,,
