ModelID,SalesID,SalePrice,MachineID,datasource,auctioneerID,YearMade,MachineHoursCurrentMeter,UsageBand,saledate,fiModelDesc,fiBaseModel,fiSecondaryDesc,fiModelSeries,fiModelDescriptor,ProductSize,fiProductClassDesc,state,ProductGroup,ProductGroupDesc,Drive_System,Enclosure,Forks,Pad_Type,Ride_Control,Stick,Transmission,Turbocharged,Blade_Extension,Blade_Width,Enclosure_Type,Engine_Horsepower,Hydraulics,Pushblock,Ripper,Scarifier,Tip_Control,Tire_Size,Coupler,Coupler_System,Grouser_Tracks,Hydraulics_Flow,Track_Type,Undercarriage_Pad_Width,Stick_Length,Thumb,Pattern_Changer,Grouser_Type,Backhoe_Mounting,Blade_Type,Travel_Controls,Differential_Type,Steering_Controls
14297,1205654,86000,1037804,121,3.0,2006,3320.0,Medium,9/9/2010 0:00,270DLC,270,D,,LC,Large / Medium,"Hydraulic Excavator, Track - 28.0 to 33.0 Metric Tons",Texas,TEX,Track Excavators,,EROPS w AC,,,,,,,,,,,Standard,,,,,,None or Unspecified,,,,Steel,32 inch,"12' 4""",None or Unspecified,None or Unspecified,Double,,,,,
14297,1210493,105000,1036716,121,3.0,2007,4361.0,High,1/27/2011 0:00,270DLC,270,D,,LC,Large / Medium,"Hydraulic Excavator, Track - 28.0 to 33.0 Metric Tons",Illinois,TEX,Track Excavators,,EROPS w AC,,,,,,,,,,,Standard,,,,,,Hydraulic,,,,Steel,None or Unspecified,"12' 4""",None or Unspecified,Yes,Double,,,,,
14297,1215026,87000,1030411,121,3.0,2006,2195.0,Medium,6/30/2011 0:00,270DLC,270,D,,LC,Large / Medium,"Hydraulic Excavator, Track - 28.0 to 33.0 Metric Tons",South Carolina,TEX,Track Excavators,,EROPS w AC,,,,,,,,,,,Standard,,,,,,None or Unspecified,,,,Steel,None or Unspecified,None or Unspecified,None or Unspecified,None or Unspecified,Double,,,,,
14297,1218644,102000,1024855,121,3.0,2006,3271.0,Medium,9/29/2011 0:00,270DLC,270,D,,LC,Large / Medium,"Hydraulic Excavator, Track - 28.0 to 33.0 Metric Tons",North Carolina,TEX,Track Excavators,,EROPS w AC,,,,,,,,,,,Standard,,,,,,None or Unspecified,,,,Steel,None or Unspecified,None or Unspecified,Hydraulic,None or Unspecified,Double,,,,,
14297,1615469,86000,1537960,132,3.0,2006,,,9/9/2010 0:00,270DLC,270,D,,LC,Large / Medium,"Hydraulic Excavator, Track - 28.0 to 33.0 Metric Tons",California,TEX,Track Excavators,,EROPS w AC,,,,,,,,,,,Standard,,,,,,None or Unspecified,,,,Steel,32 inch,"12' 4""",None or Unspecified,None or Unspecified,Double,,,,,
14297,1615473,82000,1552689,132,1.0,2006,,,9/23/2009 0:00,270DLC,270,D,,LC,Large / Medium,"Hydraulic Excavator, Track - 28.0 to 33.0 Metric Tons",Texas,TEX,Track Excavators,,EROPS w AC,,,,,,,,,,,Standard,,,,,,None or Unspecified,,,,Steel,None or Unspecified,"12' 10""",None or Unspecified,None or Unspecified,Double,,,,,
14297,1615475,98000,1436517,132,14.0,2006,,,12/11/2009 0:00,270DLC,270,D,,LC,Large / Medium,"Hydraulic Excavator, Track - 28.0 to 33.0 Metric Tons",Indiana,TEX,Track Excavators,,EROPS w AC,,,,,,,,,,,Standard,,,,,,None or Unspecified,,,,Steel,32 inch,None or Unspecified,Manual,None or Unspecified,Double,,,,,
14297,1615477,96000,1202196,132,1.0,2006,4177.0,Medium,5/12/2010 0:00,270DLC,270,D,,LC,Large / Medium,"Hydraulic Excavator, Track - 28.0 to 33.0 Metric Tons",Illinois,TEX,Track Excavators,,EROPS,,,,,,,,,,,Auxiliary,,,,,,None or Unspecified,,,,Steel,None or Unspecified,None or Unspecified,None or Unspecified,None or Unspecified,Double,,,,,
14297,1615478,82500,1109467,132,1.0,2006,3928.0,High,7/16/2009 0:00,270DLC,270,D,,LC,Large / Medium,"Hydraulic Excavator, Track - 28.0 to 33.0 Metric Tons",Illinois,TEX,Track Excavators,,EROPS,,,,,,,,,,,Standard,,,,,,None or Unspecified,,,,Steel,None or Unspecified,None or Unspecified,None or Unspecified,None or Unspecified,Double,,,,,
14297,1615481,80000,1250023,132,1.0,2006,2092.0,Medium,2/2/2010 0:00,270DLC,270,D,,LC,Large / Medium,"Hydraulic Excavator, Track - 28.0 to 33.0 Metric Tons",Arizona,TEX,Track Excavators,,EROPS w AC,,,,,,,,,,,Standard,,,,,,None or Unspecified,,,,Steel,None or Unspecified,"12' 8""",None or Unspecified,None or Unspecified,Double,,,,,
14297,1615486,90000,1247624,132,1.0,2006,5265.0,High,12/16/2010 0:00,270DLC,270,D,,LC,Large / Medium,"Hydraulic Excavator, Track - 28.0 to 33.0 Metric Tons",Colorado,TEX,Track Excavators,,EROPS w AC,,,,,,,,,,,Standard,,,,,,None or Unspecified,,,,Steel,None or Unspecified,"10' 6""",None or Unspecified,None or Unspecified,Double,,,,,
14297,1615502,88000,1213592,132,7.0,2007,3739.0,Medium,4/21/2011 0:00,270DLC,270,D,,LC,Large / Medium,"Hydraulic Excavator, Track - 28.0 to 33.0 Metric Tons",South Carolina,TEX,Track Excavators,,EROPS w AC,,,,,,,,,,,Standard,,,,,,None or Unspecified,,,,Steel,32 inch,"10' 2""",None or Unspecified,None or Unspecified,Triple,,,,,
14297,1615546,110000,1104634,132,1.0,2008,2456.0,High,3/23/2010 0:00,270DLC,270,D,,LC,Large / Medium,"Hydraulic Excavator, Track - 28.0 to 33.0 Metric Tons",North Carolina,TEX,Track Excavators,,EROPS w AC,,,,,,,,,,,Standard,,,,,,None or Unspecified,,,,Steel,None or Unspecified,"12' 4""",None or Unspecified,None or Unspecified,Double,,,,,
14297,1615547,90000,1460660,132,10.0,2007,,,12/9/2009 0:00,270DLC,270,D,,LC,Large / Medium,"Hydraulic Excavator, Track - 28.0 to 33.0 Metric Tons",Louisiana,TEX,Track Excavators,,EROPS w AC,,,,,,,,,,,Standard,,,,,,None or Unspecified,,,,Steel,None or Unspecified,None or Unspecified,None or Unspecified,None or Unspecified,Triple,,,,,
14297,1615551,110000,1410072,132,2.0,2008,,,2/4/2011 0:00,270DLC,270,D,,LC,Large / Medium,"Hydraulic Excavator, Track - 28.0 to 33.0 Metric Tons",Florida,TEX,Track Excavators,,EROPS w AC,,,,,,,,,,,Standard,,,,,,None or Unspecified,,,,Steel,32 inch,None or Unspecified,Manual,None or Unspecified,Double,,,,,
14297,1615561,75000,1449358,132,1.0,2007,3571.0,High,8/24/2010 0:00,270DLC,270,D,,LC,Large / Medium,"Hydraulic Excavator, Track - 28.0 to 33.0 Metric Tons",Maryland,TEX,Track Excavators,,EROPS w AC,,,,,,,,,,,Standard,,,,,,None or Unspecified,,,,Steel,None or Unspecified,"10' 6""",Manual,None or Unspecified,Double,,,,,
14297,2333347,70000,1436517,136,99.0,2006,2392.0,Medium,10/16/2009 0:00,270DLC,270,D,,LC,Large / Medium,"Hydraulic Excavator, Track - 28.0 to 33.0 Metric Tons",Georgia,TEX,Track Excavators,,EROPS w AC,,,,,,,,,,,Standard,,,,,,None or Unspecified,,,,Steel,32 inch,None or Unspecified,Manual,None or Unspecified,Double,,,,,
14297,2344256,82000,1755201,136,,2006,0.0,,9/23/2009 0:00,270DLC,270,D,,LC,Large / Medium,"Hydraulic Excavator, Track - 28.0 to 33.0 Metric Tons",Texas,TEX,Track Excavators,,EROPS w AC,,,,,,,,,,,Standard,,,,,,None or Unspecified,,,,Steel,None or Unspecified,None or Unspecified,None or Unspecified,None or Unspecified,Double,,,,,
14297,2344258,80000,1701075,136,1.0,2006,0.0,,2/2/2010 0:00,270DLC,270,D,,LC,Large / Medium,"Hydraulic Excavator, Track - 28.0 to 33.0 Metric Tons",Arizona,TEX,Track Excavators,,EROPS w AC,,,,,,,,,,,Standard,,,,,,None or Unspecified,,,,Steel,None or Unspecified,None or Unspecified,None or Unspecified,None or Unspecified,Double,,,,,
14297,2344270,110000,1674074,136,1.0,2008,2456.0,High,3/23/2010 0:00,270DLC,270,D,,LC,Large / Medium,"Hydraulic Excavator, Track - 28.0 to 33.0 Metric Tons",North Carolina,TEX,Track Excavators,,EROPS w AC,,,,,,,,,,,Standard,,,,,,None or Unspecified,,,,Steel,None or Unspecified,None or Unspecified,None or Unspecified,None or Unspecified,Double,,,,,
14297,2628624,73000,1144813,149,26.0,2006,4957.0,Medium,4/21/2011 0:00,270DLC,270,D,,LC,Large / Medium,"Hydraulic Excavator, Track - 28.0 to 33.0 Metric Tons",South Carolina,TEX,Track Excavators,,EROPS w AC,,,,,,,,,,,Standard,,,,,,None or Unspecified,,,,Steel,32 inch,None or Unspecified,None or Unspecified,None or Unspecified,Triple,,,,,
14297,2639005,87500,1847603,149,2.0,2008,0.0,,6/21/2011 0:00,270DLC,270,D,,LC,Large / Medium,"Hydraulic Excavator, Track - 28.0 to 33.0 Metric Tons",Texas,TEX,Track Excavators,,EROPS w AC,,,,,,,,,,,Standard,,,,,,None or Unspecified,,,,Steel,None or Unspecified,None or Unspecified,None or Unspecified,None or Unspecified,Double,,,,,
14297,4315603,96000,2270574,172,1.0,2006,4177.0,Medium,5/12/2010 0:00,270DLC,270,D,,LC,Large / Medium,"Hydraulic Excavator, Track - 28.0 to 33.0 Metric Tons",Illinois,TEX,Track Excavators,,EROPS,,,,,,,,,,,Auxiliary,,,,,,None or Unspecified,,,,Steel,None or Unspecified,None or Unspecified,None or Unspecified,None or Unspecified,Double,,,,,
14297,4315606,90000,2277805,172,1.0,2006,5265.0,High,12/16/2010 0:00,270DLC,270,D,,LC,Large / Medium,"Hydraulic Excavator, Track - 28.0 to 33.0 Metric Tons",Colorado,TEX,Track Excavators,,EROPS w AC,,,,,,,,,,,Standard,,,,,,None or Unspecified,,,,Steel,None or Unspecified,None or Unspecified,None or Unspecified,None or Unspecified,Double,,,,,
14297,4315620,75000,2304487,172,1.0,2007,3571.0,High,8/24/2010 0:00,270DLC,270,D,,LC,Large / Medium,"Hydraulic Excavator, Track - 28.0 to 33.0 Metric Tons",Maryland,TEX,Track Excavators,,EROPS w AC,,,,,,,,,,,Standard,,,,,,None or Unspecified,,,,Steel,None or Unspecified,None or Unspecified,Manual,None or Unspecified,Double,,,,,
14297,4315636,85000,2289301,172,1.0,2006,5539.0,High,9/13/2011 0:00,270DLC,270,D,,LC,Large / Medium,"Hydraulic Excavator, Track - 28.0 to 33.0 Metric Tons",Georgia,TEX,Track Excavators,,EROPS w AC,,,,,,,,,,,Auxiliary,,,,,,None or Unspecified,,,,Steel,None or Unspecified,None or Unspecified,Hydraulic,None or Unspecified,Triple,,,,,
14297,4315647,85000,2289301,172,1.0,2007,2133.0,High,10/3/2011 0:00,270DLC,270,D,,LC,Large / Medium,"Hydraulic Excavator, Track - 28.0 to 33.0 Metric Tons",Texas,TEX,Track Excavators,,EROPS w AC,,,,,,,,,,,Auxiliary,,,,,,None or Unspecified,,,,Steel,None or Unspecified,None or Unspecified,Hydraulic,None or Unspecified,Triple,,,,,
14297,6284997,85000,1873061,149,1.0,2006,,,9/14/2011 0:00,270DLC,270,D,,LC,Large / Medium,"Hydraulic Excavator, Track - 28.0 to 33.0 Metric Tons",Georgia,TEX,Track Excavators,,EROPS w AC,,,,,,,,,,,Standard,,,,,,None or Unspecified,,,,Steel,None or Unspecified,None or Unspecified,Manual,None or Unspecified,Double,,,,,
14297,6285009,85000,1729193,149,1.0,2007,,,10/4/2011 0:00,270DLC,270,D,,LC,Large / Medium,"Hydraulic Excavator, Track - 28.0 to 33.0 Metric Tons",Texas,TEX,Track Excavators,,EROPS w AC,,,,,,,,,,,Auxiliary,,,,,,None or Unspecified,,,,Steel,None or Unspecified,None or Unspecified,None or Unspecified,None or Unspecified,Double,,,,,
