ModelID,SalesID,SalePrice,MachineID,datasource,auctioneerID,YearMade,MachineHoursCurrentMeter,UsageBand,saledate,fiModelDesc,fiBaseModel,fiSecondaryDesc,fiModelSeries,fiModelDescriptor,ProductSize,fiProductClassDesc,state,ProductGroup,ProductGroupDesc,Drive_System,Enclosure,Forks,Pad_Type,Ride_Control,Stick,Transmission,Turbocharged,Blade_Extension,Blade_Width,Enclosure_Type,Engine_Horsepower,Hydraulics,Pushblock,Ripper,Scarifier,Tip_Control,Tire_Size,Coupler,Coupler_System,Grouser_Tracks,Hydraulics_Flow,Track_Type,Undercarriage_Pad_Width,Stick_Length,Thumb,Pattern_Changer,Grouser_Type,Backhoe_Mounting,Blade_Type,Travel_Controls,Differential_Type,Steering_Controls
14406,1145968,128000,1034399,121,3.0,2005,3390.0,High,9/18/2008 0:00,672D,672,D,,,,Motorgrader - 170.0 to 200.0 Horsepower,Florida,MG,Motor Graders,All Wheel Drive,EROPS w AC,,,,,Powershift,,None or Unspecified,14',None or Unspecified,No,Base + 1 Function,None or Unspecified,None or Unspecified,Yes,None or Unspecified,"17.5""",,,,,,,,,,,,,,,
14406,1153176,110000,1033151,121,3.0,2005,1602.0,Low,1/29/2009 0:00,672D,672,D,,,,Motorgrader - 170.0 to 200.0 Horsepower,Florida,MG,Motor Graders,No,EROPS w AC,,,,,Powershift,,None or Unspecified,14',None or Unspecified,No,Base + 1 Function,None or Unspecified,None or Unspecified,Yes,None or Unspecified,"17.5""",,,,,,,,,,,,,,,
14406,1170083,126000,1010193,121,3.0,2005,2246.0,Medium,4/24/2008 0:00,672D,672,D,,,,Motorgrader - 170.0 to 200.0 Horsepower,Florida,MG,Motor Graders,All Wheel Drive,EROPS w AC,,,,,Powershift,,None or Unspecified,14',None or Unspecified,No,Base + 1 Function,None or Unspecified,None or Unspecified,Yes,None or Unspecified,"17.5""",,,,,,,,,,,,,,,
14406,1172961,97000,1038174,121,3.0,2006,2246.0,Medium,7/9/2009 0:00,672D,672,D,,,,Motorgrader - 170.0 to 200.0 Horsepower,New Mexico,MG,Motor Graders,All Wheel Drive,EROPS w AC,,,,,Powershift,,None or Unspecified,14',None or Unspecified,No,Base + 1 Function,None or Unspecified,Yes,None or Unspecified,None or Unspecified,"14""",,,,,,,,,,,,,,,
14406,1194136,77000,1067834,121,3.0,2005,3401.0,Medium,10/8/2009 0:00,672D,672,D,,,,Motorgrader - 170.0 to 200.0 Horsepower,Florida,MG,Motor Graders,All Wheel Drive,EROPS w AC,,,,,Powershift,,None or Unspecified,None or Unspecified,None or Unspecified,No,Base + 1 Function,None or Unspecified,None or Unspecified,Yes,None or Unspecified,None or Unspecified,,,,,,,,,,,,,,,
14406,1207535,80000,1044087,121,3.0,2005,4583.0,Medium,9/30/2010 0:00,672D,672,D,,,,Motorgrader - 170.0 to 200.0 Horsepower,Florida,MG,Motor Graders,All Wheel Drive,EROPS w AC,,,,,None or Unspecified,,None or Unspecified,14',None or Unspecified,No,Base + 1 Function,None or Unspecified,None or Unspecified,Yes,None or Unspecified,"17.5""",,,,,,,,,,,,,,,
14406,1214579,118000,1022869,121,3.0,2005,3031.0,Low,6/23/2011 0:00,672D,672,D,,,,Motorgrader - 170.0 to 200.0 Horsepower,North Carolina,MG,Motor Graders,All Wheel Drive,EROPS w AC,,,,,None or Unspecified,,None or Unspecified,12',None or Unspecified,No,Base + 1 Function,Yes,Yes,None or Unspecified,None or Unspecified,None or Unspecified,,,,,,,,,,,,,,,
14406,1613287,132500,1090769,132,1.0,2005,,,3/31/2011 0:00,672D,672,D,,,,Motorgrader - 170.0 to 200.0 Horsepower,Georgia,MG,Motor Graders,No,EROPS w AC,,,,,None or Unspecified,,None or Unspecified,14',Low Profile,No,Base + 1 Function,None or Unspecified,None or Unspecified,Yes,None or Unspecified,None or Unspecified,,,,,,,,,,,,,,,
14406,1613399,105000,758726,132,1.0,2005,,,2/18/2009 0:00,672D,672,D,,,,Motorgrader - 170.0 to 200.0 Horsepower,Florida,MG,Motor Graders,All Wheel Drive,EROPS w AC,,,,,None or Unspecified,,None or Unspecified,14',Low Profile,No,Base + 1 Function,None or Unspecified,None or Unspecified,Yes,None or Unspecified,"17.5""",,,,,,,,,,,,,,,
14406,1613400,105000,758726,132,1.0,2005,,,2/16/2009 0:00,672D,672,D,,,,Motorgrader - 170.0 to 200.0 Horsepower,Florida,MG,Motor Graders,All Wheel Drive,EROPS w AC,,,,,None or Unspecified,,None or Unspecified,14',Low Profile,No,Base + 1 Function,None or Unspecified,None or Unspecified,Yes,None or Unspecified,"17.5""",,,,,,,,,,,,,,,
14406,1613418,126000,802930,132,3.0,2005,,,4/24/2008 0:00,672D,672,D,,,,Motorgrader - 170.0 to 200.0 Horsepower,Unspecified,MG,Motor Graders,All Wheel Drive,EROPS w AC,,,,,Powershift,,None or Unspecified,None or Unspecified,None or Unspecified,No,Base + 1 Function,None or Unspecified,None or Unspecified,Yes,None or Unspecified,"17.5""",,,,,,,,,,,,,,,
14406,1613427,80000,1511032,132,1.0,2005,,,9/29/2010 0:00,672D,672,D,,,,Motorgrader - 170.0 to 200.0 Horsepower,Texas,MG,Motor Graders,All Wheel Drive,EROPS w AC,,,,,None or Unspecified,,None or Unspecified,14',None or Unspecified,No,Base + 1 Function,None or Unspecified,None or Unspecified,Yes,None or Unspecified,None or Unspecified,,,,,,,,,,,,,,,
14406,1613472,77000,1507852,132,3.0,2005,,,10/8/2009 0:00,672D,672,D,,,,Motorgrader - 170.0 to 200.0 Horsepower,California,MG,Motor Graders,All Wheel Drive,EROPS,,,,,None or Unspecified,,None or Unspecified,None or Unspecified,None or Unspecified,No,Base + 1 Function,None or Unspecified,None or Unspecified,Yes,None or Unspecified,None or Unspecified,,,,,,,,,,,,,,,
14406,1613502,99500,1396611,132,2.0,2005,,,2/5/2009 0:00,672D,672,D,,,,Motorgrader - 170.0 to 200.0 Horsepower,Florida,MG,Motor Graders,All Wheel Drive,EROPS w AC,,,,,None or Unspecified,,None or Unspecified,12',Low Profile,No,Base + 1 Function,None or Unspecified,None or Unspecified,Yes,Sideshift & Tip,"14""",,,,,,,,,,,,,,,
14406,1613503,99500,1396611,132,2.0,2005,,,1/31/2009 0:00,672D,672,D,,,,Motorgrader - 170.0 to 200.0 Horsepower,Florida,MG,Motor Graders,All Wheel Drive,EROPS w AC,,,,,None or Unspecified,,None or Unspecified,12',Low Profile,No,Base + 1 Function,None or Unspecified,None or Unspecified,Yes,Sideshift & Tip,"14""",,,,,,,,,,,,,,,
14406,1613525,85000,1127776,132,1.0,2005,,,11/18/2008 0:00,672D,672,D,,,,Motorgrader - 170.0 to 200.0 Horsepower,California,MG,Motor Graders,All Wheel Drive,EROPS w AC,,,,,None or Unspecified,,None or Unspecified,14',None or Unspecified,No,Base + 1 Function,Yes,Yes,None or Unspecified,None or Unspecified,None or Unspecified,,,,,,,,,,,,,,,
14406,1613797,94000,1459534,132,1.0,2006,,,12/8/2009 0:00,672D,672,D,,,,Motorgrader - 170.0 to 200.0 Horsepower,North Carolina,MG,Motor Graders,All Wheel Drive,EROPS w AC,,,,,None or Unspecified,,None or Unspecified,12',None or Unspecified,No,Base + 1 Function,Yes,Yes,Yes,None or Unspecified,None or Unspecified,,,,,,,,,,,,,,,
14406,1614251,132500,1325786,132,4.0,2006,,,2/9/2009 0:00,672D,672,D,,,,Motorgrader - 170.0 to 200.0 Horsepower,Florida,MG,Motor Graders,No,EROPS w AC,,,,,None or Unspecified,,None or Unspecified,12',None or Unspecified,No,Base + 1 Function,None or Unspecified,None or Unspecified,Yes,None or Unspecified,None or Unspecified,,,,,,,,,,,,,,,
14406,1614257,140000,1388929,132,1.0,2006,,,5/28/2008 0:00,672D,672,D,,,,Motorgrader - 170.0 to 200.0 Horsepower,Florida,MG,Motor Graders,All Wheel Drive,EROPS w AC,,,,,None or Unspecified,,None or Unspecified,14',Low Profile,No,Base + 1 Function,Yes,Yes,None or Unspecified,None or Unspecified,None or Unspecified,,,,,,,,,,,,,,,
14406,1614314,117500,1533306,132,1.0,2006,,,5/27/2009 0:00,672D,672,D,,,,Motorgrader - 170.0 to 200.0 Horsepower,Florida,MG,Motor Graders,All Wheel Drive,EROPS w AC,,,,,None or Unspecified,,None or Unspecified,14',Low Profile,No,Base + 1 Function,Yes,Yes,None or Unspecified,None or Unspecified,None or Unspecified,,,,,,,,,,,,,,,
14406,1614385,90000,1393157,132,1.0,2007,,,2/25/2011 0:00,672D,672,D,,,,Motorgrader - 170.0 to 200.0 Horsepower,Unspecified,MG,Motor Graders,No,EROPS w AC,,,,,None or Unspecified,,None or Unspecified,14',None or Unspecified,No,Base + 1 Function,None or Unspecified,None or Unspecified,Yes,None or Unspecified,None or Unspecified,,,,,,,,,,,,,,,
14406,1614408,122500,1254782,132,1.0,2007,,,10/5/2010 0:00,672D,672,D,,,,Motorgrader - 170.0 to 200.0 Horsepower,New Jersey,MG,Motor Graders,All Wheel Drive,EROPS w AC,,,,,None or Unspecified,,None or Unspecified,None or Unspecified,None or Unspecified,No,Base + 1 Function,Yes,Yes,Yes,None or Unspecified,None or Unspecified,,,,,,,,,,,,,,,
14406,1614420,140000,1314569,132,1.0,2007,,,5/28/2008 0:00,672D,672,D,,,,Motorgrader - 170.0 to 200.0 Horsepower,Florida,MG,Motor Graders,All Wheel Drive,EROPS w AC,,,,,None or Unspecified,,None or Unspecified,14',Low Profile,No,Base + 1 Function,None or Unspecified,None or Unspecified,Yes,None or Unspecified,"17.5""",,,,,,,,,,,,,,,
14406,1614562,140000,1146209,132,1.0,2008,,,9/29/2010 0:00,672D,672,D,,,,Motorgrader - 170.0 to 200.0 Horsepower,Texas,MG,Motor Graders,All Wheel Drive,EROPS w AC,,,,,None or Unspecified,,None or Unspecified,14',None or Unspecified,No,Base + 1 Function,Yes,Yes,None or Unspecified,None or Unspecified,"14""",,,,,,,,,,,,,,,
14406,1614600,132500,1441420,132,1.0,2008,,,9/22/2010 0:00,672D,672,D,,,,Motorgrader - 170.0 to 200.0 Horsepower,Georgia,MG,Motor Graders,All Wheel Drive,EROPS w AC,,,,,None or Unspecified,,None or Unspecified,None or Unspecified,Low Profile,No,Base + 1 Function,None or Unspecified,None or Unspecified,Yes,None or Unspecified,None or Unspecified,,,,,,,,,,,,,,,
14406,1614603,135000,1306357,132,1.0,2008,,,9/22/2010 0:00,672D,672,D,,,,Motorgrader - 170.0 to 200.0 Horsepower,Georgia,MG,Motor Graders,All Wheel Drive,OROPS,,,,,None or Unspecified,,None or Unspecified,None or Unspecified,None or Unspecified,No,Base + 1 Function,None or Unspecified,None or Unspecified,Yes,None or Unspecified,None or Unspecified,,,,,,,,,,,,,,,
14406,2332974,87000,1182701,136,12.0,2006,0.0,,2/3/2010 0:00,672D,672,D,,,,Motorgrader - 170.0 to 200.0 Horsepower,South Carolina,MG,Motor Graders,No,EROPS w AC,,,,,None or Unspecified,,None or Unspecified,14',Low Profile,No,Base + 1 Function,Yes,Yes,None or Unspecified,Tip,None or Unspecified,,,,,,,,,,,,,,,
14406,2340349,140000,1736696,136,,2005,0.0,,7/16/2008 0:00,672D,672,D,,,,Motorgrader - 170.0 to 200.0 Horsepower,New Mexico,MG,Motor Graders,No,EROPS w AC,,,,,None or Unspecified,,None or Unspecified,None or Unspecified,None or Unspecified,No,Base + 1 Function,Yes,Yes,None or Unspecified,Sideshift & Tip,"14""",,,,,,,,,,,,,,,
14406,2340350,105000,1705124,136,1.0,2005,0.0,,2/16/2009 0:00,672D,672,D,,,,Motorgrader - 170.0 to 200.0 Horsepower,Florida,MG,Motor Graders,No,EROPS w AC,,,,,None or Unspecified,,None or Unspecified,14',Low Profile,No,Base + 1 Function,None or Unspecified,None or Unspecified,Yes,None or Unspecified,None or Unspecified,,,,,,,,,,,,,,,
14406,2340355,99500,1774360,136,,2005,2000.0,Low,1/31/2009 0:00,672D,672,D,,,,Motorgrader - 170.0 to 200.0 Horsepower,Florida,MG,Motor Graders,No,EROPS w AC,,,,,None or Unspecified,,None or Unspecified,None or Unspecified,Low Profile,No,Base + 1 Function,None or Unspecified,None or Unspecified,Yes,Sideshift & Tip,None or Unspecified,,,,,,,,,,,,,,,
14406,2340356,85000,1639376,136,1.0,2005,4167.0,High,11/18/2008 0:00,672D,672,D,,,,Motorgrader - 170.0 to 200.0 Horsepower,California,MG,Motor Graders,No,EROPS w AC,,,,,None or Unspecified,,None or Unspecified,14',None or Unspecified,No,Base + 1 Function,Yes,Yes,None or Unspecified,None or Unspecified,None or Unspecified,,,,,,,,,,,,,,,
14406,2340359,94000,1715967,136,1.0,2006,3018.0,Medium,12/8/2009 0:00,672D,672,D,,,,Motorgrader - 170.0 to 200.0 Horsepower,North Carolina,MG,Motor Graders,All Wheel Drive,EROPS w AC,,,,,None or Unspecified,,None or Unspecified,12',None or Unspecified,No,Base + 1 Function,Yes,Yes,Yes,None or Unspecified,None or Unspecified,,,,,,,,,,,,,,,
14406,2340372,132500,1753615,136,,2006,2357.0,Medium,2/9/2009 0:00,672D,672,D,,,,Motorgrader - 170.0 to 200.0 Horsepower,Florida,MG,Motor Graders,No,EROPS w AC,,,,,None or Unspecified,,None or Unspecified,None or Unspecified,None or Unspecified,No,Base + 1 Function,None or Unspecified,None or Unspecified,Yes,None or Unspecified,None or Unspecified,,,,,,,,,,,,,,,
14406,2340373,140000,1721937,136,1.0,2006,0.0,,5/28/2008 0:00,672D,672,D,,,,Motorgrader - 170.0 to 200.0 Horsepower,Florida,MG,Motor Graders,No,EROPS w AC,,,,,None or Unspecified,,None or Unspecified,14',Low Profile,No,Base + 1 Function,Yes,Yes,None or Unspecified,None or Unspecified,None or Unspecified,,,,,,,,,,,,,,,
14406,2340376,117500,1775100,136,1.0,2006,0.0,,5/27/2009 0:00,672D,672,D,,,,Motorgrader - 170.0 to 200.0 Horsepower,Florida,MG,Motor Graders,No,EROPS w AC,,,,,None or Unspecified,,None or Unspecified,14',Low Profile,No,Base + 1 Function,Yes,Yes,None or Unspecified,None or Unspecified,None or Unspecified,,,,,,,,,,,,,,,
14406,2340380,140000,1690150,136,1.0,2007,1100.0,High,5/28/2008 0:00,672D,672,D,,,,Motorgrader - 170.0 to 200.0 Horsepower,Florida,MG,Motor Graders,No,EROPS w AC,,,,,None or Unspecified,,None or Unspecified,14',Low Profile,No,Base + 1 Function,None or Unspecified,None or Unspecified,Yes,None or Unspecified,None or Unspecified,,,,,,,,,,,,,,,
14406,2635550,132500,1825483,149,1.0,2005,1620.0,Low,3/31/2011 0:00,672D,672,D,,,,Motorgrader - 170.0 to 200.0 Horsepower,Georgia,MG,Motor Graders,No,EROPS w AC,,,,,None or Unspecified,,None or Unspecified,14',Low Profile,No,Base + 1 Function,None or Unspecified,None or Unspecified,Yes,None or Unspecified,None or Unspecified,,,,,,,,,,,,,,,
14406,2635551,80000,1888828,149,1.0,2005,5242.0,Medium,9/29/2010 0:00,672D,672,D,,,,Motorgrader - 170.0 to 200.0 Horsepower,Texas,MG,Motor Graders,No,EROPS w AC,,,,,None or Unspecified,,None or Unspecified,14',None or Unspecified,No,Base + 1 Function,None or Unspecified,None or Unspecified,Yes,None or Unspecified,None or Unspecified,,,,,,,,,,,,,,,
14406,2635552,105000,1894211,149,2.0,2005,1907.0,Low,12/11/2010 0:00,672D,672,D,,,,Motorgrader - 170.0 to 200.0 Horsepower,Alabama,MG,Motor Graders,All Wheel Drive,EROPS w AC,,,,,None or Unspecified,,None or Unspecified,14',None or Unspecified,No,Base + 1 Function,None or Unspecified,None or Unspecified,Yes,None or Unspecified,None or Unspecified,,,,,,,,,,,,,,,
14406,2635558,93000,1939547,149,2.0,2006,0.0,,5/10/2011 0:00,672D,672,D,,,,Motorgrader - 170.0 to 200.0 Horsepower,Texas,MG,Motor Graders,No,EROPS w AC,,,,,None or Unspecified,,None or Unspecified,None or Unspecified,None or Unspecified,No,Base + 1 Function,None or Unspecified,None or Unspecified,None or Unspecified,None or Unspecified,None or Unspecified,,,,,,,,,,,,,,,
14406,2635571,122500,1848159,149,1.0,2007,1773.0,Medium,10/5/2010 0:00,672D,672,D,,,,Motorgrader - 170.0 to 200.0 Horsepower,New Jersey,MG,Motor Graders,No,EROPS w AC,,,,,None or Unspecified,,None or Unspecified,12',None or Unspecified,No,Base + 1 Function,Yes,Yes,Yes,None or Unspecified,None or Unspecified,,,,,,,,,,,,,,,
14406,2635584,140000,1826324,149,1.0,2008,1519.0,Medium,9/29/2010 0:00,672D,672,D,,,,Motorgrader - 170.0 to 200.0 Horsepower,Texas,MG,Motor Graders,No,EROPS w AC,,,,,None or Unspecified,,None or Unspecified,14',None or Unspecified,No,Base + 1 Function,Yes,Yes,None or Unspecified,None or Unspecified,"14""",,,,,,,,,,,,,,,
14406,2635593,132500,1914602,149,1.0,2008,732.0,Low,9/22/2010 0:00,672D,672,D,,,,Motorgrader - 170.0 to 200.0 Horsepower,Georgia,MG,Motor Graders,No,EROPS w AC,,,,,None or Unspecified,,None or Unspecified,12',Low Profile,No,Base + 1 Function,Yes,None or Unspecified,Yes,None or Unspecified,"14""",,,,,,,,,,,,,,,
14406,2635594,135000,1923707,149,1.0,2008,434.0,Low,9/22/2010 0:00,672D,672,D,,,,Motorgrader - 170.0 to 200.0 Horsepower,Georgia,MG,Motor Graders,No,EROPS w AC,,,,,None or Unspecified,,None or Unspecified,14',Low Profile,No,Base + 1 Function,Yes,None or Unspecified,Yes,None or Unspecified,"14""",,,,,,,,,,,,,,,
14406,4312911,80000,2275598,172,1.0,2005,5245.0,Medium,9/29/2010 0:00,672D,672,D,,,,Motorgrader - 170.0 to 200.0 Horsepower,Texas,MG,Motor Graders,No,EROPS w AC,,,,,None or Unspecified,,None or Unspecified,14',None or Unspecified,No,Base + 1 Function,None or Unspecified,None or Unspecified,Yes,None or Unspecified,None or Unspecified,,,,,,,,,,,,,,,
14406,4312915,120000,2268812,172,1.0,2006,1941.0,Low,9/29/2011 0:00,672D,672,D,,,,Motorgrader - 170.0 to 200.0 Horsepower,Mississippi,MG,Motor Graders,No,EROPS w AC,,,,,None or Unspecified,,None or Unspecified,14',Low Profile,No,Base + 1 Function,Yes,Yes,None or Unspecified,None or Unspecified,None or Unspecified,,,,,,,,,,,,,,,
