SalesID,2359688
SalePrice,23000
MachineID,1664113
datasource,136
auctioneerID,2.0
YearMade,2002
MachineHoursCurrentMeter,0.0
UsageBand,
saledate,12/19/2009 0:00
fiModelDesc,520E
fiBaseModel,520
fiSecondaryDesc,E
fiModelSeries,
fiModelDescriptor,
ProductSize,Medium
fiProductClassDesc,Wheel Loader - 135.0 to 150.0 Horsepower
state,New Jersey
ProductGroup,WL
ProductGroupDesc,Wheel Loader
Drive_System,
Enclosure,EROPS
Forks,None or Unspecified
Pad_Type,
Ride_Control,None or Unspecified
Stick,
Transmission,
Turbocharged,
Blade_Extension,
Blade_Width,
Enclosure_Type,
Engine_Horsepower,
Hydraulics,2 Valve
Pushblock,
Ripper,
Scarifier,
Tip_Control,
Tire_Size,20.5
Coupler,Hydraulic
Coupler_System,
Grouser_Tracks,
Hydraulics_Flow,
Track_Type,
Undercarriage_Pad_Width,
Stick_Length,
Thumb,
Pattern_Changer,
Grouser_Type,
Backhoe_Mounting,
Blade_Type,
Travel_Controls,
Differential_Type,Standard
Steering_Controls,Conventional
