ModelID,SalesID,SalePrice,MachineID,datasource,auctioneerID,YearMade,MachineHoursCurrentMeter,UsageBand,saledate,fiModelDesc,fiBaseModel,fiSecondaryDesc,fiModelSeries,fiModelDescriptor,ProductSize,fiProductClassDesc,state,ProductGroup,ProductGroupDesc,Drive_System,Enclosure,Forks,Pad_Type,Ride_Control,Stick,Transmission,Turbocharged,Blade_Extension,Blade_Width,Enclosure_Type,Engine_Horsepower,Hydraulics,Pushblock,Ripper,Scarifier,Tip_Control,Tire_Size,Coupler,Coupler_System,Grouser_Tracks,Hydraulics_Flow,Track_Type,Undercarriage_Pad_Width,Stick_Length,Thumb,Pattern_Changer,Grouser_Type,Backhoe_Mounting,Blade_Type,Travel_Controls,Differential_Type,Steering_Controls
14754,1666542,7750,1225966,132,2.0,1997,,,11/21/1998 0:00,LX465,LX465,,,,,Skid Steer Loader - 976.0 to 1251.0 Lb Operating Capacity,Ohio,SSL,Skid Steer Loaders,,OROPS,None or Unspecified,,,,,,,,,,Standard,,,,,,None or Unspecified,None or Unspecified,None or Unspecified,Standard,,,,,,,,,,,
14754,1666543,8100,1523826,132,2.0,1000,,,4/19/1997 0:00,LX465,LX465,,,,,Skid Steer Loader - 976.0 to 1251.0 Lb Operating Capacity,Indiana,SSL,Skid Steer Loaders,,OROPS,None or Unspecified,,,,,,,,,,Standard,,,,,,None or Unspecified,None or Unspecified,None or Unspecified,Standard,,,,,,,,,,,
14754,1666577,8000,1240074,132,2.0,1994,,,3/6/1999 0:00,LX465,LX465,,,,,Skid Steer Loader - 976.0 to 1251.0 Lb Operating Capacity,Pennsylvania,SSL,Skid Steer Loaders,,OROPS,None or Unspecified,,,,,,,,,,Standard,,,,,,None or Unspecified,None or Unspecified,None or Unspecified,Standard,,,,,,,,,,,
14754,1666578,6000,1255640,132,99.0,1994,,,3/3/2006 0:00,LX465,LX465,,,,,Skid Steer Loader - 976.0 to 1251.0 Lb Operating Capacity,Virginia,SSL,Skid Steer Loaders,,OROPS,None or Unspecified,,,,,,,,,,Standard,,,,,,None or Unspecified,None or Unspecified,None or Unspecified,Standard,,,,,,,,,,,
14754,1666579,6500,1397345,132,1.0,1994,,,9/30/2008 0:00,LX465,LX465,,,,,Skid Steer Loader - 976.0 to 1251.0 Lb Operating Capacity,Minnesota,SSL,Skid Steer Loaders,,OROPS,None or Unspecified,,,,,,,,,,Standard,,,,,,None or Unspecified,None or Unspecified,None or Unspecified,Standard,,,,,,,,,,,
14754,1666581,8000,1205584,132,2.0,1994,,,11/4/2000 0:00,LX465,LX465,,,,,Skid Steer Loader - 976.0 to 1251.0 Lb Operating Capacity,New York,SSL,Skid Steer Loaders,,OROPS,None or Unspecified,,,,,,,,,,Standard,,,,,,None or Unspecified,None or Unspecified,None or Unspecified,Standard,,,,,,,,,,,
14754,1666658,11500,1483135,132,9.0,1994,298.0,Low,2/11/1998 0:00,LX465,LX465,,,,,Skid Steer Loader - 976.0 to 1251.0 Lb Operating Capacity,Florida,SSL,Skid Steer Loaders,,OROPS,None or Unspecified,,,,,,,,,,Standard,,,,,,None or Unspecified,None or Unspecified,None or Unspecified,Standard,,,,,,,,,,,
14754,1666675,12000,1499094,132,1.0,1996,,,9/17/1998 0:00,LX465,LX465,,,,,Skid Steer Loader - 976.0 to 1251.0 Lb Operating Capacity,Washington,SSL,Skid Steer Loaders,,OROPS,None or Unspecified,,,,,,,,,,Standard,,,,,,None or Unspecified,None or Unspecified,None or Unspecified,Standard,,,,,,,,,,,
14754,1666687,11750,1514486,132,18.0,1995,,,3/14/1998 0:00,LX465,LX465,,,,,Skid Steer Loader - 976.0 to 1251.0 Lb Operating Capacity,Pennsylvania,SSL,Skid Steer Loaders,,OROPS,None or Unspecified,,,,,,,,,,Standard,,,,,,None or Unspecified,None or Unspecified,None or Unspecified,Standard,,,,,,,,,,,
14754,1666845,7750,1462006,132,16.0,1995,,,12/28/2000 0:00,LX465,LX465,,,,,Skid Steer Loader - 976.0 to 1251.0 Lb Operating Capacity,Ohio,SSL,Skid Steer Loaders,,OROPS,None or Unspecified,,,,,,,,,,Standard,,,,,,None or Unspecified,None or Unspecified,None or Unspecified,Standard,,,,,,,,,,,
14754,1666846,8000,1393149,132,4.0,1000,,,5/13/2006 0:00,LX465,LX465,,,,,Skid Steer Loader - 976.0 to 1251.0 Lb Operating Capacity,Pennsylvania,SSL,Skid Steer Loaders,,OROPS,None or Unspecified,,,,,,,,,,Standard,,,,,,None or Unspecified,None or Unspecified,None or Unspecified,Standard,,,,,,,,,,,
14754,1666847,6000,1497449,132,8.0,1995,,,9/15/2010 0:00,LX465,LX465,,,,,Skid Steer Loader - 976.0 to 1251.0 Lb Operating Capacity,Mississippi,SSL,Skid Steer Loaders,,OROPS,None or Unspecified,,,,,,,,,,Standard,,,,,,None or Unspecified,None or Unspecified,None or Unspecified,Standard,,,,,,,,,,,
14754,1666848,7500,1154336,132,1.0,1996,,,9/14/2000 0:00,LX465,LX465,,,,,Skid Steer Loader - 976.0 to 1251.0 Lb Operating Capacity,Ohio,SSL,Skid Steer Loaders,,OROPS,None or Unspecified,,,,,,,,,,Standard,,,,,,None or Unspecified,None or Unspecified,None or Unspecified,Standard,,,,,,,,,,,
14754,1666988,8250,1470958,132,2.0,1996,,,2/8/2001 0:00,LX465,LX465,,,,,Skid Steer Loader - 976.0 to 1251.0 Lb Operating Capacity,Florida,SSL,Skid Steer Loaders,,OROPS,None or Unspecified,,,,,,,,,,Standard,,,,,,None or Unspecified,None or Unspecified,None or Unspecified,Standard,,,,,,,,,,,
14754,1667139,5000,1321641,132,1.0,1996,,,9/22/2008 0:00,LX465,LX465,,,,,Skid Steer Loader - 976.0 to 1251.0 Lb Operating Capacity,Texas,SSL,Skid Steer Loaders,,OROPS,None or Unspecified,,,,,,,,,,Standard,,,,,,None or Unspecified,None or Unspecified,None or Unspecified,Standard,,,,,,,,,,,
14754,1667140,8500,1128064,132,1.0,1996,,,12/15/2004 0:00,LX465,LX465,,,,,Skid Steer Loader - 976.0 to 1251.0 Lb Operating Capacity,Maryland,SSL,Skid Steer Loaders,,OROPS,None or Unspecified,,,,,,,,,,Standard,,,,,,None or Unspecified,None or Unspecified,None or Unspecified,Standard,,,,,,,,,,,
14754,1667142,10000,1525869,132,1.0,1997,,,9/17/1998 0:00,LX465,LX465,,,,,Skid Steer Loader - 976.0 to 1251.0 Lb Operating Capacity,Washington,SSL,Skid Steer Loaders,,OROPS,None or Unspecified,,,,,,,,,,Standard,,,,,,None or Unspecified,None or Unspecified,None or Unspecified,Standard,,,,,,,,,,,
14754,1667416,10000,1550225,132,1.0,1997,,,9/17/1998 0:00,LX465,LX465,,,,,Skid Steer Loader - 976.0 to 1251.0 Lb Operating Capacity,Washington,SSL,Skid Steer Loaders,,OROPS,None or Unspecified,,,,,,,,,,Standard,,,,,,None or Unspecified,None or Unspecified,None or Unspecified,Standard,,,,,,,,,,,
14754,1667417,12000,1443315,132,1.0,1997,,,9/17/1998 0:00,LX465,LX465,,,,,Skid Steer Loader - 976.0 to 1251.0 Lb Operating Capacity,Washington,SSL,Skid Steer Loaders,,OROPS,None or Unspecified,,,,,,,,,,Standard,,,,,,None or Unspecified,None or Unspecified,None or Unspecified,Standard,,,,,,,,,,,
14754,1667418,11500,1239535,132,6.0,1997,450.0,Medium,12/15/1997 0:00,LX465,LX465,,,,,Skid Steer Loader - 976.0 to 1251.0 Lb Operating Capacity,Kentucky,SSL,Skid Steer Loaders,,OROPS,None or Unspecified,,,,,,,,,,Standard,,,,,,None or Unspecified,None or Unspecified,None or Unspecified,Standard,,,,,,,,,,,
14754,1667419,9000,1195922,132,1.0,1997,,,9/17/1998 0:00,LX465,LX465,,,,,Skid Steer Loader - 976.0 to 1251.0 Lb Operating Capacity,Washington,SSL,Skid Steer Loaders,,OROPS,None or Unspecified,,,,,,,,,,Standard,,,,,,None or Unspecified,None or Unspecified,None or Unspecified,Standard,,,,,,,,,,,
14754,1667420,12000,1366441,132,1.0,1997,,,9/17/1998 0:00,LX465,LX465,,,,,Skid Steer Loader - 976.0 to 1251.0 Lb Operating Capacity,Washington,SSL,Skid Steer Loaders,,OROPS,None or Unspecified,,,,,,,,,,Standard,,,,,,None or Unspecified,None or Unspecified,None or Unspecified,Standard,,,,,,,,,,,
14754,1667537,9000,1314469,132,2.0,1998,,,11/4/2000 0:00,LX465,LX465,,,,,Skid Steer Loader - 976.0 to 1251.0 Lb Operating Capacity,New York,SSL,Skid Steer Loaders,,OROPS,None or Unspecified,,,,,,,,,,Standard,,,,,,None or Unspecified,None or Unspecified,None or Unspecified,Standard,,,,,,,,,,,
14754,1667543,9500,1364707,132,1.0,1998,,,4/4/2002 0:00,LX465,LX465,,,,,Skid Steer Loader - 976.0 to 1251.0 Lb Operating Capacity,Colorado,SSL,Skid Steer Loaders,,OROPS,None or Unspecified,,,,,,,,,,Standard,,,,,,None or Unspecified,None or Unspecified,None or Unspecified,Standard,,,,,,,,,,,
14754,1667552,9250,1151237,132,2.0,1998,,,4/29/2001 0:00,LX465,LX465,,,,,Skid Steer Loader - 976.0 to 1251.0 Lb Operating Capacity,New York,SSL,Skid Steer Loaders,,OROPS,None or Unspecified,,,,,,,,,,Standard,,,,,,None or Unspecified,None or Unspecified,None or Unspecified,Standard,,,,,,,,,,,
14754,1667555,10500,1284802,132,1.0,1998,,,3/30/2004 0:00,LX465,LX465,,,,,Skid Steer Loader - 976.0 to 1251.0 Lb Operating Capacity,Washington,SSL,Skid Steer Loaders,,OROPS,None or Unspecified,,,,,,,,,,Standard,,,,,,None or Unspecified,None or Unspecified,None or Unspecified,Standard,,,,,,,,,,,
14754,1667556,7500,1093025,132,1.0,1999,,,4/18/2002 0:00,LX465,LX465,,,,,Skid Steer Loader - 976.0 to 1251.0 Lb Operating Capacity,Utah,SSL,Skid Steer Loaders,,OROPS,None or Unspecified,,,,,,,,,,Standard,,,,,,None or Unspecified,None or Unspecified,None or Unspecified,Standard,,,,,,,,,,,
