ModelID,SalesID,SalePrice,MachineID,datasource,auctioneerID,YearMade,MachineHoursCurrentMeter,UsageBand,saledate,fiModelDesc,fiBaseModel,fiSecondaryDesc,fiModelSeries,fiModelDescriptor,ProductSize,fiProductClassDesc,state,ProductGroup,ProductGroupDesc,Drive_System,Enclosure,Forks,Pad_Type,Ride_Control,Stick,Transmission,Turbocharged,Blade_Extension,Blade_Width,Enclosure_Type,Engine_Horsepower,Hydraulics,Pushblock,Ripper,Scarifier,Tip_Control,Tire_Size,Coupler,Coupler_System,Grouser_Tracks,Hydraulics_Flow,Track_Type,Undercarriage_Pad_Width,Stick_Length,Thumb,Pattern_Changer,Grouser_Type,Backhoe_Mounting,Blade_Type,Travel_Controls,Differential_Type,Steering_Controls
15044,1148143,35000,1056314,121,3.0,1995,10304.0,Medium,7/28/2005 0:00,EX200LC3,EX200,,LC,3,Large / Medium,"Hydraulic Excavator, Track - 19.0 to 21.0 Metric Tons",West Virginia,TEX,Track Excavators,,EROPS,,,,,,,,,,,Auxiliary,,,,,,Manual,,,,Steel,None or Unspecified,"9' 7""",None or Unspecified,None or Unspecified,Double,,,,,
15044,1153789,20500,1036748,121,3.0,1994,0.0,,12/1/2005 0:00,EX200LC3,EX200,,LC,3,Large / Medium,"Hydraulic Excavator, Track - 19.0 to 21.0 Metric Tons",Georgia,TEX,Track Excavators,,EROPS,,,,,,,,,,,Standard,,,,,,None or Unspecified,,,,Steel,None or Unspecified,"9' 6""",Manual,None or Unspecified,Double,,,,,
15044,1213049,26000,1046509,121,3.0,1000,15735.0,Medium,3/31/2011 0:00,EX200LC3,EX200,,LC,3,Large / Medium,"Hydraulic Excavator, Track - 19.0 to 21.0 Metric Tons",North Dakota,TEX,Track Excavators,,EROPS,,,,,,,,,,,Standard,,,,,,None or Unspecified,,,,Steel,None or Unspecified,None or Unspecified,None or Unspecified,None or Unspecified,Double,,,,,
15044,1682095,35000,1262294,132,6.0,1995,,,12/9/1998 0:00,EX200LC3,EX200,,LC,3,Large / Medium,"Hydraulic Excavator, Track - 19.0 to 21.0 Metric Tons",Texas,TEX,Track Excavators,,EROPS,,,,,,,,,,,Standard,,,,,,None or Unspecified,,,,Steel,32 inch,"9' 6""",None or Unspecified,None or Unspecified,Double,,,,,
15044,1682321,32000,1105073,132,19.0,1997,,,10/26/2006 0:00,EX200LC3,EX200,,LC,3,Large / Medium,"Hydraulic Excavator, Track - 19.0 to 21.0 Metric Tons",Arkansas,TEX,Track Excavators,,EROPS w AC,,,,,,,,,,,Standard,,,,,,None or Unspecified,,,,Steel,32 inch,None or Unspecified,None or Unspecified,None or Unspecified,Triple,,,,,
15044,1682529,21000,1135331,132,2.0,1000,,,10/16/1999 0:00,EX200LC3,EX200,,LC,3,Large / Medium,"Hydraulic Excavator, Track - 19.0 to 21.0 Metric Tons",New York,TEX,Track Excavators,,EROPS,,,,,,,,,,,Standard,,,,,,None or Unspecified,,,,Steel,None or Unspecified,None or Unspecified,None or Unspecified,None or Unspecified,Double,,,,,
15044,1682973,29000,1238488,132,24.0,1993,,,5/27/1998 0:00,EX200LC3,EX200,,LC,3,Large / Medium,"Hydraulic Excavator, Track - 19.0 to 21.0 Metric Tons",Utah,TEX,Track Excavators,,EROPS,,,,,,,,,,,Standard,,,,,,None or Unspecified,,,,Steel,None or Unspecified,None or Unspecified,None or Unspecified,None or Unspecified,Triple,,,,,
15044,1683123,69000,1251366,132,4.0,1993,,,2/6/1997 0:00,EX200LC3,EX200,,LC,3,Large / Medium,"Hydraulic Excavator, Track - 19.0 to 21.0 Metric Tons",Florida,TEX,Track Excavators,,EROPS,,,,,,,,,,,Standard,,,,,,None or Unspecified,,,,Steel,None or Unspecified,"9' 7""",None or Unspecified,None or Unspecified,Double,,,,,
15044,1683173,30000,1417813,132,11.0,1993,,,9/1/1999 0:00,EX200LC3,EX200,,LC,3,Large / Medium,"Hydraulic Excavator, Track - 19.0 to 21.0 Metric Tons",Mississippi,TEX,Track Excavators,,EROPS,,,,,,,,,,,Standard,,,,,,None or Unspecified,,,,Steel,32 inch,"9' 7""",None or Unspecified,None or Unspecified,Double,,,,,
15044,1683251,45000,1256324,132,7.0,1991,,,6/5/1998 0:00,EX200LC3,EX200,,LC,3,Large / Medium,"Hydraulic Excavator, Track - 19.0 to 21.0 Metric Tons",Alabama,TEX,Track Excavators,,EROPS,,,,,,,,,,,Standard,,,,,,None or Unspecified,,,,Steel,32 inch,None or Unspecified,Manual,None or Unspecified,Triple,,,,,
15044,1683536,20500,1199496,132,1.0,1000,,,10/6/2004 0:00,EX200LC3,EX200,,LC,3,Large / Medium,"Hydraulic Excavator, Track - 19.0 to 21.0 Metric Tons",Maryland,TEX,Track Excavators,,EROPS,,,,,,,,,,,Auxiliary,,,,,,None or Unspecified,,,,Steel,None or Unspecified,None or Unspecified,None or Unspecified,None or Unspecified,Double,,,,,
15044,1683547,30000,1461257,132,1.0,1993,,,12/2/1999 0:00,EX200LC3,EX200,,LC,3,Large / Medium,"Hydraulic Excavator, Track - 19.0 to 21.0 Metric Tons",Washington,TEX,Track Excavators,,EROPS,,,,,,,,,,,Standard,,,,,,None or Unspecified,,,,Steel,None or Unspecified,None or Unspecified,Manual,None or Unspecified,Double,,,,,
15044,1683560,33000,1536594,132,22.0,1994,,,12/12/2000 0:00,EX200LC3,EX200,,LC,3,Large / Medium,"Hydraulic Excavator, Track - 19.0 to 21.0 Metric Tons",Minnesota,TEX,Track Excavators,,EROPS,,,,,,,,,,,Standard,,,,,,None or Unspecified,,,,Steel,None or Unspecified,None or Unspecified,None or Unspecified,None or Unspecified,Double,,,,,
15044,1683561,37500,1536594,132,22.0,1000,,,3/27/2001 0:00,EX200LC3,EX200,,LC,3,Large / Medium,"Hydraulic Excavator, Track - 19.0 to 21.0 Metric Tons",Minnesota,TEX,Track Excavators,,EROPS,,,,,,,,,,,Standard,,,,,,None or Unspecified,,,,Steel,None or Unspecified,None or Unspecified,None or Unspecified,None or Unspecified,Double,,,,,
15044,1683562,43000,1121517,132,15.0,1994,,,3/4/2000 0:00,EX200LC3,EX200,,LC,3,Large / Medium,"Hydraulic Excavator, Track - 19.0 to 21.0 Metric Tons",Pennsylvania,TEX,Track Excavators,,EROPS,,,,,,,,,,,Standard,,,,,,None or Unspecified,,,,Steel,32 inch,None or Unspecified,None or Unspecified,None or Unspecified,Triple,,,,,
15044,1683568,39000,1167187,132,99.0,1000,,,7/20/2000 0:00,EX200LC3,EX200,,LC,3,Large / Medium,"Hydraulic Excavator, Track - 19.0 to 21.0 Metric Tons",South Carolina,TEX,Track Excavators,,EROPS w AC,,,,,,,,,,,Standard,,,,,,None or Unspecified,,,,Steel,31 inch,None or Unspecified,None or Unspecified,None or Unspecified,Double,,,,,
15044,1683574,46000,1301210,132,2.0,1994,,,1/15/2000 0:00,EX200LC3,EX200,,LC,3,Large / Medium,"Hydraulic Excavator, Track - 19.0 to 21.0 Metric Tons",New York,TEX,Track Excavators,,EROPS w AC,,,,,,,,,,,Standard,,,,,,None or Unspecified,,,,Steel,32 inch,None or Unspecified,None or Unspecified,None or Unspecified,Double,,,,,
15044,1683582,37500,1119292,132,9.0,1000,,,11/16/2000 0:00,EX200LC3,EX200,,LC,3,Large / Medium,"Hydraulic Excavator, Track - 19.0 to 21.0 Metric Tons",South Carolina,TEX,Track Excavators,,EROPS,,,,,,,,,,,Standard,,,,,,None or Unspecified,,,,Steel,32 inch,None or Unspecified,None or Unspecified,None or Unspecified,Triple,,,,,
15044,1683583,31000,1212723,132,22.0,1995,,,12/12/2000 0:00,EX200LC3,EX200,,LC,3,Large / Medium,"Hydraulic Excavator, Track - 19.0 to 21.0 Metric Tons",Minnesota,TEX,Track Excavators,,EROPS,,,,,,,,,,,Standard,,,,,,None or Unspecified,,,,Steel,None or Unspecified,None or Unspecified,None or Unspecified,None or Unspecified,Double,,,,,
15044,1683588,37000,1106628,132,22.0,1995,,,12/12/2000 0:00,EX200LC3,EX200,,LC,3,Large / Medium,"Hydraulic Excavator, Track - 19.0 to 21.0 Metric Tons",Minnesota,TEX,Track Excavators,,EROPS,,,,,,,,,,,Standard,,,,,,None or Unspecified,,,,Steel,None or Unspecified,None or Unspecified,None or Unspecified,None or Unspecified,Double,,,,,
15044,1683595,61000,1424592,132,1.0,1995,,,3/22/2000 0:00,EX200LC3,EX200,,LC,3,Large / Medium,"Hydraulic Excavator, Track - 19.0 to 21.0 Metric Tons",Washington,TEX,Track Excavators,,EROPS,,,,,,,,,,,Standard,,,,,,Manual,,,,Steel,None or Unspecified,None or Unspecified,Manual,None or Unspecified,Double,,,,,
15044,1683604,41000,1409137,132,11.0,1995,,,5/26/1999 0:00,EX200LC3,EX200,,LC,3,Large / Medium,"Hydraulic Excavator, Track - 19.0 to 21.0 Metric Tons",Mississippi,TEX,Track Excavators,,EROPS w AC,,,,,,,,,,,Standard,,,,,,None or Unspecified,,,,Steel,None or Unspecified,None or Unspecified,None or Unspecified,None or Unspecified,Double,,,,,
15044,1683605,75000,1516342,132,1.0,1995,,,10/21/1997 0:00,EX200LC3,EX200,,LC,3,Large / Medium,"Hydraulic Excavator, Track - 19.0 to 21.0 Metric Tons",Wisconsin,TEX,Track Excavators,,EROPS,,,,,,,,,,,Standard,,,,,,None or Unspecified,,,,Steel,None or Unspecified,"9' 6""",None or Unspecified,None or Unspecified,Double,,,,,
15044,1683613,43000,1212029,132,10.0,1000,,,8/9/2000 0:00,EX200LC3,EX200,,LC,3,Large / Medium,"Hydraulic Excavator, Track - 19.0 to 21.0 Metric Tons",Louisiana,TEX,Track Excavators,,EROPS,,,,,,,,,,,Standard,,,,,,None or Unspecified,,,,Steel,None or Unspecified,None or Unspecified,None or Unspecified,None or Unspecified,Triple,,,,,
15044,1683619,24500,1456915,132,7.0,1000,,,2/28/2002 0:00,EX200LC3,EX200,,LC,3,Large / Medium,"Hydraulic Excavator, Track - 19.0 to 21.0 Metric Tons",Alabama,TEX,Track Excavators,,EROPS w AC,,,,,,,,,,,Standard,,,,,,None or Unspecified,,,,Steel,32 inch,None or Unspecified,Manual,None or Unspecified,Triple,,,,,
15044,1683621,25000,1373345,132,7.0,1996,,,10/18/2002 0:00,EX200LC3,EX200,,LC,3,Large / Medium,"Hydraulic Excavator, Track - 19.0 to 21.0 Metric Tons",South Carolina,TEX,Track Excavators,,EROPS,,,,,,,,,,,Standard,,,,,,None or Unspecified,,,,Steel,32 inch,"9' 6""",None or Unspecified,None or Unspecified,Triple,,,,,
15044,1683624,30000,1268276,132,2.0,1996,,,9/23/2005 0:00,EX200LC3,EX200,,LC,3,Large / Medium,"Hydraulic Excavator, Track - 19.0 to 21.0 Metric Tons",New Jersey,TEX,Track Excavators,,EROPS w AC,,,,,,,,,,,Standard,,,,,,None or Unspecified,,,,Steel,32 inch,None or Unspecified,None or Unspecified,None or Unspecified,Double,,,,,
15044,1683630,25500,1173207,132,7.0,1995,,,6/3/2004 0:00,EX200LC3,EX200,,LC,3,Large / Medium,"Hydraulic Excavator, Track - 19.0 to 21.0 Metric Tons",Alabama,TEX,Track Excavators,,EROPS,,,,,,,,,,,Standard,,,,,,None or Unspecified,,,,Steel,32 inch,"9' 6""",None or Unspecified,None or Unspecified,Triple,,,,,
15044,1683631,32000,1103193,132,1.0,1000,,,5/12/2005 0:00,EX200LC3,EX200,,LC,3,Large / Medium,"Hydraulic Excavator, Track - 19.0 to 21.0 Metric Tons",Texas,TEX,Track Excavators,,EROPS,,,,,,,,,,,Standard,,,,,,None or Unspecified,,,,Steel,None or Unspecified,"9' 6""",None or Unspecified,None or Unspecified,Double,,,,,
15044,1683635,41500,1194254,132,9.0,1994,,,2/15/2000 0:00,EX200LC3,EX200,,LC,3,Large / Medium,"Hydraulic Excavator, Track - 19.0 to 21.0 Metric Tons",Florida,TEX,Track Excavators,,EROPS w AC,,,,,,,,,,,Standard,,,,,,None or Unspecified,,,,Steel,24 inch,None or Unspecified,None or Unspecified,None or Unspecified,Triple,,,,,
15044,1683636,35500,1132484,132,9.0,1994,,,2/15/2000 0:00,EX200LC3,EX200,,LC,3,Large / Medium,"Hydraulic Excavator, Track - 19.0 to 21.0 Metric Tons",Florida,TEX,Track Excavators,,EROPS w AC,,,,,,,,,,,Standard,,,,,,None or Unspecified,,,,Steel,24 inch,None or Unspecified,None or Unspecified,None or Unspecified,Triple,,,,,
15044,1683637,35000,1189276,132,4.0,1995,,,2/17/2001 0:00,EX200LC3,EX200,,LC,3,Large / Medium,"Hydraulic Excavator, Track - 19.0 to 21.0 Metric Tons",Florida,TEX,Track Excavators,,EROPS w AC,,,,,,,,,,,Standard,,,,,,None or Unspecified,,,,Steel,32 inch,None or Unspecified,None or Unspecified,None or Unspecified,Double,,,,,
15044,1683638,39000,1491938,132,1.0,1994,,,12/7/2001 0:00,EX200LC3,EX200,,LC,3,Large / Medium,"Hydraulic Excavator, Track - 19.0 to 21.0 Metric Tons",Georgia,TEX,Track Excavators,,EROPS w AC,,,,,,,,,,,Auxiliary,,,,,,None or Unspecified,,,,Steel,None or Unspecified,"9' 6""",None or Unspecified,None or Unspecified,Double,,,,,
15044,1683640,32500,1357981,132,2.0,1995,,,12/1/2001 0:00,EX200LC3,EX200,,LC,3,Large / Medium,"Hydraulic Excavator, Track - 19.0 to 21.0 Metric Tons",Connecticut,TEX,Track Excavators,,EROPS,,,,,,,,,,,Standard,,,,,,None or Unspecified,,,,Steel,32 inch,None or Unspecified,None or Unspecified,None or Unspecified,Double,,,,,
15044,1683641,40000,1116900,132,7.0,1000,,,12/1/2000 0:00,EX200LC3,EX200,,LC,3,Large / Medium,"Hydraulic Excavator, Track - 19.0 to 21.0 Metric Tons",Alabama,TEX,Track Excavators,,EROPS w AC,,,,,,,,,,,Standard,,,,,,None or Unspecified,,,,Steel,24 inch,"9' 6""",None or Unspecified,None or Unspecified,Triple,,,,,
15044,1683642,42500,1116900,132,4.0,1994,,,2/17/2001 0:00,EX200LC3,EX200,,LC,3,Large / Medium,"Hydraulic Excavator, Track - 19.0 to 21.0 Metric Tons",Florida,TEX,Track Excavators,,EROPS w AC,,,,,,,,,,,Standard,,,,,,None or Unspecified,,,,Steel,24 inch,"9' 6""",None or Unspecified,None or Unspecified,Triple,,,,,
15044,1683643,43000,1116900,132,7.0,1000,,,9/15/2000 0:00,EX200LC3,EX200,,LC,3,Large / Medium,"Hydraulic Excavator, Track - 19.0 to 21.0 Metric Tons",Alabama,TEX,Track Excavators,,EROPS w AC,,,,,,,,,,,Standard,,,,,,None or Unspecified,,,,Steel,24 inch,"9' 6""",None or Unspecified,None or Unspecified,Triple,,,,,
15044,1683644,35000,1322533,132,28.0,1000,,,3/9/2001 0:00,EX200LC3,EX200,,LC,3,Large / Medium,"Hydraulic Excavator, Track - 19.0 to 21.0 Metric Tons",Mississippi,TEX,Track Excavators,,EROPS,,,,,,,,,,,Standard,,,,,,None or Unspecified,,,,Steel,None or Unspecified,None or Unspecified,None or Unspecified,None or Unspecified,Double,,,,,
15044,1683645,25000,1322533,132,28.0,1000,,,6/1/2001 0:00,EX200LC3,EX200,,LC,3,Large / Medium,"Hydraulic Excavator, Track - 19.0 to 21.0 Metric Tons",Mississippi,TEX,Track Excavators,,EROPS,,,,,,,,,,,Standard,,,,,,None or Unspecified,,,,Steel,None or Unspecified,None or Unspecified,None or Unspecified,None or Unspecified,Double,,,,,
15044,1683647,33000,1322533,132,4.0,1000,,,2/11/2002 0:00,EX200LC3,EX200,,LC,3,Large / Medium,"Hydraulic Excavator, Track - 19.0 to 21.0 Metric Tons",Florida,TEX,Track Excavators,,EROPS,,,,,,,,,,,Standard,,,,,,None or Unspecified,,,,Steel,None or Unspecified,None or Unspecified,None or Unspecified,None or Unspecified,Double,,,,,
15044,1683653,51000,1389068,132,6.0,1994,,,11/12/1997 0:00,EX200LC3,EX200,,LC,3,Large / Medium,"Hydraulic Excavator, Track - 19.0 to 21.0 Metric Tons",Maryland,TEX,Track Excavators,,EROPS,,,,,,,,,,,Standard,,,,,,None or Unspecified,,,,Steel,32 inch,None or Unspecified,None or Unspecified,None or Unspecified,Double,,,,,
15044,1683660,42000,1518808,132,2.0,1000,,,2/7/2000 0:00,EX200LC3,EX200,,LC,3,Large / Medium,"Hydraulic Excavator, Track - 19.0 to 21.0 Metric Tons",Florida,TEX,Track Excavators,,EROPS,,,,,,,,,,,Standard,,,,,,None or Unspecified,,,,Steel,None or Unspecified,None or Unspecified,None or Unspecified,None or Unspecified,Double,,,,,
15044,1683661,35000,1431659,132,1.0,1000,,,3/8/2007 0:00,EX200LC3,EX200,,LC,3,Large / Medium,"Hydraulic Excavator, Track - 19.0 to 21.0 Metric Tons",Illinois,TEX,Track Excavators,,EROPS,,,,,,,,,,,Auxiliary,,,,,,None or Unspecified,,,,Steel,None or Unspecified,"9' 8""",Hydraulic,None or Unspecified,Double,,,,,
15044,1683668,41000,1152659,132,1.0,1994,,,6/8/2000 0:00,EX200LC3,EX200,,LC,3,Large / Medium,"Hydraulic Excavator, Track - 19.0 to 21.0 Metric Tons",Maryland,TEX,Track Excavators,,EROPS,,,,,,,,,,,Standard,,,,,,None or Unspecified,,,,Steel,None or Unspecified,None or Unspecified,Manual,None or Unspecified,Double,,,,,
15044,1683672,31000,1367686,132,1.0,1994,,,6/28/2005 0:00,EX200LC3,EX200,,LC,3,Large / Medium,"Hydraulic Excavator, Track - 19.0 to 21.0 Metric Tons",Maryland,TEX,Track Excavators,,EROPS,,,,,,,,,,,Auxiliary,,,,,,None or Unspecified,,,,Steel,None or Unspecified,None or Unspecified,None or Unspecified,None or Unspecified,Double,,,,,
15044,1683674,31000,995958,132,1.0,1994,,,6/27/2000 0:00,EX200LC3,EX200,,LC,3,Large / Medium,"Hydraulic Excavator, Track - 19.0 to 21.0 Metric Tons",Colorado,TEX,Track Excavators,,EROPS,,,,,,,,,,,Standard,,,,,,None or Unspecified,,,,Steel,None or Unspecified,None or Unspecified,None or Unspecified,None or Unspecified,Double,,,,,
15044,1683681,22500,1396346,132,2.0,1000,,,1/13/2001 0:00,EX200LC3,EX200,,LC,3,Large / Medium,"Hydraulic Excavator, Track - 19.0 to 21.0 Metric Tons",New York,TEX,Track Excavators,,EROPS w AC,,,,,,,,,,,Standard,,,,,,None or Unspecified,,,,Steel,None or Unspecified,None or Unspecified,None or Unspecified,None or Unspecified,Double,,,,,
15044,1683683,46000,1162340,132,1.0,1994,,,3/15/2001 0:00,EX200LC3,EX200,,LC,3,Large / Medium,"Hydraulic Excavator, Track - 19.0 to 21.0 Metric Tons",Colorado,TEX,Track Excavators,,EROPS,,,,,,,,,,,Standard,,,,,,None or Unspecified,,,,Steel,None or Unspecified,"9' 6""",None or Unspecified,None or Unspecified,Double,,,,,
15044,1683684,24000,1434054,132,4.0,1000,,,2/7/2011 0:00,EX200LC3,EX200,,LC,3,Large / Medium,"Hydraulic Excavator, Track - 19.0 to 21.0 Metric Tons",Florida,TEX,Track Excavators,,EROPS,,,,,,,,,,,Standard,,,,,,None or Unspecified,,,,Steel,None or Unspecified,None or Unspecified,None or Unspecified,None or Unspecified,Double,,,,,
15044,1683685,24000,1434054,132,4.0,1994,,,2/10/2011 0:00,EX200LC3,EX200,,LC,3,Large / Medium,"Hydraulic Excavator, Track - 19.0 to 21.0 Metric Tons",Florida,TEX,Track Excavators,,EROPS,,,,,,,,,,,Standard,,,,,,None or Unspecified,,,,Steel,None or Unspecified,None or Unspecified,None or Unspecified,None or Unspecified,Double,,,,,
15044,1683688,49500,1272760,132,2.0,1994,3734.0,Medium,11/20/1999 0:00,EX200LC3,EX200,,LC,3,Large / Medium,"Hydraulic Excavator, Track - 19.0 to 21.0 Metric Tons",Ohio,TEX,Track Excavators,,EROPS w AC,,,,,,,,,,,Standard,,,,,,None or Unspecified,,,,Steel,32 inch,None or Unspecified,None or Unspecified,None or Unspecified,Double,,,,,
15044,1683689,33000,1080979,132,1.0,1994,,,5/20/2004 0:00,EX200LC3,EX200,,LC,3,Large / Medium,"Hydraulic Excavator, Track - 19.0 to 21.0 Metric Tons",Texas,TEX,Track Excavators,,EROPS,,,,,,,,,,,Standard,,,,,,None or Unspecified,,,,Steel,None or Unspecified,None or Unspecified,None or Unspecified,None or Unspecified,Double,,,,,
15044,1683694,35000,1295182,132,1.0,1994,,,9/25/2001 0:00,EX200LC3,EX200,,LC,3,Large / Medium,"Hydraulic Excavator, Track - 19.0 to 21.0 Metric Tons",Washington,TEX,Track Excavators,,EROPS,,,,,,,,,,,Standard,,,,,,None or Unspecified,,,,Steel,None or Unspecified,None or Unspecified,Manual,None or Unspecified,Double,,,,,
15044,1683695,27500,1229309,132,11.0,1000,,,12/6/2000 0:00,EX200LC3,EX200,,LC,3,Large / Medium,"Hydraulic Excavator, Track - 19.0 to 21.0 Metric Tons",Mississippi,TEX,Track Excavators,,EROPS w AC,,,,,,,,,,,Standard,,,,,,None or Unspecified,,,,Steel,32 inch,"9' 6""",None or Unspecified,None or Unspecified,Triple,,,,,
15044,1683696,37500,1229309,132,2.0,1995,,,2/8/2001 0:00,EX200LC3,EX200,,LC,3,Large / Medium,"Hydraulic Excavator, Track - 19.0 to 21.0 Metric Tons",Florida,TEX,Track Excavators,,EROPS w AC,,,,,,,,,,,Standard,,,,,,None or Unspecified,,,,Steel,32 inch,"9' 6""",None or Unspecified,None or Unspecified,Triple,,,,,
15044,1683697,46000,1229309,132,7.0,1996,,,6/1/2000 0:00,EX200LC3,EX200,,LC,3,Large / Medium,"Hydraulic Excavator, Track - 19.0 to 21.0 Metric Tons",Alabama,TEX,Track Excavators,,EROPS w AC,,,,,,,,,,,Standard,,,,,,None or Unspecified,,,,Steel,32 inch,"9' 6""",None or Unspecified,None or Unspecified,Triple,,,,,
15044,1683698,30000,1515252,132,6.0,1994,,,12/9/1998 0:00,EX200LC3,EX200,,LC,3,Large / Medium,"Hydraulic Excavator, Track - 19.0 to 21.0 Metric Tons",Texas,TEX,Track Excavators,,EROPS w AC,,,,,,,,,,,Standard,,,,,,None or Unspecified,,,,Steel,32 inch,"9' 6""",None or Unspecified,None or Unspecified,Double,,,,,
15044,1683699,45000,1515252,132,2.0,1995,,,8/14/1999 0:00,EX200LC3,EX200,,LC,3,Large / Medium,"Hydraulic Excavator, Track - 19.0 to 21.0 Metric Tons",Tennessee,TEX,Track Excavators,,EROPS w AC,,,,,,,,,,,Standard,,,,,,None or Unspecified,,,,Steel,32 inch,"9' 6""",None or Unspecified,None or Unspecified,Double,,,,,
15044,1683703,36000,1166879,132,19.0,1994,,,11/22/2002 0:00,EX200LC3,EX200,,LC,3,Large / Medium,"Hydraulic Excavator, Track - 19.0 to 21.0 Metric Tons",California,TEX,Track Excavators,,EROPS,,,,,,,,,,,Auxiliary,,,,,,None or Unspecified,,,,Steel,32 inch,"9' 6""",Manual,None or Unspecified,Triple,,,,,
15044,1683705,30500,1166190,132,5.0,1000,,,3/23/2001 0:00,EX200LC3,EX200,,LC,3,Large / Medium,"Hydraulic Excavator, Track - 19.0 to 21.0 Metric Tons",Connecticut,TEX,Track Excavators,,EROPS,,,,,,,,,,,Auxiliary,,,,,,None or Unspecified,,,,Steel,32 inch,"9' 6""",None or Unspecified,None or Unspecified,Double,,,,,
15044,1683706,34000,1166190,132,1.0,1994,,,9/28/2000 0:00,EX200LC3,EX200,,LC,3,Large / Medium,"Hydraulic Excavator, Track - 19.0 to 21.0 Metric Tons",Maryland,TEX,Track Excavators,,EROPS,,,,,,,,,,,Auxiliary,,,,,,None or Unspecified,,,,Steel,32 inch,"9' 6""",None or Unspecified,None or Unspecified,Double,,,,,
15044,1683707,39000,1166190,132,5.0,1994,,,11/10/2000 0:00,EX200LC3,EX200,,LC,3,Large / Medium,"Hydraulic Excavator, Track - 19.0 to 21.0 Metric Tons",New York,TEX,Track Excavators,,EROPS,,,,,,,,,,,Auxiliary,,,,,,None or Unspecified,,,,Steel,32 inch,"9' 6""",None or Unspecified,None or Unspecified,Double,,,,,
15044,1683708,30000,1523581,132,1.0,1000,,,6/27/2006 0:00,EX200LC3,EX200,,LC,3,Large / Medium,"Hydraulic Excavator, Track - 19.0 to 21.0 Metric Tons",North Carolina,TEX,Track Excavators,,EROPS w AC,,,,,,,,,,,Standard,,,,,,None or Unspecified,,,,Steel,None or Unspecified,"9' 6""",None or Unspecified,None or Unspecified,Double,,,,,
15044,1683710,38000,1466243,132,9.0,1000,,,2/9/1999 0:00,EX200LC3,EX200,,LC,3,Large / Medium,"Hydraulic Excavator, Track - 19.0 to 21.0 Metric Tons",Florida,TEX,Track Excavators,,EROPS,,,,,,,,,,,Standard,,,,,,None or Unspecified,,,,Steel,None or Unspecified,None or Unspecified,None or Unspecified,None or Unspecified,Double,,,,,
15044,1683711,38500,1294501,132,9.0,1000,,,2/9/1999 0:00,EX200LC3,EX200,,LC,3,Large / Medium,"Hydraulic Excavator, Track - 19.0 to 21.0 Metric Tons",Florida,TEX,Track Excavators,,EROPS,,,,,,,,,,,Standard,,,,,,None or Unspecified,,,,Steel,24 inch,None or Unspecified,None or Unspecified,None or Unspecified,Double,,,,,
15044,1683713,65000,1452380,132,99.0,1994,,,4/27/2000 0:00,EX200LC3,EX200,,LC,3,Large / Medium,"Hydraulic Excavator, Track - 19.0 to 21.0 Metric Tons",South Carolina,TEX,Track Excavators,,EROPS w AC,,,,,,,,,,,Standard,,,,,,None or Unspecified,,,,Steel,32 inch,None or Unspecified,None or Unspecified,None or Unspecified,Triple,,,,,
15044,1683714,61000,1452380,132,11.0,1995,,,5/26/1999 0:00,EX200LC3,EX200,,LC,3,Large / Medium,"Hydraulic Excavator, Track - 19.0 to 21.0 Metric Tons",Mississippi,TEX,Track Excavators,,EROPS w AC,,,,,,,,,,,Standard,,,,,,None or Unspecified,,,,Steel,32 inch,None or Unspecified,None or Unspecified,None or Unspecified,Triple,,,,,
15044,1683715,32000,1075006,132,1.0,1994,,,3/1/2005 0:00,EX200LC3,EX200,,LC,3,Large / Medium,"Hydraulic Excavator, Track - 19.0 to 21.0 Metric Tons",Illinois,TEX,Track Excavators,,EROPS,,,,,,,,,,,Standard,,,,,,None or Unspecified,,,,Steel,None or Unspecified,"9' 7""",None or Unspecified,None or Unspecified,Double,,,,,
15044,1683716,31000,1121710,132,1.0,1994,,,12/7/2000 0:00,EX200LC3,EX200,,LC,3,Large / Medium,"Hydraulic Excavator, Track - 19.0 to 21.0 Metric Tons",Washington,TEX,Track Excavators,,EROPS,,,,,,,,,,,Standard,,,,,,None or Unspecified,,,,Steel,None or Unspecified,None or Unspecified,Manual,None or Unspecified,Double,,,,,
15044,1683717,28000,1269881,132,1.0,1000,,,6/23/2005 0:00,EX200LC3,EX200,,LC,3,Large / Medium,"Hydraulic Excavator, Track - 19.0 to 21.0 Metric Tons",Washington,TEX,Track Excavators,,EROPS,,,,,,,,,,,Standard,,,,,,None or Unspecified,,,,Steel,None or Unspecified,None or Unspecified,None or Unspecified,None or Unspecified,Double,,,,,
15044,1683721,31500,1521587,132,10.0,1994,,,11/11/1999 0:00,EX200LC3,EX200,,LC,3,Large / Medium,"Hydraulic Excavator, Track - 19.0 to 21.0 Metric Tons",Louisiana,TEX,Track Excavators,,EROPS,,,,,,,,,,,Standard,,,,,,None or Unspecified,,,,Steel,32 inch,None or Unspecified,None or Unspecified,None or Unspecified,Triple,,,,,
15044,1683722,25250,1084086,132,20.0,1995,,,3/16/2011 0:00,EX200LC3,EX200,,LC,3,Large / Medium,"Hydraulic Excavator, Track - 19.0 to 21.0 Metric Tons",Oklahoma,TEX,Track Excavators,,EROPS,,,,,,,,,,,Standard,,,,,,None or Unspecified,,,,Steel,32 inch,None or Unspecified,None or Unspecified,None or Unspecified,Triple,,,,,
15044,1683723,29500,1252620,132,14.0,1995,,,5/31/2001 0:00,EX200LC3,EX200,,LC,3,Large / Medium,"Hydraulic Excavator, Track - 19.0 to 21.0 Metric Tons",Indiana,TEX,Track Excavators,,EROPS,,,,,,,,,,,Standard,,,,,,None or Unspecified,,,,Steel,None or Unspecified,None or Unspecified,None or Unspecified,None or Unspecified,Double,,,,,
15044,1683724,34000,1101693,132,1.0,1994,,,3/29/2002 0:00,EX200LC3,EX200,,LC,3,Large / Medium,"Hydraulic Excavator, Track - 19.0 to 21.0 Metric Tons",North Carolina,TEX,Track Excavators,,EROPS w AC,,,,,,,,,,,Standard,,,,,,None or Unspecified,,,,Steel,None or Unspecified,"9' 7""",Manual,None or Unspecified,Double,,,,,
15044,1683725,34000,1151058,132,11.0,1994,,,1/25/2001 0:00,EX200LC3,EX200,,LC,3,Large / Medium,"Hydraulic Excavator, Track - 19.0 to 21.0 Metric Tons",South Carolina,TEX,Track Excavators,,EROPS,,,,,,,,,,,Standard,,,,,,None or Unspecified,,,,Steel,32 inch,None or Unspecified,None or Unspecified,None or Unspecified,Double,,,,,
15044,1683727,31000,1503467,132,1.0,1994,,,12/18/2000 0:00,EX200LC3,EX200,,LC,3,Large / Medium,"Hydraulic Excavator, Track - 19.0 to 21.0 Metric Tons",Maryland,TEX,Track Excavators,,EROPS,,,,,,,,,,,Standard,,,,,,None or Unspecified,,,,Steel,None or Unspecified,"9' 10""",None or Unspecified,None or Unspecified,Double,,,,,
15044,1683728,23000,1258701,132,1.0,1995,,,10/6/2004 0:00,EX200LC3,EX200,,LC,3,Large / Medium,"Hydraulic Excavator, Track - 19.0 to 21.0 Metric Tons",Maryland,TEX,Track Excavators,,EROPS,,,,,,,,,,,Standard,,,,,,None or Unspecified,,,,Steel,None or Unspecified,None or Unspecified,None or Unspecified,None or Unspecified,Double,,,,,
15044,1683729,27500,1115191,132,1.0,1994,,,12/12/2001 0:00,EX200LC3,EX200,,LC,3,Large / Medium,"Hydraulic Excavator, Track - 19.0 to 21.0 Metric Tons",Texas,TEX,Track Excavators,,EROPS,,,,,,,,,,,Standard,,,,,,Manual,,,,Steel,None or Unspecified,"9' 6""",None or Unspecified,None or Unspecified,Double,,,,,
15044,1683731,29000,1491266,132,1.0,1000,,,4/29/2005 0:00,EX200LC3,EX200,,LC,3,Large / Medium,"Hydraulic Excavator, Track - 19.0 to 21.0 Metric Tons",Utah,TEX,Track Excavators,,EROPS,,,,,,,,,,,Standard,,,,,,None or Unspecified,,,,Steel,None or Unspecified,"9' 6""",None or Unspecified,None or Unspecified,Double,,,,,
15044,1683732,26000,1122452,132,1.0,1995,,,6/22/2006 0:00,EX200LC3,EX200,,LC,3,Large / Medium,"Hydraulic Excavator, Track - 19.0 to 21.0 Metric Tons",Colorado,TEX,Track Excavators,,EROPS,,,,,,,,,,,Standard,,,,,,None or Unspecified,,,,Steel,None or Unspecified,"9' 6""",Manual,None or Unspecified,Triple,,,,,
15044,1683733,54000,1208075,132,6.0,1994,,,11/18/1998 0:00,EX200LC3,EX200,,LC,3,Large / Medium,"Hydraulic Excavator, Track - 19.0 to 21.0 Metric Tons",Wisconsin,TEX,Track Excavators,,EROPS,,,,,,,,,,,Standard,,,,,,None or Unspecified,,,,Steel,None or Unspecified,None or Unspecified,None or Unspecified,None or Unspecified,Double,,,,,
15044,1683741,34000,1183128,132,1.0,1995,,,6/1/2002 0:00,EX200LC3,EX200,,LC,3,Large / Medium,"Hydraulic Excavator, Track - 19.0 to 21.0 Metric Tons",Alaska,TEX,Track Excavators,,EROPS,,,,,,,,,,,Standard,,,,,,None or Unspecified,,,,Steel,None or Unspecified,None or Unspecified,Manual,None or Unspecified,Double,,,,,
15044,1683743,13000,1339471,132,12.0,1995,,,9/22/2010 0:00,EX200LC3,EX200,,LC,3,Large / Medium,"Hydraulic Excavator, Track - 19.0 to 21.0 Metric Tons",South Carolina,TEX,Track Excavators,,EROPS,,,,,,,,,,,Standard,,,,,,None or Unspecified,,,,Steel,None or Unspecified,None or Unspecified,None or Unspecified,None or Unspecified,Double,,,,,
15044,1683745,19000,1287632,132,1.0,1995,,,5/29/2003 0:00,EX200LC3,EX200,,LC,3,Large / Medium,"Hydraulic Excavator, Track - 19.0 to 21.0 Metric Tons",New Mexico,TEX,Track Excavators,,EROPS,,,,,,,,,,,Auxiliary,,,,,,None or Unspecified,,,,Steel,None or Unspecified,"9' 6""",None or Unspecified,None or Unspecified,Double,,,,,
15044,1683746,37000,1196398,132,4.0,1997,,,5/4/2006 0:00,EX200LC3,EX200,,LC,3,Large / Medium,"Hydraulic Excavator, Track - 19.0 to 21.0 Metric Tons",Maine,TEX,Track Excavators,,EROPS,,,,,,,,,,,Standard,,,,,,None or Unspecified,,,,Steel,None or Unspecified,None or Unspecified,None or Unspecified,None or Unspecified,Double,,,,,
15044,1683747,23000,1448823,132,20.0,1995,,,11/17/2004 0:00,EX200LC3,EX200,,LC,3,Large / Medium,"Hydraulic Excavator, Track - 19.0 to 21.0 Metric Tons",Arkansas,TEX,Track Excavators,,EROPS w AC,,,,,,,,,,,Standard,,,,,,None or Unspecified,,,,Steel,30 inch,None or Unspecified,None or Unspecified,None or Unspecified,Triple,,,,,
15044,1683748,53000,1331019,132,4.0,1995,,,2/13/2006 0:00,EX200LC3,EX200,,LC,3,Large / Medium,"Hydraulic Excavator, Track - 19.0 to 21.0 Metric Tons",Florida,TEX,Track Excavators,,EROPS,,,,,,,,,,,Auxiliary,,,,,,None or Unspecified,,,,Steel,None or Unspecified,None or Unspecified,None or Unspecified,None or Unspecified,Double,,,,,
15044,1683749,57000,1331019,132,1.0,1995,,,9/28/2000 0:00,EX200LC3,EX200,,LC,3,Large / Medium,"Hydraulic Excavator, Track - 19.0 to 21.0 Metric Tons",Maryland,TEX,Track Excavators,,EROPS,,,,,,,,,,,Auxiliary,,,,,,None or Unspecified,,,,Steel,None or Unspecified,None or Unspecified,None or Unspecified,None or Unspecified,Double,,,,,
15044,1683753,30000,1360368,132,1.0,1995,,,3/30/2004 0:00,EX200LC3,EX200,,LC,3,Large / Medium,"Hydraulic Excavator, Track - 19.0 to 21.0 Metric Tons",Washington,TEX,Track Excavators,,EROPS,,,,,,,,,,,Auxiliary,,,,,,None or Unspecified,,,,Steel,None or Unspecified,None or Unspecified,Manual,None or Unspecified,Double,,,,,
15044,1683757,17500,1503157,132,1.0,1995,,,9/6/2001 0:00,EX200LC3,EX200,,LC,3,Large / Medium,"Hydraulic Excavator, Track - 19.0 to 21.0 Metric Tons",Nevada,TEX,Track Excavators,,EROPS,,,,,,,,,,,Standard,,,,,,None or Unspecified,,,,Steel,None or Unspecified,None or Unspecified,None or Unspecified,None or Unspecified,Double,,,,,
15044,1683761,22000,1302849,132,1.0,1995,,,4/16/2003 0:00,EX200LC3,EX200,,LC,3,Large / Medium,"Hydraulic Excavator, Track - 19.0 to 21.0 Metric Tons",Utah,TEX,Track Excavators,,EROPS,,,,,,,,,,,Standard,,,,,,None or Unspecified,,,,Steel,None or Unspecified,None or Unspecified,None or Unspecified,None or Unspecified,Double,,,,,
15044,1683762,36000,1415778,132,1.0,1995,,,6/23/2004 0:00,EX200LC3,EX200,,LC,3,Large / Medium,"Hydraulic Excavator, Track - 19.0 to 21.0 Metric Tons",Washington,TEX,Track Excavators,,EROPS,,,,,,,,,,,Standard,,,,,,None or Unspecified,,,,Steel,None or Unspecified,None or Unspecified,Manual,None or Unspecified,Double,,,,,
15044,1683763,39000,1415778,132,1.0,1994,,,6/16/1998 0:00,EX200LC3,EX200,,LC,3,Large / Medium,"Hydraulic Excavator, Track - 19.0 to 21.0 Metric Tons",Washington,TEX,Track Excavators,,EROPS,,,,,,,,,,,Standard,,,,,,None or Unspecified,,,,Steel,None or Unspecified,None or Unspecified,Manual,None or Unspecified,Double,,,,,
15044,1683770,46000,1108617,132,1.0,1995,,,3/29/2000 0:00,EX200LC3,EX200,,LC,3,Large / Medium,"Hydraulic Excavator, Track - 19.0 to 21.0 Metric Tons",Maryland,TEX,Track Excavators,,EROPS,,,,,,,,,,,Standard,,,,,,None or Unspecified,,,,Steel,None or Unspecified,"9' 6""",None or Unspecified,None or Unspecified,Double,,,,,
15044,1683771,37000,1393798,132,9.0,1000,,,4/6/2000 0:00,EX200LC3,EX200,,LC,3,Large / Medium,"Hydraulic Excavator, Track - 19.0 to 21.0 Metric Tons",Texas,TEX,Track Excavators,,EROPS,,,,,,,,,,,Standard,,,,,,None or Unspecified,,,,Steel,None or Unspecified,None or Unspecified,None or Unspecified,None or Unspecified,Double,,,,,
15044,1683772,35000,1514459,132,9.0,1994,,,8/29/2002 0:00,EX200LC3,EX200,,LC,3,Large / Medium,"Hydraulic Excavator, Track - 19.0 to 21.0 Metric Tons",South Carolina,TEX,Track Excavators,,EROPS,,,,,,,,,,,Standard,,,,,,None or Unspecified,,,,Steel,24 inch,None or Unspecified,None or Unspecified,None or Unspecified,Triple,,,,,
15044,1683773,38000,1514459,132,22.0,1000,,,9/16/2000 0:00,EX200LC3,EX200,,LC,3,Large / Medium,"Hydraulic Excavator, Track - 19.0 to 21.0 Metric Tons",Minnesota,TEX,Track Excavators,,EROPS,,,,,,,,,,,Standard,,,,,,None or Unspecified,,,,Steel,24 inch,None or Unspecified,None or Unspecified,None or Unspecified,Triple,,,,,
15044,1683778,41000,1114430,132,1.0,1995,,,9/23/1998 0:00,EX200LC3,EX200,,LC,3,Large / Medium,"Hydraulic Excavator, Track - 19.0 to 21.0 Metric Tons",Texas,TEX,Track Excavators,,EROPS w AC,,,,,,,,,,,Standard,,,,,,None or Unspecified,,,,Steel,None or Unspecified,"9' 6""",None or Unspecified,None or Unspecified,Double,,,,,
15044,1683780,36000,1350752,132,13.0,1995,,,9/11/2004 0:00,EX200LC3,EX200,,LC,3,Large / Medium,"Hydraulic Excavator, Track - 19.0 to 21.0 Metric Tons",Tennessee,TEX,Track Excavators,,EROPS,,,,,,,,,,,Standard,,,,,,None or Unspecified,,,,Steel,None or Unspecified,None or Unspecified,None or Unspecified,None or Unspecified,Double,,,,,
15044,1683782,24500,1271107,132,20.0,1995,,,11/17/2004 0:00,EX200LC3,EX200,,LC,3,Large / Medium,"Hydraulic Excavator, Track - 19.0 to 21.0 Metric Tons",Arkansas,TEX,Track Excavators,,EROPS w AC,,,,,,,,,,,Standard,,,,,,None or Unspecified,,,,Steel,30 inch,None or Unspecified,None or Unspecified,None or Unspecified,Triple,,,,,
15044,1683784,32000,1467337,132,1.0,1995,,,3/1/2005 0:00,EX200LC3,EX200,,LC,3,Large / Medium,"Hydraulic Excavator, Track - 19.0 to 21.0 Metric Tons",Illinois,TEX,Track Excavators,,EROPS,,,,,,,,,,,Standard,,,,,,None or Unspecified,,,,Steel,None or Unspecified,"9' 8""",None or Unspecified,None or Unspecified,Double,,,,,
15044,1683786,37500,1177610,132,22.0,1000,,,9/16/2000 0:00,EX200LC3,EX200,,LC,3,Large / Medium,"Hydraulic Excavator, Track - 19.0 to 21.0 Metric Tons",Minnesota,TEX,Track Excavators,,EROPS,,,,,,,,,,,Standard,,,,,,None or Unspecified,,,,Steel,None or Unspecified,None or Unspecified,None or Unspecified,None or Unspecified,Double,,,,,
15044,1683788,28000,1344750,132,1.0,1994,,,12/5/2002 0:00,EX200LC3,EX200,,LC,3,Large / Medium,"Hydraulic Excavator, Track - 19.0 to 21.0 Metric Tons",Illinois,TEX,Track Excavators,,EROPS,,,,,,,,,,,Standard,,,,,,None or Unspecified,,,,Steel,None or Unspecified,None or Unspecified,None or Unspecified,None or Unspecified,Double,,,,,
15044,1683790,38000,1530083,132,1.0,1995,,,12/4/2002 0:00,EX200LC3,EX200,,LC,3,Large / Medium,"Hydraulic Excavator, Track - 19.0 to 21.0 Metric Tons",Washington,TEX,Track Excavators,,EROPS,,,,,,,,,,,Standard,,,,,,Manual,,,,Steel,None or Unspecified,None or Unspecified,Manual,None or Unspecified,Double,,,,,
15044,1683792,46500,1413534,132,9.0,1995,,,12/8/1999 0:00,EX200LC3,EX200,,LC,3,Large / Medium,"Hydraulic Excavator, Track - 19.0 to 21.0 Metric Tons",South Carolina,TEX,Track Excavators,,EROPS w AC,,,,,,,,,,,Standard,,,,,,None or Unspecified,,,,Steel,24 inch,"9' 6""",None or Unspecified,None or Unspecified,Triple,,,,,
15044,1683793,24500,1413534,132,2.0,1996,,,3/27/2003 0:00,EX200LC3,EX200,,LC,3,Large / Medium,"Hydraulic Excavator, Track - 19.0 to 21.0 Metric Tons",New Jersey,TEX,Track Excavators,,EROPS w AC,,,,,,,,,,,Standard,,,,,,None or Unspecified,,,,Steel,24 inch,"9' 6""",None or Unspecified,None or Unspecified,Triple,,,,,
15044,1683797,31000,1532467,132,1.0,1000,,,5/12/2005 0:00,EX200LC3,EX200,,LC,3,Large / Medium,"Hydraulic Excavator, Track - 19.0 to 21.0 Metric Tons",Texas,TEX,Track Excavators,,EROPS,,,,,,,,,,,Standard,,,,,,None or Unspecified,,,,Steel,None or Unspecified,"9' 6""",None or Unspecified,None or Unspecified,Double,,,,,
15044,1683798,32500,1274728,132,1.0,1000,,,12/19/2005 0:00,EX200LC3,EX200,,LC,3,Large / Medium,"Hydraulic Excavator, Track - 19.0 to 21.0 Metric Tons",Ohio,TEX,Track Excavators,,EROPS,,,,,,,,,,,Auxiliary,,,,,,None or Unspecified,,,,Steel,None or Unspecified,"9' 10""",Hydraulic,None or Unspecified,Double,,,,,
15044,1683809,35000,1550127,132,3.0,1995,,,7/28/2005 0:00,EX200LC3,EX200,,LC,3,Large / Medium,"Hydraulic Excavator, Track - 19.0 to 21.0 Metric Tons",Unspecified,TEX,Track Excavators,,EROPS,,,,,,,,,,,Auxiliary,,,,,,Hydraulic,,,,Steel,None or Unspecified,"9' 7""",None or Unspecified,None or Unspecified,Double,,,,,
15044,1683811,26000,1331815,132,1.0,1995,,,11/28/2000 0:00,EX200LC3,EX200,,LC,3,Large / Medium,"Hydraulic Excavator, Track - 19.0 to 21.0 Metric Tons",Arizona,TEX,Track Excavators,,EROPS,,,,,,,,,,,Standard,,,,,,None or Unspecified,,,,Steel,None or Unspecified,"9' 6""",None or Unspecified,None or Unspecified,Double,,,,,
15044,1683818,47000,1532269,132,7.0,1000,,,9/15/2000 0:00,EX200LC3,EX200,,LC,3,Large / Medium,"Hydraulic Excavator, Track - 19.0 to 21.0 Metric Tons",Alabama,TEX,Track Excavators,,EROPS w AC,,,,,,,,,,,Standard,,,,,,None or Unspecified,,,,Steel,32 inch,"9' 8""",None or Unspecified,None or Unspecified,Triple,,,,,
15044,1683820,39000,1269598,132,9.0,1000,,,8/31/2000 0:00,EX200LC3,EX200,,LC,3,Large / Medium,"Hydraulic Excavator, Track - 19.0 to 21.0 Metric Tons",South Carolina,TEX,Track Excavators,,EROPS,,,,,,,,,,,Standard,,,,,,None or Unspecified,,,,Steel,28 inch,None or Unspecified,None or Unspecified,None or Unspecified,Triple,,,,,
15044,1683821,32500,1524758,132,1.0,1000,,,3/21/2006 0:00,EX200LC3,EX200,,LC,3,Large / Medium,"Hydraulic Excavator, Track - 19.0 to 21.0 Metric Tons",Minnesota,TEX,Track Excavators,,EROPS,,,,,,,,,,,Standard,,,,,,None or Unspecified,,,,Steel,None or Unspecified,None or Unspecified,None or Unspecified,None or Unspecified,Double,,,,,
15044,1683823,23000,1433815,132,1.0,1995,,,4/5/2007 0:00,EX200LC3,EX200,,LC,3,Large / Medium,"Hydraulic Excavator, Track - 19.0 to 21.0 Metric Tons",Colorado,TEX,Track Excavators,,EROPS,,,,,,,,,,,Standard,,,,,,Manual,,,,Steel,None or Unspecified,"9' 6""",None or Unspecified,None or Unspecified,Double,,,,,
15044,1683825,35000,1319650,132,1.0,1995,,,9/25/2001 0:00,EX200LC3,EX200,,LC,3,Large / Medium,"Hydraulic Excavator, Track - 19.0 to 21.0 Metric Tons",Washington,TEX,Track Excavators,,EROPS,,,,,,,,,,,Standard,,,,,,None or Unspecified,,,,Steel,None or Unspecified,None or Unspecified,Manual,None or Unspecified,Double,,,,,
15044,1683826,45000,1439101,132,6.0,1995,,,7/23/1998 0:00,EX200LC3,EX200,,LC,3,Large / Medium,"Hydraulic Excavator, Track - 19.0 to 21.0 Metric Tons",Texas,TEX,Track Excavators,,EROPS,,,,,,,,,,,Standard,,,,,,None or Unspecified,,,,Steel,None or Unspecified,"9' 6""",None or Unspecified,None or Unspecified,Double,,,,,
15044,1683827,25500,1375921,132,2.0,1995,,,11/16/2002 0:00,EX200LC3,EX200,,LC,3,Large / Medium,"Hydraulic Excavator, Track - 19.0 to 21.0 Metric Tons",Connecticut,TEX,Track Excavators,,EROPS,,,,,,,,,,,Standard,,,,,,None or Unspecified,,,,Steel,28 inch,None or Unspecified,None or Unspecified,None or Unspecified,Double,,,,,
15044,1683829,45000,1074935,132,6.0,1995,,,7/23/1998 0:00,EX200LC3,EX200,,LC,3,Large / Medium,"Hydraulic Excavator, Track - 19.0 to 21.0 Metric Tons",Texas,TEX,Track Excavators,,EROPS,,,,,,,,,,,Standard,,,,,,None or Unspecified,,,,Steel,None or Unspecified,"9' 6""",None or Unspecified,None or Unspecified,Double,,,,,
15044,1683839,37000,1456325,132,1.0,1995,,,2/27/2007 0:00,EX200LC3,EX200,,LC,3,Large / Medium,"Hydraulic Excavator, Track - 19.0 to 21.0 Metric Tons",California,TEX,Track Excavators,,EROPS w AC,,,,,,,,,,,Standard,,,,,,None or Unspecified,,,,Steel,None or Unspecified,"9' 6""",None or Unspecified,None or Unspecified,Double,,,,,
15044,1683845,43500,1388037,132,10.0,1000,,,5/18/2000 0:00,EX200LC3,EX200,,LC,3,Large / Medium,"Hydraulic Excavator, Track - 19.0 to 21.0 Metric Tons",Louisiana,TEX,Track Excavators,,EROPS,,,,,,,,,,,Standard,,,,,,None or Unspecified,,,,Steel,32 inch,None or Unspecified,None or Unspecified,None or Unspecified,Double,,,,,
15044,1683847,36000,1142493,132,7.0,1996,,,6/6/2002 0:00,EX200LC3,EX200,,LC,3,Large / Medium,"Hydraulic Excavator, Track - 19.0 to 21.0 Metric Tons",Alabama,TEX,Track Excavators,,EROPS,,,,,,,,,,,Standard,,,,,,None or Unspecified,,,,Steel,32 inch,None or Unspecified,None or Unspecified,None or Unspecified,Triple,,,,,
15044,1683854,31500,1307642,132,1.0,1996,,,6/28/2005 0:00,EX200LC3,EX200,,LC,3,Large / Medium,"Hydraulic Excavator, Track - 19.0 to 21.0 Metric Tons",Maryland,TEX,Track Excavators,,EROPS,,,,,,,,,,,Standard,,,,,,None or Unspecified,,,,Steel,None or Unspecified,"9' 6""",Manual,None or Unspecified,Double,,,,,
15044,1683855,35000,1158736,132,1.0,1995,,,3/1/2005 0:00,EX200LC3,EX200,,LC,3,Large / Medium,"Hydraulic Excavator, Track - 19.0 to 21.0 Metric Tons",Illinois,TEX,Track Excavators,,EROPS,,,,,,,,,,,Standard,,,,,,None or Unspecified,,,,Steel,None or Unspecified,"9' 7""",None or Unspecified,None or Unspecified,Double,,,,,
15044,1683856,38500,1150357,132,17.0,1993,,,12/8/2005 0:00,EX200LC3,EX200,,LC,3,Large / Medium,"Hydraulic Excavator, Track - 19.0 to 21.0 Metric Tons",Washington,TEX,Track Excavators,,EROPS,,,,,,,,,,,Standard,,,,,,None or Unspecified,,,,Steel,None or Unspecified,None or Unspecified,Manual,None or Unspecified,Double,,,,,
15044,1683857,56000,1137977,132,1.0,1995,,,6/21/2000 0:00,EX200LC3,EX200,,LC,3,Large / Medium,"Hydraulic Excavator, Track - 19.0 to 21.0 Metric Tons",Washington,TEX,Track Excavators,,EROPS,,,,,,,,,,,Auxiliary,,,,,,None or Unspecified,,,,Steel,None or Unspecified,None or Unspecified,Manual,None or Unspecified,Double,,,,,
15044,1683861,60000,1116697,132,1.0,1995,,,3/26/1998 0:00,EX200LC3,EX200,,LC,3,Large / Medium,"Hydraulic Excavator, Track - 19.0 to 21.0 Metric Tons",Texas,TEX,Track Excavators,,EROPS,,,,,,,,,,,Standard,,,,,,None or Unspecified,,,,Steel,None or Unspecified,"9' 6""",None or Unspecified,None or Unspecified,Double,,,,,
15044,1683864,37500,1475829,132,2.0,1000,,,9/23/2000 0:00,EX200LC3,EX200,,LC,3,Large / Medium,"Hydraulic Excavator, Track - 19.0 to 21.0 Metric Tons",New Hampshire,TEX,Track Excavators,,EROPS w AC,,,,,,,,,,,Standard,,,,,,None or Unspecified,,,,Steel,None or Unspecified,None or Unspecified,None or Unspecified,None or Unspecified,Double,,,,,
15044,1683869,40000,1141747,132,4.0,1995,,,2/17/2001 0:00,EX200LC3,EX200,,LC,3,Large / Medium,"Hydraulic Excavator, Track - 19.0 to 21.0 Metric Tons",Florida,TEX,Track Excavators,,EROPS w AC,,,,,,,,,,,Standard,,,,,,None or Unspecified,,,,Steel,None or Unspecified,None or Unspecified,None or Unspecified,None or Unspecified,Double,,,,,
15044,1683871,28000,1437453,132,1.0,1995,,,5/22/2001 0:00,EX200LC3,EX200,,LC,3,Large / Medium,"Hydraulic Excavator, Track - 19.0 to 21.0 Metric Tons",Tennessee,TEX,Track Excavators,,EROPS,,,,,,,,,,,Standard,,,,,,None or Unspecified,,,,Steel,None or Unspecified,"9' 6""",None or Unspecified,None or Unspecified,Double,,,,,
15044,1683872,26000,1108017,132,1.0,1995,,,12/4/2001 0:00,EX200LC3,EX200,,LC,3,Large / Medium,"Hydraulic Excavator, Track - 19.0 to 21.0 Metric Tons",California,TEX,Track Excavators,,EROPS,,,,,,,,,,,Standard,,,,,,Manual,,,,Steel,None or Unspecified,None or Unspecified,None or Unspecified,None or Unspecified,Double,,,,,
15044,1683875,36000,1382932,132,1.0,1995,,,9/17/2003 0:00,EX200LC3,EX200,,LC,3,Large / Medium,"Hydraulic Excavator, Track - 19.0 to 21.0 Metric Tons",Texas,TEX,Track Excavators,,EROPS w AC,,,,,,,,,,,Standard,,,,,,None or Unspecified,,,,Steel,None or Unspecified,"9' 6""",None or Unspecified,None or Unspecified,Double,,,,,
15044,1683880,37000,1291730,132,1.0,1995,,,6/15/2004 0:00,EX200LC3,EX200,,LC,3,Large / Medium,"Hydraulic Excavator, Track - 19.0 to 21.0 Metric Tons",Wyoming,TEX,Track Excavators,,EROPS,,,,,,,,,,,Standard,,,,,,None or Unspecified,,,,Steel,None or Unspecified,"9' 6""",None or Unspecified,None or Unspecified,Double,,,,,
15044,1683881,49000,1353804,132,2.0,1000,,,5/20/2000 0:00,EX200LC3,EX200,,LC,3,Large / Medium,"Hydraulic Excavator, Track - 19.0 to 21.0 Metric Tons",Connecticut,TEX,Track Excavators,,EROPS w AC,,,,,,,,,,,Auxiliary,,,,,,None or Unspecified,,,,Steel,24 inch,None or Unspecified,None or Unspecified,None or Unspecified,Double,,,,,
15044,1683882,30000,1353804,132,2.0,1995,,,2/6/2009 0:00,EX200LC3,EX200,,LC,3,Large / Medium,"Hydraulic Excavator, Track - 19.0 to 21.0 Metric Tons",Florida,TEX,Track Excavators,,EROPS w AC,,,,,,,,,,,Auxiliary,,,,,,None or Unspecified,,,,Steel,24 inch,None or Unspecified,None or Unspecified,None or Unspecified,Double,,,,,
15044,1683883,27000,1539022,132,1.0,1996,,,10/12/2001 0:00,EX200LC3,EX200,,LC,3,Large / Medium,"Hydraulic Excavator, Track - 19.0 to 21.0 Metric Tons",Georgia,TEX,Track Excavators,,EROPS w AC,,,,,,,,,,,Standard,,,,,,None or Unspecified,,,,Steel,None or Unspecified,"9' 10""",None or Unspecified,None or Unspecified,Double,,,,,
15044,1683884,38000,1262274,132,2.0,1995,,,2/8/2001 0:00,EX200LC3,EX200,,LC,3,Large / Medium,"Hydraulic Excavator, Track - 19.0 to 21.0 Metric Tons",Florida,TEX,Track Excavators,,EROPS w AC,,,,,,,,,,,Standard,,,,,,None or Unspecified,,,,Steel,32 inch,None or Unspecified,None or Unspecified,None or Unspecified,Double,,,,,
15044,1683890,41000,1355166,132,1.0,1995,,,4/4/2002 0:00,EX200LC3,EX200,,LC,3,Large / Medium,"Hydraulic Excavator, Track - 19.0 to 21.0 Metric Tons",Colorado,TEX,Track Excavators,,EROPS,,,,,,,,,,,Auxiliary,,,,,,None or Unspecified,,,,Steel,None or Unspecified,"9' 6""",Hydraulic,None or Unspecified,Double,,,,,
15044,1683891,37500,1355166,132,1.0,1995,,,11/7/2001 0:00,EX200LC3,EX200,,LC,3,Large / Medium,"Hydraulic Excavator, Track - 19.0 to 21.0 Metric Tons",New Mexico,TEX,Track Excavators,,EROPS,,,,,,,,,,,Auxiliary,,,,,,None or Unspecified,,,,Steel,None or Unspecified,"9' 6""",Hydraulic,None or Unspecified,Double,,,,,
15044,1683897,34500,1246335,132,14.0,1996,,,6/14/2002 0:00,EX200LC3,EX200,,LC,3,Large / Medium,"Hydraulic Excavator, Track - 19.0 to 21.0 Metric Tons",Indiana,TEX,Track Excavators,,EROPS,,,,,,,,,,,Standard,,,,,,None or Unspecified,,,,Steel,None or Unspecified,None or Unspecified,None or Unspecified,None or Unspecified,Double,,,,,
15044,1683899,50000,1210264,132,9.0,1000,,,2/9/1999 0:00,EX200LC3,EX200,,LC,3,Large / Medium,"Hydraulic Excavator, Track - 19.0 to 21.0 Metric Tons",Florida,TEX,Track Excavators,,EROPS,,,,,,,,,,,Standard,,,,,,None or Unspecified,,,,Steel,32 inch,None or Unspecified,None or Unspecified,None or Unspecified,Double,,,,,
15044,1683903,50000,1519184,132,99.0,1995,,,4/27/2000 0:00,EX200LC3,EX200,,LC,3,Large / Medium,"Hydraulic Excavator, Track - 19.0 to 21.0 Metric Tons",South Carolina,TEX,Track Excavators,,EROPS w AC,,,,,,,,,,,Standard,,,,,,None or Unspecified,,,,Steel,32 inch,None or Unspecified,None or Unspecified,None or Unspecified,Double,,,,,
15044,1683907,37000,1541300,132,13.0,1996,,,12/4/2004 0:00,EX200LC3,EX200,,LC,3,Large / Medium,"Hydraulic Excavator, Track - 19.0 to 21.0 Metric Tons",Tennessee,TEX,Track Excavators,,EROPS,,,,,,,,,,,Standard,,,,,,None or Unspecified,,,,Steel,32 inch,None or Unspecified,None or Unspecified,None or Unspecified,Double,,,,,
15044,1683917,43000,1427792,132,1.0,1998,,,10/20/2005 0:00,EX200LC3,EX200,,LC,3,Large / Medium,"Hydraulic Excavator, Track - 19.0 to 21.0 Metric Tons",Tennessee,TEX,Track Excavators,,EROPS w AC,,,,,,,,,,,Standard,,,,,,None or Unspecified,,,,Steel,None or Unspecified,"9' 6""",None or Unspecified,None or Unspecified,Double,,,,,
15044,1683918,37000,1195557,132,1.0,1996,,,12/12/2001 0:00,EX200LC3,EX200,,LC,3,Large / Medium,"Hydraulic Excavator, Track - 19.0 to 21.0 Metric Tons",Texas,TEX,Track Excavators,,EROPS,,,,,,,,,,,Auxiliary,,,,,,None or Unspecified,,,,Steel,None or Unspecified,"9' 6""",None or Unspecified,None or Unspecified,Double,,,,,
15044,1683920,42000,1425398,132,1.0,1996,,,3/30/2004 0:00,EX200LC3,EX200,,LC,3,Large / Medium,"Hydraulic Excavator, Track - 19.0 to 21.0 Metric Tons",Washington,TEX,Track Excavators,,EROPS,,,,,,,,,,,Standard,,,,,,Manual,,,,Steel,None or Unspecified,None or Unspecified,Manual,None or Unspecified,Double,,,,,
15044,1683921,40000,1425398,132,1.0,1996,,,12/5/2001 0:00,EX200LC3,EX200,,LC,3,Large / Medium,"Hydraulic Excavator, Track - 19.0 to 21.0 Metric Tons",Washington,TEX,Track Excavators,,EROPS,,,,,,,,,,,Standard,,,,,,Manual,,,,Steel,None or Unspecified,None or Unspecified,Manual,None or Unspecified,Double,,,,,
15044,1683925,62000,1437086,132,1.0,1996,,,3/26/1998 0:00,EX200LC3,EX200,,LC,3,Large / Medium,"Hydraulic Excavator, Track - 19.0 to 21.0 Metric Tons",Texas,TEX,Track Excavators,,EROPS,,,,,,,,,,,Standard,,,,,,None or Unspecified,,,,Steel,None or Unspecified,"9' 6""",None or Unspecified,None or Unspecified,Double,,,,,
15044,1683929,29000,1105169,132,4.0,1996,,,5/12/2005 0:00,EX200LC3,EX200,,LC,3,Large / Medium,"Hydraulic Excavator, Track - 19.0 to 21.0 Metric Tons",Maine,TEX,Track Excavators,,EROPS,,,,,,,,,,,Standard,,,,,,None or Unspecified,,,,Steel,None or Unspecified,"9' 7""",None or Unspecified,None or Unspecified,Double,,,,,
15044,1683932,43500,1181698,132,2.0,1000,,,2/7/2000 0:00,EX200LC3,EX200,,LC,3,Large / Medium,"Hydraulic Excavator, Track - 19.0 to 21.0 Metric Tons",Florida,TEX,Track Excavators,,EROPS,,,,,,,,,,,Standard,,,,,,None or Unspecified,,,,Steel,None or Unspecified,None or Unspecified,None or Unspecified,None or Unspecified,Double,,,,,
15044,1683936,36000,1120580,132,1.0,1996,,,4/7/2005 0:00,EX200LC3,EX200,,LC,3,Large / Medium,"Hydraulic Excavator, Track - 19.0 to 21.0 Metric Tons",Georgia,TEX,Track Excavators,,EROPS,,,,,,,,,,,Standard,,,,,,None or Unspecified,,,,Steel,None or Unspecified,"9' 6""",None or Unspecified,None or Unspecified,Double,,,,,
15044,1683937,23000,1120580,132,1.0,1996,,,6/21/2006 0:00,EX200LC3,EX200,,LC,3,Large / Medium,"Hydraulic Excavator, Track - 19.0 to 21.0 Metric Tons",Maryland,TEX,Track Excavators,,EROPS,,,,,,,,,,,Standard,,,,,,None or Unspecified,,,,Steel,None or Unspecified,"9' 6""",None or Unspecified,None or Unspecified,Double,,,,,
15044,1683941,48000,1527556,132,8.0,1996,,,3/27/2002 0:00,EX200LC3,EX200,,LC,3,Large / Medium,"Hydraulic Excavator, Track - 19.0 to 21.0 Metric Tons",Mississippi,TEX,Track Excavators,,EROPS,,,,,,,,,,,Standard,,,,,,None or Unspecified,,,,Steel,32 inch,None or Unspecified,None or Unspecified,None or Unspecified,Double,,,,,
15044,1683949,27000,1185822,132,1.0,1996,,,9/24/2004 0:00,EX200LC3,EX200,,LC,3,Large / Medium,"Hydraulic Excavator, Track - 19.0 to 21.0 Metric Tons",Texas,TEX,Track Excavators,,EROPS w AC,,,,,,,,,,,Standard,,,,,,None or Unspecified,,,,Steel,None or Unspecified,"9' 8""",None or Unspecified,None or Unspecified,Double,,,,,
15044,1683952,36500,1345075,132,14.0,1996,,,6/14/2002 0:00,EX200LC3,EX200,,LC,3,Large / Medium,"Hydraulic Excavator, Track - 19.0 to 21.0 Metric Tons",Indiana,TEX,Track Excavators,,EROPS,,,,,,,,,,,Standard,,,,,,None or Unspecified,,,,Steel,None or Unspecified,None or Unspecified,None or Unspecified,None or Unspecified,Double,,,,,
15044,1683954,27000,1317940,132,1.0,1996,,,12/15/2004 0:00,EX200LC3,EX200,,LC,3,Large / Medium,"Hydraulic Excavator, Track - 19.0 to 21.0 Metric Tons",Maryland,TEX,Track Excavators,,EROPS,,,,,,,,,,,Standard,,,,,,None or Unspecified,,,,Steel,None or Unspecified,"8' 6""",None or Unspecified,None or Unspecified,Double,,,,,
15044,1683955,38000,1202572,132,14.0,1996,,,6/14/2002 0:00,EX200LC3,EX200,,LC,3,Large / Medium,"Hydraulic Excavator, Track - 19.0 to 21.0 Metric Tons",Indiana,TEX,Track Excavators,,EROPS,,,,,,,,,,,Standard,,,,,,None or Unspecified,,,,Steel,None or Unspecified,None or Unspecified,None or Unspecified,None or Unspecified,Double,,,,,
15044,1683956,44000,1105034,132,2.0,1000,,,2/7/2000 0:00,EX200LC3,EX200,,LC,3,Large / Medium,"Hydraulic Excavator, Track - 19.0 to 21.0 Metric Tons",Florida,TEX,Track Excavators,,EROPS,,,,,,,,,,,Standard,,,,,,None or Unspecified,,,,Steel,None or Unspecified,None or Unspecified,None or Unspecified,None or Unspecified,Double,,,,,
15044,1683958,46000,1496871,132,1.0,1996,,,9/8/2005 0:00,EX200LC3,EX200,,LC,3,Large / Medium,"Hydraulic Excavator, Track - 19.0 to 21.0 Metric Tons",California,TEX,Track Excavators,,EROPS w AC,,,,,,,,,,,Standard,,,,,,Hydraulic,,,,Steel,None or Unspecified,"9' 6""",None or Unspecified,None or Unspecified,Double,,,,,
15044,1683959,46000,1436843,132,11.0,1996,,,3/30/1999 0:00,EX200LC3,EX200,,LC,3,Large / Medium,"Hydraulic Excavator, Track - 19.0 to 21.0 Metric Tons",Mississippi,TEX,Track Excavators,,EROPS,,,,,,,,,,,Standard,,,,,,None or Unspecified,,,,Steel,28 inch,None or Unspecified,None or Unspecified,None or Unspecified,Triple,,,,,
15044,1683962,32500,1171828,132,1.0,1996,,,9/15/2003 0:00,EX200LC3,EX200,,LC,3,Large / Medium,"Hydraulic Excavator, Track - 19.0 to 21.0 Metric Tons",Arizona,TEX,Track Excavators,,EROPS,,,,,,,,,,,Standard,,,,,,None or Unspecified,,,,Steel,None or Unspecified,None or Unspecified,None or Unspecified,None or Unspecified,Double,,,,,
15044,1683967,45000,1365538,132,10.0,1000,,,5/18/2000 0:00,EX200LC3,EX200,,LC,3,Large / Medium,"Hydraulic Excavator, Track - 19.0 to 21.0 Metric Tons",Louisiana,TEX,Track Excavators,,EROPS,,,,,,,,,,,Standard,,,,,,None or Unspecified,,,,Steel,32 inch,None or Unspecified,None or Unspecified,None or Unspecified,Double,,,,,
15044,1684396,55000,1213103,132,2.0,1000,,,2/2/1999 0:00,EX200LC3,EX200,,LC,3,Large / Medium,"Hydraulic Excavator, Track - 19.0 to 21.0 Metric Tons",Florida,TEX,Track Excavators,,EROPS,,,,,,,,,,,Standard,,,,,,None or Unspecified,,,,Steel,None or Unspecified,None or Unspecified,None or Unspecified,None or Unspecified,Double,,,,,
15044,1685414,34000,1294337,132,1.0,1996,,,6/10/2004 0:00,EX200LC3,EX200,,LC,3,Large / Medium,"Hydraulic Excavator, Track - 19.0 to 21.0 Metric Tons",Illinois,TEX,Track Excavators,,EROPS w AC,,,,,,,,,,,Auxiliary,,,,,,Manual,,,,Steel,None or Unspecified,None or Unspecified,None or Unspecified,None or Unspecified,Double,,,,,
15044,1689989,8750,1263663,132,99.0,1000,,,10/1/2009 0:00,EX200LC3,EX200,,LC,3,Large / Medium,"Hydraulic Excavator, Track - 19.0 to 21.0 Metric Tons",Arkansas,TEX,Track Excavators,,EROPS,,,,,,,,,,,Standard,,,,,,None or Unspecified,,,,Steel,None or Unspecified,None or Unspecified,None or Unspecified,None or Unspecified,Triple,,,,,
15044,1690107,44000,1346937,132,5.0,2001,,,5/20/2006 0:00,EX200LC3,EX200,,LC,3,Large / Medium,"Hydraulic Excavator, Track - 19.0 to 21.0 Metric Tons",New Jersey,TEX,Track Excavators,,EROPS,,,,,,,,,,,Standard,,,,,,None or Unspecified,,,,Steel,36 inch,None or Unspecified,None or Unspecified,None or Unspecified,Triple,,,,,
15044,1691822,40500,1128602,132,2.0,1994,,,11/6/1999 0:00,EX200LC3,EX200,,LC,3,Large / Medium,"Hydraulic Excavator, Track - 19.0 to 21.0 Metric Tons",New York,TEX,Track Excavators,,EROPS w AC,,,,,,,,,,,Standard,,,,,,None or Unspecified,,,,Steel,None or Unspecified,None or Unspecified,None or Unspecified,None or Unspecified,Double,,,,,
15044,1692314,53500,1326059,132,2.0,1993,,,8/1/1998 0:00,EX200LC3,EX200,,LC,3,Large / Medium,"Hydraulic Excavator, Track - 19.0 to 21.0 Metric Tons",Ohio,TEX,Track Excavators,,EROPS w AC,,,,,,,,,,,Standard,,,,,,None or Unspecified,,,,Steel,None or Unspecified,None or Unspecified,None or Unspecified,None or Unspecified,Double,,,,,
15044,1692406,44000,1371659,132,2.0,1993,,,3/31/2001 0:00,EX200LC3,EX200,,LC,3,Large / Medium,"Hydraulic Excavator, Track - 19.0 to 21.0 Metric Tons",New Jersey,TEX,Track Excavators,,EROPS w AC,,,,,,,,,,,Standard,,,,,,None or Unspecified,,,,Steel,24 inch,None or Unspecified,None or Unspecified,None or Unspecified,Double,,,,,
15044,1692408,35000,1108682,132,4.0,1994,,,5/4/2000 0:00,EX200LC3,EX200,,LC,3,Large / Medium,"Hydraulic Excavator, Track - 19.0 to 21.0 Metric Tons",Georgia,TEX,Track Excavators,,EROPS w AC,,,,,,,,,,,Standard,,,,,,None or Unspecified,,,,Steel,None or Unspecified,None or Unspecified,None or Unspecified,None or Unspecified,Double,,,,,
15044,1692409,33500,1108682,132,4.0,1995,,,2/11/2002 0:00,EX200LC3,EX200,,LC,3,Large / Medium,"Hydraulic Excavator, Track - 19.0 to 21.0 Metric Tons",Florida,TEX,Track Excavators,,EROPS w AC,,,,,,,,,,,Standard,,,,,,None or Unspecified,,,,Steel,None or Unspecified,None or Unspecified,None or Unspecified,None or Unspecified,Double,,,,,
15044,1692411,47500,1438758,132,2.0,1993,,,9/18/1999 0:00,EX200LC3,EX200,,LC,3,Large / Medium,"Hydraulic Excavator, Track - 19.0 to 21.0 Metric Tons",New Jersey,TEX,Track Excavators,,EROPS w AC,,,,,,,,,,,Standard,,,,,,None or Unspecified,,,,Steel,32 inch,None or Unspecified,None or Unspecified,None or Unspecified,Double,,,,,
15044,1692414,38000,1500050,132,2.0,1993,,,12/9/2000 0:00,EX200LC3,EX200,,LC,3,Large / Medium,"Hydraulic Excavator, Track - 19.0 to 21.0 Metric Tons",Pennsylvania,TEX,Track Excavators,,EROPS w AC,,,,,,,,,,,Standard,,,,,,None or Unspecified,,,,Steel,32 inch,None or Unspecified,None or Unspecified,None or Unspecified,Double,,,,,
15044,1692460,36000,1195380,132,10.0,1000,,,6/27/2001 0:00,EX200LC3,EX200,,LC,3,Large / Medium,"Hydraulic Excavator, Track - 19.0 to 21.0 Metric Tons",Louisiana,TEX,Track Excavators,,EROPS w AC,,,,,,,,,,,Standard,,,,,,None or Unspecified,,,,Steel,28 inch,None or Unspecified,None or Unspecified,None or Unspecified,Double,,,,,
15044,1692467,60000,1203576,132,2.0,1974,,,8/21/1999 0:00,EX200LC3,EX200,,LC,3,Large / Medium,"Hydraulic Excavator, Track - 19.0 to 21.0 Metric Tons",Wisconsin,TEX,Track Excavators,,EROPS,,,,,,,,,,,Standard,,,,,,None or Unspecified,,,,Steel,None or Unspecified,None or Unspecified,None or Unspecified,None or Unspecified,Double,,,,,
15044,1692469,42500,1510770,132,2.0,1994,,,9/16/2000 0:00,EX200LC3,EX200,,LC,3,Large / Medium,"Hydraulic Excavator, Track - 19.0 to 21.0 Metric Tons",New Jersey,TEX,Track Excavators,,EROPS w AC,,,,,,,,,,,Standard,,,,,,None or Unspecified,,,,Steel,None or Unspecified,None or Unspecified,None or Unspecified,None or Unspecified,Double,,,,,
15044,1692501,53000,1386724,132,4.0,1995,,,2/16/2006 0:00,EX200LC3,EX200,,LC,3,Large / Medium,"Hydraulic Excavator, Track - 19.0 to 21.0 Metric Tons",Florida,TEX,Track Excavators,,EROPS,,,,,,,,,,,Standard,,,,,,None or Unspecified,,,,Steel,None or Unspecified,None or Unspecified,None or Unspecified,None or Unspecified,Double,,,,,
15044,1692504,65000,1474259,132,2.0,1000,,,8/1/1998 0:00,EX200LC3,EX200,,LC,3,Large / Medium,"Hydraulic Excavator, Track - 19.0 to 21.0 Metric Tons",Ohio,TEX,Track Excavators,,EROPS,,,,,,,,,,,Standard,,,,,,None or Unspecified,,,,Steel,None or Unspecified,None or Unspecified,None or Unspecified,None or Unspecified,Double,,,,,
15044,1692507,37000,1084093,132,1.0,1994,,,12/4/2002 0:00,EX200LC3,EX200,,LC,3,Large / Medium,"Hydraulic Excavator, Track - 19.0 to 21.0 Metric Tons",Washington,TEX,Track Excavators,,EROPS,,,,,,,,,,,Standard,,,,,,None or Unspecified,,,,Steel,None or Unspecified,None or Unspecified,Manual,None or Unspecified,Double,,,,,
15044,1692533,18900,1232539,132,13.0,1995,,,9/15/2007 0:00,EX200LC3,EX200,,LC,3,Large / Medium,"Hydraulic Excavator, Track - 19.0 to 21.0 Metric Tons",Tennessee,TEX,Track Excavators,,EROPS,,,,,,,,,,,Standard,,,,,,None or Unspecified,,,,Steel,None or Unspecified,None or Unspecified,Manual,None or Unspecified,Double,,,,,
15044,1692537,31000,1345373,132,1.0,1995,,,6/28/2004 0:00,EX200LC3,EX200,,LC,3,Large / Medium,"Hydraulic Excavator, Track - 19.0 to 21.0 Metric Tons",Colorado,TEX,Track Excavators,,EROPS,,,,,,,,,,,Standard,,,,,,None or Unspecified,,,,Steel,None or Unspecified,"9' 6""",Hydraulic,None or Unspecified,Double,,,,,
15044,1692538,42500,1423811,132,2.0,1995,,,3/2/2002 0:00,EX200LC3,EX200,,LC,3,Large / Medium,"Hydraulic Excavator, Track - 19.0 to 21.0 Metric Tons",Vermont,TEX,Track Excavators,,EROPS w AC,,,,,,,,,,,Standard,,,,,,None or Unspecified,,,,Steel,24 inch,None or Unspecified,None or Unspecified,None or Unspecified,Double,,,,,
15044,1692543,37000,1160313,132,8.0,1995,,,5/29/2008 0:00,EX200LC3,EX200,,LC,3,Large / Medium,"Hydraulic Excavator, Track - 19.0 to 21.0 Metric Tons",Mississippi,TEX,Track Excavators,,EROPS w AC,,,,,,,,,,,Standard,,,,,,None or Unspecified,,,,Steel,32 inch,None or Unspecified,None or Unspecified,None or Unspecified,Double,,,,,
15044,1692544,27500,1160313,132,2.0,1995,,,2/8/2008 0:00,EX200LC3,EX200,,LC,3,Large / Medium,"Hydraulic Excavator, Track - 19.0 to 21.0 Metric Tons",Florida,TEX,Track Excavators,,EROPS w AC,,,,,,,,,,,Standard,,,,,,None or Unspecified,,,,Steel,32 inch,None or Unspecified,None or Unspecified,None or Unspecified,Double,,,,,
15044,1692564,65000,1369004,132,99.0,1995,,,7/10/2000 0:00,EX200LC3,EX200,,LC,3,Large / Medium,"Hydraulic Excavator, Track - 19.0 to 21.0 Metric Tons",Oregon,TEX,Track Excavators,,EROPS w AC,,,,,,,,,,,Auxiliary,,,,,,None or Unspecified,,,,Steel,None or Unspecified,"9' 6""",None or Unspecified,None or Unspecified,Double,,,,,
15044,1692566,59500,1130392,132,2.0,1995,,,6/6/1998 0:00,EX200LC3,EX200,,LC,3,Large / Medium,"Hydraulic Excavator, Track - 19.0 to 21.0 Metric Tons",Connecticut,TEX,Track Excavators,,EROPS w AC,,,,,,,,,,,Standard,,,,,,None or Unspecified,,,,Steel,None or Unspecified,None or Unspecified,None or Unspecified,None or Unspecified,Double,,,,,
15044,1692569,48500,1151065,132,10.0,1995,,,5/20/1999 0:00,EX200LC3,EX200,,LC,3,Large / Medium,"Hydraulic Excavator, Track - 19.0 to 21.0 Metric Tons",Louisiana,TEX,Track Excavators,,EROPS,,,,,,,,,,,Standard,,,,,,None or Unspecified,,,,Steel,None or Unspecified,None or Unspecified,None or Unspecified,None or Unspecified,Double,,,,,
15044,1692571,30000,1338813,132,2.0,1000,,,1/31/2009 0:00,EX200LC3,EX200,,LC,3,Large / Medium,"Hydraulic Excavator, Track - 19.0 to 21.0 Metric Tons",Florida,TEX,Track Excavators,,EROPS w AC,,,,,,,,,,,Auxiliary,,,,,,None or Unspecified,,,,Steel,24 inch,None or Unspecified,None or Unspecified,None or Unspecified,Double,,,,,
15044,1692572,61000,1121204,132,2.0,1000,,,3/30/2000 0:00,EX200LC3,EX200,,LC,3,Large / Medium,"Hydraulic Excavator, Track - 19.0 to 21.0 Metric Tons",New Jersey,TEX,Track Excavators,,EROPS,,,,,,,,,,,Standard,,,,,,None or Unspecified,,,,Steel,None or Unspecified,None or Unspecified,None or Unspecified,None or Unspecified,Double,,,,,
15044,1692574,42500,1280763,132,2.0,1995,,,5/19/2001 0:00,EX200LC3,EX200,,LC,3,Large / Medium,"Hydraulic Excavator, Track - 19.0 to 21.0 Metric Tons",Connecticut,TEX,Track Excavators,,EROPS,,,,,,,,,,,Standard,,,,,,None or Unspecified,,,,Steel,None or Unspecified,None or Unspecified,None or Unspecified,None or Unspecified,Double,,,,,
15044,1692588,38000,1339970,132,2.0,1995,,,10/7/2000 0:00,EX200LC3,EX200,,LC,3,Large / Medium,"Hydraulic Excavator, Track - 19.0 to 21.0 Metric Tons",Pennsylvania,TEX,Track Excavators,,EROPS w AC,,,,,,,,,,,Standard,,,,,,None or Unspecified,,,,Steel,None or Unspecified,None or Unspecified,None or Unspecified,None or Unspecified,Double,,,,,
15044,1692597,40500,1245424,132,8.0,1995,,,9/22/2004 0:00,EX200LC3,EX200,,LC,3,Large / Medium,"Hydraulic Excavator, Track - 19.0 to 21.0 Metric Tons",Mississippi,TEX,Track Excavators,,EROPS w AC,,,,,,,,,,,Standard,,,,,,None or Unspecified,,,,Steel,32 inch,None or Unspecified,None or Unspecified,None or Unspecified,Double,,,,,
15044,1692598,35000,1394510,132,13.0,1996,,,3/19/2005 0:00,EX200LC3,EX200,,LC,3,Large / Medium,"Hydraulic Excavator, Track - 19.0 to 21.0 Metric Tons",Tennessee,TEX,Track Excavators,,EROPS,,,,,,,,,,,Standard,,,,,,None or Unspecified,,,,Steel,None or Unspecified,None or Unspecified,None or Unspecified,None or Unspecified,Double,,,,,
15044,1692602,34000,1474254,132,4.0,1995,,,2/11/2002 0:00,EX200LC3,EX200,,LC,3,Large / Medium,"Hydraulic Excavator, Track - 19.0 to 21.0 Metric Tons",Florida,TEX,Track Excavators,,EROPS,,,,,,,,,,,Standard,,,,,,None or Unspecified,,,,Steel,24 inch,None or Unspecified,None or Unspecified,None or Unspecified,Double,,,,,
15044,1692624,37500,1467107,132,1.0,1996,,,6/1/2005 0:00,EX200LC3,EX200,,LC,3,Large / Medium,"Hydraulic Excavator, Track - 19.0 to 21.0 Metric Tons",Illinois,TEX,Track Excavators,,EROPS,,,,,,,,,,,Standard,,,,,,Manual,,,,Steel,None or Unspecified,"9' 8""",None or Unspecified,None or Unspecified,Double,,,,,
15044,1692628,27000,1460631,132,1.0,1996,,,9/15/2004 0:00,EX200LC3,EX200,,LC,3,Large / Medium,"Hydraulic Excavator, Track - 19.0 to 21.0 Metric Tons",Texas,TEX,Track Excavators,,EROPS w AC,,,,,,,,,,,Standard,,,,,,None or Unspecified,,,,Steel,None or Unspecified,"9' 8""",None or Unspecified,None or Unspecified,Double,,,,,
15044,1692660,36000,1502352,132,28.0,1000,,,12/8/2001 0:00,EX200LC3,EX200,,LC,3,Large / Medium,"Hydraulic Excavator, Track - 19.0 to 21.0 Metric Tons",Mississippi,TEX,Track Excavators,,EROPS,,,,,,,,,,,Standard,,,,,,None or Unspecified,,,,Steel,None or Unspecified,None or Unspecified,None or Unspecified,None or Unspecified,Double,,,,,
15044,1693009,38500,1245526,132,2.0,1000,,,3/18/1999 0:00,EX200LC3,EX200,,LC,3,Large / Medium,"Hydraulic Excavator, Track - 19.0 to 21.0 Metric Tons",New Jersey,TEX,Track Excavators,,EROPS,,,,,,,,,,,Standard,,,,,,None or Unspecified,,,,Steel,None or Unspecified,None or Unspecified,None or Unspecified,None or Unspecified,Double,,,,,
15044,1693016,27000,1124440,132,4.0,1995,,,6/12/2003 0:00,EX200LC3,EX200,,LC,3,Large / Medium,"Hydraulic Excavator, Track - 19.0 to 21.0 Metric Tons",Indiana,TEX,Track Excavators,,EROPS,,,,,,,,,,,Standard,,,,,,None or Unspecified,,,,Steel,None or Unspecified,None or Unspecified,None or Unspecified,None or Unspecified,Double,,,,,
15044,1693019,23000,1140946,132,14.0,1000,,,6/23/2000 0:00,EX200LC3,EX200,,LC,3,Large / Medium,"Hydraulic Excavator, Track - 19.0 to 21.0 Metric Tons",Indiana,TEX,Track Excavators,,EROPS,,,,,,,,,,,Standard,,,,,,None or Unspecified,,,,Steel,None or Unspecified,None or Unspecified,None or Unspecified,None or Unspecified,Double,,,,,
15044,1693020,36000,1372640,132,8.0,1000,,,2/3/2003 0:00,EX200LC3,EX200,,LC,3,Large / Medium,"Hydraulic Excavator, Track - 19.0 to 21.0 Metric Tons",Alabama,TEX,Track Excavators,,EROPS,,,,,,,,,,,Auxiliary,,,,,,None or Unspecified,,,,Steel,None or Unspecified,None or Unspecified,None or Unspecified,None or Unspecified,Double,,,,,
15044,1693021,34000,1372640,132,2.0,1993,,,2/4/2002 0:00,EX200LC3,EX200,,LC,3,Large / Medium,"Hydraulic Excavator, Track - 19.0 to 21.0 Metric Tons",Florida,TEX,Track Excavators,,EROPS,,,,,,,,,,,Auxiliary,,,,,,None or Unspecified,,,,Steel,None or Unspecified,None or Unspecified,None or Unspecified,None or Unspecified,Double,,,,,
15044,1693027,30000,1294054,132,10.0,1000,,,3/26/2001 0:00,EX200LC3,EX200,,LC,3,Large / Medium,"Hydraulic Excavator, Track - 19.0 to 21.0 Metric Tons",Mississippi,TEX,Track Excavators,,EROPS,,,,,,,,,,,Standard,,,,,,None or Unspecified,,,,Steel,24 inch,None or Unspecified,Manual,None or Unspecified,Triple,,,,,
15044,1693028,24000,1294054,132,10.0,1000,,,2/1/2001 0:00,EX200LC3,EX200,,LC,3,Large / Medium,"Hydraulic Excavator, Track - 19.0 to 21.0 Metric Tons",Louisiana,TEX,Track Excavators,,EROPS,,,,,,,,,,,Standard,,,,,,None or Unspecified,,,,Steel,24 inch,None or Unspecified,Manual,None or Unspecified,Triple,,,,,
15044,1693034,29000,1137652,132,1.0,1000,,,9/17/1998 0:00,EX200LC3,EX200,,LC,3,Large / Medium,"Hydraulic Excavator, Track - 19.0 to 21.0 Metric Tons",Washington,TEX,Track Excavators,,EROPS,,,,,,,,,,,Standard,,,,,,None or Unspecified,,,,Steel,None or Unspecified,None or Unspecified,None or Unspecified,None or Unspecified,Double,,,,,
15044,1693036,29000,1097712,132,1.0,1000,,,9/17/1998 0:00,EX200LC3,EX200,,LC,3,Large / Medium,"Hydraulic Excavator, Track - 19.0 to 21.0 Metric Tons",Washington,TEX,Track Excavators,,EROPS,,,,,,,,,,,Standard,,,,,,None or Unspecified,,,,Steel,None or Unspecified,None or Unspecified,None or Unspecified,None or Unspecified,Double,,,,,
15044,1693057,34000,1257406,132,14.0,1000,,,6/23/2000 0:00,EX200LC3,EX200,,LC,3,Large / Medium,"Hydraulic Excavator, Track - 19.0 to 21.0 Metric Tons",Indiana,TEX,Track Excavators,,EROPS,,,,,,,,,,,Standard,,,,,,None or Unspecified,,,,Steel,None or Unspecified,None or Unspecified,None or Unspecified,None or Unspecified,Double,,,,,
15044,2369380,19000,1654678,136,,1000,0.0,,6/20/2008 0:00,EX200LC3,EX200,,LC,3,Large / Medium,"Hydraulic Excavator, Track - 19.0 to 21.0 Metric Tons",Indiana,TEX,Track Excavators,,EROPS,,,,,,,,,,,Standard,,,,,,None or Unspecified,,,,Steel,None or Unspecified,None or Unspecified,None or Unspecified,None or Unspecified,Double,,,,,
15044,2369571,18000,1786115,136,1.0,1995,0.0,,6/16/2010 0:00,EX200LC3,EX200,,LC,3,Large / Medium,"Hydraulic Excavator, Track - 19.0 to 21.0 Metric Tons",Kentucky,TEX,Track Excavators,,EROPS,,,,,,,,,,,Standard,,,,,,None or Unspecified,,,,Steel,None or Unspecified,None or Unspecified,None or Unspecified,None or Unspecified,Double,,,,,
15044,2369572,43000,1748243,136,,1995,0.0,,6/5/2008 0:00,EX200LC3,EX200,,LC,3,Large / Medium,"Hydraulic Excavator, Track - 19.0 to 21.0 Metric Tons",Arkansas,TEX,Track Excavators,,EROPS w AC,,,,,,,,,,,Standard,,,,,,None or Unspecified,,,,Steel,None or Unspecified,None or Unspecified,Manual,None or Unspecified,Triple,,,,,
15044,2369582,27500,1431659,136,1.0,1994,0.0,,10/17/2007 0:00,EX200LC3,EX200,,LC,3,Large / Medium,"Hydraulic Excavator, Track - 19.0 to 21.0 Metric Tons",Utah,TEX,Track Excavators,,EROPS,,,,,,,,,,,Auxiliary,,,,,,None or Unspecified,,,,Steel,None or Unspecified,"9' 8""",Hydraulic,None or Unspecified,Double,,,,,
15044,2369583,19000,1202668,136,1.0,1994,0.0,,7/21/2009 0:00,EX200LC3,EX200,,LC,3,Large / Medium,"Hydraulic Excavator, Track - 19.0 to 21.0 Metric Tons",California,TEX,Track Excavators,,EROPS,,,,,,,,,,,Auxiliary,,,,,,Manual,,,,Steel,None or Unspecified,"9' 6""",Hydraulic,None or Unspecified,Double,,,,,
15044,2369584,18000,1202668,136,1.0,1994,738.0,Low,12/9/2008 0:00,EX200LC3,EX200,,LC,3,Large / Medium,"Hydraulic Excavator, Track - 19.0 to 21.0 Metric Tons",California,TEX,Track Excavators,,EROPS,,,,,,,,,,,Auxiliary,,,,,,Manual,,,,Steel,None or Unspecified,"9' 6""",Hydraulic,None or Unspecified,Double,,,,,
15044,2369585,18000,1762892,136,1.0,1000,0.0,,6/26/2010 0:00,EX200LC3,EX200,,LC,3,Large / Medium,"Hydraulic Excavator, Track - 19.0 to 21.0 Metric Tons",Alaska,TEX,Track Excavators,,EROPS,,,,,,,,,,,Standard,,,,,,None or Unspecified,,,,Steel,None or Unspecified,None or Unspecified,Hydraulic,None or Unspecified,Double,,,,,
15044,2369586,22500,1360761,136,1.0,1994,0.0,,3/10/2009 0:00,EX200LC3,EX200,,LC,3,Large / Medium,"Hydraulic Excavator, Track - 19.0 to 21.0 Metric Tons",Colorado,TEX,Track Excavators,,EROPS w AC,,,,,,,,,,,Standard,,,,,,None or Unspecified,,,,Steel,None or Unspecified,None or Unspecified,Manual,None or Unspecified,Double,,,,,
15044,2369587,26000,1360761,136,1.0,1994,0.0,,12/13/2007 0:00,EX200LC3,EX200,,LC,3,Large / Medium,"Hydraulic Excavator, Track - 19.0 to 21.0 Metric Tons",Colorado,TEX,Track Excavators,,EROPS w AC,,,,,,,,,,,Standard,,,,,,None or Unspecified,,,,Steel,None or Unspecified,None or Unspecified,Manual,None or Unspecified,Double,,,,,
15044,2369591,21000,1162340,136,1.0,1000,0.0,,6/30/2009 0:00,EX200LC3,EX200,,LC,3,Large / Medium,"Hydraulic Excavator, Track - 19.0 to 21.0 Metric Tons",Wyoming,TEX,Track Excavators,,EROPS,,,,,,,,,,,Standard,,,,,,None or Unspecified,,,,Steel,None or Unspecified,"9' 6""",None or Unspecified,None or Unspecified,Double,,,,,
15044,2369596,11250,1122452,136,1.0,1994,0.0,,3/19/2009 0:00,EX200LC3,EX200,,LC,3,Large / Medium,"Hydraulic Excavator, Track - 19.0 to 21.0 Metric Tons",Oklahoma,TEX,Track Excavators,,EROPS,,,,,,,,,,,Standard,,,,,,None or Unspecified,,,,Steel,None or Unspecified,"9' 6""",Manual,None or Unspecified,Triple,,,,,
15044,2369603,16000,1116371,136,1.0,1994,0.0,,5/29/2008 0:00,EX200LC3,EX200,,LC,3,Large / Medium,"Hydraulic Excavator, Track - 19.0 to 21.0 Metric Tons",Utah,TEX,Track Excavators,,EROPS,,,,,,,,,,,Standard,,,,,,None or Unspecified,,,,Steel,None or Unspecified,None or Unspecified,None or Unspecified,None or Unspecified,Double,,,,,
15044,2369605,22000,1715197,136,,1994,0.0,,9/13/2007 0:00,EX200LC3,EX200,,LC,3,Large / Medium,"Hydraulic Excavator, Track - 19.0 to 21.0 Metric Tons",Arizona,TEX,Track Excavators,,EROPS,,,,,,,,,,,Standard,,,,,,None or Unspecified,,,,Steel,None or Unspecified,None or Unspecified,None or Unspecified,None or Unspecified,Double,,,,,
15044,2369606,27000,1299740,136,1.0,1995,0.0,,9/16/2008 0:00,EX200LC3,EX200,,LC,3,Large / Medium,"Hydraulic Excavator, Track - 19.0 to 21.0 Metric Tons",Washington,TEX,Track Excavators,,EROPS,,,,,,,,,,,Standard,,,,,,None or Unspecified,,,,Steel,None or Unspecified,None or Unspecified,None or Unspecified,None or Unspecified,Double,,,,,
15044,2369609,18900,1782899,136,,1994,0.0,,9/15/2007 0:00,EX200LC3,EX200,,LC,3,Large / Medium,"Hydraulic Excavator, Track - 19.0 to 21.0 Metric Tons",Tennessee,TEX,Track Excavators,,EROPS,,,,,,,,,,,Standard,,,,,,None or Unspecified,,,,Steel,None or Unspecified,None or Unspecified,None or Unspecified,None or Unspecified,Double,,,,,
15044,2369610,18000,1457119,136,1.0,1000,0.0,,6/16/2010 0:00,EX200LC3,EX200,,LC,3,Large / Medium,"Hydraulic Excavator, Track - 19.0 to 21.0 Metric Tons",Kentucky,TEX,Track Excavators,,EROPS,,,,,,,,,,,Standard,,,,,,None or Unspecified,,,,Steel,None or Unspecified,None or Unspecified,None or Unspecified,None or Unspecified,Double,,,,,
15044,2369615,37000,1380298,136,8.0,1995,0.0,,5/29/2008 0:00,EX200LC3,EX200,,LC,3,Large / Medium,"Hydraulic Excavator, Track - 19.0 to 21.0 Metric Tons",Mississippi,TEX,Track Excavators,,EROPS w AC,,,,,,,,,,,Standard,,,,,,None or Unspecified,,,,Steel,32 inch,None or Unspecified,None or Unspecified,None or Unspecified,Triple,,,,,
15044,2369617,27500,1380298,136,2.0,1000,0.0,,2/3/2008 0:00,EX200LC3,EX200,,LC,3,Large / Medium,"Hydraulic Excavator, Track - 19.0 to 21.0 Metric Tons",Florida,TEX,Track Excavators,,EROPS w AC,,,,,,,,,,,Standard,,,,,,None or Unspecified,,,,Steel,32 inch,None or Unspecified,None or Unspecified,None or Unspecified,Triple,,,,,
15044,2369619,22000,1139300,136,1.0,1995,0.0,,3/27/2008 0:00,EX200LC3,EX200,,LC,3,Large / Medium,"Hydraulic Excavator, Track - 19.0 to 21.0 Metric Tons",Texas,TEX,Track Excavators,,EROPS w AC,,,,,,,,,,,Auxiliary,,,,,,None or Unspecified,,,,Steel,None or Unspecified,"9' 6""",Manual,None or Unspecified,Double,,,,,
15044,2369625,20000,1257530,136,1.0,1997,0.0,,5/23/2008 0:00,EX200LC3,EX200,,LC,3,Large / Medium,"Hydraulic Excavator, Track - 19.0 to 21.0 Metric Tons",Nevada,TEX,Track Excavators,,EROPS w AC,,,,,,,,,,,Auxiliary,,,,,,None or Unspecified,,,,Steel,None or Unspecified,"9' 6""",None or Unspecified,None or Unspecified,Double,,,,,
15044,2369627,21000,1102493,136,1.0,1000,0.0,,3/19/2009 0:00,EX200LC3,EX200,,LC,3,Large / Medium,"Hydraulic Excavator, Track - 19.0 to 21.0 Metric Tons",Minnesota,TEX,Track Excavators,,EROPS,,,,,,,,,,,Standard,,,,,,None or Unspecified,,,,Steel,None or Unspecified,"9' 7""",None or Unspecified,None or Unspecified,Double,,,,,
15044,2369628,28000,1646594,136,,1995,0.0,,6/10/2008 0:00,EX200LC3,EX200,,LC,3,Large / Medium,"Hydraulic Excavator, Track - 19.0 to 21.0 Metric Tons",Oregon,TEX,Track Excavators,,EROPS,,,,,,,,,,,Standard,,,,,,None or Unspecified,,,,Steel,None or Unspecified,None or Unspecified,Manual,None or Unspecified,Double,,,,,
15044,2369635,30000,1353804,136,2.0,1000,0.0,,1/31/2009 0:00,EX200LC3,EX200,,LC,3,Large / Medium,"Hydraulic Excavator, Track - 19.0 to 21.0 Metric Tons",Florida,TEX,Track Excavators,,EROPS w AC,,,,,,,,,,,Auxiliary,,,,,,None or Unspecified,,,,Steel,24 inch,None or Unspecified,None or Unspecified,None or Unspecified,Double,,,,,
15044,2369637,30000,1355166,136,1.0,1000,9330.0,Medium,4/22/2010 0:00,EX200LC3,EX200,,LC,3,Large / Medium,"Hydraulic Excavator, Track - 19.0 to 21.0 Metric Tons",Utah,TEX,Track Excavators,,EROPS,,,,,,,,,,,Auxiliary,,,,,,None or Unspecified,,,,Steel,None or Unspecified,"9' 6""",Hydraulic,None or Unspecified,Double,,,,,
15044,2369646,23000,1496871,136,1.0,1000,0.0,,5/20/2010 0:00,EX200LC3,EX200,,LC,3,Large / Medium,"Hydraulic Excavator, Track - 19.0 to 21.0 Metric Tons",California,TEX,Track Excavators,,EROPS w AC,,,,,,,,,,,Standard,,,,,,Hydraulic,,,,Steel,None or Unspecified,"9' 6""",None or Unspecified,None or Unspecified,Double,,,,,
15044,2370038,23500,1453309,136,,1000,0.0,,5/29/2008 0:00,EX200LC3,EX200,,LC,3,Large / Medium,"Hydraulic Excavator, Track - 19.0 to 21.0 Metric Tons",Mississippi,TEX,Track Excavators,,EROPS,,,,,,,,,,,Standard,,,,,,None or Unspecified,,,,Steel,None or Unspecified,None or Unspecified,None or Unspecified,None or Unspecified,Double,,,,,
15044,2373147,21000,1539218,136,7.0,1994,0.0,,6/6/2007 0:00,EX200LC3,EX200,,LC,3,Large / Medium,"Hydraulic Excavator, Track - 19.0 to 21.0 Metric Tons",Alabama,TEX,Track Excavators,,EROPS,,,,,,,,,,,Standard,,,,,,None or Unspecified,,,,Steel,32 inch,"9' 6""",None or Unspecified,None or Unspecified,Triple,,,,,
15044,2373172,21000,1369004,136,1.0,1995,0.0,,9/13/2007 0:00,EX200LC3,EX200,,LC,3,Large / Medium,"Hydraulic Excavator, Track - 19.0 to 21.0 Metric Tons",Arizona,TEX,Track Excavators,,EROPS w AC,,,,,,,,,,,Auxiliary,,,,,,None or Unspecified,,,,Steel,None or Unspecified,"9' 6""",None or Unspecified,None or Unspecified,Double,,,,,
15044,2669369,23000,1165958,149,1.0,1994,10079.0,Medium,5/5/2011 0:00,EX200LC3,EX200,,LC,3,Large / Medium,"Hydraulic Excavator, Track - 19.0 to 21.0 Metric Tons",Maryland,TEX,Track Excavators,,EROPS,,,,,,,,,,,Auxiliary,,,,,,None or Unspecified,,,,Steel,None or Unspecified,"9' 6""",None or Unspecified,None or Unspecified,Double,,,,,
15044,2669391,20000,1852003,149,12.0,1995,8267.0,Medium,4/19/2011 0:00,EX200LC3,EX200,,LC,3,Large / Medium,"Hydraulic Excavator, Track - 19.0 to 21.0 Metric Tons",West Virginia,TEX,Track Excavators,,EROPS w AC,,,,,,,,,,,Standard,,,,,,None or Unspecified,,,,Steel,32 inch,None or Unspecified,Manual,None or Unspecified,Double,,,,,
15044,4333627,25000,1117421,172,1.0,1994,16043.0,Medium,3/29/2011 0:00,EX200LC3,EX200,,LC,3,Large / Medium,"Hydraulic Excavator, Track - 19.0 to 21.0 Metric Tons",Maryland,TEX,Track Excavators,,EROPS,,,,,,,,,,,Standard,,,,,,None or Unspecified,,,,Steel,None or Unspecified,"9' 7""",None or Unspecified,None or Unspecified,Double,,,,,
15044,4333630,19000,1203109,172,1.0,1995,8228.0,Medium,3/2/2010 0:00,EX200LC3,EX200,,LC,3,Large / Medium,"Hydraulic Excavator, Track - 19.0 to 21.0 Metric Tons",California,TEX,Track Excavators,,EROPS w AC,,,,,,,,,,,Auxiliary,,,,,,Hydraulic,,,,Steel,None or Unspecified,"9' 6""",None or Unspecified,None or Unspecified,Double,,,,,
15044,4333633,20000,1478869,172,1.0,1995,7440.0,Medium,8/24/2010 0:00,EX200LC3,EX200,,LC,3,Large / Medium,"Hydraulic Excavator, Track - 19.0 to 21.0 Metric Tons",Maryland,TEX,Track Excavators,,EROPS w AC,,,,,,,,,,,Standard,,,,,,None or Unspecified,,,,Steel,None or Unspecified,"9' 6""",Manual,None or Unspecified,Double,,,,,
15044,4333637,22000,1399891,172,1.0,1995,6996.0,Medium,3/4/2010 0:00,EX200LC3,EX200,,LC,3,Large / Medium,"Hydraulic Excavator, Track - 19.0 to 21.0 Metric Tons",Washington,TEX,Track Excavators,,EROPS,,,,,,,,,,,Standard,,,,,,Manual,,,,Steel,None or Unspecified,"9' 6""",Hydraulic,None or Unspecified,Double,,,,,
15044,4333644,17000,1233784,172,1.0,1996,10752.0,Medium,7/15/2010 0:00,EX200LC3,EX200,,LC,3,Large / Medium,"Hydraulic Excavator, Track - 19.0 to 21.0 Metric Tons",Texas,TEX,Track Excavators,,EROPS,,,,,,,,,,,Auxiliary,,,,,,None or Unspecified,,,,Steel,None or Unspecified,"9' 6""",None or Unspecified,None or Unspecified,Double,,,,,
15044,4333647,25000,1251090,172,1.0,1996,15541.0,Medium,3/15/2011 0:00,EX200LC3,EX200,,LC,3,Large / Medium,"Hydraulic Excavator, Track - 19.0 to 21.0 Metric Tons",Tennessee,TEX,Track Excavators,,EROPS,,,,,,,,,,,Standard,,,,,,None or Unspecified,,,,Steel,None or Unspecified,"9' 6""",None or Unspecified,None or Unspecified,Double,,,,,
15044,4333652,21000,2282493,172,1.0,1996,11629.0,Medium,10/6/2011 0:00,EX200LC3,EX200,,LC,3,Large / Medium,"Hydraulic Excavator, Track - 19.0 to 21.0 Metric Tons",Illinois,TEX,Track Excavators,,EROPS w AC,,,,,,,,,,,Auxiliary,,,,,,None or Unspecified,,,,Steel,None or Unspecified,None or Unspecified,Hydraulic,None or Unspecified,Triple,,,,,
15044,4337120,22500,1705463,172,1.0,1994,,,10/6/2011 0:00,EX200LC3,EX200,,LC,3,Large / Medium,"Hydraulic Excavator, Track - 19.0 to 21.0 Metric Tons",Illinois,TEX,Track Excavators,,EROPS w AC,,,,,,,,,,,Auxiliary,,,,,,Hydraulic,,,,Steel,None or Unspecified,None or Unspecified,Hydraulic,None or Unspecified,Double,,,,,
15044,6291760,19500,1899225,149,8.0,1994,,,11/16/2011 0:00,EX200LC3,EX200,,LC,3,Large / Medium,"Hydraulic Excavator, Track - 19.0 to 21.0 Metric Tons",Mississippi,TEX,Track Excavators,,EROPS,,,,,,,,,,,Standard,,,,,,None or Unspecified,,,,Steel,None or Unspecified,None or Unspecified,Manual,None or Unspecified,Triple,,,,,
15044,6291774,21000,1945490,149,1.0,1996,,,10/7/2011 0:00,EX200LC3,EX200,,LC,3,Large / Medium,"Hydraulic Excavator, Track - 19.0 to 21.0 Metric Tons",Illinois,TEX,Track Excavators,,EROPS,,,,,,,,,,,Standard,,,,,,None or Unspecified,,,,Steel,None or Unspecified,None or Unspecified,None or Unspecified,None or Unspecified,Double,,,,,
