ModelID,SalesID,SalePrice,MachineID,datasource,auctioneerID,YearMade,MachineHoursCurrentMeter,UsageBand,saledate,fiModelDesc,fiBaseModel,fiSecondaryDesc,fiModelSeries,fiModelDescriptor,ProductSize,fiProductClassDesc,state,ProductGroup,ProductGroupDesc,Drive_System,Enclosure,Forks,Pad_Type,Ride_Control,Stick,Transmission,Turbocharged,Blade_Extension,Blade_Width,Enclosure_Type,Engine_Horsepower,Hydraulics,Pushblock,Ripper,Scarifier,Tip_Control,Tire_Size,Coupler,Coupler_System,Grouser_Tracks,Hydraulics_Flow,Track_Type,Undercarriage_Pad_Width,Stick_Length,Thumb,Pattern_Changer,Grouser_Type,Backhoe_Mounting,Blade_Type,Travel_Controls,Differential_Type,Steering_Controls
15124,1678400,15000,1302777,132,99.0,1994,,,7/10/2000 0:00,EX40UR,EX40,UR,,,Mini,"Hydraulic Excavator, Track - 3.0 to 4.0 Metric Tons",Oregon,TEX,Track Excavators,,EROPS,,,,,,,,,,,Standard,,,,,,None or Unspecified,,,,Steel,None or Unspecified,None or Unspecified,None or Unspecified,None or Unspecified,Double,,,,,
15124,1683541,9250,1546035,132,2.0,1000,,,2/1/2004 0:00,EX40UR,EX40,UR,,,Mini,"Hydraulic Excavator, Track - 3.0 to 4.0 Metric Tons",Florida,TEX,Track Excavators,,EROPS,,,,,,,,,,,Standard,,,,,,None or Unspecified,,,,Steel,None or Unspecified,None or Unspecified,None or Unspecified,None or Unspecified,Double,,,,,
15124,1687836,10500,1332197,132,2.0,1000,,,5/25/2005 0:00,EX40UR,EX40,UR,,,Mini,"Hydraulic Excavator, Track - 3.0 to 4.0 Metric Tons",Florida,TEX,Track Excavators,,EROPS,,,,,,,,,,,Standard,,,,,,None or Unspecified,,,,Rubber,None or Unspecified,None or Unspecified,None or Unspecified,None or Unspecified,Double,,,,,
15124,1688368,10500,1122146,132,2.0,1000,,,1/30/2005 0:00,EX40UR,EX40,UR,,,Mini,"Hydraulic Excavator, Track - 3.0 to 4.0 Metric Tons",Florida,TEX,Track Excavators,,EROPS,,,,,,,,,,,Standard,,,,,,None or Unspecified,,,,Rubber,None or Unspecified,None or Unspecified,None or Unspecified,None or Unspecified,Double,,,,,
15124,1688369,9000,1213218,132,8.0,1000,,,3/23/2005 0:00,EX40UR,EX40,UR,,,Mini,"Hydraulic Excavator, Track - 3.0 to 4.0 Metric Tons",Mississippi,TEX,Track Excavators,,EROPS,,,,,,,,,,,Standard,,,,,,None or Unspecified,,,,Steel,None or Unspecified,None or Unspecified,None or Unspecified,None or Unspecified,Double,,,,,
15124,1688371,8000,1462641,132,1.0,1992,,,9/29/2004 0:00,EX40UR,EX40,UR,,,Mini,"Hydraulic Excavator, Track - 3.0 to 4.0 Metric Tons",Washington,TEX,Track Excavators,,EROPS,,,,,,,,,,,Standard,,,,,,None or Unspecified,,,,Rubber,None or Unspecified,None or Unspecified,None or Unspecified,None or Unspecified,Double,,,,,
15124,1688378,8000,1528750,132,13.0,1000,,,9/10/2005 0:00,EX40UR,EX40,UR,,,Mini,"Hydraulic Excavator, Track - 3.0 to 4.0 Metric Tons",Tennessee,TEX,Track Excavators,,EROPS,,,,,,,,,,,Standard,,,,,,None or Unspecified,,,,Rubber,None or Unspecified,None or Unspecified,None or Unspecified,None or Unspecified,Double,,,,,
15124,1688384,8000,1209986,132,2.0,1997,,,1/30/2005 0:00,EX40UR,EX40,UR,,,Mini,"Hydraulic Excavator, Track - 3.0 to 4.0 Metric Tons",Florida,TEX,Track Excavators,,EROPS,,,,,,,,,,,Standard,,,,,,None or Unspecified,,,,Rubber,None or Unspecified,None or Unspecified,None or Unspecified,None or Unspecified,Double,,,,,
15124,1689571,9000,1087276,132,1.0,1000,,,9/20/2006 0:00,EX40UR,EX40,UR,,,Mini,"Hydraulic Excavator, Track - 3.0 to 4.0 Metric Tons",Washington,TEX,Track Excavators,,EROPS,,,,,,,,,,,Standard,,,,,,None or Unspecified,,,,Steel,None or Unspecified,None or Unspecified,None or Unspecified,None or Unspecified,Double,,,,,
15124,1691487,10500,1418700,132,2.0,1000,,,2/2/2005 0:00,EX40UR,EX40,UR,,,Mini,"Hydraulic Excavator, Track - 3.0 to 4.0 Metric Tons",Florida,TEX,Track Excavators,,EROPS,,,,,,,,,,,Standard,,,,,,None or Unspecified,,,,Rubber,None or Unspecified,None or Unspecified,None or Unspecified,None or Unspecified,Double,,,,,
15124,1691493,8750,1418700,132,2.0,1000,,,2/4/2005 0:00,EX40UR,EX40,UR,,,Mini,"Hydraulic Excavator, Track - 3.0 to 4.0 Metric Tons",Florida,TEX,Track Excavators,,EROPS,,,,,,,,,,,Standard,,,,,,None or Unspecified,,,,Rubber,None or Unspecified,None or Unspecified,None or Unspecified,None or Unspecified,Double,,,,,
15124,1691582,8250,1536836,132,2.0,1994,,,10/13/2001 0:00,EX40UR,EX40,UR,,,Mini,"Hydraulic Excavator, Track - 3.0 to 4.0 Metric Tons",Tennessee,TEX,Track Excavators,,EROPS,,,,,,,,,,,Standard,,,,,,None or Unspecified,,,,Rubber,None or Unspecified,None or Unspecified,None or Unspecified,None or Unspecified,Double,,,,,
15124,1691698,11000,1216420,132,2.0,1997,,,4/22/2004 0:00,EX40UR,EX40,UR,,,Mini,"Hydraulic Excavator, Track - 3.0 to 4.0 Metric Tons",Florida,TEX,Track Excavators,,EROPS,,,,,,,,,,,Standard,,,,,,None or Unspecified,,,,Rubber,None or Unspecified,None or Unspecified,None or Unspecified,None or Unspecified,Double,,,,,
15124,1691777,10000,1358140,132,2.0,1994,,,9/6/2003 0:00,EX40UR,EX40,UR,,,Mini,"Hydraulic Excavator, Track - 3.0 to 4.0 Metric Tons",New Hampshire,TEX,Track Excavators,,EROPS,,,,,,,,,,,Standard,,,,,,None or Unspecified,,,,Rubber,None or Unspecified,None or Unspecified,None or Unspecified,None or Unspecified,Double,,,,,
15124,1691781,10000,1472880,132,2.0,1000,,,1/13/2007 0:00,EX40UR,EX40,UR,,,Mini,"Hydraulic Excavator, Track - 3.0 to 4.0 Metric Tons",Ohio,TEX,Track Excavators,,EROPS,,,,,,,,,,,Standard,,,,,,None or Unspecified,,,,Rubber,None or Unspecified,None or Unspecified,None or Unspecified,None or Unspecified,Double,,,,,
15124,1692680,12000,1359547,132,10.0,1000,,,3/13/2007 0:00,EX40UR,EX40,UR,,,Mini,"Hydraulic Excavator, Track - 3.0 to 4.0 Metric Tons",Louisiana,TEX,Track Excavators,,EROPS,,,,,,,,,,,Standard,,,,,,None or Unspecified,,,,Rubber,None or Unspecified,None or Unspecified,None or Unspecified,None or Unspecified,Double,,,,,
15124,1692681,8000,1359547,132,1.0,1000,,,3/29/2007 0:00,EX40UR,EX40,UR,,,Mini,"Hydraulic Excavator, Track - 3.0 to 4.0 Metric Tons",Texas,TEX,Track Excavators,,EROPS,,,,,,,,,,,Standard,,,,,,None or Unspecified,,,,Rubber,None or Unspecified,None or Unspecified,None or Unspecified,None or Unspecified,Double,,,,,
15124,1692682,11000,1359547,132,7.0,1000,,,3/7/2007 0:00,EX40UR,EX40,UR,,,Mini,"Hydraulic Excavator, Track - 3.0 to 4.0 Metric Tons",Alabama,TEX,Track Excavators,,EROPS,,,,,,,,,,,Standard,,,,,,None or Unspecified,,,,Rubber,None or Unspecified,None or Unspecified,None or Unspecified,None or Unspecified,Double,,,,,
15124,1692683,9500,1447613,132,1.0,1994,,,12/7/2000 0:00,EX40UR,EX40,UR,,,Mini,"Hydraulic Excavator, Track - 3.0 to 4.0 Metric Tons",Washington,TEX,Track Excavators,,EROPS,,,,,,,,,,,Standard,,,,,,None or Unspecified,,,,Steel,None or Unspecified,None or Unspecified,None or Unspecified,None or Unspecified,Double,,,,,
15124,1692791,12000,1313074,132,10.0,1000,,,3/14/2007 0:00,EX40UR,EX40,UR,,,Mini,"Hydraulic Excavator, Track - 3.0 to 4.0 Metric Tons",Louisiana,TEX,Track Excavators,,EROPS,,,,,,,,,,,Standard,,,,,,None or Unspecified,,,,Rubber,None or Unspecified,None or Unspecified,None or Unspecified,None or Unspecified,Double,,,,,
15124,2371243,8000,1682541,136,,1992,0.0,,9/6/2007 0:00,EX40UR,EX40,UR,,,Mini,"Hydraulic Excavator, Track - 3.0 to 4.0 Metric Tons",California,TEX,Track Excavators,,EROPS,,,,,,,,,,,Standard,,,,,,None or Unspecified,,,,Rubber,None or Unspecified,None or Unspecified,None or Unspecified,None or Unspecified,Double,,,,,
