ModelID,SalesID,SalePrice,MachineID,datasource,auctioneerID,YearMade,MachineHoursCurrentMeter,UsageBand,saledate,fiModelDesc,fiBaseModel,fiSecondaryDesc,fiModelSeries,fiModelDescriptor,ProductSize,fiProductClassDesc,state,ProductGroup,ProductGroupDesc,Drive_System,Enclosure,Forks,Pad_Type,Ride_Control,Stick,Transmission,Turbocharged,Blade_Extension,Blade_Width,Enclosure_Type,Engine_Horsepower,Hydraulics,Pushblock,Ripper,Scarifier,Tip_Control,Tire_Size,Coupler,Coupler_System,Grouser_Tracks,Hydraulics_Flow,Track_Type,Undercarriage_Pad_Width,Stick_Length,Thumb,Pattern_Changer,Grouser_Type,Backhoe_Mounting,Blade_Type,Travel_Controls,Differential_Type,Steering_Controls
15159,1144266,36500,700465,121,3.0,1000,9872.0,Medium,1/28/2010 0:00,EX700H,EX700,H,,,Large / Medium,"Hydraulic Excavator, Track - 66.0 to 90.0 Metric Tons",Illinois,TEX,Track Excavators,,EROPS w AC,,,,,,,,,,,Standard,,,,,,None or Unspecified,,,,Steel,None or Unspecified,None or Unspecified,None or Unspecified,None or Unspecified,Double,,,,,
15159,1211458,46000,1030295,121,3.0,1000,,,3/31/2011 0:00,EX700H,EX700,H,,,Large / Medium,"Hydraulic Excavator, Track - 66.0 to 90.0 Metric Tons",Idaho,TEX,Track Excavators,,EROPS,,,,,,,,,,,Auxiliary,,,,,,None or Unspecified,,,,Steel,26 inch,None or Unspecified,None or Unspecified,None or Unspecified,Double,,,,,
15159,1687454,70000,1282215,132,1.0,1990,,,9/23/1998 0:00,EX700H,EX700,H,,,Large / Medium,"Hydraulic Excavator, Track - 66.0 to 90.0 Metric Tons",Texas,TEX,Track Excavators,,EROPS,,,,,,,,,,,Standard,,,,,,None or Unspecified,,,,Steel,None or Unspecified,None or Unspecified,None or Unspecified,None or Unspecified,Double,,,,,
15159,1687466,82500,1265530,132,1.0,1992,,,8/29/2006 0:00,EX700H,EX700,H,,,Large / Medium,"Hydraulic Excavator, Track - 66.0 to 90.0 Metric Tons",California,TEX,Track Excavators,,EROPS,,,,,,,,,,,Standard,,,,,,None or Unspecified,,,,Steel,None or Unspecified,"11' 10""",None or Unspecified,None or Unspecified,Double,,,,,
15159,1687497,34000,1161489,132,1.0,1993,,,8/17/2010 0:00,EX700H,EX700,H,,,Large / Medium,"Hydraulic Excavator, Track - 66.0 to 90.0 Metric Tons",Utah,TEX,Track Excavators,,EROPS w AC,,,,,,,,,,,Auxiliary,,,,,,None or Unspecified,,,,Steel,36 inch,None or Unspecified,None or Unspecified,None or Unspecified,Double,,,,,
15159,1687498,62500,1161489,132,1.0,1993,,,2/27/2007 0:00,EX700H,EX700,H,,,Large / Medium,"Hydraulic Excavator, Track - 66.0 to 90.0 Metric Tons",California,TEX,Track Excavators,,EROPS w AC,,,,,,,,,,,Auxiliary,,,,,,None or Unspecified,,,,Steel,36 inch,None or Unspecified,None or Unspecified,None or Unspecified,Double,,,,,
15159,1687499,35000,1161489,132,19.0,1993,,,4/27/2004 0:00,EX700H,EX700,H,,,Large / Medium,"Hydraulic Excavator, Track - 66.0 to 90.0 Metric Tons",California,TEX,Track Excavators,,EROPS w AC,,,,,,,,,,,Auxiliary,,,,,,None or Unspecified,,,,Steel,36 inch,None or Unspecified,None or Unspecified,None or Unspecified,Double,,,,,
15159,4334256,34000,1514126,172,1.0,1993,6464.0,Low,8/17/2010 0:00,EX700H,EX700,H,,,Large / Medium,"Hydraulic Excavator, Track - 66.0 to 90.0 Metric Tons",Utah,TEX,Track Excavators,,EROPS w AC,,,,,,,,,,,Standard,,,,,,None or Unspecified,,,,Steel,None or Unspecified,None or Unspecified,None or Unspecified,None or Unspecified,Double,,,,,
