ModelID,SalesID,SalePrice,MachineID,datasource,auctioneerID,YearMade,MachineHoursCurrentMeter,UsageBand,saledate,fiModelDesc,fiBaseModel,fiSecondaryDesc,fiModelSeries,fiModelDescriptor,ProductSize,fiProductClassDesc,state,ProductGroup,ProductGroupDesc,Drive_System,Enclosure,Forks,Pad_Type,Ride_Control,Stick,Transmission,Turbocharged,Blade_Extension,Blade_Width,Enclosure_Type,Engine_Horsepower,Hydraulics,Pushblock,Ripper,Scarifier,Tip_Control,Tire_Size,Coupler,Coupler_System,Grouser_Tracks,Hydraulics_Flow,Track_Type,Undercarriage_Pad_Width,Stick_Length,Thumb,Pattern_Changer,Grouser_Type,Backhoe_Mounting,Blade_Type,Travel_Controls,Differential_Type,Steering_Controls
15261,1168477,70000,1061614,121,3.0,2005,2367.0,Medium,7/26/2007 0:00,ZX200LC,ZX200,,,LC,Large / Medium,"Hydraulic Excavator, Track - 19.0 to 21.0 Metric Tons",Georgia,TEX,Track Excavators,,EROPS w AC,,,,,,,,,,,Standard,,,,,,None or Unspecified,,,,Steel,None or Unspecified,None or Unspecified,Manual,None or Unspecified,Double,,,,,
15261,1178224,85000,1067839,121,3.0,2006,1841.0,Medium,4/28/2008 0:00,ZX200LC,ZX200,,,LC,Large / Medium,"Hydraulic Excavator, Track - 19.0 to 21.0 Metric Tons",Virginia,TEX,Track Excavators,,EROPS w AC,,,,,,,,,,,Standard,,,,,,None or Unspecified,,,,Steel,None or Unspecified,None or Unspecified,Manual,None or Unspecified,Double,,,,,
15261,1178595,79000,1007006,121,3.0,2005,1212.0,Low,4/17/2008 0:00,ZX200LC,ZX200,,,LC,Large / Medium,"Hydraulic Excavator, Track - 19.0 to 21.0 Metric Tons",Florida,TEX,Track Excavators,,EROPS w AC,,,,,,,,,,,Standard,,,,,,None or Unspecified,,,,Steel,None or Unspecified,None or Unspecified,None or Unspecified,None or Unspecified,Double,,,,,
15261,1181309,52000,1029530,121,3.0,2002,7207.0,High,7/24/2008 0:00,ZX200LC,ZX200,,,LC,Large / Medium,"Hydraulic Excavator, Track - 19.0 to 21.0 Metric Tons",Idaho,TEX,Track Excavators,,EROPS w AC,,,,,,,,,,,Standard,,,,,,None or Unspecified,,,,Steel,None or Unspecified,None or Unspecified,Manual,None or Unspecified,Double,,,,,
15261,1181695,49000,1049698,121,3.0,2003,3645.0,Medium,8/7/2008 0:00,ZX200LC,ZX200,,,LC,Large / Medium,"Hydraulic Excavator, Track - 19.0 to 21.0 Metric Tons",Texas,TEX,Track Excavators,,EROPS w AC,,,,,,,,,,,Standard,,,,,,None or Unspecified,,,,Steel,None or Unspecified,None or Unspecified,None or Unspecified,None or Unspecified,Double,,,,,
15261,1189723,64000,1013477,121,3.0,2007,3812.0,High,4/30/2009 0:00,ZX200LC,ZX200,,,LC,Large / Medium,"Hydraulic Excavator, Track - 19.0 to 21.0 Metric Tons",Texas,TEX,Track Excavators,,EROPS w AC,,,,,,,,,,,Standard,,,,,,None or Unspecified,,,,Steel,None or Unspecified,"10' 2""",None or Unspecified,None or Unspecified,Double,,,,,
15261,1190052,71000,1009042,121,3.0,2006,2560.0,Medium,6/11/2009 0:00,ZX200LC,ZX200,,,LC,Large / Medium,"Hydraulic Excavator, Track - 19.0 to 21.0 Metric Tons",Florida,TEX,Track Excavators,,EROPS w AC,,,,,,,,,,,Standard,,,,,,None or Unspecified,,,,Steel,32 inch,None or Unspecified,None or Unspecified,None or Unspecified,Double,,,,,
15261,1203805,61000,1029164,121,3.0,2003,6486.0,Medium,6/30/2010 0:00,ZX200LC,ZX200,,,LC,Large / Medium,"Hydraulic Excavator, Track - 19.0 to 21.0 Metric Tons",Oregon,TEX,Track Excavators,,EROPS w AC,,,,,,,,,,,Auxiliary,,,,,,Hydraulic,,,,Steel,None or Unspecified,"9' 7""",None or Unspecified,None or Unspecified,Double,,,,,
15261,1204230,44000,998952,121,3.0,2004,,,7/8/2010 0:00,ZX200LC,ZX200,,,LC,Large / Medium,"Hydraulic Excavator, Track - 19.0 to 21.0 Metric Tons",Texas,TEX,Track Excavators,,EROPS w AC,,,,,,,,,,,Standard,,,,,,None or Unspecified,,,,Steel,None or Unspecified,None or Unspecified,Hydraulic,None or Unspecified,Double,,,,,
15261,1208100,53000,1002817,121,3.0,2004,7901.0,High,3/24/2011 0:00,ZX200LC,ZX200,,,LC,Large / Medium,"Hydraulic Excavator, Track - 19.0 to 21.0 Metric Tons",Texas,TEX,Track Excavators,,EROPS w AC,,,,,,,,,,,Standard,,,,,,None or Unspecified,,,,Steel,None or Unspecified,"9' 7""",None or Unspecified,None or Unspecified,Double,,,,,
15261,1213631,47000,1012970,121,3.0,1000,7480.0,Low,3/24/2011 0:00,ZX200LC,ZX200,,,LC,Large / Medium,"Hydraulic Excavator, Track - 19.0 to 21.0 Metric Tons",Texas,TEX,Track Excavators,,EROPS w AC,,,,,,,,,,,Standard,,,,,,None or Unspecified,,,,Steel,None or Unspecified,"9' 7""",None or Unspecified,None or Unspecified,Double,,,,,
15261,1215611,61000,1015898,121,3.0,2005,6536.0,High,7/14/2011 0:00,ZX200LC,ZX200,,,LC,Large / Medium,"Hydraulic Excavator, Track - 19.0 to 21.0 Metric Tons",Texas,TEX,Track Excavators,,EROPS w AC,,,,,,,,,,,Standard,,,,,,None or Unspecified,,,,Steel,None or Unspecified,"9' 6""",None or Unspecified,None or Unspecified,Double,,,,,
15261,1678336,45000,1369403,132,1.0,2005,,,3/18/2009 0:00,ZX200LC,ZX200,,,LC,Large / Medium,"Hydraulic Excavator, Track - 19.0 to 21.0 Metric Tons",Washington,TEX,Track Excavators,,EROPS,,,,,,,,,,,Standard,,,,,,Manual,,,,Steel,None or Unspecified,"9' 6""",Hydraulic,None or Unspecified,Double,,,,,
15261,1678530,72500,1328931,132,2.0,2000,,,3/23/2006 0:00,ZX200LC,ZX200,,,LC,Large / Medium,"Hydraulic Excavator, Track - 19.0 to 21.0 Metric Tons",New Jersey,TEX,Track Excavators,,EROPS w AC,,,,,,,,,,,Standard,,,,,,None or Unspecified,,,,Steel,24 inch,None or Unspecified,None or Unspecified,None or Unspecified,Double,,,,,
15261,1678532,70000,1236974,132,2.0,2000,,,2/10/2006 0:00,ZX200LC,ZX200,,,LC,Large / Medium,"Hydraulic Excavator, Track - 19.0 to 21.0 Metric Tons",Florida,TEX,Track Excavators,,EROPS w AC,,,,,,,,,,,Standard,,,,,,None or Unspecified,,,,Steel,32 inch,None or Unspecified,None or Unspecified,None or Unspecified,Double,,,,,
15261,1678533,67500,1236974,132,12.0,2001,2500.0,Low,3/20/2008 0:00,ZX200LC,ZX200,,,LC,Large / Medium,"Hydraulic Excavator, Track - 19.0 to 21.0 Metric Tons",South Carolina,TEX,Track Excavators,,EROPS w AC,,,,,,,,,,,Standard,,,,,,None or Unspecified,,,,Steel,32 inch,None or Unspecified,None or Unspecified,None or Unspecified,Double,,,,,
15261,1678536,65000,1295938,132,7.0,1000,,,4/20/2006 0:00,ZX200LC,ZX200,,,LC,Large / Medium,"Hydraulic Excavator, Track - 19.0 to 21.0 Metric Tons",South Carolina,TEX,Track Excavators,,EROPS w AC,,,,,,,,,,,Standard,,,,,,None or Unspecified,,,,Steel,32 inch,"9' 6""",Manual,None or Unspecified,Triple,,,,,
15261,1678537,50000,1295938,132,8.0,1000,,,5/24/2006 0:00,ZX200LC,ZX200,,,LC,Large / Medium,"Hydraulic Excavator, Track - 19.0 to 21.0 Metric Tons",Mississippi,TEX,Track Excavators,,EROPS w AC,,,,,,,,,,,Standard,,,,,,None or Unspecified,,,,Steel,32 inch,"9' 6""",Manual,None or Unspecified,Triple,,,,,
15261,1678603,65000,1339592,132,2.0,2001,,,3/22/2007 0:00,ZX200LC,ZX200,,,LC,Large / Medium,"Hydraulic Excavator, Track - 19.0 to 21.0 Metric Tons",New Jersey,TEX,Track Excavators,,EROPS w AC,,,,,,,,,,,Standard,,,,,,None or Unspecified,,,,Steel,32 inch,None or Unspecified,None or Unspecified,None or Unspecified,Double,,,,,
15261,1678635,57500,1105952,132,1.0,2001,,,9/13/2005 0:00,ZX200LC,ZX200,,,LC,Large / Medium,"Hydraulic Excavator, Track - 19.0 to 21.0 Metric Tons",California,TEX,Track Excavators,,EROPS w AC,,,,,,,,,,,Standard,,,,,,None or Unspecified,,,,Steel,None or Unspecified,"9' 6""",None or Unspecified,None or Unspecified,Double,,,,,
15261,1678638,65000,1319387,132,1.0,2002,3135.0,Medium,5/24/2007 0:00,ZX200LC,ZX200,,,LC,Large / Medium,"Hydraulic Excavator, Track - 19.0 to 21.0 Metric Tons",Florida,TEX,Track Excavators,,EROPS w AC,,,,,,,,,,,Standard,,,,,,None or Unspecified,,,,Steel,None or Unspecified,"9' 7""",Manual,None or Unspecified,Double,,,,,
15261,1678682,51000,1099629,132,1.0,2003,3124.0,Medium,10/15/2008 0:00,ZX200LC,ZX200,,,LC,Large / Medium,"Hydraulic Excavator, Track - 19.0 to 21.0 Metric Tons",Florida,TEX,Track Excavators,,EROPS w AC,,,,,,,,,,,Auxiliary,,,,,,None or Unspecified,,,,Steel,None or Unspecified,"9' 7""",None or Unspecified,None or Unspecified,Double,,,,,
15261,1678683,71000,1396446,132,1.0,2003,,,11/15/2006 0:00,ZX200LC,ZX200,,,LC,Large / Medium,"Hydraulic Excavator, Track - 19.0 to 21.0 Metric Tons",Georgia,TEX,Track Excavators,,EROPS w AC,,,,,,,,,,,Standard,,,,,,None or Unspecified,,,,Steel,None or Unspecified,"9' 6""",Manual,None or Unspecified,Double,,,,,
15261,1678685,70000,1130238,132,1.0,2003,,,11/15/2006 0:00,ZX200LC,ZX200,,,LC,Large / Medium,"Hydraulic Excavator, Track - 19.0 to 21.0 Metric Tons",Georgia,TEX,Track Excavators,,EROPS w AC,,,,,,,,,,,Standard,,,,,,None or Unspecified,,,,Steel,None or Unspecified,"9' 6""",Manual,None or Unspecified,Double,,,,,
15261,1678688,43000,1499904,132,1.0,2002,,,12/16/2008 0:00,ZX200LC,ZX200,,,LC,Large / Medium,"Hydraulic Excavator, Track - 19.0 to 21.0 Metric Tons",Washington,TEX,Track Excavators,,EROPS,,,,,,,,,,,Standard,,,,,,None or Unspecified,,,,Steel,None or Unspecified,None or Unspecified,Hydraulic,None or Unspecified,Double,,,,,
15261,1678690,45000,1154760,132,1.0,2002,,,9/16/2008 0:00,ZX200LC,ZX200,,,LC,Large / Medium,"Hydraulic Excavator, Track - 19.0 to 21.0 Metric Tons",Washington,TEX,Track Excavators,,EROPS,,,,,,,,,,,Auxiliary,,,,,,Manual,,,,Steel,None or Unspecified,"9' 6""",Hydraulic,None or Unspecified,Double,,,,,
15261,1678747,95000,1075373,132,1.0,2003,,,6/20/2006 0:00,ZX200LC,ZX200,,,LC,Large / Medium,"Hydraulic Excavator, Track - 19.0 to 21.0 Metric Tons",Washington,TEX,Track Excavators,,EROPS,,,,,,,,,,,Standard,,,,,,None or Unspecified,,,,Steel,None or Unspecified,None or Unspecified,None or Unspecified,None or Unspecified,Double,,,,,
15261,1678759,107500,1381307,132,1.0,2003,,,6/20/2006 0:00,ZX200LC,ZX200,,,LC,Large / Medium,"Hydraulic Excavator, Track - 19.0 to 21.0 Metric Tons",Washington,TEX,Track Excavators,,EROPS,,,,,,,,,,,Standard,,,,,,None or Unspecified,,,,Steel,None or Unspecified,None or Unspecified,None or Unspecified,None or Unspecified,Double,,,,,
15261,1678769,70000,1224843,132,1.0,2003,,,11/15/2006 0:00,ZX200LC,ZX200,,,LC,Large / Medium,"Hydraulic Excavator, Track - 19.0 to 21.0 Metric Tons",Georgia,TEX,Track Excavators,,EROPS w AC,,,,,,,,,,,Standard,,,,,,None or Unspecified,,,,Steel,None or Unspecified,"9' 6""",Manual,None or Unspecified,Double,,,,,
15261,1679118,77500,1082710,132,1.0,2003,2067.0,Medium,2/23/2007 0:00,ZX200LC,ZX200,,,LC,Large / Medium,"Hydraulic Excavator, Track - 19.0 to 21.0 Metric Tons",Florida,TEX,Track Excavators,,EROPS w AC,,,,,,,,,,,Standard,,,,,,None or Unspecified,,,,Steel,None or Unspecified,"9' 6""",Manual,None or Unspecified,Double,,,,,
15261,1679119,70000,1082710,132,1.0,2003,,,11/15/2006 0:00,ZX200LC,ZX200,,,LC,Large / Medium,"Hydraulic Excavator, Track - 19.0 to 21.0 Metric Tons",Georgia,TEX,Track Excavators,,EROPS w AC,,,,,,,,,,,Standard,,,,,,None or Unspecified,,,,Steel,None or Unspecified,"9' 6""",Manual,None or Unspecified,Double,,,,,
15261,1679120,39000,1403467,132,1.0,2003,4186.0,Medium,12/16/2008 0:00,ZX200LC,ZX200,,,LC,Large / Medium,"Hydraulic Excavator, Track - 19.0 to 21.0 Metric Tons",Washington,TEX,Track Excavators,,EROPS,,,,,,,,,,,Auxiliary,,,,,,None or Unspecified,,,,Steel,None or Unspecified,None or Unspecified,Manual,None or Unspecified,Double,,,,,
15261,1679127,56000,1085525,132,1.0,2003,5612.0,Medium,4/19/2011 0:00,ZX200LC,ZX200,,,LC,Large / Medium,"Hydraulic Excavator, Track - 19.0 to 21.0 Metric Tons",Utah,TEX,Track Excavators,,EROPS w AC,,,,,,,,,,,Auxiliary,,,,,,None or Unspecified,,,,Steel,None or Unspecified,"9' 6""",None or Unspecified,None or Unspecified,Double,,,,,
15261,1679148,52500,1209203,132,1.0,2003,7343.0,Medium,2/24/2011 0:00,ZX200LC,ZX200,,,LC,Large / Medium,"Hydraulic Excavator, Track - 19.0 to 21.0 Metric Tons",Arizona,TEX,Track Excavators,,EROPS w AC,,,,,,,,,,,Standard,,,,,,None or Unspecified,,,,Steel,None or Unspecified,"8' 6""",None or Unspecified,None or Unspecified,Double,,,,,
15261,1679212,67500,1484271,132,1.0,2004,,,6/16/2011 0:00,ZX200LC,ZX200,,,LC,Large / Medium,"Hydraulic Excavator, Track - 19.0 to 21.0 Metric Tons",Washington,TEX,Track Excavators,,EROPS,,,,,,,,,,,Auxiliary,,,,,,None or Unspecified,,,,Steel,None or Unspecified,"9' 6""",Hydraulic,None or Unspecified,Double,,,,,
15261,1679213,65000,1413436,132,1.0,2004,4477.0,Medium,6/16/2011 0:00,ZX200LC,ZX200,,,LC,Large / Medium,"Hydraulic Excavator, Track - 19.0 to 21.0 Metric Tons",Washington,TEX,Track Excavators,,EROPS,,,,,,,,,,,Auxiliary,,,,,,None or Unspecified,,,,Steel,None or Unspecified,"9' 6""",None or Unspecified,None or Unspecified,Double,,,,,
15261,1680182,67000,1433504,132,1.0,1000,,,3/4/2009 0:00,ZX200LC,ZX200,,,LC,Large / Medium,"Hydraulic Excavator, Track - 19.0 to 21.0 Metric Tons",Texas,TEX,Track Excavators,,EROPS w AC,,,,,,,,,,,Standard,,,,,,None or Unspecified,,,,Steel,None or Unspecified,"9' 6""",None or Unspecified,None or Unspecified,Double,,,,,
15261,1680183,45000,1138333,132,1.0,2005,3240.0,Medium,3/18/2009 0:00,ZX200LC,ZX200,,,LC,Large / Medium,"Hydraulic Excavator, Track - 19.0 to 21.0 Metric Tons",Washington,TEX,Track Excavators,,EROPS,,,,,,,,,,,Standard,,,,,,None or Unspecified,,,,Steel,None or Unspecified,"9' 6""",Hydraulic,None or Unspecified,Double,,,,,
15261,1680184,65000,1363022,132,1.0,1000,5503.0,Low,8/24/2011 0:00,ZX200LC,ZX200,,,LC,Large / Medium,"Hydraulic Excavator, Track - 19.0 to 21.0 Metric Tons",Texas,TEX,Track Excavators,,EROPS w AC,,,,,,,,,,,Standard,,,,,,None or Unspecified,,,,Steel,None or Unspecified,"9' 6""",None or Unspecified,None or Unspecified,Double,,,,,
15261,1680191,42500,1193170,132,1.0,2004,3985.0,Medium,8/11/2009 0:00,ZX200LC,ZX200,,,LC,Large / Medium,"Hydraulic Excavator, Track - 19.0 to 21.0 Metric Tons",Utah,TEX,Track Excavators,,EROPS w AC,,,,,,,,,,,Standard,,,,,,None or Unspecified,,,,Steel,None or Unspecified,"9' 6""",None or Unspecified,None or Unspecified,Double,,,,,
15261,1680216,45000,1307132,132,1.0,2004,4856.0,High,12/3/2008 0:00,ZX200LC,ZX200,,,LC,Large / Medium,"Hydraulic Excavator, Track - 19.0 to 21.0 Metric Tons",Texas,TEX,Track Excavators,,EROPS w AC,,,,,,,,,,,Standard,,,,,,None or Unspecified,,,,Steel,None or Unspecified,None or Unspecified,None or Unspecified,None or Unspecified,Double,,,,,
15261,1680227,72500,1379052,132,1.0,2004,1926.0,Medium,5/28/2008 0:00,ZX200LC,ZX200,,,LC,Large / Medium,"Hydraulic Excavator, Track - 19.0 to 21.0 Metric Tons",Florida,TEX,Track Excavators,,EROPS w AC,,,,,,,,,,,Standard,,,,,,None or Unspecified,,,,Steel,None or Unspecified,"9' 7""",Manual,None or Unspecified,Double,,,,,
15261,1680228,87500,1379052,132,1.0,2004,1920.0,Medium,10/10/2007 0:00,ZX200LC,ZX200,,,LC,Large / Medium,"Hydraulic Excavator, Track - 19.0 to 21.0 Metric Tons",Florida,TEX,Track Excavators,,EROPS w AC,,,,,,,,,,,Standard,,,,,,None or Unspecified,,,,Steel,None or Unspecified,"9' 7""",Manual,None or Unspecified,Double,,,,,
15261,1680230,54000,1380441,132,1.0,2005,3085.0,Medium,12/10/2009 0:00,ZX200LC,ZX200,,,LC,Large / Medium,"Hydraulic Excavator, Track - 19.0 to 21.0 Metric Tons",Washington,TEX,Track Excavators,,EROPS,,,,,,,,,,,Standard,,,,,,None or Unspecified,,,,Steel,None or Unspecified,"9' 6""",None or Unspecified,None or Unspecified,Double,,,,,
15261,1680236,50000,1192170,132,1.0,2005,3064.0,Medium,12/9/2008 0:00,ZX200LC,ZX200,,,LC,Large / Medium,"Hydraulic Excavator, Track - 19.0 to 21.0 Metric Tons",North Carolina,TEX,Track Excavators,,EROPS w AC,,,,,,,,,,,Standard,,,,,,None or Unspecified,,,,Steel,None or Unspecified,"9' 6""",None or Unspecified,None or Unspecified,Double,,,,,
15261,1680243,107500,1230387,132,1.0,2005,,,6/20/2006 0:00,ZX200LC,ZX200,,,LC,Large / Medium,"Hydraulic Excavator, Track - 19.0 to 21.0 Metric Tons",Washington,TEX,Track Excavators,,EROPS,,,,,,,,,,,Standard,,,,,,None or Unspecified,,,,Steel,None or Unspecified,"9' 6""",None or Unspecified,None or Unspecified,Double,,,,,
15261,1680246,87500,1155847,132,1.0,2004,,,10/10/2006 0:00,ZX200LC,ZX200,,,LC,Large / Medium,"Hydraulic Excavator, Track - 19.0 to 21.0 Metric Tons",Florida,TEX,Track Excavators,,EROPS w AC,,,,,,,,,,,Standard,,,,,,None or Unspecified,,,,Steel,None or Unspecified,"9' 8""",None or Unspecified,None or Unspecified,Double,,,,,
15261,1680251,53000,1327076,132,1.0,2005,4502.0,High,10/16/2009 0:00,ZX200LC,ZX200,,,LC,Large / Medium,"Hydraulic Excavator, Track - 19.0 to 21.0 Metric Tons",Nevada,TEX,Track Excavators,,EROPS w AC,,,,,,,,,,,Standard,,,,,,None or Unspecified,,,,Steel,None or Unspecified,"9' 6""",None or Unspecified,None or Unspecified,Double,,,,,
15261,1680304,65000,1178392,132,1.0,2006,2394.0,Medium,8/17/2010 0:00,ZX200LC,ZX200,,,LC,Large / Medium,"Hydraulic Excavator, Track - 19.0 to 21.0 Metric Tons",Utah,TEX,Track Excavators,,EROPS w AC,,,,,,,,,,,Standard,,,,,,None or Unspecified,,,,Steel,None or Unspecified,"9' 6""",Hydraulic,None or Unspecified,Double,,,,,
15261,1680312,55000,1179170,132,1.0,2006,3242.0,High,10/16/2009 0:00,ZX200LC,ZX200,,,LC,Large / Medium,"Hydraulic Excavator, Track - 19.0 to 21.0 Metric Tons",Nevada,TEX,Track Excavators,,EROPS w AC,,,,,,,,,,,Standard,,,,,,None or Unspecified,,,,Steel,None or Unspecified,"9' 6""",None or Unspecified,None or Unspecified,Double,,,,,
15261,1680314,50000,1301428,132,1.0,2006,,,6/9/2010 0:00,ZX200LC,ZX200,,,LC,Large / Medium,"Hydraulic Excavator, Track - 19.0 to 21.0 Metric Tons",Texas,TEX,Track Excavators,,EROPS w AC,,,,,,,,,,,Auxiliary,,,,,,None or Unspecified,,,,Steel,None or Unspecified,"9' 6""",None or Unspecified,None or Unspecified,Double,,,,,
15261,1680315,77500,1301428,132,1.0,2006,3941.0,High,7/21/2009 0:00,ZX200LC,ZX200,,,LC,Large / Medium,"Hydraulic Excavator, Track - 19.0 to 21.0 Metric Tons",California,TEX,Track Excavators,,EROPS w AC,,,,,,,,,,,Auxiliary,,,,,,None or Unspecified,,,,Steel,None or Unspecified,"9' 6""",None or Unspecified,None or Unspecified,Double,,,,,
15261,1683815,36000,1380298,132,8.0,1000,,,7/16/2009 0:00,ZX200LC,ZX200,,,LC,Large / Medium,"Hydraulic Excavator, Track - 19.0 to 21.0 Metric Tons",Mississippi,TEX,Track Excavators,,EROPS w AC,,,,,,,,,,,Standard,,,,,,None or Unspecified,,,,Steel,32 inch,None or Unspecified,None or Unspecified,None or Unspecified,Triple,,,,,
15261,1689099,107500,1338112,132,1.0,2001,,,3/25/2003 0:00,ZX200LC,ZX200,,,LC,Large / Medium,"Hydraulic Excavator, Track - 19.0 to 21.0 Metric Tons",Washington,TEX,Track Excavators,,EROPS,,,,,,,,,,,Standard,,,,,,Manual,,,,Steel,None or Unspecified,None or Unspecified,Manual,None or Unspecified,Double,,,,,
15261,1690311,58000,1219955,132,7.0,2002,7450.0,Medium,6/8/2011 0:00,ZX200LC,ZX200,,,LC,Large / Medium,"Hydraulic Excavator, Track - 19.0 to 21.0 Metric Tons",Alabama,TEX,Track Excavators,,EROPS w AC,,,,,,,,,,,Standard,,,,,,None or Unspecified,,,,Steel,32 inch,"9' 8""",None or Unspecified,None or Unspecified,Triple,,,,,
15261,1690312,62500,1224578,132,1.0,2002,,,9/1/2006 0:00,ZX200LC,ZX200,,,LC,Large / Medium,"Hydraulic Excavator, Track - 19.0 to 21.0 Metric Tons",Nevada,TEX,Track Excavators,,EROPS w AC,,,,,,,,,,,Standard,,,,,,None or Unspecified,,,,Steel,None or Unspecified,"9' 6""",None or Unspecified,None or Unspecified,Double,,,,,
15261,1690313,42000,1182166,132,1.0,2007,5025.0,High,11/11/2009 0:00,ZX200LC,ZX200,,,LC,Large / Medium,"Hydraulic Excavator, Track - 19.0 to 21.0 Metric Tons",Connecticut,TEX,Track Excavators,,EROPS,,,,,,,,,,,Standard,,,,,,None or Unspecified,,,,Steel,None or Unspecified,"9' 6""",None or Unspecified,None or Unspecified,Double,,,,,
15261,1690318,70000,1414081,132,1.0,2002,2392.0,Medium,6/20/2007 0:00,ZX200LC,ZX200,,,LC,Large / Medium,"Hydraulic Excavator, Track - 19.0 to 21.0 Metric Tons",Maryland,TEX,Track Excavators,,EROPS w AC,,,,,,,,,,,Standard,,,,,,None or Unspecified,,,,Steel,None or Unspecified,"9' 6""",None or Unspecified,None or Unspecified,Double,,,,,
15261,1690321,80000,1393596,132,12.0,2003,,,6/15/2005 0:00,ZX200LC,ZX200,,,LC,Large / Medium,"Hydraulic Excavator, Track - 19.0 to 21.0 Metric Tons",South Carolina,TEX,Track Excavators,,EROPS,,,,,,,,,,,Standard,,,,,,None or Unspecified,,,,Steel,None or Unspecified,None or Unspecified,None or Unspecified,None or Unspecified,Double,,,,,
15261,1690322,91000,1518825,132,7.0,2003,,,4/21/2005 0:00,ZX200LC,ZX200,,,LC,Large / Medium,"Hydraulic Excavator, Track - 19.0 to 21.0 Metric Tons",South Carolina,TEX,Track Excavators,,EROPS w AC,,,,,,,,,,,Standard,,,,,,None or Unspecified,,,,Steel,32 inch,"9' 6""",None or Unspecified,None or Unspecified,Triple,,,,,
15261,1690325,62500,1336752,132,1.0,2004,936.0,Low,2/27/2009 0:00,ZX200LC,ZX200,,,LC,Large / Medium,"Hydraulic Excavator, Track - 19.0 to 21.0 Metric Tons",California,TEX,Track Excavators,,EROPS w AC,,,,,,,,,,,Standard,,,,,,None or Unspecified,,,,Steel,None or Unspecified,"9' 6""",Hydraulic,None or Unspecified,Double,,,,,
15261,1690327,102500,1226189,132,1.0,2004,,,10/20/2005 0:00,ZX200LC,ZX200,,,LC,Large / Medium,"Hydraulic Excavator, Track - 19.0 to 21.0 Metric Tons",Utah,TEX,Track Excavators,,EROPS,,,,,,,,,,,Standard,,,,,,None or Unspecified,,,,Steel,None or Unspecified,"9' 6""",None or Unspecified,None or Unspecified,Double,,,,,
15261,1690328,76000,1430407,132,1.0,2004,,,12/13/2006 0:00,ZX200LC,ZX200,,,LC,Large / Medium,"Hydraulic Excavator, Track - 19.0 to 21.0 Metric Tons",Maryland,TEX,Track Excavators,,EROPS w AC,,,,,,,,,,,Standard,,,,,,None or Unspecified,,,,Steel,None or Unspecified,"9' 6""",None or Unspecified,None or Unspecified,Double,,,,,
15261,1690335,32000,1179961,132,12.0,2004,,,6/2/2010 0:00,ZX200LC,ZX200,,,LC,Large / Medium,"Hydraulic Excavator, Track - 19.0 to 21.0 Metric Tons",South Carolina,TEX,Track Excavators,,EROPS,,,,,,,,,,,Standard,,,,,,None or Unspecified,,,,Steel,None or Unspecified,None or Unspecified,Hydraulic,None or Unspecified,Double,,,,,
15261,1690337,87500,1393609,132,1.0,2005,2032.0,Medium,10/10/2007 0:00,ZX200LC,ZX200,,,LC,Large / Medium,"Hydraulic Excavator, Track - 19.0 to 21.0 Metric Tons",Florida,TEX,Track Excavators,,EROPS w AC,,,,,,,,,,,Standard,,,,,,None or Unspecified,,,,Steel,None or Unspecified,"9' 7""",None or Unspecified,None or Unspecified,Double,,,,,
15261,1690338,72500,1393609,132,1.0,2005,2037.0,Medium,5/28/2008 0:00,ZX200LC,ZX200,,,LC,Large / Medium,"Hydraulic Excavator, Track - 19.0 to 21.0 Metric Tons",Florida,TEX,Track Excavators,,EROPS w AC,,,,,,,,,,,Standard,,,,,,None or Unspecified,,,,Steel,None or Unspecified,"9' 7""",None or Unspecified,None or Unspecified,Double,,,,,
15261,1690344,110000,1211801,132,1.0,2005,548.0,Low,4/5/2007 0:00,ZX200LC,ZX200,,,LC,Large / Medium,"Hydraulic Excavator, Track - 19.0 to 21.0 Metric Tons",Maryland,TEX,Track Excavators,,EROPS w AC,,,,,,,,,,,Auxiliary,,,,,,None or Unspecified,,,,Steel,None or Unspecified,None or Unspecified,None or Unspecified,None or Unspecified,Double,,,,,
15261,1690345,100000,1508327,132,1.0,2005,1292.0,Medium,4/5/2007 0:00,ZX200LC,ZX200,,,LC,Large / Medium,"Hydraulic Excavator, Track - 19.0 to 21.0 Metric Tons",Maryland,TEX,Track Excavators,,EROPS w AC,,,,,,,,,,,Auxiliary,,,,,,None or Unspecified,,,,Steel,None or Unspecified,None or Unspecified,None or Unspecified,None or Unspecified,Double,,,,,
15261,1690351,83000,1162478,132,2.0,2005,2210.0,Medium,4/11/2008 0:00,ZX200LC,ZX200,,,LC,Large / Medium,"Hydraulic Excavator, Track - 19.0 to 21.0 Metric Tons",Georgia,TEX,Track Excavators,,EROPS,,,,,,,,,,,Standard,,,,,,None or Unspecified,,,,Steel,None or Unspecified,None or Unspecified,None or Unspecified,None or Unspecified,Double,,,,,
15261,1690352,108000,1213362,132,7.0,2005,,,4/19/2007 0:00,ZX200LC,ZX200,,,LC,Large / Medium,"Hydraulic Excavator, Track - 19.0 to 21.0 Metric Tons",South Carolina,TEX,Track Excavators,,EROPS w AC,,,,,,,,,,,Auxiliary,,,,,,None or Unspecified,,,,Steel,32 inch,"9' 6""",Manual,None or Unspecified,Triple,,,,,
15261,1690355,70000,1556554,132,1.0,2003,2472.0,High,4/23/2008 0:00,ZX200LC,ZX200,,,LC,Large / Medium,"Hydraulic Excavator, Track - 19.0 to 21.0 Metric Tons",Arizona,TEX,Track Excavators,,EROPS w AC,,,,,,,,,,,Auxiliary,,,,,,Hydraulic,,,,Steel,None or Unspecified,"9' 6""",None or Unspecified,None or Unspecified,Double,,,,,
15261,1690356,100000,1250486,132,1.0,2006,545.0,Medium,3/29/2007 0:00,ZX200LC,ZX200,,,LC,Large / Medium,"Hydraulic Excavator, Track - 19.0 to 21.0 Metric Tons",Texas,TEX,Track Excavators,,EROPS w AC,,,,,,,,,,,Standard,,,,,,None or Unspecified,,,,Steel,None or Unspecified,"9' 7""",None or Unspecified,None or Unspecified,Double,,,,,
15261,1690358,77500,1433462,132,1.0,2006,,,3/18/2011 0:00,ZX200LC,ZX200,,,LC,Large / Medium,"Hydraulic Excavator, Track - 19.0 to 21.0 Metric Tons",New Mexico,TEX,Track Excavators,,EROPS w AC,,,,,,,,,,,Auxiliary,,,,,,None or Unspecified,,,,Steel,None or Unspecified,"10' 6""",Hydraulic,None or Unspecified,Double,,,,,
15261,1690359,100000,1461605,132,1.0,2006,1048.0,Medium,3/29/2007 0:00,ZX200LC,ZX200,,,LC,Large / Medium,"Hydraulic Excavator, Track - 19.0 to 21.0 Metric Tons",Texas,TEX,Track Excavators,,EROPS w AC,,,,,,,,,,,Standard,,,,,,None or Unspecified,,,,Steel,None or Unspecified,"9' 7""",None or Unspecified,None or Unspecified,Double,,,,,
15261,1690364,75000,1108519,132,1.0,2007,5457.0,High,6/22/2011 0:00,ZX200LC,ZX200,,,LC,Large / Medium,"Hydraulic Excavator, Track - 19.0 to 21.0 Metric Tons",Texas,TEX,Track Excavators,,EROPS w AC,,,,,,,,,,,Standard,,,,,,None or Unspecified,,,,Steel,None or Unspecified,"9' 7""",None or Unspecified,None or Unspecified,Double,,,,,
15261,1690367,62500,1422193,132,1.0,2007,775.0,Low,6/30/2009 0:00,ZX200LC,ZX200,,,LC,Large / Medium,"Hydraulic Excavator, Track - 19.0 to 21.0 Metric Tons",North Carolina,TEX,Track Excavators,,EROPS w AC,,,,,,,,,,,Standard,,,,,,None or Unspecified,,,,Steel,None or Unspecified,"9' 7""",Hydraulic,None or Unspecified,Double,,,,,
15261,1690379,61000,1487014,132,12.0,2006,,,3/1/2011 0:00,ZX200LC,ZX200,,,LC,Large / Medium,"Hydraulic Excavator, Track - 19.0 to 21.0 Metric Tons",Georgia,TEX,Track Excavators,,EROPS,,,,,,,,,,,Standard,,,,,,None or Unspecified,,,,Steel,32 inch,None or Unspecified,None or Unspecified,None or Unspecified,Double,,,,,
15261,1690380,65000,1513126,132,1.0,2006,6709.0,High,6/17/2011 0:00,ZX200LC,ZX200,,,LC,Large / Medium,"Hydraulic Excavator, Track - 19.0 to 21.0 Metric Tons",Minnesota,TEX,Track Excavators,,EROPS w AC,,,,,,,,,,,Standard,,,,,,None or Unspecified,,,,Steel,None or Unspecified,"9' 8""",None or Unspecified,None or Unspecified,Double,,,,,
15261,1690381,65000,1121654,132,1.0,2006,6526.0,High,6/17/2011 0:00,ZX200LC,ZX200,,,LC,Large / Medium,"Hydraulic Excavator, Track - 19.0 to 21.0 Metric Tons",Minnesota,TEX,Track Excavators,,EROPS w AC,,,,,,,,,,,Standard,,,,,,None or Unspecified,,,,Steel,None or Unspecified,None or Unspecified,None or Unspecified,None or Unspecified,Double,,,,,
15261,1690382,62500,1525364,132,1.0,2006,2993.0,Medium,3/24/2010 0:00,ZX200LC,ZX200,,,LC,Large / Medium,"Hydraulic Excavator, Track - 19.0 to 21.0 Metric Tons",Texas,TEX,Track Excavators,,EROPS w AC,,,,,,,,,,,Standard,,,,,,None or Unspecified,,,,Steel,None or Unspecified,"9' 6""",None or Unspecified,None or Unspecified,Double,,,,,
15261,1690383,65000,1535402,132,1.0,2006,2518.0,Medium,2/6/2009 0:00,ZX200LC,ZX200,,,LC,Large / Medium,"Hydraulic Excavator, Track - 19.0 to 21.0 Metric Tons",Nevada,TEX,Track Excavators,,EROPS w AC,,,,,,,,,,,Standard,,,,,,None or Unspecified,,,,Steel,None or Unspecified,"9' 6""",None or Unspecified,None or Unspecified,Double,,,,,
15261,1690384,70000,1535402,132,1.0,2006,2518.0,High,11/7/2008 0:00,ZX200LC,ZX200,,,LC,Large / Medium,"Hydraulic Excavator, Track - 19.0 to 21.0 Metric Tons",Nevada,TEX,Track Excavators,,EROPS w AC,,,,,,,,,,,Standard,,,,,,None or Unspecified,,,,Steel,None or Unspecified,"9' 6""",None or Unspecified,None or Unspecified,Double,,,,,
15261,1690386,65000,1096879,132,1.0,2006,4651.0,High,12/16/2010 0:00,ZX200LC,ZX200,,,LC,Large / Medium,"Hydraulic Excavator, Track - 19.0 to 21.0 Metric Tons",Colorado,TEX,Track Excavators,,EROPS w AC,,,,,,,,,,,Standard,,,,,,None or Unspecified,,,,Steel,None or Unspecified,"9' 6""",None or Unspecified,None or Unspecified,Double,,,,,
15261,1690387,100000,1486638,132,1.0,2006,301.0,Low,4/2/2008 0:00,ZX200LC,ZX200,,,LC,Large / Medium,"Hydraulic Excavator, Track - 19.0 to 21.0 Metric Tons",Maryland,TEX,Track Excavators,,EROPS w AC,,,,,,,,,,,Auxiliary,,,,,,None or Unspecified,,,,Steel,None or Unspecified,"9' 6""",Manual,None or Unspecified,Double,,,,,
15261,1690389,69000,1273910,132,8.0,2006,1548.0,Low,1/28/2010 0:00,ZX200LC,ZX200,,,LC,Large / Medium,"Hydraulic Excavator, Track - 19.0 to 21.0 Metric Tons",Alabama,TEX,Track Excavators,,EROPS w AC,,,,,,,,,,,Standard,,,,,,None or Unspecified,,,,Steel,None or Unspecified,None or Unspecified,None or Unspecified,None or Unspecified,Double,,,,,
15261,1690390,107500,1534618,132,1.0,2006,901.0,Medium,10/10/2007 0:00,ZX200LC,ZX200,,,LC,Large / Medium,"Hydraulic Excavator, Track - 19.0 to 21.0 Metric Tons",Florida,TEX,Track Excavators,,EROPS w AC,,,,,,,,,,,Standard,,,,,,None or Unspecified,,,,Steel,None or Unspecified,"9' 6""",None or Unspecified,None or Unspecified,Double,,,,,
15261,1691923,76000,1129674,132,1.0,2007,1058.0,Medium,6/30/2009 0:00,ZX200LC,ZX200,,,LC,Large / Medium,"Hydraulic Excavator, Track - 19.0 to 21.0 Metric Tons",North Carolina,TEX,Track Excavators,,EROPS w AC,,,,,,,,,,,Standard,,,,,,None or Unspecified,,,,Steel,None or Unspecified,"9' 7""",Hydraulic,None or Unspecified,Double,,,,,
15261,1692376,77500,1478533,132,1.0,2005,2188.0,Medium,2/22/2008 0:00,ZX200LC,ZX200,,,LC,Large / Medium,"Hydraulic Excavator, Track - 19.0 to 21.0 Metric Tons",Florida,TEX,Track Excavators,,EROPS w AC,,,,,,,,,,,Standard,,,,,,None or Unspecified,,,,Steel,None or Unspecified,None or Unspecified,Manual,None or Unspecified,Double,,,,,
15261,1692424,67500,1428637,132,1.0,2005,,,2/18/2011 0:00,ZX200LC,ZX200,,,LC,Large / Medium,"Hydraulic Excavator, Track - 19.0 to 21.0 Metric Tons",Florida,TEX,Track Excavators,,EROPS w AC,,,,,,,,,,,Standard,,,,,,None or Unspecified,,,,Steel,None or Unspecified,"9' 7""",None or Unspecified,None or Unspecified,Double,,,,,
15261,1692937,67000,1329256,132,2.0,2007,,,2/4/2011 0:00,ZX200LC,ZX200,,,LC,Large / Medium,"Hydraulic Excavator, Track - 19.0 to 21.0 Metric Tons",Florida,TEX,Track Excavators,,EROPS,,,,,,,,,,,Standard,,,,,,None or Unspecified,,,,Steel,None or Unspecified,None or Unspecified,None or Unspecified,None or Unspecified,Double,,,,,
15261,1692941,71000,1513365,132,7.0,2007,,,4/21/2011 0:00,ZX200LC,ZX200,,,LC,Large / Medium,"Hydraulic Excavator, Track - 19.0 to 21.0 Metric Tons",South Carolina,TEX,Track Excavators,,EROPS w AC,,,,,,,,,,,Standard,,,,,,None or Unspecified,,,,Steel,32 inch,None or Unspecified,Manual,None or Unspecified,Triple,,,,,
15261,1692944,80500,1408893,132,12.0,2003,,,3/30/2005 0:00,ZX200LC,ZX200,,,LC,Large / Medium,"Hydraulic Excavator, Track - 19.0 to 21.0 Metric Tons",South Carolina,TEX,Track Excavators,,EROPS,,,,,,,,,,,Standard,,,,,,None or Unspecified,,,,Steel,32 inch,"9' 6""",Manual,None or Unspecified,Triple,,,,,
15261,1693115,42500,1385122,132,1.0,1000,,,6/18/2009 0:00,ZX200LC,ZX200,,,LC,Large / Medium,"Hydraulic Excavator, Track - 19.0 to 21.0 Metric Tons",Georgia,TEX,Track Excavators,,EROPS w AC,,,,,,,,,,,Standard,,,,,,None or Unspecified,,,,Steel,32 inch,"9' 7""",None or Unspecified,None or Unspecified,Triple,,,,,
15261,1693236,43000,1499264,132,1.0,2002,,,12/16/2008 0:00,ZX200LC,ZX200,,,LC,Large / Medium,"Hydraulic Excavator, Track - 19.0 to 21.0 Metric Tons",Washington,TEX,Track Excavators,,EROPS,,,,,,,,,,,Standard,,,,,,Manual,,,,Steel,None or Unspecified,None or Unspecified,Hydraulic,None or Unspecified,Double,,,,,
15261,2367541,48000,1730182,136,1.0,2004,0.0,,12/17/2008 0:00,ZX200LC,ZX200,,,LC,Large / Medium,"Hydraulic Excavator, Track - 19.0 to 21.0 Metric Tons",California,TEX,Track Excavators,,EROPS w AC,,,,,,,,,,,Standard,,,,,,Manual,,,,Steel,None or Unspecified,None or Unspecified,Manual,None or Unspecified,Double,,,,,
15261,2372543,92500,1213362,136,7.0,2006,0.0,,10/18/2007 0:00,ZX200LC,ZX200,,,LC,Large / Medium,"Hydraulic Excavator, Track - 19.0 to 21.0 Metric Tons",South Carolina,TEX,Track Excavators,,EROPS w AC,,,,,,,,,,,Auxiliary,,,,,,None or Unspecified,,,,Steel,32 inch,"9' 6""",Manual,None or Unspecified,Triple,,,,,
15261,2373297,85000,1690719,136,,2003,1865.0,Low,6/5/2008 0:00,ZX200LC,ZX200,,,LC,Large / Medium,"Hydraulic Excavator, Track - 19.0 to 21.0 Metric Tons",Arkansas,TEX,Track Excavators,,EROPS w AC,,,,,,,,,,,Standard,,,,,,None or Unspecified,,,,Steel,None or Unspecified,None or Unspecified,Manual,None or Unspecified,Triple,,,,,
15261,2373299,42000,1702939,136,,2001,5025.0,Medium,11/11/2009 0:00,ZX200LC,ZX200,,,LC,Large / Medium,"Hydraulic Excavator, Track - 19.0 to 21.0 Metric Tons",Connecticut,TEX,Track Excavators,,EROPS,,,,,,,,,,,Standard,,,,,,None or Unspecified,,,,Steel,None or Unspecified,None or Unspecified,None or Unspecified,None or Unspecified,Double,,,,,
15261,2373307,70000,1729039,136,,2002,2392.0,Medium,6/20/2007 0:00,ZX200LC,ZX200,,,LC,Large / Medium,"Hydraulic Excavator, Track - 19.0 to 21.0 Metric Tons",Maryland,TEX,Track Excavators,,EROPS w AC,,,,,,,,,,,Standard,,,,,,None or Unspecified,,,,Steel,None or Unspecified,None or Unspecified,None or Unspecified,None or Unspecified,Double,,,,,
15261,2373308,35000,1408893,136,7.0,2003,0.0,,10/22/2008 0:00,ZX200LC,ZX200,,,LC,Large / Medium,"Hydraulic Excavator, Track - 19.0 to 21.0 Metric Tons",South Carolina,TEX,Track Excavators,,EROPS,,,,,,,,,,,Standard,,,,,,None or Unspecified,,,,Steel,32 inch,"9' 6""",Manual,None or Unspecified,Triple,,,,,
15261,2373310,70000,1687816,136,,2003,0.0,,4/23/2008 0:00,ZX200LC,ZX200,,,LC,Large / Medium,"Hydraulic Excavator, Track - 19.0 to 21.0 Metric Tons",Arizona,TEX,Track Excavators,,EROPS w AC,,,,,,,,,,,Standard,,,,,,Manual,,,,Steel,None or Unspecified,None or Unspecified,None or Unspecified,None or Unspecified,Double,,,,,
15261,2373311,48000,1681075,136,,2004,0.0,,9/30/2008 0:00,ZX200LC,ZX200,,,LC,Large / Medium,"Hydraulic Excavator, Track - 19.0 to 21.0 Metric Tons",North Carolina,TEX,Track Excavators,,EROPS w AC,,,,,,,,,,,Standard,,,,,,None or Unspecified,,,,Steel,None or Unspecified,None or Unspecified,None or Unspecified,None or Unspecified,Double,,,,,
15261,2373312,64000,1676150,136,,2004,2895.0,Medium,12/14/2007 0:00,ZX200LC,ZX200,,,LC,Large / Medium,"Hydraulic Excavator, Track - 19.0 to 21.0 Metric Tons",North Carolina,TEX,Track Excavators,,EROPS w AC,,,,,,,,,,,Standard,,,,,,None or Unspecified,,,,Steel,None or Unspecified,None or Unspecified,Manual,None or Unspecified,Double,,,,,
15261,2373315,54000,1725320,136,,2004,0.0,,9/18/2008 0:00,ZX200LC,ZX200,,,LC,Large / Medium,"Hydraulic Excavator, Track - 19.0 to 21.0 Metric Tons",California,TEX,Track Excavators,,EROPS w AC,,,,,,,,,,,Standard,,,,,,Manual,,,,Steel,None or Unspecified,None or Unspecified,Manual,None or Unspecified,Double,,,,,
15261,2373319,62500,1093031,136,1.0,2004,936.0,Low,2/27/2009 0:00,ZX200LC,ZX200,,,LC,Large / Medium,"Hydraulic Excavator, Track - 19.0 to 21.0 Metric Tons",California,TEX,Track Excavators,,EROPS w AC,,,,,,,,,,,Standard,,,,,,None or Unspecified,,,,Steel,None or Unspecified,"9' 6""",Hydraulic,None or Unspecified,Double,,,,,
15261,2373320,46000,1096577,136,1.0,2004,5262.0,Medium,9/22/2009 0:00,ZX200LC,ZX200,,,LC,Large / Medium,"Hydraulic Excavator, Track - 19.0 to 21.0 Metric Tons",North Carolina,TEX,Track Excavators,,EROPS w AC,,,,,,,,,,,Standard,,,,,,None or Unspecified,,,,Steel,None or Unspecified,"9' 6""",Hydraulic,None or Unspecified,Double,,,,,
15261,2373323,72500,1189092,136,1.0,2005,0.0,,5/28/2008 0:00,ZX200LC,ZX200,,,LC,Large / Medium,"Hydraulic Excavator, Track - 19.0 to 21.0 Metric Tons",Florida,TEX,Track Excavators,,EROPS w AC,,,,,,,,,,,Standard,,,,,,None or Unspecified,,,,Steel,None or Unspecified,"9' 7""",None or Unspecified,None or Unspecified,Double,,,,,
15261,2373324,87500,1189092,136,1.0,2005,2032.0,Medium,10/10/2007 0:00,ZX200LC,ZX200,,,LC,Large / Medium,"Hydraulic Excavator, Track - 19.0 to 21.0 Metric Tons",Florida,TEX,Track Excavators,,EROPS w AC,,,,,,,,,,,Standard,,,,,,None or Unspecified,,,,Steel,None or Unspecified,"9' 7""",None or Unspecified,None or Unspecified,Double,,,,,
15261,2373326,44000,1231719,136,1.0,2004,6089.0,High,3/18/2009 0:00,ZX200LC,ZX200,,,LC,Large / Medium,"Hydraulic Excavator, Track - 19.0 to 21.0 Metric Tons",Washington,TEX,Track Excavators,,EROPS,,,,,,,,,,,Standard,,,,,,Hydraulic,,,,Steel,None or Unspecified,"9' 7""",Hydraulic,None or Unspecified,Double,,,,,
15261,2373327,48000,1763017,136,,2005,3891.0,Medium,5/12/2009 0:00,ZX200LC,ZX200,,,LC,Large / Medium,"Hydraulic Excavator, Track - 19.0 to 21.0 Metric Tons",Mississippi,TEX,Track Excavators,,EROPS w AC,,,,,,,,,,,Standard,,,,,,None or Unspecified,,,,Steel,None or Unspecified,None or Unspecified,Manual,None or Unspecified,Triple,,,,,
15261,2373328,67500,1061614,136,3.0,2005,2375.0,Medium,9/6/2007 0:00,ZX200LC,ZX200,,,LC,Large / Medium,"Hydraulic Excavator, Track - 19.0 to 21.0 Metric Tons",California,TEX,Track Excavators,,EROPS w AC,,,,,,,,,,,Standard,,,,,,None or Unspecified,,,,Steel,None or Unspecified,None or Unspecified,Manual,None or Unspecified,Double,,,,,
15261,2373332,60000,1654738,136,,2005,2098.0,Medium,11/22/2008 0:00,ZX200LC,ZX200,,,LC,Large / Medium,"Hydraulic Excavator, Track - 19.0 to 21.0 Metric Tons",California,TEX,Track Excavators,,EROPS,,,,,,,,,,,Standard,,,,,,None or Unspecified,,,,Steel,None or Unspecified,None or Unspecified,None or Unspecified,None or Unspecified,Double,,,,,
15261,2373333,83000,1752455,136,,2005,2210.0,Medium,4/11/2008 0:00,ZX200LC,ZX200,,,LC,Large / Medium,"Hydraulic Excavator, Track - 19.0 to 21.0 Metric Tons",Georgia,TEX,Track Excavators,,EROPS,,,,,,,,,,,Standard,,,,,,None or Unspecified,,,,Steel,None or Unspecified,None or Unspecified,None or Unspecified,None or Unspecified,Double,,,,,
15261,2373334,65625,1496669,136,13.0,2005,2567.0,Medium,3/21/2009 0:00,ZX200LC,ZX200,,,LC,Large / Medium,"Hydraulic Excavator, Track - 19.0 to 21.0 Metric Tons",Tennessee,TEX,Track Excavators,,EROPS,,,,,,,,,,,Standard,,,,,,None or Unspecified,,,,Steel,None or Unspecified,None or Unspecified,None or Unspecified,None or Unspecified,Double,,,,,
15261,2373342,47500,1662229,136,,1000,0.0,,10/27/2009 0:00,ZX200LC,ZX200,,,LC,Large / Medium,"Hydraulic Excavator, Track - 19.0 to 21.0 Metric Tons",California,TEX,Track Excavators,,EROPS w AC,,,,,,,,,,,Auxiliary,,,,,,Manual,,,,Steel,None or Unspecified,None or Unspecified,None or Unspecified,None or Unspecified,Triple,,,,,
15261,2373370,62000,1748897,136,,2004,0.0,,11/1/2008 0:00,ZX200LC,ZX200,,,LC,Large / Medium,"Hydraulic Excavator, Track - 19.0 to 21.0 Metric Tons",Tennessee,TEX,Track Excavators,,EROPS,,,,,,,,,,,Standard,,,,,,None or Unspecified,,,,Steel,None or Unspecified,None or Unspecified,None or Unspecified,None or Unspecified,Double,,,,,
15261,2373446,77500,1773300,136,,2005,0.0,,2/19/2008 0:00,ZX200LC,ZX200,,,LC,Large / Medium,"Hydraulic Excavator, Track - 19.0 to 21.0 Metric Tons",Florida,TEX,Track Excavators,,EROPS w AC,,,,,,,,,,,Standard,,,,,,None or Unspecified,,,,Steel,None or Unspecified,None or Unspecified,Manual,None or Unspecified,Double,,,,,
15261,2373448,42500,1331676,136,1.0,2005,0.0,,6/18/2009 0:00,ZX200LC,ZX200,,,LC,Large / Medium,"Hydraulic Excavator, Track - 19.0 to 21.0 Metric Tons",Georgia,TEX,Track Excavators,,EROPS w AC,,,,,,,,,,,Standard,,,,,,None or Unspecified,,,,Steel,None or Unspecified,"9' 7""",None or Unspecified,None or Unspecified,Double,,,,,
15261,2373548,80000,1718983,136,,2004,0.0,,11/30/2007 0:00,ZX200LC,ZX200,,,LC,Large / Medium,"Hydraulic Excavator, Track - 19.0 to 21.0 Metric Tons",Nevada,TEX,Track Excavators,,EROPS,,,,,,,,,,,Standard,,,,,,None or Unspecified,,,,Steel,None or Unspecified,None or Unspecified,None or Unspecified,None or Unspecified,Double,,,,,
15261,2373561,62500,1763120,136,,2007,0.0,,6/30/2009 0:00,ZX200LC,ZX200,,,LC,Large / Medium,"Hydraulic Excavator, Track - 19.0 to 21.0 Metric Tons",North Carolina,TEX,Track Excavators,,EROPS w AC,,,,,,,,,,,Standard,,,,,,None or Unspecified,,,,Steel,None or Unspecified,None or Unspecified,Hydraulic,None or Unspecified,Double,,,,,
15261,2373638,69000,1776001,136,8.0,1000,1548.0,Low,1/28/2010 0:00,ZX200LC,ZX200,,,LC,Large / Medium,"Hydraulic Excavator, Track - 19.0 to 21.0 Metric Tons",Alabama,TEX,Track Excavators,,EROPS,,,,,,,,,,,Standard,,,,,,None or Unspecified,,,,Steel,None or Unspecified,None or Unspecified,None or Unspecified,None or Unspecified,Double,,,,,
15261,2373643,65000,1101373,136,1.0,2006,2518.0,Medium,2/6/2009 0:00,ZX200LC,ZX200,,,LC,Large / Medium,"Hydraulic Excavator, Track - 19.0 to 21.0 Metric Tons",Nevada,TEX,Track Excavators,,EROPS w AC,,,,,,,,,,,Standard,,,,,,Manual,,,,Steel,None or Unspecified,"9' 6""",None or Unspecified,None or Unspecified,Double,,,,,
15261,2373644,70000,1101373,136,1.0,2006,2518.0,High,11/7/2008 0:00,ZX200LC,ZX200,,,LC,Large / Medium,"Hydraulic Excavator, Track - 19.0 to 21.0 Metric Tons",Nevada,TEX,Track Excavators,,EROPS w AC,,,,,,,,,,,Standard,,,,,,Manual,,,,Steel,None or Unspecified,"9' 6""",None or Unspecified,None or Unspecified,Double,,,,,
15261,2373645,55000,1640175,136,,2006,2128.0,Medium,5/12/2009 0:00,ZX200LC,ZX200,,,LC,Large / Medium,"Hydraulic Excavator, Track - 19.0 to 21.0 Metric Tons",Mississippi,TEX,Track Excavators,,EROPS w AC,,,,,,,,,,,Standard,,,,,,None or Unspecified,,,,Steel,None or Unspecified,None or Unspecified,None or Unspecified,None or Unspecified,Triple,,,,,
15261,2373646,100000,1767602,136,,2006,301.0,Low,4/2/2008 0:00,ZX200LC,ZX200,,,LC,Large / Medium,"Hydraulic Excavator, Track - 19.0 to 21.0 Metric Tons",Maryland,TEX,Track Excavators,,EROPS w AC,,,,,,,,,,,Auxiliary,,,,,,None or Unspecified,,,,Steel,None or Unspecified,None or Unspecified,None or Unspecified,None or Unspecified,Double,,,,,
15261,2373647,107500,1723008,136,,2006,901.0,Medium,10/10/2007 0:00,ZX200LC,ZX200,,,LC,Large / Medium,"Hydraulic Excavator, Track - 19.0 to 21.0 Metric Tons",Florida,TEX,Track Excavators,,EROPS w AC,,,,,,,,,,,Standard,,,,,,None or Unspecified,,,,Steel,None or Unspecified,None or Unspecified,None or Unspecified,None or Unspecified,Double,,,,,
15261,2373793,76000,1685841,136,,2007,0.0,,6/30/2009 0:00,ZX200LC,ZX200,,,LC,Large / Medium,"Hydraulic Excavator, Track - 19.0 to 21.0 Metric Tons",North Carolina,TEX,Track Excavators,,EROPS w AC,,,,,,,,,,,Standard,,,,,,None or Unspecified,,,,Steel,None or Unspecified,None or Unspecified,Hydraulic,None or Unspecified,Double,,,,,
15261,2373925,37000,1660194,136,,1000,0.0,,6/17/2009 0:00,ZX200LC,ZX200,,,LC,Large / Medium,"Hydraulic Excavator, Track - 19.0 to 21.0 Metric Tons",Washington,TEX,Track Excavators,,EROPS,,,,,,,,,,,Standard,,,,,,None or Unspecified,,,,Steel,None or Unspecified,None or Unspecified,None or Unspecified,None or Unspecified,Double,,,,,
15261,2374005,77500,1786380,136,,2006,3941.0,High,7/21/2009 0:00,ZX200LC,ZX200,,,LC,Large / Medium,"Hydraulic Excavator, Track - 19.0 to 21.0 Metric Tons",California,TEX,Track Excavators,,EROPS w AC,,,,,,,,,,,Auxiliary,,,,,,Hydraulic,,,,Steel,None or Unspecified,None or Unspecified,None or Unspecified,None or Unspecified,Double,,,,,
15261,2374032,51000,1675425,136,,2003,0.0,,10/15/2008 0:00,ZX200LC,ZX200,,,LC,Large / Medium,"Hydraulic Excavator, Track - 19.0 to 21.0 Metric Tons",Florida,TEX,Track Excavators,,EROPS w AC,,,,,,,,,,,Auxiliary,,,,,,None or Unspecified,,,,Steel,None or Unspecified,None or Unspecified,None or Unspecified,None or Unspecified,Double,,,,,
15261,2374033,43000,1659574,136,1.0,2002,0.0,,12/16/2008 0:00,ZX200LC,ZX200,,,LC,Large / Medium,"Hydraulic Excavator, Track - 19.0 to 21.0 Metric Tons",Washington,TEX,Track Excavators,,EROPS,,,,,,,,,,,Standard,,,,,,Manual,,,,Steel,None or Unspecified,None or Unspecified,Hydraulic,None or Unspecified,Double,,,,,
15261,2374035,67000,1717538,136,,1000,0.0,,3/4/2009 0:00,ZX200LC,ZX200,,,LC,Large / Medium,"Hydraulic Excavator, Track - 19.0 to 21.0 Metric Tons",Texas,TEX,Track Excavators,,EROPS w AC,,,,,,,,,,,Standard,,,,,,None or Unspecified,,,,Steel,None or Unspecified,None or Unspecified,None or Unspecified,None or Unspecified,Double,,,,,
15261,2374036,50000,1690079,136,,2005,0.0,,12/9/2008 0:00,ZX200LC,ZX200,,,LC,Large / Medium,"Hydraulic Excavator, Track - 19.0 to 21.0 Metric Tons",North Carolina,TEX,Track Excavators,,EROPS w AC,,,,,,,,,,,Standard,,,,,,None or Unspecified,,,,Steel,None or Unspecified,None or Unspecified,None or Unspecified,None or Unspecified,Double,,,,,
15261,2374038,35000,1092303,136,1.0,2004,6933.0,High,3/3/2009 0:00,ZX200LC,ZX200,,,LC,Large / Medium,"Hydraulic Excavator, Track - 19.0 to 21.0 Metric Tons",California,TEX,Track Excavators,,EROPS w AC,,,,,,,,,,,Auxiliary,,,,,,Hydraulic,,,,Steel,None or Unspecified,"9' 6""",None or Unspecified,None or Unspecified,Double,,,,,
15261,2374039,45000,1219113,136,1.0,2005,3240.0,Medium,3/18/2009 0:00,ZX200LC,ZX200,,,LC,Large / Medium,"Hydraulic Excavator, Track - 19.0 to 21.0 Metric Tons",Washington,TEX,Track Excavators,,EROPS,,,,,,,,,,,Standard,,,,,,Manual,,,,Steel,None or Unspecified,"9' 6""",Hydraulic,None or Unspecified,Double,,,,,
15261,2374040,65000,1733816,136,1.0,2006,2394.0,Medium,7/13/2010 0:00,ZX200LC,ZX200,,,LC,Large / Medium,"Hydraulic Excavator, Track - 19.0 to 21.0 Metric Tons",Utah,TEX,Track Excavators,,EROPS w AC,,,,,,,,,,,Standard,,,,,,Hydraulic,,,,Steel,None or Unspecified,None or Unspecified,Hydraulic,None or Unspecified,Double,,,,,
15261,2374042,87500,1247230,136,1.0,2004,1920.0,Medium,10/10/2007 0:00,ZX200LC,ZX200,,,LC,Large / Medium,"Hydraulic Excavator, Track - 19.0 to 21.0 Metric Tons",Florida,TEX,Track Excavators,,EROPS w AC,,,,,,,,,,,Standard,,,,,,None or Unspecified,,,,Steel,None or Unspecified,"9' 7""",Manual,None or Unspecified,Double,,,,,
15261,2374043,72500,1247230,136,1.0,2004,0.0,,5/28/2008 0:00,ZX200LC,ZX200,,,LC,Large / Medium,"Hydraulic Excavator, Track - 19.0 to 21.0 Metric Tons",Florida,TEX,Track Excavators,,EROPS w AC,,,,,,,,,,,Standard,,,,,,None or Unspecified,,,,Steel,None or Unspecified,"9' 7""",Manual,None or Unspecified,Double,,,,,
15261,2374044,51000,1689926,136,,2005,4392.0,High,5/14/2009 0:00,ZX200LC,ZX200,,,LC,Large / Medium,"Hydraulic Excavator, Track - 19.0 to 21.0 Metric Tons",California,TEX,Track Excavators,,EROPS w AC,,,,,,,,,,,Auxiliary,,,,,,Hydraulic,,,,Steel,None or Unspecified,None or Unspecified,None or Unspecified,None or Unspecified,Double,,,,,
15261,2374046,42500,1654433,136,,2004,3985.0,Medium,8/11/2009 0:00,ZX200LC,ZX200,,,LC,Large / Medium,"Hydraulic Excavator, Track - 19.0 to 21.0 Metric Tons",Utah,TEX,Track Excavators,,EROPS w AC,,,,,,,,,,,Standard,,,,,,Hydraulic,,,,Steel,None or Unspecified,None or Unspecified,None or Unspecified,None or Unspecified,Double,,,,,
15261,2374049,94000,1145564,136,1.0,2006,728.0,Low,9/17/2008 0:00,ZX200LC,ZX200,,,LC,Large / Medium,"Hydraulic Excavator, Track - 19.0 to 21.0 Metric Tons",Illinois,TEX,Track Excavators,,EROPS,,,,,,,,,,,Standard,,,,,,None or Unspecified,,,,Steel,None or Unspecified,"9' 6""",None or Unspecified,None or Unspecified,Double,,,,,
15261,2374052,45000,1669715,136,,2004,4856.0,High,12/3/2008 0:00,ZX200LC,ZX200,,,LC,Large / Medium,"Hydraulic Excavator, Track - 19.0 to 21.0 Metric Tons",Texas,TEX,Track Excavators,,EROPS w AC,,,,,,,,,,,Standard,,,,,,None or Unspecified,,,,Steel,None or Unspecified,None or Unspecified,None or Unspecified,None or Unspecified,Double,,,,,
15261,2374055,39000,1536744,136,1.0,2003,4186.0,Medium,12/16/2008 0:00,ZX200LC,ZX200,,,LC,Large / Medium,"Hydraulic Excavator, Track - 19.0 to 21.0 Metric Tons",Washington,TEX,Track Excavators,,EROPS,,,,,,,,,,,Auxiliary,,,,,,None or Unspecified,,,,Steel,None or Unspecified,None or Unspecified,Manual,None or Unspecified,Double,,,,,
15261,2374058,53000,1769448,136,,2005,4502.0,High,10/16/2009 0:00,ZX200LC,ZX200,,,LC,Large / Medium,"Hydraulic Excavator, Track - 19.0 to 21.0 Metric Tons",Nevada,TEX,Track Excavators,,EROPS w AC,,,,,,,,,,,Standard,,,,,,Hydraulic,,,,Steel,None or Unspecified,None or Unspecified,None or Unspecified,None or Unspecified,Double,,,,,
15261,2374059,27000,1732575,136,,2004,7455.0,High,12/9/2008 0:00,ZX200LC,ZX200,,,LC,Large / Medium,"Hydraulic Excavator, Track - 19.0 to 21.0 Metric Tons",California,TEX,Track Excavators,,EROPS w AC,,,,,,,,,,,Auxiliary,,,,,,Hydraulic,,,,Steel,None or Unspecified,None or Unspecified,None or Unspecified,None or Unspecified,Double,,,,,
15261,2374064,75000,1766712,136,,2005,2274.0,High,12/14/2007 0:00,ZX200LC,ZX200,,,LC,Large / Medium,"Hydraulic Excavator, Track - 19.0 to 21.0 Metric Tons",North Carolina,TEX,Track Excavators,,EROPS w AC,,,,,,,,,,,Standard,,,,,,None or Unspecified,,,,Steel,None or Unspecified,None or Unspecified,Manual,None or Unspecified,Double,,,,,
15261,2374065,55000,1642802,136,,2006,3242.0,High,10/16/2009 0:00,ZX200LC,ZX200,,,LC,Large / Medium,"Hydraulic Excavator, Track - 19.0 to 21.0 Metric Tons",Nevada,TEX,Track Excavators,,EROPS w AC,,,,,,,,,,,Standard,,,,,,Hydraulic,,,,Steel,None or Unspecified,None or Unspecified,None or Unspecified,None or Unspecified,Double,,,,,
15261,2668515,47500,1459093,149,0.0,2004,0.0,,4/12/2011 0:00,ZX200LC,ZX200,,,LC,Large / Medium,"Hydraulic Excavator, Track - 19.0 to 21.0 Metric Tons",Texas,TEX,Track Excavators,,EROPS w AC,,,,,,,,,,,Standard,,,,,,None or Unspecified,,,,Steel,None or Unspecified,"9' 6""",None or Unspecified,None or Unspecified,Triple,,,,,
15261,2670656,79000,1162625,149,0.0,2007,0.0,,4/12/2011 0:00,ZX200LC,ZX200,,,LC,Large / Medium,"Hydraulic Excavator, Track - 19.0 to 21.0 Metric Tons",Texas,TEX,Track Excavators,,EROPS w AC,,,,,,,,,,,Standard,,,,,,None or Unspecified,,,,Steel,None or Unspecified,"9' 6""",None or Unspecified,None or Unspecified,Triple,,,,,
15261,2671098,58000,1871458,149,26.0,1000,7450.0,Low,6/8/2011 0:00,ZX200LC,ZX200,,,LC,Large / Medium,"Hydraulic Excavator, Track - 19.0 to 21.0 Metric Tons",Alabama,TEX,Track Excavators,,EROPS,,,,,,,,,,,Standard,,,,,,None or Unspecified,,,,Steel,32 inch,"9' 8""",None or Unspecified,None or Unspecified,Triple,,,,,
15261,2671106,55000,1428903,149,1.0,2003,32767.0,High,4/6/2011 0:00,ZX200LC,ZX200,,,LC,Large / Medium,"Hydraulic Excavator, Track - 19.0 to 21.0 Metric Tons",Oregon,TEX,Track Excavators,,EROPS,,,,,,,,,,,Auxiliary,,,,,,Hydraulic,,,,Steel,None or Unspecified,"9' 6""",Hydraulic,None or Unspecified,Double,,,,,
15261,2671109,62500,1430329,149,1.0,2003,8790.0,High,4/6/2011 0:00,ZX200LC,ZX200,,,LC,Large / Medium,"Hydraulic Excavator, Track - 19.0 to 21.0 Metric Tons",Oregon,TEX,Track Excavators,,EROPS,,,,,,,,,,,Auxiliary,,,,,,Hydraulic,,,,Steel,None or Unspecified,"9' 6""",Manual,None or Unspecified,Double,,,,,
15261,2671127,53000,1125827,149,1.0,2004,5159.0,Medium,5/6/2011 0:00,ZX200LC,ZX200,,,LC,Large / Medium,"Hydraulic Excavator, Track - 19.0 to 21.0 Metric Tons",California,TEX,Track Excavators,,EROPS w AC,,,,,,,,,,,Standard,,,,,,Manual,,,,Steel,None or Unspecified,"9' 6""",None or Unspecified,None or Unspecified,Double,,,,,
15261,2671322,80000,1456008,149,1.0,2006,4831.0,Medium,4/6/2011 0:00,ZX200LC,ZX200,,,LC,Large / Medium,"Hydraulic Excavator, Track - 19.0 to 21.0 Metric Tons",Oregon,TEX,Track Excavators,,EROPS,,,,,,,,,,,Auxiliary,,,,,,Hydraulic,,,,Steel,None or Unspecified,"9' 6""",Hydraulic,None or Unspecified,Double,,,,,
15261,2671517,65000,1834136,149,1.0,2006,6709.0,High,6/17/2011 0:00,ZX200LC,ZX200,,,LC,Large / Medium,"Hydraulic Excavator, Track - 19.0 to 21.0 Metric Tons",Minnesota,TEX,Track Excavators,,EROPS w AC,,,,,,,,,,,Standard,,,,,,None or Unspecified,,,,Steel,None or Unspecified,None or Unspecified,None or Unspecified,None or Unspecified,Double,,,,,
15261,2671519,65000,1926486,149,1.0,2006,6526.0,High,6/17/2011 0:00,ZX200LC,ZX200,,,LC,Large / Medium,"Hydraulic Excavator, Track - 19.0 to 21.0 Metric Tons",Minnesota,TEX,Track Excavators,,EROPS w AC,,,,,,,,,,,Standard,,,,,,None or Unspecified,,,,Steel,None or Unspecified,None or Unspecified,None or Unspecified,None or Unspecified,Double,,,,,
15261,2672023,56000,1102702,149,1.0,2003,5612.0,Medium,4/19/2011 0:00,ZX200LC,ZX200,,,LC,Large / Medium,"Hydraulic Excavator, Track - 19.0 to 21.0 Metric Tons",Utah,TEX,Track Excavators,,EROPS w AC,,,,,,,,,,,Auxiliary,,,,,,Hydraulic,,,,Steel,None or Unspecified,"9' 6""",None or Unspecified,None or Unspecified,Double,,,,,
15261,2672030,67500,1818056,149,1.0,2004,4132.0,Medium,6/16/2011 0:00,ZX200LC,ZX200,,,LC,Large / Medium,"Hydraulic Excavator, Track - 19.0 to 21.0 Metric Tons",Washington,TEX,Track Excavators,,EROPS,,,,,,,,,,,Standard,,,,,,None or Unspecified,,,,Steel,None or Unspecified,None or Unspecified,Hydraulic,None or Unspecified,Double,,,,,
15261,2672037,65000,1888816,149,1.0,2004,4477.0,Medium,6/16/2011 0:00,ZX200LC,ZX200,,,LC,Large / Medium,"Hydraulic Excavator, Track - 19.0 to 21.0 Metric Tons",Washington,TEX,Track Excavators,,EROPS,,,,,,,,,,,Auxiliary,,,,,,None or Unspecified,,,,Steel,None or Unspecified,"9' 6""",None or Unspecified,None or Unspecified,Double,,,,,
15261,4334812,42500,1201519,172,1.0,2000,8669.0,Medium,9/21/2010 0:00,ZX200LC,ZX200,,,LC,Large / Medium,"Hydraulic Excavator, Track - 19.0 to 21.0 Metric Tons",Washington,TEX,Track Excavators,,EROPS,,,,,,,,,,,Auxiliary,,,,,,None or Unspecified,,,,Steel,None or Unspecified,"9' 6""",Hydraulic,None or Unspecified,Double,,,,,
15261,4335134,48000,1555509,172,1.0,2003,6900.0,High,12/15/2009 0:00,ZX200LC,ZX200,,,LC,Large / Medium,"Hydraulic Excavator, Track - 19.0 to 21.0 Metric Tons",Minnesota,TEX,Track Excavators,,EROPS w AC,,,,,,,,,,,Standard,,,,,,None or Unspecified,,,,Steel,None or Unspecified,"9' 6""",Hydraulic,None or Unspecified,Double,,,,,
15261,4335149,57500,1123449,172,1.0,2004,6176.0,Medium,9/28/2010 0:00,ZX200LC,ZX200,,,LC,Large / Medium,"Hydraulic Excavator, Track - 19.0 to 21.0 Metric Tons",North Carolina,TEX,Track Excavators,,EROPS w AC,,,,,,,,,,,Standard,,,,,,None or Unspecified,,,,Steel,None or Unspecified,"9' 6""",Manual,None or Unspecified,Double,,,,,
15261,4335152,50000,1392863,172,1.0,2004,7334.0,High,12/16/2010 0:00,ZX200LC,ZX200,,,LC,Large / Medium,"Hydraulic Excavator, Track - 19.0 to 21.0 Metric Tons",Colorado,TEX,Track Excavators,,EROPS w AC,,,,,,,,,,,Auxiliary,,,,,,None or Unspecified,,,,Steel,None or Unspecified,"9' 6""",None or Unspecified,None or Unspecified,Double,,,,,
15261,4335161,60000,1160029,172,1.0,2005,4283.0,Medium,3/4/2010 0:00,ZX200LC,ZX200,,,LC,Large / Medium,"Hydraulic Excavator, Track - 19.0 to 21.0 Metric Tons",Washington,TEX,Track Excavators,,EROPS,,,,,,,,,,,Standard,,,,,,None or Unspecified,,,,Steel,None or Unspecified,"9' 6""",None or Unspecified,None or Unspecified,Double,,,,,
15261,4335170,80000,2290940,172,1.0,2006,4315.0,Medium,9/15/2011 0:00,ZX200LC,ZX200,,,LC,Large / Medium,"Hydraulic Excavator, Track - 19.0 to 21.0 Metric Tons",South Carolina,TEX,Track Excavators,,EROPS w AC,,,,,,,,,,,Auxiliary,,,,,,None or Unspecified,,,,Steel,None or Unspecified,None or Unspecified,Hydraulic,None or Unspecified,Triple,,,,,
15261,4335171,64000,2290940,172,1.0,2005,6487.0,Medium,6/21/2011 0:00,ZX200LC,ZX200,,,LC,Large / Medium,"Hydraulic Excavator, Track - 19.0 to 21.0 Metric Tons",Texas,TEX,Track Excavators,,EROPS w AC,,,,,,,,,,,Auxiliary,,,,,,None or Unspecified,,,,Steel,None or Unspecified,None or Unspecified,Hydraulic,None or Unspecified,Triple,,,,,
15261,4335305,67500,1389405,172,1.0,2005,,,2/15/2011 0:00,ZX200LC,ZX200,,,LC,Large / Medium,"Hydraulic Excavator, Track - 19.0 to 21.0 Metric Tons",Florida,TEX,Track Excavators,,EROPS w AC,,,,,,,,,,,Standard,,,,,,None or Unspecified,,,,Steel,None or Unspecified,"9' 7""",None or Unspecified,None or Unspecified,Double,,,,,
15261,4335336,77500,2270886,172,1.0,2006,3304.0,Medium,3/18/2011 0:00,ZX200LC,ZX200,,,LC,Large / Medium,"Hydraulic Excavator, Track - 19.0 to 21.0 Metric Tons",New Mexico,TEX,Track Excavators,,EROPS w AC,,,,,,,,,,,Auxiliary,,,,,,None or Unspecified,,,,Steel,None or Unspecified,None or Unspecified,Hydraulic,None or Unspecified,Double,,,,,
15261,4335341,55000,2285067,172,1.0,2004,4398.0,High,10/3/2011 0:00,ZX200LC,ZX200,,,LC,Large / Medium,"Hydraulic Excavator, Track - 19.0 to 21.0 Metric Tons",Texas,TEX,Track Excavators,,EROPS w AC,,,,,,,,,,,Auxiliary,,,,,,None or Unspecified,,,,Steel,None or Unspecified,None or Unspecified,None or Unspecified,None or Unspecified,Double,,,,,
15261,4335342,75000,2285067,172,1.0,2006,4780.0,High,12/13/2011 0:00,ZX200LC,ZX200,,,LC,Large / Medium,"Hydraulic Excavator, Track - 19.0 to 21.0 Metric Tons",North Carolina,TEX,Track Excavators,,EROPS w AC,,,,,,,,,,,Auxiliary,,,,,,None or Unspecified,,,,Steel,None or Unspecified,None or Unspecified,None or Unspecified,None or Unspecified,Double,,,,,
15261,4335343,95000,2285067,172,1.0,2007,2539.0,Medium,12/19/2011 0:00,ZX200LC,ZX200,,,LC,Large / Medium,"Hydraulic Excavator, Track - 19.0 to 21.0 Metric Tons",Washington,TEX,Track Excavators,,EROPS w AC,,,,,,,,,,,Auxiliary,,,,,,None or Unspecified,,,,Steel,None or Unspecified,None or Unspecified,None or Unspecified,None or Unspecified,Double,,,,,
15261,4335344,75000,2285067,172,1.0,2007,5457.0,High,6/21/2011 0:00,ZX200LC,ZX200,,,LC,Large / Medium,"Hydraulic Excavator, Track - 19.0 to 21.0 Metric Tons",Texas,TEX,Track Excavators,,EROPS w AC,,,,,,,,,,,Auxiliary,,,,,,None or Unspecified,,,,Steel,None or Unspecified,None or Unspecified,None or Unspecified,None or Unspecified,Double,,,,,
15261,4335462,62500,2275569,172,1.0,2006,2993.0,Medium,3/24/2010 0:00,ZX200LC,ZX200,,,LC,Large / Medium,"Hydraulic Excavator, Track - 19.0 to 21.0 Metric Tons",Texas,TEX,Track Excavators,,EROPS w AC,,,,,,,,,,,Standard,,,,,,None or Unspecified,,,,Steel,None or Unspecified,None or Unspecified,None or Unspecified,None or Unspecified,Double,,,,,
15261,4335464,65000,2299443,172,1.0,2006,4651.0,High,12/16/2010 0:00,ZX200LC,ZX200,,,LC,Large / Medium,"Hydraulic Excavator, Track - 19.0 to 21.0 Metric Tons",Colorado,TEX,Track Excavators,,EROPS w AC,,,,,,,,,,,Standard,,,,,,None or Unspecified,,,,Steel,None or Unspecified,None or Unspecified,None or Unspecified,None or Unspecified,Double,,,,,
15261,4335473,105000,2275235,172,1.0,2006,2187.0,Medium,12/13/2011 0:00,ZX200LC,ZX200,,,LC,Large / Medium,"Hydraulic Excavator, Track - 19.0 to 21.0 Metric Tons",North Carolina,TEX,Track Excavators,,EROPS w AC,,,,,,,,,,,Auxiliary,,,,,,None or Unspecified,,,,Steel,None or Unspecified,None or Unspecified,Hydraulic,None or Unspecified,Triple,,,,,
15261,4335695,76000,2304554,172,1.0,2007,1058.0,Medium,6/30/2009 0:00,ZX200LC,ZX200,,,LC,Large / Medium,"Hydraulic Excavator, Track - 19.0 to 21.0 Metric Tons",North Carolina,TEX,Track Excavators,,EROPS w AC,,,,,,,,,,,Standard,,,,,,None or Unspecified,,,,Steel,None or Unspecified,None or Unspecified,Hydraulic,None or Unspecified,Double,,,,,
15261,4336006,50000,2285076,172,1.0,2006,5117.0,High,6/9/2010 0:00,ZX200LC,ZX200,,,LC,Large / Medium,"Hydraulic Excavator, Track - 19.0 to 21.0 Metric Tons",Texas,TEX,Track Excavators,,EROPS w AC,,,,,,,,,,,Auxiliary,,,,,,None or Unspecified,,,,Steel,None or Unspecified,None or Unspecified,None or Unspecified,None or Unspecified,Double,,,,,
15261,4336037,65000,1733816,172,1.0,2006,2394.0,Medium,8/17/2010 0:00,ZX200LC,ZX200,,,LC,Large / Medium,"Hydraulic Excavator, Track - 19.0 to 21.0 Metric Tons",Utah,TEX,Track Excavators,,EROPS w AC,,,,,,,,,,,Standard,,,,,,Hydraulic,,,,Steel,None or Unspecified,None or Unspecified,Hydraulic,None or Unspecified,Double,,,,,
15261,4336042,37000,2270152,172,1.0,2005,6030.0,High,6/17/2009 0:00,ZX200LC,ZX200,,,LC,Large / Medium,"Hydraulic Excavator, Track - 19.0 to 21.0 Metric Tons",Washington,TEX,Track Excavators,,EROPS,,,,,,,,,,,Standard,,,,,,None or Unspecified,,,,Steel,None or Unspecified,None or Unspecified,Hydraulic,None or Unspecified,Double,,,,,
15261,4336046,48000,2290202,172,1.0,2003,7217.0,Medium,12/4/2011 0:00,ZX200LC,ZX200,,,LC,Large / Medium,"Hydraulic Excavator, Track - 19.0 to 21.0 Metric Tons",Arizona,TEX,Track Excavators,,EROPS w AC,,,,,,,,,,,Standard,,,,,,None or Unspecified,,,,Steel,None or Unspecified,None or Unspecified,None or Unspecified,None or Unspecified,Double,,,,,
15261,4336049,54000,2284472,172,1.0,2005,3085.0,Medium,12/10/2009 0:00,ZX200LC,ZX200,,,LC,Large / Medium,"Hydraulic Excavator, Track - 19.0 to 21.0 Metric Tons",Washington,TEX,Track Excavators,,EROPS,,,,,,,,,,,Standard,,,,,,None or Unspecified,,,,Steel,None or Unspecified,None or Unspecified,None or Unspecified,None or Unspecified,Double,,,,,
15261,4336050,65000,2297886,172,1.0,2004,5069.0,Medium,12/19/2011 0:00,ZX200LC,ZX200,,,LC,Large / Medium,"Hydraulic Excavator, Track - 19.0 to 21.0 Metric Tons",Washington,TEX,Track Excavators,,EROPS w AC,,,,,,,,,,,Auxiliary,,,,,,None or Unspecified,,,,Steel,None or Unspecified,None or Unspecified,Hydraulic,None or Unspecified,Double,,,,,
15261,4336052,45000,2275862,172,1.0,2003,8443.0,Medium,12/19/2011 0:00,ZX200LC,ZX200,,,LC,Large / Medium,"Hydraulic Excavator, Track - 19.0 to 21.0 Metric Tons",Washington,TEX,Track Excavators,,EROPS w AC,,,,,,,,,,,Auxiliary,,,,,,None or Unspecified,,,,Steel,None or Unspecified,None or Unspecified,Hydraulic,None or Unspecified,Double,,,,,
15261,4336056,65000,2302811,172,1.0,1000,5503.0,Low,8/23/2011 0:00,ZX200LC,ZX200,,,LC,Large / Medium,"Hydraulic Excavator, Track - 19.0 to 21.0 Metric Tons",Texas,TEX,Track Excavators,,EROPS w AC,,,,,,,,,,,Auxiliary,,,,,,None or Unspecified,,,,Steel,None or Unspecified,None or Unspecified,Hydraulic,None or Unspecified,Double,,,,,
15261,4336059,52500,2305516,172,1.0,2003,7343.0,Medium,2/24/2011 0:00,ZX200LC,ZX200,,,LC,Large / Medium,"Hydraulic Excavator, Track - 19.0 to 21.0 Metric Tons",Arizona,TEX,Track Excavators,,EROPS w AC,,,,,,,,,,,Standard,,,,,,None or Unspecified,,,,Steel,None or Unspecified,None or Unspecified,None or Unspecified,None or Unspecified,Double,,,,,
15261,6292672,62500,1816768,149,1.0,2003,,,9/16/2011 0:00,ZX200LC,ZX200,,,LC,Large / Medium,"Hydraulic Excavator, Track - 19.0 to 21.0 Metric Tons",South Carolina,TEX,Track Excavators,,EROPS w AC,,,,,,,,,,,Standard,,,,,,None or Unspecified,,,,Steel,None or Unspecified,"9' 7""",None or Unspecified,None or Unspecified,Double,,,,,
15261,6292674,70000,1834612,149,12.0,2004,,,8/17/2011 0:00,ZX200LC,ZX200,,,LC,Large / Medium,"Hydraulic Excavator, Track - 19.0 to 21.0 Metric Tons",South Carolina,TEX,Track Excavators,,EROPS w AC,,,,,,,,,,,Standard,,,,,,None or Unspecified,,,,Steel,None or Unspecified,None or Unspecified,None or Unspecified,None or Unspecified,Double,,,,,
15261,6292677,72500,1877236,149,2.0,1000,,,12/21/2011 0:00,ZX200LC,ZX200,,,LC,Large / Medium,"Hydraulic Excavator, Track - 19.0 to 21.0 Metric Tons",Kentucky,TEX,Track Excavators,,EROPS w AC,,,,,,,,,,,Standard,,,,,,None or Unspecified,,,,Steel,None or Unspecified,None or Unspecified,None or Unspecified,None or Unspecified,Double,,,,,
15261,6292679,55000,1932941,149,1.0,2004,,,10/4/2011 0:00,ZX200LC,ZX200,,,LC,Large / Medium,"Hydraulic Excavator, Track - 19.0 to 21.0 Metric Tons",Texas,TEX,Track Excavators,,EROPS w AC,,,,,,,,,,,Standard,,,,,,None or Unspecified,,,,Steel,None or Unspecified,None or Unspecified,None or Unspecified,None or Unspecified,Double,,,,,
15261,6292685,80000,1850117,149,1.0,2006,,,9/16/2011 0:00,ZX200LC,ZX200,,,LC,Large / Medium,"Hydraulic Excavator, Track - 19.0 to 21.0 Metric Tons",South Carolina,TEX,Track Excavators,,EROPS,,,,,,,,,,,Standard,,,,,,None or Unspecified,,,,Steel,None or Unspecified,None or Unspecified,None or Unspecified,None or Unspecified,Double,,,,,
15261,6292686,64000,1162339,149,1.0,2005,,,6/22/2011 0:00,ZX200LC,ZX200,,,LC,Large / Medium,"Hydraulic Excavator, Track - 19.0 to 21.0 Metric Tons",Texas,TEX,Track Excavators,,EROPS w AC,,,,,,,,,,,Standard,,,,,,None or Unspecified,,,,Steel,None or Unspecified,"9' 7""",None or Unspecified,None or Unspecified,Double,,,,,
15261,6292766,75000,1873316,149,1.0,2006,,,12/14/2011 0:00,ZX200LC,ZX200,,,LC,Large / Medium,"Hydraulic Excavator, Track - 19.0 to 21.0 Metric Tons",North Carolina,TEX,Track Excavators,,EROPS w AC,,,,,,,,,,,Standard,,,,,,None or Unspecified,,,,Steel,None or Unspecified,None or Unspecified,None or Unspecified,None or Unspecified,Double,,,,,
15261,6292767,75000,1906598,149,1.0,2007,,,6/22/2011 0:00,ZX200LC,ZX200,,,LC,Large / Medium,"Hydraulic Excavator, Track - 19.0 to 21.0 Metric Tons",Texas,TEX,Track Excavators,,EROPS w AC,,,,,,,,,,,Standard,,,,,,None or Unspecified,,,,Steel,None or Unspecified,None or Unspecified,None or Unspecified,None or Unspecified,Double,,,,,
15261,6292768,95000,634594,149,1.0,2007,,,12/20/2011 0:00,ZX200LC,ZX200,,,LC,Large / Medium,"Hydraulic Excavator, Track - 19.0 to 21.0 Metric Tons",Washington,TEX,Track Excavators,,EROPS w AC,,,,,,,,,,,Auxiliary,,,,,,None or Unspecified,,,,Steel,None or Unspecified,None or Unspecified,None or Unspecified,None or Unspecified,Double,,,,,
15261,6292826,105000,1934666,149,1.0,2006,,,12/14/2011 0:00,ZX200LC,ZX200,,,LC,Large / Medium,"Hydraulic Excavator, Track - 19.0 to 21.0 Metric Tons",North Carolina,TEX,Track Excavators,,EROPS w AC,,,,,,,,,,,Auxiliary,,,,,,None or Unspecified,,,,Steel,None or Unspecified,None or Unspecified,None or Unspecified,None or Unspecified,Double,,,,,
15261,6293015,48000,1919723,149,1.0,2003,,,12/5/2011 0:00,ZX200LC,ZX200,,,LC,Large / Medium,"Hydraulic Excavator, Track - 19.0 to 21.0 Metric Tons",Arizona,TEX,Track Excavators,,EROPS,,,,,,,,,,,Standard,,,,,,None or Unspecified,,,,Steel,None or Unspecified,None or Unspecified,None or Unspecified,None or Unspecified,Double,,,,,
15261,6293016,65000,1835014,149,1.0,2004,,,12/20/2011 0:00,ZX200LC,ZX200,,,LC,Large / Medium,"Hydraulic Excavator, Track - 19.0 to 21.0 Metric Tons",Washington,TEX,Track Excavators,,EROPS w AC,,,,,,,,,,,Auxiliary,,,,,,None or Unspecified,,,,Steel,None or Unspecified,None or Unspecified,Hydraulic,None or Unspecified,Double,,,,,
15261,6293017,45000,1816751,149,1.0,2003,,,12/20/2011 0:00,ZX200LC,ZX200,,,LC,Large / Medium,"Hydraulic Excavator, Track - 19.0 to 21.0 Metric Tons",Washington,TEX,Track Excavators,,EROPS w AC,,,,,,,,,,,Standard,,,,,,None or Unspecified,,,,Steel,None or Unspecified,None or Unspecified,None or Unspecified,None or Unspecified,Double,,,,,
15261,6293018,65000,1802910,149,1.0,2004,,,8/24/2011 0:00,ZX200LC,ZX200,,,LC,Large / Medium,"Hydraulic Excavator, Track - 19.0 to 21.0 Metric Tons",Texas,TEX,Track Excavators,,EROPS w AC,,,,,,,,,,,Standard,,,,,,None or Unspecified,,,,Steel,None or Unspecified,"9' 6""",None or Unspecified,None or Unspecified,Double,,,,,
15261,6293484,72500,1801483,149,2.0,1000,,,12/21/2011 0:00,ZX200LC,ZX200,,,LC,Large / Medium,"Hydraulic Excavator, Track - 19.0 to 21.0 Metric Tons",Kentucky,TEX,Track Excavators,,EROPS,,,,,,,,,,,Standard,,,,,,None or Unspecified,,,,Steel,None or Unspecified,None or Unspecified,None or Unspecified,None or Unspecified,Double,,,,,
