ModelID,SalesID,SalePrice,MachineID,datasource,auctioneerID,YearMade,MachineHoursCurrentMeter,UsageBand,saledate,fiModelDesc,fiBaseModel,fiSecondaryDesc,fiModelSeries,fiModelDescriptor,ProductSize,fiProductClassDesc,state,ProductGroup,ProductGroupDesc,Drive_System,Enclosure,Forks,Pad_Type,Ride_Control,Stick,Transmission,Turbocharged,Blade_Extension,Blade_Width,Enclosure_Type,Engine_Horsepower,Hydraulics,Pushblock,Ripper,Scarifier,Tip_Control,Tire_Size,Coupler,Coupler_System,Grouser_Tracks,Hydraulics_Flow,Track_Type,Undercarriage_Pad_Width,Stick_Length,Thumb,Pattern_Changer,Grouser_Type,Backhoe_Mounting,Blade_Type,Travel_Controls,Differential_Type,Steering_Controls
15313,1155455,90000,1057951,121,3.0,2006,5519.0,High,7/14/2011 0:00,ZX350LC3,ZX350,,LC,3,Large / Medium,"Hydraulic Excavator, Track - 33.0 to 40.0 Metric Tons",Texas,TEX,Track Excavators,,EROPS w AC,,,,,,,,,,,Standard,,,,,,None or Unspecified,,,,Steel,None or Unspecified,"10' 6""",None or Unspecified,None or Unspecified,Double,,,,,
15313,1194252,91000,1004997,121,3.0,2006,1473.0,Medium,10/15/2009 0:00,ZX350LC3,ZX350,,LC,3,Large / Medium,"Hydraulic Excavator, Track - 33.0 to 40.0 Metric Tons",Virginia,TEX,Track Excavators,,EROPS w AC,,,,,,,,,,,Standard,,,,,,None or Unspecified,,,,Steel,None or Unspecified,None or Unspecified,None or Unspecified,None or Unspecified,Double,,,,,
15313,1195461,93000,1012135,121,3.0,2007,1934.0,Medium,11/19/2009 0:00,ZX350LC3,ZX350,,LC,3,Large / Medium,"Hydraulic Excavator, Track - 33.0 to 40.0 Metric Tons",Arizona,TEX,Track Excavators,,EROPS w AC,,,,,,,,,,,Standard,,,,,,None or Unspecified,,,,Steel,31 inch,None or Unspecified,None or Unspecified,None or Unspecified,Triple,,,,,
15313,1215107,78000,1025502,121,3.0,2006,4732.0,Medium,6/30/2011 0:00,ZX350LC3,ZX350,,LC,3,Large / Medium,"Hydraulic Excavator, Track - 33.0 to 40.0 Metric Tons",Virginia,TEX,Track Excavators,,EROPS w AC,,,,,,,,,,,Standard,,,,,,None or Unspecified,,,,Steel,None or Unspecified,"10' 6""",None or Unspecified,None or Unspecified,Double,,,,,
15313,1215110,92000,1017041,121,3.0,2006,3772.0,Medium,6/30/2011 0:00,ZX350LC3,ZX350,,LC,3,Large / Medium,"Hydraulic Excavator, Track - 33.0 to 40.0 Metric Tons",Virginia,TEX,Track Excavators,,EROPS w AC,,,,,,,,,,,Standard,,,,,,None or Unspecified,,,,Steel,None or Unspecified,"10' 6""",None or Unspecified,None or Unspecified,Double,,,,,
15313,1691550,66000,1396767,132,3.0,2006,,,8/27/2009 0:00,ZX350LC3,ZX350,,LC,3,Large / Medium,"Hydraulic Excavator, Track - 33.0 to 40.0 Metric Tons",California,TEX,Track Excavators,,EROPS w AC,,,,,,,,,,,Auxiliary,,,,,,Hydraulic,,,,Steel,None or Unspecified,None or Unspecified,None or Unspecified,None or Unspecified,Double,,,,,
15313,1691555,77500,1339750,132,1.0,2006,6443.0,High,8/18/2010 0:00,ZX350LC3,ZX350,,LC,3,Large / Medium,"Hydraulic Excavator, Track - 33.0 to 40.0 Metric Tons",Florida,TEX,Track Excavators,,EROPS w AC,,,,,,,,,,,Standard,,,,,,None or Unspecified,,,,Steel,None or Unspecified,None or Unspecified,None or Unspecified,None or Unspecified,Double,,,,,
15313,1691556,77500,1291365,132,1.0,2006,5140.0,Medium,4/13/2011 0:00,ZX350LC3,ZX350,,LC,3,Large / Medium,"Hydraulic Excavator, Track - 33.0 to 40.0 Metric Tons",Texas,TEX,Track Excavators,,EROPS w AC,,,,,,,,,,,Standard,,,,,,None or Unspecified,,,,Steel,None or Unspecified,None or Unspecified,None or Unspecified,None or Unspecified,Double,,,,,
15313,1691560,95000,1312524,132,1.0,2006,991.0,Low,3/26/2009 0:00,ZX350LC3,ZX350,,LC,3,Large / Medium,"Hydraulic Excavator, Track - 33.0 to 40.0 Metric Tons",Georgia,TEX,Track Excavators,,EROPS w AC,,,,,,,,,,,Standard,,,,,,None or Unspecified,,,,Steel,None or Unspecified,None or Unspecified,None or Unspecified,None or Unspecified,Double,,,,,
15313,1691561,69000,1191694,132,1.0,2006,5530.0,High,9/10/2009 0:00,ZX350LC3,ZX350,,LC,3,Large / Medium,"Hydraulic Excavator, Track - 33.0 to 40.0 Metric Tons",Georgia,TEX,Track Excavators,,EROPS w AC,,,,,,,,,,,Standard,,,,,,None or Unspecified,,,,Steel,None or Unspecified,None or Unspecified,None or Unspecified,None or Unspecified,Double,,,,,
15313,1691564,75000,1389712,132,1.0,2006,4799.0,High,9/10/2009 0:00,ZX350LC3,ZX350,,LC,3,Large / Medium,"Hydraulic Excavator, Track - 33.0 to 40.0 Metric Tons",Georgia,TEX,Track Excavators,,EROPS w AC,,,,,,,,,,,Standard,,,,,,None or Unspecified,,,,Steel,None or Unspecified,None or Unspecified,None or Unspecified,None or Unspecified,Double,,,,,
15313,1691565,75000,1155503,132,1.0,2006,4742.0,High,9/10/2009 0:00,ZX350LC3,ZX350,,LC,3,Large / Medium,"Hydraulic Excavator, Track - 33.0 to 40.0 Metric Tons",Georgia,TEX,Track Excavators,,EROPS w AC,,,,,,,,,,,Standard,,,,,,None or Unspecified,,,,Steel,None or Unspecified,None or Unspecified,None or Unspecified,None or Unspecified,Double,,,,,
15313,1691568,85000,1446420,132,1.0,2006,4622.0,High,4/13/2010 0:00,ZX350LC3,ZX350,,LC,3,Large / Medium,"Hydraulic Excavator, Track - 33.0 to 40.0 Metric Tons",Idaho,TEX,Track Excavators,,EROPS,,,,,,,,,,,Standard,,,,,,None or Unspecified,,,,Steel,None or Unspecified,None or Unspecified,None or Unspecified,None or Unspecified,Double,,,,,
15313,1691571,82000,1475345,132,1.0,2006,5541.0,High,4/13/2011 0:00,ZX350LC3,ZX350,,LC,3,Large / Medium,"Hydraulic Excavator, Track - 33.0 to 40.0 Metric Tons",Texas,TEX,Track Excavators,,EROPS w AC,,,,,,,,,,,Standard,,,,,,None or Unspecified,,,,Steel,None or Unspecified,"10' 6""",None or Unspecified,None or Unspecified,Double,,,,,
15313,1691579,72500,1540619,132,1.0,2006,6213.0,High,4/13/2011 0:00,ZX350LC3,ZX350,,LC,3,Large / Medium,"Hydraulic Excavator, Track - 33.0 to 40.0 Metric Tons",Texas,TEX,Track Excavators,,EROPS w AC,,,,,,,,,,,Standard,,,,,,None or Unspecified,,,,Steel,None or Unspecified,"10' 6""",None or Unspecified,None or Unspecified,Double,,,,,
15313,1691580,75000,1277484,132,1.0,2006,4484.0,High,9/10/2009 0:00,ZX350LC3,ZX350,,LC,3,Large / Medium,"Hydraulic Excavator, Track - 33.0 to 40.0 Metric Tons",Georgia,TEX,Track Excavators,,EROPS w AC,,,,,,,,,,,Standard,,,,,,None or Unspecified,,,,Steel,None or Unspecified,"10' 6""",None or Unspecified,None or Unspecified,Double,,,,,
15313,1691581,75000,1273997,132,1.0,2006,4535.0,High,9/10/2009 0:00,ZX350LC3,ZX350,,LC,3,Large / Medium,"Hydraulic Excavator, Track - 33.0 to 40.0 Metric Tons",Georgia,TEX,Track Excavators,,EROPS w AC,,,,,,,,,,,Standard,,,,,,None or Unspecified,,,,Steel,None or Unspecified,"10' 6""",None or Unspecified,None or Unspecified,Double,,,,,
15313,1691590,70000,1112993,132,1.0,2006,2739.0,Medium,11/6/2009 0:00,ZX350LC3,ZX350,,LC,3,Large / Medium,"Hydraulic Excavator, Track - 33.0 to 40.0 Metric Tons",Nevada,TEX,Track Excavators,,EROPS w AC,,,,,,,,,,,Auxiliary,,,,,,None or Unspecified,,,,Steel,None or Unspecified,"10' 6""",None or Unspecified,None or Unspecified,Double,,,,,
15313,1691594,103000,1409802,132,13.0,2006,4007.0,Medium,3/19/2011 0:00,ZX350LC3,ZX350,,LC,3,Large / Medium,"Hydraulic Excavator, Track - 33.0 to 40.0 Metric Tons",Tennessee,TEX,Track Excavators,,EROPS w AC,,,,,,,,,,,Standard,,,,,,None or Unspecified,,,,Steel,None or Unspecified,None or Unspecified,None or Unspecified,None or Unspecified,Double,,,,,
15313,1691598,100000,1469314,132,1.0,2006,2659.0,Medium,4/3/2009 0:00,ZX350LC3,ZX350,,LC,3,Large / Medium,"Hydraulic Excavator, Track - 33.0 to 40.0 Metric Tons",Nevada,TEX,Track Excavators,,EROPS w AC,,,,,,,,,,,Standard,,,,,,None or Unspecified,,,,Steel,None or Unspecified,"10' 6""",None or Unspecified,None or Unspecified,Double,,,,,
15313,1691599,77500,1490547,132,1.0,2006,4560.0,Medium,2/18/2011 0:00,ZX350LC3,ZX350,,LC,3,Large / Medium,"Hydraulic Excavator, Track - 33.0 to 40.0 Metric Tons",Florida,TEX,Track Excavators,,EROPS w AC,,,,,,,,,,,Standard,,,,,,None or Unspecified,,,,Steel,None or Unspecified,None or Unspecified,None or Unspecified,None or Unspecified,Double,,,,,
15313,1691600,70000,1525892,132,1.0,2006,5735.0,High,9/10/2009 0:00,ZX350LC3,ZX350,,LC,3,Large / Medium,"Hydraulic Excavator, Track - 33.0 to 40.0 Metric Tons",Georgia,TEX,Track Excavators,,EROPS w AC,,,,,,,,,,,Standard,,,,,,None or Unspecified,,,,Steel,None or Unspecified,"10' 6""",None or Unspecified,None or Unspecified,Double,,,,,
15313,1691603,91000,1113023,132,3.0,2006,,,10/15/2009 0:00,ZX350LC3,ZX350,,LC,3,Large / Medium,"Hydraulic Excavator, Track - 33.0 to 40.0 Metric Tons",California,TEX,Track Excavators,,EROPS w AC,,,,,,,,,,,Standard,,,,,,None or Unspecified,,,,Steel,None or Unspecified,None or Unspecified,None or Unspecified,None or Unspecified,Double,,,,,
15313,1691604,95000,1116262,132,1.0,2006,2752.0,Medium,2/18/2010 0:00,ZX350LC3,ZX350,,LC,3,Large / Medium,"Hydraulic Excavator, Track - 33.0 to 40.0 Metric Tons",Florida,TEX,Track Excavators,,EROPS w AC,,,,,,,,,,,Standard,,,,,,None or Unspecified,,,,Steel,None or Unspecified,None or Unspecified,None or Unspecified,None or Unspecified,Double,,,,,
15313,1691607,75000,1512237,132,1.0,2006,4168.0,High,9/10/2009 0:00,ZX350LC3,ZX350,,LC,3,Large / Medium,"Hydraulic Excavator, Track - 33.0 to 40.0 Metric Tons",Georgia,TEX,Track Excavators,,EROPS w AC,,,,,,,,,,,Standard,,,,,,None or Unspecified,,,,Steel,None or Unspecified,None or Unspecified,None or Unspecified,None or Unspecified,Double,,,,,
15313,1691608,75000,1432052,132,1.0,2006,4711.0,High,9/10/2009 0:00,ZX350LC3,ZX350,,LC,3,Large / Medium,"Hydraulic Excavator, Track - 33.0 to 40.0 Metric Tons",Georgia,TEX,Track Excavators,,EROPS w AC,,,,,,,,,,,Standard,,,,,,None or Unspecified,,,,Steel,None or Unspecified,None or Unspecified,None or Unspecified,None or Unspecified,Double,,,,,
15313,1691615,75000,1275546,132,1.0,2006,4471.0,High,9/10/2009 0:00,ZX350LC3,ZX350,,LC,3,Large / Medium,"Hydraulic Excavator, Track - 33.0 to 40.0 Metric Tons",Georgia,TEX,Track Excavators,,EROPS w AC,,,,,,,,,,,Standard,,,,,,None or Unspecified,,,,Steel,None or Unspecified,None or Unspecified,None or Unspecified,None or Unspecified,Double,,,,,
15313,1691616,75000,1243748,132,1.0,2006,4639.0,High,9/10/2009 0:00,ZX350LC3,ZX350,,LC,3,Large / Medium,"Hydraulic Excavator, Track - 33.0 to 40.0 Metric Tons",Georgia,TEX,Track Excavators,,EROPS w AC,,,,,,,,,,,Auxiliary,,,,,,None or Unspecified,,,,Steel,None or Unspecified,None or Unspecified,None or Unspecified,None or Unspecified,Double,,,,,
15313,1691617,72500,1353785,132,1.0,2006,6650.0,High,8/17/2011 0:00,ZX350LC3,ZX350,,LC,3,Large / Medium,"Hydraulic Excavator, Track - 33.0 to 40.0 Metric Tons",Florida,TEX,Track Excavators,,EROPS w AC,,,,,,,,,,,Standard,,,,,,None or Unspecified,,,,Steel,None or Unspecified,None or Unspecified,None or Unspecified,None or Unspecified,Double,,,,,
15313,1691620,100000,1445235,132,1.0,2006,3539.0,Medium,5/25/2011 0:00,ZX350LC3,ZX350,,LC,3,Large / Medium,"Hydraulic Excavator, Track - 33.0 to 40.0 Metric Tons",Virginia,TEX,Track Excavators,,EROPS w AC,,,,,,,,,,,Auxiliary,,,,,,Manual,,,,Steel,None or Unspecified,"10' 6""",Manual,None or Unspecified,Double,,,,,
15313,1691623,95000,1422171,132,1.0,2006,4677.0,Medium,2/18/2011 0:00,ZX350LC3,ZX350,,LC,3,Large / Medium,"Hydraulic Excavator, Track - 33.0 to 40.0 Metric Tons",Florida,TEX,Track Excavators,,EROPS,,,,,,,,,,,Standard,,,,,,None or Unspecified,,,,Steel,None or Unspecified,"10' 6""",None or Unspecified,None or Unspecified,Double,,,,,
15313,1691624,102500,1342181,132,1.0,2006,3174.0,Medium,3/30/2011 0:00,ZX350LC3,ZX350,,LC,3,Large / Medium,"Hydraulic Excavator, Track - 33.0 to 40.0 Metric Tons",North Carolina,TEX,Track Excavators,,EROPS w AC,,,,,,,,,,,Standard,,,,,,None or Unspecified,,,,Steel,None or Unspecified,"10' 6""",None or Unspecified,None or Unspecified,Double,,,,,
15313,1691626,97500,1288992,132,1.0,2006,2675.0,Medium,5/6/2009 0:00,ZX350LC3,ZX350,,LC,3,Large / Medium,"Hydraulic Excavator, Track - 33.0 to 40.0 Metric Tons",Texas,TEX,Track Excavators,,EROPS w AC,,,,,,,,,,,Standard,,,,,,None or Unspecified,,,,Steel,None or Unspecified,"10' 6""",None or Unspecified,None or Unspecified,Double,,,,,
15313,1691634,90000,1354241,132,3.0,2006,,,7/14/2011 0:00,ZX350LC3,ZX350,,LC,3,Large / Medium,"Hydraulic Excavator, Track - 33.0 to 40.0 Metric Tons",California,TEX,Track Excavators,,EROPS w AC,,,,,,,,,,,Standard,,,,,,None or Unspecified,,,,Steel,None or Unspecified,"10' 6""",None or Unspecified,None or Unspecified,Triple,,,,,
15313,1691675,90000,1098485,132,1.0,2007,4403.0,High,11/12/2010 0:00,ZX350LC3,ZX350,,LC,3,Large / Medium,"Hydraulic Excavator, Track - 33.0 to 40.0 Metric Tons",Montana,TEX,Track Excavators,,EROPS w AC,,,,,,,,,,,Standard,,,,,,Manual,,,,Steel,None or Unspecified,None or Unspecified,None or Unspecified,None or Unspecified,Double,,,,,
15313,1691677,82000,1434225,132,1.0,2007,4880.0,High,10/27/2010 0:00,ZX350LC3,ZX350,,LC,3,Large / Medium,"Hydraulic Excavator, Track - 33.0 to 40.0 Metric Tons",Florida,TEX,Track Excavators,,EROPS w AC,,,,,,,,,,,Auxiliary,,,,,,None or Unspecified,,,,Steel,None or Unspecified,None or Unspecified,None or Unspecified,None or Unspecified,Double,,,,,
15313,1692772,92500,1483934,132,1.0,2007,2821.0,High,2/25/2009 0:00,ZX350LC3,ZX350,,LC,3,Large / Medium,"Hydraulic Excavator, Track - 33.0 to 40.0 Metric Tons",Arizona,TEX,Track Excavators,,EROPS w AC,,,,,,,,,,,Standard,,,,,,None or Unspecified,,,,Steel,None or Unspecified,None or Unspecified,None or Unspecified,None or Unspecified,Double,,,,,
15313,1692773,92500,1502857,132,1.0,2007,3693.0,High,6/9/2010 0:00,ZX350LC3,ZX350,,LC,3,Large / Medium,"Hydraulic Excavator, Track - 33.0 to 40.0 Metric Tons",Texas,TEX,Track Excavators,,EROPS w AC,,,,,,,,,,,Standard,,,,,,None or Unspecified,,,,Steel,None or Unspecified,None or Unspecified,None or Unspecified,None or Unspecified,Double,,,,,
15313,1692774,85000,1223799,132,1.0,2007,5243.0,High,10/27/2010 0:00,ZX350LC3,ZX350,,LC,3,Large / Medium,"Hydraulic Excavator, Track - 33.0 to 40.0 Metric Tons",Florida,TEX,Track Excavators,,EROPS w AC,,,,,,,,,,,Standard,,,,,,None or Unspecified,,,,Steel,None or Unspecified,None or Unspecified,None or Unspecified,None or Unspecified,Double,,,,,
15313,1692775,104000,1220815,132,1.0,2007,3062.0,Medium,10/19/2010 0:00,ZX350LC3,ZX350,,LC,3,Large / Medium,"Hydraulic Excavator, Track - 33.0 to 40.0 Metric Tons",Maryland,TEX,Track Excavators,,EROPS w AC,,,,,,,,,,,Standard,,,,,,None or Unspecified,,,,Steel,None or Unspecified,None or Unspecified,None or Unspecified,None or Unspecified,Double,,,,,
15313,1693004,90000,1457767,132,1.0,2006,5208.0,Medium,2/18/2011 0:00,ZX350LC3,ZX350,,LC,3,Large / Medium,"Hydraulic Excavator, Track - 33.0 to 40.0 Metric Tons",Florida,TEX,Track Excavators,,EROPS w AC,,,,,,,,,,,Standard,,,,,,None or Unspecified,,,,Steel,None or Unspecified,None or Unspecified,None or Unspecified,None or Unspecified,Double,,,,,
15313,2372221,104000,1703249,136,2.0,2006,0.0,,3/18/2010 0:00,ZX350LC3,ZX350,,LC,3,Large / Medium,"Hydraulic Excavator, Track - 33.0 to 40.0 Metric Tons",Virginia,TEX,Track Excavators,,EROPS w AC,,,,,,,,,,,Standard,,,,,,None or Unspecified,,,,Steel,None or Unspecified,None or Unspecified,None or Unspecified,None or Unspecified,Triple,,,,,
15313,2372222,90000,1768620,136,2.0,2006,0.0,,5/26/2010 0:00,ZX350LC3,ZX350,,LC,3,Large / Medium,"Hydraulic Excavator, Track - 33.0 to 40.0 Metric Tons",Florida,TEX,Track Excavators,,EROPS w AC,,,,,,,,,,,Standard,,,,,,None or Unspecified,,,,Steel,None or Unspecified,None or Unspecified,None or Unspecified,None or Unspecified,Triple,,,,,
15313,2372224,100000,1764983,136,2.0,2006,0.0,,3/18/2010 0:00,ZX350LC3,ZX350,,LC,3,Large / Medium,"Hydraulic Excavator, Track - 33.0 to 40.0 Metric Tons",Virginia,TEX,Track Excavators,,EROPS w AC,,,,,,,,,,,Standard,,,,,,None or Unspecified,,,,Steel,None or Unspecified,None or Unspecified,None or Unspecified,None or Unspecified,Triple,,,,,
15313,2373542,90000,1645101,136,2.0,2006,0.0,,5/26/2010 0:00,ZX350LC3,ZX350,,LC,3,Large / Medium,"Hydraulic Excavator, Track - 33.0 to 40.0 Metric Tons",Florida,TEX,Track Excavators,,EROPS w AC,,,,,,,,,,,Standard,,,,,,None or Unspecified,,,,Steel,None or Unspecified,None or Unspecified,None or Unspecified,None or Unspecified,Triple,,,,,
15313,2373579,92500,1652680,136,,2007,2821.0,High,2/25/2009 0:00,ZX350LC3,ZX350,,LC,3,Large / Medium,"Hydraulic Excavator, Track - 33.0 to 40.0 Metric Tons",Arizona,TEX,Track Excavators,,EROPS w AC,,,,,,,,,,,Standard,,,,,,None or Unspecified,,,,Steel,None or Unspecified,None or Unspecified,None or Unspecified,None or Unspecified,Double,,,,,
15313,2373594,95000,1715266,136,2.0,2007,0.0,,5/26/2010 0:00,ZX350LC3,ZX350,,LC,3,Large / Medium,"Hydraulic Excavator, Track - 33.0 to 40.0 Metric Tons",Florida,TEX,Track Excavators,,EROPS w AC,,,,,,,,,,,Standard,,,,,,None or Unspecified,,,,Steel,None or Unspecified,None or Unspecified,None or Unspecified,None or Unspecified,Double,,,,,
15313,2373796,70000,1648117,136,,2006,2739.0,Medium,11/6/2009 0:00,ZX350LC3,ZX350,,LC,3,Large / Medium,"Hydraulic Excavator, Track - 33.0 to 40.0 Metric Tons",Nevada,TEX,Track Excavators,,EROPS w AC,,,,,,,,,,,Standard,,,,,,None or Unspecified,,,,Steel,None or Unspecified,None or Unspecified,None or Unspecified,None or Unspecified,Double,,,,,
15313,2373797,57500,1717810,136,,2006,0.0,,6/30/2009 0:00,ZX350LC3,ZX350,,LC,3,Large / Medium,"Hydraulic Excavator, Track - 33.0 to 40.0 Metric Tons",North Carolina,TEX,Track Excavators,,EROPS w AC,,,,,,,,,,,Standard,,,,,,None or Unspecified,,,,Steel,None or Unspecified,None or Unspecified,None or Unspecified,None or Unspecified,Double,,,,,
15313,2373798,57500,1194840,136,1.0,2006,0.0,,6/30/2009 0:00,ZX350LC3,ZX350,,LC,3,Large / Medium,"Hydraulic Excavator, Track - 33.0 to 40.0 Metric Tons",North Carolina,TEX,Track Excavators,,EROPS w AC,,,,,,,,,,,Standard,,,,,,None or Unspecified,,,,Steel,None or Unspecified,"10' 6""",None or Unspecified,None or Unspecified,Double,,,,,
15313,2373802,69000,1674135,136,,2006,0.0,,9/10/2009 0:00,ZX350LC3,ZX350,,LC,3,Large / Medium,"Hydraulic Excavator, Track - 33.0 to 40.0 Metric Tons",Georgia,TEX,Track Excavators,,EROPS w AC,,,,,,,,,,,Standard,,,,,,None or Unspecified,,,,Steel,None or Unspecified,None or Unspecified,None or Unspecified,None or Unspecified,Double,,,,,
15313,2373803,57500,1639513,136,,2006,0.0,,6/30/2009 0:00,ZX350LC3,ZX350,,LC,3,Large / Medium,"Hydraulic Excavator, Track - 33.0 to 40.0 Metric Tons",North Carolina,TEX,Track Excavators,,EROPS w AC,,,,,,,,,,,Standard,,,,,,None or Unspecified,,,,Steel,None or Unspecified,None or Unspecified,None or Unspecified,None or Unspecified,Double,,,,,
15313,2373804,75000,1761152,136,,2006,0.0,,9/10/2009 0:00,ZX350LC3,ZX350,,LC,3,Large / Medium,"Hydraulic Excavator, Track - 33.0 to 40.0 Metric Tons",Georgia,TEX,Track Excavators,,EROPS w AC,,,,,,,,,,,Standard,,,,,,None or Unspecified,,,,Steel,None or Unspecified,None or Unspecified,None or Unspecified,None or Unspecified,Double,,,,,
15313,2373805,75000,1691498,136,,2006,0.0,,9/10/2009 0:00,ZX350LC3,ZX350,,LC,3,Large / Medium,"Hydraulic Excavator, Track - 33.0 to 40.0 Metric Tons",Georgia,TEX,Track Excavators,,EROPS w AC,,,,,,,,,,,Standard,,,,,,None or Unspecified,,,,Steel,None or Unspecified,None or Unspecified,None or Unspecified,None or Unspecified,Double,,,,,
15313,2373806,57500,1647359,136,,2006,0.0,,6/30/2009 0:00,ZX350LC3,ZX350,,LC,3,Large / Medium,"Hydraulic Excavator, Track - 33.0 to 40.0 Metric Tons",North Carolina,TEX,Track Excavators,,EROPS w AC,,,,,,,,,,,Standard,,,,,,None or Unspecified,,,,Steel,None or Unspecified,None or Unspecified,None or Unspecified,None or Unspecified,Double,,,,,
15313,2373810,85000,1760094,136,1.0,1000,4622.0,High,4/13/2010 0:00,ZX350LC3,ZX350,,LC,3,Large / Medium,"Hydraulic Excavator, Track - 33.0 to 40.0 Metric Tons",Idaho,TEX,Track Excavators,,EROPS,,,,,,,,,,,Auxiliary,,,,,,None or Unspecified,,,,Steel,None or Unspecified,None or Unspecified,None or Unspecified,None or Unspecified,Double,,,,,
15313,2373812,75000,1787204,136,,2006,0.0,,9/10/2009 0:00,ZX350LC3,ZX350,,LC,3,Large / Medium,"Hydraulic Excavator, Track - 33.0 to 40.0 Metric Tons",Georgia,TEX,Track Excavators,,EROPS w AC,,,,,,,,,,,Standard,,,,,,None or Unspecified,,,,Steel,None or Unspecified,None or Unspecified,None or Unspecified,None or Unspecified,Double,,,,,
15313,2373813,75000,1653623,136,,2006,0.0,,9/10/2009 0:00,ZX350LC3,ZX350,,LC,3,Large / Medium,"Hydraulic Excavator, Track - 33.0 to 40.0 Metric Tons",Georgia,TEX,Track Excavators,,EROPS w AC,,,,,,,,,,,Standard,,,,,,None or Unspecified,,,,Steel,None or Unspecified,None or Unspecified,None or Unspecified,None or Unspecified,Double,,,,,
15313,2373816,95000,1683757,136,,2006,0.0,,3/26/2009 0:00,ZX350LC3,ZX350,,LC,3,Large / Medium,"Hydraulic Excavator, Track - 33.0 to 40.0 Metric Tons",Georgia,TEX,Track Excavators,,EROPS w AC,,,,,,,,,,,Standard,,,,,,None or Unspecified,,,,Steel,None or Unspecified,None or Unspecified,None or Unspecified,None or Unspecified,Double,,,,,
15313,2373818,100000,1657254,136,,2006,2659.0,Medium,4/3/2009 0:00,ZX350LC3,ZX350,,LC,3,Large / Medium,"Hydraulic Excavator, Track - 33.0 to 40.0 Metric Tons",Nevada,TEX,Track Excavators,,EROPS w AC,,,,,,,,,,,Standard,,,,,,Hydraulic,,,,Steel,None or Unspecified,None or Unspecified,None or Unspecified,None or Unspecified,Double,,,,,
15313,2373820,70000,1783919,136,,2006,0.0,,9/10/2009 0:00,ZX350LC3,ZX350,,LC,3,Large / Medium,"Hydraulic Excavator, Track - 33.0 to 40.0 Metric Tons",Georgia,TEX,Track Excavators,,EROPS w AC,,,,,,,,,,,Standard,,,,,,None or Unspecified,,,,Steel,None or Unspecified,None or Unspecified,None or Unspecified,None or Unspecified,Double,,,,,
15313,2373821,95000,1717501,136,1.0,2006,2752.0,Medium,2/15/2010 0:00,ZX350LC3,ZX350,,LC,3,Large / Medium,"Hydraulic Excavator, Track - 33.0 to 40.0 Metric Tons",Florida,TEX,Track Excavators,,EROPS w AC,,,,,,,,,,,Standard,,,,,,None or Unspecified,,,,Steel,None or Unspecified,None or Unspecified,None or Unspecified,None or Unspecified,Double,,,,,
15313,2373822,75000,1686878,136,,2006,0.0,,9/10/2009 0:00,ZX350LC3,ZX350,,LC,3,Large / Medium,"Hydraulic Excavator, Track - 33.0 to 40.0 Metric Tons",Georgia,TEX,Track Excavators,,EROPS w AC,,,,,,,,,,,Standard,,,,,,None or Unspecified,,,,Steel,None or Unspecified,None or Unspecified,None or Unspecified,None or Unspecified,Double,,,,,
15313,2373823,75000,1677496,136,,2006,0.0,,9/10/2009 0:00,ZX350LC3,ZX350,,LC,3,Large / Medium,"Hydraulic Excavator, Track - 33.0 to 40.0 Metric Tons",Georgia,TEX,Track Excavators,,EROPS w AC,,,,,,,,,,,Standard,,,,,,None or Unspecified,,,,Steel,None or Unspecified,None or Unspecified,None or Unspecified,None or Unspecified,Double,,,,,
15313,2373824,75000,1755742,136,,2006,0.0,,9/10/2009 0:00,ZX350LC3,ZX350,,LC,3,Large / Medium,"Hydraulic Excavator, Track - 33.0 to 40.0 Metric Tons",Georgia,TEX,Track Excavators,,EROPS w AC,,,,,,,,,,,Standard,,,,,,None or Unspecified,,,,Steel,None or Unspecified,None or Unspecified,None or Unspecified,None or Unspecified,Double,,,,,
15313,2373825,75000,1695432,136,,2006,0.0,,9/10/2009 0:00,ZX350LC3,ZX350,,LC,3,Large / Medium,"Hydraulic Excavator, Track - 33.0 to 40.0 Metric Tons",Georgia,TEX,Track Excavators,,EROPS w AC,,,,,,,,,,,Standard,,,,,,None or Unspecified,,,,Steel,None or Unspecified,None or Unspecified,None or Unspecified,None or Unspecified,Double,,,,,
15313,2373829,97500,1700279,136,,2006,2675.0,Medium,5/6/2009 0:00,ZX350LC3,ZX350,,LC,3,Large / Medium,"Hydraulic Excavator, Track - 33.0 to 40.0 Metric Tons",Texas,TEX,Track Excavators,,EROPS w AC,,,,,,,,,,,Standard,,,,,,None or Unspecified,,,,Steel,None or Unspecified,None or Unspecified,None or Unspecified,None or Unspecified,Double,,,,,
15313,2670776,75000,1482757,149,5.0,2006,0.0,,4/12/2011 0:00,ZX350LC3,ZX350,,LC,3,Large / Medium,"Hydraulic Excavator, Track - 33.0 to 40.0 Metric Tons",Texas,TEX,Track Excavators,,EROPS w AC,,,,,,,,,,,Standard,,,,,,None or Unspecified,,,,Steel,None or Unspecified,"10' 6""",None or Unspecified,None or Unspecified,Triple,,,,,
15313,2670777,80000,1354241,149,5.0,2006,0.0,,4/12/2011 0:00,ZX350LC3,ZX350,,LC,3,Large / Medium,"Hydraulic Excavator, Track - 33.0 to 40.0 Metric Tons",Texas,TEX,Track Excavators,,EROPS w AC,,,,,,,,,,,Standard,,,,,,None or Unspecified,,,,Steel,None or Unspecified,"10' 6""",None or Unspecified,None or Unspecified,Triple,,,,,
15313,2670778,81000,1465868,149,5.0,2006,0.0,,4/12/2011 0:00,ZX350LC3,ZX350,,LC,3,Large / Medium,"Hydraulic Excavator, Track - 33.0 to 40.0 Metric Tons",Texas,TEX,Track Excavators,,EROPS w AC,,,,,,,,,,,Standard,,,,,,None or Unspecified,,,,Steel,None or Unspecified,"10' 6""",None or Unspecified,None or Unspecified,Triple,,,,,
15313,2671808,103000,1899608,149,13.0,2006,4007.0,Medium,3/19/2011 0:00,ZX350LC3,ZX350,,LC,3,Large / Medium,"Hydraulic Excavator, Track - 33.0 to 40.0 Metric Tons",Tennessee,TEX,Track Excavators,,EROPS,,,,,,,,,,,Standard,,,,,,Manual,,,,Steel,None or Unspecified,None or Unspecified,None or Unspecified,None or Unspecified,Double,,,,,
15313,2671812,77500,1890976,149,1.0,2006,5140.0,Medium,4/13/2011 0:00,ZX350LC3,ZX350,,LC,3,Large / Medium,"Hydraulic Excavator, Track - 33.0 to 40.0 Metric Tons",Texas,TEX,Track Excavators,,EROPS w AC,,,,,,,,,,,Standard,,,,,,None or Unspecified,,,,Steel,None or Unspecified,None or Unspecified,None or Unspecified,None or Unspecified,Double,,,,,
15313,2671819,82000,1791584,149,1.0,2006,5471.0,High,4/13/2011 0:00,ZX350LC3,ZX350,,LC,3,Large / Medium,"Hydraulic Excavator, Track - 33.0 to 40.0 Metric Tons",Texas,TEX,Track Excavators,,EROPS w AC,,,,,,,,,,,Standard,,,,,,None or Unspecified,,,,Steel,None or Unspecified,None or Unspecified,None or Unspecified,None or Unspecified,Double,,,,,
15313,2671820,72500,1844398,149,1.0,2006,6213.0,High,4/13/2011 0:00,ZX350LC3,ZX350,,LC,3,Large / Medium,"Hydraulic Excavator, Track - 33.0 to 40.0 Metric Tons",Texas,TEX,Track Excavators,,EROPS w AC,,,,,,,,,,,Standard,,,,,,None or Unspecified,,,,Steel,None or Unspecified,"10' 6""",None or Unspecified,None or Unspecified,Double,,,,,
15313,2671841,100000,1869137,149,1.0,2006,3539.0,Medium,5/25/2011 0:00,ZX350LC3,ZX350,,LC,3,Large / Medium,"Hydraulic Excavator, Track - 33.0 to 40.0 Metric Tons",Virginia,TEX,Track Excavators,,EROPS w AC,,,,,,,,,,,Standard,,,,,,None or Unspecified,,,,Steel,None or Unspecified,None or Unspecified,None or Unspecified,None or Unspecified,Double,,,,,
15313,2672686,92500,1943044,149,2.0,2006,0.0,,5/17/2011 0:00,ZX350LC3,ZX350,,LC,3,Large / Medium,"Hydraulic Excavator, Track - 33.0 to 40.0 Metric Tons",Florida,TEX,Track Excavators,,EROPS w AC,,,,,,,,,,,Standard,,,,,,None or Unspecified,,,,Steel,None or Unspecified,None or Unspecified,None or Unspecified,None or Unspecified,Double,,,,,
15313,4335358,90000,2275314,172,1.0,2006,5208.0,Medium,2/15/2011 0:00,ZX350LC3,ZX350,,LC,3,Large / Medium,"Hydraulic Excavator, Track - 33.0 to 40.0 Metric Tons",Florida,TEX,Track Excavators,,EROPS w AC,,,,,,,,,,,Standard,,,,,,None or Unspecified,,,,Steel,None or Unspecified,None or Unspecified,None or Unspecified,None or Unspecified,Double,,,,,
15313,4335362,92500,2303337,172,1.0,2007,3693.0,High,6/9/2010 0:00,ZX350LC3,ZX350,,LC,3,Large / Medium,"Hydraulic Excavator, Track - 33.0 to 40.0 Metric Tons",Texas,TEX,Track Excavators,,EROPS w AC,,,,,,,,,,,Standard,,,,,,None or Unspecified,,,,Steel,None or Unspecified,None or Unspecified,None or Unspecified,None or Unspecified,Double,,,,,
15313,4335363,85000,1807360,172,1.0,2007,5243.0,High,10/27/2010 0:00,ZX350LC3,ZX350,,LC,3,Large / Medium,"Hydraulic Excavator, Track - 33.0 to 40.0 Metric Tons",Florida,TEX,Track Excavators,,EROPS w AC,,,,,,,,,,,Standard,,,,,,None or Unspecified,,,,Steel,None or Unspecified,None or Unspecified,None or Unspecified,None or Unspecified,Triple,,,,,
15313,4335696,77500,2292013,172,1.0,2006,6443.0,High,8/18/2010 0:00,ZX350LC3,ZX350,,LC,3,Large / Medium,"Hydraulic Excavator, Track - 33.0 to 40.0 Metric Tons",Florida,TEX,Track Excavators,,EROPS w AC,,,,,,,,,,,Standard,,,,,,None or Unspecified,,,,Steel,None or Unspecified,None or Unspecified,None or Unspecified,None or Unspecified,Double,,,,,
15313,4335726,77500,2307488,172,1.0,2006,4560.0,Medium,2/15/2011 0:00,ZX350LC3,ZX350,,LC,3,Large / Medium,"Hydraulic Excavator, Track - 33.0 to 40.0 Metric Tons",Florida,TEX,Track Excavators,,EROPS w AC,,,,,,,,,,,Standard,,,,,,None or Unspecified,,,,Steel,None or Unspecified,None or Unspecified,None or Unspecified,None or Unspecified,Double,,,,,
15313,4335734,95000,2266851,172,1.0,2006,4677.0,Medium,2/15/2011 0:00,ZX350LC3,ZX350,,LC,3,Large / Medium,"Hydraulic Excavator, Track - 33.0 to 40.0 Metric Tons",Florida,TEX,Track Excavators,,EROPS,,,,,,,,,,,Standard,,,,,,None or Unspecified,,,,Steel,None or Unspecified,None or Unspecified,None or Unspecified,None or Unspecified,Double,,,,,
15313,4335735,102500,1362866,172,1.0,2006,3174.0,Medium,3/30/2011 0:00,ZX350LC3,ZX350,,LC,3,Large / Medium,"Hydraulic Excavator, Track - 33.0 to 40.0 Metric Tons",North Carolina,TEX,Track Excavators,,EROPS w AC,,,,,,,,,,,Standard,,,,,,None or Unspecified,,,,Steel,None or Unspecified,"10' 6""",None or Unspecified,None or Unspecified,Double,,,,,
15313,4335747,90000,1373465,172,1.0,2007,4403.0,High,11/12/2010 0:00,ZX350LC3,ZX350,,LC,3,Large / Medium,"Hydraulic Excavator, Track - 33.0 to 40.0 Metric Tons",Montana,TEX,Track Excavators,,EROPS w AC,,,,,,,,,,,Standard,,,,,,Hydraulic,,,,Steel,None or Unspecified,None or Unspecified,None or Unspecified,None or Unspecified,Double,,,,,
15313,4335748,82000,2305002,172,1.0,2007,4880.0,High,10/27/2010 0:00,ZX350LC3,ZX350,,LC,3,Large / Medium,"Hydraulic Excavator, Track - 33.0 to 40.0 Metric Tons",Florida,TEX,Track Excavators,,EROPS w AC,,,,,,,,,,,Standard,,,,,,None or Unspecified,,,,Steel,None or Unspecified,None or Unspecified,None or Unspecified,None or Unspecified,Double,,,,,
15313,4335756,97500,2300982,172,1.0,2006,5024.0,High,9/15/2011 0:00,ZX350LC3,ZX350,,LC,3,Large / Medium,"Hydraulic Excavator, Track - 33.0 to 40.0 Metric Tons",South Carolina,TEX,Track Excavators,,EROPS w AC,,,,,,,,,,,Auxiliary,,,,,,None or Unspecified,,,,Steel,None or Unspecified,None or Unspecified,Hydraulic,None or Unspecified,Triple,,,,,
15313,4335757,72500,2300982,172,1.0,2006,6650.0,High,8/16/2011 0:00,ZX350LC3,ZX350,,LC,3,Large / Medium,"Hydraulic Excavator, Track - 33.0 to 40.0 Metric Tons",Florida,TEX,Track Excavators,,EROPS w AC,,,,,,,,,,,Auxiliary,,,,,,None or Unspecified,,,,Steel,None or Unspecified,None or Unspecified,Hydraulic,None or Unspecified,Triple,,,,,
15313,4335758,85000,2300982,172,1.0,2006,5409.0,High,6/29/2011 0:00,ZX350LC3,ZX350,,LC,3,Large / Medium,"Hydraulic Excavator, Track - 33.0 to 40.0 Metric Tons",Missouri,TEX,Track Excavators,,EROPS w AC,,,,,,,,,,,Auxiliary,,,,,,None or Unspecified,,,,Steel,None or Unspecified,None or Unspecified,Hydraulic,None or Unspecified,Triple,,,,,
15313,4335763,85000,2300982,172,1.0,2006,5409.0,High,6/30/2011 0:00,ZX350LC3,ZX350,,LC,3,Large / Medium,"Hydraulic Excavator, Track - 33.0 to 40.0 Metric Tons",Missouri,TEX,Track Excavators,,EROPS w AC,,,,,,,,,,,Auxiliary,,,,,,None or Unspecified,,,,Steel,None or Unspecified,None or Unspecified,Hydraulic,None or Unspecified,Triple,,,,,
15313,4335785,104000,2299208,172,1.0,2007,3062.0,Medium,10/19/2010 0:00,ZX350LC3,ZX350,,LC,3,Large / Medium,"Hydraulic Excavator, Track - 33.0 to 40.0 Metric Tons",Maryland,TEX,Track Excavators,,EROPS w AC,,,,,,,,,,,Standard,,,,,,None or Unspecified,,,,Steel,None or Unspecified,None or Unspecified,None or Unspecified,None or Unspecified,Double,,,,,
15313,6292489,82500,1929479,149,1.0,2007,,,11/16/2011 0:00,ZX350LC3,ZX350,,LC,3,Large / Medium,"Hydraulic Excavator, Track - 33.0 to 40.0 Metric Tons",Texas,TEX,Track Excavators,,EROPS w AC,,,,,,,,,,,Standard,,,,,,None or Unspecified,,,,Steel,None or Unspecified,None or Unspecified,None or Unspecified,None or Unspecified,Double,,,,,
15313,6292911,85000,1900218,149,1.0,2006,,,6/30/2011 0:00,ZX350LC3,ZX350,,LC,3,Large / Medium,"Hydraulic Excavator, Track - 33.0 to 40.0 Metric Tons",Missouri,TEX,Track Excavators,,EROPS w AC,,,,,,,,,,,Standard,,,,,,None or Unspecified,,,,Steel,None or Unspecified,None or Unspecified,None or Unspecified,None or Unspecified,Double,,,,,
15313,6292917,97500,1927263,149,1.0,2006,,,9/16/2011 0:00,ZX350LC3,ZX350,,LC,3,Large / Medium,"Hydraulic Excavator, Track - 33.0 to 40.0 Metric Tons",South Carolina,TEX,Track Excavators,,EROPS,,,,,,,,,,,Standard,,,,,,None or Unspecified,,,,Steel,None or Unspecified,None or Unspecified,None or Unspecified,None or Unspecified,Double,,,,,
15313,6292920,95000,1889310,149,1.0,2006,,,12/20/2011 0:00,ZX350LC3,ZX350,,LC,3,Large / Medium,"Hydraulic Excavator, Track - 33.0 to 40.0 Metric Tons",Washington,TEX,Track Excavators,,EROPS w AC,,,,,,,,,,,Standard,,,,,,None or Unspecified,,,,Steel,None or Unspecified,None or Unspecified,Hydraulic,None or Unspecified,Double,,,,,
15313,6292923,72500,1872333,149,1.0,2006,,,8/17/2011 0:00,ZX350LC3,ZX350,,LC,3,Large / Medium,"Hydraulic Excavator, Track - 33.0 to 40.0 Metric Tons",Florida,TEX,Track Excavators,,EROPS w AC,,,,,,,,,,,Standard,,,,,,None or Unspecified,,,,Steel,None or Unspecified,None or Unspecified,None or Unspecified,None or Unspecified,Double,,,,,
15313,6292929,82500,1931791,149,1.0,2007,,,11/16/2011 0:00,ZX350LC3,ZX350,,LC,3,Large / Medium,"Hydraulic Excavator, Track - 33.0 to 40.0 Metric Tons",Texas,TEX,Track Excavators,,EROPS,,,,,,,,,,,Standard,,,,,,None or Unspecified,,,,Steel,None or Unspecified,None or Unspecified,None or Unspecified,None or Unspecified,Double,,,,,
