ModelID,SalesID,SalePrice,MachineID,datasource,auctioneerID,YearMade,MachineHoursCurrentMeter,UsageBand,saledate,fiModelDesc,fiBaseModel,fiSecondaryDesc,fiModelSeries,fiModelDescriptor,ProductSize,fiProductClassDesc,state,ProductGroup,ProductGroupDesc,Drive_System,Enclosure,Forks,Pad_Type,Ride_Control,Stick,Transmission,Turbocharged,Blade_Extension,Blade_Width,Enclosure_Type,Engine_Horsepower,Hydraulics,Pushblock,Ripper,Scarifier,Tip_Control,Tire_Size,Coupler,Coupler_System,Grouser_Tracks,Hydraulics_Flow,Track_Type,Undercarriage_Pad_Width,Stick_Length,Thumb,Pattern_Changer,Grouser_Type,Backhoe_Mounting,Blade_Type,Travel_Controls,Differential_Type,Steering_Controls
15352,1196075,82000,1047739,121,3.0,2003,8893.0,High,12/3/2009 0:00,ZX800,ZX800,,,,Large / Medium,"Hydraulic Excavator, Track - 66.0 to 90.0 Metric Tons",Nevada,TEX,Track Excavators,,EROPS w AC,,,,,,,,,,,Standard,,,,,,None or Unspecified,,,,Steel,None or Unspecified,None or Unspecified,None or Unspecified,None or Unspecified,Double,,,,,
15352,1221141,72500,1043170,121,3.0,2003,14069.0,High,11/21/2011 0:00,ZX800,ZX800,,,,Large / Medium,"Hydraulic Excavator, Track - 66.0 to 90.0 Metric Tons",Pennsylvania,TEX,Track Excavators,,EROPS w AC,,,,,,,,,,,Standard,,,,,,None or Unspecified,,,,Steel,None or Unspecified,None or Unspecified,None or Unspecified,None or Unspecified,Double,,,,,
15352,1691910,65000,1213931,132,1.0,2002,,,4/3/2009 0:00,ZX800,ZX800,,,,Large / Medium,"Hydraulic Excavator, Track - 66.0 to 90.0 Metric Tons",Nevada,TEX,Track Excavators,,EROPS w AC,,,,,,,,,,,Standard,,,,,,None or Unspecified,,,,Steel,None or Unspecified,None or Unspecified,None or Unspecified,None or Unspecified,Double,,,,,
15352,1691953,95000,1288723,132,1.0,2002,,,6/18/2009 0:00,ZX800,ZX800,,,,Large / Medium,"Hydraulic Excavator, Track - 66.0 to 90.0 Metric Tons",Georgia,TEX,Track Excavators,,EROPS w AC,,,,,,,,,,,Standard,,,,,,None or Unspecified,,,,Steel,None or Unspecified,None or Unspecified,None or Unspecified,None or Unspecified,Double,,,,,
15352,1691986,82000,1082516,132,3.0,2003,,,12/3/2009 0:00,ZX800,ZX800,,,,Large / Medium,"Hydraulic Excavator, Track - 66.0 to 90.0 Metric Tons",California,TEX,Track Excavators,,EROPS w AC,,,,,,,,,,,Standard,,,,,,None or Unspecified,,,,Steel,None or Unspecified,None or Unspecified,None or Unspecified,None or Unspecified,Double,,,,,
15352,1691993,99000,1090427,132,1.0,2004,,,6/18/2009 0:00,ZX800,ZX800,,,,Large / Medium,"Hydraulic Excavator, Track - 66.0 to 90.0 Metric Tons",Georgia,TEX,Track Excavators,,EROPS w AC,,,,,,,,,,,Standard,,,,,,None or Unspecified,,,,Steel,None or Unspecified,None or Unspecified,None or Unspecified,None or Unspecified,Double,,,,,
15352,2373986,65000,1723263,136,,2002,0.0,,4/3/2009 0:00,ZX800,ZX800,,,,Large / Medium,"Hydraulic Excavator, Track - 66.0 to 90.0 Metric Tons",Nevada,TEX,Track Excavators,,EROPS w AC,,,,,,,,,,,Standard,,,,,,None or Unspecified,,,,Steel,None or Unspecified,None or Unspecified,None or Unspecified,None or Unspecified,Double,,,,,
15352,2373988,95000,1254148,136,1.0,2002,0.0,,6/18/2009 0:00,ZX800,ZX800,,,,Large / Medium,"Hydraulic Excavator, Track - 66.0 to 90.0 Metric Tons",Georgia,TEX,Track Excavators,,EROPS w AC,,,,,,,,,,,Standard,,,,,,None or Unspecified,,,,Steel,None or Unspecified,None or Unspecified,None or Unspecified,None or Unspecified,Double,,,,,
15352,2373989,99000,1776671,136,1.0,2004,0.0,,6/18/2009 0:00,ZX800,ZX800,,,,Large / Medium,"Hydraulic Excavator, Track - 66.0 to 90.0 Metric Tons",Georgia,TEX,Track Excavators,,EROPS w AC,,,,,,,,,,,Standard,,,,,,None or Unspecified,,,,Steel,None or Unspecified,None or Unspecified,None or Unspecified,None or Unspecified,Double,,,,,
15352,4335951,99000,1549788,172,1.0,2004,6536.0,High,6/18/2009 0:00,ZX800,ZX800,,,,Large / Medium,"Hydraulic Excavator, Track - 66.0 to 90.0 Metric Tons",Georgia,TEX,Track Excavators,,EROPS w AC,,,,,,,,,,,Standard,,,,,,None or Unspecified,,,,Steel,None or Unspecified,None or Unspecified,None or Unspecified,None or Unspecified,Double,,,,,
