ModelID,SalesID,SalePrice,MachineID,datasource,auctioneerID,YearMade,MachineHoursCurrentMeter,UsageBand,saledate,fiModelDesc,fiBaseModel,fiSecondaryDesc,fiModelSeries,fiModelDescriptor,ProductSize,fiProductClassDesc,state,ProductGroup,ProductGroupDesc,Drive_System,Enclosure,Forks,Pad_Type,Ride_Control,Stick,Transmission,Turbocharged,Blade_Extension,Blade_Width,Enclosure_Type,Engine_Horsepower,Hydraulics,Pushblock,Ripper,Scarifier,Tip_Control,Tire_Size,Coupler,Coupler_System,Grouser_Tracks,Hydraulics_Flow,Track_Type,Undercarriage_Pad_Width,Stick_Length,Thumb,Pattern_Changer,Grouser_Type,Backhoe_Mounting,Blade_Type,Travel_Controls,Differential_Type,Steering_Controls
15386,1207501,11750,1027091,121,3.0,2001,2839.0,Low,9/30/2010 0:00,M850C,M850,C,,,,Motorgrader - 45.0 to 130.0 Horsepower,Tennessee,MG,Motor Graders,No,OROPS,,,,,None or Unspecified,,None or Unspecified,None or Unspecified,None or Unspecified,No,Base + 1 Function,None or Unspecified,None or Unspecified,None or Unspecified,None or Unspecified,"23.1""",,,,,,,,,,,,,,,
15386,1693415,27000,1394599,132,1.0,1999,,,5/24/2001 0:00,M850C,M850,C,,,,Motorgrader - 45.0 to 130.0 Horsepower,Oregon,MG,Motor Graders,No,OROPS,,,,,None or Unspecified,,None or Unspecified,None or Unspecified,None or Unspecified,No,Base + 1 Function,None or Unspecified,None or Unspecified,None or Unspecified,None or Unspecified,"23.1""",,,,,,,,,,,,,,,
15386,1693420,11750,1345190,132,3.0,2001,,,9/29/2010 0:00,M850C,M850,C,,,,Motorgrader - 45.0 to 130.0 Horsepower,California,MG,Motor Graders,No,OROPS,,,,,None or Unspecified,,None or Unspecified,None or Unspecified,None or Unspecified,No,Base + 1 Function,None or Unspecified,None or Unspecified,None or Unspecified,None or Unspecified,None or Unspecified,,,,,,,,,,,,,,,
15386,1693421,17000,1172490,132,5.0,2000,,,5/15/2009 0:00,M850C,M850,C,,,,Motorgrader - 45.0 to 130.0 Horsepower,Ohio,MG,Motor Graders,No,OROPS,,,,,None or Unspecified,,None or Unspecified,None or Unspecified,None or Unspecified,No,Base + 1 Function,None or Unspecified,None or Unspecified,None or Unspecified,None or Unspecified,None or Unspecified,,,,,,,,,,,,,,,
15386,1693424,25000,1228090,132,1.0,2004,558.0,Low,7/26/2011 0:00,M850C,M850,C,,,,Motorgrader - 45.0 to 130.0 Horsepower,California,MG,Motor Graders,No,OROPS,,,,,None or Unspecified,,None or Unspecified,None or Unspecified,None or Unspecified,No,Base + 1 Function,None or Unspecified,None or Unspecified,None or Unspecified,None or Unspecified,None or Unspecified,,,,,,,,,,,,,,,
15386,1693425,18000,1227819,132,5.0,1000,2587.0,Low,4/7/2011 0:00,M850C,M850,C,,,,Motorgrader - 45.0 to 130.0 Horsepower,Connecticut,MG,Motor Graders,No,OROPS,,,,,None or Unspecified,,None or Unspecified,None or Unspecified,None or Unspecified,No,Base + 1 Function,None or Unspecified,None or Unspecified,None or Unspecified,None or Unspecified,None or Unspecified,,,,,,,,,,,,,,,
15386,1693479,32000,1261515,132,1.0,2000,,,12/5/2001 0:00,M850C,M850,C,,,,Motorgrader - 45.0 to 130.0 Horsepower,Washington,MG,Motor Graders,No,OROPS,,,,,None or Unspecified,,None or Unspecified,None or Unspecified,None or Unspecified,No,Base + 1 Function,None or Unspecified,None or Unspecified,None or Unspecified,None or Unspecified,None or Unspecified,,,,,,,,,,,,,,,
15386,1693494,8000,1125992,132,14.0,1000,,,3/25/2011 0:00,M850C,M850,C,,,,Motorgrader - 45.0 to 130.0 Horsepower,Indiana,MG,Motor Graders,No,OROPS,,,,,None or Unspecified,,None or Unspecified,None or Unspecified,None or Unspecified,No,Base + 1 Function,None or Unspecified,None or Unspecified,None or Unspecified,None or Unspecified,None or Unspecified,,,,,,,,,,,,,,,
15386,1693692,35000,1135961,132,1.0,2000,,,8/28/2003 0:00,M850C,M850,C,,,,Motorgrader - 45.0 to 130.0 Horsepower,Georgia,MG,Motor Graders,No,OROPS,,,,,None or Unspecified,,None or Unspecified,None or Unspecified,None or Unspecified,No,Base + 1 Function,None or Unspecified,None or Unspecified,None or Unspecified,None or Unspecified,None or Unspecified,,,,,,,,,,,,,,,
15386,2374699,17000,1704594,136,,2000,0.0,,5/15/2009 0:00,M850C,M850,C,,,,Motorgrader - 45.0 to 130.0 Horsepower,Ohio,MG,Motor Graders,No,OROPS,,,,,None or Unspecified,,None or Unspecified,None or Unspecified,None or Unspecified,No,Base + 1 Function,None or Unspecified,None or Unspecified,None or Unspecified,None or Unspecified,None or Unspecified,,,,,,,,,,,,,,,
15386,2374777,16000,1703364,136,,1000,299.0,Low,5/9/2009 0:00,M850C,M850,C,,,,Motorgrader - 45.0 to 130.0 Horsepower,Florida,MG,Motor Graders,No,OROPS,,,,,None or Unspecified,,None or Unspecified,None or Unspecified,None or Unspecified,No,Base + 1 Function,None or Unspecified,None or Unspecified,None or Unspecified,None or Unspecified,None or Unspecified,,,,,,,,,,,,,,,
15386,2374779,16000,1208222,136,4.0,1000,0.0,,2/9/2009 0:00,M850C,M850,C,,,,Motorgrader - 45.0 to 130.0 Horsepower,Florida,MG,Motor Graders,No,OROPS,,,,,None or Unspecified,,None or Unspecified,None or Unspecified,None or Unspecified,No,Base + 1 Function,None or Unspecified,None or Unspecified,None or Unspecified,None or Unspecified,None or Unspecified,,,,,,,,,,,,,,,
15386,2672696,18000,1281629,149,5.0,1000,2589.0,Low,4/7/2011 0:00,M850C,M850,C,,,,Motorgrader - 45.0 to 130.0 Horsepower,Connecticut,MG,Motor Graders,No,OROPS,,,,,None or Unspecified,,None or Unspecified,<12',None or Unspecified,No,Base + 1 Function,Yes,None or Unspecified,None or Unspecified,None or Unspecified,None or Unspecified,,,,,,,,,,,,,,,
15386,6293507,25000,1869622,149,1.0,2004,,,7/26/2011 0:00,M850C,M850,C,,,,Motorgrader - 45.0 to 130.0 Horsepower,California,MG,Motor Graders,No,OROPS,,,,,None or Unspecified,,None or Unspecified,None or Unspecified,None or Unspecified,No,Base + 1 Function,None or Unspecified,None or Unspecified,None or Unspecified,None or Unspecified,None or Unspecified,,,,,,,,,,,,,,,
