ModelID,SalesID,SalePrice,MachineID,datasource,auctioneerID,YearMade,MachineHoursCurrentMeter,UsageBand,saledate,fiModelDesc,fiBaseModel,fiSecondaryDesc,fiModelSeries,fiModelDescriptor,ProductSize,fiProductClassDesc,state,ProductGroup,ProductGroupDesc,Drive_System,Enclosure,Forks,Pad_Type,Ride_Control,Stick,Transmission,Turbocharged,Blade_Extension,Blade_Width,Enclosure_Type,Engine_Horsepower,Hydraulics,Pushblock,Ripper,Scarifier,Tip_Control,Tire_Size,Coupler,Coupler_System,Grouser_Tracks,Hydraulics_Flow,Track_Type,Undercarriage_Pad_Width,Stick_Length,Thumb,Pattern_Changer,Grouser_Type,Backhoe_Mounting,Blade_Type,Travel_Controls,Differential_Type,Steering_Controls
15383,1693422,9000,1485180,132,4.0,1000,,,2/10/2003 0:00,M850,M850,,,,,Motorgrader - 45.0 to 130.0 Horsepower,Florida,MG,Motor Graders,No,OROPS,,,,,None or Unspecified,,None or Unspecified,None or Unspecified,None or Unspecified,No,Base + 1 Function,None or Unspecified,None or Unspecified,None or Unspecified,None or Unspecified,None or Unspecified,,,,,,,,,,,,,,,
15383,1693549,8000,1388762,132,99.0,1000,,,10/17/1996 0:00,M850,M850,,,,,Motorgrader - 45.0 to 130.0 Horsepower,Maine,MG,Motor Graders,No,OROPS,,,,,None or Unspecified,,None or Unspecified,None or Unspecified,None or Unspecified,No,Base + 1 Function,None or Unspecified,None or Unspecified,None or Unspecified,None or Unspecified,None or Unspecified,,,,,,,,,,,,,,,
15383,1693642,13500,1278576,132,1.0,1977,,,3/25/2004 0:00,M850,M850,,,,,Motorgrader - 45.0 to 130.0 Horsepower,Colorado,MG,Motor Graders,No,OROPS,,,,,None or Unspecified,,None or Unspecified,None or Unspecified,None or Unspecified,No,Base + 1 Function,None or Unspecified,None or Unspecified,None or Unspecified,None or Unspecified,None or Unspecified,,,,,,,,,,,,,,,
15383,1693647,16000,1498173,132,1.0,1979,,,6/20/1996 0:00,M850,M850,,,,,Motorgrader - 45.0 to 130.0 Horsepower,Washington,MG,Motor Graders,No,OROPS,,,,,None or Unspecified,,None or Unspecified,<12',None or Unspecified,No,Base + 1 Function,None or Unspecified,None or Unspecified,None or Unspecified,None or Unspecified,None or Unspecified,,,,,,,,,,,,,,,
15383,1693650,9500,1322953,132,1.0,1979,,,5/19/2005 0:00,M850,M850,,,,,Motorgrader - 45.0 to 130.0 Horsepower,Kentucky,MG,Motor Graders,No,OROPS,,,,,None or Unspecified,,None or Unspecified,None or Unspecified,None or Unspecified,No,Base + 1 Function,None or Unspecified,None or Unspecified,None or Unspecified,None or Unspecified,"23.1""",,,,,,,,,,,,,,,
15383,1693651,11000,1322953,132,1.0,1000,,,4/11/2007 0:00,M850,M850,,,,,Motorgrader - 45.0 to 130.0 Horsepower,Ohio,MG,Motor Graders,No,OROPS,,,,,None or Unspecified,,None or Unspecified,None or Unspecified,None or Unspecified,No,Base + 1 Function,None or Unspecified,None or Unspecified,None or Unspecified,None or Unspecified,"23.1""",,,,,,,,,,,,,,,
15383,1693652,9000,1488019,132,4.0,1979,,,2/11/2002 0:00,M850,M850,,,,,Motorgrader - 45.0 to 130.0 Horsepower,Florida,MG,Motor Graders,No,OROPS,,,,,None or Unspecified,,None or Unspecified,None or Unspecified,None or Unspecified,No,Base + 1 Function,None or Unspecified,None or Unspecified,None or Unspecified,None or Unspecified,None or Unspecified,,,,,,,,,,,,,,,
15383,1693663,13500,1296408,132,4.0,1984,,,2/11/1994 0:00,M850,M850,,,,,Motorgrader - 45.0 to 130.0 Horsepower,Florida,MG,Motor Graders,No,OROPS,,,,,None or Unspecified,,None or Unspecified,None or Unspecified,None or Unspecified,No,Base + 1 Function,None or Unspecified,None or Unspecified,None or Unspecified,None or Unspecified,None or Unspecified,,,,,,,,,,,,,,,
15383,2374772,19000,1461554,136,18.0,1000,0.0,,10/20/2007 0:00,M850,M850,,,,,Motorgrader - 45.0 to 130.0 Horsepower,Ohio,MG,Motor Graders,No,OROPS,,,,,Powershift,,None or Unspecified,None or Unspecified,None or Unspecified,No,Base + 1 Function,Yes,None or Unspecified,None or Unspecified,Sideshift & Tip,"23.1""",,,,,,,,,,,,,,,
