ModelID,SalesID,SalePrice,MachineID,datasource,auctioneerID,YearMade,MachineHoursCurrentMeter,UsageBand,saledate,fiModelDesc,fiBaseModel,fiSecondaryDesc,fiModelSeries,fiModelDescriptor,ProductSize,fiProductClassDesc,state,ProductGroup,ProductGroupDesc,Drive_System,Enclosure,Forks,Pad_Type,Ride_Control,Stick,Transmission,Turbocharged,Blade_Extension,Blade_Width,Enclosure_Type,Engine_Horsepower,Hydraulics,Pushblock,Ripper,Scarifier,Tip_Control,Tire_Size,Coupler,Coupler_System,Grouser_Tracks,Hydraulics_Flow,Track_Type,Undercarriage_Pad_Width,Stick_Length,Thumb,Pattern_Changer,Grouser_Type,Backhoe_Mounting,Blade_Type,Travel_Controls,Differential_Type,Steering_Controls
15381,1693474,8000,1232193,132,14.0,1975,,,3/30/2001 0:00,M750,M750,,,,,Motorgrader - 45.0 to 130.0 Horsepower,Indiana,MG,Motor Graders,No,OROPS,,,,,None or Unspecified,,None or Unspecified,None or Unspecified,None or Unspecified,No,Base + 1 Function,None or Unspecified,None or Unspecified,None or Unspecified,None or Unspecified,None or Unspecified,,,,,,,,,,,,,,,
15381,1693502,8000,1181386,132,13.0,1000,,,9/25/1999 0:00,M750,M750,,,,,Motorgrader - 45.0 to 130.0 Horsepower,Tennessee,MG,Motor Graders,No,OROPS,,,,,None or Unspecified,,None or Unspecified,None or Unspecified,None or Unspecified,No,Base + 1 Function,None or Unspecified,None or Unspecified,None or Unspecified,None or Unspecified,None or Unspecified,,,,,,,,,,,,,,,
15381,1693562,10500,1167615,132,4.0,1973,,,2/6/1997 0:00,M750,M750,,,,,Motorgrader - 45.0 to 130.0 Horsepower,Florida,MG,Motor Graders,No,OROPS,,,,,None or Unspecified,,None or Unspecified,<12',None or Unspecified,No,Base + 1 Function,None or Unspecified,None or Unspecified,None or Unspecified,None or Unspecified,None or Unspecified,,,,,,,,,,,,,,,
15381,1693571,8000,1157794,132,4.0,1974,,,5/15/2003 0:00,M750,M750,,,,,Motorgrader - 45.0 to 130.0 Horsepower,New Hampshire,MG,Motor Graders,No,OROPS,,,,,None or Unspecified,,None or Unspecified,None or Unspecified,None or Unspecified,No,Base + 1 Function,None or Unspecified,None or Unspecified,None or Unspecified,None or Unspecified,"23.1""",,,,,,,,,,,,,,,
15381,1693579,9500,1555102,132,1.0,1975,,,5/21/2004 0:00,M750,M750,,,,,Motorgrader - 45.0 to 130.0 Horsepower,Utah,MG,Motor Graders,No,OROPS,,,,,None or Unspecified,,None or Unspecified,None or Unspecified,None or Unspecified,No,Base + 1 Function,None or Unspecified,None or Unspecified,None or Unspecified,None or Unspecified,"23.1""",,,,,,,,,,,,,,,
15381,1693583,10250,1195836,132,2.0,1976,,,10/10/1998 0:00,M750,M750,,,,,Motorgrader - 45.0 to 130.0 Horsepower,Florida,MG,Motor Graders,No,OROPS,,,,,None or Unspecified,,None or Unspecified,None or Unspecified,None or Unspecified,No,Base + 1 Function,None or Unspecified,None or Unspecified,None or Unspecified,None or Unspecified,None or Unspecified,,,,,,,,,,,,,,,
15381,2374734,14500,1785097,136,1.0,1973,0.0,,10/24/2008 0:00,M750,M750,,,,,Motorgrader - 45.0 to 130.0 Horsepower,Oregon,MG,Motor Graders,No,OROPS,,,,,None or Unspecified,,None or Unspecified,None or Unspecified,None or Unspecified,No,Base + 1 Function,None or Unspecified,None or Unspecified,None or Unspecified,None or Unspecified,None or Unspecified,,,,,,,,,,,,,,,
15381,2374736,17500,1288119,136,1.0,1975,0.0,,9/11/2007 0:00,M750,M750,,,,,Motorgrader - 45.0 to 130.0 Horsepower,Washington,MG,Motor Graders,No,OROPS,,,,,None or Unspecified,,None or Unspecified,None or Unspecified,None or Unspecified,No,Base + 1 Function,None or Unspecified,None or Unspecified,None or Unspecified,Sideshift & Tip,None or Unspecified,,,,,,,,,,,,,,,
