ModelID,SalesID,SalePrice,MachineID,datasource,auctioneerID,YearMade,MachineHoursCurrentMeter,UsageBand,saledate,fiModelDesc,fiBaseModel,fiSecondaryDesc,fiModelSeries,fiModelDescriptor,ProductSize,fiProductClassDesc,state,ProductGroup,ProductGroupDesc,Drive_System,Enclosure,Forks,Pad_Type,Ride_Control,Stick,Transmission,Turbocharged,Blade_Extension,Blade_Width,Enclosure_Type,Engine_Horsepower,Hydraulics,Pushblock,Ripper,Scarifier,Tip_Control,Tire_Size,Coupler,Coupler_System,Grouser_Tracks,Hydraulics_Flow,Track_Type,Undercarriage_Pad_Width,Stick_Length,Thumb,Pattern_Changer,Grouser_Type,Backhoe_Mounting,Blade_Type,Travel_Controls,Differential_Type,Steering_Controls
1543,1317500,20000,1409193,132,2.0,1987,,,10/2/1999 0:00,D4BLGP,D4,B,,LGP,,"Track Type Tractor, Dozer - 75.0 to 85.0 Horsepower",Pennsylvania,TTT,Track Type Tractors,,OROPS,,,,,Powershift,,,,,,2 Valve,,None or Unspecified,,,,,,,,,,,,,,None or Unspecified,PAT,None or Unspecified,,
1543,1317501,28000,1132983,132,6.0,1987,,,4/26/1991 0:00,D4BLGP,D4,B,,LGP,,"Track Type Tractor, Dozer - 75.0 to 85.0 Horsepower",Tennessee,TTT,Track Type Tractors,,OROPS,,,,,Standard,,,,,,2 Valve,,None or Unspecified,,,,,,,,,,,,,,None or Unspecified,PAT,None or Unspecified,,
1543,1317502,21000,1379481,132,4.0,1987,,,2/9/2000 0:00,D4BLGP,D4,B,,LGP,,"Track Type Tractor, Dozer - 75.0 to 85.0 Horsepower",Florida,TTT,Track Type Tractors,,OROPS,,,,,Standard,,,,,,2 Valve,,None or Unspecified,,,,,,,,,,,,,,None or Unspecified,PAT,None or Unspecified,,
1543,1317503,12500,1379481,132,9.0,1987,,,8/27/2003 0:00,D4BLGP,D4,B,,LGP,,"Track Type Tractor, Dozer - 75.0 to 85.0 Horsepower",Florida,TTT,Track Type Tractors,,OROPS,,,,,Standard,,,,,,2 Valve,,None or Unspecified,,,,,,,,,,,,,,None or Unspecified,PAT,None or Unspecified,,
1543,1317504,23000,1379481,132,99.0,1987,,,4/27/2000 0:00,D4BLGP,D4,B,,LGP,,"Track Type Tractor, Dozer - 75.0 to 85.0 Horsepower",South Carolina,TTT,Track Type Tractors,,OROPS,,,,,Standard,,,,,,2 Valve,,None or Unspecified,,,,,,,,,,,,,,None or Unspecified,PAT,None or Unspecified,,
1543,1317505,18250,1162967,132,4.0,1987,,,2/9/2000 0:00,D4BLGP,D4,B,,LGP,,"Track Type Tractor, Dozer - 75.0 to 85.0 Horsepower",Florida,TTT,Track Type Tractors,,EROPS,,,,,Standard,,,,,,2 Valve,,None or Unspecified,,,,,,,,,,,,,,None or Unspecified,PAT,None or Unspecified,,
1543,1317506,24000,1210064,132,1.0,1987,,,5/18/1993 0:00,D4BLGP,D4,B,,LGP,,"Track Type Tractor, Dozer - 75.0 to 85.0 Horsepower",Maine,TTT,Track Type Tractors,,OROPS,,,,,Standard,,,,,,2 Valve,,None or Unspecified,,,,,,,,,,,,,,None or Unspecified,PAT,None or Unspecified,,
1543,1317507,15000,1346725,132,1.0,1987,,,4/20/2006 0:00,D4BLGP,D4,B,,LGP,,"Track Type Tractor, Dozer - 75.0 to 85.0 Horsepower",Ohio,TTT,Track Type Tractors,,OROPS,,,,,Standard,,,,,,2 Valve,,None or Unspecified,,,,,,,,,,,,,,None or Unspecified,PAT,None or Unspecified,,
1543,1317509,24000,1131606,132,1.0,1987,,,3/30/1995 0:00,D4BLGP,D4,B,,LGP,,"Track Type Tractor, Dozer - 75.0 to 85.0 Horsepower",Wisconsin,TTT,Track Type Tractors,,EROPS,,,,,Standard,,,,,,2 Valve,,None or Unspecified,,,,,,,,,,,,,,None or Unspecified,PAT,None or Unspecified,,
1543,1317510,32500,1441899,132,1.0,1987,,,2/22/1991 0:00,D4BLGP,D4,B,,LGP,,"Track Type Tractor, Dozer - 75.0 to 85.0 Horsepower",Texas,TTT,Track Type Tractors,,OROPS,,,,,Standard,,,,,,2 Valve,,None or Unspecified,,,,,,,,,,,,,,None or Unspecified,PAT,None or Unspecified,,
1543,1317511,26000,1441899,132,1.0,1987,,,12/2/1993 0:00,D4BLGP,D4,B,,LGP,,"Track Type Tractor, Dozer - 75.0 to 85.0 Horsepower",Washington,TTT,Track Type Tractors,,OROPS,,,,,Standard,,,,,,2 Valve,,None or Unspecified,,,,,,,,,,,,,,None or Unspecified,PAT,None or Unspecified,,
1543,1317512,19500,1163344,132,2.0,1987,,,12/11/1993 0:00,D4BLGP,D4,B,,LGP,,"Track Type Tractor, Dozer - 75.0 to 85.0 Horsepower",Pennsylvania,TTT,Track Type Tractors,,OROPS,,,,,Standard,,,,,,2 Valve,,None or Unspecified,,,,,,,,,,,,,,None or Unspecified,PAT,None or Unspecified,,
1543,1317514,21000,1245388,132,11.0,1987,,,9/6/2000 0:00,D4BLGP,D4,B,,LGP,,"Track Type Tractor, Dozer - 75.0 to 85.0 Horsepower",Mississippi,TTT,Track Type Tractors,,EROPS,,,,,Standard,,,,,,2 Valve,,Multi Shank,,,,,,,,,,,,,,None or Unspecified,PAT,None or Unspecified,,
1543,1317516,38000,1368864,132,1.0,1988,,,5/31/1991 0:00,D4BLGP,D4,B,,LGP,,"Track Type Tractor, Dozer - 75.0 to 85.0 Horsepower",Florida,TTT,Track Type Tractors,,OROPS,,,,,Standard,,,,,,2 Valve,,None or Unspecified,,,,,,,,,,,,,,None or Unspecified,PAT,None or Unspecified,,
1543,1317517,37000,1276496,132,1.0,1988,,,3/15/1990 0:00,D4BLGP,D4,B,,LGP,,"Track Type Tractor, Dozer - 75.0 to 85.0 Horsepower",Florida,TTT,Track Type Tractors,,OROPS,,,,,Standard,,,,,,2 Valve,,None or Unspecified,,,,,,,,,,,,,,None or Unspecified,PAT,None or Unspecified,,
1543,1317518,13000,1276496,132,14.0,1988,,,3/30/2001 0:00,D4BLGP,D4,B,,LGP,,"Track Type Tractor, Dozer - 75.0 to 85.0 Horsepower",Indiana,TTT,Track Type Tractors,,OROPS,,,,,Standard,,,,,,2 Valve,,None or Unspecified,,,,,,,,,,,,,,None or Unspecified,PAT,None or Unspecified,,
1543,1317519,23000,1276496,132,14.0,1988,,,3/7/1997 0:00,D4BLGP,D4,B,,LGP,,"Track Type Tractor, Dozer - 75.0 to 85.0 Horsepower",Indiana,TTT,Track Type Tractors,,OROPS,,,,,Standard,,,,,,2 Valve,,None or Unspecified,,,,,,,,,,,,,,None or Unspecified,PAT,None or Unspecified,,
