ModelID,SalesID,SalePrice,MachineID,datasource,auctioneerID,YearMade,MachineHoursCurrentMeter,UsageBand,saledate,fiModelDesc,fiBaseModel,fiSecondaryDesc,fiModelSeries,fiModelDescriptor,ProductSize,fiProductClassDesc,state,ProductGroup,ProductGroupDesc,Drive_System,Enclosure,Forks,Pad_Type,Ride_Control,Stick,Transmission,Turbocharged,Blade_Extension,Blade_Width,Enclosure_Type,Engine_Horsepower,Hydraulics,Pushblock,Ripper,Scarifier,Tip_Control,Tire_Size,Coupler,Coupler_System,Grouser_Tracks,Hydraulics_Flow,Track_Type,Undercarriage_Pad_Width,Stick_Length,Thumb,Pattern_Changer,Grouser_Type,Backhoe_Mounting,Blade_Type,Travel_Controls,Differential_Type,Steering_Controls
15457,1165400,31000,1047092,121,3.0,2005,239.0,Low,6/12/2009 0:00,HL7407,HL740,7,,,Medium,Wheel Loader - 135.0 to 150.0 Horsepower,Georgia,WL,Wheel Loader,,EROPS w AC,None or Unspecified,,None or Unspecified,,,,,,,,2 Valve,,,,,20.5,Hydraulic,,,,,,,,,,,,,Standard,Conventional
15457,1172594,34000,1022462,121,3.0,2005,3140.0,Medium,6/12/2009 0:00,HL7407,HL740,7,,,Medium,Wheel Loader - 135.0 to 150.0 Horsepower,Georgia,WL,Wheel Loader,,EROPS w AC,None or Unspecified,,None or Unspecified,,,,,,,,2 Valve,,,,,20.5,Hydraulic,,,,,,,,,,,,,Standard,Conventional
15457,1179978,58000,1050829,121,3.0,2005,1001.0,Low,6/12/2008 0:00,HL7407,HL740,7,,,Medium,Wheel Loader - 135.0 to 150.0 Horsepower,Washington,WL,Wheel Loader,,EROPS w AC,None or Unspecified,,None or Unspecified,,,,,,,,2 Valve,,,,,20.5,Manual,,,,,,,,,,,,,Standard,Conventional
15457,1697831,87500,1386357,132,7.0,2004,,,5/31/2006 0:00,HL7407,HL740,7,,,Medium,Wheel Loader - 135.0 to 150.0 Horsepower,Alabama,WL,Wheel Loader,,OROPS,None or Unspecified,,None or Unspecified,,,,,,,,2 Valve,,,,,None or Unspecified,None or Unspecified,,,,,,,,,,,,,Standard,Conventional
15457,1698913,61000,1200804,132,1.0,2004,,,8/25/2006 0:00,HL7407,HL740,7,,,Medium,Wheel Loader - 135.0 to 150.0 Horsepower,South Dakota,WL,Wheel Loader,,OROPS,None or Unspecified,,None or Unspecified,,,,,,,,2 Valve,,,,,None or Unspecified,None or Unspecified,,,,,,,,,,,,,Standard,Conventional
15457,1698936,42000,1459871,132,1.0,2004,,,2/20/2008 0:00,HL7407,HL740,7,,,Medium,Wheel Loader - 135.0 to 150.0 Horsepower,Florida,WL,Wheel Loader,,OROPS,None or Unspecified,,None or Unspecified,,,,,,,,2 Valve,,,,,None or Unspecified,None or Unspecified,,,,,,,,,,,,,Standard,Conventional
15457,1698939,51000,1163422,132,2.0,2005,,,5/3/2008 0:00,HL7407,HL740,7,,,Medium,Wheel Loader - 135.0 to 150.0 Horsepower,New Hampshire,WL,Wheel Loader,,OROPS,None or Unspecified,,None or Unspecified,,,,,,,,2 Valve,,,,,None or Unspecified,None or Unspecified,,,,,,,,,,,,,Standard,Conventional
15457,1698940,43000,1350160,132,5.0,2005,,,4/8/2010 0:00,HL7407,HL740,7,,,Medium,Wheel Loader - 135.0 to 150.0 Horsepower,Connecticut,WL,Wheel Loader,,OROPS,None or Unspecified,,None or Unspecified,,,,,,,,2 Valve,,,,,None or Unspecified,None or Unspecified,,,,,,,,,,,,,Standard,Conventional
15457,1698941,62500,1102217,132,1.0,2006,,,2/20/2008 0:00,HL7407,HL740,7,,,Medium,Wheel Loader - 135.0 to 150.0 Horsepower,Florida,WL,Wheel Loader,,OROPS,None or Unspecified,,None or Unspecified,,,,,,,,2 Valve,,,,,None or Unspecified,None or Unspecified,,,,,,,,,,,,,Standard,Conventional
15457,1698942,58000,1192970,132,1.0,2006,,,2/17/2009 0:00,HL7407,HL740,7,,,Medium,Wheel Loader - 135.0 to 150.0 Horsepower,Florida,WL,Wheel Loader,,OROPS,None or Unspecified,,None or Unspecified,,,,,,,,2 Valve,,,,,None or Unspecified,None or Unspecified,,,,,,,,,,,,,Standard,Conventional
15457,1698943,50000,1199391,132,1.0,2007,,,10/14/2009 0:00,HL7407,HL740,7,,,Medium,Wheel Loader - 135.0 to 150.0 Horsepower,Florida,WL,Wheel Loader,,OROPS,None or Unspecified,,None or Unspecified,,,,,,,,2 Valve,,,,,None or Unspecified,None or Unspecified,,,,,,,,,,,,,Standard,Conventional
15457,1698944,66000,1448513,132,5.0,2007,,,8/28/2009 0:00,HL7407,HL740,7,,,Medium,Wheel Loader - 135.0 to 150.0 Horsepower,Connecticut,WL,Wheel Loader,,OROPS,None or Unspecified,,None or Unspecified,,,,,,,,2 Valve,,,,,None or Unspecified,None or Unspecified,,,,,,,,,,,,,Standard,Conventional
15457,2377441,43000,1719871,136,5.0,2005,0.0,,4/8/2010 0:00,HL7407,HL740,7,,,Medium,Wheel Loader - 135.0 to 150.0 Horsepower,Connecticut,WL,Wheel Loader,,EROPS,None or Unspecified,,None or Unspecified,,,,,,,,2 Valve,,,,,20.5,None or Unspecified,,,,,,,,,,,,,Standard,Conventional
15457,2377896,42000,1359794,136,1.0,2004,3734.0,Medium,2/19/2008 0:00,HL7407,HL740,7,,,Medium,Wheel Loader - 135.0 to 150.0 Horsepower,Florida,WL,Wheel Loader,,EROPS w AC,None or Unspecified,,None or Unspecified,,,,,,,,2 Valve,,,,,20.5,None or Unspecified,,,,,,,,,,,,,Standard,Conventional
15457,2377903,51000,1762057,136,,2004,0.0,,5/3/2008 0:00,HL7407,HL740,7,,,Medium,Wheel Loader - 135.0 to 150.0 Horsepower,New Hampshire,WL,Wheel Loader,,EROPS w AC,None or Unspecified,,None or Unspecified,,,,,,,,2 Valve,,,,,20.5,None or Unspecified,,,,,,,,,,,,,Standard,Conventional
15457,2377909,46000,1156215,136,1.0,2005,0.0,,10/15/2008 0:00,HL7407,HL740,7,,,Medium,Wheel Loader - 135.0 to 150.0 Horsepower,Florida,WL,Wheel Loader,,EROPS w AC,None or Unspecified,,None or Unspecified,,,,,,,,2 Valve,,,,,20.5,None or Unspecified,,,,,,,,,,,,,Standard,Conventional
15457,2377911,60000,1205680,136,1.0,2006,1779.0,High,10/10/2007 0:00,HL7407,HL740,7,,,Medium,Wheel Loader - 135.0 to 150.0 Horsepower,Florida,WL,Wheel Loader,,EROPS w AC,None or Unspecified,,None or Unspecified,,,,,,,,2 Valve,,,,,20.5,None or Unspecified,,,,,,,,,,,,,Standard,Conventional
15457,2377913,47000,1167090,136,1.0,2006,0.0,,10/15/2008 0:00,HL7407,HL740,7,,,Medium,Wheel Loader - 135.0 to 150.0 Horsepower,Florida,WL,Wheel Loader,,EROPS w AC,None or Unspecified,,None or Unspecified,,,,,,,,2 Valve,,,,,20.5,Manual,,,,,,,,,,,,,Standard,Conventional
15457,2377915,62500,1266809,136,1.0,2006,2114.0,Medium,2/19/2008 0:00,HL7407,HL740,7,,,Medium,Wheel Loader - 135.0 to 150.0 Horsepower,Florida,WL,Wheel Loader,,EROPS w AC,None or Unspecified,,None or Unspecified,,,,,,,,2 Valve,,,,,20.5,None or Unspecified,,,,,,,,,,,,,Standard,Conventional
15457,2377917,58000,1245930,136,1.0,2006,1528.0,Low,2/16/2009 0:00,HL7407,HL740,7,,,Medium,Wheel Loader - 135.0 to 150.0 Horsepower,Florida,WL,Wheel Loader,,EROPS w AC,None or Unspecified,,None or Unspecified,,,,,,,,2 Valve,,,,,20.5,Manual,,,,,,,,,,,,,Standard,Conventional
15457,2377920,50000,1207709,136,1.0,2007,0.0,,10/14/2009 0:00,HL7407,HL740,7,,,Medium,Wheel Loader - 135.0 to 150.0 Horsepower,Florida,WL,Wheel Loader,,EROPS w AC,None or Unspecified,,None or Unspecified,,,,,,,,2 Valve,,,,,20.5,None or Unspecified,,,,,,,,,,,,,Standard,Conventional
15457,2377921,66000,1372224,136,,2007,0.0,,8/28/2009 0:00,HL7407,HL740,7,,,Medium,Wheel Loader - 135.0 to 150.0 Horsepower,Connecticut,WL,Wheel Loader,,EROPS w AC,None or Unspecified,,None or Unspecified,,,,,,,,2 Valve,,,,,20.5,None or Unspecified,,,,,,,,,,,,,Standard,Conventional
15457,4338278,41000,2286021,172,1.0,2006,4587.0,Medium,6/28/2011 0:00,HL7407,HL740,7,,,Medium,Wheel Loader - 135.0 to 150.0 Horsepower,Utah,WL,Wheel Loader,,EROPS w AC,None or Unspecified,,Yes,,,,,,,,2 Valve,,,,,20.5,None or Unspecified,,,,,,,,,,,,,Standard,Conventional
15457,4338282,46000,2286021,172,1.0,2005,4051.0,Medium,12/7/2011 0:00,HL7407,HL740,7,,,Medium,Wheel Loader - 135.0 to 150.0 Horsepower,Connecticut,WL,Wheel Loader,,EROPS w AC,None or Unspecified,,Yes,,,,,,,,2 Valve,,,,,20.5,None or Unspecified,,,,,,,,,,,,,Standard,Conventional
15457,6294703,46000,1029215,149,1.0,2005,,,12/8/2011 0:00,HL7407,HL740,7,,,Medium,Wheel Loader - 135.0 to 150.0 Horsepower,Connecticut,WL,Wheel Loader,,EROPS w AC,None or Unspecified,,None or Unspecified,,,,,,,,2 Valve,,,,,20.5,Hydraulic,,,,,,,,,,,,,Standard,Conventional
15457,6294705,41000,1869277,149,1.0,2006,,,6/29/2011 0:00,HL7407,HL740,7,,,Medium,Wheel Loader - 135.0 to 150.0 Horsepower,Utah,WL,Wheel Loader,,OROPS,None or Unspecified,,None or Unspecified,,,,,,,,2 Valve,,,,,None or Unspecified,Hydraulic,,,,,,,,,,,,,Standard,Conventional
