ModelID,SalesID,SalePrice,MachineID,datasource,auctioneerID,YearMade,MachineHoursCurrentMeter,UsageBand,saledate,fiModelDesc,fiBaseModel,fiSecondaryDesc,fiModelSeries,fiModelDescriptor,ProductSize,fiProductClassDesc,state,ProductGroup,ProductGroupDesc,Drive_System,Enclosure,Forks,Pad_Type,Ride_Control,Stick,Transmission,Turbocharged,Blade_Extension,Blade_Width,Enclosure_Type,Engine_Horsepower,Hydraulics,Pushblock,Ripper,Scarifier,Tip_Control,Tire_Size,Coupler,Coupler_System,Grouser_Tracks,Hydraulics_Flow,Track_Type,Undercarriage_Pad_Width,Stick_Length,Thumb,Pattern_Changer,Grouser_Type,Backhoe_Mounting,Blade_Type,Travel_Controls,Differential_Type,Steering_Controls
15465,1152443,33000,1033118,121,3.0,1000,4232.0,Low,10/4/2007 0:00,HL750,HL750,,,,Medium,Wheel Loader - 135.0 to 150.0 Horsepower,Idaho,WL,Wheel Loader,,EROPS w AC,None or Unspecified,,None or Unspecified,,,,,,,,2 Valve,,,,,None or Unspecified,None or Unspecified,,,,,,,,,,,,,Standard,Conventional
15465,1197294,11000,1008424,121,3.0,1996,8494.0,Medium,12/17/2009 0:00,HL750,HL750,,,,Medium,Wheel Loader - 135.0 to 150.0 Horsepower,Pennsylvania,WL,Wheel Loader,,EROPS w AC,None or Unspecified,,None or Unspecified,,,,,,,,2 Valve,,,,,20.5,None or Unspecified,,,,,,,,,,,,,Standard,Conventional
15465,1697684,20000,1457357,132,3.0,1996,,,7/25/2002 0:00,HL750,HL750,,,,Medium,Wheel Loader - 135.0 to 150.0 Horsepower,Unspecified,WL,Wheel Loader,,EROPS,None or Unspecified,,None or Unspecified,,,,,,,,2 Valve,,,,,None or Unspecified,None or Unspecified,,,,,,,,,,,,,Standard,Conventional
15465,1697695,38500,1113666,132,2.0,1000,,,5/22/1999 0:00,HL750,HL750,,,,Medium,Wheel Loader - 135.0 to 150.0 Horsepower,Connecticut,WL,Wheel Loader,,OROPS,None or Unspecified,,None or Unspecified,,,,,,,,2 Valve,,,,,None or Unspecified,None or Unspecified,,,,,,,,,,,,,Standard,Conventional
15465,1697748,19000,1364688,132,99.0,1996,,,9/17/2010 0:00,HL750,HL750,,,,Medium,Wheel Loader - 135.0 to 150.0 Horsepower,Minnesota,WL,Wheel Loader,,EROPS w AC,None or Unspecified,,None or Unspecified,,,,,,,,2 Valve,,,,,None or Unspecified,None or Unspecified,,,,,,,,,,,,,Standard,Conventional
15465,1697783,13500,1195903,132,4.0,1998,,,2/9/2004 0:00,HL750,HL750,,,,Medium,Wheel Loader - 135.0 to 150.0 Horsepower,Florida,WL,Wheel Loader,,OROPS,None or Unspecified,,None or Unspecified,,,,,,,,2 Valve,,,,,20.5,Manual,,,,,,,,,,,,,Standard,Conventional
15465,1697791,34500,1240706,132,7.0,1998,,,9/6/2001 0:00,HL750,HL750,,,,Medium,Wheel Loader - 135.0 to 150.0 Horsepower,Alabama,WL,Wheel Loader,,EROPS w AC,None or Unspecified,,None or Unspecified,,,,,,,,2 Valve,,,,,20.5,Manual,,,,,,,,,,,,,Standard,Conventional
15465,1697833,33000,1537543,132,3.0,1000,,,10/4/2007 0:00,HL750,HL750,,,,Medium,Wheel Loader - 135.0 to 150.0 Horsepower,California,WL,Wheel Loader,,EROPS w AC,None or Unspecified,,None or Unspecified,,,,,,,,2 Valve,,,,,None or Unspecified,None or Unspecified,,,,,,,,,,,,,Standard,Conventional
15465,1697849,29000,1282908,132,1.0,2000,,,9/20/2006 0:00,HL750,HL750,,,,Medium,Wheel Loader - 135.0 to 150.0 Horsepower,Illinois,WL,Wheel Loader,,EROPS,None or Unspecified,,None or Unspecified,,,,,,,,2 Valve,,,,,20.5,None or Unspecified,,,,,,,,,,,,,Standard,Conventional
15465,1697854,34000,1190206,132,1.0,2001,,,9/20/2006 0:00,HL750,HL750,,,,Medium,Wheel Loader - 135.0 to 150.0 Horsepower,Illinois,WL,Wheel Loader,,EROPS,None or Unspecified,,None or Unspecified,,,,,,,,2 Valve,,,,,20.5,None or Unspecified,,,,,,,,,,,,,Standard,Conventional
15465,1697855,52000,1448658,132,4.0,2002,,,11/3/2005 0:00,HL750,HL750,,,,Medium,Wheel Loader - 135.0 to 150.0 Horsepower,Georgia,WL,Wheel Loader,,EROPS w AC,None or Unspecified,,None or Unspecified,,,,,,,,2 Valve,,,,,None or Unspecified,None or Unspecified,,,,,,,,,,,,,Standard,Conventional
15465,1697873,32500,1495833,132,2.0,2001,,,5/3/2008 0:00,HL750,HL750,,,,Medium,Wheel Loader - 135.0 to 150.0 Horsepower,New Hampshire,WL,Wheel Loader,,EROPS,None or Unspecified,,None or Unspecified,,,,,,,,2 Valve,,,,,None or Unspecified,None or Unspecified,,,,,,,,,,,,,Standard,Conventional
15465,1697883,31000,1263153,132,4.0,1000,,,2/17/2001 0:00,HL750,HL750,,,,Medium,Wheel Loader - 135.0 to 150.0 Horsepower,Florida,WL,Wheel Loader,,EROPS,None or Unspecified,,None or Unspecified,,,,,,,,2 Valve,,,,,None or Unspecified,None or Unspecified,,,,,,,,,,,,,Standard,Conventional
15465,1697886,29000,1300288,132,1.0,1996,,,6/18/2002 0:00,HL750,HL750,,,,Medium,Wheel Loader - 135.0 to 150.0 Horsepower,Washington,WL,Wheel Loader,,EROPS w AC,Yes,,None or Unspecified,,,,,,,,2 Valve,,,,,None or Unspecified,Manual,,,,,,,,,,,,,Standard,Conventional
15465,1697917,61000,1315697,132,2.0,1000,,,11/4/2000 0:00,HL750,HL750,,,,Medium,Wheel Loader - 135.0 to 150.0 Horsepower,New York,WL,Wheel Loader,,OROPS,None or Unspecified,,None or Unspecified,,,,,,,,2 Valve,,,,,None or Unspecified,None or Unspecified,,,,,,,,,,,,,Standard,Conventional
15465,1697958,46000,1433633,132,2.0,1000,129.0,Low,6/19/1999 0:00,HL750,HL750,,,,Medium,Wheel Loader - 135.0 to 150.0 Horsepower,North Carolina,WL,Wheel Loader,,EROPS w AC,None or Unspecified,,None or Unspecified,,,,,,,,2 Valve,,,,,None or Unspecified,None or Unspecified,,,,,,,,,,,,,Standard,Conventional
15465,1697960,39000,1451242,132,2.0,1996,,,11/13/1999 0:00,HL750,HL750,,,,Medium,Wheel Loader - 135.0 to 150.0 Horsepower,Wisconsin,WL,Wheel Loader,,OROPS,None or Unspecified,,None or Unspecified,,,,,,,,2 Valve,,,,,None or Unspecified,None or Unspecified,,,,,,,,,,,,,Standard,Conventional
15465,1697961,31000,1264114,132,5.0,1996,,,9/28/2006 0:00,HL750,HL750,,,,Medium,Wheel Loader - 135.0 to 150.0 Horsepower,Connecticut,WL,Wheel Loader,,EROPS,None or Unspecified,,None or Unspecified,,,,,,,,2 Valve,,,,,20.5,None or Unspecified,,,,,,,,,,,,,Standard,Conventional
15465,1698672,32000,1362247,132,1.0,1996,,,9/25/2001 0:00,HL750,HL750,,,,Medium,Wheel Loader - 135.0 to 150.0 Horsepower,Washington,WL,Wheel Loader,,EROPS w AC,Yes,,None or Unspecified,,,,,,,,2 Valve,,,,,None or Unspecified,Manual,,,,,,,,,,,,,Standard,Conventional
15465,1698673,34000,1202880,132,1.0,1996,,,9/6/2002 0:00,HL750,HL750,,,,Medium,Wheel Loader - 135.0 to 150.0 Horsepower,Arizona,WL,Wheel Loader,,EROPS w AC,None or Unspecified,,None or Unspecified,,,,,,,,2 Valve,,,,,20.5,Manual,,,,,,,,,,,,,Standard,Conventional
15465,1698674,25000,1346364,132,1.0,1996,,,6/4/2002 0:00,HL750,HL750,,,,Medium,Wheel Loader - 135.0 to 150.0 Horsepower,California,WL,Wheel Loader,,OROPS,None or Unspecified,,None or Unspecified,,,,,,,,2 Valve,,,,,20.5,None or Unspecified,,,,,,,,,,,,,Standard,Conventional
15465,1698675,19000,1087377,132,1.0,1996,,,9/27/2006 0:00,HL750,HL750,,,,Medium,Wheel Loader - 135.0 to 150.0 Horsepower,Texas,WL,Wheel Loader,,EROPS w AC,None or Unspecified,,None or Unspecified,,,,,,,,2 Valve,,,,,20.5,None or Unspecified,,,,,,,,,,,,,Standard,Conventional
15465,1698676,26000,1120461,132,1.0,1996,,,9/27/2006 0:00,HL750,HL750,,,,Medium,Wheel Loader - 135.0 to 150.0 Horsepower,Texas,WL,Wheel Loader,,EROPS w AC,None or Unspecified,,None or Unspecified,,,,,,,,2 Valve,,,,,None or Unspecified,None or Unspecified,,,,,,,,,,,,,Standard,Conventional
15465,1698677,15500,1203601,132,1.0,1996,,,2/8/2003 0:00,HL750,HL750,,,,Medium,Wheel Loader - 135.0 to 150.0 Horsepower,Nevada,WL,Wheel Loader,,OROPS,None or Unspecified,,None or Unspecified,,,,,,,,2 Valve,,,,,20.5,None or Unspecified,,,,,,,,,,,,,Standard,Conventional
15465,1698731,51000,1358635,132,1.0,1998,,,5/18/2000 0:00,HL750,HL750,,,,Medium,Wheel Loader - 135.0 to 150.0 Horsepower,Maine,WL,Wheel Loader,,EROPS w AC,None or Unspecified,,None or Unspecified,,,,,,,,2 Valve,,,,,None or Unspecified,None or Unspecified,,,,,,,,,,,,,Standard,Conventional
15465,1698732,16000,1498196,132,1.0,1997,,,6/24/2003 0:00,HL750,HL750,,,,Medium,Wheel Loader - 135.0 to 150.0 Horsepower,Maryland,WL,Wheel Loader,,EROPS w AC,Yes,,None or Unspecified,,,,,,,,2 Valve,,,,,20.5,None or Unspecified,,,,,,,,,,,,,Standard,Conventional
15465,1698740,34500,1345365,132,2.0,1997,,,6/13/2001 0:00,HL750,HL750,,,,Medium,Wheel Loader - 135.0 to 150.0 Horsepower,California,WL,Wheel Loader,,EROPS,None or Unspecified,,None or Unspecified,,,,,,,,2 Valve,,,,,None or Unspecified,None or Unspecified,,,,,,,,,,,,,Standard,Conventional
15465,1698745,44000,1093493,132,1.0,1999,,,12/16/2005 0:00,HL750,HL750,,,,Medium,Wheel Loader - 135.0 to 150.0 Horsepower,Minnesota,WL,Wheel Loader,,EROPS w AC,None or Unspecified,,None or Unspecified,,,,,,,,2 Valve,,,,,20.5,None or Unspecified,,,,,,,,,,,,,Standard,Conventional
15465,1698746,29000,1133619,132,1.0,2000,,,9/20/2006 0:00,HL750,HL750,,,,Medium,Wheel Loader - 135.0 to 150.0 Horsepower,Illinois,WL,Wheel Loader,,EROPS,None or Unspecified,,None or Unspecified,,,,,,,,2 Valve,,,,,20.5,None or Unspecified,,,,,,,,,,,,,Standard,Conventional
15465,1698750,34000,1170243,132,1.0,2000,,,9/20/2006 0:00,HL750,HL750,,,,Medium,Wheel Loader - 135.0 to 150.0 Horsepower,Illinois,WL,Wheel Loader,,EROPS,None or Unspecified,,None or Unspecified,,,,,,,,2 Valve,,,,,20.5,None or Unspecified,,,,,,,,,,,,,Standard,Conventional
15465,1698751,52000,1167063,132,4.0,2002,,,11/3/2005 0:00,HL750,HL750,,,,Medium,Wheel Loader - 135.0 to 150.0 Horsepower,Georgia,WL,Wheel Loader,,EROPS w AC,None or Unspecified,,None or Unspecified,,,,,,,,2 Valve,,,,,None or Unspecified,None or Unspecified,,,,,,,,,,,,,Standard,Conventional
15465,1698752,38000,1167063,132,9.0,1000,,,8/18/2005 0:00,HL750,HL750,,,,Medium,Wheel Loader - 135.0 to 150.0 Horsepower,South Carolina,WL,Wheel Loader,,EROPS w AC,None or Unspecified,,None or Unspecified,,,,,,,,2 Valve,,,,,None or Unspecified,None or Unspecified,,,,,,,,,,,,,Standard,Conventional
15465,1698829,52500,1109196,132,99.0,1996,,,7/10/2000 0:00,HL750,HL750,,,,Medium,Wheel Loader - 135.0 to 150.0 Horsepower,Oregon,WL,Wheel Loader,,EROPS,Yes,,None or Unspecified,,,,,,,,2 Valve,,,,,None or Unspecified,Manual,,,,,,,,,,,,,Standard,Conventional
15465,2377373,22500,1651044,136,16.0,1996,4516.0,Low,11/10/2007 0:00,HL750,HL750,,,,Medium,Wheel Loader - 135.0 to 150.0 Horsepower,California,WL,Wheel Loader,,EROPS w AC,None or Unspecified,,None or Unspecified,,,,,,,,2 Valve,,,,,20.5,None or Unspecified,,,,,,,,,,,,,Standard,Conventional
15465,2377430,32500,1780888,136,,1000,0.0,,5/3/2008 0:00,HL750,HL750,,,,Medium,Wheel Loader - 135.0 to 150.0 Horsepower,New Hampshire,WL,Wheel Loader,,EROPS,None or Unspecified,,None or Unspecified,,,,,,,,2 Valve,,,,,None or Unspecified,None or Unspecified,,,,,,,,,,,,,Standard,Conventional
15465,2377718,20000,1199915,136,1.0,1998,0.0,,5/24/2007 0:00,HL750,HL750,,,,Medium,Wheel Loader - 135.0 to 150.0 Horsepower,Florida,WL,Wheel Loader,,EROPS,Yes,,None or Unspecified,,,,,,,,2 Valve,,,,,20.5,Manual,,,,,,,,,,,,,Standard,Conventional
15465,2676241,19500,1870313,149,99.0,1998,0.0,,10/2/2010 0:00,HL750,HL750,,,,Medium,Wheel Loader - 135.0 to 150.0 Horsepower,New York,WL,Wheel Loader,,EROPS,None or Unspecified,,None or Unspecified,,,,,,,,2 Valve,,,,,None or Unspecified,None or Unspecified,,,,,,,,,,,,,Standard,Conventional
