ModelID,SalesID,SalePrice,MachineID,datasource,auctioneerID,YearMade,MachineHoursCurrentMeter,UsageBand,saledate,fiModelDesc,fiBaseModel,fiSecondaryDesc,fiModelSeries,fiModelDescriptor,ProductSize,fiProductClassDesc,state,ProductGroup,ProductGroupDesc,Drive_System,Enclosure,Forks,Pad_Type,Ride_Control,Stick,Transmission,Turbocharged,Blade_Extension,Blade_Width,Enclosure_Type,Engine_Horsepower,Hydraulics,Pushblock,Ripper,Scarifier,Tip_Control,Tire_Size,Coupler,Coupler_System,Grouser_Tracks,Hydraulics_Flow,Track_Type,Undercarriage_Pad_Width,Stick_Length,Thumb,Pattern_Changer,Grouser_Type,Backhoe_Mounting,Blade_Type,Travel_Controls,Differential_Type,Steering_Controls
15473,1158861,16000,1055226,121,3.0,1997,7916.0,Medium,8/20/2009 0:00,HL760,HL760,,,,Medium,Wheel Loader - 200.0 to 225.0 Horsepower,Ohio,WL,Wheel Loader,,EROPS w AC,None or Unspecified,,None or Unspecified,,,,,,,,2 Valve,,,,,26.5,None or Unspecified,,,,,,,,,,,,,Standard,Conventional
15473,1168086,18500,1025488,121,3.0,1998,7661.0,Medium,8/6/2009 0:00,HL760,HL760,,,,Medium,Wheel Loader - 200.0 to 225.0 Horsepower,Missouri,WL,Wheel Loader,,EROPS w AC,None or Unspecified,,None or Unspecified,,,,,,,,2 Valve,,,,,23.5,None or Unspecified,,,,,,,,,,,,,Standard,Conventional
15473,1175672,46000,1068069,121,3.0,2000,5714.0,Medium,5/19/2005 0:00,HL760,HL760,,,,Medium,Wheel Loader - 200.0 to 225.0 Horsepower,North Carolina,WL,Wheel Loader,,EROPS w AC,None or Unspecified,,None or Unspecified,,,,,,,,2 Valve,,,,,None or Unspecified,None or Unspecified,,,,,,,,,,,,,Standard,Conventional
15473,1175673,52000,1002917,121,3.0,2000,4375.0,Medium,5/19/2005 0:00,HL760,HL760,,,,Medium,Wheel Loader - 200.0 to 225.0 Horsepower,North Carolina,WL,Wheel Loader,,EROPS w AC,None or Unspecified,,None or Unspecified,,,,,,,,2 Valve,,,,,None or Unspecified,None or Unspecified,,,,,,,,,,,,,Standard,Conventional
15473,1175674,53000,1027053,121,3.0,2000,2586.0,Low,5/19/2005 0:00,HL760,HL760,,,,Medium,Wheel Loader - 200.0 to 225.0 Horsepower,North Carolina,WL,Wheel Loader,,EROPS w AC,None or Unspecified,,None or Unspecified,,,,,,,,2 Valve,,,,,23.5,None or Unspecified,,,,,,,,,,,,,Standard,Conventional
15473,1176982,40000,1027053,121,3.0,2000,5580.0,Medium,2/7/2008 0:00,HL760,HL760,,,,Medium,Wheel Loader - 200.0 to 225.0 Horsepower,Arizona,WL,Wheel Loader,,EROPS w AC,None or Unspecified,,None or Unspecified,,,,,,,,2 Valve,,,,,23.5,None or Unspecified,,,,,,,,,,,,,Standard,Conventional
15473,1697685,52500,1119865,132,10.0,1000,,,1/29/1998 0:00,HL760,HL760,,,,Medium,Wheel Loader - 200.0 to 225.0 Horsepower,Louisiana,WL,Wheel Loader,,EROPS w AC,None or Unspecified,,None or Unspecified,,,,,,,,2 Valve,,,,,None or Unspecified,None or Unspecified,,,,,,,,,,,,,Standard,Conventional
15473,1697693,27000,1535889,132,1.0,1996,,,3/25/2002 0:00,HL760,HL760,,,,Medium,Wheel Loader - 200.0 to 225.0 Horsepower,Nevada,WL,Wheel Loader,,EROPS w AC,None or Unspecified,,None or Unspecified,,,,,,,,2 Valve,,,,,23.5,None or Unspecified,,,,,,,,,,,,,Standard,Conventional
15473,1697771,19000,1467243,132,1.0,1998,,,10/13/2009 0:00,HL760,HL760,,,,Medium,Wheel Loader - 200.0 to 225.0 Horsepower,California,WL,Wheel Loader,,OROPS,None or Unspecified,,None or Unspecified,,,,,,,,2 Valve,,,,,23.5,None or Unspecified,,,,,,,,,,,,,Standard,Conventional
15473,1697792,31000,1299525,132,1.0,1998,,,5/22/2007 0:00,HL760,HL760,,,,Medium,Wheel Loader - 200.0 to 225.0 Horsepower,California,WL,Wheel Loader,,EROPS w AC,None or Unspecified,,None or Unspecified,,,,,,,,2 Valve,,,,,23.5,None or Unspecified,,,,,,,,,,,,,Standard,Conventional
15473,1697832,46500,1501639,132,2.0,1998,,,9/28/2000 0:00,HL760,HL760,,,,Medium,Wheel Loader - 200.0 to 225.0 Horsepower,Colorado,WL,Wheel Loader,,EROPS,None or Unspecified,,None or Unspecified,,,,,,,,2 Valve,,,,,None or Unspecified,None or Unspecified,,,,,,,,,,,,,Standard,Conventional
15473,1697839,28500,1289274,132,8.0,1999,,,9/13/2006 0:00,HL760,HL760,,,,Medium,Wheel Loader - 200.0 to 225.0 Horsepower,Mississippi,WL,Wheel Loader,,EROPS w AC,None or Unspecified,,None or Unspecified,,,,,,,,2 Valve,,,,,None or Unspecified,None or Unspecified,,,,,,,,,,,,,Standard,Conventional
15473,1697848,25500,1282908,132,5.0,1999,,,6/20/2008 0:00,HL760,HL760,,,,Medium,Wheel Loader - 200.0 to 225.0 Horsepower,Connecticut,WL,Wheel Loader,,EROPS,None or Unspecified,,None or Unspecified,,,,,,,,2 Valve,,,,,20.5,None or Unspecified,,,,,,,,,,,,,Standard,Conventional
15473,1697851,20000,1522541,132,1.0,2000,7558.0,Medium,2/9/2011 0:00,HL760,HL760,,,,Medium,Wheel Loader - 200.0 to 225.0 Horsepower,Texas,WL,Wheel Loader,,EROPS w AC,None or Unspecified,,None or Unspecified,,,,,,,,2 Valve,,,,,23.5,None or Unspecified,,,,,,,,,,,,,Standard,Conventional
15473,1697852,40000,1530221,132,3.0,2000,,,2/7/2008 0:00,HL760,HL760,,,,Medium,Wheel Loader - 200.0 to 225.0 Horsepower,California,WL,Wheel Loader,,EROPS w AC,None or Unspecified,,None or Unspecified,,,,,,,,2 Valve,,,,,None or Unspecified,None or Unspecified,,,,,,,,,,,,,Standard,Conventional
15473,1697853,26000,1194819,132,7.0,2000,,,5/31/2006 0:00,HL760,HL760,,,,Medium,Wheel Loader - 200.0 to 225.0 Horsepower,Alabama,WL,Wheel Loader,,EROPS w AC,,,,,,,,,,,Auxiliary,,,,,,Manual,,,,,,,,,,,,,,
15473,1697860,34000,1416839,132,1.0,2001,6321.0,Medium,2/16/2011 0:00,HL760,HL760,,,,Medium,Wheel Loader - 200.0 to 225.0 Horsepower,Florida,WL,Wheel Loader,,EROPS w AC,None or Unspecified,,None or Unspecified,,,,,,,,2 Valve,,,,,23.5,None or Unspecified,,,,,,,,,,,,,Standard,Conventional
15473,1697877,13000,1551824,132,1.0,1997,5972.0,Low,9/28/2010 0:00,HL760,HL760,,,,Medium,Wheel Loader - 200.0 to 225.0 Horsepower,California,WL,Wheel Loader,,OROPS,None or Unspecified,,None or Unspecified,,,,,,,,2 Valve,,,,,23.5,None or Unspecified,,,,,,,,,,,,,Standard,Conventional
15473,1697887,35000,1430950,132,10.0,1000,,,11/16/2000 0:00,HL760,HL760,,,,Medium,Wheel Loader - 200.0 to 225.0 Horsepower,Louisiana,WL,Wheel Loader,,EROPS,None or Unspecified,,None or Unspecified,,,,,,,,2 Valve,,,,,None or Unspecified,None or Unspecified,,,,,,,,,,,,,Standard,Conventional
15473,1697941,36000,1110073,132,4.0,1000,,,2/17/2001 0:00,HL760,HL760,,,,Medium,Wheel Loader - 200.0 to 225.0 Horsepower,Florida,WL,Wheel Loader,,EROPS,None or Unspecified,,None or Unspecified,,,,,,,,2 Valve,,,,,None or Unspecified,None or Unspecified,,,,,,,,,,,,,Standard,Conventional
15473,1697962,24000,1368002,132,28.0,1995,,,6/2/2006 0:00,HL760,HL760,,,,Medium,Wheel Loader - 200.0 to 225.0 Horsepower,Mississippi,WL,Wheel Loader,,EROPS w AC,None or Unspecified,,None or Unspecified,,,,,,,,2 Valve,,,,,None or Unspecified,None or Unspecified,,,,,,,,,,,,,Standard,Conventional
15473,1697963,42000,1368002,132,10.0,1995,,,6/22/2006 0:00,HL760,HL760,,,,Medium,Wheel Loader - 200.0 to 225.0 Horsepower,Louisiana,WL,Wheel Loader,,EROPS w AC,None or Unspecified,,None or Unspecified,,,,,,,,2 Valve,,,,,None or Unspecified,None or Unspecified,,,,,,,,,,,,,Standard,Conventional
15473,1698663,46000,1400174,132,10.0,1995,,,4/23/1998 0:00,HL760,HL760,,,,Medium,Wheel Loader - 200.0 to 225.0 Horsepower,Louisiana,WL,Wheel Loader,,EROPS w AC,None or Unspecified,,None or Unspecified,,,,,,,,2 Valve,,,,,None or Unspecified,None or Unspecified,,,,,,,,,,,,,Standard,Conventional
15473,1698678,45000,1450803,132,1.0,1996,,,12/5/2000 0:00,HL760,HL760,,,,Medium,Wheel Loader - 200.0 to 225.0 Horsepower,California,WL,Wheel Loader,,EROPS,None or Unspecified,,None or Unspecified,,,,,,,,2 Valve,,,,,23.5,None or Unspecified,,,,,,,,,,,,,Standard,Conventional
15473,1698680,19000,1387620,132,1.0,1995,,,2/20/2003 0:00,HL760,HL760,,,,Medium,Wheel Loader - 200.0 to 225.0 Horsepower,Florida,WL,Wheel Loader,,EROPS,None or Unspecified,,None or Unspecified,,,,,,,,2 Valve,,,,,23.5,None or Unspecified,,,,,,,,,,,,,Standard,Conventional
15473,1698681,43500,1300662,132,2.0,1995,804.0,Low,2/7/2000 0:00,HL760,HL760,,,,Medium,Wheel Loader - 200.0 to 225.0 Horsepower,Florida,WL,Wheel Loader,,EROPS,None or Unspecified,,None or Unspecified,,,,,,,,2 Valve,,,,,23.5,None or Unspecified,,,,,,,,,,,,,Standard,Conventional
15473,1698682,18000,1360618,132,1.0,1996,,,9/27/2006 0:00,HL760,HL760,,,,Medium,Wheel Loader - 200.0 to 225.0 Horsepower,Texas,WL,Wheel Loader,,OROPS,None or Unspecified,,None or Unspecified,,,,,,,,2 Valve,,,,,23.5,None or Unspecified,,,,,,,,,,,,,Standard,Conventional
15473,1698684,24000,1360317,132,1.0,1996,,,2/20/2003 0:00,HL760,HL760,,,,Medium,Wheel Loader - 200.0 to 225.0 Horsepower,Florida,WL,Wheel Loader,,EROPS w AC,None or Unspecified,,None or Unspecified,,,,,,,,2 Valve,,,,,23.5,None or Unspecified,,,,,,,,,,,,,Standard,Conventional
15473,1698687,46000,1274792,132,1.0,1996,,,6/11/2001 0:00,HL760,HL760,,,,Medium,Wheel Loader - 200.0 to 225.0 Horsepower,California,WL,Wheel Loader,,EROPS,None or Unspecified,,None or Unspecified,,,,,,,,2 Valve,,,,,23.5,None or Unspecified,,,,,,,,,,,,,Standard,Conventional
15473,1698688,31000,1274792,132,1.0,1996,,,2/27/2007 0:00,HL760,HL760,,,,Medium,Wheel Loader - 200.0 to 225.0 Horsepower,California,WL,Wheel Loader,,EROPS,None or Unspecified,,None or Unspecified,,,,,,,,2 Valve,,,,,23.5,None or Unspecified,,,,,,,,,,,,,Standard,Conventional
15473,1698689,33000,1274792,132,1.0,1996,,,3/13/2002 0:00,HL760,HL760,,,,Medium,Wheel Loader - 200.0 to 225.0 Horsepower,Illinois,WL,Wheel Loader,,EROPS,None or Unspecified,,None or Unspecified,,,,,,,,2 Valve,,,,,23.5,None or Unspecified,,,,,,,,,,,,,Standard,Conventional
15473,1698691,21000,1315191,132,1.0,1000,,,3/4/2008 0:00,HL760,HL760,,,,Medium,Wheel Loader - 200.0 to 225.0 Horsepower,California,WL,Wheel Loader,,EROPS w AC,None or Unspecified,,None or Unspecified,,,,,,,,3 Valve,,,,,23.5,None or Unspecified,,,,,,,,,,,,,Standard,Conventional
15473,1698693,25000,1215168,132,1.0,1996,,,12/10/2002 0:00,HL760,HL760,,,,Medium,Wheel Loader - 200.0 to 225.0 Horsepower,California,WL,Wheel Loader,,OROPS,None or Unspecified,,None or Unspecified,,,,,,,,2 Valve,,,,,23.5,None or Unspecified,,,,,,,,,,,,,Standard,Conventional
15473,1698759,23000,1464958,132,1.0,1996,,,9/16/2002 0:00,HL760,HL760,,,,Medium,Wheel Loader - 200.0 to 225.0 Horsepower,California,WL,Wheel Loader,,OROPS,None or Unspecified,,None or Unspecified,,,,,,,,2 Valve,,,,,23.5,None or Unspecified,,,,,,,,,,,,,Standard,Conventional
15473,1698760,35000,1275980,132,1.0,1998,,,2/19/2002 0:00,HL760,HL760,,,,Medium,Wheel Loader - 200.0 to 225.0 Horsepower,Florida,WL,Wheel Loader,,EROPS w AC,None or Unspecified,,None or Unspecified,,,,,,,,2 Valve,,,,,23.5,None or Unspecified,,,,,,,,,,,,,Standard,Conventional
15473,1698765,37500,1224299,132,1.0,1998,,,10/1/2004 0:00,HL760,HL760,,,,Medium,Wheel Loader - 200.0 to 225.0 Horsepower,Colorado,WL,Wheel Loader,,EROPS w AC,None or Unspecified,,None or Unspecified,,,,,,,,2 Valve,,,,,23.5,None or Unspecified,,,,,,,,,,,,,Standard,Conventional
15473,1698766,40000,1169653,132,1.0,1998,,,9/13/2005 0:00,HL760,HL760,,,,Medium,Wheel Loader - 200.0 to 225.0 Horsepower,California,WL,Wheel Loader,,EROPS w AC,None or Unspecified,,None or Unspecified,,,,,,,,2 Valve,,,,,23.5,Manual,,,,,,,,,,,,,Standard,Conventional
15473,1698768,30000,1493193,132,1.0,1998,,,10/9/2003 0:00,HL760,HL760,,,,Medium,Wheel Loader - 200.0 to 225.0 Horsepower,Florida,WL,Wheel Loader,,EROPS w AC,None or Unspecified,,None or Unspecified,,,,,,,,2 Valve,,,,,None or Unspecified,None or Unspecified,,,,,,,,,,,,,Standard,Conventional
15473,1698771,35500,1085317,132,4.0,1000,,,2/9/2004 0:00,HL760,HL760,,,,Medium,Wheel Loader - 200.0 to 225.0 Horsepower,Florida,WL,Wheel Loader,,EROPS w AC,None or Unspecified,,None or Unspecified,,,,,,,,2 Valve,,,,,23.5,None or Unspecified,,,,,,,,,,,,,Standard,Conventional
15473,1698772,26000,1085317,132,1.0,1998,,,5/8/2003 0:00,HL760,HL760,,,,Medium,Wheel Loader - 200.0 to 225.0 Horsepower,Texas,WL,Wheel Loader,,EROPS w AC,None or Unspecified,,None or Unspecified,,,,,,,,2 Valve,,,,,23.5,None or Unspecified,,,,,,,,,,,,,Standard,Conventional
15473,1698780,47000,1556072,132,1.0,2001,,,11/17/2005 0:00,HL760,HL760,,,,Medium,Wheel Loader - 200.0 to 225.0 Horsepower,Texas,WL,Wheel Loader,,EROPS w AC,None or Unspecified,,None or Unspecified,,,,,,,,2 Valve,,,,,23.5,None or Unspecified,,,,,,,,,,,,,Standard,Conventional
15473,1698830,15000,1306892,132,2.0,1996,,,6/1/2002 0:00,HL760,HL760,,,,Medium,Wheel Loader - 200.0 to 225.0 Horsepower,Puerto Rico,WL,Wheel Loader,,EROPS,None or Unspecified,,None or Unspecified,,,,,,,,2 Valve,,,,,None or Unspecified,None or Unspecified,,,,,,,,,,,,,Standard,Conventional
15473,2377675,22500,1771325,136,,1995,0.0,,9/28/2007 0:00,HL760,HL760,,,,Medium,Wheel Loader - 200.0 to 225.0 Horsepower,New Jersey,WL,Wheel Loader,,OROPS,None or Unspecified,,None or Unspecified,,,,,,,,2 Valve,,,,,None or Unspecified,None or Unspecified,,,,,,,,,,,,,Standard,Conventional
15473,2377677,19000,1449821,136,1.0,1996,0.0,,4/23/2008 0:00,HL760,HL760,,,,Medium,Wheel Loader - 200.0 to 225.0 Horsepower,Arizona,WL,Wheel Loader,,EROPS,None or Unspecified,,None or Unspecified,,,,,,,,2 Valve,,,,,23.5,None or Unspecified,,,,,,,,,,,,,Standard,Conventional
15473,2377725,19000,1126204,136,1.0,2000,0.0,,10/13/2009 0:00,HL760,HL760,,,,Medium,Wheel Loader - 200.0 to 225.0 Horsepower,California,WL,Wheel Loader,,OROPS,None or Unspecified,,None or Unspecified,,,,,,,,2 Valve,,,,,23.5,None or Unspecified,,,,,,,,,,,,,Standard,Conventional
15473,2377730,31000,1732927,136,,1000,0.0,,5/22/2007 0:00,HL760,HL760,,,,Medium,Wheel Loader - 200.0 to 225.0 Horsepower,California,WL,Wheel Loader,,EROPS w AC,None or Unspecified,,None or Unspecified,,,,,,,,2 Valve,,,,,23.5,None or Unspecified,,,,,,,,,,,,,Standard,Conventional
15473,2377736,26000,1513155,136,1.0,1999,0.0,,12/11/2007 0:00,HL760,HL760,,,,Medium,Wheel Loader - 200.0 to 225.0 Horsepower,Minnesota,WL,Wheel Loader,,EROPS w AC,None or Unspecified,,None or Unspecified,,,,,,,,2 Valve,,,,,23.5,None or Unspecified,,,,,,,,,,,,,Standard,Conventional
15473,2377737,28000,1513155,136,1.0,1998,7446.0,Medium,11/28/2007 0:00,HL760,HL760,,,,Medium,Wheel Loader - 200.0 to 225.0 Horsepower,Nebraska,WL,Wheel Loader,,EROPS w AC,None or Unspecified,,None or Unspecified,,,,,,,,2 Valve,,,,,23.5,None or Unspecified,,,,,,,,,,,,,Standard,Conventional
15473,2377739,25500,1671858,136,,1999,0.0,,6/20/2008 0:00,HL760,HL760,,,,Medium,Wheel Loader - 200.0 to 225.0 Horsepower,Connecticut,WL,Wheel Loader,,EROPS w AC,None or Unspecified,,None or Unspecified,,,,,,,,3 Valve,,,,,23.5,None or Unspecified,,,,,,,,,,,,,Standard,Conventional
15473,2377740,37000,1671858,136,2.0,2001,0.0,,10/17/2009 0:00,HL760,HL760,,,,Medium,Wheel Loader - 200.0 to 225.0 Horsepower,New York,WL,Wheel Loader,,EROPS w AC,None or Unspecified,,None or Unspecified,,,,,,,,3 Valve,,,,,23.5,None or Unspecified,,,,,,,,,,,,,Standard,Conventional
15473,2377745,38000,1369831,136,1.0,2003,3942.0,Low,5/20/2008 0:00,HL760,HL760,,,,Medium,Wheel Loader - 200.0 to 225.0 Horsepower,California,WL,Wheel Loader,,EROPS w AC,None or Unspecified,,None or Unspecified,,,,,,,,2 Valve,,,,,23.5,None or Unspecified,,,,,,,,,,,,,Standard,Conventional
15473,2377747,34500,1749797,136,,2002,0.0,,10/9/2007 0:00,HL760,HL760,,,,Medium,Wheel Loader - 200.0 to 225.0 Horsepower,Florida,WL,Wheel Loader,,EROPS,None or Unspecified,,None or Unspecified,,,,,,,,2 Valve,,,,,None or Unspecified,Manual,,,,,,,,,,,,,Standard,Conventional
15473,2676027,19000,1250631,149,1.0,1996,6450.0,Low,11/10/2010 0:00,HL760,HL760,,,,Medium,Wheel Loader - 200.0 to 225.0 Horsepower,Michigan,WL,Wheel Loader,,EROPS,None or Unspecified,,None or Unspecified,,,,,,,,2 Valve,,,,,23.5,None or Unspecified,,,,,,,,,,,,,Standard,Conventional
15473,2676028,13000,1345873,149,1.0,1995,5972.0,Low,9/28/2010 0:00,HL760,HL760,,,,Medium,Wheel Loader - 200.0 to 225.0 Horsepower,California,WL,Wheel Loader,,OROPS,None or Unspecified,,None or Unspecified,,,,,,,,2 Valve,,,,,23.5,None or Unspecified,,,,,,,,,,,,,Standard,Conventional
15473,2676264,17500,1004688,149,1.0,1999,7558.0,Medium,11/3/2010 0:00,HL760,HL760,,,,Medium,Wheel Loader - 200.0 to 225.0 Horsepower,Texas,WL,Wheel Loader,,EROPS w AC,None or Unspecified,,None or Unspecified,,,,,,,,2 Valve,,,,,23.5,None or Unspecified,,,,,,,,,,,,,Standard,Conventional
15473,2676267,20000,1853269,149,1.0,1999,0.0,,2/9/2011 0:00,HL760,HL760,,,,Medium,Wheel Loader - 200.0 to 225.0 Horsepower,Texas,WL,Wheel Loader,,EROPS w AC,None or Unspecified,,None or Unspecified,,,,,,,,2 Valve,,,,,None or Unspecified,None or Unspecified,,,,,,,,,,,,,Standard,Conventional
15473,4338170,20000,1082437,172,1.0,1999,7558.0,Medium,2/9/2011 0:00,HL760,HL760,,,,Medium,Wheel Loader - 200.0 to 225.0 Horsepower,Texas,WL,Wheel Loader,,EROPS w AC,None or Unspecified,,None or Unspecified,,,,,,,,2 Valve,,,,,23.5,None or Unspecified,,,,,,,,,,,,,Standard,Conventional
15473,4338174,34000,1248949,172,1.0,2001,6321.0,Medium,2/15/2011 0:00,HL760,HL760,,,,Medium,Wheel Loader - 200.0 to 225.0 Horsepower,Florida,WL,Wheel Loader,,EROPS w AC,None or Unspecified,,None or Unspecified,,,,,,,,2 Valve,,,,,23.5,Manual,,,,,,,,,,,,,Standard,Conventional
