ModelID,SalesID,SalePrice,MachineID,datasource,auctioneerID,YearMade,MachineHoursCurrentMeter,UsageBand,saledate,fiModelDesc,fiBaseModel,fiSecondaryDesc,fiModelSeries,fiModelDescriptor,ProductSize,fiProductClassDesc,state,ProductGroup,ProductGroupDesc,Drive_System,Enclosure,Forks,Pad_Type,Ride_Control,Stick,Transmission,Turbocharged,Blade_Extension,Blade_Width,Enclosure_Type,Engine_Horsepower,Hydraulics,Pushblock,Ripper,Scarifier,Tip_Control,Tire_Size,Coupler,Coupler_System,Grouser_Tracks,Hydraulics_Flow,Track_Type,Undercarriage_Pad_Width,Stick_Length,Thumb,Pattern_Changer,Grouser_Type,Backhoe_Mounting,Blade_Type,Travel_Controls,Differential_Type,Steering_Controls
15474,1188702,43000,1050398,121,3.0,2004,330.0,Low,5/28/2009 0:00,HL7607,HL760,7,,,Medium,Wheel Loader - 200.0 to 225.0 Horsepower,Washington,WL,Wheel Loader,,EROPS w AC,None or Unspecified,,Yes,,,,,,,,2 Valve,,,,,23.5,None or Unspecified,,,,,,,,,,,,,Standard,Conventional
15474,1210579,54000,1028255,121,3.0,2006,3202.0,Medium,1/27/2011 0:00,HL7607,HL760,7,,,Medium,Wheel Loader - 200.0 to 225.0 Horsepower,New Hampshire,WL,Wheel Loader,,EROPS w AC,None or Unspecified,,None or Unspecified,,,,,,,,2 Valve,,,,,23.5,None or Unspecified,,,,,,,,,,,,,Standard,Conventional
15474,1211523,25500,1045557,121,3.0,1997,,,2/24/2011 0:00,HL7607,HL760,7,,,Medium,Wheel Loader - 200.0 to 225.0 Horsepower,Florida,WL,Wheel Loader,,EROPS w AC,None or Unspecified,,None or Unspecified,,,,,,,,3 Valve,,,,,None or Unspecified,None or Unspecified,,,,,,,,,,,,,Standard,Conventional
15474,1697931,65000,1211861,132,1.0,2006,,,2/17/2009 0:00,HL7607,HL760,7,,,Medium,Wheel Loader - 200.0 to 225.0 Horsepower,Florida,WL,Wheel Loader,,OROPS,None or Unspecified,,None or Unspecified,,,,,,,,2 Valve,,,,,None or Unspecified,None or Unspecified,,,,,,,,,,,,,Standard,Conventional
15474,1698876,89000,1126157,132,1.0,2004,,,8/25/2006 0:00,HL7607,HL760,7,,,Medium,Wheel Loader - 200.0 to 225.0 Horsepower,South Dakota,WL,Wheel Loader,,OROPS,None or Unspecified,,None or Unspecified,,,,,,,,2 Valve,,,,,None or Unspecified,None or Unspecified,,,,,,,,,,,,,Standard,Conventional
15474,1698877,85000,1489357,132,1.0,2004,,,8/25/2006 0:00,HL7607,HL760,7,,,Medium,Wheel Loader - 200.0 to 225.0 Horsepower,South Dakota,WL,Wheel Loader,,OROPS,None or Unspecified,,None or Unspecified,,,,,,,,2 Valve,,,,,None or Unspecified,None or Unspecified,,,,,,,,,,,,,Standard,Conventional
15474,1698883,100000,1245806,132,10.0,2005,,,12/13/2006 0:00,HL7607,HL760,7,,,Medium,Wheel Loader - 200.0 to 225.0 Horsepower,Louisiana,WL,Wheel Loader,,OROPS,None or Unspecified,,None or Unspecified,,,,,,,,2 Valve,,,,,None or Unspecified,None or Unspecified,,,,,,,,,,,,,Standard,Conventional
15474,1698892,25000,1259132,132,1.0,1998,,,11/20/2009 0:00,HL7607,HL760,7,,,Medium,Wheel Loader - 200.0 to 225.0 Horsepower,Arizona,WL,Wheel Loader,,OROPS,None or Unspecified,,None or Unspecified,,,,,,,,2 Valve,,,,,None or Unspecified,None or Unspecified,,,,,,,,,,,,,Standard,Conventional
15474,1698894,60000,1203822,132,1.0,2005,,,4/5/2007 0:00,HL7607,HL760,7,,,Medium,Wheel Loader - 200.0 to 225.0 Horsepower,Maryland,WL,Wheel Loader,,OROPS,None or Unspecified,,None or Unspecified,,,,,,,,2 Valve,,,,,None or Unspecified,None or Unspecified,,,,,,,,,,,,,Standard,Conventional
15474,1698898,70000,1438083,132,1.0,2005,,,2/20/2008 0:00,HL7607,HL760,7,,,Medium,Wheel Loader - 200.0 to 225.0 Horsepower,Florida,WL,Wheel Loader,,OROPS,None or Unspecified,,None or Unspecified,,,,,,,,2 Valve,,,,,None or Unspecified,None or Unspecified,,,,,,,,,,,,,Standard,Conventional
15474,1698901,54000,1195437,132,3.0,2006,,,1/27/2011 0:00,HL7607,HL760,7,,,Medium,Wheel Loader - 200.0 to 225.0 Horsepower,California,WL,Wheel Loader,,OROPS,None or Unspecified,,None or Unspecified,,,,,,,,2 Valve,,,,,None or Unspecified,None or Unspecified,,,,,,,,,,,,,Standard,Conventional
15474,2377819,25000,1782433,136,1.0,1000,0.0,,11/20/2009 0:00,HL7607,HL760,7,,,Medium,Wheel Loader - 200.0 to 225.0 Horsepower,Arizona,WL,Wheel Loader,,EROPS w AC,None or Unspecified,,None or Unspecified,,,,,,,,2 Valve,,,,,23.5,None or Unspecified,,,,,,,,,,,,,Standard,Conventional
15474,2377823,77500,1159351,136,1.0,2004,368.0,Low,5/28/2008 0:00,HL7607,HL760,7,,,Medium,Wheel Loader - 200.0 to 225.0 Horsepower,Florida,WL,Wheel Loader,,EROPS w AC,None or Unspecified,,None or Unspecified,,,,,,,,2 Valve,,,,,23.5,None or Unspecified,,,,,,,,,,,,,Standard,Conventional
15474,2377828,33000,1050398,136,1.0,2004,335.0,Low,8/11/2009 0:00,HL7607,HL760,7,,,Medium,Wheel Loader - 200.0 to 225.0 Horsepower,Utah,WL,Wheel Loader,,EROPS w AC,None or Unspecified,,Yes,,,,,,,,2 Valve,,,,,23.5,None or Unspecified,,,,,,,,,,,,,Standard,Conventional
15474,2377831,60000,1715128,136,,1000,0.0,,4/4/2007 0:00,HL7607,HL760,7,,,Medium,Wheel Loader - 200.0 to 225.0 Horsepower,Maryland,WL,Wheel Loader,,EROPS w AC,None or Unspecified,,None or Unspecified,,,,,,,,2 Valve,,,,,23.5,None or Unspecified,,,,,,,,,,,,,Standard,Conventional
15474,2377832,90000,1251755,136,1.0,2005,1485.0,Low,4/23/2008 0:00,HL7607,HL760,7,,,Medium,Wheel Loader - 200.0 to 225.0 Horsepower,Arizona,WL,Wheel Loader,,EROPS w AC,None or Unspecified,,None or Unspecified,,,,,,,,2 Valve,,,,,23.5,None or Unspecified,,,,,,,,,,,,,Standard,Conventional
15474,2377833,70000,1417330,136,1.0,2005,0.0,,2/19/2008 0:00,HL7607,HL760,7,,,Medium,Wheel Loader - 200.0 to 225.0 Horsepower,Florida,WL,Wheel Loader,,EROPS w AC,Yes,,None or Unspecified,,,,,,,,3 Valve,,,,,23.5,Manual,,,,,,,,,,,,,Standard,Conventional
15474,2377835,70000,1417330,136,1.0,2005,2114.0,Medium,2/9/2009 0:00,HL7607,HL760,7,,,Medium,Wheel Loader - 200.0 to 225.0 Horsepower,Florida,WL,Wheel Loader,,EROPS w AC,Yes,,None or Unspecified,,,,,,,,3 Valve,,,,,23.5,Manual,,,,,,,,,,,,,Standard,Conventional
15474,2377836,65000,1201377,136,1.0,2006,1791.0,Medium,5/8/2009 0:00,HL7607,HL760,7,,,Medium,Wheel Loader - 200.0 to 225.0 Horsepower,Utah,WL,Wheel Loader,,EROPS w AC,None or Unspecified,,None or Unspecified,,,,,,,,2 Valve,,,,,23.5,None or Unspecified,,,,,,,,,,,,,Standard,Conventional
15474,2676351,34000,1900756,149,2.0,2004,0.0,,8/19/2010 0:00,HL7607,HL760,7,,,Medium,Wheel Loader - 200.0 to 225.0 Horsepower,Florida,WL,Wheel Loader,,EROPS w AC,None or Unspecified,,None or Unspecified,,,,,,,,2 Valve,,,,,None or Unspecified,None or Unspecified,,,,,,,,,,,,,Standard,Conventional
15474,2676367,54000,1028255,149,1.0,2008,3186.0,Medium,10/27/2010 0:00,HL7607,HL760,7,,,Medium,Wheel Loader - 200.0 to 225.0 Horsepower,Florida,WL,Wheel Loader,,EROPS w AC,None or Unspecified,,None or Unspecified,,,,,,,,2 Valve,,,,,23.5,None or Unspecified,,,,,,,,,,,,,Standard,Conventional
15474,4338230,25000,1375585,172,1.0,1998,1581.0,Low,11/20/2009 0:00,HL7607,HL760,7,,,Medium,Wheel Loader - 200.0 to 225.0 Horsepower,Arizona,WL,Wheel Loader,,EROPS w AC,None or Unspecified,,None or Unspecified,,,,,,,,2 Valve,,,,,23.5,None or Unspecified,,,,,,,,,,,,,Standard,Conventional
15474,4338243,39000,2302256,172,1.0,2004,4129.0,Medium,10/17/2011 0:00,HL7607,HL760,7,,,Medium,Wheel Loader - 200.0 to 225.0 Horsepower,California,WL,Wheel Loader,,EROPS w AC,Yes,,Yes,,,,,,,,2 Valve,,,,,23.5,None or Unspecified,,,,,,,,,,,,,Standard,Conventional
15474,6294686,39000,1894162,149,1.0,2004,,,10/18/2011 0:00,HL7607,HL760,7,,,Medium,Wheel Loader - 200.0 to 225.0 Horsepower,California,WL,Wheel Loader,,EROPS w AC,None or Unspecified,,None or Unspecified,,,,,,,,2 Valve,,,,,None or Unspecified,Hydraulic,,,,,,,,,,,,,Standard,Conventional
