ModelID,SalesID,SalePrice,MachineID,datasource,auctioneerID,YearMade,MachineHoursCurrentMeter,UsageBand,saledate,fiModelDesc,fiBaseModel,fiSecondaryDesc,fiModelSeries,fiModelDescriptor,ProductSize,fiProductClassDesc,state,ProductGroup,ProductGroupDesc,Drive_System,Enclosure,Forks,Pad_Type,Ride_Control,Stick,Transmission,Turbocharged,Blade_Extension,Blade_Width,Enclosure_Type,Engine_Horsepower,Hydraulics,Pushblock,Ripper,Scarifier,Tip_Control,Tire_Size,Coupler,Coupler_System,Grouser_Tracks,Hydraulics_Flow,Track_Type,Undercarriage_Pad_Width,Stick_Length,Thumb,Pattern_Changer,Grouser_Type,Backhoe_Mounting,Blade_Type,Travel_Controls,Differential_Type,Steering_Controls
15485,1153565,25000,1063073,121,3.0,1998,10270.0,High,6/9/2004 0:00,HL7803,HL780,3,,,Medium,Wheel Loader - 275.0 to 350.0 Horsepower,Texas,WL,Wheel Loader,,EROPS,None or Unspecified,,None or Unspecified,,,,,,,,2 Valve,,,,,None or Unspecified,None or Unspecified,,,,,,,,,,,,,Standard,Conventional
15485,1185516,17000,1031961,121,3.0,1998,8579.0,Medium,11/13/2008 0:00,HL7803,HL780,3,,,Medium,Wheel Loader - 275.0 to 350.0 Horsepower,Michigan,WL,Wheel Loader,,EROPS w AC,None or Unspecified,,None or Unspecified,,,,,,,,2 Valve,,,,,29.5,None or Unspecified,,,,,,,,,,,,,Standard,Conventional
15485,1697735,45000,1513518,132,4.0,1998,,,11/2/2006 0:00,HL7803,HL780,3,,,Medium,Wheel Loader - 275.0 to 350.0 Horsepower,New Hampshire,WL,Wheel Loader,,EROPS,,,,,,,,,,,Auxiliary,,,,,,Manual,,,,,,,,,,,,,,
15485,1697948,47500,1191948,132,2.0,2002,,,3/23/2006 0:00,HL7803,HL780,3,,,Medium,Wheel Loader - 275.0 to 350.0 Horsepower,New Jersey,WL,Wheel Loader,,OROPS,None or Unspecified,,None or Unspecified,,,,,,,,2 Valve,,,,,None or Unspecified,None or Unspecified,,,,,,,,,,,,,Standard,Conventional
15485,1698788,65000,1265324,132,2.0,1999,,,5/15/2004 0:00,HL7803,HL780,3,,,Medium,Wheel Loader - 275.0 to 350.0 Horsepower,Connecticut,WL,Wheel Loader,,OROPS,None or Unspecified,,None or Unspecified,,,,,,,,2 Valve,,,,,None or Unspecified,None or Unspecified,,,,,,,,,,,,,Standard,Conventional
15485,1698790,57000,1239432,132,1.0,1999,,,2/17/2004 0:00,HL7803,HL780,3,,,Medium,Wheel Loader - 275.0 to 350.0 Horsepower,Florida,WL,Wheel Loader,,OROPS,None or Unspecified,,None or Unspecified,,,,,,,,2 Valve,,,,,None or Unspecified,None or Unspecified,,,,,,,,,,,,,Standard,Conventional
15485,1698793,66000,1090471,132,1.0,2002,,,5/16/2006 0:00,HL7803,HL780,3,,,Medium,Wheel Loader - 275.0 to 350.0 Horsepower,Pennsylvania,WL,Wheel Loader,,OROPS,None or Unspecified,,None or Unspecified,,,,,,,,2 Valve,,,,,None or Unspecified,None or Unspecified,,,,,,,,,,,,,Standard,Conventional
15485,2377469,29500,1388849,136,5.0,1999,0.0,,4/8/2010 0:00,HL7803,HL780,3,,,Medium,Wheel Loader - 275.0 to 350.0 Horsepower,Connecticut,WL,Wheel Loader,,OROPS,None or Unspecified,,None or Unspecified,,,,,,,,2 Valve,,,,,29.5,None or Unspecified,,,,,,,,,,,,,Standard,Conventional
15485,2377751,19500,1531067,136,1.0,1999,0.0,,4/2/2008 0:00,HL7803,HL780,3,,,Medium,Wheel Loader - 275.0 to 350.0 Horsepower,Maryland,WL,Wheel Loader,,EROPS w AC,None or Unspecified,,None or Unspecified,,,,,,,,2 Valve,,,,,29.5,None or Unspecified,,,,,,,,,,,,,Standard,Conventional
15485,2377752,13500,1531067,136,1.0,1000,0.0,,6/30/2010 0:00,HL7803,HL780,3,,,Medium,Wheel Loader - 275.0 to 350.0 Horsepower,North Carolina,WL,Wheel Loader,,EROPS w AC,None or Unspecified,,None or Unspecified,,,,,,,,2 Valve,,,,,29.5,None or Unspecified,,,,,,,,,,,,,Standard,Conventional
15485,2377754,17000,1031961,136,3.0,1998,8579.0,Medium,10/30/2008 0:00,HL7803,HL780,3,,,Medium,Wheel Loader - 275.0 to 350.0 Horsepower,California,WL,Wheel Loader,,EROPS w AC,None or Unspecified,,None or Unspecified,,,,,,,,2 Valve,,,,,29.5,None or Unspecified,,,,,,,,,,,,,Standard,Conventional
15485,2377756,37000,1309605,136,5.0,1998,0.0,,11/13/2009 0:00,HL7803,HL780,3,,,Medium,Wheel Loader - 275.0 to 350.0 Horsepower,Connecticut,WL,Wheel Loader,,EROPS w AC,None or Unspecified,,None or Unspecified,,,,,,,,2 Valve,,,,,29.5,None or Unspecified,,,,,,,,,,,,,Standard,Conventional
15485,2377757,49500,1309605,136,5.0,1998,0.0,,6/16/2007 0:00,HL7803,HL780,3,,,Medium,Wheel Loader - 275.0 to 350.0 Horsepower,New Hampshire,WL,Wheel Loader,,EROPS w AC,None or Unspecified,,None or Unspecified,,,,,,,,2 Valve,,,,,29.5,None or Unspecified,,,,,,,,,,,,,Standard,Conventional
15485,2377758,52000,1309605,136,2.0,1000,0.0,,3/22/2007 0:00,HL7803,HL780,3,,,Medium,Wheel Loader - 275.0 to 350.0 Horsepower,New Jersey,WL,Wheel Loader,,EROPS w AC,None or Unspecified,,None or Unspecified,,,,,,,,2 Valve,,,,,29.5,None or Unspecified,,,,,,,,,,,,,Standard,Conventional
15485,2377759,22500,1686926,136,1.0,1000,0.0,,9/16/2009 0:00,HL7803,HL780,3,,,Medium,Wheel Loader - 275.0 to 350.0 Horsepower,Washington,WL,Wheel Loader,,EROPS,None or Unspecified,,None or Unspecified,,,,,,,,2 Valve,,,,,None or Unspecified,None or Unspecified,,,,,,,,,,,,,Standard,Conventional
15485,4338177,32500,2302443,172,1.0,1998,,,9/20/2011 0:00,HL7803,HL780,3,,,Medium,Wheel Loader - 275.0 to 350.0 Horsepower,Washington,WL,Wheel Loader,,EROPS,None or Unspecified,,None or Unspecified,,,,,,,,2 Valve,,,,,None or Unspecified,None or Unspecified,,,,,,,,,,,,,Standard,Conventional
15485,4338178,22500,1461771,172,1.0,2002,10618.0,High,9/16/2009 0:00,HL7803,HL780,3,,,Medium,Wheel Loader - 275.0 to 350.0 Horsepower,Washington,WL,Wheel Loader,,EROPS,None or Unspecified,,None or Unspecified,,,,,,,,2 Valve,,,,,None or Unspecified,None or Unspecified,,,,,,,,,,,,,Standard,Conventional
15485,4338179,23000,1488129,172,1.0,1999,10612.0,Medium,6/17/2009 0:00,HL7803,HL780,3,,,Medium,Wheel Loader - 275.0 to 350.0 Horsepower,Washington,WL,Wheel Loader,,EROPS,None or Unspecified,,None or Unspecified,,,,,,,,2 Valve,,,,,None or Unspecified,None or Unspecified,,,,,,,,,,,,,Standard,Conventional
15485,4338195,13500,1109054,172,1.0,1998,12730.0,Medium,6/30/2010 0:00,HL7803,HL780,3,,,Medium,Wheel Loader - 275.0 to 350.0 Horsepower,North Carolina,WL,Wheel Loader,,EROPS w AC,None or Unspecified,,None or Unspecified,,,,,,,,2 Valve,,,,,29.5,None or Unspecified,,,,,,,,,,,,,Standard,Conventional
15485,6294663,29000,1818533,149,1.0,1998,,,9/21/2011 0:00,HL7803,HL780,3,,,Medium,Wheel Loader - 275.0 to 350.0 Horsepower,Washington,WL,Wheel Loader,,EROPS,None or Unspecified,,None or Unspecified,,,,,,,,2 Valve,,,,,None or Unspecified,None or Unspecified,,,,,,,,,,,,,Standard,Conventional
