ModelID,SalesID,SalePrice,MachineID,datasource,auctioneerID,YearMade,MachineHoursCurrentMeter,UsageBand,saledate,fiModelDesc,fiBaseModel,fiSecondaryDesc,fiModelSeries,fiModelDescriptor,ProductSize,fiProductClassDesc,state,ProductGroup,ProductGroupDesc,Drive_System,Enclosure,Forks,Pad_Type,Ride_Control,Stick,Transmission,Turbocharged,Blade_Extension,Blade_Width,Enclosure_Type,Engine_Horsepower,Hydraulics,Pushblock,Ripper,Scarifier,Tip_Control,Tire_Size,Coupler,Coupler_System,Grouser_Tracks,Hydraulics_Flow,Track_Type,Undercarriage_Pad_Width,Stick_Length,Thumb,Pattern_Changer,Grouser_Type,Backhoe_Mounting,Blade_Type,Travel_Controls,Differential_Type,Steering_Controls
15573,1209845,11000,1068023,121,3.0,1000,,,12/9/2010 0:00,R290LC,R290,,,LC,Small,"Hydraulic Excavator, Track - 16.0 to 19.0 Metric Tons",Kansas,TEX,Track Excavators,,EROPS w AC,,,,,,,,,,,Standard,,,,,,None or Unspecified,,,,Steel,32 inch,None or Unspecified,None or Unspecified,None or Unspecified,Double,,,,,
15573,1697938,66000,1101970,132,6.0,1992,,,4/24/1997 0:00,R290LC,R290,,,LC,Small,"Hydraulic Excavator, Track - 16.0 to 19.0 Metric Tons",Texas,TEX,Track Excavators,,EROPS,,,,,,,,,,,Standard,,,,,,None or Unspecified,,,,Steel,32 inch,None or Unspecified,None or Unspecified,None or Unspecified,Double,,,,,
15573,1697950,38000,1499534,132,4.0,1994,,,2/5/1998 0:00,R290LC,R290,,,LC,Small,"Hydraulic Excavator, Track - 16.0 to 19.0 Metric Tons",Florida,TEX,Track Excavators,,EROPS,,,,,,,,,,,Standard,,,,,,None or Unspecified,,,,Steel,None or Unspecified,None or Unspecified,None or Unspecified,None or Unspecified,Double,,,,,
15573,1697956,23000,1180509,132,2.0,1994,,,2/9/2007 0:00,R290LC,R290,,,LC,Small,"Hydraulic Excavator, Track - 16.0 to 19.0 Metric Tons",Florida,TEX,Track Excavators,,EROPS w AC,,,,,,,,,,,Auxiliary,,,,,,None or Unspecified,,,,Steel,None or Unspecified,None or Unspecified,None or Unspecified,None or Unspecified,Double,,,,,
15573,1697973,44000,1317162,132,2.0,1998,,,9/28/2000 0:00,R290LC,R290,,,LC,Small,"Hydraulic Excavator, Track - 16.0 to 19.0 Metric Tons",Colorado,TEX,Track Excavators,,EROPS,,,,,,,,,,,Standard,,,,,,None or Unspecified,,,,Steel,None or Unspecified,None or Unspecified,None or Unspecified,None or Unspecified,Double,,,,,
15573,1698021,29000,1394324,132,2.0,1996,,,11/30/2001 0:00,R290LC,R290,,,LC,Small,"Hydraulic Excavator, Track - 16.0 to 19.0 Metric Tons",New York,TEX,Track Excavators,,EROPS,,,,,,,,,,,Standard,,,,,,None or Unspecified,,,,Steel,None or Unspecified,None or Unspecified,None or Unspecified,None or Unspecified,Double,,,,,
15573,1698035,22000,1406153,132,1.0,1993,,,3/28/2001 0:00,R290LC,R290,,,LC,Small,"Hydraulic Excavator, Track - 16.0 to 19.0 Metric Tons",Washington,TEX,Track Excavators,,EROPS w AC,,,,,,,,,,,Standard,,,,,,Manual,,,,Steel,None or Unspecified,None or Unspecified,Hydraulic,None or Unspecified,Double,,,,,
15573,1698036,20000,1406153,132,1.0,1993,,,3/25/2003 0:00,R290LC,R290,,,LC,Small,"Hydraulic Excavator, Track - 16.0 to 19.0 Metric Tons",Washington,TEX,Track Excavators,,EROPS w AC,,,,,,,,,,,Standard,,,,,,Manual,,,,Steel,None or Unspecified,None or Unspecified,Hydraulic,None or Unspecified,Double,,,,,
15573,1698038,14500,1091915,132,1.0,1000,,,12/13/2005 0:00,R290LC,R290,,,LC,Small,"Hydraulic Excavator, Track - 16.0 to 19.0 Metric Tons",California,TEX,Track Excavators,,EROPS,,,,,,,,,,,Auxiliary,,,,,,None or Unspecified,,,,Steel,None or Unspecified,None or Unspecified,Manual,None or Unspecified,Double,,,,,
15573,1698042,40000,1432911,132,1.0,1993,,,8/31/1999 0:00,R290LC,R290,,,LC,Small,"Hydraulic Excavator, Track - 16.0 to 19.0 Metric Tons",California,TEX,Track Excavators,,EROPS,,,,,,,,,,,Standard,,,,,,None or Unspecified,,,,Steel,None or Unspecified,None or Unspecified,None or Unspecified,None or Unspecified,Double,,,,,
15573,1698045,36000,1423261,132,1.0,1993,,,6/11/1999 0:00,R290LC,R290,,,LC,Small,"Hydraulic Excavator, Track - 16.0 to 19.0 Metric Tons",California,TEX,Track Excavators,,EROPS,,,,,,,,,,,Standard,,,,,,Manual,,,,Steel,None or Unspecified,None or Unspecified,None or Unspecified,None or Unspecified,Double,,,,,
15573,1698049,50000,1020245,132,6.0,1994,,,4/23/1996 0:00,R290LC,R290,,,LC,Small,"Hydraulic Excavator, Track - 16.0 to 19.0 Metric Tons",Kentucky,TEX,Track Excavators,,EROPS w AC,,,,,,,,,,,Standard,,,,,,Hydraulic,,,,Steel,32 inch,"10' 6""",None or Unspecified,None or Unspecified,Triple,,,,,
15573,1698050,13500,1020245,132,15.0,1993,,,2/12/2004 0:00,R290LC,R290,,,LC,Small,"Hydraulic Excavator, Track - 16.0 to 19.0 Metric Tons",Kentucky,TEX,Track Excavators,,EROPS w AC,,,,,,,,,,,Standard,,,,,,Hydraulic,,,,Steel,32 inch,"10' 6""",None or Unspecified,None or Unspecified,Triple,,,,,
15573,1698051,19000,1366836,132,1.0,1995,,,10/18/2001 0:00,R290LC,R290,,,LC,Small,"Hydraulic Excavator, Track - 16.0 to 19.0 Metric Tons",Tennessee,TEX,Track Excavators,,EROPS w AC,,,,,,,,,,,Standard,,,,,,None or Unspecified,,,,Steel,None or Unspecified,"10' 2""",None or Unspecified,None or Unspecified,Double,,,,,
15573,1698052,14500,1366836,132,13.0,1995,,,6/8/2002 0:00,R290LC,R290,,,LC,Small,"Hydraulic Excavator, Track - 16.0 to 19.0 Metric Tons",Tennessee,TEX,Track Excavators,,EROPS w AC,,,,,,,,,,,Standard,,,,,,None or Unspecified,,,,Steel,None or Unspecified,"10' 2""",None or Unspecified,None or Unspecified,Double,,,,,
15573,1698054,30000,1366836,132,1.0,1995,,,7/13/2000 0:00,R290LC,R290,,,LC,Small,"Hydraulic Excavator, Track - 16.0 to 19.0 Metric Tons",North Carolina,TEX,Track Excavators,,EROPS w AC,,,,,,,,,,,Standard,,,,,,None or Unspecified,,,,Steel,None or Unspecified,"10' 2""",None or Unspecified,None or Unspecified,Double,,,,,
15573,1698067,18000,1167877,132,1.0,1993,,,6/8/2000 0:00,R290LC,R290,,,LC,Small,"Hydraulic Excavator, Track - 16.0 to 19.0 Metric Tons",Maryland,TEX,Track Excavators,,EROPS w AC,,,,,,,,,,,Standard,,,,,,None or Unspecified,,,,Steel,None or Unspecified,None or Unspecified,Manual,None or Unspecified,Double,,,,,
15573,1698070,63000,1301672,132,1.0,1994,,,3/18/1997 0:00,R290LC,R290,,,LC,Small,"Hydraulic Excavator, Track - 16.0 to 19.0 Metric Tons",Texas,TEX,Track Excavators,,EROPS,,,,,,,,,,,Standard,,,,,,None or Unspecified,,,,Steel,None or Unspecified,None or Unspecified,None or Unspecified,None or Unspecified,Double,,,,,
15573,1698074,19500,1471122,132,1.0,1994,,,12/11/2002 0:00,R290LC,R290,,,LC,Small,"Hydraulic Excavator, Track - 16.0 to 19.0 Metric Tons",Texas,TEX,Track Excavators,,EROPS w AC,,,,,,,,,,,Standard,,,,,,None or Unspecified,,,,Steel,32 inch,None or Unspecified,None or Unspecified,None or Unspecified,Triple,,,,,
15573,1698075,29000,1471122,132,1.0,1994,,,2/28/2001 0:00,R290LC,R290,,,LC,Small,"Hydraulic Excavator, Track - 16.0 to 19.0 Metric Tons",Texas,TEX,Track Excavators,,EROPS w AC,,,,,,,,,,,Standard,,,,,,None or Unspecified,,,,Steel,32 inch,None or Unspecified,None or Unspecified,None or Unspecified,Triple,,,,,
15573,1698080,22000,1434041,132,1.0,1000,,,3/30/2005 0:00,R290LC,R290,,,LC,Small,"Hydraulic Excavator, Track - 16.0 to 19.0 Metric Tons",Washington,TEX,Track Excavators,,EROPS,,,,,,,,,,,Auxiliary,,,,,,Manual,,,,Steel,None or Unspecified,None or Unspecified,None or Unspecified,None or Unspecified,Triple,,,,,
15573,1698084,40000,1122057,132,1.0,1994,,,8/31/1999 0:00,R290LC,R290,,,LC,Small,"Hydraulic Excavator, Track - 16.0 to 19.0 Metric Tons",California,TEX,Track Excavators,,EROPS,,,,,,,,,,,Standard,,,,,,None or Unspecified,,,,Steel,None or Unspecified,None or Unspecified,None or Unspecified,None or Unspecified,Double,,,,,
15573,1698090,23000,1225062,132,2.0,1000,,,2/4/2007 0:00,R290LC,R290,,,LC,Small,"Hydraulic Excavator, Track - 16.0 to 19.0 Metric Tons",Florida,TEX,Track Excavators,,EROPS,,,,,,,,,,,Auxiliary,,,,,,None or Unspecified,,,,Steel,32 inch,None or Unspecified,None or Unspecified,None or Unspecified,Double,,,,,
15573,1698092,17500,1367433,132,1.0,1994,,,6/7/2005 0:00,R290LC,R290,,,LC,Small,"Hydraulic Excavator, Track - 16.0 to 19.0 Metric Tons",California,TEX,Track Excavators,,EROPS w AC,,,,,,,,,,,Standard,,,,,,None or Unspecified,,,,Steel,None or Unspecified,None or Unspecified,None or Unspecified,None or Unspecified,Double,,,,,
15573,1698093,24000,1309316,132,1.0,1994,,,9/17/2003 0:00,R290LC,R290,,,LC,Small,"Hydraulic Excavator, Track - 16.0 to 19.0 Metric Tons",Texas,TEX,Track Excavators,,EROPS,,,,,,,,,,,Auxiliary,,,,,,None or Unspecified,,,,Steel,None or Unspecified,"12' 4""",None or Unspecified,None or Unspecified,Double,,,,,
15573,1698095,19000,1311590,132,1.0,1994,,,11/30/2000 0:00,R290LC,R290,,,LC,Small,"Hydraulic Excavator, Track - 16.0 to 19.0 Metric Tons",Georgia,TEX,Track Excavators,,EROPS,,,,,,,,,,,Standard,,,,,,None or Unspecified,,,,Steel,None or Unspecified,None or Unspecified,None or Unspecified,None or Unspecified,Double,,,,,
15573,1698096,11500,1097212,132,1.0,1994,,,6/18/2003 0:00,R290LC,R290,,,LC,Small,"Hydraulic Excavator, Track - 16.0 to 19.0 Metric Tons",Georgia,TEX,Track Excavators,,EROPS,,,,,,,,,,,Standard,,,,,,None or Unspecified,,,,Steel,None or Unspecified,None or Unspecified,None or Unspecified,None or Unspecified,Double,,,,,
15573,1698101,17000,1473952,132,1.0,1994,,,3/13/2001 0:00,R290LC,R290,,,LC,Small,"Hydraulic Excavator, Track - 16.0 to 19.0 Metric Tons",California,TEX,Track Excavators,,EROPS,,,,,,,,,,,Standard,,,,,,Manual,,,,Steel,None or Unspecified,None or Unspecified,None or Unspecified,None or Unspecified,Double,,,,,
15573,1698294,14500,1120646,132,1.0,1993,,,12/13/2005 0:00,R290LC,R290,,,LC,Small,"Hydraulic Excavator, Track - 16.0 to 19.0 Metric Tons",California,TEX,Track Excavators,,EROPS,,,,,,,,,,,Auxiliary,,,,,,None or Unspecified,,,,Steel,None or Unspecified,None or Unspecified,None or Unspecified,None or Unspecified,Double,,,,,
15573,1698348,22500,1116274,132,1.0,1000,,,3/30/2005 0:00,R290LC,R290,,,LC,Small,"Hydraulic Excavator, Track - 16.0 to 19.0 Metric Tons",Washington,TEX,Track Excavators,,EROPS,,,,,,,,,,,Auxiliary,,,,,,Manual,,,,Steel,None or Unspecified,None or Unspecified,None or Unspecified,None or Unspecified,Double,,,,,
15573,1698380,15000,1333804,132,1.0,1000,,,12/5/2001 0:00,R290LC,R290,,,LC,Small,"Hydraulic Excavator, Track - 16.0 to 19.0 Metric Tons",Washington,TEX,Track Excavators,,EROPS,,,,,,,,,,,Standard,,,,,,None or Unspecified,,,,Steel,None or Unspecified,None or Unspecified,None or Unspecified,None or Unspecified,Double,,,,,
15573,1698389,34000,1486233,132,1.0,1997,,,10/6/2004 0:00,R290LC,R290,,,LC,Small,"Hydraulic Excavator, Track - 16.0 to 19.0 Metric Tons",Maryland,TEX,Track Excavators,,EROPS,,,,,,,,,,,Auxiliary,,,,,,None or Unspecified,,,,Steel,None or Unspecified,None or Unspecified,None or Unspecified,None or Unspecified,Double,,,,,
15573,1698402,36000,1428462,132,1.0,1998,,,10/6/2004 0:00,R290LC,R290,,,LC,Small,"Hydraulic Excavator, Track - 16.0 to 19.0 Metric Tons",Maryland,TEX,Track Excavators,,EROPS w AC,,,,,,,,,,,Auxiliary,,,,,,None or Unspecified,,,,Steel,None or Unspecified,None or Unspecified,None or Unspecified,None or Unspecified,Double,,,,,
15573,1698652,18000,1259547,132,2.0,1000,,,6/29/2001 0:00,R290LC,R290,,,LC,Small,"Hydraulic Excavator, Track - 16.0 to 19.0 Metric Tons",New Jersey,TEX,Track Excavators,,EROPS,,,,,,,,,,,Standard,,,,,,None or Unspecified,,,,Steel,None or Unspecified,None or Unspecified,None or Unspecified,None or Unspecified,Double,,,,,
15573,1698654,30000,1371029,132,9.0,1000,,,2/15/2000 0:00,R290LC,R290,,,LC,Small,"Hydraulic Excavator, Track - 16.0 to 19.0 Metric Tons",Florida,TEX,Track Excavators,,EROPS,,,,,,,,,,,Standard,,,,,,None or Unspecified,,,,Steel,32 inch,None or Unspecified,None or Unspecified,None or Unspecified,Triple,,,,,
15573,1699212,25000,1327453,132,1.0,1994,,,2/29/2000 0:00,R290LC,R290,,,LC,Small,"Hydraulic Excavator, Track - 16.0 to 19.0 Metric Tons",Arizona,TEX,Track Excavators,,EROPS,,,,,,,,,,,Standard,,,,,,None or Unspecified,,,,Steel,None or Unspecified,"10' 6""",None or Unspecified,None or Unspecified,Double,,,,,
15573,1699238,25000,1256733,132,1.0,1993,,,6/24/2002 0:00,R290LC,R290,,,LC,Small,"Hydraulic Excavator, Track - 16.0 to 19.0 Metric Tons",Missouri,TEX,Track Excavators,,EROPS,,,,,,,,,,,Auxiliary,,,,,,None or Unspecified,,,,Steel,None or Unspecified,None or Unspecified,None or Unspecified,None or Unspecified,Double,,,,,
