SalesID,2377509
SalePrice,10000
MachineID,1163106
datasource,136
auctioneerID,
YearMade,1993
MachineHoursCurrentMeter,0.0
UsageBand,
saledate,6/17/2009 0:00
fiModelDesc,ROBEX 450LC
fiBaseModel,ROBEX 450
fiSecondaryDesc,LC
fiModelSeries,
fiModelDescriptor,
ProductSize,Large / Medium
fiProductClassDesc,"Hydraulic Excavator, Track - 28.0 to 33.0 Metric Tons"
state,Washington
ProductGroup,TEX
ProductGroupDesc,Track Excavators
Drive_System,
Enclosure,EROPS
Forks,
Pad_Type,
Ride_Control,
Stick,
Transmission,
Turbocharged,
Blade_Extension,
Blade_Width,
Enclosure_Type,
Engine_Horsepower,
Hydraulics,Standard
Pushblock,
Ripper,
Scarifier,
Tip_Control,
Tire_Size,
Coupler,None or Unspecified
Coupler_System,
Grouser_Tracks,
Hydraulics_Flow,
Track_Type,Steel
Undercarriage_Pad_Width,None or Unspecified
Stick_Length,None or Unspecified
Thumb,None or Unspecified
Pattern_Changer,None or Unspecified
Grouser_Type,Double
Backhoe_Mounting,
Blade_Type,
Travel_Controls,
Differential_Type,
Steering_Controls,
