SalesID,2385032
SalePrice,12000
MachineID,1661530
datasource,136
auctioneerID,
YearMade,2004
MachineHoursCurrentMeter,0.0
UsageBand,
saledate,3/19/2009 0:00
fiModelDesc,BL370B
fiBaseModel,BL370
fiSecondaryDesc,B
fiModelSeries,
fiModelDescriptor,
ProductSize,
fiProductClassDesc,Backhoe Loader - 0.0 to 14.0 Ft Standard Digging Depth
state,New Jersey
ProductGroup,BL
ProductGroupDesc,Backhoe Loaders
Drive_System,Two Wheel Drive
Enclosure,OROPS
Forks,None or Unspecified
Pad_Type,None or Unspecified
Ride_Control,No
Stick,Standard
Transmission,Standard
Turbocharged,None or Unspecified
Blade_Extension,
Blade_Width,
Enclosure_Type,
Engine_Horsepower,
Hydraulics,
Pushblock,
Ripper,
Scarifier,
Tip_Control,
Tire_Size,
Coupler,
Coupler_System,
Grouser_Tracks,
Hydraulics_Flow,
Track_Type,
Undercarriage_Pad_Width,
Stick_Length,
Thumb,
Pattern_Changer,
Grouser_Type,
Backhoe_Mounting,
Blade_Type,
Travel_Controls,
Differential_Type,
Steering_Controls,
