ModelID,SalesID,SalePrice,MachineID,datasource,auctioneerID,YearMade,MachineHoursCurrentMeter,UsageBand,saledate,fiModelDesc,fiBaseModel,fiSecondaryDesc,fiModelSeries,fiModelDescriptor,ProductSize,fiProductClassDesc,state,ProductGroup,ProductGroupDesc,Drive_System,Enclosure,Forks,Pad_Type,Ride_Control,Stick,Transmission,Turbocharged,Blade_Extension,Blade_Width,Enclosure_Type,Engine_Horsepower,Hydraulics,Pushblock,Ripper,Scarifier,Tip_Control,Tire_Size,Coupler,Coupler_System,Grouser_Tracks,Hydraulics_Flow,Track_Type,Undercarriage_Pad_Width,Stick_Length,Thumb,Pattern_Changer,Grouser_Type,Backhoe_Mounting,Blade_Type,Travel_Controls,Differential_Type,Steering_Controls
15864,1706865,9000,1164045,132,1.0,1985,,,11/14/1995 0:00,1700B,1700,B,,,,Backhoe Loader - 16.0 + Ft Standard Digging Depth,Florida,BL,Backhoe Loaders,Two Wheel Drive,OROPS,None or Unspecified,None or Unspecified,No,Standard,Standard,None or Unspecified,,,,,,,,,,,,,,,,,,,,,,,,,
15864,1706866,9000,1161626,132,1.0,1985,,,11/14/1995 0:00,1700B,1700,B,,,,Backhoe Loader - 16.0 + Ft Standard Digging Depth,Florida,BL,Backhoe Loaders,Two Wheel Drive,OROPS,None or Unspecified,None or Unspecified,No,Standard,Standard,None or Unspecified,,,,,,,,,,,,,,,,,,,,,,,,,
15864,1707178,11500,1123736,132,1.0,1000,,,3/28/2000 0:00,1700B,1700,B,,,,Backhoe Loader - 16.0 + Ft Standard Digging Depth,California,BL,Backhoe Loaders,Four Wheel Drive,OROPS,None or Unspecified,None or Unspecified,No,Standard,Standard,None or Unspecified,,,,,,,,,,,,,,,,,,,,,,,,,
15864,1707211,17500,1444490,132,14.0,1990,,,3/30/1996 0:00,1700B,1700,B,,,,Backhoe Loader - 16.0 + Ft Standard Digging Depth,Illinois,BL,Backhoe Loaders,Four Wheel Drive,OROPS,None or Unspecified,None or Unspecified,No,Extended,Standard,None or Unspecified,,,,,,,,,,,,,,,,,,,,,,,,,
15864,1707212,20000,1196262,132,99.0,1988,,,6/18/1994 0:00,1700B,1700,B,,,,Backhoe Loader - 16.0 + Ft Standard Digging Depth,Washington,BL,Backhoe Loaders,Four Wheel Drive,OROPS,None or Unspecified,None or Unspecified,No,Standard,Powershuttle,None or Unspecified,,,,,,,,,,,,,,,,,,,,,,,,,
15864,1707213,17500,1144086,132,21.0,1990,,,12/5/1996 0:00,1700B,1700,B,,,,Backhoe Loader - 16.0 + Ft Standard Digging Depth,Maine,BL,Backhoe Loaders,Two Wheel Drive,OROPS,None or Unspecified,None or Unspecified,No,Standard,Standard,None or Unspecified,,,,,,,,,,,,,,,,,,,,,,,,,
15864,1707215,10000,1488021,132,1.0,1000,,,6/24/2008 0:00,1700B,1700,B,,,,Backhoe Loader - 16.0 + Ft Standard Digging Depth,North Carolina,BL,Backhoe Loaders,Two Wheel Drive,EROPS,None or Unspecified,None or Unspecified,No,Standard,Standard,None or Unspecified,,,,,,,,,,,,,,,,,,,,,,,,,
15864,1707219,11500,1284209,132,99.0,1990,,,5/18/1995 0:00,1700B,1700,B,,,,Backhoe Loader - 16.0 + Ft Standard Digging Depth,Maine,BL,Backhoe Loaders,Two Wheel Drive,EROPS,None or Unspecified,None or Unspecified,No,Standard,Standard,None or Unspecified,,,,,,,,,,,,,,,,,,,,,,,,,
15864,1707220,10000,1262249,132,10.0,1987,,,4/18/1996 0:00,1700B,1700,B,,,,Backhoe Loader - 16.0 + Ft Standard Digging Depth,Louisiana,BL,Backhoe Loaders,Two Wheel Drive,OROPS,None or Unspecified,None or Unspecified,No,Extended,Standard,None or Unspecified,,,,,,,,,,,,,,,,,,,,,,,,,
15864,1707222,13000,1505496,132,1.0,1000,,,3/15/1994 0:00,1700B,1700,B,,,,Backhoe Loader - 16.0 + Ft Standard Digging Depth,Georgia,BL,Backhoe Loaders,Two Wheel Drive,OROPS,None or Unspecified,None or Unspecified,No,Standard,Standard,None or Unspecified,,,,,,,,,,,,,,,,,,,,,,,,,
15864,1707224,10500,1407750,132,25.0,1000,,,5/1/1999 0:00,1700B,1700,B,,,,Backhoe Loader - 16.0 + Ft Standard Digging Depth,California,BL,Backhoe Loaders,Two Wheel Drive,OROPS,None or Unspecified,None or Unspecified,No,Extended,Standard,None or Unspecified,,,,,,,,,,,,,,,,,,,,,,,,,
15864,1707225,7500,1362506,132,1.0,1000,,,3/7/2002 0:00,1700B,1700,B,,,,Backhoe Loader - 16.0 + Ft Standard Digging Depth,Missouri,BL,Backhoe Loaders,Two Wheel Drive,EROPS,None or Unspecified,None or Unspecified,No,Standard,Standard,None or Unspecified,,,,,,,,,,,,,,,,,,,,,,,,,
15864,1707227,11500,1285698,132,1.0,1987,,,6/5/1996 0:00,1700B,1700,B,,,,Backhoe Loader - 16.0 + Ft Standard Digging Depth,Texas,BL,Backhoe Loaders,Four Wheel Drive,OROPS,None or Unspecified,None or Unspecified,No,Standard,Standard,None or Unspecified,,,,,,,,,,,,,,,,,,,,,,,,,
15864,1707228,13000,1321995,132,1.0,1986,,,12/14/1995 0:00,1700B,1700,B,,,,Backhoe Loader - 16.0 + Ft Standard Digging Depth,Arizona,BL,Backhoe Loaders,Four Wheel Drive,EROPS,None or Unspecified,None or Unspecified,No,Extended,Standard,None or Unspecified,,,,,,,,,,,,,,,,,,,,,,,,,
15864,1707229,16000,1157040,132,1.0,1988,,,12/15/1995 0:00,1700B,1700,B,,,,Backhoe Loader - 16.0 + Ft Standard Digging Depth,California,BL,Backhoe Loaders,Four Wheel Drive,EROPS,None or Unspecified,None or Unspecified,No,Extended,Standard,None or Unspecified,,,,,,,,,,,,,,,,,,,,,,,,,
15864,1707230,12000,1502219,132,1.0,1986,,,10/3/1995 0:00,1700B,1700,B,,,,Backhoe Loader - 16.0 + Ft Standard Digging Depth,Texas,BL,Backhoe Loaders,Four Wheel Drive,EROPS,None or Unspecified,None or Unspecified,No,Standard,Standard,None or Unspecified,,,,,,,,,,,,,,,,,,,,,,,,,
15864,1707231,19000,1450872,132,1.0,1988,,,6/16/1994 0:00,1700B,1700,B,,,,Backhoe Loader - 16.0 + Ft Standard Digging Depth,Washington,BL,Backhoe Loaders,Four Wheel Drive,EROPS,None or Unspecified,None or Unspecified,No,Extended,Standard,None or Unspecified,,,,,,,,,,,,,,,,,,,,,,,,,
15864,1707232,20000,1457920,132,1.0,1988,,,5/24/1994 0:00,1700B,1700,B,,,,Backhoe Loader - 16.0 + Ft Standard Digging Depth,California,BL,Backhoe Loaders,Four Wheel Drive,EROPS,None or Unspecified,None or Unspecified,No,Extended,Standard,None or Unspecified,,,,,,,,,,,,,,,,,,,,,,,,,
15864,1707233,18000,1159887,132,13.0,1988,,,11/23/1996 0:00,1700B,1700,B,,,,Backhoe Loader - 16.0 + Ft Standard Digging Depth,Tennessee,BL,Backhoe Loaders,Four Wheel Drive,EROPS,None or Unspecified,None or Unspecified,No,Standard,Standard,None or Unspecified,,,,,,,,,,,,,,,,,,,,,,,,,
15864,1707234,20000,1079447,132,1.0,1992,,,8/8/1996 0:00,1700B,1700,B,,,,Backhoe Loader - 16.0 + Ft Standard Digging Depth,California,BL,Backhoe Loaders,Four Wheel Drive,OROPS,None or Unspecified,None or Unspecified,No,Extended,Standard,None or Unspecified,,,,,,,,,,,,,,,,,,,,,,,,,
15864,1707306,16000,1463491,132,5.0,1000,,,6/15/2005 0:00,1700B,1700,B,,,,Backhoe Loader - 16.0 + Ft Standard Digging Depth,Connecticut,BL,Backhoe Loaders,Four Wheel Drive,EROPS,None or Unspecified,None or Unspecified,No,Standard,Standard,None or Unspecified,,,,,,,,,,,,,,,,,,,,,,,,,
15864,1707542,9750,1255708,132,2.0,1000,,,6/17/1995 0:00,1700B,1700,B,,,,Backhoe Loader - 16.0 + Ft Standard Digging Depth,New Jersey,BL,Backhoe Loaders,Two Wheel Drive,EROPS,None or Unspecified,None or Unspecified,No,Standard,Standard,None or Unspecified,,,,,,,,,,,,,,,,,,,,,,,,,
15864,1707571,7500,1116530,132,18.0,1985,,,9/24/1994 0:00,1700B,1700,B,,,,Backhoe Loader - 16.0 + Ft Standard Digging Depth,New York,BL,Backhoe Loaders,Two Wheel Drive,EROPS,None or Unspecified,None or Unspecified,No,Standard,Standard,None or Unspecified,,,,,,,,,,,,,,,,,,,,,,,,,
15864,1707575,14500,1472488,132,6.0,1985,,,10/20/1998 0:00,1700B,1700,B,,,,Backhoe Loader - 16.0 + Ft Standard Digging Depth,Maine,BL,Backhoe Loaders,Two Wheel Drive,EROPS,None or Unspecified,None or Unspecified,No,Standard,Standard,None or Unspecified,,,,,,,,,,,,,,,,,,,,,,,,,
15864,1707595,10750,1152379,132,18.0,1000,,,9/16/2000 0:00,1700B,1700,B,,,,Backhoe Loader - 16.0 + Ft Standard Digging Depth,New York,BL,Backhoe Loaders,Two Wheel Drive,EROPS,None or Unspecified,None or Unspecified,No,Standard,Powershuttle,None or Unspecified,,,,,,,,,,,,,,,,,,,,,,,,,
15864,1707609,14500,1429237,132,15.0,1985,,,5/1/2008 0:00,1700B,1700,B,,,,Backhoe Loader - 16.0 + Ft Standard Digging Depth,New York,BL,Backhoe Loaders,Four Wheel Drive,EROPS,None or Unspecified,None or Unspecified,No,Standard,Standard,None or Unspecified,,,,,,,,,,,,,,,,,,,,,,,,,
15864,1707644,13000,1398143,132,6.0,1986,,,6/8/1995 0:00,1700B,1700,B,,,,Backhoe Loader - 16.0 + Ft Standard Digging Depth,Texas,BL,Backhoe Loaders,Two Wheel Drive,OROPS,None or Unspecified,None or Unspecified,No,Extended,Standard,None or Unspecified,,,,,,,,,,,,,,,,,,,,,,,,,
15864,1707691,13000,1428452,132,4.0,1986,,,2/8/1996 0:00,1700B,1700,B,,,,Backhoe Loader - 16.0 + Ft Standard Digging Depth,Florida,BL,Backhoe Loaders,Two Wheel Drive,OROPS,None or Unspecified,None or Unspecified,No,Standard,Standard,None or Unspecified,,,,,,,,,,,,,,,,,,,,,,,,,
15864,1707692,13500,1107930,132,4.0,1986,,,2/8/1996 0:00,1700B,1700,B,,,,Backhoe Loader - 16.0 + Ft Standard Digging Depth,Florida,BL,Backhoe Loaders,Two Wheel Drive,OROPS,None or Unspecified,None or Unspecified,No,Standard,Standard,None or Unspecified,,,,,,,,,,,,,,,,,,,,,,,,,
15864,1707699,10000,1425665,132,6.0,1986,,,11/7/1997 0:00,1700B,1700,B,,,,Backhoe Loader - 16.0 + Ft Standard Digging Depth,Arizona,BL,Backhoe Loaders,Two Wheel Drive,OROPS,None or Unspecified,None or Unspecified,No,Extended,Standard,Yes,,,,,,,,,,,,,,,,,,,,,,,,,
15864,1707723,8000,1231000,132,1.0,1000,,,3/29/2000 0:00,1700B,1700,B,,,,Backhoe Loader - 16.0 + Ft Standard Digging Depth,Maryland,BL,Backhoe Loaders,Two Wheel Drive,OROPS,None or Unspecified,None or Unspecified,No,Standard,Standard,None or Unspecified,,,,,,,,,,,,,,,,,,,,,,,,,
15864,1707730,8750,1312365,132,7.0,1000,,,3/18/1994 0:00,1700B,1700,B,,,,Backhoe Loader - 16.0 + Ft Standard Digging Depth,Alabama,BL,Backhoe Loaders,Two Wheel Drive,OROPS,None or Unspecified,None or Unspecified,No,Standard,Standard,None or Unspecified,,,,,,,,,,,,,,,,,,,,,,,,,
15864,1707732,9000,1513568,132,1.0,1000,,,11/15/2005 0:00,1700B,1700,B,,,,Backhoe Loader - 16.0 + Ft Standard Digging Depth,Georgia,BL,Backhoe Loaders,Two Wheel Drive,OROPS,None or Unspecified,None or Unspecified,No,Standard,Standard,None or Unspecified,,,,,,,,,,,,,,,,,,,,,,,,,
15864,1707747,12500,128446,132,6.0,1986,,,10/8/1996 0:00,1700B,1700,B,,,,Backhoe Loader - 16.0 + Ft Standard Digging Depth,North Carolina,BL,Backhoe Loaders,Two Wheel Drive,OROPS,None or Unspecified,None or Unspecified,No,Standard,Standard,None or Unspecified,,,,,,,,,,,,,,,,,,,,,,,,,
15864,1707758,14000,1442856,132,2.0,1986,3000.0,Low,8/9/1997 0:00,1700B,1700,B,,,,Backhoe Loader - 16.0 + Ft Standard Digging Depth,Connecticut,BL,Backhoe Loaders,Two Wheel Drive,EROPS,None or Unspecified,None or Unspecified,No,Standard,Standard,None or Unspecified,,,,,,,,,,,,,,,,,,,,,,,,,
15864,1707784,13250,1299388,132,12.0,1000,,,9/20/2000 0:00,1700B,1700,B,,,,Backhoe Loader - 16.0 + Ft Standard Digging Depth,South Carolina,BL,Backhoe Loaders,Four Wheel Drive,EROPS,None or Unspecified,None or Unspecified,No,Extended,Standard,None or Unspecified,,,,,,,,,,,,,,,,,,,,,,,,,
15864,1707785,13000,1299388,132,11.0,1987,,,9/6/2000 0:00,1700B,1700,B,,,,Backhoe Loader - 16.0 + Ft Standard Digging Depth,Mississippi,BL,Backhoe Loaders,Four Wheel Drive,EROPS,None or Unspecified,None or Unspecified,No,Extended,Standard,None or Unspecified,,,,,,,,,,,,,,,,,,,,,,,,,
15864,1707815,14000,839665,132,2.0,1987,,,7/15/2000 0:00,1700B,1700,B,,,,Backhoe Loader - 16.0 + Ft Standard Digging Depth,New York,BL,Backhoe Loaders,Four Wheel Drive,EROPS,None or Unspecified,None or Unspecified,No,Extended,Standard,None or Unspecified,,,,,,,,,,,,,,,,,,,,,,,,,
15864,1707826,11500,1467432,132,1.0,1987,,,3/28/1996 0:00,1700B,1700,B,,,,Backhoe Loader - 16.0 + Ft Standard Digging Depth,Colorado,BL,Backhoe Loaders,Two Wheel Drive,OROPS,None or Unspecified,None or Unspecified,No,Standard,Standard,None or Unspecified,,,,,,,,,,,,,,,,,,,,,,,,,
15864,1707839,14000,1431315,132,99.0,1000,,,5/12/1994 0:00,1700B,1700,B,,,,Backhoe Loader - 16.0 + Ft Standard Digging Depth,Texas,BL,Backhoe Loaders,Two Wheel Drive,OROPS,None or Unspecified,None or Unspecified,No,Extended,Standard,None or Unspecified,,,,,,,,,,,,,,,,,,,,,,,,,
15864,1707852,14000,1327574,132,99.0,1000,,,5/12/1994 0:00,1700B,1700,B,,,,Backhoe Loader - 16.0 + Ft Standard Digging Depth,Texas,BL,Backhoe Loaders,Two Wheel Drive,OROPS,None or Unspecified,None or Unspecified,No,Extended,Standard,None or Unspecified,,,,,,,,,,,,,,,,,,,,,,,,,
15864,1707855,14000,1300202,132,4.0,1987,,,2/11/1994 0:00,1700B,1700,B,,,,Backhoe Loader - 16.0 + Ft Standard Digging Depth,Florida,BL,Backhoe Loaders,Four Wheel Drive,OROPS,None or Unspecified,None or Unspecified,No,Standard,Standard,None or Unspecified,,,,,,,,,,,,,,,,,,,,,,,,,
15864,1707899,12500,1532084,132,25.0,1988,,,4/1/1995 0:00,1700B,1700,B,,,,Backhoe Loader - 16.0 + Ft Standard Digging Depth,California,BL,Backhoe Loaders,Two Wheel Drive,OROPS,None or Unspecified,None or Unspecified,No,Extended,Standard,None or Unspecified,,,,,,,,,,,,,,,,,,,,,,,,,
15864,1707901,13000,1332359,132,1.0,1988,,,12/4/1997 0:00,1700B,1700,B,,,,Backhoe Loader - 16.0 + Ft Standard Digging Depth,Texas,BL,Backhoe Loaders,Two Wheel Drive,OROPS,None or Unspecified,None or Unspecified,No,Standard,Standard,None or Unspecified,,,,,,,,,,,,,,,,,,,,,,,,,
15864,1707904,16000,1302183,132,18.0,1988,,,9/30/1995 0:00,1700B,1700,B,,,,Backhoe Loader - 16.0 + Ft Standard Digging Depth,Pennsylvania,BL,Backhoe Loaders,Four Wheel Drive,EROPS,None or Unspecified,None or Unspecified,No,Standard,Powershuttle,None or Unspecified,,,,,,,,,,,,,,,,,,,,,,,,,
15864,1707905,7500,1128497,132,1.0,1000,,,12/16/2008 0:00,1700B,1700,B,,,,Backhoe Loader - 16.0 + Ft Standard Digging Depth,Maryland,BL,Backhoe Loaders,Four Wheel Drive,EROPS,None or Unspecified,None or Unspecified,No,Standard,Standard,None or Unspecified,,,,,,,,,,,,,,,,,,,,,,,,,
15864,1707908,13000,1219442,132,1.0,1988,,,6/11/2001 0:00,1700B,1700,B,,,,Backhoe Loader - 16.0 + Ft Standard Digging Depth,California,BL,Backhoe Loaders,Four Wheel Drive,OROPS,None or Unspecified,None or Unspecified,No,Extended,Standard,None or Unspecified,,,,,,,,,,,,,,,,,,,,,,,,,
15864,1707909,14500,1219442,132,1.0,1000,,,9/11/2003 0:00,1700B,1700,B,,,,Backhoe Loader - 16.0 + Ft Standard Digging Depth,California,BL,Backhoe Loaders,Four Wheel Drive,OROPS,None or Unspecified,None or Unspecified,No,Extended,Standard,None or Unspecified,,,,,,,,,,,,,,,,,,,,,,,,,
15864,1707914,13500,1433645,132,1.0,1988,,,10/17/1996 0:00,1700B,1700,B,,,,Backhoe Loader - 16.0 + Ft Standard Digging Depth,Illinois,BL,Backhoe Loaders,Four Wheel Drive,OROPS,None or Unspecified,None or Unspecified,No,Standard,Standard,None or Unspecified,,,,,,,,,,,,,,,,,,,,,,,,,
15864,1707929,9000,1390409,132,6.0,1988,,,10/15/1996 0:00,1700B,1700,B,,,,Backhoe Loader - 16.0 + Ft Standard Digging Depth,Maine,BL,Backhoe Loaders,Two Wheel Drive,OROPS,None or Unspecified,None or Unspecified,No,Standard,Standard,None or Unspecified,,,,,,,,,,,,,,,,,,,,,,,,,
15864,1707949,14000,1323963,132,12.0,1988,,,3/26/1997 0:00,1700B,1700,B,,,,Backhoe Loader - 16.0 + Ft Standard Digging Depth,South Carolina,BL,Backhoe Loaders,Four Wheel Drive,EROPS,None or Unspecified,None or Unspecified,No,Standard,Standard,None or Unspecified,,,,,,,,,,,,,,,,,,,,,,,,,
15864,1707966,15000,1206367,132,25.0,1988,,,5/3/1997 0:00,1700B,1700,B,,,,Backhoe Loader - 16.0 + Ft Standard Digging Depth,California,BL,Backhoe Loaders,Four Wheel Drive,EROPS,None or Unspecified,None or Unspecified,No,Extended,Standard,None or Unspecified,,,,,,,,,,,,,,,,,,,,,,,,,
15864,1707978,13000,1141306,132,1.0,1988,,,3/29/2001 0:00,1700B,1700,B,,,,Backhoe Loader - 16.0 + Ft Standard Digging Depth,Maryland,BL,Backhoe Loaders,Two Wheel Drive,EROPS,None or Unspecified,None or Unspecified,No,Standard,Standard,None or Unspecified,,,,,,,,,,,,,,,,,,,,,,,,,
15864,1707980,18500,1415380,132,4.0,1988,,,2/11/1994 0:00,1700B,1700,B,,,,Backhoe Loader - 16.0 + Ft Standard Digging Depth,Florida,BL,Backhoe Loaders,Four Wheel Drive,EROPS,Yes,None or Unspecified,No,Standard,Standard,None or Unspecified,,,,,,,,,,,,,,,,,,,,,,,,,
15864,1707986,11000,1337512,132,2.0,1985,,,12/3/2004 0:00,1700B,1700,B,,,,Backhoe Loader - 16.0 + Ft Standard Digging Depth,Maine,BL,Backhoe Loaders,Two Wheel Drive,EROPS,None or Unspecified,None or Unspecified,No,Extended,Standard,None or Unspecified,,,,,,,,,,,,,,,,,,,,,,,,,
15864,1708017,12500,1086581,132,1.0,1000,,,2/15/2007 0:00,1700B,1700,B,,,,Backhoe Loader - 16.0 + Ft Standard Digging Depth,Arizona,BL,Backhoe Loaders,Four Wheel Drive,OROPS,None or Unspecified,None or Unspecified,No,Extended,Standard,None or Unspecified,,,,,,,,,,,,,,,,,,,,,,,,,
15864,1708043,9500,1325815,132,1.0,1989,,,8/31/1999 0:00,1700B,1700,B,,,,Backhoe Loader - 16.0 + Ft Standard Digging Depth,California,BL,Backhoe Loaders,Two Wheel Drive,OROPS,None or Unspecified,None or Unspecified,No,Extended,Standard,None or Unspecified,,,,,,,,,,,,,,,,,,,,,,,,,
15864,1708053,10500,1410382,132,1.0,1989,,,8/31/1999 0:00,1700B,1700,B,,,,Backhoe Loader - 16.0 + Ft Standard Digging Depth,California,BL,Backhoe Loaders,Two Wheel Drive,OROPS,None or Unspecified,None or Unspecified,No,Extended,Standard,None or Unspecified,,,,,,,,,,,,,,,,,,,,,,,,,
15864,1708063,7750,1174088,132,27.0,1988,,,12/29/2006 0:00,1700B,1700,B,,,,Backhoe Loader - 16.0 + Ft Standard Digging Depth,North Carolina,BL,Backhoe Loaders,Two Wheel Drive,EROPS,None or Unspecified,None or Unspecified,No,Standard,Standard,Yes,,,,,,,,,,,,,,,,,,,,,,,,,
15864,1708070,17500,1079366,132,23.0,1989,,,11/19/1994 0:00,1700B,1700,B,,,,Backhoe Loader - 16.0 + Ft Standard Digging Depth,New Jersey,BL,Backhoe Loaders,Two Wheel Drive,OROPS,None or Unspecified,None or Unspecified,No,Extended,Powershuttle,None or Unspecified,,,,,,,,,,,,,,,,,,,,,,,,,
15864,1708086,14500,1172906,132,21.0,1990,,,9/18/1997 0:00,1700B,1700,B,,,,Backhoe Loader - 16.0 + Ft Standard Digging Depth,Maine,BL,Backhoe Loaders,Two Wheel Drive,EROPS,None or Unspecified,None or Unspecified,No,Standard,Standard,None or Unspecified,,,,,,,,,,,,,,,,,,,,,,,,,
15864,1708087,13000,1465669,132,21.0,1989,,,12/11/1999 0:00,1700B,1700,B,,,,Backhoe Loader - 16.0 + Ft Standard Digging Depth,Maine,BL,Backhoe Loaders,Four Wheel Drive,EROPS,None or Unspecified,None or Unspecified,No,Standard,Standard,None or Unspecified,,,,,,,,,,,,,,,,,,,,,,,,,
15864,1708090,13000,1210188,132,23.0,1989,,,7/29/1995 0:00,1700B,1700,B,,,,Backhoe Loader - 16.0 + Ft Standard Digging Depth,Pennsylvania,BL,Backhoe Loaders,Two Wheel Drive,EROPS,None or Unspecified,None or Unspecified,No,Standard,Powershuttle,None or Unspecified,,,,,,,,,,,,,,,,,,,,,,,,,
15864,1708124,16250,1186396,132,6.0,1990,,,6/6/1995 0:00,1700B,1700,B,,,,Backhoe Loader - 16.0 + Ft Standard Digging Depth,Florida,BL,Backhoe Loaders,Two Wheel Drive,OROPS,None or Unspecified,None or Unspecified,No,Standard,Standard,None or Unspecified,,,,,,,,,,,,,,,,,,,,,,,,,
15864,1708137,8500,1488954,132,2.0,1989,,,3/27/2003 0:00,1700B,1700,B,,,,Backhoe Loader - 16.0 + Ft Standard Digging Depth,New Jersey,BL,Backhoe Loaders,Four Wheel Drive,EROPS,None or Unspecified,None or Unspecified,No,Extended,Standard,None or Unspecified,,,,,,,,,,,,,,,,,,,,,,,,,
15864,1708142,19000,1370455,132,1.0,1990,,,9/22/1994 0:00,1700B,1700,B,,,,Backhoe Loader - 16.0 + Ft Standard Digging Depth,Colorado,BL,Backhoe Loaders,Two Wheel Drive,EROPS,None or Unspecified,None or Unspecified,No,Standard,Standard,None or Unspecified,,,,,,,,,,,,,,,,,,,,,,,,,
15864,1708196,16000,1229910,132,20.0,1991,,,12/9/1997 0:00,1700B,1700,B,,,,Backhoe Loader - 16.0 + Ft Standard Digging Depth,Missouri,BL,Backhoe Loaders,Two Wheel Drive,EROPS,None or Unspecified,None or Unspecified,No,Standard,Standard,None or Unspecified,,,,,,,,,,,,,,,,,,,,,,,,,
15864,1708207,13000,1261257,132,2.0,1991,,,8/14/2004 0:00,1700B,1700,B,,,,Backhoe Loader - 16.0 + Ft Standard Digging Depth,New York,BL,Backhoe Loaders,Four Wheel Drive,OROPS,None or Unspecified,None or Unspecified,No,Extended,Standard,None or Unspecified,,,,,,,,,,,,,,,,,,,,,,,,,
15864,1709203,8000,1347356,132,10.0,1000,,,6/15/2001 0:00,1700B,1700,B,,,,Backhoe Loader - 16.0 + Ft Standard Digging Depth,Louisiana,BL,Backhoe Loaders,Two Wheel Drive,OROPS,None or Unspecified,None or Unspecified,No,Standard,Standard,None or Unspecified,,,,,,,,,,,,,,,,,,,,,,,,,
15864,1714125,10000,1165675,132,5.0,1000,,,3/31/1995 0:00,1700B,1700,B,,,,Backhoe Loader - 16.0 + Ft Standard Digging Depth,Rhode Island,BL,Backhoe Loaders,Two Wheel Drive,OROPS,None or Unspecified,None or Unspecified,No,Standard,Standard,None or Unspecified,,,,,,,,,,,,,,,,,,,,,,,,,
15864,1714439,13750,1122919,132,2.0,1000,,,11/19/1994 0:00,1700B,1700,B,,,,Backhoe Loader - 16.0 + Ft Standard Digging Depth,Ohio,BL,Backhoe Loaders,Two Wheel Drive,OROPS,None or Unspecified,None or Unspecified,No,Standard,Standard,None or Unspecified,,,,,,,,,,,,,,,,,,,,,,,,,
15864,1714443,14000,1102451,132,1.0,1989,,,10/26/1999 0:00,1700B,1700,B,,,,Backhoe Loader - 16.0 + Ft Standard Digging Depth,Idaho,BL,Backhoe Loaders,Four Wheel Drive,EROPS,None or Unspecified,None or Unspecified,No,Extended,Standard,None or Unspecified,,,,,,,,,,,,,,,,,,,,,,,,,
15864,2389953,9100,1224917,136,5.0,1987,0.0,,8/28/2009 0:00,1700B,1700,B,,,,Backhoe Loader - 16.0 + Ft Standard Digging Depth,Connecticut,BL,Backhoe Loaders,Four Wheel Drive,OROPS,Yes,None or Unspecified,No,Standard,Standard,None or Unspecified,,,,,,,,,,,,,,,,,,,,,,,,,
