ModelID,SalesID,SalePrice,MachineID,datasource,auctioneerID,YearMade,MachineHoursCurrentMeter,UsageBand,saledate,fiModelDesc,fiBaseModel,fiSecondaryDesc,fiModelSeries,fiModelDescriptor,ProductSize,fiProductClassDesc,state,ProductGroup,ProductGroupDesc,Drive_System,Enclosure,Forks,Pad_Type,Ride_Control,Stick,Transmission,Turbocharged,Blade_Extension,Blade_Width,Enclosure_Type,Engine_Horsepower,Hydraulics,Pushblock,Ripper,Scarifier,Tip_Control,Tire_Size,Coupler,Coupler_System,Grouser_Tracks,Hydraulics_Flow,Track_Type,Undercarriage_Pad_Width,Stick_Length,Thumb,Pattern_Changer,Grouser_Type,Backhoe_Mounting,Blade_Type,Travel_Controls,Differential_Type,Steering_Controls
15877,1705663,22000,1410738,132,9.0,1996,,,2/18/2002 0:00,214SSITEMASTER,214,S,,SITEMASTER,,Backhoe Loader - 14.0 to 15.0 Ft Standard Digging Depth,Florida,BL,Backhoe Loaders,Four Wheel Drive,OROPS,Yes,None or Unspecified,No,Extended,Standard,None or Unspecified,,,,,,,,,,,,,,,,,,,,,,,,,
15877,1707295,18500,1174225,132,1.0,1993,,,6/12/2007 0:00,214SSITEMASTER,214,S,,SITEMASTER,,Backhoe Loader - 14.0 to 15.0 Ft Standard Digging Depth,Washington,BL,Backhoe Loaders,Four Wheel Drive,EROPS,Yes,None or Unspecified,No,Extended,Standard,None or Unspecified,,,,,,,,,,,,,,,,,,,,,,,,,
15877,1708498,20500,1110866,132,2.0,1994,,,8/25/2001 0:00,214SSITEMASTER,214,S,,SITEMASTER,,Backhoe Loader - 14.0 to 15.0 Ft Standard Digging Depth,Pennsylvania,BL,Backhoe Loaders,Four Wheel Drive,EROPS,None or Unspecified,None or Unspecified,No,Extended,Standard,None or Unspecified,,,,,,,,,,,,,,,,,,,,,,,,,
15877,1708632,21000,1433040,132,1.0,1995,,,12/13/2000 0:00,214SSITEMASTER,214,S,,SITEMASTER,,Backhoe Loader - 14.0 to 15.0 Ft Standard Digging Depth,Texas,BL,Backhoe Loaders,Four Wheel Drive,EROPS,Yes,None or Unspecified,No,Extended,Standard,None or Unspecified,,,,,,,,,,,,,,,,,,,,,,,,,
15877,1708646,21000,1076643,132,1.0,1996,,,12/13/2000 0:00,214SSITEMASTER,214,S,,SITEMASTER,,Backhoe Loader - 14.0 to 15.0 Ft Standard Digging Depth,Texas,BL,Backhoe Loaders,Four Wheel Drive,OROPS,None or Unspecified,None or Unspecified,No,Extended,Standard,None or Unspecified,,,,,,,,,,,,,,,,,,,,,,,,,
15877,1708674,21000,1319093,132,1.0,1996,,,12/13/2000 0:00,214SSITEMASTER,214,S,,SITEMASTER,,Backhoe Loader - 14.0 to 15.0 Ft Standard Digging Depth,Texas,BL,Backhoe Loaders,Four Wheel Drive,OROPS,None or Unspecified,None or Unspecified,No,Extended,Standard,None or Unspecified,,,,,,,,,,,,,,,,,,,,,,,,,
15877,1708678,21000,1134673,132,1.0,1996,,,12/13/2000 0:00,214SSITEMASTER,214,S,,SITEMASTER,,Backhoe Loader - 14.0 to 15.0 Ft Standard Digging Depth,Texas,BL,Backhoe Loaders,Four Wheel Drive,OROPS,None or Unspecified,None or Unspecified,No,Extended,Standard,None or Unspecified,,,,,,,,,,,,,,,,,,,,,,,,,
15877,1708716,27000,1334939,132,11.0,1997,,,9/6/2000 0:00,214SSITEMASTER,214,S,,SITEMASTER,,Backhoe Loader - 14.0 to 15.0 Ft Standard Digging Depth,Mississippi,BL,Backhoe Loaders,Four Wheel Drive,OROPS,None or Unspecified,None or Unspecified,No,Extended,Standard,None or Unspecified,,,,,,,,,,,,,,,,,,,,,,,,,
15877,1708780,21000,1150329,132,1.0,1997,,,12/13/2000 0:00,214SSITEMASTER,214,S,,SITEMASTER,,Backhoe Loader - 14.0 to 15.0 Ft Standard Digging Depth,Texas,BL,Backhoe Loaders,Four Wheel Drive,EROPS,None or Unspecified,None or Unspecified,No,Extended,Standard,None or Unspecified,,,,,,,,,,,,,,,,,,,,,,,,,
15877,1708832,26000,1336477,132,1.0,1998,,,12/12/2001 0:00,214SSITEMASTER,214,S,,SITEMASTER,,Backhoe Loader - 14.0 to 15.0 Ft Standard Digging Depth,Texas,BL,Backhoe Loaders,Four Wheel Drive,OROPS,None or Unspecified,None or Unspecified,No,Extended,Standard,None or Unspecified,,,,,,,,,,,,,,,,,,,,,,,,,
15877,1708855,26000,1148561,132,7.0,1999,,,12/1/2000 0:00,214SSITEMASTER,214,S,,SITEMASTER,,Backhoe Loader - 14.0 to 15.0 Ft Standard Digging Depth,Alabama,BL,Backhoe Loaders,Four Wheel Drive,OROPS,Yes,None or Unspecified,No,Extended,Standard,None or Unspecified,,,,,,,,,,,,,,,,,,,,,,,,,
15877,1708894,20500,1256441,132,28.0,1998,,,9/14/2002 0:00,214SSITEMASTER,214,S,,SITEMASTER,,Backhoe Loader - 14.0 to 15.0 Ft Standard Digging Depth,Mississippi,BL,Backhoe Loaders,Four Wheel Drive,OROPS,Yes,None or Unspecified,No,Extended,Standard,None or Unspecified,,,,,,,,,,,,,,,,,,,,,,,,,
15877,1711338,22500,1314169,132,2.0,1993,,,4/27/1996 0:00,214SSITEMASTER,214,S,,SITEMASTER,,Backhoe Loader - 14.0 to 15.0 Ft Standard Digging Depth,Ohio,BL,Backhoe Loaders,Two Wheel Drive,OROPS,None or Unspecified,None or Unspecified,No,Standard,Standard,None or Unspecified,,,,,,,,,,,,,,,,,,,,,,,,,
15877,1714158,32000,1202611,132,4.0,1999,,,2/11/2002 0:00,214SSITEMASTER,214,S,,SITEMASTER,,Backhoe Loader - 14.0 to 15.0 Ft Standard Digging Depth,Florida,BL,Backhoe Loaders,Four Wheel Drive,OROPS,Yes,None or Unspecified,No,Extended,Standard,None or Unspecified,,,,,,,,,,,,,,,,,,,,,,,,,
15877,1714475,33000,1118893,132,1.0,1993,,,6/20/1996 0:00,214SSITEMASTER,214,S,,SITEMASTER,,Backhoe Loader - 14.0 to 15.0 Ft Standard Digging Depth,Washington,BL,Backhoe Loaders,Four Wheel Drive,EROPS,None or Unspecified,None or Unspecified,No,Extended,Standard,None or Unspecified,,,,,,,,,,,,,,,,,,,,,,,,,
15877,1714478,33000,1108721,132,1.0,1993,,,6/20/1996 0:00,214SSITEMASTER,214,S,,SITEMASTER,,Backhoe Loader - 14.0 to 15.0 Ft Standard Digging Depth,Washington,BL,Backhoe Loaders,Four Wheel Drive,EROPS,None or Unspecified,None or Unspecified,No,Extended,Standard,None or Unspecified,,,,,,,,,,,,,,,,,,,,,,,,,
15877,1714482,24500,1139141,132,24.0,1993,,,5/14/1998 0:00,214SSITEMASTER,214,S,,SITEMASTER,,Backhoe Loader - 14.0 to 15.0 Ft Standard Digging Depth,Idaho,BL,Backhoe Loaders,Two Wheel Drive,EROPS,None or Unspecified,None or Unspecified,No,Standard,Standard,None or Unspecified,,,,,,,,,,,,,,,,,,,,,,,,,
15877,1714875,21000,1444695,132,1.0,1995,,,6/20/2001 0:00,214SSITEMASTER,214,S,,SITEMASTER,,Backhoe Loader - 14.0 to 15.0 Ft Standard Digging Depth,Missouri,BL,Backhoe Loaders,Two Wheel Drive,EROPS,Yes,None or Unspecified,No,Extended,Standard,None or Unspecified,,,,,,,,,,,,,,,,,,,,,,,,,
15877,1714884,20000,1143897,132,1.0,1997,,,3/20/2002 0:00,214SSITEMASTER,214,S,,SITEMASTER,,Backhoe Loader - 14.0 to 15.0 Ft Standard Digging Depth,Texas,BL,Backhoe Loaders,Four Wheel Drive,OROPS,None or Unspecified,None or Unspecified,No,Extended,Standard,None or Unspecified,,,,,,,,,,,,,,,,,,,,,,,,,
15877,1714905,24500,1098627,132,1.0,1997,,,10/22/2003 0:00,214SSITEMASTER,214,S,,SITEMASTER,,Backhoe Loader - 14.0 to 15.0 Ft Standard Digging Depth,Maine,BL,Backhoe Loaders,Four Wheel Drive,EROPS,None or Unspecified,None or Unspecified,No,Extended,Standard,None or Unspecified,,,,,,,,,,,,,,,,,,,,,,,,,
