ModelID,SalesID,SalePrice,MachineID,datasource,auctioneerID,YearMade,MachineHoursCurrentMeter,UsageBand,saledate,fiModelDesc,fiBaseModel,fiSecondaryDesc,fiModelSeries,fiModelDescriptor,ProductSize,fiProductClassDesc,state,ProductGroup,ProductGroupDesc,Drive_System,Enclosure,Forks,Pad_Type,Ride_Control,Stick,Transmission,Turbocharged,Blade_Extension,Blade_Width,Enclosure_Type,Engine_Horsepower,Hydraulics,Pushblock,Ripper,Scarifier,Tip_Control,Tire_Size,Coupler,Coupler_System,Grouser_Tracks,Hydraulics_Flow,Track_Type,Undercarriage_Pad_Width,Stick_Length,Thumb,Pattern_Changer,Grouser_Type,Backhoe_Mounting,Blade_Type,Travel_Controls,Differential_Type,Steering_Controls
15876,1141207,25000,1013490,121,3.0,1999,4269.0,Medium,7/28/2005 0:00,214S,214,S,,,,Backhoe Loader - 14.0 to 15.0 Ft Standard Digging Depth,West Virginia,BL,Backhoe Loaders,Four Wheel Drive,EROPS w AC,Yes,None or Unspecified,No,Extended,Standard,None or Unspecified,,,,,,,,,,,,,,,,,,,,,,,,,
15876,1142497,18500,1058604,121,3.0,1998,0.0,,7/7/2011 0:00,214S,214,S,,,,Backhoe Loader - 14.0 to 15.0 Ft Standard Digging Depth,Nebraska,BL,Backhoe Loaders,Four Wheel Drive,EROPS,Yes,None or Unspecified,No,Extended,Powershift,None or Unspecified,,,,,,,,,,,,,,,,,,,,,,,,,
15876,1153180,15000,1041471,121,3.0,1997,0.0,,7/7/2011 0:00,214S,214,S,,,,Backhoe Loader - 14.0 to 15.0 Ft Standard Digging Depth,Nebraska,BL,Backhoe Loaders,Four Wheel Drive,OROPS,None or Unspecified,None or Unspecified,No,Extended,Powershift,None or Unspecified,,,,,,,,,,,,,,,,,,,,,,,,,
15876,1160373,24000,1064865,121,3.0,2005,1839.0,Medium,11/4/2010 0:00,214S,214,S,,,,Backhoe Loader - 14.0 to 15.0 Ft Standard Digging Depth,Florida,BL,Backhoe Loaders,Four Wheel Drive,OROPS,Yes,None or Unspecified,No,Extended,Powershift,None or Unspecified,,,,,,,,,,,,,,,,,,,,,,,,,
15876,1169924,19000,1003946,121,3.0,1998,0.0,,3/22/2007 0:00,214S,214,S,,,,Backhoe Loader - 14.0 to 15.0 Ft Standard Digging Depth,North Carolina,BL,Backhoe Loaders,Four Wheel Drive,OROPS,None or Unspecified,None or Unspecified,No,Extended,Standard,None or Unspecified,,,,,,,,,,,,,,,,,,,,,,,,,
15876,1705639,35500,1176686,132,2.0,1000,,,10/3/1998 0:00,214S,214,S,,,,Backhoe Loader - 14.0 to 15.0 Ft Standard Digging Depth,Pennsylvania,BL,Backhoe Loaders,Two Wheel Drive,OROPS,Yes,None or Unspecified,No,Standard,Standard,None or Unspecified,,,,,,,,,,,,,,,,,,,,,,,,,
15876,1705642,12000,1077195,132,4.0,1995,,,2/11/2008 0:00,214S,214,S,,,,Backhoe Loader - 14.0 to 15.0 Ft Standard Digging Depth,Florida,BL,Backhoe Loaders,Four Wheel Drive,OROPS,None or Unspecified,None or Unspecified,No,Standard,Standard,None or Unspecified,,,,,,,,,,,,,,,,,,,,,,,,,
15876,1705643,14000,1522489,132,8.0,1995,,,2/16/2007 0:00,214S,214,S,,,,Backhoe Loader - 14.0 to 15.0 Ft Standard Digging Depth,Florida,BL,Backhoe Loaders,Two Wheel Drive,OROPS,None or Unspecified,None or Unspecified,No,Extended,Standard,None or Unspecified,,,,,,,,,,,,,,,,,,,,,,,,,
15876,1705644,17250,1203315,132,4.0,1995,,,10/8/2005 0:00,214S,214,S,,,,Backhoe Loader - 14.0 to 15.0 Ft Standard Digging Depth,Ohio,BL,Backhoe Loaders,Four Wheel Drive,EROPS,None or Unspecified,None or Unspecified,No,Extended,Standard,None or Unspecified,,,,,,,,,,,,,,,,,,,,,,,,,
15876,1705657,19000,1223948,132,4.0,1997,,,5/4/2006 0:00,214S,214,S,,,,Backhoe Loader - 14.0 to 15.0 Ft Standard Digging Depth,Maine,BL,Backhoe Loaders,Four Wheel Drive,EROPS,Yes,None or Unspecified,No,Extended,Standard,None or Unspecified,,,,,,,,,,,,,,,,,,,,,,,,,
15876,1705664,22500,1360769,132,5.0,1996,,,4/17/2004 0:00,214S,214,S,,,,Backhoe Loader - 14.0 to 15.0 Ft Standard Digging Depth,New Jersey,BL,Backhoe Loaders,Four Wheel Drive,EROPS,None or Unspecified,None or Unspecified,No,Standard,Standard,None or Unspecified,,,,,,,,,,,,,,,,,,,,,,,,,
15876,1705665,22500,1374302,132,7.0,1997,,,3/9/2005 0:00,214S,214,S,,,,Backhoe Loader - 14.0 to 15.0 Ft Standard Digging Depth,Alabama,BL,Backhoe Loaders,Two Wheel Drive,OROPS,None or Unspecified,None or Unspecified,No,Extended,Standard,None or Unspecified,,,,,,,,,,,,,,,,,,,,,,,,,
15876,1705677,23000,1127404,132,1.0,1997,,,5/6/2003 0:00,214S,214,S,,,,Backhoe Loader - 14.0 to 15.0 Ft Standard Digging Depth,Arizona,BL,Backhoe Loaders,Four Wheel Drive,OROPS,None or Unspecified,None or Unspecified,No,Extended,Standard,None or Unspecified,,,,,,,,,,,,,,,,,,,,,,,,,
15876,1705684,24500,1305605,132,8.0,1000,,,11/17/2004 0:00,214S,214,S,,,,Backhoe Loader - 14.0 to 15.0 Ft Standard Digging Depth,Mississippi,BL,Backhoe Loaders,Four Wheel Drive,OROPS,None or Unspecified,None or Unspecified,No,Extended,Standard,None or Unspecified,,,,,,,,,,,,,,,,,,,,,,,,,
15876,1705691,24000,1268498,132,1.0,1998,,,9/26/2003 0:00,214S,214,S,,,,Backhoe Loader - 14.0 to 15.0 Ft Standard Digging Depth,North Carolina,BL,Backhoe Loaders,Four Wheel Drive,OROPS,Yes,None or Unspecified,No,Standard,Standard,None or Unspecified,,,,,,,,,,,,,,,,,,,,,,,,,
15876,1705692,17000,1550740,132,4.0,1998,,,2/13/2006 0:00,214S,214,S,,,,Backhoe Loader - 14.0 to 15.0 Ft Standard Digging Depth,Florida,BL,Backhoe Loaders,Four Wheel Drive,OROPS,None or Unspecified,None or Unspecified,No,Extended,Standard,None or Unspecified,,,,,,,,,,,,,,,,,,,,,,,,,
15876,1705695,22000,1394338,132,2.0,1998,,,12/7/2005 0:00,214S,214,S,,,,Backhoe Loader - 14.0 to 15.0 Ft Standard Digging Depth,Texas,BL,Backhoe Loaders,Four Wheel Drive,OROPS,None or Unspecified,None or Unspecified,No,Standard,Standard,None or Unspecified,,,,,,,,,,,,,,,,,,,,,,,,,
15876,1705704,19000,1374222,132,8.0,1000,,,11/14/2007 0:00,214S,214,S,,,,Backhoe Loader - 14.0 to 15.0 Ft Standard Digging Depth,Mississippi,BL,Backhoe Loaders,Two Wheel Drive,OROPS,None or Unspecified,None or Unspecified,No,Standard,Standard,None or Unspecified,,,,,,,,,,,,,,,,,,,,,,,,,
15876,1707299,23000,1433573,132,1.0,1994,,,6/23/2004 0:00,214S,214,S,,,,Backhoe Loader - 14.0 to 15.0 Ft Standard Digging Depth,Washington,BL,Backhoe Loaders,Four Wheel Drive,EROPS,Yes,None or Unspecified,No,Extended,Standard,None or Unspecified,,,,,,,,,,,,,,,,,,,,,,,,,
15876,1708369,19500,1492166,132,5.0,1994,,,3/29/2005 0:00,214S,214,S,,,,Backhoe Loader - 14.0 to 15.0 Ft Standard Digging Depth,Connecticut,BL,Backhoe Loaders,Four Wheel Drive,OROPS,None or Unspecified,None or Unspecified,No,Extended,Standard,None or Unspecified,,,,,,,,,,,,,,,,,,,,,,,,,
15876,1708388,13000,1108222,132,2.0,1997,,,2/7/2008 0:00,214S,214,S,,,,Backhoe Loader - 14.0 to 15.0 Ft Standard Digging Depth,Florida,BL,Backhoe Loaders,Four Wheel Drive,OROPS,None or Unspecified,None or Unspecified,No,Standard,Standard,None or Unspecified,,,,,,,,,,,,,,,,,,,,,,,,,
15876,1708427,17500,1500178,132,1.0,1993,,,9/22/2000 0:00,214S,214,S,,,,Backhoe Loader - 14.0 to 15.0 Ft Standard Digging Depth,Montana,BL,Backhoe Loaders,Two Wheel Drive,EROPS,None or Unspecified,None or Unspecified,No,Extended,Standard,None or Unspecified,,,,,,,,,,,,,,,,,,,,,,,,,
15876,1708428,16000,1370584,132,1.0,1993,,,7/31/2007 0:00,214S,214,S,,,,Backhoe Loader - 14.0 to 15.0 Ft Standard Digging Depth,Connecticut,BL,Backhoe Loaders,Four Wheel Drive,OROPS,None or Unspecified,None or Unspecified,No,Extended,Standard,None or Unspecified,,,,,,,,,,,,,,,,,,,,,,,,,
15876,1708443,18000,1527908,132,1.0,1993,,,6/30/2009 0:00,214S,214,S,,,,Backhoe Loader - 14.0 to 15.0 Ft Standard Digging Depth,Wyoming,BL,Backhoe Loaders,Four Wheel Drive,EROPS,Yes,None or Unspecified,No,Extended,Standard,None or Unspecified,,,,,,,,,,,,,,,,,,,,,,,,,
15876,1708499,25000,1110866,132,2.0,1994,,,2/7/2000 0:00,214S,214,S,,,,Backhoe Loader - 14.0 to 15.0 Ft Standard Digging Depth,Florida,BL,Backhoe Loaders,Four Wheel Drive,EROPS,None or Unspecified,None or Unspecified,No,Extended,Standard,None or Unspecified,,,,,,,,,,,,,,,,,,,,,,,,,
15876,1708507,16000,1261007,132,1.0,1994,,,9/19/2008 0:00,214S,214,S,,,,Backhoe Loader - 14.0 to 15.0 Ft Standard Digging Depth,Missouri,BL,Backhoe Loaders,Four Wheel Drive,EROPS,None or Unspecified,None or Unspecified,No,Extended,Standard,None or Unspecified,,,,,,,,,,,,,,,,,,,,,,,,,
15876,1708512,25000,1248790,132,2.0,1994,,,2/8/2007 0:00,214S,214,S,,,,Backhoe Loader - 14.0 to 15.0 Ft Standard Digging Depth,Florida,BL,Backhoe Loaders,Four Wheel Drive,EROPS,None or Unspecified,None or Unspecified,No,Extended,Standard,Yes,,,,,,,,,,,,,,,,,,,,,,,,,
15876,1708513,25000,1248790,132,2.0,1000,,,2/4/2007 0:00,214S,214,S,,,,Backhoe Loader - 14.0 to 15.0 Ft Standard Digging Depth,Florida,BL,Backhoe Loaders,Four Wheel Drive,EROPS,None or Unspecified,None or Unspecified,No,Extended,Standard,Yes,,,,,,,,,,,,,,,,,,,,,,,,,
15876,1708514,28000,1248790,132,4.0,1994,,,2/13/2007 0:00,214S,214,S,,,,Backhoe Loader - 14.0 to 15.0 Ft Standard Digging Depth,Florida,BL,Backhoe Loaders,Four Wheel Drive,EROPS,None or Unspecified,None or Unspecified,No,Extended,Standard,Yes,,,,,,,,,,,,,,,,,,,,,,,,,
15876,1708515,18500,1248790,132,27.0,1994,5401.0,Medium,4/20/2007 0:00,214S,214,S,,,,Backhoe Loader - 14.0 to 15.0 Ft Standard Digging Depth,North Carolina,BL,Backhoe Loaders,Four Wheel Drive,EROPS,None or Unspecified,None or Unspecified,No,Extended,Standard,Yes,,,,,,,,,,,,,,,,,,,,,,,,,
15876,1708516,24000,1531197,132,18.0,1994,,,3/6/1999 0:00,214S,214,S,,,,Backhoe Loader - 14.0 to 15.0 Ft Standard Digging Depth,Pennsylvania,BL,Backhoe Loaders,Two Wheel Drive,EROPS,None or Unspecified,None or Unspecified,No,Standard,Standard,None or Unspecified,,,,,,,,,,,,,,,,,,,,,,,,,
15876,1708528,22000,1172340,132,1.0,1994,,,3/17/2004 0:00,214S,214,S,,,,Backhoe Loader - 14.0 to 15.0 Ft Standard Digging Depth,Texas,BL,Backhoe Loaders,Four Wheel Drive,EROPS,None or Unspecified,None or Unspecified,No,Extended,Standard,None or Unspecified,,,,,,,,,,,,,,,,,,,,,,,,,
15876,1708529,18000,1508008,132,8.0,1994,,,11/16/2005 0:00,214S,214,S,,,,Backhoe Loader - 14.0 to 15.0 Ft Standard Digging Depth,Mississippi,BL,Backhoe Loaders,Two Wheel Drive,OROPS,None or Unspecified,None or Unspecified,No,Standard,Standard,None or Unspecified,,,,,,,,,,,,,,,,,,,,,,,,,
15876,1708542,15500,1247746,132,2.0,1994,,,12/10/2003 0:00,214S,214,S,,,,Backhoe Loader - 14.0 to 15.0 Ft Standard Digging Depth,Texas,BL,Backhoe Loaders,Four Wheel Drive,OROPS,None or Unspecified,None or Unspecified,No,Extended,Standard,None or Unspecified,,,,,,,,,,,,,,,,,,,,,,,,,
15876,1708557,19500,1196155,132,5.0,1995,,,8/24/2007 0:00,214S,214,S,,,,Backhoe Loader - 14.0 to 15.0 Ft Standard Digging Depth,Connecticut,BL,Backhoe Loaders,Four Wheel Drive,OROPS,None or Unspecified,None or Unspecified,No,Extended,Standard,None or Unspecified,,,,,,,,,,,,,,,,,,,,,,,,,
15876,1708566,23000,1389508,132,1.0,1995,,,3/28/2001 0:00,214S,214,S,,,,Backhoe Loader - 14.0 to 15.0 Ft Standard Digging Depth,Washington,BL,Backhoe Loaders,Two Wheel Drive,EROPS,None or Unspecified,None or Unspecified,No,Extended,Standard,None or Unspecified,,,,,,,,,,,,,,,,,,,,,,,,,
15876,1708585,12000,1191502,132,4.0,1995,,,2/12/2008 0:00,214S,214,S,,,,Backhoe Loader - 14.0 to 15.0 Ft Standard Digging Depth,Florida,BL,Backhoe Loaders,Four Wheel Drive,OROPS,None or Unspecified,None or Unspecified,No,Standard,Standard,None or Unspecified,,,,,,,,,,,,,,,,,,,,,,,,,
15876,1708592,13750,1199312,132,16.0,1000,,,6/5/2009 0:00,214S,214,S,,,,Backhoe Loader - 14.0 to 15.0 Ft Standard Digging Depth,Ohio,BL,Backhoe Loaders,Four Wheel Drive,EROPS,Yes,None or Unspecified,No,Extended,Standard,None or Unspecified,,,,,,,,,,,,,,,,,,,,,,,,,
15876,1708596,13500,1326922,132,14.0,1995,,,6/18/2010 0:00,214S,214,S,,,,Backhoe Loader - 14.0 to 15.0 Ft Standard Digging Depth,Indiana,BL,Backhoe Loaders,Two Wheel Drive,OROPS,Yes,None or Unspecified,No,Standard,Standard,None or Unspecified,,,,,,,,,,,,,,,,,,,,,,,,,
15876,1708607,14000,1140189,132,7.0,1000,,,10/18/2007 0:00,214S,214,S,,,,Backhoe Loader - 14.0 to 15.0 Ft Standard Digging Depth,South Carolina,BL,Backhoe Loaders,Four Wheel Drive,OROPS,None or Unspecified,None or Unspecified,No,Standard,Standard,None or Unspecified,,,,,,,,,,,,,,,,,,,,,,,,,
15876,1708615,17750,1238683,132,8.0,1000,,,2/13/2009 0:00,214S,214,S,,,,Backhoe Loader - 14.0 to 15.0 Ft Standard Digging Depth,Florida,BL,Backhoe Loaders,Four Wheel Drive,EROPS,None or Unspecified,None or Unspecified,No,Extended,Standard,None or Unspecified,,,,,,,,,,,,,,,,,,,,,,,,,
15876,1708616,27000,1119615,132,2.0,1995,,,6/10/2000 0:00,214S,214,S,,,,Backhoe Loader - 14.0 to 15.0 Ft Standard Digging Depth,Ohio,BL,Backhoe Loaders,Four Wheel Drive,EROPS,None or Unspecified,None or Unspecified,No,Extended,Standard,None or Unspecified,,,,,,,,,,,,,,,,,,,,,,,,,
15876,1708628,29500,1317357,132,7.0,1995,,,6/5/1998 0:00,214S,214,S,,,,Backhoe Loader - 14.0 to 15.0 Ft Standard Digging Depth,Alabama,BL,Backhoe Loaders,Four Wheel Drive,OROPS,None or Unspecified,None or Unspecified,No,Standard,Standard,None or Unspecified,,,,,,,,,,,,,,,,,,,,,,,,,
15876,1708649,27000,551647,132,14.0,1000,,,9/24/1999 0:00,214S,214,S,,,,Backhoe Loader - 14.0 to 15.0 Ft Standard Digging Depth,Indiana,BL,Backhoe Loaders,Four Wheel Drive,EROPS,None or Unspecified,None or Unspecified,No,Extended,Standard,None or Unspecified,,,,,,,,,,,,,,,,,,,,,,,,,
15876,1708651,30000,1308974,132,2.0,1996,,,3/30/2000 0:00,214S,214,S,,,,Backhoe Loader - 14.0 to 15.0 Ft Standard Digging Depth,New Jersey,BL,Backhoe Loaders,Two Wheel Drive,OROPS,None or Unspecified,None or Unspecified,No,Standard,Standard,None or Unspecified,,,,,,,,,,,,,,,,,,,,,,,,,
15876,1708654,23500,1518356,132,11.0,1996,,,3/21/2000 0:00,214S,214,S,,,,Backhoe Loader - 14.0 to 15.0 Ft Standard Digging Depth,Mississippi,BL,Backhoe Loaders,Four Wheel Drive,OROPS,None or Unspecified,None or Unspecified,No,Standard,Standard,None or Unspecified,,,,,,,,,,,,,,,,,,,,,,,,,
15876,1708655,17500,1433093,132,2.0,1997,,,2/2/2003 0:00,214S,214,S,,,,Backhoe Loader - 14.0 to 15.0 Ft Standard Digging Depth,Florida,BL,Backhoe Loaders,Four Wheel Drive,OROPS,None or Unspecified,None or Unspecified,No,Standard,Standard,None or Unspecified,,,,,,,,,,,,,,,,,,,,,,,,,
15876,1708668,26000,1492087,132,1.0,1996,,,10/22/2003 0:00,214S,214,S,,,,Backhoe Loader - 14.0 to 15.0 Ft Standard Digging Depth,Maine,BL,Backhoe Loaders,Four Wheel Drive,EROPS,None or Unspecified,None or Unspecified,No,Extended,Standard,None or Unspecified,,,,,,,,,,,,,,,,,,,,,,,,,
15876,1708675,11000,1433880,132,4.0,1996,,,4/10/2007 0:00,214S,214,S,,,,Backhoe Loader - 14.0 to 15.0 Ft Standard Digging Depth,Ohio,BL,Backhoe Loaders,Two Wheel Drive,OROPS,None or Unspecified,None or Unspecified,No,Standard,Standard,None or Unspecified,,,,,,,,,,,,,,,,,,,,,,,,,
15876,1708685,23000,1432073,132,1.0,1996,,,3/1/2006 0:00,214S,214,S,,,,Backhoe Loader - 14.0 to 15.0 Ft Standard Digging Depth,Texas,BL,Backhoe Loaders,Four Wheel Drive,OROPS,None or Unspecified,None or Unspecified,No,Standard,Standard,None or Unspecified,,,,,,,,,,,,,,,,,,,,,,,,,
15876,1708687,23000,1168299,132,1.0,1996,,,3/1/2006 0:00,214S,214,S,,,,Backhoe Loader - 14.0 to 15.0 Ft Standard Digging Depth,Texas,BL,Backhoe Loaders,Four Wheel Drive,OROPS,Yes,None or Unspecified,No,Standard,Standard,None or Unspecified,,,,,,,,,,,,,,,,,,,,,,,,,
15876,1708692,14000,1423602,132,1.0,1996,4682.0,Low,5/18/2011 0:00,214S,214,S,,,,Backhoe Loader - 14.0 to 15.0 Ft Standard Digging Depth,California,BL,Backhoe Loaders,Four Wheel Drive,OROPS,None or Unspecified,None or Unspecified,No,Extended,Standard,None or Unspecified,,,,,,,,,,,,,,,,,,,,,,,,,
15876,1708700,23000,1110929,132,17.0,1000,,,4/22/2008 0:00,214S,214,S,,,,Backhoe Loader - 14.0 to 15.0 Ft Standard Digging Depth,Idaho,BL,Backhoe Loaders,Four Wheel Drive,EROPS,None or Unspecified,None or Unspecified,No,Extended,Standard,None or Unspecified,,,,,,,,,,,,,,,,,,,,,,,,,
15876,1708709,35000,1237138,132,15.0,1996,,,8/12/1999 0:00,214S,214,S,,,,Backhoe Loader - 14.0 to 15.0 Ft Standard Digging Depth,Pennsylvania,BL,Backhoe Loaders,Two Wheel Drive,OROPS,None or Unspecified,None or Unspecified,No,Standard,Powershift,None or Unspecified,,,,,,,,,,,,,,,,,,,,,,,,,
15876,1708714,16250,1334939,132,20.0,1997,,,8/26/2009 0:00,214S,214,S,,,,Backhoe Loader - 14.0 to 15.0 Ft Standard Digging Depth,Arkansas,BL,Backhoe Loaders,Four Wheel Drive,OROPS,None or Unspecified,None or Unspecified,No,Extended,Standard,None or Unspecified,,,,,,,,,,,,,,,,,,,,,,,,,
15876,1708715,17000,1334939,132,8.0,1000,,,5/28/2009 0:00,214S,214,S,,,,Backhoe Loader - 14.0 to 15.0 Ft Standard Digging Depth,Mississippi,BL,Backhoe Loaders,Four Wheel Drive,OROPS,None or Unspecified,None or Unspecified,No,Extended,Standard,None or Unspecified,,,,,,,,,,,,,,,,,,,,,,,,,
15876,1708742,17000,1290586,132,1.0,1997,,,2/15/2010 0:00,214S,214,S,,,,Backhoe Loader - 14.0 to 15.0 Ft Standard Digging Depth,Florida,BL,Backhoe Loaders,Four Wheel Drive,OROPS,None or Unspecified,None or Unspecified,No,Extended,Standard,None or Unspecified,,,,,,,,,,,,,,,,,,,,,,,,,
15876,1708748,37000,1093363,132,2.0,1998,,,6/10/2000 0:00,214S,214,S,,,,Backhoe Loader - 14.0 to 15.0 Ft Standard Digging Depth,Ohio,BL,Backhoe Loaders,Two Wheel Drive,EROPS,None or Unspecified,None or Unspecified,No,Extended,Standard,None or Unspecified,,,,,,,,,,,,,,,,,,,,,,,,,
15876,1708750,10000,1425556,132,9.0,1997,,,5/15/2008 0:00,214S,214,S,,,,Backhoe Loader - 14.0 to 15.0 Ft Standard Digging Depth,South Carolina,BL,Backhoe Loaders,Four Wheel Drive,OROPS,Yes,None or Unspecified,No,Standard,Standard,None or Unspecified,,,,,,,,,,,,,,,,,,,,,,,,,
15876,1708751,21500,1510187,132,9.0,1997,,,2/23/2006 0:00,214S,214,S,,,,Backhoe Loader - 14.0 to 15.0 Ft Standard Digging Depth,Florida,BL,Backhoe Loaders,Four Wheel Drive,OROPS,None or Unspecified,None or Unspecified,No,Extended,Standard,None or Unspecified,,,,,,,,,,,,,,,,,,,,,,,,,
15876,1708752,17000,1510187,132,27.0,1000,,,9/16/2005 0:00,214S,214,S,,,,Backhoe Loader - 14.0 to 15.0 Ft Standard Digging Depth,North Carolina,BL,Backhoe Loaders,Four Wheel Drive,OROPS,None or Unspecified,None or Unspecified,No,Extended,Standard,None or Unspecified,,,,,,,,,,,,,,,,,,,,,,,,,
15876,1708754,14500,1322908,132,1.0,1997,,,6/24/2009 0:00,214S,214,S,,,,Backhoe Loader - 14.0 to 15.0 Ft Standard Digging Depth,Maryland,BL,Backhoe Loaders,Four Wheel Drive,EROPS,None or Unspecified,None or Unspecified,No,Extended,Standard,None or Unspecified,,,,,,,,,,,,,,,,,,,,,,,,,
15876,1708756,25000,1476049,132,4.0,1997,,,2/9/2004 0:00,214S,214,S,,,,Backhoe Loader - 14.0 to 15.0 Ft Standard Digging Depth,Florida,BL,Backhoe Loaders,Four Wheel Drive,OROPS,None or Unspecified,None or Unspecified,No,Standard,Standard,None or Unspecified,,,,,,,,,,,,,,,,,,,,,,,,,
15876,1708775,29000,1388159,132,1.0,1997,,,10/22/2003 0:00,214S,214,S,,,,Backhoe Loader - 14.0 to 15.0 Ft Standard Digging Depth,Maine,BL,Backhoe Loaders,Four Wheel Drive,EROPS,None or Unspecified,None or Unspecified,No,Extended,Standard,None or Unspecified,,,,,,,,,,,,,,,,,,,,,,,,,
15876,1708779,14500,1123653,132,1.0,1000,,,6/24/2009 0:00,214S,214,S,,,,Backhoe Loader - 14.0 to 15.0 Ft Standard Digging Depth,Maryland,BL,Backhoe Loaders,Four Wheel Drive,EROPS,None or Unspecified,None or Unspecified,No,Extended,Standard,None or Unspecified,,,,,,,,,,,,,,,,,,,,,,,,,
15876,1708798,23500,1545900,132,28.0,1997,,,9/8/2000 0:00,214S,214,S,,,,Backhoe Loader - 14.0 to 15.0 Ft Standard Digging Depth,Mississippi,BL,Backhoe Loaders,Four Wheel Drive,OROPS,None or Unspecified,None or Unspecified,No,Standard,Standard,None or Unspecified,,,,,,,,,,,,,,,,,,,,,,,,,
15876,1708802,38000,1498509,132,1.0,1997,,,8/16/2000 0:00,214S,214,S,,,,Backhoe Loader - 14.0 to 15.0 Ft Standard Digging Depth,Texas,BL,Backhoe Loaders,Four Wheel Drive,EROPS,Yes,None or Unspecified,No,Extended,Standard,None or Unspecified,,,,,,,,,,,,,,,,,,,,,,,,,
15876,1708805,18000,1286108,132,1.0,1997,,,6/21/2006 0:00,214S,214,S,,,,Backhoe Loader - 14.0 to 15.0 Ft Standard Digging Depth,Maryland,BL,Backhoe Loaders,Four Wheel Drive,OROPS,None or Unspecified,None or Unspecified,No,Extended,Standard,None or Unspecified,,,,,,,,,,,,,,,,,,,,,,,,,
15876,1708806,26000,1286108,132,27.0,1997,,,7/21/2006 0:00,214S,214,S,,,,Backhoe Loader - 14.0 to 15.0 Ft Standard Digging Depth,North Carolina,BL,Backhoe Loaders,Four Wheel Drive,OROPS,None or Unspecified,None or Unspecified,No,Extended,Standard,None or Unspecified,,,,,,,,,,,,,,,,,,,,,,,,,
15876,1708808,17500,1197340,132,8.0,1997,,,6/19/2003 0:00,214S,214,S,,,,Backhoe Loader - 14.0 to 15.0 Ft Standard Digging Depth,Tennessee,BL,Backhoe Loaders,Two Wheel Drive,OROPS,None or Unspecified,None or Unspecified,No,Standard,Standard,None or Unspecified,,,,,,,,,,,,,,,,,,,,,,,,,
15876,1708834,35000,1525173,132,2.0,1999,,,12/12/2001 0:00,214S,214,S,,,,Backhoe Loader - 14.0 to 15.0 Ft Standard Digging Depth,Texas,BL,Backhoe Loaders,Four Wheel Drive,EROPS w AC,None or Unspecified,None or Unspecified,No,Extended,Standard,Yes,,,,,,,,,,,,,,,,,,,,,,,,,
15876,1708846,34500,1550971,132,11.0,1998,,,9/6/2000 0:00,214S,214,S,,,,Backhoe Loader - 14.0 to 15.0 Ft Standard Digging Depth,Mississippi,BL,Backhoe Loaders,Two Wheel Drive,OROPS,Yes,None or Unspecified,No,Extended,Standard,None or Unspecified,,,,,,,,,,,,,,,,,,,,,,,,,
15876,1708852,35000,1326415,132,2.0,1998,,,3/27/2003 0:00,214S,214,S,,,,Backhoe Loader - 14.0 to 15.0 Ft Standard Digging Depth,New Jersey,BL,Backhoe Loaders,Four Wheel Drive,EROPS,None or Unspecified,None or Unspecified,No,Extended,Standard,None or Unspecified,,,,,,,,,,,,,,,,,,,,,,,,,
15876,1708863,18500,1408644,132,1.0,1998,,,9/15/2004 0:00,214S,214,S,,,,Backhoe Loader - 14.0 to 15.0 Ft Standard Digging Depth,Texas,BL,Backhoe Loaders,Four Wheel Drive,OROPS,None or Unspecified,None or Unspecified,No,Standard,Standard,None or Unspecified,,,,,,,,,,,,,,,,,,,,,,,,,
15876,1708864,18500,1408644,132,1.0,1998,,,9/24/2004 0:00,214S,214,S,,,,Backhoe Loader - 14.0 to 15.0 Ft Standard Digging Depth,Texas,BL,Backhoe Loaders,Four Wheel Drive,OROPS,None or Unspecified,None or Unspecified,No,Standard,Standard,None or Unspecified,,,,,,,,,,,,,,,,,,,,,,,,,
15876,1708865,21000,1408644,132,8.0,1998,,,9/22/2004 0:00,214S,214,S,,,,Backhoe Loader - 14.0 to 15.0 Ft Standard Digging Depth,Mississippi,BL,Backhoe Loaders,Four Wheel Drive,OROPS,None or Unspecified,None or Unspecified,No,Standard,Standard,None or Unspecified,,,,,,,,,,,,,,,,,,,,,,,,,
15876,1708872,21000,1490532,132,7.0,1998,,,4/22/2004 0:00,214S,214,S,,,,Backhoe Loader - 14.0 to 15.0 Ft Standard Digging Depth,South Carolina,BL,Backhoe Loaders,Four Wheel Drive,OROPS,None or Unspecified,None or Unspecified,No,Extended,Standard,None or Unspecified,,,,,,,,,,,,,,,,,,,,,,,,,
15876,1708901,18500,1181197,132,3.0,1999,,,7/7/2011 0:00,214S,214,S,,,,Backhoe Loader - 14.0 to 15.0 Ft Standard Digging Depth,California,BL,Backhoe Loaders,Four Wheel Drive,OROPS,None or Unspecified,None or Unspecified,No,Extended,Standard,None or Unspecified,,,,,,,,,,,,,,,,,,,,,,,,,
15876,1708904,36000,1326037,132,1.0,1998,,,10/22/2003 0:00,214S,214,S,,,,Backhoe Loader - 14.0 to 15.0 Ft Standard Digging Depth,Maine,BL,Backhoe Loaders,Four Wheel Drive,EROPS,None or Unspecified,None or Unspecified,No,Extended,Standard,None or Unspecified,,,,,,,,,,,,,,,,,,,,,,,,,
15876,1708905,21500,1301219,132,8.0,1998,,,2/16/2007 0:00,214S,214,S,,,,Backhoe Loader - 14.0 to 15.0 Ft Standard Digging Depth,Florida,BL,Backhoe Loaders,Four Wheel Drive,OROPS,None or Unspecified,None or Unspecified,No,Extended,Standard,None or Unspecified,,,,,,,,,,,,,,,,,,,,,,,,,
15876,1708910,28000,1380608,132,1.0,1998,,,11/16/2004 0:00,214S,214,S,,,,Backhoe Loader - 14.0 to 15.0 Ft Standard Digging Depth,Texas,BL,Backhoe Loaders,Four Wheel Drive,OROPS,None or Unspecified,None or Unspecified,No,Standard,Standard,None or Unspecified,,,,,,,,,,,,,,,,,,,,,,,,,
15876,1708928,29000,1428504,132,2.0,1999,,,9/15/2004 0:00,214S,214,S,,,,Backhoe Loader - 14.0 to 15.0 Ft Standard Digging Depth,Texas,BL,Backhoe Loaders,Four Wheel Drive,EROPS w AC,None or Unspecified,None or Unspecified,No,Extended,Standard,None or Unspecified,,,,,,,,,,,,,,,,,,,,,,,,,
15876,1708943,20000,1086275,132,1.0,1998,,,8/28/2003 0:00,214S,214,S,,,,Backhoe Loader - 14.0 to 15.0 Ft Standard Digging Depth,Georgia,BL,Backhoe Loaders,Four Wheel Drive,OROPS,None or Unspecified,None or Unspecified,No,Standard,Standard,None or Unspecified,,,,,,,,,,,,,,,,,,,,,,,,,
15876,1708946,26000,1146436,132,8.0,2000,,,5/28/2003 0:00,214S,214,S,,,,Backhoe Loader - 14.0 to 15.0 Ft Standard Digging Depth,Mississippi,BL,Backhoe Loaders,Four Wheel Drive,OROPS,Yes,None or Unspecified,No,Standard,Standard,None or Unspecified,,,,,,,,,,,,,,,,,,,,,,,,,
15876,1708966,27000,1520860,132,1.0,1999,,,3/12/2009 0:00,214S,214,S,,,,Backhoe Loader - 14.0 to 15.0 Ft Standard Digging Depth,Illinois,BL,Backhoe Loaders,Four Wheel Drive,EROPS,None or Unspecified,None or Unspecified,No,Extended,Standard,None or Unspecified,,,,,,,,,,,,,,,,,,,,,,,,,
15876,1708997,22000,1213374,132,2.0,1998,,,10/4/2003 0:00,214S,214,S,,,,Backhoe Loader - 14.0 to 15.0 Ft Standard Digging Depth,Pennsylvania,BL,Backhoe Loaders,Four Wheel Drive,EROPS,None or Unspecified,None or Unspecified,No,Standard,Standard,None or Unspecified,,,,,,,,,,,,,,,,,,,,,,,,,
15876,1708998,24500,1213374,132,2.0,1998,,,9/17/2003 0:00,214S,214,S,,,,Backhoe Loader - 14.0 to 15.0 Ft Standard Digging Depth,Texas,BL,Backhoe Loaders,Four Wheel Drive,EROPS,None or Unspecified,None or Unspecified,No,Standard,Standard,None or Unspecified,,,,,,,,,,,,,,,,,,,,,,,,,
15876,1709010,28000,1543661,132,1.0,1999,,,2/22/2006 0:00,214S,214,S,,,,Backhoe Loader - 14.0 to 15.0 Ft Standard Digging Depth,Florida,BL,Backhoe Loaders,Four Wheel Drive,OROPS,Yes,None or Unspecified,No,Extended,Standard,None or Unspecified,,,,,,,,,,,,,,,,,,,,,,,,,
15876,1709025,21000,1220528,132,2.0,2000,,,1/30/2005 0:00,214S,214,S,,,,Backhoe Loader - 14.0 to 15.0 Ft Standard Digging Depth,Florida,BL,Backhoe Loaders,Four Wheel Drive,OROPS,None or Unspecified,None or Unspecified,No,Standard,Standard,None or Unspecified,,,,,,,,,,,,,,,,,,,,,,,,,
15876,1709052,22500,1174482,132,1.0,2000,,,9/23/2009 0:00,214S,214,S,,,,Backhoe Loader - 14.0 to 15.0 Ft Standard Digging Depth,Texas,BL,Backhoe Loaders,Four Wheel Drive,OROPS,None or Unspecified,None or Unspecified,No,Extended,Standard,None or Unspecified,,,,,,,,,,,,,,,,,,,,,,,,,
15876,1709068,26000,1270011,132,1.0,2000,,,12/8/2005 0:00,214S,214,S,,,,Backhoe Loader - 14.0 to 15.0 Ft Standard Digging Depth,Texas,BL,Backhoe Loaders,Four Wheel Drive,OROPS,None or Unspecified,None or Unspecified,No,Extended,Standard,None or Unspecified,,,,,,,,,,,,,,,,,,,,,,,,,
15876,1709073,18500,1352028,132,2.0,1000,,,1/31/2010 0:00,214S,214,S,,,,Backhoe Loader - 14.0 to 15.0 Ft Standard Digging Depth,Florida,BL,Backhoe Loaders,Four Wheel Drive,EROPS,None or Unspecified,None or Unspecified,No,Standard,Standard,None or Unspecified,,,,,,,,,,,,,,,,,,,,,,,,,
15876,1709074,18500,1352028,132,2.0,2000,,,2/4/2010 0:00,214S,214,S,,,,Backhoe Loader - 14.0 to 15.0 Ft Standard Digging Depth,Florida,BL,Backhoe Loaders,Four Wheel Drive,EROPS,None or Unspecified,None or Unspecified,No,Standard,Standard,None or Unspecified,,,,,,,,,,,,,,,,,,,,,,,,,
15876,1709095,25750,155595,132,4.0,2000,,,2/8/2005 0:00,214S,214,S,,,,Backhoe Loader - 14.0 to 15.0 Ft Standard Digging Depth,Florida,BL,Backhoe Loaders,Four Wheel Drive,OROPS,Yes,Reversible,No,Extended,Standard,None or Unspecified,,,,,,,,,,,,,,,,,,,,,,,,,
15876,1711337,8500,1402530,132,4.0,1000,,,2/12/2008 0:00,214S,214,S,,,,Backhoe Loader - 14.0 to 15.0 Ft Standard Digging Depth,Florida,BL,Backhoe Loaders,Four Wheel Drive,OROPS,None or Unspecified,None or Unspecified,No,Standard,Standard,None or Unspecified,,,,,,,,,,,,,,,,,,,,,,,,,
15876,1713556,23000,1380411,132,1.0,2000,,,4/2/2008 0:00,214S,214,S,,,,Backhoe Loader - 14.0 to 15.0 Ft Standard Digging Depth,Maryland,BL,Backhoe Loaders,Four Wheel Drive,EROPS,None or Unspecified,None or Unspecified,No,Extended,Standard,None or Unspecified,,,,,,,,,,,,,,,,,,,,,,,,,
15876,1713612,24000,1185944,132,8.0,2001,,,9/13/2006 0:00,214S,214,S,,,,Backhoe Loader - 14.0 to 15.0 Ft Standard Digging Depth,Mississippi,BL,Backhoe Loaders,Four Wheel Drive,OROPS,None or Unspecified,None or Unspecified,No,Standard,Standard,None or Unspecified,,,,,,,,,,,,,,,,,,,,,,,,,
15876,1713616,20000,1236247,132,7.0,1000,,,4/24/2008 0:00,214S,214,S,,,,Backhoe Loader - 14.0 to 15.0 Ft Standard Digging Depth,South Carolina,BL,Backhoe Loaders,Four Wheel Drive,OROPS,None or Unspecified,None or Unspecified,No,Standard,Standard,None or Unspecified,,,,,,,,,,,,,,,,,,,,,,,,,
15876,1713618,23500,1327235,132,8.0,2001,,,9/13/2006 0:00,214S,214,S,,,,Backhoe Loader - 14.0 to 15.0 Ft Standard Digging Depth,Mississippi,BL,Backhoe Loaders,Four Wheel Drive,OROPS,None or Unspecified,None or Unspecified,No,Standard,Standard,None or Unspecified,,,,,,,,,,,,,,,,,,,,,,,,,
15876,1713765,23500,1245194,132,1.0,2003,,,12/1/2009 0:00,214S,214,S,,,,Backhoe Loader - 14.0 to 15.0 Ft Standard Digging Depth,California,BL,Backhoe Loaders,Four Wheel Drive,OROPS,Yes,None or Unspecified,No,Extended,Standard,None or Unspecified,,,,,,,,,,,,,,,,,,,,,,,,,
15876,1713868,32000,1482631,132,14.0,2005,215.0,Low,3/20/2009 0:00,214S,214,S,,,,Backhoe Loader - 14.0 to 15.0 Ft Standard Digging Depth,Indiana,BL,Backhoe Loaders,Four Wheel Drive,EROPS w AC,None or Unspecified,None or Unspecified,No,Extended,Standard,None or Unspecified,,,,,,,,,,,,,,,,,,,,,,,,,
15876,1713943,24000,1200047,132,3.0,2005,,,11/4/2010 0:00,214S,214,S,,,,Backhoe Loader - 14.0 to 15.0 Ft Standard Digging Depth,California,BL,Backhoe Loaders,Four Wheel Drive,OROPS,Yes,None or Unspecified,No,Extended,Standard,None or Unspecified,,,,,,,,,,,,,,,,,,,,,,,,,
15876,1714151,24000,1296066,132,5.0,1998,,,6/15/2005 0:00,214S,214,S,,,,Backhoe Loader - 14.0 to 15.0 Ft Standard Digging Depth,Connecticut,BL,Backhoe Loaders,Four Wheel Drive,OROPS,None or Unspecified,None or Unspecified,No,Extended,Standard,None or Unspecified,,,,,,,,,,,,,,,,,,,,,,,,,
15876,1714204,27500,1217539,132,2.0,2002,,,12/10/2005 0:00,214S,214,S,,,,Backhoe Loader - 14.0 to 15.0 Ft Standard Digging Depth,Pennsylvania,BL,Backhoe Loaders,Two Wheel Drive,EROPS,None or Unspecified,None or Unspecified,No,Standard,Standard,None or Unspecified,,,,,,,,,,,,,,,,,,,,,,,,,
15876,1714457,13000,1099774,132,2.0,1997,,,2/3/2008 0:00,214S,214,S,,,,Backhoe Loader - 14.0 to 15.0 Ft Standard Digging Depth,Florida,BL,Backhoe Loaders,Four Wheel Drive,OROPS,None or Unspecified,None or Unspecified,No,Standard,Standard,None or Unspecified,,,,,,,,,,,,,,,,,,,,,,,,,
15876,1714458,8500,1099774,132,4.0,1000,,,2/11/2008 0:00,214S,214,S,,,,Backhoe Loader - 14.0 to 15.0 Ft Standard Digging Depth,Florida,BL,Backhoe Loaders,Four Wheel Drive,OROPS,None or Unspecified,None or Unspecified,No,Standard,Standard,None or Unspecified,,,,,,,,,,,,,,,,,,,,,,,,,
15876,1714869,36000,1303280,132,1.0,2005,,,4/29/2008 0:00,214S,214,S,,,,Backhoe Loader - 14.0 to 15.0 Ft Standard Digging Depth,California,BL,Backhoe Loaders,Four Wheel Drive,EROPS w AC,None or Unspecified,None or Unspecified,No,Extended,Standard,None or Unspecified,,,,,,,,,,,,,,,,,,,,,,,,,
15876,1714873,22000,1093545,132,1.0,1000,,,3/30/2005 0:00,214S,214,S,,,,Backhoe Loader - 14.0 to 15.0 Ft Standard Digging Depth,Washington,BL,Backhoe Loaders,Four Wheel Drive,EROPS,None or Unspecified,None or Unspecified,No,Extended,Standard,None or Unspecified,,,,,,,,,,,,,,,,,,,,,,,,,
15876,1714876,20000,1207602,132,1.0,1995,,,6/7/2005 0:00,214S,214,S,,,,Backhoe Loader - 14.0 to 15.0 Ft Standard Digging Depth,California,BL,Backhoe Loaders,Four Wheel Drive,OROPS,None or Unspecified,None or Unspecified,No,Extended,Standard,None or Unspecified,,,,,,,,,,,,,,,,,,,,,,,,,
15876,1714877,24000,1457359,132,99.0,1996,,,12/10/2005 0:00,214S,214,S,,,,Backhoe Loader - 14.0 to 15.0 Ft Standard Digging Depth,California,BL,Backhoe Loaders,Four Wheel Drive,OROPS,None or Unspecified,None or Unspecified,No,Standard,Standard,None or Unspecified,,,,,,,,,,,,,,,,,,,,,,,,,
15876,1714883,21000,1114890,132,1.0,1997,,,2/28/2001 0:00,214S,214,S,,,,Backhoe Loader - 14.0 to 15.0 Ft Standard Digging Depth,Texas,BL,Backhoe Loaders,Four Wheel Drive,OROPS,Yes,None or Unspecified,No,Standard,Standard,None or Unspecified,,,,,,,,,,,,,,,,,,,,,,,,,
15876,1714886,31000,1245225,132,1.0,1997,,,10/22/2003 0:00,214S,214,S,,,,Backhoe Loader - 14.0 to 15.0 Ft Standard Digging Depth,Maine,BL,Backhoe Loaders,Four Wheel Drive,EROPS,None or Unspecified,None or Unspecified,No,Extended,Standard,None or Unspecified,,,,,,,,,,,,,,,,,,,,,,,,,
15876,1714887,21500,1330062,132,9.0,1997,,,2/22/2006 0:00,214S,214,S,,,,Backhoe Loader - 14.0 to 15.0 Ft Standard Digging Depth,Florida,BL,Backhoe Loaders,Four Wheel Drive,OROPS,None or Unspecified,None or Unspecified,No,Extended,Standard,None or Unspecified,,,,,,,,,,,,,,,,,,,,,,,,,
15876,1714889,19500,1544756,132,1.0,1000,,,11/8/2007 0:00,214S,214,S,,,,Backhoe Loader - 14.0 to 15.0 Ft Standard Digging Depth,Texas,BL,Backhoe Loaders,Four Wheel Drive,EROPS,None or Unspecified,None or Unspecified,No,Extended,Standard,None or Unspecified,,,,,,,,,,,,,,,,,,,,,,,,,
15876,1714891,27000,1368213,132,1.0,1996,,,10/22/2003 0:00,214S,214,S,,,,Backhoe Loader - 14.0 to 15.0 Ft Standard Digging Depth,Maine,BL,Backhoe Loaders,Four Wheel Drive,EROPS,None or Unspecified,None or Unspecified,No,Extended,Standard,None or Unspecified,,,,,,,,,,,,,,,,,,,,,,,,,
15876,1714893,32000,1197851,132,1.0,1998,,,6/23/2003 0:00,214S,214,S,,,,Backhoe Loader - 14.0 to 15.0 Ft Standard Digging Depth,Missouri,BL,Backhoe Loaders,Four Wheel Drive,EROPS w AC,None or Unspecified,None or Unspecified,No,Extended,Standard,None or Unspecified,,,,,,,,,,,,,,,,,,,,,,,,,
15876,1714894,19000,1320722,132,1.0,1998,,,7/21/2005 0:00,214S,214,S,,,,Backhoe Loader - 14.0 to 15.0 Ft Standard Digging Depth,Texas,BL,Backhoe Loaders,Four Wheel Drive,OROPS,None or Unspecified,None or Unspecified,No,Extended,Standard,None or Unspecified,,,,,,,,,,,,,,,,,,,,,,,,,
15876,1714895,20000,1378745,132,1.0,1998,,,9/23/2008 0:00,214S,214,S,,,,Backhoe Loader - 14.0 to 15.0 Ft Standard Digging Depth,Ohio,BL,Backhoe Loaders,Two Wheel Drive,EROPS,Yes,None or Unspecified,No,Extended,Standard,None or Unspecified,,,,,,,,,,,,,,,,,,,,,,,,,
15876,1714896,30000,1156426,132,1.0,1998,,,11/8/2007 0:00,214S,214,S,,,,Backhoe Loader - 14.0 to 15.0 Ft Standard Digging Depth,Texas,BL,Backhoe Loaders,Four Wheel Drive,EROPS w AC,Yes,None or Unspecified,No,Extended,Standard,None or Unspecified,,,,,,,,,,,,,,,,,,,,,,,,,
15876,1714899,28000,1058604,132,1.0,2000,,,5/12/2005 0:00,214S,214,S,,,,Backhoe Loader - 14.0 to 15.0 Ft Standard Digging Depth,Texas,BL,Backhoe Loaders,Four Wheel Drive,EROPS,Yes,None or Unspecified,No,Extended,Powershift,None or Unspecified,,,,,,,,,,,,,,,,,,,,,,,,,
15876,1714900,37000,1314674,132,1.0,1998,,,10/22/2003 0:00,214S,214,S,,,,Backhoe Loader - 14.0 to 15.0 Ft Standard Digging Depth,Maine,BL,Backhoe Loaders,Four Wheel Drive,EROPS,None or Unspecified,None or Unspecified,No,Extended,Standard,None or Unspecified,,,,,,,,,,,,,,,,,,,,,,,,,
15876,1714903,21000,1333404,132,1.0,2000,,,8/25/2005 0:00,214S,214,S,,,,Backhoe Loader - 14.0 to 15.0 Ft Standard Digging Depth,Texas,BL,Backhoe Loaders,Four Wheel Drive,OROPS,None or Unspecified,None or Unspecified,No,Standard,Standard,None or Unspecified,,,,,,,,,,,,,,,,,,,,,,,,,
15876,1714904,25750,1194807,132,4.0,2000,,,2/7/2005 0:00,214S,214,S,,,,Backhoe Loader - 14.0 to 15.0 Ft Standard Digging Depth,Florida,BL,Backhoe Loaders,Four Wheel Drive,OROPS,Yes,Reversible,No,Extended,Standard,None or Unspecified,,,,,,,,,,,,,,,,,,,,,,,,,
15876,1715107,26500,1293421,132,22.0,1000,,,6/12/1999 0:00,214S,214,S,,,,Backhoe Loader - 14.0 to 15.0 Ft Standard Digging Depth,Minnesota,BL,Backhoe Loaders,Two Wheel Drive,OROPS,None or Unspecified,None or Unspecified,No,Standard,Standard,None or Unspecified,,,,,,,,,,,,,,,,,,,,,,,,,
15876,1715143,20000,1116879,132,1.0,2000,,,8/31/2005 0:00,214S,214,S,,,,Backhoe Loader - 14.0 to 15.0 Ft Standard Digging Depth,Georgia,BL,Backhoe Loaders,Four Wheel Drive,OROPS,None or Unspecified,None or Unspecified,No,Standard,Standard,None or Unspecified,,,,,,,,,,,,,,,,,,,,,,,,,
15876,1715217,22000,1454273,132,8.0,1995,,,3/24/2004 0:00,214S,214,S,,,,Backhoe Loader - 14.0 to 15.0 Ft Standard Digging Depth,Mississippi,BL,Backhoe Loaders,Four Wheel Drive,OROPS,None or Unspecified,None or Unspecified,No,Standard,Standard,None or Unspecified,,,,,,,,,,,,,,,,,,,,,,,,,
15876,1716899,26000,1553687,132,9.0,1997,,,4/6/2000 0:00,214S,214,S,,,,Backhoe Loader - 14.0 to 15.0 Ft Standard Digging Depth,Texas,BL,Backhoe Loaders,Four Wheel Drive,OROPS,None or Unspecified,None or Unspecified,No,Standard,Standard,None or Unspecified,,,,,,,,,,,,,,,,,,,,,,,,,
15876,1716933,32000,1439786,132,2.0,2000,,,2/5/2006 0:00,214S,214,S,,,,Backhoe Loader - 14.0 to 15.0 Ft Standard Digging Depth,Florida,BL,Backhoe Loaders,Four Wheel Drive,EROPS,None or Unspecified,None or Unspecified,No,Extended,Standard,None or Unspecified,,,,,,,,,,,,,,,,,,,,,,,,,
15876,1716944,26000,1187809,132,1.0,1982,,,9/20/2005 0:00,214S,214,S,,,,Backhoe Loader - 14.0 to 15.0 Ft Standard Digging Depth,Illinois,BL,Backhoe Loaders,Four Wheel Drive,EROPS,None or Unspecified,None or Unspecified,No,Extended,Standard,None or Unspecified,,,,,,,,,,,,,,,,,,,,,,,,,
15876,1716950,28000,1260775,132,4.0,1994,,,2/12/2007 0:00,214S,214,S,,,,Backhoe Loader - 14.0 to 15.0 Ft Standard Digging Depth,Florida,BL,Backhoe Loaders,Two Wheel Drive,EROPS,None or Unspecified,None or Unspecified,No,Extended,Standard,None or Unspecified,,,,,,,,,,,,,,,,,,,,,,,,,
15876,2388271,21000,1334939,136,8.0,1997,1200.0,Low,6/17/2009 0:00,214S,214,S,,,,Backhoe Loader - 14.0 to 15.0 Ft Standard Digging Depth,Arkansas,BL,Backhoe Loaders,Four Wheel Drive,OROPS,None or Unspecified,None or Unspecified,No,Extended,Standard,None or Unspecified,,,,,,,,,,,,,,,,,,,,,,,,,
15876,2388352,16500,1247289,136,5.0,2000,0.0,,6/26/2009 0:00,214S,214,S,,,,Backhoe Loader - 14.0 to 15.0 Ft Standard Digging Depth,Connecticut,BL,Backhoe Loaders,Four Wheel Drive,OROPS,None or Unspecified,None or Unspecified,No,Extended,Standard,None or Unspecified,,,,,,,,,,,,,,,,,,,,,,,,,
15876,2391114,16250,1756541,136,,1000,0.0,,8/26/2009 0:00,214S,214,S,,,,Backhoe Loader - 14.0 to 15.0 Ft Standard Digging Depth,Arkansas,BL,Backhoe Loaders,Two Wheel Drive,OROPS,None or Unspecified,None or Unspecified,No,Extended,Standard,None or Unspecified,,,,,,,,,,,,,,,,,,,,,,,,,
15876,2391291,23500,1340882,136,1.0,2003,0.0,,12/1/2009 0:00,214S,214,S,,,,Backhoe Loader - 14.0 to 15.0 Ft Standard Digging Depth,California,BL,Backhoe Loaders,Four Wheel Drive,OROPS,Yes,None or Unspecified,No,Extended,Standard,None or Unspecified,,,,,,,,,,,,,,,,,,,,,,,,,
15876,2391295,13750,1351231,136,16.0,1996,9306.0,High,6/5/2009 0:00,214S,214,S,,,,Backhoe Loader - 14.0 to 15.0 Ft Standard Digging Depth,Ohio,BL,Backhoe Loaders,Four Wheel Drive,EROPS,Yes,None or Unspecified,No,Extended,Standard,None or Unspecified,,,,,,,,,,,,,,,,,,,,,,,,,
15876,2391301,17000,1238822,136,1.0,1000,0.0,,2/15/2010 0:00,214S,214,S,,,,Backhoe Loader - 14.0 to 15.0 Ft Standard Digging Depth,Florida,BL,Backhoe Loaders,Four Wheel Drive,OROPS,None or Unspecified,None or Unspecified,No,Extended,Standard,None or Unspecified,,,,,,,,,,,,,,,,,,,,,,,,,
15876,2391302,14500,1302621,136,1.0,1000,0.0,,6/24/2009 0:00,214S,214,S,,,,Backhoe Loader - 14.0 to 15.0 Ft Standard Digging Depth,Maryland,BL,Backhoe Loaders,Four Wheel Drive,EROPS,None or Unspecified,None or Unspecified,No,Extended,Standard,None or Unspecified,,,,,,,,,,,,,,,,,,,,,,,,,
15876,2391303,14500,1692226,136,1.0,1000,0.0,,6/24/2009 0:00,214S,214,S,,,,Backhoe Loader - 14.0 to 15.0 Ft Standard Digging Depth,Maryland,BL,Backhoe Loaders,Two Wheel Drive,EROPS,None or Unspecified,None or Unspecified,No,Extended,Standard,None or Unspecified,,,,,,,,,,,,,,,,,,,,,,,,,
15876,2391307,11000,1311965,136,,1998,0.0,,9/21/2009 0:00,214S,214,S,,,,Backhoe Loader - 14.0 to 15.0 Ft Standard Digging Depth,Illinois,BL,Backhoe Loaders,Four Wheel Drive,EROPS,None or Unspecified,None or Unspecified,No,Standard,Standard,None or Unspecified,,,,,,,,,,,,,,,,,,,,,,,,,
15876,2391310,22500,1670429,136,,1000,0.0,,9/23/2009 0:00,214S,214,S,,,,Backhoe Loader - 14.0 to 15.0 Ft Standard Digging Depth,Texas,BL,Backhoe Loaders,Two Wheel Drive,OROPS,None or Unspecified,None or Unspecified,No,Extended,Standard,None or Unspecified,,,,,,,,,,,,,,,,,,,,,,,,,
15876,2684237,22500,1254054,149,1.0,2001,0.0,,3/30/2010 0:00,214S,214,S,,,,Backhoe Loader - 14.0 to 15.0 Ft Standard Digging Depth,Maryland,BL,Backhoe Loaders,Four Wheel Drive,EROPS w AC,Yes,None or Unspecified,No,Extended,Standard,None or Unspecified,,,,,,,,,,,,,,,,,,,,,,,,,
15876,2684262,14000,1540420,149,1.0,1000,4682.0,Low,5/18/2011 0:00,214S,214,S,,,,Backhoe Loader - 14.0 to 15.0 Ft Standard Digging Depth,California,BL,Backhoe Loaders,Four Wheel Drive,OROPS,None or Unspecified,None or Unspecified,No,Extended,Standard,None or Unspecified,,,,,,,,,,,,,,,,,,,,,,,,,
15876,2685842,17500,1131876,149,1.0,1994,4886.0,Low,9/29/2010 0:00,214S,214,S,,,,Backhoe Loader - 14.0 to 15.0 Ft Standard Digging Depth,Texas,BL,Backhoe Loaders,Four Wheel Drive,EROPS w AC,Yes,None or Unspecified,No,Extended,Standard,None or Unspecified,,,,,,,,,,,,,,,,,,,,,,,,,
15876,2685844,16000,1129200,149,1.0,1994,9337.0,Medium,4/6/2011 0:00,214S,214,S,,,,Backhoe Loader - 14.0 to 15.0 Ft Standard Digging Depth,Oregon,BL,Backhoe Loaders,Four Wheel Drive,OROPS,None or Unspecified,None or Unspecified,No,Extended,Standard,None or Unspecified,,,,,,,,,,,,,,,,,,,,,,,,,
15876,4349597,20000,2274721,172,1.0,1995,1517.0,Low,9/20/2011 0:00,214S,214,S,,,,Backhoe Loader - 14.0 to 15.0 Ft Standard Digging Depth,Washington,BL,Backhoe Loaders,Two Wheel Drive,EROPS w AC,Yes,None or Unspecified,Yes,Extended,Standard,None or Unspecified,,,,,,,,,,,,,,,,,,,,,,,,,
15876,4349602,14500,1245558,172,1.0,1997,,,6/24/2009 0:00,214S,214,S,,,,Backhoe Loader - 14.0 to 15.0 Ft Standard Digging Depth,Maryland,BL,Backhoe Loaders,Four Wheel Drive,EROPS,None or Unspecified,None or Unspecified,No,Extended,Standard,None or Unspecified,,,,,,,,,,,,,,,,,,,,,,,,,
15876,4349616,27000,2305533,172,1.0,1999,3209.0,Low,3/12/2009 0:00,214S,214,S,,,,Backhoe Loader - 14.0 to 15.0 Ft Standard Digging Depth,Illinois,BL,Backhoe Loaders,Two Wheel Drive,EROPS,None or Unspecified,None or Unspecified,No,Extended,Standard,None or Unspecified,,,,,,,,,,,,,,,,,,,,,,,,,
15876,4349622,23500,2301785,172,1.0,1999,4566.0,Medium,9/14/2011 0:00,214S,214,S,,,,Backhoe Loader - 14.0 to 15.0 Ft Standard Digging Depth,Missouri,BL,Backhoe Loaders,Two Wheel Drive,EROPS w AC,Yes,None or Unspecified,No,Extended,Standard,None or Unspecified,,,,,,,,,,,,,,,,,,,,,,,,,
15876,4349650,22000,2287112,172,1.0,2002,729.0,Low,12/13/2011 0:00,214S,214,S,,,,Backhoe Loader - 14.0 to 15.0 Ft Standard Digging Depth,Illinois,BL,Backhoe Loaders,Two Wheel Drive,EROPS w AC,None or Unspecified,None or Unspecified,No,Extended,Standard,None or Unspecified,,,,,,,,,,,,,,,,,,,,,,,,,
15876,6298284,20000,1849839,149,1.0,1995,,,9/21/2011 0:00,214S,214,S,,,,Backhoe Loader - 14.0 to 15.0 Ft Standard Digging Depth,Washington,BL,Backhoe Loaders,Two Wheel Drive,EROPS,None or Unspecified,None or Unspecified,No,Standard,Standard,None or Unspecified,,,,,,,,,,,,,,,,,,,,,,,,,
15876,6298290,23500,1906441,149,1.0,1999,,,9/15/2011 0:00,214S,214,S,,,,Backhoe Loader - 14.0 to 15.0 Ft Standard Digging Depth,Missouri,BL,Backhoe Loaders,Two Wheel Drive,OROPS,None or Unspecified,None or Unspecified,No,Standard,Standard,None or Unspecified,,,,,,,,,,,,,,,,,,,,,,,,,
15876,6298300,22000,1910415,149,1.0,2002,,,12/14/2011 0:00,214S,214,S,,,,Backhoe Loader - 14.0 to 15.0 Ft Standard Digging Depth,Illinois,BL,Backhoe Loaders,Two Wheel Drive,EROPS,None or Unspecified,None or Unspecified,No,Extended,Standard,None or Unspecified,,,,,,,,,,,,,,,,,,,,,,,,,
