ModelID,SalesID,SalePrice,MachineID,datasource,auctioneerID,YearMade,MachineHoursCurrentMeter,UsageBand,saledate,fiModelDesc,fiBaseModel,fiSecondaryDesc,fiModelSeries,fiModelDescriptor,ProductSize,fiProductClassDesc,state,ProductGroup,ProductGroupDesc,Drive_System,Enclosure,Forks,Pad_Type,Ride_Control,Stick,Transmission,Turbocharged,Blade_Extension,Blade_Width,Enclosure_Type,Engine_Horsepower,Hydraulics,Pushblock,Ripper,Scarifier,Tip_Control,Tire_Size,Coupler,Coupler_System,Grouser_Tracks,Hydraulics_Flow,Track_Type,Undercarriage_Pad_Width,Stick_Length,Thumb,Pattern_Changer,Grouser_Type,Backhoe_Mounting,Blade_Type,Travel_Controls,Differential_Type,Steering_Controls
15914,1172024,45000,1060383,121,3.0,2007,78.0,Low,5/3/2011 0:00,407ZX,407,,,ZX,Compact,Wheel Loader - 60.0 to 80.0 Horsepower,Massachusetts,WL,Wheel Loader,,EROPS,None or Unspecified,,None or Unspecified,,,,,,,,2 Valve,,,,,None or Unspecified,Hydraulic,,,,,,,,,,,,,Standard,Conventional
15914,2386868,15000,1663948,136,1.0,1000,0.0,,12/3/2008 0:00,407ZX,407,,,ZX,Compact,Wheel Loader - 60.0 to 80.0 Horsepower,Texas,WL,Wheel Loader,,OROPS,None or Unspecified,,None or Unspecified,,,,,,,,2 Valve,,,,,None or Unspecified,None or Unspecified,,,,,,,,,,,,,Standard,Conventional
15914,2390733,13500,1699751,136,1.0,2005,0.0,,12/10/2009 0:00,407ZX,407,,,ZX,Compact,Wheel Loader - 60.0 to 80.0 Horsepower,Mississippi,WL,Wheel Loader,,EROPS,None or Unspecified,,None or Unspecified,,,,,,,,2 Valve,,,,,None or Unspecified,None or Unspecified,,,,,,,,,,,,,Standard,Conventional
15914,2391685,13000,1439557,136,1.0,1000,0.0,,12/11/2008 0:00,407ZX,407,,,ZX,Compact,Wheel Loader - 60.0 to 80.0 Horsepower,Ohio,WL,Wheel Loader,,EROPS,None or Unspecified,,None or Unspecified,,,,,,,,2 Valve,,,,,None or Unspecified,None or Unspecified,,,,,,,,,,,,,Standard,Conventional
