ModelID,SalesID,SalePrice,MachineID,datasource,auctioneerID,YearMade,MachineHoursCurrentMeter,UsageBand,saledate,fiModelDesc,fiBaseModel,fiSecondaryDesc,fiModelSeries,fiModelDescriptor,ProductSize,fiProductClassDesc,state,ProductGroup,ProductGroupDesc,Drive_System,Enclosure,Forks,Pad_Type,Ride_Control,Stick,Transmission,Turbocharged,Blade_Extension,Blade_Width,Enclosure_Type,Engine_Horsepower,Hydraulics,Pushblock,Ripper,Scarifier,Tip_Control,Tire_Size,Coupler,Coupler_System,Grouser_Tracks,Hydraulics_Flow,Track_Type,Undercarriage_Pad_Width,Stick_Length,Thumb,Pattern_Changer,Grouser_Type,Backhoe_Mounting,Blade_Type,Travel_Controls,Differential_Type,Steering_Controls
1592,1160128,10500,385426,121,3.0,1000,0.0,,4/12/2007 0:00,D5LGP,D5,,,LGP,Medium,"Track Type Tractor, Dozer - 105.0 to 130.0 Horsepower",Missouri,TTT,Track Type Tractors,,OROPS,,,,,Powershift,,,,,,2 Valve,,None or Unspecified,,,,,,,,,,,,,,None or Unspecified,None or Unspecified,None or Unspecified,,
1592,1163965,15000,455528,121,3.0,1974,1400.0,Low,8/2/2004 0:00,D5LGP,D5,,,LGP,Medium,"Track Type Tractor, Dozer - 105.0 to 130.0 Horsepower",California,TTT,Track Type Tractors,,EROPS,,,,,Standard,,,,,,2 Valve,,Multi Shank,,,,,,,,,,,,,,None or Unspecified,None or Unspecified,None or Unspecified,,
1592,1299492,16000,1432175,132,1.0,1971,,,3/20/2002 0:00,D5LGP,D5,,,LGP,Medium,"Track Type Tractor, Dozer - 105.0 to 130.0 Horsepower",Texas,TTT,Track Type Tractors,,OROPS,,,,,Standard,,,,,,2 Valve,,None or Unspecified,,,,,,,,,,,,,,None or Unspecified,Straight,None or Unspecified,,
1592,1299493,8000,1118093,132,15.0,1971,,,3/12/1998 0:00,D5LGP,D5,,,LGP,Medium,"Track Type Tractor, Dozer - 105.0 to 130.0 Horsepower",Pennsylvania,TTT,Track Type Tractors,,OROPS,,,,,Standard,,,,,,2 Valve,,None or Unspecified,,,,,,,,,,,,,,None or Unspecified,Straight,None or Unspecified,,
1592,1299494,9500,1374467,132,1.0,1972,,,6/24/1992 0:00,D5LGP,D5,,,LGP,Medium,"Track Type Tractor, Dozer - 105.0 to 130.0 Horsepower",Texas,TTT,Track Type Tractors,,OROPS,,,,,Standard,,,,,,2 Valve,,None or Unspecified,,,,,,,,,,,,,,None or Unspecified,Straight,None or Unspecified,,
1592,1299496,22500,1392013,132,22.0,1972,,,9/15/2001 0:00,D5LGP,D5,,,LGP,Medium,"Track Type Tractor, Dozer - 105.0 to 130.0 Horsepower",Minnesota,TTT,Track Type Tractors,,OROPS,,,,,Standard,,,,,,2 Valve,,None or Unspecified,,,,,,,,,,,,,,None or Unspecified,None or Unspecified,None or Unspecified,,
1592,1299497,9000,68614,132,10.0,1972,,,10/19/2000 0:00,D5LGP,D5,,,LGP,Medium,"Track Type Tractor, Dozer - 105.0 to 130.0 Horsepower",Louisiana,TTT,Track Type Tractors,,OROPS,,,,,Standard,,,,,,2 Valve,,None or Unspecified,,,,,,,,,,,,,,None or Unspecified,None or Unspecified,None or Unspecified,,
1592,1299498,20000,1101304,132,21.0,1972,,,5/9/1997 0:00,D5LGP,D5,,,LGP,Medium,"Track Type Tractor, Dozer - 105.0 to 130.0 Horsepower",Maine,TTT,Track Type Tractors,,OROPS,,,,,Standard,,,,,,2 Valve,,None or Unspecified,,,,,,,,,,,,,,None or Unspecified,None or Unspecified,None or Unspecified,,
1592,1299499,17000,1096993,132,6.0,1972,,,3/29/1989 0:00,D5LGP,D5,,,LGP,Medium,"Track Type Tractor, Dozer - 105.0 to 130.0 Horsepower",Maryland,TTT,Track Type Tractors,,OROPS,,,,,Standard,,,,,,2 Valve,,None or Unspecified,,,,,,,,,,,,,,None or Unspecified,Straight,None or Unspecified,,
1592,1299500,12500,1279485,132,24.0,1972,,,8/1/1991 0:00,D5LGP,D5,,,LGP,Medium,"Track Type Tractor, Dozer - 105.0 to 130.0 Horsepower",Illinois,TTT,Track Type Tractors,,OROPS,,,,,Powershift,,,,,,2 Valve,,None or Unspecified,,,,,,,,,,,,,,None or Unspecified,Angle,None or Unspecified,,
1592,1299501,9000,1426918,132,1.0,1972,,,2/24/2004 0:00,D5LGP,D5,,,LGP,Medium,"Track Type Tractor, Dozer - 105.0 to 130.0 Horsepower",Texas,TTT,Track Type Tractors,,OROPS,,,,,Standard,,,,,,2 Valve,,None or Unspecified,,,,,,,,,,,,,,None or Unspecified,Straight,None or Unspecified,,
1592,1299502,18000,1241086,132,22.0,1973,,,3/18/2000 0:00,D5LGP,D5,,,LGP,Medium,"Track Type Tractor, Dozer - 105.0 to 130.0 Horsepower",Minnesota,TTT,Track Type Tractors,,OROPS,,,,,Standard,,,,,,2 Valve,,None or Unspecified,,,,,,,,,,,,,,None or Unspecified,None or Unspecified,None or Unspecified,,
1592,1299503,17000,1472876,132,11.0,1973,,,3/29/2001 0:00,D5LGP,D5,,,LGP,Medium,"Track Type Tractor, Dozer - 105.0 to 130.0 Horsepower",Mississippi,TTT,Track Type Tractors,,OROPS,,,,,Powershift,,,,,,2 Valve,,None or Unspecified,,,,,,,,,,,,,,None or Unspecified,Straight,None or Unspecified,,
1592,1299504,15250,1472876,132,20.0,1973,,,8/25/2004 0:00,D5LGP,D5,,,LGP,Medium,"Track Type Tractor, Dozer - 105.0 to 130.0 Horsepower",Arkansas,TTT,Track Type Tractors,,OROPS,,,,,Powershift,,,,,,2 Valve,,None or Unspecified,,,,,,,,,,,,,,None or Unspecified,Straight,None or Unspecified,,
1592,1299505,12500,1190034,132,23.0,1973,,,5/9/1992 0:00,D5LGP,D5,,,LGP,Medium,"Track Type Tractor, Dozer - 105.0 to 130.0 Horsepower",Pennsylvania,TTT,Track Type Tractors,,OROPS,,,,,Powershift,,,,,,2 Valve,,None or Unspecified,,,,,,,,,,,,,,None or Unspecified,Straight,None or Unspecified,,
1592,1299506,11500,1190034,132,1.0,1973,,,10/25/1991 0:00,D5LGP,D5,,,LGP,Medium,"Track Type Tractor, Dozer - 105.0 to 130.0 Horsepower",New Jersey,TTT,Track Type Tractors,,OROPS,,,,,Powershift,,,,,,2 Valve,,None or Unspecified,,,,,,,,,,,,,,None or Unspecified,Straight,None or Unspecified,,
1592,1299507,15500,1190034,132,4.0,1973,,,2/1/1993 0:00,D5LGP,D5,,,LGP,Medium,"Track Type Tractor, Dozer - 105.0 to 130.0 Horsepower",Florida,TTT,Track Type Tractors,,OROPS,,,,,Powershift,,,,,,2 Valve,,None or Unspecified,,,,,,,,,,,,,,None or Unspecified,Straight,None or Unspecified,,
1592,1299510,9000,1519449,132,9.0,1974,,,11/21/2002 0:00,D5LGP,D5,,,LGP,Medium,"Track Type Tractor, Dozer - 105.0 to 130.0 Horsepower",South Carolina,TTT,Track Type Tractors,,EROPS,,,,,Standard,,,,,,2 Valve,,None or Unspecified,,,,,,,,,,,,,,None or Unspecified,None or Unspecified,None or Unspecified,,
1592,1299511,11000,1440100,132,1.0,1974,,,6/8/2000 0:00,D5LGP,D5,,,LGP,Medium,"Track Type Tractor, Dozer - 105.0 to 130.0 Horsepower",Maryland,TTT,Track Type Tractors,,OROPS,,,,,Standard,,,,,,2 Valve,,None or Unspecified,,,,,,,,,,,,,,None or Unspecified,Straight,None or Unspecified,,
1592,1299513,11000,1084463,132,1.0,1974,,,5/4/2000 0:00,D5LGP,D5,,,LGP,Medium,"Track Type Tractor, Dozer - 105.0 to 130.0 Horsepower",Iowa,TTT,Track Type Tractors,,OROPS,,,,,Standard,,,,,,2 Valve,,None or Unspecified,,,,,,,,,,,,,,None or Unspecified,Straight,None or Unspecified,,
1592,1299514,15500,1456776,132,6.0,1974,,,12/1/1992 0:00,D5LGP,D5,,,LGP,Medium,"Track Type Tractor, Dozer - 105.0 to 130.0 Horsepower",Missouri,TTT,Track Type Tractors,,OROPS,,,,,Standard,,,,,,2 Valve,,None or Unspecified,,,,,,,,,,,,,,None or Unspecified,Straight,None or Unspecified,,
1592,1299515,15000,1177861,132,1.0,1974,,,10/14/1993 0:00,D5LGP,D5,,,LGP,Medium,"Track Type Tractor, Dozer - 105.0 to 130.0 Horsepower",Maine,TTT,Track Type Tractors,,OROPS,,,,,Standard,,,,,,2 Valve,,None or Unspecified,,,,,,,,,,,,,,None or Unspecified,Straight,None or Unspecified,,
1592,1299516,18000,1251228,132,1.0,1974,,,10/12/1993 0:00,D5LGP,D5,,,LGP,Medium,"Track Type Tractor, Dozer - 105.0 to 130.0 Horsepower",Colorado,TTT,Track Type Tractors,,OROPS,,,,,Standard,,,,,,2 Valve,,None or Unspecified,,,,,,,,,,,,,,None or Unspecified,Straight,None or Unspecified,,
1592,1299518,10500,1511988,132,1.0,1974,,,5/19/1993 0:00,D5LGP,D5,,,LGP,Medium,"Track Type Tractor, Dozer - 105.0 to 130.0 Horsepower",Illinois,TTT,Track Type Tractors,,OROPS,,,,,Standard,,,,,,2 Valve,,None or Unspecified,,,,,,,,,,,,,,None or Unspecified,Straight,None or Unspecified,,
1592,1299520,14000,1209901,132,2.0,1974,,,2/4/2011 0:00,D5LGP,D5,,,LGP,Medium,"Track Type Tractor, Dozer - 105.0 to 130.0 Horsepower",Florida,TTT,Track Type Tractors,,OROPS,,,,,Standard,,,,,,2 Valve,,None or Unspecified,,,,,,,,,,,,,,None or Unspecified,PAT,None or Unspecified,,
1592,1299525,12000,1080643,132,1.0,1975,,,3/31/1992 0:00,D5LGP,D5,,,LGP,Medium,"Track Type Tractor, Dozer - 105.0 to 130.0 Horsepower",Texas,TTT,Track Type Tractors,,OROPS,,,,,Standard,,,,,,2 Valve,,None or Unspecified,,,,,,,,,,,,,,None or Unspecified,Straight,None or Unspecified,,
1592,1299526,11000,1080643,132,1.0,1975,,,2/24/2004 0:00,D5LGP,D5,,,LGP,Medium,"Track Type Tractor, Dozer - 105.0 to 130.0 Horsepower",Texas,TTT,Track Type Tractors,,OROPS,,,,,Standard,,,,,,2 Valve,,None or Unspecified,,,,,,,,,,,,,,None or Unspecified,Straight,None or Unspecified,,
1592,1299527,16000,548133,132,1.0,1975,,,6/22/2000 0:00,D5LGP,D5,,,LGP,Medium,"Track Type Tractor, Dozer - 105.0 to 130.0 Horsepower",Illinois,TTT,Track Type Tractors,,OROPS,,,,,Standard,,,,,,2 Valve,,None or Unspecified,,,,,,,,,,,,,,None or Unspecified,Straight,None or Unspecified,,
1592,1299529,19500,1405100,132,2.0,1976,,,5/22/1993 0:00,D5LGP,D5,,,LGP,Medium,"Track Type Tractor, Dozer - 105.0 to 130.0 Horsepower",New York,TTT,Track Type Tractors,,OROPS,,,,,Standard,,,,,,2 Valve,,None or Unspecified,,,,,,,,,,,,,,None or Unspecified,Angle,None or Unspecified,,
1592,1299530,17500,1405100,132,2.0,1976,,,4/17/1993 0:00,D5LGP,D5,,,LGP,Medium,"Track Type Tractor, Dozer - 105.0 to 130.0 Horsepower",New York,TTT,Track Type Tractors,,OROPS,,,,,Standard,,,,,,2 Valve,,None or Unspecified,,,,,,,,,,,,,,None or Unspecified,Angle,None or Unspecified,,
1592,1299531,14500,1173815,132,1.0,1976,,,9/19/2001 0:00,D5LGP,D5,,,LGP,Medium,"Track Type Tractor, Dozer - 105.0 to 130.0 Horsepower",Texas,TTT,Track Type Tractors,,OROPS,,,,,Standard,,,,,,2 Valve,,None or Unspecified,,,,,,,,,,,,,,None or Unspecified,None or Unspecified,None or Unspecified,,
1592,1299532,9500,1367960,132,8.0,1977,,,10/12/2006 0:00,D5LGP,D5,,,LGP,Medium,"Track Type Tractor, Dozer - 105.0 to 130.0 Horsepower",Florida,TTT,Track Type Tractors,,OROPS,,,,,Standard,,,,,,2 Valve,,None or Unspecified,,,,,,,,,,,,,,None or Unspecified,Straight,None or Unspecified,,
1592,1299533,13000,1147025,132,1.0,1977,,,6/22/2000 0:00,D5LGP,D5,,,LGP,Medium,"Track Type Tractor, Dozer - 105.0 to 130.0 Horsepower",Illinois,TTT,Track Type Tractors,,OROPS,,,,,Standard,,,,,,2 Valve,,None or Unspecified,,,,,,,,,,,,,,None or Unspecified,Straight,None or Unspecified,,
1592,1299535,9500,1286122,132,1.0,1977,,,9/24/2004 0:00,D5LGP,D5,,,LGP,Medium,"Track Type Tractor, Dozer - 105.0 to 130.0 Horsepower",California,TTT,Track Type Tractors,,OROPS,,,,,Standard,,,,,,2 Valve,,None or Unspecified,,,,,,,,,,,,,,None or Unspecified,PAT,None or Unspecified,,
1592,1299538,12500,1393212,132,1.0,1978,,,4/25/1996 0:00,D5LGP,D5,,,LGP,Medium,"Track Type Tractor, Dozer - 105.0 to 130.0 Horsepower",Indiana,TTT,Track Type Tractors,,OROPS,,,,,Standard,,,,,,2 Valve,,None or Unspecified,,,,,,,,,,,,,,None or Unspecified,Straight,None or Unspecified,,
1592,1299540,14500,1213563,132,10.0,1978,,,12/3/1992 0:00,D5LGP,D5,,,LGP,Medium,"Track Type Tractor, Dozer - 105.0 to 130.0 Horsepower",Virginia,TTT,Track Type Tractors,,OROPS,,,,,Standard,,,,,,2 Valve,,None or Unspecified,,,,,,,,,,,,,,None or Unspecified,Straight,None or Unspecified,,
1592,1299542,19000,1536155,132,1.0,1978,,,5/16/1989 0:00,D5LGP,D5,,,LGP,Medium,"Track Type Tractor, Dozer - 105.0 to 130.0 Horsepower",Wyoming,TTT,Track Type Tractors,,OROPS,,,,,Standard,,,,,,2 Valve,,None or Unspecified,,,,,,,,,,,,,,None or Unspecified,Straight,None or Unspecified,,
1592,1299543,21000,1536155,132,1.0,1978,,,11/8/1990 0:00,D5LGP,D5,,,LGP,Medium,"Track Type Tractor, Dozer - 105.0 to 130.0 Horsepower",Colorado,TTT,Track Type Tractors,,OROPS,,,,,Standard,,,,,,2 Valve,,None or Unspecified,,,,,,,,,,,,,,None or Unspecified,Straight,None or Unspecified,,
1592,1299544,15000,1191213,132,4.0,1978,,,2/6/1990 0:00,D5LGP,D5,,,LGP,Medium,"Track Type Tractor, Dozer - 105.0 to 130.0 Horsepower",Florida,TTT,Track Type Tractors,,OROPS,,,,,Standard,,,,,,2 Valve,,None or Unspecified,,,,,,,,,,,,,,None or Unspecified,Straight,None or Unspecified,,
1592,1299545,13000,700495,132,99.0,1978,8617.0,Low,8/4/2011 0:00,D5LGP,D5,,,LGP,Medium,"Track Type Tractor, Dozer - 105.0 to 130.0 Horsepower",Texas,TTT,Track Type Tractors,,OROPS,,,,,Standard,,,,,,2 Valve,,None or Unspecified,,,,,,,,,,,,,,None or Unspecified,Straight,None or Unspecified,,
1592,1304183,8500,1184528,132,15.0,1976,4816.0,Low,10/5/1995 0:00,D5LGP,D5,,,LGP,Medium,"Track Type Tractor, Dozer - 105.0 to 130.0 Horsepower",Pennsylvania,TTT,Track Type Tractors,,EROPS,,,,,Direct Drive,,,,,,2 Valve,,None or Unspecified,,,,,,,,,,,,,,None or Unspecified,Straight,None or Unspecified,,
1592,1427499,17000,748004,132,1.0,1969,,,3/9/1989 0:00,D5LGP,D5,,,LGP,Medium,"Track Type Tractor, Dozer - 105.0 to 130.0 Horsepower",Washington,TTT,Track Type Tractors,,EROPS,,,,,Standard,,,,,,2 Valve,,None or Unspecified,,,,,,,,,,,,,,None or Unspecified,Straight,None or Unspecified,,
1592,1427500,15500,748004,132,1.0,1969,,,3/17/1992 0:00,D5LGP,D5,,,LGP,Medium,"Track Type Tractor, Dozer - 105.0 to 130.0 Horsepower",Washington,TTT,Track Type Tractors,,EROPS,,,,,Standard,,,,,,2 Valve,,None or Unspecified,,,,,,,,,,,,,,None or Unspecified,Straight,None or Unspecified,,
1592,1427503,15500,1350151,132,1.0,1969,,,3/17/1992 0:00,D5LGP,D5,,,LGP,Medium,"Track Type Tractor, Dozer - 105.0 to 130.0 Horsepower",Washington,TTT,Track Type Tractors,,OROPS,,,,,Standard,,,,,,2 Valve,,None or Unspecified,,,,,,,,,,,,,,None or Unspecified,Straight,None or Unspecified,,
1592,1427506,8750,1105259,132,10.0,1970,,,5/21/1993 0:00,D5LGP,D5,,,LGP,Medium,"Track Type Tractor, Dozer - 105.0 to 130.0 Horsepower",Mississippi,TTT,Track Type Tractors,,OROPS,,,,,Direct Drive,,,,,,2 Valve,,None or Unspecified,,,,,,,,,,,,,,None or Unspecified,Straight,None or Unspecified,,
1592,1427510,13000,1185520,132,1.0,1971,,,9/19/1989 0:00,D5LGP,D5,,,LGP,Medium,"Track Type Tractor, Dozer - 105.0 to 130.0 Horsepower",Washington,TTT,Track Type Tractors,,OROPS,,,,,Standard,,,,,,2 Valve,,None or Unspecified,,,,,,,,,,,,,,None or Unspecified,Straight,None or Unspecified,,
1592,1427514,12250,1297351,132,18.0,1973,,,4/25/1990 0:00,D5LGP,D5,,,LGP,Medium,"Track Type Tractor, Dozer - 105.0 to 130.0 Horsepower",Pennsylvania,TTT,Track Type Tractors,,OROPS,,,,,Direct Drive,,,,,,2 Valve,,None or Unspecified,,,,,,,,,,,,,,None or Unspecified,Straight,None or Unspecified,,
1592,1427523,10500,1096226,132,10.0,1975,,,8/26/1998 0:00,D5LGP,D5,,,LGP,Medium,"Track Type Tractor, Dozer - 105.0 to 130.0 Horsepower",Louisiana,TTT,Track Type Tractors,,OROPS,,,,,Standard,,,,,,2 Valve,,None or Unspecified,,,,,,,,,,,,,,None or Unspecified,PAT,None or Unspecified,,
1592,1427524,9000,1096226,132,10.0,1975,,,6/25/1998 0:00,D5LGP,D5,,,LGP,Medium,"Track Type Tractor, Dozer - 105.0 to 130.0 Horsepower",Louisiana,TTT,Track Type Tractors,,OROPS,,,,,Standard,,,,,,2 Valve,,None or Unspecified,,,,,,,,,,,,,,None or Unspecified,PAT,None or Unspecified,,
1592,1427526,17500,1186668,132,10.0,1976,,,1/29/1998 0:00,D5LGP,D5,,,LGP,Medium,"Track Type Tractor, Dozer - 105.0 to 130.0 Horsepower",Louisiana,TTT,Track Type Tractors,,EROPS,,,,,Standard,,,,,,2 Valve,,None or Unspecified,,,,,,,,,,,,,,None or Unspecified,None or Unspecified,None or Unspecified,,
1592,1514480,8000,1213114,132,1.0,1968,,,6/18/2002 0:00,D5LGP,D5,,,LGP,Medium,"Track Type Tractor, Dozer - 105.0 to 130.0 Horsepower",Washington,TTT,Track Type Tractors,,OROPS,,,,,Standard,,,,,,2 Valve,,None or Unspecified,,,,,,,,,,,,,,None or Unspecified,Straight,None or Unspecified,,
1592,1514483,10000,1468796,132,1.0,1968,,,3/28/1989 0:00,D5LGP,D5,,,LGP,Medium,"Track Type Tractor, Dozer - 105.0 to 130.0 Horsepower",California,TTT,Track Type Tractors,,OROPS,,,,,Standard,,,,,,2 Valve,,None or Unspecified,,,,,,,,,,,,,,None or Unspecified,Straight,None or Unspecified,,
1592,2215196,8000,1333434,136,7.0,1972,,,3/12/2008 0:00,D5LGP,D5,,,LGP,Medium,"Track Type Tractor, Dozer - 105.0 to 130.0 Horsepower",Alabama,TTT,Track Type Tractors,,OROPS,,,,,Standard,,,,,,2 Valve,,None or Unspecified,,,,,,,,,,,,,,None or Unspecified,Straight,None or Unspecified,,
1592,2215199,8750,1137797,136,5.0,1978,,,6/20/2008 0:00,D5LGP,D5,,,LGP,Medium,"Track Type Tractor, Dozer - 105.0 to 130.0 Horsepower",Connecticut,TTT,Track Type Tractors,,OROPS,,,,,Standard,,,,,,2 Valve,,None or Unspecified,,,,,,,,,,,,,,None or Unspecified,None or Unspecified,None or Unspecified,,
1592,2509973,14000,1209901,149,2.0,1000,0.0,,1/29/2011 0:00,D5LGP,D5,,,LGP,Medium,"Track Type Tractor, Dozer - 105.0 to 130.0 Horsepower",Florida,TTT,Track Type Tractors,,OROPS,,,,,Standard,,,,,,2 Valve,,None or Unspecified,,,,,,,,,,,,,,None or Unspecified,PAT,None or Unspecified,,
1592,4304995,35000,2289592,172,1.0,2005,2939.0,Medium,3/9/2011 0:00,D5LGP,D5,,,LGP,Medium,"Track Type Tractor, Dozer - 105.0 to 130.0 Horsepower",Texas,TTT,Track Type Tractors,,OROPS,,,,,Standard,,,,,,2 Valve,,None or Unspecified,,,,,,,,,,,,,,None or Unspecified,PAT,None or Unspecified,,
