ModelID,SalesID,SalePrice,MachineID,datasource,auctioneerID,YearMade,MachineHoursCurrentMeter,UsageBand,saledate,fiModelDesc,fiBaseModel,fiSecondaryDesc,fiModelSeries,fiModelDescriptor,ProductSize,fiProductClassDesc,state,ProductGroup,ProductGroupDesc,Drive_System,Enclosure,Forks,Pad_Type,Ride_Control,Stick,Transmission,Turbocharged,Blade_Extension,Blade_Width,Enclosure_Type,Engine_Horsepower,Hydraulics,Pushblock,Ripper,Scarifier,Tip_Control,Tire_Size,Coupler,Coupler_System,Grouser_Tracks,Hydraulics_Flow,Track_Type,Undercarriage_Pad_Width,Stick_Length,Thumb,Pattern_Changer,Grouser_Type,Backhoe_Mounting,Blade_Type,Travel_Controls,Differential_Type,Steering_Controls
15934,1706868,39000,1186579,132,1.0,2006,,,11/12/2009 0:00,436ZX,436,ZX,,,Medium,Wheel Loader - 150.0 to 175.0 Horsepower,Georgia,WL,Wheel Loader,,EROPS w AC,None or Unspecified,,None or Unspecified,,,,,,,,2 Valve,,,,,20.5,None or Unspecified,,,,,,,,,,,,,Standard,Conventional
15934,1706869,41000,1277326,132,1.0,2006,,,11/12/2009 0:00,436ZX,436,ZX,,,Medium,Wheel Loader - 150.0 to 175.0 Horsepower,Georgia,WL,Wheel Loader,,EROPS w AC,None or Unspecified,,None or Unspecified,,,,,,,,2 Valve,,,,,20.5,None or Unspecified,,,,,,,,,,,,,Standard,Conventional
15934,1706870,40000,1379637,132,1.0,2006,,,11/12/2009 0:00,436ZX,436,ZX,,,Medium,Wheel Loader - 150.0 to 175.0 Horsepower,Georgia,WL,Wheel Loader,,EROPS w AC,None or Unspecified,,None or Unspecified,,,,,,,,2 Valve,,,,,20.5,None or Unspecified,,,,,,,,,,,,,Standard,Conventional
15934,1707503,26000,1224797,132,1.0,2007,5457.0,High,9/17/2010 0:00,436ZX,436,ZX,,,Medium,Wheel Loader - 150.0 to 175.0 Horsepower,Pennsylvania,WL,Wheel Loader,,EROPS w AC,None or Unspecified,,None or Unspecified,,,,,,,,2 Valve,,,,,20.5,None or Unspecified,,,,,,,,,,,,,Standard,Conventional
15934,1709366,45000,1285557,132,2.0,1999,,,3/25/2004 0:00,436ZX,436,ZX,,,Medium,Wheel Loader - 150.0 to 175.0 Horsepower,New Jersey,WL,Wheel Loader,,EROPS w AC,None or Unspecified,,None or Unspecified,,,,,,,,2 Valve,,,,,20.5,None or Unspecified,,,,,,,,,,,,,Standard,Conventional
15934,1709391,42000,1229301,132,1.0,2003,,,5/13/2009 0:00,436ZX,436,ZX,,,Medium,Wheel Loader - 150.0 to 175.0 Horsepower,Illinois,WL,Wheel Loader,,EROPS,None or Unspecified,,None or Unspecified,,,,,,,,2 Valve,,,,,20.5,None or Unspecified,,,,,,,,,,,,,Standard,Conventional
15934,1709392,59000,1224485,132,1.0,2003,2644.0,Medium,4/29/2008 0:00,436ZX,436,ZX,,,Medium,Wheel Loader - 150.0 to 175.0 Horsepower,California,WL,Wheel Loader,,EROPS w AC,None or Unspecified,,None or Unspecified,,,,,,,,2 Valve,,,,,20.5,None or Unspecified,,,,,,,,,,,,,Standard,Conventional
15934,1709399,82000,1266054,132,1.0,2005,199.0,Low,9/18/2007 0:00,436ZX,436,ZX,,,Medium,Wheel Loader - 150.0 to 175.0 Horsepower,Georgia,WL,Wheel Loader,,EROPS w AC,None or Unspecified,,Yes,,,,,,,,2 Valve,,,,,20.5,None or Unspecified,,,,,,,,,,,,,Standard,Conventional
15934,1709400,82000,1212169,132,1.0,2005,778.0,Low,9/18/2007 0:00,436ZX,436,ZX,,,Medium,Wheel Loader - 150.0 to 175.0 Horsepower,Georgia,WL,Wheel Loader,,EROPS w AC,None or Unspecified,,Yes,,,,,,,,2 Valve,,,,,20.5,None or Unspecified,,,,,,,,,,,,,Standard,Conventional
15934,1709402,44000,1130135,132,1.0,2004,,,3/2/2010 0:00,436ZX,436,ZX,,,Medium,Wheel Loader - 150.0 to 175.0 Horsepower,California,WL,Wheel Loader,,EROPS w AC,None or Unspecified,,Yes,,,,,,,,2 Valve,,,,,20.5,None or Unspecified,,,,,,,,,,,,,Standard,Conventional
15934,1711333,40000,1435936,132,1.0,2006,,,9/10/2009 0:00,436ZX,436,ZX,,,Medium,Wheel Loader - 150.0 to 175.0 Horsepower,Georgia,WL,Wheel Loader,,EROPS w AC,None or Unspecified,,None or Unspecified,,,,,,,,2 Valve,,,,,20.5,None or Unspecified,,,,,,,,,,,,,Standard,Conventional
15934,2388537,32500,1078882,136,7.0,1000,0.0,,4/19/2007 0:00,436ZX,436,ZX,,,Medium,Wheel Loader - 150.0 to 175.0 Horsepower,South Carolina,WL,Wheel Loader,,EROPS w AC,None or Unspecified,,None or Unspecified,,,,,,,,2 Valve,,,,,20.5,None or Unspecified,,,,,,,,,,,,,Standard,Conventional
15934,2390742,40000,1662404,136,1.0,2006,0.0,,9/10/2009 0:00,436ZX,436,ZX,,,Medium,Wheel Loader - 150.0 to 175.0 Horsepower,Georgia,WL,Wheel Loader,,EROPS w AC,None or Unspecified,,None or Unspecified,,,,,,,,2 Valve,,,,,20.5,None or Unspecified,,,,,,,,,,,,,Standard,Conventional
15934,2391088,42000,1757764,136,1.0,2003,0.0,,5/13/2009 0:00,436ZX,436,ZX,,,Medium,Wheel Loader - 150.0 to 175.0 Horsepower,Illinois,WL,Wheel Loader,,EROPS,None or Unspecified,,None or Unspecified,,,,,,,,2 Valve,,,,,20.5,None or Unspecified,,,,,,,,,,,,,Standard,Conventional
15934,2391826,82000,1739753,136,1.0,2005,199.0,Low,9/18/2007 0:00,436ZX,436,ZX,,,Medium,Wheel Loader - 150.0 to 175.0 Horsepower,Georgia,WL,Wheel Loader,,EROPS w AC,None or Unspecified,,None or Unspecified,,,,,,,,2 Valve,,,,,20.5,None or Unspecified,,,,,,,,,,,,,Standard,Conventional
15934,2391831,59000,1757702,136,1.0,2003,2644.0,Medium,4/29/2008 0:00,436ZX,436,ZX,,,Medium,Wheel Loader - 150.0 to 175.0 Horsepower,California,WL,Wheel Loader,,EROPS w AC,None or Unspecified,,None or Unspecified,,,,,,,,2 Valve,,,,,20.5,None or Unspecified,,,,,,,,,,,,,Standard,Conventional
15934,2391833,47500,1725399,136,,2005,0.0,,1/24/2009 0:00,436ZX,436,ZX,,,Medium,Wheel Loader - 150.0 to 175.0 Horsepower,Georgia,WL,Wheel Loader,,EROPS,None or Unspecified,,None or Unspecified,,,,,,,,2 Valve,,,,,None or Unspecified,None or Unspecified,,,,,,,,,,,,,Standard,Conventional
15934,2391834,82000,1754608,136,1.0,2005,758.0,Low,9/18/2007 0:00,436ZX,436,ZX,,,Medium,Wheel Loader - 150.0 to 175.0 Horsepower,Georgia,WL,Wheel Loader,,EROPS w AC,None or Unspecified,,None or Unspecified,,,,,,,,2 Valve,,,,,20.5,None or Unspecified,,,,,,,,,,,,,Standard,Conventional
15934,2391836,44000,1731408,136,1.0,2004,0.0,,3/2/2010 0:00,436ZX,436,ZX,,,Medium,Wheel Loader - 150.0 to 175.0 Horsepower,California,WL,Wheel Loader,,EROPS w AC,None or Unspecified,,Yes,,,,,,,,2 Valve,,,,,20.5,None or Unspecified,,,,,,,,,,,,,Standard,Conventional
15934,2391838,39000,1657464,136,1.0,2006,5936.0,High,11/12/2009 0:00,436ZX,436,ZX,,,Medium,Wheel Loader - 150.0 to 175.0 Horsepower,Georgia,WL,Wheel Loader,,EROPS w AC,None or Unspecified,,None or Unspecified,,,,,,,,2 Valve,,,,,20.5,None or Unspecified,,,,,,,,,,,,,Standard,Conventional
15934,2391839,41000,1727708,136,1.0,2006,5737.0,High,11/12/2009 0:00,436ZX,436,ZX,,,Medium,Wheel Loader - 150.0 to 175.0 Horsepower,Georgia,WL,Wheel Loader,,EROPS w AC,None or Unspecified,,None or Unspecified,,,,,,,,2 Valve,,,,,20.5,None or Unspecified,,,,,,,,,,,,,Standard,Conventional
15934,2391840,40000,1784476,136,1.0,2006,5101.0,High,11/12/2009 0:00,436ZX,436,ZX,,,Medium,Wheel Loader - 150.0 to 175.0 Horsepower,Georgia,WL,Wheel Loader,,EROPS w AC,None or Unspecified,,None or Unspecified,,,,,,,,2 Valve,,,,,20.5,None or Unspecified,,,,,,,,,,,,,Standard,Conventional
15934,4347502,27000,1503674,172,1.0,2003,3760.0,Medium,6/24/2009 0:00,436ZX,436,ZX,,,Medium,Wheel Loader - 150.0 to 175.0 Horsepower,Maryland,WL,Wheel Loader,,OROPS,None or Unspecified,,None or Unspecified,,,,,,,,2 Valve,,,,,None or Unspecified,None or Unspecified,,,,,,,,,,,,,Standard,Conventional
