ModelID,SalesID,SalePrice,MachineID,datasource,auctioneerID,YearMade,MachineHoursCurrentMeter,UsageBand,saledate,fiModelDesc,fiBaseModel,fiSecondaryDesc,fiModelSeries,fiModelDescriptor,ProductSize,fiProductClassDesc,state,ProductGroup,ProductGroupDesc,Drive_System,Enclosure,Forks,Pad_Type,Ride_Control,Stick,Transmission,Turbocharged,Blade_Extension,Blade_Width,Enclosure_Type,Engine_Horsepower,Hydraulics,Pushblock,Ripper,Scarifier,Tip_Control,Tire_Size,Coupler,Coupler_System,Grouser_Tracks,Hydraulics_Flow,Track_Type,Undercarriage_Pad_Width,Stick_Length,Thumb,Pattern_Changer,Grouser_Type,Backhoe_Mounting,Blade_Type,Travel_Controls,Differential_Type,Steering_Controls
15930,1191602,48000,1020282,121,3.0,2003,186.0,Low,6/12/2009 0:00,426ZX,426,,,ZX,Medium,Wheel Loader - 150.0 to 175.0 Horsepower,Maryland,WL,Wheel Loader,,EROPS w AC,None or Unspecified,,None or Unspecified,,,,,,,,2 Valve,,,,,20.5,None or Unspecified,,,,,,,,,,,,,Standard,Conventional
15930,1213498,26000,1014311,121,3.0,2004,6634.0,Medium,4/7/2011 0:00,426ZX,426,,,ZX,Medium,Wheel Loader - 150.0 to 175.0 Horsepower,Florida,WL,Wheel Loader,,EROPS,None or Unspecified,,None or Unspecified,,,,,,,,3 Valve,,,,,20.5,None or Unspecified,,,,,,,,,,,,,Standard,Conventional
15930,1706718,35000,1245729,132,99.0,2005,,,7/15/2010 0:00,426ZX,426,,,ZX,Medium,Wheel Loader - 150.0 to 175.0 Horsepower,Georgia,WL,Wheel Loader,,EROPS,None or Unspecified,,None or Unspecified,,,,,,,,2 Valve,,,,,20.5,None or Unspecified,,,,,,,,,,,,,Standard,Conventional
15930,1706719,32500,1370300,132,99.0,2005,,,7/15/2010 0:00,426ZX,426,,,ZX,Medium,Wheel Loader - 150.0 to 175.0 Horsepower,Georgia,WL,Wheel Loader,,EROPS,None or Unspecified,,None or Unspecified,,,,,,,,2 Valve,,,,,20.5,None or Unspecified,,,,,,,,,,,,,Standard,Conventional
15930,1706721,35000,1492514,132,1.0,2005,2767.0,Medium,8/27/2008 0:00,426ZX,426,,,ZX,Medium,Wheel Loader - 150.0 to 175.0 Horsepower,California,WL,Wheel Loader,,EROPS w AC,None or Unspecified,,None or Unspecified,,,,,,,,2 Valve,,,,,20.5,None or Unspecified,,,,,,,,,,,,,Standard,Conventional
15930,1709341,32000,1200971,132,1.0,2002,,,9/30/2009 0:00,426ZX,426,,,ZX,Medium,Wheel Loader - 150.0 to 175.0 Horsepower,Maryland,WL,Wheel Loader,,EROPS w AC,None or Unspecified,,None or Unspecified,,,,,,,,2 Valve,,,,,20.5,None or Unspecified,,,,,,,,,,,,,Standard,Conventional
15930,1709342,36000,1450383,132,1.0,2006,4063.0,Medium,5/25/2010 0:00,426ZX,426,,,ZX,Medium,Wheel Loader - 150.0 to 175.0 Horsepower,Florida,WL,Wheel Loader,,EROPS w AC,None or Unspecified,,None or Unspecified,,,,,,,,2 Valve,,,,,20.5,None or Unspecified,,,,,,,,,,,,,Standard,Conventional
15930,1709343,39000,1136644,132,1.0,2003,2445.0,Low,11/20/2008 0:00,426ZX,426,,,ZX,Medium,Wheel Loader - 150.0 to 175.0 Horsepower,Georgia,WL,Wheel Loader,,EROPS w AC,None or Unspecified,,None or Unspecified,,,,,,,,2 Valve,,,,,20.5,None or Unspecified,,,,,,,,,,,,,Standard,Conventional
15930,1709346,37000,1197671,132,1.0,2004,3051.0,Low,10/19/2010 0:00,426ZX,426,,,ZX,Medium,Wheel Loader - 150.0 to 175.0 Horsepower,Maryland,WL,Wheel Loader,,EROPS w AC,None or Unspecified,,None or Unspecified,,,,,,,,2 Valve,,,,,20.5,None or Unspecified,,,,,,,,,,,,,Standard,Conventional
15930,1709347,25000,1281295,132,1.0,2004,,,11/12/2009 0:00,426ZX,426,,,ZX,Medium,Wheel Loader - 150.0 to 175.0 Horsepower,Georgia,WL,Wheel Loader,,OROPS,None or Unspecified,,None or Unspecified,,,,,,,,2 Valve,,,,,None or Unspecified,None or Unspecified,,,,,,,,,,,,,Standard,Conventional
15930,1709352,57500,1078020,132,1.0,2004,906.0,Low,3/27/2007 0:00,426ZX,426,,,ZX,Medium,Wheel Loader - 150.0 to 175.0 Horsepower,Georgia,WL,Wheel Loader,,EROPS w AC,None or Unspecified,,None or Unspecified,,,,,,,,2 Valve,,,,,20.5,None or Unspecified,,,,,,,,,,,,,Standard,Conventional
15930,1709353,33000,1370745,132,1.0,2004,,,5/25/2010 0:00,426ZX,426,,,ZX,Medium,Wheel Loader - 150.0 to 175.0 Horsepower,Florida,WL,Wheel Loader,,EROPS w AC,None or Unspecified,,None or Unspecified,,,,,,,,2 Valve,,,,,20.5,None or Unspecified,,,,,,,,,,,,,Standard,Conventional
15930,1709354,32000,1202545,132,1.0,2004,2255.0,Low,6/10/2009 0:00,426ZX,426,,,ZX,Medium,Wheel Loader - 150.0 to 175.0 Horsepower,Texas,WL,Wheel Loader,,EROPS w AC,None or Unspecified,,None or Unspecified,,,,,,,,2 Valve,,,,,20.5,None or Unspecified,,,,,,,,,,,,,Standard,Conventional
15930,1709355,37000,1437301,132,1.0,2004,2257.0,Low,6/10/2009 0:00,426ZX,426,,,ZX,Medium,Wheel Loader - 150.0 to 175.0 Horsepower,Texas,WL,Wheel Loader,,EROPS w AC,Yes,,None or Unspecified,,,,,,,,2 Valve,,,,,20.5,None or Unspecified,,,,,,,,,,,,,Standard,Conventional
15930,1709359,62500,1501272,132,1.0,2005,1246.0,Medium,3/27/2007 0:00,426ZX,426,,,ZX,Medium,Wheel Loader - 150.0 to 175.0 Horsepower,Georgia,WL,Wheel Loader,,EROPS w AC,None or Unspecified,,None or Unspecified,,,,,,,,2 Valve,,,,,None or Unspecified,None or Unspecified,,,,,,,,,,,,,Standard,Conventional
15930,1709454,26000,1115846,132,1.0,1999,,,2/22/2006 0:00,426ZX,426,,,ZX,Medium,Wheel Loader - 150.0 to 175.0 Horsepower,Florida,WL,Wheel Loader,,OROPS,None or Unspecified,,None or Unspecified,,,,,,,,2 Valve,,,,,20.5,Manual,,,,,,,,,,,,,Standard,Conventional
15930,2387134,61000,1175891,136,1.0,2006,467.0,Low,3/2/2010 0:00,426ZX,426,,,ZX,Medium,Wheel Loader - 150.0 to 175.0 Horsepower,California,WL,Wheel Loader,,EROPS w AC,None or Unspecified,,Yes,,,,,,,,2 Valve,,,,,20.5,None or Unspecified,,,,,,,,,,,,,Standard,Conventional
15930,2391758,39000,1639237,136,1.0,2003,0.0,,11/20/2008 0:00,426ZX,426,,,ZX,Medium,Wheel Loader - 150.0 to 175.0 Horsepower,Georgia,WL,Wheel Loader,,EROPS w AC,None or Unspecified,,None or Unspecified,,,,,,,,2 Valve,,,,,20.5,Manual,,,,,,,,,,,,,Standard,Conventional
15930,2391778,25000,1700801,136,1.0,2004,1217.0,Low,11/12/2009 0:00,426ZX,426,,,ZX,Medium,Wheel Loader - 150.0 to 175.0 Horsepower,Georgia,WL,Wheel Loader,,OROPS,None or Unspecified,,None or Unspecified,,,,,,,,2 Valve,,,,,20.5,Manual,,,,,,,,,,,,,Standard,Conventional
15930,2391780,32000,1698994,136,1.0,2002,0.0,,9/30/2009 0:00,426ZX,426,,,ZX,Medium,Wheel Loader - 150.0 to 175.0 Horsepower,Maryland,WL,Wheel Loader,,EROPS w AC,None or Unspecified,,None or Unspecified,,,,,,,,2 Valve,,,,,20.5,None or Unspecified,,,,,,,,,,,,,Standard,Conventional
15930,2391784,39000,1749118,136,,2003,0.0,,9/8/2007 0:00,426ZX,426,,,ZX,Medium,Wheel Loader - 150.0 to 175.0 Horsepower,Kentucky,WL,Wheel Loader,,EROPS w AC,None or Unspecified,,None or Unspecified,,,,,,,,2 Valve,,,,,None or Unspecified,None or Unspecified,,,,,,,,,,,,,Standard,Conventional
15930,2391786,47000,1716003,136,1.0,2003,0.0,,10/17/2007 0:00,426ZX,426,,,ZX,Medium,Wheel Loader - 150.0 to 175.0 Horsepower,Utah,WL,Wheel Loader,,EROPS,None or Unspecified,,None or Unspecified,,,,,,,,2 Valve,,,,,20.5,None or Unspecified,,,,,,,,,,,,,Standard,Conventional
15930,2391787,41500,1641909,136,,2003,0.0,,10/9/2007 0:00,426ZX,426,,,ZX,Medium,Wheel Loader - 150.0 to 175.0 Horsepower,Florida,WL,Wheel Loader,,EROPS w AC,None or Unspecified,,None or Unspecified,,,,,,,,2 Valve,,,,,None or Unspecified,None or Unspecified,,,,,,,,,,,,,Standard,Conventional
15930,2391788,38500,1641909,136,,2003,0.0,,9/8/2007 0:00,426ZX,426,,,ZX,Medium,Wheel Loader - 150.0 to 175.0 Horsepower,Kentucky,WL,Wheel Loader,,EROPS w AC,None or Unspecified,,None or Unspecified,,,,,,,,2 Valve,,,,,None or Unspecified,None or Unspecified,,,,,,,,,,,,,Standard,Conventional
15930,2391789,52000,1659073,136,,2003,0.0,,9/28/2007 0:00,426ZX,426,,,ZX,Medium,Wheel Loader - 150.0 to 175.0 Horsepower,New Jersey,WL,Wheel Loader,,EROPS,None or Unspecified,,None or Unspecified,,,,,,,,2 Valve,,,,,None or Unspecified,None or Unspecified,,,,,,,,,,,,,Standard,Conventional
15930,2391791,50000,1650951,136,1.0,2003,0.0,,4/2/2008 0:00,426ZX,426,,,ZX,Medium,Wheel Loader - 150.0 to 175.0 Horsepower,Maryland,WL,Wheel Loader,,EROPS,None or Unspecified,,None or Unspecified,,,,,,,,2 Valve,,,,,20.5,None or Unspecified,,,,,,,,,,,,,Standard,Conventional
15930,2391794,57500,1652787,136,,1000,0.0,,3/27/2007 0:00,426ZX,426,,,ZX,Medium,Wheel Loader - 150.0 to 175.0 Horsepower,Georgia,WL,Wheel Loader,,EROPS w AC,None or Unspecified,,None or Unspecified,,,,,,,,2 Valve,,,,,20.5,None or Unspecified,,,,,,,,,,,,,Standard,Conventional
15930,2391795,33000,1707702,136,1.0,2004,0.0,,5/25/2010 0:00,426ZX,426,,,ZX,Medium,Wheel Loader - 150.0 to 175.0 Horsepower,Florida,WL,Wheel Loader,,EROPS w AC,None or Unspecified,,None or Unspecified,,,,,,,,2 Valve,,,,,20.5,None or Unspecified,,,,,,,,,,,,,Standard,Conventional
15930,2391796,32000,1771397,136,1.0,2006,0.0,,6/10/2009 0:00,426ZX,426,,,ZX,Medium,Wheel Loader - 150.0 to 175.0 Horsepower,Texas,WL,Wheel Loader,,EROPS w AC,None or Unspecified,,None or Unspecified,,,,,,,,2 Valve,,,,,20.5,None or Unspecified,,,,,,,,,,,,,Standard,Conventional
15930,2391797,37000,1735678,136,1.0,2004,0.0,,6/10/2009 0:00,426ZX,426,,,ZX,Medium,Wheel Loader - 150.0 to 175.0 Horsepower,Texas,WL,Wheel Loader,,EROPS w AC,Yes,,None or Unspecified,,,,,,,,2 Valve,,,,,20.5,None or Unspecified,,,,,,,,,,,,,Standard,Conventional
15930,2391798,62500,1657458,136,,1000,0.0,,3/27/2007 0:00,426ZX,426,,,ZX,Medium,Wheel Loader - 150.0 to 175.0 Horsepower,Georgia,WL,Wheel Loader,,EROPS w AC,None or Unspecified,,None or Unspecified,,,,,,,,2 Valve,,,,,None or Unspecified,None or Unspecified,,,,,,,,,,,,,Standard,Conventional
15930,2391799,35000,1650895,136,1.0,2005,2767.0,Medium,8/27/2008 0:00,426ZX,426,,,ZX,Medium,Wheel Loader - 150.0 to 175.0 Horsepower,California,WL,Wheel Loader,,EROPS w AC,None or Unspecified,,None or Unspecified,,,,,,,,2 Valve,,,,,20.5,None or Unspecified,,,,,,,,,,,,,Standard,Conventional
15930,2684941,37000,1808628,149,1.0,2004,3051.0,Low,10/19/2010 0:00,426ZX,426,,,ZX,Medium,Wheel Loader - 150.0 to 175.0 Horsepower,Maryland,WL,Wheel Loader,,EROPS w AC,None or Unspecified,,None or Unspecified,,,,,,,,2 Valve,,,,,20.5,None or Unspecified,,,,,,,,,,,,,Standard,Conventional
15930,4350434,44000,2276162,172,1.0,2004,3127.0,Low,9/27/2011 0:00,426ZX,426,,,ZX,Medium,Wheel Loader - 150.0 to 175.0 Horsepower,North Carolina,WL,Wheel Loader,,EROPS w AC,None or Unspecified,,None or Unspecified,,,,,,,,2 Valve,,,,,20.5,None or Unspecified,,,,,,,,,,,,,Standard,Conventional
15930,6298568,44000,1869728,149,1.0,2004,,,9/28/2011 0:00,426ZX,426,,,ZX,Medium,Wheel Loader - 150.0 to 175.0 Horsepower,North Carolina,WL,Wheel Loader,,EROPS w AC,None or Unspecified,,None or Unspecified,,,,,,,,2 Valve,,,,,None or Unspecified,None or Unspecified,,,,,,,,,,,,,Standard,Conventional
