ModelID,SalesID,SalePrice,MachineID,datasource,auctioneerID,YearMade,MachineHoursCurrentMeter,UsageBand,saledate,fiModelDesc,fiBaseModel,fiSecondaryDesc,fiModelSeries,fiModelDescriptor,ProductSize,fiProductClassDesc,state,ProductGroup,ProductGroupDesc,Drive_System,Enclosure,Forks,Pad_Type,Ride_Control,Stick,Transmission,Turbocharged,Blade_Extension,Blade_Width,Enclosure_Type,Engine_Horsepower,Hydraulics,Pushblock,Ripper,Scarifier,Tip_Control,Tire_Size,Coupler,Coupler_System,Grouser_Tracks,Hydraulics_Flow,Track_Type,Undercarriage_Pad_Width,Stick_Length,Thumb,Pattern_Changer,Grouser_Type,Backhoe_Mounting,Blade_Type,Travel_Controls,Differential_Type,Steering_Controls
15963,1158915,11000,1065553,121,3.0,1998,1390.0,Low,9/21/2006 0:00,804 SUPER,804,,, SUPER,Mini,"Hydraulic Excavator, Track - 3.0 to 4.0 Metric Tons",Pennsylvania,TEX,Track Excavators,,EROPS,,,,,,,,,,,Auxiliary,,,,,,Manual,,,,Steel,None or Unspecified,None or Unspecified,None or Unspecified,None or Unspecified,Double,,,,,
15963,1181761,25500,1029950,121,3.0,2007,5.0,Low,8/7/2008 0:00,804 SUPER,804,,, SUPER,Mini,"Hydraulic Excavator, Track - 3.0 to 4.0 Metric Tons",Georgia,TEX,Track Excavators,,EROPS,,,,,,,,,,,Auxiliary,,,,,,None or Unspecified,,,,Rubber,None or Unspecified,None or Unspecified,None or Unspecified,None or Unspecified,Double,,,,,
15963,1181762,24000,1051441,121,3.0,2006,32.0,Low,8/7/2008 0:00,804 SUPER,804,,, SUPER,Mini,"Hydraulic Excavator, Track - 3.0 to 4.0 Metric Tons",Georgia,TEX,Track Excavators,,EROPS,,,,,,,,,,,Auxiliary,,,,,,None or Unspecified,,,,Steel,None or Unspecified,None or Unspecified,None or Unspecified,None or Unspecified,Double,,,,,
15963,1183404,18000,1020999,121,3.0,2006,28.0,Low,10/16/2008 0:00,804 SUPER,804,,, SUPER,Mini,"Hydraulic Excavator, Track - 3.0 to 4.0 Metric Tons",Georgia,TEX,Track Excavators,,EROPS,,,,,,,,,,,Auxiliary,,,,,,None or Unspecified,,,,Rubber,14 inch,None or Unspecified,None or Unspecified,None or Unspecified,Double,,,,,
15963,1183407,15000,1040687,121,3.0,2006,674.0,Low,10/16/2008 0:00,804 SUPER,804,,, SUPER,Mini,"Hydraulic Excavator, Track - 3.0 to 4.0 Metric Tons",Florida,TEX,Track Excavators,,EROPS,,,,,,,,,,,Auxiliary,,,,,,None or Unspecified,,,,Rubber,None or Unspecified,None or Unspecified,None or Unspecified,None or Unspecified,Double,,,,,
15963,2391158,10500,1661433,136,1.0,2004,1228.0,Low,5/6/2010 0:00,804 SUPER,804,,, SUPER,Mini,"Hydraulic Excavator, Track - 3.0 to 4.0 Metric Tons",Texas,TEX,Track Excavators,,EROPS,,,,,,,,,,,Auxiliary,,,,,,None or Unspecified,,,,Rubber,None or Unspecified,None or Unspecified,None or Unspecified,None or Unspecified,Double,,,,,
15963,4349247,10000,2287217,172,1.0,1999,,,9/22/2011 0:00,804 SUPER,804,,, SUPER,Mini,"Hydraulic Excavator, Track - 3.0 to 4.0 Metric Tons",California,TEX,Track Excavators,,EROPS,,,,,,,,,,,Auxiliary,,,,,,None or Unspecified,,,,Steel,None or Unspecified,None or Unspecified,None or Unspecified,None or Unspecified,Double,,,,,
