ModelID,SalesID,SalePrice,MachineID,datasource,auctioneerID,YearMade,MachineHoursCurrentMeter,UsageBand,saledate,fiModelDesc,fiBaseModel,fiSecondaryDesc,fiModelSeries,fiModelDescriptor,ProductSize,fiProductClassDesc,state,ProductGroup,ProductGroupDesc,Drive_System,Enclosure,Forks,Pad_Type,Ride_Control,Stick,Transmission,Turbocharged,Blade_Extension,Blade_Width,Enclosure_Type,Engine_Horsepower,Hydraulics,Pushblock,Ripper,Scarifier,Tip_Control,Tire_Size,Coupler,Coupler_System,Grouser_Tracks,Hydraulics_Flow,Track_Type,Undercarriage_Pad_Width,Stick_Length,Thumb,Pattern_Changer,Grouser_Type,Backhoe_Mounting,Blade_Type,Travel_Controls,Differential_Type,Steering_Controls
15982,1706581,75000,1237546,132,1.0,2006,240.0,Low,2/22/2008 0:00,JS160NLC,JS160,,,NLC,Small,"Hydraulic Excavator, Track - 16.0 to 19.0 Metric Tons",Florida,TEX,Track Excavators,,EROPS w AC,,,,,,,,,,,Auxiliary,,,,,,None or Unspecified,,,,Steel,None or Unspecified,None or Unspecified,None or Unspecified,None or Unspecified,Double,,,,,
15982,1706583,68000,1231554,132,1.0,2006,160.0,Low,11/14/2007 0:00,JS160NLC,JS160,,,NLC,Small,"Hydraulic Excavator, Track - 16.0 to 19.0 Metric Tons",Georgia,TEX,Track Excavators,,EROPS w AC,,,,,,,,,,,Auxiliary,,,,,,None or Unspecified,,,,Steel,None or Unspecified,None or Unspecified,None or Unspecified,None or Unspecified,Double,,,,,
15982,1711935,31000,154599,132,1.0,2003,5492.0,High,2/22/2008 0:00,JS160NLC,JS160,,,NLC,Small,"Hydraulic Excavator, Track - 16.0 to 19.0 Metric Tons",Florida,TEX,Track Excavators,,EROPS w AC,,,,,,,,,,,Standard,,,,,,None or Unspecified,,,,Steel,24 inch,"8' 10""",None or Unspecified,None or Unspecified,Triple,,,,,
15982,2393346,37500,1102041,136,1.0,2006,0.0,,3/30/2010 0:00,JS160NLC,JS160,,,NLC,Small,"Hydraulic Excavator, Track - 16.0 to 19.0 Metric Tons",Maryland,TEX,Track Excavators,,EROPS w AC,,,,,,,,,,,Auxiliary,,,,,,None or Unspecified,,,,Steel,None or Unspecified,"9' 8""",None or Unspecified,None or Unspecified,Double,,,,,
15982,6299031,37500,1938079,149,2.0,2005,,,8/16/2011 0:00,JS160NLC,JS160,,,NLC,Small,"Hydraulic Excavator, Track - 16.0 to 19.0 Metric Tons",Florida,TEX,Track Excavators,,EROPS w AC,,,,,,,,,,,Standard,,,,,,None or Unspecified,,,,Steel,None or Unspecified,None or Unspecified,None or Unspecified,None or Unspecified,Double,,,,,
