ModelID,SalesID,SalePrice,MachineID,datasource,auctioneerID,YearMade,MachineHoursCurrentMeter,UsageBand,saledate,fiModelDesc,fiBaseModel,fiSecondaryDesc,fiModelSeries,fiModelDescriptor,ProductSize,fiProductClassDesc,state,ProductGroup,ProductGroupDesc,Drive_System,Enclosure,Forks,Pad_Type,Ride_Control,Stick,Transmission,Turbocharged,Blade_Extension,Blade_Width,Enclosure_Type,Engine_Horsepower,Hydraulics,Pushblock,Ripper,Scarifier,Tip_Control,Tire_Size,Coupler,Coupler_System,Grouser_Tracks,Hydraulics_Flow,Track_Type,Undercarriage_Pad_Width,Stick_Length,Thumb,Pattern_Changer,Grouser_Type,Backhoe_Mounting,Blade_Type,Travel_Controls,Differential_Type,Steering_Controls
15987,1706292,18000,1052755,132,3.0,2004,,,10/29/2009 0:00,JS200LC,JS200,,,LC,Large / Medium,"Hydraulic Excavator, Track - 19.0 to 21.0 Metric Tons",California,TEX,Track Excavators,,EROPS,,,,,,,,,,,Standard,,,,,,Hydraulic,,,,Steel,None or Unspecified,None or Unspecified,None or Unspecified,None or Unspecified,Double,,,,,
15987,1711976,47000,1127919,132,13.0,2001,,,3/19/2005 0:00,JS200LC,JS200,,,LC,Large / Medium,"Hydraulic Excavator, Track - 19.0 to 21.0 Metric Tons",Tennessee,TEX,Track Excavators,,EROPS w AC,,,,,,,,,,,Standard,,,,,,None or Unspecified,,,,Steel,None or Unspecified,None or Unspecified,Manual,None or Unspecified,Double,,,,,
15987,1711988,34000,1357984,132,1.0,1999,,,5/22/2007 0:00,JS200LC,JS200,,,LC,Large / Medium,"Hydraulic Excavator, Track - 19.0 to 21.0 Metric Tons",California,TEX,Track Excavators,,EROPS w AC,,,,,,,,,,,Standard,,,,,,None or Unspecified,,,,Steel,None or Unspecified,"9' 10""",Hydraulic,None or Unspecified,Double,,,,,
15987,1711990,45000,1506276,132,1.0,1999,,,6/16/2005 0:00,JS200LC,JS200,,,LC,Large / Medium,"Hydraulic Excavator, Track - 19.0 to 21.0 Metric Tons",Texas,TEX,Track Excavators,,EROPS,,,,,,,,,,,Standard,,,,,,None or Unspecified,,,,Steel,None or Unspecified,"9' 8""",None or Unspecified,None or Unspecified,Double,,,,,
15987,1711991,40000,1506276,132,1.0,1999,,,11/16/2004 0:00,JS200LC,JS200,,,LC,Large / Medium,"Hydraulic Excavator, Track - 19.0 to 21.0 Metric Tons",Texas,TEX,Track Excavators,,EROPS,,,,,,,,,,,Standard,,,,,,None or Unspecified,,,,Steel,None or Unspecified,"9' 8""",None or Unspecified,None or Unspecified,Double,,,,,
15987,1711995,42500,1367185,132,2.0,2000,,,2/3/2005 0:00,JS200LC,JS200,,,LC,Large / Medium,"Hydraulic Excavator, Track - 19.0 to 21.0 Metric Tons",Florida,TEX,Track Excavators,,EROPS w AC,,,,,,,,,,,Standard,,,,,,None or Unspecified,,,,Steel,None or Unspecified,None or Unspecified,None or Unspecified,None or Unspecified,Double,,,,,
15987,1711999,35000,1388821,132,2.0,1999,,,2/4/2005 0:00,JS200LC,JS200,,,LC,Large / Medium,"Hydraulic Excavator, Track - 19.0 to 21.0 Metric Tons",Florida,TEX,Track Excavators,,EROPS w AC,,,,,,,,,,,Standard,,,,,,None or Unspecified,,,,Steel,32 inch,None or Unspecified,None or Unspecified,None or Unspecified,Double,,,,,
15987,1712004,41000,1182978,132,2.0,2000,,,2/4/2005 0:00,JS200LC,JS200,,,LC,Large / Medium,"Hydraulic Excavator, Track - 19.0 to 21.0 Metric Tons",Florida,TEX,Track Excavators,,EROPS w AC,,,,,,,,,,,Standard,,,,,,None or Unspecified,,,,Steel,32 inch,None or Unspecified,Manual,None or Unspecified,Double,,,,,
15987,1712006,39000,1093281,132,2.0,2000,,,2/4/2005 0:00,JS200LC,JS200,,,LC,Large / Medium,"Hydraulic Excavator, Track - 19.0 to 21.0 Metric Tons",Florida,TEX,Track Excavators,,EROPS,,,,,,,,,,,Standard,,,,,,None or Unspecified,,,,Steel,36 inch,None or Unspecified,None or Unspecified,None or Unspecified,Double,,,,,
15987,1712009,41000,1320877,132,2.0,2000,,,2/4/2005 0:00,JS200LC,JS200,,,LC,Large / Medium,"Hydraulic Excavator, Track - 19.0 to 21.0 Metric Tons",Florida,TEX,Track Excavators,,EROPS,,,,,,,,,,,Standard,,,,,,None or Unspecified,,,,Steel,36 inch,None or Unspecified,Manual,None or Unspecified,Double,,,,,
15987,1712010,38500,1128591,132,2.0,2000,,,2/4/2005 0:00,JS200LC,JS200,,,LC,Large / Medium,"Hydraulic Excavator, Track - 19.0 to 21.0 Metric Tons",Florida,TEX,Track Excavators,,EROPS,,,,,,,,,,,Standard,,,,,,None or Unspecified,,,,Steel,32 inch,None or Unspecified,None or Unspecified,None or Unspecified,Double,,,,,
15987,1712014,47500,1092333,132,2.0,2000,,,10/9/2004 0:00,JS200LC,JS200,,,LC,Large / Medium,"Hydraulic Excavator, Track - 19.0 to 21.0 Metric Tons",Georgia,TEX,Track Excavators,,EROPS,,,,,,,,,,,Standard,,,,,,None or Unspecified,,,,Steel,None or Unspecified,None or Unspecified,None or Unspecified,None or Unspecified,Double,,,,,
15987,1712015,46000,1474825,132,2.0,2000,,,2/4/2005 0:00,JS200LC,JS200,,,LC,Large / Medium,"Hydraulic Excavator, Track - 19.0 to 21.0 Metric Tons",Florida,TEX,Track Excavators,,EROPS,,,,,,,,,,,Standard,,,,,,None or Unspecified,,,,Steel,32 inch,None or Unspecified,None or Unspecified,None or Unspecified,Double,,,,,
15987,1712017,39500,1155112,132,2.0,2000,,,2/4/2005 0:00,JS200LC,JS200,,,LC,Large / Medium,"Hydraulic Excavator, Track - 19.0 to 21.0 Metric Tons",Florida,TEX,Track Excavators,,EROPS,,,,,,,,,,,Standard,,,,,,None or Unspecified,,,,Steel,None or Unspecified,None or Unspecified,None or Unspecified,None or Unspecified,Double,,,,,
15987,1712018,40000,1365090,132,2.0,2000,,,2/4/2005 0:00,JS200LC,JS200,,,LC,Large / Medium,"Hydraulic Excavator, Track - 19.0 to 21.0 Metric Tons",Florida,TEX,Track Excavators,,EROPS,,,,,,,,,,,Standard,,,,,,None or Unspecified,,,,Steel,None or Unspecified,None or Unspecified,None or Unspecified,None or Unspecified,Double,,,,,
15987,1712021,31000,1499441,132,2.0,2000,,,8/8/2007 0:00,JS200LC,JS200,,,LC,Large / Medium,"Hydraulic Excavator, Track - 19.0 to 21.0 Metric Tons",Florida,TEX,Track Excavators,,EROPS w AC,,,,,,,,,,,Standard,,,,,,None or Unspecified,,,,Steel,None or Unspecified,None or Unspecified,None or Unspecified,None or Unspecified,Double,,,,,
15987,1712024,40000,1203015,132,2.0,2000,,,2/4/2005 0:00,JS200LC,JS200,,,LC,Large / Medium,"Hydraulic Excavator, Track - 19.0 to 21.0 Metric Tons",Florida,TEX,Track Excavators,,EROPS,,,,,,,,,,,Standard,,,,,,None or Unspecified,,,,Steel,None or Unspecified,None or Unspecified,None or Unspecified,None or Unspecified,Double,,,,,
15987,1712027,14500,1253916,132,3.0,2000,,,8/26/2010 0:00,JS200LC,JS200,,,LC,Large / Medium,"Hydraulic Excavator, Track - 19.0 to 21.0 Metric Tons",California,TEX,Track Excavators,,EROPS,,,,,,,,,,,Standard,,,,,,None or Unspecified,,,,Steel,None or Unspecified,None or Unspecified,None or Unspecified,None or Unspecified,Double,,,,,
15987,1712040,41000,1143142,132,8.0,2000,,,3/23/2005 0:00,JS200LC,JS200,,,LC,Large / Medium,"Hydraulic Excavator, Track - 19.0 to 21.0 Metric Tons",Mississippi,TEX,Track Excavators,,EROPS,,,,,,,,,,,Standard,,,,,,None or Unspecified,,,,Steel,None or Unspecified,None or Unspecified,None or Unspecified,None or Unspecified,Double,,,,,
15987,1716728,41000,1134132,132,1.0,2005,,,4/29/2008 0:00,JS200LC,JS200,,,LC,Large / Medium,"Hydraulic Excavator, Track - 19.0 to 21.0 Metric Tons",California,TEX,Track Excavators,,EROPS w AC,,,,,,,,,,,Auxiliary,,,,,,None or Unspecified,,,,Steel,None or Unspecified,None or Unspecified,None or Unspecified,None or Unspecified,Double,,,,,
15987,1716848,56000,1374615,132,1.0,2000,,,9/27/2006 0:00,JS200LC,JS200,,,LC,Large / Medium,"Hydraulic Excavator, Track - 19.0 to 21.0 Metric Tons",Texas,TEX,Track Excavators,,EROPS w AC,,,,,,,,,,,Auxiliary,,,,,,None or Unspecified,,,,Steel,None or Unspecified,"9' 10""",None or Unspecified,None or Unspecified,Double,,,,,
15987,2389448,22500,1712402,136,,2004,0.0,,6/20/2009 0:00,JS200LC,JS200,,,LC,Large / Medium,"Hydraulic Excavator, Track - 19.0 to 21.0 Metric Tons",South Carolina,TEX,Track Excavators,,EROPS,,,,,,,,,,,Standard,,,,,,None or Unspecified,,,,Steel,None or Unspecified,None or Unspecified,None or Unspecified,None or Unspecified,Double,,,,,
