ModelID,SalesID,SalePrice,MachineID,datasource,auctioneerID,YearMade,MachineHoursCurrentMeter,UsageBand,saledate,fiModelDesc,fiBaseModel,fiSecondaryDesc,fiModelSeries,fiModelDescriptor,ProductSize,fiProductClassDesc,state,ProductGroup,ProductGroupDesc,Drive_System,Enclosure,Forks,Pad_Type,Ride_Control,Stick,Transmission,Turbocharged,Blade_Extension,Blade_Width,Enclosure_Type,Engine_Horsepower,Hydraulics,Pushblock,Ripper,Scarifier,Tip_Control,Tire_Size,Coupler,Coupler_System,Grouser_Tracks,Hydraulics_Flow,Track_Type,Undercarriage_Pad_Width,Stick_Length,Thumb,Pattern_Changer,Grouser_Type,Backhoe_Mounting,Blade_Type,Travel_Controls,Differential_Type,Steering_Controls
15991,1148341,87000,1034057,121,3.0,2004,772.0,Low,6/1/2006 0:00,JS220,JS220,,,,Large / Medium,"Hydraulic Excavator, Track - 21.0 to 24.0 Metric Tons",North Carolina,TEX,Track Excavators,,EROPS w AC,,,,,,,,,,,Standard,,,,,,None or Unspecified,,,,Steel,32 inch,"9' 10""",Manual,None or Unspecified,Double,,,,,
15991,1183212,52000,1014535,121,3.0,2005,2698.0,Medium,10/2/2008 0:00,JS220,JS220,,,,Large / Medium,"Hydraulic Excavator, Track - 21.0 to 24.0 Metric Tons",Georgia,TEX,Track Excavators,,EROPS w AC,,,,,,,,,,,Standard,,,,,,None or Unspecified,,,,Steel,None or Unspecified,None or Unspecified,Manual,None or Unspecified,Double,,,,,
15991,1191516,28000,1038524,121,3.0,2004,3832.0,Medium,6/12/2009 0:00,JS220,JS220,,,,Large / Medium,"Hydraulic Excavator, Track - 21.0 to 24.0 Metric Tons",Florida,TEX,Track Excavators,,EROPS w AC,,,,,,,,,,,Auxiliary,,,,,,None or Unspecified,,,,Steel,None or Unspecified,None or Unspecified,None or Unspecified,None or Unspecified,Double,,,,,
15991,1206480,44000,1010346,121,3.0,2004,2993.0,Medium,10/28/2010 0:00,JS220,JS220,,,,Large / Medium,"Hydraulic Excavator, Track - 21.0 to 24.0 Metric Tons",Washington,TEX,Track Excavators,,EROPS w AC,,,,,,,,,,,Standard,,,,,,Manual,,,,Steel,32 inch,None or Unspecified,Hydraulic,None or Unspecified,Double,,,,,
15991,1206957,51000,1037437,121,3.0,2006,2644.0,Medium,9/23/2010 0:00,JS220,JS220,,,,Large / Medium,"Hydraulic Excavator, Track - 21.0 to 24.0 Metric Tons",California,TEX,Track Excavators,,EROPS w AC,,,,,,,,,,,Auxiliary,,,,,,None or Unspecified,,,,Steel,None or Unspecified,None or Unspecified,None or Unspecified,None or Unspecified,Double,,,,,
15991,1705959,22000,1404482,132,1.0,1000,,,12/3/2008 0:00,JS220,JS220,,,,Large / Medium,"Hydraulic Excavator, Track - 21.0 to 24.0 Metric Tons",Texas,TEX,Track Excavators,,EROPS,,,,,,,,,,,Auxiliary,,,,,,None or Unspecified,,,,Steel,None or Unspecified,None or Unspecified,None or Unspecified,None or Unspecified,Double,,,,,
15991,1706287,49000,1296891,132,1.0,2004,3816.0,Medium,6/7/2011 0:00,JS220,JS220,,,,Large / Medium,"Hydraulic Excavator, Track - 21.0 to 24.0 Metric Tons",Maryland,TEX,Track Excavators,,EROPS w AC,,,,,,,,,,,Auxiliary,,,,,,None or Unspecified,,,,Steel,None or Unspecified,"9' 10""",None or Unspecified,None or Unspecified,Double,,,,,
15991,1706291,55000,1210606,132,14.0,2004,,,3/21/2008 0:00,JS220,JS220,,,,Large / Medium,"Hydraulic Excavator, Track - 21.0 to 24.0 Metric Tons",Indiana,TEX,Track Excavators,,EROPS w AC,,,,,,,,,,,Auxiliary,,,,,,None or Unspecified,,,,Steel,None or Unspecified,None or Unspecified,None or Unspecified,None or Unspecified,Double,,,,,
15991,1706294,52000,1133097,132,3.0,2004,,,10/2/2008 0:00,JS220,JS220,,,,Large / Medium,"Hydraulic Excavator, Track - 21.0 to 24.0 Metric Tons",California,TEX,Track Excavators,,EROPS w AC,,,,,,,,,,,Standard,,,,,,None or Unspecified,,,,Steel,None or Unspecified,None or Unspecified,Manual,None or Unspecified,Double,,,,,
15991,1706310,36000,1150033,132,4.0,2004,,,2/12/2009 0:00,JS220,JS220,,,,Large / Medium,"Hydraulic Excavator, Track - 21.0 to 24.0 Metric Tons",Florida,TEX,Track Excavators,,EROPS w AC,,,,,,,,,,,Auxiliary,,,,,,None or Unspecified,,,,Steel,None or Unspecified,None or Unspecified,None or Unspecified,None or Unspecified,Double,,,,,
15991,1706314,36500,1496965,132,2.0,2004,,,1/31/2009 0:00,JS220,JS220,,,,Large / Medium,"Hydraulic Excavator, Track - 21.0 to 24.0 Metric Tons",Florida,TEX,Track Excavators,,EROPS w AC,,,,,,,,,,,Auxiliary,,,,,,None or Unspecified,,,,Steel,None or Unspecified,None or Unspecified,None or Unspecified,None or Unspecified,Double,,,,,
15991,1706336,41000,1394994,132,1.0,2004,5076.0,Medium,7/27/2011 0:00,JS220,JS220,,,,Large / Medium,"Hydraulic Excavator, Track - 21.0 to 24.0 Metric Tons",Texas,TEX,Track Excavators,,EROPS w AC,,,,,,,,,,,Auxiliary,,,,,,None or Unspecified,,,,Steel,None or Unspecified,None or Unspecified,None or Unspecified,None or Unspecified,Double,,,,,
15991,1706337,43000,1512148,132,1.0,2004,4539.0,Medium,7/27/2011 0:00,JS220,JS220,,,,Large / Medium,"Hydraulic Excavator, Track - 21.0 to 24.0 Metric Tons",Texas,TEX,Track Excavators,,EROPS w AC,,,,,,,,,,,Auxiliary,,,,,,None or Unspecified,,,,Steel,None or Unspecified,"9' 8""",None or Unspecified,None or Unspecified,Double,,,,,
15991,1706339,27500,1544985,132,1.0,2004,,,12/16/2008 0:00,JS220,JS220,,,,Large / Medium,"Hydraulic Excavator, Track - 21.0 to 24.0 Metric Tons",Washington,TEX,Track Excavators,,EROPS,,,,,,,,,,,Standard,,,,,,Manual,,,,Steel,None or Unspecified,None or Unspecified,Hydraulic,None or Unspecified,Double,,,,,
15991,1706341,44000,1360029,132,1.0,2004,,,3/18/2009 0:00,JS220,JS220,,,,Large / Medium,"Hydraulic Excavator, Track - 21.0 to 24.0 Metric Tons",Washington,TEX,Track Excavators,,EROPS,,,,,,,,,,,Standard,,,,,,Manual,,,,Steel,None or Unspecified,None or Unspecified,Hydraulic,None or Unspecified,Double,,,,,
15991,1706343,65000,1377668,132,1.0,2005,3619.0,Medium,6/22/2011 0:00,JS220,JS220,,,,Large / Medium,"Hydraulic Excavator, Track - 21.0 to 24.0 Metric Tons",Texas,TEX,Track Excavators,,EROPS w AC,,,,,,,,,,,Auxiliary,,,,,,None or Unspecified,,,,Steel,None or Unspecified,"9' 6""",None or Unspecified,None or Unspecified,Double,,,,,
15991,1706344,59000,1203848,132,1.0,2005,4637.0,Medium,6/22/2011 0:00,JS220,JS220,,,,Large / Medium,"Hydraulic Excavator, Track - 21.0 to 24.0 Metric Tons",Texas,TEX,Track Excavators,,EROPS w AC,,,,,,,,,,,Auxiliary,,,,,,None or Unspecified,,,,Steel,None or Unspecified,"9' 8""",None or Unspecified,None or Unspecified,Double,,,,,
15991,1706345,39000,1146088,132,1.0,2005,2082.0,Medium,6/23/2009 0:00,JS220,JS220,,,,Large / Medium,"Hydraulic Excavator, Track - 21.0 to 24.0 Metric Tons",California,TEX,Track Excavators,,EROPS w AC,,,,,,,,,,,Auxiliary,,,,,,None or Unspecified,,,,Steel,None or Unspecified,"9' 10""",None or Unspecified,None or Unspecified,Double,,,,,
15991,1706347,35000,1367875,132,1.0,2005,1170.0,Low,3/9/2010 0:00,JS220,JS220,,,,Large / Medium,"Hydraulic Excavator, Track - 21.0 to 24.0 Metric Tons",California,TEX,Track Excavators,,EROPS,,,,,,,,,,,Auxiliary,,,,,,None or Unspecified,,,,Steel,None or Unspecified,"9' 10""",None or Unspecified,None or Unspecified,Double,,,,,
15991,1706348,43000,1463334,132,1.0,2005,5579.0,Medium,7/27/2011 0:00,JS220,JS220,,,,Large / Medium,"Hydraulic Excavator, Track - 21.0 to 24.0 Metric Tons",Texas,TEX,Track Excavators,,EROPS w AC,,,,,,,,,,,Auxiliary,,,,,,None or Unspecified,,,,Steel,None or Unspecified,None or Unspecified,None or Unspecified,None or Unspecified,Double,,,,,
15991,1706349,44000,1201636,132,1.0,2005,4105.0,Medium,7/27/2011 0:00,JS220,JS220,,,,Large / Medium,"Hydraulic Excavator, Track - 21.0 to 24.0 Metric Tons",Texas,TEX,Track Excavators,,EROPS,,,,,,,,,,,Auxiliary,,,,,,None or Unspecified,,,,Steel,None or Unspecified,"9' 10""",None or Unspecified,None or Unspecified,Double,,,,,
15991,1706823,54000,1149560,132,14.0,2006,,,12/10/2010 0:00,JS220,JS220,,,,Large / Medium,"Hydraulic Excavator, Track - 21.0 to 24.0 Metric Tons",Indiana,TEX,Track Excavators,,EROPS w AC,,,,,,,,,,,Auxiliary,,,,,,None or Unspecified,,,,Steel,None or Unspecified,None or Unspecified,Manual,None or Unspecified,Double,,,,,
15991,1707171,66000,1144610,132,2.0,2007,,,1/24/2009 0:00,JS220,JS220,,,,Large / Medium,"Hydraulic Excavator, Track - 21.0 to 24.0 Metric Tons",Georgia,TEX,Track Excavators,,EROPS w AC,,,,,,,,,,,Auxiliary,,,,,,None or Unspecified,,,,Steel,None or Unspecified,None or Unspecified,None or Unspecified,None or Unspecified,Double,,,,,
15991,1711979,35000,1267354,132,2.0,1999,,,12/7/2004 0:00,JS220,JS220,,,,Large / Medium,"Hydraulic Excavator, Track - 21.0 to 24.0 Metric Tons",Texas,TEX,Track Excavators,,EROPS w AC,,,,,,,,,,,Standard,,,,,,None or Unspecified,,,,Steel,32 inch,None or Unspecified,None or Unspecified,None or Unspecified,Double,,,,,
15991,1711980,36000,1267354,132,2.0,2000,,,1/30/2005 0:00,JS220,JS220,,,,Large / Medium,"Hydraulic Excavator, Track - 21.0 to 24.0 Metric Tons",Florida,TEX,Track Excavators,,EROPS w AC,,,,,,,,,,,Standard,,,,,,None or Unspecified,,,,Steel,32 inch,None or Unspecified,None or Unspecified,None or Unspecified,Double,,,,,
15991,1711986,41000,1193858,132,2.0,1999,,,12/7/2004 0:00,JS220,JS220,,,,Large / Medium,"Hydraulic Excavator, Track - 21.0 to 24.0 Metric Tons",Texas,TEX,Track Excavators,,EROPS w AC,,,,,,,,,,,Standard,,,,,,None or Unspecified,,,,Steel,32 inch,None or Unspecified,None or Unspecified,None or Unspecified,Double,,,,,
15991,1711987,42000,1389929,132,2.0,1999,,,12/7/2004 0:00,JS220,JS220,,,,Large / Medium,"Hydraulic Excavator, Track - 21.0 to 24.0 Metric Tons",Texas,TEX,Track Excavators,,EROPS w AC,,,,,,,,,,,Standard,,,,,,None or Unspecified,,,,Steel,32 inch,None or Unspecified,None or Unspecified,None or Unspecified,Double,,,,,
15991,1712030,42000,1110922,132,2.0,2000,,,12/7/2004 0:00,JS220,JS220,,,,Large / Medium,"Hydraulic Excavator, Track - 21.0 to 24.0 Metric Tons",Texas,TEX,Track Excavators,,EROPS w AC,,,,,,,,,,,Standard,,,,,,None or Unspecified,,,,Steel,28 inch,None or Unspecified,None or Unspecified,None or Unspecified,Double,,,,,
15991,1712039,23000,1195371,132,1.0,1000,,,5/14/2010 0:00,JS220,JS220,,,,Large / Medium,"Hydraulic Excavator, Track - 21.0 to 24.0 Metric Tons",Nevada,TEX,Track Excavators,,EROPS w AC,,,,,,,,,,,Standard,,,,,,None or Unspecified,,,,Steel,None or Unspecified,"9' 10""",None or Unspecified,None or Unspecified,Double,,,,,
15991,1712053,37500,1210997,132,1.0,2002,,,2/22/2008 0:00,JS220,JS220,,,,Large / Medium,"Hydraulic Excavator, Track - 21.0 to 24.0 Metric Tons",Florida,TEX,Track Excavators,,EROPS w AC,,,,,,,,,,,Auxiliary,,,,,,None or Unspecified,,,,Steel,None or Unspecified,"9' 10""",None or Unspecified,None or Unspecified,Double,,,,,
15991,1712071,27000,1128387,132,2.0,2003,,,1/31/2009 0:00,JS220,JS220,,,,Large / Medium,"Hydraulic Excavator, Track - 21.0 to 24.0 Metric Tons",Florida,TEX,Track Excavators,,EROPS w AC,,,,,,,,,,,Auxiliary,,,,,,None or Unspecified,,,,Steel,None or Unspecified,None or Unspecified,None or Unspecified,None or Unspecified,Double,,,,,
15991,1712072,29000,1368686,132,1.0,2003,2678.0,Medium,11/20/2008 0:00,JS220,JS220,,,,Large / Medium,"Hydraulic Excavator, Track - 21.0 to 24.0 Metric Tons",Georgia,TEX,Track Excavators,,EROPS,,,,,,,,,,,Standard,,,,,,None or Unspecified,,,,Steel,None or Unspecified,None or Unspecified,None or Unspecified,None or Unspecified,Double,,,,,
15991,1716732,36000,1119515,132,4.0,1000,,,2/9/2009 0:00,JS220,JS220,,,,Large / Medium,"Hydraulic Excavator, Track - 21.0 to 24.0 Metric Tons",Florida,TEX,Track Excavators,,EROPS,,,,,,,,,,,Standard,,,,,,None or Unspecified,,,,Steel,None or Unspecified,None or Unspecified,None or Unspecified,None or Unspecified,Double,,,,,
15991,1716736,35000,1387545,132,1.0,2004,,,10/1/2008 0:00,JS220,JS220,,,,Large / Medium,"Hydraulic Excavator, Track - 21.0 to 24.0 Metric Tons",California,TEX,Track Excavators,,EROPS w AC,,,,,,,,,,,Standard,,,,,,Hydraulic,,,,Steel,None or Unspecified,"9' 10""",Hydraulic,None or Unspecified,Double,,,,,
15991,1716749,45000,1394122,132,1.0,2005,,,9/16/2008 0:00,JS220,JS220,,,,Large / Medium,"Hydraulic Excavator, Track - 21.0 to 24.0 Metric Tons",Washington,TEX,Track Excavators,,EROPS,,,,,,,,,,,Standard,,,,,,Manual,,,,Steel,None or Unspecified,"9' 6""",Hydraulic,None or Unspecified,Double,,,,,
15991,1716818,28000,1246221,132,1.0,2002,,,4/2/2008 0:00,JS220,JS220,,,,Large / Medium,"Hydraulic Excavator, Track - 21.0 to 24.0 Metric Tons",Maryland,TEX,Track Excavators,,EROPS w AC,,,,,,,,,,,Standard,,,,,,Manual,,,,Steel,None or Unspecified,None or Unspecified,None or Unspecified,None or Unspecified,Double,,,,,
15991,1716821,37500,1367279,132,1.0,2002,,,2/19/2008 0:00,JS220,JS220,,,,Large / Medium,"Hydraulic Excavator, Track - 21.0 to 24.0 Metric Tons",Florida,TEX,Track Excavators,,EROPS w AC,,,,,,,,,,,Auxiliary,,,,,,None or Unspecified,,,,Steel,None or Unspecified,"9' 10""",None or Unspecified,None or Unspecified,Double,,,,,
15991,1716835,33000,1444771,132,1.0,1999,,,3/2/2005 0:00,JS220,JS220,,,,Large / Medium,"Hydraulic Excavator, Track - 21.0 to 24.0 Metric Tons",Texas,TEX,Track Excavators,,EROPS,,,,,,,,,,,Standard,,,,,,None or Unspecified,,,,Steel,None or Unspecified,"9' 10""",Manual,None or Unspecified,Double,,,,,
15991,1716836,47000,1549802,132,1.0,1999,,,11/16/2004 0:00,JS220,JS220,,,,Large / Medium,"Hydraulic Excavator, Track - 21.0 to 24.0 Metric Tons",Texas,TEX,Track Excavators,,EROPS,,,,,,,,,,,Standard,,,,,,None or Unspecified,,,,Steel,None or Unspecified,"9' 10""",None or Unspecified,None or Unspecified,Double,,,,,
15991,2389459,27500,1336075,136,13.0,1000,0.0,,9/19/2009 0:00,JS220,JS220,,,,Large / Medium,"Hydraulic Excavator, Track - 21.0 to 24.0 Metric Tons",Tennessee,TEX,Track Excavators,,EROPS w AC,,,,,,,,,,,Standard,,,,,,None or Unspecified,,,,Steel,None or Unspecified,None or Unspecified,None or Unspecified,None or Unspecified,Double,,,,,
15991,2393358,30000,1167729,136,1.0,2004,2853.0,Medium,6/17/2009 0:00,JS220,JS220,,,,Large / Medium,"Hydraulic Excavator, Track - 21.0 to 24.0 Metric Tons",Washington,TEX,Track Excavators,,EROPS,,,,,,,,,,,Standard,,,,,,Hydraulic,,,,Steel,None or Unspecified,None or Unspecified,Hydraulic,None or Unspecified,Double,,,,,
15991,2393362,42000,1166274,136,1.0,2004,3439.0,Medium,6/17/2009 0:00,JS220,JS220,,,,Large / Medium,"Hydraulic Excavator, Track - 21.0 to 24.0 Metric Tons",Washington,TEX,Track Excavators,,EROPS,,,,,,,,,,,Standard,,,,,,Manual,,,,Steel,None or Unspecified,None or Unspecified,Hydraulic,None or Unspecified,Double,,,,,
15991,2393364,35000,1716307,136,1.0,2005,1170.0,Low,3/9/2010 0:00,JS220,JS220,,,,Large / Medium,"Hydraulic Excavator, Track - 21.0 to 24.0 Metric Tons",California,TEX,Track Excavators,,EROPS,,,,,,,,,,,Auxiliary,,,,,,None or Unspecified,,,,Steel,None or Unspecified,None or Unspecified,None or Unspecified,None or Unspecified,Double,,,,,
15991,2393366,44000,1692877,136,1.0,2004,0.0,,3/18/2009 0:00,JS220,JS220,,,,Large / Medium,"Hydraulic Excavator, Track - 21.0 to 24.0 Metric Tons",Washington,TEX,Track Excavators,,EROPS,,,,,,,,,,,Standard,,,,,,None or Unspecified,,,,Steel,None or Unspecified,None or Unspecified,None or Unspecified,None or Unspecified,Double,,,,,
15991,2393399,23000,1763379,136,1.0,1000,4633.0,Low,5/14/2010 0:00,JS220,JS220,,,,Large / Medium,"Hydraulic Excavator, Track - 21.0 to 24.0 Metric Tons",Nevada,TEX,Track Excavators,,EROPS w AC,,,,,,,,,,,Standard,,,,,,None or Unspecified,,,,Steel,None or Unspecified,None or Unspecified,None or Unspecified,None or Unspecified,Double,,,,,
15991,2677817,45000,1323915,149,1.0,1996,3021.0,Low,6/2/2011 0:00,JS220,JS220,,,,Large / Medium,"Hydraulic Excavator, Track - 21.0 to 24.0 Metric Tons",Tennessee,TEX,Track Excavators,,EROPS w AC,,,,,,,,,,,Standard,,,,,,None or Unspecified,,,,Steel,None or Unspecified,"9' 8""",None or Unspecified,None or Unspecified,Double,,,,,
15991,2685656,49000,1911089,149,1.0,2004,3816.0,Medium,6/7/2011 0:00,JS220,JS220,,,,Large / Medium,"Hydraulic Excavator, Track - 21.0 to 24.0 Metric Tons",Maryland,TEX,Track Excavators,,EROPS w AC,,,,,,,,,,,Auxiliary,,,,,,None or Unspecified,,,,Steel,None or Unspecified,None or Unspecified,None or Unspecified,None or Unspecified,Double,,,,,
15991,4347112,45000,1274197,172,1.0,2006,1693.0,Medium,6/23/2009 0:00,JS220,JS220,,,,Large / Medium,"Hydraulic Excavator, Track - 21.0 to 24.0 Metric Tons",California,TEX,Track Excavators,,EROPS w AC,,,,,,,,,,,Auxiliary,,,,,,Manual,,,,Steel,None or Unspecified,"9' 10""",Manual,None or Unspecified,Double,,,,,
15991,4351964,34000,1382733,172,1.0,2004,4114.0,Medium,10/19/2010 0:00,JS220,JS220,,,,Large / Medium,"Hydraulic Excavator, Track - 21.0 to 24.0 Metric Tons",Maryland,TEX,Track Excavators,,EROPS,,,,,,,,,,,Auxiliary,,,,,,None or Unspecified,,,,Steel,None or Unspecified,"9' 10""",None or Unspecified,None or Unspecified,Double,,,,,
15991,4351971,44000,2286641,172,1.0,2004,5054.0,Medium,10/3/2011 0:00,JS220,JS220,,,,Large / Medium,"Hydraulic Excavator, Track - 21.0 to 24.0 Metric Tons",Texas,TEX,Track Excavators,,EROPS w AC,,,,,,,,,,,Auxiliary,,,,,,None or Unspecified,,,,Steel,None or Unspecified,None or Unspecified,Manual,None or Unspecified,Triple,,,,,
15991,4351972,45000,2286641,172,1.0,2004,5130.0,Medium,10/25/2011 0:00,JS220,JS220,,,,Large / Medium,"Hydraulic Excavator, Track - 21.0 to 24.0 Metric Tons",Florida,TEX,Track Excavators,,EROPS w AC,,,,,,,,,,,Auxiliary,,,,,,None or Unspecified,,,,Steel,None or Unspecified,None or Unspecified,Manual,None or Unspecified,Triple,,,,,
15991,4351974,43000,2286641,172,1.0,2004,4539.0,Medium,7/26/2011 0:00,JS220,JS220,,,,Large / Medium,"Hydraulic Excavator, Track - 21.0 to 24.0 Metric Tons",Texas,TEX,Track Excavators,,EROPS w AC,,,,,,,,,,,Auxiliary,,,,,,None or Unspecified,,,,Steel,None or Unspecified,None or Unspecified,Manual,None or Unspecified,Triple,,,,,
15991,4351979,44000,1162233,172,1.0,2004,2989.0,Medium,3/18/2009 0:00,JS220,JS220,,,,Large / Medium,"Hydraulic Excavator, Track - 21.0 to 24.0 Metric Tons",Washington,TEX,Track Excavators,,EROPS,,,,,,,,,,,Standard,,,,,,Manual,,,,Steel,None or Unspecified,None or Unspecified,Hydraulic,None or Unspecified,Double,,,,,
15991,4351981,39000,1532035,172,1.0,2005,2082.0,Medium,6/23/2009 0:00,JS220,JS220,,,,Large / Medium,"Hydraulic Excavator, Track - 21.0 to 24.0 Metric Tons",California,TEX,Track Excavators,,EROPS w AC,,,,,,,,,,,Auxiliary,,,,,,None or Unspecified,,,,Steel,None or Unspecified,"9' 10""",None or Unspecified,None or Unspecified,Double,,,,,
15991,4351982,35000,1175709,172,1.0,2005,1170.0,Low,3/9/2010 0:00,JS220,JS220,,,,Large / Medium,"Hydraulic Excavator, Track - 21.0 to 24.0 Metric Tons",California,TEX,Track Excavators,,EROPS,,,,,,,,,,,Auxiliary,,,,,,None or Unspecified,,,,Steel,None or Unspecified,"9' 10""",None or Unspecified,None or Unspecified,Double,,,,,
15991,4351986,46000,2286016,172,1.0,2005,3295.0,Medium,9/13/2011 0:00,JS220,JS220,,,,Large / Medium,"Hydraulic Excavator, Track - 21.0 to 24.0 Metric Tons",Georgia,TEX,Track Excavators,,EROPS w AC,,,,,,,,,,,Auxiliary,,,,,,None or Unspecified,,,,Steel,None or Unspecified,None or Unspecified,None or Unspecified,None or Unspecified,Triple,,,,,
15991,4351987,44000,2286016,172,1.0,2005,4105.0,Medium,7/26/2011 0:00,JS220,JS220,,,,Large / Medium,"Hydraulic Excavator, Track - 21.0 to 24.0 Metric Tons",Texas,TEX,Track Excavators,,EROPS w AC,,,,,,,,,,,Auxiliary,,,,,,None or Unspecified,,,,Steel,None or Unspecified,None or Unspecified,None or Unspecified,None or Unspecified,Triple,,,,,
15991,4351988,65000,2286016,172,1.0,2005,3619.0,Medium,6/21/2011 0:00,JS220,JS220,,,,Large / Medium,"Hydraulic Excavator, Track - 21.0 to 24.0 Metric Tons",Texas,TEX,Track Excavators,,EROPS w AC,,,,,,,,,,,Auxiliary,,,,,,None or Unspecified,,,,Steel,None or Unspecified,None or Unspecified,None or Unspecified,None or Unspecified,Triple,,,,,
15991,4351992,45000,2286016,172,1.0,2005,3505.0,Medium,12/6/2011 0:00,JS220,JS220,,,,Large / Medium,"Hydraulic Excavator, Track - 21.0 to 24.0 Metric Tons",Georgia,TEX,Track Excavators,,EROPS w AC,,,,,,,,,,,Auxiliary,,,,,,None or Unspecified,,,,Steel,None or Unspecified,None or Unspecified,None or Unspecified,None or Unspecified,Triple,,,,,
15991,4352062,23000,1411745,172,1.0,2000,4633.0,Medium,5/14/2010 0:00,JS220,JS220,,,,Large / Medium,"Hydraulic Excavator, Track - 21.0 to 24.0 Metric Tons",Nevada,TEX,Track Excavators,,EROPS w AC,,,,,,,,,,,Standard,,,,,,None or Unspecified,,,,Steel,None or Unspecified,None or Unspecified,None or Unspecified,None or Unspecified,Double,,,,,
15991,6299039,45000,1893521,149,1.0,2004,,,10/26/2011 0:00,JS220,JS220,,,,Large / Medium,"Hydraulic Excavator, Track - 21.0 to 24.0 Metric Tons",Florida,TEX,Track Excavators,,EROPS w AC,,,,,,,,,,,Auxiliary,,,,,,None or Unspecified,,,,Steel,None or Unspecified,None or Unspecified,None or Unspecified,None or Unspecified,Double,,,,,
15991,6299041,41000,1076445,149,1.0,1000,,,7/27/2011 0:00,JS220,JS220,,,,Large / Medium,"Hydraulic Excavator, Track - 21.0 to 24.0 Metric Tons",Texas,TEX,Track Excavators,,EROPS w AC,,,,,,,,,,,Auxiliary,,,,,,None or Unspecified,,,,Steel,None or Unspecified,None or Unspecified,None or Unspecified,None or Unspecified,Double,,,,,
15991,6299042,43000,1105506,149,1.0,2004,,,7/27/2011 0:00,JS220,JS220,,,,Large / Medium,"Hydraulic Excavator, Track - 21.0 to 24.0 Metric Tons",Texas,TEX,Track Excavators,,EROPS w AC,,,,,,,,,,,Auxiliary,,,,,,None or Unspecified,,,,Steel,None or Unspecified,"9' 8""",None or Unspecified,None or Unspecified,Double,,,,,
15991,6299043,44000,1854345,149,1.0,2004,,,10/4/2011 0:00,JS220,JS220,,,,Large / Medium,"Hydraulic Excavator, Track - 21.0 to 24.0 Metric Tons",Texas,TEX,Track Excavators,,EROPS w AC,,,,,,,,,,,Auxiliary,,,,,,None or Unspecified,,,,Steel,None or Unspecified,None or Unspecified,None or Unspecified,None or Unspecified,Double,,,,,
15991,6299045,65000,1547018,149,1.0,2005,,,6/22/2011 0:00,JS220,JS220,,,,Large / Medium,"Hydraulic Excavator, Track - 21.0 to 24.0 Metric Tons",Texas,TEX,Track Excavators,,EROPS w AC,,,,,,,,,,,Auxiliary,,,,,,None or Unspecified,,,,Steel,None or Unspecified,"9' 6""",None or Unspecified,None or Unspecified,Double,,,,,
15991,6299046,59000,1541041,149,1.0,2005,,,6/22/2011 0:00,JS220,JS220,,,,Large / Medium,"Hydraulic Excavator, Track - 21.0 to 24.0 Metric Tons",Texas,TEX,Track Excavators,,EROPS w AC,,,,,,,,,,,Auxiliary,,,,,,None or Unspecified,,,,Steel,None or Unspecified,"9' 8""",None or Unspecified,None or Unspecified,Double,,,,,
15991,6299048,45000,1796184,149,1.0,2005,,,12/7/2011 0:00,JS220,JS220,,,,Large / Medium,"Hydraulic Excavator, Track - 21.0 to 24.0 Metric Tons",Georgia,TEX,Track Excavators,,EROPS w AC,,,,,,,,,,,Auxiliary,,,,,,None or Unspecified,,,,Steel,None or Unspecified,"9' 10""",None or Unspecified,None or Unspecified,Double,,,,,
15991,6299049,42500,1901625,149,1.0,2005,,,12/7/2011 0:00,JS220,JS220,,,,Large / Medium,"Hydraulic Excavator, Track - 21.0 to 24.0 Metric Tons",Georgia,TEX,Track Excavators,,EROPS,,,,,,,,,,,Standard,,,,,,None or Unspecified,,,,Steel,None or Unspecified,None or Unspecified,None or Unspecified,None or Unspecified,Double,,,,,
15991,6299050,46000,1865217,149,1.0,1000,,,9/14/2011 0:00,JS220,JS220,,,,Large / Medium,"Hydraulic Excavator, Track - 21.0 to 24.0 Metric Tons",Georgia,TEX,Track Excavators,,EROPS,,,,,,,,,,,Auxiliary,,,,,,None or Unspecified,,,,Steel,None or Unspecified,None or Unspecified,None or Unspecified,None or Unspecified,Double,,,,,
15991,6299051,40000,1909260,149,1.0,2005,,,12/13/2011 0:00,JS220,JS220,,,,Large / Medium,"Hydraulic Excavator, Track - 21.0 to 24.0 Metric Tons",Maryland,TEX,Track Excavators,,EROPS w AC,,,,,,,,,,,Auxiliary,,,,,,None or Unspecified,,,,Steel,None or Unspecified,None or Unspecified,None or Unspecified,None or Unspecified,Double,,,,,
15991,6299052,43000,1482686,149,1.0,2005,,,7/27/2011 0:00,JS220,JS220,,,,Large / Medium,"Hydraulic Excavator, Track - 21.0 to 24.0 Metric Tons",Texas,TEX,Track Excavators,,EROPS w AC,,,,,,,,,,,Auxiliary,,,,,,None or Unspecified,,,,Steel,None or Unspecified,None or Unspecified,None or Unspecified,None or Unspecified,Double,,,,,
15991,6299053,44000,1164334,149,1.0,2005,,,7/27/2011 0:00,JS220,JS220,,,,Large / Medium,"Hydraulic Excavator, Track - 21.0 to 24.0 Metric Tons",Texas,TEX,Track Excavators,,EROPS,,,,,,,,,,,Auxiliary,,,,,,None or Unspecified,,,,Steel,None or Unspecified,"9' 10""",None or Unspecified,None or Unspecified,Double,,,,,
