SalesID,2391242
SalePrice,7000
MachineID,1704446
datasource,136
auctioneerID,
YearMade,1000
MachineHoursCurrentMeter,156200.0
UsageBand,Low
saledate,4/23/2009 0:00
fiModelDesc,ROBOT 185 III
fiBaseModel,ROBOT 185
fiSecondaryDesc,
fiModelSeries, III
fiModelDescriptor,
ProductSize,
fiProductClassDesc,Skid Steer Loader - 1751.0 to 2201.0 Lb Operating Capacity
state,Kentucky
ProductGroup,SSL
ProductGroupDesc,Skid Steer Loaders
Drive_System,
Enclosure,OROPS
Forks,None or Unspecified
Pad_Type,
Ride_Control,
Stick,
Transmission,
Turbocharged,
Blade_Extension,
Blade_Width,
Enclosure_Type,
Engine_Horsepower,
Hydraulics,Standard
Pushblock,
Ripper,
Scarifier,
Tip_Control,
Tire_Size,
Coupler,None or Unspecified
Coupler_System,None or Unspecified
Grouser_Tracks,None or Unspecified
Hydraulics_Flow,Standard
Track_Type,
Undercarriage_Pad_Width,
Stick_Length,
Thumb,
Pattern_Changer,
Grouser_Type,
Backhoe_Mounting,
Blade_Type,
Travel_Controls,
Differential_Type,
Steering_Controls,
