SalesID,2393637
SalePrice,18500
MachineID,1275930
datasource,136
auctioneerID,7.0
YearMade,1000
MachineHoursCurrentMeter,0.0
UsageBand,
saledate,10/22/2008 0:00
fiModelDesc,50Z
fiBaseModel,50
fiSecondaryDesc,Z
fiModelSeries,
fiModelDescriptor,
ProductSize,
fiProductClassDesc,Wheel Loader - 90.0 to 100.0 Horsepower
state,South Carolina
ProductGroup,WL
ProductGroupDesc,Wheel Loader
Drive_System,
Enclosure,OROPS
Forks,Yes
Pad_Type,
Ride_Control,None or Unspecified
Stick,
Transmission,
Turbocharged,
Blade_Extension,
Blade_Width,
Enclosure_Type,
Engine_Horsepower,
Hydraulics,2 Valve
Pushblock,
Ripper,
Scarifier,
Tip_Control,
Tire_Size,17.5
Coupler,Manual
Coupler_System,
Grouser_Tracks,
Hydraulics_Flow,
Track_Type,
Undercarriage_Pad_Width,
Stick_Length,
Thumb,
Pattern_Changer,
Grouser_Type,
Backhoe_Mounting,
Blade_Type,
Travel_Controls,
Differential_Type,Standard
Steering_Controls,Conventional
