ModelID,SalesID,SalePrice,MachineID,datasource,auctioneerID,YearMade,MachineHoursCurrentMeter,UsageBand,saledate,fiModelDesc,fiBaseModel,fiSecondaryDesc,fiModelSeries,fiModelDescriptor,ProductSize,fiProductClassDesc,state,ProductGroup,ProductGroupDesc,Drive_System,Enclosure,Forks,Pad_Type,Ride_Control,Stick,Transmission,Turbocharged,Blade_Extension,Blade_Width,Enclosure_Type,Engine_Horsepower,Hydraulics,Pushblock,Ripper,Scarifier,Tip_Control,Tire_Size,Coupler,Coupler_System,Grouser_Tracks,Hydraulics_Flow,Track_Type,Undercarriage_Pad_Width,Stick_Length,Thumb,Pattern_Changer,Grouser_Type,Backhoe_Mounting,Blade_Type,Travel_Controls,Differential_Type,Steering_Controls
16162,1182407,28000,1016773,121,3.0,1000,0.0,,9/4/2008 0:00,95ZIV-2,95,Z,IV-2,,Medium,Wheel Loader - 275.0 to 350.0 Horsepower,Tennessee,WL,Wheel Loader,,EROPS w AC,None or Unspecified,,None or Unspecified,,,,,,,,2 Valve,,,,,29.5,None or Unspecified,,,,,,,,,,,,,Standard,Conventional
16162,1183166,38500,1029527,121,3.0,1998,17104.0,High,9/25/2008 0:00,95ZIV-2,95,Z,IV-2,,Medium,Wheel Loader - 275.0 to 350.0 Horsepower,Texas,WL,Wheel Loader,,EROPS w AC,None or Unspecified,,None or Unspecified,,,,,,,,2 Valve,,,,,26.5,None or Unspecified,,,,,,,,,,,,,Standard,Conventional
16162,1183167,40500,1008092,121,3.0,1998,18073.0,High,9/25/2008 0:00,95ZIV-2,95,Z,IV-2,,Medium,Wheel Loader - 275.0 to 350.0 Horsepower,Texas,WL,Wheel Loader,,EROPS,None or Unspecified,,None or Unspecified,,,,,,,,2 Valve,,,,,26.5,None or Unspecified,,,,,,,,,,,,,Standard,Conventional
16162,2394609,34000,1141615,136,1.0,2001,0.0,,6/25/2008 0:00,95ZIV-2,95,Z,IV-2,,Medium,Wheel Loader - 275.0 to 350.0 Horsepower,Missouri,WL,Wheel Loader,,EROPS w AC,None or Unspecified,,None or Unspecified,,,,,,,,2 Valve,,,,,29.5,None or Unspecified,,,,,,,,,,,,,Standard,Conventional
