ModelID,SalesID,SalePrice,MachineID,datasource,auctioneerID,YearMade,MachineHoursCurrentMeter,UsageBand,saledate,fiModelDesc,fiBaseModel,fiSecondaryDesc,fiModelSeries,fiModelDescriptor,ProductSize,fiProductClassDesc,state,ProductGroup,ProductGroupDesc,Drive_System,Enclosure,Forks,Pad_Type,Ride_Control,Stick,Transmission,Turbocharged,Blade_Extension,Blade_Width,Enclosure_Type,Engine_Horsepower,Hydraulics,Pushblock,Ripper,Scarifier,Tip_Control,Tire_Size,Coupler,Coupler_System,Grouser_Tracks,Hydraulics_Flow,Track_Type,Undercarriage_Pad_Width,Stick_Length,Thumb,Pattern_Changer,Grouser_Type,Backhoe_Mounting,Blade_Type,Travel_Controls,Differential_Type,Steering_Controls
16187,1718596,31000,1291396,132,2.0,2001,,,2/5/2006 0:00,70SR,70,SR,,,Mini,"Hydraulic Excavator, Track - 6.0 to 8.0 Metric Tons",Florida,TEX,Track Excavators,,EROPS w AC,,,,,,,,,,,Auxiliary,,,,,,None or Unspecified,,,,Steel,None or Unspecified,None or Unspecified,None or Unspecified,None or Unspecified,Double,,,,,
16187,1721213,33000,1148258,132,5.0,2003,,,11/5/2004 0:00,70SR,70,SR,,,Mini,"Hydraulic Excavator, Track - 6.0 to 8.0 Metric Tons",Connecticut,TEX,Track Excavators,,EROPS,,,,,,,,,,,Standard,,,,,,None or Unspecified,,,,Steel,18 inch,None or Unspecified,None or Unspecified,None or Unspecified,Double,,,,,
16187,1724839,33000,1552387,132,2.0,2000,,,3/31/2005 0:00,70SR,70,SR,,,Mini,"Hydraulic Excavator, Track - 6.0 to 8.0 Metric Tons",New Jersey,TEX,Track Excavators,,EROPS w AC,,,,,,,,,,,Auxiliary,,,,,,None or Unspecified,,,,Steel,None or Unspecified,None or Unspecified,None or Unspecified,None or Unspecified,Double,,,,,
16187,1724862,32500,1136311,132,2.0,2001,,,3/31/2005 0:00,70SR,70,SR,,,Mini,"Hydraulic Excavator, Track - 6.0 to 8.0 Metric Tons",New Jersey,TEX,Track Excavators,,EROPS,,,,,,,,,,,Standard,,,,,,None or Unspecified,,,,Steel,None or Unspecified,None or Unspecified,None or Unspecified,None or Unspecified,Double,,,,,
16187,1724876,25500,1475079,132,2.0,2003,,,5/15/2004 0:00,70SR,70,SR,,,Mini,"Hydraulic Excavator, Track - 6.0 to 8.0 Metric Tons",Connecticut,TEX,Track Excavators,,EROPS w AC,,,,,,,,,,,Standard,,,,,,None or Unspecified,,,,Steel,None or Unspecified,None or Unspecified,None or Unspecified,None or Unspecified,Double,,,,,
16187,1724877,30000,1475079,132,4.0,2002,,,2/7/2005 0:00,70SR,70,SR,,,Mini,"Hydraulic Excavator, Track - 6.0 to 8.0 Metric Tons",Florida,TEX,Track Excavators,,EROPS w AC,,,,,,,,,,,Standard,,,,,,None or Unspecified,,,,Steel,None or Unspecified,None or Unspecified,None or Unspecified,None or Unspecified,Double,,,,,
