ModelID,SalesID,SalePrice,MachineID,datasource,auctioneerID,YearMade,MachineHoursCurrentMeter,UsageBand,saledate,fiModelDesc,fiBaseModel,fiSecondaryDesc,fiModelSeries,fiModelDescriptor,ProductSize,fiProductClassDesc,state,ProductGroup,ProductGroupDesc,Drive_System,Enclosure,Forks,Pad_Type,Ride_Control,Stick,Transmission,Turbocharged,Blade_Extension,Blade_Width,Enclosure_Type,Engine_Horsepower,Hydraulics,Pushblock,Ripper,Scarifier,Tip_Control,Tire_Size,Coupler,Coupler_System,Grouser_Tracks,Hydraulics_Flow,Track_Type,Undercarriage_Pad_Width,Stick_Length,Thumb,Pattern_Changer,Grouser_Type,Backhoe_Mounting,Blade_Type,Travel_Controls,Differential_Type,Steering_Controls
16286,1161100,25500,1018936,121,3.0,2000,8107.0,Medium,6/25/2009 0:00,SK400LC-IV,SK400,LC,#NAME?,,Large / Medium,"Hydraulic Excavator, Track - 40.0 to 50.0 Metric Tons",New York,TEX,Track Excavators,,EROPS w AC,,,,,,,,,,,Standard,,,,,,None or Unspecified,,,,Steel,26 inch,None or Unspecified,None or Unspecified,None or Unspecified,Double,,,,,
16286,1176529,26500,1017294,121,3.0,1997,0.0,,1/31/2008 0:00,SK400LC-IV,SK400,LC,#NAME?,,Large / Medium,"Hydraulic Excavator, Track - 40.0 to 50.0 Metric Tons",Georgia,TEX,Track Excavators,,EROPS,,,,,,,,,,,Standard,,,,,,None or Unspecified,,,,Steel,None or Unspecified,None or Unspecified,None or Unspecified,None or Unspecified,Double,,,,,
16286,1176530,27000,1059397,121,3.0,1998,1822.0,Low,1/31/2008 0:00,SK400LC-IV,SK400,LC,#NAME?,,Large / Medium,"Hydraulic Excavator, Track - 40.0 to 50.0 Metric Tons",Georgia,TEX,Track Excavators,,EROPS,,,,,,,,,,,Standard,,,,,,None or Unspecified,,,,Steel,None or Unspecified,None or Unspecified,None or Unspecified,None or Unspecified,Double,,,,,
16286,1189832,23000,1011215,121,3.0,2000,9953.0,High,4/30/2009 0:00,SK400LC-IV,SK400,LC,#NAME?,,Large / Medium,"Hydraulic Excavator, Track - 40.0 to 50.0 Metric Tons",South Carolina,TEX,Track Excavators,,EROPS w AC,,,,,,,,,,,Standard,,,,,,None or Unspecified,,,,Steel,None or Unspecified,None or Unspecified,None or Unspecified,None or Unspecified,Double,,,,,
16286,1203158,17500,1016822,121,3.0,1998,,,6/17/2010 0:00,SK400LC-IV,SK400,LC,#NAME?,,Large / Medium,"Hydraulic Excavator, Track - 40.0 to 50.0 Metric Tons",Virginia,TEX,Track Excavators,,EROPS w AC,,,,,,,,,,,Standard,,,,,,None or Unspecified,,,,Steel,None or Unspecified,None or Unspecified,None or Unspecified,None or Unspecified,Double,,,,,
16286,4354484,20500,1659462,172,1.0,2000,7662.0,Medium,12/9/2010 0:00,SK400LC-IV,SK400,LC,#NAME?,,Large / Medium,"Hydraulic Excavator, Track - 40.0 to 50.0 Metric Tons",Georgia,TEX,Track Excavators,,EROPS w AC,,,,,,,,,,,Standard,,,,,,None or Unspecified,,,,Steel,None or Unspecified,None or Unspecified,None or Unspecified,None or Unspecified,Double,,,,,
