ModelID,SalesID,SalePrice,MachineID,datasource,auctioneerID,YearMade,MachineHoursCurrentMeter,UsageBand,saledate,fiModelDesc,fiBaseModel,fiSecondaryDesc,fiModelSeries,fiModelDescriptor,ProductSize,fiProductClassDesc,state,ProductGroup,ProductGroupDesc,Drive_System,Enclosure,Forks,Pad_Type,Ride_Control,Stick,Transmission,Turbocharged,Blade_Extension,Blade_Width,Enclosure_Type,Engine_Horsepower,Hydraulics,Pushblock,Ripper,Scarifier,Tip_Control,Tire_Size,Coupler,Coupler_System,Grouser_Tracks,Hydraulics_Flow,Track_Type,Undercarriage_Pad_Width,Stick_Length,Thumb,Pattern_Changer,Grouser_Type,Backhoe_Mounting,Blade_Type,Travel_Controls,Differential_Type,Steering_Controls
1630,1190830,120000,30871,121,3.0,2006,2945.0,Medium,5/28/2009 0:00,D6RIIIXL,D6,R,III,XL,Medium,"Track Type Tractor, Dozer - 160.0 to 190.0 Horsepower",Alabama,TTT,Track Type Tractors,,EROPS w AC,,,,,Powershift,,,,,,2 Valve,,Multi Shank,,,,,,,,,,,,,,None or Unspecified,Semi U,Differential Steer,,
1630,1194962,125000,679306,121,3.0,2006,3376.0,High,11/12/2009 0:00,D6RIIIXL,D6,R,III,XL,Medium,"Track Type Tractor, Dozer - 160.0 to 190.0 Horsepower",Ohio,TTT,Track Type Tractors,,EROPS w AC,,,,,Powershift,,,,,,2 Valve,,None or Unspecified,,,,,,,,,,,,,,None or Unspecified,Semi U,Differential Steer,,
1630,1208666,123500,1015575,121,3.0,2006,2952.0,Medium,1/10/2011 0:00,D6RIIIXL,D6,R,III,XL,Medium,"Track Type Tractor, Dozer - 160.0 to 190.0 Horsepower",Michigan,TTT,Track Type Tractors,,OROPS,,,,,Standard,,,,,,2 Valve,,None or Unspecified,,,,,,,,,,,,,,None or Unspecified,Semi U,None or Unspecified,,
1630,1561265,100000,941297,132,20.0,2006,5835.0,High,8/26/2009 0:00,D6RIIIXL,D6,R,III,XL,Medium,"Track Type Tractor, Dozer - 160.0 to 190.0 Horsepower",Arkansas,TTT,Track Type Tractors,,EROPS w AC,,,,,Standard,,,,,,2 Valve,,Multi Shank,,,,,,,,,,,,,,None or Unspecified,Semi U,None or Unspecified,,
1630,1561266,95000,917592,132,20.0,2006,,,10/29/2009 0:00,D6RIIIXL,D6,R,III,XL,Medium,"Track Type Tractor, Dozer - 160.0 to 190.0 Horsepower",Arkansas,TTT,Track Type Tractors,,EROPS,,,,,Standard,,,,,,2 Valve,,Single Shank,,,,,,,,,,,,,,None or Unspecified,Semi U,None or Unspecified,,
1630,1561274,111000,255629,132,2.0,2006,,,2/4/2011 0:00,D6RIIIXL,D6,R,III,XL,Medium,"Track Type Tractor, Dozer - 160.0 to 190.0 Horsepower",Florida,TTT,Track Type Tractors,,EROPS w AC,,,,,Standard,,,,,,2 Valve,,None or Unspecified,,,,,,,,,,,,,,None or Unspecified,Semi U,None or Unspecified,,
1630,1561280,105000,119260,132,13.0,2006,7595.0,High,3/13/2010 0:00,D6RIIIXL,D6,R,III,XL,Medium,"Track Type Tractor, Dozer - 160.0 to 190.0 Horsepower",Tennessee,TTT,Track Type Tractors,,EROPS w AC,,,,,Powershift,,,,,,2 Valve,,Single Shank,,,,,,,,,,,,,,None or Unspecified,Semi U,None or Unspecified,,
1630,1561302,103000,945420,132,20.0,2006,,,10/29/2009 0:00,D6RIIIXL,D6,R,III,XL,Medium,"Track Type Tractor, Dozer - 160.0 to 190.0 Horsepower",Arkansas,TTT,Track Type Tractors,,EROPS w AC,,,,,Standard,,,,,,2 Valve,,Single Shank,,,,,,,,,,,,,,None or Unspecified,Semi U,None or Unspecified,,
1630,1561304,102000,104719,132,20.0,2006,,,10/29/2009 0:00,D6RIIIXL,D6,R,III,XL,Medium,"Track Type Tractor, Dozer - 160.0 to 190.0 Horsepower",Arkansas,TTT,Track Type Tractors,,EROPS,,,,,Standard,,,,,,2 Valve,,Multi Shank,,,,,,,,,,,,,,None or Unspecified,Semi U,None or Unspecified,,
1630,1561315,100000,462828,132,20.0,2006,,,10/29/2009 0:00,D6RIIIXL,D6,R,III,XL,Medium,"Track Type Tractor, Dozer - 160.0 to 190.0 Horsepower",Arkansas,TTT,Track Type Tractors,,EROPS,,,,,Standard,,,,,,2 Valve,,Multi Shank,,,,,,,,,,,,,,None or Unspecified,Semi U,None or Unspecified,,
1630,1561319,110000,957866,132,20.0,2007,,,10/29/2009 0:00,D6RIIIXL,D6,R,III,XL,Medium,"Track Type Tractor, Dozer - 160.0 to 190.0 Horsepower",Arkansas,TTT,Track Type Tractors,,EROPS,,,,,Standard,,,,,,2 Valve,,Multi Shank,,,,,,,,,,,,,,None or Unspecified,Semi U,None or Unspecified,,
1630,2308611,100000,955546,136,,2006,4649.0,High,3/19/2009 0:00,D6RIIIXL,D6,R,III,XL,Medium,"Track Type Tractor, Dozer - 160.0 to 190.0 Horsepower",Oklahoma,TTT,Track Type Tractors,,EROPS w AC,,,,,Standard,,,,,,2 Valve,,Multi Shank,,,,,,,,,,,,,,None or Unspecified,Semi U,None or Unspecified,,
1630,2308616,110000,31024,136,1.0,2006,0.0,,12/10/2009 0:00,D6RIIIXL,D6,R,III,XL,Medium,"Track Type Tractor, Dozer - 160.0 to 190.0 Horsepower",Mississippi,TTT,Track Type Tractors,,EROPS w AC,,,,,Standard,,,,,,2 Valve,,Single Shank,,,,,,,,,,,,,,None or Unspecified,Semi U,Differential Steer,,
1630,2308618,105000,939285,136,20.0,2006,4862.0,High,8/26/2009 0:00,D6RIIIXL,D6,R,III,XL,Medium,"Track Type Tractor, Dozer - 160.0 to 190.0 Horsepower",Arkansas,TTT,Track Type Tractors,,EROPS w AC,,,,,Standard,,,,,,2 Valve,,Multi Shank,,,,,,,,,,,,,,None or Unspecified,Semi U,None or Unspecified,,
1630,2308621,100000,31104,136,1.0,2006,0.0,,3/26/2009 0:00,D6RIIIXL,D6,R,III,XL,Medium,"Track Type Tractor, Dozer - 160.0 to 190.0 Horsepower",Georgia,TTT,Track Type Tractors,,OROPS,,,,,Standard,,,,,,2 Valve,,Multi Shank,,,,,,,,,,,,,,None or Unspecified,Semi U,Differential Steer,,
1630,2308626,107500,920807,136,20.0,2006,4900.0,High,8/26/2009 0:00,D6RIIIXL,D6,R,III,XL,Medium,"Track Type Tractor, Dozer - 160.0 to 190.0 Horsepower",Arkansas,TTT,Track Type Tractors,,EROPS w AC,,,,,Standard,,,,,,2 Valve,,Single Shank,,,,,,,,,,,,,,None or Unspecified,Semi U,None or Unspecified,,
1630,2308678,115000,492945,136,20.0,2007,0.0,,10/29/2009 0:00,D6RIIIXL,D6,R,III,XL,Medium,"Track Type Tractor, Dozer - 160.0 to 190.0 Horsepower",Arkansas,TTT,Track Type Tractors,,EROPS w AC,,,,,Standard,,,,,,2 Valve,,Multi Shank,,,,,,,,,,,,,,None or Unspecified,Semi U,Differential Steer,,
1630,2308679,105000,956666,136,20.0,2006,4972.0,High,8/26/2009 0:00,D6RIIIXL,D6,R,III,XL,Medium,"Track Type Tractor, Dozer - 160.0 to 190.0 Horsepower",Arkansas,TTT,Track Type Tractors,,EROPS w AC,,,,,Standard,,,,,,2 Valve,,None or Unspecified,,,,,,,,,,,,,,None or Unspecified,Semi U,None or Unspecified,,
1630,2308681,107500,917567,136,20.0,2007,3829.0,High,10/29/2009 0:00,D6RIIIXL,D6,R,III,XL,Medium,"Track Type Tractor, Dozer - 160.0 to 190.0 Horsepower",Arkansas,TTT,Track Type Tractors,,EROPS w AC,,,,,Standard,,,,,,2 Valve,,None or Unspecified,,,,,,,,,,,,,,None or Unspecified,Semi U,Differential Steer,,
1630,2308682,125000,12671,136,7.0,2007,2200.0,Medium,9/9/2009 0:00,D6RIIIXL,D6,R,III,XL,Medium,"Track Type Tractor, Dozer - 160.0 to 190.0 Horsepower",Alabama,TTT,Track Type Tractors,,EROPS w AC,,,,,Standard,,,,,,2 Valve,,Single Shank,,,,,,,,,,,,,,None or Unspecified,Semi U,Differential Steer,,
1630,2308685,120250,938225,136,20.0,2007,0.0,,10/29/2009 0:00,D6RIIIXL,D6,R,III,XL,Medium,"Track Type Tractor, Dozer - 160.0 to 190.0 Horsepower",Arkansas,TTT,Track Type Tractors,,EROPS w AC,,,,,Standard,,,,,,2 Valve,,Multi Shank,,,,,,,,,,,,,,None or Unspecified,Semi U,None or Unspecified,,
1630,2308688,112500,213310,136,1.0,2007,3442.0,High,8/20/2009 0:00,D6RIIIXL,D6,R,III,XL,Medium,"Track Type Tractor, Dozer - 160.0 to 190.0 Horsepower",Colorado,TTT,Track Type Tractors,,EROPS w AC,,,,,Standard,,,,,,2 Valve,,Multi Shank,,,,,,,,,,,,,,None or Unspecified,Semi U,None or Unspecified,,
1630,2308737,120000,1689925,136,1.0,2006,4761.0,High,3/16/2010 0:00,D6RIIIXL,D6,R,III,XL,Medium,"Track Type Tractor, Dozer - 160.0 to 190.0 Horsepower",Tennessee,TTT,Track Type Tractors,,EROPS w AC,,,,,Standard,,,,,,2 Valve,,None or Unspecified,,,,,,,,,,,,,,None or Unspecified,Semi U,None or Unspecified,,
1630,2312757,112500,1675344,136,1.0,2006,0.0,,7/9/2009 0:00,D6RIIIXL,D6,R,III,XL,Medium,"Track Type Tractor, Dozer - 160.0 to 190.0 Horsepower",Texas,TTT,Track Type Tractors,,EROPS w AC,,,,,Standard,,,,,,2 Valve,,Multi Shank,,,,,,,,,,,,,,None or Unspecified,Semi U,None or Unspecified,,
1630,2592800,111000,255629,149,2.0,2006,0.0,,1/29/2011 0:00,D6RIIIXL,D6,R,III,XL,Medium,"Track Type Tractor, Dozer - 160.0 to 190.0 Horsepower",Florida,TTT,Track Type Tractors,,EROPS w AC,,,,,Standard,,,,,,2 Valve,,None or Unspecified,,,,,,,,,,,,,,None or Unspecified,Semi U,None or Unspecified,,
1630,2592801,115000,209646,149,1.0,2006,5215.0,High,11/9/2010 0:00,D6RIIIXL,D6,R,III,XL,Medium,"Track Type Tractor, Dozer - 160.0 to 190.0 Horsepower",New Mexico,TTT,Track Type Tractors,,EROPS w AC,,,,,Standard,,,,,,2 Valve,,Multi Shank,,,,,,,,,,,,,,None or Unspecified,Semi U,None or Unspecified,,
1630,2592840,115000,888626,149,26.0,2006,0.0,,6/8/2011 0:00,D6RIIIXL,D6,R,III,XL,Medium,"Track Type Tractor, Dozer - 160.0 to 190.0 Horsepower",Alabama,TTT,Track Type Tractors,,EROPS w AC,,,,,Standard,,,,,,2 Valve,,None or Unspecified,,,,,,,,,,,,,,None or Unspecified,Semi U,None or Unspecified,,
1630,4299408,120000,102066,172,1.0,2006,4761.0,High,3/16/2010 0:00,D6RIIIXL,D6,R,III,XL,Medium,"Track Type Tractor, Dozer - 160.0 to 190.0 Horsepower",Tennessee,TTT,Track Type Tractors,,EROPS w AC,,,,,Standard,,,,,,2 Valve,,None or Unspecified,,,,,,,,,,,,,,None or Unspecified,Semi U,None or Unspecified,,
1630,4299409,125000,1089746,172,1.0,2006,4067.0,High,5/19/2009 0:00,D6RIIIXL,D6,R,III,XL,Medium,"Track Type Tractor, Dozer - 160.0 to 190.0 Horsepower",Oklahoma,TTT,Track Type Tractors,,EROPS w AC,,,,,Standard,,,,,,2 Valve,,None or Unspecified,,,,,,,,,,,,,,None or Unspecified,None or Unspecified,None or Unspecified,,
