SalesID,1778774
SalePrice,49000
MachineID,1374041
datasource,132
auctioneerID,1.0
YearMade,1000
MachineHoursCurrentMeter,
UsageBand,
saledate,8/1/2006 0:00
fiModelDesc,870B
fiBaseModel,870
fiSecondaryDesc,B
fiModelSeries,
fiModelDescriptor,
ProductSize,
fiProductClassDesc,Motorgrader - 200.0 + Horsepower
state,Tennessee
ProductGroup,MG
ProductGroupDesc,Motor Graders
Drive_System,All Wheel Drive
Enclosure,EROPS w AC
Forks,
Pad_Type,
Ride_Control,
Stick,
Transmission,None or Unspecified
Turbocharged,
Blade_Extension,None or Unspecified
Blade_Width,None or Unspecified
Enclosure_Type,None or Unspecified
Engine_Horsepower,No
Hydraulics,Base + 1 Function
Pushblock,Yes
Ripper,Yes
Scarifier,None or Unspecified
Tip_Control,None or Unspecified
Tire_Size,None or Unspecified
Coupler,
Coupler_System,
Grouser_Tracks,
Hydraulics_Flow,
Track_Type,
Undercarriage_Pad_Width,
Stick_Length,
Thumb,
Pattern_Changer,
Grouser_Type,
Backhoe_Mounting,
Blade_Type,
Travel_Controls,
Differential_Type,
Steering_Controls,
