ModelID,SalesID,SalePrice,MachineID,datasource,auctioneerID,YearMade,MachineHoursCurrentMeter,UsageBand,saledate,fiModelDesc,fiBaseModel,fiSecondaryDesc,fiModelSeries,fiModelDescriptor,ProductSize,fiProductClassDesc,state,ProductGroup,ProductGroupDesc,Drive_System,Enclosure,Forks,Pad_Type,Ride_Control,Stick,Transmission,Turbocharged,Blade_Extension,Blade_Width,Enclosure_Type,Engine_Horsepower,Hydraulics,Pushblock,Ripper,Scarifier,Tip_Control,Tire_Size,Coupler,Coupler_System,Grouser_Tracks,Hydraulics_Flow,Track_Type,Undercarriage_Pad_Width,Stick_Length,Thumb,Pattern_Changer,Grouser_Type,Backhoe_Mounting,Blade_Type,Travel_Controls,Differential_Type,Steering_Controls
16343,1727104,33000,1205252,132,5.0,1989,,,8/12/2006 0:00,GD515A-1,GD515,A,-1,,,Motorgrader - 45.0 to 130.0 Horsepower,Connecticut,MG,Motor Graders,,EROPS w AC,,,,,,,,,,,3 Valve,,,,,None or Unspecified,,,,,,,,,,,,,,,
16343,1727107,47000,1205252,132,2.0,1989,,,4/23/1994 0:00,GD515A-1,GD515,A,-1,,,Motorgrader - 45.0 to 130.0 Horsepower,Connecticut,MG,Motor Graders,,EROPS w AC,,,,,,,,,,,3 Valve,,,,,None or Unspecified,,,,,,,,,,,,,,,
16343,1727152,21000,27866,132,1.0,1988,,,10/17/2000 0:00,GD515A-1,GD515,A,-1,,,Motorgrader - 45.0 to 130.0 Horsepower,Florida,MG,Motor Graders,No,EROPS,,,,,None or Unspecified,,None or Unspecified,14',None or Unspecified,No,Base + 1 Function,None or Unspecified,Yes,Yes,None or Unspecified,"17.5""",,,,,,,,,,,,,,,
16343,1750619,34500,764557,132,6.0,1988,,,3/12/1996 0:00,GD515A-1,GD515,A,-1,,,Motorgrader - 45.0 to 130.0 Horsepower,Florida,MG,Motor Graders,No,EROPS w AC,,,,,None or Unspecified,,Yes,14',None or Unspecified,No,Base + 1 Function,None or Unspecified,None or Unspecified,Yes,Sideshift & Tip,"17.5""",,,,,,,,,,,,,,,
16343,1750620,24000,1530181,132,99.0,1988,,,12/13/2000 0:00,GD515A-1,GD515,A,-1,,,Motorgrader - 45.0 to 130.0 Horsepower,Kentucky,MG,Motor Graders,,EROPS w AC,,,,,,,,,,,2 Valve,,,,,23.5,,,,,,,,,,,,,,,
16343,1750624,35000,1245559,132,6.0,1988,,,6/6/1995 0:00,GD515A-1,GD515,A,-1,,,Motorgrader - 45.0 to 130.0 Horsepower,Florida,MG,Motor Graders,,EROPS,,,,,Standard,,,,,,2 Valve,,None or Unspecified,,,,,,,,,,,,,,,,,,
16343,1753719,35000,1517065,132,1.0,1000,,,10/1/1997 0:00,GD515A-1,GD515,A,-1,,,Motorgrader - 45.0 to 130.0 Horsepower,Florida,MG,Motor Graders,No,OROPS,,,,,None or Unspecified,,None or Unspecified,14',None or Unspecified,No,Base + 1 Function,Yes,None or Unspecified,Yes,Sideshift & Tip,"15.5""",,,,,,,,,,,,,,,
