ModelID,SalesID,SalePrice,MachineID,datasource,auctioneerID,YearMade,MachineHoursCurrentMeter,UsageBand,saledate,fiModelDesc,fiBaseModel,fiSecondaryDesc,fiModelSeries,fiModelDescriptor,ProductSize,fiProductClassDesc,state,ProductGroup,ProductGroupDesc,Drive_System,Enclosure,Forks,Pad_Type,Ride_Control,Stick,Transmission,Turbocharged,Blade_Extension,Blade_Width,Enclosure_Type,Engine_Horsepower,Hydraulics,Pushblock,Ripper,Scarifier,Tip_Control,Tire_Size,Coupler,Coupler_System,Grouser_Tracks,Hydraulics_Flow,Track_Type,Undercarriage_Pad_Width,Stick_Length,Thumb,Pattern_Changer,Grouser_Type,Backhoe_Mounting,Blade_Type,Travel_Controls,Differential_Type,Steering_Controls
16346,1169228,64000,1063894,121,3.0,2000,1318.0,Low,8/23/2007 0:00,GD530A-2C,GD530,A,-2C,,,Motorgrader - 130.0 to 145.0 Horsepower,Florida,MG,Motor Graders,No,EROPS w AC,,,,,Powershift,,None or Unspecified,14',None or Unspecified,No,Base + 1 Function,Yes,None or Unspecified,Yes,None or Unspecified,"17.5""",,,,,,,,,,,,,,,
16346,1207554,40000,1050344,121,3.0,1999,6320.0,Medium,9/30/2010 0:00,GD530A-2C,GD530,A,-2C,,,Motorgrader - 130.0 to 145.0 Horsepower,Florida,MG,Motor Graders,No,EROPS w AC,,,,,None or Unspecified,,None or Unspecified,14',None or Unspecified,No,Base + 1 Function,None or Unspecified,None or Unspecified,Yes,None or Unspecified,None or Unspecified,,,,,,,,,,,,,,,
16346,1736449,37000,1135574,132,4.0,1997,,,2/10/2003 0:00,GD530A-2C,GD530,A,-2C,,,Motorgrader - 130.0 to 145.0 Horsepower,Florida,MG,Motor Graders,No,EROPS w AC,,,,,None or Unspecified,,None or Unspecified,14',None or Unspecified,No,Base + 1 Function,None or Unspecified,None or Unspecified,None or Unspecified,None or Unspecified,None or Unspecified,,,,,,,,,,,,,,,
16346,1736599,48000,1434693,132,20.0,1996,,,4/18/2001 0:00,GD530A-2C,GD530,A,-2C,,,Motorgrader - 130.0 to 145.0 Horsepower,Arkansas,MG,Motor Graders,No,EROPS w AC,,,,,Powershift,,None or Unspecified,None or Unspecified,None or Unspecified,No,Base + 1 Function,None or Unspecified,None or Unspecified,Yes,Sideshift & Tip,"14""",,,,,,,,,,,,,,,
16346,1736611,31000,1436433,132,4.0,1997,,,2/10/2003 0:00,GD530A-2C,GD530,A,-2C,,,Motorgrader - 130.0 to 145.0 Horsepower,Florida,MG,Motor Graders,No,EROPS w AC,,,,,None or Unspecified,,None or Unspecified,None or Unspecified,None or Unspecified,No,Base + 1 Function,Yes,None or Unspecified,Yes,Tip,"17.5""",,,,,,,,,,,,,,,
16346,1736618,50000,1498109,132,1.0,1997,,,2/19/2002 0:00,GD530A-2C,GD530,A,-2C,,,Motorgrader - 130.0 to 145.0 Horsepower,Florida,MG,Motor Graders,No,EROPS w AC,,,,,None or Unspecified,,None or Unspecified,14',None or Unspecified,No,Base + 1 Function,Yes,None or Unspecified,Yes,None or Unspecified,"17.5""",,,,,,,,,,,,,,,
16346,1736655,56000,1553593,132,4.0,1999,,,2/12/2007 0:00,GD530A-2C,GD530,A,-2C,,,Motorgrader - 130.0 to 145.0 Horsepower,Florida,MG,Motor Graders,All Wheel Drive,EROPS w AC,,,,,None or Unspecified,,None or Unspecified,None or Unspecified,None or Unspecified,No,Base + 1 Function,None or Unspecified,None or Unspecified,None or Unspecified,Sideshift & Tip,"17.5""",,,,,,,,,,,,,,,
16346,1736680,43000,1424620,132,1.0,1998,,,10/13/2005 0:00,GD530A-2C,GD530,A,-2C,,,Motorgrader - 130.0 to 145.0 Horsepower,Florida,MG,Motor Graders,No,EROPS,,,,,None or Unspecified,,None or Unspecified,14',None or Unspecified,No,Base + 1 Function,None or Unspecified,None or Unspecified,Yes,None or Unspecified,"14""",,,,,,,,,,,,,,,
16346,1736682,43000,794599,132,1.0,1998,,,5/27/2004 0:00,GD530A-2C,GD530,A,-2C,,,Motorgrader - 130.0 to 145.0 Horsepower,Florida,MG,Motor Graders,No,EROPS w AC,,,,,None or Unspecified,,None or Unspecified,14',None or Unspecified,No,Base + 1 Function,Yes,None or Unspecified,Yes,None or Unspecified,"17.5""",,,,,,,,,,,,,,,
16346,1736693,43000,1178462,132,1.0,1998,,,10/13/2005 0:00,GD530A-2C,GD530,A,-2C,,,Motorgrader - 130.0 to 145.0 Horsepower,Florida,MG,Motor Graders,No,EROPS,,,,,None or Unspecified,,None or Unspecified,14',None or Unspecified,No,Base + 1 Function,Yes,None or Unspecified,Yes,None or Unspecified,"14""",,,,,,,,,,,,,,,
16346,1736747,46000,1368441,132,5.0,1998,,,5/15/2004 0:00,GD530A-2C,GD530,A,-2C,,,Motorgrader - 130.0 to 145.0 Horsepower,Florida,MG,Motor Graders,,EROPS w AC,,,,,,,,,,,Standard,,,,,,,,,,,,,,,,,,,,
16346,1737502,54000,1194426,132,1.0,1999,,,10/22/2003 0:00,GD530A-2C,GD530,A,-2C,,,Motorgrader - 130.0 to 145.0 Horsepower,Maine,MG,Motor Graders,No,EROPS w AC,,,,,None or Unspecified,,None or Unspecified,14',None or Unspecified,No,Base + 1 Function,None or Unspecified,None or Unspecified,None or Unspecified,None or Unspecified,"17.5""",,,,,,,,,,,,,,,
16346,1737504,51000,785078,132,1.0,1999,,,5/27/2004 0:00,GD530A-2C,GD530,A,-2C,,,Motorgrader - 130.0 to 145.0 Horsepower,Florida,MG,Motor Graders,No,EROPS w AC,,,,,None or Unspecified,,None or Unspecified,14',None or Unspecified,No,Base + 1 Function,Yes,None or Unspecified,Yes,None or Unspecified,"17.5""",,,,,,,,,,,,,,,
16346,1737505,59000,773813,132,1.0,1999,,,5/27/2004 0:00,GD530A-2C,GD530,A,-2C,,,Motorgrader - 130.0 to 145.0 Horsepower,Florida,MG,Motor Graders,No,EROPS w AC,,,,,None or Unspecified,,None or Unspecified,14',None or Unspecified,No,Base + 1 Function,Yes,None or Unspecified,Yes,None or Unspecified,"17.5""",,,,,,,,,,,,,,,
16346,1737506,51000,1253147,132,1.0,1999,,,12/11/2002 0:00,GD530A-2C,GD530,A,-2C,,,Motorgrader - 130.0 to 145.0 Horsepower,Texas,MG,Motor Graders,No,EROPS w AC,,,,,None or Unspecified,,None or Unspecified,14',None or Unspecified,No,Base + 1 Function,None or Unspecified,None or Unspecified,Yes,None or Unspecified,"14""",,,,,,,,,,,,,,,
16346,1737528,81000,1196874,132,1.0,2000,,,2/17/2004 0:00,GD530A-2C,GD530,A,-2C,,,Motorgrader - 130.0 to 145.0 Horsepower,Florida,MG,Motor Graders,No,EROPS w AC,,,,,None or Unspecified,,None or Unspecified,14',None or Unspecified,No,Base + 1 Function,Yes,None or Unspecified,Yes,None or Unspecified,"17.5""",,,,,,,,,,,,,,,
16346,1737529,67500,1431734,132,1.0,2000,,,5/27/2004 0:00,GD530A-2C,GD530,A,-2C,,,Motorgrader - 130.0 to 145.0 Horsepower,Florida,MG,Motor Graders,No,EROPS w AC,,,,,None or Unspecified,,None or Unspecified,14',None or Unspecified,No,Base + 1 Function,Yes,None or Unspecified,Yes,None or Unspecified,"17.5""",,,,,,,,,,,,,,,
16346,1737537,60000,1165283,132,1.0,2000,,,10/13/2005 0:00,GD530A-2C,GD530,A,-2C,,,Motorgrader - 130.0 to 145.0 Horsepower,Florida,MG,Motor Graders,No,EROPS w AC,,,,,None or Unspecified,,None or Unspecified,14',None or Unspecified,No,Base + 1 Function,Yes,None or Unspecified,Yes,None or Unspecified,"17.5""",,,,,,,,,,,,,,,
16346,2401385,47500,1456552,136,1.0,1997,0.0,,2/16/2009 0:00,GD530A-2C,GD530,A,-2C,,,Motorgrader - 130.0 to 145.0 Horsepower,Florida,MG,Motor Graders,No,EROPS w AC,,,,,None or Unspecified,,None or Unspecified,14',None or Unspecified,No,Base + 1 Function,Yes,None or Unspecified,Yes,None or Unspecified,"17.5""",,,,,,,,,,,,,,,
16346,2401392,49000,1496117,136,1.0,1997,0.0,,2/16/2009 0:00,GD530A-2C,GD530,A,-2C,,,Motorgrader - 130.0 to 145.0 Horsepower,Florida,MG,Motor Graders,No,EROPS,,,,,None or Unspecified,,None or Unspecified,14',None or Unspecified,No,Base + 1 Function,Yes,None or Unspecified,Yes,None or Unspecified,"17.5""",,,,,,,,,,,,,,,
16346,2401398,49000,794599,136,1.0,1000,0.0,,2/16/2009 0:00,GD530A-2C,GD530,A,-2C,,,Motorgrader - 130.0 to 145.0 Horsepower,Florida,MG,Motor Graders,No,EROPS w AC,,,,,None or Unspecified,,None or Unspecified,14',None or Unspecified,No,Base + 1 Function,Yes,None or Unspecified,Yes,None or Unspecified,"17.5""",,,,,,,,,,,,,,,
16346,2401426,56000,1721715,136,1.0,1999,0.0,,9/24/2008 0:00,GD530A-2C,GD530,A,-2C,,,Motorgrader - 130.0 to 145.0 Horsepower,Texas,MG,Motor Graders,No,EROPS w AC,,,,,None or Unspecified,,None or Unspecified,14',None or Unspecified,No,Base + 1 Function,None or Unspecified,None or Unspecified,Yes,None or Unspecified,"14""",,,,,,,,,,,,,,,
16346,2401434,46000,1299058,136,1.0,1999,0.0,,5/9/2007 0:00,GD530A-2C,GD530,A,-2C,,,Motorgrader - 130.0 to 145.0 Horsepower,Texas,MG,Motor Graders,No,EROPS w AC,,,,,None or Unspecified,,None or Unspecified,14',None or Unspecified,No,Base + 1 Function,None or Unspecified,None or Unspecified,Yes,None or Unspecified,"14""",,,,,,,,,,,,,,,
16346,2401438,47000,1328841,136,1.0,1999,0.0,,7/9/2008 0:00,GD530A-2C,GD530,A,-2C,,,Motorgrader - 130.0 to 145.0 Horsepower,Texas,MG,Motor Graders,No,EROPS w AC,,,,,None or Unspecified,,None or Unspecified,14',None or Unspecified,No,Base + 1 Function,Yes,None or Unspecified,Yes,None or Unspecified,"14""",,,,,,,,,,,,,,,
16346,2401722,53000,1713529,136,1.0,1999,0.0,,9/28/2007 0:00,GD530A-2C,GD530,A,-2C,,,Motorgrader - 130.0 to 145.0 Horsepower,North Carolina,MG,Motor Graders,No,EROPS w AC,,,,,None or Unspecified,,None or Unspecified,14',None or Unspecified,No,Base + 1 Function,None or Unspecified,None or Unspecified,Yes,None or Unspecified,None or Unspecified,,,,,,,,,,,,,,,
16346,2401734,50000,1081179,136,1.0,1000,0.0,,2/15/2010 0:00,GD530A-2C,GD530,A,-2C,,,Motorgrader - 130.0 to 145.0 Horsepower,Florida,MG,Motor Graders,No,EROPS w AC,,,,,None or Unspecified,,None or Unspecified,14',None or Unspecified,No,Base + 1 Function,Yes,None or Unspecified,Yes,None or Unspecified,"17.5""",,,,,,,,,,,,,,,
16346,2411092,68000,1673179,136,,1999,0.0,,5/24/2007 0:00,GD530A-2C,GD530,A,-2C,,,Motorgrader - 130.0 to 145.0 Horsepower,Florida,MG,Motor Graders,No,EROPS w AC,,,,,None or Unspecified,,None or Unspecified,14',None or Unspecified,No,Base + 1 Function,Yes,None or Unspecified,Yes,None or Unspecified,None or Unspecified,,,,,,,,,,,,,,,
16346,2693067,40000,1431125,149,1.0,2001,0.0,,3/4/2010 0:00,GD530A-2C,GD530,A,-2C,,,Motorgrader - 130.0 to 145.0 Horsepower,Washington,MG,Motor Graders,No,EROPS w AC,,,,,None or Unspecified,,None or Unspecified,14',None or Unspecified,No,Base + 1 Function,Yes,None or Unspecified,Yes,None or Unspecified,None or Unspecified,,,,,,,,,,,,,,,
16346,4355908,35000,2287923,172,1.0,1998,5413.0,Medium,12/4/2011 0:00,GD530A-2C,GD530,A,-2C,,,Motorgrader - 130.0 to 145.0 Horsepower,Arizona,MG,Motor Graders,,EROPS w AC,,,,,,,,,,,Auxiliary,,,,,,,,,,,,,,,,,,,,
16346,6301969,35000,1529094,149,1.0,1998,,,12/5/2011 0:00,GD530A-2C,GD530,A,-2C,,,Motorgrader - 130.0 to 145.0 Horsepower,Arizona,MG,Motor Graders,No,EROPS w AC,,,,,None or Unspecified,,None or Unspecified,14',Low Profile,No,Base + 1 Function,None or Unspecified,None or Unspecified,Yes,None or Unspecified,"14""",,,,,,,,,,,,,,,
