ModelID,SalesID,SalePrice,MachineID,datasource,auctioneerID,YearMade,MachineHoursCurrentMeter,UsageBand,saledate,fiModelDesc,fiBaseModel,fiSecondaryDesc,fiModelSeries,fiModelDescriptor,ProductSize,fiProductClassDesc,state,ProductGroup,ProductGroupDesc,Drive_System,Enclosure,Forks,Pad_Type,Ride_Control,Stick,Transmission,Turbocharged,Blade_Extension,Blade_Width,Enclosure_Type,Engine_Horsepower,Hydraulics,Pushblock,Ripper,Scarifier,Tip_Control,Tire_Size,Coupler,Coupler_System,Grouser_Tracks,Hydraulics_Flow,Track_Type,Undercarriage_Pad_Width,Stick_Length,Thumb,Pattern_Changer,Grouser_Type,Backhoe_Mounting,Blade_Type,Travel_Controls,Differential_Type,Steering_Controls
16352,1211095,82000,1035082,121,3.0,2003,4303.0,Low,3/17/2011 0:00,GD5553C,GD555,,3C,,,Motorgrader - 130.0 to 145.0 Horsepower,Georgia,MG,Motor Graders,All Wheel Drive,EROPS w AC,,,,,None or Unspecified,,None or Unspecified,12',None or Unspecified,No,Base + 1 Function,Yes,None or Unspecified,Yes,None or Unspecified,None or Unspecified,,,,,,,,,,,,,,,
16352,1222311,96000,1008654,121,3.0,2007,2934.0,Medium,12/15/2011 0:00,GD5553C,GD555,,3C,,,Motorgrader - 130.0 to 145.0 Horsepower,Alabama,MG,Motor Graders,No,EROPS w AC,,,,,None or Unspecified,,None or Unspecified,14',None or Unspecified,No,Base + 1 Function,None or Unspecified,Yes,None or Unspecified,None or Unspecified,"14""",,,,,,,,,,,,,,,
16352,1739949,110000,1392195,132,1.0,2004,,,3/27/2007 0:00,GD5553C,GD555,,3C,,,Motorgrader - 130.0 to 145.0 Horsepower,Georgia,MG,Motor Graders,No,EROPS w AC,,,,,None or Unspecified,,None or Unspecified,None or Unspecified,None or Unspecified,No,Base + 1 Function,Yes,None or Unspecified,Yes,None or Unspecified,None or Unspecified,,,,,,,,,,,,,,,
16352,1739951,67500,1353917,132,1.0,2004,,,11/12/2009 0:00,GD5553C,GD555,,3C,,,Motorgrader - 130.0 to 145.0 Horsepower,Georgia,MG,Motor Graders,No,EROPS w AC,,,,,None or Unspecified,,None or Unspecified,None or Unspecified,Low Profile,No,Base + 1 Function,None or Unspecified,None or Unspecified,Yes,None or Unspecified,"17.5""",,,,,,,,,,,,,,,
16352,1751547,117000,1064365,132,4.0,2007,,,2/7/2011 0:00,GD5553C,GD555,,3C,,,Motorgrader - 130.0 to 145.0 Horsepower,Florida,MG,Motor Graders,No,EROPS w AC,,,,,None or Unspecified,,None or Unspecified,None or Unspecified,None or Unspecified,No,Base + 1 Function,Yes,None or Unspecified,Yes,None or Unspecified,None or Unspecified,,,,,,,,,,,,,,,
16352,2406208,85000,1411588,136,1.0,2003,0.0,,2/15/2010 0:00,GD5553C,GD555,,3C,,,Motorgrader - 130.0 to 145.0 Horsepower,Florida,MG,Motor Graders,,EROPS w AC,,,,,,,,,,,Standard,,,,,,,,,,,,,,,,,,,,
16352,2406672,52000,1189122,136,9.0,1000,0.0,,12/3/2009 0:00,GD5553C,GD555,,3C,,,Motorgrader - 130.0 to 145.0 Horsepower,South Carolina,MG,Motor Graders,No,EROPS,,,,,None or Unspecified,,None or Unspecified,None or Unspecified,None or Unspecified,No,Base + 1 Function,None or Unspecified,None or Unspecified,Yes,None or Unspecified,"17.5""",,,,,,,,,,,,,,,
16352,2420475,110000,1411341,136,1.0,2004,0.0,,3/27/2007 0:00,GD5553C,GD555,,3C,,,Motorgrader - 130.0 to 145.0 Horsepower,Georgia,MG,Motor Graders,No,EROPS w AC,,,,,None or Unspecified,,None or Unspecified,12',None or Unspecified,No,Base + 1 Function,Yes,None or Unspecified,Yes,None or Unspecified,None or Unspecified,,,,,,,,,,,,,,,
16352,2420476,95000,1788690,136,1.0,2004,0.0,,9/18/2008 0:00,GD5553C,GD555,,3C,,,Motorgrader - 130.0 to 145.0 Horsepower,Georgia,MG,Motor Graders,No,EROPS w AC,,,,,None or Unspecified,,None or Unspecified,12',None or Unspecified,No,Base + 1 Function,None or Unspecified,None or Unspecified,Yes,None or Unspecified,None or Unspecified,,,,,,,,,,,,,,,
16352,2420478,67500,1496771,136,1.0,2004,3551.0,Medium,11/12/2009 0:00,GD5553C,GD555,,3C,,,Motorgrader - 130.0 to 145.0 Horsepower,Georgia,MG,Motor Graders,No,EROPS w AC,,,,,None or Unspecified,,None or Unspecified,12',Low Profile,No,Base + 1 Function,None or Unspecified,None or Unspecified,Yes,None or Unspecified,"17.5""",,,,,,,,,,,,,,,
16352,2695663,100000,1318794,149,1.0,2005,0.0,,5/25/2011 0:00,GD5553C,GD555,,3C,,,Motorgrader - 130.0 to 145.0 Horsepower,Mississippi,MG,Motor Graders,No,OROPS,,,,,None or Unspecified,,None or Unspecified,None or Unspecified,None or Unspecified,No,Base + 1 Function,None or Unspecified,None or Unspecified,None or Unspecified,None or Unspecified,None or Unspecified,,,,,,,,,,,,,,,
16352,2695664,110000,1318794,149,0.0,2005,0.0,,3/23/2011 0:00,GD5553C,GD555,,3C,,,Motorgrader - 130.0 to 145.0 Horsepower,Mississippi,MG,Motor Graders,No,OROPS,,,,,None or Unspecified,,None or Unspecified,None or Unspecified,None or Unspecified,No,Base + 1 Function,None or Unspecified,None or Unspecified,None or Unspecified,None or Unspecified,None or Unspecified,,,,,,,,,,,,,,,
16352,2701429,86000,1076915,149,27.0,2006,3235.0,Medium,4/28/2011 0:00,GD5553C,GD555,,3C,,,Motorgrader - 130.0 to 145.0 Horsepower,North Carolina,MG,Motor Graders,No,EROPS w AC,,,,,None or Unspecified,,None or Unspecified,None or Unspecified,None or Unspecified,No,Base + 1 Function,Yes,None or Unspecified,Yes,None or Unspecified,None or Unspecified,,,,,,,,,,,,,,,
16352,2704884,117000,1863908,149,4.0,2007,0.0,,2/7/2011 0:00,GD5553C,GD555,,3C,,,Motorgrader - 130.0 to 145.0 Horsepower,Florida,MG,Motor Graders,No,EROPS w AC,,,,,None or Unspecified,,None or Unspecified,14',None or Unspecified,No,Base + 1 Function,Yes,None or Unspecified,Yes,None or Unspecified,None or Unspecified,,,,,,,,,,,,,,,
16352,6305826,82500,1921363,149,1.0,2004,,,12/20/2011 0:00,GD5553C,GD555,,3C,,,Motorgrader - 130.0 to 145.0 Horsepower,Washington,MG,Motor Graders,No,EROPS w AC,,,,,None or Unspecified,,None or Unspecified,14',None or Unspecified,No,Base + 1 Function,Yes,Yes,None or Unspecified,None or Unspecified,None or Unspecified,,,,,,,,,,,,,,,
