ModelID,SalesID,SalePrice,MachineID,datasource,auctioneerID,YearMade,MachineHoursCurrentMeter,UsageBand,saledate,fiModelDesc,fiBaseModel,fiSecondaryDesc,fiModelSeries,fiModelDescriptor,ProductSize,fiProductClassDesc,state,ProductGroup,ProductGroupDesc,Drive_System,Enclosure,Forks,Pad_Type,Ride_Control,Stick,Transmission,Turbocharged,Blade_Extension,Blade_Width,Enclosure_Type,Engine_Horsepower,Hydraulics,Pushblock,Ripper,Scarifier,Tip_Control,Tire_Size,Coupler,Coupler_System,Grouser_Tracks,Hydraulics_Flow,Track_Type,Undercarriage_Pad_Width,Stick_Length,Thumb,Pattern_Changer,Grouser_Type,Backhoe_Mounting,Blade_Type,Travel_Controls,Differential_Type,Steering_Controls
16371,2401757,41500,1694882,136,99.0,2000,0.0,,2/6/2010 0:00,GD670AW-2C,GD670,AW,-2C,,,Motorgrader - 200.0 + Horsepower,Washington,MG,Motor Graders,All Wheel Drive,OROPS,,,,,None or Unspecified,,None or Unspecified,None or Unspecified,None or Unspecified,No,Base + 1 Function,None or Unspecified,None or Unspecified,None or Unspecified,None or Unspecified,None or Unspecified,,,,,,,,,,,,,,,
16371,2401759,35000,1746807,136,99.0,1000,0.0,,2/6/2010 0:00,GD670AW-2C,GD670,AW,-2C,,,Motorgrader - 200.0 + Horsepower,Washington,MG,Motor Graders,All Wheel Drive,OROPS,,,,,None or Unspecified,,None or Unspecified,None or Unspecified,None or Unspecified,No,Base + 1 Function,None or Unspecified,None or Unspecified,None or Unspecified,None or Unspecified,None or Unspecified,,,,,,,,,,,,,,,
16371,2401760,36000,1660472,136,99.0,2000,0.0,,2/6/2010 0:00,GD670AW-2C,GD670,AW,-2C,,,Motorgrader - 200.0 + Horsepower,Washington,MG,Motor Graders,All Wheel Drive,OROPS,,,,,None or Unspecified,,None or Unspecified,None or Unspecified,None or Unspecified,No,Base + 1 Function,None or Unspecified,None or Unspecified,None or Unspecified,None or Unspecified,None or Unspecified,,,,,,,,,,,,,,,
