ModelID,SalesID,SalePrice,MachineID,datasource,auctioneerID,YearMade,MachineHoursCurrentMeter,UsageBand,saledate,fiModelDesc,fiBaseModel,fiSecondaryDesc,fiModelSeries,fiModelDescriptor,ProductSize,fiProductClassDesc,state,ProductGroup,ProductGroupDesc,Drive_System,Enclosure,Forks,Pad_Type,Ride_Control,Stick,Transmission,Turbocharged,Blade_Extension,Blade_Width,Enclosure_Type,Engine_Horsepower,Hydraulics,Pushblock,Ripper,Scarifier,Tip_Control,Tire_Size,Coupler,Coupler_System,Grouser_Tracks,Hydraulics_Flow,Track_Type,Undercarriage_Pad_Width,Stick_Length,Thumb,Pattern_Changer,Grouser_Type,Backhoe_Mounting,Blade_Type,Travel_Controls,Differential_Type,Steering_Controls
1648,1163944,23000,1069716,121,3.0,1980,0.0,,6/16/2005 0:00,D7GLGP,D7,G,,LGP,Large,"Track Type Tractor, Dozer - 190.0 to 260.0 Horsepower",Texas,TTT,Track Type Tractors,,OROPS,,,,,Powershift,,,,,,2 Valve,,None or Unspecified,,,,,,,,,,,,,,None or Unspecified,None or Unspecified,None or Unspecified,,
1648,1174723,29500,1020284,121,3.0,1979,11855.0,Medium,1/13/2005 0:00,D7GLGP,D7,G,,LGP,Large,"Track Type Tractor, Dozer - 190.0 to 260.0 Horsepower",Virginia,TTT,Track Type Tractors,,OROPS,,,,,Powershift,,,,,,2 Valve,,Single Shank,,,,,,,,,,,,,,None or Unspecified,None or Unspecified,Lever,,
1648,1201016,32500,1027992,121,3.0,1000,5482.0,Low,5/13/2010 0:00,D7GLGP,D7,G,,LGP,Large,"Track Type Tractor, Dozer - 190.0 to 260.0 Horsepower",Florida,TTT,Track Type Tractors,,OROPS,,,,,Powershift,,,,,,2 Valve,,None or Unspecified,,,,,,,,,,,,,,None or Unspecified,None or Unspecified,Lever,,
1648,1201017,32000,1007349,121,3.0,1000,1836.0,Low,5/13/2010 0:00,D7GLGP,D7,G,,LGP,Large,"Track Type Tractor, Dozer - 190.0 to 260.0 Horsepower",Florida,TTT,Track Type Tractors,,OROPS,,,,,Powershift,,,,,,2 Valve,,None or Unspecified,,,,,,,,,,,,,,None or Unspecified,Straight,None or Unspecified,,
1648,1212685,37000,1000513,121,3.0,1000,2890.0,Low,3/17/2011 0:00,D7GLGP,D7,G,,LGP,Large,"Track Type Tractor, Dozer - 190.0 to 260.0 Horsepower",Louisiana,TTT,Track Type Tractors,,OROPS,,,,,Powershift,,,,,,2 Valve,,None or Unspecified,,,,,,,,,,,,,,None or Unspecified,None or Unspecified,Lever,,
1648,1366065,26000,1508580,132,7.0,1979,,,3/8/2006 0:00,D7GLGP,D7,G,,LGP,Large,"Track Type Tractor, Dozer - 190.0 to 260.0 Horsepower",Alabama,TTT,Track Type Tractors,,OROPS,,,,,Standard,,,,,,2 Valve,,None or Unspecified,,,,,,,,,,,,,,None or Unspecified,Straight,None or Unspecified,,
1648,1366066,29000,1508580,132,7.0,1979,,,3/7/2007 0:00,D7GLGP,D7,G,,LGP,Large,"Track Type Tractor, Dozer - 190.0 to 260.0 Horsepower",Alabama,TTT,Track Type Tractors,,OROPS,,,,,Standard,,,,,,2 Valve,,None or Unspecified,,,,,,,,,,,,,,None or Unspecified,Straight,None or Unspecified,,
1648,1366067,107500,1344842,132,1.0,1979,,,5/13/1999 0:00,D7GLGP,D7,G,,LGP,Large,"Track Type Tractor, Dozer - 190.0 to 260.0 Horsepower",Texas,TTT,Track Type Tractors,,OROPS,,,,,Standard,,,,,,2 Valve,,None or Unspecified,,,,,,,,,,,,,,None or Unspecified,None or Unspecified,None or Unspecified,,
1648,1366069,85000,1377199,132,1.0,1979,,,10/21/2003 0:00,D7GLGP,D7,G,,LGP,Large,"Track Type Tractor, Dozer - 190.0 to 260.0 Horsepower",Ohio,TTT,Track Type Tractors,,OROPS,,,,,Standard,,,,,,2 Valve,,None or Unspecified,,,,,,,,,,,,,,None or Unspecified,None or Unspecified,None or Unspecified,,
1648,1366072,30000,1474769,132,1.0,1980,,,4/15/1993 0:00,D7GLGP,D7,G,,LGP,Large,"Track Type Tractor, Dozer - 190.0 to 260.0 Horsepower",Texas,TTT,Track Type Tractors,,OROPS,,,,,Powershift,,,,,,2 Valve,,None or Unspecified,,,,,,,,,,,,,,None or Unspecified,Straight,None or Unspecified,,
1648,1366073,45250,1309688,132,9.0,1981,,,2/11/1998 0:00,D7GLGP,D7,G,,LGP,Large,"Track Type Tractor, Dozer - 190.0 to 260.0 Horsepower",Florida,TTT,Track Type Tractors,,OROPS,,,,,Standard,,,,,,2 Valve,,Single Shank,,,,,,,,,,,,,,None or Unspecified,None or Unspecified,None or Unspecified,,
1648,1366074,23000,1142971,132,3.0,1980,,,6/16/2005 0:00,D7GLGP,D7,G,,LGP,Large,"Track Type Tractor, Dozer - 190.0 to 260.0 Horsepower",Unspecified,TTT,Track Type Tractors,,OROPS,,,,,Powershift,,,,,,2 Valve,,None or Unspecified,,,,,,,,,,,,,,None or Unspecified,None or Unspecified,None or Unspecified,,
1648,1366078,30000,1311989,132,2.0,1981,,,11/16/2005 0:00,D7GLGP,D7,G,,LGP,Large,"Track Type Tractor, Dozer - 190.0 to 260.0 Horsepower",Texas,TTT,Track Type Tractors,,OROPS,,,,,Standard,,,,,,2 Valve,,None or Unspecified,,,,,,,,,,,,,,None or Unspecified,Straight,None or Unspecified,,
1648,1366081,110000,1104603,132,1.0,1984,,,9/20/2000 0:00,D7GLGP,D7,G,,LGP,Large,"Track Type Tractor, Dozer - 190.0 to 260.0 Horsepower",Texas,TTT,Track Type Tractors,,OROPS,,,,,Standard,,,,,,2 Valve,,None or Unspecified,,,,,,,,,,,,,,None or Unspecified,None or Unspecified,None or Unspecified,,
1648,1366082,35750,1297625,132,9.0,1984,,,4/6/2000 0:00,D7GLGP,D7,G,,LGP,Large,"Track Type Tractor, Dozer - 190.0 to 260.0 Horsepower",Texas,TTT,Track Type Tractors,,OROPS,,,,,Standard,,,,,,2 Valve,,None or Unspecified,,,,,,,,,,,,,,None or Unspecified,None or Unspecified,None or Unspecified,,
1648,1366084,28000,1548707,132,1.0,1985,,,12/7/2006 0:00,D7GLGP,D7,G,,LGP,Large,"Track Type Tractor, Dozer - 190.0 to 260.0 Horsepower",Texas,TTT,Track Type Tractors,,OROPS,,,,,Standard,,,,,,2 Valve,,None or Unspecified,,,,,,,,,,,,,,None or Unspecified,Straight,None or Unspecified,,
1648,1366086,29000,1077570,132,1.0,1985,,,2/28/2001 0:00,D7GLGP,D7,G,,LGP,Large,"Track Type Tractor, Dozer - 190.0 to 260.0 Horsepower",Texas,TTT,Track Type Tractors,,OROPS,,,,,Standard,,,,,,2 Valve,,None or Unspecified,,,,,,,,,,,,,,None or Unspecified,Straight,None or Unspecified,,
1648,1366092,100000,1388891,132,1.0,1985,,,9/20/2000 0:00,D7GLGP,D7,G,,LGP,Large,"Track Type Tractor, Dozer - 190.0 to 260.0 Horsepower",Texas,TTT,Track Type Tractors,,OROPS,,,,,Standard,,,,,,2 Valve,,None or Unspecified,,,,,,,,,,,,,,None or Unspecified,None or Unspecified,None or Unspecified,,
1648,1366093,42500,1467456,132,1.0,1985,,,3/26/1992 0:00,D7GLGP,D7,G,,LGP,Large,"Track Type Tractor, Dozer - 190.0 to 260.0 Horsepower",Florida,TTT,Track Type Tractors,,OROPS,,,,,Standard,,,,,,2 Valve,,None or Unspecified,,,,,,,,,,,,,,None or Unspecified,Straight,None or Unspecified,,
1648,1366096,85000,1236161,132,1.0,1986,,,10/21/2003 0:00,D7GLGP,D7,G,,LGP,Large,"Track Type Tractor, Dozer - 190.0 to 260.0 Horsepower",Ohio,TTT,Track Type Tractors,,OROPS,,,,,Standard,,,,,,2 Valve,,None or Unspecified,,,,,,,,,,,,,,None or Unspecified,None or Unspecified,None or Unspecified,,
1648,1366097,85000,1549510,132,1.0,1986,,,10/21/2003 0:00,D7GLGP,D7,G,,LGP,Large,"Track Type Tractor, Dozer - 190.0 to 260.0 Horsepower",Ohio,TTT,Track Type Tractors,,OROPS,,,,,Standard,,,,,,2 Valve,,None or Unspecified,,,,,,,,,,,,,,None or Unspecified,None or Unspecified,None or Unspecified,,
1648,1366099,72500,1546093,132,4.0,1986,,,2/1/1989 0:00,D7GLGP,D7,G,,LGP,Large,"Track Type Tractor, Dozer - 190.0 to 260.0 Horsepower",Florida,TTT,Track Type Tractors,,OROPS,,,,,Standard,,,,,,2 Valve,,None or Unspecified,,,,,,,,,,,,,,None or Unspecified,Straight,None or Unspecified,,
1648,1367609,26500,1537361,132,2.0,1978,,,11/17/1998 0:00,D7GLGP,D7,G,,LGP,Large,"Track Type Tractor, Dozer - 190.0 to 260.0 Horsepower",Texas,TTT,Track Type Tractors,,OROPS,,,,,Standard,,,,,,2 Valve,,Multi Shank,,,,,,,,,,,,,,None or Unspecified,Straight,None or Unspecified,,
1648,1449222,32000,1150781,132,24.0,1976,,,11/7/1989 0:00,D7GLGP,D7,G,,LGP,Large,"Track Type Tractor, Dozer - 190.0 to 260.0 Horsepower",Georgia,TTT,Track Type Tractors,,OROPS,,,,,Standard,,,,,,2 Valve,,None or Unspecified,,,,,,,,,,,,,,None or Unspecified,None or Unspecified,None or Unspecified,,
1648,1449223,100000,1150781,132,1.0,1976,,,9/20/2000 0:00,D7GLGP,D7,G,,LGP,Large,"Track Type Tractor, Dozer - 190.0 to 260.0 Horsepower",Texas,TTT,Track Type Tractors,,OROPS,,,,,Standard,,,,,,2 Valve,,None or Unspecified,,,,,,,,,,,,,,None or Unspecified,None or Unspecified,None or Unspecified,,
1648,1449230,30000,412313,132,6.0,1977,1000.0,Low,4/7/1994 0:00,D7GLGP,D7,G,,LGP,Large,"Track Type Tractor, Dozer - 190.0 to 260.0 Horsepower",Maryland,TTT,Track Type Tractors,,OROPS,,,,,Standard,,,,,,2 Valve,,None or Unspecified,,,,,,,,,,,,,,None or Unspecified,Straight,None or Unspecified,,
1648,1449232,19000,1163336,132,1.0,1977,,,3/26/2004 0:00,D7GLGP,D7,G,,LGP,Large,"Track Type Tractor, Dozer - 190.0 to 260.0 Horsepower",California,TTT,Track Type Tractors,,OROPS,,,,,Standard,,,,,,2 Valve,,None or Unspecified,,,,,,,,,,,,,,None or Unspecified,Straight,None or Unspecified,,
1648,1449235,29000,1384531,132,1.0,1977,,,6/7/2011 0:00,D7GLGP,D7,G,,LGP,Large,"Track Type Tractor, Dozer - 190.0 to 260.0 Horsepower",Maryland,TTT,Track Type Tractors,,OROPS,,,,,Standard,,,,,,2 Valve,,None or Unspecified,,,,,,,,,,,,,,None or Unspecified,Straight,None or Unspecified,,
1648,1449245,50000,1192599,132,1.0,1977,,,6/19/1990 0:00,D7GLGP,D7,G,,LGP,Large,"Track Type Tractor, Dozer - 190.0 to 260.0 Horsepower",Texas,TTT,Track Type Tractors,,OROPS,,,,,Standard,,,,,,2 Valve,,None or Unspecified,,,,,,,,,,,,,,None or Unspecified,None or Unspecified,None or Unspecified,,
1648,1449251,38000,1082402,132,24.0,1978,,,7/20/1989 0:00,D7GLGP,D7,G,,LGP,Large,"Track Type Tractor, Dozer - 190.0 to 260.0 Horsepower",Georgia,TTT,Track Type Tractors,,EROPS,,,,,Standard,,,,,,2 Valve,,None or Unspecified,,,,,,,,,,,,,,None or Unspecified,Straight,None or Unspecified,,
1648,1449252,40000,1082402,132,4.0,1978,,,2/11/1994 0:00,D7GLGP,D7,G,,LGP,Large,"Track Type Tractor, Dozer - 190.0 to 260.0 Horsepower",Florida,TTT,Track Type Tractors,,EROPS,,,,,Standard,,,,,,2 Valve,,None or Unspecified,,,,,,,,,,,,,,None or Unspecified,Straight,None or Unspecified,,
1648,1449253,23000,1486378,132,1.0,1978,,,8/13/2003 0:00,D7GLGP,D7,G,,LGP,Large,"Track Type Tractor, Dozer - 190.0 to 260.0 Horsepower",Texas,TTT,Track Type Tractors,,OROPS,,,,,Standard,,,,,,2 Valve,,None or Unspecified,,,,,,,,,,,,,,None or Unspecified,Straight,None or Unspecified,,
1648,1449255,31000,162893,132,1.0,1978,,,3/31/1992 0:00,D7GLGP,D7,G,,LGP,Large,"Track Type Tractor, Dozer - 190.0 to 260.0 Horsepower",Texas,TTT,Track Type Tractors,,OROPS,,,,,Standard,,,,,,2 Valve,,None or Unspecified,,,,,,,,,,,,,,None or Unspecified,None or Unspecified,None or Unspecified,,
1648,1449256,27000,162893,132,1.0,1978,,,5/30/2002 0:00,D7GLGP,D7,G,,LGP,Large,"Track Type Tractor, Dozer - 190.0 to 260.0 Horsepower",Tennessee,TTT,Track Type Tractors,,OROPS,,,,,Standard,,,,,,2 Valve,,None or Unspecified,,,,,,,,,,,,,,None or Unspecified,None or Unspecified,None or Unspecified,,
1648,1449257,34000,162893,132,1.0,1978,,,9/26/1991 0:00,D7GLGP,D7,G,,LGP,Large,"Track Type Tractor, Dozer - 190.0 to 260.0 Horsepower",Arizona,TTT,Track Type Tractors,,OROPS,,,,,Standard,,,,,,2 Valve,,None or Unspecified,,,,,,,,,,,,,,None or Unspecified,None or Unspecified,None or Unspecified,,
1648,1449258,28000,162893,132,1.0,1978,,,10/12/2001 0:00,D7GLGP,D7,G,,LGP,Large,"Track Type Tractor, Dozer - 190.0 to 260.0 Horsepower",Georgia,TTT,Track Type Tractors,,OROPS,,,,,Standard,,,,,,2 Valve,,None or Unspecified,,,,,,,,,,,,,,None or Unspecified,None or Unspecified,None or Unspecified,,
1648,1449259,13500,1229887,132,2.0,1978,,,3/14/2002 0:00,D7GLGP,D7,G,,LGP,Large,"Track Type Tractor, Dozer - 190.0 to 260.0 Horsepower",New Jersey,TTT,Track Type Tractors,,OROPS,,,,,Standard,,,,,,2 Valve,,None or Unspecified,,,,,,,,,,,,,,None or Unspecified,Straight,None or Unspecified,,
1648,1449264,40000,1183773,132,6.0,1978,,,9/10/1996 0:00,D7GLGP,D7,G,,LGP,Large,"Track Type Tractor, Dozer - 190.0 to 260.0 Horsepower",Texas,TTT,Track Type Tractors,,OROPS,,,,,Standard,,,,,,2 Valve,,None or Unspecified,,,,,,,,,,,,,,None or Unspecified,Straight,None or Unspecified,,
1648,1449267,17000,632835,132,1.0,1978,,,6/19/2001 0:00,D7GLGP,D7,G,,LGP,Large,"Track Type Tractor, Dozer - 190.0 to 260.0 Horsepower",Washington,TTT,Track Type Tractors,,OROPS,,,,,Standard,,,,,,2 Valve,,None or Unspecified,,,,,,,,,,,,,,None or Unspecified,None or Unspecified,None or Unspecified,,
1648,1449269,34000,261353,132,4.0,1978,,,2/8/1996 0:00,D7GLGP,D7,G,,LGP,Large,"Track Type Tractor, Dozer - 190.0 to 260.0 Horsepower",Florida,TTT,Track Type Tractors,,OROPS,,,,,Standard,,,,,,2 Valve,,None or Unspecified,,,,,,,,,,,,,,None or Unspecified,Angle,None or Unspecified,,
1648,1449270,43000,261353,132,4.0,1978,,,2/9/1995 0:00,D7GLGP,D7,G,,LGP,Large,"Track Type Tractor, Dozer - 190.0 to 260.0 Horsepower",Florida,TTT,Track Type Tractors,,OROPS,,,,,Standard,,,,,,2 Valve,,None or Unspecified,,,,,,,,,,,,,,None or Unspecified,Angle,None or Unspecified,,
1648,1449274,38000,1380993,132,6.0,1978,,,6/30/1998 0:00,D7GLGP,D7,G,,LGP,Large,"Track Type Tractor, Dozer - 190.0 to 260.0 Horsepower",Wisconsin,TTT,Track Type Tractors,,OROPS,,,,,Standard,,,,,,2 Valve,,None or Unspecified,,,,,,,,,,,,,,None or Unspecified,Straight,None or Unspecified,,
1648,1449275,31000,1319953,132,1.0,1979,,,9/20/2006 0:00,D7GLGP,D7,G,,LGP,Large,"Track Type Tractor, Dozer - 190.0 to 260.0 Horsepower",Washington,TTT,Track Type Tractors,,OROPS,,,,,Standard,,,,,,2 Valve,,None or Unspecified,,,,,,,,,,,,,,None or Unspecified,Straight,None or Unspecified,,
1648,1449278,30000,1372750,132,1.0,1979,,,3/31/1992 0:00,D7GLGP,D7,G,,LGP,Large,"Track Type Tractor, Dozer - 190.0 to 260.0 Horsepower",Texas,TTT,Track Type Tractors,,OROPS,,,,,Standard,,,,,,2 Valve,,None or Unspecified,,,,,,,,,,,,,,None or Unspecified,Straight,None or Unspecified,,
1648,1449279,18000,1477544,132,1.0,1979,,,3/23/2005 0:00,D7GLGP,D7,G,,LGP,Large,"Track Type Tractor, Dozer - 190.0 to 260.0 Horsepower",North Carolina,TTT,Track Type Tractors,,OROPS,,,,,Standard,,,,,,2 Valve,,None or Unspecified,,,,,,,,,,,,,,None or Unspecified,Straight,None or Unspecified,,
1648,1449280,30000,1477544,132,6.0,1979,,,2/4/1997 0:00,D7GLGP,D7,G,,LGP,Large,"Track Type Tractor, Dozer - 190.0 to 260.0 Horsepower",Arkansas,TTT,Track Type Tractors,,OROPS,,,,,Standard,,,,,,2 Valve,,None or Unspecified,,,,,,,,,,,,,,None or Unspecified,Straight,None or Unspecified,,
1648,1449281,30000,1151882,132,1.0,1979,,,2/22/2000 0:00,D7GLGP,D7,G,,LGP,Large,"Track Type Tractor, Dozer - 190.0 to 260.0 Horsepower",Texas,TTT,Track Type Tractors,,OROPS,,,,,Standard,,,,,,2 Valve,,None or Unspecified,,,,,,,,,,,,,,None or Unspecified,None or Unspecified,None or Unspecified,,
1648,1449282,26000,1513475,132,4.0,1979,,,10/7/1992 0:00,D7GLGP,D7,G,,LGP,Large,"Track Type Tractor, Dozer - 190.0 to 260.0 Horsepower",Florida,TTT,Track Type Tractors,,OROPS,,,,,Standard,,,,,,2 Valve,,None or Unspecified,,,,,,,,,,,,,,None or Unspecified,None or Unspecified,None or Unspecified,,
1648,1449283,34500,1515646,132,4.0,1979,8000.0,Medium,2/4/1992 0:00,D7GLGP,D7,G,,LGP,Large,"Track Type Tractor, Dozer - 190.0 to 260.0 Horsepower",Florida,TTT,Track Type Tractors,,EROPS,,,,,Powershift,,,,,,2 Valve,,None or Unspecified,,,,,,,,,,,,,,None or Unspecified,Straight,None or Unspecified,,
1648,1449284,30000,1515646,132,4.0,1979,,,2/1/1993 0:00,D7GLGP,D7,G,,LGP,Large,"Track Type Tractor, Dozer - 190.0 to 260.0 Horsepower",Florida,TTT,Track Type Tractors,,EROPS,,,,,Powershift,,,,,,2 Valve,,None or Unspecified,,,,,,,,,,,,,,None or Unspecified,Straight,None or Unspecified,,
1648,1449285,47500,1098040,132,1.0,1979,,,5/13/1999 0:00,D7GLGP,D7,G,,LGP,Large,"Track Type Tractor, Dozer - 190.0 to 260.0 Horsepower",Texas,TTT,Track Type Tractors,,OROPS,,,,,Standard,,,,,,2 Valve,,None or Unspecified,,,,,,,,,,,,,,None or Unspecified,None or Unspecified,None or Unspecified,,
1648,1449286,31000,5002,132,6.0,1979,,,10/15/1992 0:00,D7GLGP,D7,G,,LGP,Large,"Track Type Tractor, Dozer - 190.0 to 260.0 Horsepower",Alabama,TTT,Track Type Tractors,,OROPS,,,,,Standard,,,,,,2 Valve,,None or Unspecified,,,,,,,,,,,,,,None or Unspecified,Straight,None or Unspecified,,
1648,1449287,45000,1484065,132,10.0,1979,,,4/23/1998 0:00,D7GLGP,D7,G,,LGP,Large,"Track Type Tractor, Dozer - 190.0 to 260.0 Horsepower",Louisiana,TTT,Track Type Tractors,,OROPS,,,,,Standard,,,,,,2 Valve,,None or Unspecified,,,,,,,,,,,,,,None or Unspecified,Semi U,None or Unspecified,,
1648,1449289,24000,150338,132,1.0,1979,,,10/12/2001 0:00,D7GLGP,D7,G,,LGP,Large,"Track Type Tractor, Dozer - 190.0 to 260.0 Horsepower",Georgia,TTT,Track Type Tractors,,OROPS,,,,,Standard,,,,,,2 Valve,,Multi Shank,,,,,,,,,,,,,,None or Unspecified,Straight,None or Unspecified,,
1648,1449290,32000,1103927,132,1.0,1979,,,10/3/1991 0:00,D7GLGP,D7,G,,LGP,Large,"Track Type Tractor, Dozer - 190.0 to 260.0 Horsepower",Florida,TTT,Track Type Tractors,,OROPS,,,,,Standard,,,,,,2 Valve,,None or Unspecified,,,,,,,,,,,,,,None or Unspecified,None or Unspecified,None or Unspecified,,
1648,1449296,62000,1455983,132,4.0,1979,,,2/1/1989 0:00,D7GLGP,D7,G,,LGP,Large,"Track Type Tractor, Dozer - 190.0 to 260.0 Horsepower",Florida,TTT,Track Type Tractors,,OROPS,,,,,Powershift,,,,,,2 Valve,,None or Unspecified,,,,,,,,,,,,,,None or Unspecified,Angle,None or Unspecified,,
1648,1449297,23000,1205993,132,10.0,1979,,,3/30/2000 0:00,D7GLGP,D7,G,,LGP,Large,"Track Type Tractor, Dozer - 190.0 to 260.0 Horsepower",Texas,TTT,Track Type Tractors,,OROPS,,,,,Standard,,,,,,2 Valve,,None or Unspecified,,,,,,,,,,,,,,None or Unspecified,Straight,None or Unspecified,,
1648,1449298,36000,1205993,132,11.0,1979,,,5/28/1998 0:00,D7GLGP,D7,G,,LGP,Large,"Track Type Tractor, Dozer - 190.0 to 260.0 Horsepower",Mississippi,TTT,Track Type Tractors,,OROPS,,,,,Standard,,,,,,2 Valve,,None or Unspecified,,,,,,,,,,,,,,None or Unspecified,Straight,None or Unspecified,,
1648,1449299,37000,1205993,132,7.0,1979,,,3/2/2000 0:00,D7GLGP,D7,G,,LGP,Large,"Track Type Tractor, Dozer - 190.0 to 260.0 Horsepower",Alabama,TTT,Track Type Tractors,,OROPS,,,,,Standard,,,,,,2 Valve,,None or Unspecified,,,,,,,,,,,,,,None or Unspecified,Straight,None or Unspecified,,
1648,1449301,15000,1171821,132,1.0,1979,,,9/17/2002 0:00,D7GLGP,D7,G,,LGP,Large,"Track Type Tractor, Dozer - 190.0 to 260.0 Horsepower",Mississippi,TTT,Track Type Tractors,,OROPS,,,,,Standard,,,,,,2 Valve,,None or Unspecified,,,,,,,,,,,,,,None or Unspecified,Straight,None or Unspecified,,
1648,1449304,50000,1330176,132,1.0,1979,,,9/22/1994 0:00,D7GLGP,D7,G,,LGP,Large,"Track Type Tractor, Dozer - 190.0 to 260.0 Horsepower",Colorado,TTT,Track Type Tractors,,OROPS,,,,,Standard,,,,,,3 Valve,,None or Unspecified,,,,,,,,,,,,,,None or Unspecified,Straight,None or Unspecified,,
1648,1449305,76000,1290736,132,4.0,1979,,,2/8/1996 0:00,D7GLGP,D7,G,,LGP,Large,"Track Type Tractor, Dozer - 190.0 to 260.0 Horsepower",Florida,TTT,Track Type Tractors,,OROPS,,,,,Standard,,,,,,2 Valve,,None or Unspecified,,,,,,,,,,,,,,None or Unspecified,None or Unspecified,None or Unspecified,,
1648,1449306,33000,802238,132,1.0,1979,,,3/16/1989 0:00,D7GLGP,D7,G,,LGP,Large,"Track Type Tractor, Dozer - 190.0 to 260.0 Horsepower",Florida,TTT,Track Type Tractors,,OROPS,,,,,Powershift,,,,,,2 Valve,,None or Unspecified,,,,,,,,,,,,,,None or Unspecified,None or Unspecified,None or Unspecified,,
1648,1449307,52000,802238,132,4.0,1979,,,2/1/1989 0:00,D7GLGP,D7,G,,LGP,Large,"Track Type Tractor, Dozer - 190.0 to 260.0 Horsepower",Florida,TTT,Track Type Tractors,,OROPS,,,,,Powershift,,,,,,2 Valve,,None or Unspecified,,,,,,,,,,,,,,None or Unspecified,None or Unspecified,None or Unspecified,,
1648,1449308,20000,802238,132,1.0,1979,,,6/30/2004 0:00,D7GLGP,D7,G,,LGP,Large,"Track Type Tractor, Dozer - 190.0 to 260.0 Horsepower",North Carolina,TTT,Track Type Tractors,,OROPS,,,,,Powershift,,,,,,2 Valve,,None or Unspecified,,,,,,,,,,,,,,None or Unspecified,None or Unspecified,None or Unspecified,,
1648,1449309,29500,802238,132,3.0,1979,,,1/13/2005 0:00,D7GLGP,D7,G,,LGP,Large,"Track Type Tractor, Dozer - 190.0 to 260.0 Horsepower",Unspecified,TTT,Track Type Tractors,,OROPS,,,,,Powershift,,,,,,2 Valve,,None or Unspecified,,,,,,,,,,,,,,None or Unspecified,None or Unspecified,None or Unspecified,,
1648,1449310,24000,1115963,132,1.0,1979,,,3/20/2002 0:00,D7GLGP,D7,G,,LGP,Large,"Track Type Tractor, Dozer - 190.0 to 260.0 Horsepower",Texas,TTT,Track Type Tractors,,EROPS w AC,,,,,Standard,,,,,,2 Valve,,None or Unspecified,,,,,,,,,,,,,,None or Unspecified,Straight,None or Unspecified,,
1648,1449314,45000,1136001,132,6.0,1980,,,6/30/1998 0:00,D7GLGP,D7,G,,LGP,Large,"Track Type Tractor, Dozer - 190.0 to 260.0 Horsepower",Wisconsin,TTT,Track Type Tractors,,OROPS,,,,,Standard,,,,,,2 Valve,,None or Unspecified,,,,,,,,,,,,,,None or Unspecified,None or Unspecified,None or Unspecified,,
1648,1449315,27000,1424558,132,6.0,1980,,,10/31/1990 0:00,D7GLGP,D7,G,,LGP,Large,"Track Type Tractor, Dozer - 190.0 to 260.0 Horsepower",Alabama,TTT,Track Type Tractors,,OROPS,,,,,Standard,,,,,,2 Valve,,None or Unspecified,,,,,,,,,,,,,,None or Unspecified,None or Unspecified,None or Unspecified,,
1648,1449321,33000,1554417,132,1.0,1980,,,3/14/1991 0:00,D7GLGP,D7,G,,LGP,Large,"Track Type Tractor, Dozer - 190.0 to 260.0 Horsepower",Florida,TTT,Track Type Tractors,,EROPS,,,,,Standard,,,,,,2 Valve,,None or Unspecified,,,,,,,,,,,,,,None or Unspecified,Straight,None or Unspecified,,
1648,1449323,22000,1480160,132,1.0,1980,,,10/17/2000 0:00,D7GLGP,D7,G,,LGP,Large,"Track Type Tractor, Dozer - 190.0 to 260.0 Horsepower",Florida,TTT,Track Type Tractors,,OROPS,,,,,Standard,,,,,,2 Valve,,None or Unspecified,,,,,,,,,,,,,,None or Unspecified,Straight,None or Unspecified,,
1648,1449324,22000,1153333,132,1.0,1980,,,10/17/2000 0:00,D7GLGP,D7,G,,LGP,Large,"Track Type Tractor, Dozer - 190.0 to 260.0 Horsepower",Florida,TTT,Track Type Tractors,,OROPS,,,,,Standard,,,,,,2 Valve,,None or Unspecified,,,,,,,,,,,,,,None or Unspecified,Straight,None or Unspecified,,
1648,1449325,39000,1538696,132,1.0,1980,,,10/3/1991 0:00,D7GLGP,D7,G,,LGP,Large,"Track Type Tractor, Dozer - 190.0 to 260.0 Horsepower",Florida,TTT,Track Type Tractors,,OROPS,,,,,Standard,,,,,,2 Valve,,None or Unspecified,,,,,,,,,,,,,,None or Unspecified,Angle,None or Unspecified,,
1648,1449326,30000,1346154,132,6.0,1980,,,10/15/1992 0:00,D7GLGP,D7,G,,LGP,Large,"Track Type Tractor, Dozer - 190.0 to 260.0 Horsepower",Alabama,TTT,Track Type Tractors,,OROPS,,,,,Standard,,,,,,2 Valve,,None or Unspecified,,,,,,,,,,,,,,None or Unspecified,Straight,None or Unspecified,,
1648,1449327,30000,1531964,132,4.0,1980,,,2/17/2001 0:00,D7GLGP,D7,G,,LGP,Large,"Track Type Tractor, Dozer - 190.0 to 260.0 Horsepower",Florida,TTT,Track Type Tractors,,OROPS,,,,,Standard,,,,,,2 Valve,,None or Unspecified,,,,,,,,,,,,,,None or Unspecified,Straight,None or Unspecified,,
1648,1449329,33000,1218170,132,1.0,1980,,,12/14/2005 0:00,D7GLGP,D7,G,,LGP,Large,"Track Type Tractor, Dozer - 190.0 to 260.0 Horsepower",Maryland,TTT,Track Type Tractors,,OROPS,,,,,Standard,,,,,,2 Valve,,None or Unspecified,,,,,,,,,,,,,,None or Unspecified,Straight,None or Unspecified,,
1648,1449331,41000,1091001,132,1.0,1980,,,12/6/2005 0:00,D7GLGP,D7,G,,LGP,Large,"Track Type Tractor, Dozer - 190.0 to 260.0 Horsepower",Washington,TTT,Track Type Tractors,,OROPS,,,,,Standard,,,,,,2 Valve,,None or Unspecified,,,,,,,,,,,,,,None or Unspecified,Straight,None or Unspecified,,
1648,1449335,30000,1452384,132,4.0,1980,,,2/9/1995 0:00,D7GLGP,D7,G,,LGP,Large,"Track Type Tractor, Dozer - 190.0 to 260.0 Horsepower",Florida,TTT,Track Type Tractors,,OROPS,,,,,Standard,,,,,,2 Valve,,None or Unspecified,,,,,,,,,,,,,,None or Unspecified,Straight,None or Unspecified,,
1648,1449337,34000,1212011,132,1.0,1980,,,3/23/2000 0:00,D7GLGP,D7,G,,LGP,Large,"Track Type Tractor, Dozer - 190.0 to 260.0 Horsepower",North Carolina,TTT,Track Type Tractors,,EROPS,,,,,Standard,,,,,,2 Valve,,None or Unspecified,,,,,,,,,,,,,,None or Unspecified,Straight,None or Unspecified,,
1648,1449338,38000,732571,132,1.0,1980,,,1/24/2007 0:00,D7GLGP,D7,G,,LGP,Large,"Track Type Tractor, Dozer - 190.0 to 260.0 Horsepower",Mississippi,TTT,Track Type Tractors,,OROPS,,,,,Standard,,,,,,2 Valve,,None or Unspecified,,,,,,,,,,,,,,None or Unspecified,None or Unspecified,None or Unspecified,,
1648,1449339,43000,1342276,132,14.0,1980,,,9/12/1997 0:00,D7GLGP,D7,G,,LGP,Large,"Track Type Tractor, Dozer - 190.0 to 260.0 Horsepower",Indiana,TTT,Track Type Tractors,,EROPS,,,,,Standard,,,,,,2 Valve,,None or Unspecified,,,,,,,,,,,,,,None or Unspecified,Straight,None or Unspecified,,
1648,1449340,25000,1404819,132,10.0,1980,,,4/30/1992 0:00,D7GLGP,D7,G,,LGP,Large,"Track Type Tractor, Dozer - 190.0 to 260.0 Horsepower",Maine,TTT,Track Type Tractors,,EROPS w AC,,,,,Standard,,,,,,2 Valve,,None or Unspecified,,,,,,,,,,,,,,None or Unspecified,None or Unspecified,None or Unspecified,,
1648,1449342,79000,1311908,132,99.0,1980,,,10/20/1994 0:00,D7GLGP,D7,G,,LGP,Large,"Track Type Tractor, Dozer - 190.0 to 260.0 Horsepower",Nebraska,TTT,Track Type Tractors,,OROPS,,,,,Standard,,,,,,2 Valve,,None or Unspecified,,,,,,,,,,,,,,None or Unspecified,PAT,None or Unspecified,,
1648,1449343,28000,1197724,132,1.0,1980,,,12/12/2001 0:00,D7GLGP,D7,G,,LGP,Large,"Track Type Tractor, Dozer - 190.0 to 260.0 Horsepower",Texas,TTT,Track Type Tractors,,OROPS,,,,,Standard,,,,,,2 Valve,,Multi Shank,,,,,,,,,,,,,,None or Unspecified,Straight,None or Unspecified,,
1648,1449344,29000,1197724,132,1.0,1980,,,9/19/2001 0:00,D7GLGP,D7,G,,LGP,Large,"Track Type Tractor, Dozer - 190.0 to 260.0 Horsepower",Texas,TTT,Track Type Tractors,,OROPS,,,,,Standard,,,,,,2 Valve,,Multi Shank,,,,,,,,,,,,,,None or Unspecified,Straight,None or Unspecified,,
1648,1449346,41000,728747,132,1.0,1981,,,1/24/2007 0:00,D7GLGP,D7,G,,LGP,Large,"Track Type Tractor, Dozer - 190.0 to 260.0 Horsepower",Mississippi,TTT,Track Type Tractors,,OROPS,,,,,Standard,,,,,,2 Valve,,None or Unspecified,,,,,,,,,,,,,,None or Unspecified,None or Unspecified,None or Unspecified,,
1648,1449347,37500,1007349,132,1.0,1981,,,9/10/1996 0:00,D7GLGP,D7,G,,LGP,Large,"Track Type Tractor, Dozer - 190.0 to 260.0 Horsepower",Florida,TTT,Track Type Tractors,,OROPS,,,,,Powershift,,,,,,2 Valve,,None or Unspecified,,,,,,,,,,,,,,None or Unspecified,Straight,None or Unspecified,,
1648,1449350,38000,1147794,132,1.0,1981,,,9/24/1992 0:00,D7GLGP,D7,G,,LGP,Large,"Track Type Tractor, Dozer - 190.0 to 260.0 Horsepower",Washington,TTT,Track Type Tractors,,OROPS,,,,,Standard,,,,,,2 Valve,,None or Unspecified,,,,,,,,,,,,,,None or Unspecified,Straight,None or Unspecified,,
1648,1449351,16000,1147794,132,1.0,1981,,,6/23/2004 0:00,D7GLGP,D7,G,,LGP,Large,"Track Type Tractor, Dozer - 190.0 to 260.0 Horsepower",Washington,TTT,Track Type Tractors,,OROPS,,,,,Standard,,,,,,2 Valve,,None or Unspecified,,,,,,,,,,,,,,None or Unspecified,Straight,None or Unspecified,,
1648,1449352,37500,702828,132,99.0,1981,,,6/15/1995 0:00,D7GLGP,D7,G,,LGP,Large,"Track Type Tractor, Dozer - 190.0 to 260.0 Horsepower",California,TTT,Track Type Tractors,,EROPS,,,,,Standard,,,,,,2 Valve,,Multi Shank,,,,,,,,,,,,,,None or Unspecified,Straight,None or Unspecified,,
1648,1449357,34000,1285793,132,1.0,1981,,,10/12/1993 0:00,D7GLGP,D7,G,,LGP,Large,"Track Type Tractor, Dozer - 190.0 to 260.0 Horsepower",Colorado,TTT,Track Type Tractors,,OROPS,,,,,Standard,,,,,,2 Valve,,None or Unspecified,,,,,,,,,,,,,,None or Unspecified,Straight,None or Unspecified,,
1648,1449358,43000,1126787,132,99.0,1982,,,8/31/1995 0:00,D7GLGP,D7,G,,LGP,Large,"Track Type Tractor, Dozer - 190.0 to 260.0 Horsepower",Wyoming,TTT,Track Type Tractors,,EROPS,,,,,Standard,,,,,,2 Valve,,None or Unspecified,,,,,,,,,,,,,,None or Unspecified,Angle,None or Unspecified,,
1648,1449361,34000,1119456,132,2.0,1982,,,2/1/2004 0:00,D7GLGP,D7,G,,LGP,Large,"Track Type Tractor, Dozer - 190.0 to 260.0 Horsepower",Florida,TTT,Track Type Tractors,,EROPS,,,,,Standard,,,,,,2 Valve,,None or Unspecified,,,,,,,,,,,,,,None or Unspecified,Straight,None or Unspecified,,
1648,1449362,29000,771611,132,1.0,1982,,,2/16/2000 0:00,D7GLGP,D7,G,,LGP,Large,"Track Type Tractor, Dozer - 190.0 to 260.0 Horsepower",Florida,TTT,Track Type Tractors,,OROPS,,,,,Standard,,,,,,2 Valve,,None or Unspecified,,,,,,,,,,,,,,None or Unspecified,None or Unspecified,None or Unspecified,,
1648,1449363,39000,1153489,132,10.0,1982,,,10/30/1992 0:00,D7GLGP,D7,G,,LGP,Large,"Track Type Tractor, Dozer - 190.0 to 260.0 Horsepower",Mississippi,TTT,Track Type Tractors,,EROPS,,,,,Standard,,,,,,2 Valve,,None or Unspecified,,,,,,,,,,,,,,None or Unspecified,Straight,None or Unspecified,,
1648,1449364,32000,1153489,132,1.0,1982,,,12/10/1992 0:00,D7GLGP,D7,G,,LGP,Large,"Track Type Tractor, Dozer - 190.0 to 260.0 Horsepower",Texas,TTT,Track Type Tractors,,EROPS,,,,,Standard,,,,,,2 Valve,,None or Unspecified,,,,,,,,,,,,,,None or Unspecified,Straight,None or Unspecified,,
1648,1449365,30000,1324662,132,9.0,1983,,,3/29/2001 0:00,D7GLGP,D7,G,,LGP,Large,"Track Type Tractor, Dozer - 190.0 to 260.0 Horsepower",Kentucky,TTT,Track Type Tractors,,EROPS,,,,,Standard,,,,,,2 Valve,,None or Unspecified,,,,,,,,,,,,,,None or Unspecified,None or Unspecified,None or Unspecified,,
1648,1449366,41000,1328124,132,10.0,1983,,,10/14/1992 0:00,D7GLGP,D7,G,,LGP,Large,"Track Type Tractor, Dozer - 190.0 to 260.0 Horsepower",Alabama,TTT,Track Type Tractors,,EROPS,,,,,Powershift,,,,,,2 Valve,,None or Unspecified,,,,,,,,,,,,,,None or Unspecified,Straight,None or Unspecified,,
1648,1449367,36000,1328124,132,99.0,1983,,,8/2/2000 0:00,D7GLGP,D7,G,,LGP,Large,"Track Type Tractor, Dozer - 190.0 to 260.0 Horsepower",Wyoming,TTT,Track Type Tractors,,EROPS,,,,,Powershift,,,,,,2 Valve,,None or Unspecified,,,,,,,,,,,,,,None or Unspecified,Straight,None or Unspecified,,
1648,1449368,33000,1255574,132,4.0,1983,,,2/11/2002 0:00,D7GLGP,D7,G,,LGP,Large,"Track Type Tractor, Dozer - 190.0 to 260.0 Horsepower",Florida,TTT,Track Type Tractors,,OROPS,,,,,Powershift,,,,,,2 Valve,,None or Unspecified,,,,,,,,,,,,,,None or Unspecified,Straight,None or Unspecified,,
1648,1449369,23000,1255574,132,9.0,1983,,,2/21/2001 0:00,D7GLGP,D7,G,,LGP,Large,"Track Type Tractor, Dozer - 190.0 to 260.0 Horsepower",Florida,TTT,Track Type Tractors,,OROPS,,,,,Powershift,,,,,,2 Valve,,None or Unspecified,,,,,,,,,,,,,,None or Unspecified,Straight,None or Unspecified,,
1648,1449371,75000,1325452,132,1.0,1983,,,8/18/1998 0:00,D7GLGP,D7,G,,LGP,Large,"Track Type Tractor, Dozer - 190.0 to 260.0 Horsepower",Texas,TTT,Track Type Tractors,,OROPS,,,,,Standard,,,,,,2 Valve,,None or Unspecified,,,,,,,,,,,,,,None or Unspecified,Straight,None or Unspecified,,
1648,1449372,35000,1500897,132,1.0,1983,,,4/15/1993 0:00,D7GLGP,D7,G,,LGP,Large,"Track Type Tractor, Dozer - 190.0 to 260.0 Horsepower",Texas,TTT,Track Type Tractors,,EROPS,,,,,Powershift,,,,,,2 Valve,,None or Unspecified,,,,,,,,,,,,,,None or Unspecified,Angle,None or Unspecified,,
1648,1449373,46000,858479,132,2.0,1983,,,2/10/1994 0:00,D7GLGP,D7,G,,LGP,Large,"Track Type Tractor, Dozer - 190.0 to 260.0 Horsepower",Florida,TTT,Track Type Tractors,,OROPS,,,,,Standard,,,,,,2 Valve,,None or Unspecified,,,,,,,,,,,,,,None or Unspecified,None or Unspecified,None or Unspecified,,
1648,1449377,47000,1335294,132,1.0,1984,,,6/7/1991 0:00,D7GLGP,D7,G,,LGP,Large,"Track Type Tractor, Dozer - 190.0 to 260.0 Horsepower",Texas,TTT,Track Type Tractors,,OROPS,,,,,Standard,,,,,,2 Valve,,None or Unspecified,,,,,,,,,,,,,,None or Unspecified,None or Unspecified,None or Unspecified,,
1648,1449378,31000,1335294,132,1.0,1984,,,12/18/2000 0:00,D7GLGP,D7,G,,LGP,Large,"Track Type Tractor, Dozer - 190.0 to 260.0 Horsepower",Maryland,TTT,Track Type Tractors,,OROPS,,,,,Standard,,,,,,2 Valve,,None or Unspecified,,,,,,,,,,,,,,None or Unspecified,None or Unspecified,None or Unspecified,,
1648,1449379,65000,1047855,132,24.0,1984,,,11/7/1989 0:00,D7GLGP,D7,G,,LGP,Large,"Track Type Tractor, Dozer - 190.0 to 260.0 Horsepower",Georgia,TTT,Track Type Tractors,,OROPS,,,,,Standard,,,,,,2 Valve,,None or Unspecified,,,,,,,,,,,,,,None or Unspecified,Straight,None or Unspecified,,
1648,1449386,72000,1251391,132,1.0,1984,,,3/15/1990 0:00,D7GLGP,D7,G,,LGP,Large,"Track Type Tractor, Dozer - 190.0 to 260.0 Horsepower",Florida,TTT,Track Type Tractors,,EROPS w AC,,,,,Standard,,,,,,2 Valve,,None or Unspecified,,,,,,,,,,,,,,None or Unspecified,Straight,None or Unspecified,,
1648,1449387,52500,1251391,132,4.0,1984,100.0,Low,2/6/1990 0:00,D7GLGP,D7,G,,LGP,Large,"Track Type Tractor, Dozer - 190.0 to 260.0 Horsepower",Florida,TTT,Track Type Tractors,,EROPS w AC,,,,,Standard,,,,,,2 Valve,,None or Unspecified,,,,,,,,,,,,,,None or Unspecified,Straight,None or Unspecified,,
1648,1449388,23000,1487962,132,1.0,1984,,,6/18/2001 0:00,D7GLGP,D7,G,,LGP,Large,"Track Type Tractor, Dozer - 190.0 to 260.0 Horsepower",Maryland,TTT,Track Type Tractors,,OROPS,,,,,Standard,,,,,,2 Valve,,None or Unspecified,,,,,,,,,,,,,,None or Unspecified,Straight,None or Unspecified,,
1648,1449389,66000,1445675,132,6.0,1985,,,1/25/1990 0:00,D7GLGP,D7,G,,LGP,Large,"Track Type Tractor, Dozer - 190.0 to 260.0 Horsepower",Florida,TTT,Track Type Tractors,,OROPS,,,,,Standard,,,,,,2 Valve,,None or Unspecified,,,,,,,,,,,,,,None or Unspecified,Straight,None or Unspecified,,
1648,1449391,20500,1445675,132,2.0,1985,,,10/4/1997 0:00,D7GLGP,D7,G,,LGP,Large,"Track Type Tractor, Dozer - 190.0 to 260.0 Horsepower",Pennsylvania,TTT,Track Type Tractors,,OROPS,,,,,Standard,,,,,,2 Valve,,None or Unspecified,,,,,,,,,,,,,,None or Unspecified,Straight,None or Unspecified,,
1648,1449392,30000,1233541,132,2.0,1984,,,2/1/2004 0:00,D7GLGP,D7,G,,LGP,Large,"Track Type Tractor, Dozer - 190.0 to 260.0 Horsepower",Florida,TTT,Track Type Tractors,,EROPS w AC,,,,,Standard,,,,,,2 Valve,,None or Unspecified,,,,,,,,,,,,,,None or Unspecified,Straight,None or Unspecified,,
1648,1449393,19500,1537115,132,2.0,1985,,,3/27/2003 0:00,D7GLGP,D7,G,,LGP,Large,"Track Type Tractor, Dozer - 190.0 to 260.0 Horsepower",New Jersey,TTT,Track Type Tractors,,EROPS,,,,,Standard,,,,,,2 Valve,,None or Unspecified,,,,,,,,,,,,,,None or Unspecified,PAT,None or Unspecified,,
1648,1449394,22000,1537115,132,1.0,1985,,,6/26/2002 0:00,D7GLGP,D7,G,,LGP,Large,"Track Type Tractor, Dozer - 190.0 to 260.0 Horsepower",Maryland,TTT,Track Type Tractors,,EROPS,,,,,Standard,,,,,,2 Valve,,None or Unspecified,,,,,,,,,,,,,,None or Unspecified,PAT,None or Unspecified,,
1648,1449395,38000,729035,132,1.0,1985,,,1/24/2007 0:00,D7GLGP,D7,G,,LGP,Large,"Track Type Tractor, Dozer - 190.0 to 260.0 Horsepower",Mississippi,TTT,Track Type Tractors,,OROPS,,,,,Standard,,,,,,2 Valve,,None or Unspecified,,,,,,,,,,,,,,None or Unspecified,None or Unspecified,None or Unspecified,,
1648,1449396,38000,733011,132,1.0,1985,,,1/24/2007 0:00,D7GLGP,D7,G,,LGP,Large,"Track Type Tractor, Dozer - 190.0 to 260.0 Horsepower",Mississippi,TTT,Track Type Tractors,,OROPS,,,,,Standard,,,,,,2 Valve,,None or Unspecified,,,,,,,,,,,,,,None or Unspecified,None or Unspecified,None or Unspecified,,
1648,1449397,17000,1310327,132,5.0,1985,,,4/26/2002 0:00,D7GLGP,D7,G,,LGP,Large,"Track Type Tractor, Dozer - 190.0 to 260.0 Horsepower",Connecticut,TTT,Track Type Tractors,,OROPS,,,,,Standard,,,,,,2 Valve,,None or Unspecified,,,,,,,,,,,,,,None or Unspecified,Straight,None or Unspecified,,
1648,1449398,11500,1547075,132,1.0,1985,,,9/27/2001 0:00,D7GLGP,D7,G,,LGP,Large,"Track Type Tractor, Dozer - 190.0 to 260.0 Horsepower",Maryland,TTT,Track Type Tractors,,EROPS w AC,,,,,Standard,,,,,,2 Valve,,None or Unspecified,,,,,,,,,,,,,,None or Unspecified,Straight,None or Unspecified,,
1648,1449399,20000,1547075,132,2.0,1985,,,10/6/2001 0:00,D7GLGP,D7,G,,LGP,Large,"Track Type Tractor, Dozer - 190.0 to 260.0 Horsepower",Pennsylvania,TTT,Track Type Tractors,,EROPS w AC,,,,,Standard,,,,,,2 Valve,,None or Unspecified,,,,,,,,,,,,,,None or Unspecified,Straight,None or Unspecified,,
1648,1449402,26000,1088639,132,1.0,1985,,,9/20/2005 0:00,D7GLGP,D7,G,,LGP,Large,"Track Type Tractor, Dozer - 190.0 to 260.0 Horsepower",Illinois,TTT,Track Type Tractors,,OROPS,,,,,Standard,,,,,,2 Valve,,None or Unspecified,,,,,,,,,,,,,,None or Unspecified,Straight,None or Unspecified,,
1648,1449403,76000,1082599,132,1.0,1985,,,3/16/1989 0:00,D7GLGP,D7,G,,LGP,Large,"Track Type Tractor, Dozer - 190.0 to 260.0 Horsepower",Florida,TTT,Track Type Tractors,,OROPS,,,,,Standard,,,,,,2 Valve,,None or Unspecified,,,,,,,,,,,,,,None or Unspecified,Straight,None or Unspecified,,
1648,1449404,25000,1082599,132,1.0,1985,,,10/17/2000 0:00,D7GLGP,D7,G,,LGP,Large,"Track Type Tractor, Dozer - 190.0 to 260.0 Horsepower",Florida,TTT,Track Type Tractors,,OROPS,,,,,Standard,,,,,,2 Valve,,None or Unspecified,,,,,,,,,,,,,,None or Unspecified,Straight,None or Unspecified,,
1648,1449405,66000,1516287,132,4.0,1985,,,2/1/1989 0:00,D7GLGP,D7,G,,LGP,Large,"Track Type Tractor, Dozer - 190.0 to 260.0 Horsepower",Florida,TTT,Track Type Tractors,,OROPS,,,,,Powershift,,,,,,2 Valve,,None or Unspecified,,,,,,,,,,,,,,None or Unspecified,Straight,None or Unspecified,,
1648,1449408,31000,1206962,132,1.0,1985,,,6/18/2001 0:00,D7GLGP,D7,G,,LGP,Large,"Track Type Tractor, Dozer - 190.0 to 260.0 Horsepower",Maryland,TTT,Track Type Tractors,,EROPS w AC,,,,,Standard,,,,,,2 Valve,,None or Unspecified,,,,,,,,,,,,,,None or Unspecified,Straight,None or Unspecified,,
1648,1449409,45000,1113090,132,20.0,1985,,,3/3/1995 0:00,D7GLGP,D7,G,,LGP,Large,"Track Type Tractor, Dozer - 190.0 to 260.0 Horsepower",Arkansas,TTT,Track Type Tractors,,OROPS,,,,,Powershift,,,,,,2 Valve,,None or Unspecified,,,,,,,,,,,,,,None or Unspecified,Straight,None or Unspecified,,
1648,1449410,42500,1113090,132,1.0,1985,,,4/15/1993 0:00,D7GLGP,D7,G,,LGP,Large,"Track Type Tractor, Dozer - 190.0 to 260.0 Horsepower",Texas,TTT,Track Type Tractors,,OROPS,,,,,Powershift,,,,,,2 Valve,,None or Unspecified,,,,,,,,,,,,,,None or Unspecified,Straight,None or Unspecified,,
1648,1449411,38000,1424994,132,4.0,1985,,,2/8/1996 0:00,D7GLGP,D7,G,,LGP,Large,"Track Type Tractor, Dozer - 190.0 to 260.0 Horsepower",Florida,TTT,Track Type Tractors,,OROPS,,,,,Powershift,,,,,,2 Valve,,None or Unspecified,,,,,,,,,,,,,,None or Unspecified,Straight,None or Unspecified,,
1648,1449412,34000,1424994,132,23.0,1985,,,9/30/1995 0:00,D7GLGP,D7,G,,LGP,Large,"Track Type Tractor, Dozer - 190.0 to 260.0 Horsepower",New Jersey,TTT,Track Type Tractors,,OROPS,,,,,Powershift,,,,,,2 Valve,,None or Unspecified,,,,,,,,,,,,,,None or Unspecified,Straight,None or Unspecified,,
1648,1449413,76000,1368319,132,1.0,1985,,,3/16/1989 0:00,D7GLGP,D7,G,,LGP,Large,"Track Type Tractor, Dozer - 190.0 to 260.0 Horsepower",Florida,TTT,Track Type Tractors,,OROPS,,,,,Standard,,,,,,3 Valve,,None or Unspecified,,,,,,,,,,,,,,None or Unspecified,Straight,None or Unspecified,,
1648,1449414,52000,599437,132,1.0,1985,,,3/14/1991 0:00,D7GLGP,D7,G,,LGP,Large,"Track Type Tractor, Dozer - 190.0 to 260.0 Horsepower",Florida,TTT,Track Type Tractors,,OROPS,,,,,Standard,,,,,,2 Valve,,None or Unspecified,,,,,,,,,,,,,,None or Unspecified,Straight,None or Unspecified,,
1648,1449415,24000,1150973,132,9.0,1985,,,2/17/2003 0:00,D7GLGP,D7,G,,LGP,Large,"Track Type Tractor, Dozer - 190.0 to 260.0 Horsepower",Florida,TTT,Track Type Tractors,,OROPS,,,,,Standard,,,,,,2 Valve,,None or Unspecified,,,,,,,,,,,,,,None or Unspecified,None or Unspecified,None or Unspecified,,
1648,2236360,37000,1174721,136,1.0,1978,0.0,,3/29/2007 0:00,D7GLGP,D7,G,,LGP,Large,"Track Type Tractor, Dozer - 190.0 to 260.0 Horsepower",Texas,TTT,Track Type Tractors,,OROPS,,,,,Standard,,,,,,2 Valve,,None or Unspecified,,,,,,,,,,,,,,None or Unspecified,Straight,None or Unspecified,,
1648,2236361,35000,1377199,136,1.0,1979,0.0,,6/14/2007 0:00,D7GLGP,D7,G,,LGP,Large,"Track Type Tractor, Dozer - 190.0 to 260.0 Horsepower",Colorado,TTT,Track Type Tractors,,OROPS,,,,,Standard,,,,,,2 Valve,,None or Unspecified,,,,,,,,,,,,,,None or Unspecified,None or Unspecified,None or Unspecified,,
1648,2259705,42000,1517442,136,1.0,1979,0.0,,3/29/2007 0:00,D7GLGP,D7,G,,LGP,Large,"Track Type Tractor, Dozer - 190.0 to 260.0 Horsepower",Texas,TTT,Track Type Tractors,,OROPS,,,,,Standard,,,,,,2 Valve,,None or Unspecified,,,,,,,,,,,,,,None or Unspecified,Straight,None or Unspecified,,
1648,2259706,19000,1220715,136,1.0,1978,0.0,,9/19/2007 0:00,D7GLGP,D7,G,,LGP,Large,"Track Type Tractor, Dozer - 190.0 to 260.0 Horsepower",Illinois,TTT,Track Type Tractors,,OROPS,,,,,Standard,,,,,,2 Valve,,None or Unspecified,,,,,,,,,,,,,,None or Unspecified,Straight,None or Unspecified,,
1648,2259708,22500,1484065,136,10.0,1979,0.0,,9/23/2009 0:00,D7GLGP,D7,G,,LGP,Large,"Track Type Tractor, Dozer - 190.0 to 260.0 Horsepower",South Carolina,TTT,Track Type Tractors,,OROPS,,,,,Standard,,,,,,2 Valve,,None or Unspecified,,,,,,,,,,,,,,None or Unspecified,Semi U,None or Unspecified,,
1648,2259713,32000,1405288,136,20.0,1980,0.0,,10/31/2007 0:00,D7GLGP,D7,G,,LGP,Large,"Track Type Tractor, Dozer - 190.0 to 260.0 Horsepower",Arkansas,TTT,Track Type Tractors,,OROPS,,,,,Powershift,,,,,,2 Valve,,None or Unspecified,,,,,,,,,,,,,,None or Unspecified,Angle,None or Unspecified,,
1648,2259714,45000,1404819,136,1.0,1980,0.0,,4/2/2008 0:00,D7GLGP,D7,G,,LGP,Large,"Track Type Tractor, Dozer - 190.0 to 260.0 Horsepower",Maryland,TTT,Track Type Tractors,,EROPS w AC,,,,,Standard,,,,,,2 Valve,,None or Unspecified,,,,,,,,,,,,,,None or Unspecified,None or Unspecified,None or Unspecified,,
1648,2259715,33000,1529361,136,1.0,1981,0.0,,11/8/2007 0:00,D7GLGP,D7,G,,LGP,Large,"Track Type Tractor, Dozer - 190.0 to 260.0 Horsepower",Texas,TTT,Track Type Tractors,,OROPS,,,,,Standard,,,,,,2 Valve,,None or Unspecified,,,,,,,,,,,,,,None or Unspecified,None or Unspecified,None or Unspecified,,
1648,2259717,23500,1762654,136,,1982,0.0,,4/17/2008 0:00,D7GLGP,D7,G,,LGP,Large,"Track Type Tractor, Dozer - 190.0 to 260.0 Horsepower",Kentucky,TTT,Track Type Tractors,,EROPS,,,,,Standard,,,,,,2 Valve,,None or Unspecified,,,,,,,,,,,,,,None or Unspecified,Straight,None or Unspecified,,
1648,2259720,26000,1233541,136,2.0,1980,0.0,,6/18/2008 0:00,D7GLGP,D7,G,,LGP,Large,"Track Type Tractor, Dozer - 190.0 to 260.0 Horsepower",Arkansas,TTT,Track Type Tractors,,EROPS w AC,,,,,Standard,,,,,,2 Valve,,None or Unspecified,,,,,,,,,,,,,,None or Unspecified,Straight,None or Unspecified,,
1648,2527271,31000,1174721,149,1.0,1978,0.0,,11/3/2010 0:00,D7GLGP,D7,G,,LGP,Large,"Track Type Tractor, Dozer - 190.0 to 260.0 Horsepower",Texas,TTT,Track Type Tractors,,OROPS,,,,,Standard,,,,,,2 Valve,,None or Unspecified,,,,,,,,,,,,,,None or Unspecified,Straight,None or Unspecified,,
1648,2546751,29000,1860555,149,1.0,1977,0.0,,6/7/2011 0:00,D7GLGP,D7,G,,LGP,Large,"Track Type Tractor, Dozer - 190.0 to 260.0 Horsepower",Maryland,TTT,Track Type Tractors,,OROPS,,,,,Standard,,,,,,2 Valve,,None or Unspecified,,,,,,,,,,,,,,None or Unspecified,None or Unspecified,None or Unspecified,,
1648,4263987,17000,1285655,172,1.0,1985,12467.0,Medium,2/15/2011 0:00,D7GLGP,D7,G,,LGP,Large,"Track Type Tractor, Dozer - 190.0 to 260.0 Horsepower",Florida,TTT,Track Type Tractors,,OROPS,,,,,Standard,,,,,,2 Valve,,None or Unspecified,,,,,,,,,,,,,,None or Unspecified,Angle,None or Unspecified,,
1648,4263988,37500,2288663,172,1.0,1981,8461.0,Medium,9/22/2011 0:00,D7GLGP,D7,G,,LGP,Large,"Track Type Tractor, Dozer - 190.0 to 260.0 Horsepower",California,TTT,Track Type Tractors,,OROPS,,,,,Standard,,,,,,2 Valve,,None or Unspecified,,,,,,,,,,,,,,None or Unspecified,Straight,None or Unspecified,,
1648,4276010,20000,1091001,172,1.0,1980,9440.0,Medium,12/10/2009 0:00,D7GLGP,D7,G,,LGP,Large,"Track Type Tractor, Dozer - 190.0 to 260.0 Horsepower",Washington,TTT,Track Type Tractors,,OROPS,,,,,Standard,,,,,,2 Valve,,None or Unspecified,,,,,,,,,,,,,,None or Unspecified,Straight,None or Unspecified,,
1648,4276014,24000,2307770,172,1.0,1980,,,8/16/2011 0:00,D7GLGP,D7,G,,LGP,Large,"Track Type Tractor, Dozer - 190.0 to 260.0 Horsepower",Florida,TTT,Track Type Tractors,,OROPS,,,,,Standard,,,,,,2 Valve,,None or Unspecified,,,,,,,,,,,,,,None or Unspecified,Straight,None or Unspecified,,
1648,6263703,37500,1810724,149,1.0,1981,,,9/23/2011 0:00,D7GLGP,D7,G,,LGP,Large,"Track Type Tractor, Dozer - 190.0 to 260.0 Horsepower",California,TTT,Track Type Tractors,,OROPS,,,,,Standard,,,,,,2 Valve,,None or Unspecified,,,,,,,,,,,,,,None or Unspecified,Straight,None or Unspecified,,
1648,6267923,24000,1531964,149,1.0,1980,,,8/17/2011 0:00,D7GLGP,D7,G,,LGP,Large,"Track Type Tractor, Dozer - 190.0 to 260.0 Horsepower",Florida,TTT,Track Type Tractors,,OROPS,,,,,Standard,,,,,,2 Valve,,None or Unspecified,,,,,,,,,,,,,,None or Unspecified,Straight,None or Unspecified,,
