ModelID,SalesID,SalePrice,MachineID,datasource,auctioneerID,YearMade,MachineHoursCurrentMeter,UsageBand,saledate,fiModelDesc,fiBaseModel,fiSecondaryDesc,fiModelSeries,fiModelDescriptor,ProductSize,fiProductClassDesc,state,ProductGroup,ProductGroupDesc,Drive_System,Enclosure,Forks,Pad_Type,Ride_Control,Stick,Transmission,Turbocharged,Blade_Extension,Blade_Width,Enclosure_Type,Engine_Horsepower,Hydraulics,Pushblock,Ripper,Scarifier,Tip_Control,Tire_Size,Coupler,Coupler_System,Grouser_Tracks,Hydraulics_Flow,Track_Type,Undercarriage_Pad_Width,Stick_Length,Thumb,Pattern_Changer,Grouser_Type,Backhoe_Mounting,Blade_Type,Travel_Controls,Differential_Type,Steering_Controls
16505,4355161,39000,2274259,172,1.0,1999,9970.0,Medium,12/11/2011 0:00,PC200LC6AVANCE,PC200,LC,6,AVANCE,Large / Medium,"Hydraulic Excavator, Track - 21.0 to 24.0 Metric Tons",Utah,TEX,Track Excavators,,EROPS w AC,,,,,,,,,,,Auxiliary,,,,,,None or Unspecified,,,,Rubber,None or Unspecified,None or Unspecified,Hydraulic,None or Unspecified,Triple,,,,,
16505,4355166,37000,1152121,172,1.0,2001,13275.0,High,12/1/2010 0:00,PC200LC6AVANCE,PC200,LC,6,AVANCE,Large / Medium,"Hydraulic Excavator, Track - 21.0 to 24.0 Metric Tons",Texas,TEX,Track Excavators,,EROPS w AC,,,,,,,,,,,Standard,,,,,,None or Unspecified,,,,Steel,None or Unspecified,"9' 6""",Manual,None or Unspecified,Double,,,,,
16505,4359361,35000,1152012,172,1.0,1996,2878.0,Low,7/13/2010 0:00,PC200LC6AVANCE,PC200,LC,6,AVANCE,Large / Medium,"Hydraulic Excavator, Track - 21.0 to 24.0 Metric Tons",Illinois,TEX,Track Excavators,,EROPS,,,,,,,,,,,Auxiliary,,,,,,Manual,,,,Steel,None or Unspecified,"9' 6""",None or Unspecified,None or Unspecified,Double,,,,,
