SalesID,1738592
SalePrice,21000
MachineID,1318170
datasource,132
auctioneerID,4.0
YearMade,2002
MachineHoursCurrentMeter,
UsageBand,
saledate,2/10/2005 0:00
fiModelDesc,PC45MRX-1
fiBaseModel,PC45
fiSecondaryDesc,MRX
fiModelSeries,-1
fiModelDescriptor,
ProductSize,Mini
fiProductClassDesc,"Hydraulic Excavator, Track - 4.0 to 5.0 Metric Tons"
state,Florida
ProductGroup,TEX
ProductGroupDesc,Track Excavators
Drive_System,
Enclosure,EROPS
Forks,
Pad_Type,
Ride_Control,
Stick,
Transmission,
Turbocharged,
Blade_Extension,
Blade_Width,
Enclosure_Type,
Engine_Horsepower,
Hydraulics,Standard
Pushblock,
Ripper,
Scarifier,
Tip_Control,
Tire_Size,
Coupler,None or Unspecified
Coupler_System,
Grouser_Tracks,
Hydraulics_Flow,
Track_Type,Rubber
Undercarriage_Pad_Width,None or Unspecified
Stick_Length,None or Unspecified
Thumb,None or Unspecified
Pattern_Changer,None or Unspecified
Grouser_Type,Double
Backhoe_Mounting,
Blade_Type,
Travel_Controls,
Differential_Type,
Steering_Controls,
