ModelID,SalesID,SalePrice,MachineID,datasource,auctioneerID,YearMade,MachineHoursCurrentMeter,UsageBand,saledate,fiModelDesc,fiBaseModel,fiSecondaryDesc,fiModelSeries,fiModelDescriptor,ProductSize,fiProductClassDesc,state,ProductGroup,ProductGroupDesc,Drive_System,Enclosure,Forks,Pad_Type,Ride_Control,Stick,Transmission,Turbocharged,Blade_Extension,Blade_Width,Enclosure_Type,Engine_Horsepower,Hydraulics,Pushblock,Ripper,Scarifier,Tip_Control,Tire_Size,Coupler,Coupler_System,Grouser_Tracks,Hydraulics_Flow,Track_Type,Undercarriage_Pad_Width,Stick_Length,Thumb,Pattern_Changer,Grouser_Type,Backhoe_Mounting,Blade_Type,Travel_Controls,Differential_Type,Steering_Controls
16679,1153683,38000,1048843,121,3.0,2004,2615.0,Low,8/6/2009 0:00,WA250-5,WA250,,-5,,,Wheel Loader - 120.0 to 135.0 Horsepower,Florida,WL,Wheel Loader,,EROPS,None or Unspecified,,None or Unspecified,,,,,,,,2 Valve,,,,,20.5,Manual,,,,,,,,,,,,,Standard,Conventional
16679,1157005,55000,1013041,121,3.0,2003,6934.0,Medium,6/9/2011 0:00,WA250-5,WA250,,-5,,,Wheel Loader - 120.0 to 135.0 Horsepower,South Carolina,WL,Wheel Loader,,EROPS w AC,Yes,,None or Unspecified,,,,,,,,2 Valve,,,,,20.5,None or Unspecified,,,,,,,,,,,,,Standard,Conventional
16679,1183971,40000,1014621,121,3.0,2006,2865.0,Medium,2/16/2009 0:00,WA250-5,WA250,,-5,,,Wheel Loader - 120.0 to 135.0 Horsepower,Florida,WL,Wheel Loader,,OROPS,None or Unspecified,,None or Unspecified,,,,,,,,2 Valve,,,,,20.5,None or Unspecified,,,,,,,,,,,,,Standard,Conventional
16679,1186149,60000,1034669,121,3.0,2005,2450.0,Medium,12/18/2008 0:00,WA250-5,WA250,,-5,,,Wheel Loader - 120.0 to 135.0 Horsepower,Arizona,WL,Wheel Loader,,EROPS w AC,None or Unspecified,,None or Unspecified,,,,,,,,2 Valve,,,,,20.5,None or Unspecified,,,,,,,,,,,,,Standard,Conventional
16679,1186158,64000,1043365,121,3.0,2005,2250.0,Medium,12/18/2008 0:00,WA250-5,WA250,,-5,,,Wheel Loader - 120.0 to 135.0 Horsepower,California,WL,Wheel Loader,,EROPS w AC,None or Unspecified,,None or Unspecified,,,,,,,,2 Valve,,,,,20.5,None or Unspecified,,,,,,,,,,,,,Standard,Conventional
16679,1187070,41000,785960,121,3.0,2004,7128.0,Medium,1/29/2009 0:00,WA250-5,WA250,,-5,,,Wheel Loader - 120.0 to 135.0 Horsepower,Florida,WL,Wheel Loader,,EROPS w AC,None or Unspecified,,None or Unspecified,,,,,,,,2 Valve,,,,,20.5,None or Unspecified,,,,,,,,,,,,,Standard,Conventional
16679,1188262,60000,1017568,121,3.0,2005,1410.0,Low,3/26/2009 0:00,WA250-5,WA250,,-5,,,Wheel Loader - 120.0 to 135.0 Horsepower,California,WL,Wheel Loader,,EROPS w AC,None or Unspecified,,None or Unspecified,,,,,,,,2 Valve,,,,,None or Unspecified,None or Unspecified,,,,,,,,,,,,,Standard,Conventional
16679,1193388,68000,1030109,121,3.0,2007,1514.0,Medium,10/8/2009 0:00,WA250-5,WA250,,-5,,,Wheel Loader - 120.0 to 135.0 Horsepower,Florida,WL,Wheel Loader,,EROPS w AC,None or Unspecified,,None or Unspecified,,,,,,,,2 Valve,,,,,20.5,Hydraulic,,,,,,,,,,,,,Standard,Conventional
16679,1206461,49000,1039141,121,3.0,2004,7001.0,High,9/23/2010 0:00,WA250-5,WA250,,-5,,,Wheel Loader - 120.0 to 135.0 Horsepower,Texas,WL,Wheel Loader,,,,,,,,,,,,,,,,,,,,,,,,,,,,,,,,,
16679,1210010,57000,1001163,121,3.0,2004,5234.0,Medium,1/13/2011 0:00,WA250-5,WA250,,-5,,,Wheel Loader - 120.0 to 135.0 Horsepower,Florida,WL,Wheel Loader,,EROPS w AC,Yes,,None or Unspecified,,,,,,,,2 Valve,,,,,20.5,Hydraulic,,,,,,,,,,,,,Standard,Conventional
16679,1212074,87000,1011138,121,3.0,2007,2224.0,Medium,3/17/2011 0:00,WA250-5,WA250,,-5,,,Wheel Loader - 120.0 to 135.0 Horsepower,North Carolina,WL,Wheel Loader,,EROPS w AC,Yes,,None or Unspecified,,,,,,,,2 Valve,,,,,20.5,Hydraulic,,,,,,,,,,,,,Standard,Conventional
16679,1726382,65000,1162438,132,1.0,2004,,,9/18/2008 0:00,WA250-5,WA250,,-5,,,Wheel Loader - 120.0 to 135.0 Horsepower,Georgia,WL,Wheel Loader,,EROPS w AC,Yes,,None or Unspecified,,,,,,,,2 Valve,,,,,20.5,Manual,,,,,,,,,,,,,Standard,Conventional
16679,1726384,65000,1450495,132,1.0,2004,,,9/18/2008 0:00,WA250-5,WA250,,-5,,,Wheel Loader - 120.0 to 135.0 Horsepower,Georgia,WL,Wheel Loader,,EROPS w AC,Yes,,None or Unspecified,,,,,,,,2 Valve,,,,,20.5,Manual,,,,,,,,,,,,,Standard,Conventional
16679,1726918,68000,1087278,132,2.0,2004,,,2/5/2006 0:00,WA250-5,WA250,,-5,,,Wheel Loader - 120.0 to 135.0 Horsepower,Florida,WL,Wheel Loader,,OROPS,None or Unspecified,,None or Unspecified,,,,,,,,2 Valve,,,,,None or Unspecified,None or Unspecified,,,,,,,,,,,,,Standard,Conventional
16679,1730367,62500,1452061,132,1.0,2004,,,9/30/2009 0:00,WA250-5,WA250,,-5,,,Wheel Loader - 120.0 to 135.0 Horsepower,Maryland,WL,Wheel Loader,,EROPS w AC,None or Unspecified,,Yes,,,,,,,,2 Valve,,,,,20.5,None or Unspecified,,,,,,,,,,,,,Standard,Conventional
16679,1730372,45000,1376625,132,1.0,2004,,,2/25/2009 0:00,WA250-5,WA250,,-5,,,Wheel Loader - 120.0 to 135.0 Horsepower,Arizona,WL,Wheel Loader,,EROPS w AC,None or Unspecified,,None or Unspecified,,,,,,,,2 Valve,,,,,20.5,None or Unspecified,,,,,,,,,,,,,Standard,Conventional
16679,1730378,50000,1171959,132,1.0,2004,,,3/24/2010 0:00,WA250-5,WA250,,-5,,,Wheel Loader - 120.0 to 135.0 Horsepower,Texas,WL,Wheel Loader,,EROPS w AC,Yes,,None or Unspecified,,,,,,,,2 Valve,,,,,20.5,None or Unspecified,,,,,,,,,,,,,Standard,Conventional
16679,1730386,45000,1400673,132,1.0,2005,7263.0,High,10/14/2009 0:00,WA250-5,WA250,,-5,,,Wheel Loader - 120.0 to 135.0 Horsepower,Florida,WL,Wheel Loader,,EROPS w AC,None or Unspecified,,None or Unspecified,,,,,,,,2 Valve,,,,,20.5,None or Unspecified,,,,,,,,,,,,,Standard,Conventional
16679,1730388,34000,1235456,132,1.0,2005,,,7/9/2009 0:00,WA250-5,WA250,,-5,,,Wheel Loader - 120.0 to 135.0 Horsepower,Texas,WL,Wheel Loader,,OROPS,Yes,,None or Unspecified,,,,,,,,2 Valve,,,,,20.5,None or Unspecified,,,,,,,,,,,,,Standard,Conventional
16679,1730392,37000,1133793,132,1.0,2005,1579.0,Low,5/20/2009 0:00,WA250-5,WA250,,-5,,,Wheel Loader - 120.0 to 135.0 Horsepower,California,WL,Wheel Loader,,OROPS,None or Unspecified,,None or Unspecified,,,,,,,,2 Valve,,,,,20.5,None or Unspecified,,,,,,,,,,,,,Standard,Conventional
16679,1730393,45000,1363323,132,1.0,2005,2262.0,Medium,5/20/2009 0:00,WA250-5,WA250,,-5,,,Wheel Loader - 120.0 to 135.0 Horsepower,California,WL,Wheel Loader,,EROPS w AC,None or Unspecified,,None or Unspecified,,,,,,,,2 Valve,,,,,20.5,None or Unspecified,,,,,,,,,,,,,Standard,Conventional
16679,1730417,49000,1274928,132,1.0,2006,2942.0,Medium,5/20/2009 0:00,WA250-5,WA250,,-5,,,Wheel Loader - 120.0 to 135.0 Horsepower,California,WL,Wheel Loader,,EROPS w AC,None or Unspecified,,None or Unspecified,,,,,,,,2 Valve,,,,,20.5,None or Unspecified,,,,,,,,,,,,,Standard,Conventional
16679,1730447,43000,1278892,132,1.0,2006,4471.0,Medium,3/24/2009 0:00,WA250-5,WA250,,-5,,,Wheel Loader - 120.0 to 135.0 Horsepower,North Carolina,WL,Wheel Loader,,EROPS w AC,Yes,,None or Unspecified,,,,,,,,2 Valve,,,,,None or Unspecified,None or Unspecified,,,,,,,,,,,,,Standard,Conventional
16679,1746259,68000,1379190,132,1.0,2005,,,2/20/2007 0:00,WA250-5,WA250,,-5,,,Wheel Loader - 120.0 to 135.0 Horsepower,Florida,WL,Wheel Loader,,EROPS w AC,None or Unspecified,,None or Unspecified,,,,,,,,2 Valve,,,,,20.5,None or Unspecified,,,,,,,,,,,,,Standard,Conventional
16679,1757837,31000,1013041,132,28.0,2003,5907.0,Medium,11/30/2007 0:00,WA250-5,WA250,,-5,,,Wheel Loader - 120.0 to 135.0 Horsepower,Mississippi,WL,Wheel Loader,,EROPS w AC,Yes,,None or Unspecified,,,,,,,,2 Valve,,,,,20.5,None or Unspecified,,,,,,,,,,,,,Standard,Conventional
16679,1757917,62000,1136337,132,20.0,1000,,,4/15/2010 0:00,WA250-5,WA250,,-5,,,Wheel Loader - 120.0 to 135.0 Horsepower,Arkansas,WL,Wheel Loader,,EROPS w AC,Yes,,None or Unspecified,,,,,,,,2 Valve,,,,,20.5,None or Unspecified,,,,,,,,,,,,,Standard,Conventional
16679,1757919,56000,1136337,132,99.0,2005,,,10/1/2009 0:00,WA250-5,WA250,,-5,,,Wheel Loader - 120.0 to 135.0 Horsepower,Arkansas,WL,Wheel Loader,,EROPS w AC,Yes,,None or Unspecified,,,,,,,,2 Valve,,,,,20.5,None or Unspecified,,,,,,,,,,,,,Standard,Conventional
16679,1757920,62000,1136337,132,99.0,2006,4218.0,Low,6/5/2009 0:00,WA250-5,WA250,,-5,,,Wheel Loader - 120.0 to 135.0 Horsepower,Arkansas,WL,Wheel Loader,,EROPS w AC,Yes,,None or Unspecified,,,,,,,,2 Valve,,,,,20.5,None or Unspecified,,,,,,,,,,,,,Standard,Conventional
16679,1757921,45000,1366083,132,1.0,2005,,,4/13/2011 0:00,WA250-5,WA250,,-5,,,Wheel Loader - 120.0 to 135.0 Horsepower,Texas,WL,Wheel Loader,,EROPS w AC,Yes,,None or Unspecified,,,,,,,,2 Valve,,,,,None or Unspecified,None or Unspecified,,,,,,,,,,,,,Standard,Conventional
16679,1757925,57000,1322516,132,8.0,2004,,,2/16/2007 0:00,WA250-5,WA250,,-5,,,Wheel Loader - 120.0 to 135.0 Horsepower,Florida,WL,Wheel Loader,,EROPS w AC,None or Unspecified,,None or Unspecified,,,,,,,,2 Valve,,,,,None or Unspecified,None or Unspecified,,,,,,,,,,,,,Standard,Conventional
16679,1757939,34000,1252993,132,2.0,2004,,,3/19/2009 0:00,WA250-5,WA250,,-5,,,Wheel Loader - 120.0 to 135.0 Horsepower,New Jersey,WL,Wheel Loader,,EROPS,,,,,,,,,,,2 Valve,,,,,,,,,,,,,,,,,,,,
16679,1757992,57500,1305734,132,1.0,2004,,,5/29/2008 0:00,WA250-5,WA250,,-5,,,Wheel Loader - 120.0 to 135.0 Horsepower,Utah,WL,Wheel Loader,,EROPS w AC,None or Unspecified,,Yes,,,,,,,,2 Valve,,,,,20.5,Manual,,,,,,,,,,,,,Standard,Conventional
16679,1757993,50000,1305734,132,1.0,2004,,,4/22/2010 0:00,WA250-5,WA250,,-5,,,Wheel Loader - 120.0 to 135.0 Horsepower,Utah,WL,Wheel Loader,,EROPS w AC,None or Unspecified,,Yes,,,,,,,,2 Valve,,,,,20.5,Manual,,,,,,,,,,,,,Standard,Conventional
16679,1758021,45000,1507225,132,1.0,2004,4474.0,Medium,2/16/2011 0:00,WA250-5,WA250,,-5,,,Wheel Loader - 120.0 to 135.0 Horsepower,Florida,WL,Wheel Loader,,OROPS,None or Unspecified,,None or Unspecified,,,,,,,,2 Valve,,,,,20.5,None or Unspecified,,,,,,,,,,,,,Standard,Conventional
16679,1758036,68000,1479112,132,2.0,2004,,,2/9/2006 0:00,WA250-5,WA250,,-5,,,Wheel Loader - 120.0 to 135.0 Horsepower,Florida,WL,Wheel Loader,,OROPS,None or Unspecified,,None or Unspecified,,,,,,,,2 Valve,,,,,None or Unspecified,None or Unspecified,,,,,,,,,,,,,Standard,Conventional
16679,1758037,46000,1155332,132,1.0,2004,4512.0,Medium,2/20/2008 0:00,WA250-5,WA250,,-5,,,Wheel Loader - 120.0 to 135.0 Horsepower,Florida,WL,Wheel Loader,,OROPS,Yes,,None or Unspecified,,,,,,,,2 Valve,,,,,20.5,None or Unspecified,,,,,,,,,,,,,Standard,Conventional
16679,1758060,37000,1349729,132,1.0,2005,7565.0,High,6/7/2010 0:00,WA250-5,WA250,,-5,,,Wheel Loader - 120.0 to 135.0 Horsepower,Texas,WL,Wheel Loader,,EROPS w AC,Yes,,None or Unspecified,,,,,,,,2 Valve,,,,,20.5,None or Unspecified,,,,,,,,,,,,,Standard,Conventional
16679,1758096,57000,1410953,132,1.0,2005,5984.0,High,2/21/2007 0:00,WA250-5,WA250,,-5,,,Wheel Loader - 120.0 to 135.0 Horsepower,Florida,WL,Wheel Loader,,OROPS,None or Unspecified,,None or Unspecified,,,,,,,,2 Valve,,,,,20.5,None or Unspecified,,,,,,,,,,,,,Standard,Conventional
16679,1758097,57000,1410953,132,1.0,2005,,,2/20/2007 0:00,WA250-5,WA250,,-5,,,Wheel Loader - 120.0 to 135.0 Horsepower,Florida,WL,Wheel Loader,,OROPS,None or Unspecified,,None or Unspecified,,,,,,,,2 Valve,,,,,20.5,None or Unspecified,,,,,,,,,,,,,Standard,Conventional
16679,1758160,64000,1347183,132,1.0,2005,,,2/20/2007 0:00,WA250-5,WA250,,-5,,,Wheel Loader - 120.0 to 135.0 Horsepower,Florida,WL,Wheel Loader,,EROPS w AC,None or Unspecified,,None or Unspecified,,,,,,,,2 Valve,,,,,20.5,None or Unspecified,,,,,,,,,,,,,Standard,Conventional
16679,1758161,68000,1278113,132,1.0,2005,6291.0,High,2/21/2007 0:00,WA250-5,WA250,,-5,,,Wheel Loader - 120.0 to 135.0 Horsepower,Florida,WL,Wheel Loader,,EROPS w AC,None or Unspecified,,None or Unspecified,,,,,,,,2 Valve,,,,,20.5,None or Unspecified,,,,,,,,,,,,,Standard,Conventional
16679,1758162,68000,1278113,132,1.0,2005,,,2/20/2007 0:00,WA250-5,WA250,,-5,,,Wheel Loader - 120.0 to 135.0 Horsepower,Florida,WL,Wheel Loader,,EROPS w AC,None or Unspecified,,None or Unspecified,,,,,,,,2 Valve,,,,,20.5,None or Unspecified,,,,,,,,,,,,,Standard,Conventional
16679,1758169,55000,1163473,132,1.0,2005,,,4/22/2010 0:00,WA250-5,WA250,,-5,,,Wheel Loader - 120.0 to 135.0 Horsepower,Utah,WL,Wheel Loader,,EROPS w AC,None or Unspecified,,Yes,,,,,,,,2 Valve,,,,,20.5,None or Unspecified,,,,,,,,,,,,,Standard,Conventional
16679,1758185,100000,1110396,132,1.0,2005,,,9/25/2006 0:00,WA250-5,WA250,,-5,,,Wheel Loader - 120.0 to 135.0 Horsepower,Colorado,WL,Wheel Loader,,EROPS,Yes,,Yes,,,,,,,,2 Valve,,,,,20.5,Manual,,,,,,,,,,,,,Standard,Conventional
16679,1758197,52500,1489067,132,1.0,2005,2040.0,Medium,2/20/2008 0:00,WA250-5,WA250,,-5,,,Wheel Loader - 120.0 to 135.0 Horsepower,Florida,WL,Wheel Loader,,OROPS,Yes,,None or Unspecified,,,,,,,,2 Valve,,,,,20.5,Manual,,,,,,,,,,,,,Standard,Conventional
16679,1758213,47500,1213834,132,2.0,2005,,,1/31/2010 0:00,WA250-5,WA250,,-5,,,Wheel Loader - 120.0 to 135.0 Horsepower,Florida,WL,Wheel Loader,,EROPS w AC,None or Unspecified,,None or Unspecified,,,,,,,,2 Valve,,,,,23.5,Manual,,,,,,,,,,,,,Standard,Conventional
16679,1758452,22000,1445552,132,4.0,1000,,,2/8/2010 0:00,WA250-5,WA250,,-5,,,Wheel Loader - 120.0 to 135.0 Horsepower,Florida,WL,Wheel Loader,,OROPS,None or Unspecified,,None or Unspecified,,,,,,,,2 Valve,,,,,None or Unspecified,None or Unspecified,,,,,,,,,,,,,Standard,Conventional
16679,1758609,50000,1065506,132,2.0,2006,,,2/5/2009 0:00,WA250-5,WA250,,-5,,,Wheel Loader - 120.0 to 135.0 Horsepower,Florida,WL,Wheel Loader,,OROPS,None or Unspecified,,None or Unspecified,,,,,,,,2 Valve,,,,,20.5,None or Unspecified,,,,,,,,,,,,,Standard,Conventional
16679,1758610,50000,1065506,132,2.0,2006,,,1/31/2009 0:00,WA250-5,WA250,,-5,,,Wheel Loader - 120.0 to 135.0 Horsepower,Florida,WL,Wheel Loader,,OROPS,None or Unspecified,,None or Unspecified,,,,,,,,2 Valve,,,,,20.5,None or Unspecified,,,,,,,,,,,,,Standard,Conventional
16679,1758794,44000,1413896,132,4.0,2005,,,2/8/2010 0:00,WA250-5,WA250,,-5,,,Wheel Loader - 120.0 to 135.0 Horsepower,Florida,WL,Wheel Loader,,EROPS w AC,None or Unspecified,,None or Unspecified,,,,,,,,2 Valve,,,,,None or Unspecified,Manual,,,,,,,,,,,,,Standard,Conventional
16679,1758795,44000,1413896,132,4.0,2005,,,2/9/2010 0:00,WA250-5,WA250,,-5,,,Wheel Loader - 120.0 to 135.0 Horsepower,Florida,WL,Wheel Loader,,EROPS w AC,None or Unspecified,,None or Unspecified,,,,,,,,2 Valve,,,,,None or Unspecified,Manual,,,,,,,,,,,,,Standard,Conventional
16679,1766400,48000,1540808,132,4.0,2005,,,2/11/2008 0:00,WA250-5,WA250,,-5,,,Wheel Loader - 120.0 to 135.0 Horsepower,Florida,WL,Wheel Loader,,EROPS,None or Unspecified,,None or Unspecified,,,,,,,,2 Valve,,,,,None or Unspecified,None or Unspecified,,,,,,,,,,,,,Standard,Conventional
16679,1766401,48000,1540808,132,4.0,2005,,,2/12/2008 0:00,WA250-5,WA250,,-5,,,Wheel Loader - 120.0 to 135.0 Horsepower,Florida,WL,Wheel Loader,,EROPS,None or Unspecified,,None or Unspecified,,,,,,,,2 Valve,,,,,None or Unspecified,None or Unspecified,,,,,,,,,,,,,Standard,Conventional
16679,1767344,75000,1320187,132,1.0,2003,,,7/21/2005 0:00,WA250-5,WA250,,-5,,,Wheel Loader - 120.0 to 135.0 Horsepower,Texas,WL,Wheel Loader,,EROPS w AC,Yes,,No,,,,,,,,,,,,,,,,,,,,,,,,,,,Standard,Four Wheel Standard
16679,1767346,67500,1356868,132,1.0,2003,,,2/20/2007 0:00,WA250-5,WA250,,-5,,,Wheel Loader - 120.0 to 135.0 Horsepower,Florida,WL,Wheel Loader,,EROPS w AC,None or Unspecified,,None or Unspecified,,,,,,,,2 Valve,,,,,20.5,Manual,,,,,,,,,,,,,Standard,Conventional
16679,1767348,75000,1279687,132,1.0,2003,,,7/21/2005 0:00,WA250-5,WA250,,-5,,,Wheel Loader - 120.0 to 135.0 Horsepower,Texas,WL,Wheel Loader,,OROPS,Yes,,None or Unspecified,,,,,,,,2 Valve,,,,,20.5,Manual,,,,,,,,,,,,,Standard,Conventional
16679,1767358,52000,821454,132,4.0,2004,,,2/12/2007 0:00,WA250-5,WA250,,-5,,,Wheel Loader - 120.0 to 135.0 Horsepower,Florida,WL,Wheel Loader,,EROPS w AC,Yes,,None or Unspecified,,,,,,,,2 Valve,,,,,20.5,Manual,,,,,,,,,,,,,Standard,Conventional
16679,1767363,64000,1145596,132,1.0,2004,,,2/20/2007 0:00,WA250-5,WA250,,-5,,,Wheel Loader - 120.0 to 135.0 Horsepower,Florida,WL,Wheel Loader,,OROPS,None or Unspecified,,None or Unspecified,,,,,,,,2 Valve,,,,,20.5,Manual,,,,,,,,,,,,,Standard,Conventional
16679,1767368,54000,1063775,132,4.0,2004,,,2/12/2007 0:00,WA250-5,WA250,,-5,,,Wheel Loader - 120.0 to 135.0 Horsepower,Florida,WL,Wheel Loader,,OROPS,Yes,,None or Unspecified,,,,,,,,2 Valve,,,,,20.5,Manual,,,,,,,,,,,,,Standard,Conventional
16679,1767373,50500,1386301,132,4.0,2004,,,2/12/2007 0:00,WA250-5,WA250,,-5,,,Wheel Loader - 120.0 to 135.0 Horsepower,Florida,WL,Wheel Loader,,OROPS,None or Unspecified,,None or Unspecified,,,,,,,,3 Valve,,,,,None or Unspecified,Manual,,,,,,,,,,,,,Standard,Conventional
16679,1767411,91000,1455472,132,1.0,2005,,,5/24/2007 0:00,WA250-5,WA250,,-5,,,Wheel Loader - 120.0 to 135.0 Horsepower,Florida,WL,Wheel Loader,,EROPS w AC,None or Unspecified,,None or Unspecified,,,,,,,,2 Valve,,,,,20.5,Manual,,,,,,,,,,,,,Standard,Conventional
16679,1767444,56000,1504808,132,1.0,2006,,,2/19/2008 0:00,WA250-5,WA250,,-5,,,Wheel Loader - 120.0 to 135.0 Horsepower,Florida,WL,Wheel Loader,,OROPS,None or Unspecified,,None or Unspecified,,,,,,,,2 Valve,,,,,20.5,Manual,,,,,,,,,,,,,Standard,Conventional
16679,1767447,46000,1133280,132,1.0,2006,,,2/16/2009 0:00,WA250-5,WA250,,-5,,,Wheel Loader - 120.0 to 135.0 Horsepower,Florida,WL,Wheel Loader,,OROPS,None or Unspecified,,None or Unspecified,,,,,,,,2 Valve,,,,,20.5,None or Unspecified,,,,,,,,,,,,,Standard,Conventional
16679,1767450,57000,1383679,132,1.0,2006,,,2/19/2008 0:00,WA250-5,WA250,,-5,,,Wheel Loader - 120.0 to 135.0 Horsepower,Florida,WL,Wheel Loader,,OROPS,None or Unspecified,,None or Unspecified,,,,,,,,2 Valve,,,,,20.5,Manual,,,,,,,,,,,,,Standard,Conventional
16679,1767455,95000,1303366,132,1.0,2007,,,2/19/2008 0:00,WA250-5,WA250,,-5,,,Wheel Loader - 120.0 to 135.0 Horsepower,Florida,WL,Wheel Loader,,EROPS w AC,None or Unspecified,,None or Unspecified,,,,,,,,2 Valve,,,,,20.5,None or Unspecified,,,,,,,,,,,,,Standard,Conventional
16679,1777761,90000,1526700,132,1.0,2004,,,11/8/2006 0:00,WA250-5,WA250,,-5,,,Wheel Loader - 120.0 to 135.0 Horsepower,Arkansas,WL,Wheel Loader,,EROPS w AC,Yes,,None or Unspecified,,,,,,,,2 Valve,,,,,20.5,Manual,,,,,,,,,,,,,Standard,Conventional
16679,1777877,71000,1502966,132,1.0,2006,,,10/15/2008 0:00,WA250-5,WA250,,-5,,,Wheel Loader - 120.0 to 135.0 Horsepower,Florida,WL,Wheel Loader,,EROPS w AC,Yes,,Yes,,,,,,,,2 Valve,,,,,20.5,Manual,,,,,,,,,,,,,Standard,Conventional
16679,1777879,55000,1494605,132,1.0,2005,,,5/28/2008 0:00,WA250-5,WA250,,-5,,,Wheel Loader - 120.0 to 135.0 Horsepower,Florida,WL,Wheel Loader,,OROPS,None or Unspecified,,None or Unspecified,,,,,,,,2 Valve,,,,,20.5,Manual,,,,,,,,,,,,,Standard,Conventional
16679,1777885,60000,1362331,132,1.0,2004,,,10/10/2006 0:00,WA250-5,WA250,,-5,,,Wheel Loader - 120.0 to 135.0 Horsepower,Florida,WL,Wheel Loader,,OROPS,None or Unspecified,,None or Unspecified,,,,,,,,2 Valve,,,,,20.5,Manual,,,,,,,,,,,,,Standard,Conventional
16679,2404870,66000,1112982,136,1.0,2006,1500.0,Medium,8/14/2008 0:00,WA250-5,WA250,,-5,,,Wheel Loader - 120.0 to 135.0 Horsepower,Arkansas,WL,Wheel Loader,,EROPS w AC,None or Unspecified,,None or Unspecified,,,,,,,,2 Valve,,,,,None or Unspecified,None or Unspecified,,,,,,,,,,,,,Standard,Conventional
16679,2410004,43500,1227323,136,2.0,2003,0.0,,8/8/2007 0:00,WA250-5,WA250,,-5,,,Wheel Loader - 120.0 to 135.0 Horsepower,Florida,WL,Wheel Loader,,EROPS w AC,,,,,,,,,,,2 Valve,,,,,,,,,,,,,,,,,,,,
16679,2410010,43500,1433583,136,2.0,2003,0.0,,8/8/2007 0:00,WA250-5,WA250,,-5,,,Wheel Loader - 120.0 to 135.0 Horsepower,Florida,WL,Wheel Loader,,EROPS w AC,,,,,,,,,,,Standard,,,,,,Hydraulic,,,,,,,,,,,,,,
16679,2410041,43000,1132379,136,1.0,2004,3346.0,Medium,6/23/2009 0:00,WA250-5,WA250,,-5,,,Wheel Loader - 120.0 to 135.0 Horsepower,California,WL,Wheel Loader,,EROPS w AC,None or Unspecified,,None or Unspecified,,,,,,,,2 Valve,,,,,20.5,None or Unspecified,,,,,,,,,,,,,Standard,Conventional
16679,2410059,64000,1164792,136,4.0,2004,3995.0,Medium,5/15/2008 0:00,WA250-5,WA250,,-5,,,Wheel Loader - 120.0 to 135.0 Horsepower,New Hampshire,WL,Wheel Loader,,EROPS w AC,,,,,,,,,,,Standard,,,,,,Manual,,,,,,,,,,,,,,
16679,2410086,35000,785960,136,1.0,2004,0.0,,6/10/2009 0:00,WA250-5,WA250,,-5,,,Wheel Loader - 120.0 to 135.0 Horsepower,Texas,WL,Wheel Loader,,EROPS w AC,None or Unspecified,,None or Unspecified,,,,,,,,2 Valve,,,,,20.5,None or Unspecified,,,,,,,,,,,,,Standard,Conventional
16679,2410087,48500,1315992,136,2.0,2004,0.0,,8/8/2007 0:00,WA250-5,WA250,,-5,,,Wheel Loader - 120.0 to 135.0 Horsepower,Florida,WL,Wheel Loader,,EROPS w AC,None or Unspecified,,None or Unspecified,,,,,,,,3 Valve,,,,,None or Unspecified,Hydraulic,,,,,,,,,,,,,Standard,Conventional
16679,2410091,45000,1720009,136,2.0,2005,0.0,,10/12/2009 0:00,WA250-5,WA250,,-5,,,Wheel Loader - 120.0 to 135.0 Horsepower,Florida,WL,Wheel Loader,,EROPS w AC,None or Unspecified,,None or Unspecified,,,,,,,,2 Valve,,,,,None or Unspecified,Manual,,,,,,,,,,,,,Standard,Conventional
16679,2410096,26000,1479058,136,1.0,2004,0.0,,5/27/2009 0:00,WA250-5,WA250,,-5,,,Wheel Loader - 120.0 to 135.0 Horsepower,Florida,WL,Wheel Loader,,OROPS,None or Unspecified,,None or Unspecified,,,,,,,,2 Valve,,,,,20.5,None or Unspecified,,,,,,,,,,,,,Standard,Conventional
16679,2410108,48500,1446180,136,2.0,2004,0.0,,8/8/2007 0:00,WA250-5,WA250,,-5,,,Wheel Loader - 120.0 to 135.0 Horsepower,Florida,WL,Wheel Loader,,EROPS w AC,None or Unspecified,,None or Unspecified,,,,,,,,3 Valve,,,,,None or Unspecified,Hydraulic,,,,,,,,,,,,,Standard,Conventional
16679,2410146,48000,1698677,136,,2005,0.0,,2/11/2008 0:00,WA250-5,WA250,,-5,,,Wheel Loader - 120.0 to 135.0 Horsepower,Florida,WL,Wheel Loader,,OROPS,None or Unspecified,,None or Unspecified,,,,,,,,2 Valve,,,,,None or Unspecified,None or Unspecified,,,,,,,,,,,,,Standard,Conventional
16679,2410151,82000,1516599,136,2.0,2005,0.0,,11/3/2007 0:00,WA250-5,WA250,,-5,,,Wheel Loader - 120.0 to 135.0 Horsepower,New York,WL,Wheel Loader,,EROPS w AC,None or Unspecified,,None or Unspecified,,,,,,,,2 Valve,,,,,None or Unspecified,None or Unspecified,,,,,,,,,,,,,Standard,Conventional
16679,2410189,47500,1181742,136,1.0,2005,2537.0,Medium,6/26/2009 0:00,WA250-5,WA250,,-5,,,Wheel Loader - 120.0 to 135.0 Horsepower,New Mexico,WL,Wheel Loader,,EROPS w AC,None or Unspecified,,Yes,,,,,,,,2 Valve,,,,,20.5,None or Unspecified,,,,,,,,,,,,,Standard,Conventional
16679,2410323,57500,1065506,136,2.0,2006,0.0,,12/10/2008 0:00,WA250-5,WA250,,-5,,,Wheel Loader - 120.0 to 135.0 Horsepower,Florida,WL,Wheel Loader,,OROPS,None or Unspecified,,None or Unspecified,,,,,,,,2 Valve,,,,,20.5,None or Unspecified,,,,,,,,,,,,,Standard,Conventional
16679,2413715,51000,1170416,136,1.0,2005,0.0,,5/28/2008 0:00,WA250-5,WA250,,-5,,,Wheel Loader - 120.0 to 135.0 Horsepower,Florida,WL,Wheel Loader,,OROPS,None or Unspecified,,None or Unspecified,,,,,,,,2 Valve,,,,,20.5,Manual,,,,,,,,,,,,,Standard,Conventional
16679,2413990,44000,1720876,136,4.0,2005,0.0,,2/8/2010 0:00,WA250-5,WA250,,-5,,,Wheel Loader - 120.0 to 135.0 Horsepower,Florida,WL,Wheel Loader,,EROPS w AC,None or Unspecified,,None or Unspecified,,,,,,,,2 Valve,,,,,None or Unspecified,None or Unspecified,,,,,,,,,,,,,Standard,Conventional
16679,2414011,30000,1712036,136,,2004,0.0,,11/22/2008 0:00,WA250-5,WA250,,-5,,,Wheel Loader - 120.0 to 135.0 Horsepower,Connecticut,WL,Wheel Loader,,EROPS w AC,None or Unspecified,,Yes,,,,,,,,2 Valve,,,,,20.5,None or Unspecified,,,,,,,,,,,,,Standard,Conventional
16679,2414021,60000,1738065,136,,2005,0.0,,12/9/2008 0:00,WA250-5,WA250,,-5,,,Wheel Loader - 120.0 to 135.0 Horsepower,Iowa,WL,Wheel Loader,,EROPS w AC,Yes,,None or Unspecified,,,,,,,,2 Valve,,,,,20.5,Manual,,,,,,,,,,,,,Standard,Conventional
16679,2414086,77500,1234103,136,1.0,2007,1951.0,Medium,3/30/2010 0:00,WA250-5,WA250,,-5,,,Wheel Loader - 120.0 to 135.0 Horsepower,Missouri,WL,Wheel Loader,,EROPS w AC,Yes,,None or Unspecified,,,,,,,,2 Valve,,,,,20.5,Manual,,,,,,,,,,,,,Standard,Conventional
16679,2414253,44000,1308546,136,2.0,1000,0.0,,1/31/2010 0:00,WA250-5,WA250,,-5,,,Wheel Loader - 120.0 to 135.0 Horsepower,Florida,WL,Wheel Loader,,EROPS w AC,None or Unspecified,,None or Unspecified,,,,,,,,3 Valve,,,,,None or Unspecified,Hydraulic,,,,,,,,,,,,,Standard,Conventional
16679,2414264,54000,1364505,136,2.0,1000,0.0,,1/31/2010 0:00,WA250-5,WA250,,-5,,,Wheel Loader - 120.0 to 135.0 Horsepower,Florida,WL,Wheel Loader,,EROPS w AC,Yes,,None or Unspecified,,,,,,,,3 Valve,,,,,None or Unspecified,Hydraulic,,,,,,,,,,,,,Standard,Conventional
16679,2421575,46000,1148129,136,1.0,2004,4512.0,Medium,2/19/2008 0:00,WA250-5,WA250,,-5,,,Wheel Loader - 120.0 to 135.0 Horsepower,Florida,WL,Wheel Loader,,OROPS,Yes,,None or Unspecified,,,,,,,,2 Valve,,,,,20.5,Manual,,,,,,,,,,,,,Standard,Conventional
16679,2421576,80000,1394698,136,1.0,2005,1248.0,Low,3/11/2008 0:00,WA250-5,WA250,,-5,,,Wheel Loader - 120.0 to 135.0 Horsepower,Colorado,WL,Wheel Loader,,EROPS,None or Unspecified,,None or Unspecified,,,,,,,,2 Valve,,,,,20.5,None or Unspecified,,,,,,,,,,,,,Standard,Conventional
16679,2421577,37500,1651411,136,1.0,2005,7293.0,Medium,5/6/2010 0:00,WA250-5,WA250,,-5,,,Wheel Loader - 120.0 to 135.0 Horsepower,Texas,WL,Wheel Loader,,OROPS,Yes,,None or Unspecified,,,,,,,,2 Valve,,,,,20.5,None or Unspecified,,,,,,,,,,,,,Standard,Conventional
16679,2421578,37000,1521966,136,1.0,2005,1579.0,Low,5/20/2009 0:00,WA250-5,WA250,,-5,,,Wheel Loader - 120.0 to 135.0 Horsepower,California,WL,Wheel Loader,,OROPS,None or Unspecified,,None or Unspecified,,,,,,,,2 Valve,,,,,20.5,None or Unspecified,,,,,,,,,,,,,Standard,Conventional
16679,2421582,57000,1727339,136,,2004,3990.0,Medium,2/6/2008 0:00,WA250-5,WA250,,-5,,,Wheel Loader - 120.0 to 135.0 Horsepower,Arkansas,WL,Wheel Loader,,EROPS w AC,Yes,,None or Unspecified,,,,,,,,2 Valve,,,,,None or Unspecified,None or Unspecified,,,,,,,,,,,,,Standard,Conventional
16679,2421583,60000,1129649,136,1.0,2005,0.0,,11/12/2008 0:00,WA250-5,WA250,,-5,,,Wheel Loader - 120.0 to 135.0 Horsepower,Arizona,WL,Wheel Loader,,EROPS w AC,None or Unspecified,,Yes,,,,,,,,2 Valve,,,,,20.5,None or Unspecified,,,,,,,,,,,,,Standard,Conventional
16679,2421590,39000,1773905,136,1.0,2004,0.0,,5/5/2009 0:00,WA250-5,WA250,,-5,,,Wheel Loader - 120.0 to 135.0 Horsepower,Arizona,WL,Wheel Loader,,EROPS w AC,None or Unspecified,,Yes,,,,,,,,2 Valve,,,,,20.5,None or Unspecified,,,,,,,,,,,,,Standard,Conventional
16679,2421592,65000,1678988,136,1.0,2004,2496.0,Medium,9/18/2008 0:00,WA250-5,WA250,,-5,,,Wheel Loader - 120.0 to 135.0 Horsepower,Georgia,WL,Wheel Loader,,EROPS w AC,Yes,,None or Unspecified,,,,,,,,2 Valve,,,,,20.5,None or Unspecified,,,,,,,,,,,,,Standard,Conventional
16679,2421594,37500,1719216,136,1.0,2005,4466.0,Medium,10/14/2009 0:00,WA250-5,WA250,,-5,,,Wheel Loader - 120.0 to 135.0 Horsepower,Florida,WL,Wheel Loader,,OROPS,None or Unspecified,,None or Unspecified,,,,,,,,2 Valve,,,,,20.5,None or Unspecified,,,,,,,,,,,,,Standard,Conventional
16679,2421596,45000,1425555,136,1.0,2005,7263.0,High,10/14/2009 0:00,WA250-5,WA250,,-5,,,Wheel Loader - 120.0 to 135.0 Horsepower,Florida,WL,Wheel Loader,,EROPS w AC,None or Unspecified,,None or Unspecified,,,,,,,,2 Valve,,,,,20.5,None or Unspecified,,,,,,,,,,,,,Standard,Conventional
16679,2421597,65000,1743961,136,1.0,2004,0.0,,9/18/2008 0:00,WA250-5,WA250,,-5,,,Wheel Loader - 120.0 to 135.0 Horsepower,Georgia,WL,Wheel Loader,,EROPS w AC,Yes,,None or Unspecified,,,,,,,,2 Valve,,,,,20.5,Manual,,,,,,,,,,,,,Standard,Conventional
16679,2421602,34000,1726684,136,,2004,0.0,,3/19/2009 0:00,WA250-5,WA250,,-5,,,Wheel Loader - 120.0 to 135.0 Horsepower,New Jersey,WL,Wheel Loader,,EROPS,None or Unspecified,,None or Unspecified,,,,,,,,2 Valve,,,,,None or Unspecified,None or Unspecified,,,,,,,,,,,,,Standard,Conventional
16679,2421605,41000,1739399,136,1.0,2005,8389.0,High,2/16/2009 0:00,WA250-5,WA250,,-5,,,Wheel Loader - 120.0 to 135.0 Horsepower,Florida,WL,Wheel Loader,,EROPS w AC,None or Unspecified,,None or Unspecified,,,,,,,,2 Valve,,,,,20.5,None or Unspecified,,,,,,,,,,,,,Standard,Conventional
16679,2421606,42500,1662327,136,2.0,2004,0.0,,5/26/2010 0:00,WA250-5,WA250,,-5,,,Wheel Loader - 120.0 to 135.0 Horsepower,Florida,WL,Wheel Loader,,EROPS,None or Unspecified,,None or Unspecified,,,,,,,,2 Valve,,,,,None or Unspecified,Manual,,,,,,,,,,,,,Standard,Conventional
16679,2421607,49000,1111924,136,1.0,2005,6014.0,Medium,6/30/2010 0:00,WA250-5,WA250,,-5,,,Wheel Loader - 120.0 to 135.0 Horsepower,North Carolina,WL,Wheel Loader,,EROPS w AC,Yes,,Yes,,,,,,,,2 Valve,,,,,20.5,Hydraulic,,,,,,,,,,,,,Standard,Conventional
16679,2421608,55000,1221814,136,1.0,2005,0.0,,4/22/2010 0:00,WA250-5,WA250,,-5,,,Wheel Loader - 120.0 to 135.0 Horsepower,Utah,WL,Wheel Loader,,EROPS w AC,None or Unspecified,,Yes,,,,,,,,2 Valve,,,,,20.5,None or Unspecified,,,,,,,,,,,,,Standard,Conventional
16679,2421609,67500,1080198,136,1.0,2005,1286.0,Low,11/12/2008 0:00,WA250-5,WA250,,-5,,,Wheel Loader - 120.0 to 135.0 Horsepower,Arizona,WL,Wheel Loader,,EROPS w AC,None or Unspecified,,Yes,,,,,,,,2 Valve,,,,,20.5,None or Unspecified,,,,,,,,,,,,,Standard,Conventional
16679,2421610,43000,1078677,136,1.0,2006,0.0,,3/24/2009 0:00,WA250-5,WA250,,-5,,,Wheel Loader - 120.0 to 135.0 Horsepower,North Carolina,WL,Wheel Loader,,EROPS w AC,Yes,,None or Unspecified,,,,,,,,2 Valve,,,,,None or Unspecified,Manual,,,,,,,,,,,,,Standard,Conventional
16679,2421611,51000,1294886,136,1.0,2004,0.0,,11/12/2008 0:00,WA250-5,WA250,,-5,,,Wheel Loader - 120.0 to 135.0 Horsepower,Arizona,WL,Wheel Loader,,EROPS w AC,None or Unspecified,,Yes,,,,,,,,2 Valve,,,,,20.5,None or Unspecified,,,,,,,,,,,,,Standard,Conventional
16679,2421614,50000,1695418,136,,2006,0.0,,1/31/2009 0:00,WA250-5,WA250,,-5,,,Wheel Loader - 120.0 to 135.0 Horsepower,Florida,WL,Wheel Loader,,OROPS,None or Unspecified,,None or Unspecified,,,,,,,,2 Valve,,,,,None or Unspecified,None or Unspecified,,,,,,,,,,,,,Standard,Conventional
16679,2421615,32500,1666797,136,1.0,2005,8465.0,High,5/6/2010 0:00,WA250-5,WA250,,-5,,,Wheel Loader - 120.0 to 135.0 Horsepower,Texas,WL,Wheel Loader,,OROPS,Yes,,None or Unspecified,,,,,,,,2 Valve,,,,,20.5,None or Unspecified,,,,,,,,,,,,,Standard,Conventional
16679,2421617,52500,1233543,136,1.0,2005,2040.0,Medium,2/19/2008 0:00,WA250-5,WA250,,-5,,,Wheel Loader - 120.0 to 135.0 Horsepower,Florida,WL,Wheel Loader,,OROPS,Yes,,None or Unspecified,,,,,,,,2 Valve,,,,,20.5,Manual,,,,,,,,,,,,,Standard,Conventional
16679,2421621,57500,1220772,136,1.0,2004,5406.0,Medium,5/29/2008 0:00,WA250-5,WA250,,-5,,,Wheel Loader - 120.0 to 135.0 Horsepower,Utah,WL,Wheel Loader,,EROPS w AC,Yes,,Yes,,,,,,,,2 Valve,,,,,20.5,Hydraulic,,,,,,,,,,,,,Standard,Conventional
16679,2421622,50000,1220772,136,1.0,2004,0.0,,4/22/2010 0:00,WA250-5,WA250,,-5,,,Wheel Loader - 120.0 to 135.0 Horsepower,Utah,WL,Wheel Loader,,EROPS w AC,Yes,,Yes,,,,,,,,2 Valve,,,,,20.5,Hydraulic,,,,,,,,,,,,,Standard,Conventional
16679,2421623,47000,1173556,136,1.0,2004,2632.0,Medium,11/18/2008 0:00,WA250-5,WA250,,-5,,,Wheel Loader - 120.0 to 135.0 Horsepower,California,WL,Wheel Loader,,EROPS w AC,None or Unspecified,,None or Unspecified,,,,,,,,2 Valve,,,,,20.5,None or Unspecified,,,,,,,,,,,,,Standard,Conventional
16679,2421627,45000,1287752,136,1.0,2005,2262.0,Medium,5/20/2009 0:00,WA250-5,WA250,,-5,,,Wheel Loader - 120.0 to 135.0 Horsepower,California,WL,Wheel Loader,,EROPS w AC,None or Unspecified,,None or Unspecified,,,,,,,,2 Valve,,,,,20.5,Hydraulic,,,,,,,,,,,,,Standard,Conventional
16679,2421628,49000,1421185,136,1.0,2006,2942.0,Medium,5/20/2009 0:00,WA250-5,WA250,,-5,,,Wheel Loader - 120.0 to 135.0 Horsepower,California,WL,Wheel Loader,,EROPS w AC,None or Unspecified,,None or Unspecified,,,,,,,,2 Valve,,,,,20.5,Hydraulic,,,,,,,,,,,,,Standard,Conventional
16679,2421629,72500,1674618,136,1.0,2006,1643.0,Medium,10/30/2008 0:00,WA250-5,WA250,,-5,,,Wheel Loader - 120.0 to 135.0 Horsepower,Montana,WL,Wheel Loader,,EROPS w AC,None or Unspecified,,Yes,,,,,,,,2 Valve,,,,,20.5,Hydraulic,,,,,,,,,,,,,Standard,Conventional
16679,2421765,32500,1712021,136,1.0,2005,6583.0,Medium,5/6/2010 0:00,WA250-5,WA250,,-5,,,Wheel Loader - 120.0 to 135.0 Horsepower,Texas,WL,Wheel Loader,,OROPS,Yes,,None or Unspecified,,,,,,,,2 Valve,,,,,20.5,None or Unspecified,,,,,,,,,,,,,Standard,Conventional
16679,2421814,45000,1782822,136,1.0,2004,0.0,,2/25/2009 0:00,WA250-5,WA250,,-5,,,Wheel Loader - 120.0 to 135.0 Horsepower,Arizona,WL,Wheel Loader,,EROPS w AC,None or Unspecified,,None or Unspecified,,,,,,,,2 Valve,,,,,20.5,None or Unspecified,,,,,,,,,,,,,Standard,Conventional
16679,2421968,62000,1663227,136,20.0,1000,0.0,,4/15/2010 0:00,WA250-5,WA250,,-5,,,Wheel Loader - 120.0 to 135.0 Horsepower,Arkansas,WL,Wheel Loader,,EROPS w AC,Yes,,None or Unspecified,,,,,,,,2 Valve,,,,,None or Unspecified,None or Unspecified,,,,,,,,,,,,,Standard,Conventional
16679,2697321,53000,287661,149,1.0,2003,5903.0,Medium,3/24/2011 0:00,WA250-5,WA250,,-5,,,Wheel Loader - 120.0 to 135.0 Horsepower,Nevada,WL,Wheel Loader,,EROPS w AC,Yes,,None or Unspecified,,,,,,,,2 Valve,,,,,20.5,None or Unspecified,,,,,,,,,,,,,Standard,Conventional
16679,2697349,52000,1047912,149,1.0,2004,8207.0,High,2/15/2011 0:00,WA250-5,WA250,,-5,,,Wheel Loader - 120.0 to 135.0 Horsepower,Florida,WL,Wheel Loader,,EROPS w AC,,,,,,,,,,,Auxiliary,,,,,,Manual,,,,,,,,,,,,,,
16679,2697396,49500,1900851,149,2.0,2005,0.0,,7/17/2010 0:00,WA250-5,WA250,,-5,,,Wheel Loader - 120.0 to 135.0 Horsepower,New York,WL,Wheel Loader,,EROPS w AC,None or Unspecified,,None or Unspecified,,,,,,,,2 Valve,,,,,None or Unspecified,Manual,,,,,,,,,,,,,Standard,Conventional
16679,2697424,49000,1222559,149,1.0,2005,5874.0,Medium,6/7/2011 0:00,WA250-5,WA250,,-5,,,Wheel Loader - 120.0 to 135.0 Horsepower,Colorado,WL,Wheel Loader,,EROPS w AC,None or Unspecified,,Yes,,,,,,,,2 Valve,,,,,20.5,None or Unspecified,,,,,,,,,,,,,Standard,Conventional
16679,2697449,65000,1271666,149,15.0,2005,0.0,,10/14/2010 0:00,WA250-5,WA250,,-5,,,Wheel Loader - 120.0 to 135.0 Horsepower,Maryland,WL,Wheel Loader,,OROPS,None or Unspecified,,None or Unspecified,,,,,,,,2 Valve,,,,,None or Unspecified,None or Unspecified,,,,,,,,,,,,,Standard,Conventional
16679,2699604,39500,1174735,149,12.0,1000,0.0,,11/17/2010 0:00,WA250-5,WA250,,-5,,,Wheel Loader - 120.0 to 135.0 Horsepower,South Carolina,WL,Wheel Loader,,EROPS,,,,,,,,,,,Standard,,,,,,None or Unspecified,,,,,,,,,,,,,,
16679,2699605,41000,1174735,149,0.0,1998,0.0,,3/23/2011 0:00,WA250-5,WA250,,-5,,,Wheel Loader - 120.0 to 135.0 Horsepower,Mississippi,WL,Wheel Loader,,EROPS,,,,,,,,,,,Standard,,,,,,None or Unspecified,,,,,,,,,,,,,,
16679,2699755,51500,1180454,149,26.0,2006,0.0,,6/9/2010 0:00,WA250-5,WA250,,-5,,,Wheel Loader - 120.0 to 135.0 Horsepower,Alabama,WL,Wheel Loader,,EROPS w AC,None or Unspecified,,None or Unspecified,,,,,,,,2 Valve,,,,,None or Unspecified,None or Unspecified,,,,,,,,,,,,,Standard,Conventional
16679,2699865,41000,1338996,149,1.0,2004,0.0,,3/31/2010 0:00,WA250-5,WA250,,-5,,,Wheel Loader - 120.0 to 135.0 Horsepower,Mississippi,WL,Wheel Loader,,EROPS w AC,Yes,,None or Unspecified,,,,,,,,2 Valve,,,,,20.5,None or Unspecified,,,,,,,,,,,,,Standard,Conventional
16679,2699886,52000,881657,149,26.0,2006,0.0,,6/9/2010 0:00,WA250-5,WA250,,-5,,,Wheel Loader - 120.0 to 135.0 Horsepower,Alabama,WL,Wheel Loader,,EROPS w AC,None or Unspecified,,None or Unspecified,,,,,,,,2 Valve,,,,,None or Unspecified,None or Unspecified,,,,,,,,,,,,,Standard,Conventional
16679,2705754,46000,1906227,149,2.0,2004,0.0,,10/26/2010 0:00,WA250-5,WA250,,-5,,,Wheel Loader - 120.0 to 135.0 Horsepower,Florida,WL,Wheel Loader,,EROPS w AC,None or Unspecified,,None or Unspecified,,,,,,,,3 Valve,,,,,None or Unspecified,None or Unspecified,,,,,,,,,,,,,Standard,Conventional
16679,2705763,45000,1494734,149,1.0,2004,4474.0,Medium,2/15/2011 0:00,WA250-5,WA250,,-5,,,Wheel Loader - 120.0 to 135.0 Horsepower,Florida,WL,Wheel Loader,,OROPS,None or Unspecified,,None or Unspecified,,,,,,,,2 Valve,,,,,20.5,Manual,,,,,,,,,,,,,Standard,Conventional
16679,2705766,42000,1851939,149,1.0,2005,7439.0,Medium,10/27/2010 0:00,WA250-5,WA250,,-5,,,Wheel Loader - 120.0 to 135.0 Horsepower,Florida,WL,Wheel Loader,,OROPS,None or Unspecified,,None or Unspecified,,,,,,,,2 Valve,,,,,20.5,None or Unspecified,,,,,,,,,,,,,Standard,Conventional
16679,2705780,37000,1482301,149,1.0,2005,7565.0,High,6/7/2010 0:00,WA250-5,WA250,,-5,,,Wheel Loader - 120.0 to 135.0 Horsepower,Texas,WL,Wheel Loader,,EROPS w AC,Yes,,None or Unspecified,,,,,,,,2 Valve,,,,,20.5,Manual,,,,,,,,,,,,,Standard,Conventional
16679,2705785,43000,1400529,149,1.0,2005,7062.0,Medium,10/27/2010 0:00,WA250-5,WA250,,-5,,,Wheel Loader - 120.0 to 135.0 Horsepower,Florida,WL,Wheel Loader,,OROPS,None or Unspecified,,None or Unspecified,,,,,,,,2 Valve,,,,,20.5,Manual,,,,,,,,,,,,,Standard,Conventional
16679,2705787,42500,1177618,149,1.0,2006,9161.0,High,10/27/2010 0:00,WA250-5,WA250,,-5,,,Wheel Loader - 120.0 to 135.0 Horsepower,Florida,WL,Wheel Loader,,OROPS,None or Unspecified,,None or Unspecified,,,,,,,,2 Valve,,,,,20.5,None or Unspecified,,,,,,,,,,,,,Standard,Conventional
16679,2705797,52000,1261169,149,1.0,2005,3680.0,Medium,8/18/2010 0:00,WA250-5,WA250,,-5,,,Wheel Loader - 120.0 to 135.0 Horsepower,Florida,WL,Wheel Loader,,EROPS w AC,None or Unspecified,,None or Unspecified,,,,,,,,2 Valve,,,,,20.5,Manual,,,,,,,,,,,,,Standard,Conventional
16679,2705799,45000,1870107,149,1.0,2005,0.0,,4/13/2011 0:00,WA250-5,WA250,,-5,,,Wheel Loader - 120.0 to 135.0 Horsepower,Texas,WL,Wheel Loader,,EROPS w AC,Yes,,None or Unspecified,,,,,,,,2 Valve,,,,,None or Unspecified,None or Unspecified,,,,,,,,,,,,,Standard,Conventional
16679,2705800,45000,1797524,149,2.0,2004,0.0,,10/26/2010 0:00,WA250-5,WA250,,-5,,,Wheel Loader - 120.0 to 135.0 Horsepower,Florida,WL,Wheel Loader,,EROPS w AC,None or Unspecified,,None or Unspecified,,,,,,,,2 Valve,,,,,None or Unspecified,None or Unspecified,,,,,,,,,,,,,Standard,Conventional
16679,4357773,37500,1369548,172,1.0,2005,4466.0,Medium,10/14/2009 0:00,WA250-5,WA250,,-5,,,Wheel Loader - 120.0 to 135.0 Horsepower,Florida,WL,Wheel Loader,,EROPS,None or Unspecified,,None or Unspecified,,,,,,,,2 Valve,,,,,20.5,Manual,,,,,,,,,,,,,Standard,Conventional
16679,4357776,42000,1165920,172,1.0,2005,7439.0,Medium,10/27/2010 0:00,WA250-5,WA250,,-5,,,Wheel Loader - 120.0 to 135.0 Horsepower,Florida,WL,Wheel Loader,,OROPS,None or Unspecified,,None or Unspecified,,,,,,,,2 Valve,,,,,20.5,None or Unspecified,,,,,,,,,,,,,Standard,Conventional
16679,4357782,41000,1092817,172,1.0,2005,8389.0,High,2/16/2009 0:00,WA250-5,WA250,,-5,,,Wheel Loader - 120.0 to 135.0 Horsepower,Florida,WL,Wheel Loader,,EROPS w AC,None or Unspecified,,None or Unspecified,,,,,,,,2 Valve,,,,,20.5,Manual,,,,,,,,,,,,,Standard,Conventional
16679,4357930,50000,2306526,172,1.0,2004,8338.0,High,12/19/2011 0:00,WA250-5,WA250,,-5,,,Wheel Loader - 120.0 to 135.0 Horsepower,Tennessee,WL,Wheel Loader,,EROPS w AC,,,,,,,,,,,2 Valve,,,,,,,,,,,,,,,,,,,,
16679,4363484,39000,1147984,172,1.0,2004,4287.0,Medium,5/5/2009 0:00,WA250-5,WA250,,-5,,,Wheel Loader - 120.0 to 135.0 Horsepower,Arizona,WL,Wheel Loader,,EROPS w AC,None or Unspecified,,Yes,,,,,,,,2 Valve,,,,,20.5,None or Unspecified,,,,,,,,,,,,,Standard,Conventional
16679,4363490,39000,2276052,172,1.0,2004,6424.0,High,10/25/2011 0:00,WA250-5,WA250,,-5,,,Wheel Loader - 120.0 to 135.0 Horsepower,Florida,WL,Wheel Loader,,EROPS w AC,None or Unspecified,,None or Unspecified,,,,,,,,2 Valve,,,,,20.5,None or Unspecified,,,,,,,,,,,,,Standard,Conventional
16679,4363503,62000,1514975,172,1.0,2006,2136.0,Medium,12/9/2010 0:00,WA250-5,WA250,,-5,,,Wheel Loader - 120.0 to 135.0 Horsepower,Washington,WL,Wheel Loader,,EROPS,None or Unspecified,,None or Unspecified,,,,,,,,2 Valve,,,,,20.5,Hydraulic,,,,,,,,,,,,,Standard,Conventional
16679,4363513,62500,1376716,172,1.0,2004,3456.0,Medium,9/30/2009 0:00,WA250-5,WA250,,-5,,,Wheel Loader - 120.0 to 135.0 Horsepower,Maryland,WL,Wheel Loader,,EROPS w AC,None or Unspecified,,Yes,,,,,,,,2 Valve,,,,,20.5,Hydraulic,,,,,,,,,,,,,Standard,Conventional
16679,4363514,45000,1294886,172,1.0,2004,3124.0,Medium,2/25/2009 0:00,WA250-5,WA250,,-5,,,Wheel Loader - 120.0 to 135.0 Horsepower,Arizona,WL,Wheel Loader,,EROPS w AC,None or Unspecified,,Yes,,,,,,,,2 Valve,,,,,20.5,None or Unspecified,,,,,,,,,,,,,Standard,Conventional
16679,4363515,50000,1252265,172,1.0,2004,5588.0,Medium,3/24/2010 0:00,WA250-5,WA250,,-5,,,Wheel Loader - 120.0 to 135.0 Horsepower,Texas,WL,Wheel Loader,,EROPS w AC,Yes,,None or Unspecified,,,,,,,,2 Valve,,,,,20.5,Hydraulic,,,,,,,,,,,,,Standard,Conventional
16679,4364081,64000,2289883,172,1.0,2007,4641.0,High,2/15/2010 0:00,WA250-5,WA250,,-5,,,Wheel Loader - 120.0 to 135.0 Horsepower,Florida,WL,Wheel Loader,,EROPS w AC,None or Unspecified,,None or Unspecified,,,,,,,,2 Valve,,,,,20.5,None or Unspecified,,,,,,,,,,,,,Standard,Conventional
16679,6303668,50000,1853177,149,1.0,2004,,,12/20/2011 0:00,WA250-5,WA250,,-5,,,Wheel Loader - 120.0 to 135.0 Horsepower,Tennessee,WL,Wheel Loader,,EROPS w AC,Yes,,None or Unspecified,,,,,,,,2 Valve,,,,,20.5,None or Unspecified,,,,,,,,,,,,,Standard,Conventional
16679,6303692,57000,556619,149,1.0,2005,,,9/16/2011 0:00,WA250-5,WA250,,-5,,,Wheel Loader - 120.0 to 135.0 Horsepower,South Carolina,WL,Wheel Loader,,EROPS w AC,None or Unspecified,,None or Unspecified,,,,,,,,2 Valve,,,,,None or Unspecified,None or Unspecified,,,,,,,,,,,,,Standard,Conventional
16679,6306439,39000,1907376,149,1.0,2004,,,10/26/2011 0:00,WA250-5,WA250,,-5,,,Wheel Loader - 120.0 to 135.0 Horsepower,Florida,WL,Wheel Loader,,OROPS,None or Unspecified,,None or Unspecified,,,,,,,,2 Valve,,,,,20.5,Hydraulic,,,,,,,,,,,,,Standard,Conventional
16679,6306444,39500,1822328,149,2.0,2004,,,8/16/2011 0:00,WA250-5,WA250,,-5,,,Wheel Loader - 120.0 to 135.0 Horsepower,Florida,WL,Wheel Loader,,OROPS,None or Unspecified,,None or Unspecified,,,,,,,,2 Valve,,,,,None or Unspecified,None or Unspecified,,,,,,,,,,,,,Standard,Conventional
