ModelID,SalesID,SalePrice,MachineID,datasource,auctioneerID,YearMade,MachineHoursCurrentMeter,UsageBand,saledate,fiModelDesc,fiBaseModel,fiSecondaryDesc,fiModelSeries,fiModelDescriptor,ProductSize,fiProductClassDesc,state,ProductGroup,ProductGroupDesc,Drive_System,Enclosure,Forks,Pad_Type,Ride_Control,Stick,Transmission,Turbocharged,Blade_Extension,Blade_Width,Enclosure_Type,Engine_Horsepower,Hydraulics,Pushblock,Ripper,Scarifier,Tip_Control,Tire_Size,Coupler,Coupler_System,Grouser_Tracks,Hydraulics_Flow,Track_Type,Undercarriage_Pad_Width,Stick_Length,Thumb,Pattern_Changer,Grouser_Type,Backhoe_Mounting,Blade_Type,Travel_Controls,Differential_Type,Steering_Controls
16701,1736233,28500,1253864,132,17.0,1990,,,6/24/2003 0:00,WA400-5,WA400,,-5,,Medium,Wheel Loader - 200.0 to 225.0 Horsepower,Oregon,WL,Wheel Loader,,EROPS,None or Unspecified,,None or Unspecified,,,,,,,,2 Valve,,,,,23.5,None or Unspecified,,,,,,,,,,,,,Standard,Conventional
16701,1764478,42500,1091464,132,1.0,2003,,,11/13/2008 0:00,WA400-5,WA400,,-5,,Medium,Wheel Loader - 200.0 to 225.0 Horsepower,Texas,WL,Wheel Loader,,EROPS w AC,None or Unspecified,,Yes,,,,,,,,2 Valve,,,,,23.5,None or Unspecified,,,,,,,,,,,,,Standard,Conventional
16701,1765817,72500,1324679,132,12.0,2003,,,6/14/2006 0:00,WA400-5,WA400,,-5,,Medium,Wheel Loader - 200.0 to 225.0 Horsepower,South Carolina,WL,Wheel Loader,,EROPS w AC,None or Unspecified,,No,,,,,,,,,,,,,,,,,,,,,,,,,,,Standard,Four Wheel Standard
16701,2409991,82500,1075646,136,4.0,2005,0.0,,2/11/2008 0:00,WA400-5,WA400,,-5,,Medium,Wheel Loader - 200.0 to 225.0 Horsepower,Florida,WL,Wheel Loader,,EROPS w AC,None or Unspecified,,None or Unspecified,,,,,,,,2 Valve,,,,,23.5,Manual,,,,,,,,,,,,,Standard,Conventional
16701,2412912,41000,1170714,136,1.0,2004,172.0,Low,8/7/2009 0:00,WA400-5,WA400,,-5,,Medium,Wheel Loader - 200.0 to 225.0 Horsepower,Nevada,WL,Wheel Loader,,EROPS w AC,None or Unspecified,,Yes,,,,,,,,,,,,,,,,,,,,,,,,,,,Standard,Four Wheel Standard
16701,2697313,70000,1400812,149,1.0,2003,8232.0,Medium,6/16/2011 0:00,WA400-5,WA400,,-5,,Medium,Wheel Loader - 200.0 to 225.0 Horsepower,Washington,WL,Wheel Loader,,EROPS,Yes,,None or Unspecified,,,,,,,,2 Valve,,,,,23.5,None or Unspecified,,,,,,,,,,,,,Standard,Conventional
16701,2697316,60000,1550692,149,10.0,2003,7848.0,Medium,6/15/2011 0:00,WA400-5,WA400,,-5,,Medium,Wheel Loader - 200.0 to 225.0 Horsepower,Louisiana,WL,Wheel Loader,,EROPS w AC,None or Unspecified,,None or Unspecified,,,,,,,,2 Valve,,,,,23.5,None or Unspecified,,,,,,,,,,,,,Standard,Conventional
