ModelID,SalesID,SalePrice,MachineID,datasource,auctioneerID,YearMade,MachineHoursCurrentMeter,UsageBand,saledate,fiModelDesc,fiBaseModel,fiSecondaryDesc,fiModelSeries,fiModelDescriptor,ProductSize,fiProductClassDesc,state,ProductGroup,ProductGroupDesc,Drive_System,Enclosure,Forks,Pad_Type,Ride_Control,Stick,Transmission,Turbocharged,Blade_Extension,Blade_Width,Enclosure_Type,Engine_Horsepower,Hydraulics,Pushblock,Ripper,Scarifier,Tip_Control,Tire_Size,Coupler,Coupler_System,Grouser_Tracks,Hydraulics_Flow,Track_Type,Undercarriage_Pad_Width,Stick_Length,Thumb,Pattern_Changer,Grouser_Type,Backhoe_Mounting,Blade_Type,Travel_Controls,Differential_Type,Steering_Controls
16725,1145224,54000,1045851,121,3.0,2000,13552.0,High,7/9/2009 0:00,WA600-3,WA600,,-3,,Large,Wheel Loader - 350.0 to 500.0 Horsepower,Alabama,WL,Wheel Loader,,EROPS w AC,None or Unspecified,,None or Unspecified,,,,,,,,2 Valve,,,,,None or Unspecified,None or Unspecified,,,,,,,,,,,,,Standard,Conventional
16725,1200765,101000,1067857,121,3.0,2004,9877.0,High,5/6/2010 0:00,WA600-3,WA600,,-3,,Large,Wheel Loader - 350.0 to 500.0 Horsepower,Iowa,WL,Wheel Loader,,EROPS w AC,None or Unspecified,,None or Unspecified,,,,,,,,2 Valve,,,,,None or Unspecified,None or Unspecified,,,,,,,,,,,,,Standard,Conventional
16725,1222820,100000,1010621,121,3.0,2005,9946.0,High,12/29/2011 0:00,WA600-3,WA600,,-3,,Large,Wheel Loader - 350.0 to 500.0 Horsepower,Texas,WL,Wheel Loader,,EROPS w AC,None or Unspecified,,None or Unspecified,,,,,,,,2 Valve,,,,,None or Unspecified,None or Unspecified,,,,,,,,,,,,,Standard,Conventional
16725,1222821,100000,1016175,121,3.0,2005,9341.0,High,12/29/2011 0:00,WA600-3,WA600,,-3,,Large,Wheel Loader - 350.0 to 500.0 Horsepower,Texas,WL,Wheel Loader,,EROPS w AC,None or Unspecified,,None or Unspecified,,,,,,,,2 Valve,,,,,None or Unspecified,None or Unspecified,,,,,,,,,,,,,Standard,Conventional
16725,1751898,87000,1384412,132,1.0,2005,10977.0,High,10/20/2009 0:00,WA600-3,WA600,,-3,,Large,Wheel Loader - 350.0 to 500.0 Horsepower,Colorado,WL,Wheel Loader,,EROPS w AC,None or Unspecified,,None or Unspecified,,,,,,,,2 Valve,,,,,None or Unspecified,None or Unspecified,,,,,,,,,,,,,Standard,Conventional
16725,1765179,102500,1258045,132,1.0,2000,,,8/1/2006 0:00,WA600-3,WA600,,-3,,Large,Wheel Loader - 350.0 to 500.0 Horsepower,Tennessee,WL,Wheel Loader,,EROPS w AC,None or Unspecified,,Yes,,,,,,,,2 Valve,,,,,23.5,None or Unspecified,,,,,,,,,,,,,Standard,Conventional
16725,2421832,87000,1321883,136,1.0,2005,10977.0,High,10/20/2009 0:00,WA600-3,WA600,,-3,,Large,Wheel Loader - 350.0 to 500.0 Horsepower,Colorado,WL,Wheel Loader,,EROPS w AC,None or Unspecified,,None or Unspecified,,,,,,,,2 Valve,,,,,None or Unspecified,None or Unspecified,,,,,,,,,,,,,Standard,Conventional
