ModelID,SalesID,SalePrice,MachineID,datasource,auctioneerID,YearMade,MachineHoursCurrentMeter,UsageBand,saledate,fiModelDesc,fiBaseModel,fiSecondaryDesc,fiModelSeries,fiModelDescriptor,ProductSize,fiProductClassDesc,state,ProductGroup,ProductGroupDesc,Drive_System,Enclosure,Forks,Pad_Type,Ride_Control,Stick,Transmission,Turbocharged,Blade_Extension,Blade_Width,Enclosure_Type,Engine_Horsepower,Hydraulics,Pushblock,Ripper,Scarifier,Tip_Control,Tire_Size,Coupler,Coupler_System,Grouser_Tracks,Hydraulics_Flow,Track_Type,Undercarriage_Pad_Width,Stick_Length,Thumb,Pattern_Changer,Grouser_Type,Backhoe_Mounting,Blade_Type,Travel_Controls,Differential_Type,Steering_Controls
16730,1185899,25000,1054747,121,3.0,2008,91.0,Low,12/11/2008 0:00,WA70-5,WA70,,-5,,Compact,Wheel Loader - 60.0 to 80.0 Horsepower,Florida,WL,Wheel Loader,,OROPS,None or Unspecified,,None or Unspecified,,,,,,,,2 Valve,,,,,None or Unspecified,None or Unspecified,,,,,,,,,,,,,Standard,Conventional
16730,1775084,29000,1336293,132,1.0,2006,641.0,Low,2/20/2008 0:00,WA70-5,WA70,,-5,,Compact,Wheel Loader - 60.0 to 80.0 Horsepower,Florida,WL,Wheel Loader,,OROPS,None or Unspecified,,None or Unspecified,,,,,,,,2 Valve,,,,,None or Unspecified,Manual,,,,,,,,,,,,,Standard,Conventional
16730,1775085,29000,1336293,132,1.0,2006,,,2/19/2008 0:00,WA70-5,WA70,,-5,,Compact,Wheel Loader - 60.0 to 80.0 Horsepower,Florida,WL,Wheel Loader,,OROPS,None or Unspecified,,None or Unspecified,,,,,,,,2 Valve,,,,,None or Unspecified,Manual,,,,,,,,,,,,,Standard,Conventional
16730,1775086,25000,1422135,132,1.0,2006,,,2/19/2008 0:00,WA70-5,WA70,,-5,,Compact,Wheel Loader - 60.0 to 80.0 Horsepower,Florida,WL,Wheel Loader,,OROPS,None or Unspecified,,None or Unspecified,,,,,,,,2 Valve,,,,,None or Unspecified,Manual,,,,,,,,,,,,,Standard,Conventional
16730,1775087,25000,1422135,132,1.0,2006,1604.0,Medium,2/20/2008 0:00,WA70-5,WA70,,-5,,Compact,Wheel Loader - 60.0 to 80.0 Horsepower,Florida,WL,Wheel Loader,,OROPS,None or Unspecified,,None or Unspecified,,,,,,,,2 Valve,,,,,None or Unspecified,Manual,,,,,,,,,,,,,Standard,Conventional
16730,2418689,26000,1128606,136,1.0,2006,0.0,,10/15/2008 0:00,WA70-5,WA70,,-5,,Compact,Wheel Loader - 60.0 to 80.0 Horsepower,Florida,WL,Wheel Loader,,OROPS,None or Unspecified,,None or Unspecified,,,,,,,,2 Valve,,,,,None or Unspecified,Manual,,,,,,,,,,,,,Standard,Conventional
16730,2420453,29000,1709569,136,1.0,2006,641.0,Low,2/19/2008 0:00,WA70-5,WA70,,-5,,Compact,Wheel Loader - 60.0 to 80.0 Horsepower,Florida,WL,Wheel Loader,,OROPS,Yes,,None or Unspecified,,,,,,,,2 Valve,,,,,None or Unspecified,None or Unspecified,,,,,,,,,,,,,Standard,Conventional
16730,2421820,21000,1770269,136,1.0,2006,2287.0,Medium,2/16/2009 0:00,WA70-5,WA70,,-5,,Compact,Wheel Loader - 60.0 to 80.0 Horsepower,Florida,WL,Wheel Loader,,OROPS,Yes,,None or Unspecified,,,,,,,,2 Valve,,,,,None or Unspecified,Manual,,,,,,,,,,,,,Standard,Conventional
16730,2421821,25000,1713486,136,1.0,2006,1604.0,Medium,2/19/2008 0:00,WA70-5,WA70,,-5,,Compact,Wheel Loader - 60.0 to 80.0 Horsepower,Florida,WL,Wheel Loader,,OROPS,Yes,,None or Unspecified,,,,,,,,2 Valve,,,,,None or Unspecified,None or Unspecified,,,,,,,,,,,,,Standard,Conventional
16730,2695486,22500,1541894,149,26.0,1000,3034.0,Low,4/21/2011 0:00,WA70-5,WA70,,-5,,Compact,Wheel Loader - 60.0 to 80.0 Horsepower,South Carolina,WL,Wheel Loader,,EROPS w AC,Yes,,None or Unspecified,,,,,,,,2 Valve,,,,,None or Unspecified,Manual,,,,,,,,,,,,,Standard,Conventional
16730,4360634,21000,1160718,172,1.0,2006,2287.0,Medium,2/16/2009 0:00,WA70-5,WA70,,-5,,Compact,Wheel Loader - 60.0 to 80.0 Horsepower,Florida,WL,Wheel Loader,,OROPS,Yes,,None or Unspecified,,,,,,,,2 Valve,,,,,None or Unspecified,Manual,,,,,,,,,,,,,Standard,Conventional
16730,6305296,19000,1154583,149,2.0,2005,,,8/16/2011 0:00,WA70-5,WA70,,-5,,Compact,Wheel Loader - 60.0 to 80.0 Horsepower,Florida,WL,Wheel Loader,,EROPS w AC,None or Unspecified,,Yes,,,,,,,,2 Valve,,,,,None or Unspecified,None or Unspecified,,,,,,,,,,,,,Standard,Conventional
16730,6305297,20500,1906041,149,2.0,2005,,,10/25/2011 0:00,WA70-5,WA70,,-5,,Compact,Wheel Loader - 60.0 to 80.0 Horsepower,Florida,WL,Wheel Loader,,OROPS,None or Unspecified,,None or Unspecified,,,,,,,,2 Valve,,,,,None or Unspecified,None or Unspecified,,,,,,,,,,,,,Standard,Conventional
