SalesID,2400031
SalePrice,28500
MachineID,1772228
datasource,136
auctioneerID,
YearMade,2002
MachineHoursCurrentMeter,0.0
UsageBand,
saledate,6/21/2008 0:00
fiModelDesc,WB150AWS2
fiBaseModel,WB150
fiSecondaryDesc,
fiModelSeries,AWS
fiModelDescriptor,2
ProductSize,
fiProductClassDesc,Backhoe Loader - 15.0 to 16.0 Ft Standard Digging Depth
state,New York
ProductGroup,BL
ProductGroupDesc,Backhoe Loaders
Drive_System,Four Wheel Drive
Enclosure,EROPS
Forks,None or Unspecified
Pad_Type,Reversible
Ride_Control,No
Stick,Extended
Transmission,Standard
Turbocharged,None or Unspecified
Blade_Extension,
Blade_Width,
Enclosure_Type,
Engine_Horsepower,
Hydraulics,
Pushblock,
Ripper,
Scarifier,
Tip_Control,
Tire_Size,
Coupler,
Coupler_System,
Grouser_Tracks,
Hydraulics_Flow,
Track_Type,
Undercarriage_Pad_Width,
Stick_Length,
Thumb,
Pattern_Changer,
Grouser_Type,
Backhoe_Mounting,
Blade_Type,
Travel_Controls,
Differential_Type,
Steering_Controls,
