ModelID,SalesID,SalePrice,MachineID,datasource,auctioneerID,YearMade,MachineHoursCurrentMeter,UsageBand,saledate,fiModelDesc,fiBaseModel,fiSecondaryDesc,fiModelSeries,fiModelDescriptor,ProductSize,fiProductClassDesc,state,ProductGroup,ProductGroupDesc,Drive_System,Enclosure,Forks,Pad_Type,Ride_Control,Stick,Transmission,Turbocharged,Blade_Extension,Blade_Width,Enclosure_Type,Engine_Horsepower,Hydraulics,Pushblock,Ripper,Scarifier,Tip_Control,Tire_Size,Coupler,Coupler_System,Grouser_Tracks,Hydraulics_Flow,Track_Type,Undercarriage_Pad_Width,Stick_Length,Thumb,Pattern_Changer,Grouser_Type,Backhoe_Mounting,Blade_Type,Travel_Controls,Differential_Type,Steering_Controls
17085,1784744,15000,1459566,132,6.0,1995,,,2/10/1999 0:00,LD50,LD50,,,,Compact,Wheel Loader - 40.0 to 60.0 Horsepower,Florida,WL,Wheel Loader,,OROPS,None or Unspecified,,None or Unspecified,,,,,,,,2 Valve,,,,,None or Unspecified,None or Unspecified,,,,,,,,,,,,,Standard,Conventional
17085,1784745,17000,1169144,132,6.0,1995,,,2/10/1999 0:00,LD50,LD50,,,,Compact,Wheel Loader - 40.0 to 60.0 Horsepower,Florida,WL,Wheel Loader,,OROPS,None or Unspecified,,None or Unspecified,,,,,,,,2 Valve,,,,,None or Unspecified,None or Unspecified,,,,,,,,,,,,,Standard,Conventional
17085,1784746,19000,1423014,132,6.0,1995,,,2/10/1999 0:00,LD50,LD50,,,,Compact,Wheel Loader - 40.0 to 60.0 Horsepower,Florida,WL,Wheel Loader,,OROPS,None or Unspecified,,None or Unspecified,,,,,,,,2 Valve,,,,,None or Unspecified,None or Unspecified,,,,,,,,,,,,,Standard,Conventional
17085,1784752,13000,1362463,132,6.0,1996,250.0,Low,8/19/1998 0:00,LD50,LD50,,,,Compact,Wheel Loader - 40.0 to 60.0 Horsepower,California,WL,Wheel Loader,,OROPS,None or Unspecified,,None or Unspecified,,,,,,,,2 Valve,,,,,None or Unspecified,None or Unspecified,,,,,,,,,,,,,Standard,Conventional
17085,1784753,15000,1427488,132,6.0,1996,60.0,Low,8/19/1998 0:00,LD50,LD50,,,,Compact,Wheel Loader - 40.0 to 60.0 Horsepower,California,WL,Wheel Loader,,OROPS,Yes,,None or Unspecified,,,,,,,,2 Valve,,,,,None or Unspecified,None or Unspecified,,,,,,,,,,,,,Standard,Conventional
17085,1786302,12500,1094869,132,1.0,1995,,,3/14/2000 0:00,LD50,LD50,,,,Compact,Wheel Loader - 40.0 to 60.0 Horsepower,Texas,WL,Wheel Loader,,OROPS,None or Unspecified,,None or Unspecified,,,,,,,,2 Valve,,,,,None or Unspecified,None or Unspecified,,,,,,,,,,,,,Standard,Conventional
17085,1787119,10000,1252227,132,1.0,1995,,,6/22/2001 0:00,LD50,LD50,,,,Compact,Wheel Loader - 40.0 to 60.0 Horsepower,Georgia,WL,Wheel Loader,,OROPS,None or Unspecified,,None or Unspecified,,,,,,,,2 Valve,,,,,None or Unspecified,None or Unspecified,,,,,,,,,,,,,Standard,Conventional
17085,1787120,13000,1289027,132,1.0,1996,,,6/26/2000 0:00,LD50,LD50,,,,Compact,Wheel Loader - 40.0 to 60.0 Horsepower,Minnesota,WL,Wheel Loader,,OROPS,None or Unspecified,,None or Unspecified,,,,,,,,2 Valve,,,,,None or Unspecified,None or Unspecified,,,,,,,,,,,,,Standard,Conventional
17085,1787121,8000,1077252,132,1.0,1995,,,6/12/2002 0:00,LD50,LD50,,,,Compact,Wheel Loader - 40.0 to 60.0 Horsepower,Texas,WL,Wheel Loader,,OROPS,None or Unspecified,,None or Unspecified,,,,,,,,2 Valve,,,,,None or Unspecified,None or Unspecified,,,,,,,,,,,,,Standard,Conventional
17085,1787122,20000,1149888,132,1.0,1995,,,4/29/1996 0:00,LD50,LD50,,,,Compact,Wheel Loader - 40.0 to 60.0 Horsepower,Minnesota,WL,Wheel Loader,,OROPS,None or Unspecified,,None or Unspecified,,,,,,,,2 Valve,,,,,None or Unspecified,None or Unspecified,,,,,,,,,,,,,Standard,Conventional
