SalesID,1788092
SalePrice,8000
MachineID,1328370
datasource,132
auctioneerID,1.0
YearMade,1000
MachineHoursCurrentMeter,
UsageBand,
saledate,4/4/2002 0:00
fiModelDesc,MF470
fiBaseModel,MF470
fiSecondaryDesc,
fiModelSeries,
fiModelDescriptor,
ProductSize,Compact
fiProductClassDesc,Wheel Loader - 60.0 to 80.0 Horsepower
state,Colorado
ProductGroup,WL
ProductGroupDesc,Wheel Loader
Drive_System,
Enclosure,EROPS
Forks,None or Unspecified
Pad_Type,
Ride_Control,None or Unspecified
Stick,
Transmission,
Turbocharged,
Blade_Extension,
Blade_Width,
Enclosure_Type,
Engine_Horsepower,
Hydraulics,2 Valve
Pushblock,
Ripper,
Scarifier,
Tip_Control,
Tire_Size,None or Unspecified
Coupler,None or Unspecified
Coupler_System,
Grouser_Tracks,
Hydraulics_Flow,
Track_Type,
Undercarriage_Pad_Width,
Stick_Length,
Thumb,
Pattern_Changer,
Grouser_Type,
Backhoe_Mounting,
Blade_Type,
Travel_Controls,
Differential_Type,Standard
Steering_Controls,Conventional
