ModelID,SalesID,SalePrice,MachineID,datasource,auctioneerID,YearMade,MachineHoursCurrentMeter,UsageBand,saledate,fiModelDesc,fiBaseModel,fiSecondaryDesc,fiModelSeries,fiModelDescriptor,ProductSize,fiProductClassDesc,state,ProductGroup,ProductGroupDesc,Drive_System,Enclosure,Forks,Pad_Type,Ride_Control,Stick,Transmission,Turbocharged,Blade_Extension,Blade_Width,Enclosure_Type,Engine_Horsepower,Hydraulics,Pushblock,Ripper,Scarifier,Tip_Control,Tire_Size,Coupler,Coupler_System,Grouser_Tracks,Hydraulics_Flow,Track_Type,Undercarriage_Pad_Width,Stick_Length,Thumb,Pattern_Changer,Grouser_Type,Backhoe_Mounting,Blade_Type,Travel_Controls,Differential_Type,Steering_Controls
17285,1141094,18000,1041917,121,3.0,2002,147.0,Low,12/15/2005 0:00,B250,B250,,,,,Backhoe Loader - 0.0 to 14.0 Ft Standard Digging Depth,Illinois,BL,Backhoe Loaders,Four Wheel Drive,OROPS,None or Unspecified,None or Unspecified,No,Standard,Hydrostatic,None or Unspecified,,,,,,,,,,,,,,,,,,,,,,,,,
17285,1143762,20500,1029373,121,3.0,2004,239.0,Low,8/10/2006 0:00,B250,B250,,,,,Backhoe Loader - 0.0 to 14.0 Ft Standard Digging Depth,Ohio,BL,Backhoe Loaders,Four Wheel Drive,OROPS,None or Unspecified,None or Unspecified,No,Standard,Hydrostatic,None or Unspecified,,,,,,,,,,,,,,,,,,,,,,,,,
17285,1146859,22000,1026093,121,3.0,2005,6.0,Low,1/26/2006 0:00,B250,B250,,,,,Backhoe Loader - 0.0 to 14.0 Ft Standard Digging Depth,Pennsylvania,BL,Backhoe Loaders,Four Wheel Drive,OROPS,None or Unspecified,None or Unspecified,No,Standard,Hydrostatic,None or Unspecified,,,,,,,,,,,,,,,,,,,,,,,,,
17285,1149584,20500,1031707,121,3.0,2005,2.0,Low,1/12/2006 0:00,B250,B250,,,,,Backhoe Loader - 0.0 to 14.0 Ft Standard Digging Depth,Pennsylvania,BL,Backhoe Loaders,Four Wheel Drive,OROPS,None or Unspecified,None or Unspecified,No,Standard,Hydrostatic,None or Unspecified,,,,,,,,,,,,,,,,,,,,,,,,,
17285,1150634,21500,1051347,121,3.0,2002,247.0,Low,8/25/2005 0:00,B250,B250,,,,,Backhoe Loader - 0.0 to 14.0 Ft Standard Digging Depth,Missouri,BL,Backhoe Loaders,Four Wheel Drive,OROPS,None or Unspecified,None or Unspecified,No,Standard,Standard,None or Unspecified,,,,,,,,,,,,,,,,,,,,,,,,,
17285,1152406,22000,1051296,121,3.0,2005,3.0,Low,2/9/2006 0:00,B250,B250,,,,,Backhoe Loader - 0.0 to 14.0 Ft Standard Digging Depth,Pennsylvania,BL,Backhoe Loaders,Four Wheel Drive,OROPS,None or Unspecified,None or Unspecified,No,Standard,Hydrostatic,None or Unspecified,,,,,,,,,,,,,,,,,,,,,,,,,
17285,1152426,19500,1021960,121,3.0,2004,92.0,Low,4/20/2006 0:00,B250,B250,,,,,Backhoe Loader - 0.0 to 14.0 Ft Standard Digging Depth,Georgia,BL,Backhoe Loaders,Four Wheel Drive,OROPS,None or Unspecified,None or Unspecified,No,Standard,Hydrostatic,None or Unspecified,,,,,,,,,,,,,,,,,,,,,,,,,
17285,1155836,22000,998660,121,3.0,2005,14.0,Low,1/12/2006 0:00,B250,B250,,,,,Backhoe Loader - 0.0 to 14.0 Ft Standard Digging Depth,Pennsylvania,BL,Backhoe Loaders,Four Wheel Drive,EROPS,None or Unspecified,None or Unspecified,No,Standard,Hydrostatic,None or Unspecified,,,,,,,,,,,,,,,,,,,,,,,,,
17285,1156726,21500,1045229,121,3.0,2004,298.0,Low,7/13/2006 0:00,B250,B250,,,,,Backhoe Loader - 0.0 to 14.0 Ft Standard Digging Depth,Ohio,BL,Backhoe Loaders,Four Wheel Drive,EROPS,None or Unspecified,None or Unspecified,No,Standard,Standard,None or Unspecified,,,,,,,,,,,,,,,,,,,,,,,,,
17285,1156965,17000,1060912,121,3.0,2003,28.0,Low,2/23/2006 0:00,B250,B250,,,,,Backhoe Loader - 0.0 to 14.0 Ft Standard Digging Depth,Tennessee,BL,Backhoe Loaders,Two Wheel Drive,OROPS,None or Unspecified,None or Unspecified,No,Standard,Hydrostatic,None or Unspecified,,,,,,,,,,,,,,,,,,,,,,,,,
17285,1157062,17500,1027325,121,3.0,2005,38.0,Low,12/7/2006 0:00,B250,B250,,,,,Backhoe Loader - 0.0 to 14.0 Ft Standard Digging Depth,Ohio,BL,Backhoe Loaders,Four Wheel Drive,OROPS,None or Unspecified,None or Unspecified,No,Standard,Hydrostatic,None or Unspecified,,,,,,,,,,,,,,,,,,,,,,,,,
17285,1158509,22000,1051265,121,3.0,2005,13.0,Low,8/24/2006 0:00,B250,B250,,,,,Backhoe Loader - 0.0 to 14.0 Ft Standard Digging Depth,Colorado,BL,Backhoe Loaders,Four Wheel Drive,EROPS,None or Unspecified,None or Unspecified,No,Standard,Hydrostatic,None or Unspecified,,,,,,,,,,,,,,,,,,,,,,,,,
17285,1160900,21000,1030848,121,3.0,2005,5.0,Low,2/23/2006 0:00,B250,B250,,,,,Backhoe Loader - 0.0 to 14.0 Ft Standard Digging Depth,Kentucky,BL,Backhoe Loaders,Four Wheel Drive,OROPS,None or Unspecified,None or Unspecified,No,Standard,Hydrostatic,None or Unspecified,,,,,,,,,,,,,,,,,,,,,,,,,
17285,1164095,25500,1051265,121,3.0,2005,0.0,,2/9/2006 0:00,B250,B250,,,,,Backhoe Loader - 0.0 to 14.0 Ft Standard Digging Depth,Pennsylvania,BL,Backhoe Loaders,Four Wheel Drive,EROPS,None or Unspecified,None or Unspecified,No,Standard,Hydrostatic,None or Unspecified,,,,,,,,,,,,,,,,,,,,,,,,,
17285,1166756,22500,1014506,121,3.0,2005,20.0,Low,1/26/2006 0:00,B250,B250,,,,,Backhoe Loader - 0.0 to 14.0 Ft Standard Digging Depth,Pennsylvania,BL,Backhoe Loaders,Four Wheel Drive,OROPS,None or Unspecified,None or Unspecified,No,Standard,Hydrostatic,None or Unspecified,,,,,,,,,,,,,,,,,,,,,,,,,
17285,1788943,17500,1404488,132,2.0,1000,,,2/9/2006 0:00,B250,B250,,,,,Backhoe Loader - 0.0 to 14.0 Ft Standard Digging Depth,Florida,BL,Backhoe Loaders,,OROPS,None or Unspecified,,,,,,,,,,,,,,,,,,,,,,,,,,,,,,
17285,1789335,21000,1293683,132,8.0,2004,,,7/23/2005 0:00,B250,B250,,,,,Backhoe Loader - 0.0 to 14.0 Ft Standard Digging Depth,Alabama,BL,Backhoe Loaders,Four Wheel Drive,OROPS,None or Unspecified,None or Unspecified,No,Standard,Standard,None or Unspecified,,,,,,,,,,,,,,,,,,,,,,,,,
17285,1814960,19000,1357017,132,1.0,2002,,,9/23/2003 0:00,B250,B250,,,,,Backhoe Loader - 0.0 to 14.0 Ft Standard Digging Depth,Washington,BL,Backhoe Loaders,Four Wheel Drive,OROPS,None or Unspecified,None or Unspecified,No,Standard,Standard,None or Unspecified,,,,,,,,,,,,,,,,,,,,,,,,,
17285,1814961,16500,1357017,132,1.0,2002,,,12/15/2004 0:00,B250,B250,,,,,Backhoe Loader - 0.0 to 14.0 Ft Standard Digging Depth,Maryland,BL,Backhoe Loaders,Four Wheel Drive,OROPS,None or Unspecified,None or Unspecified,No,Standard,Standard,None or Unspecified,,,,,,,,,,,,,,,,,,,,,,,,,
17285,1814962,19500,1041917,132,1.0,2002,,,3/17/2005 0:00,B250,B250,,,,,Backhoe Loader - 0.0 to 14.0 Ft Standard Digging Depth,Colorado,BL,Backhoe Loaders,Four Wheel Drive,OROPS,None or Unspecified,None or Unspecified,No,Standard,Hydrostatic,None or Unspecified,,,,,,,,,,,,,,,,,,,,,,,,,
17285,1814965,15000,1385523,132,1.0,2002,,,6/23/2005 0:00,B250,B250,,,,,Backhoe Loader - 0.0 to 14.0 Ft Standard Digging Depth,Washington,BL,Backhoe Loaders,Four Wheel Drive,OROPS,None or Unspecified,None or Unspecified,No,Standard,Standard,None or Unspecified,,,,,,,,,,,,,,,,,,,,,,,,,
17285,1814966,17500,1502322,132,2.0,2003,,,11/6/2004 0:00,B250,B250,,,,,Backhoe Loader - 0.0 to 14.0 Ft Standard Digging Depth,Pennsylvania,BL,Backhoe Loaders,Two Wheel Drive,OROPS,None or Unspecified,None or Unspecified,No,Standard,Standard,None or Unspecified,,,,,,,,,,,,,,,,,,,,,,,,,
17285,1814967,18000,1099738,132,2.0,1000,,,12/14/2005 0:00,B250,B250,,,,,Backhoe Loader - 0.0 to 14.0 Ft Standard Digging Depth,California,BL,Backhoe Loaders,Two Wheel Drive,OROPS,None or Unspecified,None or Unspecified,No,Standard,Standard,None or Unspecified,,,,,,,,,,,,,,,,,,,,,,,,,
17285,1814969,19000,1327573,132,1.0,2002,,,9/23/2003 0:00,B250,B250,,,,,Backhoe Loader - 0.0 to 14.0 Ft Standard Digging Depth,Washington,BL,Backhoe Loaders,Four Wheel Drive,OROPS,None or Unspecified,None or Unspecified,No,Standard,Standard,None or Unspecified,,,,,,,,,,,,,,,,,,,,,,,,,
17285,1814970,19000,639561,132,1.0,2002,,,9/23/2003 0:00,B250,B250,,,,,Backhoe Loader - 0.0 to 14.0 Ft Standard Digging Depth,Washington,BL,Backhoe Loaders,Four Wheel Drive,OROPS,None or Unspecified,None or Unspecified,No,Standard,Hydrostatic,None or Unspecified,,,,,,,,,,,,,,,,,,,,,,,,,
17285,1814971,14500,1323649,132,1.0,2002,,,10/13/2005 0:00,B250,B250,,,,,Backhoe Loader - 0.0 to 14.0 Ft Standard Digging Depth,Florida,BL,Backhoe Loaders,Two Wheel Drive,OROPS,None or Unspecified,None or Unspecified,No,Standard,Standard,None or Unspecified,,,,,,,,,,,,,,,,,,,,,,,,,
17285,1814973,19000,1193018,132,1.0,2002,,,9/23/2003 0:00,B250,B250,,,,,Backhoe Loader - 0.0 to 14.0 Ft Standard Digging Depth,Washington,BL,Backhoe Loaders,Four Wheel Drive,OROPS,None or Unspecified,None or Unspecified,No,Standard,Standard,None or Unspecified,,,,,,,,,,,,,,,,,,,,,,,,,
17285,1814974,21000,1301759,132,1.0,2002,,,9/23/2003 0:00,B250,B250,,,,,Backhoe Loader - 0.0 to 14.0 Ft Standard Digging Depth,Washington,BL,Backhoe Loaders,Four Wheel Drive,OROPS,None or Unspecified,None or Unspecified,No,Standard,Standard,None or Unspecified,,,,,,,,,,,,,,,,,,,,,,,,,
17285,1814975,15000,1301759,132,1.0,2002,,,12/15/2004 0:00,B250,B250,,,,,Backhoe Loader - 0.0 to 14.0 Ft Standard Digging Depth,Maryland,BL,Backhoe Loaders,Four Wheel Drive,OROPS,None or Unspecified,None or Unspecified,No,Standard,Standard,None or Unspecified,,,,,,,,,,,,,,,,,,,,,,,,,
17285,1814976,16500,1551194,132,8.0,2002,,,5/23/2007 0:00,B250,B250,,,,,Backhoe Loader - 0.0 to 14.0 Ft Standard Digging Depth,Mississippi,BL,Backhoe Loaders,Four Wheel Drive,OROPS,None or Unspecified,None or Unspecified,No,Standard,Standard,None or Unspecified,,,,,,,,,,,,,,,,,,,,,,,,,
17285,1814977,16000,1551194,132,7.0,2002,,,6/6/2007 0:00,B250,B250,,,,,Backhoe Loader - 0.0 to 14.0 Ft Standard Digging Depth,Alabama,BL,Backhoe Loaders,Four Wheel Drive,OROPS,None or Unspecified,None or Unspecified,No,Standard,Standard,None or Unspecified,,,,,,,,,,,,,,,,,,,,,,,,,
17285,1814978,12500,1526698,132,1.0,2002,,,12/15/2006 0:00,B250,B250,,,,,Backhoe Loader - 0.0 to 14.0 Ft Standard Digging Depth,Idaho,BL,Backhoe Loaders,Four Wheel Drive,OROPS,None or Unspecified,None or Unspecified,No,Standard,Standard,None or Unspecified,,,,,,,,,,,,,,,,,,,,,,,,,
17285,1814979,14500,1421286,132,1.0,2003,,,4/27/2007 0:00,B250,B250,,,,,Backhoe Loader - 0.0 to 14.0 Ft Standard Digging Depth,Missouri,BL,Backhoe Loaders,Four Wheel Drive,OROPS,None or Unspecified,None or Unspecified,No,Standard,Standard,None or Unspecified,,,,,,,,,,,,,,,,,,,,,,,,,
17285,1814980,13500,1421286,132,1.0,2003,,,7/11/2007 0:00,B250,B250,,,,,Backhoe Loader - 0.0 to 14.0 Ft Standard Digging Depth,Texas,BL,Backhoe Loaders,Four Wheel Drive,OROPS,None or Unspecified,None or Unspecified,No,Standard,Standard,None or Unspecified,,,,,,,,,,,,,,,,,,,,,,,,,
17285,1814984,13000,1075941,132,1.0,1000,,,8/30/2006 0:00,B250,B250,,,,,Backhoe Loader - 0.0 to 14.0 Ft Standard Digging Depth,Georgia,BL,Backhoe Loaders,Four Wheel Drive,OROPS,None or Unspecified,None or Unspecified,No,Standard,Standard,None or Unspecified,,,,,,,,,,,,,,,,,,,,,,,,,
17285,1814985,17500,1075941,132,8.0,1000,,,11/16/2005 0:00,B250,B250,,,,,Backhoe Loader - 0.0 to 14.0 Ft Standard Digging Depth,Mississippi,BL,Backhoe Loaders,Four Wheel Drive,OROPS,None or Unspecified,None or Unspecified,No,Standard,Standard,None or Unspecified,,,,,,,,,,,,,,,,,,,,,,,,,
17285,1814986,20500,1521260,132,4.0,2003,,,2/13/2006 0:00,B250,B250,,,,,Backhoe Loader - 0.0 to 14.0 Ft Standard Digging Depth,Florida,BL,Backhoe Loaders,Four Wheel Drive,EROPS,None or Unspecified,None or Unspecified,No,Standard,Standard,None or Unspecified,,,,,,,,,,,,,,,,,,,,,,,,,
17285,1814987,20500,1521260,132,4.0,2003,,,2/14/2006 0:00,B250,B250,,,,,Backhoe Loader - 0.0 to 14.0 Ft Standard Digging Depth,Florida,BL,Backhoe Loaders,Four Wheel Drive,EROPS,None or Unspecified,None or Unspecified,No,Standard,Standard,None or Unspecified,,,,,,,,,,,,,,,,,,,,,,,,,
17285,1814988,16500,777595,132,2.0,1000,,,11/6/2004 0:00,B250,B250,,,,,Backhoe Loader - 0.0 to 14.0 Ft Standard Digging Depth,Pennsylvania,BL,Backhoe Loaders,Four Wheel Drive,OROPS,None or Unspecified,None or Unspecified,No,Standard,Standard,None or Unspecified,,,,,,,,,,,,,,,,,,,,,,,,,
17285,1814989,14000,777595,132,1.0,2003,,,10/10/2007 0:00,B250,B250,,,,,Backhoe Loader - 0.0 to 14.0 Ft Standard Digging Depth,Florida,BL,Backhoe Loaders,Four Wheel Drive,OROPS,None or Unspecified,None or Unspecified,No,Standard,Standard,None or Unspecified,,,,,,,,,,,,,,,,,,,,,,,,,
17285,1814991,16000,1449214,132,2.0,1000,,,11/6/2004 0:00,B250,B250,,,,,Backhoe Loader - 0.0 to 14.0 Ft Standard Digging Depth,Pennsylvania,BL,Backhoe Loaders,Two Wheel Drive,OROPS,None or Unspecified,None or Unspecified,No,Standard,Standard,None or Unspecified,,,,,,,,,,,,,,,,,,,,,,,,,
17285,1815035,16500,1422449,132,2.0,1000,,,12/14/2005 0:00,B250,B250,,,,,Backhoe Loader - 0.0 to 14.0 Ft Standard Digging Depth,California,BL,Backhoe Loaders,Two Wheel Drive,OROPS,None or Unspecified,None or Unspecified,No,Standard,Standard,None or Unspecified,,,,,,,,,,,,,,,,,,,,,,,,,
17285,1815036,17500,1291175,132,2.0,1000,,,2/4/2007 0:00,B250,B250,,,,,Backhoe Loader - 0.0 to 14.0 Ft Standard Digging Depth,Florida,BL,Backhoe Loaders,Four Wheel Drive,OROPS,None or Unspecified,None or Unspecified,No,Standard,Standard,Yes,,,,,,,,,,,,,,,,,,,,,,,,,
17285,1815037,17500,1291175,132,2.0,2004,,,2/8/2007 0:00,B250,B250,,,,,Backhoe Loader - 0.0 to 14.0 Ft Standard Digging Depth,Florida,BL,Backhoe Loaders,Four Wheel Drive,OROPS,None or Unspecified,None or Unspecified,No,Standard,Standard,Yes,,,,,,,,,,,,,,,,,,,,,,,,,
17285,1815038,15500,1347176,132,1.0,2003,,,3/31/2006 0:00,B250,B250,,,,,Backhoe Loader - 0.0 to 14.0 Ft Standard Digging Depth,North Carolina,BL,Backhoe Loaders,Four Wheel Drive,EROPS,None or Unspecified,None or Unspecified,No,Standard,Standard,None or Unspecified,,,,,,,,,,,,,,,,,,,,,,,,,
17285,1815040,20000,1390436,132,2.0,2004,,,3/23/2006 0:00,B250,B250,,,,,Backhoe Loader - 0.0 to 14.0 Ft Standard Digging Depth,New Jersey,BL,Backhoe Loaders,Two Wheel Drive,OROPS,None or Unspecified,None or Unspecified,No,Standard,Standard,None or Unspecified,,,,,,,,,,,,,,,,,,,,,,,,,
17285,1815041,15500,1405134,132,1.0,2003,,,3/31/2006 0:00,B250,B250,,,,,Backhoe Loader - 0.0 to 14.0 Ft Standard Digging Depth,North Carolina,BL,Backhoe Loaders,Four Wheel Drive,EROPS,None or Unspecified,None or Unspecified,No,Standard,Standard,None or Unspecified,,,,,,,,,,,,,,,,,,,,,,,,,
17285,1815042,19750,1437832,132,8.0,1000,,,9/22/2005 0:00,B250,B250,,,,,Backhoe Loader - 0.0 to 14.0 Ft Standard Digging Depth,Mississippi,BL,Backhoe Loaders,Four Wheel Drive,OROPS,None or Unspecified,None or Unspecified,No,Standard,Standard,None or Unspecified,,,,,,,,,,,,,,,,,,,,,,,,,
17285,1815043,19750,1437832,132,8.0,1000,,,9/14/2005 0:00,B250,B250,,,,,Backhoe Loader - 0.0 to 14.0 Ft Standard Digging Depth,Mississippi,BL,Backhoe Loaders,Four Wheel Drive,OROPS,None or Unspecified,None or Unspecified,No,Standard,Standard,None or Unspecified,,,,,,,,,,,,,,,,,,,,,,,,,
17285,1815044,20500,1437832,132,1.0,2004,,,5/19/2005 0:00,B250,B250,,,,,Backhoe Loader - 0.0 to 14.0 Ft Standard Digging Depth,Kentucky,BL,Backhoe Loaders,Four Wheel Drive,OROPS,None or Unspecified,None or Unspecified,No,Standard,Standard,None or Unspecified,,,,,,,,,,,,,,,,,,,,,,,,,
17285,1815045,17500,1437832,132,8.0,1000,,,11/16/2005 0:00,B250,B250,,,,,Backhoe Loader - 0.0 to 14.0 Ft Standard Digging Depth,Mississippi,BL,Backhoe Loaders,Four Wheel Drive,OROPS,None or Unspecified,None or Unspecified,No,Standard,Standard,None or Unspecified,,,,,,,,,,,,,,,,,,,,,,,,,
17285,1815046,20000,1229352,132,2.0,2004,,,3/23/2006 0:00,B250,B250,,,,,Backhoe Loader - 0.0 to 14.0 Ft Standard Digging Depth,New Jersey,BL,Backhoe Loaders,Four Wheel Drive,OROPS,None or Unspecified,None or Unspecified,No,Standard,Standard,None or Unspecified,,,,,,,,,,,,,,,,,,,,,,,,,
17285,1815047,15500,1367247,132,1.0,2003,,,9/22/2006 0:00,B250,B250,,,,,Backhoe Loader - 0.0 to 14.0 Ft Standard Digging Depth,Minnesota,BL,Backhoe Loaders,,OROPS,None or Unspecified,,,,,,,,,,,,,,,,,,,,,,,,,,,,,,
17285,1815048,15000,1244891,132,2.0,2004,,,12/29/2005 0:00,B250,B250,,,,,Backhoe Loader - 0.0 to 14.0 Ft Standard Digging Depth,New York,BL,Backhoe Loaders,Two Wheel Drive,OROPS,None or Unspecified,None or Unspecified,No,Standard,Standard,None or Unspecified,,,,,,,,,,,,,,,,,,,,,,,,,
17285,1815049,18500,1204140,132,1.0,2004,,,3/22/2007 0:00,B250,B250,,,,,Backhoe Loader - 0.0 to 14.0 Ft Standard Digging Depth,Tennessee,BL,Backhoe Loaders,Four Wheel Drive,OROPS,None or Unspecified,None or Unspecified,No,Standard,Standard,None or Unspecified,,,,,,,,,,,,,,,,,,,,,,,,,
17285,1815051,16500,1021960,132,3.0,2004,,,3/9/2006 0:00,B250,B250,,,,,Backhoe Loader - 0.0 to 14.0 Ft Standard Digging Depth,Unspecified,BL,Backhoe Loaders,Four Wheel Drive,OROPS,None or Unspecified,None or Unspecified,No,Standard,Hydrostatic,None or Unspecified,,,,,,,,,,,,,,,,,,,,,,,,,
17285,1815057,23000,1419174,132,9.0,1000,,,2/22/2006 0:00,B250,B250,,,,,Backhoe Loader - 0.0 to 14.0 Ft Standard Digging Depth,Florida,BL,Backhoe Loaders,Four Wheel Drive,OROPS,None or Unspecified,None or Unspecified,No,Standard,Standard,None or Unspecified,,,,,,,,,,,,,,,,,,,,,,,,,
17285,1815058,18500,1419174,132,2.0,1000,,,5/24/2006 0:00,B250,B250,,,,,Backhoe Loader - 0.0 to 14.0 Ft Standard Digging Depth,Florida,BL,Backhoe Loaders,Four Wheel Drive,OROPS,None or Unspecified,None or Unspecified,No,Standard,Standard,None or Unspecified,,,,,,,,,,,,,,,,,,,,,,,,,
17285,1815059,23000,1419174,132,9.0,1000,,,2/23/2006 0:00,B250,B250,,,,,Backhoe Loader - 0.0 to 14.0 Ft Standard Digging Depth,Florida,BL,Backhoe Loaders,Four Wheel Drive,OROPS,None or Unspecified,None or Unspecified,No,Standard,Standard,None or Unspecified,,,,,,,,,,,,,,,,,,,,,,,,,
17285,1815067,13500,1511247,132,1.0,1999,,,12/1/2005 0:00,B250,B250,,,,,Backhoe Loader - 0.0 to 14.0 Ft Standard Digging Depth,Illinois,BL,Backhoe Loaders,Four Wheel Drive,OROPS,None or Unspecified,None or Unspecified,No,Standard,Standard,None or Unspecified,,,,,,,,,,,,,,,,,,,,,,,,,
17285,1815068,16500,1262127,132,10.0,2005,,,12/13/2005 0:00,B250,B250,,,,,Backhoe Loader - 0.0 to 14.0 Ft Standard Digging Depth,Louisiana,BL,Backhoe Loaders,Two Wheel Drive,OROPS,None or Unspecified,None or Unspecified,No,Standard,Standard,None or Unspecified,,,,,,,,,,,,,,,,,,,,,,,,,
17285,1815070,21000,1452124,132,4.0,2006,,,2/11/2008 0:00,B250,B250,,,,,Backhoe Loader - 0.0 to 14.0 Ft Standard Digging Depth,Florida,BL,Backhoe Loaders,Two Wheel Drive,EROPS w AC,None or Unspecified,None or Unspecified,No,Standard,Standard,None or Unspecified,,,,,,,,,,,,,,,,,,,,,,,,,
17285,1815071,21000,1452124,132,4.0,2006,,,2/12/2008 0:00,B250,B250,,,,,Backhoe Loader - 0.0 to 14.0 Ft Standard Digging Depth,Florida,BL,Backhoe Loaders,Two Wheel Drive,EROPS w AC,None or Unspecified,None or Unspecified,No,Standard,Standard,None or Unspecified,,,,,,,,,,,,,,,,,,,,,,,,,
17285,1815073,22500,1177408,132,4.0,2005,,,2/13/2006 0:00,B250,B250,,,,,Backhoe Loader - 0.0 to 14.0 Ft Standard Digging Depth,Florida,BL,Backhoe Loaders,Two Wheel Drive,OROPS,None or Unspecified,None or Unspecified,No,Standard,Standard,None or Unspecified,,,,,,,,,,,,,,,,,,,,,,,,,
17285,1815075,16750,1410796,132,10.0,2005,,,12/13/2005 0:00,B250,B250,,,,,Backhoe Loader - 0.0 to 14.0 Ft Standard Digging Depth,Louisiana,BL,Backhoe Loaders,Two Wheel Drive,OROPS,None or Unspecified,None or Unspecified,No,Standard,Standard,None or Unspecified,,,,,,,,,,,,,,,,,,,,,,,,,
17285,1815219,18000,1430002,132,10.0,2005,,,12/13/2005 0:00,B250,B250,,,,,Backhoe Loader - 0.0 to 14.0 Ft Standard Digging Depth,Louisiana,BL,Backhoe Loaders,Two Wheel Drive,OROPS,None or Unspecified,None or Unspecified,No,Standard,Standard,None or Unspecified,,,,,,,,,,,,,,,,,,,,,,,,,
17285,2434754,15000,1731658,136,2.0,2005,0.0,,6/19/2010 0:00,B250,B250,,,,,Backhoe Loader - 0.0 to 14.0 Ft Standard Digging Depth,New Jersey,BL,Backhoe Loaders,Two Wheel Drive,EROPS,None or Unspecified,None or Unspecified,No,Standard,Standard,None or Unspecified,,,,,,,,,,,,,,,,,,,,,,,,,
17285,2434761,16000,1449760,136,2.0,1000,0.0,,12/1/2009 0:00,B250,B250,,,,,Backhoe Loader - 0.0 to 14.0 Ft Standard Digging Depth,Texas,BL,Backhoe Loaders,Four Wheel Drive,OROPS,None or Unspecified,None or Unspecified,No,Standard,Standard,None or Unspecified,,,,,,,,,,,,,,,,,,,,,,,,,
