ModelID,SalesID,SalePrice,MachineID,datasource,auctioneerID,YearMade,MachineHoursCurrentMeter,UsageBand,saledate,fiModelDesc,fiBaseModel,fiSecondaryDesc,fiModelSeries,fiModelDescriptor,ProductSize,fiProductClassDesc,state,ProductGroup,ProductGroupDesc,Drive_System,Enclosure,Forks,Pad_Type,Ride_Control,Stick,Transmission,Turbocharged,Blade_Extension,Blade_Width,Enclosure_Type,Engine_Horsepower,Hydraulics,Pushblock,Ripper,Scarifier,Tip_Control,Tire_Size,Coupler,Coupler_System,Grouser_Tracks,Hydraulics_Flow,Track_Type,Undercarriage_Pad_Width,Stick_Length,Thumb,Pattern_Changer,Grouser_Type,Backhoe_Mounting,Blade_Type,Travel_Controls,Differential_Type,Steering_Controls
17316,1144265,14500,1043487,121,3.0,2005,414.0,Low,7/9/2009 0:00,T140,T140,,,,,Skid Steer Loader - 1751.0 to 2201.0 Lb Operating Capacity,Florida,SSL,Skid Steer Loaders,,OROPS,None or Unspecified,,,,,,,,,,Auxiliary,,,,,,Manual,Yes,Yes,Standard,,,,,,,,,,,
17316,1154308,10000,1021587,121,3.0,2006,1339.0,Medium,8/6/2009 0:00,T140,T140,,,,,Skid Steer Loader - 1751.0 to 2201.0 Lb Operating Capacity,Arkansas,SSL,Skid Steer Loaders,,OROPS,None or Unspecified,,,,,,,,,,Auxiliary,,,,,,Manual,Yes,Yes,Standard,,,,,,,,,,,
17316,1160590,14000,1052880,121,3.0,2006,209.0,Low,7/24/2009 0:00,T140,T140,,,,,Skid Steer Loader - 1751.0 to 2201.0 Lb Operating Capacity,Tennessee,SSL,Skid Steer Loaders,,OROPS,None or Unspecified,,,,,,,,,,Auxiliary,,,,,,Manual,Yes,Yes,Standard,,,,,,,,,,,
17316,1161388,14000,1037436,121,3.0,2007,208.0,Low,7/23/2009 0:00,T140,T140,,,,,Skid Steer Loader - 1751.0 to 2201.0 Lb Operating Capacity,California,SSL,Skid Steer Loaders,,OROPS,None or Unspecified,,,,,,,,,,Auxiliary,,,,,,Manual,Yes,Yes,Standard,,,,,,,,,,,
17316,1179896,11000,1040406,121,3.0,2005,1546.0,High,6/12/2008 0:00,T140,T140,,,,,Skid Steer Loader - 1751.0 to 2201.0 Lb Operating Capacity,Georgia,SSL,Skid Steer Loaders,,OROPS,None or Unspecified,,,,,,,,,,Standard,,,,,,Manual,None or Unspecified,Yes,Standard,,,,,,,,,,,
17316,1182074,12500,1044441,121,3.0,2005,1149.0,Medium,8/21/2008 0:00,T140,T140,,,,,Skid Steer Loader - 1751.0 to 2201.0 Lb Operating Capacity,Georgia,SSL,Skid Steer Loaders,,OROPS,None or Unspecified,,,,,,,,,,Auxiliary,,,,,,Manual,Yes,Yes,Standard,,,,,,,,,,,
17316,1182075,12000,1045824,121,3.0,2006,1422.0,High,8/21/2008 0:00,T140,T140,,,,,Skid Steer Loader - 1751.0 to 2201.0 Lb Operating Capacity,Georgia,SSL,Skid Steer Loaders,,OROPS,None or Unspecified,,,,,,,,,,Auxiliary,,,,,,None or Unspecified,None or Unspecified,Yes,Standard,,,,,,,,,,,
17316,1190863,12000,1028789,121,3.0,2005,1189.0,Medium,6/18/2009 0:00,T140,T140,,,,,Skid Steer Loader - 1751.0 to 2201.0 Lb Operating Capacity,Florida,SSL,Skid Steer Loaders,,OROPS,None or Unspecified,,,,,,,,,,Auxiliary,,,,,,Manual,Yes,Yes,Standard,,,,,,,,,,,
17316,1195365,12500,1021587,121,3.0,2006,1348.0,Medium,11/19/2009 0:00,T140,T140,,,,,Skid Steer Loader - 1751.0 to 2201.0 Lb Operating Capacity,Louisiana,SSL,Skid Steer Loaders,,OROPS,None or Unspecified,,,,,,,,,,Auxiliary,,,,,,Manual,Yes,Yes,Standard,,,,,,,,,,,
17316,1201786,13000,770000,121,3.0,2006,674.0,Low,6/10/2010 0:00,T140,T140,,,,,Skid Steer Loader - 1751.0 to 2201.0 Lb Operating Capacity,Florida,SSL,Skid Steer Loaders,,OROPS,None or Unspecified,,,,,,,,,,Standard,,,,,,Manual,Yes,Yes,Standard,,,,,,,,,,,
17316,1209558,10500,1035836,121,3.0,2005,1626.0,Medium,12/9/2010 0:00,T140,T140,,,,,Skid Steer Loader - 1751.0 to 2201.0 Lb Operating Capacity,New Mexico,SSL,Skid Steer Loaders,,OROPS,None or Unspecified,,,,,,,,,,Auxiliary,,,,,,Manual,Yes,Yes,Standard,,,,,,,,,,,
17316,1209560,9000,1011542,121,3.0,2005,1582.0,Medium,12/9/2010 0:00,T140,T140,,,,,Skid Steer Loader - 1751.0 to 2201.0 Lb Operating Capacity,New Mexico,SSL,Skid Steer Loaders,,OROPS,None or Unspecified,,,,,,,,,,Auxiliary,,,,,,Manual,Yes,Yes,Standard,,,,,,,,,,,
17316,1212525,11500,1068992,121,3.0,2006,1359.0,Medium,3/3/2011 0:00,T140,T140,,,,,Skid Steer Loader - 1751.0 to 2201.0 Lb Operating Capacity,Alabama,SSL,Skid Steer Loaders,,OROPS,None or Unspecified,,,,,,,,,,Auxiliary,,,,,,Manual,Yes,Yes,Standard,,,,,,,,,,,
17316,1217828,10500,1052838,121,3.0,2006,1800.0,Medium,9/22/2011 0:00,T140,T140,,,,,Skid Steer Loader - 1751.0 to 2201.0 Lb Operating Capacity,Florida,SSL,Skid Steer Loaders,,OROPS,Yes,,,,,,,,,,Auxiliary,,,,,,Manual,Yes,Yes,Standard,,,,,,,,,,,
17316,1220055,9500,1055807,121,3.0,2006,1703.0,Medium,10/27/2011 0:00,T140,T140,,,,,Skid Steer Loader - 1751.0 to 2201.0 Lb Operating Capacity,Tennessee,SSL,Skid Steer Loaders,,OROPS,None or Unspecified,,,,,,,,,,Auxiliary,,,,,,Manual,Yes,Yes,Standard,,,,,,,,,,,
17316,1812693,14000,1346520,132,1.0,2005,,,3/13/2008 0:00,T140,T140,,,,,Skid Steer Loader - 1751.0 to 2201.0 Lb Operating Capacity,Nevada,SSL,Skid Steer Loaders,,OROPS,None or Unspecified,,,,,,,,,,Standard,,,,,,None or Unspecified,None or Unspecified,None or Unspecified,Standard,,,,,,,,,,,
17316,1812701,15000,1460751,132,1.0,2005,,,8/2/2011 0:00,T140,T140,,,,,Skid Steer Loader - 1751.0 to 2201.0 Lb Operating Capacity,Illinois,SSL,Skid Steer Loaders,,OROPS,None or Unspecified,,,,,,,,,,Standard,,,,,,None or Unspecified,None or Unspecified,None or Unspecified,Standard,,,,,,,,,,,
17316,1812702,11500,1204803,132,2.0,2005,,,1/31/2009 0:00,T140,T140,,,,,Skid Steer Loader - 1751.0 to 2201.0 Lb Operating Capacity,Florida,SSL,Skid Steer Loaders,,OROPS,None or Unspecified,,,,,,,,,,Standard,,,,,,None or Unspecified,None or Unspecified,None or Unspecified,Standard,,,,,,,,,,,
17316,1812703,11500,1204803,132,2.0,2005,,,2/4/2009 0:00,T140,T140,,,,,Skid Steer Loader - 1751.0 to 2201.0 Lb Operating Capacity,Florida,SSL,Skid Steer Loaders,,OROPS,None or Unspecified,,,,,,,,,,Standard,,,,,,None or Unspecified,None or Unspecified,None or Unspecified,Standard,,,,,,,,,,,
17316,1812706,14000,1390872,132,1.0,2005,,,9/28/2007 0:00,T140,T140,,,,,Skid Steer Loader - 1751.0 to 2201.0 Lb Operating Capacity,North Carolina,SSL,Skid Steer Loaders,,OROPS,None or Unspecified,,,,,,,,,,Standard,,,,,,None or Unspecified,None or Unspecified,None or Unspecified,Standard,,,,,,,,,,,
17316,1812712,9500,1339612,132,99.0,2005,802.0,Medium,11/14/2009 0:00,T140,T140,,,,,Skid Steer Loader - 1751.0 to 2201.0 Lb Operating Capacity,Tennessee,SSL,Skid Steer Loaders,,OROPS,None or Unspecified,,,,,,,,,,Standard,,,,,,None or Unspecified,None or Unspecified,Yes,Standard,,,,,,,,,,,
17316,1812713,16500,1242602,132,1.0,2005,,,11/14/2007 0:00,T140,T140,,,,,Skid Steer Loader - 1751.0 to 2201.0 Lb Operating Capacity,Georgia,SSL,Skid Steer Loaders,,OROPS,None or Unspecified,,,,,,,,,,Standard,,,,,,None or Unspecified,None or Unspecified,None or Unspecified,Standard,,,,,,,,,,,
17316,1812714,8500,1409851,132,1.0,2006,,,7/9/2009 0:00,T140,T140,,,,,Skid Steer Loader - 1751.0 to 2201.0 Lb Operating Capacity,Texas,SSL,Skid Steer Loaders,,OROPS,None or Unspecified,,,,,,,,,,Standard,,,,,,None or Unspecified,None or Unspecified,None or Unspecified,Standard,,,,,,,,,,,
17316,1813106,12500,1534703,132,2.0,2006,,,5/26/2009 0:00,T140,T140,,,,,Skid Steer Loader - 1751.0 to 2201.0 Lb Operating Capacity,Florida,SSL,Skid Steer Loaders,,OROPS,None or Unspecified,,,,,,,,,,Standard,,,,,,None or Unspecified,None or Unspecified,None or Unspecified,Standard,,,,,,,,,,,
17316,1813107,13000,782983,132,1.0,2005,946.0,High,2/22/2008 0:00,T140,T140,,,,,Skid Steer Loader - 1751.0 to 2201.0 Lb Operating Capacity,Florida,SSL,Skid Steer Loaders,,OROPS,None or Unspecified,,,,,,,,,,Auxiliary,,,,,,None or Unspecified,None or Unspecified,None or Unspecified,Standard,,,,,,,,,,,
17316,1813108,13000,782983,132,1.0,2005,,,2/19/2008 0:00,T140,T140,,,,,Skid Steer Loader - 1751.0 to 2201.0 Lb Operating Capacity,Florida,SSL,Skid Steer Loaders,,OROPS,None or Unspecified,,,,,,,,,,Auxiliary,,,,,,None or Unspecified,None or Unspecified,None or Unspecified,Standard,,,,,,,,,,,
17316,1813110,13000,1239531,132,1.0,2006,,,10/15/2008 0:00,T140,T140,,,,,Skid Steer Loader - 1751.0 to 2201.0 Lb Operating Capacity,Florida,SSL,Skid Steer Loaders,,OROPS,None or Unspecified,,,,,,,,,,Standard,,,,,,None or Unspecified,None or Unspecified,None or Unspecified,Standard,,,,,,,,,,,
17316,1813111,16000,1425216,132,1.0,2006,,,10/10/2007 0:00,T140,T140,,,,,Skid Steer Loader - 1751.0 to 2201.0 Lb Operating Capacity,Florida,SSL,Skid Steer Loaders,,OROPS,None or Unspecified,,,,,,,,,,Standard,,,,,,None or Unspecified,None or Unspecified,None or Unspecified,Standard,,,,,,,,,,,
17316,1813119,10500,1151080,132,1.0,2006,860.0,Medium,11/20/2008 0:00,T140,T140,,,,,Skid Steer Loader - 1751.0 to 2201.0 Lb Operating Capacity,Georgia,SSL,Skid Steer Loaders,,OROPS,None or Unspecified,,,,,,,,,,Standard,,,,,,None or Unspecified,None or Unspecified,None or Unspecified,Standard,,,,,,,,,,,
17316,1813122,12000,1217877,132,1.0,2006,,,7/24/2008 0:00,T140,T140,,,,,Skid Steer Loader - 1751.0 to 2201.0 Lb Operating Capacity,Tennessee,SSL,Skid Steer Loaders,,OROPS,None or Unspecified,,,,,,,,,,Standard,,,,,,None or Unspecified,None or Unspecified,None or Unspecified,Standard,,,,,,,,,,,
17316,1813123,13000,1217877,132,10.0,2006,1635.0,High,10/21/2008 0:00,T140,T140,,,,,Skid Steer Loader - 1751.0 to 2201.0 Lb Operating Capacity,Louisiana,SSL,Skid Steer Loaders,,OROPS,None or Unspecified,,,,,,,,,,Standard,,,,,,None or Unspecified,None or Unspecified,None or Unspecified,Standard,,,,,,,,,,,
17316,1813126,10000,1231121,132,2.0,2006,,,2/3/2010 0:00,T140,T140,,,,,Skid Steer Loader - 1751.0 to 2201.0 Lb Operating Capacity,Florida,SSL,Skid Steer Loaders,,OROPS,None or Unspecified,,,,,,,,,,Standard,,,,,,None or Unspecified,None or Unspecified,None or Unspecified,Standard,,,,,,,,,,,
17316,1813127,10000,1231121,132,2.0,2006,,,1/31/2010 0:00,T140,T140,,,,,Skid Steer Loader - 1751.0 to 2201.0 Lb Operating Capacity,Florida,SSL,Skid Steer Loaders,,OROPS,None or Unspecified,,,,,,,,,,Standard,,,,,,None or Unspecified,None or Unspecified,None or Unspecified,Standard,,,,,,,,,,,
17316,1813128,9800,1461665,132,4.0,2006,,,2/9/2009 0:00,T140,T140,,,,,Skid Steer Loader - 1751.0 to 2201.0 Lb Operating Capacity,Florida,SSL,Skid Steer Loaders,,OROPS,None or Unspecified,,,,,,,,,,Standard,,,,,,None or Unspecified,None or Unspecified,None or Unspecified,Standard,,,,,,,,,,,
17316,1813129,10700,1125504,132,4.0,2006,,,2/10/2009 0:00,T140,T140,,,,,Skid Steer Loader - 1751.0 to 2201.0 Lb Operating Capacity,Florida,SSL,Skid Steer Loaders,,OROPS,None or Unspecified,,,,,,,,,,Standard,,,,,,None or Unspecified,None or Unspecified,None or Unspecified,Standard,,,,,,,,,,,
17316,1813130,10700,1125504,132,4.0,2006,,,2/9/2009 0:00,T140,T140,,,,,Skid Steer Loader - 1751.0 to 2201.0 Lb Operating Capacity,Florida,SSL,Skid Steer Loaders,,OROPS,None or Unspecified,,,,,,,,,,Standard,,,,,,None or Unspecified,None or Unspecified,None or Unspecified,Standard,,,,,,,,,,,
17316,1813131,15000,1096504,132,4.0,2006,,,2/8/2010 0:00,T140,T140,,,,,Skid Steer Loader - 1751.0 to 2201.0 Lb Operating Capacity,Florida,SSL,Skid Steer Loaders,,OROPS,None or Unspecified,,,,,,,,,,Standard,,,,,,None or Unspecified,None or Unspecified,None or Unspecified,Standard,,,,,,,,,,,
17316,1813132,15000,1096504,132,4.0,2006,,,2/9/2010 0:00,T140,T140,,,,,Skid Steer Loader - 1751.0 to 2201.0 Lb Operating Capacity,Florida,SSL,Skid Steer Loaders,,OROPS,None or Unspecified,,,,,,,,,,Standard,,,,,,None or Unspecified,None or Unspecified,None or Unspecified,Standard,,,,,,,,,,,
17316,1813133,19000,1281993,132,1.0,2006,639.0,Medium,3/18/2008 0:00,T140,T140,,,,,Skid Steer Loader - 1751.0 to 2201.0 Lb Operating Capacity,Washington,SSL,Skid Steer Loaders,,OROPS,None or Unspecified,,,,,,,,,,Standard,,,,,,None or Unspecified,None or Unspecified,None or Unspecified,Standard,,,,,,,,,,,
17316,1813136,11000,1323768,132,1.0,2006,268.0,Low,12/9/2008 0:00,T140,T140,,,,,Skid Steer Loader - 1751.0 to 2201.0 Lb Operating Capacity,North Carolina,SSL,Skid Steer Loaders,,OROPS,None or Unspecified,,,,,,,,,,Standard,,,,,,None or Unspecified,None or Unspecified,None or Unspecified,Standard,,,,,,,,,,,
17316,1813139,20000,1313257,132,1.0,2006,,,3/13/2008 0:00,T140,T140,,,,,Skid Steer Loader - 1751.0 to 2201.0 Lb Operating Capacity,Nevada,SSL,Skid Steer Loaders,,OROPS,None or Unspecified,,,,,,,,,,Auxiliary,,,,,,None or Unspecified,None or Unspecified,None or Unspecified,Standard,,,,,,,,,,,
17316,1813140,13000,1313257,132,1.0,2006,,,11/12/2008 0:00,T140,T140,,,,,Skid Steer Loader - 1751.0 to 2201.0 Lb Operating Capacity,Arizona,SSL,Skid Steer Loaders,,OROPS,None or Unspecified,,,,,,,,,,Auxiliary,,,,,,None or Unspecified,None or Unspecified,None or Unspecified,Standard,,,,,,,,,,,
17316,1813143,17000,1497695,132,8.0,2007,159.0,Low,7/21/2010 0:00,T140,T140,,,,,Skid Steer Loader - 1751.0 to 2201.0 Lb Operating Capacity,Mississippi,SSL,Skid Steer Loaders,,OROPS,None or Unspecified,,,,,,,,,,Standard,,,,,,None or Unspecified,None or Unspecified,None or Unspecified,Standard,,,,,,,,,,,
17316,1815141,12000,1314166,132,1.0,2006,,,9/10/2009 0:00,T140,T140,,,,,Skid Steer Loader - 1751.0 to 2201.0 Lb Operating Capacity,Georgia,SSL,Skid Steer Loaders,,OROPS,None or Unspecified,,,,,,,,,,Standard,,,,,,None or Unspecified,None or Unspecified,None or Unspecified,Standard,,,,,,,,,,,
17316,2432953,13000,1160007,136,1.0,2005,617.0,Low,6/30/2010 0:00,T140,T140,,,,,Skid Steer Loader - 1751.0 to 2201.0 Lb Operating Capacity,North Carolina,SSL,Skid Steer Loaders,,OROPS,None or Unspecified,,,,,,,,,,Auxiliary,,,,,,None or Unspecified,None or Unspecified,Yes,High Flow,,,,,,,,,,,
17316,2432954,10500,1656278,136,,2005,1760.0,Medium,8/25/2009 0:00,T140,T140,,,,,Skid Steer Loader - 1751.0 to 2201.0 Lb Operating Capacity,Texas,SSL,Skid Steer Loaders,,OROPS,None or Unspecified,,,,,,,,,,Auxiliary,,,,,,Manual,Yes,Yes,Standard,,,,,,,,,,,
17316,2432956,13000,1390780,136,1.0,2006,659.0,Low,6/30/2010 0:00,T140,T140,,,,,Skid Steer Loader - 1751.0 to 2201.0 Lb Operating Capacity,North Carolina,SSL,Skid Steer Loaders,,OROPS,None or Unspecified,,,,,,,,,,Auxiliary,,,,,,None or Unspecified,None or Unspecified,Yes,High Flow,,,,,,,,,,,
17316,2432957,10500,46957,136,,2005,1656.0,Medium,8/25/2009 0:00,T140,T140,,,,,Skid Steer Loader - 1751.0 to 2201.0 Lb Operating Capacity,Texas,SSL,Skid Steer Loaders,,OROPS,None or Unspecified,,,,,,,,,,Auxiliary,,,,,,Hydraulic,Yes,Yes,Standard,,,,,,,,,,,
17316,2432958,8500,1326656,136,1.0,2006,0.0,,9/23/2009 0:00,T140,T140,,,,,Skid Steer Loader - 1751.0 to 2201.0 Lb Operating Capacity,Texas,SSL,Skid Steer Loaders,,OROPS,None or Unspecified,,,,,,,,,,Auxiliary,,,,,,None or Unspecified,None or Unspecified,Yes,Standard,,,,,,,,,,,
17316,2432960,9500,1647173,136,,2005,1423.0,Medium,8/25/2009 0:00,T140,T140,,,,,Skid Steer Loader - 1751.0 to 2201.0 Lb Operating Capacity,Texas,SSL,Skid Steer Loaders,,OROPS,None or Unspecified,,,,,,,,,,Auxiliary,,,,,,Manual,Yes,Yes,Standard,,,,,,,,,,,
17316,2432962,8000,1123024,136,1.0,2004,0.0,,9/10/2009 0:00,T140,T140,,,,,Skid Steer Loader - 1751.0 to 2201.0 Lb Operating Capacity,Georgia,SSL,Skid Steer Loaders,,OROPS,None or Unspecified,,,,,,,,,,Auxiliary,,,,,,None or Unspecified,None or Unspecified,Yes,Standard,,,,,,,,,,,
17316,2432963,13000,1339612,136,99.0,1000,795.0,Medium,3/7/2009 0:00,T140,T140,,,,,Skid Steer Loader - 1751.0 to 2201.0 Lb Operating Capacity,Tennessee,SSL,Skid Steer Loaders,,OROPS,None or Unspecified,,,,,,,,,,Standard,,,,,,None or Unspecified,None or Unspecified,Yes,Standard,,,,,,,,,,,
17316,2433422,11000,1461834,136,8.0,2006,573.0,Low,5/28/2009 0:00,T140,T140,,,,,Skid Steer Loader - 1751.0 to 2201.0 Lb Operating Capacity,Mississippi,SSL,Skid Steer Loaders,,OROPS,None or Unspecified,,,,,,,,,,Standard,,,,,,None or Unspecified,None or Unspecified,None or Unspecified,Standard,,,,,,,,,,,
17316,2433428,12000,1369258,136,1.0,2006,0.0,,9/10/2009 0:00,T140,T140,,,,,Skid Steer Loader - 1751.0 to 2201.0 Lb Operating Capacity,Georgia,SSL,Skid Steer Loaders,,OROPS,None or Unspecified,,,,,,,,,,Auxiliary,,,,,,None or Unspecified,None or Unspecified,Yes,Standard,,,,,,,,,,,
17316,2433430,14500,1226082,136,1.0,2007,0.0,,6/18/2009 0:00,T140,T140,,,,,Skid Steer Loader - 1751.0 to 2201.0 Lb Operating Capacity,Georgia,SSL,Skid Steer Loaders,,OROPS,None or Unspecified,,,,,,,,,,Auxiliary,,,,,,None or Unspecified,None or Unspecified,Yes,Standard,,,,,,,,,,,
17316,2433433,10000,1704734,136,,2007,360.0,Low,9/24/2009 0:00,T140,T140,,,,,Skid Steer Loader - 1751.0 to 2201.0 Lb Operating Capacity,Oklahoma,SSL,Skid Steer Loaders,,OROPS,None or Unspecified,,,,,,,,,,Standard,,,,,,None or Unspecified,None or Unspecified,None or Unspecified,Standard,,,,,,,,,,,
17316,2720835,12500,1482504,149,1.0,2005,1287.0,Medium,2/15/2010 0:00,T140,T140,,,,,Skid Steer Loader - 1751.0 to 2201.0 Lb Operating Capacity,Florida,SSL,Skid Steer Loaders,,OROPS,None or Unspecified,,,,,,,,,,Auxiliary,,,,,,None or Unspecified,None or Unspecified,Yes,Standard,,,,,,,,,,,
17316,2720841,9000,1267939,149,1.0,1000,0.0,,8/24/2010 0:00,T140,T140,,,,,Skid Steer Loader - 1751.0 to 2201.0 Lb Operating Capacity,Maryland,SSL,Skid Steer Loaders,,OROPS,None or Unspecified,,,,,,,,,,Auxiliary,,,,,,None or Unspecified,None or Unspecified,None or Unspecified,Standard,,,,,,,,,,,
17316,2720842,11750,1258052,149,27.0,2006,1001.0,Medium,12/28/2010 0:00,T140,T140,,,,,Skid Steer Loader - 1751.0 to 2201.0 Lb Operating Capacity,North Carolina,SSL,Skid Steer Loaders,,OROPS,None or Unspecified,,,,,,,,,,Standard,,,,,,None or Unspecified,None or Unspecified,None or Unspecified,Standard,,,,,,,,,,,
17316,2720843,8500,1793134,149,99.0,1000,0.0,,5/21/2011 0:00,T140,T140,,,,,Skid Steer Loader - 1751.0 to 2201.0 Lb Operating Capacity,California,SSL,Skid Steer Loaders,,OROPS,None or Unspecified,,,,,,,,,,Auxiliary,,,,,,None or Unspecified,None or Unspecified,None or Unspecified,Standard,,,,,,,,,,,
17316,2721817,9000,1298810,149,1.0,2006,2764.0,High,2/15/2010 0:00,T140,T140,,,,,Skid Steer Loader - 1751.0 to 2201.0 Lb Operating Capacity,Florida,SSL,Skid Steer Loaders,,OROPS,None or Unspecified,,,,,,,,,,Auxiliary,,,,,,None or Unspecified,None or Unspecified,Yes,Standard,,,,,,,,,,,
17316,2721819,14000,1392594,149,99.0,2006,526.0,Low,3/5/2011 0:00,T140,T140,,,,,Skid Steer Loader - 1751.0 to 2201.0 Lb Operating Capacity,California,SSL,Skid Steer Loaders,,OROPS,None or Unspecified,,,,,,,,,,Auxiliary,,,,,,None or Unspecified,None or Unspecified,None or Unspecified,Standard,,,,,,,,,,,
17316,2721828,12000,1540397,149,1.0,2006,0.0,,3/30/2010 0:00,T140,T140,,,,,Skid Steer Loader - 1751.0 to 2201.0 Lb Operating Capacity,Maryland,SSL,Skid Steer Loaders,,OROPS,None or Unspecified,,,,,,,,,,Auxiliary,,,,,,None or Unspecified,None or Unspecified,None or Unspecified,Standard,,,,,,,,,,,
17316,2721840,17000,1497695,149,99.0,2007,0.0,,7/15/2010 0:00,T140,T140,,,,,Skid Steer Loader - 1751.0 to 2201.0 Lb Operating Capacity,Mississippi,SSL,Skid Steer Loaders,,OROPS,None or Unspecified,,,,,,,,,,Standard,,,,,,None or Unspecified,None or Unspecified,None or Unspecified,Standard,,,,,,,,,,,
17316,2725621,17500,1407541,149,1.0,2008,0.0,,2/15/2011 0:00,T140,T140,,,,,Skid Steer Loader - 1751.0 to 2201.0 Lb Operating Capacity,Florida,SSL,Skid Steer Loaders,,OROPS,None or Unspecified,,,,,,,,,,Auxiliary,,,,,,None or Unspecified,None or Unspecified,None or Unspecified,High Flow,,,,,,,,,,,
17316,2725623,18000,1233863,149,1.0,2008,417.0,Medium,2/15/2010 0:00,T140,T140,,,,,Skid Steer Loader - 1751.0 to 2201.0 Lb Operating Capacity,Florida,SSL,Skid Steer Loaders,,OROPS,None or Unspecified,,,,,,,,,,Auxiliary,,,,,,None or Unspecified,None or Unspecified,Yes,Standard,,,,,,,,,,,
17316,2725624,18000,1405628,149,1.0,2007,81.0,Low,2/15/2010 0:00,T140,T140,,,,,Skid Steer Loader - 1751.0 to 2201.0 Lb Operating Capacity,Florida,SSL,Skid Steer Loaders,,OROPS,None or Unspecified,,,,,,,,,,Auxiliary,,,,,,None or Unspecified,None or Unspecified,Yes,Standard,,,,,,,,,,,
17316,2725625,17500,1086382,149,1.0,2008,0.0,,2/15/2011 0:00,T140,T140,,,,,Skid Steer Loader - 1751.0 to 2201.0 Lb Operating Capacity,Florida,SSL,Skid Steer Loaders,,OROPS,None or Unspecified,,,,,,,,,,Auxiliary,,,,,,Manual,Yes,None or Unspecified,High Flow,,,,,,,,,,,
17316,4374747,10000,1238310,172,1.0,2005,200.0,Low,3/17/2010 0:00,T140,T140,,,,,Skid Steer Loader - 1751.0 to 2201.0 Lb Operating Capacity,Ohio,SSL,Skid Steer Loaders,,OROPS,None or Unspecified,,,,,,,,,,Auxiliary,,,,,,None or Unspecified,None or Unspecified,Yes,Standard,,,,,,,,,,,
17316,4374752,11000,1272778,172,1.0,2005,1531.0,Medium,2/16/2009 0:00,T140,T140,,,,,Skid Steer Loader - 1751.0 to 2201.0 Lb Operating Capacity,Florida,SSL,Skid Steer Loaders,,OROPS,None or Unspecified,,,,,,,,,,Auxiliary,,,,,,None or Unspecified,None or Unspecified,None or Unspecified,Standard,,,,,,,,,,,
17316,4375329,11000,1388086,172,1.0,2006,1372.0,Medium,2/16/2009 0:00,T140,T140,,,,,Skid Steer Loader - 1751.0 to 2201.0 Lb Operating Capacity,Florida,SSL,Skid Steer Loaders,,OROPS,None or Unspecified,,,,,,,,,,Auxiliary,,,,,,None or Unspecified,None or Unspecified,None or Unspecified,Standard,,,,,,,,,,,
17316,4375331,11000,1345906,172,1.0,2006,,,2/16/2009 0:00,T140,T140,,,,,Skid Steer Loader - 1751.0 to 2201.0 Lb Operating Capacity,Florida,SSL,Skid Steer Loaders,,OROPS,None or Unspecified,,,,,,,,,,Auxiliary,,,,,,None or Unspecified,None or Unspecified,None or Unspecified,Standard,,,,,,,,,,,
17316,4375332,13500,1494333,172,1.0,2006,,,12/2/2009 0:00,T140,T140,,,,,Skid Steer Loader - 1751.0 to 2201.0 Lb Operating Capacity,Texas,SSL,Skid Steer Loaders,,OROPS,None or Unspecified,,,,,,,,,,Auxiliary,,,,,,None or Unspecified,None or Unspecified,None or Unspecified,Standard,,,,,,,,,,,
17316,6311838,18000,1826325,149,1.0,2006,,,12/20/2011 0:00,T140,T140,,,,,Skid Steer Loader - 1751.0 to 2201.0 Lb Operating Capacity,Washington,SSL,Skid Steer Loaders,,OROPS,None or Unspecified,,,,,,,,,,Auxiliary,,,,,,None or Unspecified,None or Unspecified,None or Unspecified,Standard,,,,,,,,,,,
17316,6311840,18000,1068992,149,1.0,2006,,,12/20/2011 0:00,T140,T140,,,,,Skid Steer Loader - 1751.0 to 2201.0 Lb Operating Capacity,Washington,SSL,Skid Steer Loaders,,OROPS,None or Unspecified,,,,,,,,,,Auxiliary,,,,,,Manual,Yes,Yes,Standard,,,,,,,,,,,
