ModelID,SalesID,SalePrice,MachineID,datasource,auctioneerID,YearMade,MachineHoursCurrentMeter,UsageBand,saledate,fiModelDesc,fiBaseModel,fiSecondaryDesc,fiModelSeries,fiModelDescriptor,ProductSize,fiProductClassDesc,state,ProductGroup,ProductGroupDesc,Drive_System,Enclosure,Forks,Pad_Type,Ride_Control,Stick,Transmission,Turbocharged,Blade_Extension,Blade_Width,Enclosure_Type,Engine_Horsepower,Hydraulics,Pushblock,Ripper,Scarifier,Tip_Control,Tire_Size,Coupler,Coupler_System,Grouser_Tracks,Hydraulics_Flow,Track_Type,Undercarriage_Pad_Width,Stick_Length,Thumb,Pattern_Changer,Grouser_Type,Backhoe_Mounting,Blade_Type,Travel_Controls,Differential_Type,Steering_Controls
17405,2439324,13500,1682510,136,20.0,1000,0.0,,12/9/2009 0:00,EC240,EC240,,,,Large / Medium,"Hydraulic Excavator, Track - 24.0 to 28.0 Metric Tons",Arkansas,TEX,Track Excavators,,EROPS,,,,,,,,,,,Standard,,,,,,None or Unspecified,,,,Steel,None or Unspecified,None or Unspecified,None or Unspecified,None or Unspecified,Triple,,,,,
17405,2439325,17500,1673485,136,,2002,0.0,,7/23/2009 0:00,EC240,EC240,,,,Large / Medium,"Hydraulic Excavator, Track - 24.0 to 28.0 Metric Tons",North Carolina,TEX,Track Excavators,,EROPS w AC,,,,,,,,,,,Standard,,,,,,None or Unspecified,,,,Steel,None or Unspecified,None or Unspecified,None or Unspecified,None or Unspecified,Double,,,,,
17405,6315119,36000,1796474,149,2.0,2003,,,12/30/2011 0:00,EC240,EC240,,,,Large / Medium,"Hydraulic Excavator, Track - 24.0 to 28.0 Metric Tons",New York,TEX,Track Excavators,,EROPS,,,,,,,,,,,Standard,,,,,,None or Unspecified,,,,Steel,None or Unspecified,None or Unspecified,None or Unspecified,None or Unspecified,Double,,,,,
