ModelID,SalesID,SalePrice,MachineID,datasource,auctioneerID,YearMade,MachineHoursCurrentMeter,UsageBand,saledate,fiModelDesc,fiBaseModel,fiSecondaryDesc,fiModelSeries,fiModelDescriptor,ProductSize,fiProductClassDesc,state,ProductGroup,ProductGroupDesc,Drive_System,Enclosure,Forks,Pad_Type,Ride_Control,Stick,Transmission,Turbocharged,Blade_Extension,Blade_Width,Enclosure_Type,Engine_Horsepower,Hydraulics,Pushblock,Ripper,Scarifier,Tip_Control,Tire_Size,Coupler,Coupler_System,Grouser_Tracks,Hydraulics_Flow,Track_Type,Undercarriage_Pad_Width,Stick_Length,Thumb,Pattern_Changer,Grouser_Type,Backhoe_Mounting,Blade_Type,Travel_Controls,Differential_Type,Steering_Controls
17433,1184912,25000,1067416,121,3.0,2006,297.0,Low,11/20/2008 0:00,LB90B,LB90,B,,,,Backhoe Loader - 16.0 + Ft Standard Digging Depth,Texas,BL,Backhoe Loaders,Four Wheel Drive,OROPS,None or Unspecified,None or Unspecified,No,Extended,Standard,None or Unspecified,,,,,,,,,,,,,,,,,,,,,,,,,
17433,1187921,23500,1065153,121,3.0,2004,3881.0,High,3/12/2009 0:00,LB90B,LB90,B,,,,Backhoe Loader - 16.0 + Ft Standard Digging Depth,Arkansas,BL,Backhoe Loaders,Four Wheel Drive,EROPS w AC,Yes,None or Unspecified,No,Extended,Powershuttle,None or Unspecified,,,,,,,,,,,,,,,,,,,,,,,,,
17433,2438096,15000,1698237,136,1.0,2004,0.0,,6/10/2010 0:00,LB90B,LB90,B,,,,Backhoe Loader - 16.0 + Ft Standard Digging Depth,Colorado,BL,Backhoe Loaders,Two Wheel Drive,EROPS w AC,None or Unspecified,None or Unspecified,Yes,Standard,Standard,None or Unspecified,,,,,,,,,,,,,,,,,,,,,,,,,
