SalesID,1168683
SalePrice,6000
MachineID,1021221
datasource,121
auctioneerID,3.0
YearMade,1997
MachineHoursCurrentMeter,0.0
UsageBand,
saledate,6/29/2006 0:00
fiModelDesc,LX485
fiBaseModel,LX485
fiSecondaryDesc,
fiModelSeries,
fiModelDescriptor,
ProductSize,
fiProductClassDesc,Skid Steer Loader - 1251.0 to 1351.0 Lb Operating Capacity
state,Wisconsin
ProductGroup,SSL
ProductGroupDesc,Skid Steer Loaders
Drive_System,
Enclosure,OROPS
Forks,None or Unspecified
Pad_Type,
Ride_Control,
Stick,
Transmission,
Turbocharged,
Blade_Extension,
Blade_Width,
Enclosure_Type,
Engine_Horsepower,
Hydraulics,Auxiliary
Pushblock,
Ripper,
Scarifier,
Tip_Control,
Tire_Size,
Coupler,None or Unspecified
Coupler_System,None or Unspecified
Grouser_Tracks,None or Unspecified
Hydraulics_Flow,Standard
Track_Type,
Undercarriage_Pad_Width,
Stick_Length,
Thumb,
Pattern_Changer,
Grouser_Type,
Backhoe_Mounting,
Blade_Type,
Travel_Controls,
Differential_Type,
Steering_Controls,
