ModelID,SalesID,SalePrice,MachineID,datasource,auctioneerID,YearMade,MachineHoursCurrentMeter,UsageBand,saledate,fiModelDesc,fiBaseModel,fiSecondaryDesc,fiModelSeries,fiModelDescriptor,ProductSize,fiProductClassDesc,state,ProductGroup,ProductGroupDesc,Drive_System,Enclosure,Forks,Pad_Type,Ride_Control,Stick,Transmission,Turbocharged,Blade_Extension,Blade_Width,Enclosure_Type,Engine_Horsepower,Hydraulics,Pushblock,Ripper,Scarifier,Tip_Control,Tire_Size,Coupler,Coupler_System,Grouser_Tracks,Hydraulics_Flow,Track_Type,Undercarriage_Pad_Width,Stick_Length,Thumb,Pattern_Changer,Grouser_Type,Backhoe_Mounting,Blade_Type,Travel_Controls,Differential_Type,Steering_Controls
17572,1825355,50000,1502133,132,1.0,1991,,,10/20/1994 0:00,SE210LC,SE210,LC,,,Large / Medium,"Hydraulic Excavator, Track - 19.0 to 21.0 Metric Tons",Texas,TEX,Track Excavators,,EROPS,,,,,,,,,,,Standard,,,,,,None or Unspecified,,,,Steel,None or Unspecified,"9' 6""",None or Unspecified,None or Unspecified,Triple,,,,,
17572,1825895,22000,1340197,132,1.0,1992,,,3/24/1999 0:00,SE210LC,SE210,LC,,,Large / Medium,"Hydraulic Excavator, Track - 19.0 to 21.0 Metric Tons",Washington,TEX,Track Excavators,,EROPS,,,,,,,,,,,Standard,,,,,,None or Unspecified,,,,Steel,None or Unspecified,None or Unspecified,None or Unspecified,None or Unspecified,Double,,,,,
17572,1825902,28000,1229390,132,2.0,1000,,,5/20/2000 0:00,SE210LC,SE210,LC,,,Large / Medium,"Hydraulic Excavator, Track - 19.0 to 21.0 Metric Tons",Connecticut,TEX,Track Excavators,,EROPS,,,,,,,,,,,Standard,,,,,,None or Unspecified,,,,Steel,None or Unspecified,None or Unspecified,None or Unspecified,None or Unspecified,Double,,,,,
17572,1825907,22000,1448235,132,1.0,1000,,,9/25/1998 0:00,SE210LC,SE210,LC,,,Large / Medium,"Hydraulic Excavator, Track - 19.0 to 21.0 Metric Tons",New Mexico,TEX,Track Excavators,,EROPS,,,,,,,,,,,Auxiliary,,,,,,None or Unspecified,,,,Steel,None or Unspecified,"9' 6""",None or Unspecified,None or Unspecified,Double,,,,,
17572,1825913,27500,1477986,132,99.0,1992,,,7/20/2000 0:00,SE210LC,SE210,LC,,,Large / Medium,"Hydraulic Excavator, Track - 19.0 to 21.0 Metric Tons",South Carolina,TEX,Track Excavators,,EROPS w AC,,,,,,,,,,,Auxiliary,,,,,,None or Unspecified,,,,Steel,None or Unspecified,None or Unspecified,None or Unspecified,None or Unspecified,Double,,,,,
17572,1825914,35000,1477986,132,2.0,1993,,,2/7/2000 0:00,SE210LC,SE210,LC,,,Large / Medium,"Hydraulic Excavator, Track - 19.0 to 21.0 Metric Tons",Florida,TEX,Track Excavators,,EROPS w AC,,,,,,,,,,,Auxiliary,,,,,,None or Unspecified,,,,Steel,None or Unspecified,None or Unspecified,None or Unspecified,None or Unspecified,Double,,,,,
17572,1825918,17000,1479038,132,1.0,1000,,,8/26/2004 0:00,SE210LC,SE210,LC,,,Large / Medium,"Hydraulic Excavator, Track - 19.0 to 21.0 Metric Tons",Missouri,TEX,Track Excavators,,EROPS,,,,,,,,,,,Auxiliary,,,,,,None or Unspecified,,,,Steel,None or Unspecified,"9' 6""",None or Unspecified,None or Unspecified,Double,,,,,
17572,1825919,37000,1535804,132,2.0,1995,,,9/18/1999 0:00,SE210LC,SE210,LC,,,Large / Medium,"Hydraulic Excavator, Track - 19.0 to 21.0 Metric Tons",New Jersey,TEX,Track Excavators,,EROPS w AC,,,,,,,,,,,Standard,,,,,,None or Unspecified,,,,Steel,None or Unspecified,None or Unspecified,Manual,None or Unspecified,Double,,,,,
17572,1825920,37000,1538817,132,1.0,1993,,,6/22/1999 0:00,SE210LC,SE210,LC,,,Large / Medium,"Hydraulic Excavator, Track - 19.0 to 21.0 Metric Tons",Washington,TEX,Track Excavators,,EROPS,,,,,,,,,,,Standard,,,,,,None or Unspecified,,,,Steel,None or Unspecified,None or Unspecified,Manual,None or Unspecified,Double,,,,,
17572,1825931,53500,1461897,132,16.0,1991,,,6/24/1997 0:00,SE210LC,SE210,LC,,,Large / Medium,"Hydraulic Excavator, Track - 19.0 to 21.0 Metric Tons",Illinois,TEX,Track Excavators,,EROPS,,,,,,,,,,,Standard,,,,,,None or Unspecified,,,,Steel,None or Unspecified,None or Unspecified,None or Unspecified,None or Unspecified,Double,,,,,
17572,1825934,62000,1428187,132,1.0,1992,,,9/20/1994 0:00,SE210LC,SE210,LC,,,Large / Medium,"Hydraulic Excavator, Track - 19.0 to 21.0 Metric Tons",Texas,TEX,Track Excavators,,EROPS,,,,,,,,,,,Standard,,,,,,None or Unspecified,,,,Steel,None or Unspecified,"9' 6""",None or Unspecified,None or Unspecified,Triple,,,,,
17572,1825935,20000,1314485,132,16.0,1992,,,4/26/2007 0:00,SE210LC,SE210,LC,,,Large / Medium,"Hydraulic Excavator, Track - 19.0 to 21.0 Metric Tons",Ohio,TEX,Track Excavators,,EROPS,,,,,,,,,,,Standard,,,,,,None or Unspecified,,,,Steel,None or Unspecified,None or Unspecified,None or Unspecified,None or Unspecified,Double,,,,,
17572,1825950,13000,1347765,132,5.0,1994,,,10/10/2008 0:00,SE210LC,SE210,LC,,,Large / Medium,"Hydraulic Excavator, Track - 19.0 to 21.0 Metric Tons",Connecticut,TEX,Track Excavators,,EROPS,,,,,,,,,,,Standard,,,,,,None or Unspecified,,,,Steel,36 inch,None or Unspecified,None or Unspecified,None or Unspecified,Double,,,,,
17572,1825954,20000,1078495,132,17.0,1993,,,10/26/2004 0:00,SE210LC,SE210,LC,,,Large / Medium,"Hydraulic Excavator, Track - 19.0 to 21.0 Metric Tons",Idaho,TEX,Track Excavators,,EROPS,,,,,,,,,,,Standard,,,,,,None or Unspecified,,,,Steel,None or Unspecified,None or Unspecified,Manual,None or Unspecified,Double,,,,,
17572,1825955,16000,1078495,132,1.0,1993,,,6/17/2003 0:00,SE210LC,SE210,LC,,,Large / Medium,"Hydraulic Excavator, Track - 19.0 to 21.0 Metric Tons",Washington,TEX,Track Excavators,,EROPS,,,,,,,,,,,Standard,,,,,,None or Unspecified,,,,Steel,None or Unspecified,None or Unspecified,Manual,None or Unspecified,Double,,,,,
17572,1825959,26000,1254806,132,2.0,1994,,,9/16/2000 0:00,SE210LC,SE210,LC,,,Large / Medium,"Hydraulic Excavator, Track - 19.0 to 21.0 Metric Tons",New Jersey,TEX,Track Excavators,,EROPS w AC,,,,,,,,,,,Standard,,,,,,None or Unspecified,,,,Steel,None or Unspecified,None or Unspecified,None or Unspecified,None or Unspecified,Double,,,,,
17572,1825962,16500,1139614,132,27.0,1993,,,4/16/2009 0:00,SE210LC,SE210,LC,,,Large / Medium,"Hydraulic Excavator, Track - 19.0 to 21.0 Metric Tons",North Carolina,TEX,Track Excavators,,EROPS,,,,,,,,,,,Standard,,,,,,None or Unspecified,,,,Steel,None or Unspecified,None or Unspecified,None or Unspecified,None or Unspecified,Double,,,,,
17572,1825964,21000,1396811,132,1.0,1996,,,6/23/2004 0:00,SE210LC,SE210,LC,,,Large / Medium,"Hydraulic Excavator, Track - 19.0 to 21.0 Metric Tons",Washington,TEX,Track Excavators,,EROPS,,,,,,,,,,,Auxiliary,,,,,,Manual,,,,Steel,None or Unspecified,"9' 6""",Hydraulic,None or Unspecified,Double,,,,,
17572,1825968,38000,1487594,132,1.0,1994,,,3/16/1999 0:00,SE210LC,SE210,LC,,,Large / Medium,"Hydraulic Excavator, Track - 19.0 to 21.0 Metric Tons",Texas,TEX,Track Excavators,,EROPS,,,,,,,,,,,Standard,,,,,,None or Unspecified,,,,Steel,None or Unspecified,None or Unspecified,None or Unspecified,None or Unspecified,Double,,,,,
17572,1825969,34000,1163845,132,1.0,1994,,,3/16/1999 0:00,SE210LC,SE210,LC,,,Large / Medium,"Hydraulic Excavator, Track - 19.0 to 21.0 Metric Tons",Texas,TEX,Track Excavators,,EROPS,,,,,,,,,,,Standard,,,,,,None or Unspecified,,,,Steel,None or Unspecified,None or Unspecified,None or Unspecified,None or Unspecified,Double,,,,,
17572,1825970,37000,1368623,132,1.0,1994,,,3/16/1999 0:00,SE210LC,SE210,LC,,,Large / Medium,"Hydraulic Excavator, Track - 19.0 to 21.0 Metric Tons",Texas,TEX,Track Excavators,,EROPS,,,,,,,,,,,Standard,,,,,,None or Unspecified,,,,Steel,None or Unspecified,None or Unspecified,None or Unspecified,None or Unspecified,Double,,,,,
17572,1825971,20000,1188142,132,11.0,1994,,,3/29/2001 0:00,SE210LC,SE210,LC,,,Large / Medium,"Hydraulic Excavator, Track - 19.0 to 21.0 Metric Tons",Mississippi,TEX,Track Excavators,,EROPS,,,,,,,,,,,Auxiliary,,,,,,None or Unspecified,,,,Steel,None or Unspecified,None or Unspecified,None or Unspecified,None or Unspecified,Double,,,,,
17572,1825973,33000,1544544,132,5.0,1998,,,8/26/2004 0:00,SE210LC,SE210,LC,,,Large / Medium,"Hydraulic Excavator, Track - 19.0 to 21.0 Metric Tons",Connecticut,TEX,Track Excavators,,EROPS,,,,,,,,,,,Standard,,,,,,None or Unspecified,,,,Steel,32 inch,None or Unspecified,None or Unspecified,None or Unspecified,Triple,,,,,
17572,1825975,23000,1271005,132,1.0,1000,,,7/12/2006 0:00,SE210LC,SE210,LC,,,Large / Medium,"Hydraulic Excavator, Track - 19.0 to 21.0 Metric Tons",Texas,TEX,Track Excavators,,EROPS,,,,,,,,,,,Standard,,,,,,None or Unspecified,,,,Steel,None or Unspecified,None or Unspecified,None or Unspecified,None or Unspecified,Double,,,,,
17572,1825985,30000,1205654,132,7.0,1994,,,9/15/2000 0:00,SE210LC,SE210,LC,,,Large / Medium,"Hydraulic Excavator, Track - 19.0 to 21.0 Metric Tons",Alabama,TEX,Track Excavators,,EROPS,,,,,,,,,,,Auxiliary,,,,,,None or Unspecified,,,,Steel,24 inch,None or Unspecified,None or Unspecified,None or Unspecified,Triple,,,,,
17572,1825986,34000,1205654,132,10.0,1000,,,5/18/2000 0:00,SE210LC,SE210,LC,,,Large / Medium,"Hydraulic Excavator, Track - 19.0 to 21.0 Metric Tons",Louisiana,TEX,Track Excavators,,EROPS,,,,,,,,,,,Auxiliary,,,,,,None or Unspecified,,,,Steel,24 inch,None or Unspecified,None or Unspecified,None or Unspecified,Triple,,,,,
17572,1825987,36000,1205654,132,11.0,1994,,,12/1/1999 0:00,SE210LC,SE210,LC,,,Large / Medium,"Hydraulic Excavator, Track - 19.0 to 21.0 Metric Tons",Mississippi,TEX,Track Excavators,,EROPS,,,,,,,,,,,Auxiliary,,,,,,None or Unspecified,,,,Steel,24 inch,None or Unspecified,None or Unspecified,None or Unspecified,Triple,,,,,
17572,1825988,39000,1205654,132,10.0,1994,,,1/27/2000 0:00,SE210LC,SE210,LC,,,Large / Medium,"Hydraulic Excavator, Track - 19.0 to 21.0 Metric Tons",Louisiana,TEX,Track Excavators,,EROPS,,,,,,,,,,,Auxiliary,,,,,,None or Unspecified,,,,Steel,24 inch,None or Unspecified,None or Unspecified,None or Unspecified,Triple,,,,,
17572,1825989,25500,1205654,132,2.0,1995,,,2/8/2001 0:00,SE210LC,SE210,LC,,,Large / Medium,"Hydraulic Excavator, Track - 19.0 to 21.0 Metric Tons",Florida,TEX,Track Excavators,,EROPS,,,,,,,,,,,Auxiliary,,,,,,None or Unspecified,,,,Steel,24 inch,None or Unspecified,None or Unspecified,None or Unspecified,Triple,,,,,
17572,1825990,11500,1208398,132,7.0,1000,,,6/2/2005 0:00,SE210LC,SE210,LC,,,Large / Medium,"Hydraulic Excavator, Track - 19.0 to 21.0 Metric Tons",Alabama,TEX,Track Excavators,,EROPS,,,,,,,,,,,Standard,,,,,,None or Unspecified,,,,Steel,32 inch,"9' 6""",None or Unspecified,None or Unspecified,Triple,,,,,
17572,1825994,15000,1258699,132,4.0,1994,,,10/26/2006 0:00,SE210LC,SE210,LC,,,Large / Medium,"Hydraulic Excavator, Track - 19.0 to 21.0 Metric Tons",New York,TEX,Track Excavators,,EROPS,,,,,,,,,,,Standard,,,,,,None or Unspecified,,,,Steel,None or Unspecified,None or Unspecified,Manual,None or Unspecified,Double,,,,,
17572,1825995,25500,1536543,132,4.0,1994,7089.0,Medium,9/27/2007 0:00,SE210LC,SE210,LC,,,Large / Medium,"Hydraulic Excavator, Track - 19.0 to 21.0 Metric Tons",Ohio,TEX,Track Excavators,,EROPS,,,,,,,,,,,Auxiliary,,,,,,None or Unspecified,,,,Steel,None or Unspecified,None or Unspecified,None or Unspecified,None or Unspecified,Double,,,,,
17572,1825997,28000,1167210,132,4.0,1000,,,2/17/2001 0:00,SE210LC,SE210,LC,,,Large / Medium,"Hydraulic Excavator, Track - 19.0 to 21.0 Metric Tons",Florida,TEX,Track Excavators,,EROPS,,,,,,,,,,,Standard,,,,,,None or Unspecified,,,,Steel,None or Unspecified,"9' 6""",None or Unspecified,None or Unspecified,Double,,,,,
17572,1825998,25000,1167210,132,9.0,1994,,,2/21/2001 0:00,SE210LC,SE210,LC,,,Large / Medium,"Hydraulic Excavator, Track - 19.0 to 21.0 Metric Tons",Florida,TEX,Track Excavators,,EROPS,,,,,,,,,,,Standard,,,,,,None or Unspecified,,,,Steel,None or Unspecified,"9' 6""",None or Unspecified,None or Unspecified,Double,,,,,
17572,1826000,26000,1167210,132,12.0,1994,,,3/20/2001 0:00,SE210LC,SE210,LC,,,Large / Medium,"Hydraulic Excavator, Track - 19.0 to 21.0 Metric Tons",South Carolina,TEX,Track Excavators,,EROPS,,,,,,,,,,,Standard,,,,,,None or Unspecified,,,,Steel,None or Unspecified,"9' 6""",None or Unspecified,None or Unspecified,Double,,,,,
17572,1826001,25000,1167210,132,1.0,1994,,,3/29/2000 0:00,SE210LC,SE210,LC,,,Large / Medium,"Hydraulic Excavator, Track - 19.0 to 21.0 Metric Tons",Maryland,TEX,Track Excavators,,EROPS,,,,,,,,,,,Standard,,,,,,None or Unspecified,,,,Steel,None or Unspecified,"9' 6""",None or Unspecified,None or Unspecified,Double,,,,,
17572,1826002,22500,1167210,132,1.0,1994,,,12/11/2001 0:00,SE210LC,SE210,LC,,,Large / Medium,"Hydraulic Excavator, Track - 19.0 to 21.0 Metric Tons",North Carolina,TEX,Track Excavators,,EROPS,,,,,,,,,,,Standard,,,,,,None or Unspecified,,,,Steel,None or Unspecified,"9' 6""",None or Unspecified,None or Unspecified,Double,,,,,
17572,1826005,23000,1522220,132,1.0,1994,,,12/4/2002 0:00,SE210LC,SE210,LC,,,Large / Medium,"Hydraulic Excavator, Track - 19.0 to 21.0 Metric Tons",Washington,TEX,Track Excavators,,EROPS,,,,,,,,,,,Standard,,,,,,None or Unspecified,,,,Steel,None or Unspecified,None or Unspecified,Manual,None or Unspecified,Double,,,,,
17572,1826006,18000,1295815,132,2.0,1000,,,12/10/2005 0:00,SE210LC,SE210,LC,,,Large / Medium,"Hydraulic Excavator, Track - 19.0 to 21.0 Metric Tons",Pennsylvania,TEX,Track Excavators,,EROPS,,,,,,,,,,,Standard,,,,,,None or Unspecified,,,,Steel,None or Unspecified,None or Unspecified,Manual,None or Unspecified,Double,,,,,
17572,1826009,22000,1108774,132,1.0,1996,,,7/21/2005 0:00,SE210LC,SE210,LC,,,Large / Medium,"Hydraulic Excavator, Track - 19.0 to 21.0 Metric Tons",Texas,TEX,Track Excavators,,EROPS,,,,,,,,,,,Auxiliary,,,,,,None or Unspecified,,,,Steel,None or Unspecified,"9' 6""",None or Unspecified,None or Unspecified,Double,,,,,
17572,1826010,30000,1408019,132,16.0,1994,,,7/12/2001 0:00,SE210LC,SE210,LC,,,Large / Medium,"Hydraulic Excavator, Track - 19.0 to 21.0 Metric Tons",Ohio,TEX,Track Excavators,,EROPS,,,,,,,,,,,Standard,,,,,,None or Unspecified,,,,Steel,32 inch,None or Unspecified,None or Unspecified,None or Unspecified,Double,,,,,
17572,1826012,17000,1350222,132,1.0,1000,,,9/19/2007 0:00,SE210LC,SE210,LC,,,Large / Medium,"Hydraulic Excavator, Track - 19.0 to 21.0 Metric Tons",Illinois,TEX,Track Excavators,,EROPS,,,,,,,,,,,Auxiliary,,,,,,None or Unspecified,,,,Steel,None or Unspecified,"9' 6""",None or Unspecified,None or Unspecified,Double,,,,,
17572,1826015,28000,1292768,132,1.0,1994,,,12/7/2000 0:00,SE210LC,SE210,LC,,,Large / Medium,"Hydraulic Excavator, Track - 19.0 to 21.0 Metric Tons",Washington,TEX,Track Excavators,,EROPS w AC,,,,,,,,,,,Standard,,,,,,None or Unspecified,,,,Steel,None or Unspecified,None or Unspecified,Manual,None or Unspecified,Double,,,,,
17572,1826017,28000,1417631,132,4.0,1994,3570.0,Low,2/10/2011 0:00,SE210LC,SE210,LC,,,Large / Medium,"Hydraulic Excavator, Track - 19.0 to 21.0 Metric Tons",Florida,TEX,Track Excavators,,EROPS w AC,,,,,,,,,,,Standard,,,,,,None or Unspecified,,,,Steel,32 inch,None or Unspecified,None or Unspecified,None or Unspecified,Double,,,,,
17572,1826018,28000,1417631,132,4.0,1000,,,2/7/2011 0:00,SE210LC,SE210,LC,,,Large / Medium,"Hydraulic Excavator, Track - 19.0 to 21.0 Metric Tons",Florida,TEX,Track Excavators,,EROPS w AC,,,,,,,,,,,Standard,,,,,,None or Unspecified,,,,Steel,32 inch,None or Unspecified,None or Unspecified,None or Unspecified,Double,,,,,
17572,1826019,26000,1111092,132,1.0,1994,,,2/21/2001 0:00,SE210LC,SE210,LC,,,Large / Medium,"Hydraulic Excavator, Track - 19.0 to 21.0 Metric Tons",Florida,TEX,Track Excavators,,EROPS,,,,,,,,,,,Standard,,,,,,None or Unspecified,,,,Steel,None or Unspecified,"9' 6""",None or Unspecified,None or Unspecified,Double,,,,,
17572,1826021,39000,1324857,132,11.0,1995,,,3/21/2000 0:00,SE210LC,SE210,LC,,,Large / Medium,"Hydraulic Excavator, Track - 19.0 to 21.0 Metric Tons",Mississippi,TEX,Track Excavators,,EROPS w AC,,,,,,,,,,,Standard,,,,,,None or Unspecified,,,,Steel,28 inch,"9' 6""",None or Unspecified,None or Unspecified,Triple,,,,,
17572,1826023,18000,1315776,132,2.0,1994,,,12/16/2006 0:00,SE210LC,SE210,LC,,,Large / Medium,"Hydraulic Excavator, Track - 19.0 to 21.0 Metric Tons",New Jersey,TEX,Track Excavators,,EROPS,,,,,,,,,,,Standard,,,,,,None or Unspecified,,,,Steel,None or Unspecified,None or Unspecified,None or Unspecified,None or Unspecified,Double,,,,,
17572,1826024,29000,1131917,132,9.0,1994,,,2/21/2001 0:00,SE210LC,SE210,LC,,,Large / Medium,"Hydraulic Excavator, Track - 19.0 to 21.0 Metric Tons",Florida,TEX,Track Excavators,,EROPS,,,,,,,,,,,Auxiliary,,,,,,None or Unspecified,,,,Steel,None or Unspecified,None or Unspecified,Manual,None or Unspecified,Double,,,,,
17572,1826025,32500,1129586,132,11.0,1996,,,5/26/1999 0:00,SE210LC,SE210,LC,,,Large / Medium,"Hydraulic Excavator, Track - 19.0 to 21.0 Metric Tons",Mississippi,TEX,Track Excavators,,EROPS,,,,,,,,,,,Standard,,,,,,None or Unspecified,,,,Steel,32 inch,None or Unspecified,Manual,None or Unspecified,Triple,,,,,
17572,1826026,11000,1444199,132,2.0,1994,2365.0,Low,4/12/2008 0:00,SE210LC,SE210,LC,,,Large / Medium,"Hydraulic Excavator, Track - 19.0 to 21.0 Metric Tons",South Carolina,TEX,Track Excavators,,EROPS,,,,,,,,,,,Standard,,,,,,None or Unspecified,,,,Steel,32 inch,None or Unspecified,Manual,None or Unspecified,Double,,,,,
17572,1826029,25000,1529014,132,12.0,1994,,,3/30/2005 0:00,SE210LC,SE210,LC,,,Large / Medium,"Hydraulic Excavator, Track - 19.0 to 21.0 Metric Tons",South Carolina,TEX,Track Excavators,,EROPS,,,,,,,,,,,Standard,,,,,,None or Unspecified,,,,Steel,None or Unspecified,None or Unspecified,None or Unspecified,None or Unspecified,Double,,,,,
17572,1826030,21000,1259325,132,4.0,1994,,,2/17/2001 0:00,SE210LC,SE210,LC,,,Large / Medium,"Hydraulic Excavator, Track - 19.0 to 21.0 Metric Tons",Florida,TEX,Track Excavators,,EROPS,,,,,,,,,,,Standard,,,,,,None or Unspecified,,,,Steel,None or Unspecified,None or Unspecified,None or Unspecified,None or Unspecified,Double,,,,,
17572,1826031,20500,1259325,132,9.0,1994,,,2/21/2001 0:00,SE210LC,SE210,LC,,,Large / Medium,"Hydraulic Excavator, Track - 19.0 to 21.0 Metric Tons",Florida,TEX,Track Excavators,,EROPS,,,,,,,,,,,Standard,,,,,,None or Unspecified,,,,Steel,None or Unspecified,None or Unspecified,None or Unspecified,None or Unspecified,Double,,,,,
17572,1826036,16000,1519574,132,7.0,1000,,,6/2/2005 0:00,SE210LC,SE210,LC,,,Large / Medium,"Hydraulic Excavator, Track - 19.0 to 21.0 Metric Tons",Alabama,TEX,Track Excavators,,EROPS,,,,,,,,,,,Standard,,,,,,None or Unspecified,,,,Steel,32 inch,"9' 6""",Manual,None or Unspecified,Triple,,,,,
17572,1826037,30000,1519574,132,11.0,1000,,,9/1/1999 0:00,SE210LC,SE210,LC,,,Large / Medium,"Hydraulic Excavator, Track - 19.0 to 21.0 Metric Tons",Mississippi,TEX,Track Excavators,,EROPS,,,,,,,,,,,Standard,,,,,,None or Unspecified,,,,Steel,32 inch,"9' 6""",Manual,None or Unspecified,Triple,,,,,
17572,1826038,25000,1079976,132,11.0,1994,,,12/1/1999 0:00,SE210LC,SE210,LC,,,Large / Medium,"Hydraulic Excavator, Track - 19.0 to 21.0 Metric Tons",Mississippi,TEX,Track Excavators,,EROPS w AC,,,,,,,,,,,Standard,,,,,,None or Unspecified,,,,Steel,32 inch,None or Unspecified,None or Unspecified,None or Unspecified,Triple,,,,,
17572,1826039,33000,1079976,132,10.0,1994,,,3/30/2000 0:00,SE210LC,SE210,LC,,,Large / Medium,"Hydraulic Excavator, Track - 19.0 to 21.0 Metric Tons",Texas,TEX,Track Excavators,,EROPS w AC,,,,,,,,,,,Standard,,,,,,None or Unspecified,,,,Steel,32 inch,None or Unspecified,None or Unspecified,None or Unspecified,Triple,,,,,
17572,1826040,22000,1278895,132,8.0,1997,,,3/21/2007 0:00,SE210LC,SE210,LC,,,Large / Medium,"Hydraulic Excavator, Track - 19.0 to 21.0 Metric Tons",Mississippi,TEX,Track Excavators,,EROPS,,,,,,,,,,,Standard,,,,,,None or Unspecified,,,,Steel,None or Unspecified,None or Unspecified,None or Unspecified,None or Unspecified,Double,,,,,
17572,1826041,42500,1243389,132,12.0,1994,,,1/17/2001 0:00,SE210LC,SE210,LC,,,Large / Medium,"Hydraulic Excavator, Track - 19.0 to 21.0 Metric Tons",South Carolina,TEX,Track Excavators,,EROPS,,,,,,,,,,,Standard,,,,,,None or Unspecified,,,,Steel,None or Unspecified,None or Unspecified,None or Unspecified,None or Unspecified,Double,,,,,
17572,1826042,42000,1243389,132,12.0,1000,,,9/20/2000 0:00,SE210LC,SE210,LC,,,Large / Medium,"Hydraulic Excavator, Track - 19.0 to 21.0 Metric Tons",South Carolina,TEX,Track Excavators,,EROPS,,,,,,,,,,,Standard,,,,,,None or Unspecified,,,,Steel,None or Unspecified,None or Unspecified,None or Unspecified,None or Unspecified,Double,,,,,
17572,1826108,27500,1141589,132,8.0,1995,,,3/22/2006 0:00,SE210LC,SE210,LC,,,Large / Medium,"Hydraulic Excavator, Track - 19.0 to 21.0 Metric Tons",Mississippi,TEX,Track Excavators,,EROPS,,,,,,,,,,,Standard,,,,,,None or Unspecified,,,,Steel,None or Unspecified,None or Unspecified,None or Unspecified,None or Unspecified,Double,,,,,
17572,1826109,41000,1523617,132,11.0,1995,,,9/1/1999 0:00,SE210LC,SE210,LC,,,Large / Medium,"Hydraulic Excavator, Track - 19.0 to 21.0 Metric Tons",Mississippi,TEX,Track Excavators,,EROPS w AC,,,,,,,,,,,Standard,,,,,,None or Unspecified,,,,Steel,31 inch,None or Unspecified,None or Unspecified,None or Unspecified,Double,,,,,
17572,1826119,36000,1148436,132,2.0,1996,,,9/23/2005 0:00,SE210LC,SE210,LC,,,Large / Medium,"Hydraulic Excavator, Track - 19.0 to 21.0 Metric Tons",New Jersey,TEX,Track Excavators,,EROPS,,,,,,,,,,,Standard,,,,,,None or Unspecified,,,,Steel,None or Unspecified,None or Unspecified,None or Unspecified,None or Unspecified,Double,,,,,
17572,1826132,19000,1519363,132,8.0,1995,,,6/27/2006 0:00,SE210LC,SE210,LC,,,Large / Medium,"Hydraulic Excavator, Track - 19.0 to 21.0 Metric Tons",Alabama,TEX,Track Excavators,,EROPS,,,,,,,,,,,Standard,,,,,,None or Unspecified,,,,Steel,None or Unspecified,None or Unspecified,None or Unspecified,None or Unspecified,Double,,,,,
17572,1826133,17500,1519363,132,8.0,1995,,,9/13/2006 0:00,SE210LC,SE210,LC,,,Large / Medium,"Hydraulic Excavator, Track - 19.0 to 21.0 Metric Tons",Mississippi,TEX,Track Excavators,,EROPS,,,,,,,,,,,Standard,,,,,,None or Unspecified,,,,Steel,None or Unspecified,None or Unspecified,None or Unspecified,None or Unspecified,Double,,,,,
17572,1826189,38000,1122390,132,8.0,1996,,,9/18/2002 0:00,SE210LC,SE210,LC,,,Large / Medium,"Hydraulic Excavator, Track - 19.0 to 21.0 Metric Tons",Mississippi,TEX,Track Excavators,,EROPS w AC,,,,,,,,,,,Standard,,,,,,None or Unspecified,,,,Steel,32 inch,None or Unspecified,None or Unspecified,None or Unspecified,Triple,,,,,
17572,1826198,37500,1248515,132,2.0,1996,,,7/15/2000 0:00,SE210LC,SE210,LC,,,Large / Medium,"Hydraulic Excavator, Track - 19.0 to 21.0 Metric Tons",New York,TEX,Track Excavators,,EROPS,,,,,,,,,,,Standard,,,,,,None or Unspecified,,,,Steel,None or Unspecified,None or Unspecified,None or Unspecified,None or Unspecified,Double,,,,,
17572,1826202,15000,1551677,132,7.0,1000,,,10/19/2005 0:00,SE210LC,SE210,LC,,,Large / Medium,"Hydraulic Excavator, Track - 19.0 to 21.0 Metric Tons",South Carolina,TEX,Track Excavators,,EROPS,,,,,,,,,,,Standard,,,,,,None or Unspecified,,,,Steel,32 inch,"9' 6""",None or Unspecified,None or Unspecified,Triple,,,,,
17572,1826220,32000,1556860,132,11.0,1996,,,3/29/2001 0:00,SE210LC,SE210,LC,,,Large / Medium,"Hydraulic Excavator, Track - 19.0 to 21.0 Metric Tons",Mississippi,TEX,Track Excavators,,EROPS w AC,,,,,,,,,,,Standard,,,,,,None or Unspecified,,,,Steel,32 inch,None or Unspecified,None or Unspecified,None or Unspecified,Double,,,,,
17572,1826256,46000,1445726,132,10.0,1000,,,8/18/1999 0:00,SE210LC,SE210,LC,,,Large / Medium,"Hydraulic Excavator, Track - 19.0 to 21.0 Metric Tons",Louisiana,TEX,Track Excavators,,EROPS w AC,,,,,,,,,,,Standard,,,,,,None or Unspecified,,,,Steel,28 inch,None or Unspecified,None or Unspecified,None or Unspecified,Triple,,,,,
17572,1826257,29000,1348607,132,28.0,1998,,,9/15/2001 0:00,SE210LC,SE210,LC,,,Large / Medium,"Hydraulic Excavator, Track - 19.0 to 21.0 Metric Tons",Mississippi,TEX,Track Excavators,,EROPS w AC,,,,,,,,,,,Standard,,,,,,None or Unspecified,,,,Steel,32 inch,"9' 6""",None or Unspecified,None or Unspecified,Triple,,,,,
17572,1826302,64000,1141413,132,2.0,1997,316.0,Low,6/19/1999 0:00,SE210LC,SE210,LC,,,Large / Medium,"Hydraulic Excavator, Track - 19.0 to 21.0 Metric Tons",North Carolina,TEX,Track Excavators,,EROPS w AC,,,,,,,,,,,Standard,,,,,,None or Unspecified,,,,Steel,32 inch,None or Unspecified,None or Unspecified,None or Unspecified,Double,,,,,
17572,1826320,23000,1494191,132,7.0,1996,,,6/7/2001 0:00,SE210LC,SE210,LC,,,Large / Medium,"Hydraulic Excavator, Track - 19.0 to 21.0 Metric Tons",Alabama,TEX,Track Excavators,,EROPS,,,,,,,,,,,Standard,,,,,,None or Unspecified,,,,Steel,32 inch,"9' 8""",Manual,None or Unspecified,Triple,,,,,
17572,1826353,57500,1308809,132,2.0,1997,661.0,Low,6/19/1999 0:00,SE210LC,SE210,LC,,,Large / Medium,"Hydraulic Excavator, Track - 19.0 to 21.0 Metric Tons",North Carolina,TEX,Track Excavators,,EROPS w AC,,,,,,,,,,,Standard,,,,,,None or Unspecified,,,,Steel,32 inch,"9' 6""",None or Unspecified,None or Unspecified,Double,,,,,
17572,1826411,12500,1285328,132,5.0,1998,,,6/25/2010 0:00,SE210LC,SE210,LC,,,Large / Medium,"Hydraulic Excavator, Track - 19.0 to 21.0 Metric Tons",Connecticut,TEX,Track Excavators,,EROPS,,,,,,,,,,,Standard,,,,,,None or Unspecified,,,,Steel,30 inch,None or Unspecified,None or Unspecified,None or Unspecified,Double,,,,,
17572,2441835,16500,1672125,136,,1993,0.0,,4/16/2009 0:00,SE210LC,SE210,LC,,,Large / Medium,"Hydraulic Excavator, Track - 19.0 to 21.0 Metric Tons",North Carolina,TEX,Track Excavators,,EROPS,,,,,,,,,,,Standard,,,,,,None or Unspecified,,,,Steel,None or Unspecified,None or Unspecified,None or Unspecified,None or Unspecified,Double,,,,,
17572,2441837,12500,1139614,136,2.0,1993,0.0,,3/19/2009 0:00,SE210LC,SE210,LC,,,Large / Medium,"Hydraulic Excavator, Track - 19.0 to 21.0 Metric Tons",New Jersey,TEX,Track Excavators,,EROPS,,,,,,,,,,,Standard,,,,,,None or Unspecified,,,,Steel,None or Unspecified,None or Unspecified,None or Unspecified,None or Unspecified,Double,,,,,
17572,2441871,12500,1657502,136,5.0,1998,0.0,,6/25/2010 0:00,SE210LC,SE210,LC,,,Large / Medium,"Hydraulic Excavator, Track - 19.0 to 21.0 Metric Tons",Connecticut,TEX,Track Excavators,,EROPS,,,,,,,,,,,Standard,,,,,,None or Unspecified,,,,Steel,None or Unspecified,None or Unspecified,None or Unspecified,None or Unspecified,Double,,,,,
17572,2441891,16000,1733955,136,,1994,0.0,,4/21/2009 0:00,SE210LC,SE210,LC,,,Large / Medium,"Hydraulic Excavator, Track - 19.0 to 21.0 Metric Tons",Nebraska,TEX,Track Excavators,,EROPS,,,,,,,,,,,Auxiliary,,,,,,None or Unspecified,,,,Steel,None or Unspecified,None or Unspecified,None or Unspecified,None or Unspecified,Double,,,,,
17572,4383204,16000,1094400,172,1.0,1995,,,4/21/2009 0:00,SE210LC,SE210,LC,,,Large / Medium,"Hydraulic Excavator, Track - 19.0 to 21.0 Metric Tons",Nebraska,TEX,Track Excavators,,EROPS,,,,,,,,,,,Auxiliary,,,,,,None or Unspecified,,,,Steel,None or Unspecified,"9' 6""",None or Unspecified,None or Unspecified,Double,,,,,
17572,4383205,12000,1080384,172,1.0,1000,3173.0,Low,6/10/2009 0:00,SE210LC,SE210,LC,,,Large / Medium,"Hydraulic Excavator, Track - 19.0 to 21.0 Metric Tons",Texas,TEX,Track Excavators,,EROPS,,,,,,,,,,,Auxiliary,,,,,,None or Unspecified,,,,Steel,None or Unspecified,None or Unspecified,None or Unspecified,None or Unspecified,Double,,,,,
