ModelID,SalesID,SalePrice,MachineID,datasource,auctioneerID,YearMade,MachineHoursCurrentMeter,UsageBand,saledate,fiModelDesc,fiBaseModel,fiSecondaryDesc,fiModelSeries,fiModelDescriptor,ProductSize,fiProductClassDesc,state,ProductGroup,ProductGroupDesc,Drive_System,Enclosure,Forks,Pad_Type,Ride_Control,Stick,Transmission,Turbocharged,Blade_Extension,Blade_Width,Enclosure_Type,Engine_Horsepower,Hydraulics,Pushblock,Ripper,Scarifier,Tip_Control,Tire_Size,Coupler,Coupler_System,Grouser_Tracks,Hydraulics_Flow,Track_Type,Undercarriage_Pad_Width,Stick_Length,Thumb,Pattern_Changer,Grouser_Type,Backhoe_Mounting,Blade_Type,Travel_Controls,Differential_Type,Steering_Controls
17978,1200457,24000,1033643,121,3.0,2005,617.0,Low,3/26/2010 0:00,TX860B,TX860,B,,,,Backhoe Loader - 0.0 to 14.0 Ft Standard Digging Depth,Missouri,BL,Backhoe Loaders,Four Wheel Drive,EROPS w AC,None or Unspecified,None or Unspecified,No,Extended,Powershuttle,None or Unspecified,,,,,,,,,,,,,,,,,,,,,,,,,
17978,1832255,33000,1512952,132,1.0,2007,,,4/19/2011 0:00,TX860B,TX860,B,,,,Backhoe Loader - 0.0 to 14.0 Ft Standard Digging Depth,Utah,BL,Backhoe Loaders,Four Wheel Drive,EROPS w AC,None or Unspecified,None or Unspecified,Yes,Extended,Standard,None or Unspecified,,,,,,,,,,,,,,,,,,,,,,,,,
17978,1840066,21000,1151742,132,1.0,2006,1698.0,Medium,11/17/2009 0:00,TX860B,TX860,B,,,,Backhoe Loader - 0.0 to 14.0 Ft Standard Digging Depth,Texas,BL,Backhoe Loaders,Four Wheel Drive,OROPS,None or Unspecified,None or Unspecified,No,Extended,Standard,None or Unspecified,,,,,,,,,,,,,,,,,,,,,,,,,
17978,1840250,24000,1282799,132,1.0,2007,5.0,Low,11/20/2008 0:00,TX860B,TX860,B,,,,Backhoe Loader - 0.0 to 14.0 Ft Standard Digging Depth,Georgia,BL,Backhoe Loaders,Two Wheel Drive,OROPS,None or Unspecified,None or Unspecified,No,Extended,Standard,None or Unspecified,,,,,,,,,,,,,,,,,,,,,,,,,
17978,1840253,22500,1555369,132,1.0,2006,,,11/20/2008 0:00,TX860B,TX860,B,,,,Backhoe Loader - 0.0 to 14.0 Ft Standard Digging Depth,Georgia,BL,Backhoe Loaders,Four Wheel Drive,OROPS,None or Unspecified,None or Unspecified,No,Extended,Standard,None or Unspecified,,,,,,,,,,,,,,,,,,,,,,,,,
17978,2447296,8000,1420286,136,1.0,2006,0.0,,8/26/2009 0:00,TX860B,TX860,B,,,,Backhoe Loader - 0.0 to 14.0 Ft Standard Digging Depth,Texas,BL,Backhoe Loaders,Four Wheel Drive,OROPS,None or Unspecified,None or Unspecified,No,Extended,Standard,None or Unspecified,,,,,,,,,,,,,,,,,,,,,,,,,
17978,2447297,21000,1420286,136,1.0,2006,0.0,,11/17/2009 0:00,TX860B,TX860,B,,,,Backhoe Loader - 0.0 to 14.0 Ft Standard Digging Depth,Texas,BL,Backhoe Loaders,Four Wheel Drive,OROPS,None or Unspecified,None or Unspecified,No,Extended,Standard,None or Unspecified,,,,,,,,,,,,,,,,,,,,,,,,,
17978,2744179,33000,1942186,149,1.0,2007,495.0,Low,4/19/2011 0:00,TX860B,TX860,B,,,,Backhoe Loader - 0.0 to 14.0 Ft Standard Digging Depth,Utah,BL,Backhoe Loaders,Two Wheel Drive,EROPS w AC,None or Unspecified,None or Unspecified,Yes,Extended,Standard,None or Unspecified,,,,,,,,,,,,,,,,,,,,,,,,,
17978,4388463,36000,1111538,172,1.0,2005,29.0,Low,2/16/2009 0:00,TX860B,TX860,B,,,,Backhoe Loader - 0.0 to 14.0 Ft Standard Digging Depth,Florida,BL,Backhoe Loaders,Four Wheel Drive,EROPS,None or Unspecified,None or Unspecified,No,Extended,Standard,None or Unspecified,,,,,,,,,,,,,,,,,,,,,,,,,
17978,4388678,30000,1248794,172,1.0,2007,218.0,Low,2/16/2009 0:00,TX860B,TX860,B,,,,Backhoe Loader - 0.0 to 14.0 Ft Standard Digging Depth,Florida,BL,Backhoe Loaders,Four Wheel Drive,OROPS,None or Unspecified,None or Unspecified,No,Extended,Standard,None or Unspecified,,,,,,,,,,,,,,,,,,,,,,,,,
17978,4388679,28000,1156248,172,1.0,2007,202.0,Low,2/16/2009 0:00,TX860B,TX860,B,,,,Backhoe Loader - 0.0 to 14.0 Ft Standard Digging Depth,Florida,BL,Backhoe Loaders,Four Wheel Drive,OROPS,None or Unspecified,None or Unspecified,No,Extended,Standard,None or Unspecified,,,,,,,,,,,,,,,,,,,,,,,,,
