ModelID,SalesID,SalePrice,MachineID,datasource,auctioneerID,YearMade,MachineHoursCurrentMeter,UsageBand,saledate,fiModelDesc,fiBaseModel,fiSecondaryDesc,fiModelSeries,fiModelDescriptor,ProductSize,fiProductClassDesc,state,ProductGroup,ProductGroupDesc,Drive_System,Enclosure,Forks,Pad_Type,Ride_Control,Stick,Transmission,Turbocharged,Blade_Extension,Blade_Width,Enclosure_Type,Engine_Horsepower,Hydraulics,Pushblock,Ripper,Scarifier,Tip_Control,Tire_Size,Coupler,Coupler_System,Grouser_Tracks,Hydraulics_Flow,Track_Type,Undercarriage_Pad_Width,Stick_Length,Thumb,Pattern_Changer,Grouser_Type,Backhoe_Mounting,Blade_Type,Travel_Controls,Differential_Type,Steering_Controls
17989,1160468,94000,1057490,121,3.0,2005,16.0,Low,2/25/2010 0:00,TXC340LC1,TXC340,LC,1,,Large / Medium,"Hydraulic Excavator, Track - 33.0 to 40.0 Metric Tons",Texas,TEX,Track Excavators,,EROPS w AC,,,,,,,,,,,Standard,,,,,,None or Unspecified,,,,Steel,None or Unspecified,None or Unspecified,Manual,None or Unspecified,Double,,,,,
17989,1182992,38000,1037262,121,3.0,2005,5134.0,High,10/16/2008 0:00,TXC340LC1,TXC340,LC,1,,Large / Medium,"Hydraulic Excavator, Track - 33.0 to 40.0 Metric Tons",Mississippi,TEX,Track Excavators,,EROPS w AC,,,,,,,,,,,2 Valve,,,,,,Manual,,,,,,,,,,,,,,
17989,1182993,37000,1008877,121,3.0,2005,5009.0,High,10/30/2008 0:00,TXC340LC1,TXC340,LC,1,,Large / Medium,"Hydraulic Excavator, Track - 33.0 to 40.0 Metric Tons",Mississippi,TEX,Track Excavators,,EROPS w AC,,,,,,,,,,,Standard,,,,,,None or Unspecified,,,,Steel,None or Unspecified,None or Unspecified,None or Unspecified,None or Unspecified,Double,,,,,
17989,4388072,43000,2312006,172,1.0,2005,5367.0,Medium,12/13/2011 0:00,TXC340LC1,TXC340,LC,1,,Large / Medium,"Hydraulic Excavator, Track - 33.0 to 40.0 Metric Tons",Illinois,TEX,Track Excavators,,EROPS,,,,,,,,,,,Standard,,,,,,None or Unspecified,,,,Steel,None or Unspecified,None or Unspecified,None or Unspecified,None or Unspecified,Double,,,,,
17989,4388073,47000,2278119,172,1.0,2005,6027.0,Medium,9/14/2011 0:00,TXC340LC1,TXC340,LC,1,,Large / Medium,"Hydraulic Excavator, Track - 33.0 to 40.0 Metric Tons",Missouri,TEX,Track Excavators,,EROPS w AC,,,,,,,,,,,Standard,,,,,,None or Unspecified,,,,Steel,None or Unspecified,None or Unspecified,None or Unspecified,None or Unspecified,Double,,,,,
17989,4388074,36000,2313112,172,1.0,2006,6032.0,High,6/30/2009 0:00,TXC340LC1,TXC340,LC,1,,Large / Medium,"Hydraulic Excavator, Track - 33.0 to 40.0 Metric Tons",North Carolina,TEX,Track Excavators,,EROPS w AC,,,,,,,,,,,Standard,,,,,,None or Unspecified,,,,Steel,None or Unspecified,None or Unspecified,None or Unspecified,None or Unspecified,Double,,,,,
17989,4388075,70000,2308808,172,1.0,2006,3410.0,High,2/16/2009 0:00,TXC340LC1,TXC340,LC,1,,Large / Medium,"Hydraulic Excavator, Track - 33.0 to 40.0 Metric Tons",Florida,TEX,Track Excavators,,EROPS w AC,,,,,,,,,,,Standard,,,,,,None or Unspecified,,,,Steel,None or Unspecified,None or Unspecified,None or Unspecified,None or Unspecified,Double,,,,,
17989,6317704,43000,1857056,149,1.0,2005,,,12/14/2011 0:00,TXC340LC1,TXC340,LC,1,,Large / Medium,"Hydraulic Excavator, Track - 33.0 to 40.0 Metric Tons",Illinois,TEX,Track Excavators,,EROPS w AC,,,,,,,,,,,Standard,,,,,,Hydraulic,,,,Steel,None or Unspecified,None or Unspecified,None or Unspecified,None or Unspecified,Double,,,,,
17989,6317705,47000,1854909,149,1.0,2005,,,9/15/2011 0:00,TXC340LC1,TXC340,LC,1,,Large / Medium,"Hydraulic Excavator, Track - 33.0 to 40.0 Metric Tons",Missouri,TEX,Track Excavators,,EROPS w AC,,,,,,,,,,,Standard,,,,,,None or Unspecified,,,,Steel,None or Unspecified,None or Unspecified,None or Unspecified,None or Unspecified,Double,,,,,
