ModelID,SalesID,SalePrice,MachineID,datasource,auctioneerID,YearMade,MachineHoursCurrentMeter,UsageBand,saledate,fiModelDesc,fiBaseModel,fiSecondaryDesc,fiModelSeries,fiModelDescriptor,ProductSize,fiProductClassDesc,state,ProductGroup,ProductGroupDesc,Drive_System,Enclosure,Forks,Pad_Type,Ride_Control,Stick,Transmission,Turbocharged,Blade_Extension,Blade_Width,Enclosure_Type,Engine_Horsepower,Hydraulics,Pushblock,Ripper,Scarifier,Tip_Control,Tire_Size,Coupler,Coupler_System,Grouser_Tracks,Hydraulics_Flow,Track_Type,Undercarriage_Pad_Width,Stick_Length,Thumb,Pattern_Changer,Grouser_Type,Backhoe_Mounting,Blade_Type,Travel_Controls,Differential_Type,Steering_Controls
18005,1841120,7750,1283268,132,8.0,2005,,,11/18/2009 0:00,137,137,,,,,Skid Steer Loader - 1251.0 to 1351.0 Lb Operating Capacity,Mississippi,SSL,Skid Steer Loaders,,OROPS,None or Unspecified,,,,,,,,,,Standard,,,,,,None or Unspecified,None or Unspecified,None or Unspecified,Standard,,,,,,,,,,,
18005,1841571,8000,1535376,132,1.0,2006,,,12/3/2008 0:00,137,137,,,,,Skid Steer Loader - 1251.0 to 1351.0 Lb Operating Capacity,Texas,SSL,Skid Steer Loaders,,OROPS,None or Unspecified,,,,,,,,,,Auxiliary,,,,,,None or Unspecified,None or Unspecified,None or Unspecified,Standard,,,,,,,,,,,
18005,1841590,7000,1553228,132,1.0,2005,1016.0,Medium,2/18/2010 0:00,137,137,,,,,Skid Steer Loader - 1251.0 to 1351.0 Lb Operating Capacity,Florida,SSL,Skid Steer Loaders,,OROPS,None or Unspecified,,,,,,,,,,Standard,,,,,,None or Unspecified,None or Unspecified,None or Unspecified,Standard,,,,,,,,,,,
18005,1841591,7000,1242131,132,1.0,2005,600.0,Low,2/18/2010 0:00,137,137,,,,,Skid Steer Loader - 1251.0 to 1351.0 Lb Operating Capacity,Florida,SSL,Skid Steer Loaders,,OROPS,None or Unspecified,,,,,,,,,,Standard,,,,,,None or Unspecified,None or Unspecified,None or Unspecified,Standard,,,,,,,,,,,
18005,1841593,8500,1094540,132,1.0,2006,620.0,Medium,3/25/2009 0:00,137,137,,,,,Skid Steer Loader - 1251.0 to 1351.0 Lb Operating Capacity,Texas,SSL,Skid Steer Loaders,,OROPS,None or Unspecified,,,,,,,,,,Standard,,,,,,None or Unspecified,None or Unspecified,None or Unspecified,Standard,,,,,,,,,,,
18005,2448052,8500,1535376,136,1.0,2006,0.0,,3/25/2009 0:00,137,137,,,,,Skid Steer Loader - 1251.0 to 1351.0 Lb Operating Capacity,Texas,SSL,Skid Steer Loaders,,OROPS,None or Unspecified,,,,,,,,,,Auxiliary,,,,,,None or Unspecified,None or Unspecified,None or Unspecified,Standard,,,,,,,,,,,
18005,2744887,7000,1332481,149,1.0,2005,1016.0,Medium,2/15/2010 0:00,137,137,,,,,Skid Steer Loader - 1251.0 to 1351.0 Lb Operating Capacity,Florida,SSL,Skid Steer Loaders,,OROPS,None or Unspecified,,,,,,,,,,Auxiliary,,,,,,None or Unspecified,None or Unspecified,None or Unspecified,Standard,,,,,,,,,,,
18005,2744892,7000,1407562,149,1.0,2005,600.0,Low,2/15/2010 0:00,137,137,,,,,Skid Steer Loader - 1251.0 to 1351.0 Lb Operating Capacity,Florida,SSL,Skid Steer Loaders,,OROPS,None or Unspecified,,,,,,,,,,Auxiliary,,,,,,None or Unspecified,None or Unspecified,None or Unspecified,Standard,,,,,,,,,,,
