ModelID,SalesID,SalePrice,MachineID,datasource,auctioneerID,YearMade,MachineHoursCurrentMeter,UsageBand,saledate,fiModelDesc,fiBaseModel,fiSecondaryDesc,fiModelSeries,fiModelDescriptor,ProductSize,fiProductClassDesc,state,ProductGroup,ProductGroupDesc,Drive_System,Enclosure,Forks,Pad_Type,Ride_Control,Stick,Transmission,Turbocharged,Blade_Extension,Blade_Width,Enclosure_Type,Engine_Horsepower,Hydraulics,Pushblock,Ripper,Scarifier,Tip_Control,Tire_Size,Coupler,Coupler_System,Grouser_Tracks,Hydraulics_Flow,Track_Type,Undercarriage_Pad_Width,Stick_Length,Thumb,Pattern_Changer,Grouser_Type,Backhoe_Mounting,Blade_Type,Travel_Controls,Differential_Type,Steering_Controls
18011,1141695,5500,1062796,121,3.0,1000,367.0,Low,12/15/2005 0:00,25GT,25,GT,,,,Skid Steer Loader - 0.0 to 701.0 Lb Operating Capacity,South Carolina,SSL,Skid Steer Loaders,,OROPS,None or Unspecified,,,,,,,,,,Auxiliary,,,,,,None or Unspecified,None or Unspecified,Yes,Standard,,,,,,,,,,,
18011,1170365,5250,1051596,121,3.0,2001,648.0,Medium,11/16/2006 0:00,25GT,25,GT,,,,Skid Steer Loader - 0.0 to 701.0 Lb Operating Capacity,South Carolina,SSL,Skid Steer Loaders,,OROPS,None or Unspecified,,,,,,,,,,Auxiliary,,,,,,None or Unspecified,None or Unspecified,Yes,Standard,,,,,,,,,,,
18011,1172443,8000,1050873,121,3.0,2002,2.0,Low,9/8/2005 0:00,25GT,25,GT,,,,Skid Steer Loader - 0.0 to 701.0 Lb Operating Capacity,South Carolina,SSL,Skid Steer Loaders,,OROPS,None or Unspecified,,,,,,,,,,Auxiliary,,,,,,None or Unspecified,None or Unspecified,Yes,Standard,,,,,,,,,,,
18011,1175457,7750,1043689,121,3.0,2002,7.0,Low,9/8/2005 0:00,25GT,25,GT,,,,Skid Steer Loader - 0.0 to 701.0 Lb Operating Capacity,California,SSL,Skid Steer Loaders,,OROPS,None or Unspecified,,,,,,,,,,Auxiliary,,,,,,None or Unspecified,None or Unspecified,Yes,Standard,,,,,,,,,,,
18011,1175458,8250,1068596,121,3.0,2002,4.0,Low,9/8/2005 0:00,25GT,25,GT,,,,Skid Steer Loader - 0.0 to 701.0 Lb Operating Capacity,California,SSL,Skid Steer Loaders,,OROPS,None or Unspecified,,,,,,,,,,Auxiliary,,,,,,None or Unspecified,None or Unspecified,Yes,Standard,,,,,,,,,,,
18011,1175461,7750,1050831,121,3.0,2002,2.0,Low,6/30/2005 0:00,25GT,25,GT,,,,Skid Steer Loader - 0.0 to 701.0 Lb Operating Capacity,Texas,SSL,Skid Steer Loaders,,OROPS,None or Unspecified,,,,,,,,,,Auxiliary,,,,,,None or Unspecified,None or Unspecified,Yes,Standard,,,,,,,,,,,
18011,1175462,8000,1068528,121,3.0,2002,0.0,,6/30/2005 0:00,25GT,25,GT,,,,Skid Steer Loader - 0.0 to 701.0 Lb Operating Capacity,Texas,SSL,Skid Steer Loaders,,OROPS,None or Unspecified,,,,,,,,,,Auxiliary,,,,,,None or Unspecified,None or Unspecified,Yes,Standard,,,,,,,,,,,
18011,1842130,5000,1062796,132,3.0,1000,,,11/17/2005 0:00,25GT,25,GT,,,,Skid Steer Loader - 0.0 to 701.0 Lb Operating Capacity,Unspecified,SSL,Skid Steer Loaders,,OROPS,None or Unspecified,,,,,,,,,,Auxiliary,,,,,,None or Unspecified,None or Unspecified,Yes,Standard,,,,,,,,,,,
18011,1842134,5250,1257733,132,3.0,2001,,,11/16/2006 0:00,25GT,25,GT,,,,Skid Steer Loader - 0.0 to 701.0 Lb Operating Capacity,California,SSL,Skid Steer Loaders,,OROPS,None or Unspecified,,,,,,,,,,Standard,,,,,,None or Unspecified,None or Unspecified,None or Unspecified,Standard,,,,,,,,,,,
18011,1842135,5500,1541317,132,1.0,2003,,,12/13/2006 0:00,25GT,25,GT,,,,Skid Steer Loader - 0.0 to 701.0 Lb Operating Capacity,Maryland,SSL,Skid Steer Loaders,,OROPS,None or Unspecified,,,,,,,,,,Standard,,,,,,None or Unspecified,None or Unspecified,None or Unspecified,Standard,,,,,,,,,,,
18011,1842136,9500,1324651,132,1.0,2004,,,12/6/2007 0:00,25GT,25,GT,,,,Skid Steer Loader - 0.0 to 701.0 Lb Operating Capacity,Texas,SSL,Skid Steer Loaders,,OROPS,None or Unspecified,,,,,,,,,,Standard,,,,,,None or Unspecified,None or Unspecified,None or Unspecified,Standard,,,,,,,,,,,
18011,1842137,9000,1151986,132,1.0,2003,,,12/3/2008 0:00,25GT,25,GT,,,,Skid Steer Loader - 0.0 to 701.0 Lb Operating Capacity,Texas,SSL,Skid Steer Loaders,,OROPS,None or Unspecified,,,,,,,,,,Standard,,,,,,None or Unspecified,None or Unspecified,None or Unspecified,Standard,,,,,,,,,,,
18011,1842138,10500,1168784,132,13.0,2004,,,3/19/2011 0:00,25GT,25,GT,,,,Skid Steer Loader - 0.0 to 701.0 Lb Operating Capacity,Tennessee,SSL,Skid Steer Loaders,,OROPS,None or Unspecified,,,,,,,,,,Standard,,,,,,None or Unspecified,None or Unspecified,None or Unspecified,Standard,,,,,,,,,,,
