SalesID,1841786
SalePrice,14000
MachineID,1520481
datasource,132
auctioneerID,2.0
YearMade,1000
MachineHoursCurrentMeter,
UsageBand,
saledate,9/18/2004 0:00
fiModelDesc,T245
fiBaseModel,T245
fiSecondaryDesc,
fiModelSeries,
fiModelDescriptor,
ProductSize,
fiProductClassDesc,Skid Steer Loader - 2201.0 to 2701.0 Lb Operating Capacity
state,New Jersey
ProductGroup,SSL
ProductGroupDesc,Skid Steer Loaders
Drive_System,
Enclosure,OROPS
Forks,None or Unspecified
Pad_Type,
Ride_Control,
Stick,
Transmission,
Turbocharged,
Blade_Extension,
Blade_Width,
Enclosure_Type,
Engine_Horsepower,
Hydraulics,Standard
Pushblock,
Ripper,
Scarifier,
Tip_Control,
Tire_Size,
Coupler,None or Unspecified
Coupler_System,None or Unspecified
Grouser_Tracks,None or Unspecified
Hydraulics_Flow,Standard
Track_Type,
Undercarriage_Pad_Width,
Stick_Length,
Thumb,
Pattern_Changer,
Grouser_Type,
Backhoe_Mounting,
Blade_Type,
Travel_Controls,
Differential_Type,
Steering_Controls,
