SalesID,2752812
SalePrice,58000
MachineID,1889919
datasource,149
auctioneerID,12.0
YearMade,1000
MachineHoursCurrentMeter,7104.0
UsageBand,Low
saledate,11/17/2010 0:00
fiModelDesc,EC240LR
fiBaseModel,EC240
fiSecondaryDesc,
fiModelSeries,
fiModelDescriptor,LR
ProductSize,Large / Medium
fiProductClassDesc,"Hydraulic Excavator, Track - 24.0 to 28.0 Metric Tons"
state,South Carolina
ProductGroup,TEX
ProductGroupDesc,Track Excavators
Drive_System,
Enclosure,EROPS
Forks,
Pad_Type,
Ride_Control,
Stick,
Transmission,
Turbocharged,
Blade_Extension,
Blade_Width,
Enclosure_Type,
Engine_Horsepower,
Hydraulics,Standard
Pushblock,
Ripper,
Scarifier,
Tip_Control,
Tire_Size,
Coupler,None or Unspecified
Coupler_System,
Grouser_Tracks,
Hydraulics_Flow,
Track_Type,Steel
Undercarriage_Pad_Width,None or Unspecified
Stick_Length,None or Unspecified
Thumb,None or Unspecified
Pattern_Changer,None or Unspecified
Grouser_Type,Double
Backhoe_Mounting,
Blade_Type,
Travel_Controls,
Differential_Type,
Steering_Controls,
