ModelID,SalesID,SalePrice,MachineID,datasource,auctioneerID,YearMade,MachineHoursCurrentMeter,UsageBand,saledate,fiModelDesc,fiBaseModel,fiSecondaryDesc,fiModelSeries,fiModelDescriptor,ProductSize,fiProductClassDesc,state,ProductGroup,ProductGroupDesc,Drive_System,Enclosure,Forks,Pad_Type,Ride_Control,Stick,Transmission,Turbocharged,Blade_Extension,Blade_Width,Enclosure_Type,Engine_Horsepower,Hydraulics,Pushblock,Ripper,Scarifier,Tip_Control,Tire_Size,Coupler,Coupler_System,Grouser_Tracks,Hydraulics_Flow,Track_Type,Undercarriage_Pad_Width,Stick_Length,Thumb,Pattern_Changer,Grouser_Type,Backhoe_Mounting,Blade_Type,Travel_Controls,Differential_Type,Steering_Controls
18261,1140025,9500,1031356,121,3.0,2004,1079.0,Low,2/26/2010 0:00,MC70,MC70,,,,,Skid Steer Loader - 1351.0 to 1601.0 Lb Operating Capacity,Florida,SSL,Skid Steer Loaders,,OROPS,None or Unspecified,,,,,,,,,,Auxiliary,,,,,,Manual,Yes,None or Unspecified,Standard,,,,,,,,,,,
18261,1141020,11500,1005225,121,3.0,2004,1770.0,Medium,2/26/2010 0:00,MC70,MC70,,,,,Skid Steer Loader - 1351.0 to 1601.0 Lb Operating Capacity,Florida,SSL,Skid Steer Loaders,,OROPS,None or Unspecified,,,,,,,,,,Auxiliary,,,,,,Manual,Yes,None or Unspecified,Standard,,,,,,,,,,,
18261,1144932,9000,1048232,121,3.0,2004,692.0,Low,8/27/2009 0:00,MC70,MC70,,,,,Skid Steer Loader - 1351.0 to 1601.0 Lb Operating Capacity,Nevada,SSL,Skid Steer Loaders,,OROPS,None or Unspecified,,,,,,,,,,Auxiliary,,,,,,Manual,None or Unspecified,None or Unspecified,Standard,,,,,,,,,,,
18261,1146097,9000,1015004,121,3.0,2004,824.0,Low,8/27/2009 0:00,MC70,MC70,,,,,Skid Steer Loader - 1351.0 to 1601.0 Lb Operating Capacity,Nevada,SSL,Skid Steer Loaders,,OROPS,None or Unspecified,,,,,,,,,,Auxiliary,,,,,,Manual,Yes,None or Unspecified,Standard,,,,,,,,,,,
18261,1148345,6500,1040580,121,3.0,2004,850.0,Low,8/20/2009 0:00,MC70,MC70,,,,,Skid Steer Loader - 1351.0 to 1601.0 Lb Operating Capacity,Virginia,SSL,Skid Steer Loaders,,OROPS,None or Unspecified,,,,,,,,,,Auxiliary,,,,,,Manual,Yes,None or Unspecified,Standard,,,,,,,,,,,
18261,1149554,13000,1035957,121,3.0,2005,396.0,Medium,10/4/2007 0:00,MC70,MC70,,,,,Skid Steer Loader - 1351.0 to 1601.0 Lb Operating Capacity,California,SSL,Skid Steer Loaders,,OROPS,None or Unspecified,,,,,,,,,,Auxiliary,,,,,,None or Unspecified,None or Unspecified,None or Unspecified,Standard,,,,,,,,,,,
18261,1149566,9000,1066581,121,3.0,2003,952.0,Medium,5/10/2007 0:00,MC70,MC70,,,,,Skid Steer Loader - 1351.0 to 1601.0 Lb Operating Capacity,Georgia,SSL,Skid Steer Loaders,,OROPS,None or Unspecified,,,,,,,,,,Auxiliary,,,,,,None or Unspecified,None or Unspecified,None or Unspecified,Standard,,,,,,,,,,,
18261,1150848,6750,1022625,121,3.0,2003,700.0,Low,8/20/2009 0:00,MC70,MC70,,,,,Skid Steer Loader - 1351.0 to 1601.0 Lb Operating Capacity,Virginia,SSL,Skid Steer Loaders,,OROPS,None or Unspecified,,,,,,,,,,Auxiliary,,,,,,Manual,Yes,None or Unspecified,High Flow,,,,,,,,,,,
18261,1151362,8750,1064157,121,3.0,2004,877.0,Low,8/27/2009 0:00,MC70,MC70,,,,,Skid Steer Loader - 1351.0 to 1601.0 Lb Operating Capacity,Nevada,SSL,Skid Steer Loaders,,OROPS,None or Unspecified,,,,,,,,,,Auxiliary,,,,,,Manual,Yes,None or Unspecified,Standard,,,,,,,,,,,
18261,1151508,11000,1034092,121,3.0,2004,1470.0,High,10/4/2007 0:00,MC70,MC70,,,,,Skid Steer Loader - 1351.0 to 1601.0 Lb Operating Capacity,California,SSL,Skid Steer Loaders,,OROPS,None or Unspecified,,,,,,,,,,Auxiliary,,,,,,None or Unspecified,None or Unspecified,None or Unspecified,Standard,,,,,,,,,,,
18261,1166521,15000,1052370,121,3.0,2004,0.0,,8/11/2005 0:00,MC70,MC70,,,,,Skid Steer Loader - 1351.0 to 1601.0 Lb Operating Capacity,Florida,SSL,Skid Steer Loaders,,OROPS,None or Unspecified,,,,,,,,,,Auxiliary,,,,,,None or Unspecified,None or Unspecified,None or Unspecified,Standard,,,,,,,,,,,
18261,1166523,13000,1046424,121,3.0,2004,924.0,Medium,5/10/2007 0:00,MC70,MC70,,,,,Skid Steer Loader - 1351.0 to 1601.0 Lb Operating Capacity,Louisiana,SSL,Skid Steer Loaders,,OROPS,None or Unspecified,,,,,,,,,,Auxiliary,,,,,,None or Unspecified,None or Unspecified,None or Unspecified,Standard,,,,,,,,,,,
18261,1168202,9250,1022930,121,3.0,2005,852.0,Low,8/29/2011 0:00,MC70,MC70,,,,,Skid Steer Loader - 1351.0 to 1601.0 Lb Operating Capacity,Washington,SSL,Skid Steer Loaders,,OROPS,None or Unspecified,,,,,,,,,,Auxiliary,,,,,,Manual,Yes,None or Unspecified,Standard,,,,,,,,,,,
18261,1168283,13500,1019874,121,3.0,2004,466.0,Low,5/10/2007 0:00,MC70,MC70,,,,,Skid Steer Loader - 1351.0 to 1601.0 Lb Operating Capacity,Louisiana,SSL,Skid Steer Loaders,,OROPS,None or Unspecified,,,,,,,,,,Auxiliary,,,,,,None or Unspecified,None or Unspecified,None or Unspecified,Standard,,,,,,,,,,,
18261,1169650,10500,1035218,121,3.0,2003,1157.0,Medium,5/10/2007 0:00,MC70,MC70,,,,,Skid Steer Loader - 1351.0 to 1601.0 Lb Operating Capacity,Georgia,SSL,Skid Steer Loaders,,OROPS,None or Unspecified,,,,,,,,,,Auxiliary,,,,,,None or Unspecified,None or Unspecified,None or Unspecified,Standard,,,,,,,,,,,
18261,1171007,6500,1006827,121,3.0,2003,604.0,Low,8/20/2009 0:00,MC70,MC70,,,,,Skid Steer Loader - 1351.0 to 1601.0 Lb Operating Capacity,Virginia,SSL,Skid Steer Loaders,,OROPS,None or Unspecified,,,,,,,,,,Auxiliary,,,,,,Manual,Yes,None or Unspecified,High Flow,,,,,,,,,,,
18261,1172758,11000,1059702,121,3.0,2003,888.0,Medium,10/5/2006 0:00,MC70,MC70,,,,,Skid Steer Loader - 1351.0 to 1601.0 Lb Operating Capacity,California,SSL,Skid Steer Loaders,,OROPS,None or Unspecified,,,,,,,,,,Auxiliary,,,,,,None or Unspecified,None or Unspecified,None or Unspecified,Standard,,,,,,,,,,,
18261,1182103,12500,1027928,121,3.0,2005,228.0,Low,8/7/2008 0:00,MC70,MC70,,,,,Skid Steer Loader - 1351.0 to 1601.0 Lb Operating Capacity,Louisiana,SSL,Skid Steer Loaders,,OROPS,None or Unspecified,,,,,,,,,,Auxiliary,,,,,,Manual,Yes,None or Unspecified,Standard,,,,,,,,,,,
18261,1182474,8000,999526,121,3.0,2004,0.0,,9/4/2008 0:00,MC70,MC70,,,,,Skid Steer Loader - 1351.0 to 1601.0 Lb Operating Capacity,Kentucky,SSL,Skid Steer Loaders,,OROPS,None or Unspecified,,,,,,,,,,Auxiliary,,,,,,None or Unspecified,None or Unspecified,None or Unspecified,Standard,,,,,,,,,,,
18261,1183981,9500,1040716,121,3.0,2003,943.0,Low,10/30/2008 0:00,MC70,MC70,,,,,Skid Steer Loader - 1351.0 to 1601.0 Lb Operating Capacity,Florida,SSL,Skid Steer Loaders,,OROPS,None or Unspecified,,,,,,,,,,Auxiliary,,,,,,Manual,Yes,None or Unspecified,Standard,,,,,,,,,,,
18261,1194161,8750,1053179,121,3.0,2004,841.0,Low,10/8/2009 0:00,MC70,MC70,,,,,Skid Steer Loader - 1351.0 to 1601.0 Lb Operating Capacity,Nevada,SSL,Skid Steer Loaders,,OROPS,None or Unspecified,,,,,,,,,,Auxiliary,,,,,,Manual,Yes,None or Unspecified,Standard,,,,,,,,,,,
18261,1194162,8500,1005907,121,3.0,2004,976.0,Low,10/8/2009 0:00,MC70,MC70,,,,,Skid Steer Loader - 1351.0 to 1601.0 Lb Operating Capacity,Nevada,SSL,Skid Steer Loaders,,OROPS,None or Unspecified,,,,,,,,,,Auxiliary,,,,,,Manual,Yes,None or Unspecified,Standard,,,,,,,,,,,
18261,1200312,7000,1014285,121,3.0,2004,1988.0,Medium,4/15/2010 0:00,MC70,MC70,,,,,Skid Steer Loader - 1351.0 to 1601.0 Lb Operating Capacity,Texas,SSL,Skid Steer Loaders,,OROPS,None or Unspecified,,,,,,,,,,Auxiliary,,,,,,Manual,Yes,None or Unspecified,Standard,,,,,,,,,,,
18261,2456620,8000,1683038,136,1.0,2003,3309.0,High,5/6/2010 0:00,MC70,MC70,,,,,Skid Steer Loader - 1351.0 to 1601.0 Lb Operating Capacity,Texas,SSL,Skid Steer Loaders,,OROPS,None or Unspecified,,,,,,,,,,Auxiliary,,,,,,None or Unspecified,None or Unspecified,None or Unspecified,Standard,,,,,,,,,,,
18261,2456621,9000,1778440,136,1.0,2004,0.0,,6/9/2010 0:00,MC70,MC70,,,,,Skid Steer Loader - 1351.0 to 1601.0 Lb Operating Capacity,Texas,SSL,Skid Steer Loaders,,OROPS,None or Unspecified,,,,,,,,,,Auxiliary,,,,,,None or Unspecified,None or Unspecified,None or Unspecified,Standard,,,,,,,,,,,
18261,2456622,8500,1726594,136,1.0,1000,831.0,Low,5/14/2010 0:00,MC70,MC70,,,,,Skid Steer Loader - 1351.0 to 1601.0 Lb Operating Capacity,Nevada,SSL,Skid Steer Loaders,,OROPS,None or Unspecified,,,,,,,,,,Auxiliary,,,,,,None or Unspecified,None or Unspecified,None or Unspecified,Standard,,,,,,,,,,,
18261,2456623,7000,1737659,136,1.0,2004,0.0,,6/18/2009 0:00,MC70,MC70,,,,,Skid Steer Loader - 1351.0 to 1601.0 Lb Operating Capacity,Georgia,SSL,Skid Steer Loaders,,OROPS,None or Unspecified,,,,,,,,,,Auxiliary,,,,,,None or Unspecified,None or Unspecified,None or Unspecified,Standard,,,,,,,,,,,
18261,2456624,6500,1737659,136,1.0,2007,0.0,,3/26/2009 0:00,MC70,MC70,,,,,Skid Steer Loader - 1351.0 to 1601.0 Lb Operating Capacity,Georgia,SSL,Skid Steer Loaders,,OROPS,None or Unspecified,,,,,,,,,,Auxiliary,,,,,,None or Unspecified,None or Unspecified,None or Unspecified,Standard,,,,,,,,,,,
18261,2456625,6000,1735486,136,1.0,2004,0.0,,3/26/2009 0:00,MC70,MC70,,,,,Skid Steer Loader - 1351.0 to 1601.0 Lb Operating Capacity,Georgia,SSL,Skid Steer Loaders,,OROPS,None or Unspecified,,,,,,,,,,Auxiliary,,,,,,None or Unspecified,None or Unspecified,None or Unspecified,Standard,,,,,,,,,,,
18261,2456627,6000,1754426,136,1.0,2004,0.0,,3/26/2009 0:00,MC70,MC70,,,,,Skid Steer Loader - 1351.0 to 1601.0 Lb Operating Capacity,Georgia,SSL,Skid Steer Loaders,,OROPS,None or Unspecified,,,,,,,,,,Auxiliary,,,,,,None or Unspecified,None or Unspecified,None or Unspecified,Standard,,,,,,,,,,,
18261,2456628,6000,1748801,136,1.0,2005,0.0,,3/26/2009 0:00,MC70,MC70,,,,,Skid Steer Loader - 1351.0 to 1601.0 Lb Operating Capacity,Georgia,SSL,Skid Steer Loaders,,OROPS,None or Unspecified,,,,,,,,,,Auxiliary,,,,,,None or Unspecified,None or Unspecified,None or Unspecified,Standard,,,,,,,,,,,
18261,2749773,11000,1828738,149,,2004,,,3/23/2011 0:00,MC70,MC70,,,,,Skid Steer Loader - 1351.0 to 1601.0 Lb Operating Capacity,Mississippi,SSL,Skid Steer Loaders,,EROPS w AC,None or Unspecified,,,,,,,,,,2 Valve,,,,,,None or Unspecified,None or Unspecified,,,,,,,,,,,,,
18261,2749774,11000,1828738,149,1.0,2004,,,11/17/2010 0:00,MC70,MC70,,,,,Skid Steer Loader - 1351.0 to 1601.0 Lb Operating Capacity,Mississippi,SSL,Skid Steer Loaders,,EROPS w AC,None or Unspecified,,,,,,,,,,2 Valve,,,,,,None or Unspecified,None or Unspecified,,,,,,,,,,,,,
18261,2753227,10000,1884231,149,26.0,1000,,,12/2/2010 0:00,MC70,MC70,,,,,Skid Steer Loader - 1351.0 to 1601.0 Lb Operating Capacity,Alabama,SSL,Skid Steer Loaders,,OROPS,None or Unspecified,,,,,,,,,,Standard,,,,,,None or Unspecified,None or Unspecified,None or Unspecified,Standard,,,,,,,,,,,
18261,2753228,9250,1884231,149,5.0,2005,,,11/17/2010 0:00,MC70,MC70,,,,,Skid Steer Loader - 1351.0 to 1601.0 Lb Operating Capacity,Mississippi,SSL,Skid Steer Loaders,,OROPS,None or Unspecified,,,,,,,,,,Standard,,,,,,None or Unspecified,None or Unspecified,None or Unspecified,Standard,,,,,,,,,,,
18261,2754541,7500,1793719,149,1.0,2003,3449.0,Medium,3/18/2011 0:00,MC70,MC70,,,,,Skid Steer Loader - 1351.0 to 1601.0 Lb Operating Capacity,New Mexico,SSL,Skid Steer Loaders,,OROPS,None or Unspecified,,,,,,,,,,Auxiliary,,,,,,None or Unspecified,None or Unspecified,None or Unspecified,Standard,,,,,,,,,,,
18261,2754543,6500,1921441,149,1.0,2003,,,5/25/2010 0:00,MC70,MC70,,,,,Skid Steer Loader - 1351.0 to 1601.0 Lb Operating Capacity,Florida,SSL,Skid Steer Loaders,,OROPS,None or Unspecified,,,,,,,,,,Auxiliary,,,,,,None or Unspecified,None or Unspecified,None or Unspecified,Standard,,,,,,,,,,,
18261,2754547,7500,1840645,149,1.0,2004,3116.0,Medium,3/18/2011 0:00,MC70,MC70,,,,,Skid Steer Loader - 1351.0 to 1601.0 Lb Operating Capacity,New Mexico,SSL,Skid Steer Loaders,,OROPS,None or Unspecified,,,,,,,,,,Auxiliary,,,,,,None or Unspecified,None or Unspecified,None or Unspecified,Standard,,,,,,,,,,,
18261,2754548,13000,1824735,149,1.0,2004,371.0,Low,3/24/2011 0:00,MC70,MC70,,,,,Skid Steer Loader - 1351.0 to 1601.0 Lb Operating Capacity,Nevada,SSL,Skid Steer Loaders,,OROPS,None or Unspecified,,,,,,,,,,Auxiliary,,,,,,None or Unspecified,None or Unspecified,None or Unspecified,Standard,,,,,,,,,,,
18261,2754552,13000,1826711,149,1.0,2004,1545.0,Medium,3/8/2011 0:00,MC70,MC70,,,,,Skid Steer Loader - 1351.0 to 1601.0 Lb Operating Capacity,Washington,SSL,Skid Steer Loaders,,OROPS,None or Unspecified,,,,,,,,,,Auxiliary,,,,,,None or Unspecified,None or Unspecified,None or Unspecified,Standard,,,,,,,,,,,
18261,2754555,10000,1817031,149,26.0,1000,610.0,Low,6/8/2011 0:00,MC70,MC70,,,,,Skid Steer Loader - 1351.0 to 1601.0 Lb Operating Capacity,Alabama,SSL,Skid Steer Loaders,,OROPS,Yes,,,,,,,,,,Standard,,,,,,None or Unspecified,None or Unspecified,None or Unspecified,Standard,,,,,,,,,,,
18261,2754556,8000,1903946,149,99.0,2004,,,2/12/2010 0:00,MC70,MC70,,,,,Skid Steer Loader - 1351.0 to 1601.0 Lb Operating Capacity,California,SSL,Skid Steer Loaders,,OROPS,None or Unspecified,,,,,,,,,,Standard,,,,,,None or Unspecified,None or Unspecified,None or Unspecified,Standard,,,,,,,,,,,
18261,2754557,7500,1821855,149,1.0,2004,1413.0,Medium,6/10/2011 0:00,MC70,MC70,,,,,Skid Steer Loader - 1351.0 to 1601.0 Lb Operating Capacity,Nevada,SSL,Skid Steer Loaders,,OROPS,None or Unspecified,,,,,,,,,,Auxiliary,,,,,,None or Unspecified,None or Unspecified,None or Unspecified,Standard,,,,,,,,,,,
18261,2754559,6250,1836786,149,10.0,2005,,,6/15/2011 0:00,MC70,MC70,,,,,Skid Steer Loader - 1351.0 to 1601.0 Lb Operating Capacity,Louisiana,SSL,Skid Steer Loaders,,OROPS,None or Unspecified,,,,,,,,,,Standard,,,,,,None or Unspecified,None or Unspecified,None or Unspecified,Standard,,,,,,,,,,,
18261,2754562,8000,1685727,149,1.0,2003,,,3/30/2010 0:00,MC70,MC70,,,,,Skid Steer Loader - 1351.0 to 1601.0 Lb Operating Capacity,Maryland,SSL,Skid Steer Loaders,,OROPS,None or Unspecified,,,,,,,,,,Auxiliary,,,,,,None or Unspecified,None or Unspecified,None or Unspecified,Standard,,,,,,,,,,,
18261,2754563,11500,1889678,149,1.0,2003,810.0,Low,3/24/2011 0:00,MC70,MC70,,,,,Skid Steer Loader - 1351.0 to 1601.0 Lb Operating Capacity,Nevada,SSL,Skid Steer Loaders,,OROPS,None or Unspecified,,,,,,,,,,Auxiliary,,,,,,None or Unspecified,None or Unspecified,None or Unspecified,Standard,,,,,,,,,,,
18261,4395216,7000,1921441,172,1.0,2003,1016.0,Low,2/15/2010 0:00,MC70,MC70,,,,,Skid Steer Loader - 1351.0 to 1601.0 Lb Operating Capacity,Florida,SSL,Skid Steer Loaders,,OROPS,None or Unspecified,,,,,,,,,,Auxiliary,,,,,,None or Unspecified,None or Unspecified,None or Unspecified,Standard,,,,,,,,,,,
18261,4395229,6500,2312240,172,1.0,2003,1689.0,Medium,7/26/2011 0:00,MC70,MC70,,,,,Skid Steer Loader - 1351.0 to 1601.0 Lb Operating Capacity,Texas,SSL,Skid Steer Loaders,,EROPS,None or Unspecified,,,,,,,,,,Auxiliary,,,,,,None or Unspecified,None or Unspecified,None or Unspecified,Standard,,,,,,,,,,,
18261,4395234,13000,1750746,172,1.0,2002,,,2/16/2009 0:00,MC70,MC70,,,,,Skid Steer Loader - 1351.0 to 1601.0 Lb Operating Capacity,Florida,SSL,Skid Steer Loaders,,EROPS,None or Unspecified,,,,,,,,,,Auxiliary,,,,,,None or Unspecified,None or Unspecified,None or Unspecified,High Flow,,,,,,,,,,,
18261,6319944,7000,198250,149,99.0,2004,,,7/12/2011 0:00,MC70,MC70,,,,,Skid Steer Loader - 1351.0 to 1601.0 Lb Operating Capacity,New Mexico,SSL,Skid Steer Loaders,,OROPS,None or Unspecified,,,,,,,,,,Standard,,,,,,None or Unspecified,None or Unspecified,None or Unspecified,Standard,,,,,,,,,,,
18261,6320443,6500,1793648,149,1.0,2003,,,7/27/2011 0:00,MC70,MC70,,,,,Skid Steer Loader - 1351.0 to 1601.0 Lb Operating Capacity,Texas,SSL,Skid Steer Loaders,,OROPS,None or Unspecified,,,,,,,,,,Standard,,,,,,None or Unspecified,None or Unspecified,None or Unspecified,Standard,,,,,,,,,,,
