ModelID,SalesID,SalePrice,MachineID,datasource,auctioneerID,YearMade,MachineHoursCurrentMeter,UsageBand,saledate,fiModelDesc,fiBaseModel,fiSecondaryDesc,fiModelSeries,fiModelDescriptor,ProductSize,fiProductClassDesc,state,ProductGroup,ProductGroupDesc,Drive_System,Enclosure,Forks,Pad_Type,Ride_Control,Stick,Transmission,Turbocharged,Blade_Extension,Blade_Width,Enclosure_Type,Engine_Horsepower,Hydraulics,Pushblock,Ripper,Scarifier,Tip_Control,Tire_Size,Coupler,Coupler_System,Grouser_Tracks,Hydraulics_Flow,Track_Type,Undercarriage_Pad_Width,Stick_Length,Thumb,Pattern_Changer,Grouser_Type,Backhoe_Mounting,Blade_Type,Travel_Controls,Differential_Type,Steering_Controls
18266,1153889,15000,1068744,121,3.0,2007,116.0,Low,8/13/2009 0:00,MC90B,MC90,B,,,,Skid Steer Loader - 1751.0 to 2201.0 Lb Operating Capacity,Colorado,SSL,Skid Steer Loaders,,OROPS,None or Unspecified,,,,,,,,,,Auxiliary,,,,,,Manual,Yes,None or Unspecified,High Flow,,,,,,,,,,,
18266,1155619,10000,1019977,121,3.0,2006,1328.0,Medium,5/12/2011 0:00,MC90B,MC90,B,,,,Skid Steer Loader - 1751.0 to 2201.0 Lb Operating Capacity,New Mexico,SSL,Skid Steer Loaders,,OROPS,None or Unspecified,,,,,,,,,,Auxiliary,,,,,,Manual,Yes,None or Unspecified,Standard,,,,,,,,,,,
18266,1158911,15000,1018107,121,3.0,2007,101.0,Low,8/13/2009 0:00,MC90B,MC90,B,,,,Skid Steer Loader - 1751.0 to 2201.0 Lb Operating Capacity,Colorado,SSL,Skid Steer Loaders,,OROPS,None or Unspecified,,,,,,,,,,Auxiliary,,,,,,Manual,Yes,None or Unspecified,Standard,,,,,,,,,,,
18266,1167536,15500,1053382,121,3.0,2007,82.0,Low,8/13/2009 0:00,MC90B,MC90,B,,,,Skid Steer Loader - 1751.0 to 2201.0 Lb Operating Capacity,Colorado,SSL,Skid Steer Loaders,,OROPS,None or Unspecified,,,,,,,,,,Auxiliary,,,,,,Manual,Yes,None or Unspecified,Standard,,,,,,,,,,,
18266,1173066,15500,1061894,121,3.0,2007,95.0,Low,8/13/2009 0:00,MC90B,MC90,B,,,,Skid Steer Loader - 1751.0 to 2201.0 Lb Operating Capacity,Colorado,SSL,Skid Steer Loaders,,OROPS,None or Unspecified,,,,,,,,,,Auxiliary,,,,,,Manual,Yes,None or Unspecified,Standard,,,,,,,,,,,
18266,1198227,15500,1051728,121,3.0,2006,423.0,Low,1/29/2010 0:00,MC90B,MC90,B,,,,Skid Steer Loader - 1751.0 to 2201.0 Lb Operating Capacity,Colorado,SSL,Skid Steer Loaders,,OROPS,None or Unspecified,,,,,,,,,,Auxiliary,,,,,,Manual,Yes,None or Unspecified,Standard,,,,,,,,,,,
18266,1200917,18000,1047529,121,3.0,2006,196.0,Low,4/29/2010 0:00,MC90B,MC90,B,,,,Skid Steer Loader - 1751.0 to 2201.0 Lb Operating Capacity,Wisconsin,SSL,Skid Steer Loaders,,OROPS,None or Unspecified,,,,,,,,,,Auxiliary,,,,,,Manual,Yes,None or Unspecified,Standard,,,,,,,,,,,
18266,1204847,11000,1055560,121,3.0,2007,,,8/12/2010 0:00,MC90B,MC90,B,,,,Skid Steer Loader - 1751.0 to 2201.0 Lb Operating Capacity,Colorado,SSL,Skid Steer Loaders,,OROPS,None or Unspecified,,,,,,,,,,Auxiliary,,,,,,Manual,Yes,None or Unspecified,Standard,,,,,,,,,,,
18266,2457125,20000,1688054,136,1.0,2008,4.0,Low,3/30/2010 0:00,MC90B,MC90,B,,,,Skid Steer Loader - 1751.0 to 2201.0 Lb Operating Capacity,Maryland,SSL,Skid Steer Loaders,,OROPS,None or Unspecified,,,,,,,,,,Auxiliary,,,,,,None or Unspecified,None or Unspecified,None or Unspecified,Standard,,,,,,,,,,,
18266,2755551,16000,1864241,149,1.0,2008,359.0,Low,3/11/2010 0:00,MC90B,MC90,B,,,,Skid Steer Loader - 1751.0 to 2201.0 Lb Operating Capacity,Illinois,SSL,Skid Steer Loaders,,OROPS,None or Unspecified,,,,,,,,,,Auxiliary,,,,,,None or Unspecified,None or Unspecified,Yes,Standard,,,,,,,,,,,
18266,2755556,19000,1875700,149,1.0,2008,36.0,Low,3/30/2010 0:00,MC90B,MC90,B,,,,Skid Steer Loader - 1751.0 to 2201.0 Lb Operating Capacity,Maryland,SSL,Skid Steer Loaders,,OROPS,None or Unspecified,,,,,,,,,,Auxiliary,,,,,,None or Unspecified,None or Unspecified,None or Unspecified,Standard,,,,,,,,,,,
18266,2755743,20000,1668192,149,1.0,2008,81.0,Low,2/15/2010 0:00,MC90B,MC90,B,,,,Skid Steer Loader - 1751.0 to 2201.0 Lb Operating Capacity,Florida,SSL,Skid Steer Loaders,,OROPS,Yes,,,,,,,,,,Auxiliary,,,,,,None or Unspecified,None or Unspecified,None or Unspecified,Standard,,,,,,,,,,,
18266,2755760,18000,1839362,149,1.0,2007,247.0,Low,3/11/2010 0:00,MC90B,MC90,B,,,,Skid Steer Loader - 1751.0 to 2201.0 Lb Operating Capacity,Illinois,SSL,Skid Steer Loaders,,EROPS,None or Unspecified,,,,,,,,,,Auxiliary,,,,,,None or Unspecified,None or Unspecified,None or Unspecified,High Flow,,,,,,,,,,,
18266,4395595,12500,2289972,172,1.0,2008,1189.0,Medium,12/14/2011 0:00,MC90B,MC90,B,,,,Skid Steer Loader - 1751.0 to 2201.0 Lb Operating Capacity,California,SSL,Skid Steer Loaders,,OROPS,None or Unspecified,,,,,,,,,,Auxiliary,,,,,,None or Unspecified,None or Unspecified,None or Unspecified,Standard,,,,,,,,,,,
18266,4395849,17500,2268541,172,1.0,2008,2.0,Low,9/29/2009 0:00,MC90B,MC90,B,,,,Skid Steer Loader - 1751.0 to 2201.0 Lb Operating Capacity,Minnesota,SSL,Skid Steer Loaders,,OROPS,None or Unspecified,,,,,,,,,,Auxiliary,,,,,,None or Unspecified,None or Unspecified,None or Unspecified,Standard,,,,,,,,,,,
18266,4395896,9500,2281051,172,1.0,2006,1418.0,High,4/2/2009 0:00,MC90B,MC90,B,,,,Skid Steer Loader - 1751.0 to 2201.0 Lb Operating Capacity,New Mexico,SSL,Skid Steer Loaders,,OROPS,None or Unspecified,,,,,,,,,,Auxiliary,,,,,,None or Unspecified,None or Unspecified,None or Unspecified,Standard,,,,,,,,,,,
18266,4395899,18000,2270440,172,1.0,2007,247.0,Low,3/11/2010 0:00,MC90B,MC90,B,,,,Skid Steer Loader - 1751.0 to 2201.0 Lb Operating Capacity,Illinois,SSL,Skid Steer Loaders,,EROPS,None or Unspecified,,,,,,,,,,Auxiliary,,,,,,None or Unspecified,None or Unspecified,None or Unspecified,Standard,,,,,,,,,,,
18266,6320754,12500,1914916,149,1.0,2008,,,12/15/2011 0:00,MC90B,MC90,B,,,,Skid Steer Loader - 1751.0 to 2201.0 Lb Operating Capacity,California,SSL,Skid Steer Loaders,,OROPS,None or Unspecified,,,,,,,,,,Auxiliary,,,,,,None or Unspecified,None or Unspecified,None or Unspecified,Standard,,,,,,,,,,,
18266,6320871,15200,1827657,149,0.0,2006,24.0,Low,12/14/2011 0:00,MC90B,MC90,B,,,,Skid Steer Loader - 1751.0 to 2201.0 Lb Operating Capacity,Montana,SSL,Skid Steer Loaders,,OROPS,None or Unspecified,,,,,,,,,,Standard,,,,,,None or Unspecified,None or Unspecified,None or Unspecified,Standard,,,,,,,,,,,
18266,6320872,10500,1899073,149,1.0,2008,,,12/7/2011 0:00,MC90B,MC90,B,,,,Skid Steer Loader - 1751.0 to 2201.0 Lb Operating Capacity,New Mexico,SSL,Skid Steer Loaders,,OROPS,None or Unspecified,,,,,,,,,,Auxiliary,,,,,,None or Unspecified,None or Unspecified,None or Unspecified,Standard,,,,,,,,,,,
