ModelID,SalesID,SalePrice,MachineID,datasource,auctioneerID,YearMade,MachineHoursCurrentMeter,UsageBand,saledate,fiModelDesc,fiBaseModel,fiSecondaryDesc,fiModelSeries,fiModelDescriptor,ProductSize,fiProductClassDesc,state,ProductGroup,ProductGroupDesc,Drive_System,Enclosure,Forks,Pad_Type,Ride_Control,Stick,Transmission,Turbocharged,Blade_Extension,Blade_Width,Enclosure_Type,Engine_Horsepower,Hydraulics,Pushblock,Ripper,Scarifier,Tip_Control,Tire_Size,Coupler,Coupler_System,Grouser_Tracks,Hydraulics_Flow,Track_Type,Undercarriage_Pad_Width,Stick_Length,Thumb,Pattern_Changer,Grouser_Type,Backhoe_Mounting,Blade_Type,Travel_Controls,Differential_Type,Steering_Controls
18606,1156327,12500,1043673,121,3.0,2006,1855.0,High,3/5/2009 0:00,CTL80,CTL80,,,,,Skid Steer Loader - 2701.0+ Lb Operating Capacity,Wisconsin,SSL,Skid Steer Loaders,,OROPS,None or Unspecified,,,,,,,,,,Auxiliary,,,,,,Manual,Yes,Yes,Standard,,,,,,,,,,,
18606,1167255,17500,1061424,121,3.0,2004,787.0,Medium,6/28/2007 0:00,CTL80,CTL80,,,,,Skid Steer Loader - 2701.0+ Lb Operating Capacity,Florida,SSL,Skid Steer Loaders,,OROPS,None or Unspecified,,,,,,,,,,Auxiliary,,,,,,None or Unspecified,None or Unspecified,Yes,Standard,,,,,,,,,,,
18606,1184776,10500,1066154,121,3.0,2004,2542.0,High,12/5/2008 0:00,CTL80,CTL80,,,,,Skid Steer Loader - 2701.0+ Lb Operating Capacity,Delaware,SSL,Skid Steer Loaders,,OROPS,None or Unspecified,,,,,,,,,,Auxiliary,,,,,,None or Unspecified,None or Unspecified,Yes,Standard,,,,,,,,,,,
18606,1188749,17000,1061242,121,3.0,2007,1644.0,High,4/17/2009 0:00,CTL80,CTL80,,,,,Skid Steer Loader - 2701.0+ Lb Operating Capacity,Illinois,SSL,Skid Steer Loaders,,EROPS w AC,None or Unspecified,,,,,,,,,,Auxiliary,,,,,,Manual,Yes,Yes,Standard,,,,,,,,,,,
18606,1188750,14000,1010341,121,3.0,2006,2762.0,High,4/17/2009 0:00,CTL80,CTL80,,,,,Skid Steer Loader - 2701.0+ Lb Operating Capacity,Illinois,SSL,Skid Steer Loaders,,EROPS w AC,None or Unspecified,,,,,,,,,,Auxiliary,,,,,,Manual,Yes,Yes,Standard,,,,,,,,,,,
18606,1200081,16000,1034673,121,3.0,2005,2183.0,Medium,3/26/2010 0:00,CTL80,CTL80,,,,,Skid Steer Loader - 2701.0+ Lb Operating Capacity,Florida,SSL,Skid Steer Loaders,,EROPS w AC,None or Unspecified,,,,,,,,,,Auxiliary,,,,,,Manual,Yes,Yes,Standard,,,,,,,,,,,
18606,1203779,17500,1021895,121,3.0,2005,1635.0,Medium,6/30/2010 0:00,CTL80,CTL80,,,,,Skid Steer Loader - 2701.0+ Lb Operating Capacity,New York,SSL,Skid Steer Loaders,,OROPS,Yes,,,,,,,,,,Auxiliary,,,,,,None or Unspecified,None or Unspecified,Yes,Standard,,,,,,,,,,,
18606,1221386,15500,1001408,121,3.0,2003,1803.0,Medium,12/1/2011 0:00,CTL80,CTL80,,,,,Skid Steer Loader - 2701.0+ Lb Operating Capacity,Wisconsin,SSL,Skid Steer Loaders,,OROPS,None or Unspecified,,,,,,,,,,Auxiliary,,,,,,Hydraulic,Yes,Yes,Standard,,,,,,,,,,,
18606,1852849,13500,1305918,132,1.0,2005,,,11/6/2007 0:00,CTL80,CTL80,,,,,Skid Steer Loader - 2701.0+ Lb Operating Capacity,Tennessee,SSL,Skid Steer Loaders,,OROPS,None or Unspecified,,,,,,,,,,Standard,,,,,,None or Unspecified,None or Unspecified,None or Unspecified,Standard,,,,,,,,,,,
18606,1852850,13500,1305918,132,1.0,1000,,,9/21/2007 0:00,CTL80,CTL80,,,,,Skid Steer Loader - 2701.0+ Lb Operating Capacity,Minnesota,SSL,Skid Steer Loaders,,OROPS,None or Unspecified,,,,,,,,,,Standard,,,,,,None or Unspecified,None or Unspecified,None or Unspecified,Standard,,,,,,,,,,,
18606,1852851,16000,1316017,132,1.0,2004,,,10/10/2006 0:00,CTL80,CTL80,,,,,Skid Steer Loader - 2701.0+ Lb Operating Capacity,Florida,SSL,Skid Steer Loaders,,OROPS,None or Unspecified,,,,,,,,,,Standard,,,,,,None or Unspecified,None or Unspecified,None or Unspecified,Standard,,,,,,,,,,,
18606,1852855,16250,1197748,132,5.0,2004,,,12/19/2008 0:00,CTL80,CTL80,,,,,Skid Steer Loader - 2701.0+ Lb Operating Capacity,Ohio,SSL,Skid Steer Loaders,,OROPS,None or Unspecified,,,,,,,,,,Standard,,,,,,None or Unspecified,None or Unspecified,None or Unspecified,Standard,,,,,,,,,,,
18606,1852856,16500,1538473,132,1.0,2005,1329.0,High,9/26/2007 0:00,CTL80,CTL80,,,,,Skid Steer Loader - 2701.0+ Lb Operating Capacity,Texas,SSL,Skid Steer Loaders,,OROPS,None or Unspecified,,,,,,,,,,Standard,,,,,,None or Unspecified,None or Unspecified,None or Unspecified,Standard,,,,,,,,,,,
18606,2457928,15000,1390199,136,1.0,2003,0.0,,3/26/2009 0:00,CTL80,CTL80,,,,,Skid Steer Loader - 2701.0+ Lb Operating Capacity,Georgia,SSL,Skid Steer Loaders,,OROPS,None or Unspecified,,,,,,,,,,Auxiliary,,,,,,None or Unspecified,None or Unspecified,Yes,Standard,,,,,,,,,,,
18606,2457929,13500,1533716,136,12.0,2003,0.0,,6/17/2009 0:00,CTL80,CTL80,,,,,Skid Steer Loader - 2701.0+ Lb Operating Capacity,South Carolina,SSL,Skid Steer Loaders,,OROPS,None or Unspecified,,,,,,,,,,Standard,,,,,,None or Unspecified,None or Unspecified,Yes,Standard,,,,,,,,,,,
18606,2457937,18000,1541097,136,1.0,2005,0.0,,5/27/2009 0:00,CTL80,CTL80,,,,,Skid Steer Loader - 2701.0+ Lb Operating Capacity,Florida,SSL,Skid Steer Loaders,,OROPS,None or Unspecified,,,,,,,,,,Auxiliary,,,,,,None or Unspecified,None or Unspecified,None or Unspecified,Standard,,,,,,,,,,,
18606,2758954,14000,1403591,149,1.0,2004,,,2/25/2010 0:00,CTL80,CTL80,,,,,Skid Steer Loader - 2701.0+ Lb Operating Capacity,Texas,SSL,Skid Steer Loaders,,OROPS,None or Unspecified,,,,,,,,,,Auxiliary,,,,,,None or Unspecified,None or Unspecified,Yes,Standard,,,,,,,,,,,
18606,6321533,11000,1386453,149,1.0,2003,,,8/2/2011 0:00,CTL80,CTL80,,,,,Skid Steer Loader - 2701.0+ Lb Operating Capacity,Illinois,SSL,Skid Steer Loaders,,OROPS,None or Unspecified,,,,,,,,,,Standard,,,,,,None or Unspecified,None or Unspecified,None or Unspecified,Standard,,,,,,,,,,,
18606,6321536,20000,1863714,149,1.0,2005,,,9/28/2011 0:00,CTL80,CTL80,,,,,Skid Steer Loader - 2701.0+ Lb Operating Capacity,North Carolina,SSL,Skid Steer Loaders,,EROPS w AC,None or Unspecified,,,,,,,,,,Auxiliary,,,,,,None or Unspecified,None or Unspecified,None or Unspecified,Standard,,,,,,,,,,,
