ModelID,SalesID,SalePrice,MachineID,datasource,auctioneerID,YearMade,MachineHoursCurrentMeter,UsageBand,saledate,fiModelDesc,fiBaseModel,fiSecondaryDesc,fiModelSeries,fiModelDescriptor,ProductSize,fiProductClassDesc,state,ProductGroup,ProductGroupDesc,Drive_System,Enclosure,Forks,Pad_Type,Ride_Control,Stick,Transmission,Turbocharged,Blade_Extension,Blade_Width,Enclosure_Type,Engine_Horsepower,Hydraulics,Pushblock,Ripper,Scarifier,Tip_Control,Tire_Size,Coupler,Coupler_System,Grouser_Tracks,Hydraulics_Flow,Track_Type,Undercarriage_Pad_Width,Stick_Length,Thumb,Pattern_Changer,Grouser_Type,Backhoe_Mounting,Blade_Type,Travel_Controls,Differential_Type,Steering_Controls
1861,1140065,30000,1069019,121,3.0,2003,3272.0,Medium,12/6/2007 0:00,450HLT,450,H,,LT,,"Track Type Tractor, Dozer - 20.0 to 75.0 Horsepower",Ohio,TTT,Track Type Tractors,,OROPS,,,,,Hydrostatic,,,,,,2 Valve,,None or Unspecified,,,,,,,,,,,,,,None or Unspecified,PAT,None or Unspecified,,
1861,1155605,19000,1047264,121,3.0,2002,3761.0,Medium,11/18/2010 0:00,450HLT,450,H,,LT,,"Track Type Tractor, Dozer - 20.0 to 75.0 Horsepower",Texas,TTT,Track Type Tractors,,OROPS,,,,,Hydrostatic,,,,,,2 Valve,,None or Unspecified,,,,,,,,,,,,,,None or Unspecified,None or Unspecified,None or Unspecified,,
1861,1158951,44000,1045425,121,3.0,2004,817.0,Low,4/19/2007 0:00,450HLT,450,H,,LT,,"Track Type Tractor, Dozer - 20.0 to 75.0 Horsepower",Texas,TTT,Track Type Tractors,,OROPS,,,,,Hydrostatic,,,,,,2 Valve,,None or Unspecified,,,,,,,,,,,,,,None or Unspecified,None or Unspecified,None or Unspecified,,
1861,1158997,34500,1023402,121,3.0,2001,3295.0,Medium,3/8/2007 0:00,450HLT,450,H,,LT,,"Track Type Tractor, Dozer - 20.0 to 75.0 Horsepower",West Virginia,TTT,Track Type Tractors,,OROPS,,,,,Hydrostatic,,,,,,2 Valve,,None or Unspecified,,,,,,,,,,,,,,None or Unspecified,None or Unspecified,None or Unspecified,,
1861,1199187,28500,1037104,121,3.0,2004,,,3/4/2010 0:00,450HLT,450,H,,LT,,"Track Type Tractor, Dozer - 20.0 to 75.0 Horsepower",Indiana,TTT,Track Type Tractors,,EROPS w AC,,,,,Hydrostatic,,,,,,2 Valve,,None or Unspecified,,,,,,,,,,,,,,None or Unspecified,None or Unspecified,None or Unspecified,,
1861,1200001,17500,1029958,121,3.0,1999,6510.0,Medium,3/25/2010 0:00,450HLT,450,H,,LT,,"Track Type Tractor, Dozer - 20.0 to 75.0 Horsepower",Indiana,TTT,Track Type Tractors,,OROPS,,,,,Hydrostatic,,,,,,2 Valve,,None or Unspecified,,,,,,,,,,,,,,None or Unspecified,None or Unspecified,None or Unspecified,,
1861,1219777,22000,1067258,121,3.0,2000,,,10/27/2011 0:00,450HLT,450,H,,LT,,"Track Type Tractor, Dozer - 20.0 to 75.0 Horsepower",Alabama,TTT,Track Type Tractors,,OROPS,,,,,Hydrostatic,,,,,,2 Valve,,None or Unspecified,,,,,,,,,,,,,,None or Unspecified,PAT,None or Unspecified,,
1861,1221448,14500,1019356,121,3.0,2002,6170.0,Medium,12/1/2011 0:00,450HLT,450,H,,LT,,"Track Type Tractor, Dozer - 20.0 to 75.0 Horsepower",California,TTT,Track Type Tractors,,OROPS,,,,,Hydrostatic,,,,,,2 Valve,,None or Unspecified,,,,,,,,,,,,,,None or Unspecified,PAT,None or Unspecified,,
1861,1597314,40000,1083588,132,4.0,2004,,,2/14/2007 0:00,450HLT,450,H,,LT,,"Track Type Tractor, Dozer - 20.0 to 75.0 Horsepower",Florida,TTT,Track Type Tractors,,EROPS,,,,,Standard,,,,,,2 Valve,,Single Shank,,,,,,,,,,,,,,None or Unspecified,PAT,None or Unspecified,,
1861,1633808,23500,1214831,132,5.0,1999,,,4/10/2008 0:00,450HLT,450,H,,LT,,"Track Type Tractor, Dozer - 20.0 to 75.0 Horsepower",Connecticut,TTT,Track Type Tractors,,OROPS,,,,,Standard,,,,,,2 Valve,,None or Unspecified,,,,,,,,,,,,,,None or Unspecified,PAT,None or Unspecified,,
1861,1633809,29000,1464845,132,1.0,1999,,,6/26/2008 0:00,450HLT,450,H,,LT,,"Track Type Tractor, Dozer - 20.0 to 75.0 Horsepower",Georgia,TTT,Track Type Tractors,,EROPS w AC,,,,,Standard,,,,,,2 Valve,,None or Unspecified,,,,,,,,,,,,,,None or Unspecified,PAT,None or Unspecified,,
1861,1633945,24500,1245468,132,2.0,2000,,,1/19/2008 0:00,450HLT,450,H,,LT,,"Track Type Tractor, Dozer - 20.0 to 75.0 Horsepower",Ohio,TTT,Track Type Tractors,,OROPS,,,,,Standard,,,,,,2 Valve,,None or Unspecified,,,,,,,,,,,,,,None or Unspecified,PAT,None or Unspecified,,
1861,1633989,22000,1195103,132,99.0,1999,,,6/3/2011 0:00,450HLT,450,H,,LT,,"Track Type Tractor, Dozer - 20.0 to 75.0 Horsepower",Minnesota,TTT,Track Type Tractors,,OROPS,,,,,Standard,,,,,,2 Valve,,None or Unspecified,,,,,,,,,,,,,,None or Unspecified,PAT,None or Unspecified,,
1861,1634032,18000,1167374,132,1.0,1999,,,6/2/2010 0:00,450HLT,450,H,,LT,,"Track Type Tractor, Dozer - 20.0 to 75.0 Horsepower",Maryland,TTT,Track Type Tractors,,OROPS,,,,,Standard,,,,,,2 Valve,,None or Unspecified,,,,,,,,,,,,,,None or Unspecified,PAT,None or Unspecified,,
1861,1634098,19000,1304989,132,1.0,1999,,,3/11/2010 0:00,450HLT,450,H,,LT,,"Track Type Tractor, Dozer - 20.0 to 75.0 Horsepower",Illinois,TTT,Track Type Tractors,,OROPS,,,,,Standard,,,,,,2 Valve,,None or Unspecified,,,,,,,,,,,,,,None or Unspecified,PAT,None or Unspecified,,
1861,1634146,25000,1476634,132,1.0,1999,7200.0,Medium,3/8/2011 0:00,450HLT,450,H,,LT,,"Track Type Tractor, Dozer - 20.0 to 75.0 Horsepower",Washington,TTT,Track Type Tractors,,OROPS,,,,,Standard,,,,,,2 Valve,,Multi Shank,,,,,,,,,,,,,,None or Unspecified,PAT,None or Unspecified,,
1861,1634251,36000,1194440,132,1.0,1999,,,7/12/2006 0:00,450HLT,450,H,,LT,,"Track Type Tractor, Dozer - 20.0 to 75.0 Horsepower",Texas,TTT,Track Type Tractors,,OROPS,,,,,Standard,,,,,,2 Valve,,None or Unspecified,,,,,,,,,,,,,,None or Unspecified,PAT,None or Unspecified,,
1861,1634301,41000,1250894,132,2.0,1999,,,4/30/2005 0:00,450HLT,450,H,,LT,,"Track Type Tractor, Dozer - 20.0 to 75.0 Horsepower",Maine,TTT,Track Type Tractors,,OROPS,,,,,Hydrostatic,,,,,,2 Valve,,None or Unspecified,,,,,,,,,,,,,,None or Unspecified,PAT,None or Unspecified,,
1861,1634352,19000,1093732,132,1.0,1999,,,7/29/2010 0:00,450HLT,450,H,,LT,,"Track Type Tractor, Dozer - 20.0 to 75.0 Horsepower",Washington,TTT,Track Type Tractors,,OROPS,,,,,Standard,,,,,,2 Valve,,None or Unspecified,,,,,,,,,,,,,,None or Unspecified,PAT,None or Unspecified,,
1861,1634359,39000,1412735,132,1.0,1999,,,5/31/2006 0:00,450HLT,450,H,,LT,,"Track Type Tractor, Dozer - 20.0 to 75.0 Horsepower",Illinois,TTT,Track Type Tractors,,OROPS,,,,,Standard,,,,,,2 Valve,,None or Unspecified,,,,,,,,,,,,,,None or Unspecified,PAT,None or Unspecified,,
1861,1634360,18000,1092585,132,1.0,1999,,,3/18/2010 0:00,450HLT,450,H,,LT,,"Track Type Tractor, Dozer - 20.0 to 75.0 Horsepower",Missouri,TTT,Track Type Tractors,,OROPS,,,,,Standard,,,,,,2 Valve,,None or Unspecified,,,,,,,,,,,,,,None or Unspecified,PAT,None or Unspecified,,
1861,1634414,27000,1395394,132,10.0,1999,,,9/6/2006 0:00,450HLT,450,H,,LT,,"Track Type Tractor, Dozer - 20.0 to 75.0 Horsepower",Louisiana,TTT,Track Type Tractors,,OROPS,,,,,Standard,,,,,,2 Valve,,None or Unspecified,,,,,,,,,,,,,,None or Unspecified,PAT,None or Unspecified,,
1861,1634474,19000,1371570,132,1.0,1999,,,9/30/2009 0:00,450HLT,450,H,,LT,,"Track Type Tractor, Dozer - 20.0 to 75.0 Horsepower",Maryland,TTT,Track Type Tractors,,OROPS,,,,,Standard,,,,,,2 Valve,,None or Unspecified,,,,,,,,,,,,,,None or Unspecified,PAT,None or Unspecified,,
1861,1634531,30500,1237556,132,2.0,1999,,,2/10/2006 0:00,450HLT,450,H,,LT,,"Track Type Tractor, Dozer - 20.0 to 75.0 Horsepower",Florida,TTT,Track Type Tractors,,OROPS,,,,,Standard,,,,,,2 Valve,,None or Unspecified,,,,,,,,,,,,,,None or Unspecified,PAT,None or Unspecified,,
1861,1634556,47500,1555873,132,1.0,1999,,,9/22/2005 0:00,450HLT,450,H,,LT,,"Track Type Tractor, Dozer - 20.0 to 75.0 Horsepower",Washington,TTT,Track Type Tractors,,OROPS,,,,,Standard,,,,,,2 Valve,,Multi Shank,,,,,,,,,,,,,,None or Unspecified,PAT,None or Unspecified,,
1861,1634572,27000,1550743,132,1.0,1999,,,12/13/2006 0:00,450HLT,450,H,,LT,,"Track Type Tractor, Dozer - 20.0 to 75.0 Horsepower",Maryland,TTT,Track Type Tractors,,OROPS,,,,,Standard,,,,,,2 Valve,,None or Unspecified,,,,,,,,,,,,,,None or Unspecified,PAT,None or Unspecified,,
1861,1634581,27000,1514813,132,27.0,1999,,,12/29/2006 0:00,450HLT,450,H,,LT,,"Track Type Tractor, Dozer - 20.0 to 75.0 Horsepower",North Carolina,TTT,Track Type Tractors,,OROPS,,,,,Standard,,,,,,2 Valve,,None or Unspecified,,,,,,,,,,,,,,None or Unspecified,PAT,None or Unspecified,,
1861,1634746,32500,1285940,132,2.0,2004,,,3/27/2008 0:00,450HLT,450,H,,LT,,"Track Type Tractor, Dozer - 20.0 to 75.0 Horsepower",New Jersey,TTT,Track Type Tractors,,EROPS,,,,,Hydrostatic,,,,,,2 Valve,,None or Unspecified,,,,,,,,,,,,,,None or Unspecified,PAT,None or Unspecified,,
1861,1634782,30000,1246672,132,1.0,1999,,,10/4/2006 0:00,450HLT,450,H,,LT,,"Track Type Tractor, Dozer - 20.0 to 75.0 Horsepower",Maryland,TTT,Track Type Tractors,,OROPS,,,,,Standard,,,,,,2 Valve,,None or Unspecified,,,,,,,,,,,,,,None or Unspecified,PAT,None or Unspecified,,
1861,1634838,20500,1441033,132,99.0,1999,6308.0,Medium,4/9/2010 0:00,450HLT,450,H,,LT,,"Track Type Tractor, Dozer - 20.0 to 75.0 Horsepower",Louisiana,TTT,Track Type Tractors,,OROPS,,,,,Standard,,,,,,2 Valve,,None or Unspecified,,,,,,,,,,,,,,None or Unspecified,PAT,None or Unspecified,,
1861,1635139,22000,1294818,132,1.0,1999,,,7/31/2009 0:00,450HLT,450,H,,LT,,"Track Type Tractor, Dozer - 20.0 to 75.0 Horsepower",Washington,TTT,Track Type Tractors,,OROPS,,,,,Standard,,,,,,2 Valve,,Multi Shank,,,,,,,,,,,,,,None or Unspecified,PAT,None or Unspecified,,
1861,1635174,17000,1491341,132,2.0,1999,,,2/6/2009 0:00,450HLT,450,H,,LT,,"Track Type Tractor, Dozer - 20.0 to 75.0 Horsepower",Florida,TTT,Track Type Tractors,,OROPS,,,,,Standard,,,,,,2 Valve,,None or Unspecified,,,,,,,,,,,,,,None or Unspecified,PAT,None or Unspecified,,
1861,1635620,24000,1493372,132,1.0,2000,,,12/8/2008 0:00,450HLT,450,H,,LT,,"Track Type Tractor, Dozer - 20.0 to 75.0 Horsepower",Illinois,TTT,Track Type Tractors,,EROPS,,,,,Standard,,,,,,2 Valve,,None or Unspecified,,,,,,,,,,,,,,None or Unspecified,PAT,None or Unspecified,,
1861,1635654,34000,568902,132,2.0,2001,,,2/9/2007 0:00,450HLT,450,H,,LT,,"Track Type Tractor, Dozer - 20.0 to 75.0 Horsepower",Florida,TTT,Track Type Tractors,,OROPS,,,,,,,,,,,2 Valve,,,,,,,,,,,,,,,,,,,,
1861,1635656,30000,568902,132,1.0,2001,,,9/20/2006 0:00,450HLT,450,H,,LT,,"Track Type Tractor, Dozer - 20.0 to 75.0 Horsepower",Illinois,TTT,Track Type Tractors,,OROPS,,,,,,,,,,,2 Valve,,,,,,,,,,,,,,,,,,,,
1861,1635686,26000,1467482,132,1.0,2000,,,11/7/2008 0:00,450HLT,450,H,,LT,,"Track Type Tractor, Dozer - 20.0 to 75.0 Horsepower",Nevada,TTT,Track Type Tractors,,OROPS,,,,,Standard,,,,,,2 Valve,,Multi Shank,,,,,,,,,,,,,,None or Unspecified,PAT,None or Unspecified,,
1861,1635778,31000,1154815,132,1.0,2000,,,8/27/2008 0:00,450HLT,450,H,,LT,,"Track Type Tractor, Dozer - 20.0 to 75.0 Horsepower",California,TTT,Track Type Tractors,,OROPS,,,,,Standard,,,,,,2 Valve,,Single Shank,,,,,,,,,,,,,,None or Unspecified,PAT,None or Unspecified,,
1861,1635810,41500,1115525,132,8.0,2000,,,9/22/2004 0:00,450HLT,450,H,,LT,,"Track Type Tractor, Dozer - 20.0 to 75.0 Horsepower",Mississippi,TTT,Track Type Tractors,,OROPS,,,,,Standard,,,,,,2 Valve,,None or Unspecified,,,,,,,,,,,,,,None or Unspecified,PAT,None or Unspecified,,
1861,1636308,29000,1412795,132,1.0,2000,,,3/18/2008 0:00,450HLT,450,H,,LT,,"Track Type Tractor, Dozer - 20.0 to 75.0 Horsepower",Illinois,TTT,Track Type Tractors,,OROPS,,,,,,,,,,,2 Valve,,,,,,,,,,,,,,,,,,,,
1861,1636328,27000,1182009,132,1.0,2000,,,3/18/2008 0:00,450HLT,450,H,,LT,,"Track Type Tractor, Dozer - 20.0 to 75.0 Horsepower",Illinois,TTT,Track Type Tractors,,OROPS,,,,,Standard,,,,,,2 Valve,,None or Unspecified,,,,,,,,,,,,,,None or Unspecified,PAT,None or Unspecified,,
1861,1636616,20000,1265640,132,1.0,2000,,,3/18/2009 0:00,450HLT,450,H,,LT,,"Track Type Tractor, Dozer - 20.0 to 75.0 Horsepower",Washington,TTT,Track Type Tractors,,OROPS,,,,,Standard,,,,,,2 Valve,,Single Shank,,,,,,,,,,,,,,None or Unspecified,PAT,None or Unspecified,,
1861,1636650,16000,1131385,132,1.0,2000,,,5/27/2010 0:00,450HLT,450,H,,LT,,"Track Type Tractor, Dozer - 20.0 to 75.0 Horsepower",Washington,TTT,Track Type Tractors,,OROPS,,,,,Standard,,,,,,2 Valve,,None or Unspecified,,,,,,,,,,,,,,None or Unspecified,PAT,None or Unspecified,,
1861,1636774,29000,1538460,132,22.0,2000,4401.0,Medium,12/8/2007 0:00,450HLT,450,H,,LT,,"Track Type Tractor, Dozer - 20.0 to 75.0 Horsepower",Minnesota,TTT,Track Type Tractors,,OROPS,,,,,Standard,,,,,,2 Valve,,None or Unspecified,,,,,,,,,,,,,,None or Unspecified,None or Unspecified,None or Unspecified,,
1861,1637212,35000,1294626,132,2.0,2000,,,2/9/2007 0:00,450HLT,450,H,,LT,,"Track Type Tractor, Dozer - 20.0 to 75.0 Horsepower",Florida,TTT,Track Type Tractors,,OROPS,,,,,Standard,,,,,,3 Valve,,None or Unspecified,,,,,,,,,,,,,,None or Unspecified,PAT,None or Unspecified,,
1861,1637213,30000,1294626,132,2.0,2001,,,12/13/2006 0:00,450HLT,450,H,,LT,,"Track Type Tractor, Dozer - 20.0 to 75.0 Horsepower",Florida,TTT,Track Type Tractors,,OROPS,,,,,Standard,,,,,,3 Valve,,None or Unspecified,,,,,,,,,,,,,,None or Unspecified,PAT,None or Unspecified,,
1861,1637214,29500,1294626,132,2.0,2001,,,10/11/2006 0:00,450HLT,450,H,,LT,,"Track Type Tractor, Dozer - 20.0 to 75.0 Horsepower",Florida,TTT,Track Type Tractors,,OROPS,,,,,Standard,,,,,,3 Valve,,None or Unspecified,,,,,,,,,,,,,,None or Unspecified,PAT,None or Unspecified,,
1861,1637215,30000,1294626,132,2.0,2001,,,9/27/2006 0:00,450HLT,450,H,,LT,,"Track Type Tractor, Dozer - 20.0 to 75.0 Horsepower",Texas,TTT,Track Type Tractors,,OROPS,,,,,Standard,,,,,,3 Valve,,None or Unspecified,,,,,,,,,,,,,,None or Unspecified,PAT,None or Unspecified,,
1861,1637414,24000,1388857,132,1.0,2000,,,12/10/2009 0:00,450HLT,450,H,,LT,,"Track Type Tractor, Dozer - 20.0 to 75.0 Horsepower",Washington,TTT,Track Type Tractors,,OROPS,,,,,Standard,,,,,,2 Valve,,Multi Shank,,,,,,,,,,,,,,None or Unspecified,PAT,None or Unspecified,,
1861,1637544,15500,1203144,132,8.0,2000,,,7/21/2010 0:00,450HLT,450,H,,LT,,"Track Type Tractor, Dozer - 20.0 to 75.0 Horsepower",Mississippi,TTT,Track Type Tractors,,OROPS,,,,,Standard,,,,,,2 Valve,,None or Unspecified,,,,,,,,,,,,,,None or Unspecified,PAT,None or Unspecified,,
1861,1637565,17000,1173957,132,1.0,2000,5559.0,Medium,5/5/2010 0:00,450HLT,450,H,,LT,,"Track Type Tractor, Dozer - 20.0 to 75.0 Horsepower",Washington,TTT,Track Type Tractors,,OROPS,,,,,Standard,,,,,,2 Valve,,None or Unspecified,,,,,,,,,,,,,,None or Unspecified,None or Unspecified,None or Unspecified,,
1861,1637597,18000,1522811,132,1.0,2000,,,5/27/2010 0:00,450HLT,450,H,,LT,,"Track Type Tractor, Dozer - 20.0 to 75.0 Horsepower",Washington,TTT,Track Type Tractors,,OROPS,,,,,Standard,,,,,,2 Valve,,None or Unspecified,,,,,,,,,,,,,,None or Unspecified,PAT,None or Unspecified,,
1861,1637651,39000,1111143,132,1.0,2000,,,3/1/2005 0:00,450HLT,450,H,,LT,,"Track Type Tractor, Dozer - 20.0 to 75.0 Horsepower",Illinois,TTT,Track Type Tractors,,OROPS,,,,,Standard,,,,,,2 Valve,,None or Unspecified,,,,,,,,,,,,,,None or Unspecified,PAT,None or Unspecified,,
1861,1637652,26000,1111143,132,1.0,2000,,,5/14/2009 0:00,450HLT,450,H,,LT,,"Track Type Tractor, Dozer - 20.0 to 75.0 Horsepower",Pennsylvania,TTT,Track Type Tractors,,OROPS,,,,,Standard,,,,,,2 Valve,,None or Unspecified,,,,,,,,,,,,,,None or Unspecified,PAT,None or Unspecified,,
1861,1637724,25000,1469865,132,1.0,2000,,,7/29/2010 0:00,450HLT,450,H,,LT,,"Track Type Tractor, Dozer - 20.0 to 75.0 Horsepower",Washington,TTT,Track Type Tractors,,OROPS,,,,,Standard,,,,,,2 Valve,,Multi Shank,,,,,,,,,,,,,,None or Unspecified,PAT,None or Unspecified,,
1861,1637771,23000,1338022,132,2.0,2000,,,3/19/2009 0:00,450HLT,450,H,,LT,,"Track Type Tractor, Dozer - 20.0 to 75.0 Horsepower",New Jersey,TTT,Track Type Tractors,,EROPS w AC,,,,,Standard,,,,,,2 Valve,,None or Unspecified,,,,,,,,,,,,,,None or Unspecified,PAT,Lever,,
1861,1637951,28000,1493131,132,13.0,2000,,,9/9/2006 0:00,450HLT,450,H,,LT,,"Track Type Tractor, Dozer - 20.0 to 75.0 Horsepower",Tennessee,TTT,Track Type Tractors,,OROPS,,,,,Standard,,,,,,2 Valve,,None or Unspecified,,,,,,,,,,,,,,None or Unspecified,PAT,None or Unspecified,,
1861,1638193,22000,1172239,132,8.0,2002,,,1/28/2010 0:00,450HLT,450,H,,LT,,"Track Type Tractor, Dozer - 20.0 to 75.0 Horsepower",Alabama,TTT,Track Type Tractors,,EROPS w AC,,,,,Standard,,,,,,2 Valve,,None or Unspecified,,,,,,,,,,,,,,None or Unspecified,PAT,None or Unspecified,,
1861,1638241,23500,1541361,132,8.0,2001,,,1/27/2011 0:00,450HLT,450,H,,LT,,"Track Type Tractor, Dozer - 20.0 to 75.0 Horsepower",Alabama,TTT,Track Type Tractors,,OROPS,,,,,Standard,,,,,,2 Valve,,None or Unspecified,,,,,,,,,,,,,,None or Unspecified,PAT,None or Unspecified,,
1861,1638283,24000,1189121,132,1.0,2000,,,12/10/2009 0:00,450HLT,450,H,,LT,,"Track Type Tractor, Dozer - 20.0 to 75.0 Horsepower",Washington,TTT,Track Type Tractors,,OROPS,,,,,Standard,,,,,,2 Valve,,Multi Shank,,,,,,,,,,,,,,None or Unspecified,PAT,None or Unspecified,,
1861,1638284,27500,1189121,132,1.0,2000,4079.0,Low,6/16/2011 0:00,450HLT,450,H,,LT,,"Track Type Tractor, Dozer - 20.0 to 75.0 Horsepower",Washington,TTT,Track Type Tractors,,OROPS,,,,,Standard,,,,,,2 Valve,,Multi Shank,,,,,,,,,,,,,,None or Unspecified,PAT,None or Unspecified,,
1861,1638325,25000,1102398,132,14.0,2000,5800.0,Medium,9/17/2010 0:00,450HLT,450,H,,LT,,"Track Type Tractor, Dozer - 20.0 to 75.0 Horsepower",Indiana,TTT,Track Type Tractors,,OROPS,,,,,Standard,,,,,,2 Valve,,None or Unspecified,,,,,,,,,,,,,,None or Unspecified,PAT,None or Unspecified,,
1861,1638382,45000,1515061,132,5.0,2000,,,6/26/2004 0:00,450HLT,450,H,,LT,,"Track Type Tractor, Dozer - 20.0 to 75.0 Horsepower",Connecticut,TTT,Track Type Tractors,,EROPS w AC,,,,,Standard,,,,,,2 Valve,,None or Unspecified,,,,,,,,,,,,,,None or Unspecified,PAT,None or Unspecified,,
1861,1638455,41000,1211190,132,1.0,2001,,,10/12/2004 0:00,450HLT,450,H,,LT,,"Track Type Tractor, Dozer - 20.0 to 75.0 Horsepower",Kentucky,TTT,Track Type Tractors,,OROPS,,,,,Standard,,,,,,2 Valve,,None or Unspecified,,,,,,,,,,,,,,None or Unspecified,PAT,None or Unspecified,,
1861,1638669,26000,1277631,132,1.0,2001,,,9/16/2008 0:00,450HLT,450,H,,LT,,"Track Type Tractor, Dozer - 20.0 to 75.0 Horsepower",Washington,TTT,Track Type Tractors,,OROPS,,,,,Standard,,,,,,2 Valve,,Multi Shank,,,,,,,,,,,,,,None or Unspecified,PAT,None or Unspecified,,
1861,1638754,18500,1348307,132,1.0,2001,,,6/11/2008 0:00,450HLT,450,H,,LT,,"Track Type Tractor, Dozer - 20.0 to 75.0 Horsepower",Texas,TTT,Track Type Tractors,,OROPS,,,,,Standard,,,,,,2 Valve,,None or Unspecified,,,,,,,,,,,,,,None or Unspecified,PAT,None or Unspecified,,
1861,1638755,30000,565120,132,1.0,2001,,,9/20/2006 0:00,450HLT,450,H,,LT,,"Track Type Tractor, Dozer - 20.0 to 75.0 Horsepower",Illinois,TTT,Track Type Tractors,,OROPS,,,,,Standard,,,,,,2 Valve,,None or Unspecified,,,,,,,,,,,,,,None or Unspecified,PAT,None or Unspecified,,
1861,1638992,38000,1208357,132,15.0,2001,,,5/10/2007 0:00,450HLT,450,H,,LT,,"Track Type Tractor, Dozer - 20.0 to 75.0 Horsepower",Maryland,TTT,Track Type Tractors,,EROPS w AC,,,,,Powershift,,,,,,2 Valve,,None or Unspecified,,,,,,,,,,,,,,None or Unspecified,PAT,None or Unspecified,,
1861,1639137,52000,1456290,132,5.0,2001,,,6/15/2005 0:00,450HLT,450,H,,LT,,"Track Type Tractor, Dozer - 20.0 to 75.0 Horsepower",Connecticut,TTT,Track Type Tractors,,OROPS,,,,,Standard,,,,,,2 Valve,,None or Unspecified,,,,,,,,,,,,,,None or Unspecified,PAT,None or Unspecified,,
1861,1639587,38000,1118388,132,27.0,2002,,,7/21/2006 0:00,450HLT,450,H,,LT,,"Track Type Tractor, Dozer - 20.0 to 75.0 Horsepower",North Carolina,TTT,Track Type Tractors,,OROPS,,,,,Standard,,,,,,2 Valve,,None or Unspecified,,,,,,,,,,,,,,None or Unspecified,PAT,None or Unspecified,,
1861,1639588,40000,1118388,132,8.0,2002,,,3/22/2006 0:00,450HLT,450,H,,LT,,"Track Type Tractor, Dozer - 20.0 to 75.0 Horsepower",Mississippi,TTT,Track Type Tractors,,OROPS,,,,,Standard,,,,,,2 Valve,,None or Unspecified,,,,,,,,,,,,,,None or Unspecified,PAT,None or Unspecified,,
1861,1639594,19000,1209602,132,8.0,2002,3869.0,Medium,9/15/2010 0:00,450HLT,450,H,,LT,,"Track Type Tractor, Dozer - 20.0 to 75.0 Horsepower",Mississippi,TTT,Track Type Tractors,,OROPS,,,,,Standard,,,,,,2 Valve,,None or Unspecified,,,,,,,,,,,,,,None or Unspecified,PAT,None or Unspecified,,
1861,1639608,53000,1229806,132,1.0,2002,,,3/2/2005 0:00,450HLT,450,H,,LT,,"Track Type Tractor, Dozer - 20.0 to 75.0 Horsepower",Texas,TTT,Track Type Tractors,,OROPS,,,,,Standard,,,,,,2 Valve,,None or Unspecified,,,,,,,,,,,,,,None or Unspecified,PAT,None or Unspecified,,
1861,1639750,24500,1511101,132,8.0,2002,,,1/27/2011 0:00,450HLT,450,H,,LT,,"Track Type Tractor, Dozer - 20.0 to 75.0 Horsepower",Alabama,TTT,Track Type Tractors,,OROPS,,,,,Standard,,,,,,2 Valve,,None or Unspecified,,,,,,,,,,,,,,None or Unspecified,PAT,None or Unspecified,,
1861,1639766,17750,1104796,132,99.0,2002,,,7/16/2009 0:00,450HLT,450,H,,LT,,"Track Type Tractor, Dozer - 20.0 to 75.0 Horsepower",Georgia,TTT,Track Type Tractors,,OROPS,,,,,Powershift,,,,,,2 Valve,,None or Unspecified,,,,,,,,,,,,,,None or Unspecified,PAT,None or Unspecified,,
1861,1639807,40000,1272955,132,5.0,2002,,,9/28/2006 0:00,450HLT,450,H,,LT,,"Track Type Tractor, Dozer - 20.0 to 75.0 Horsepower",Connecticut,TTT,Track Type Tractors,,EROPS w AC,,,,,Standard,,,,,,2 Valve,,None or Unspecified,,,,,,,,,,,,,,None or Unspecified,PAT,None or Unspecified,,
1861,1639869,44000,1313108,132,15.0,2002,,,3/27/2008 0:00,450HLT,450,H,,LT,,"Track Type Tractor, Dozer - 20.0 to 75.0 Horsepower",Maryland,TTT,Track Type Tractors,,EROPS w AC,,,,,Standard,,,,,,2 Valve,,None or Unspecified,,,,,,,,,,,,,,None or Unspecified,PAT,None or Unspecified,,
1861,1639946,49000,1154415,132,5.0,2003,,,8/24/2007 0:00,450HLT,450,H,,LT,,"Track Type Tractor, Dozer - 20.0 to 75.0 Horsepower",Connecticut,TTT,Track Type Tractors,,EROPS w AC,,,,,Standard,,,,,,2 Valve,,None or Unspecified,,,,,,,,,,,,,,None or Unspecified,PAT,None or Unspecified,,
1861,1640017,20000,1359755,132,1.0,2002,,,3/4/2009 0:00,450HLT,450,H,,LT,,"Track Type Tractor, Dozer - 20.0 to 75.0 Horsepower",Texas,TTT,Track Type Tractors,,OROPS,,,,,Hydrostatic,,,,,,2 Valve,,None or Unspecified,,,,,,,,,,,,,,None or Unspecified,PAT,Finger Tip,,
1861,1640022,31000,1187782,132,1.0,2002,,,4/2/2008 0:00,450HLT,450,H,,LT,,"Track Type Tractor, Dozer - 20.0 to 75.0 Horsepower",Maryland,TTT,Track Type Tractors,,EROPS w AC,,,,,Standard,,,,,,2 Valve,,None or Unspecified,,,,,,,,,,,,,,None or Unspecified,PAT,None or Unspecified,,
1861,1640035,24000,1252147,132,2.0,2002,,,5/10/2008 0:00,450HLT,450,H,,LT,,"Track Type Tractor, Dozer - 20.0 to 75.0 Horsepower",Wisconsin,TTT,Track Type Tractors,,OROPS,,,,,Standard,,,,,,2 Valve,,None or Unspecified,,,,,,,,,,,,,,None or Unspecified,PAT,None or Unspecified,,
1861,1640185,23000,1356361,132,1.0,2002,,,3/4/2010 0:00,450HLT,450,H,,LT,,"Track Type Tractor, Dozer - 20.0 to 75.0 Horsepower",Washington,TTT,Track Type Tractors,,OROPS,,,,,Standard,,,,,,2 Valve,,None or Unspecified,,,,,,,,,,,,,,None or Unspecified,PAT,None or Unspecified,,
1861,1640250,55000,1380695,132,2.0,2002,,,3/25/2004 0:00,450HLT,450,H,,LT,,"Track Type Tractor, Dozer - 20.0 to 75.0 Horsepower",New Jersey,TTT,Track Type Tractors,,EROPS,,,,,Standard,,,,,,2 Valve,,None or Unspecified,,,,,,,,,,,,,,None or Unspecified,PAT,None or Unspecified,,
1861,1640375,34000,769497,132,1.0,2003,1760.0,Low,2/21/2008 0:00,450HLT,450,H,,LT,,"Track Type Tractor, Dozer - 20.0 to 75.0 Horsepower",Florida,TTT,Track Type Tractors,,OROPS,,,,,Standard,,,,,,2 Valve,,None or Unspecified,,,,,,,,,,,,,,None or Unspecified,PAT,None or Unspecified,,
1861,1640508,27000,1472894,132,1.0,2003,3273.0,Medium,6/26/2008 0:00,450HLT,450,H,,LT,,"Track Type Tractor, Dozer - 20.0 to 75.0 Horsepower",Georgia,TTT,Track Type Tractors,,OROPS,,,,,Standard,,,,,,2 Valve,,None or Unspecified,,,,,,,,,,,,,,None or Unspecified,PAT,None or Unspecified,,
1861,1640572,20000,1088013,132,1.0,2003,,,4/1/2009 0:00,450HLT,450,H,,LT,,"Track Type Tractor, Dozer - 20.0 to 75.0 Horsepower",Maryland,TTT,Track Type Tractors,,EROPS w AC,,,,,Standard,,,,,,2 Valve,,None or Unspecified,,,,,,,,,,,,,,None or Unspecified,PAT,None or Unspecified,,
1861,1640575,46500,1197817,132,2.0,2003,,,9/8/2007 0:00,450HLT,450,H,,LT,,"Track Type Tractor, Dozer - 20.0 to 75.0 Horsepower",Kentucky,TTT,Track Type Tractors,,OROPS,,,,,Standard,,,,,,2 Valve,,None or Unspecified,,,,,,,,,,,,,,None or Unspecified,PAT,None or Unspecified,,
1861,1640586,23000,1211947,132,2.0,2003,,,3/19/2009 0:00,450HLT,450,H,,LT,,"Track Type Tractor, Dozer - 20.0 to 75.0 Horsepower",New Jersey,TTT,Track Type Tractors,,EROPS w AC,,,,,Standard,,,,,,2 Valve,,None or Unspecified,,,,,,,,,,,,,,None or Unspecified,PAT,Lever,,
1861,1640899,23000,1404572,132,99.0,2003,,,8/4/2011 0:00,450HLT,450,H,,LT,,"Track Type Tractor, Dozer - 20.0 to 75.0 Horsepower",Texas,TTT,Track Type Tractors,,OROPS,,,,,Standard,,,,,,2 Valve,,None or Unspecified,,,,,,,,,,,,,,None or Unspecified,PAT,None or Unspecified,,
1861,1640989,29000,1196833,132,1.0,2003,,,4/1/2009 0:00,450HLT,450,H,,LT,,"Track Type Tractor, Dozer - 20.0 to 75.0 Horsepower",Maryland,TTT,Track Type Tractors,,EROPS w AC,,,,,Standard,,,,,,2 Valve,,None or Unspecified,,,,,,,,,,,,,,None or Unspecified,PAT,None or Unspecified,,
1861,1641019,29000,1080273,132,1.0,2003,,,5/6/2009 0:00,450HLT,450,H,,LT,,"Track Type Tractor, Dozer - 20.0 to 75.0 Horsepower",Texas,TTT,Track Type Tractors,,OROPS,,,,,Standard,,,,,,2 Valve,,Multi Shank,,,,,,,,,,,,,,None or Unspecified,PAT,None or Unspecified,,
1861,1641216,18000,1315450,132,1.0,2003,,,3/9/2011 0:00,450HLT,450,H,,LT,,"Track Type Tractor, Dozer - 20.0 to 75.0 Horsepower",Texas,TTT,Track Type Tractors,,OROPS,,,,,Hydrostatic,,,,,,2 Valve,,None or Unspecified,,,,,,,,,,,,,,None or Unspecified,PAT,None or Unspecified,,
1861,1641217,22000,1427251,132,1.0,2003,,,2/17/2010 0:00,450HLT,450,H,,LT,,"Track Type Tractor, Dozer - 20.0 to 75.0 Horsepower",Florida,TTT,Track Type Tractors,,OROPS,,,,,Standard,,,,,,2 Valve,,None or Unspecified,,,,,,,,,,,,,,None or Unspecified,PAT,None or Unspecified,,
1861,1641288,23000,1358842,132,1.0,2003,,,2/18/2009 0:00,450HLT,450,H,,LT,,"Track Type Tractor, Dozer - 20.0 to 75.0 Horsepower",Florida,TTT,Track Type Tractors,,OROPS,,,,,Standard,,,,,,2 Valve,,None or Unspecified,,,,,,,,,,,,,,None or Unspecified,PAT,None or Unspecified,,
1861,1641518,54000,1162795,132,8.0,2003,,,11/17/2004 0:00,450HLT,450,H,,LT,,"Track Type Tractor, Dozer - 20.0 to 75.0 Horsepower",Mississippi,TTT,Track Type Tractors,,OROPS,,,,,Standard,,,,,,2 Valve,,None or Unspecified,,,,,,,,,,,,,,None or Unspecified,None or Unspecified,None or Unspecified,,
1861,1641561,27500,1079880,132,1.0,2004,1783.0,Low,2/18/2009 0:00,450HLT,450,H,,LT,,"Track Type Tractor, Dozer - 20.0 to 75.0 Horsepower",Florida,TTT,Track Type Tractors,,OROPS,,,,,Standard,,,,,,2 Valve,,None or Unspecified,,,,,,,,,,,,,,None or Unspecified,PAT,None or Unspecified,,
1861,1641749,15500,1520148,132,2.0,2003,,,3/19/2009 0:00,450HLT,450,H,,LT,,"Track Type Tractor, Dozer - 20.0 to 75.0 Horsepower",New Jersey,TTT,Track Type Tractors,,OROPS,,,,,Standard,,,,,,2 Valve,,None or Unspecified,,,,,,,,,,,,,,None or Unspecified,PAT,Lever,,
1861,1641771,44000,1422045,132,3.0,2004,,,4/19/2007 0:00,450HLT,450,H,,LT,,"Track Type Tractor, Dozer - 20.0 to 75.0 Horsepower",California,TTT,Track Type Tractors,,OROPS,,,,,Hydrostatic,,,,,,2 Valve,,None or Unspecified,,,,,,,,,,,,,,None or Unspecified,None or Unspecified,None or Unspecified,,
1861,1641932,37500,1333051,132,1.0,2004,2502.0,Medium,6/7/2007 0:00,450HLT,450,H,,LT,,"Track Type Tractor, Dozer - 20.0 to 75.0 Horsepower",Texas,TTT,Track Type Tractors,,OROPS,,,,,Standard,,,,,,2 Valve,,None or Unspecified,,,,,,,,,,,,,,None or Unspecified,PAT,None or Unspecified,,
1861,1642056,36000,1155830,132,1.0,2004,1656.0,Low,2/21/2008 0:00,450HLT,450,H,,LT,,"Track Type Tractor, Dozer - 20.0 to 75.0 Horsepower",Florida,TTT,Track Type Tractors,,OROPS,,,,,Standard,,,,,,2 Valve,,None or Unspecified,,,,,,,,,,,,,,None or Unspecified,PAT,None or Unspecified,,
1861,1642081,34000,1259262,132,1.0,2004,1305.0,Medium,11/14/2007 0:00,450HLT,450,H,,LT,,"Track Type Tractor, Dozer - 20.0 to 75.0 Horsepower",Georgia,TTT,Track Type Tractors,,OROPS,,,,,Standard,,,,,,2 Valve,,None or Unspecified,,,,,,,,,,,,,,None or Unspecified,PAT,None or Unspecified,,
1861,1642131,36000,1106514,132,2.0,2004,,,5/3/2008 0:00,450HLT,450,H,,LT,,"Track Type Tractor, Dozer - 20.0 to 75.0 Horsepower",New Hampshire,TTT,Track Type Tractors,,OROPS,,,,,Standard,,,,,,2 Valve,,None or Unspecified,,,,,,,,,,,,,,None or Unspecified,PAT,None or Unspecified,,
1861,1642182,45000,1329674,132,2.0,2004,,,9/8/2007 0:00,450HLT,450,H,,LT,,"Track Type Tractor, Dozer - 20.0 to 75.0 Horsepower",Kentucky,TTT,Track Type Tractors,,OROPS,,,,,Standard,,,,,,2 Valve,,None or Unspecified,,,,,,,,,,,,,,None or Unspecified,PAT,None or Unspecified,,
1861,1642319,24000,1200816,132,2.0,2004,,,2/6/2009 0:00,450HLT,450,H,,LT,,"Track Type Tractor, Dozer - 20.0 to 75.0 Horsepower",Florida,TTT,Track Type Tractors,,OROPS,,,,,Standard,,,,,,2 Valve,,None or Unspecified,,,,,,,,,,,,,,None or Unspecified,PAT,None or Unspecified,,
1861,1642345,26000,1372802,132,1.0,2004,2604.0,Medium,12/3/2008 0:00,450HLT,450,H,,LT,,"Track Type Tractor, Dozer - 20.0 to 75.0 Horsepower",Texas,TTT,Track Type Tractors,,OROPS,,,,,Standard,,,,,,2 Valve,,None or Unspecified,,,,,,,,,,,,,,None or Unspecified,PAT,None or Unspecified,,
1861,1642380,34000,1103762,132,1.0,2004,1077.0,Low,11/14/2007 0:00,450HLT,450,H,,LT,,"Track Type Tractor, Dozer - 20.0 to 75.0 Horsepower",Georgia,TTT,Track Type Tractors,,OROPS,,,,,Standard,,,,,,2 Valve,,None or Unspecified,,,,,,,,,,,,,,None or Unspecified,PAT,None or Unspecified,,
1861,1642381,26000,1228136,132,1.0,2004,1902.0,Low,5/13/2009 0:00,450HLT,450,H,,LT,,"Track Type Tractor, Dozer - 20.0 to 75.0 Horsepower",Illinois,TTT,Track Type Tractors,,OROPS,,,,,Standard,,,,,,2 Valve,,None or Unspecified,,,,,,,,,,,,,,None or Unspecified,PAT,None or Unspecified,,
1861,1642402,35000,1128245,132,2.0,2004,,,3/27/2008 0:00,450HLT,450,H,,LT,,"Track Type Tractor, Dozer - 20.0 to 75.0 Horsepower",New Jersey,TTT,Track Type Tractors,,OROPS,,,,,Powershift,,,,,,2 Valve,,None or Unspecified,,,,,,,,,,,,,,None or Unspecified,PAT,None or Unspecified,,
1861,1642404,30000,1451169,132,1.0,2004,1452.0,Medium,11/14/2007 0:00,450HLT,450,H,,LT,,"Track Type Tractor, Dozer - 20.0 to 75.0 Horsepower",Georgia,TTT,Track Type Tractors,,OROPS,,,,,Standard,,,,,,2 Valve,,None or Unspecified,,,,,,,,,,,,,,None or Unspecified,PAT,None or Unspecified,,
1861,1642531,23000,1152565,132,1.0,2004,2133.0,Low,12/8/2009 0:00,450HLT,450,H,,LT,,"Track Type Tractor, Dozer - 20.0 to 75.0 Horsepower",North Carolina,TTT,Track Type Tractors,,OROPS,,,,,Standard,,,,,,2 Valve,,None or Unspecified,,,,,,,,,,,,,,None or Unspecified,PAT,None or Unspecified,,
1861,1642641,34000,1367952,132,1.0,2004,1976.0,Medium,11/14/2007 0:00,450HLT,450,H,,LT,,"Track Type Tractor, Dozer - 20.0 to 75.0 Horsepower",Georgia,TTT,Track Type Tractors,,OROPS,,,,,Standard,,,,,,2 Valve,,None or Unspecified,,,,,,,,,,,,,,None or Unspecified,PAT,None or Unspecified,,
1861,1642642,26000,1473676,132,1.0,2004,1156.0,Low,4/28/2009 0:00,450HLT,450,H,,LT,,"Track Type Tractor, Dozer - 20.0 to 75.0 Horsepower",Mississippi,TTT,Track Type Tractors,,OROPS,,,,,Standard,,,,,,2 Valve,,None or Unspecified,,,,,,,,,,,,,,None or Unspecified,PAT,None or Unspecified,,
1861,1642643,21000,1508848,132,1.0,2004,455.0,Low,5/27/2009 0:00,450HLT,450,H,,LT,,"Track Type Tractor, Dozer - 20.0 to 75.0 Horsepower",Florida,TTT,Track Type Tractors,,OROPS,,,,,Standard,,,,,,2 Valve,,None or Unspecified,,,,,,,,,,,,,,None or Unspecified,PAT,None or Unspecified,,
1861,1642737,36000,1374011,132,1.0,2004,1625.0,Low,2/21/2008 0:00,450HLT,450,H,,LT,,"Track Type Tractor, Dozer - 20.0 to 75.0 Horsepower",Florida,TTT,Track Type Tractors,,OROPS,,,,,Standard,,,,,,2 Valve,,None or Unspecified,,,,,,,,,,,,,,None or Unspecified,PAT,None or Unspecified,,
1861,1642738,22000,1489255,132,1.0,2004,633.0,Low,8/25/2011 0:00,450HLT,450,H,,LT,,"Track Type Tractor, Dozer - 20.0 to 75.0 Horsepower",Maryland,TTT,Track Type Tractors,,OROPS,,,,,Standard,,,,,,2 Valve,,None or Unspecified,,,,,,,,,,,,,,None or Unspecified,PAT,None or Unspecified,,
1861,1642772,27000,1172027,132,1.0,2004,1675.0,Low,9/16/2008 0:00,450HLT,450,H,,LT,,"Track Type Tractor, Dozer - 20.0 to 75.0 Horsepower",Washington,TTT,Track Type Tractors,,OROPS,,,,,Standard,,,,,,2 Valve,,None or Unspecified,,,,,,,,,,,,,,None or Unspecified,PAT,None or Unspecified,,
1861,1642798,30000,1488667,132,1.0,2004,900.0,Low,3/31/2009 0:00,450HLT,450,H,,LT,,"Track Type Tractor, Dozer - 20.0 to 75.0 Horsepower",Connecticut,TTT,Track Type Tractors,,OROPS,,,,,Standard,,,,,,2 Valve,,None or Unspecified,,,,,,,,,,,,,,None or Unspecified,PAT,None or Unspecified,,
1861,1642921,26000,1547497,132,1.0,2004,219.0,Low,3/18/2009 0:00,450HLT,450,H,,LT,,"Track Type Tractor, Dozer - 20.0 to 75.0 Horsepower",Washington,TTT,Track Type Tractors,,OROPS,,,,,Standard,,,,,,2 Valve,,Multi Shank,,,,,,,,,,,,,,None or Unspecified,PAT,None or Unspecified,,
1861,1642966,36000,1427693,132,1.0,2004,1256.0,Low,2/21/2008 0:00,450HLT,450,H,,LT,,"Track Type Tractor, Dozer - 20.0 to 75.0 Horsepower",Florida,TTT,Track Type Tractors,,OROPS,,,,,Standard,,,,,,2 Valve,,None or Unspecified,,,,,,,,,,,,,,None or Unspecified,PAT,None or Unspecified,,
1861,2335048,15000,1195103,136,99.0,1999,6088.0,Medium,11/18/2009 0:00,450HLT,450,H,,LT,,"Track Type Tractor, Dozer - 20.0 to 75.0 Horsepower",Minnesota,TTT,Track Type Tractors,,OROPS,,,,,Standard,,,,,,2 Valve,,None or Unspecified,,,,,,,,,,,,,,None or Unspecified,PAT,None or Unspecified,,
1861,2335070,31000,1716991,136,,1999,0.0,,4/27/2007 0:00,450HLT,450,H,,LT,,"Track Type Tractor, Dozer - 20.0 to 75.0 Horsepower",Virginia,TTT,Track Type Tractors,,EROPS,,,,,Hydrostatic,,,,,,2 Valve,,None or Unspecified,,,,,,,,,,,,,,None or Unspecified,PAT,None or Unspecified,,
1861,2335081,32500,1764984,136,,1999,0.0,,6/20/2008 0:00,450HLT,450,H,,LT,,"Track Type Tractor, Dozer - 20.0 to 75.0 Horsepower",Indiana,TTT,Track Type Tractors,,EROPS w AC,,,,,Standard,,,,,,2 Valve,,None or Unspecified,,,,,,,,,,,,,,None or Unspecified,PAT,None or Unspecified,,
1861,2335103,36000,1204941,136,1.0,1999,0.0,,3/19/2007 0:00,450HLT,450,H,,LT,,"Track Type Tractor, Dozer - 20.0 to 75.0 Horsepower",California,TTT,Track Type Tractors,,OROPS,,,,,Standard,,,,,,2 Valve,,Multi Shank,,,,,,,,,,,,,,None or Unspecified,PAT,None or Unspecified,,
1861,2335104,27000,1113677,136,1.0,1999,0.0,,3/5/2008 0:00,450HLT,450,H,,LT,,"Track Type Tractor, Dozer - 20.0 to 75.0 Horsepower",Texas,TTT,Track Type Tractors,,OROPS,,,,,Standard,,,,,,2 Valve,,None or Unspecified,,,,,,,,,,,,,,None or Unspecified,PAT,None or Unspecified,,
1861,2335159,30000,1285940,136,2.0,1999,0.0,,6/21/2008 0:00,450HLT,450,H,,LT,,"Track Type Tractor, Dozer - 20.0 to 75.0 Horsepower",New York,TTT,Track Type Tractors,,EROPS,,,,,Hydrostatic,,,,,,2 Valve,,None or Unspecified,,,,,,,,,,,,,,None or Unspecified,PAT,None or Unspecified,,
1861,2335160,30500,1285940,136,2.0,1999,0.0,,7/19/2008 0:00,450HLT,450,H,,LT,,"Track Type Tractor, Dozer - 20.0 to 75.0 Horsepower",New York,TTT,Track Type Tractors,,EROPS,,,,,Hydrostatic,,,,,,2 Valve,,None or Unspecified,,,,,,,,,,,,,,None or Unspecified,PAT,None or Unspecified,,
1861,2335162,20000,1262561,136,1.0,1999,0.0,,9/16/2008 0:00,450HLT,450,H,,LT,,"Track Type Tractor, Dozer - 20.0 to 75.0 Horsepower",Washington,TTT,Track Type Tractors,,OROPS,,,,,Standard,,,,,,2 Valve,,None or Unspecified,,,,,,,,,,,,,,None or Unspecified,PAT,None or Unspecified,,
1861,2335164,17500,1436416,136,1.0,1999,0.0,,12/16/2008 0:00,450HLT,450,H,,LT,,"Track Type Tractor, Dozer - 20.0 to 75.0 Horsepower",Washington,TTT,Track Type Tractors,,OROPS,,,,,Standard,,,,,,2 Valve,,None or Unspecified,,,,,,,,,,,,,,None or Unspecified,PAT,None or Unspecified,,
1861,2335188,17587,1724699,136,18.0,1999,9530.0,Medium,1/31/2009 0:00,450HLT,450,H,,LT,,"Track Type Tractor, Dozer - 20.0 to 75.0 Horsepower",Tennessee,TTT,Track Type Tractors,,EROPS,,,,,Standard,,,,,,2 Valve,,None or Unspecified,,,,,,,,,,,,,,None or Unspecified,PAT,None or Unspecified,,
1861,2335237,17000,1491341,136,2.0,1999,0.0,,1/31/2009 0:00,450HLT,450,H,,LT,,"Track Type Tractor, Dozer - 20.0 to 75.0 Horsepower",Florida,TTT,Track Type Tractors,,OROPS,,,,,Standard,,,,,,2 Valve,,None or Unspecified,,,,,,,,,,,,,,None or Unspecified,PAT,None or Unspecified,,
1861,2335344,34000,1359729,136,7.0,2000,0.0,,4/19/2007 0:00,450HLT,450,H,,LT,,"Track Type Tractor, Dozer - 20.0 to 75.0 Horsepower",South Carolina,TTT,Track Type Tractors,,OROPS,,,,,Standard,,,,,,2 Valve,,None or Unspecified,,,,,,,,,,,,,,None or Unspecified,PAT,None or Unspecified,,
1861,2335401,23000,1453820,136,5.0,2000,0.0,,4/10/2008 0:00,450HLT,450,H,,LT,,"Track Type Tractor, Dozer - 20.0 to 75.0 Horsepower",Connecticut,TTT,Track Type Tractors,,OROPS,,,,,Standard,,,,,,2 Valve,,None or Unspecified,,,,,,,,,,,,,,None or Unspecified,PAT,None or Unspecified,,
1861,2335448,31000,1420936,136,7.0,2000,0.0,,4/19/2007 0:00,450HLT,450,H,,LT,,"Track Type Tractor, Dozer - 20.0 to 75.0 Horsepower",South Carolina,TTT,Track Type Tractors,,OROPS,,,,,Standard,,,,,,2 Valve,,None or Unspecified,,,,,,,,,,,,,,None or Unspecified,PAT,None or Unspecified,,
1861,2335466,24000,1727955,136,1.0,2000,0.0,,12/8/2008 0:00,450HLT,450,H,,LT,,"Track Type Tractor, Dozer - 20.0 to 75.0 Horsepower",Illinois,TTT,Track Type Tractors,,EROPS,,,,,Standard,,,,,,2 Valve,,None or Unspecified,,,,,,,,,,,,,,None or Unspecified,None or Unspecified,None or Unspecified,,
1861,2335480,21000,1783615,136,,2000,0.0,,8/1/2009 0:00,450HLT,450,H,,LT,,"Track Type Tractor, Dozer - 20.0 to 75.0 Horsepower",California,TTT,Track Type Tractors,,EROPS w AC,,,,,Standard,,,,,,2 Valve,,Single Shank,,,,,,,,,,,,,,None or Unspecified,PAT,None or Unspecified,,
1861,2335550,19000,1338893,136,7.0,2001,0.0,,6/16/2009 0:00,450HLT,450,H,,LT,,"Track Type Tractor, Dozer - 20.0 to 75.0 Horsepower",Alabama,TTT,Track Type Tractors,,EROPS,,,,,Standard,,,,,,2 Valve,,None or Unspecified,,,,,,,,,,,,,,None or Unspecified,PAT,None or Unspecified,,
1861,2335551,22000,1338893,136,99.0,2001,0.0,,3/10/2010 0:00,450HLT,450,H,,LT,,"Track Type Tractor, Dozer - 20.0 to 75.0 Horsepower",Alabama,TTT,Track Type Tractors,,EROPS,,,,,Standard,,,,,,2 Valve,,None or Unspecified,,,,,,,,,,,,,,None or Unspecified,PAT,None or Unspecified,,
1861,2335624,24000,1688096,136,,2002,0.0,,1/28/2009 0:00,450HLT,450,H,,LT,,"Track Type Tractor, Dozer - 20.0 to 75.0 Horsepower",Alabama,TTT,Track Type Tractors,,OROPS,,,,,Standard,,,,,,2 Valve,,None or Unspecified,,,,,,,,,,,,,,None or Unspecified,PAT,None or Unspecified,,
1861,2335648,24500,1642797,136,,2001,0.0,,8/7/2008 0:00,450HLT,450,H,,LT,,"Track Type Tractor, Dozer - 20.0 to 75.0 Horsepower",New York,TTT,Track Type Tractors,,OROPS,,,,,Standard,,,,,,2 Valve,,None or Unspecified,,,,,,,,,,,,,,None or Unspecified,PAT,None or Unspecified,,
1861,2335665,44500,1105701,136,5.0,2001,0.0,,3/29/2007 0:00,450HLT,450,H,,LT,,"Track Type Tractor, Dozer - 20.0 to 75.0 Horsepower",Connecticut,TTT,Track Type Tractors,,OROPS,,,,,Standard,,,,,,2 Valve,,None or Unspecified,,,,,,,,,,,,,,None or Unspecified,PAT,None or Unspecified,,
1861,2335912,30500,1252147,136,2.0,2002,0.0,,4/25/2008 0:00,450HLT,450,H,,LT,,"Track Type Tractor, Dozer - 20.0 to 75.0 Horsepower",Michigan,TTT,Track Type Tractors,,OROPS,,,,,Standard,,,,,,2 Valve,,None or Unspecified,,,,,,,,,,,,,,None or Unspecified,PAT,None or Unspecified,,
1861,2335913,27500,1252147,136,2.0,2002,1109.0,Low,12/15/2007 0:00,450HLT,450,H,,LT,,"Track Type Tractor, Dozer - 20.0 to 75.0 Horsepower",New Jersey,TTT,Track Type Tractors,,OROPS,,,,,Standard,,,,,,2 Valve,,None or Unspecified,,,,,,,,,,,,,,None or Unspecified,PAT,None or Unspecified,,
1861,2335914,27000,1252147,136,2.0,2002,0.0,,1/12/2008 0:00,450HLT,450,H,,LT,,"Track Type Tractor, Dozer - 20.0 to 75.0 Horsepower",New York,TTT,Track Type Tractors,,OROPS,,,,,Standard,,,,,,2 Valve,,None or Unspecified,,,,,,,,,,,,,,None or Unspecified,PAT,None or Unspecified,,
1861,2336163,18500,1213689,136,99.0,1000,3066.0,Medium,4/22/2010 0:00,450HLT,450,H,,LT,,"Track Type Tractor, Dozer - 20.0 to 75.0 Horsepower",South Carolina,TTT,Track Type Tractors,,OROPS,,,,,Standard,,,,,,2 Valve,,None or Unspecified,,,,,,,,,,,,,,None or Unspecified,PAT,None or Unspecified,,
1861,2336173,36500,1128284,136,2.0,2003,1700.0,Low,6/18/2008 0:00,450HLT,450,H,,LT,,"Track Type Tractor, Dozer - 20.0 to 75.0 Horsepower",Arkansas,TTT,Track Type Tractors,,OROPS,,,,,Standard,,,,,,2 Valve,,None or Unspecified,,,,,,,,,,,,,,None or Unspecified,PAT,None or Unspecified,,
1861,2336174,34000,1128284,136,8.0,2003,1700.0,Low,5/29/2008 0:00,450HLT,450,H,,LT,,"Track Type Tractor, Dozer - 20.0 to 75.0 Horsepower",Mississippi,TTT,Track Type Tractors,,OROPS,,,,,Standard,,,,,,2 Valve,,None or Unspecified,,,,,,,,,,,,,,None or Unspecified,PAT,None or Unspecified,,
1861,2336200,25000,4499,136,8.0,2003,2055.0,Low,4/2/2009 0:00,450HLT,450,H,,LT,,"Track Type Tractor, Dozer - 20.0 to 75.0 Horsepower",Mississippi,TTT,Track Type Tractors,,OROPS,,,,,Standard,,,,,,2 Valve,,None or Unspecified,,,,,,,,,,,,,,None or Unspecified,PAT,None or Unspecified,,
1861,2336201,30000,4499,136,8.0,2003,2700.0,Medium,9/18/2008 0:00,450HLT,450,H,,LT,,"Track Type Tractor, Dozer - 20.0 to 75.0 Horsepower",Mississippi,TTT,Track Type Tractors,,OROPS,,,,,Standard,,,,,,2 Valve,,None or Unspecified,,,,,,,,,,,,,,None or Unspecified,PAT,None or Unspecified,,
1861,2336202,27000,4499,136,8.0,2003,0.0,,11/18/2008 0:00,450HLT,450,H,,LT,,"Track Type Tractor, Dozer - 20.0 to 75.0 Horsepower",Mississippi,TTT,Track Type Tractors,,OROPS,,,,,Standard,,,,,,2 Valve,,None or Unspecified,,,,,,,,,,,,,,None or Unspecified,PAT,None or Unspecified,,
1861,2336410,28500,1682956,136,,2004,0.0,,2/12/2009 0:00,450HLT,450,H,,LT,,"Track Type Tractor, Dozer - 20.0 to 75.0 Horsepower",North Carolina,TTT,Track Type Tractors,,OROPS,,,,,Powershift,,,,,,2 Valve,,None or Unspecified,,,,,,,,,,,,,,None or Unspecified,PAT,None or Unspecified,,
1861,2336430,27000,1351458,136,1.0,2004,168.0,Low,9/16/2008 0:00,450HLT,450,H,,LT,,"Track Type Tractor, Dozer - 20.0 to 75.0 Horsepower",Washington,TTT,Track Type Tractors,,OROPS,,,,,Standard,,,,,,2 Valve,,None or Unspecified,,,,,,,,,,,,,,None or Unspecified,PAT,None or Unspecified,,
1861,2336435,18000,1678971,136,,2004,0.0,,10/16/2009 0:00,450HLT,450,H,,LT,,"Track Type Tractor, Dozer - 20.0 to 75.0 Horsepower",Georgia,TTT,Track Type Tractors,,OROPS,,,,,Standard,,,,,,2 Valve,,None or Unspecified,,,,,,,,,,,,,,None or Unspecified,PAT,None or Unspecified,,
1861,2336436,18500,1678971,136,,2004,0.0,,9/22/2009 0:00,450HLT,450,H,,LT,,"Track Type Tractor, Dozer - 20.0 to 75.0 Horsepower",Texas,TTT,Track Type Tractors,,OROPS,,,,,Standard,,,,,,2 Valve,,None or Unspecified,,,,,,,,,,,,,,None or Unspecified,PAT,None or Unspecified,,
1861,2336438,19500,1725348,136,,2004,0.0,,9/22/2009 0:00,450HLT,450,H,,LT,,"Track Type Tractor, Dozer - 20.0 to 75.0 Horsepower",Texas,TTT,Track Type Tractors,,OROPS,,,,,Hydrostatic,,,,,,2 Valve,,None or Unspecified,,,,,,,,,,,,,,None or Unspecified,PAT,None or Unspecified,,
1861,2336440,25500,1670041,136,,2004,1314.0,Low,12/9/2008 0:00,450HLT,450,H,,LT,,"Track Type Tractor, Dozer - 20.0 to 75.0 Horsepower",Iowa,TTT,Track Type Tractors,,OROPS,,,,,Standard,,,,,,2 Valve,,None or Unspecified,,,,,,,,,,,,,,None or Unspecified,PAT,None or Unspecified,,
1861,2346696,21500,1673508,136,,2004,0.0,,8/25/2009 0:00,450HLT,450,H,,LT,,"Track Type Tractor, Dozer - 20.0 to 75.0 Horsepower",Texas,TTT,Track Type Tractors,,OROPS,,,,,Standard,,,,,,2 Valve,,None or Unspecified,,,,,,,,,,,,,,None or Unspecified,PAT,None or Unspecified,,
1861,2353643,15500,1702486,136,,2000,0.0,,11/17/2009 0:00,450HLT,450,H,,LT,,"Track Type Tractor, Dozer - 20.0 to 75.0 Horsepower",Texas,TTT,Track Type Tractors,,OROPS,,,,,Standard,,,,,,2 Valve,,None or Unspecified,,,,,,,,,,,,,,None or Unspecified,PAT,None or Unspecified,,
1861,2353648,36000,1756422,136,1.0,1000,0.0,,2/19/2008 0:00,450HLT,450,H,,LT,,"Track Type Tractor, Dozer - 20.0 to 75.0 Horsepower",Florida,TTT,Track Type Tractors,,OROPS,,,,,Standard,,,,,,2 Valve,,None or Unspecified,,,,,,,,,,,,,,None or Unspecified,PAT,None or Unspecified,,
1861,2353650,23500,1723863,136,,1999,0.0,,4/10/2008 0:00,450HLT,450,H,,LT,,"Track Type Tractor, Dozer - 20.0 to 75.0 Horsepower",Connecticut,TTT,Track Type Tractors,,OROPS,,,,,Hydrostatic,,,,,,2 Valve,,None or Unspecified,,,,,,,,,,,,,,None or Unspecified,PAT,None or Unspecified,,
1861,2353651,29000,1774733,136,1.0,1999,0.0,,6/26/2008 0:00,450HLT,450,H,,LT,,"Track Type Tractor, Dozer - 20.0 to 75.0 Horsepower",Georgia,TTT,Track Type Tractors,,EROPS w AC,,,,,Standard,,,,,,2 Valve,,None or Unspecified,,,,,,,,,,,,,,None or Unspecified,PAT,None or Unspecified,,
1861,2353652,24500,1734723,136,,2000,0.0,,1/19/2008 0:00,450HLT,450,H,,LT,,"Track Type Tractor, Dozer - 20.0 to 75.0 Horsepower",Ohio,TTT,Track Type Tractors,,OROPS,,,,,Standard,,,,,,2 Valve,,None or Unspecified,,,,,,,,,,,,,,None or Unspecified,PAT,None or Unspecified,,
1861,2353656,27000,1666994,136,1.0,1999,0.0,,5/8/2008 0:00,450HLT,450,H,,LT,,"Track Type Tractor, Dozer - 20.0 to 75.0 Horsepower",Montana,TTT,Track Type Tractors,,OROPS,,,,,Standard,,,,,,2 Valve,,None or Unspecified,,,,,,,,,,,,,,None or Unspecified,PAT,None or Unspecified,,
1861,2353657,18000,1651698,136,1.0,1000,0.0,,6/2/2010 0:00,450HLT,450,H,,LT,,"Track Type Tractor, Dozer - 20.0 to 75.0 Horsepower",Maryland,TTT,Track Type Tractors,,OROPS,,,,,Standard,,,,,,2 Valve,,None or Unspecified,,,,,,,,,,,,,,None or Unspecified,PAT,None or Unspecified,,
1861,2353659,19000,1687910,136,1.0,1999,0.0,,3/11/2010 0:00,450HLT,450,H,,LT,,"Track Type Tractor, Dozer - 20.0 to 75.0 Horsepower",Illinois,TTT,Track Type Tractors,,OROPS,,,,,Standard,,,,,,2 Valve,,None or Unspecified,,,,,,,,,,,,,,None or Unspecified,PAT,None or Unspecified,,
1861,2353663,18000,1714165,136,1.0,1000,0.0,,3/18/2010 0:00,450HLT,450,H,,LT,,"Track Type Tractor, Dozer - 20.0 to 75.0 Horsepower",Missouri,TTT,Track Type Tractors,,OROPS,,,,,Standard,,,,,,2 Valve,,None or Unspecified,,,,,,,,,,,,,,None or Unspecified,PAT,None or Unspecified,,
1861,2353665,22000,1752809,136,,1999,0.0,,9/30/2009 0:00,450HLT,450,H,,LT,,"Track Type Tractor, Dozer - 20.0 to 75.0 Horsepower",Maryland,TTT,Track Type Tractors,,OROPS,,,,,Standard,,,,,,2 Valve,,None or Unspecified,,,,,,,,,,,,,,None or Unspecified,PAT,None or Unspecified,,
1861,2353668,29000,1745611,136,,1999,0.0,,7/28/2007 0:00,450HLT,450,H,,LT,,"Track Type Tractor, Dozer - 20.0 to 75.0 Horsepower",New York,TTT,Track Type Tractors,,EROPS,,,,,Standard,,,,,,2 Valve,,None or Unspecified,,,,,,,,,,,,,,None or Unspecified,PAT,None or Unspecified,,
1861,2353670,32500,1645306,136,,2004,0.0,,3/27/2008 0:00,450HLT,450,H,,LT,,"Track Type Tractor, Dozer - 20.0 to 75.0 Horsepower",New Jersey,TTT,Track Type Tractors,,OROPS,,,,,Standard,,,,,,2 Valve,,None or Unspecified,,,,,,,,,,,,,,None or Unspecified,PAT,None or Unspecified,,
1861,2353672,35000,1645306,136,,2000,2390.0,Medium,6/9/2007 0:00,450HLT,450,H,,LT,,"Track Type Tractor, Dozer - 20.0 to 75.0 Horsepower",New Jersey,TTT,Track Type Tractors,,OROPS,,,,,Standard,,,,,,2 Valve,,None or Unspecified,,,,,,,,,,,,,,None or Unspecified,PAT,None or Unspecified,,
1861,2353677,26000,1705243,136,1.0,2000,0.0,,11/7/2008 0:00,450HLT,450,H,,LT,,"Track Type Tractor, Dozer - 20.0 to 75.0 Horsepower",Nevada,TTT,Track Type Tractors,,OROPS,,,,,Standard,,,,,,2 Valve,,Multi Shank,,,,,,,,,,,,,,None or Unspecified,PAT,None or Unspecified,,
1861,2353680,31000,1760767,136,1.0,2000,0.0,,8/27/2008 0:00,450HLT,450,H,,LT,,"Track Type Tractor, Dozer - 20.0 to 75.0 Horsepower",California,TTT,Track Type Tractors,,OROPS,,,,,Standard,,,,,,2 Valve,,Single Shank,,,,,,,,,,,,,,None or Unspecified,PAT,None or Unspecified,,
1861,2353683,29000,1713054,136,1.0,2000,0.0,,3/18/2008 0:00,450HLT,450,H,,LT,,"Track Type Tractor, Dozer - 20.0 to 75.0 Horsepower",Illinois,TTT,Track Type Tractors,,OROPS,,,,,Standard,,,,,,2 Valve,,None or Unspecified,,,,,,,,,,,,,,None or Unspecified,PAT,None or Unspecified,,
1861,2353684,27000,1731794,136,1.0,2000,0.0,,3/18/2008 0:00,450HLT,450,H,,LT,,"Track Type Tractor, Dozer - 20.0 to 75.0 Horsepower",Illinois,TTT,Track Type Tractors,,OROPS,,,,,Standard,,,,,,2 Valve,,None or Unspecified,,,,,,,,,,,,,,None or Unspecified,PAT,None or Unspecified,,
1861,2353690,16000,1752968,136,1.0,1000,0.0,,5/27/2010 0:00,450HLT,450,H,,LT,,"Track Type Tractor, Dozer - 20.0 to 75.0 Horsepower",Washington,TTT,Track Type Tractors,,OROPS,,,,,Standard,,,,,,2 Valve,,None or Unspecified,,,,,,,,,,,,,,None or Unspecified,PAT,None or Unspecified,,
1861,2353699,31000,1664157,136,,2000,0.0,,6/6/2007 0:00,450HLT,450,H,,LT,,"Track Type Tractor, Dozer - 20.0 to 75.0 Horsepower",Texas,TTT,Track Type Tractors,,OROPS,,,,,Standard,,,,,,2 Valve,,None or Unspecified,,,,,,,,,,,,,,None or Unspecified,None or Unspecified,None or Unspecified,,
1861,2353716,27000,1760508,136,,1000,370500.0,Low,4/24/2009 0:00,450HLT,450,H,,LT,,"Track Type Tractor, Dozer - 20.0 to 75.0 Horsepower",Maryland,TTT,Track Type Tractors,,OROPS,,,,,Standard,,,,,,2 Valve,,None or Unspecified,,,,,,,,,,,,,,None or Unspecified,None or Unspecified,None or Unspecified,,
1861,2353718,26000,1685195,136,1.0,2000,0.0,,5/14/2009 0:00,450HLT,450,H,,LT,,"Track Type Tractor, Dozer - 20.0 to 75.0 Horsepower",Pennsylvania,TTT,Track Type Tractors,,OROPS,,,,,Standard,,,,,,2 Valve,,None or Unspecified,,,,,,,,,,,,,,None or Unspecified,PAT,None or Unspecified,,
1861,2353726,23000,1660967,136,,2000,0.0,,3/19/2009 0:00,450HLT,450,H,,LT,,"Track Type Tractor, Dozer - 20.0 to 75.0 Horsepower",New Jersey,TTT,Track Type Tractors,,EROPS w AC,,,,,Standard,,,,,,2 Valve,,None or Unspecified,,,,,,,,,,,,,,None or Unspecified,PAT,Lever,,
1861,2353737,22000,1649752,136,8.0,2002,0.0,,1/28/2010 0:00,450HLT,450,H,,LT,,"Track Type Tractor, Dozer - 20.0 to 75.0 Horsepower",Alabama,TTT,Track Type Tractors,,OROPS,,,,,Standard,,,,,,2 Valve,,None or Unspecified,,,,,,,,,,,,,,None or Unspecified,PAT,None or Unspecified,,
1861,2353749,35000,1741971,136,,2001,0.0,,3/22/2008 0:00,450HLT,450,H,,LT,,"Track Type Tractor, Dozer - 20.0 to 75.0 Horsepower",Washington,TTT,Track Type Tractors,,OROPS,,,,,Standard,,,,,,2 Valve,,None or Unspecified,,,,,,,,,,,,,,None or Unspecified,None or Unspecified,None or Unspecified,,
1861,2353751,26000,1741972,136,1.0,2001,0.0,,9/16/2008 0:00,450HLT,450,H,,LT,,"Track Type Tractor, Dozer - 20.0 to 75.0 Horsepower",Washington,TTT,Track Type Tractors,,OROPS,,,,,Standard,,,,,,2 Valve,,Multi Shank,,,,,,,,,,,,,,None or Unspecified,PAT,None or Unspecified,,
1861,2353752,18500,1712669,136,1.0,2001,0.0,,6/11/2008 0:00,450HLT,450,H,,LT,,"Track Type Tractor, Dozer - 20.0 to 75.0 Horsepower",Texas,TTT,Track Type Tractors,,OROPS,,,,,Standard,,,,,,2 Valve,,None or Unspecified,,,,,,,,,,,,,,None or Unspecified,PAT,None or Unspecified,,
1861,2353753,39000,1690312,136,,2001,0.0,,12/1/2007 0:00,450HLT,450,H,,LT,,"Track Type Tractor, Dozer - 20.0 to 75.0 Horsepower",New York,TTT,Track Type Tractors,,EROPS w AC,,,,,Standard,,,,,,2 Valve,,None or Unspecified,,,,,,,,,,,,,,None or Unspecified,PAT,None or Unspecified,,
1861,2353759,38000,1718178,136,,2001,0.0,,5/10/2007 0:00,450HLT,450,H,,LT,,"Track Type Tractor, Dozer - 20.0 to 75.0 Horsepower",Maryland,TTT,Track Type Tractors,,EROPS w AC,,,,,Powershift,,,,,,2 Valve,,None or Unspecified,,,,,,,,,,,,,,None or Unspecified,PAT,None or Unspecified,,
1861,2353761,27000,1705690,136,1.0,2001,0.0,,12/12/2007 0:00,450HLT,450,H,,LT,,"Track Type Tractor, Dozer - 20.0 to 75.0 Horsepower",Maryland,TTT,Track Type Tractors,,OROPS,,,,,Standard,,,,,,2 Valve,,None or Unspecified,,,,,,,,,,,,,,None or Unspecified,None or Unspecified,None or Unspecified,,
1861,2353778,44000,1661645,136,,2002,0.0,,3/27/2008 0:00,450HLT,450,H,,LT,,"Track Type Tractor, Dozer - 20.0 to 75.0 Horsepower",Maryland,TTT,Track Type Tractors,,OROPS,,,,,Standard,,,,,,2 Valve,,None or Unspecified,,,,,,,,,,,,,,None or Unspecified,PAT,None or Unspecified,,
1861,2353781,49000,1715807,136,,2003,0.0,,8/24/2007 0:00,450HLT,450,H,,LT,,"Track Type Tractor, Dozer - 20.0 to 75.0 Horsepower",Connecticut,TTT,Track Type Tractors,,EROPS w AC,,,,,Standard,,,,,,2 Valve,,None or Unspecified,,,,,,,,,,,,,,None or Unspecified,PAT,None or Unspecified,,
1861,2353786,19000,1751724,136,1.0,2002,0.0,,3/4/2009 0:00,450HLT,450,H,,LT,,"Track Type Tractor, Dozer - 20.0 to 75.0 Horsepower",Texas,TTT,Track Type Tractors,,OROPS,,,,,Standard,,,,,,2 Valve,,None or Unspecified,,,,,,,,,,,,,,None or Unspecified,PAT,None or Unspecified,,
1861,2353787,31000,1727854,136,1.0,2002,0.0,,4/2/2008 0:00,450HLT,450,H,,LT,,"Track Type Tractor, Dozer - 20.0 to 75.0 Horsepower",Maryland,TTT,Track Type Tractors,,EROPS w AC,,,,,Standard,,,,,,2 Valve,,None or Unspecified,,,,,,,,,,,,,,None or Unspecified,PAT,None or Unspecified,,
1861,2353788,32000,1778304,136,,1000,0.0,,5/9/2009 0:00,450HLT,450,H,,LT,,"Track Type Tractor, Dozer - 20.0 to 75.0 Horsepower",Maine,TTT,Track Type Tractors,,OROPS,,,,,Standard,,,,,,2 Valve,,None or Unspecified,,,,,,,,,,,,,,None or Unspecified,PAT,None or Unspecified,,
1861,2353789,24000,1705299,136,,1000,0.0,,5/10/2008 0:00,450HLT,450,H,,LT,,"Track Type Tractor, Dozer - 20.0 to 75.0 Horsepower",Wisconsin,TTT,Track Type Tractors,,OROPS,,,,,Standard,,,,,,2 Valve,,None or Unspecified,,,,,,,,,,,,,,None or Unspecified,PAT,None or Unspecified,,
1861,2353804,34000,1663313,136,1.0,2003,1612.0,Low,2/19/2008 0:00,450HLT,450,H,,LT,,"Track Type Tractor, Dozer - 20.0 to 75.0 Horsepower",Florida,TTT,Track Type Tractors,,OROPS,,,,,Standard,,,,,,2 Valve,,None or Unspecified,,,,,,,,,,,,,,None or Unspecified,PAT,None or Unspecified,,
1861,2353807,27000,1659416,136,1.0,2003,0.0,,6/26/2008 0:00,450HLT,450,H,,LT,,"Track Type Tractor, Dozer - 20.0 to 75.0 Horsepower",Georgia,TTT,Track Type Tractors,,OROPS,,,,,Standard,,,,,,2 Valve,,None or Unspecified,,,,,,,,,,,,,,None or Unspecified,PAT,None or Unspecified,,
1861,2353812,20000,1715288,136,1.0,2003,0.0,,4/1/2009 0:00,450HLT,450,H,,LT,,"Track Type Tractor, Dozer - 20.0 to 75.0 Horsepower",Maryland,TTT,Track Type Tractors,,EROPS w AC,,,,,Standard,,,,,,2 Valve,,None or Unspecified,,,,,,,,,,,,,,None or Unspecified,PAT,None or Unspecified,,
1861,2353813,46000,1672063,136,,2003,1105.0,Low,9/8/2007 0:00,450HLT,450,H,,LT,,"Track Type Tractor, Dozer - 20.0 to 75.0 Horsepower",Kentucky,TTT,Track Type Tractors,,OROPS,,,,,Standard,,,,,,2 Valve,,None or Unspecified,,,,,,,,,,,,,,None or Unspecified,PAT,None or Unspecified,,
1861,2353814,23000,1743382,136,,2003,0.0,,3/19/2009 0:00,450HLT,450,H,,LT,,"Track Type Tractor, Dozer - 20.0 to 75.0 Horsepower",New Jersey,TTT,Track Type Tractors,,EROPS w AC,,,,,Standard,,,,,,2 Valve,,None or Unspecified,,,,,,,,,,,,,,None or Unspecified,PAT,Lever,,
1861,2353833,29000,1645327,136,1.0,2003,0.0,,5/6/2009 0:00,450HLT,450,H,,LT,,"Track Type Tractor, Dozer - 20.0 to 75.0 Horsepower",Texas,TTT,Track Type Tractors,,OROPS,,,,,Standard,,,,,,2 Valve,,Multi Shank,,,,,,,,,,,,,,None or Unspecified,PAT,None or Unspecified,,
1861,2353856,23000,1651056,136,,2003,0.0,,12/27/2008 0:00,450HLT,450,H,,LT,,"Track Type Tractor, Dozer - 20.0 to 75.0 Horsepower",New York,TTT,Track Type Tractors,,OROPS,,,,,Powershift,,,,,,2 Valve,,None or Unspecified,,,,,,,,,,,,,,None or Unspecified,None or Unspecified,None or Unspecified,,
1861,2353857,24000,1742998,136,,2003,0.0,,12/19/2008 0:00,450HLT,450,H,,LT,,"Track Type Tractor, Dozer - 20.0 to 75.0 Horsepower",New Jersey,TTT,Track Type Tractors,,OROPS,,,,,Standard,,,,,,2 Valve,,None or Unspecified,,,,,,,,,,,,,,None or Unspecified,PAT,None or Unspecified,,
1861,2353864,23000,1656809,136,1.0,2003,0.0,,2/16/2009 0:00,450HLT,450,H,,LT,,"Track Type Tractor, Dozer - 20.0 to 75.0 Horsepower",Florida,TTT,Track Type Tractors,,OROPS,,,,,Standard,,,,,,2 Valve,,None or Unspecified,,,,,,,,,,,,,,None or Unspecified,PAT,None or Unspecified,,
1861,2353886,27500,1768267,136,1.0,2003,0.0,,2/16/2009 0:00,450HLT,450,H,,LT,,"Track Type Tractor, Dozer - 20.0 to 75.0 Horsepower",Florida,TTT,Track Type Tractors,,OROPS,,,,,Standard,,,,,,2 Valve,,None or Unspecified,,,,,,,,,,,,,,None or Unspecified,PAT,None or Unspecified,,
1861,2353908,15500,1652147,136,,2003,0.0,,3/19/2009 0:00,450HLT,450,H,,LT,,"Track Type Tractor, Dozer - 20.0 to 75.0 Horsepower",New Jersey,TTT,Track Type Tractors,,OROPS,,,,,Standard,,,,,,2 Valve,,None or Unspecified,,,,,,,,,,,,,,None or Unspecified,PAT,Lever,,
1861,2353911,31000,1662917,136,,2004,0.0,,5/3/2008 0:00,450HLT,450,H,,LT,,"Track Type Tractor, Dozer - 20.0 to 75.0 Horsepower",Washington,TTT,Track Type Tractors,,OROPS,,,,,Standard,,,,,,2 Valve,,None or Unspecified,,,,,,,,,,,,,,None or Unspecified,None or Unspecified,None or Unspecified,,
1861,2353919,39000,1657640,136,1.0,2004,0.0,,8/9/2008 0:00,450HLT,450,H,,LT,,"Track Type Tractor, Dozer - 20.0 to 75.0 Horsepower",Virginia,TTT,Track Type Tractors,,OROPS,,,,,Standard,,,,,,2 Valve,,None or Unspecified,,,,,,,,,,,,,,None or Unspecified,PAT,None or Unspecified,,
1861,2353932,39000,1728857,136,,2004,2502.0,Medium,6/7/2007 0:00,450HLT,450,H,,LT,,"Track Type Tractor, Dozer - 20.0 to 75.0 Horsepower",Texas,TTT,Track Type Tractors,,OROPS,,,,,Standard,,,,,,2 Valve,,None or Unspecified,,,,,,,,,,,,,,None or Unspecified,PAT,None or Unspecified,,
1861,2353939,36000,1716189,136,1.0,1000,0.0,,2/19/2008 0:00,450HLT,450,H,,LT,,"Track Type Tractor, Dozer - 20.0 to 75.0 Horsepower",Florida,TTT,Track Type Tractors,,OROPS,,,,,Standard,,,,,,2 Valve,,None or Unspecified,,,,,,,,,,,,,,None or Unspecified,PAT,None or Unspecified,,
1861,2353945,34000,1784441,136,1.0,2004,0.0,,11/14/2007 0:00,450HLT,450,H,,LT,,"Track Type Tractor, Dozer - 20.0 to 75.0 Horsepower",Georgia,TTT,Track Type Tractors,,OROPS,,,,,Standard,,,,,,2 Valve,,None or Unspecified,,,,,,,,,,,,,,None or Unspecified,PAT,None or Unspecified,,
1861,2353953,36000,1786090,136,,2004,0.0,,5/3/2008 0:00,450HLT,450,H,,LT,,"Track Type Tractor, Dozer - 20.0 to 75.0 Horsepower",New Hampshire,TTT,Track Type Tractors,,OROPS,,,,,Standard,,,,,,2 Valve,,None or Unspecified,,,,,,,,,,,,,,None or Unspecified,PAT,None or Unspecified,,
1861,2353956,45000,1736209,136,,2004,211.0,Low,9/8/2007 0:00,450HLT,450,H,,LT,,"Track Type Tractor, Dozer - 20.0 to 75.0 Horsepower",Kentucky,TTT,Track Type Tractors,,OROPS,,,,,Standard,,,,,,2 Valve,,None or Unspecified,,,,,,,,,,,,,,None or Unspecified,PAT,None or Unspecified,,
1861,2353958,28000,1787983,136,,2004,0.0,,9/27/2008 0:00,450HLT,450,H,,LT,,"Track Type Tractor, Dozer - 20.0 to 75.0 Horsepower",New Jersey,TTT,Track Type Tractors,,OROPS,,,,,Standard,,,,,,2 Valve,,None or Unspecified,,,,,,,,,,,,,,None or Unspecified,PAT,None or Unspecified,,
1861,2353968,24000,1683652,136,,2004,0.0,,1/31/2009 0:00,450HLT,450,H,,LT,,"Track Type Tractor, Dozer - 20.0 to 75.0 Horsepower",Florida,TTT,Track Type Tractors,,OROPS,,,,,Standard,,,,,,2 Valve,,None or Unspecified,,,,,,,,,,,,,,None or Unspecified,PAT,None or Unspecified,,
1861,2353969,23500,1683652,136,,2004,0.0,,1/17/2009 0:00,450HLT,450,H,,LT,,"Track Type Tractor, Dozer - 20.0 to 75.0 Horsepower",Ohio,TTT,Track Type Tractors,,OROPS,,,,,Standard,,,,,,2 Valve,,None or Unspecified,,,,,,,,,,,,,,None or Unspecified,PAT,None or Unspecified,,
1861,2353971,37500,1730713,136,1.0,2004,1655.0,Low,8/6/2008 0:00,450HLT,450,H,,LT,,"Track Type Tractor, Dozer - 20.0 to 75.0 Horsepower",California,TTT,Track Type Tractors,,OROPS,,,,,Standard,,,,,,2 Valve,,Multi Shank,,,,,,,,,,,,,,None or Unspecified,PAT,None or Unspecified,,
1861,2353977,34000,1769177,136,1.0,2004,0.0,,11/14/2007 0:00,450HLT,450,H,,LT,,"Track Type Tractor, Dozer - 20.0 to 75.0 Horsepower",Georgia,TTT,Track Type Tractors,,OROPS,,,,,Standard,,,,,,2 Valve,,None or Unspecified,,,,,,,,,,,,,,None or Unspecified,PAT,None or Unspecified,,
1861,2353978,35000,1643488,136,1.0,2004,1901.0,Low,5/13/2009 0:00,450HLT,450,H,,LT,,"Track Type Tractor, Dozer - 20.0 to 75.0 Horsepower",Illinois,TTT,Track Type Tractors,,EROPS,,,,,Standard,,,,,,2 Valve,,None or Unspecified,,,,,,,,,,,,,,None or Unspecified,PAT,None or Unspecified,,
1861,2353983,34500,1745824,136,,2004,0.0,,12/7/2007 0:00,450HLT,450,H,,LT,,"Track Type Tractor, Dozer - 20.0 to 75.0 Horsepower",Pennsylvania,TTT,Track Type Tractors,,OROPS,,,,,Powershift,,,,,,2 Valve,,None or Unspecified,,,,,,,,,,,,,,None or Unspecified,PAT,None or Unspecified,,
1861,2353984,35000,1745824,136,,2004,0.0,,3/27/2008 0:00,450HLT,450,H,,LT,,"Track Type Tractor, Dozer - 20.0 to 75.0 Horsepower",New Jersey,TTT,Track Type Tractors,,OROPS,,,,,Powershift,,,,,,2 Valve,,None or Unspecified,,,,,,,,,,,,,,None or Unspecified,PAT,None or Unspecified,,
1861,2353985,30000,1764849,136,1.0,2004,0.0,,11/14/2007 0:00,450HLT,450,H,,LT,,"Track Type Tractor, Dozer - 20.0 to 75.0 Horsepower",Georgia,TTT,Track Type Tractors,,OROPS,,,,,Standard,,,,,,2 Valve,,None or Unspecified,,,,,,,,,,,,,,None or Unspecified,PAT,None or Unspecified,,
1861,2353998,23000,1690098,136,1.0,2004,2133.0,Low,12/8/2009 0:00,450HLT,450,H,,LT,,"Track Type Tractor, Dozer - 20.0 to 75.0 Horsepower",North Carolina,TTT,Track Type Tractors,,OROPS,,,,,Standard,,,,,,2 Valve,,None or Unspecified,,,,,,,,,,,,,,None or Unspecified,PAT,None or Unspecified,,
1861,2354003,34000,1668717,136,1.0,2004,1976.0,Medium,11/14/2007 0:00,450HLT,450,H,,LT,,"Track Type Tractor, Dozer - 20.0 to 75.0 Horsepower",Georgia,TTT,Track Type Tractors,,OROPS,,,,,Standard,,,,,,2 Valve,,None or Unspecified,,,,,,,,,,,,,,None or Unspecified,PAT,None or Unspecified,,
1861,2354006,21000,1692524,136,1.0,2004,0.0,,5/27/2009 0:00,450HLT,450,H,,LT,,"Track Type Tractor, Dozer - 20.0 to 75.0 Horsepower",Florida,TTT,Track Type Tractors,,OROPS,,,,,Standard,,,,,,2 Valve,,None or Unspecified,,,,,,,,,,,,,,None or Unspecified,PAT,None or Unspecified,,
1861,2354009,25000,1699874,136,,2004,1970.0,Medium,12/10/2008 0:00,450HLT,450,H,,LT,,"Track Type Tractor, Dozer - 20.0 to 75.0 Horsepower",Florida,TTT,Track Type Tractors,,OROPS,,,,,Standard,,,,,,2 Valve,,None or Unspecified,,,,,,,,,,,,,,None or Unspecified,PAT,None or Unspecified,,
1861,2354017,25500,1650829,136,,2004,0.0,,12/19/2008 0:00,450HLT,450,H,,LT,,"Track Type Tractor, Dozer - 20.0 to 75.0 Horsepower",New Jersey,TTT,Track Type Tractors,,OROPS,,,,,Standard,,,,,,2 Valve,,None or Unspecified,,,,,,,,,,,,,,None or Unspecified,PAT,None or Unspecified,,
1861,2354020,36000,1775075,136,1.0,2004,0.0,,2/19/2008 0:00,450HLT,450,H,,LT,,"Track Type Tractor, Dozer - 20.0 to 75.0 Horsepower",Florida,TTT,Track Type Tractors,,OROPS,,,,,Standard,,,,,,2 Valve,,None or Unspecified,,,,,,,,,,,,,,None or Unspecified,PAT,None or Unspecified,,
1861,2354027,27000,1764770,136,1.0,2004,1675.0,Low,9/16/2008 0:00,450HLT,450,H,,LT,,"Track Type Tractor, Dozer - 20.0 to 75.0 Horsepower",Washington,TTT,Track Type Tractors,,OROPS,,,,,Standard,,,,,,2 Valve,,Single Shank,,,,,,,,,,,,,,None or Unspecified,PAT,None or Unspecified,,
1861,2354030,27000,1745193,136,,2004,0.0,,7/11/2009 0:00,450HLT,450,H,,LT,,"Track Type Tractor, Dozer - 20.0 to 75.0 Horsepower",Maine,TTT,Track Type Tractors,,OROPS,,,,,Standard,,,,,,2 Valve,,None or Unspecified,,,,,,,,,,,,,,None or Unspecified,PAT,None or Unspecified,,
1861,2354031,20500,1782946,136,,2004,2052.0,Low,7/24/2009 0:00,450HLT,450,H,,LT,,"Track Type Tractor, Dozer - 20.0 to 75.0 Horsepower",Virginia,TTT,Track Type Tractors,,OROPS,,,,,Standard,,,,,,2 Valve,,None or Unspecified,,,,,,,,,,,,,,None or Unspecified,PAT,None or Unspecified,,
1861,2354034,30000,1760948,136,1.0,2004,900.0,Low,3/31/2009 0:00,450HLT,450,H,,LT,,"Track Type Tractor, Dozer - 20.0 to 75.0 Horsepower",Connecticut,TTT,Track Type Tractors,,OROPS,,,,,Standard,,,,,,2 Valve,,None or Unspecified,,,,,,,,,,,,,,None or Unspecified,PAT,None or Unspecified,,
1861,2354053,26000,1691605,136,1.0,2004,0.0,,3/18/2009 0:00,450HLT,450,H,,LT,,"Track Type Tractor, Dozer - 20.0 to 75.0 Horsepower",Washington,TTT,Track Type Tractors,,OROPS,,,,,Standard,,,,,,2 Valve,,Multi Shank,,,,,,,,,,,,,,None or Unspecified,PAT,None or Unspecified,,
1861,2354055,20500,1672351,136,,2004,1019.0,Low,7/24/2009 0:00,450HLT,450,H,,LT,,"Track Type Tractor, Dozer - 20.0 to 75.0 Horsepower",Virginia,TTT,Track Type Tractors,,OROPS,,,,,Standard,,,,,,2 Valve,,None or Unspecified,,,,,,,,,,,,,,None or Unspecified,PAT,None or Unspecified,,
1861,2354056,23500,1672351,136,,2004,1019.0,Low,8/20/2009 0:00,450HLT,450,H,,LT,,"Track Type Tractor, Dozer - 20.0 to 75.0 Horsepower",New Hampshire,TTT,Track Type Tractors,,OROPS,,,,,Standard,,,,,,2 Valve,,None or Unspecified,,,,,,,,,,,,,,None or Unspecified,PAT,None or Unspecified,,
1861,2354057,20000,1662508,136,2.0,2004,2515.0,Low,1/23/2010 0:00,450HLT,450,H,,LT,,"Track Type Tractor, Dozer - 20.0 to 75.0 Horsepower",Ohio,TTT,Track Type Tractors,,OROPS,,,,,Standard,,,,,,2 Valve,,None or Unspecified,,,,,,,,,,,,,,None or Unspecified,PAT,None or Unspecified,,
1861,2354058,20000,1651970,136,,2004,0.0,,8/22/2009 0:00,450HLT,450,H,,LT,,"Track Type Tractor, Dozer - 20.0 to 75.0 Horsepower",Ohio,TTT,Track Type Tractors,,OROPS,,,,,Standard,,,,,,2 Valve,,None or Unspecified,,,,,,,,,,,,,,None or Unspecified,PAT,None or Unspecified,,
1861,2354069,26500,1651809,136,,2004,1787.0,Low,6/18/2009 0:00,450HLT,450,H,,LT,,"Track Type Tractor, Dozer - 20.0 to 75.0 Horsepower",Texas,TTT,Track Type Tractors,,OROPS,,,,,Standard,,,,,,2 Valve,,None or Unspecified,,,,,,,,,,,,,,None or Unspecified,PAT,None or Unspecified,,
1861,2357888,17000,1761232,136,1.0,1000,5559.0,Medium,5/5/2010 0:00,450HLT,450,H,,LT,,"Track Type Tractor, Dozer - 20.0 to 75.0 Horsepower",Washington,TTT,Track Type Tractors,,OROPS,,,,,Standard,,,,,,2 Valve,,None or Unspecified,,,,,,,,,,,,,,None or Unspecified,None or Unspecified,None or Unspecified,,
1861,2630380,21000,1380008,149,1.0,1999,7539.0,Medium,3/29/2011 0:00,450HLT,450,H,,LT,,"Track Type Tractor, Dozer - 20.0 to 75.0 Horsepower",Maryland,TTT,Track Type Tractors,,EROPS,,,,,Standard,,,,,,2 Valve,,None or Unspecified,,,,,,,,,,,,,,None or Unspecified,PAT,None or Unspecified,,
1861,2630580,16500,1548818,149,13.0,2000,4922.0,Medium,12/18/2010 0:00,450HLT,450,H,,LT,,"Track Type Tractor, Dozer - 20.0 to 75.0 Horsepower",Tennessee,TTT,Track Type Tractors,,OROPS,,,,,Standard,,,,,,2 Valve,,None or Unspecified,,,,,,,,,,,,,,None or Unspecified,PAT,None or Unspecified,,
1861,2630993,27000,1209602,149,99.0,2002,0.0,,11/17/2010 0:00,450HLT,450,H,,LT,,"Track Type Tractor, Dozer - 20.0 to 75.0 Horsepower",Mississippi,TTT,Track Type Tractors,,OROPS,,,,,Standard,,,,,,2 Valve,,None or Unspecified,,,,,,,,,,,,,,None or Unspecified,PAT,None or Unspecified,,
1861,2631013,22000,1511101,149,4.0,2002,0.0,,2/7/2011 0:00,450HLT,450,H,,LT,,"Track Type Tractor, Dozer - 20.0 to 75.0 Horsepower",Florida,TTT,Track Type Tractors,,OROPS,,,,,Standard,,,,,,2 Valve,,None or Unspecified,,,,,,,,,,,,,,None or Unspecified,PAT,None or Unspecified,,
1861,2631253,25000,1540986,149,1.0,2003,3492.0,Medium,5/25/2011 0:00,450HLT,450,H,,LT,,"Track Type Tractor, Dozer - 20.0 to 75.0 Horsepower",Virginia,TTT,Track Type Tractors,,OROPS,,,,,Standard,,,,,,2 Valve,,None or Unspecified,,,,,,,,,,,,,,None or Unspecified,PAT,None or Unspecified,,
1861,2649240,25000,1908619,149,1.0,1999,7200.0,Medium,3/8/2011 0:00,450HLT,450,H,,LT,,"Track Type Tractor, Dozer - 20.0 to 75.0 Horsepower",Washington,TTT,Track Type Tractors,,OROPS,,,,,Standard,,,,,,2 Valve,,Multi Shank,,,,,,,,,,,,,,None or Unspecified,PAT,None or Unspecified,,
1861,2649276,25000,1913076,149,1.0,1000,0.0,,7/29/2010 0:00,450HLT,450,H,,LT,,"Track Type Tractor, Dozer - 20.0 to 75.0 Horsepower",Washington,TTT,Track Type Tractors,,OROPS,,,,,Standard,,,,,,2 Valve,,Multi Shank,,,,,,,,,,,,,,None or Unspecified,PAT,None or Unspecified,,
1861,2649288,18000,1824044,149,1.0,2000,6842.0,Medium,3/31/2011 0:00,450HLT,450,H,,LT,,"Track Type Tractor, Dozer - 20.0 to 75.0 Horsepower",Missouri,TTT,Track Type Tractors,,EROPS w AC,,,,,Standard,,,,,,2 Valve,,None or Unspecified,,,,,,,,,,,,,,None or Unspecified,PAT,None or Unspecified,,
1861,2649296,27500,1859595,149,1.0,2000,4079.0,Low,6/16/2011 0:00,450HLT,450,H,,LT,,"Track Type Tractor, Dozer - 20.0 to 75.0 Horsepower",Washington,TTT,Track Type Tractors,,OROPS,,,,,Standard,,,,,,2 Valve,,Multi Shank,,,,,,,,,,,,,,None or Unspecified,PAT,None or Unspecified,,
1861,2649309,23500,1916750,149,2.0,2001,0.0,,7/17/2010 0:00,450HLT,450,H,,LT,,"Track Type Tractor, Dozer - 20.0 to 75.0 Horsepower",New York,TTT,Track Type Tractors,,OROPS,,,,,Standard,,,,,,2 Valve,,None or Unspecified,,,,,,,,,,,,,,None or Unspecified,PAT,None or Unspecified,,
1861,2649311,16500,1888017,149,1.0,2003,0.0,,6/2/2010 0:00,450HLT,450,H,,LT,,"Track Type Tractor, Dozer - 20.0 to 75.0 Horsepower",Maryland,TTT,Track Type Tractors,,OROPS,,,,,Standard,,,,,,2 Valve,,None or Unspecified,,,,,,,,,,,,,,None or Unspecified,PAT,None or Unspecified,,
1861,2649391,19000,1914883,149,1.0,1999,0.0,,7/29/2010 0:00,450HLT,450,H,,LT,,"Track Type Tractor, Dozer - 20.0 to 75.0 Horsepower",Washington,TTT,Track Type Tractors,,OROPS,,,,,Standard,,,,,,2 Valve,,None or Unspecified,,,,,,,,,,,,,,None or Unspecified,PAT,None or Unspecified,,
1861,4310697,19000,1804017,172,1.0,2005,2473.0,Medium,8/23/2011 0:00,450HLT,450,H,,LT,,"Track Type Tractor, Dozer - 20.0 to 75.0 Horsepower",Texas,TTT,Track Type Tractors,,OROPS,,,,,Standard,,,,,,,,,,,,,,,,,,,,,,,,,,
1861,4322840,17000,2291097,172,1.0,1999,6212.0,Medium,12/19/2011 0:00,450HLT,450,H,,LT,,"Track Type Tractor, Dozer - 20.0 to 75.0 Horsepower",Tennessee,TTT,Track Type Tractors,,OROPS,,,,,Standard,,,,,,2 Valve,,None or Unspecified,,,,,,,,,,,,,,None or Unspecified,PAT,None or Unspecified,,
1861,4322853,24000,1704990,172,1.0,2000,3603.0,Low,12/10/2009 0:00,450HLT,450,H,,LT,,"Track Type Tractor, Dozer - 20.0 to 75.0 Horsepower",Washington,TTT,Track Type Tractors,,OROPS,,,,,Standard,,,,,,2 Valve,,Multi Shank,,,,,,,,,,,,,,None or Unspecified,PAT,None or Unspecified,,
1861,4322859,25000,2280868,172,1.0,2000,,,7/29/2010 0:00,450HLT,450,H,,LT,,"Track Type Tractor, Dozer - 20.0 to 75.0 Horsepower",Washington,TTT,Track Type Tractors,,OROPS,,,,,Standard,,,,,,2 Valve,,Multi Shank,,,,,,,,,,,,,,None or Unspecified,PAT,None or Unspecified,,
1861,4322876,24000,1859595,172,1.0,2000,4056.0,Medium,12/10/2009 0:00,450HLT,450,H,,LT,,"Track Type Tractor, Dozer - 20.0 to 75.0 Horsepower",Washington,TTT,Track Type Tractors,,OROPS,,,,,Standard,,,,,,2 Valve,,Multi Shank,,,,,,,,,,,,,,None or Unspecified,PAT,None or Unspecified,,
1861,4322892,25000,2267833,172,1.0,2001,1520.0,Low,10/5/2011 0:00,450HLT,450,H,,LT,,"Track Type Tractor, Dozer - 20.0 to 75.0 Horsepower",Connecticut,TTT,Track Type Tractors,,EROPS w AC,,,,,Standard,,,,,,2 Valve,,Multi Shank,,,,,,,,,,,,,,None or Unspecified,PAT,None or Unspecified,,
1861,4322900,26000,2282617,172,1.0,2001,2637.0,Low,8/26/2009 0:00,450HLT,450,H,,LT,,"Track Type Tractor, Dozer - 20.0 to 75.0 Horsepower",Texas,TTT,Track Type Tractors,,EROPS w AC,,,,,Standard,,,,,,2 Valve,,None or Unspecified,,,,,,,,,,,,,,None or Unspecified,PAT,None or Unspecified,,
1861,4322913,23000,2295593,172,1.0,2002,2378.0,Low,3/4/2010 0:00,450HLT,450,H,,LT,,"Track Type Tractor, Dozer - 20.0 to 75.0 Horsepower",Washington,TTT,Track Type Tractors,,OROPS,,,,,Standard,,,,,,2 Valve,,None or Unspecified,,,,,,,,,,,,,,None or Unspecified,PAT,None or Unspecified,,
1861,4322919,21000,2303370,172,1.0,2002,,,9/27/2011 0:00,450HLT,450,H,,LT,,"Track Type Tractor, Dozer - 20.0 to 75.0 Horsepower",North Carolina,TTT,Track Type Tractors,,EROPS,,,,,Standard,,,,,,2 Valve,,None or Unspecified,,,,,,,,,,,,,,None or Unspecified,PAT,Differential Steer,,
1861,4323006,22000,2299135,172,1.0,2004,633.0,Low,8/24/2011 0:00,450HLT,450,H,,LT,,"Track Type Tractor, Dozer - 20.0 to 75.0 Horsepower",Maryland,TTT,Track Type Tractors,,EROPS w AC,,,,,Standard,,,,,,2 Valve,,Multi Shank,,,,,,,,,,,,,,None or Unspecified,PAT,None or Unspecified,,
1861,4325974,22000,2292351,172,1.0,1999,4331.0,Medium,7/31/2009 0:00,450HLT,450,H,,LT,,"Track Type Tractor, Dozer - 20.0 to 75.0 Horsepower",Washington,TTT,Track Type Tractors,,OROPS,,,,,Standard,,,,,,2 Valve,,Multi Shank,,,,,,,,,,,,,,None or Unspecified,PAT,None or Unspecified,,
1861,6283212,18000,1186501,149,1.0,2000,,,8/24/2011 0:00,450HLT,450,H,,LT,,"Track Type Tractor, Dozer - 20.0 to 75.0 Horsepower",Texas,TTT,Track Type Tractors,,OROPS,,,,,Standard,,,,,,2 Valve,,None or Unspecified,,,,,,,,,,,,,,None or Unspecified,PAT,None or Unspecified,,
1861,6283225,18000,1380669,149,1.0,2001,,,8/24/2011 0:00,450HLT,450,H,,LT,,"Track Type Tractor, Dozer - 20.0 to 75.0 Horsepower",Texas,TTT,Track Type Tractors,,OROPS,,,,,Standard,,,,,,2 Valve,,None or Unspecified,,,,,,,,,,,,,,None or Unspecified,PAT,None or Unspecified,,
1861,6283233,26500,1511101,149,13.0,2002,,,9/17/2011 0:00,450HLT,450,H,,LT,,"Track Type Tractor, Dozer - 20.0 to 75.0 Horsepower",Tennessee,TTT,Track Type Tractors,,OROPS,,,,,Standard,,,,,,2 Valve,,None or Unspecified,,,,,,,,,,,,,,None or Unspecified,PAT,None or Unspecified,,
1861,6283327,19000,1536189,149,1.0,2005,,,8/24/2011 0:00,450HLT,450,H,,LT,,"Track Type Tractor, Dozer - 20.0 to 75.0 Horsepower",Texas,TTT,Track Type Tractors,,OROPS,,,,,Hydrostatic,,,,,,2 Valve,,None or Unspecified,,,,,,,,,,,,,,None or Unspecified,PAT,Differential Steer,,
1861,6287275,16500,1937742,149,1.0,1999,,,12/20/2011 0:00,450HLT,450,H,,LT,,"Track Type Tractor, Dozer - 20.0 to 75.0 Horsepower",Tennessee,TTT,Track Type Tractors,,OROPS,,,,,Standard,,,,,,2 Valve,,None or Unspecified,,,,,,,,,,,,,,None or Unspecified,PAT,None or Unspecified,,
1861,6287284,25000,1798773,149,1.0,2001,,,10/6/2011 0:00,450HLT,450,H,,LT,,"Track Type Tractor, Dozer - 20.0 to 75.0 Horsepower",Connecticut,TTT,Track Type Tractors,,OROPS,,,,,Standard,,,,,,2 Valve,,None or Unspecified,,,,,,,,,,,,,,None or Unspecified,PAT,None or Unspecified,,
1861,6287295,21000,1822036,149,1.0,2002,,,9/28/2011 0:00,450HLT,450,H,,LT,,"Track Type Tractor, Dozer - 20.0 to 75.0 Horsepower",North Carolina,TTT,Track Type Tractors,,OROPS,,,,,Standard,,,,,,2 Valve,,None or Unspecified,,,,,,,,,,,,,,None or Unspecified,None or Unspecified,None or Unspecified,,
1861,6287314,22000,1887456,149,1.0,2004,,,8/25/2011 0:00,450HLT,450,H,,LT,,"Track Type Tractor, Dozer - 20.0 to 75.0 Horsepower",Maryland,TTT,Track Type Tractors,,OROPS,,,,,Standard,,,,,,2 Valve,,None or Unspecified,,,,,,,,,,,,,,None or Unspecified,PAT,None or Unspecified,,
1861,6288261,17000,1830609,149,1.0,1999,,,12/20/2011 0:00,450HLT,450,H,,LT,,"Track Type Tractor, Dozer - 20.0 to 75.0 Horsepower",Tennessee,TTT,Track Type Tractors,,OROPS,,,,,Standard,,,,,,2 Valve,,None or Unspecified,,,,,,,,,,,,,,None or Unspecified,PAT,None or Unspecified,,
1861,6288263,23000,1941652,149,99.0,2003,,,8/4/2011 0:00,450HLT,450,H,,LT,,"Track Type Tractor, Dozer - 20.0 to 75.0 Horsepower",Texas,TTT,Track Type Tractors,,OROPS,,,,,Standard,,,,,,2 Valve,,None or Unspecified,,,,,,,,,,,,,,None or Unspecified,PAT,None or Unspecified,,
