ModelID,SalesID,SalePrice,MachineID,datasource,auctioneerID,YearMade,MachineHoursCurrentMeter,UsageBand,saledate,fiModelDesc,fiBaseModel,fiSecondaryDesc,fiModelSeries,fiModelDescriptor,ProductSize,fiProductClassDesc,state,ProductGroup,ProductGroupDesc,Drive_System,Enclosure,Forks,Pad_Type,Ride_Control,Stick,Transmission,Turbocharged,Blade_Extension,Blade_Width,Enclosure_Type,Engine_Horsepower,Hydraulics,Pushblock,Ripper,Scarifier,Tip_Control,Tire_Size,Coupler,Coupler_System,Grouser_Tracks,Hydraulics_Flow,Track_Type,Undercarriage_Pad_Width,Stick_Length,Thumb,Pattern_Changer,Grouser_Type,Backhoe_Mounting,Blade_Type,Travel_Controls,Differential_Type,Steering_Controls
18668,1148592,5000,1064637,121,3.0,1999,4916.0,High,8/28/2009 0:00,SL4635,SL4635,,,,,Skid Steer Loader - 1351.0 to 1601.0 Lb Operating Capacity,Illinois,SSL,Skid Steer Loaders,,OROPS,None or Unspecified,,,,,,,,,,Auxiliary,,,,,,Manual,Yes,None or Unspecified,Standard,,,,,,,,,,,
18668,1150496,8000,1012573,121,3.0,2001,504.0,Low,11/17/2005 0:00,SL4635,SL4635,,,,,Skid Steer Loader - 1351.0 to 1601.0 Lb Operating Capacity,Illinois,SSL,Skid Steer Loaders,,OROPS,None or Unspecified,,,,,,,,,,Auxiliary,,,,,,None or Unspecified,None or Unspecified,None or Unspecified,Standard,,,,,,,,,,,
18668,1165501,11000,1006877,121,3.0,2000,375.0,Low,11/17/2005 0:00,SL4635,SL4635,,,,,Skid Steer Loader - 1351.0 to 1601.0 Lb Operating Capacity,Illinois,SSL,Skid Steer Loaders,,EROPS,None or Unspecified,,,,,,,,,,Auxiliary,,,,,,None or Unspecified,None or Unspecified,None or Unspecified,Standard,,,,,,,,,,,
18668,1852268,10500,1140956,132,1.0,1999,,,3/13/2003 0:00,SL4635,SL4635,,,,,Skid Steer Loader - 1351.0 to 1601.0 Lb Operating Capacity,Illinois,SSL,Skid Steer Loaders,,OROPS,Yes,,,,,,,,,,Standard,,,,,,Manual,None or Unspecified,None or Unspecified,Standard,,,,,,,,,,,
18668,1853120,14500,1262957,132,1.0,1998,,,9/29/1999 0:00,SL4635,SL4635,,,,,Skid Steer Loader - 1351.0 to 1601.0 Lb Operating Capacity,Washington,SSL,Skid Steer Loaders,,OROPS,None or Unspecified,,,,,,,,,,Standard,,,,,,None or Unspecified,None or Unspecified,None or Unspecified,Standard,,,,,,,,,,,
18668,1853121,7500,1133780,132,4.0,1998,,,2/11/2002 0:00,SL4635,SL4635,,,,,Skid Steer Loader - 1351.0 to 1601.0 Lb Operating Capacity,Florida,SSL,Skid Steer Loaders,,OROPS,None or Unspecified,,,,,,,,,,Standard,,,,,,None or Unspecified,None or Unspecified,None or Unspecified,Standard,,,,,,,,,,,
18668,1853122,11000,1244532,132,4.0,1998,,,2/11/2002 0:00,SL4635,SL4635,,,,,Skid Steer Loader - 1351.0 to 1601.0 Lb Operating Capacity,Florida,SSL,Skid Steer Loaders,,OROPS,None or Unspecified,,,,,,,,,,Standard,,,,,,None or Unspecified,None or Unspecified,None or Unspecified,Standard,,,,,,,,,,,
18668,1853125,14500,1422347,132,1.0,1998,,,9/29/1999 0:00,SL4635,SL4635,,,,,Skid Steer Loader - 1351.0 to 1601.0 Lb Operating Capacity,Washington,SSL,Skid Steer Loaders,,OROPS,None or Unspecified,,,,,,,,,,Standard,,,,,,None or Unspecified,None or Unspecified,None or Unspecified,Standard,,,,,,,,,,,
18668,1853126,14500,1486067,132,1.0,1998,,,9/29/1999 0:00,SL4635,SL4635,,,,,Skid Steer Loader - 1351.0 to 1601.0 Lb Operating Capacity,Washington,SSL,Skid Steer Loaders,,OROPS,None or Unspecified,,,,,,,,,,Standard,,,,,,None or Unspecified,None or Unspecified,None or Unspecified,Standard,,,,,,,,,,,
18668,1853127,9500,1357356,132,2.0,1999,,,10/20/2001 0:00,SL4635,SL4635,,,,,Skid Steer Loader - 1351.0 to 1601.0 Lb Operating Capacity,Pennsylvania,SSL,Skid Steer Loaders,,OROPS,None or Unspecified,,,,,,,,,,Standard,,,,,,None or Unspecified,None or Unspecified,None or Unspecified,Standard,,,,,,,,,,,
18668,1853129,7000,1345654,132,1.0,1999,,,8/21/2003 0:00,SL4635,SL4635,,,,,Skid Steer Loader - 1351.0 to 1601.0 Lb Operating Capacity,New Mexico,SSL,Skid Steer Loaders,,OROPS,None or Unspecified,,,,,,,,,,Standard,,,,,,None or Unspecified,None or Unspecified,None or Unspecified,Standard,,,,,,,,,,,
18668,1853131,8000,1545677,132,1.0,1999,,,3/11/2008 0:00,SL4635,SL4635,,,,,Skid Steer Loader - 1351.0 to 1601.0 Lb Operating Capacity,Colorado,SSL,Skid Steer Loaders,,OROPS,None or Unspecified,,,,,,,,,,Standard,,,,,,None or Unspecified,None or Unspecified,None or Unspecified,Standard,,,,,,,,,,,
18668,1853132,8500,1449287,132,2.0,1999,,,12/8/2001 0:00,SL4635,SL4635,,,,,Skid Steer Loader - 1351.0 to 1601.0 Lb Operating Capacity,Tennessee,SSL,Skid Steer Loaders,,OROPS,None or Unspecified,,,,,,,,,,Standard,,,,,,None or Unspecified,None or Unspecified,None or Unspecified,Standard,,,,,,,,,,,
18668,1853133,9000,1478460,132,2.0,1000,,,3/30/2000 0:00,SL4635,SL4635,,,,,Skid Steer Loader - 1351.0 to 1601.0 Lb Operating Capacity,New Jersey,SSL,Skid Steer Loaders,,OROPS,Yes,,,,,,,,,,Standard,,,,,,None or Unspecified,None or Unspecified,None or Unspecified,Standard,,,,,,,,,,,
18668,1853134,6250,1222886,132,1.0,1999,,,12/5/2005 0:00,SL4635,SL4635,,,,,Skid Steer Loader - 1351.0 to 1601.0 Lb Operating Capacity,Missouri,SSL,Skid Steer Loaders,,OROPS,None or Unspecified,,,,,,,,,,Standard,,,,,,None or Unspecified,None or Unspecified,None or Unspecified,Standard,,,,,,,,,,,
18668,1853135,8000,1222886,132,1.0,1999,,,2/24/2006 0:00,SL4635,SL4635,,,,,Skid Steer Loader - 1351.0 to 1601.0 Lb Operating Capacity,Florida,SSL,Skid Steer Loaders,,OROPS,None or Unspecified,,,,,,,,,,Standard,,,,,,None or Unspecified,None or Unspecified,None or Unspecified,Standard,,,,,,,,,,,
18668,1853136,10000,1161316,132,1.0,1999,,,12/5/2005 0:00,SL4635,SL4635,,,,,Skid Steer Loader - 1351.0 to 1601.0 Lb Operating Capacity,Missouri,SSL,Skid Steer Loaders,,OROPS,None or Unspecified,,,,,,,,,,Standard,,,,,,None or Unspecified,None or Unspecified,None or Unspecified,Standard,,,,,,,,,,,
18668,1853137,6500,1474461,132,1.0,1000,,,9/28/2004 0:00,SL4635,SL4635,,,,,Skid Steer Loader - 1351.0 to 1601.0 Lb Operating Capacity,Illinois,SSL,Skid Steer Loaders,,OROPS,None or Unspecified,,,,,,,,,,Standard,,,,,,None or Unspecified,None or Unspecified,None or Unspecified,Standard,,,,,,,,,,,
18668,1853138,9000,1124122,132,1.0,1999,,,11/14/2002 0:00,SL4635,SL4635,,,,,Skid Steer Loader - 1351.0 to 1601.0 Lb Operating Capacity,Georgia,SSL,Skid Steer Loaders,,OROPS,None or Unspecified,,,,,,,,,,Standard,,,,,,None or Unspecified,None or Unspecified,None or Unspecified,Standard,,,,,,,,,,,
18668,1853139,9000,1474402,132,1.0,1999,,,2/24/2006 0:00,SL4635,SL4635,,,,,Skid Steer Loader - 1351.0 to 1601.0 Lb Operating Capacity,Florida,SSL,Skid Steer Loaders,,OROPS,None or Unspecified,,,,,,,,,,Standard,,,,,,None or Unspecified,None or Unspecified,None or Unspecified,Standard,,,,,,,,,,,
18668,1853140,9000,1266523,132,1.0,1999,,,11/14/2002 0:00,SL4635,SL4635,,,,,Skid Steer Loader - 1351.0 to 1601.0 Lb Operating Capacity,Georgia,SSL,Skid Steer Loaders,,EROPS,None or Unspecified,,,,,,,,,,Standard,,,,,,None or Unspecified,None or Unspecified,None or Unspecified,Standard,,,,,,,,,,,
18668,1853142,11000,1301621,132,1.0,1999,,,12/5/2000 0:00,SL4635,SL4635,,,,,Skid Steer Loader - 1351.0 to 1601.0 Lb Operating Capacity,Illinois,SSL,Skid Steer Loaders,,OROPS,None or Unspecified,,,,,,,,,,Standard,,,,,,None or Unspecified,None or Unspecified,None or Unspecified,Standard,,,,,,,,,,,
18668,1853143,8250,1140278,132,2.0,1999,,,9/15/2004 0:00,SL4635,SL4635,,,,,Skid Steer Loader - 1351.0 to 1601.0 Lb Operating Capacity,Texas,SSL,Skid Steer Loaders,,OROPS,None or Unspecified,,,,,,,,,,Standard,,,,,,None or Unspecified,None or Unspecified,None or Unspecified,Standard,,,,,,,,,,,
18668,1853145,8750,1074739,132,2.0,1999,,,9/15/2004 0:00,SL4635,SL4635,,,,,Skid Steer Loader - 1351.0 to 1601.0 Lb Operating Capacity,Texas,SSL,Skid Steer Loaders,,OROPS,None or Unspecified,,,,,,,,,,Standard,,,,,,None or Unspecified,None or Unspecified,None or Unspecified,Standard,,,,,,,,,,,
18668,1853146,5000,1064637,132,3.0,1999,,,9/3/2009 0:00,SL4635,SL4635,,,,,Skid Steer Loader - 1351.0 to 1601.0 Lb Operating Capacity,California,SSL,Skid Steer Loaders,,OROPS,None or Unspecified,,,,,,,,,,Auxiliary,,,,,,Manual,Yes,None or Unspecified,Standard,,,,,,,,,,,
18668,1853147,8500,1312931,132,2.0,2000,,,6/21/2003 0:00,SL4635,SL4635,,,,,Skid Steer Loader - 1351.0 to 1601.0 Lb Operating Capacity,Ohio,SSL,Skid Steer Loaders,,OROPS,None or Unspecified,,,,,,,,,,Standard,,,,,,None or Unspecified,None or Unspecified,None or Unspecified,Standard,,,,,,,,,,,
18668,1853149,10500,1321860,132,2.0,2000,,,3/20/2004 0:00,SL4635,SL4635,,,,,Skid Steer Loader - 1351.0 to 1601.0 Lb Operating Capacity,Pennsylvania,SSL,Skid Steer Loaders,,OROPS,None or Unspecified,,,,,,,,,,Standard,,,,,,None or Unspecified,None or Unspecified,None or Unspecified,Standard,,,,,,,,,,,
18668,1853152,7500,1109907,132,1.0,1999,,,12/3/2002 0:00,SL4635,SL4635,,,,,Skid Steer Loader - 1351.0 to 1601.0 Lb Operating Capacity,Colorado,SSL,Skid Steer Loaders,,OROPS,None or Unspecified,,,,,,,,,,Standard,,,,,,None or Unspecified,None or Unspecified,None or Unspecified,Standard,,,,,,,,,,,
18668,1853158,8000,1556884,132,1.0,2000,,,9/24/2004 0:00,SL4635,SL4635,,,,,Skid Steer Loader - 1351.0 to 1601.0 Lb Operating Capacity,California,SSL,Skid Steer Loaders,,OROPS,None or Unspecified,,,,,,,,,,Standard,,,,,,None or Unspecified,None or Unspecified,None or Unspecified,Standard,,,,,,,,,,,
18668,1853159,8000,1190113,132,1.0,2000,,,9/24/2004 0:00,SL4635,SL4635,,,,,Skid Steer Loader - 1351.0 to 1601.0 Lb Operating Capacity,California,SSL,Skid Steer Loaders,,OROPS,None or Unspecified,,,,,,,,,,Standard,,,,,,None or Unspecified,None or Unspecified,None or Unspecified,Standard,,,,,,,,,,,
18668,1853160,9500,1477104,132,1.0,2000,,,12/3/2002 0:00,SL4635,SL4635,,,,,Skid Steer Loader - 1351.0 to 1601.0 Lb Operating Capacity,Colorado,SSL,Skid Steer Loaders,,OROPS,None or Unspecified,,,,,,,,,,Standard,,,,,,None or Unspecified,None or Unspecified,None or Unspecified,Standard,,,,,,,,,,,
18668,1853165,7000,1466328,132,1.0,2001,,,9/24/2004 0:00,SL4635,SL4635,,,,,Skid Steer Loader - 1351.0 to 1601.0 Lb Operating Capacity,California,SSL,Skid Steer Loaders,,OROPS,None or Unspecified,,,,,,,,,,Standard,,,,,,None or Unspecified,None or Unspecified,None or Unspecified,Standard,,,,,,,,,,,
18668,1853167,11500,1206729,132,1.0,2001,,,10/1/2002 0:00,SL4635,SL4635,,,,,Skid Steer Loader - 1351.0 to 1601.0 Lb Operating Capacity,North Carolina,SSL,Skid Steer Loaders,,OROPS,None or Unspecified,,,,,,,,,,Standard,,,,,,None or Unspecified,None or Unspecified,None or Unspecified,Standard,,,,,,,,,,,
18668,1853169,10000,1084056,132,1.0,2000,,,6/12/2003 0:00,SL4635,SL4635,,,,,Skid Steer Loader - 1351.0 to 1601.0 Lb Operating Capacity,Texas,SSL,Skid Steer Loaders,,OROPS,None or Unspecified,,,,,,,,,,Standard,,,,,,None or Unspecified,None or Unspecified,None or Unspecified,Standard,,,,,,,,,,,
18668,1853170,11500,1351081,132,1.0,2001,,,12/5/2001 0:00,SL4635,SL4635,,,,,Skid Steer Loader - 1351.0 to 1601.0 Lb Operating Capacity,Illinois,SSL,Skid Steer Loaders,,OROPS,None or Unspecified,,,,,,,,,,Standard,,,,,,None or Unspecified,None or Unspecified,None or Unspecified,Standard,,,,,,,,,,,
18668,1853171,9500,1149628,132,1.0,2001,,,12/7/2004 0:00,SL4635,SL4635,,,,,Skid Steer Loader - 1351.0 to 1601.0 Lb Operating Capacity,Colorado,SSL,Skid Steer Loaders,,OROPS,None or Unspecified,,,,,,,,,,Standard,,,,,,None or Unspecified,None or Unspecified,None or Unspecified,Standard,,,,,,,,,,,
18668,1853176,10000,1532786,132,1.0,2002,,,9/24/2004 0:00,SL4635,SL4635,,,,,Skid Steer Loader - 1351.0 to 1601.0 Lb Operating Capacity,California,SSL,Skid Steer Loaders,,OROPS,None or Unspecified,,,,,,,,,,Auxiliary,,,,,,None or Unspecified,None or Unspecified,None or Unspecified,Standard,,,,,,,,,,,
18668,1853178,9500,1462919,132,1.0,2002,,,3/23/2006 0:00,SL4635,SL4635,,,,,Skid Steer Loader - 1351.0 to 1601.0 Lb Operating Capacity,Tennessee,SSL,Skid Steer Loaders,,OROPS,None or Unspecified,,,,,,,,,,Standard,,,,,,None or Unspecified,None or Unspecified,None or Unspecified,Standard,,,,,,,,,,,
18668,1853184,11000,1308956,132,1.0,2003,,,6/20/2006 0:00,SL4635,SL4635,,,,,Skid Steer Loader - 1351.0 to 1601.0 Lb Operating Capacity,Washington,SSL,Skid Steer Loaders,,OROPS,None or Unspecified,,,,,,,,,,Standard,,,,,,None or Unspecified,None or Unspecified,None or Unspecified,Standard,,,,,,,,,,,
