ModelID,SalesID,SalePrice,MachineID,datasource,auctioneerID,YearMade,MachineHoursCurrentMeter,UsageBand,saledate,fiModelDesc,fiBaseModel,fiSecondaryDesc,fiModelSeries,fiModelDescriptor,ProductSize,fiProductClassDesc,state,ProductGroup,ProductGroupDesc,Drive_System,Enclosure,Forks,Pad_Type,Ride_Control,Stick,Transmission,Turbocharged,Blade_Extension,Blade_Width,Enclosure_Type,Engine_Horsepower,Hydraulics,Pushblock,Ripper,Scarifier,Tip_Control,Tire_Size,Coupler,Coupler_System,Grouser_Tracks,Hydraulics_Flow,Track_Type,Undercarriage_Pad_Width,Stick_Length,Thumb,Pattern_Changer,Grouser_Type,Backhoe_Mounting,Blade_Type,Travel_Controls,Differential_Type,Steering_Controls
18673,1852220,6000,1267369,132,1.0,1995,,,12/18/2000 0:00,SL5625,SL5625,,,,,Skid Steer Loader - 1601.0 to 1751.0 Lb Operating Capacity,Maryland,SSL,Skid Steer Loaders,,OROPS,None or Unspecified,,,,,,,,,,Standard,,,,,,None or Unspecified,None or Unspecified,None or Unspecified,Standard,,,,,,,,,,,
18673,1852222,9000,1400105,132,1.0,1995,,,10/24/1997 0:00,SL5625,SL5625,,,,,Skid Steer Loader - 1601.0 to 1751.0 Lb Operating Capacity,Maryland,SSL,Skid Steer Loaders,,OROPS,None or Unspecified,,,,,,,,,,Standard,,,,,,None or Unspecified,None or Unspecified,None or Unspecified,Standard,,,,,,,,,,,
18673,1852226,9000,1077162,132,1.0,1995,,,10/24/1997 0:00,SL5625,SL5625,,,,,Skid Steer Loader - 1601.0 to 1751.0 Lb Operating Capacity,Maryland,SSL,Skid Steer Loaders,,OROPS,None or Unspecified,,,,,,,,,,Standard,,,,,,None or Unspecified,None or Unspecified,None or Unspecified,Standard,,,,,,,,,,,
18673,1852227,8750,1239517,132,18.0,1995,,,4/13/2000 0:00,SL5625,SL5625,,,,,Skid Steer Loader - 1601.0 to 1751.0 Lb Operating Capacity,Pennsylvania,SSL,Skid Steer Loaders,,OROPS,None or Unspecified,,,,,,,,,,Standard,,,,,,None or Unspecified,None or Unspecified,None or Unspecified,Standard,,,,,,,,,,,
18673,1852230,6250,1188948,132,4.0,1995,,,2/12/2007 0:00,SL5625,SL5625,,,,,Skid Steer Loader - 1601.0 to 1751.0 Lb Operating Capacity,Florida,SSL,Skid Steer Loaders,,OROPS,None or Unspecified,,,,,,,,,,Standard,,,,,,None or Unspecified,None or Unspecified,None or Unspecified,Standard,,,,,,,,,,,
18673,1852231,6250,1188948,132,4.0,1995,,,2/13/2007 0:00,SL5625,SL5625,,,,,Skid Steer Loader - 1601.0 to 1751.0 Lb Operating Capacity,Florida,SSL,Skid Steer Loaders,,OROPS,None or Unspecified,,,,,,,,,,Standard,,,,,,None or Unspecified,None or Unspecified,None or Unspecified,Standard,,,,,,,,,,,
18673,1852232,6100,1268148,132,9.0,1995,,,2/18/2002 0:00,SL5625,SL5625,,,,,Skid Steer Loader - 1601.0 to 1751.0 Lb Operating Capacity,Florida,SSL,Skid Steer Loaders,,OROPS,None or Unspecified,,,,,,,,,,Standard,,,,,,None or Unspecified,None or Unspecified,None or Unspecified,Standard,,,,,,,,,,,
18673,1852237,10500,1119448,132,2.0,1995,,,3/31/2005 0:00,SL5625,SL5625,,,,,Skid Steer Loader - 1601.0 to 1751.0 Lb Operating Capacity,New Jersey,SSL,Skid Steer Loaders,,OROPS,None or Unspecified,,,,,,,,,,Standard,,,,,,None or Unspecified,None or Unspecified,None or Unspecified,Standard,,,,,,,,,,,
18673,1852238,5000,1119448,132,1.0,1995,,,6/20/2007 0:00,SL5625,SL5625,,,,,Skid Steer Loader - 1601.0 to 1751.0 Lb Operating Capacity,Maryland,SSL,Skid Steer Loaders,,OROPS,None or Unspecified,,,,,,,,,,Standard,,,,,,None or Unspecified,None or Unspecified,None or Unspecified,Standard,,,,,,,,,,,
18673,1852242,6250,1365203,132,2.0,1996,,,5/18/2002 0:00,SL5625,SL5625,,,,,Skid Steer Loader - 1601.0 to 1751.0 Lb Operating Capacity,Pennsylvania,SSL,Skid Steer Loaders,,OROPS,None or Unspecified,,,,,,,,,,Standard,,,,,,None or Unspecified,None or Unspecified,None or Unspecified,Standard,,,,,,,,,,,
18673,1852243,10000,1526382,132,15.0,1995,,,5/9/2001 0:00,SL5625,SL5625,,,,,Skid Steer Loader - 1601.0 to 1751.0 Lb Operating Capacity,New Jersey,SSL,Skid Steer Loaders,,OROPS,None or Unspecified,,,,,,,,,,Standard,,,,,,None or Unspecified,None or Unspecified,None or Unspecified,Standard,,,,,,,,,,,
18673,1852244,6500,1258584,132,1.0,1995,,,6/6/2007 0:00,SL5625,SL5625,,,,,Skid Steer Loader - 1601.0 to 1751.0 Lb Operating Capacity,Illinois,SSL,Skid Steer Loaders,,OROPS,None or Unspecified,,,,,,,,,,Standard,,,,,,None or Unspecified,None or Unspecified,None or Unspecified,Standard,,,,,,,,,,,
18673,1852246,12500,1106822,132,1.0,1995,,,3/3/1998 0:00,SL5625,SL5625,,,,,Skid Steer Loader - 1601.0 to 1751.0 Lb Operating Capacity,Wisconsin,SSL,Skid Steer Loaders,,OROPS,None or Unspecified,,,,,,,,,,Standard,,,,,,None or Unspecified,None or Unspecified,None or Unspecified,Standard,,,,,,,,,,,
18673,1852248,8000,1109099,132,16.0,1995,,,9/30/1999 0:00,SL5625,SL5625,,,,,Skid Steer Loader - 1601.0 to 1751.0 Lb Operating Capacity,Ohio,SSL,Skid Steer Loaders,,OROPS,None or Unspecified,,,,,,,,,,Standard,,,,,,None or Unspecified,None or Unspecified,None or Unspecified,Standard,,,,,,,,,,,
18673,1852250,15000,1143888,132,1.0,1995,,,12/4/1997 0:00,SL5625,SL5625,,,,,Skid Steer Loader - 1601.0 to 1751.0 Lb Operating Capacity,Texas,SSL,Skid Steer Loaders,,OROPS,None or Unspecified,,,,,,,,,,Standard,,,,,,None or Unspecified,None or Unspecified,None or Unspecified,Standard,,,,,,,,,,,
18673,1852261,6000,1116380,132,1.0,1000,,,4/2/2008 0:00,SL5625,SL5625,,,,,Skid Steer Loader - 1601.0 to 1751.0 Lb Operating Capacity,Maryland,SSL,Skid Steer Loaders,,OROPS,None or Unspecified,,,,,,,,,,Standard,,,,,,None or Unspecified,None or Unspecified,None or Unspecified,Standard,,,,,,,,,,,
18673,1852262,16500,1116380,132,1.0,1995,,,3/7/1997 0:00,SL5625,SL5625,,,,,Skid Steer Loader - 1601.0 to 1751.0 Lb Operating Capacity,Illinois,SSL,Skid Steer Loaders,,OROPS,None or Unspecified,,,,,,,,,,Standard,,,,,,None or Unspecified,None or Unspecified,None or Unspecified,Standard,,,,,,,,,,,
18673,1852263,9500,1245010,132,1.0,1995,,,3/3/1998 0:00,SL5625,SL5625,,,,,Skid Steer Loader - 1601.0 to 1751.0 Lb Operating Capacity,Wisconsin,SSL,Skid Steer Loaders,,OROPS,None or Unspecified,,,,,,,,,,Standard,,,,,,None or Unspecified,None or Unspecified,None or Unspecified,Standard,,,,,,,,,,,
18673,1852264,11250,1245010,132,22.0,1000,,,3/20/1999 0:00,SL5625,SL5625,,,,,Skid Steer Loader - 1601.0 to 1751.0 Lb Operating Capacity,Minnesota,SSL,Skid Steer Loaders,,OROPS,None or Unspecified,,,,,,,,,,Standard,,,,,,None or Unspecified,None or Unspecified,None or Unspecified,Standard,,,,,,,,,,,
18673,1852269,7500,1083801,132,1.0,1995,,,5/8/2003 0:00,SL5625,SL5625,,,,,Skid Steer Loader - 1601.0 to 1751.0 Lb Operating Capacity,Texas,SSL,Skid Steer Loaders,,OROPS,None or Unspecified,,,,,,,,,,Standard,,,,,,None or Unspecified,None or Unspecified,None or Unspecified,Standard,,,,,,,,,,,
18673,1852271,16500,1265134,132,1.0,1995,,,3/7/1997 0:00,SL5625,SL5625,,,,,Skid Steer Loader - 1601.0 to 1751.0 Lb Operating Capacity,Illinois,SSL,Skid Steer Loaders,,OROPS,None or Unspecified,,,,,,,,,,Standard,,,,,,None or Unspecified,None or Unspecified,None or Unspecified,Standard,,,,,,,,,,,
18673,1852275,12750,1468192,132,6.0,1995,850.0,Medium,12/15/1997 0:00,SL5625,SL5625,,,,,Skid Steer Loader - 1601.0 to 1751.0 Lb Operating Capacity,Kentucky,SSL,Skid Steer Loaders,,OROPS,None or Unspecified,,,,,,,,,,Standard,,,,,,None or Unspecified,None or Unspecified,None or Unspecified,Standard,,,,,,,,,,,
18673,1852287,11000,1552802,132,1.0,1995,,,2/24/2000 0:00,SL5625,SL5625,,,,,Skid Steer Loader - 1601.0 to 1751.0 Lb Operating Capacity,New Mexico,SSL,Skid Steer Loaders,,OROPS,None or Unspecified,,,,,,,,,,Standard,,,,,,None or Unspecified,None or Unspecified,None or Unspecified,Standard,,,,,,,,,,,
18673,1852289,6500,1406934,132,1.0,1995,,,3/13/2003 0:00,SL5625,SL5625,,,,,Skid Steer Loader - 1601.0 to 1751.0 Lb Operating Capacity,Illinois,SSL,Skid Steer Loaders,,OROPS,None or Unspecified,,,,,,,,,,Standard,,,,,,None or Unspecified,None or Unspecified,None or Unspecified,Standard,,,,,,,,,,,
18673,1852291,11000,1527858,132,1.0,1996,,,10/24/1997 0:00,SL5625,SL5625,,,,,Skid Steer Loader - 1601.0 to 1751.0 Lb Operating Capacity,Maryland,SSL,Skid Steer Loaders,,OROPS,None or Unspecified,,,,,,,,,,Standard,,,,,,None or Unspecified,None or Unspecified,None or Unspecified,Standard,,,,,,,,,,,
18673,1852292,6000,1521268,132,1.0,1995,,,3/13/2003 0:00,SL5625,SL5625,,,,,Skid Steer Loader - 1601.0 to 1751.0 Lb Operating Capacity,Illinois,SSL,Skid Steer Loaders,,OROPS,None or Unspecified,,,,,,,,,,Standard,,,,,,None or Unspecified,None or Unspecified,None or Unspecified,Standard,,,,,,,,,,,
18673,1852294,10500,1479433,132,1.0,1998,,,9/23/2003 0:00,SL5625,SL5625,,,,,Skid Steer Loader - 1601.0 to 1751.0 Lb Operating Capacity,Washington,SSL,Skid Steer Loaders,,OROPS,None or Unspecified,,,,,,,,,,Standard,,,,,,None or Unspecified,None or Unspecified,None or Unspecified,Standard,,,,,,,,,,,
18673,1852297,10000,1438799,132,6.0,1995,,,12/15/1998 0:00,SL5625,SL5625,,,,,Skid Steer Loader - 1601.0 to 1751.0 Lb Operating Capacity,Kentucky,SSL,Skid Steer Loaders,,OROPS,None or Unspecified,,,,,,,,,,Standard,,,,,,None or Unspecified,None or Unspecified,None or Unspecified,Standard,,,,,,,,,,,
18673,1852298,11000,1423583,132,6.0,1995,,,12/15/1998 0:00,SL5625,SL5625,,,,,Skid Steer Loader - 1601.0 to 1751.0 Lb Operating Capacity,Kentucky,SSL,Skid Steer Loaders,,OROPS,None or Unspecified,,,,,,,,,,Standard,,,,,,None or Unspecified,None or Unspecified,None or Unspecified,Standard,,,,,,,,,,,
18673,1852302,11000,1394349,132,6.0,1995,,,12/15/1998 0:00,SL5625,SL5625,,,,,Skid Steer Loader - 1601.0 to 1751.0 Lb Operating Capacity,Kentucky,SSL,Skid Steer Loaders,,OROPS,None or Unspecified,,,,,,,,,,Standard,,,,,,None or Unspecified,None or Unspecified,None or Unspecified,Standard,,,,,,,,,,,
18673,1852303,12500,1101647,132,6.0,1995,400.0,Medium,12/15/1997 0:00,SL5625,SL5625,,,,,Skid Steer Loader - 1601.0 to 1751.0 Lb Operating Capacity,Kentucky,SSL,Skid Steer Loaders,,OROPS,None or Unspecified,,,,,,,,,,Standard,,,,,,None or Unspecified,None or Unspecified,None or Unspecified,Standard,,,,,,,,,,,
18673,1852304,8000,1258158,132,1.0,1994,,,3/7/2001 0:00,SL5625,SL5625,,,,,Skid Steer Loader - 1601.0 to 1751.0 Lb Operating Capacity,Missouri,SSL,Skid Steer Loaders,,OROPS,None or Unspecified,,,,,,,,,,Standard,,,,,,None or Unspecified,None or Unspecified,None or Unspecified,Standard,,,,,,,,,,,
18673,1852307,8000,1383251,132,8.0,1998,,,9/18/2002 0:00,SL5625,SL5625,,,,,Skid Steer Loader - 1601.0 to 1751.0 Lb Operating Capacity,Mississippi,SSL,Skid Steer Loaders,,OROPS,None or Unspecified,,,,,,,,,,Standard,,,,,,None or Unspecified,None or Unspecified,None or Unspecified,Standard,,,,,,,,,,,
18673,1852314,7000,1271647,132,1.0,1996,,,12/19/2001 0:00,SL5625,SL5625,,,,,Skid Steer Loader - 1601.0 to 1751.0 Lb Operating Capacity,Maryland,SSL,Skid Steer Loaders,,OROPS,None or Unspecified,,,,,,,,,,Standard,,,,,,None or Unspecified,None or Unspecified,None or Unspecified,Standard,,,,,,,,,,,
18673,1852315,13250,1372646,132,99.0,1996,,,4/5/2000 0:00,SL5625,SL5625,,,,,Skid Steer Loader - 1601.0 to 1751.0 Lb Operating Capacity,Iowa,SSL,Skid Steer Loaders,,OROPS,None or Unspecified,,,,,,,,,,Standard,,,,,,None or Unspecified,None or Unspecified,None or Unspecified,Standard,,,,,,,,,,,
18673,1852316,8000,1174215,132,1.0,1996,,,3/14/2001 0:00,SL5625,SL5625,,,,,Skid Steer Loader - 1601.0 to 1751.0 Lb Operating Capacity,Illinois,SSL,Skid Steer Loaders,,OROPS,None or Unspecified,,,,,,,,,,Standard,,,,,,None or Unspecified,None or Unspecified,None or Unspecified,Standard,,,,,,,,,,,
18673,1852324,16000,1427037,132,1.0,1996,,,3/11/1998 0:00,SL5625,SL5625,,,,,Skid Steer Loader - 1601.0 to 1751.0 Lb Operating Capacity,Texas,SSL,Skid Steer Loaders,,OROPS,None or Unspecified,,,,,,,,,,Standard,,,,,,None or Unspecified,None or Unspecified,None or Unspecified,Standard,,,,,,,,,,,
18673,1852325,9000,1394415,132,1.0,1000,,,9/29/1999 0:00,SL5625,SL5625,,,,,Skid Steer Loader - 1601.0 to 1751.0 Lb Operating Capacity,Washington,SSL,Skid Steer Loaders,,OROPS,None or Unspecified,,,,,,,,,,Standard,,,,,,None or Unspecified,None or Unspecified,None or Unspecified,Standard,,,,,,,,,,,
18673,1852326,7500,1522856,132,1.0,1996,,,12/5/2000 0:00,SL5625,SL5625,,,,,Skid Steer Loader - 1601.0 to 1751.0 Lb Operating Capacity,Illinois,SSL,Skid Steer Loaders,,OROPS,None or Unspecified,,,,,,,,,,Standard,,,,,,None or Unspecified,None or Unspecified,None or Unspecified,Standard,,,,,,,,,,,
18673,1852328,7500,842582,132,1.0,1996,,,4/4/2002 0:00,SL5625,SL5625,,,,,Skid Steer Loader - 1601.0 to 1751.0 Lb Operating Capacity,Colorado,SSL,Skid Steer Loaders,,OROPS,None or Unspecified,,,,,,,,,,Standard,,,,,,None or Unspecified,None or Unspecified,None or Unspecified,Standard,,,,,,,,,,,
18673,1852329,7500,1329575,132,99.0,1000,,,6/21/2000 0:00,SL5625,SL5625,,,,,Skid Steer Loader - 1601.0 to 1751.0 Lb Operating Capacity,North Carolina,SSL,Skid Steer Loaders,,OROPS,None or Unspecified,,,,,,,,,,Standard,,,,,,None or Unspecified,None or Unspecified,None or Unspecified,Standard,,,,,,,,,,,
18673,1852330,8000,1466514,132,4.0,1995,,,2/11/2002 0:00,SL5625,SL5625,,,,,Skid Steer Loader - 1601.0 to 1751.0 Lb Operating Capacity,Florida,SSL,Skid Steer Loaders,,OROPS,None or Unspecified,,,,,,,,,,Standard,,,,,,None or Unspecified,None or Unspecified,None or Unspecified,Standard,,,,,,,,,,,
18673,1852331,8000,1162328,132,2.0,1996,,,7/13/2002 0:00,SL5625,SL5625,,,,,Skid Steer Loader - 1601.0 to 1751.0 Lb Operating Capacity,New York,SSL,Skid Steer Loaders,,OROPS,None or Unspecified,,,,,,,,,,Standard,,,,,,None or Unspecified,None or Unspecified,None or Unspecified,Standard,,,,,,,,,,,
18673,1852332,7500,1239928,132,1.0,1996,,,6/20/2002 0:00,SL5625,SL5625,,,,,Skid Steer Loader - 1601.0 to 1751.0 Lb Operating Capacity,Illinois,SSL,Skid Steer Loaders,,OROPS,None or Unspecified,,,,,,,,,,Standard,,,,,,None or Unspecified,None or Unspecified,None or Unspecified,Standard,,,,,,,,,,,
18673,1852333,7000,1481957,132,1.0,1996,,,10/19/2000 0:00,SL5625,SL5625,,,,,Skid Steer Loader - 1601.0 to 1751.0 Lb Operating Capacity,Tennessee,SSL,Skid Steer Loaders,,OROPS,None or Unspecified,,,,,,,,,,Standard,,,,,,None or Unspecified,None or Unspecified,None or Unspecified,Standard,,,,,,,,,,,
18673,1852334,12000,1198672,132,19.0,1996,,,6/9/2005 0:00,SL5625,SL5625,,,,,Skid Steer Loader - 1601.0 to 1751.0 Lb Operating Capacity,New Mexico,SSL,Skid Steer Loaders,,OROPS,None or Unspecified,,,,,,,,,,Standard,,,,,,None or Unspecified,None or Unspecified,None or Unspecified,Standard,,,,,,,,,,,
18673,1852341,6750,1287731,132,2.0,1000,,,8/19/2000 0:00,SL5625,SL5625,,,,,Skid Steer Loader - 1601.0 to 1751.0 Lb Operating Capacity,Wisconsin,SSL,Skid Steer Loaders,,OROPS,None or Unspecified,,,,,,,,,,Standard,,,,,,None or Unspecified,None or Unspecified,None or Unspecified,Standard,,,,,,,,,,,
18673,1852344,9000,1234121,132,1.0,1000,,,3/11/2008 0:00,SL5625,SL5625,,,,,Skid Steer Loader - 1601.0 to 1751.0 Lb Operating Capacity,Colorado,SSL,Skid Steer Loaders,,OROPS,None or Unspecified,,,,,,,,,,Standard,,,,,,None or Unspecified,None or Unspecified,None or Unspecified,Standard,,,,,,,,,,,
18673,1852347,8500,1365523,132,1.0,1996,,,12/5/2000 0:00,SL5625,SL5625,,,,,Skid Steer Loader - 1601.0 to 1751.0 Lb Operating Capacity,Illinois,SSL,Skid Steer Loaders,,OROPS,None or Unspecified,,,,,,,,,,Standard,,,,,,None or Unspecified,None or Unspecified,None or Unspecified,Standard,,,,,,,,,,,
18673,1852348,6000,1332643,132,1.0,1996,,,4/6/2000 0:00,SL5625,SL5625,,,,,Skid Steer Loader - 1601.0 to 1751.0 Lb Operating Capacity,Georgia,SSL,Skid Steer Loaders,,OROPS,None or Unspecified,,,,,,,,,,Standard,,,,,,None or Unspecified,None or Unspecified,None or Unspecified,Standard,,,,,,,,,,,
18673,1852350,5500,688733,132,2.0,1996,,,10/26/2001 0:00,SL5625,SL5625,,,,,Skid Steer Loader - 1601.0 to 1751.0 Lb Operating Capacity,New York,SSL,Skid Steer Loaders,,OROPS,None or Unspecified,,,,,,,,,,Standard,,,,,,None or Unspecified,None or Unspecified,None or Unspecified,Standard,,,,,,,,,,,
18673,1852359,5500,1328687,132,17.0,1996,,,12/10/2002 0:00,SL5625,SL5625,,,,,Skid Steer Loader - 1601.0 to 1751.0 Lb Operating Capacity,Washington,SSL,Skid Steer Loaders,,OROPS,None or Unspecified,,,,,,,,,,Standard,,,,,,None or Unspecified,None or Unspecified,None or Unspecified,Standard,,,,,,,,,,,
18673,1852362,6500,1428353,132,1.0,1996,,,10/19/2000 0:00,SL5625,SL5625,,,,,Skid Steer Loader - 1601.0 to 1751.0 Lb Operating Capacity,Tennessee,SSL,Skid Steer Loaders,,OROPS,None or Unspecified,,,,,,,,,,Standard,,,,,,None or Unspecified,None or Unspecified,None or Unspecified,Standard,,,,,,,,,,,
18673,1852363,6500,1363469,132,1.0,1996,,,10/19/2000 0:00,SL5625,SL5625,,,,,Skid Steer Loader - 1601.0 to 1751.0 Lb Operating Capacity,Tennessee,SSL,Skid Steer Loaders,,OROPS,None or Unspecified,,,,,,,,,,Standard,,,,,,None or Unspecified,None or Unspecified,None or Unspecified,Standard,,,,,,,,,,,
18673,1852364,6500,1497898,132,1.0,1996,,,10/19/2000 0:00,SL5625,SL5625,,,,,Skid Steer Loader - 1601.0 to 1751.0 Lb Operating Capacity,Tennessee,SSL,Skid Steer Loaders,,OROPS,None or Unspecified,,,,,,,,,,Standard,,,,,,None or Unspecified,None or Unspecified,None or Unspecified,Standard,,,,,,,,,,,
18673,1852367,9750,1089026,132,4.0,1996,,,2/9/2004 0:00,SL5625,SL5625,,,,,Skid Steer Loader - 1601.0 to 1751.0 Lb Operating Capacity,Florida,SSL,Skid Steer Loaders,,OROPS,None or Unspecified,,,,,,,,,,Standard,,,,,,None or Unspecified,None or Unspecified,None or Unspecified,Standard,,,,,,,,,,,
18673,1852606,10250,1501381,132,5.0,1996,,,11/10/2000 0:00,SL5625,SL5625,,,,,Skid Steer Loader - 1601.0 to 1751.0 Lb Operating Capacity,New York,SSL,Skid Steer Loaders,,OROPS,None or Unspecified,,,,,,,,,,Standard,,,,,,None or Unspecified,None or Unspecified,None or Unspecified,Standard,,,,,,,,,,,
18673,1853453,5000,1149369,132,1.0,1000,,,6/20/2007 0:00,SL5625,SL5625,,,,,Skid Steer Loader - 1601.0 to 1751.0 Lb Operating Capacity,Maryland,SSL,Skid Steer Loaders,,OROPS,None or Unspecified,,,,,,,,,,Standard,,,,,,None or Unspecified,None or Unspecified,None or Unspecified,Standard,,,,,,,,,,,
18673,1853510,10500,1458850,132,6.0,1989,,,12/13/1995 0:00,SL5625,SL5625,,,,,Skid Steer Loader - 1601.0 to 1751.0 Lb Operating Capacity,Kentucky,SSL,Skid Steer Loaders,,OROPS,None or Unspecified,,,,,,,,,,Standard,,,,,,None or Unspecified,None or Unspecified,None or Unspecified,Standard,,,,,,,,,,,
18673,1853511,12500,1093889,132,6.0,1989,1750.0,Medium,12/13/1995 0:00,SL5625,SL5625,,,,,Skid Steer Loader - 1601.0 to 1751.0 Lb Operating Capacity,Kentucky,SSL,Skid Steer Loaders,,OROPS,None or Unspecified,,,,,,,,,,Standard,,,,,,None or Unspecified,None or Unspecified,None or Unspecified,Standard,,,,,,,,,,,
18673,1853512,11000,1493133,132,6.0,1989,1900.0,Medium,12/13/1995 0:00,SL5625,SL5625,,,,,Skid Steer Loader - 1601.0 to 1751.0 Lb Operating Capacity,Kentucky,SSL,Skid Steer Loaders,,OROPS,None or Unspecified,,,,,,,,,,Standard,,,,,,None or Unspecified,None or Unspecified,None or Unspecified,Standard,,,,,,,,,,,
18673,1853513,11500,1494451,132,6.0,1989,1700.0,Medium,12/13/1995 0:00,SL5625,SL5625,,,,,Skid Steer Loader - 1601.0 to 1751.0 Lb Operating Capacity,Kentucky,SSL,Skid Steer Loaders,,OROPS,None or Unspecified,,,,,,,,,,Standard,,,,,,None or Unspecified,None or Unspecified,None or Unspecified,Standard,,,,,,,,,,,
18673,1853540,8500,1272531,132,22.0,1989,,,3/16/1996 0:00,SL5625,SL5625,,,,,Skid Steer Loader - 1601.0 to 1751.0 Lb Operating Capacity,Minnesota,SSL,Skid Steer Loaders,,OROPS,None or Unspecified,,,,,,,,,,Standard,,,,,,None or Unspecified,None or Unspecified,None or Unspecified,Standard,,,,,,,,,,,
18673,1853541,4950,1546355,132,11.0,1000,,,9/1/1999 0:00,SL5625,SL5625,,,,,Skid Steer Loader - 1601.0 to 1751.0 Lb Operating Capacity,Mississippi,SSL,Skid Steer Loaders,,OROPS,None or Unspecified,,,,,,,,,,Standard,,,,,,None or Unspecified,None or Unspecified,None or Unspecified,Standard,,,,,,,,,,,
18673,1853544,7750,1299626,132,2.0,1993,,,11/21/1998 0:00,SL5625,SL5625,,,,,Skid Steer Loader - 1601.0 to 1751.0 Lb Operating Capacity,Ohio,SSL,Skid Steer Loaders,,OROPS,None or Unspecified,,,,,,,,,,Standard,,,,,,None or Unspecified,None or Unspecified,None or Unspecified,Standard,,,,,,,,,,,
18673,1853547,4750,1552712,132,1.0,1989,,,6/23/2003 0:00,SL5625,SL5625,,,,,Skid Steer Loader - 1601.0 to 1751.0 Lb Operating Capacity,Missouri,SSL,Skid Steer Loaders,,OROPS,None or Unspecified,,,,,,,,,,Standard,,,,,,None or Unspecified,None or Unspecified,None or Unspecified,Standard,,,,,,,,,,,
18673,1853550,9500,1126767,132,1.0,1990,,,6/22/1995 0:00,SL5625,SL5625,,,,,Skid Steer Loader - 1601.0 to 1751.0 Lb Operating Capacity,Colorado,SSL,Skid Steer Loaders,,OROPS,None or Unspecified,,,,,,,,,,Standard,,,,,,None or Unspecified,None or Unspecified,None or Unspecified,Standard,,,,,,,,,,,
18673,1853551,11500,1246563,132,6.0,1989,1525.0,Medium,12/13/1995 0:00,SL5625,SL5625,,,,,Skid Steer Loader - 1601.0 to 1751.0 Lb Operating Capacity,Kentucky,SSL,Skid Steer Loaders,,OROPS,None or Unspecified,,,,,,,,,,Standard,,,,,,None or Unspecified,None or Unspecified,None or Unspecified,Standard,,,,,,,,,,,
18673,1853552,11000,1469142,132,6.0,1989,2110.0,Medium,12/13/1995 0:00,SL5625,SL5625,,,,,Skid Steer Loader - 1601.0 to 1751.0 Lb Operating Capacity,Kentucky,SSL,Skid Steer Loaders,,OROPS,None or Unspecified,,,,,,,,,,Standard,,,,,,None or Unspecified,None or Unspecified,None or Unspecified,Standard,,,,,,,,,,,
18673,1853555,11000,1421783,132,6.0,1989,1920.0,Medium,12/13/1995 0:00,SL5625,SL5625,,,,,Skid Steer Loader - 1601.0 to 1751.0 Lb Operating Capacity,Kentucky,SSL,Skid Steer Loaders,,OROPS,None or Unspecified,,,,,,,,,,Standard,,,,,,None or Unspecified,None or Unspecified,None or Unspecified,Standard,,,,,,,,,,,
18673,1853559,10000,1230278,132,6.0,1989,,,12/13/1995 0:00,SL5625,SL5625,,,,,Skid Steer Loader - 1601.0 to 1751.0 Lb Operating Capacity,Kentucky,SSL,Skid Steer Loaders,,OROPS,None or Unspecified,,,,,,,,,,Standard,,,,,,None or Unspecified,None or Unspecified,None or Unspecified,Standard,,,,,,,,,,,
18673,1853561,10500,1333825,132,6.0,1989,1275.0,Medium,12/13/1995 0:00,SL5625,SL5625,,,,,Skid Steer Loader - 1601.0 to 1751.0 Lb Operating Capacity,Kentucky,SSL,Skid Steer Loaders,,OROPS,None or Unspecified,,,,,,,,,,Standard,,,,,,None or Unspecified,None or Unspecified,None or Unspecified,Standard,,,,,,,,,,,
18673,1853562,5750,1484818,132,14.0,1989,,,3/22/2002 0:00,SL5625,SL5625,,,,,Skid Steer Loader - 1601.0 to 1751.0 Lb Operating Capacity,Indiana,SSL,Skid Steer Loaders,,OROPS,None or Unspecified,,,,,,,,,,Standard,,,,,,None or Unspecified,None or Unspecified,None or Unspecified,Standard,,,,,,,,,,,
18673,1853563,6500,1165547,132,2.0,1991,,,11/15/1997 0:00,SL5625,SL5625,,,,,Skid Steer Loader - 1601.0 to 1751.0 Lb Operating Capacity,Ohio,SSL,Skid Steer Loaders,,OROPS,Yes,,,,,,,,,,Standard,,,,,,None or Unspecified,None or Unspecified,None or Unspecified,Standard,,,,,,,,,,,
18673,1853613,7500,1213770,132,4.0,1989,,,2/4/1999 0:00,SL5625,SL5625,,,,,Skid Steer Loader - 1601.0 to 1751.0 Lb Operating Capacity,Florida,SSL,Skid Steer Loaders,,OROPS,None or Unspecified,,,,,,,,,,Standard,,,,,,None or Unspecified,None or Unspecified,None or Unspecified,Standard,,,,,,,,,,,
18673,1853619,9750,1527071,132,4.0,1989,,,2/9/1995 0:00,SL5625,SL5625,,,,,Skid Steer Loader - 1601.0 to 1751.0 Lb Operating Capacity,Florida,SSL,Skid Steer Loaders,,OROPS,None or Unspecified,,,,,,,,,,Standard,,,,,,None or Unspecified,None or Unspecified,None or Unspecified,Standard,,,,,,,,,,,
18673,1853621,9750,1379915,132,99.0,1991,,,5/2/1995 0:00,SL5625,SL5625,,,,,Skid Steer Loader - 1601.0 to 1751.0 Lb Operating Capacity,North Carolina,SSL,Skid Steer Loaders,,OROPS,None or Unspecified,,,,,,,,,,Standard,,,,,,None or Unspecified,None or Unspecified,None or Unspecified,Standard,,,,,,,,,,,
18673,1853623,6000,1078222,132,1.0,1989,,,12/2/1997 0:00,SL5625,SL5625,,,,,Skid Steer Loader - 1601.0 to 1751.0 Lb Operating Capacity,Texas,SSL,Skid Steer Loaders,,OROPS,None or Unspecified,,,,,,,,,,Standard,,,,,,None or Unspecified,None or Unspecified,None or Unspecified,Standard,,,,,,,,,,,
18673,1853624,8500,1208567,132,1.0,1989,,,3/3/1998 0:00,SL5625,SL5625,,,,,Skid Steer Loader - 1601.0 to 1751.0 Lb Operating Capacity,Wisconsin,SSL,Skid Steer Loaders,,OROPS,None or Unspecified,,,,,,,,,,Standard,,,,,,None or Unspecified,None or Unspecified,None or Unspecified,Standard,,,,,,,,,,,
18673,1853641,7750,166762,132,99.0,1990,,,11/20/2004 0:00,SL5625,SL5625,,,,,Skid Steer Loader - 1601.0 to 1751.0 Lb Operating Capacity,California,SSL,Skid Steer Loaders,,OROPS,None or Unspecified,,,,,,,,,,Standard,,,,,,None or Unspecified,None or Unspecified,None or Unspecified,Standard,,,,,,,,,,,
18673,1853644,6250,1195344,132,2.0,1990,,,9/6/2003 0:00,SL5625,SL5625,,,,,Skid Steer Loader - 1601.0 to 1751.0 Lb Operating Capacity,New Hampshire,SSL,Skid Steer Loaders,,OROPS,None or Unspecified,,,,,,,,,,Standard,,,,,,None or Unspecified,None or Unspecified,None or Unspecified,Standard,,,,,,,,,,,
18673,1853645,9000,1494532,132,99.0,1990,,,5/2/1995 0:00,SL5625,SL5625,,,,,Skid Steer Loader - 1601.0 to 1751.0 Lb Operating Capacity,North Carolina,SSL,Skid Steer Loaders,,OROPS,None or Unspecified,,,,,,,,,,Standard,,,,,,None or Unspecified,None or Unspecified,None or Unspecified,Standard,,,,,,,,,,,
18673,1853656,7000,1207388,132,1.0,1990,,,4/25/1996 0:00,SL5625,SL5625,,,,,Skid Steer Loader - 1601.0 to 1751.0 Lb Operating Capacity,Indiana,SSL,Skid Steer Loaders,,OROPS,None or Unspecified,,,,,,,,,,Standard,,,,,,None or Unspecified,None or Unspecified,None or Unspecified,Standard,,,,,,,,,,,
18673,1853657,6500,1190154,132,1.0,1990,,,9/20/2005 0:00,SL5625,SL5625,,,,,Skid Steer Loader - 1601.0 to 1751.0 Lb Operating Capacity,Illinois,SSL,Skid Steer Loaders,,OROPS,None or Unspecified,,,,,,,,,,Standard,,,,,,None or Unspecified,None or Unspecified,None or Unspecified,Standard,,,,,,,,,,,
18673,1853662,9200,1233777,132,2.0,1991,,,8/10/1996 0:00,SL5625,SL5625,,,,,Skid Steer Loader - 1601.0 to 1751.0 Lb Operating Capacity,Vermont,SSL,Skid Steer Loaders,,OROPS,None or Unspecified,,,,,,,,,,Standard,,,,,,None or Unspecified,None or Unspecified,None or Unspecified,Standard,,,,,,,,,,,
18673,1853663,5000,1376557,132,1.0,1992,,,3/30/2001 0:00,SL5625,SL5625,,,,,Skid Steer Loader - 1601.0 to 1751.0 Lb Operating Capacity,California,SSL,Skid Steer Loaders,,OROPS,None or Unspecified,,,,,,,,,,Standard,,,,,,None or Unspecified,None or Unspecified,None or Unspecified,Standard,,,,,,,,,,,
18673,1853687,8000,1264902,132,1.0,1991,,,3/7/1997 0:00,SL5625,SL5625,,,,,Skid Steer Loader - 1601.0 to 1751.0 Lb Operating Capacity,Illinois,SSL,Skid Steer Loaders,,OROPS,None or Unspecified,,,,,,,,,,Standard,,,,,,None or Unspecified,None or Unspecified,None or Unspecified,Standard,,,,,,,,,,,
18673,1853697,8500,1346155,132,6.0,1991,,,9/17/1997 0:00,SL5625,SL5625,,,,,Skid Steer Loader - 1601.0 to 1751.0 Lb Operating Capacity,Illinois,SSL,Skid Steer Loaders,,OROPS,None or Unspecified,,,,,,,,,,Standard,,,,,,None or Unspecified,None or Unspecified,None or Unspecified,Standard,,,,,,,,,,,
18673,1853702,7500,1088629,132,1.0,1992,,,9/23/1997 0:00,SL5625,SL5625,,,,,Skid Steer Loader - 1601.0 to 1751.0 Lb Operating Capacity,Texas,SSL,Skid Steer Loaders,,OROPS,None or Unspecified,,,,,,,,,,Standard,,,,,,None or Unspecified,None or Unspecified,None or Unspecified,Standard,,,,,,,,,,,
18673,1853703,8750,1088629,132,2.0,1991,,,2/5/1997 0:00,SL5625,SL5625,,,,,Skid Steer Loader - 1601.0 to 1751.0 Lb Operating Capacity,Florida,SSL,Skid Steer Loaders,,OROPS,None or Unspecified,,,,,,,,,,Standard,,,,,,None or Unspecified,None or Unspecified,None or Unspecified,Standard,,,,,,,,,,,
18673,1853711,5000,1349830,132,1.0,1991,,,9/26/2002 0:00,SL5625,SL5625,,,,,Skid Steer Loader - 1601.0 to 1751.0 Lb Operating Capacity,Illinois,SSL,Skid Steer Loaders,,OROPS,None or Unspecified,,,,,,,,,,Standard,,,,,,None or Unspecified,None or Unspecified,None or Unspecified,Standard,,,,,,,,,,,
18673,1853714,10500,1281557,132,1.0,1000,,,6/30/1994 0:00,SL5625,SL5625,,,,,Skid Steer Loader - 1601.0 to 1751.0 Lb Operating Capacity,Indiana,SSL,Skid Steer Loaders,,OROPS,None or Unspecified,,,,,,,,,,Standard,,,,,,None or Unspecified,None or Unspecified,None or Unspecified,Standard,,,,,,,,,,,
18673,1853715,6000,1499406,132,1.0,1991,,,11/21/1996 0:00,SL5625,SL5625,,,,,Skid Steer Loader - 1601.0 to 1751.0 Lb Operating Capacity,Texas,SSL,Skid Steer Loaders,,OROPS,None or Unspecified,,,,,,,,,,Standard,,,,,,None or Unspecified,None or Unspecified,None or Unspecified,Standard,,,,,,,,,,,
18673,1853717,10750,1358613,132,4.0,1991,,,2/9/1995 0:00,SL5625,SL5625,,,,,Skid Steer Loader - 1601.0 to 1751.0 Lb Operating Capacity,Florida,SSL,Skid Steer Loaders,,OROPS,None or Unspecified,,,,,,,,,,Standard,,,,,,None or Unspecified,None or Unspecified,None or Unspecified,Standard,,,,,,,,,,,
18673,1853719,6000,1135124,132,99.0,1000,,,9/26/1995 0:00,SL5625,SL5625,,,,,Skid Steer Loader - 1601.0 to 1751.0 Lb Operating Capacity,North Carolina,SSL,Skid Steer Loaders,,OROPS,None or Unspecified,,,,,,,,,,Standard,,,,,,None or Unspecified,None or Unspecified,None or Unspecified,Standard,,,,,,,,,,,
18673,1853723,14000,1148835,132,15.0,1991,,,4/23/1998 0:00,SL5625,SL5625,,,,,Skid Steer Loader - 1601.0 to 1751.0 Lb Operating Capacity,Pennsylvania,SSL,Skid Steer Loaders,,OROPS,None or Unspecified,,,,,,,,,,Standard,,,,,,None or Unspecified,None or Unspecified,None or Unspecified,Standard,,,,,,,,,,,
18673,1853725,4750,1326153,132,1.0,1991,,,3/26/2002 0:00,SL5625,SL5625,,,,,Skid Steer Loader - 1601.0 to 1751.0 Lb Operating Capacity,Maryland,SSL,Skid Steer Loaders,,OROPS,None or Unspecified,,,,,,,,,,Standard,,,,,,None or Unspecified,None or Unspecified,None or Unspecified,Standard,,,,,,,,,,,
18673,1853726,8500,1466258,132,22.0,1000,,,3/18/2000 0:00,SL5625,SL5625,,,,,Skid Steer Loader - 1601.0 to 1751.0 Lb Operating Capacity,Minnesota,SSL,Skid Steer Loaders,,OROPS,None or Unspecified,,,,,,,,,,Standard,,,,,,None or Unspecified,None or Unspecified,None or Unspecified,Standard,,,,,,,,,,,
18673,1853740,7500,1385450,132,6.0,1992,1175.0,Medium,8/20/1996 0:00,SL5625,SL5625,,,,,Skid Steer Loader - 1601.0 to 1751.0 Lb Operating Capacity,Alabama,SSL,Skid Steer Loaders,,OROPS,None or Unspecified,,,,,,,,,,Standard,,,,,,None or Unspecified,None or Unspecified,None or Unspecified,Standard,,,,,,,,,,,
18673,1853746,5000,1329477,132,99.0,1992,,,6/25/2002 0:00,SL5625,SL5625,,,,,Skid Steer Loader - 1601.0 to 1751.0 Lb Operating Capacity,Missouri,SSL,Skid Steer Loaders,,OROPS,None or Unspecified,,,,,,,,,,Standard,,,,,,None or Unspecified,None or Unspecified,None or Unspecified,Standard,,,,,,,,,,,
18673,1853747,7500,1224060,132,1.0,1992,,,10/1/1996 0:00,SL5625,SL5625,,,,,Skid Steer Loader - 1601.0 to 1751.0 Lb Operating Capacity,Georgia,SSL,Skid Steer Loaders,,OROPS,None or Unspecified,,,,,,,,,,Standard,,,,,,None or Unspecified,None or Unspecified,None or Unspecified,Standard,,,,,,,,,,,
18673,1853748,9000,1166151,132,1.0,1993,,,5/27/1998 0:00,SL5625,SL5625,,,,,Skid Steer Loader - 1601.0 to 1751.0 Lb Operating Capacity,Texas,SSL,Skid Steer Loaders,,OROPS,None or Unspecified,,,,,,,,,,Standard,,,,,,None or Unspecified,None or Unspecified,None or Unspecified,Standard,,,,,,,,,,,
18673,1853771,12500,1365695,132,2.0,1000,720.0,Low,2/7/1996 0:00,SL5625,SL5625,,,,,Skid Steer Loader - 1601.0 to 1751.0 Lb Operating Capacity,Florida,SSL,Skid Steer Loaders,,OROPS,None or Unspecified,,,,,,,,,,Standard,,,,,,None or Unspecified,None or Unspecified,None or Unspecified,Standard,,,,,,,,,,,
18673,1853776,5750,1370131,132,2.0,1993,,,12/14/2002 0:00,SL5625,SL5625,,,,,Skid Steer Loader - 1601.0 to 1751.0 Lb Operating Capacity,Pennsylvania,SSL,Skid Steer Loaders,,OROPS,None or Unspecified,,,,,,,,,,Standard,,,,,,None or Unspecified,None or Unspecified,None or Unspecified,Standard,,,,,,,,,,,
18673,1853870,7500,1111375,132,5.0,1993,,,4/27/2006 0:00,SL5625,SL5625,,,,,Skid Steer Loader - 1601.0 to 1751.0 Lb Operating Capacity,Utah,SSL,Skid Steer Loaders,,OROPS,None or Unspecified,,,,,,,,,,Standard,,,,,,None or Unspecified,None or Unspecified,None or Unspecified,Standard,,,,,,,,,,,
18673,1853871,6250,1327959,132,2.0,1000,,,11/4/2000 0:00,SL5625,SL5625,,,,,Skid Steer Loader - 1601.0 to 1751.0 Lb Operating Capacity,New York,SSL,Skid Steer Loaders,,OROPS,None or Unspecified,,,,,,,,,,Standard,,,,,,None or Unspecified,None or Unspecified,None or Unspecified,Standard,,,,,,,,,,,
18673,1853872,7500,1374470,132,22.0,1993,,,6/10/2000 0:00,SL5625,SL5625,,,,,Skid Steer Loader - 1601.0 to 1751.0 Lb Operating Capacity,Minnesota,SSL,Skid Steer Loaders,,OROPS,None or Unspecified,,,,,,,,,,Standard,,,,,,None or Unspecified,None or Unspecified,None or Unspecified,Standard,,,,,,,,,,,
18673,1853877,12000,1245782,132,2.0,1993,1500.0,High,11/11/1995 0:00,SL5625,SL5625,,,,,Skid Steer Loader - 1601.0 to 1751.0 Lb Operating Capacity,Ohio,SSL,Skid Steer Loaders,,OROPS,None or Unspecified,,,,,,,,,,Standard,,,,,,None or Unspecified,None or Unspecified,None or Unspecified,Standard,,,,,,,,,,,
18673,1853879,6500,1089088,132,1.0,1993,,,6/3/2003 0:00,SL5625,SL5625,,,,,Skid Steer Loader - 1601.0 to 1751.0 Lb Operating Capacity,California,SSL,Skid Steer Loaders,,OROPS,None or Unspecified,,,,,,,,,,Standard,,,,,,None or Unspecified,None or Unspecified,None or Unspecified,Standard,,,,,,,,,,,
18673,1853885,5500,1413333,132,1.0,1993,,,11/30/2000 0:00,SL5625,SL5625,,,,,Skid Steer Loader - 1601.0 to 1751.0 Lb Operating Capacity,Georgia,SSL,Skid Steer Loaders,,OROPS,None or Unspecified,,,,,,,,,,Standard,,,,,,None or Unspecified,None or Unspecified,None or Unspecified,Standard,,,,,,,,,,,
18673,1853888,9000,1424914,132,2.0,1997,,,12/28/2001 0:00,SL5625,SL5625,,,,,Skid Steer Loader - 1601.0 to 1751.0 Lb Operating Capacity,New York,SSL,Skid Steer Loaders,,OROPS,None or Unspecified,,,,,,,,,,Standard,,,,,,None or Unspecified,None or Unspecified,None or Unspecified,Standard,,,,,,,,,,,
18673,1853889,12500,1332312,132,21.0,1993,,,10/25/1997 0:00,SL5625,SL5625,,,,,Skid Steer Loader - 1601.0 to 1751.0 Lb Operating Capacity,Maine,SSL,Skid Steer Loaders,,OROPS,None or Unspecified,,,,,,,,,,Standard,,,,,,None or Unspecified,None or Unspecified,None or Unspecified,Standard,,,,,,,,,,,
18673,1853904,8100,1501304,132,9.0,1000,,,2/21/2001 0:00,SL5625,SL5625,,,,,Skid Steer Loader - 1601.0 to 1751.0 Lb Operating Capacity,Florida,SSL,Skid Steer Loaders,,OROPS,None or Unspecified,,,,,,,,,,Standard,,,,,,None or Unspecified,None or Unspecified,None or Unspecified,Standard,,,,,,,,,,,
18673,1853907,5500,223796,132,1.0,1994,,,6/18/2001 0:00,SL5625,SL5625,,,,,Skid Steer Loader - 1601.0 to 1751.0 Lb Operating Capacity,Maryland,SSL,Skid Steer Loaders,,OROPS,None or Unspecified,,,,,,,,,,Standard,,,,,,None or Unspecified,None or Unspecified,None or Unspecified,Standard,,,,,,,,,,,
18673,1853911,13500,1086676,132,2.0,1000,,,12/7/1996 0:00,SL5625,SL5625,,,,,Skid Steer Loader - 1601.0 to 1751.0 Lb Operating Capacity,Pennsylvania,SSL,Skid Steer Loaders,,OROPS,None or Unspecified,,,,,,,,,,Standard,,,,,,None or Unspecified,None or Unspecified,None or Unspecified,Standard,,,,,,,,,,,
18673,1853918,6700,1492880,132,16.0,1994,,,8/21/2001 0:00,SL5625,SL5625,,,,,Skid Steer Loader - 1601.0 to 1751.0 Lb Operating Capacity,Ohio,SSL,Skid Steer Loaders,,OROPS,None or Unspecified,,,,,,,,,,Standard,,,,,,None or Unspecified,None or Unspecified,None or Unspecified,Standard,,,,,,,,,,,
18673,1853921,14250,1084996,132,99.0,1995,,,6/14/1997 0:00,SL5625,SL5625,,,,,Skid Steer Loader - 1601.0 to 1751.0 Lb Operating Capacity,Illinois,SSL,Skid Steer Loaders,,OROPS,None or Unspecified,,,,,,,,,,Standard,,,,,,None or Unspecified,None or Unspecified,None or Unspecified,Standard,,,,,,,,,,,
18673,1853923,6000,1447950,132,5.0,1995,,,11/10/2000 0:00,SL5625,SL5625,,,,,Skid Steer Loader - 1601.0 to 1751.0 Lb Operating Capacity,New York,SSL,Skid Steer Loaders,,OROPS,None or Unspecified,,,,,,,,,,Standard,,,,,,None or Unspecified,None or Unspecified,None or Unspecified,Standard,,,,,,,,,,,
18673,1853924,6200,1405236,132,9.0,1994,,,2/18/2002 0:00,SL5625,SL5625,,,,,Skid Steer Loader - 1601.0 to 1751.0 Lb Operating Capacity,Florida,SSL,Skid Steer Loaders,,OROPS,None or Unspecified,,,,,,,,,,Standard,,,,,,None or Unspecified,None or Unspecified,None or Unspecified,Standard,,,,,,,,,,,
18673,1853925,6000,1149770,132,1.0,1994,,,2/28/2003 0:00,SL5625,SL5625,,,,,Skid Steer Loader - 1601.0 to 1751.0 Lb Operating Capacity,Texas,SSL,Skid Steer Loaders,,OROPS,None or Unspecified,,,,,,,,,,Standard,,,,,,None or Unspecified,None or Unspecified,None or Unspecified,Standard,,,,,,,,,,,
18673,1854733,8500,1105121,132,25.0,1992,,,6/26/1999 0:00,SL5625,SL5625,,,,,Skid Steer Loader - 1601.0 to 1751.0 Lb Operating Capacity,California,SSL,Skid Steer Loaders,,OROPS,None or Unspecified,,,,,,,,,,Standard,,,,,,None or Unspecified,None or Unspecified,None or Unspecified,Standard,,,,,,,,,,,
18673,1854816,5000,1125473,132,1.0,1993,,,9/29/2000 0:00,SL5625,SL5625,,,,,Skid Steer Loader - 1601.0 to 1751.0 Lb Operating Capacity,Colorado,SSL,Skid Steer Loaders,,OROPS,None or Unspecified,,,,,,,,,,Standard,,,,,,None or Unspecified,None or Unspecified,None or Unspecified,Standard,,,,,,,,,,,
