ModelID,SalesID,SalePrice,MachineID,datasource,auctioneerID,YearMade,MachineHoursCurrentMeter,UsageBand,saledate,fiModelDesc,fiBaseModel,fiSecondaryDesc,fiModelSeries,fiModelDescriptor,ProductSize,fiProductClassDesc,state,ProductGroup,ProductGroupDesc,Drive_System,Enclosure,Forks,Pad_Type,Ride_Control,Stick,Transmission,Turbocharged,Blade_Extension,Blade_Width,Enclosure_Type,Engine_Horsepower,Hydraulics,Pushblock,Ripper,Scarifier,Tip_Control,Tire_Size,Coupler,Coupler_System,Grouser_Tracks,Hydraulics_Flow,Track_Type,Undercarriage_Pad_Width,Stick_Length,Thumb,Pattern_Changer,Grouser_Type,Backhoe_Mounting,Blade_Type,Travel_Controls,Differential_Type,Steering_Controls
18677,1158857,6750,1012765,121,3.0,2002,2061.0,High,10/19/2006 0:00,SL6635,SL6635,,,,,Skid Steer Loader - 2201.0 to 2701.0 Lb Operating Capacity,South Carolina,SSL,Skid Steer Loaders,,OROPS,None or Unspecified,,,,,,,,,,Standard,,,,,,None or Unspecified,None or Unspecified,None or Unspecified,Standard,,,,,,,,,,,
18677,1852212,8000,1170330,132,1.0,1997,,,9/20/2006 0:00,SL6635,SL6635,,,,,Skid Steer Loader - 2201.0 to 2701.0 Lb Operating Capacity,Illinois,SSL,Skid Steer Loaders,,OROPS,None or Unspecified,,,,,,,,,,Standard,,,,,,None or Unspecified,None or Unspecified,None or Unspecified,Standard,,,,,,,,,,,
18677,1852235,10000,1323740,132,2.0,1997,,,11/15/2003 0:00,SL6635,SL6635,,,,,Skid Steer Loader - 2201.0 to 2701.0 Lb Operating Capacity,Connecticut,SSL,Skid Steer Loaders,,OROPS,None or Unspecified,,,,,,,,,,Standard,,,,,,None or Unspecified,None or Unspecified,None or Unspecified,Standard,,,,,,,,,,,
18677,1852245,8000,1106822,132,1.0,1998,,,9/20/2006 0:00,SL6635,SL6635,,,,,Skid Steer Loader - 2201.0 to 2701.0 Lb Operating Capacity,Illinois,SSL,Skid Steer Loaders,,OROPS,None or Unspecified,,,,,,,,,,Standard,,,,,,None or Unspecified,None or Unspecified,None or Unspecified,Standard,,,,,,,,,,,
18677,1852247,9500,1106822,132,1.0,1998,,,6/6/2007 0:00,SL6635,SL6635,,,,,Skid Steer Loader - 2201.0 to 2701.0 Lb Operating Capacity,Illinois,SSL,Skid Steer Loaders,,OROPS,None or Unspecified,,,,,,,,,,Standard,,,,,,None or Unspecified,None or Unspecified,None or Unspecified,Standard,,,,,,,,,,,
18677,1852313,9000,995492,132,1.0,1000,,,6/26/2008 0:00,SL6635,SL6635,,,,,Skid Steer Loader - 2201.0 to 2701.0 Lb Operating Capacity,Colorado,SSL,Skid Steer Loaders,,OROPS,None or Unspecified,,,,,,,,,,Standard,,,,,,None or Unspecified,None or Unspecified,None or Unspecified,Standard,,,,,,,,,,,
18677,1852342,9500,1188243,132,1.0,1999,,,10/6/2005 0:00,SL6635,SL6635,,,,,Skid Steer Loader - 2201.0 to 2701.0 Lb Operating Capacity,Arizona,SSL,Skid Steer Loaders,,OROPS,None or Unspecified,,,,,,,,,,Standard,,,,,,None or Unspecified,None or Unspecified,None or Unspecified,Standard,,,,,,,,,,,
18677,1852352,14000,1278656,132,12.0,1000,,,3/20/2001 0:00,SL6635,SL6635,,,,,Skid Steer Loader - 2201.0 to 2701.0 Lb Operating Capacity,South Carolina,SSL,Skid Steer Loaders,,OROPS,None or Unspecified,,,,,,,,,,Standard,,,,,,None or Unspecified,None or Unspecified,None or Unspecified,Standard,,,,,,,,,,,
18677,1852373,5500,1372503,132,1.0,1999,,,6/24/2008 0:00,SL6635,SL6635,,,,,Skid Steer Loader - 2201.0 to 2701.0 Lb Operating Capacity,North Carolina,SSL,Skid Steer Loaders,,OROPS,None or Unspecified,,,,,,,,,,Standard,,,,,,None or Unspecified,None or Unspecified,None or Unspecified,Standard,,,,,,,,,,,
18677,1852374,8000,1372503,132,1.0,1998,,,9/18/2007 0:00,SL6635,SL6635,,,,,Skid Steer Loader - 2201.0 to 2701.0 Lb Operating Capacity,Georgia,SSL,Skid Steer Loaders,,OROPS,None or Unspecified,,,,,,,,,,Standard,,,,,,None or Unspecified,None or Unspecified,None or Unspecified,Standard,,,,,,,,,,,
18677,1852375,9500,1313286,132,3.0,1998,,,7/21/2003 0:00,SL6635,SL6635,,,,,Skid Steer Loader - 2201.0 to 2701.0 Lb Operating Capacity,Unspecified,SSL,Skid Steer Loaders,,OROPS,None or Unspecified,,,,,,,,,,Standard,,,,,,None or Unspecified,None or Unspecified,None or Unspecified,Standard,,,,,,,,,,,
18677,1852380,9000,910001,132,1.0,1999,,,6/17/2008 0:00,SL6635,SL6635,,,,,Skid Steer Loader - 2201.0 to 2701.0 Lb Operating Capacity,Ohio,SSL,Skid Steer Loaders,,OROPS,None or Unspecified,,,,,,,,,,Auxiliary,,,,,,None or Unspecified,None or Unspecified,None or Unspecified,Standard,,,,,,,,,,,
18677,1853154,6000,1333640,132,21.0,1000,,,9/27/2001 0:00,SL6635,SL6635,,,,,Skid Steer Loader - 2201.0 to 2701.0 Lb Operating Capacity,Maine,SSL,Skid Steer Loaders,,OROPS,None or Unspecified,,,,,,,,,,Standard,,,,,,None or Unspecified,None or Unspecified,None or Unspecified,Standard,,,,,,,,,,,
18677,1853466,7000,1291448,132,1.0,2000,,,5/20/2008 0:00,SL6635,SL6635,,,,,Skid Steer Loader - 2201.0 to 2701.0 Lb Operating Capacity,California,SSL,Skid Steer Loaders,,OROPS,None or Unspecified,,,,,,,,,,Standard,,,,,,None or Unspecified,None or Unspecified,None or Unspecified,Standard,,,,,,,,,,,
18677,1853467,12000,1225766,132,1.0,1000,,,8/11/2006 0:00,SL6635,SL6635,,,,,Skid Steer Loader - 2201.0 to 2701.0 Lb Operating Capacity,Texas,SSL,Skid Steer Loaders,,OROPS,None or Unspecified,,,,,,,,,,Standard,,,,,,None or Unspecified,None or Unspecified,None or Unspecified,Standard,,,,,,,,,,,
18677,1853470,9500,1291227,132,1.0,2000,,,9/24/2004 0:00,SL6635,SL6635,,,,,Skid Steer Loader - 2201.0 to 2701.0 Lb Operating Capacity,California,SSL,Skid Steer Loaders,,OROPS,None or Unspecified,,,,,,,,,,Standard,,,,,,None or Unspecified,None or Unspecified,None or Unspecified,Standard,,,,,,,,,,,
18677,6321491,7500,1882573,149,1.0,1999,,,10/7/2011 0:00,SL6635,SL6635,,,,,Skid Steer Loader - 2201.0 to 2701.0 Lb Operating Capacity,Illinois,SSL,Skid Steer Loaders,,OROPS,None or Unspecified,,,,,,,,,,Auxiliary,,,,,,None or Unspecified,None or Unspecified,None or Unspecified,Standard,,,,,,,,,,,
18677,6321600,10500,1942772,149,1.0,2003,,,10/7/2011 0:00,SL6635,SL6635,,,,,Skid Steer Loader - 2201.0 to 2701.0 Lb Operating Capacity,California,SSL,Skid Steer Loaders,,OROPS,None or Unspecified,,,,,,,,,,Auxiliary,,,,,,None or Unspecified,None or Unspecified,None or Unspecified,Standard,,,,,,,,,,,
