ModelID,SalesID,SalePrice,MachineID,datasource,auctioneerID,YearMade,MachineHoursCurrentMeter,UsageBand,saledate,fiModelDesc,fiBaseModel,fiSecondaryDesc,fiModelSeries,fiModelDescriptor,ProductSize,fiProductClassDesc,state,ProductGroup,ProductGroupDesc,Drive_System,Enclosure,Forks,Pad_Type,Ride_Control,Stick,Transmission,Turbocharged,Blade_Extension,Blade_Width,Enclosure_Type,Engine_Horsepower,Hydraulics,Pushblock,Ripper,Scarifier,Tip_Control,Tire_Size,Coupler,Coupler_System,Grouser_Tracks,Hydraulics_Flow,Track_Type,Undercarriage_Pad_Width,Stick_Length,Thumb,Pattern_Changer,Grouser_Type,Backhoe_Mounting,Blade_Type,Travel_Controls,Differential_Type,Steering_Controls
1868,1606335,25500,1494157,132,4.0,1991,,,8/26/2010 0:00,544ELL,544,E,,LL,,Wheel Loader - 100.0 to 110.0 Horsepower,New Hampshire,WL,Wheel Loader,,EROPS,Yes,,None or Unspecified,,,,,,,,2 Valve,,,,,None or Unspecified,None or Unspecified,,,,,,,,,,,,,Standard,Conventional
1868,1606550,22500,1376839,132,1.0,1992,,,12/1/2010 0:00,544ELL,544,E,,LL,,Wheel Loader - 100.0 to 110.0 Horsepower,Texas,WL,Wheel Loader,,EROPS w AC,Yes,,None or Unspecified,,,,,,,,2 Valve,,,,,None or Unspecified,None or Unspecified,,,,,,,,,,,,,Standard,Conventional
1868,2331749,9500,1510544,136,13.0,2000,0.0,,6/20/2009 0:00,544ELL,544,E,,LL,,Wheel Loader - 100.0 to 110.0 Horsepower,Tennessee,WL,Wheel Loader,,EROPS w AC,Yes,,None or Unspecified,,,,,,,,2 Valve,,,,,None or Unspecified,None or Unspecified,,,,,,,,,,,,,Standard,Conventional
1868,2331768,16000,1239243,136,12.0,1989,0.0,,9/24/2008 0:00,544ELL,544,E,,LL,,Wheel Loader - 100.0 to 110.0 Horsepower,South Carolina,WL,Wheel Loader,,OROPS,Yes,,None or Unspecified,,,,,,,,2 Valve,,,,,None or Unspecified,None or Unspecified,,,,,,,,,,,,,Standard,Conventional
1868,2633397,25500,1855199,149,4.0,1000,0.0,,8/26/2010 0:00,544ELL,544,E,,LL,,Wheel Loader - 100.0 to 110.0 Horsepower,New Hampshire,WL,Wheel Loader,,EROPS,Yes,,None or Unspecified,,,,,,,,2 Valve,,,,,None or Unspecified,None or Unspecified,,,,,,,,,,,,,Standard,Conventional
1868,2633398,22500,1933220,149,1.0,1992,0.0,,12/1/2010 0:00,544ELL,544,E,,LL,,Wheel Loader - 100.0 to 110.0 Horsepower,Texas,WL,Wheel Loader,,EROPS w AC,Yes,,None or Unspecified,,,,,,,,2 Valve,,,,,None or Unspecified,None or Unspecified,,,,,,,,,,,,,Standard,Conventional
