ModelID,SalesID,SalePrice,MachineID,datasource,auctioneerID,YearMade,MachineHoursCurrentMeter,UsageBand,saledate,fiModelDesc,fiBaseModel,fiSecondaryDesc,fiModelSeries,fiModelDescriptor,ProductSize,fiProductClassDesc,state,ProductGroup,ProductGroupDesc,Drive_System,Enclosure,Forks,Pad_Type,Ride_Control,Stick,Transmission,Turbocharged,Blade_Extension,Blade_Width,Enclosure_Type,Engine_Horsepower,Hydraulics,Pushblock,Ripper,Scarifier,Tip_Control,Tire_Size,Coupler,Coupler_System,Grouser_Tracks,Hydraulics_Flow,Track_Type,Undercarriage_Pad_Width,Stick_Length,Thumb,Pattern_Changer,Grouser_Type,Backhoe_Mounting,Blade_Type,Travel_Controls,Differential_Type,Steering_Controls
18834,1855085,50000,1139017,132,1.0,1999,,,9/29/2005 0:00,HE450LCH,HE450,LCH,,,Large / Medium,"Hydraulic Excavator, Track - 40.0 to 50.0 Metric Tons",Texas,TEX,Track Excavators,,EROPS w AC,,,,,,,,,,,Auxiliary,,,,,,None or Unspecified,,,,Steel,None or Unspecified,"11' 0""",None or Unspecified,None or Unspecified,Double,,,,,
18834,1855086,71000,1227107,132,1.0,1999,,,3/21/2007 0:00,HE450LCH,HE450,LCH,,,Large / Medium,"Hydraulic Excavator, Track - 40.0 to 50.0 Metric Tons",Washington,TEX,Track Excavators,,EROPS,,,,,,,,,,,Standard,,,,,,None or Unspecified,,,,Steel,None or Unspecified,"11' 0""",None or Unspecified,None or Unspecified,Double,,,,,
18834,1855087,107500,1200331,132,1.0,1999,,,12/12/2001 0:00,HE450LCH,HE450,LCH,,,Large / Medium,"Hydraulic Excavator, Track - 40.0 to 50.0 Metric Tons",Texas,TEX,Track Excavators,,EROPS,,,,,,,,,,,Auxiliary,,,,,,None or Unspecified,,,,Steel,None or Unspecified,"11' 0""",None or Unspecified,None or Unspecified,Double,,,,,
18834,2459509,11500,1139017,136,1.0,1000,0.0,,2/25/2010 0:00,HE450LCH,HE450,LCH,,,Large / Medium,"Hydraulic Excavator, Track - 40.0 to 50.0 Metric Tons",Texas,TEX,Track Excavators,,EROPS w AC,,,,,,,,,,,Auxiliary,,,,,,None or Unspecified,,,,Steel,None or Unspecified,"11' 0""",None or Unspecified,None or Unspecified,Double,,,,,
