SalesID,1857283
SalePrice,13500
MachineID,1230400
datasource,132
auctioneerID,1.0
YearMade,1970
MachineHoursCurrentMeter,
UsageBand,
saledate,10/26/1994 0:00
fiModelDesc,H400B
fiBaseModel,H400
fiSecondaryDesc,B
fiModelSeries,
fiModelDescriptor,
ProductSize,Large
fiProductClassDesc,Wheel Loader - 500.0 to 1000.0 Horsepower
state,Minnesota
ProductGroup,WL
ProductGroupDesc,Wheel Loader
Drive_System,
Enclosure,EROPS
Forks,None or Unspecified
Pad_Type,
Ride_Control,None or Unspecified
Stick,
Transmission,
Turbocharged,
Blade_Extension,
Blade_Width,
Enclosure_Type,
Engine_Horsepower,
Hydraulics,2 Valve
Pushblock,
Ripper,
Scarifier,
Tip_Control,
Tire_Size,None or Unspecified
Coupler,None or Unspecified
Coupler_System,
Grouser_Tracks,
Hydraulics_Flow,
Track_Type,
Undercarriage_Pad_Width,
Stick_Length,
Thumb,
Pattern_Changer,
Grouser_Type,
Backhoe_Mounting,
Blade_Type,
Travel_Controls,
Differential_Type,Standard
Steering_Controls,Conventional
