ModelID,SalesID,SalePrice,MachineID,datasource,auctioneerID,YearMade,MachineHoursCurrentMeter,UsageBand,saledate,fiModelDesc,fiBaseModel,fiSecondaryDesc,fiModelSeries,fiModelDescriptor,ProductSize,fiProductClassDesc,state,ProductGroup,ProductGroupDesc,Drive_System,Enclosure,Forks,Pad_Type,Ride_Control,Stick,Transmission,Turbocharged,Blade_Extension,Blade_Width,Enclosure_Type,Engine_Horsepower,Hydraulics,Pushblock,Ripper,Scarifier,Tip_Control,Tire_Size,Coupler,Coupler_System,Grouser_Tracks,Hydraulics_Flow,Track_Type,Undercarriage_Pad_Width,Stick_Length,Thumb,Pattern_Changer,Grouser_Type,Backhoe_Mounting,Blade_Type,Travel_Controls,Differential_Type,Steering_Controls
1915,1165376,44000,1042444,121,3.0,2001,10491.0,Medium,1/29/2009 0:00,744HMH,744,H,,MH,Medium,Wheel Loader - 225.0 to 250.0 Horsepower,Illinois,WL,Wheel Loader,,EROPS w AC,None or Unspecified,,None or Unspecified,,,,,,,,2 Valve,,,,,26.5,None or Unspecified,,,,,,,,,,,,,Standard,Conventional
1915,1168177,48000,1002831,121,3.0,2001,12023.0,High,3/26/2009 0:00,744HMH,744,H,,MH,Medium,Wheel Loader - 225.0 to 250.0 Horsepower,Illinois,WL,Wheel Loader,,EROPS w AC,None or Unspecified,,None or Unspecified,,,,,,,,2 Valve,,,,,26.5,None or Unspecified,,,,,,,,,,,,,Standard,Conventional
1915,1207246,34000,1017498,121,3.0,1996,5104.0,Low,9/23/2010 0:00,744HMH,744,H,,MH,Medium,Wheel Loader - 225.0 to 250.0 Horsepower,Mississippi,WL,Wheel Loader,,EROPS w AC,None or Unspecified,,None or Unspecified,,,,,,,,2 Valve,,,,,26.5,None or Unspecified,,,,,,,,,,,,,Standard,Conventional
1915,1590747,59000,1501590,132,1.0,1998,,,3/4/2004 0:00,744HMH,744,H,,MH,Medium,Wheel Loader - 225.0 to 250.0 Horsepower,New Mexico,WL,Wheel Loader,,EROPS w AC,None or Unspecified,,Yes,,,,,,,,2 Valve,,,,,26.5,None or Unspecified,,,,,,,,,,,,,Standard,Conventional
1915,1609105,34000,1165361,132,3.0,1996,5104.0,Low,9/23/2010 0:00,744HMH,744,H,,MH,Medium,Wheel Loader - 225.0 to 250.0 Horsepower,California,WL,Wheel Loader,,EROPS w AC,None or Unspecified,,None or Unspecified,,,,,,,,2 Valve,,,,,26.5,None or Unspecified,,,,,,,,,,,,,Standard,Conventional
1915,1609872,52000,1092639,132,1.0,1997,,,10/1/2004 0:00,744HMH,744,H,,MH,Medium,Wheel Loader - 225.0 to 250.0 Horsepower,Colorado,WL,Wheel Loader,,EROPS w AC,None or Unspecified,,Yes,,,,,,,,2 Valve,,,,,26.5,None or Unspecified,,,,,,,,,,,,,Standard,Conventional
1915,1610599,29000,1187544,132,1.0,1998,,,12/8/2008 0:00,744HMH,744,H,,MH,Medium,Wheel Loader - 225.0 to 250.0 Horsepower,Illinois,WL,Wheel Loader,,EROPS w AC,None or Unspecified,,Yes,,,,,,,,2 Valve,,,,,26.5,None or Unspecified,,,,,,,,,,,,,Standard,Conventional
1915,1611570,42000,1094289,132,1.0,2000,,,7/9/2009 0:00,744HMH,744,H,,MH,Medium,Wheel Loader - 225.0 to 250.0 Horsepower,Texas,WL,Wheel Loader,,EROPS w AC,None or Unspecified,,Yes,,,,,,,,2 Valve,,,,,26.5,None or Unspecified,,,,,,,,,,,,,Standard,Conventional
1915,2340605,41000,1704828,136,,1997,0.0,,3/28/2009 0:00,744HMH,744,H,,MH,Medium,Wheel Loader - 225.0 to 250.0 Horsepower,Michigan,WL,Wheel Loader,,EROPS w AC,None or Unspecified,,None or Unspecified,,,,,,,,2 Valve,,,,,29.5,None or Unspecified,,,,,,,,,,,,,Standard,Conventional
1915,2340610,46000,1698639,136,1.0,1998,0.0,,6/30/2008 0:00,744HMH,744,H,,MH,Medium,Wheel Loader - 225.0 to 250.0 Horsepower,New Mexico,WL,Wheel Loader,,EROPS w AC,None or Unspecified,,None or Unspecified,,,,,,,,2 Valve,,,,,26.5,None or Unspecified,,,,,,,,,,,,,Standard,Conventional
1915,2340611,29000,1713827,136,1.0,1998,0.0,,12/8/2008 0:00,744HMH,744,H,,MH,Medium,Wheel Loader - 225.0 to 250.0 Horsepower,Illinois,WL,Wheel Loader,,EROPS,None or Unspecified,,Yes,,,,,,,,2 Valve,,,,,26.5,None or Unspecified,,,,,,,,,,,,,Standard,Conventional
1915,2340613,45500,1700532,136,,2000,0.0,,6/16/2009 0:00,744HMH,744,H,,MH,Medium,Wheel Loader - 225.0 to 250.0 Horsepower,Washington,WL,Wheel Loader,,EROPS,None or Unspecified,,None or Unspecified,,,,,,,,2 Valve,,,,,26.5,None or Unspecified,,,,,,,,,,,,,Standard,Conventional
1915,4313066,42000,2293503,172,1.0,2000,10733.0,Medium,7/9/2009 0:00,744HMH,744,H,,MH,Medium,Wheel Loader - 225.0 to 250.0 Horsepower,Texas,WL,Wheel Loader,,EROPS w AC,None or Unspecified,,Yes,,,,,,,,2 Valve,,,,,26.5,None or Unspecified,,,,,,,,,,,,,Standard,Conventional
