ModelID,SalesID,SalePrice,MachineID,datasource,auctioneerID,YearMade,MachineHoursCurrentMeter,UsageBand,saledate,fiModelDesc,fiBaseModel,fiSecondaryDesc,fiModelSeries,fiModelDescriptor,ProductSize,fiProductClassDesc,state,ProductGroup,ProductGroupDesc,Drive_System,Enclosure,Forks,Pad_Type,Ride_Control,Stick,Transmission,Turbocharged,Blade_Extension,Blade_Width,Enclosure_Type,Engine_Horsepower,Hydraulics,Pushblock,Ripper,Scarifier,Tip_Control,Tire_Size,Coupler,Coupler_System,Grouser_Tracks,Hydraulics_Flow,Track_Type,Undercarriage_Pad_Width,Stick_Length,Thumb,Pattern_Changer,Grouser_Type,Backhoe_Mounting,Blade_Type,Travel_Controls,Differential_Type,Steering_Controls
19358,1144544,20500,1015093,121,3.0,2006,8.0,Low,6/28/2007 0:00,ME3003,ME3003,,,,Mini,"Hydraulic Excavator, Track - 3.0 to 4.0 Metric Tons",Florida,TEX,Track Excavators,,EROPS,,,,,,,,,,,Auxiliary,,,,,,None or Unspecified,,,,Rubber,None or Unspecified,None or Unspecified,None or Unspecified,None or Unspecified,Double,,,,,
19358,1146422,17500,1047681,121,3.0,2004,241.0,Low,6/28/2007 0:00,ME3003,ME3003,,,,Mini,"Hydraulic Excavator, Track - 3.0 to 4.0 Metric Tons",Florida,TEX,Track Excavators,,EROPS,,,,,,,,,,,Auxiliary,,,,,,None or Unspecified,,,,Rubber,None or Unspecified,None or Unspecified,None or Unspecified,None or Unspecified,Double,,,,,
19358,1151023,17500,1005869,121,3.0,2005,173.0,Low,6/28/2007 0:00,ME3003,ME3003,,,,Mini,"Hydraulic Excavator, Track - 3.0 to 4.0 Metric Tons",Florida,TEX,Track Excavators,,EROPS,,,,,,,,,,,Auxiliary,,,,,,None or Unspecified,,,,Rubber,None or Unspecified,None or Unspecified,None or Unspecified,None or Unspecified,Double,,,,,
19358,1152614,16000,1031621,121,3.0,2004,303.0,Low,6/28/2007 0:00,ME3003,ME3003,,,,Mini,"Hydraulic Excavator, Track - 3.0 to 4.0 Metric Tons",Florida,TEX,Track Excavators,,EROPS,,,,,,,,,,,Auxiliary,,,,,,None or Unspecified,,,,Rubber,None or Unspecified,None or Unspecified,None or Unspecified,None or Unspecified,Double,,,,,
19358,1155553,20000,1014773,121,3.0,2006,12.0,Low,6/28/2007 0:00,ME3003,ME3003,,,,Mini,"Hydraulic Excavator, Track - 3.0 to 4.0 Metric Tons",Florida,TEX,Track Excavators,,EROPS,,,,,,,,,,,Auxiliary,,,,,,None or Unspecified,,,,Rubber,None or Unspecified,None or Unspecified,None or Unspecified,None or Unspecified,Double,,,,,
19358,1159160,18500,1046490,121,3.0,2005,52.0,Low,6/28/2007 0:00,ME3003,ME3003,,,,Mini,"Hydraulic Excavator, Track - 3.0 to 4.0 Metric Tons",Florida,TEX,Track Excavators,,EROPS,,,,,,,,,,,Auxiliary,,,,,,None or Unspecified,,,,Rubber,None or Unspecified,None or Unspecified,None or Unspecified,None or Unspecified,Double,,,,,
19358,1160397,15000,1036047,121,3.0,2005,29.0,Low,6/18/2009 0:00,ME3003,ME3003,,,,Mini,"Hydraulic Excavator, Track - 3.0 to 4.0 Metric Tons",Arizona,TEX,Track Excavators,,EROPS,,,,,,,,,,,Auxiliary,,,,,,None or Unspecified,,,,Steel,None or Unspecified,None or Unspecified,None or Unspecified,None or Unspecified,Double,,,,,
19358,1165481,17500,1031917,121,3.0,2004,225.0,Low,6/28/2007 0:00,ME3003,ME3003,,,,Mini,"Hydraulic Excavator, Track - 3.0 to 4.0 Metric Tons",Florida,TEX,Track Excavators,,EROPS,,,,,,,,,,,Auxiliary,,,,,,None or Unspecified,,,,Rubber,None or Unspecified,None or Unspecified,None or Unspecified,None or Unspecified,Double,,,,,
19358,1167654,18500,1019334,121,3.0,2005,37.0,Low,6/28/2007 0:00,ME3003,ME3003,,,,Mini,"Hydraulic Excavator, Track - 3.0 to 4.0 Metric Tons",Florida,TEX,Track Excavators,,EROPS,,,,,,,,,,,Auxiliary,,,,,,None or Unspecified,,,,Rubber,None or Unspecified,None or Unspecified,None or Unspecified,None or Unspecified,Double,,,,,
19358,1183680,15000,1018634,121,3.0,2006,443.0,Low,10/30/2008 0:00,ME3003,ME3003,,,,Mini,"Hydraulic Excavator, Track - 3.0 to 4.0 Metric Tons",New Jersey,TEX,Track Excavators,,EROPS,,,,,,,,,,,Auxiliary,,,,,,None or Unspecified,,,,Rubber,None or Unspecified,None or Unspecified,None or Unspecified,None or Unspecified,Double,,,,,
19358,1875826,11500,1462114,132,2.0,2001,,,3/22/2007 0:00,ME3003,ME3003,,,,Mini,"Hydraulic Excavator, Track - 3.0 to 4.0 Metric Tons",New Jersey,TEX,Track Excavators,,EROPS,,,,,,,,,,,Auxiliary,,,,,,None or Unspecified,,,,Steel,None or Unspecified,None or Unspecified,None or Unspecified,None or Unspecified,Double,,,,,
19358,1876433,16000,1455468,132,3.0,2004,,,6/28/2007 0:00,ME3003,ME3003,,,,Mini,"Hydraulic Excavator, Track - 3.0 to 4.0 Metric Tons",California,TEX,Track Excavators,,EROPS,,,,,,,,,,,Standard,,,,,,None or Unspecified,,,,Steel,None or Unspecified,None or Unspecified,None or Unspecified,None or Unspecified,Double,,,,,
19358,1876434,17500,1450742,132,3.0,2004,,,6/28/2007 0:00,ME3003,ME3003,,,,Mini,"Hydraulic Excavator, Track - 3.0 to 4.0 Metric Tons",California,TEX,Track Excavators,,EROPS,,,,,,,,,,,Standard,,,,,,None or Unspecified,,,,Steel,None or Unspecified,None or Unspecified,None or Unspecified,None or Unspecified,Double,,,,,
19358,1876437,14500,1472122,132,3.0,2004,,,9/20/2007 0:00,ME3003,ME3003,,,,Mini,"Hydraulic Excavator, Track - 3.0 to 4.0 Metric Tons",California,TEX,Track Excavators,,EROPS,,,,,,,,,,,Standard,,,,,,None or Unspecified,,,,Steel,None or Unspecified,None or Unspecified,None or Unspecified,None or Unspecified,Double,,,,,
19358,1876438,11000,1103839,132,1.0,2005,,,9/22/2010 0:00,ME3003,ME3003,,,,Mini,"Hydraulic Excavator, Track - 3.0 to 4.0 Metric Tons",Georgia,TEX,Track Excavators,,EROPS,,,,,,,,,,,Auxiliary,,,,,,None or Unspecified,,,,Rubber,None or Unspecified,None or Unspecified,None or Unspecified,None or Unspecified,Double,,,,,
19358,1876440,17500,1532495,132,3.0,2004,,,6/28/2007 0:00,ME3003,ME3003,,,,Mini,"Hydraulic Excavator, Track - 3.0 to 4.0 Metric Tons",California,TEX,Track Excavators,,EROPS,,,,,,,,,,,Standard,,,,,,None or Unspecified,,,,Steel,None or Unspecified,None or Unspecified,None or Unspecified,None or Unspecified,Double,,,,,
19358,1876441,17500,1392246,132,3.0,2005,,,6/28/2007 0:00,ME3003,ME3003,,,,Mini,"Hydraulic Excavator, Track - 3.0 to 4.0 Metric Tons",California,TEX,Track Excavators,,EROPS,,,,,,,,,,,Standard,,,,,,None or Unspecified,,,,Steel,None or Unspecified,None or Unspecified,None or Unspecified,None or Unspecified,Double,,,,,
19358,1876442,18500,1190930,132,3.0,2005,,,6/28/2007 0:00,ME3003,ME3003,,,,Mini,"Hydraulic Excavator, Track - 3.0 to 4.0 Metric Tons",California,TEX,Track Excavators,,EROPS,,,,,,,,,,,Standard,,,,,,None or Unspecified,,,,Steel,None or Unspecified,None or Unspecified,None or Unspecified,None or Unspecified,Double,,,,,
19358,1876445,18500,1081392,132,3.0,2005,,,6/28/2007 0:00,ME3003,ME3003,,,,Mini,"Hydraulic Excavator, Track - 3.0 to 4.0 Metric Tons",California,TEX,Track Excavators,,EROPS,,,,,,,,,,,Standard,,,,,,None or Unspecified,,,,Steel,None or Unspecified,None or Unspecified,None or Unspecified,None or Unspecified,Double,,,,,
19358,1876453,10500,1476646,132,1.0,2006,1267.0,Low,5/18/2011 0:00,ME3003,ME3003,,,,Mini,"Hydraulic Excavator, Track - 3.0 to 4.0 Metric Tons",Florida,TEX,Track Excavators,,EROPS,,,,,,,,,,,Auxiliary,,,,,,None or Unspecified,,,,Steel,None or Unspecified,None or Unspecified,None or Unspecified,None or Unspecified,Double,,,,,
19358,1876455,20500,1347555,132,3.0,2006,,,6/28/2007 0:00,ME3003,ME3003,,,,Mini,"Hydraulic Excavator, Track - 3.0 to 4.0 Metric Tons",California,TEX,Track Excavators,,EROPS,,,,,,,,,,,Standard,,,,,,None or Unspecified,,,,Steel,None or Unspecified,None or Unspecified,None or Unspecified,None or Unspecified,Double,,,,,
19358,1876456,20000,1129639,132,3.0,2006,,,6/28/2007 0:00,ME3003,ME3003,,,,Mini,"Hydraulic Excavator, Track - 3.0 to 4.0 Metric Tons",California,TEX,Track Excavators,,EROPS,,,,,,,,,,,Standard,,,,,,None or Unspecified,,,,Steel,None or Unspecified,None or Unspecified,None or Unspecified,None or Unspecified,Double,,,,,
19358,2772131,11500,1913956,149,1.0,1000,,,5/18/2011 0:00,ME3003,ME3003,,,,Mini,"Hydraulic Excavator, Track - 3.0 to 4.0 Metric Tons",Florida,TEX,Track Excavators,,EROPS,,,,,,,,,,,Standard,,,,,,None or Unspecified,,,,Steel,None or Unspecified,None or Unspecified,None or Unspecified,None or Unspecified,Double,,,,,
19358,4403953,11000,2292966,172,1.0,2005,65.0,Low,9/22/2010 0:00,ME3003,ME3003,,,,Mini,"Hydraulic Excavator, Track - 3.0 to 4.0 Metric Tons",Georgia,TEX,Track Excavators,,EROPS,,,,,,,,,,,Auxiliary,,,,,,None or Unspecified,,,,Rubber,None or Unspecified,None or Unspecified,None or Unspecified,None or Unspecified,Double,,,,,
