ModelID,SalesID,SalePrice,MachineID,datasource,auctioneerID,YearMade,MachineHoursCurrentMeter,UsageBand,saledate,fiModelDesc,fiBaseModel,fiSecondaryDesc,fiModelSeries,fiModelDescriptor,ProductSize,fiProductClassDesc,state,ProductGroup,ProductGroupDesc,Drive_System,Enclosure,Forks,Pad_Type,Ride_Control,Stick,Transmission,Turbocharged,Blade_Extension,Blade_Width,Enclosure_Type,Engine_Horsepower,Hydraulics,Pushblock,Ripper,Scarifier,Tip_Control,Tire_Size,Coupler,Coupler_System,Grouser_Tracks,Hydraulics_Flow,Track_Type,Undercarriage_Pad_Width,Stick_Length,Thumb,Pattern_Changer,Grouser_Type,Backhoe_Mounting,Blade_Type,Travel_Controls,Differential_Type,Steering_Controls
201,1733010,65000,1267693,132,6.0,1988,,,4/27/1995 0:00,D355A-5,D355,A,-5,,Large,"Track Type Tractor, Dozer - 260.0 + Horsepower",Wyoming,TTT,Track Type Tractors,,EROPS w AC,,,,,Standard,,,,,,2 Valve,,None or Unspecified,,,,,,,,,,,,,,None or Unspecified,Straight,None or Unspecified,,
201,1733056,69000,1125659,132,1.0,1989,,,12/5/2003 0:00,D355A-5,D355,A,-5,,Large,"Track Type Tractor, Dozer - 260.0 + Horsepower",California,TTT,Track Type Tractors,,OROPS,,,,,Standard,,,,,,2 Valve,,Multi Shank,,,,,,,,,,,,,,None or Unspecified,Straight,None or Unspecified,,
201,1733204,60000,1438043,132,1.0,1000,,,11/14/2002 0:00,D355A-5,D355,A,-5,,Large,"Track Type Tractor, Dozer - 260.0 + Horsepower",Georgia,TTT,Track Type Tractors,,EROPS w AC,,,,,,,,,,,Auxiliary,,,,,,,,,,,,,,,,,No,2 Pedal,,
201,1733219,47000,1237757,132,4.0,1990,,,2/9/2000 0:00,D355A-5,D355,A,-5,,Large,"Track Type Tractor, Dozer - 260.0 + Horsepower",Florida,TTT,Track Type Tractors,,EROPS w AC,,,,,Standard,,,,,,2 Valve,,Single Shank,,,,,,,,,,,,,,None or Unspecified,PAT,None or Unspecified,,
201,1733220,61000,1237757,132,4.0,1990,,,2/10/2003 0:00,D355A-5,D355,A,-5,,Large,"Track Type Tractor, Dozer - 260.0 + Horsepower",Florida,TTT,Track Type Tractors,,EROPS w AC,,,,,Standard,,,,,,2 Valve,,Single Shank,,,,,,,,,,,,,,None or Unspecified,PAT,None or Unspecified,,
201,1733221,64500,1237757,132,4.0,1990,,,2/4/1999 0:00,D355A-5,D355,A,-5,,Large,"Track Type Tractor, Dozer - 260.0 + Horsepower",Florida,TTT,Track Type Tractors,,EROPS w AC,,,,,Standard,,,,,,2 Valve,,Single Shank,,,,,,,,,,,,,,None or Unspecified,PAT,None or Unspecified,,
201,1733374,57500,1341826,132,1.0,1991,,,6/26/2004 0:00,D355A-5,D355,A,-5,,Large,"Track Type Tractor, Dozer - 260.0 + Horsepower",Hawaii,TTT,Track Type Tractors,,OROPS,,,,,Standard,,,,,,2 Valve,,Multi Shank,,,,,,,,,,,,,,None or Unspecified,Straight,None or Unspecified,,
201,1733456,67000,1281818,132,1.0,1992,,,12/2/1999 0:00,D355A-5,D355,A,-5,,Large,"Track Type Tractor, Dozer - 260.0 + Horsepower",Washington,TTT,Track Type Tractors,,EROPS,,,,,Standard,,,,,,2 Valve,,None or Unspecified,,,,,,,,,,,,,,None or Unspecified,None or Unspecified,None or Unspecified,,
201,6301512,90000,1945185,149,2.0,1000,,,12/21/2011 0:00,D355A-5,D355,A,-5,,Large,"Track Type Tractor, Dozer - 260.0 + Horsepower",Kentucky,TTT,Track Type Tractors,,EROPS,,,,,Standard,,,,,,2 Valve,,None or Unspecified,,,,,,,,,,,,,,None or Unspecified,U,None or Unspecified,,
201,6301521,50000,1311351,149,2.0,1000,,,12/21/2011 0:00,D355A-5,D355,A,-5,,Large,"Track Type Tractor, Dozer - 260.0 + Horsepower",Kentucky,TTT,Track Type Tractors,,EROPS,,,,,Standard,,,,,,2 Valve,,Single Shank,,,,,,,,,,,,,,None or Unspecified,Straight,None or Unspecified,,
201,6307712,90000,1814212,149,2.0,1000,,,12/21/2011 0:00,D355A-5,D355,A,-5,,Large,"Track Type Tractor, Dozer - 260.0 + Horsepower",Kentucky,TTT,Track Type Tractors,,OROPS,,,,,Standard,,,,,,2 Valve,,None or Unspecified,,,,,,,,,,,,,,None or Unspecified,None or Unspecified,None or Unspecified,,
201,6307713,50000,1879257,149,2.0,1000,,,12/21/2011 0:00,D355A-5,D355,A,-5,,Large,"Track Type Tractor, Dozer - 260.0 + Horsepower",Kentucky,TTT,Track Type Tractors,,OROPS,,,,,Standard,,,,,,2 Valve,,None or Unspecified,,,,,,,,,,,,,,None or Unspecified,None or Unspecified,None or Unspecified,,
