ModelID,SalesID,SalePrice,MachineID,datasource,auctioneerID,YearMade,MachineHoursCurrentMeter,UsageBand,saledate,fiModelDesc,fiBaseModel,fiSecondaryDesc,fiModelSeries,fiModelDescriptor,ProductSize,fiProductClassDesc,state,ProductGroup,ProductGroupDesc,Drive_System,Enclosure,Forks,Pad_Type,Ride_Control,Stick,Transmission,Turbocharged,Blade_Extension,Blade_Width,Enclosure_Type,Engine_Horsepower,Hydraulics,Pushblock,Ripper,Scarifier,Tip_Control,Tire_Size,Coupler,Coupler_System,Grouser_Tracks,Hydraulics_Flow,Track_Type,Undercarriage_Pad_Width,Stick_Length,Thumb,Pattern_Changer,Grouser_Type,Backhoe_Mounting,Blade_Type,Travel_Controls,Differential_Type,Steering_Controls
20128,1885935,17000,1243431,132,16.0,1998,,,7/13/2000 0:00,E820,E820,,,,Compact,Wheel Loader - 40.0 to 60.0 Horsepower,Ohio,WL,Wheel Loader,,EROPS,None or Unspecified,,None or Unspecified,,,,,,,,2 Valve,,,,,None or Unspecified,None or Unspecified,,,,,,,,,,,,,Standard,Conventional
20128,1885936,14500,1093934,132,28.0,2000,,,6/2/2006 0:00,E820,E820,,,,Compact,Wheel Loader - 40.0 to 60.0 Horsepower,Mississippi,WL,Wheel Loader,,OROPS,Yes,,None or Unspecified,,,,,,,,2 Valve,,,,,None or Unspecified,None or Unspecified,,,,,,,,,,,,,Standard,Conventional
20128,1885940,19500,1480559,132,9.0,2000,,,2/18/2004 0:00,E820,E820,,,,Compact,Wheel Loader - 40.0 to 60.0 Horsepower,Florida,WL,Wheel Loader,,EROPS,None or Unspecified,,None or Unspecified,,,,,,,,2 Valve,,,,,None or Unspecified,None or Unspecified,,,,,,,,,,,,,Standard,Conventional
20128,1885941,14500,1480559,132,9.0,1000,,,8/27/2003 0:00,E820,E820,,,,Compact,Wheel Loader - 40.0 to 60.0 Horsepower,Florida,WL,Wheel Loader,,EROPS,None or Unspecified,,None or Unspecified,,,,,,,,2 Valve,,,,,None or Unspecified,None or Unspecified,,,,,,,,,,,,,Standard,Conventional
20128,1885944,16500,1394595,132,1.0,2003,,,10/10/2007 0:00,E820,E820,,,,Compact,Wheel Loader - 40.0 to 60.0 Horsepower,Florida,WL,Wheel Loader,,OROPS,None or Unspecified,,None or Unspecified,,,,,,,,2 Valve,,,,,None or Unspecified,Manual,,,,,,,,,,,,,Standard,Conventional
20128,1885945,17000,1243442,132,8.0,2004,,,11/14/2007 0:00,E820,E820,,,,Compact,Wheel Loader - 40.0 to 60.0 Horsepower,Mississippi,WL,Wheel Loader,,OROPS,None or Unspecified,,None or Unspecified,,,,,,,,2 Valve,,,,,None or Unspecified,None or Unspecified,,,,,,,,,,,,,Standard,Conventional
20128,1885946,20000,1275281,132,8.0,2004,,,11/14/2007 0:00,E820,E820,,,,Compact,Wheel Loader - 40.0 to 60.0 Horsepower,Mississippi,WL,Wheel Loader,,OROPS,None or Unspecified,,None or Unspecified,,,,,,,,2 Valve,,,,,None or Unspecified,None or Unspecified,,,,,,,,,,,,,Standard,Conventional
20128,1885947,16000,1175584,132,1.0,2003,,,10/10/2007 0:00,E820,E820,,,,Compact,Wheel Loader - 40.0 to 60.0 Horsepower,Florida,WL,Wheel Loader,,OROPS,None or Unspecified,,None or Unspecified,,,,,,,,2 Valve,,,,,None or Unspecified,Manual,,,,,,,,,,,,,Standard,Conventional
20128,1886136,23000,1531481,132,4.0,2005,,,2/10/2009 0:00,E820,E820,,,,Compact,Wheel Loader - 40.0 to 60.0 Horsepower,Florida,WL,Wheel Loader,,OROPS,None or Unspecified,,None or Unspecified,,,,,,,,2 Valve,,,,,None or Unspecified,None or Unspecified,,,,,,,,,,,,,Standard,Conventional
20128,1886157,14000,1158826,132,4.0,1000,,,2/8/2011 0:00,E820,E820,,,,Compact,Wheel Loader - 40.0 to 60.0 Horsepower,Florida,WL,Wheel Loader,,OROPS,None or Unspecified,,None or Unspecified,,,,,,,,2 Valve,,,,,None or Unspecified,None or Unspecified,,,,,,,,,,,,,Standard,Conventional
20128,2468148,14500,1463578,136,1.0,1000,0.0,,9/21/2009 0:00,E820,E820,,,,Compact,Wheel Loader - 40.0 to 60.0 Horsepower,Illinois,WL,Wheel Loader,,EROPS,None or Unspecified,,None or Unspecified,,,,,,,,2 Valve,,,,,None or Unspecified,Manual,,,,,,,,,,,,,Standard,Conventional
20128,2783974,11500,1906071,149,4.0,1000,,,2/7/2011 0:00,E820,E820,,,,Compact,Wheel Loader - 40.0 to 60.0 Horsepower,Florida,WL,Wheel Loader,,OROPS,None or Unspecified,,None or Unspecified,,,,,,,,2 Valve,,,,,None or Unspecified,None or Unspecified,,,,,,,,,,,,,Standard,Conventional
20128,2783975,16000,1530188,149,1.0,2000,3587.0,Low,2/15/2011 0:00,E820,E820,,,,Compact,Wheel Loader - 40.0 to 60.0 Horsepower,Florida,WL,Wheel Loader,,OROPS,Yes,,None or Unspecified,,,,,,,,2 Valve,,,,,None or Unspecified,None or Unspecified,,,,,,,,,,,,,Standard,Conventional
20128,2783976,13000,1531109,149,1.0,2000,5957.0,Medium,10/27/2010 0:00,E820,E820,,,,Compact,Wheel Loader - 40.0 to 60.0 Horsepower,Florida,WL,Wheel Loader,,OROPS,None or Unspecified,,None or Unspecified,,,,,,,,2 Valve,,,,,None or Unspecified,Manual,,,,,,,,,,,,,Standard,Conventional
20128,2783981,14000,1896667,149,4.0,1000,,,2/7/2011 0:00,E820,E820,,,,Compact,Wheel Loader - 40.0 to 60.0 Horsepower,Florida,WL,Wheel Loader,,OROPS,None or Unspecified,,None or Unspecified,,,,,,,,2 Valve,,,,,None or Unspecified,None or Unspecified,,,,,,,,,,,,,Standard,Conventional
