ModelID,SalesID,SalePrice,MachineID,datasource,auctioneerID,YearMade,MachineHoursCurrentMeter,UsageBand,saledate,fiModelDesc,fiBaseModel,fiSecondaryDesc,fiModelSeries,fiModelDescriptor,ProductSize,fiProductClassDesc,state,ProductGroup,ProductGroupDesc,Drive_System,Enclosure,Forks,Pad_Type,Ride_Control,Stick,Transmission,Turbocharged,Blade_Extension,Blade_Width,Enclosure_Type,Engine_Horsepower,Hydraulics,Pushblock,Ripper,Scarifier,Tip_Control,Tire_Size,Coupler,Coupler_System,Grouser_Tracks,Hydraulics_Flow,Track_Type,Undercarriage_Pad_Width,Stick_Length,Thumb,Pattern_Changer,Grouser_Type,Backhoe_Mounting,Blade_Type,Travel_Controls,Differential_Type,Steering_Controls
20239,1164054,27000,1055977,121,3.0,2005,128.0,Low,9/20/2007 0:00,CX254,CX254,,,,Mini,"Hydraulic Excavator, Track - 4.0 to 5.0 Metric Tons",Indiana,TEX,Track Excavators,,EROPS w AC,,,,,,,,,,,Auxiliary,,,,,,None or Unspecified,,,,Rubber,24 inch,None or Unspecified,None or Unspecified,None or Unspecified,Double,,,,,
20239,1892190,19000,1251565,132,1.0,2003,,,6/25/2008 0:00,CX254,CX254,,,,Mini,"Hydraulic Excavator, Track - 4.0 to 5.0 Metric Tons",Maryland,TEX,Track Excavators,,EROPS,,,,,,,,,,,Auxiliary,,,,,,None or Unspecified,,,,Rubber,None or Unspecified,None or Unspecified,None or Unspecified,None or Unspecified,Double,,,,,
20239,1892191,30000,1108395,132,1.0,2005,,,2/19/2008 0:00,CX254,CX254,,,,Mini,"Hydraulic Excavator, Track - 4.0 to 5.0 Metric Tons",Florida,TEX,Track Excavators,,EROPS w AC,,,,,,,,,,,Auxiliary,,,,,,None or Unspecified,,,,Rubber,None or Unspecified,None or Unspecified,Hydraulic,None or Unspecified,Double,,,,,
20239,1892192,18000,1108395,132,13.0,2005,599.0,Low,6/18/2011 0:00,CX254,CX254,,,,Mini,"Hydraulic Excavator, Track - 4.0 to 5.0 Metric Tons",Kentucky,TEX,Track Excavators,,EROPS w AC,,,,,,,,,,,Auxiliary,,,,,,None or Unspecified,,,,Rubber,None or Unspecified,None or Unspecified,Hydraulic,None or Unspecified,Double,,,,,
20239,1892194,20000,1229766,132,4.0,2003,,,2/11/2008 0:00,CX254,CX254,,,,Mini,"Hydraulic Excavator, Track - 4.0 to 5.0 Metric Tons",Florida,TEX,Track Excavators,,EROPS,,,,,,,,,,,Auxiliary,,,,,,None or Unspecified,,,,Steel,None or Unspecified,None or Unspecified,None or Unspecified,None or Unspecified,Double,,,,,
20239,1892195,13000,1517030,132,1.0,2004,,,2/18/2010 0:00,CX254,CX254,,,,Mini,"Hydraulic Excavator, Track - 4.0 to 5.0 Metric Tons",Florida,TEX,Track Excavators,,EROPS,,,,,,,,,,,Auxiliary,,,,,,None or Unspecified,,,,Steel,None or Unspecified,None or Unspecified,None or Unspecified,None or Unspecified,Double,,,,,
20239,1892432,8500,1534077,132,1.0,2003,,,3/25/2009 0:00,CX254,CX254,,,,Mini,"Hydraulic Excavator, Track - 4.0 to 5.0 Metric Tons",Texas,TEX,Track Excavators,,EROPS,,,,,,,,,,,Auxiliary,,,,,,None or Unspecified,,,,Steel,None or Unspecified,None or Unspecified,None or Unspecified,None or Unspecified,Double,,,,,
20239,1892433,28000,1420386,132,8.0,2005,,,5/29/2008 0:00,CX254,CX254,,,,Mini,"Hydraulic Excavator, Track - 4.0 to 5.0 Metric Tons",Mississippi,TEX,Track Excavators,,EROPS,,,,,,,,,,,Standard,,,,,,None or Unspecified,,,,Steel,None or Unspecified,None or Unspecified,Hydraulic,None or Unspecified,Double,,,,,
20239,1892434,28000,1420386,132,8.0,2005,,,5/28/2008 0:00,CX254,CX254,,,,Mini,"Hydraulic Excavator, Track - 4.0 to 5.0 Metric Tons",Mississippi,TEX,Track Excavators,,EROPS,,,,,,,,,,,Standard,,,,,,None or Unspecified,,,,Steel,None or Unspecified,None or Unspecified,Hydraulic,None or Unspecified,Double,,,,,
20239,1892435,30000,1420386,132,8.0,2005,,,3/26/2008 0:00,CX254,CX254,,,,Mini,"Hydraulic Excavator, Track - 4.0 to 5.0 Metric Tons",Mississippi,TEX,Track Excavators,,EROPS,,,,,,,,,,,Standard,,,,,,None or Unspecified,,,,Steel,None or Unspecified,None or Unspecified,Hydraulic,None or Unspecified,Double,,,,,
20239,1892468,20000,1279511,132,4.0,2003,,,2/14/2008 0:00,CX254,CX254,,,,Mini,"Hydraulic Excavator, Track - 4.0 to 5.0 Metric Tons",Florida,TEX,Track Excavators,,EROPS,,,,,,,,,,,Standard,,,,,,None or Unspecified,,,,Rubber,None or Unspecified,None or Unspecified,None or Unspecified,None or Unspecified,Double,,,,,
20239,1892593,16500,1438531,132,1.0,2004,459.0,Low,2/19/2009 0:00,CX254,CX254,,,,Mini,"Hydraulic Excavator, Track - 4.0 to 5.0 Metric Tons",Florida,TEX,Track Excavators,,EROPS,,,,,,,,,,,Auxiliary,,,,,,None or Unspecified,,,,Steel,None or Unspecified,None or Unspecified,None or Unspecified,None or Unspecified,Double,,,,,
20239,1892675,27000,1396741,132,3.0,2005,,,9/20/2007 0:00,CX254,CX254,,,,Mini,"Hydraulic Excavator, Track - 4.0 to 5.0 Metric Tons",California,TEX,Track Excavators,,EROPS w AC,,,,,,,,,,,Standard,,,,,,None or Unspecified,,,,Steel,None or Unspecified,None or Unspecified,None or Unspecified,None or Unspecified,Double,,,,,
20239,1892676,30000,1309109,132,1.0,2005,,,2/22/2008 0:00,CX254,CX254,,,,Mini,"Hydraulic Excavator, Track - 4.0 to 5.0 Metric Tons",Florida,TEX,Track Excavators,,EROPS,,,,,,,,,,,Standard,,,,,,None or Unspecified,,,,Rubber,None or Unspecified,None or Unspecified,Hydraulic,None or Unspecified,Double,,,,,
20239,1892677,24000,1309109,132,7.0,2005,,,6/4/2008 0:00,CX254,CX254,,,,Mini,"Hydraulic Excavator, Track - 4.0 to 5.0 Metric Tons",Alabama,TEX,Track Excavators,,EROPS,,,,,,,,,,,Standard,,,,,,None or Unspecified,,,,Rubber,None or Unspecified,None or Unspecified,Hydraulic,None or Unspecified,Double,,,,,
20239,1893136,24000,1494302,132,1.0,2004,,,7/20/2007 0:00,CX254,CX254,,,,Mini,"Hydraulic Excavator, Track - 4.0 to 5.0 Metric Tons",Missouri,TEX,Track Excavators,,EROPS,,,,,,,,,,,Standard,,,,,,None or Unspecified,,,,Rubber,None or Unspecified,None or Unspecified,None or Unspecified,None or Unspecified,Double,,,,,
20239,1893137,22000,1546324,132,1.0,2005,,,8/21/2007 0:00,CX254,CX254,,,,Mini,"Hydraulic Excavator, Track - 4.0 to 5.0 Metric Tons",Ohio,TEX,Track Excavators,,EROPS,,,,,,,,,,,Auxiliary,,,,,,None or Unspecified,,,,Steel,None or Unspecified,None or Unspecified,None or Unspecified,None or Unspecified,Double,,,,,
20239,2470103,8500,1766264,136,,2003,0.0,,3/25/2009 0:00,CX254,CX254,,,,Mini,"Hydraulic Excavator, Track - 4.0 to 5.0 Metric Tons",Texas,TEX,Track Excavators,,EROPS,,,,,,,,,,,Auxiliary,,,,,,None or Unspecified,,,,Rubber,None or Unspecified,None or Unspecified,None or Unspecified,None or Unspecified,Double,,,,,
20239,2470104,13000,241725,136,1.0,2004,0.0,,2/15/2010 0:00,CX254,CX254,,,,Mini,"Hydraulic Excavator, Track - 4.0 to 5.0 Metric Tons",Florida,TEX,Track Excavators,,EROPS,,,,,,,,,,,Auxiliary,,,,,,None or Unspecified,,,,Steel,None or Unspecified,None or Unspecified,None or Unspecified,None or Unspecified,Double,,,,,
20239,4409639,16500,1309914,172,1.0,2004,459.0,Low,2/16/2009 0:00,CX254,CX254,,,,Mini,"Hydraulic Excavator, Track - 4.0 to 5.0 Metric Tons",Florida,TEX,Track Excavators,,EROPS,,,,,,,,,,,Auxiliary,,,,,,None or Unspecified,,,,Steel,None or Unspecified,None or Unspecified,None or Unspecified,None or Unspecified,Double,,,,,
20239,4409640,11000,2301184,172,1.0,2004,1221.0,Low,9/29/2011 0:00,CX254,CX254,,,,Mini,"Hydraulic Excavator, Track - 4.0 to 5.0 Metric Tons",Mississippi,TEX,Track Excavators,,EROPS,,,,,,,,,,,Auxiliary,,,,,,None or Unspecified,,,,Steel,None or Unspecified,None or Unspecified,None or Unspecified,None or Unspecified,Double,,,,,
20239,4409642,13000,1383556,172,1.0,2004,1011.0,Low,2/15/2010 0:00,CX254,CX254,,,,Mini,"Hydraulic Excavator, Track - 4.0 to 5.0 Metric Tons",Florida,TEX,Track Excavators,,EROPS,,,,,,,,,,,Auxiliary,,,,,,None or Unspecified,,,,Steel,None or Unspecified,None or Unspecified,None or Unspecified,None or Unspecified,Double,,,,,
