ModelID,SalesID,SalePrice,MachineID,datasource,auctioneerID,YearMade,MachineHoursCurrentMeter,UsageBand,saledate,fiModelDesc,fiBaseModel,fiSecondaryDesc,fiModelSeries,fiModelDescriptor,ProductSize,fiProductClassDesc,state,ProductGroup,ProductGroupDesc,Drive_System,Enclosure,Forks,Pad_Type,Ride_Control,Stick,Transmission,Turbocharged,Blade_Extension,Blade_Width,Enclosure_Type,Engine_Horsepower,Hydraulics,Pushblock,Ripper,Scarifier,Tip_Control,Tire_Size,Coupler,Coupler_System,Grouser_Tracks,Hydraulics_Flow,Track_Type,Undercarriage_Pad_Width,Stick_Length,Thumb,Pattern_Changer,Grouser_Type,Backhoe_Mounting,Blade_Type,Travel_Controls,Differential_Type,Steering_Controls
20236,1152603,10500,1064552,121,3.0,2003,2338.0,Low,11/4/2010 0:00,CX224,CX224,,,,Mini,"Hydraulic Excavator, Track - 2.0 to 3.0 Metric Tons",Tennessee,TEX,Track Excavators,,EROPS,,,,,,,,,,,Auxiliary,,,,,,None or Unspecified,,,,Rubber,None or Unspecified,None or Unspecified,None or Unspecified,None or Unspecified,Double,,,,,
20236,1157887,10500,1005387,121,3.0,2005,635.0,Low,5/12/2011 0:00,CX224,CX224,,,,Mini,"Hydraulic Excavator, Track - 2.0 to 3.0 Metric Tons",Maryland,TEX,Track Excavators,,EROPS,,,,,,,,,,,Auxiliary,,,,,,Manual,,,,Rubber,None or Unspecified,None or Unspecified,None or Unspecified,Yes,Double,,,,,
20236,1888718,9250,1553093,132,14.0,2005,,,3/26/2010 0:00,CX224,CX224,,,,Mini,"Hydraulic Excavator, Track - 2.0 to 3.0 Metric Tons",Indiana,TEX,Track Excavators,,EROPS,,,,,,,,,,,Auxiliary,,,,,,None or Unspecified,,,,Steel,None or Unspecified,None or Unspecified,None or Unspecified,None or Unspecified,Double,,,,,
20236,1892108,17500,1298598,132,1.0,2004,,,2/19/2008 0:00,CX224,CX224,,,,Mini,"Hydraulic Excavator, Track - 2.0 to 3.0 Metric Tons",Florida,TEX,Track Excavators,,EROPS,,,,,,,,,,,Auxiliary,,,,,,None or Unspecified,,,,Rubber,None or Unspecified,None or Unspecified,None or Unspecified,None or Unspecified,Double,,,,,
20236,1892114,17500,1293046,132,1.0,2004,,,2/19/2008 0:00,CX224,CX224,,,,Mini,"Hydraulic Excavator, Track - 2.0 to 3.0 Metric Tons",Florida,TEX,Track Excavators,,EROPS,,,,,,,,,,,Auxiliary,,,,,,None or Unspecified,,,,Rubber,None or Unspecified,None or Unspecified,None or Unspecified,None or Unspecified,Double,,,,,
20236,1892125,23000,1342546,132,1.0,2004,,,10/10/2007 0:00,CX224,CX224,,,,Mini,"Hydraulic Excavator, Track - 2.0 to 3.0 Metric Tons",Florida,TEX,Track Excavators,,EROPS,,,,,,,,,,,Auxiliary,,,,,,None or Unspecified,,,,Rubber,None or Unspecified,None or Unspecified,None or Unspecified,None or Unspecified,Double,,,,,
20236,1892127,17000,1129488,132,1.0,2004,,,3/5/2008 0:00,CX224,CX224,,,,Mini,"Hydraulic Excavator, Track - 2.0 to 3.0 Metric Tons",Texas,TEX,Track Excavators,,EROPS,,,,,,,,,,,Auxiliary,,,,,,None or Unspecified,,,,Rubber,None or Unspecified,None or Unspecified,None or Unspecified,None or Unspecified,Double,,,,,
20236,1892130,19000,1187999,132,4.0,2004,,,2/11/2008 0:00,CX224,CX224,,,,Mini,"Hydraulic Excavator, Track - 2.0 to 3.0 Metric Tons",Florida,TEX,Track Excavators,,EROPS,,,,,,,,,,,Auxiliary,,,,,,None or Unspecified,,,,Rubber,None or Unspecified,None or Unspecified,None or Unspecified,None or Unspecified,Double,,,,,
20236,1892136,18500,1421583,132,1.0,2004,,,10/10/2007 0:00,CX224,CX224,,,,Mini,"Hydraulic Excavator, Track - 2.0 to 3.0 Metric Tons",Florida,TEX,Track Excavators,,EROPS,,,,,,,,,,,Auxiliary,,,,,,None or Unspecified,,,,Rubber,None or Unspecified,None or Unspecified,None or Unspecified,None or Unspecified,Double,,,,,
20236,1892137,17000,1441213,132,1.0,2004,,,3/5/2008 0:00,CX224,CX224,,,,Mini,"Hydraulic Excavator, Track - 2.0 to 3.0 Metric Tons",Texas,TEX,Track Excavators,,EROPS,,,,,,,,,,,Auxiliary,,,,,,None or Unspecified,,,,Rubber,None or Unspecified,None or Unspecified,None or Unspecified,None or Unspecified,Double,,,,,
20236,1892138,19000,1005387,132,1.0,2005,,,10/10/2007 0:00,CX224,CX224,,,,Mini,"Hydraulic Excavator, Track - 2.0 to 3.0 Metric Tons",Florida,TEX,Track Excavators,,EROPS,,,,,,,,,,,Auxiliary,,,,,,Manual,,,,Rubber,None or Unspecified,None or Unspecified,None or Unspecified,Yes,Double,,,,,
20236,1892140,13000,1179001,132,1.0,2003,,,2/19/2008 0:00,CX224,CX224,,,,Mini,"Hydraulic Excavator, Track - 2.0 to 3.0 Metric Tons",Florida,TEX,Track Excavators,,EROPS,,,,,,,,,,,Auxiliary,,,,,,None or Unspecified,,,,Rubber,None or Unspecified,None or Unspecified,None or Unspecified,None or Unspecified,Double,,,,,
20236,1892141,12000,1004794,132,1.0,2005,27.0,Low,2/18/2010 0:00,CX224,CX224,,,,Mini,"Hydraulic Excavator, Track - 2.0 to 3.0 Metric Tons",Florida,TEX,Track Excavators,,EROPS,,,,,,,,,,,Auxiliary,,,,,,Manual,,,,Rubber,None or Unspecified,None or Unspecified,None or Unspecified,Yes,Double,,,,,
20236,1892471,13000,1120690,132,1.0,2003,,,2/22/2008 0:00,CX224,CX224,,,,Mini,"Hydraulic Excavator, Track - 2.0 to 3.0 Metric Tons",Florida,TEX,Track Excavators,,EROPS,,,,,,,,,,,Auxiliary,,,,,,None or Unspecified,,,,Rubber,None or Unspecified,None or Unspecified,None or Unspecified,None or Unspecified,Double,,,,,
20236,1892596,19000,1514173,132,4.0,2004,160.0,Low,2/14/2008 0:00,CX224,CX224,,,,Mini,"Hydraulic Excavator, Track - 2.0 to 3.0 Metric Tons",Florida,TEX,Track Excavators,,EROPS,,,,,,,,,,,Standard,,,,,,None or Unspecified,,,,Steel,None or Unspecified,None or Unspecified,None or Unspecified,None or Unspecified,Double,,,,,
20236,1892597,17500,1189052,132,1.0,2004,,,2/22/2008 0:00,CX224,CX224,,,,Mini,"Hydraulic Excavator, Track - 2.0 to 3.0 Metric Tons",Florida,TEX,Track Excavators,,EROPS,,,,,,,,,,,Auxiliary,,,,,,None or Unspecified,,,,Rubber,None or Unspecified,None or Unspecified,None or Unspecified,None or Unspecified,Double,,,,,
20236,1892598,17500,1333928,132,1.0,2004,,,2/22/2008 0:00,CX224,CX224,,,,Mini,"Hydraulic Excavator, Track - 2.0 to 3.0 Metric Tons",Florida,TEX,Track Excavators,,EROPS,,,,,,,,,,,Auxiliary,,,,,,None or Unspecified,,,,Rubber,None or Unspecified,None or Unspecified,None or Unspecified,None or Unspecified,Double,,,,,
20236,1892601,11500,1333599,132,1.0,2003,,,12/7/2006 0:00,CX224,CX224,,,,Mini,"Hydraulic Excavator, Track - 2.0 to 3.0 Metric Tons",Texas,TEX,Track Excavators,,EROPS,,,,,,,,,,,Standard,,,,,,None or Unspecified,,,,Steel,None or Unspecified,None or Unspecified,None or Unspecified,None or Unspecified,Double,,,,,
20236,1893026,16000,1149889,132,1.0,2003,,,7/20/2007 0:00,CX224,CX224,,,,Mini,"Hydraulic Excavator, Track - 2.0 to 3.0 Metric Tons",Missouri,TEX,Track Excavators,,EROPS,,,,,,,,,,,Standard,,,,,,None or Unspecified,,,,Rubber,None or Unspecified,None or Unspecified,None or Unspecified,None or Unspecified,Double,,,,,
20236,2469972,12000,1362821,136,1.0,2004,0.0,,2/15/2010 0:00,CX224,CX224,,,,Mini,"Hydraulic Excavator, Track - 2.0 to 3.0 Metric Tons",Florida,TEX,Track Excavators,,EROPS,,,,,,,,,,,Auxiliary,,,,,,None or Unspecified,,,,Rubber,None or Unspecified,None or Unspecified,None or Unspecified,None or Unspecified,Double,,,,,
20236,2469975,12000,1032859,136,1.0,2004,0.0,,2/15/2010 0:00,CX224,CX224,,,,Mini,"Hydraulic Excavator, Track - 2.0 to 3.0 Metric Tons",Florida,TEX,Track Excavators,,EROPS,,,,,,,,,,,Auxiliary,,,,,,None or Unspecified,,,,Rubber,None or Unspecified,None or Unspecified,None or Unspecified,Yes,Double,,,,,
20236,2469976,13500,1417837,136,1.0,2005,0.0,,6/24/2010 0:00,CX224,CX224,,,,Mini,"Hydraulic Excavator, Track - 2.0 to 3.0 Metric Tons",Connecticut,TEX,Track Excavators,,EROPS,,,,,,,,,,,Auxiliary,,,,,,None or Unspecified,,,,Rubber,None or Unspecified,None or Unspecified,Hydraulic,None or Unspecified,Double,,,,,
20236,2469978,11500,1506242,136,1.0,2004,39100.0,High,4/9/2009 0:00,CX224,CX224,,,,Mini,"Hydraulic Excavator, Track - 2.0 to 3.0 Metric Tons",Missouri,TEX,Track Excavators,,EROPS,,,,,,,,,,,Auxiliary,,,,,,Manual,,,,Rubber,None or Unspecified,None or Unspecified,None or Unspecified,None or Unspecified,Double,,,,,
20236,2469979,12500,1004794,136,1.0,2005,27.0,Low,2/15/2010 0:00,CX224,CX224,,,,Mini,"Hydraulic Excavator, Track - 2.0 to 3.0 Metric Tons",Florida,TEX,Track Excavators,,EROPS,,,,,,,,,,,Auxiliary,,,,,,Manual,,,,Rubber,None or Unspecified,None or Unspecified,None or Unspecified,Yes,Double,,,,,
