SalesID,2400655
SalePrice,100000
MachineID,1535982
datasource,136
auctioneerID,1.0
YearMade,2000
MachineHoursCurrentMeter,0.0
UsageBand,
saledate,3/27/2008 0:00
fiModelDesc,D375A-3
fiBaseModel,D375
fiSecondaryDesc,A
fiModelSeries,-3
fiModelDescriptor,
ProductSize,Large
fiProductClassDesc,"Track Type Tractor, Dozer - 260.0 + Horsepower"
state,Texas
ProductGroup,TTT
ProductGroupDesc,Track Type Tractors
Drive_System,
Enclosure,EROPS w AC
Forks,
Pad_Type,
Ride_Control,
Stick,
Transmission,Standard
Turbocharged,
Blade_Extension,
Blade_Width,
Enclosure_Type,
Engine_Horsepower,
Hydraulics,2 Valve
Pushblock,
Ripper,None or Unspecified
Scarifier,
Tip_Control,
Tire_Size,
Coupler,
Coupler_System,
Grouser_Tracks,
Hydraulics_Flow,
Track_Type,
Undercarriage_Pad_Width,
Stick_Length,
Thumb,
Pattern_Changer,
Grouser_Type,
Backhoe_Mounting,None or Unspecified
Blade_Type,U
Travel_Controls,None or Unspecified
Differential_Type,
Steering_Controls,
