ModelID,SalesID,SalePrice,MachineID,datasource,auctioneerID,YearMade,MachineHoursCurrentMeter,UsageBand,saledate,fiModelDesc,fiBaseModel,fiSecondaryDesc,fiModelSeries,fiModelDescriptor,ProductSize,fiProductClassDesc,state,ProductGroup,ProductGroupDesc,Drive_System,Enclosure,Forks,Pad_Type,Ride_Control,Stick,Transmission,Turbocharged,Blade_Extension,Blade_Width,Enclosure_Type,Engine_Horsepower,Hydraulics,Pushblock,Ripper,Scarifier,Tip_Control,Tire_Size,Coupler,Coupler_System,Grouser_Tracks,Hydraulics_Flow,Track_Type,Undercarriage_Pad_Width,Stick_Length,Thumb,Pattern_Changer,Grouser_Type,Backhoe_Mounting,Blade_Type,Travel_Controls,Differential_Type,Steering_Controls
20645,1143043,5500,1055371,121,3.0,2004,139.0,Low,7/13/2006 0:00,G524,G524,,,,,Skid Steer Loader - 0.0 to 701.0 Lb Operating Capacity,California,SSL,Skid Steer Loaders,,OROPS,None or Unspecified,,,,,,,,,,Auxiliary,,,,,,None or Unspecified,None or Unspecified,None or Unspecified,Standard,,,,,,,,,,,
20645,1169715,5000,1029175,121,3.0,2004,237.0,Low,4/5/2007 0:00,G524,G524,,,,,Skid Steer Loader - 0.0 to 701.0 Lb Operating Capacity,Illinois,SSL,Skid Steer Loaders,,OROPS,None or Unspecified,,,,,,,,,,Auxiliary,,,,,,None or Unspecified,None or Unspecified,None or Unspecified,Standard,,,,,,,,,,,
