ModelID,SalesID,SalePrice,MachineID,datasource,auctioneerID,YearMade,MachineHoursCurrentMeter,UsageBand,saledate,fiModelDesc,fiBaseModel,fiSecondaryDesc,fiModelSeries,fiModelDescriptor,ProductSize,fiProductClassDesc,state,ProductGroup,ProductGroupDesc,Drive_System,Enclosure,Forks,Pad_Type,Ride_Control,Stick,Transmission,Turbocharged,Blade_Extension,Blade_Width,Enclosure_Type,Engine_Horsepower,Hydraulics,Pushblock,Ripper,Scarifier,Tip_Control,Tire_Size,Coupler,Coupler_System,Grouser_Tracks,Hydraulics_Flow,Track_Type,Undercarriage_Pad_Width,Stick_Length,Thumb,Pattern_Changer,Grouser_Type,Backhoe_Mounting,Blade_Type,Travel_Controls,Differential_Type,Steering_Controls
20750,1898296,11000,1541793,132,2.0,1000,,,2/3/2008 0:00,AX50U,AX50,U,,,Mini,"Hydraulic Excavator, Track - 4.0 to 5.0 Metric Tons",Florida,TEX,Track Excavators,,EROPS,,,,,,,,,,,Standard,,,,,,None or Unspecified,,,,Steel,None or Unspecified,None or Unspecified,None or Unspecified,None or Unspecified,Double,,,,,
20750,1898317,11000,1398903,132,2.0,1000,,,2/8/2008 0:00,AX50U,AX50,U,,,Mini,"Hydraulic Excavator, Track - 4.0 to 5.0 Metric Tons",Florida,TEX,Track Excavators,,EROPS,,,,,,,,,,,Standard,,,,,,None or Unspecified,,,,Steel,None or Unspecified,None or Unspecified,None or Unspecified,None or Unspecified,Double,,,,,
20750,1898318,10500,1398903,132,2.0,1997,,,2/9/2007 0:00,AX50U,AX50,U,,,Mini,"Hydraulic Excavator, Track - 4.0 to 5.0 Metric Tons",Florida,TEX,Track Excavators,,EROPS,,,,,,,,,,,Standard,,,,,,None or Unspecified,,,,Steel,None or Unspecified,None or Unspecified,None or Unspecified,None or Unspecified,Double,,,,,
20750,1898404,10500,1315956,132,2.0,1997,,,2/4/2007 0:00,AX50U,AX50,U,,,Mini,"Hydraulic Excavator, Track - 4.0 to 5.0 Metric Tons",Florida,TEX,Track Excavators,,EROPS,,,,,,,,,,,Standard,,,,,,None or Unspecified,,,,Steel,None or Unspecified,None or Unspecified,None or Unspecified,None or Unspecified,Double,,,,,
20750,4412427,12000,2268454,172,1.0,1000,3096.0,Low,11/17/2011 0:00,AX50U,AX50,U,,,Mini,"Hydraulic Excavator, Track - 4.0 to 5.0 Metric Tons",Nevada,TEX,Track Excavators,,EROPS,,,,,,,,,,,Auxiliary,,,,,,None or Unspecified,,,,Steel,None or Unspecified,None or Unspecified,Hydraulic,None or Unspecified,Double,,,,,
