ModelID,SalesID,SalePrice,MachineID,datasource,auctioneerID,YearMade,MachineHoursCurrentMeter,UsageBand,saledate,fiModelDesc,fiBaseModel,fiSecondaryDesc,fiModelSeries,fiModelDescriptor,ProductSize,fiProductClassDesc,state,ProductGroup,ProductGroupDesc,Drive_System,Enclosure,Forks,Pad_Type,Ride_Control,Stick,Transmission,Turbocharged,Blade_Extension,Blade_Width,Enclosure_Type,Engine_Horsepower,Hydraulics,Pushblock,Ripper,Scarifier,Tip_Control,Tire_Size,Coupler,Coupler_System,Grouser_Tracks,Hydraulics_Flow,Track_Type,Undercarriage_Pad_Width,Stick_Length,Thumb,Pattern_Changer,Grouser_Type,Backhoe_Mounting,Blade_Type,Travel_Controls,Differential_Type,Steering_Controls
208,1160168,14000,1019190,121,3.0,1990,5628.0,Low,8/25/2005 0:00,D37P-2,D37,P,-2,,,"Track Type Tractor, Dozer - 75.0 to 85.0 Horsepower",Kansas,TTT,Track Type Tractors,,OROPS,,,,,Powershift,,,,,,2 Valve,,None or Unspecified,,,,,,,,,,,,,,None or Unspecified,PAT,None or Unspecified,,
208,1734105,12000,1181976,132,1.0,1987,,,3/26/2002 0:00,D37P-2,D37,P,-2,,,"Track Type Tractor, Dozer - 75.0 to 85.0 Horsepower",Maryland,TTT,Track Type Tractors,,EROPS,,,,,Standard,,,,,,2 Valve,,None or Unspecified,,,,,,,,,,,,,,None or Unspecified,PAT,None or Unspecified,,
208,1734145,14000,831294,132,5.0,1987,,,3/22/2002 0:00,D37P-2,D37,P,-2,,,"Track Type Tractor, Dozer - 75.0 to 85.0 Horsepower",Connecticut,TTT,Track Type Tractors,,EROPS,,,,,,,,,,,Auxiliary,,,,,,,,,,,,,,,,,Straight,2 Pedal,,
208,1734185,18750,1181448,132,4.0,1987,,,2/11/1994 0:00,D37P-2,D37,P,-2,,,"Track Type Tractor, Dozer - 75.0 to 85.0 Horsepower",Florida,TTT,Track Type Tractors,,EROPS w AC,,,,,,,,,,,Standard,,,,,,,,,,,,,,,,,No,2 Pedal,,
208,1734193,18000,1051655,132,1.0,1988,,,3/26/1998 0:00,D37P-2,D37,P,-2,,,"Track Type Tractor, Dozer - 75.0 to 85.0 Horsepower",Texas,TTT,Track Type Tractors,,EROPS,,,,,,,,,,,Standard,,,,,,,,,,,,,,,,,No,2 Pedal,,
208,1734247,16000,1208743,132,1.0,1987,,,6/24/2003 0:00,D37P-2,D37,P,-2,,,"Track Type Tractor, Dozer - 75.0 to 85.0 Horsepower",Maryland,TTT,Track Type Tractors,,EROPS,,,,,,,,,,,Standard,,,,,,,,,,,,,,,,,No,2 Pedal,,
208,1734248,17000,1208743,132,1.0,1987,,,6/28/2005 0:00,D37P-2,D37,P,-2,,,"Track Type Tractor, Dozer - 75.0 to 85.0 Horsepower",Maryland,TTT,Track Type Tractors,,EROPS,,,,,,,,,,,Standard,,,,,,,,,,,,,,,,,No,2 Pedal,,
208,1734261,8000,1420437,132,99.0,1994,2951.0,Low,8/12/2011 0:00,D37P-2,D37,P,-2,,,"Track Type Tractor, Dozer - 75.0 to 85.0 Horsepower",Virginia,TTT,Track Type Tractors,,OROPS,,,,,Standard,,,,,,2 Valve,,None or Unspecified,,,,,,,,,,,,,,None or Unspecified,PAT,None or Unspecified,,
208,1734300,20000,1165231,132,23.0,1987,,,5/3/1997 0:00,D37P-2,D37,P,-2,,,"Track Type Tractor, Dozer - 75.0 to 85.0 Horsepower",New Jersey,TTT,Track Type Tractors,,OROPS,,,,,Powershift,,,,,,2 Valve,,None or Unspecified,,,,,,,,,,,,,,None or Unspecified,PAT,None or Unspecified,,
208,1734328,27000,1394049,132,1.0,1987,,,4/28/1995 0:00,D37P-2,D37,P,-2,,,"Track Type Tractor, Dozer - 75.0 to 85.0 Horsepower",Wisconsin,TTT,Track Type Tractors,,EROPS,,,,,,,,,,,Auxiliary,,,,,,,,,,,,,,,,,Straight,2 Pedal,,
208,1734368,18000,1342636,132,6.0,1987,,,11/12/1998 0:00,D37P-2,D37,P,-2,,,"Track Type Tractor, Dozer - 75.0 to 85.0 Horsepower",California,TTT,Track Type Tractors,,EROPS,,,,,,,,,,,Standard,,,,,,,,,,,,,,,,,No,2 Pedal,,
208,1734382,12500,1308295,132,1.0,1987,,,3/26/2002 0:00,D37P-2,D37,P,-2,,,"Track Type Tractor, Dozer - 75.0 to 85.0 Horsepower",Maryland,TTT,Track Type Tractors,,EROPS w AC,,,,,Standard,,,,,,2 Valve,,None or Unspecified,,,,,,,,,,,,,,None or Unspecified,PAT,None or Unspecified,,
208,1734474,21000,1310133,132,1.0,1987,,,4/21/1994 0:00,D37P-2,D37,P,-2,,,"Track Type Tractor, Dozer - 75.0 to 85.0 Horsepower",Texas,TTT,Track Type Tractors,,EROPS,,,,,,,,,,,Standard,,,,,,,,,,,,,,,,,Straight,2 Pedal,,
208,1734495,15000,1278346,132,1.0,1988,,,5/13/1999 0:00,D37P-2,D37,P,-2,,,"Track Type Tractor, Dozer - 75.0 to 85.0 Horsepower",Texas,TTT,Track Type Tractors,,OROPS,,,,,Standard,,,,,,2 Valve,,None or Unspecified,,,,,,,,,,,,,,None or Unspecified,PAT,None or Unspecified,,
208,1734605,17500,1531154,132,23.0,1000,,,3/4/1995 0:00,D37P-2,D37,P,-2,,,"Track Type Tractor, Dozer - 75.0 to 85.0 Horsepower",Pennsylvania,TTT,Track Type Tractors,,EROPS,,,,,,,,,,,Standard,,,,,,,,,,,,,,,,,No,2 Pedal,,
208,1734626,20000,657040,132,2.0,1000,,,3/23/2006 0:00,D37P-2,D37,P,-2,,,"Track Type Tractor, Dozer - 75.0 to 85.0 Horsepower",New Jersey,TTT,Track Type Tractors,,EROPS,,,,,,,,,,,2 Valve,,None or Unspecified,,,,,,,,,,,,,,,,,,
208,1734675,18600,1211182,132,11.0,1987,,,11/30/1994 0:00,D37P-2,D37,P,-2,,,"Track Type Tractor, Dozer - 75.0 to 85.0 Horsepower",Mississippi,TTT,Track Type Tractors,,OROPS,,,,,Standard,,,,,,2 Valve,,None or Unspecified,,,,,,,,,,,,,,None or Unspecified,PAT,None or Unspecified,,
208,1734676,15000,1211182,132,8.0,1988,,,3/24/2004 0:00,D37P-2,D37,P,-2,,,"Track Type Tractor, Dozer - 75.0 to 85.0 Horsepower",Mississippi,TTT,Track Type Tractors,,OROPS,,,,,Standard,,,,,,2 Valve,,None or Unspecified,,,,,,,,,,,,,,None or Unspecified,PAT,None or Unspecified,,
208,1734701,17000,1288565,132,23.0,1988,,,11/4/1995 0:00,D37P-2,D37,P,-2,,,"Track Type Tractor, Dozer - 75.0 to 85.0 Horsepower",Pennsylvania,TTT,Track Type Tractors,,OROPS,,,,,Powershift,,,,,,2 Valve,,None or Unspecified,,,,,,,,,,,,,,None or Unspecified,PAT,None or Unspecified,,
208,1734743,25000,1365081,132,1.0,1987,,,7/16/1996 0:00,D37P-2,D37,P,-2,,,"Track Type Tractor, Dozer - 75.0 to 85.0 Horsepower",Minnesota,TTT,Track Type Tractors,,EROPS w AC,,,,,,,,,,,Standard,,,,,,,,,,,,,,,,,No,2 Pedal,,
208,1734749,13000,772036,132,1.0,1000,,,9/29/2003 0:00,D37P-2,D37,P,-2,,,"Track Type Tractor, Dozer - 75.0 to 85.0 Horsepower",Minnesota,TTT,Track Type Tractors,,EROPS,,,,,,,,,,,Standard,,,,,,,,,,,,,,,,,No,2 Pedal,,
208,1734824,12000,1501042,132,18.0,1988,,,5/20/2000 0:00,D37P-2,D37,P,-2,,,"Track Type Tractor, Dozer - 75.0 to 85.0 Horsepower",New Jersey,TTT,Track Type Tractors,,EROPS,,,,,,,,,,,Standard,,,,,,,,,,,,,,,,,No,2 Pedal,,
208,1734859,17000,1201002,132,2.0,1988,,,3/31/2001 0:00,D37P-2,D37,P,-2,,,"Track Type Tractor, Dozer - 75.0 to 85.0 Horsepower",New Jersey,TTT,Track Type Tractors,,EROPS,,,,,,,,,,,Standard,,,,,,,,,,,,,,,,,No,2 Pedal,,
208,1734881,22000,1550629,132,1.0,1000,,,9/24/1999 0:00,D37P-2,D37,P,-2,,,"Track Type Tractor, Dozer - 75.0 to 85.0 Horsepower",Texas,TTT,Track Type Tractors,,EROPS,,,,,,,,,,,Standard,,,,,,,,,,,,,,,,,No,2 Pedal,,
208,1734984,14000,16236,132,23.0,1000,,,9/30/1995 0:00,D37P-2,D37,P,-2,,,"Track Type Tractor, Dozer - 75.0 to 85.0 Horsepower",New Jersey,TTT,Track Type Tractors,,EROPS w AC,,,,,Powershift,,,,,,2 Valve,,Single Shank,,,,,,,,,,,,,,None or Unspecified,PAT,None or Unspecified,,
208,1736239,13750,1379363,132,9.0,1000,,,2/17/2003 0:00,D37P-2,D37,P,-2,,,"Track Type Tractor, Dozer - 75.0 to 85.0 Horsepower",Florida,TTT,Track Type Tractors,,EROPS,,,,,,,,,,,Standard,,,,,,,,,,,,,,,,,No,2 Pedal,,
208,1736360,15500,1287198,132,1.0,1000,,,9/17/2003 0:00,D37P-2,D37,P,-2,,,"Track Type Tractor, Dozer - 75.0 to 85.0 Horsepower",Texas,TTT,Track Type Tractors,,EROPS w AC,,,,,,,,,,,Standard,,,,,,,,,,,,,,,,,Straight,2 Pedal,,
208,1736701,19500,1544684,132,2.0,1990,,,5/30/1998 0:00,D37P-2,D37,P,-2,,,"Track Type Tractor, Dozer - 75.0 to 85.0 Horsepower",Alabama,TTT,Track Type Tractors,,EROPS,,,,,Standard,,,,,,2 Valve,,None or Unspecified,,,,,,,,,,,,,,None or Unspecified,PAT,None or Unspecified,,
208,1737195,18000,1081944,132,1.0,1991,,,11/15/2000 0:00,D37P-2,D37,P,-2,,,"Track Type Tractor, Dozer - 75.0 to 85.0 Horsepower",Texas,TTT,Track Type Tractors,,EROPS w AC,,,,,Hydrostatic,,,,,,2 Valve,,None or Unspecified,,,,,,,,,,,,,,None or Unspecified,PAT,None or Unspecified,,
208,1737284,15500,1102647,132,9.0,1000,,,2/18/2002 0:00,D37P-2,D37,P,-2,,,"Track Type Tractor, Dozer - 75.0 to 85.0 Horsepower",Florida,TTT,Track Type Tractors,,EROPS w AC,,,,,Powershift,,,,,,2 Valve,,None or Unspecified,,,,,,,,,,,,,,None or Unspecified,PAT,None or Unspecified,,
208,1737285,14250,1102647,132,9.0,1000,,,5/16/2002 0:00,D37P-2,D37,P,-2,,,"Track Type Tractor, Dozer - 75.0 to 85.0 Horsepower",South Carolina,TTT,Track Type Tractors,,EROPS w AC,,,,,Powershift,,,,,,2 Valve,,None or Unspecified,,,,,,,,,,,,,,None or Unspecified,PAT,None or Unspecified,,
208,1737325,14000,1454449,132,4.0,1000,,,5/21/2004 0:00,D37P-2,D37,P,-2,,,"Track Type Tractor, Dozer - 75.0 to 85.0 Horsepower",Georgia,TTT,Track Type Tractors,,EROPS w AC,,,,,Standard,,,,,,2 Valve,,None or Unspecified,,,,,,,,,,,,,,None or Unspecified,PAT,None or Unspecified,,
208,1738179,19500,1356662,132,11.0,1992,,,5/26/1999 0:00,D37P-2,D37,P,-2,,,"Track Type Tractor, Dozer - 75.0 to 85.0 Horsepower",Mississippi,TTT,Track Type Tractors,,EROPS w AC,,,,,Standard,,,,,,2 Valve,,None or Unspecified,,,,,,,,,,,,,,None or Unspecified,PAT,None or Unspecified,,
208,1738185,17500,1463796,132,6.0,1992,,,9/29/1998 0:00,D37P-2,D37,P,-2,,,"Track Type Tractor, Dozer - 75.0 to 85.0 Horsepower",New Jersey,TTT,Track Type Tractors,,EROPS w AC,,,,,,,,,,,Standard,,,,,,,,,,,,,,,,,No,2 Pedal,,
208,1741563,23500,435700,132,2.0,1993,,,12/4/1998 0:00,D37P-2,D37,P,-2,,,"Track Type Tractor, Dozer - 75.0 to 85.0 Horsepower",Florida,TTT,Track Type Tractors,,EROPS,,,,,,,,,,,Standard,,,,,,,,,,,,,,,,,No,2 Pedal,,
208,1741670,18500,1444937,132,4.0,1992,,,2/11/2002 0:00,D37P-2,D37,P,-2,,,"Track Type Tractor, Dozer - 75.0 to 85.0 Horsepower",Florida,TTT,Track Type Tractors,,EROPS,,,,,,,,,,,Standard,,,,,,,,,,,,,,,,,No,2 Pedal,,
208,1741750,19000,1536569,132,1.0,1993,,,4/27/2000 0:00,D37P-2,D37,P,-2,,,"Track Type Tractor, Dozer - 75.0 to 85.0 Horsepower",Florida,TTT,Track Type Tractors,,OROPS,,,,,Standard,,,,,,2 Valve,,None or Unspecified,,,,,,,,,,,,,,None or Unspecified,PAT,None or Unspecified,,
208,1741780,22000,1075408,132,2.0,1993,,,7/13/2001 0:00,D37P-2,D37,P,-2,,,"Track Type Tractor, Dozer - 75.0 to 85.0 Horsepower",Maryland,TTT,Track Type Tractors,,OROPS,,,,,Standard,,,,,,2 Valve,,None or Unspecified,,,,,,,,,,,,,,None or Unspecified,None or Unspecified,None or Unspecified,,
208,1741912,28000,1506819,132,6.0,1993,,,11/18/1998 0:00,D37P-2,D37,P,-2,,,"Track Type Tractor, Dozer - 75.0 to 85.0 Horsepower",Wisconsin,TTT,Track Type Tractors,,EROPS,,,,,Standard,,,,,,2 Valve,,Single Shank,,,,,,,,,,,,,,None or Unspecified,PAT,None or Unspecified,,
208,1741940,22000,1102195,132,2.0,1993,,,10/23/1999 0:00,D37P-2,D37,P,-2,,,"Track Type Tractor, Dozer - 75.0 to 85.0 Horsepower",Florida,TTT,Track Type Tractors,,OROPS,,,,,Standard,,,,,,2 Valve,,None or Unspecified,,,,,,,,,,,,,,None or Unspecified,PAT,None or Unspecified,,
208,1742015,29250,1200899,132,9.0,1993,,,2/21/2001 0:00,D37P-2,D37,P,-2,,,"Track Type Tractor, Dozer - 75.0 to 85.0 Horsepower",Florida,TTT,Track Type Tractors,,EROPS,,,,,Standard,,,,,,2 Valve,,None or Unspecified,,,,,,,,,,,,,,None or Unspecified,PAT,None or Unspecified,,
208,1742037,41500,1468129,132,7.0,1993,,,3/7/1997 0:00,D37P-2,D37,P,-2,,,"Track Type Tractor, Dozer - 75.0 to 85.0 Horsepower",Alabama,TTT,Track Type Tractors,,EROPS,,,,,,,,,,,Standard,,,,,,,,,,,,,,,,,No,2 Pedal,,
208,1742287,17500,1254690,132,1.0,1993,,,9/29/2005 0:00,D37P-2,D37,P,-2,,,"Track Type Tractor, Dozer - 75.0 to 85.0 Horsepower",Texas,TTT,Track Type Tractors,,EROPS,,,,,,,,,,,Auxiliary,,,,,,,,,,,,,,,,,No,2 Pedal,,
208,1745245,15500,1196059,132,1.0,1000,,,5/17/2000 0:00,D37P-2,D37,P,-2,,,"Track Type Tractor, Dozer - 75.0 to 85.0 Horsepower",Texas,TTT,Track Type Tractors,,OROPS,,,,,Standard,,,,,,2 Valve,,None or Unspecified,,,,,,,,,,,,,,None or Unspecified,PAT,None or Unspecified,,
208,1762453,20000,1403598,132,6.0,1989,,,12/7/1995 0:00,D37P-2,D37,P,-2,,,"Track Type Tractor, Dozer - 75.0 to 85.0 Horsepower",Maryland,TTT,Track Type Tractors,,OROPS,,,,,Standard,,,,,,2 Valve,,None or Unspecified,,,,,,,,,,,,,,None or Unspecified,PAT,None or Unspecified,,
208,1762454,19000,1402535,132,7.0,1987,,,3/5/1998 0:00,D37P-2,D37,P,-2,,,"Track Type Tractor, Dozer - 75.0 to 85.0 Horsepower",Alabama,TTT,Track Type Tractors,,OROPS,,,,,Standard,,,,,,2 Valve,,None or Unspecified,,,,,,,,,,,,,,None or Unspecified,PAT,None or Unspecified,,
208,1762455,8500,1343099,132,1.0,1989,4834.0,Low,5/18/2011 0:00,D37P-2,D37,P,-2,,,"Track Type Tractor, Dozer - 75.0 to 85.0 Horsepower",Florida,TTT,Track Type Tractors,,OROPS,,,,,Standard,,,,,,2 Valve,,None or Unspecified,,,,,,,,,,,,,,None or Unspecified,PAT,None or Unspecified,,
208,1762458,12500,1558224,132,1.0,1989,,,3/29/2001 0:00,D37P-2,D37,P,-2,,,"Track Type Tractor, Dozer - 75.0 to 85.0 Horsepower",Maryland,TTT,Track Type Tractors,,OROPS,,,,,Standard,,,,,,2 Valve,,None or Unspecified,,,,,,,,,,,,,,None or Unspecified,PAT,None or Unspecified,,
208,1762460,27000,1486485,132,2.0,1988,,,2/10/1994 0:00,D37P-2,D37,P,-2,,,"Track Type Tractor, Dozer - 75.0 to 85.0 Horsepower",Florida,TTT,Track Type Tractors,,OROPS,,,,,Powershift,,,,,,2 Valve,,None or Unspecified,,,,,,,,,,,,,,None or Unspecified,PAT,None or Unspecified,,
208,1762461,15000,1486485,132,4.0,1989,,,2/11/2002 0:00,D37P-2,D37,P,-2,,,"Track Type Tractor, Dozer - 75.0 to 85.0 Horsepower",Florida,TTT,Track Type Tractors,,OROPS,,,,,Powershift,,,,,,2 Valve,,None or Unspecified,,,,,,,,,,,,,,None or Unspecified,PAT,None or Unspecified,,
208,1762462,21000,1090786,132,1.0,1989,,,7/23/1996 0:00,D37P-2,D37,P,-2,,,"Track Type Tractor, Dozer - 75.0 to 85.0 Horsepower",Texas,TTT,Track Type Tractors,,OROPS,,,,,Standard,,,,,,2 Valve,,None or Unspecified,,,,,,,,,,,,,,None or Unspecified,PAT,None or Unspecified,,
208,1762463,17000,1259089,132,1.0,1989,,,4/9/2002 0:00,D37P-2,D37,P,-2,,,"Track Type Tractor, Dozer - 75.0 to 85.0 Horsepower",Georgia,TTT,Track Type Tractors,,OROPS,,,,,Standard,,,,,,2 Valve,,None or Unspecified,,,,,,,,,,,,,,None or Unspecified,PAT,None or Unspecified,,
208,1762464,17000,1019190,132,4.0,1990,,,2/9/2000 0:00,D37P-2,D37,P,-2,,,"Track Type Tractor, Dozer - 75.0 to 85.0 Horsepower",Florida,TTT,Track Type Tractors,,OROPS,,,,,Powershift,,,,,,2 Valve,,None or Unspecified,,,,,,,,,,,,,,None or Unspecified,PAT,None or Unspecified,,
208,1762466,14000,1019190,132,1.0,1000,,,6/8/2005 0:00,D37P-2,D37,P,-2,,,"Track Type Tractor, Dozer - 75.0 to 85.0 Horsepower",Missouri,TTT,Track Type Tractors,,OROPS,,,,,Powershift,,,,,,2 Valve,,None or Unspecified,,,,,,,,,,,,,,None or Unspecified,PAT,None or Unspecified,,
208,1762468,15000,1208110,132,1.0,1989,,,3/29/2001 0:00,D37P-2,D37,P,-2,,,"Track Type Tractor, Dozer - 75.0 to 85.0 Horsepower",Maryland,TTT,Track Type Tractors,,OROPS,,,,,Standard,,,,,,2 Valve,,None or Unspecified,,,,,,,,,,,,,,None or Unspecified,PAT,None or Unspecified,,
208,1762469,18000,1121284,132,15.0,1989,,,3/27/2003 0:00,D37P-2,D37,P,-2,,,"Track Type Tractor, Dozer - 75.0 to 85.0 Horsepower",Pennsylvania,TTT,Track Type Tractors,,OROPS,,,,,Powershift,,,,,,2 Valve,,None or Unspecified,,,,,,,,,,,,,,None or Unspecified,PAT,None or Unspecified,,
208,1762470,14500,216531,132,1.0,1989,,,9/28/2001 0:00,D37P-2,D37,P,-2,,,"Track Type Tractor, Dozer - 75.0 to 85.0 Horsepower",North Carolina,TTT,Track Type Tractors,,OROPS,,,,,Standard,,,,,,2 Valve,,None or Unspecified,,,,,,,,,,,,,,None or Unspecified,PAT,None or Unspecified,,
208,1762471,14000,1380884,132,1.0,1989,,,6/16/1998 0:00,D37P-2,D37,P,-2,,,"Track Type Tractor, Dozer - 75.0 to 85.0 Horsepower",Washington,TTT,Track Type Tractors,,EROPS,,,,,Standard,,,,,,2 Valve,,None or Unspecified,,,,,,,,,,,,,,None or Unspecified,PAT,None or Unspecified,,
208,1762473,28000,1368495,132,1.0,1989,,,3/7/1997 0:00,D37P-2,D37,P,-2,,,"Track Type Tractor, Dozer - 75.0 to 85.0 Horsepower",Illinois,TTT,Track Type Tractors,,OROPS,,,,,Standard,,,,,,2 Valve,,None or Unspecified,,,,,,,,,,,,,,None or Unspecified,PAT,None or Unspecified,,
208,1762475,19250,1165975,132,10.0,1989,,,3/10/2004 0:00,D37P-2,D37,P,-2,,,"Track Type Tractor, Dozer - 75.0 to 85.0 Horsepower",Louisiana,TTT,Track Type Tractors,,OROPS,,,,,Standard,,,,,,2 Valve,,None or Unspecified,,,,,,,,,,,,,,None or Unspecified,PAT,None or Unspecified,,
208,1762482,14500,1474139,132,1.0,1989,,,6/28/2005 0:00,D37P-2,D37,P,-2,,,"Track Type Tractor, Dozer - 75.0 to 85.0 Horsepower",Maryland,TTT,Track Type Tractors,,EROPS,,,,,Powershift,,,,,,2 Valve,,None or Unspecified,,,,,,,,,,,,,,None or Unspecified,PAT,None or Unspecified,,
208,1762485,29000,1394923,132,15.0,1989,,,4/23/1998 0:00,D37P-2,D37,P,-2,,,"Track Type Tractor, Dozer - 75.0 to 85.0 Horsepower",Pennsylvania,TTT,Track Type Tractors,,OROPS,,,,,Powershift,,,,,,2 Valve,,None or Unspecified,,,,,,,,,,,,,,None or Unspecified,PAT,None or Unspecified,,
208,1762486,27500,1443412,132,15.0,1989,,,10/5/1995 0:00,D37P-2,D37,P,-2,,,"Track Type Tractor, Dozer - 75.0 to 85.0 Horsepower",Pennsylvania,TTT,Track Type Tractors,,OROPS,,,,,Powershift,,,,,,2 Valve,,None or Unspecified,,,,,,,,,,,,,,None or Unspecified,PAT,None or Unspecified,,
208,1762487,18500,1249945,132,10.0,1990,,,6/27/2002 0:00,D37P-2,D37,P,-2,,,"Track Type Tractor, Dozer - 75.0 to 85.0 Horsepower",Louisiana,TTT,Track Type Tractors,,OROPS,,,,,Standard,,,,,,2 Valve,,None or Unspecified,,,,,,,,,,,,,,None or Unspecified,PAT,None or Unspecified,,
208,1762489,20500,1477633,132,2.0,1989,,,2/8/1995 0:00,D37P-2,D37,P,-2,,,"Track Type Tractor, Dozer - 75.0 to 85.0 Horsepower",Florida,TTT,Track Type Tractors,,OROPS,,,,,Standard,,,,,,2 Valve,,None or Unspecified,,,,,,,,,,,,,,None or Unspecified,PAT,Pedal,,
208,1762490,16000,1477633,132,2.0,1989,,,12/14/2002 0:00,D37P-2,D37,P,-2,,,"Track Type Tractor, Dozer - 75.0 to 85.0 Horsepower",Pennsylvania,TTT,Track Type Tractors,,OROPS,,,,,Standard,,,,,,2 Valve,,None or Unspecified,,,,,,,,,,,,,,None or Unspecified,PAT,Pedal,,
208,1762492,21000,1451075,132,2.0,1989,,,2/5/1997 0:00,D37P-2,D37,P,-2,,,"Track Type Tractor, Dozer - 75.0 to 85.0 Horsepower",Florida,TTT,Track Type Tractors,,OROPS,,,,,Standard,,,,,,2 Valve,,None or Unspecified,,,,,,,,,,,,,,None or Unspecified,None or Unspecified,None or Unspecified,,
208,1762493,17000,1318336,132,1.0,1990,,,3/30/2004 0:00,D37P-2,D37,P,-2,,,"Track Type Tractor, Dozer - 75.0 to 85.0 Horsepower",Washington,TTT,Track Type Tractors,,OROPS,,,,,Standard,,,,,,2 Valve,,None or Unspecified,,,,,,,,,,,,,,None or Unspecified,PAT,None or Unspecified,,
208,1762494,17000,1187986,132,10.0,1000,,,5/18/2000 0:00,D37P-2,D37,P,-2,,,"Track Type Tractor, Dozer - 75.0 to 85.0 Horsepower",Louisiana,TTT,Track Type Tractors,,OROPS,,,,,Standard,,,,,,2 Valve,,None or Unspecified,,,,,,,,,,,,,,None or Unspecified,PAT,None or Unspecified,,
208,1762495,35000,1308802,132,99.0,1989,1728.0,Low,5/17/1994 0:00,D37P-2,D37,P,-2,,,"Track Type Tractor, Dozer - 75.0 to 85.0 Horsepower",Oregon,TTT,Track Type Tractors,,OROPS,,,,,Standard,,,,,,2 Valve,,None or Unspecified,,,,,,,,,,,,,,None or Unspecified,PAT,None or Unspecified,,
208,1762498,13500,1410617,132,2.0,1990,,,3/23/2006 0:00,D37P-2,D37,P,-2,,,"Track Type Tractor, Dozer - 75.0 to 85.0 Horsepower",New Jersey,TTT,Track Type Tractors,,OROPS,,,,,Standard,,,,,,2 Valve,,None or Unspecified,,,,,,,,,,,,,,None or Unspecified,PAT,None or Unspecified,,
208,1762500,16500,1455317,132,10.0,1990,,,6/15/2001 0:00,D37P-2,D37,P,-2,,,"Track Type Tractor, Dozer - 75.0 to 85.0 Horsepower",Louisiana,TTT,Track Type Tractors,,OROPS,,,,,Standard,,,,,,2 Valve,,None or Unspecified,,,,,,,,,,,,,,None or Unspecified,PAT,None or Unspecified,,
208,1762501,21500,1181527,132,15.0,1990,,,5/5/2005 0:00,D37P-2,D37,P,-2,,,"Track Type Tractor, Dozer - 75.0 to 85.0 Horsepower",Pennsylvania,TTT,Track Type Tractors,,OROPS,,,,,Powershift,,,,,,2 Valve,,None or Unspecified,,,,,,,,,,,,,,None or Unspecified,PAT,None or Unspecified,,
208,1762502,15000,1267682,132,1.0,1990,,,6/14/2000 0:00,D37P-2,D37,P,-2,,,"Track Type Tractor, Dozer - 75.0 to 85.0 Horsepower",Texas,TTT,Track Type Tractors,,OROPS,,,,,Standard,,,,,,2 Valve,,None or Unspecified,,,,,,,,,,,,,,None or Unspecified,PAT,None or Unspecified,,
208,1762504,20000,109348,132,10.0,1990,,,1/29/1998 0:00,D37P-2,D37,P,-2,,,"Track Type Tractor, Dozer - 75.0 to 85.0 Horsepower",Louisiana,TTT,Track Type Tractors,,OROPS,,,,,Standard,,,,,,2 Valve,,None or Unspecified,,,,,,,,,,,,,,None or Unspecified,PAT,None or Unspecified,,
208,1762505,23000,109348,132,10.0,1990,,,4/23/1998 0:00,D37P-2,D37,P,-2,,,"Track Type Tractor, Dozer - 75.0 to 85.0 Horsepower",Louisiana,TTT,Track Type Tractors,,OROPS,,,,,Standard,,,,,,2 Valve,,None or Unspecified,,,,,,,,,,,,,,None or Unspecified,PAT,None or Unspecified,,
208,1762506,20000,1213867,132,1.0,1990,,,4/8/1999 0:00,D37P-2,D37,P,-2,,,"Track Type Tractor, Dozer - 75.0 to 85.0 Horsepower",Georgia,TTT,Track Type Tractors,,OROPS,,,,,Standard,,,,,,2 Valve,,None or Unspecified,,,,,,,,,,,,,,None or Unspecified,PAT,None or Unspecified,,
208,1762507,30000,1296560,132,1.0,1990,,,9/20/1994 0:00,D37P-2,D37,P,-2,,,"Track Type Tractor, Dozer - 75.0 to 85.0 Horsepower",Texas,TTT,Track Type Tractors,,OROPS,,,,,Standard,,,,,,2 Valve,,None or Unspecified,,,,,,,,,,,,,,None or Unspecified,PAT,None or Unspecified,,
208,1762509,19000,1319638,132,1.0,1990,,,3/19/1998 0:00,D37P-2,D37,P,-2,,,"Track Type Tractor, Dozer - 75.0 to 85.0 Horsepower",Washington,TTT,Track Type Tractors,,OROPS,,,,,Standard,,,,,,2 Valve,,None or Unspecified,,,,,,,,,,,,,,None or Unspecified,PAT,None or Unspecified,,
208,1762510,19000,1174091,132,1.0,1990,,,9/26/2000 0:00,D37P-2,D37,P,-2,,,"Track Type Tractor, Dozer - 75.0 to 85.0 Horsepower",Washington,TTT,Track Type Tractors,,OROPS,,,,,Standard,,,,,,2 Valve,,None or Unspecified,,,,,,,,,,,,,,None or Unspecified,PAT,None or Unspecified,,
208,1762511,30000,1209026,132,1.0,1990,,,9/20/1994 0:00,D37P-2,D37,P,-2,,,"Track Type Tractor, Dozer - 75.0 to 85.0 Horsepower",Texas,TTT,Track Type Tractors,,OROPS,,,,,Standard,,,,,,2 Valve,,None or Unspecified,,,,,,,,,,,,,,None or Unspecified,PAT,None or Unspecified,,
208,1762512,20000,1456637,132,6.0,1991,,,2/23/1999 0:00,D37P-2,D37,P,-2,,,"Track Type Tractor, Dozer - 75.0 to 85.0 Horsepower",Texas,TTT,Track Type Tractors,,OROPS,,,,,Standard,,,,,,2 Valve,,None or Unspecified,,,,,,,,,,,,,,None or Unspecified,PAT,None or Unspecified,,
208,1762513,17000,1456637,132,1.0,1991,,,8/26/1999 0:00,D37P-2,D37,P,-2,,,"Track Type Tractor, Dozer - 75.0 to 85.0 Horsepower",Texas,TTT,Track Type Tractors,,OROPS,,,,,Standard,,,,,,2 Valve,,None or Unspecified,,,,,,,,,,,,,,None or Unspecified,PAT,None or Unspecified,,
208,1762514,14000,1456637,132,1.0,1991,,,6/27/2000 0:00,D37P-2,D37,P,-2,,,"Track Type Tractor, Dozer - 75.0 to 85.0 Horsepower",Colorado,TTT,Track Type Tractors,,OROPS,,,,,Standard,,,,,,2 Valve,,None or Unspecified,,,,,,,,,,,,,,None or Unspecified,PAT,None or Unspecified,,
208,1762516,8250,1168449,132,10.0,1991,,,6/27/2001 0:00,D37P-2,D37,P,-2,,,"Track Type Tractor, Dozer - 75.0 to 85.0 Horsepower",Louisiana,TTT,Track Type Tractors,,OROPS,,,,,Standard,,,,,,2 Valve,,None or Unspecified,,,,,,,,,,,,,,None or Unspecified,PAT,None or Unspecified,,
208,1762522,17000,1109519,132,1.0,1992,,,4/9/2002 0:00,D37P-2,D37,P,-2,,,"Track Type Tractor, Dozer - 75.0 to 85.0 Horsepower",Georgia,TTT,Track Type Tractors,,EROPS,,,,,Standard,,,,,,2 Valve,,None or Unspecified,,,,,,,,,,,,,,None or Unspecified,PAT,None or Unspecified,,
208,1762523,28000,1434789,132,1.0,1991,,,8/28/1997 0:00,D37P-2,D37,P,-2,,,"Track Type Tractor, Dozer - 75.0 to 85.0 Horsepower",Texas,TTT,Track Type Tractors,,OROPS,,,,,Standard,,,,,,2 Valve,,None or Unspecified,,,,,,,,,,,,,,None or Unspecified,PAT,None or Unspecified,,
208,1762524,23000,1151441,132,4.0,1991,,,2/4/1999 0:00,D37P-2,D37,P,-2,,,"Track Type Tractor, Dozer - 75.0 to 85.0 Horsepower",Florida,TTT,Track Type Tractors,,OROPS,,,,,Standard,,,,,,2 Valve,,None or Unspecified,,,,,,,,,,,,,,None or Unspecified,PAT,None or Unspecified,,
208,1763848,22000,1062679,132,2.0,1991,,,11/13/1999 0:00,D37P-2,D37,P,-2,,,"Track Type Tractor, Dozer - 75.0 to 85.0 Horsepower",Wisconsin,TTT,Track Type Tractors,,EROPS w AC,,,,,,,,,,,,,,,,,,,,,,,,,,,,,,,
208,2400440,14000,1523359,136,1.0,1000,0.0,,12/18/2009 0:00,D37P-2,D37,P,-2,,,"Track Type Tractor, Dozer - 75.0 to 85.0 Horsepower",Missouri,TTT,Track Type Tractors,,EROPS,,,,,Standard,,,,,,2 Valve,,None or Unspecified,,,,,,,,,,,,,,None or Unspecified,PAT,None or Unspecified,,
208,2401603,16000,1081944,136,1.0,1000,0.0,,8/26/2009 0:00,D37P-2,D37,P,-2,,,"Track Type Tractor, Dozer - 75.0 to 85.0 Horsepower",Texas,TTT,Track Type Tractors,,EROPS w AC,,,,,Hydrostatic,,,,,,2 Valve,,None or Unspecified,,,,,,,,,,,,,,None or Unspecified,PAT,None or Unspecified,,
208,2411951,12000,1286196,136,2.0,1000,0.0,,3/27/2008 0:00,D37P-2,D37,P,-2,,,"Track Type Tractor, Dozer - 75.0 to 85.0 Horsepower",New Jersey,TTT,Track Type Tractors,,OROPS,,,,,Standard,,,,,,2 Valve,,None or Unspecified,,,,,,,,,,,,,,None or Unspecified,PAT,None or Unspecified,,
208,2411953,9250,1286196,136,2.0,1989,0.0,,6/7/2008 0:00,D37P-2,D37,P,-2,,,"Track Type Tractor, Dozer - 75.0 to 85.0 Horsepower",Connecticut,TTT,Track Type Tractors,,OROPS,,,,,Standard,,,,,,2 Valve,,None or Unspecified,,,,,,,,,,,,,,None or Unspecified,PAT,None or Unspecified,,
208,2411954,8500,1121284,136,15.0,1000,0.0,,7/9/2008 0:00,D37P-2,D37,P,-2,,,"Track Type Tractor, Dozer - 75.0 to 85.0 Horsepower",Texas,TTT,Track Type Tractors,,OROPS,,,,,Powershift,,,,,,2 Valve,,None or Unspecified,,,,,,,,,,,,,,None or Unspecified,PAT,None or Unspecified,,
208,2411958,8000,1403082,136,1.0,1000,0.0,,4/4/2007 0:00,D37P-2,D37,P,-2,,,"Track Type Tractor, Dozer - 75.0 to 85.0 Horsepower",Maryland,TTT,Track Type Tractors,,OROPS,,,,,Standard,,,,,,2 Valve,,None or Unspecified,,,,,,,,,,,,,,None or Unspecified,PAT,None or Unspecified,,
208,2411961,19000,1756116,136,1.0,1000,0.0,,12/5/2007 0:00,D37P-2,D37,P,-2,,,"Track Type Tractor, Dozer - 75.0 to 85.0 Horsepower",Illinois,TTT,Track Type Tractors,,OROPS,,,,,Standard,,,,,,2 Valve,,None or Unspecified,,,,,,,,,,,,,,None or Unspecified,PAT,None or Unspecified,,
208,2692055,14000,1530421,149,1.0,1988,0.0,,3/9/2011 0:00,D37P-2,D37,P,-2,,,"Track Type Tractor, Dozer - 75.0 to 85.0 Horsepower",Texas,TTT,Track Type Tractors,,OROPS,,,,,Standard,,,,,,2 Valve,,None or Unspecified,,,,,,,,,,,,,,None or Unspecified,PAT,None or Unspecified,,
208,2692120,11500,1400334,149,1.0,1998,1553.0,Low,10/19/2010 0:00,D37P-2,D37,P,-2,,,"Track Type Tractor, Dozer - 75.0 to 85.0 Horsepower",Maryland,TTT,Track Type Tractors,,OROPS,,,,,Powershift,,,,,,2 Valve,,None or Unspecified,,,,,,,,,,,,,,None or Unspecified,PAT,None or Unspecified,,
208,2692132,13000,1173086,149,15.0,1987,0.0,,9/30/2010 0:00,D37P-2,D37,P,-2,,,"Track Type Tractor, Dozer - 75.0 to 85.0 Horsepower",Pennsylvania,TTT,Track Type Tractors,,OROPS,,,,,Powershift,,,,,,2 Valve,,None or Unspecified,,,,,,,,,,,,,,None or Unspecified,PAT,None or Unspecified,,
208,2692138,15500,1332008,149,1.0,1998,5877.0,Medium,3/25/2011 0:00,D37P-2,D37,P,-2,,,"Track Type Tractor, Dozer - 75.0 to 85.0 Horsepower",Missouri,TTT,Track Type Tractors,,OROPS,,,,,Standard,,,,,,2 Valve,,Multi Shank,,,,,,,,,,,,,,None or Unspecified,PAT,None or Unspecified,,
208,4364517,15500,1789509,172,1.0,1998,5877.0,Low,3/25/2011 0:00,D37P-2,D37,P,-2,,,"Track Type Tractor, Dozer - 75.0 to 85.0 Horsepower",Missouri,TTT,Track Type Tractors,,EROPS w AC,,,,,,,,,,,,,,,,,,,,,,,,,,,,,,,
