SalesID,2790411
SalePrice,20000
MachineID,1884516
datasource,149
auctioneerID,1.0
YearMade,2004
MachineHoursCurrentMeter,1393.0
UsageBand,Low
saledate,10/6/2010 0:00
fiModelDesc,515E
fiBaseModel,515
fiSecondaryDesc,E
fiModelSeries,
fiModelDescriptor,
ProductSize,
fiProductClassDesc,Wheel Loader - 120.0 to 135.0 Horsepower
state,Missouri
ProductGroup,WL
ProductGroupDesc,Wheel Loader
Drive_System,
Enclosure,EROPS
Forks,None or Unspecified
Pad_Type,
Ride_Control,None or Unspecified
Stick,
Transmission,
Turbocharged,
Blade_Extension,
Blade_Width,
Enclosure_Type,
Engine_Horsepower,
Hydraulics,2 Valve
Pushblock,
Ripper,
Scarifier,
Tip_Control,
Tire_Size,None or Unspecified
Coupler,None or Unspecified
Coupler_System,
Grouser_Tracks,
Hydraulics_Flow,
Track_Type,
Undercarriage_Pad_Width,
Stick_Length,
Thumb,
Pattern_Changer,
Grouser_Type,
Backhoe_Mounting,
Blade_Type,
Travel_Controls,
Differential_Type,Standard
Steering_Controls,Conventional
