SalesID,2393416
SalePrice,19500
MachineID,1272948
datasource,136
auctioneerID,1.0
YearMade,1000
MachineHoursCurrentMeter,0.0
UsageBand,
saledate,6/15/2010 0:00
fiModelDesc,JS220XD
fiBaseModel,JS220
fiSecondaryDesc,
fiModelSeries,
fiModelDescriptor,XD
ProductSize,Large / Medium
fiProductClassDesc,"Hydraulic Excavator, Track - 21.0 to 24.0 Metric Tons"
state,Tennessee
ProductGroup,TEX
ProductGroupDesc,Track Excavators
Drive_System,
Enclosure,EROPS w AC
Forks,
Pad_Type,
Ride_Control,
Stick,
Transmission,
Turbocharged,
Blade_Extension,
Blade_Width,
Enclosure_Type,
Engine_Horsepower,
Hydraulics,Auxiliary
Pushblock,
Ripper,
Scarifier,
Tip_Control,
Tire_Size,
Coupler,None or Unspecified
Coupler_System,
Grouser_Tracks,
Hydraulics_Flow,
Track_Type,Steel
Undercarriage_Pad_Width,None or Unspecified
Stick_Length,None or Unspecified
Thumb,Manual
Pattern_Changer,None or Unspecified
Grouser_Type,Double
Backhoe_Mounting,
Blade_Type,
Travel_Controls,
Differential_Type,
Steering_Controls,
