SalesID,1186420
SalePrice,5000
MachineID,1065888
datasource,121
auctioneerID,3.0
YearMade,2004
MachineHoursCurrentMeter,411.0
UsageBand,Low
saledate,12/18/2008 0:00
fiModelDesc,PRODIGY TK216
fiBaseModel,PRODIGY TK216
fiSecondaryDesc,
fiModelSeries,
fiModelDescriptor,
ProductSize,
fiProductClassDesc,Skid Steer Loader - 0.0 to 701.0 Lb Operating Capacity
state,South Carolina
ProductGroup,SSL
ProductGroupDesc,Skid Steer Loaders
Drive_System,
Enclosure,OROPS
Forks,None or Unspecified
Pad_Type,
Ride_Control,
Stick,
Transmission,
Turbocharged,
Blade_Extension,
Blade_Width,
Enclosure_Type,
Engine_Horsepower,
Hydraulics,Auxiliary
Pushblock,
Ripper,
Scarifier,
Tip_Control,
Tire_Size,
Coupler,Manual
Coupler_System,Yes
Grouser_Tracks,None or Unspecified
Hydraulics_Flow,Standard
Track_Type,
Undercarriage_Pad_Width,
Stick_Length,
Thumb,
Pattern_Changer,
Grouser_Type,
Backhoe_Mounting,
Blade_Type,
Travel_Controls,
Differential_Type,
Steering_Controls,
