ModelID,SalesID,SalePrice,MachineID,datasource,auctioneerID,YearMade,MachineHoursCurrentMeter,UsageBand,saledate,fiModelDesc,fiBaseModel,fiSecondaryDesc,fiModelSeries,fiModelDescriptor,ProductSize,fiProductClassDesc,state,ProductGroup,ProductGroupDesc,Drive_System,Enclosure,Forks,Pad_Type,Ride_Control,Stick,Transmission,Turbocharged,Blade_Extension,Blade_Width,Enclosure_Type,Engine_Horsepower,Hydraulics,Pushblock,Ripper,Scarifier,Tip_Control,Tire_Size,Coupler,Coupler_System,Grouser_Tracks,Hydraulics_Flow,Track_Type,Undercarriage_Pad_Width,Stick_Length,Thumb,Pattern_Changer,Grouser_Type,Backhoe_Mounting,Blade_Type,Travel_Controls,Differential_Type,Steering_Controls
21429,1150702,9500,1017247,121,3.0,2000,526.0,Low,3/23/2006 0:00,18J,18,J,,,Mini,"Hydraulic Excavator, Track - 0.0 to 2.0 Metric Tons",North Carolina,TEX,Track Excavators,,EROPS,,,,,,,,,,,Standard,,,,,,None or Unspecified,,,,Rubber,None or Unspecified,None or Unspecified,None or Unspecified,None or Unspecified,Double,,,,,
21429,1902473,8500,1427085,132,2.0,1999,,,9/26/2003 0:00,18J,18,J,,,Mini,"Hydraulic Excavator, Track - 0.0 to 2.0 Metric Tons",Pennsylvania,TEX,Track Excavators,,EROPS,,,,,,,,,,,Standard,,,,,,None or Unspecified,,,,Steel,None or Unspecified,None or Unspecified,None or Unspecified,None or Unspecified,Double,,,,,
21429,1902618,11000,1367388,132,99.0,1000,,,10/19/2000 0:00,18J,18,J,,,Mini,"Hydraulic Excavator, Track - 0.0 to 2.0 Metric Tons",South Carolina,TEX,Track Excavators,,EROPS,,,,,,,,,,,Standard,,,,,,None or Unspecified,,,,Steel,None or Unspecified,None or Unspecified,None or Unspecified,None or Unspecified,Double,,,,,
21429,1902622,8000,1139977,132,1.0,1994,,,5/8/2001 0:00,18J,18,J,,,Mini,"Hydraulic Excavator, Track - 0.0 to 2.0 Metric Tons",Florida,TEX,Track Excavators,,EROPS,,,,,,,,,,,Standard,,,,,,None or Unspecified,,,,Rubber,None or Unspecified,None or Unspecified,None or Unspecified,None or Unspecified,Double,,,,,
21429,1902641,8500,1388443,132,1.0,1000,,,7/21/2005 0:00,18J,18,J,,,Mini,"Hydraulic Excavator, Track - 0.0 to 2.0 Metric Tons",Texas,TEX,Track Excavators,,EROPS,,,,,,,,,,,Standard,,,,,,None or Unspecified,,,,Rubber,None or Unspecified,None or Unspecified,None or Unspecified,None or Unspecified,Double,,,,,
21429,1902643,8250,1512021,132,99.0,1000,,,10/19/2000 0:00,18J,18,J,,,Mini,"Hydraulic Excavator, Track - 0.0 to 2.0 Metric Tons",South Carolina,TEX,Track Excavators,,EROPS,,,,,,,,,,,Standard,,,,,,None or Unspecified,,,,Steel,None or Unspecified,None or Unspecified,None or Unspecified,None or Unspecified,Double,,,,,
21429,1902644,8500,1222518,132,1.0,1996,,,12/15/2000 0:00,18J,18,J,,,Mini,"Hydraulic Excavator, Track - 0.0 to 2.0 Metric Tons",Minnesota,TEX,Track Excavators,,EROPS,,,,,,,,,,,Standard,,,,,,None or Unspecified,,,,Steel,None or Unspecified,None or Unspecified,None or Unspecified,None or Unspecified,Double,,,,,
21429,1902645,8500,1410345,132,1.0,1996,,,12/15/2000 0:00,18J,18,J,,,Mini,"Hydraulic Excavator, Track - 0.0 to 2.0 Metric Tons",Minnesota,TEX,Track Excavators,,EROPS,,,,,,,,,,,Standard,,,,,,None or Unspecified,,,,Steel,None or Unspecified,None or Unspecified,None or Unspecified,None or Unspecified,Double,,,,,
21429,1902651,8000,1532050,132,3.0,1998,,,7/11/2002 0:00,18J,18,J,,,Mini,"Hydraulic Excavator, Track - 0.0 to 2.0 Metric Tons",Unspecified,TEX,Track Excavators,,EROPS,,,,,,,,,,,Standard,,,,,,None or Unspecified,,,,Rubber,None or Unspecified,None or Unspecified,None or Unspecified,None or Unspecified,Double,,,,,
21429,1902655,8000,1112200,132,2.0,1998,,,2/5/2006 0:00,18J,18,J,,,Mini,"Hydraulic Excavator, Track - 0.0 to 2.0 Metric Tons",Florida,TEX,Track Excavators,,EROPS,,,,,,,,,,,Standard,,,,,,None or Unspecified,,,,Rubber,None or Unspecified,None or Unspecified,None or Unspecified,None or Unspecified,Double,,,,,
21429,1902656,8500,1407081,132,1.0,1998,,,5/26/2005 0:00,18J,18,J,,,Mini,"Hydraulic Excavator, Track - 0.0 to 2.0 Metric Tons",Florida,TEX,Track Excavators,,EROPS,,,,,,,,,,,Auxiliary,,,,,,None or Unspecified,,,,Rubber,None or Unspecified,None or Unspecified,None or Unspecified,None or Unspecified,Double,,,,,
21429,1902666,8500,1103273,132,1.0,2000,,,6/21/2006 0:00,18J,18,J,,,Mini,"Hydraulic Excavator, Track - 0.0 to 2.0 Metric Tons",Maryland,TEX,Track Excavators,,EROPS,,,,,,,,,,,Auxiliary,,,,,,None or Unspecified,,,,Rubber,None or Unspecified,None or Unspecified,None or Unspecified,None or Unspecified,Double,,,,,
21429,1902667,8500,1017247,132,3.0,2000,,,3/9/2006 0:00,18J,18,J,,,Mini,"Hydraulic Excavator, Track - 0.0 to 2.0 Metric Tons",Unspecified,TEX,Track Excavators,,EROPS,,,,,,,,,,,Standard,,,,,,None or Unspecified,,,,Rubber,None or Unspecified,None or Unspecified,None or Unspecified,None or Unspecified,Double,,,,,
21429,1902670,8000,1263275,132,1.0,2001,,,3/23/2006 0:00,18J,18,J,,,Mini,"Hydraulic Excavator, Track - 0.0 to 2.0 Metric Tons",Tennessee,TEX,Track Excavators,,EROPS,,,,,,,,,,,Standard,,,,,,None or Unspecified,,,,Rubber,None or Unspecified,None or Unspecified,None or Unspecified,None or Unspecified,Double,,,,,
21429,1902680,9000,1087410,132,2.0,2001,,,9/28/2007 0:00,18J,18,J,,,Mini,"Hydraulic Excavator, Track - 0.0 to 2.0 Metric Tons",New Jersey,TEX,Track Excavators,,EROPS,,,,,,,,,,,Standard,,,,,,None or Unspecified,,,,Steel,None or Unspecified,None or Unspecified,None or Unspecified,None or Unspecified,Double,,,,,
