SalesID,1726138
SalePrice,14000
MachineID,1315294
datasource,132
auctioneerID,1.0
YearMade,1000
MachineHoursCurrentMeter,
UsageBand,
saledate,12/6/1995 0:00
fiModelDesc,466ELS
fiBaseModel,466
fiSecondaryDesc,E
fiModelSeries,
fiModelDescriptor,LS
ProductSize,Large / Medium
fiProductClassDesc,"Hydraulic Excavator, Track - 24.0 to 28.0 Metric Tons"
state,Washington
ProductGroup,TEX
ProductGroupDesc,Track Excavators
Drive_System,
Enclosure,EROPS
Forks,
Pad_Type,
Ride_Control,
Stick,
Transmission,
Turbocharged,
Blade_Extension,
Blade_Width,
Enclosure_Type,
Engine_Horsepower,
Hydraulics,Standard
Pushblock,
Ripper,
Scarifier,
Tip_Control,
Tire_Size,
Coupler,None or Unspecified
Coupler_System,
Grouser_Tracks,
Hydraulics_Flow,
Track_Type,Steel
Undercarriage_Pad_Width,None or Unspecified
Stick_Length,None or Unspecified
Thumb,None or Unspecified
Pattern_Changer,None or Unspecified
Grouser_Type,Double
Backhoe_Mounting,
Blade_Type,
Travel_Controls,
Differential_Type,
Steering_Controls,
