SalesID,4415186
SalePrice,5500
MachineID,2288514
datasource,172
auctioneerID,1.0
YearMade,2005
MachineHoursCurrentMeter,
UsageBand,
saledate,6/10/2009 0:00
fiModelDesc,B4230CS1
fiBaseModel,B4230
fiSecondaryDesc,CS
fiModelSeries,1
fiModelDescriptor,
ProductSize,
fiProductClassDesc,Skid Steer Loader - 1251.0 to 1351.0 Lb Operating Capacity
state,Texas
ProductGroup,SSL
ProductGroupDesc,Skid Steer Loaders
Drive_System,
Enclosure,OROPS
Forks,None or Unspecified
Pad_Type,
Ride_Control,
Stick,
Transmission,
Turbocharged,
Blade_Extension,
Blade_Width,
Enclosure_Type,
Engine_Horsepower,
Hydraulics,Auxiliary
Pushblock,
Ripper,
Scarifier,
Tip_Control,
Tire_Size,
Coupler,None or Unspecified
Coupler_System,None or Unspecified
Grouser_Tracks,None or Unspecified
Hydraulics_Flow,Standard
Track_Type,
Undercarriage_Pad_Width,
Stick_Length,
Thumb,
Pattern_Changer,
Grouser_Type,
Backhoe_Mounting,
Blade_Type,
Travel_Controls,
Differential_Type,
Steering_Controls,
