ModelID,SalesID,SalePrice,MachineID,datasource,auctioneerID,YearMade,MachineHoursCurrentMeter,UsageBand,saledate,fiModelDesc,fiBaseModel,fiSecondaryDesc,fiModelSeries,fiModelDescriptor,ProductSize,fiProductClassDesc,state,ProductGroup,ProductGroupDesc,Drive_System,Enclosure,Forks,Pad_Type,Ride_Control,Stick,Transmission,Turbocharged,Blade_Extension,Blade_Width,Enclosure_Type,Engine_Horsepower,Hydraulics,Pushblock,Ripper,Scarifier,Tip_Control,Tire_Size,Coupler,Coupler_System,Grouser_Tracks,Hydraulics_Flow,Track_Type,Undercarriage_Pad_Width,Stick_Length,Thumb,Pattern_Changer,Grouser_Type,Backhoe_Mounting,Blade_Type,Travel_Controls,Differential_Type,Steering_Controls
21761,1167836,16000,393131,121,3.0,2008,3792.0,High,12/15/2010 0:00,236B2,236,B,2,,,Skid Steer Loader - 1601.0 to 1751.0 Lb Operating Capacity,Arkansas,SSL,Skid Steer Loaders,,EROPS w AC,None or Unspecified,,,,,,,,,,Standard,,,,,,Hydraulic,Yes,None or Unspecified,Standard,,,,,,,,,,,
21761,1206937,12250,5770,121,3.0,2008,3538.0,High,9/8/2010 0:00,236B2,236,B,2,,,Skid Steer Loader - 1601.0 to 1751.0 Lb Operating Capacity,Kentucky,SSL,Skid Steer Loaders,,OROPS,None or Unspecified,,,,,,,,,,Auxiliary,,,,,,Manual,Yes,None or Unspecified,Standard,,,,,,,,,,,
21761,2309433,14500,765243,136,1.0,2007,1251.0,Medium,6/15/2010 0:00,236B2,236,B,2,,,Skid Steer Loader - 1601.0 to 1751.0 Lb Operating Capacity,Tennessee,SSL,Skid Steer Loaders,,EROPS w AC,None or Unspecified,,,,,,,,,,Auxiliary,,,,,,Hydraulic,None or Unspecified,None or Unspecified,Standard,,,,,,,,,,,
21761,2309443,17500,595215,136,1.0,2008,0.0,,8/26/2009 0:00,236B2,236,B,2,,,Skid Steer Loader - 1601.0 to 1751.0 Lb Operating Capacity,Texas,SSL,Skid Steer Loaders,,OROPS,None or Unspecified,,,,,,,,,,Auxiliary,,,,,,Manual,None or Unspecified,None or Unspecified,Standard,,,,,,,,,,,
21761,2309452,19000,613323,136,1.0,2008,0.0,,3/25/2009 0:00,236B2,236,B,2,,,Skid Steer Loader - 1601.0 to 1751.0 Lb Operating Capacity,Texas,SSL,Skid Steer Loaders,,OROPS,None or Unspecified,,,,,,,,,,Auxiliary,,,,,,Manual,None or Unspecified,None or Unspecified,Standard,,,,,,,,,,,
21761,2309455,17000,602259,136,1.0,2008,131.0,Low,8/26/2009 0:00,236B2,236,B,2,,,Skid Steer Loader - 1601.0 to 1751.0 Lb Operating Capacity,Texas,SSL,Skid Steer Loaders,,OROPS,None or Unspecified,,,,,,,,,,Auxiliary,,,,,,Manual,None or Unspecified,None or Unspecified,Standard,,,,,,,,,,,
21761,2593708,17000,530454,149,1.0,2007,211.0,Low,10/27/2010 0:00,236B2,236,B,2,,,Skid Steer Loader - 1601.0 to 1751.0 Lb Operating Capacity,Florida,SSL,Skid Steer Loaders,,OROPS,None or Unspecified,,,,,,,,,,Auxiliary,,,,,,Manual,None or Unspecified,None or Unspecified,Standard,,,,,,,,,,,
21761,2593710,13000,49965,149,1.0,2007,1321.0,Medium,6/7/2011 0:00,236B2,236,B,2,,,Skid Steer Loader - 1601.0 to 1751.0 Lb Operating Capacity,Louisiana,SSL,Skid Steer Loaders,,OROPS,None or Unspecified,,,,,,,,,,Standard,,,,,,Manual,None or Unspecified,None or Unspecified,Standard,,,,,,,,,,,
21761,2593725,15000,410745,149,0.0,2007,0.0,,7/29/2010 0:00,236B2,236,B,2,,,Skid Steer Loader - 1601.0 to 1751.0 Lb Operating Capacity,Nebraska,SSL,Skid Steer Loaders,,EROPS w AC,None or Unspecified,,,,,,,,,,Auxiliary,,,,,,Hydraulic,Yes,None or Unspecified,Standard,,,,,,,,,,,
21761,2593733,17000,329635,149,1.0,2007,0.0,,2/15/2010 0:00,236B2,236,B,2,,,Skid Steer Loader - 1601.0 to 1751.0 Lb Operating Capacity,Florida,SSL,Skid Steer Loaders,,EROPS,None or Unspecified,,,,,,,,,,Auxiliary,,,,,,Hydraulic,Yes,Yes,Standard,,,,,,,,,,,
21761,2593736,19500,349813,149,1.0,2007,330.0,Low,2/15/2010 0:00,236B2,236,B,2,,,Skid Steer Loader - 1601.0 to 1751.0 Lb Operating Capacity,Florida,SSL,Skid Steer Loaders,,OROPS,None or Unspecified,,,,,,,,,,Auxiliary,,,,,,Manual,None or Unspecified,Yes,Standard,,,,,,,,,,,
21761,2593747,18000,332403,149,1.0,2008,815.0,Medium,3/29/2011 0:00,236B2,236,B,2,,,Skid Steer Loader - 1601.0 to 1751.0 Lb Operating Capacity,Minnesota,SSL,Skid Steer Loaders,,OROPS,None or Unspecified,,,,,,,,,,Auxiliary,,,,,,Manual,None or Unspecified,Yes,Standard,,,,,,,,,,,
21761,2593787,19000,914459,149,1.0,2008,754.0,Medium,5/26/2011 0:00,236B2,236,B,2,,,Skid Steer Loader - 1601.0 to 1751.0 Lb Operating Capacity,Illinois,SSL,Skid Steer Loaders,,EROPS w AC,None or Unspecified,,,,,,,,,,Auxiliary,,,,,,Hydraulic,Yes,None or Unspecified,Standard,,,,,,,,,,,
21761,2593793,17000,52546,149,1.0,2008,662.0,Medium,6/7/2011 0:00,236B2,236,B,2,,,Skid Steer Loader - 1601.0 to 1751.0 Lb Operating Capacity,Louisiana,SSL,Skid Steer Loaders,,OROPS,None or Unspecified,,,,,,,,,,Standard,,,,,,Manual,None or Unspecified,None or Unspecified,Standard,,,,,,,,,,,
21761,4299846,18000,2303791,172,1.0,2006,1923.0,Medium,12/8/2011 0:00,236B2,236,B,2,,,Skid Steer Loader - 1601.0 to 1751.0 Lb Operating Capacity,Idaho,SSL,Skid Steer Loaders,,EROPS w AC,None or Unspecified,,,,,,,,,,Auxiliary,,,,,,None or Unspecified,None or Unspecified,None or Unspecified,Standard,,,,,,,,,,,
21761,4299847,15000,2303791,172,1.0,2005,3706.0,High,12/12/2011 0:00,236B2,236,B,2,,,Skid Steer Loader - 1601.0 to 1751.0 Lb Operating Capacity,Colorado,SSL,Skid Steer Loaders,,EROPS w AC,None or Unspecified,,,,,,,,,,Auxiliary,,,,,,None or Unspecified,None or Unspecified,None or Unspecified,Standard,,,,,,,,,,,
21761,4299852,17500,2303791,172,1.0,2007,3692.0,High,10/25/2011 0:00,236B2,236,B,2,,,Skid Steer Loader - 1601.0 to 1751.0 Lb Operating Capacity,Florida,SSL,Skid Steer Loaders,,EROPS w AC,None or Unspecified,,,,,,,,,,Auxiliary,,,,,,None or Unspecified,None or Unspecified,None or Unspecified,Standard,,,,,,,,,,,
21761,4299854,13500,2303791,172,1.0,2005,,,12/5/2011 0:00,236B2,236,B,2,,,Skid Steer Loader - 1601.0 to 1751.0 Lb Operating Capacity,Missouri,SSL,Skid Steer Loaders,,EROPS w AC,None or Unspecified,,,,,,,,,,Auxiliary,,,,,,None or Unspecified,None or Unspecified,None or Unspecified,Standard,,,,,,,,,,,
21761,4299855,16000,2303791,172,1.0,2006,2341.0,Medium,12/6/2011 0:00,236B2,236,B,2,,,Skid Steer Loader - 1601.0 to 1751.0 Lb Operating Capacity,Georgia,SSL,Skid Steer Loaders,,EROPS w AC,None or Unspecified,,,,,,,,,,Auxiliary,,,,,,None or Unspecified,None or Unspecified,None or Unspecified,Standard,,,,,,,,,,,
21761,4299867,14000,2303791,172,1.0,2005,1088.0,Low,9/13/2011 0:00,236B2,236,B,2,,,Skid Steer Loader - 1601.0 to 1751.0 Lb Operating Capacity,Georgia,SSL,Skid Steer Loaders,,EROPS w AC,None or Unspecified,,,,,,,,,,Auxiliary,,,,,,None or Unspecified,None or Unspecified,None or Unspecified,Standard,,,,,,,,,,,
21761,4299868,17000,2303791,172,1.0,2007,,,8/1/2011 0:00,236B2,236,B,2,,,Skid Steer Loader - 1601.0 to 1751.0 Lb Operating Capacity,Illinois,SSL,Skid Steer Loaders,,EROPS w AC,None or Unspecified,,,,,,,,,,Auxiliary,,,,,,None or Unspecified,None or Unspecified,None or Unspecified,Standard,,,,,,,,,,,
21761,4299869,13000,2303791,172,1.0,2005,2462.0,Medium,12/19/2011 0:00,236B2,236,B,2,,,Skid Steer Loader - 1601.0 to 1751.0 Lb Operating Capacity,Washington,SSL,Skid Steer Loaders,,EROPS w AC,None or Unspecified,,,,,,,,,,Auxiliary,,,,,,None or Unspecified,None or Unspecified,None or Unspecified,Standard,,,,,,,,,,,
21761,6277065,17500,158286,149,1.0,2007,,,10/26/2011 0:00,236B2,236,B,2,,,Skid Steer Loader - 1601.0 to 1751.0 Lb Operating Capacity,Florida,SSL,Skid Steer Loaders,,OROPS,None or Unspecified,,,,,,,,,,Auxiliary,,,,,,Manual,Yes,None or Unspecified,Standard,,,,,,,,,,,
21761,6277067,16700,1907136,149,99.0,2007,1151.0,Medium,12/28/2011 0:00,236B2,236,B,2,,,Skid Steer Loader - 1601.0 to 1751.0 Lb Operating Capacity,Kansas,SSL,Skid Steer Loaders,,EROPS,None or Unspecified,,,,,,,,,,Standard,,,,,,Manual,None or Unspecified,None or Unspecified,Standard,,,,,,,,,,,
21761,6277069,17000,20801,149,1.0,2008,,,9/14/2011 0:00,236B2,236,B,2,,,Skid Steer Loader - 1601.0 to 1751.0 Lb Operating Capacity,Georgia,SSL,Skid Steer Loaders,,OROPS,None or Unspecified,,,,,,,,,,Auxiliary,,,,,,Manual,None or Unspecified,None or Unspecified,Standard,,,,,,,,,,,
21761,6277072,19000,850776,149,1.0,2008,,,10/7/2011 0:00,236B2,236,B,2,,,Skid Steer Loader - 1601.0 to 1751.0 Lb Operating Capacity,Illinois,SSL,Skid Steer Loaders,,EROPS,None or Unspecified,,,,,,,,,,Auxiliary,,,,,,Manual,None or Unspecified,None or Unspecified,Standard,,,,,,,,,,,
21761,6277080,19000,576743,149,1.0,2009,,,10/7/2011 0:00,236B2,236,B,2,,,Skid Steer Loader - 1601.0 to 1751.0 Lb Operating Capacity,Illinois,SSL,Skid Steer Loaders,,EROPS,None or Unspecified,,,,,,,,,,Auxiliary,,,,,,Manual,None or Unspecified,None or Unspecified,Standard,,,,,,,,,,,
21761,6277084,18500,808395,149,2.0,2009,,,10/12/2011 0:00,236B2,236,B,2,,,Skid Steer Loader - 1601.0 to 1751.0 Lb Operating Capacity,Kentucky,SSL,Skid Steer Loaders,,EROPS,None or Unspecified,,,,,,,,,,Auxiliary,,,,,,Manual,None or Unspecified,None or Unspecified,Standard,,,,,,,,,,,
21761,6277087,19500,587521,149,2.0,2009,,,10/12/2011 0:00,236B2,236,B,2,,,Skid Steer Loader - 1601.0 to 1751.0 Lb Operating Capacity,Kentucky,SSL,Skid Steer Loaders,,EROPS,None or Unspecified,,,,,,,,,,Auxiliary,,,,,,Manual,None or Unspecified,None or Unspecified,Standard,,,,,,,,,,,
21761,6277088,16500,546061,149,2.0,2009,,,10/12/2011 0:00,236B2,236,B,2,,,Skid Steer Loader - 1601.0 to 1751.0 Lb Operating Capacity,Kentucky,SSL,Skid Steer Loaders,,OROPS,None or Unspecified,,,,,,,,,,Auxiliary,,,,,,None or Unspecified,None or Unspecified,None or Unspecified,Standard,,,,,,,,,,,
