SalesID,2346778
SalePrice,17500
MachineID,1767651
datasource,136
auctioneerID,1.0
YearMade,2004
MachineHoursCurrentMeter,0.0
UsageBand,
saledate,2/25/2010 0:00
fiModelDesc,110S
fiBaseModel,110
fiSecondaryDesc,S
fiModelSeries,
fiModelDescriptor,
ProductSize,
fiProductClassDesc,Backhoe Loader - 0.0 to 14.0 Ft Standard Digging Depth
state,Texas
ProductGroup,BL
ProductGroupDesc,Backhoe Loaders
Drive_System,Two Wheel Drive
Enclosure,OROPS
Forks,None or Unspecified
Pad_Type,None or Unspecified
Ride_Control,No
Stick,Standard
Transmission,Standard
Turbocharged,None or Unspecified
Blade_Extension,
Blade_Width,
Enclosure_Type,
Engine_Horsepower,
Hydraulics,
Pushblock,
Ripper,
Scarifier,
Tip_Control,
Tire_Size,
Coupler,
Coupler_System,
Grouser_Tracks,
Hydraulics_Flow,
Track_Type,
Undercarriage_Pad_Width,
Stick_Length,
Thumb,
Pattern_Changer,
Grouser_Type,
Backhoe_Mounting,
Blade_Type,
Travel_Controls,
Differential_Type,
Steering_Controls,
