ModelID,SalesID,SalePrice,MachineID,datasource,auctioneerID,YearMade,MachineHoursCurrentMeter,UsageBand,saledate,fiModelDesc,fiBaseModel,fiSecondaryDesc,fiModelSeries,fiModelDescriptor,ProductSize,fiProductClassDesc,state,ProductGroup,ProductGroupDesc,Drive_System,Enclosure,Forks,Pad_Type,Ride_Control,Stick,Transmission,Turbocharged,Blade_Extension,Blade_Width,Enclosure_Type,Engine_Horsepower,Hydraulics,Pushblock,Ripper,Scarifier,Tip_Control,Tire_Size,Coupler,Coupler_System,Grouser_Tracks,Hydraulics_Flow,Track_Type,Undercarriage_Pad_Width,Stick_Length,Thumb,Pattern_Changer,Grouser_Type,Backhoe_Mounting,Blade_Type,Travel_Controls,Differential_Type,Steering_Controls
22052,2330812,36000,1276573,136,8.0,2004,0.0,,3/31/2010 0:00,120CLC,120,C,,LC,Small,"Hydraulic Excavator, Track - 12.0 to 14.0 Metric Tons",Mississippi,TEX,Track Excavators,,EROPS,,,,,,,,,,,Standard,,,,,,None or Unspecified,,,,Steel,None or Unspecified,None or Unspecified,None or Unspecified,None or Unspecified,Double,,,,,
22052,2330872,67500,1730940,136,,2006,0.0,,11/3/2007 0:00,120CLC,120,C,,LC,Small,"Hydraulic Excavator, Track - 12.0 to 14.0 Metric Tons",New York,TEX,Track Excavators,,EROPS,,,,,,,,,,,Standard,,,,,,Manual,,,,Steel,None or Unspecified,None or Unspecified,None or Unspecified,None or Unspecified,Double,,,,,
22052,2342966,28000,1736093,136,,2003,0.0,,1/29/2009 0:00,120CLC,120,C,,LC,Small,"Hydraulic Excavator, Track - 12.0 to 14.0 Metric Tons",Florida,TEX,Track Excavators,,EROPS,,,,,,,,,,,Standard,,,,,,None or Unspecified,,,,Steel,None or Unspecified,None or Unspecified,None or Unspecified,None or Unspecified,Double,,,,,
22052,2342971,27500,1691668,136,,2003,0.0,,1/31/2009 0:00,120CLC,120,C,,LC,Small,"Hydraulic Excavator, Track - 12.0 to 14.0 Metric Tons",Florida,TEX,Track Excavators,,EROPS,,,,,,,,,,,Standard,,,,,,None or Unspecified,,,,Steel,None or Unspecified,None or Unspecified,None or Unspecified,None or Unspecified,Double,,,,,
22052,2342974,29500,1721346,136,,2003,0.0,,1/31/2009 0:00,120CLC,120,C,,LC,Small,"Hydraulic Excavator, Track - 12.0 to 14.0 Metric Tons",Florida,TEX,Track Excavators,,EROPS,,,,,,,,,,,Standard,,,,,,None or Unspecified,,,,Steel,None or Unspecified,None or Unspecified,None or Unspecified,None or Unspecified,Double,,,,,
22052,2343004,27500,1758643,136,,2004,0.0,,9/26/2009 0:00,120CLC,120,C,,LC,Small,"Hydraulic Excavator, Track - 12.0 to 14.0 Metric Tons",New Jersey,TEX,Track Excavators,,EROPS,,,,,,,,,,,Standard,,,,,,None or Unspecified,,,,Steel,None or Unspecified,None or Unspecified,Manual,None or Unspecified,Double,,,,,
22052,2343106,45500,1678646,136,,2006,0.0,,12/28/2007 0:00,120CLC,120,C,,LC,Small,"Hydraulic Excavator, Track - 12.0 to 14.0 Metric Tons",New York,TEX,Track Excavators,,EROPS w AC,,,,,,,,,,,Standard,,,,,,Manual,,,,Steel,None or Unspecified,None or Unspecified,Hydraulic,None or Unspecified,Double,,,,,
22052,2343118,75000,1662017,136,,2006,0.0,,6/26/2008 0:00,120CLC,120,C,,LC,Small,"Hydraulic Excavator, Track - 12.0 to 14.0 Metric Tons",Georgia,TEX,Track Excavators,,EROPS w AC,,,,,,,,,,,Standard,,,,,,None or Unspecified,,,,Steel,None or Unspecified,None or Unspecified,None or Unspecified,None or Unspecified,Double,,,,,
22052,2346682,40000,1659345,136,,2005,0.0,,1/28/2009 0:00,120CLC,120,C,,LC,Small,"Hydraulic Excavator, Track - 12.0 to 14.0 Metric Tons",Alabama,TEX,Track Excavators,,EROPS,,,,,,,,,,,Auxiliary,,,,,,Manual,,,,Steel,None or Unspecified,None or Unspecified,None or Unspecified,None or Unspecified,Double,,,,,
22052,2346684,27500,1736840,136,,2002,0.0,,4/2/2009 0:00,120CLC,120,C,,LC,Small,"Hydraulic Excavator, Track - 12.0 to 14.0 Metric Tons",New Mexico,TEX,Track Excavators,,EROPS w AC,,,,,,,,,,,Auxiliary,,,,,,None or Unspecified,,,,Steel,None or Unspecified,None or Unspecified,None or Unspecified,None or Unspecified,Double,,,,,
22052,4314692,42500,2271985,172,1.0,2005,2807.0,Medium,12/15/2011 0:00,120CLC,120,C,,LC,Small,"Hydraulic Excavator, Track - 12.0 to 14.0 Metric Tons",California,TEX,Track Excavators,,EROPS w AC,,,,,,,,,,,Auxiliary,,,,,,None or Unspecified,,,,Steel,None or Unspecified,None or Unspecified,Hydraulic,None or Unspecified,Triple,,,,,
22052,4314701,34000,2271985,172,1.0,2004,3726.0,Medium,8/23/2011 0:00,120CLC,120,C,,LC,Small,"Hydraulic Excavator, Track - 12.0 to 14.0 Metric Tons",Texas,TEX,Track Excavators,,EROPS w AC,,,,,,,,,,,Auxiliary,,,,,,None or Unspecified,,,,Steel,None or Unspecified,None or Unspecified,Hydraulic,None or Unspecified,Triple,,,,,
22052,4314712,36000,2271985,172,1.0,2004,7530.0,High,10/3/2011 0:00,120CLC,120,C,,LC,Small,"Hydraulic Excavator, Track - 12.0 to 14.0 Metric Tons",Texas,TEX,Track Excavators,,EROPS w AC,,,,,,,,,,,Auxiliary,,,,,,None or Unspecified,,,,Steel,None or Unspecified,None or Unspecified,Hydraulic,None or Unspecified,Triple,,,,,
22052,6284678,36000,1941038,149,1.0,2004,,,10/4/2011 0:00,120CLC,120,C,,LC,Small,"Hydraulic Excavator, Track - 12.0 to 14.0 Metric Tons",Texas,TEX,Track Excavators,,EROPS w AC,,,,,,,,,,,Standard,,,,,,None or Unspecified,,,,Steel,None or Unspecified,None or Unspecified,None or Unspecified,None or Unspecified,Double,,,,,
22052,6284680,34000,1792867,149,1.0,2004,,,8/24/2011 0:00,120CLC,120,C,,LC,Small,"Hydraulic Excavator, Track - 12.0 to 14.0 Metric Tons",Texas,TEX,Track Excavators,,EROPS w AC,,,,,,,,,,,Standard,,,,,,None or Unspecified,,,,Steel,None or Unspecified,None or Unspecified,None or Unspecified,None or Unspecified,Double,,,,,
22052,6284686,37500,1877910,149,1.0,2005,,,8/17/2011 0:00,120CLC,120,C,,LC,Small,"Hydraulic Excavator, Track - 12.0 to 14.0 Metric Tons",Florida,TEX,Track Excavators,,EROPS w AC,,,,,,,,,,,Auxiliary,,,,,,None or Unspecified,,,,Steel,None or Unspecified,"9' 10""",Manual,None or Unspecified,Double,,,,,
22052,6284690,42500,1901327,149,1.0,2005,,,12/16/2011 0:00,120CLC,120,C,,LC,Small,"Hydraulic Excavator, Track - 12.0 to 14.0 Metric Tons",California,TEX,Track Excavators,,EROPS,,,,,,,,,,,Standard,,,,,,None or Unspecified,,,,Steel,None or Unspecified,None or Unspecified,None or Unspecified,None or Unspecified,Double,,,,,
22052,6284696,45000,1867836,149,1.0,2005,,,11/2/2011 0:00,120CLC,120,C,,LC,Small,"Hydraulic Excavator, Track - 12.0 to 14.0 Metric Tons",Maryland,TEX,Track Excavators,,EROPS w AC,,,,,,,,,,,Auxiliary,,,,,,None or Unspecified,,,,Steel,None or Unspecified,None or Unspecified,None or Unspecified,None or Unspecified,Double,,,,,
