ModelID,SalesID,SalePrice,MachineID,datasource,auctioneerID,YearMade,MachineHoursCurrentMeter,UsageBand,saledate,fiModelDesc,fiBaseModel,fiSecondaryDesc,fiModelSeries,fiModelDescriptor,ProductSize,fiProductClassDesc,state,ProductGroup,ProductGroupDesc,Drive_System,Enclosure,Forks,Pad_Type,Ride_Control,Stick,Transmission,Turbocharged,Blade_Extension,Blade_Width,Enclosure_Type,Engine_Horsepower,Hydraulics,Pushblock,Ripper,Scarifier,Tip_Control,Tire_Size,Coupler,Coupler_System,Grouser_Tracks,Hydraulics_Flow,Track_Type,Undercarriage_Pad_Width,Stick_Length,Thumb,Pattern_Changer,Grouser_Type,Backhoe_Mounting,Blade_Type,Travel_Controls,Differential_Type,Steering_Controls
22067,1164785,13500,971659,121,3.0,2002,1604.0,Medium,1/31/2008 0:00,280,280,,,,,Skid Steer Loader - 2701.0+ Lb Operating Capacity,Idaho,SSL,Skid Steer Loaders,,OROPS,None or Unspecified,,,,,,,,,,Auxiliary,,,,,,None or Unspecified,None or Unspecified,None or Unspecified,Standard,,,,,,,,,,,
22067,1599206,14500,1315624,132,1.0,2000,,,12/8/2004 0:00,280,280,,,,,Skid Steer Loader - 2701.0+ Lb Operating Capacity,Texas,SSL,Skid Steer Loaders,,OROPS,None or Unspecified,,,,,,,,,,Standard,,,,,,None or Unspecified,None or Unspecified,None or Unspecified,Standard,,,,,,,,,,,
22067,1599498,14500,1531196,132,1.0,2001,,,9/30/2008 0:00,280,280,,,,,Skid Steer Loader - 2701.0+ Lb Operating Capacity,Minnesota,SSL,Skid Steer Loaders,,OROPS,None or Unspecified,,,,,,,,,,Standard,,,,,,None or Unspecified,None or Unspecified,None or Unspecified,Standard,,,,,,,,,,,
22067,1601716,8500,1286754,132,3.0,2002,,,9/3/2009 0:00,280,280,,,,,Skid Steer Loader - 2701.0+ Lb Operating Capacity,California,SSL,Skid Steer Loaders,,OROPS,None or Unspecified,,,,,,,,,,Standard,,,,,,None or Unspecified,None or Unspecified,None or Unspecified,Standard,,,,,,,,,,,
22067,1601717,9500,1391686,132,1.0,2002,,,6/30/2008 0:00,280,280,,,,,Skid Steer Loader - 2701.0+ Lb Operating Capacity,New Mexico,SSL,Skid Steer Loaders,,OROPS,None or Unspecified,,,,,,,,,,Standard,,,,,,None or Unspecified,None or Unspecified,None or Unspecified,Standard,,,,,,,,,,,
22067,1601719,15000,1267885,132,2.0,2002,,,11/4/2006 0:00,280,280,,,,,Skid Steer Loader - 2701.0+ Lb Operating Capacity,New York,SSL,Skid Steer Loaders,,OROPS,None or Unspecified,,,,,,,,,,Standard,,,,,,None or Unspecified,None or Unspecified,None or Unspecified,Standard,,,,,,,,,,,
22067,1601725,10500,1229774,132,1.0,2002,834.0,Low,2/18/2011 0:00,280,280,,,,,Skid Steer Loader - 2701.0+ Lb Operating Capacity,Florida,SSL,Skid Steer Loaders,,OROPS,None or Unspecified,,,,,,,,,,Standard,,,,,,None or Unspecified,None or Unspecified,None or Unspecified,Standard,,,,,,,,,,,
22067,1601726,10500,1229774,132,1.0,2002,,,2/15/2011 0:00,280,280,,,,,Skid Steer Loader - 2701.0+ Lb Operating Capacity,Florida,SSL,Skid Steer Loaders,,OROPS,None or Unspecified,,,,,,,,,,Standard,,,,,,None or Unspecified,None or Unspecified,None or Unspecified,Standard,,,,,,,,,,,
22067,1601730,16000,1079393,132,22.0,2002,,,3/15/2008 0:00,280,280,,,,,Skid Steer Loader - 2701.0+ Lb Operating Capacity,Minnesota,SSL,Skid Steer Loaders,,OROPS,None or Unspecified,,,,,,,,,,Standard,,,,,,None or Unspecified,None or Unspecified,None or Unspecified,Standard,,,,,,,,,,,
22067,1601735,12000,1508977,132,1.0,2002,,,8/20/2009 0:00,280,280,,,,,Skid Steer Loader - 2701.0+ Lb Operating Capacity,Colorado,SSL,Skid Steer Loaders,,OROPS,None or Unspecified,,,,,,,,,,Standard,,,,,,None or Unspecified,None or Unspecified,None or Unspecified,Standard,,,,,,,,,,,
22067,1601737,13500,1475176,132,1.0,2002,,,10/10/2006 0:00,280,280,,,,,Skid Steer Loader - 2701.0+ Lb Operating Capacity,Florida,SSL,Skid Steer Loaders,,OROPS,None or Unspecified,,,,,,,,,,Standard,,,,,,None or Unspecified,None or Unspecified,None or Unspecified,Standard,,,,,,,,,,,
22067,1640373,19000,1547990,132,10.0,2003,,,6/22/2006 0:00,280,280,,,,,Skid Steer Loader - 2701.0+ Lb Operating Capacity,Louisiana,SSL,Skid Steer Loaders,,OROPS,None or Unspecified,,,,,,,,,,Standard,,,,,,None or Unspecified,None or Unspecified,None or Unspecified,Standard,,,,,,,,,,,
22067,1640374,18000,1547990,132,10.0,2003,,,3/16/2006 0:00,280,280,,,,,Skid Steer Loader - 2701.0+ Lb Operating Capacity,Louisiana,SSL,Skid Steer Loaders,,OROPS,None or Unspecified,,,,,,,,,,Standard,,,,,,None or Unspecified,None or Unspecified,None or Unspecified,Standard,,,,,,,,,,,
22067,1640531,16000,1312223,132,1.0,2003,,,6/10/2010 0:00,280,280,,,,,Skid Steer Loader - 2701.0+ Lb Operating Capacity,Colorado,SSL,Skid Steer Loaders,,OROPS,None or Unspecified,,,,,,,,,,Standard,,,,,,None or Unspecified,None or Unspecified,None or Unspecified,Standard,,,,,,,,,,,
22067,1640654,18000,1125926,132,1.0,2003,,,9/20/2006 0:00,280,280,,,,,Skid Steer Loader - 2701.0+ Lb Operating Capacity,Illinois,SSL,Skid Steer Loaders,,OROPS,None or Unspecified,,,,,,,,,,Standard,,,,,,None or Unspecified,None or Unspecified,None or Unspecified,Standard,,,,,,,,,,,
22067,1640794,16000,1311385,132,1.0,2003,,,2/18/2010 0:00,280,280,,,,,Skid Steer Loader - 2701.0+ Lb Operating Capacity,Florida,SSL,Skid Steer Loaders,,OROPS,None or Unspecified,,,,,,,,,,Standard,,,,,,None or Unspecified,None or Unspecified,None or Unspecified,Standard,,,,,,,,,,,
22067,1640795,16000,1311385,132,1.0,2003,,,2/15/2010 0:00,280,280,,,,,Skid Steer Loader - 2701.0+ Lb Operating Capacity,Florida,SSL,Skid Steer Loaders,,OROPS,None or Unspecified,,,,,,,,,,Standard,,,,,,None or Unspecified,None or Unspecified,None or Unspecified,Standard,,,,,,,,,,,
22067,1640942,12000,1227458,132,1.0,2003,,,11/8/2008 0:00,280,280,,,,,Skid Steer Loader - 2701.0+ Lb Operating Capacity,Alaska,SSL,Skid Steer Loaders,,OROPS,None or Unspecified,,,,,,,,,,Standard,,,,,,None or Unspecified,None or Unspecified,None or Unspecified,Standard,,,,,,,,,,,
22067,1641551,13000,1455029,132,99.0,2004,,,9/18/2009 0:00,280,280,,,,,Skid Steer Loader - 2701.0+ Lb Operating Capacity,Minnesota,SSL,Skid Steer Loaders,,OROPS,None or Unspecified,,,,,,,,,,Standard,,,,,,None or Unspecified,None or Unspecified,None or Unspecified,Standard,,,,,,,,,,,
22067,1641556,9500,315512,132,1.0,2004,,,3/27/2009 0:00,280,280,,,,,Skid Steer Loader - 2701.0+ Lb Operating Capacity,California,SSL,Skid Steer Loaders,,OROPS,None or Unspecified,,,,,,,,,,Auxiliary,,,,,,None or Unspecified,None or Unspecified,None or Unspecified,Standard,,,,,,,,,,,
22067,1641557,18500,315512,132,1.0,2004,,,12/12/2006 0:00,280,280,,,,,Skid Steer Loader - 2701.0+ Lb Operating Capacity,California,SSL,Skid Steer Loaders,,OROPS,None or Unspecified,,,,,,,,,,Auxiliary,,,,,,None or Unspecified,None or Unspecified,None or Unspecified,Standard,,,,,,,,,,,
22067,1641649,20000,1245637,132,1.0,2004,,,10/30/2007 0:00,280,280,,,,,Skid Steer Loader - 2701.0+ Lb Operating Capacity,Missouri,SSL,Skid Steer Loaders,,OROPS,None or Unspecified,,,,,,,,,,Standard,,,,,,None or Unspecified,None or Unspecified,None or Unspecified,Standard,,,,,,,,,,,
22067,1641842,11500,1548809,132,1.0,2004,,,12/12/2008 0:00,280,280,,,,,Skid Steer Loader - 2701.0+ Lb Operating Capacity,Colorado,SSL,Skid Steer Loaders,,OROPS,None or Unspecified,,,,,,,,,,Standard,,,,,,None or Unspecified,None or Unspecified,None or Unspecified,Standard,,,,,,,,,,,
22067,1642000,10000,1259807,132,1.0,2004,,,2/25/2010 0:00,280,280,,,,,Skid Steer Loader - 2701.0+ Lb Operating Capacity,Texas,SSL,Skid Steer Loaders,,OROPS,None or Unspecified,,,,,,,,,,Standard,,,,,,None or Unspecified,None or Unspecified,None or Unspecified,Standard,,,,,,,,,,,
22067,1642012,15487,1324191,132,13.0,2003,970.0,Medium,9/15/2007 0:00,280,280,,,,,Skid Steer Loader - 2701.0+ Lb Operating Capacity,Tennessee,SSL,Skid Steer Loaders,,OROPS,None or Unspecified,,,,,,,,,,Standard,,,,,,None or Unspecified,None or Unspecified,None or Unspecified,Standard,,,,,,,,,,,
22067,1642126,15000,1330014,132,2.0,2004,,,5/23/2007 0:00,280,280,,,,,Skid Steer Loader - 2701.0+ Lb Operating Capacity,Florida,SSL,Skid Steer Loaders,,OROPS,None or Unspecified,,,,,,,,,,Auxiliary,,,,,,Hydraulic,Yes,None or Unspecified,Standard,,,,,,,,,,,
22067,1642127,13500,1330014,132,2.0,2004,,,2/28/2007 0:00,280,280,,,,,Skid Steer Loader - 2701.0+ Lb Operating Capacity,Texas,SSL,Skid Steer Loaders,,OROPS,None or Unspecified,,,,,,,,,,Auxiliary,,,,,,Hydraulic,Yes,None or Unspecified,Standard,,,,,,,,,,,
22067,1642128,14000,1330014,132,2.0,2004,,,3/28/2007 0:00,280,280,,,,,Skid Steer Loader - 2701.0+ Lb Operating Capacity,Texas,SSL,Skid Steer Loaders,,OROPS,None or Unspecified,,,,,,,,,,Auxiliary,,,,,,Hydraulic,Yes,None or Unspecified,Standard,,,,,,,,,,,
22067,1642129,14000,1330014,132,2.0,2004,,,9/8/2007 0:00,280,280,,,,,Skid Steer Loader - 2701.0+ Lb Operating Capacity,Kentucky,SSL,Skid Steer Loaders,,OROPS,None or Unspecified,,,,,,,,,,Auxiliary,,,,,,Hydraulic,Yes,None or Unspecified,Standard,,,,,,,,,,,
22067,2331323,12500,1412208,136,2.0,2004,0.0,,8/26/2007 0:00,280,280,,,,,Skid Steer Loader - 2701.0+ Lb Operating Capacity,New York,SSL,Skid Steer Loaders,,OROPS,None or Unspecified,,,,,,,,,,Auxiliary,,,,,,None or Unspecified,None or Unspecified,None or Unspecified,Standard,,,,,,,,,,,
22067,2331324,14500,1088835,136,2.0,2002,933.0,Low,4/25/2008 0:00,280,280,,,,,Skid Steer Loader - 2701.0+ Lb Operating Capacity,Michigan,SSL,Skid Steer Loaders,,OROPS,None or Unspecified,,,,,,,,,,Auxiliary,,,,,,Manual,Yes,None or Unspecified,Standard,,,,,,,,,,,
22067,2331325,9750,1485351,136,20.0,2002,0.0,,12/12/2007 0:00,280,280,,,,,Skid Steer Loader - 2701.0+ Lb Operating Capacity,Arkansas,SSL,Skid Steer Loaders,,OROPS,None or Unspecified,,,,,,,,,,Auxiliary,,,,,,None or Unspecified,None or Unspecified,None or Unspecified,Standard,,,,,,,,,,,
22067,2336335,13000,1330014,136,2.0,2004,0.0,,9/15/2007 0:00,280,280,,,,,Skid Steer Loader - 2701.0+ Lb Operating Capacity,New Hampshire,SSL,Skid Steer Loaders,,OROPS,None or Unspecified,,,,,,,,,,Auxiliary,,,,,,Hydraulic,Yes,None or Unspecified,Standard,,,,,,,,,,,
22067,2345880,10750,1648330,136,,2001,2890.0,Medium,6/21/2008 0:00,280,280,,,,,Skid Steer Loader - 2701.0+ Lb Operating Capacity,Wisconsin,SSL,Skid Steer Loaders,,OROPS,None or Unspecified,,,,,,,,,,Auxiliary,,,,,,None or Unspecified,None or Unspecified,None or Unspecified,Standard,,,,,,,,,,,
22067,2345881,14500,1648330,136,1.0,2001,0.0,,9/30/2008 0:00,280,280,,,,,Skid Steer Loader - 2701.0+ Lb Operating Capacity,Minnesota,SSL,Skid Steer Loaders,,OROPS,None or Unspecified,,,,,,,,,,Auxiliary,,,,,,None or Unspecified,None or Unspecified,None or Unspecified,Standard,,,,,,,,,,,
22067,2345882,9500,1670847,136,1.0,2002,0.0,,6/30/2008 0:00,280,280,,,,,Skid Steer Loader - 2701.0+ Lb Operating Capacity,New Mexico,SSL,Skid Steer Loaders,,OROPS,None or Unspecified,,,,,,,,,,Standard,,,,,,None or Unspecified,None or Unspecified,None or Unspecified,Standard,,,,,,,,,,,
22067,2345883,16000,1663086,136,,2002,1860.0,Medium,3/15/2008 0:00,280,280,,,,,Skid Steer Loader - 2701.0+ Lb Operating Capacity,Minnesota,SSL,Skid Steer Loaders,,OROPS,None or Unspecified,,,,,,,,,,Standard,,,,,,None or Unspecified,None or Unspecified,None or Unspecified,Standard,,,,,,,,,,,
22067,2345884,12000,1676640,136,1.0,1000,0.0,,8/20/2009 0:00,280,280,,,,,Skid Steer Loader - 2701.0+ Lb Operating Capacity,Colorado,SSL,Skid Steer Loaders,,OROPS,None or Unspecified,,,,,,,,,,Standard,,,,,,None or Unspecified,None or Unspecified,None or Unspecified,Standard,,,,,,,,,,,
22067,2347043,15400,1775888,136,,2003,0.0,,9/15/2007 0:00,280,280,,,,,Skid Steer Loader - 2701.0+ Lb Operating Capacity,Tennessee,SSL,Skid Steer Loaders,,EROPS,None or Unspecified,,,,,,,,,,Standard,,,,,,None or Unspecified,None or Unspecified,None or Unspecified,Standard,,,,,,,,,,,
22067,2347045,20000,1737330,136,1.0,2004,2374.0,High,10/30/2007 0:00,280,280,,,,,Skid Steer Loader - 2701.0+ Lb Operating Capacity,Missouri,SSL,Skid Steer Loaders,,EROPS,None or Unspecified,,,,,,,,,,Auxiliary,,,,,,None or Unspecified,None or Unspecified,Yes,Standard,,,,,,,,,,,
22067,2347052,13500,1761310,136,1.0,2004,0.0,,7/9/2009 0:00,280,280,,,,,Skid Steer Loader - 2701.0+ Lb Operating Capacity,Texas,SSL,Skid Steer Loaders,,EROPS w AC,None or Unspecified,,,,,,,,,,Auxiliary,,,,,,None or Unspecified,None or Unspecified,None or Unspecified,Standard,,,,,,,,,,,
22067,2347056,9500,1737828,136,1.0,2004,450.0,Low,3/27/2009 0:00,280,280,,,,,Skid Steer Loader - 2701.0+ Lb Operating Capacity,California,SSL,Skid Steer Loaders,,OROPS,None or Unspecified,,,,,,,,,,Auxiliary,,,,,,None or Unspecified,None or Unspecified,None or Unspecified,Standard,,,,,,,,,,,
22067,2347058,13500,1713124,136,,2004,0.0,,9/8/2007 0:00,280,280,,,,,Skid Steer Loader - 2701.0+ Lb Operating Capacity,Kentucky,SSL,Skid Steer Loaders,,OROPS,None or Unspecified,,,,,,,,,,Auxiliary,,,,,,Hydraulic,Yes,None or Unspecified,Standard,,,,,,,,,,,
22067,2626362,12000,1128576,149,1.0,2002,0.0,,5/25/2011 0:00,280,280,,,,,Skid Steer Loader - 2701.0+ Lb Operating Capacity,Mississippi,SSL,Skid Steer Loaders,,OROPS,None or Unspecified,,,,,,,,,,Standard,,,,,,None or Unspecified,None or Unspecified,None or Unspecified,Standard,,,,,,,,,,,
22067,2632092,16000,1844003,149,1.0,2003,0.0,,2/15/2010 0:00,280,280,,,,,Skid Steer Loader - 2701.0+ Lb Operating Capacity,Florida,SSL,Skid Steer Loaders,,EROPS,None or Unspecified,,,,,,,,,,Auxiliary,,,,,,None or Unspecified,None or Unspecified,None or Unspecified,Standard,,,,,,,,,,,
22067,2640779,10750,1927930,149,99.0,2002,3491.0,Medium,4/7/2011 0:00,280,280,,,,,Skid Steer Loader - 2701.0+ Lb Operating Capacity,Nebraska,SSL,Skid Steer Loaders,,OROPS,None or Unspecified,,,,,,,,,,Auxiliary,,,,,,None or Unspecified,None or Unspecified,None or Unspecified,Standard,,,,,,,,,,,
22067,2640784,10500,1789231,149,1.0,2002,0.0,,2/15/2011 0:00,280,280,,,,,Skid Steer Loader - 2701.0+ Lb Operating Capacity,Florida,SSL,Skid Steer Loaders,,OROPS,None or Unspecified,,,,,,,,,,Auxiliary,,,,,,None or Unspecified,None or Unspecified,None or Unspecified,Standard,,,,,,,,,,,
22067,2642189,10000,1837377,149,1.0,2004,0.0,,2/25/2010 0:00,280,280,,,,,Skid Steer Loader - 2701.0+ Lb Operating Capacity,Texas,SSL,Skid Steer Loaders,,OROPS,Yes,,,,,,,,,,Auxiliary,,,,,,None or Unspecified,None or Unspecified,None or Unspecified,Standard,,,,,,,,,,,
22067,2642206,13000,1870948,149,1.0,2004,2002.0,Medium,6/10/2011 0:00,280,280,,,,,Skid Steer Loader - 2701.0+ Lb Operating Capacity,Nevada,SSL,Skid Steer Loaders,,OROPS,None or Unspecified,,,,,,,,,,Standard,,,,,,None or Unspecified,None or Unspecified,None or Unspecified,Standard,,,,,,,,,,,
22067,4316926,12000,2300700,172,1.0,1000,938.0,Low,8/20/2009 0:00,280,280,,,,,Skid Steer Loader - 2701.0+ Lb Operating Capacity,Colorado,SSL,Skid Steer Loaders,,OROPS,None or Unspecified,,,,,,,,,,Auxiliary,,,,,,None or Unspecified,None or Unspecified,None or Unspecified,Standard,,,,,,,,,,,
22067,4318150,16000,2283536,172,1.0,2003,,,2/15/2010 0:00,280,280,,,,,Skid Steer Loader - 2701.0+ Lb Operating Capacity,Florida,SSL,Skid Steer Loaders,,EROPS,None or Unspecified,,,,,,,,,,Auxiliary,,,,,,None or Unspecified,None or Unspecified,None or Unspecified,Standard,,,,,,,,,,,
22067,4326047,13500,2291150,172,1.0,2004,1200.0,Medium,7/9/2009 0:00,280,280,,,,,Skid Steer Loader - 2701.0+ Lb Operating Capacity,Texas,SSL,Skid Steer Loaders,,EROPS w AC,None or Unspecified,,,,,,,,,,Auxiliary,,,,,,None or Unspecified,None or Unspecified,None or Unspecified,Standard,,,,,,,,,,,
22067,6285688,15000,1940438,149,1.0,2003,,,12/16/2011 0:00,280,280,,,,,Skid Steer Loader - 2701.0+ Lb Operating Capacity,California,SSL,Skid Steer Loaders,,OROPS,None or Unspecified,,,,,,,,,,Auxiliary,,,,,,None or Unspecified,None or Unspecified,None or Unspecified,Standard,,,,,,,,,,,
