ModelID,SalesID,SalePrice,MachineID,datasource,auctioneerID,YearMade,MachineHoursCurrentMeter,UsageBand,saledate,fiModelDesc,fiBaseModel,fiSecondaryDesc,fiModelSeries,fiModelDescriptor,ProductSize,fiProductClassDesc,state,ProductGroup,ProductGroupDesc,Drive_System,Enclosure,Forks,Pad_Type,Ride_Control,Stick,Transmission,Turbocharged,Blade_Extension,Blade_Width,Enclosure_Type,Engine_Horsepower,Hydraulics,Pushblock,Ripper,Scarifier,Tip_Control,Tire_Size,Coupler,Coupler_System,Grouser_Tracks,Hydraulics_Flow,Track_Type,Undercarriage_Pad_Width,Stick_Length,Thumb,Pattern_Changer,Grouser_Type,Backhoe_Mounting,Blade_Type,Travel_Controls,Differential_Type,Steering_Controls
22079,1142002,13500,1008318,121,3.0,2005,4231.0,High,5/26/2011 0:00,332,332,,,,,Skid Steer Loader - 2701.0+ Lb Operating Capacity,Texas,SSL,Skid Steer Loaders,,OROPS,Yes,,,,,,,,,,Auxiliary,,,,,,Manual,Yes,None or Unspecified,Standard,,,,,,,,,,,
22079,1145843,17000,1026147,121,3.0,2006,1399.0,Medium,8/21/2009 0:00,332,332,,,,,Skid Steer Loader - 2701.0+ Lb Operating Capacity,Utah,SSL,Skid Steer Loaders,,EROPS w AC,None or Unspecified,,,,,,,,,,Standard,,,,,,Manual,Yes,Yes,Standard,,,,,,,,,,,
22079,1207357,14000,1059248,121,3.0,2005,1040.0,Medium,9/24/2010 0:00,332,332,,,,,Skid Steer Loader - 2701.0+ Lb Operating Capacity,Utah,SSL,Skid Steer Loaders,,OROPS,Yes,,,,,,,,,,Auxiliary,,,,,,Manual,Yes,None or Unspecified,Standard,,,,,,,,,,,
22079,1210073,13500,1028871,121,3.0,2006,2835.0,High,1/28/2011 0:00,332,332,,,,,Skid Steer Loader - 2701.0+ Lb Operating Capacity,Texas,SSL,Skid Steer Loaders,,OROPS,Yes,,,,,,,,,,Auxiliary,,,,,,Manual,Yes,None or Unspecified,Standard,,,,,,,,,,,
22079,1210074,13500,1062156,121,3.0,2006,3445.0,High,2/25/2011 0:00,332,332,,,,,Skid Steer Loader - 2701.0+ Lb Operating Capacity,Texas,SSL,Skid Steer Loaders,,OROPS,None or Unspecified,,,,,,,,,,Auxiliary,,,,,,Manual,Yes,None or Unspecified,Standard,,,,,,,,,,,
22079,1210075,12500,1024193,121,3.0,2007,3598.0,High,2/25/2011 0:00,332,332,,,,,Skid Steer Loader - 2701.0+ Lb Operating Capacity,Texas,SSL,Skid Steer Loaders,,OROPS,Yes,,,,,,,,,,Auxiliary,,,,,,Manual,Yes,None or Unspecified,Standard,,,,,,,,,,,
22079,1210076,14500,1037539,121,3.0,2007,3235.0,High,1/28/2011 0:00,332,332,,,,,Skid Steer Loader - 2701.0+ Lb Operating Capacity,Texas,SSL,Skid Steer Loaders,,OROPS,Yes,,,,,,,,,,Auxiliary,,,,,,Manual,Yes,None or Unspecified,Standard,,,,,,,,,,,
22079,1210077,13500,1022314,121,3.0,2007,3220.0,High,1/28/2011 0:00,332,332,,,,,Skid Steer Loader - 2701.0+ Lb Operating Capacity,Texas,SSL,Skid Steer Loaders,,OROPS,None or Unspecified,,,,,,,,,,Auxiliary,,,,,,Manual,Yes,None or Unspecified,Standard,,,,,,,,,,,
22079,1585856,14000,1085866,132,1.0,2005,,,10/19/2010 0:00,332,332,,,,,Skid Steer Loader - 2701.0+ Lb Operating Capacity,Maryland,SSL,Skid Steer Loaders,,OROPS,None or Unspecified,,,,,,,,,,Standard,,,,,,None or Unspecified,None or Unspecified,None or Unspecified,Standard,,,,,,,,,,,
22079,1585932,14250,1363265,132,99.0,2005,2261.0,High,9/13/2008 0:00,332,332,,,,,Skid Steer Loader - 2701.0+ Lb Operating Capacity,Alabama,SSL,Skid Steer Loaders,,OROPS,None or Unspecified,,,,,,,,,,Standard,,,,,,None or Unspecified,None or Unspecified,None or Unspecified,Standard,,,,,,,,,,,
22079,1585943,13000,1359631,132,99.0,2005,2343.0,High,9/13/2008 0:00,332,332,,,,,Skid Steer Loader - 2701.0+ Lb Operating Capacity,Alabama,SSL,Skid Steer Loaders,,OROPS,None or Unspecified,,,,,,,,,,Standard,,,,,,None or Unspecified,None or Unspecified,None or Unspecified,Standard,,,,,,,,,,,
22079,1586258,12500,1402406,132,1.0,2005,,,3/10/2009 0:00,332,332,,,,,Skid Steer Loader - 2701.0+ Lb Operating Capacity,Colorado,SSL,Skid Steer Loaders,,OROPS,None or Unspecified,,,,,,,,,,Standard,,,,,,None or Unspecified,None or Unspecified,None or Unspecified,Standard,,,,,,,,,,,
22079,1586293,14000,1314535,132,3.0,2005,,,9/23/2010 0:00,332,332,,,,,Skid Steer Loader - 2701.0+ Lb Operating Capacity,California,SSL,Skid Steer Loaders,,OROPS,None or Unspecified,,,,,,,,,,Standard,,,,,,None or Unspecified,None or Unspecified,None or Unspecified,Standard,,,,,,,,,,,
22079,1586532,20000,1546095,132,1.0,2005,887.0,Medium,6/3/2008 0:00,332,332,,,,,Skid Steer Loader - 2701.0+ Lb Operating Capacity,Pennsylvania,SSL,Skid Steer Loaders,,OROPS,None or Unspecified,,,,,,,,,,Standard,,,,,,None or Unspecified,None or Unspecified,None or Unspecified,Standard,,,,,,,,,,,
22079,1586565,12500,1245960,132,99.0,2005,,,7/16/2009 0:00,332,332,,,,,Skid Steer Loader - 2701.0+ Lb Operating Capacity,Georgia,SSL,Skid Steer Loaders,,OROPS,None or Unspecified,,,,,,,,,,Standard,,,,,,None or Unspecified,None or Unspecified,None or Unspecified,Standard,,,,,,,,,,,
22079,1586975,14000,1086366,132,1.0,2005,1654.0,Medium,5/18/2011 0:00,332,332,,,,,Skid Steer Loader - 2701.0+ Lb Operating Capacity,Florida,SSL,Skid Steer Loaders,,OROPS,None or Unspecified,,,,,,,,,,Standard,,,,,,None or Unspecified,None or Unspecified,None or Unspecified,Standard,,,,,,,,,,,
22079,1587165,12500,1419908,132,1.0,2005,,,5/6/2010 0:00,332,332,,,,,Skid Steer Loader - 2701.0+ Lb Operating Capacity,Texas,SSL,Skid Steer Loaders,,OROPS,None or Unspecified,,,,,,,,,,Standard,,,,,,None or Unspecified,None or Unspecified,None or Unspecified,Standard,,,,,,,,,,,
22079,1587404,16000,1417923,132,99.0,2005,1174.0,Medium,8/16/2008 0:00,332,332,,,,,Skid Steer Loader - 2701.0+ Lb Operating Capacity,Alabama,SSL,Skid Steer Loaders,,OROPS,None or Unspecified,,,,,,,,,,Standard,,,,,,None or Unspecified,None or Unspecified,None or Unspecified,Standard,,,,,,,,,,,
22079,1587525,16750,1413604,132,20.0,2005,,,10/29/2009 0:00,332,332,,,,,Skid Steer Loader - 2701.0+ Lb Operating Capacity,Arkansas,SSL,Skid Steer Loaders,,OROPS,None or Unspecified,,,,,,,,,,Standard,,,,,,None or Unspecified,None or Unspecified,None or Unspecified,Standard,,,,,,,,,,,
22079,1587626,13500,1222586,132,3.0,2006,,,1/27/2011 0:00,332,332,,,,,Skid Steer Loader - 2701.0+ Lb Operating Capacity,California,SSL,Skid Steer Loaders,,OROPS,None or Unspecified,,,,,,,,,,Standard,,,,,,None or Unspecified,None or Unspecified,None or Unspecified,Standard,,,,,,,,,,,
22079,1587705,17000,1118289,132,3.0,2006,,,8/27/2009 0:00,332,332,,,,,Skid Steer Loader - 2701.0+ Lb Operating Capacity,California,SSL,Skid Steer Loaders,,OROPS,None or Unspecified,,,,,,,,,,Standard,,,,,,None or Unspecified,None or Unspecified,None or Unspecified,Standard,,,,,,,,,,,
22079,1588090,14000,1270086,132,1.0,2006,2656.0,High,2/9/2011 0:00,332,332,,,,,Skid Steer Loader - 2701.0+ Lb Operating Capacity,Texas,SSL,Skid Steer Loaders,,OROPS,None or Unspecified,,,,,,,,,,Standard,,,,,,None or Unspecified,None or Unspecified,None or Unspecified,Standard,,,,,,,,,,,
22079,1588100,13500,1121917,132,1.0,2006,,,3/1/2011 0:00,332,332,,,,,Skid Steer Loader - 2701.0+ Lb Operating Capacity,Washington,SSL,Skid Steer Loaders,,OROPS,None or Unspecified,,,,,,,,,,Standard,,,,,,None or Unspecified,None or Unspecified,None or Unspecified,Standard,,,,,,,,,,,
22079,1588113,14000,1545610,132,1.0,2006,,,5/6/2010 0:00,332,332,,,,,Skid Steer Loader - 2701.0+ Lb Operating Capacity,Texas,SSL,Skid Steer Loaders,,OROPS,None or Unspecified,,,,,,,,,,Standard,,,,,,None or Unspecified,None or Unspecified,None or Unspecified,Standard,,,,,,,,,,,
22079,1588215,12500,1455239,132,1.0,2006,,,2/25/2010 0:00,332,332,,,,,Skid Steer Loader - 2701.0+ Lb Operating Capacity,Texas,SSL,Skid Steer Loaders,,OROPS,None or Unspecified,,,,,,,,,,Standard,,,,,,None or Unspecified,None or Unspecified,None or Unspecified,Standard,,,,,,,,,,,
22079,1588326,18000,1147528,132,1.0,2006,,,9/9/2008 0:00,332,332,,,,,Skid Steer Loader - 2701.0+ Lb Operating Capacity,Ohio,SSL,Skid Steer Loaders,,OROPS,None or Unspecified,,,,,,,,,,Standard,,,,,,None or Unspecified,None or Unspecified,None or Unspecified,Standard,,,,,,,,,,,
22079,1588330,17000,1084133,132,1.0,2006,,,3/19/2009 0:00,332,332,,,,,Skid Steer Loader - 2701.0+ Lb Operating Capacity,Minnesota,SSL,Skid Steer Loaders,,OROPS,None or Unspecified,,,,,,,,,,Standard,,,,,,None or Unspecified,None or Unspecified,None or Unspecified,Standard,,,,,,,,,,,
22079,1588489,13000,1107057,132,5.0,2006,,,12/3/2009 0:00,332,332,,,,,Skid Steer Loader - 2701.0+ Lb Operating Capacity,North Carolina,SSL,Skid Steer Loaders,,OROPS,None or Unspecified,,,,,,,,,,Standard,,,,,,None or Unspecified,None or Unspecified,None or Unspecified,Standard,,,,,,,,,,,
22079,1588718,13500,1472298,132,3.0,2006,,,2/24/2011 0:00,332,332,,,,,Skid Steer Loader - 2701.0+ Lb Operating Capacity,California,SSL,Skid Steer Loaders,,OROPS,None or Unspecified,,,,,,,,,,Standard,,,,,,None or Unspecified,None or Unspecified,None or Unspecified,Standard,,,,,,,,,,,
22079,1588772,12500,1371281,132,3.0,2007,,,2/24/2011 0:00,332,332,,,,,Skid Steer Loader - 2701.0+ Lb Operating Capacity,California,SSL,Skid Steer Loaders,,OROPS,None or Unspecified,,,,,,,,,,Standard,,,,,,None or Unspecified,None or Unspecified,None or Unspecified,Standard,,,,,,,,,,,
22079,1588933,19000,1393467,132,1.0,2007,,,12/12/2008 0:00,332,332,,,,,Skid Steer Loader - 2701.0+ Lb Operating Capacity,Colorado,SSL,Skid Steer Loaders,,OROPS,None or Unspecified,,,,,,,,,,Standard,,,,,,None or Unspecified,None or Unspecified,None or Unspecified,Standard,,,,,,,,,,,
22079,1589538,16750,1387949,132,99.0,2007,,,7/29/2010 0:00,332,332,,,,,Skid Steer Loader - 2701.0+ Lb Operating Capacity,Nebraska,SSL,Skid Steer Loaders,,OROPS,None or Unspecified,,,,,,,,,,Standard,,,,,,None or Unspecified,None or Unspecified,None or Unspecified,Standard,,,,,,,,,,,
22079,1589542,14500,1225992,132,3.0,2007,,,1/27/2011 0:00,332,332,,,,,Skid Steer Loader - 2701.0+ Lb Operating Capacity,California,SSL,Skid Steer Loaders,,OROPS,None or Unspecified,,,,,,,,,,Standard,,,,,,None or Unspecified,None or Unspecified,None or Unspecified,Standard,,,,,,,,,,,
22079,1589733,13500,1317977,132,3.0,2007,,,1/27/2011 0:00,332,332,,,,,Skid Steer Loader - 2701.0+ Lb Operating Capacity,California,SSL,Skid Steer Loaders,,EROPS w AC,None or Unspecified,,,,,,,,,,Standard,,,,,,None or Unspecified,None or Unspecified,None or Unspecified,Standard,,,,,,,,,,,
22079,1590556,17000,1212016,132,1.0,2008,2616.0,High,3/15/2011 0:00,332,332,,,,,Skid Steer Loader - 2701.0+ Lb Operating Capacity,Colorado,SSL,Skid Steer Loaders,,OROPS,None or Unspecified,,,,,,,,,,Standard,,,,,,None or Unspecified,None or Unspecified,None or Unspecified,Standard,,,,,,,,,,,
22079,2347614,12500,1644634,136,1.0,2005,2236.0,Medium,5/6/2010 0:00,332,332,,,,,Skid Steer Loader - 2701.0+ Lb Operating Capacity,Texas,SSL,Skid Steer Loaders,,OROPS,None or Unspecified,,,,,,,,,,Auxiliary,,,,,,None or Unspecified,None or Unspecified,None or Unspecified,Standard,,,,,,,,,,,
22079,2347615,16000,1693643,136,,2006,0.0,,11/7/2007 0:00,332,332,,,,,Skid Steer Loader - 2701.0+ Lb Operating Capacity,Texas,SSL,Skid Steer Loaders,,OROPS,None or Unspecified,,,,,,,,,,Auxiliary,,,,,,None or Unspecified,None or Unspecified,None or Unspecified,Standard,,,,,,,,,,,
22079,2347617,17000,1737542,136,1.0,2006,1969.0,High,3/19/2009 0:00,332,332,,,,,Skid Steer Loader - 2701.0+ Lb Operating Capacity,Minnesota,SSL,Skid Steer Loaders,,OROPS,None or Unspecified,,,,,,,,,,Auxiliary,,,,,,None or Unspecified,None or Unspecified,None or Unspecified,Standard,,,,,,,,,,,
22079,2347622,19000,1691256,136,1.0,2007,0.0,,12/12/2008 0:00,332,332,,,,,Skid Steer Loader - 2701.0+ Lb Operating Capacity,Colorado,SSL,Skid Steer Loaders,,OROPS,None or Unspecified,,,,,,,,,,Auxiliary,,,,,,None or Unspecified,None or Unspecified,None or Unspecified,Standard,,,,,,,,,,,
22079,2347635,12500,1667387,136,1.0,2005,2420.0,High,3/10/2009 0:00,332,332,,,,,Skid Steer Loader - 2701.0+ Lb Operating Capacity,Colorado,SSL,Skid Steer Loaders,,EROPS w AC,None or Unspecified,,,,,,,,,,Auxiliary,,,,,,None or Unspecified,None or Unspecified,None or Unspecified,Standard,,,,,,,,,,,
22079,2347637,20000,1669443,136,1.0,2005,887.0,Medium,6/3/2008 0:00,332,332,,,,,Skid Steer Loader - 2701.0+ Lb Operating Capacity,Pennsylvania,SSL,Skid Steer Loaders,,EROPS,None or Unspecified,,,,,,,,,,Auxiliary,,,,,,None or Unspecified,None or Unspecified,None or Unspecified,Standard,,,,,,,,,,,
22079,2347656,14500,1682584,136,,2006,657.0,Medium,5/9/2009 0:00,332,332,,,,,Skid Steer Loader - 2701.0+ Lb Operating Capacity,California,SSL,Skid Steer Loaders,,OROPS,None or Unspecified,,,,,,,,,,Auxiliary,,,,,,None or Unspecified,None or Unspecified,None or Unspecified,High Flow,,,,,,,,,,,
22079,2352274,16500,1670938,136,2.0,2007,1400.0,Medium,5/26/2010 0:00,332,332,,,,,Skid Steer Loader - 2701.0+ Lb Operating Capacity,Florida,SSL,Skid Steer Loaders,,OROPS,None or Unspecified,,,,,,,,,,Auxiliary,,,,,,Manual,Yes,None or Unspecified,Standard,,,,,,,,,,,
22079,2352336,18000,1783797,136,1.0,2006,1758.0,High,9/9/2008 0:00,332,332,,,,,Skid Steer Loader - 2701.0+ Lb Operating Capacity,Ohio,SSL,Skid Steer Loaders,,OROPS,None or Unspecified,,,,,,,,,,Auxiliary,,,,,,None or Unspecified,None or Unspecified,Yes,Standard,,,,,,,,,,,
22079,2622721,14000,1417103,149,10.0,2006,0.0,,10/20/2010 0:00,332,332,,,,,Skid Steer Loader - 2701.0+ Lb Operating Capacity,Louisiana,SSL,Skid Steer Loaders,,OROPS,None or Unspecified,,,,,,,,,,Standard,,,,,,None or Unspecified,None or Unspecified,Yes,Standard,,,,,,,,,,,
22079,2622838,18000,1110284,149,1.0,2006,0.0,,5/25/2011 0:00,332,332,,,,,Skid Steer Loader - 2701.0+ Lb Operating Capacity,Mississippi,SSL,Skid Steer Loaders,,OROPS,None or Unspecified,,,,,,,,,,Standard,,,,,,None or Unspecified,None or Unspecified,None or Unspecified,Standard,,,,,,,,,,,
22079,2623290,16500,1280978,149,0.0,2008,0.0,,3/23/2011 0:00,332,332,,,,,Skid Steer Loader - 2701.0+ Lb Operating Capacity,Mississippi,SSL,Skid Steer Loaders,,OROPS,None or Unspecified,,,,,,,,,,Standard,,,,,,None or Unspecified,None or Unspecified,None or Unspecified,Standard,,,,,,,,,,,
22079,2623291,17500,1280978,149,10.0,2008,0.0,,4/6/2011 0:00,332,332,,,,,Skid Steer Loader - 2701.0+ Lb Operating Capacity,Louisiana,SSL,Skid Steer Loaders,,OROPS,None or Unspecified,,,,,,,,,,Standard,,,,,,None or Unspecified,None or Unspecified,None or Unspecified,Standard,,,,,,,,,,,
22079,2643685,14000,1813065,149,1.0,2005,1177.0,Medium,10/19/2010 0:00,332,332,,,,,Skid Steer Loader - 2701.0+ Lb Operating Capacity,Maryland,SSL,Skid Steer Loaders,,OROPS,None or Unspecified,,,,,,,,,,Auxiliary,,,,,,None or Unspecified,None or Unspecified,None or Unspecified,Standard,,,,,,,,,,,
22079,2643694,12500,1831433,149,1.0,2006,0.0,,2/25/2010 0:00,332,332,,,,,Skid Steer Loader - 2701.0+ Lb Operating Capacity,Texas,SSL,Skid Steer Loaders,,OROPS,None or Unspecified,,,,,,,,,,Auxiliary,,,,,,None or Unspecified,None or Unspecified,None or Unspecified,Standard,,,,,,,,,,,
22079,2643726,20000,1802892,149,1.0,2006,0.0,,8/31/2010 0:00,332,332,,,,,Skid Steer Loader - 2701.0+ Lb Operating Capacity,Colorado,SSL,Skid Steer Loaders,,EROPS w AC,None or Unspecified,,,,,,,,,,Auxiliary,,,,,,None or Unspecified,None or Unspecified,None or Unspecified,Standard,,,,,,,,,,,
22079,2643738,13500,1792509,149,1.0,2006,4280.0,High,3/1/2011 0:00,332,332,,,,,Skid Steer Loader - 2701.0+ Lb Operating Capacity,Washington,SSL,Skid Steer Loaders,,EROPS,None or Unspecified,,,,,,,,,,Auxiliary,,,,,,None or Unspecified,None or Unspecified,None or Unspecified,Standard,,,,,,,,,,,
22079,2643759,16750,665588,149,0.0,2007,0.0,,7/29/2010 0:00,332,332,,,,,Skid Steer Loader - 2701.0+ Lb Operating Capacity,Nebraska,SSL,Skid Steer Loaders,,EROPS w AC,None or Unspecified,,,,,,,,,,Standard,,,,,,Hydraulic,Yes,Yes,Standard,,,,,,,,,,,
22079,2643778,14000,1796076,149,1.0,2005,1654.0,Medium,5/18/2011 0:00,332,332,,,,,Skid Steer Loader - 2701.0+ Lb Operating Capacity,Florida,SSL,Skid Steer Loaders,,OROPS,None or Unspecified,,,,,,,,,,Auxiliary,,,,,,None or Unspecified,None or Unspecified,None or Unspecified,Standard,,,,,,,,,,,
22079,2647977,16500,1800702,149,2.0,2007,1400.0,Medium,5/26/2010 0:00,332,332,,,,,Skid Steer Loader - 2701.0+ Lb Operating Capacity,Florida,SSL,Skid Steer Loaders,,OROPS,None or Unspecified,,,,,,,,,,Auxiliary,,,,,,Manual,Yes,None or Unspecified,Standard,,,,,,,,,,,
22079,2648067,14000,1888020,149,1.0,2006,2656.0,High,2/9/2011 0:00,332,332,,,,,Skid Steer Loader - 2701.0+ Lb Operating Capacity,Texas,SSL,Skid Steer Loaders,,OROPS,None or Unspecified,,,,,,,,,,Auxiliary,,,,,,None or Unspecified,None or Unspecified,Yes,Standard,,,,,,,,,,,
22079,2648182,17000,1905606,149,1.0,2008,2616.0,High,3/15/2011 0:00,332,332,,,,,Skid Steer Loader - 2701.0+ Lb Operating Capacity,Colorado,SSL,Skid Steer Loaders,,EROPS w AC,None or Unspecified,,,,,,,,,,Auxiliary,,,,,,None or Unspecified,None or Unspecified,Yes,Standard,,,,,,,,,,,
22079,4318610,13000,2286150,172,1.0,2008,3743.0,High,10/6/2011 0:00,332,332,,,,,Skid Steer Loader - 2701.0+ Lb Operating Capacity,Illinois,SSL,Skid Steer Loaders,,OROPS,None or Unspecified,,,,,,,,,,Auxiliary,,,,,,None or Unspecified,None or Unspecified,None or Unspecified,Standard,,,,,,,,,,,
22079,6282381,13250,1929832,149,2.0,2006,,,10/28/2011 0:00,332,332,,,,,Skid Steer Loader - 2701.0+ Lb Operating Capacity,Michigan,SSL,Skid Steer Loaders,,OROPS,None or Unspecified,,,,,,,,,,Auxiliary,,,,,,None or Unspecified,None or Unspecified,None or Unspecified,Standard,,,,,,,,,,,
22079,6285876,13000,1910011,149,1.0,2008,,,10/7/2011 0:00,332,332,,,,,Skid Steer Loader - 2701.0+ Lb Operating Capacity,Illinois,SSL,Skid Steer Loaders,,OROPS,None or Unspecified,,,,,,,,,,Auxiliary,,,,,,None or Unspecified,None or Unspecified,None or Unspecified,Standard,,,,,,,,,,,
