ModelID,SalesID,SalePrice,MachineID,datasource,auctioneerID,YearMade,MachineHoursCurrentMeter,UsageBand,saledate,fiModelDesc,fiBaseModel,fiSecondaryDesc,fiModelSeries,fiModelDescriptor,ProductSize,fiProductClassDesc,state,ProductGroup,ProductGroupDesc,Drive_System,Enclosure,Forks,Pad_Type,Ride_Control,Stick,Transmission,Turbocharged,Blade_Extension,Blade_Width,Enclosure_Type,Engine_Horsepower,Hydraulics,Pushblock,Ripper,Scarifier,Tip_Control,Tire_Size,Coupler,Coupler_System,Grouser_Tracks,Hydraulics_Flow,Track_Type,Undercarriage_Pad_Width,Stick_Length,Thumb,Pattern_Changer,Grouser_Type,Backhoe_Mounting,Blade_Type,Travel_Controls,Differential_Type,Steering_Controls
22074,1139479,12000,1025088,121,3.0,2006,649.0,Medium,8/6/2009 0:00,325,325,,,,,Skid Steer Loader - 2201.0 to 2701.0 Lb Operating Capacity,Virginia,SSL,Skid Steer Loaders,,OROPS,None or Unspecified,,,,,,,,,,Auxiliary,,,,,,Hydraulic,Yes,None or Unspecified,Standard,,,,,,,,,,,
22074,1139635,10500,1001415,121,3.0,2006,917.0,Medium,8/6/2009 0:00,325,325,,,,,Skid Steer Loader - 2201.0 to 2701.0 Lb Operating Capacity,Virginia,SSL,Skid Steer Loaders,,OROPS,None or Unspecified,,,,,,,,,,Auxiliary,,,,,,Hydraulic,Yes,None or Unspecified,Standard,,,,,,,,,,,
22074,1139927,13000,1052947,121,3.0,2007,1034.0,High,8/21/2009 0:00,325,325,,,,,Skid Steer Loader - 2201.0 to 2701.0 Lb Operating Capacity,Utah,SSL,Skid Steer Loaders,,EROPS w AC,None or Unspecified,,,,,,,,,,Standard,,,,,,None or Unspecified,None or Unspecified,None or Unspecified,Standard,,,,,,,,,,,
22074,1142725,10000,1066910,121,3.0,2006,1185.0,Medium,9/17/2009 0:00,325,325,,,,,Skid Steer Loader - 2201.0 to 2701.0 Lb Operating Capacity,Utah,SSL,Skid Steer Loaders,,OROPS,None or Unspecified,,,,,,,,,,Auxiliary,,,,,,None or Unspecified,None or Unspecified,None or Unspecified,Standard,,,,,,,,,,,
22074,1143357,11000,1050268,121,3.0,2006,791.0,Medium,8/6/2009 0:00,325,325,,,,,Skid Steer Loader - 2201.0 to 2701.0 Lb Operating Capacity,Virginia,SSL,Skid Steer Loaders,,OROPS,None or Unspecified,,,,,,,,,,Auxiliary,,,,,,Hydraulic,Yes,None or Unspecified,Standard,,,,,,,,,,,
22074,1144200,10500,1009392,121,3.0,2006,1131.0,Medium,8/6/2009 0:00,325,325,,,,,Skid Steer Loader - 2201.0 to 2701.0 Lb Operating Capacity,Virginia,SSL,Skid Steer Loaders,,OROPS,None or Unspecified,,,,,,,,,,Auxiliary,,,,,,None or Unspecified,None or Unspecified,None or Unspecified,Standard,,,,,,,,,,,
22074,1145427,12500,1035468,121,3.0,2006,835.0,Medium,8/6/2009 0:00,325,325,,,,,Skid Steer Loader - 2201.0 to 2701.0 Lb Operating Capacity,Virginia,SSL,Skid Steer Loaders,,OROPS,None or Unspecified,,,,,,,,,,Standard,,,,,,Hydraulic,Yes,None or Unspecified,Standard,,,,,,,,,,,
22074,1152965,9000,1066963,121,3.0,2006,900.0,Medium,8/6/2009 0:00,325,325,,,,,Skid Steer Loader - 2201.0 to 2701.0 Lb Operating Capacity,Virginia,SSL,Skid Steer Loaders,,OROPS,None or Unspecified,,,,,,,,,,Auxiliary,,,,,,Hydraulic,Yes,None or Unspecified,Standard,,,,,,,,,,,
22074,1153231,12000,1005425,121,3.0,2005,822.0,Medium,11/25/2008 0:00,325,325,,,,,Skid Steer Loader - 2201.0 to 2701.0 Lb Operating Capacity,North Carolina,SSL,Skid Steer Loaders,,OROPS,None or Unspecified,,,,,,,,,,Auxiliary,,,,,,None or Unspecified,None or Unspecified,None or Unspecified,Standard,,,,,,,,,,,
22074,1153882,11500,1011941,121,3.0,2006,1137.0,Medium,8/6/2009 0:00,325,325,,,,,Skid Steer Loader - 2201.0 to 2701.0 Lb Operating Capacity,Virginia,SSL,Skid Steer Loaders,,OROPS,None or Unspecified,,,,,,,,,,Auxiliary,,,,,,Hydraulic,Yes,None or Unspecified,Standard,,,,,,,,,,,
22074,1158776,11000,1006906,121,3.0,2006,709.0,Medium,8/6/2009 0:00,325,325,,,,,Skid Steer Loader - 2201.0 to 2701.0 Lb Operating Capacity,Virginia,SSL,Skid Steer Loaders,,OROPS,None or Unspecified,,,,,,,,,,Auxiliary,,,,,,Hydraulic,Yes,None or Unspecified,Standard,,,,,,,,,,,
22074,1159250,9500,1066242,121,3.0,2005,877.0,Medium,8/6/2009 0:00,325,325,,,,,Skid Steer Loader - 2201.0 to 2701.0 Lb Operating Capacity,Virginia,SSL,Skid Steer Loaders,,OROPS,None or Unspecified,,,,,,,,,,Auxiliary,,,,,,Manual,Yes,None or Unspecified,Standard,,,,,,,,,,,
22074,1160034,10500,1049277,121,3.0,2006,827.0,Medium,8/6/2009 0:00,325,325,,,,,Skid Steer Loader - 2201.0 to 2701.0 Lb Operating Capacity,Virginia,SSL,Skid Steer Loaders,,OROPS,Yes,,,,,,,,,,Auxiliary,,,,,,Hydraulic,Yes,None or Unspecified,Standard,,,,,,,,,,,
22074,1160210,11500,1013177,121,3.0,2006,713.0,Medium,8/6/2009 0:00,325,325,,,,,Skid Steer Loader - 2201.0 to 2701.0 Lb Operating Capacity,Virginia,SSL,Skid Steer Loaders,,OROPS,None or Unspecified,,,,,,,,,,Auxiliary,,,,,,Hydraulic,Yes,None or Unspecified,Standard,,,,,,,,,,,
22074,1161568,10000,1030957,121,3.0,2006,886.0,Medium,8/6/2009 0:00,325,325,,,,,Skid Steer Loader - 2201.0 to 2701.0 Lb Operating Capacity,Virginia,SSL,Skid Steer Loaders,,OROPS,None or Unspecified,,,,,,,,,,Auxiliary,,,,,,Hydraulic,Yes,None or Unspecified,Standard,,,,,,,,,,,
22074,1162206,10000,1009697,121,3.0,2006,1217.0,Medium,8/6/2009 0:00,325,325,,,,,Skid Steer Loader - 2201.0 to 2701.0 Lb Operating Capacity,Virginia,SSL,Skid Steer Loaders,,OROPS,None or Unspecified,,,,,,,,,,Auxiliary,,,,,,Hydraulic,Yes,None or Unspecified,Standard,,,,,,,,,,,
22074,1163620,11500,1064579,121,3.0,2006,875.0,Medium,8/6/2009 0:00,325,325,,,,,Skid Steer Loader - 2201.0 to 2701.0 Lb Operating Capacity,Virginia,SSL,Skid Steer Loaders,,OROPS,None or Unspecified,,,,,,,,,,Auxiliary,,,,,,Manual,Yes,None or Unspecified,Standard,,,,,,,,,,,
22074,1168310,10500,1014142,121,3.0,2005,2971.0,High,8/28/2009 0:00,325,325,,,,,Skid Steer Loader - 2201.0 to 2701.0 Lb Operating Capacity,Colorado,SSL,Skid Steer Loaders,,EROPS,None or Unspecified,,,,,,,,,,Auxiliary,,,,,,Manual,Yes,None or Unspecified,Standard,,,,,,,,,,,
22074,1171912,9000,1055381,121,3.0,2006,1039.0,Medium,8/6/2009 0:00,325,325,,,,,Skid Steer Loader - 2201.0 to 2701.0 Lb Operating Capacity,Virginia,SSL,Skid Steer Loaders,,OROPS,None or Unspecified,,,,,,,,,,Auxiliary,,,,,,Hydraulic,Yes,None or Unspecified,Standard,,,,,,,,,,,
22074,1173060,18500,668482,121,3.0,2005,856.0,High,9/21/2006 0:00,325,325,,,,,Skid Steer Loader - 2201.0 to 2701.0 Lb Operating Capacity,Nebraska,SSL,Skid Steer Loaders,,OROPS,Yes,,,,,,,,,,Auxiliary,,,,,,None or Unspecified,None or Unspecified,Yes,Standard,,,,,,,,,,,
22074,1198772,17000,1055232,121,3.0,2008,575.0,Medium,2/11/2010 0:00,325,325,,,,,Skid Steer Loader - 2201.0 to 2701.0 Lb Operating Capacity,Texas,SSL,Skid Steer Loaders,,OROPS,None or Unspecified,,,,,,,,,,Auxiliary,,,,,,Manual,Yes,None or Unspecified,Standard,,,,,,,,,,,
22074,1203531,9000,1010183,121,3.0,2005,3186.0,High,6/25/2010 0:00,325,325,,,,,Skid Steer Loader - 2201.0 to 2701.0 Lb Operating Capacity,Oregon,SSL,Skid Steer Loaders,,OROPS,None or Unspecified,,,,,,,,,,Auxiliary,,,,,,Hydraulic,Yes,None or Unspecified,Standard,,,,,,,,,,,
22074,1585668,10500,1473588,132,3.0,2005,,,9/3/2009 0:00,325,325,,,,,Skid Steer Loader - 2201.0 to 2701.0 Lb Operating Capacity,California,SSL,Skid Steer Loaders,,OROPS,None or Unspecified,,,,,,,,,,Standard,,,,,,None or Unspecified,None or Unspecified,None or Unspecified,Standard,,,,,,,,,,,
22074,1585733,14000,1427748,132,1.0,2005,,,3/19/2009 0:00,325,325,,,,,Skid Steer Loader - 2201.0 to 2701.0 Lb Operating Capacity,Minnesota,SSL,Skid Steer Loaders,,OROPS,None or Unspecified,,,,,,,,,,Auxiliary,,,,,,None or Unspecified,None or Unspecified,None or Unspecified,Standard,,,,,,,,,,,
22074,1585935,13500,1298566,132,2.0,2005,,,8/22/2007 0:00,325,325,,,,,Skid Steer Loader - 2201.0 to 2701.0 Lb Operating Capacity,Texas,SSL,Skid Steer Loaders,,OROPS,None or Unspecified,,,,,,,,,,Standard,,,,,,None or Unspecified,None or Unspecified,None or Unspecified,Standard,,,,,,,,,,,
22074,1585970,13000,1460032,132,1.0,2005,,,4/11/2007 0:00,325,325,,,,,Skid Steer Loader - 2201.0 to 2701.0 Lb Operating Capacity,Ohio,SSL,Skid Steer Loaders,,OROPS,None or Unspecified,,,,,,,,,,Standard,,,,,,None or Unspecified,None or Unspecified,None or Unspecified,Standard,,,,,,,,,,,
22074,1585971,15500,1551620,132,8.0,1000,,,11/16/2005 0:00,325,325,,,,,Skid Steer Loader - 2201.0 to 2701.0 Lb Operating Capacity,Mississippi,SSL,Skid Steer Loaders,,OROPS,None or Unspecified,,,,,,,,,,Standard,,,,,,None or Unspecified,None or Unspecified,None or Unspecified,Standard,,,,,,,,,,,
22074,1585994,10000,1318918,132,1.0,2005,,,4/1/2011 0:00,325,325,,,,,Skid Steer Loader - 2201.0 to 2701.0 Lb Operating Capacity,Texas,SSL,Skid Steer Loaders,,OROPS,None or Unspecified,,,,,,,,,,Standard,,,,,,None or Unspecified,None or Unspecified,None or Unspecified,Standard,,,,,,,,,,,
22074,1586076,12000,1109961,132,12.0,2005,,,6/17/2009 0:00,325,325,,,,,Skid Steer Loader - 2201.0 to 2701.0 Lb Operating Capacity,South Carolina,SSL,Skid Steer Loaders,,OROPS,None or Unspecified,,,,,,,,,,Standard,,,,,,None or Unspecified,None or Unspecified,None or Unspecified,Standard,,,,,,,,,,,
22074,1586137,13500,1214182,132,4.0,2005,,,2/9/2010 0:00,325,325,,,,,Skid Steer Loader - 2201.0 to 2701.0 Lb Operating Capacity,Florida,SSL,Skid Steer Loaders,,OROPS,None or Unspecified,,,,,,,,,,Standard,,,,,,None or Unspecified,None or Unspecified,None or Unspecified,Standard,,,,,,,,,,,
22074,1586138,14000,1214182,132,8.0,2005,644.0,Low,1/28/2010 0:00,325,325,,,,,Skid Steer Loader - 2201.0 to 2701.0 Lb Operating Capacity,Alabama,SSL,Skid Steer Loaders,,OROPS,None or Unspecified,,,,,,,,,,Standard,,,,,,None or Unspecified,None or Unspecified,None or Unspecified,Standard,,,,,,,,,,,
22074,1586139,13000,1214182,132,8.0,2005,,,11/18/2009 0:00,325,325,,,,,Skid Steer Loader - 2201.0 to 2701.0 Lb Operating Capacity,Mississippi,SSL,Skid Steer Loaders,,OROPS,None or Unspecified,,,,,,,,,,Standard,,,,,,None or Unspecified,None or Unspecified,None or Unspecified,Standard,,,,,,,,,,,
22074,1586140,13500,1214182,132,4.0,2005,,,2/8/2010 0:00,325,325,,,,,Skid Steer Loader - 2201.0 to 2701.0 Lb Operating Capacity,Florida,SSL,Skid Steer Loaders,,OROPS,None or Unspecified,,,,,,,,,,Standard,,,,,,None or Unspecified,None or Unspecified,None or Unspecified,Standard,,,,,,,,,,,
22074,1586220,12000,1236607,132,1.0,2005,,,3/5/2009 0:00,325,325,,,,,Skid Steer Loader - 2201.0 to 2701.0 Lb Operating Capacity,Virginia,SSL,Skid Steer Loaders,,OROPS,None or Unspecified,,,,,,,,,,Standard,,,,,,None or Unspecified,None or Unspecified,None or Unspecified,Standard,,,,,,,,,,,
22074,1586235,15000,1332385,132,1.0,2005,,,12/19/2008 0:00,325,325,,,,,Skid Steer Loader - 2201.0 to 2701.0 Lb Operating Capacity,Missouri,SSL,Skid Steer Loaders,,OROPS,None or Unspecified,,,,,,,,,,Standard,,,,,,None or Unspecified,None or Unspecified,None or Unspecified,Standard,,,,,,,,,,,
22074,1586275,19000,1268489,132,12.0,2005,,,6/14/2006 0:00,325,325,,,,,Skid Steer Loader - 2201.0 to 2701.0 Lb Operating Capacity,South Carolina,SSL,Skid Steer Loaders,,OROPS,None or Unspecified,,,,,,,,,,Standard,,,,,,None or Unspecified,None or Unspecified,None or Unspecified,Standard,,,,,,,,,,,
22074,1586276,12000,1522350,132,1.0,2005,,,3/26/2009 0:00,325,325,,,,,Skid Steer Loader - 2201.0 to 2701.0 Lb Operating Capacity,Georgia,SSL,Skid Steer Loaders,,OROPS,None or Unspecified,,,,,,,,,,Standard,,,,,,None or Unspecified,None or Unspecified,None or Unspecified,Standard,,,,,,,,,,,
22074,1586291,13500,1074529,132,99.0,2005,,,5/15/2010 0:00,325,325,,,,,Skid Steer Loader - 2201.0 to 2701.0 Lb Operating Capacity,California,SSL,Skid Steer Loaders,,OROPS,None or Unspecified,,,,,,,,,,Standard,,,,,,None or Unspecified,None or Unspecified,None or Unspecified,Standard,,,,,,,,,,,
22074,1586313,14500,1321125,132,1.0,2005,,,4/11/2007 0:00,325,325,,,,,Skid Steer Loader - 2201.0 to 2701.0 Lb Operating Capacity,Ohio,SSL,Skid Steer Loaders,,OROPS,None or Unspecified,,,,,,,,,,Standard,,,,,,None or Unspecified,None or Unspecified,None or Unspecified,Standard,,,,,,,,,,,
22074,1586314,15500,1321125,132,1.0,2005,,,9/11/2007 0:00,325,325,,,,,Skid Steer Loader - 2201.0 to 2701.0 Lb Operating Capacity,Washington,SSL,Skid Steer Loaders,,OROPS,None or Unspecified,,,,,,,,,,Standard,,,,,,None or Unspecified,None or Unspecified,None or Unspecified,Standard,,,,,,,,,,,
22074,1586408,10500,1107463,132,1.0,2005,,,3/26/2009 0:00,325,325,,,,,Skid Steer Loader - 2201.0 to 2701.0 Lb Operating Capacity,Georgia,SSL,Skid Steer Loaders,,OROPS,None or Unspecified,,,,,,,,,,Standard,,,,,,None or Unspecified,None or Unspecified,None or Unspecified,Standard,,,,,,,,,,,
22074,1586432,15000,1401626,132,1.0,2005,249.0,Low,12/7/2007 0:00,325,325,,,,,Skid Steer Loader - 2201.0 to 2701.0 Lb Operating Capacity,Missouri,SSL,Skid Steer Loaders,,OROPS,None or Unspecified,,,,,,,,,,Standard,,,,,,None or Unspecified,None or Unspecified,None or Unspecified,Standard,,,,,,,,,,,
22074,1586499,16000,1167821,132,1.0,2005,,,12/7/2010 0:00,325,325,,,,,Skid Steer Loader - 2201.0 to 2701.0 Lb Operating Capacity,California,SSL,Skid Steer Loaders,,OROPS,None or Unspecified,,,,,,,,,,Standard,,,,,,None or Unspecified,None or Unspecified,None or Unspecified,Standard,,,,,,,,,,,
22074,1586524,10000,1205788,132,4.0,2005,,,2/8/2010 0:00,325,325,,,,,Skid Steer Loader - 2201.0 to 2701.0 Lb Operating Capacity,Florida,SSL,Skid Steer Loaders,,OROPS,None or Unspecified,,,,,,,,,,Standard,,,,,,None or Unspecified,None or Unspecified,None or Unspecified,Standard,,,,,,,,,,,
22074,1586525,10000,1205788,132,4.0,2005,,,2/9/2010 0:00,325,325,,,,,Skid Steer Loader - 2201.0 to 2701.0 Lb Operating Capacity,Florida,SSL,Skid Steer Loaders,,OROPS,None or Unspecified,,,,,,,,,,Standard,,,,,,None or Unspecified,None or Unspecified,None or Unspecified,Standard,,,,,,,,,,,
22074,1586529,11500,1385541,132,1.0,2005,2195.0,Medium,7/22/2011 0:00,325,325,,,,,Skid Steer Loader - 2201.0 to 2701.0 Lb Operating Capacity,California,SSL,Skid Steer Loaders,,OROPS,None or Unspecified,,,,,,,,,,Standard,,,,,,None or Unspecified,None or Unspecified,None or Unspecified,Standard,,,,,,,,,,,
22074,1586615,19000,1218378,132,1.0,2005,,,8/31/2007 0:00,325,325,,,,,Skid Steer Loader - 2201.0 to 2701.0 Lb Operating Capacity,Nevada,SSL,Skid Steer Loaders,,OROPS,None or Unspecified,,,,,,,,,,Standard,,,,,,None or Unspecified,None or Unspecified,None or Unspecified,Standard,,,,,,,,,,,
22074,1586644,10500,1429781,132,27.0,2005,3107.0,High,10/1/2009 0:00,325,325,,,,,Skid Steer Loader - 2201.0 to 2701.0 Lb Operating Capacity,North Carolina,SSL,Skid Steer Loaders,,OROPS,None or Unspecified,,,,,,,,,,Standard,,,,,,None or Unspecified,None or Unspecified,None or Unspecified,Standard,,,,,,,,,,,
22074,1586645,8500,1429781,132,1.0,2005,,,9/15/2009 0:00,325,325,,,,,Skid Steer Loader - 2201.0 to 2701.0 Lb Operating Capacity,Tennessee,SSL,Skid Steer Loaders,,OROPS,None or Unspecified,,,,,,,,,,Standard,,,,,,None or Unspecified,None or Unspecified,None or Unspecified,Standard,,,,,,,,,,,
22074,1586662,11600,1480239,132,14.0,2005,1046.0,Medium,9/26/2009 0:00,325,325,,,,,Skid Steer Loader - 2201.0 to 2701.0 Lb Operating Capacity,Indiana,SSL,Skid Steer Loaders,,OROPS,None or Unspecified,,,,,,,,,,Standard,,,,,,None or Unspecified,None or Unspecified,None or Unspecified,Standard,,,,,,,,,,,
22074,1586663,13500,1480239,132,14.0,2005,1065.0,Medium,12/11/2009 0:00,325,325,,,,,Skid Steer Loader - 2201.0 to 2701.0 Lb Operating Capacity,Indiana,SSL,Skid Steer Loaders,,OROPS,None or Unspecified,,,,,,,,,,Standard,,,,,,None or Unspecified,None or Unspecified,None or Unspecified,Standard,,,,,,,,,,,
22074,1586962,19000,1084462,132,1.0,2005,,,6/26/2008 0:00,325,325,,,,,Skid Steer Loader - 2201.0 to 2701.0 Lb Operating Capacity,Colorado,SSL,Skid Steer Loaders,,OROPS,None or Unspecified,,,,,,,,,,Standard,,,,,,None or Unspecified,None or Unspecified,None or Unspecified,Standard,,,,,,,,,,,
22074,1587277,12000,1493007,132,1.0,2005,1126.0,Low,5/24/2011 0:00,325,325,,,,,Skid Steer Loader - 2201.0 to 2701.0 Lb Operating Capacity,California,SSL,Skid Steer Loaders,,OROPS,None or Unspecified,,,,,,,,,,Standard,,,,,,None or Unspecified,None or Unspecified,None or Unspecified,Standard,,,,,,,,,,,
22074,1587347,17000,1548001,132,1.0,2005,,,10/15/2008 0:00,325,325,,,,,Skid Steer Loader - 2201.0 to 2701.0 Lb Operating Capacity,Florida,SSL,Skid Steer Loaders,,OROPS,None or Unspecified,,,,,,,,,,Standard,,,,,,None or Unspecified,None or Unspecified,None or Unspecified,Standard,,,,,,,,,,,
22074,1587421,14000,1422794,132,4.0,2005,,,2/9/2010 0:00,325,325,,,,,Skid Steer Loader - 2201.0 to 2701.0 Lb Operating Capacity,Florida,SSL,Skid Steer Loaders,,OROPS,None or Unspecified,,,,,,,,,,Standard,,,,,,None or Unspecified,None or Unspecified,None or Unspecified,Standard,,,,,,,,,,,
22074,1587677,11000,1084825,132,1.0,2006,,,3/30/2010 0:00,325,325,,,,,Skid Steer Loader - 2201.0 to 2701.0 Lb Operating Capacity,Maryland,SSL,Skid Steer Loaders,,OROPS,None or Unspecified,,,,,,,,,,Standard,,,,,,None or Unspecified,None or Unspecified,None or Unspecified,Standard,,,,,,,,,,,
22074,1587681,13500,1310554,132,1.0,2006,2308.0,High,10/6/2010 0:00,325,325,,,,,Skid Steer Loader - 2201.0 to 2701.0 Lb Operating Capacity,Missouri,SSL,Skid Steer Loaders,,OROPS,None or Unspecified,,,,,,,,,,Standard,,,,,,None or Unspecified,None or Unspecified,None or Unspecified,Standard,,,,,,,,,,,
22074,1587706,16750,1143184,132,4.0,2006,,,2/9/2009 0:00,325,325,,,,,Skid Steer Loader - 2201.0 to 2701.0 Lb Operating Capacity,Florida,SSL,Skid Steer Loaders,,OROPS,None or Unspecified,,,,,,,,,,Standard,,,,,,None or Unspecified,None or Unspecified,None or Unspecified,Standard,,,,,,,,,,,
22074,1587707,16750,1143184,132,4.0,2006,,,2/10/2009 0:00,325,325,,,,,Skid Steer Loader - 2201.0 to 2701.0 Lb Operating Capacity,Florida,SSL,Skid Steer Loaders,,OROPS,None or Unspecified,,,,,,,,,,Standard,,,,,,None or Unspecified,None or Unspecified,None or Unspecified,Standard,,,,,,,,,,,
22074,1587757,13500,1163472,132,99.0,2006,800.0,Medium,8/13/2009 0:00,325,325,,,,,Skid Steer Loader - 2201.0 to 2701.0 Lb Operating Capacity,New York,SSL,Skid Steer Loaders,,OROPS,None or Unspecified,,,,,,,,,,Standard,,,,,,None or Unspecified,None or Unspecified,None or Unspecified,Standard,,,,,,,,,,,
22074,1587782,14000,1335732,132,14.0,2006,878.0,Medium,9/18/2009 0:00,325,325,,,,,Skid Steer Loader - 2201.0 to 2701.0 Lb Operating Capacity,Indiana,SSL,Skid Steer Loaders,,OROPS,None or Unspecified,,,,,,,,,,Standard,,,,,,None or Unspecified,None or Unspecified,None or Unspecified,Standard,,,,,,,,,,,
22074,1587848,19000,1188303,132,1.0,2006,121.0,Low,12/9/2010 0:00,325,325,,,,,Skid Steer Loader - 2201.0 to 2701.0 Lb Operating Capacity,Illinois,SSL,Skid Steer Loaders,,OROPS,None or Unspecified,,,,,,,,,,Standard,,,,,,None or Unspecified,None or Unspecified,None or Unspecified,Standard,,,,,,,,,,,
22074,1587909,17750,1324991,132,4.0,2006,,,2/9/2009 0:00,325,325,,,,,Skid Steer Loader - 2201.0 to 2701.0 Lb Operating Capacity,Florida,SSL,Skid Steer Loaders,,OROPS,None or Unspecified,,,,,,,,,,Standard,,,,,,None or Unspecified,None or Unspecified,None or Unspecified,Standard,,,,,,,,,,,
22074,1587910,17750,1324991,132,4.0,2006,,,2/10/2009 0:00,325,325,,,,,Skid Steer Loader - 2201.0 to 2701.0 Lb Operating Capacity,Florida,SSL,Skid Steer Loaders,,OROPS,None or Unspecified,,,,,,,,,,Standard,,,,,,None or Unspecified,None or Unspecified,None or Unspecified,Standard,,,,,,,,,,,
22074,1587965,17000,1303234,132,1.0,2006,,,6/8/2010 0:00,325,325,,,,,Skid Steer Loader - 2201.0 to 2701.0 Lb Operating Capacity,California,SSL,Skid Steer Loaders,,OROPS,None or Unspecified,,,,,,,,,,Standard,,,,,,None or Unspecified,None or Unspecified,None or Unspecified,Standard,,,,,,,,,,,
22074,1588109,12500,1511250,132,1.0,2006,,,6/23/2009 0:00,325,325,,,,,Skid Steer Loader - 2201.0 to 2701.0 Lb Operating Capacity,California,SSL,Skid Steer Loaders,,OROPS,None or Unspecified,,,,,,,,,,Standard,,,,,,None or Unspecified,None or Unspecified,None or Unspecified,Standard,,,,,,,,,,,
22074,1588145,10500,1490968,132,3.0,2006,,,8/27/2009 0:00,325,325,,,,,Skid Steer Loader - 2201.0 to 2701.0 Lb Operating Capacity,California,SSL,Skid Steer Loaders,,OROPS,None or Unspecified,,,,,,,,,,Standard,,,,,,None or Unspecified,None or Unspecified,None or Unspecified,Standard,,,,,,,,,,,
22074,1588146,10000,1490968,132,3.0,2006,,,9/17/2009 0:00,325,325,,,,,Skid Steer Loader - 2201.0 to 2701.0 Lb Operating Capacity,California,SSL,Skid Steer Loaders,,OROPS,None or Unspecified,,,,,,,,,,Standard,,,,,,None or Unspecified,None or Unspecified,None or Unspecified,Standard,,,,,,,,,,,
22074,1588223,11000,1249933,132,1.0,2006,,,6/29/2010 0:00,325,325,,,,,Skid Steer Loader - 2201.0 to 2701.0 Lb Operating Capacity,Missouri,SSL,Skid Steer Loaders,,OROPS,None or Unspecified,,,,,,,,,,Standard,,,,,,None or Unspecified,None or Unspecified,None or Unspecified,Standard,,,,,,,,,,,
22074,1588462,18750,1094585,132,4.0,2006,,,2/9/2009 0:00,325,325,,,,,Skid Steer Loader - 2201.0 to 2701.0 Lb Operating Capacity,Florida,SSL,Skid Steer Loaders,,OROPS,None or Unspecified,,,,,,,,,,Standard,,,,,,None or Unspecified,None or Unspecified,None or Unspecified,Standard,,,,,,,,,,,
22074,1588464,18750,1094585,132,4.0,2006,,,2/10/2009 0:00,325,325,,,,,Skid Steer Loader - 2201.0 to 2701.0 Lb Operating Capacity,Florida,SSL,Skid Steer Loaders,,OROPS,None or Unspecified,,,,,,,,,,Standard,,,,,,None or Unspecified,None or Unspecified,None or Unspecified,Standard,,,,,,,,,,,
22074,1589346,13000,1467022,132,3.0,2007,,,8/27/2009 0:00,325,325,,,,,Skid Steer Loader - 2201.0 to 2701.0 Lb Operating Capacity,California,SSL,Skid Steer Loaders,,OROPS,None or Unspecified,,,,,,,,,,Standard,,,,,,None or Unspecified,None or Unspecified,None or Unspecified,Standard,,,,,,,,,,,
22074,1589490,17500,1121981,132,1.0,2007,,,10/20/2009 0:00,325,325,,,,,Skid Steer Loader - 2201.0 to 2701.0 Lb Operating Capacity,Colorado,SSL,Skid Steer Loaders,,OROPS,None or Unspecified,,,,,,,,,,Standard,,,,,,None or Unspecified,None or Unspecified,None or Unspecified,Standard,,,,,,,,,,,
22074,1644580,14000,1110423,132,4.0,2005,,,2/8/2010 0:00,325,325,,,,,Skid Steer Loader - 2201.0 to 2701.0 Lb Operating Capacity,Florida,SSL,Skid Steer Loaders,,OROPS,None or Unspecified,,,,,,,,,,Standard,,,,,,None or Unspecified,None or Unspecified,None or Unspecified,Standard,,,,,,,,,,,
22074,2328856,15500,1349411,136,2.0,2005,0.0,,5/7/2008 0:00,325,325,,,,,Skid Steer Loader - 2201.0 to 2701.0 Lb Operating Capacity,Texas,SSL,Skid Steer Loaders,,EROPS w AC,None or Unspecified,,,,,,,,,,Auxiliary,,,,,,Manual,None or Unspecified,None or Unspecified,Standard,,,,,,,,,,,
22074,2329105,10500,1305100,136,8.0,2006,0.0,,11/14/2007 0:00,325,325,,,,,Skid Steer Loader - 2201.0 to 2701.0 Lb Operating Capacity,Mississippi,SSL,Skid Steer Loaders,,OROPS,None or Unspecified,,,,,,,,,,Standard,,,,,,None or Unspecified,None or Unspecified,None or Unspecified,Standard,,,,,,,,,,,
22074,2336723,12915,1672459,136,,2005,0.0,,6/7/2008 0:00,325,325,,,,,Skid Steer Loader - 2201.0 to 2701.0 Lb Operating Capacity,Tennessee,SSL,Skid Steer Loaders,,OROPS,None or Unspecified,,,,,,,,,,Standard,,,,,,None or Unspecified,None or Unspecified,None or Unspecified,Standard,,,,,,,,,,,
22074,2336734,13387,1685653,136,,2006,0.0,,6/7/2008 0:00,325,325,,,,,Skid Steer Loader - 2201.0 to 2701.0 Lb Operating Capacity,Tennessee,SSL,Skid Steer Loaders,,OROPS,None or Unspecified,,,,,,,,,,Standard,,,,,,None or Unspecified,None or Unspecified,None or Unspecified,Standard,,,,,,,,,,,
22074,2336736,12000,1740397,136,,2006,800.0,Medium,9/18/2009 0:00,325,325,,,,,Skid Steer Loader - 2201.0 to 2701.0 Lb Operating Capacity,Indiana,SSL,Skid Steer Loaders,,OROPS,None or Unspecified,,,,,,,,,,Auxiliary,,,,,,None or Unspecified,None or Unspecified,None or Unspecified,Standard,,,,,,,,,,,
22074,2347434,13500,1747123,136,,2005,0.0,,8/22/2007 0:00,325,325,,,,,Skid Steer Loader - 2201.0 to 2701.0 Lb Operating Capacity,Texas,SSL,Skid Steer Loaders,,OROPS,None or Unspecified,,,,,,,,,,Auxiliary,,,,,,None or Unspecified,None or Unspecified,None or Unspecified,Standard,,,,,,,,,,,
22074,2347436,12000,1783983,136,,2005,0.0,,6/17/2009 0:00,325,325,,,,,Skid Steer Loader - 2201.0 to 2701.0 Lb Operating Capacity,South Carolina,SSL,Skid Steer Loaders,,OROPS,None or Unspecified,,,,,,,,,,Auxiliary,,,,,,None or Unspecified,None or Unspecified,None or Unspecified,Standard,,,,,,,,,,,
22074,2347439,13500,1763817,136,1.0,2005,1315.0,Medium,12/19/2008 0:00,325,325,,,,,Skid Steer Loader - 2201.0 to 2701.0 Lb Operating Capacity,Missouri,SSL,Skid Steer Loaders,,OROPS,None or Unspecified,,,,,,,,,,Auxiliary,,,,,,None or Unspecified,None or Unspecified,None or Unspecified,Standard,,,,,,,,,,,
22074,2347440,12000,1788504,136,1.0,2005,0.0,,3/26/2009 0:00,325,325,,,,,Skid Steer Loader - 2201.0 to 2701.0 Lb Operating Capacity,Georgia,SSL,Skid Steer Loaders,,OROPS,None or Unspecified,,,,,,,,,,Auxiliary,,,,,,None or Unspecified,None or Unspecified,None or Unspecified,Standard,,,,,,,,,,,
22074,2347443,15500,1680148,136,,2005,0.0,,9/11/2007 0:00,325,325,,,,,Skid Steer Loader - 2201.0 to 2701.0 Lb Operating Capacity,Washington,SSL,Skid Steer Loaders,,EROPS,None or Unspecified,,,,,,,,,,Auxiliary,,,,,,Manual,None or Unspecified,None or Unspecified,Standard,,,,,,,,,,,
22074,2347446,10500,1714580,136,1.0,2005,0.0,,3/26/2009 0:00,325,325,,,,,Skid Steer Loader - 2201.0 to 2701.0 Lb Operating Capacity,Georgia,SSL,Skid Steer Loaders,,OROPS,None or Unspecified,,,,,,,,,,Auxiliary,,,,,,None or Unspecified,None or Unspecified,None or Unspecified,Standard,,,,,,,,,,,
22074,2347447,15000,1686016,136,1.0,2005,249.0,Low,12/7/2007 0:00,325,325,,,,,Skid Steer Loader - 2201.0 to 2701.0 Lb Operating Capacity,Missouri,SSL,Skid Steer Loaders,,OROPS,None or Unspecified,,,,,,,,,,Auxiliary,,,,,,None or Unspecified,None or Unspecified,None or Unspecified,Standard,,,,,,,,,,,
22074,2347448,16000,341983,136,,2005,1143.0,Medium,12/13/2008 0:00,325,325,,,,,Skid Steer Loader - 2201.0 to 2701.0 Lb Operating Capacity,Pennsylvania,SSL,Skid Steer Loaders,,OROPS,None or Unspecified,,,,,,,,,,Auxiliary,,,,,,Manual,Yes,None or Unspecified,Standard,,,,,,,,,,,
22074,2347449,19000,1726076,136,,2005,0.0,,8/31/2007 0:00,325,325,,,,,Skid Steer Loader - 2201.0 to 2701.0 Lb Operating Capacity,Nevada,SSL,Skid Steer Loaders,,EROPS w AC,None or Unspecified,,,,,,,,,,Auxiliary,,,,,,None or Unspecified,None or Unspecified,None or Unspecified,Standard,,,,,,,,,,,
22074,2347450,8500,1712453,136,,2005,0.0,,9/15/2009 0:00,325,325,,,,,Skid Steer Loader - 2201.0 to 2701.0 Lb Operating Capacity,Tennessee,SSL,Skid Steer Loaders,,OROPS,None or Unspecified,,,,,,,,,,Auxiliary,,,,,,None or Unspecified,None or Unspecified,None or Unspecified,Standard,,,,,,,,,,,
22074,2347459,19000,1749446,136,1.0,2005,573.0,Low,6/26/2008 0:00,325,325,,,,,Skid Steer Loader - 2201.0 to 2701.0 Lb Operating Capacity,Colorado,SSL,Skid Steer Loaders,,OROPS,None or Unspecified,,,,,,,,,,Auxiliary,,,,,,Hydraulic,None or Unspecified,None or Unspecified,Standard,,,,,,,,,,,
22074,2347462,17000,1705828,136,1.0,2005,0.0,,10/15/2008 0:00,325,325,,,,,Skid Steer Loader - 2201.0 to 2701.0 Lb Operating Capacity,Florida,SSL,Skid Steer Loaders,,OROPS,None or Unspecified,,,,,,,,,,Auxiliary,,,,,,None or Unspecified,None or Unspecified,None or Unspecified,Standard,,,,,,,,,,,
22074,2347464,9000,1786493,136,,2005,0.0,,3/22/2008 0:00,325,325,,,,,Skid Steer Loader - 2201.0 to 2701.0 Lb Operating Capacity,California,SSL,Skid Steer Loaders,,OROPS,None or Unspecified,,,,,,,,,,Auxiliary,,,,,,None or Unspecified,None or Unspecified,None or Unspecified,Standard,,,,,,,,,,,
22074,2347465,9000,1770348,136,,2005,0.0,,3/22/2008 0:00,325,325,,,,,Skid Steer Loader - 2201.0 to 2701.0 Lb Operating Capacity,California,SSL,Skid Steer Loaders,,OROPS,None or Unspecified,,,,,,,,,,Auxiliary,,,,,,None or Unspecified,None or Unspecified,None or Unspecified,Standard,,,,,,,,,,,
22074,2347468,16750,1641118,136,,2006,0.0,,2/9/2009 0:00,325,325,,,,,Skid Steer Loader - 2201.0 to 2701.0 Lb Operating Capacity,Florida,SSL,Skid Steer Loaders,,OROPS,None or Unspecified,,,,,,,,,,Standard,,,,,,None or Unspecified,None or Unspecified,None or Unspecified,Standard,,,,,,,,,,,
22074,2347471,17750,1642606,136,,2006,0.0,,2/9/2009 0:00,325,325,,,,,Skid Steer Loader - 2201.0 to 2701.0 Lb Operating Capacity,Florida,SSL,Skid Steer Loaders,,OROPS,None or Unspecified,,,,,,,,,,Standard,,,,,,None or Unspecified,None or Unspecified,None or Unspecified,Standard,,,,,,,,,,,
22074,2347472,17000,1667053,136,1.0,2006,8000.0,High,6/8/2010 0:00,325,325,,,,,Skid Steer Loader - 2201.0 to 2701.0 Lb Operating Capacity,California,SSL,Skid Steer Loaders,,OROPS,None or Unspecified,,,,,,,,,,Auxiliary,,,,,,None or Unspecified,None or Unspecified,None or Unspecified,Standard,,,,,,,,,,,
22074,2347474,12500,1692395,136,1.0,2006,1313.0,Medium,6/23/2009 0:00,325,325,,,,,Skid Steer Loader - 2201.0 to 2701.0 Lb Operating Capacity,California,SSL,Skid Steer Loaders,,OROPS,None or Unspecified,,,,,,,,,,Auxiliary,,,,,,None or Unspecified,None or Unspecified,None or Unspecified,Standard,,,,,,,,,,,
22074,2347476,11000,1702877,136,1.0,2006,1757.0,Medium,6/29/2010 0:00,325,325,,,,,Skid Steer Loader - 2201.0 to 2701.0 Lb Operating Capacity,Missouri,SSL,Skid Steer Loaders,,OROPS,None or Unspecified,,,,,,,,,,Auxiliary,,,,,,None or Unspecified,None or Unspecified,None or Unspecified,Standard,,,,,,,,,,,
22074,2347479,18750,1700335,136,,2006,0.0,,2/9/2009 0:00,325,325,,,,,Skid Steer Loader - 2201.0 to 2701.0 Lb Operating Capacity,Florida,SSL,Skid Steer Loaders,,OROPS,None or Unspecified,,,,,,,,,,Standard,,,,,,None or Unspecified,None or Unspecified,None or Unspecified,Standard,,,,,,,,,,,
22074,2347491,14000,1684565,136,1.0,2005,0.0,,3/19/2009 0:00,325,325,,,,,Skid Steer Loader - 2201.0 to 2701.0 Lb Operating Capacity,Minnesota,SSL,Skid Steer Loaders,,OROPS,None or Unspecified,,,,,,,,,,Auxiliary,,,,,,None or Unspecified,None or Unspecified,None or Unspecified,Standard,,,,,,,,,,,
22074,2347498,12000,1719041,136,1.0,2004,0.0,,3/5/2009 0:00,325,325,,,,,Skid Steer Loader - 2201.0 to 2701.0 Lb Operating Capacity,Virginia,SSL,Skid Steer Loaders,,OROPS,None or Unspecified,,,,,,,,,,Auxiliary,,,,,,None or Unspecified,None or Unspecified,None or Unspecified,Standard,,,,,,,,,,,
22074,2347504,11000,1701613,136,1.0,2005,0.0,,6/29/2010 0:00,325,325,,,,,Skid Steer Loader - 2201.0 to 2701.0 Lb Operating Capacity,Missouri,SSL,Skid Steer Loaders,,OROPS,None or Unspecified,,,,,,,,,,Auxiliary,,,,,,None or Unspecified,None or Unspecified,None or Unspecified,Standard,,,,,,,,,,,
22074,2347546,17500,1657486,136,,2007,1097.0,High,10/20/2009 0:00,325,325,,,,,Skid Steer Loader - 2201.0 to 2701.0 Lb Operating Capacity,Colorado,SSL,Skid Steer Loaders,,EROPS,,,,,,,,,,,,,,,,,,,,,,,,,,,,,,,
22074,2622165,16500,1431901,149,1.0,2005,648.0,Low,1/28/2010 0:00,325,325,,,,,Skid Steer Loader - 2201.0 to 2701.0 Lb Operating Capacity,Alabama,SSL,Skid Steer Loaders,,OROPS,None or Unspecified,,,,,,,,,,Standard,,,,,,None or Unspecified,None or Unspecified,None or Unspecified,Standard,,,,,,,,,,,
22074,2622285,12500,1807008,149,2.0,2005,0.0,,10/30/2010 0:00,325,325,,,,,Skid Steer Loader - 2201.0 to 2701.0 Lb Operating Capacity,New York,SSL,Skid Steer Loaders,,EROPS w AC,None or Unspecified,,,,,,,,,,Standard,,,,,,None or Unspecified,None or Unspecified,None or Unspecified,Standard,,,,,,,,,,,
22074,2622693,15000,1393410,149,1.0,2006,0.0,,5/25/2011 0:00,325,325,,,,,Skid Steer Loader - 2201.0 to 2701.0 Lb Operating Capacity,Mississippi,SSL,Skid Steer Loaders,,OROPS,None or Unspecified,,,,,,,,,,Standard,,,,,,None or Unspecified,None or Unspecified,None or Unspecified,Standard,,,,,,,,,,,
22074,2643161,14000,1824582,149,1.0,2005,644.0,Low,1/28/2010 0:00,325,325,,,,,Skid Steer Loader - 2201.0 to 2701.0 Lb Operating Capacity,Alabama,SSL,Skid Steer Loaders,,OROPS,None or Unspecified,,,,,,,,,,Standard,,,,,,None or Unspecified,None or Unspecified,None or Unspecified,Standard,,,,,,,,,,,
22074,2643162,12000,1926535,149,99.0,2005,2030.0,Medium,12/11/2010 0:00,325,325,,,,,Skid Steer Loader - 2201.0 to 2701.0 Lb Operating Capacity,California,SSL,Skid Steer Loaders,,OROPS,None or Unspecified,,,,,,,,,,Auxiliary,,,,,,None or Unspecified,None or Unspecified,None or Unspecified,Standard,,,,,,,,,,,
22074,2643172,16000,1810030,149,1.0,2005,1152.0,Medium,12/7/2010 0:00,325,325,,,,,Skid Steer Loader - 2201.0 to 2701.0 Lb Operating Capacity,California,SSL,Skid Steer Loaders,,OROPS,None or Unspecified,,,,,,,,,,Auxiliary,,,,,,None or Unspecified,None or Unspecified,None or Unspecified,Standard,,,,,,,,,,,
22074,2643188,12000,1810723,149,1.0,2006,1126.0,Medium,5/24/2011 0:00,325,325,,,,,Skid Steer Loader - 2201.0 to 2701.0 Lb Operating Capacity,California,SSL,Skid Steer Loaders,,OROPS,None or Unspecified,,,,,,,,,,Auxiliary,,,,,,None or Unspecified,None or Unspecified,None or Unspecified,Standard,,,,,,,,,,,
22074,2643192,11000,1882877,149,1.0,2006,1031.0,Medium,3/30/2010 0:00,325,325,,,,,Skid Steer Loader - 2201.0 to 2701.0 Lb Operating Capacity,Maryland,SSL,Skid Steer Loaders,,OROPS,None or Unspecified,,,,,,,,,,Auxiliary,,,,,,None or Unspecified,None or Unspecified,None or Unspecified,Standard,,,,,,,,,,,
22074,2643232,16500,1896294,149,99.0,2007,931.0,Medium,7/14/2010 0:00,325,325,,,,,Skid Steer Loader - 2201.0 to 2701.0 Lb Operating Capacity,Colorado,SSL,Skid Steer Loaders,,EROPS,None or Unspecified,,,,,,,,,,Auxiliary,,,,,,None or Unspecified,None or Unspecified,None or Unspecified,Standard,,,,,,,,,,,
22074,2643280,13500,1813572,149,99.0,2005,0.0,,5/15/2010 0:00,325,325,,,,,Skid Steer Loader - 2201.0 to 2701.0 Lb Operating Capacity,California,SSL,Skid Steer Loaders,,OROPS,None or Unspecified,,,,,,,,,,Auxiliary,,,,,,None or Unspecified,None or Unspecified,None or Unspecified,Standard,,,,,,,,,,,
22074,2643309,19000,1819313,149,1.0,2006,121.0,Low,12/9/2010 0:00,325,325,,,,,Skid Steer Loader - 2201.0 to 2701.0 Lb Operating Capacity,Illinois,SSL,Skid Steer Loaders,,OROPS,None or Unspecified,,,,,,,,,,Auxiliary,,,,,,Hydraulic,None or Unspecified,None or Unspecified,Standard,,,,,,,,,,,
22074,2643684,13500,1895842,149,1.0,2006,2308.0,High,10/6/2010 0:00,325,325,,,,,Skid Steer Loader - 2201.0 to 2701.0 Lb Operating Capacity,Missouri,SSL,Skid Steer Loaders,,OROPS,None or Unspecified,,,,,,,,,,Auxiliary,,,,,,None or Unspecified,None or Unspecified,None or Unspecified,Standard,,,,,,,,,,,
22074,2647822,10000,1914973,149,1.0,2005,2715.0,Medium,4/1/2011 0:00,325,325,,,,,Skid Steer Loader - 2201.0 to 2701.0 Lb Operating Capacity,Texas,SSL,Skid Steer Loaders,,OROPS,None or Unspecified,,,,,,,,,,Auxiliary,,,,,,None or Unspecified,None or Unspecified,None or Unspecified,Standard,,,,,,,,,,,
22074,4318511,10000,2287973,172,1.0,2005,3094.0,High,12/6/2011 0:00,325,325,,,,,Skid Steer Loader - 2201.0 to 2701.0 Lb Operating Capacity,Georgia,SSL,Skid Steer Loaders,,OROPS,None or Unspecified,,,,,,,,,,Auxiliary,,,,,,None or Unspecified,None or Unspecified,Yes,Standard,,,,,,,,,,,
22074,4318514,12500,2287973,172,1.0,2005,4141.0,High,12/7/2011 0:00,325,325,,,,,Skid Steer Loader - 2201.0 to 2701.0 Lb Operating Capacity,Texas,SSL,Skid Steer Loaders,,OROPS,None or Unspecified,,,,,,,,,,Auxiliary,,,,,,None or Unspecified,None or Unspecified,Yes,Standard,,,,,,,,,,,
22074,4318518,11500,2287973,172,1.0,2005,2195.0,Medium,7/21/2011 0:00,325,325,,,,,Skid Steer Loader - 2201.0 to 2701.0 Lb Operating Capacity,California,SSL,Skid Steer Loaders,,OROPS,None or Unspecified,,,,,,,,,,Auxiliary,,,,,,None or Unspecified,None or Unspecified,Yes,Standard,,,,,,,,,,,
22074,4318519,13500,2287973,172,1.0,2005,750.0,Low,9/13/2011 0:00,325,325,,,,,Skid Steer Loader - 2201.0 to 2701.0 Lb Operating Capacity,Georgia,SSL,Skid Steer Loaders,,OROPS,None or Unspecified,,,,,,,,,,Auxiliary,,,,,,None or Unspecified,None or Unspecified,Yes,Standard,,,,,,,,,,,
22074,4318529,9000,2313351,172,1.0,2006,1002.0,Medium,5/27/2009 0:00,325,325,,,,,Skid Steer Loader - 2201.0 to 2701.0 Lb Operating Capacity,Florida,SSL,Skid Steer Loaders,,OROPS,None or Unspecified,,,,,,,,,,Auxiliary,,,,,,None or Unspecified,None or Unspecified,None or Unspecified,Standard,,,,,,,,,,,
22074,4318536,18000,2284685,172,1.0,2007,3160.0,High,10/6/2011 0:00,325,325,,,,,Skid Steer Loader - 2201.0 to 2701.0 Lb Operating Capacity,Illinois,SSL,Skid Steer Loaders,,EROPS w AC,None or Unspecified,,,,,,,,,,Auxiliary,,,,,,None or Unspecified,None or Unspecified,None or Unspecified,Standard,,,,,,,,,,,
22074,4318542,11500,2280993,172,1.0,2005,2219.0,Medium,12/13/2011 0:00,325,325,,,,,Skid Steer Loader - 2201.0 to 2701.0 Lb Operating Capacity,Illinois,SSL,Skid Steer Loaders,,OROPS,None or Unspecified,,,,,,,,,,Auxiliary,,,,,,None or Unspecified,None or Unspecified,None or Unspecified,Standard,,,,,,,,,,,
22074,6282305,13500,1224540,149,5.0,2005,,,6/24/2011 0:00,325,325,,,,,Skid Steer Loader - 2201.0 to 2701.0 Lb Operating Capacity,Connecticut,SSL,Skid Steer Loaders,,EROPS w AC,None or Unspecified,,,,,,,,,,Standard,,,,,,Hydraulic,Yes,None or Unspecified,Standard,,,,,,,,,,,
22074,6282411,18000,1883262,149,1.0,2007,,,10/7/2011 0:00,325,325,,,,,Skid Steer Loader - 2201.0 to 2701.0 Lb Operating Capacity,Illinois,SSL,Skid Steer Loaders,,EROPS w AC,None or Unspecified,,,,,,,,,,Auxiliary,,,,,,None or Unspecified,None or Unspecified,None or Unspecified,Standard,,,,,,,,,,,
22074,6282660,19600,1900306,149,0.0,2005,24.0,Low,12/28/2011 0:00,325,325,,,,,Skid Steer Loader - 2201.0 to 2701.0 Lb Operating Capacity,Iowa,SSL,Skid Steer Loaders,,EROPS w AC,None or Unspecified,,,,,,,,,,Standard,,,,,,None or Unspecified,None or Unspecified,None or Unspecified,Standard,,,,,,,,,,,
22074,6285834,12500,1912002,149,1.0,2005,,,12/8/2011 0:00,325,325,,,,,Skid Steer Loader - 2201.0 to 2701.0 Lb Operating Capacity,Texas,SSL,Skid Steer Loaders,,OROPS,None or Unspecified,,,,,,,,,,Auxiliary,,,,,,None or Unspecified,None or Unspecified,None or Unspecified,Standard,,,,,,,,,,,
22074,6285835,10000,1937605,149,1.0,2005,,,12/7/2011 0:00,325,325,,,,,Skid Steer Loader - 2201.0 to 2701.0 Lb Operating Capacity,Georgia,SSL,Skid Steer Loaders,,OROPS,None or Unspecified,,,,,,,,,,Auxiliary,,,,,,None or Unspecified,None or Unspecified,None or Unspecified,Standard,,,,,,,,,,,
22074,6285837,11500,1800922,149,1.0,2005,,,7/22/2011 0:00,325,325,,,,,Skid Steer Loader - 2201.0 to 2701.0 Lb Operating Capacity,California,SSL,Skid Steer Loaders,,OROPS,None or Unspecified,,,,,,,,,,Auxiliary,,,,,,None or Unspecified,None or Unspecified,None or Unspecified,Standard,,,,,,,,,,,
22074,6285838,13500,1804917,149,1.0,2005,,,9/14/2011 0:00,325,325,,,,,Skid Steer Loader - 2201.0 to 2701.0 Lb Operating Capacity,Georgia,SSL,Skid Steer Loaders,,OROPS,None or Unspecified,,,,,,,,,,Auxiliary,,,,,,None or Unspecified,None or Unspecified,None or Unspecified,Standard,,,,,,,,,,,
22074,6285849,11500,1881811,149,1.0,2005,,,12/14/2011 0:00,325,325,,,,,Skid Steer Loader - 2201.0 to 2701.0 Lb Operating Capacity,Illinois,SSL,Skid Steer Loaders,,OROPS,None or Unspecified,,,,,,,,,,Auxiliary,,,,,,None or Unspecified,None or Unspecified,None or Unspecified,Standard,,,,,,,,,,,
22074,6285852,12000,1938451,149,99.0,2008,,,6/30/2011 0:00,325,325,,,,,Skid Steer Loader - 2201.0 to 2701.0 Lb Operating Capacity,Nebraska,SSL,Skid Steer Loaders,,OROPS,None or Unspecified,,,,,,,,,,Auxiliary,,,,,,None or Unspecified,None or Unspecified,None or Unspecified,Standard,,,,,,,,,,,
