ModelID,SalesID,SalePrice,MachineID,datasource,auctioneerID,YearMade,MachineHoursCurrentMeter,UsageBand,saledate,fiModelDesc,fiBaseModel,fiSecondaryDesc,fiModelSeries,fiModelDescriptor,ProductSize,fiProductClassDesc,state,ProductGroup,ProductGroupDesc,Drive_System,Enclosure,Forks,Pad_Type,Ride_Control,Stick,Transmission,Turbocharged,Blade_Extension,Blade_Width,Enclosure_Type,Engine_Horsepower,Hydraulics,Pushblock,Ripper,Scarifier,Tip_Control,Tire_Size,Coupler,Coupler_System,Grouser_Tracks,Hydraulics_Flow,Track_Type,Undercarriage_Pad_Width,Stick_Length,Thumb,Pattern_Changer,Grouser_Type,Backhoe_Mounting,Blade_Type,Travel_Controls,Differential_Type,Steering_Controls
22114,1156464,34000,1038504,121,3.0,2006,797.0,Low,3/26/2009 0:00,450JLT,450,J,,LT,,"Track Type Tractor, Dozer - 20.0 to 75.0 Horsepower",Georgia,TTT,Track Type Tractors,,OROPS,,,,,Hydrostatic,,,,,,2 Valve,,None or Unspecified,,,,,,,,,,,,,,None or Unspecified,PAT,None or Unspecified,,
22114,1156649,39000,1027833,121,3.0,2006,1387.0,Medium,5/21/2009 0:00,450JLT,450,J,,LT,,"Track Type Tractor, Dozer - 20.0 to 75.0 Horsepower",Ohio,TTT,Track Type Tractors,,OROPS,,,,,Hydrostatic,,,,,,2 Valve,,None or Unspecified,,,,,,,,,,,,,,None or Unspecified,None or Unspecified,None or Unspecified,,
22114,1163748,46000,1040944,121,3.0,2005,1775.0,Medium,4/19/2007 0:00,450JLT,450,J,,LT,,"Track Type Tractor, Dozer - 20.0 to 75.0 Horsepower",Texas,TTT,Track Type Tractors,,OROPS,,,,,Hydrostatic,,,,,,2 Valve,,None or Unspecified,,,,,,,,,,,,,,None or Unspecified,None or Unspecified,None or Unspecified,,
22114,1168295,27000,1059174,121,3.0,2005,1651.0,Low,6/12/2009 0:00,450JLT,450,J,,LT,,"Track Type Tractor, Dozer - 20.0 to 75.0 Horsepower",South Carolina,TTT,Track Type Tractors,,OROPS,,,,,Hydrostatic,,,,,,2 Valve,,None or Unspecified,,,,,,,,,,,,,,None or Unspecified,None or Unspecified,None or Unspecified,,
22114,1171608,29000,1009495,121,3.0,2005,1360.0,Medium,11/20/2008 0:00,450JLT,450,J,,LT,,"Track Type Tractor, Dozer - 20.0 to 75.0 Horsepower",Washington,TTT,Track Type Tractors,,OROPS,,,,,Hydrostatic,,,,,,2 Valve,,Single Shank,,,,,,,,,,,,,,None or Unspecified,None or Unspecified,None or Unspecified,,
22114,1207963,38000,1022350,121,3.0,2008,626.0,Low,9/30/2010 0:00,450JLT,450,J,,LT,,"Track Type Tractor, Dozer - 20.0 to 75.0 Horsepower",Florida,TTT,Track Type Tractors,,OROPS,,,,,Standard,,,,,,2 Valve,,None or Unspecified,,,,,,,,,,,,,,None or Unspecified,None or Unspecified,None or Unspecified,,
22114,1585749,41000,1469796,132,1.0,2005,1823.0,Medium,10/10/2007 0:00,450JLT,450,J,,LT,,"Track Type Tractor, Dozer - 20.0 to 75.0 Horsepower",Florida,TTT,Track Type Tractors,,OROPS,,,,,Standard,,,,,,2 Valve,,None or Unspecified,,,,,,,,,,,,,,None or Unspecified,PAT,None or Unspecified,,
22114,1585750,37500,1437864,132,1.0,2005,1545.0,Medium,10/10/2007 0:00,450JLT,450,J,,LT,,"Track Type Tractor, Dozer - 20.0 to 75.0 Horsepower",Florida,TTT,Track Type Tractors,,OROPS,,,,,Standard,,,,,,2 Valve,,None or Unspecified,,,,,,,,,,,,,,None or Unspecified,PAT,None or Unspecified,,
22114,1585860,50000,1447208,132,1.0,2005,1251.0,Medium,3/28/2007 0:00,450JLT,450,J,,LT,,"Track Type Tractor, Dozer - 20.0 to 75.0 Horsepower",Missouri,TTT,Track Type Tractors,,OROPS,,,,,Standard,,,,,,2 Valve,,None or Unspecified,,,,,,,,,,,,,,None or Unspecified,PAT,None or Unspecified,,
22114,1585938,39000,1398687,132,1.0,2005,1484.0,Low,3/5/2009 0:00,450JLT,450,J,,LT,,"Track Type Tractor, Dozer - 20.0 to 75.0 Horsepower",Virginia,TTT,Track Type Tractors,,EROPS w AC,,,,,Standard,,,,,,2 Valve,,None or Unspecified,,,,,,,,,,,,,,None or Unspecified,PAT,None or Unspecified,,
22114,1585947,25000,1483555,132,1.0,2005,2219.0,Low,7/28/2011 0:00,450JLT,450,J,,LT,,"Track Type Tractor, Dozer - 20.0 to 75.0 Horsepower",Connecticut,TTT,Track Type Tractors,,OROPS,,,,,Standard,,,,,,2 Valve,,None or Unspecified,,,,,,,,,,,,,,None or Unspecified,PAT,None or Unspecified,,
22114,1586147,36000,770914,132,1.0,2005,1967.0,Medium,5/28/2008 0:00,450JLT,450,J,,LT,,"Track Type Tractor, Dozer - 20.0 to 75.0 Horsepower",Florida,TTT,Track Type Tractors,,OROPS,,,,,Standard,,,,,,2 Valve,,None or Unspecified,,,,,,,,,,,,,,None or Unspecified,PAT,None or Unspecified,,
22114,1586174,37500,361647,132,1.0,2005,2261.0,Medium,3/30/2010 0:00,450JLT,450,J,,LT,,"Track Type Tractor, Dozer - 20.0 to 75.0 Horsepower",Missouri,TTT,Track Type Tractors,,EROPS w AC,,,,,Standard,,,,,,2 Valve,,None or Unspecified,,,,,,,,,,,,,,None or Unspecified,PAT,None or Unspecified,,
22114,1586257,24750,1076159,132,20.0,2005,2280.0,Low,8/25/2011 0:00,450JLT,450,J,,LT,,"Track Type Tractor, Dozer - 20.0 to 75.0 Horsepower",Arkansas,TTT,Track Type Tractors,,OROPS,,,,,Standard,,,,,,2 Valve,,None or Unspecified,,,,,,,,,,,,,,None or Unspecified,PAT,None or Unspecified,,
22114,1586284,66500,1390218,132,2.0,2005,,,3/23/2006 0:00,450JLT,450,J,,LT,,"Track Type Tractor, Dozer - 20.0 to 75.0 Horsepower",New Jersey,TTT,Track Type Tractors,,EROPS w AC,,,,,Standard,,,,,,2 Valve,,None or Unspecified,,,,,,,,,,,,,,None or Unspecified,PAT,None or Unspecified,,
22114,1586400,26000,1227344,132,1.0,2005,1808.0,Medium,3/18/2009 0:00,450JLT,450,J,,LT,,"Track Type Tractor, Dozer - 20.0 to 75.0 Horsepower",Washington,TTT,Track Type Tractors,,OROPS,,,,,Standard,,,,,,2 Valve,,None or Unspecified,,,,,,,,,,,,,,None or Unspecified,PAT,None or Unspecified,,
22114,1586444,31000,1496162,132,1.0,2004,1449.0,Low,9/16/2008 0:00,450JLT,450,J,,LT,,"Track Type Tractor, Dozer - 20.0 to 75.0 Horsepower",Washington,TTT,Track Type Tractors,,OROPS,,,,,Standard,,,,,,2 Valve,,None or Unspecified,,,,,,,,,,,,,,None or Unspecified,PAT,None or Unspecified,,
22114,1586449,24000,1218283,132,1.0,2005,7209.0,High,4/13/2011 0:00,450JLT,450,J,,LT,,"Track Type Tractor, Dozer - 20.0 to 75.0 Horsepower",Texas,TTT,Track Type Tractors,,OROPS,,,,,Standard,,,,,,2 Valve,,None or Unspecified,,,,,,,,,,,,,,None or Unspecified,PAT,None or Unspecified,,
22114,1586450,24500,1218283,132,99.0,2005,4800.0,Medium,5/12/2011 0:00,450JLT,450,J,,LT,,"Track Type Tractor, Dozer - 20.0 to 75.0 Horsepower",Texas,TTT,Track Type Tractors,,OROPS,,,,,Standard,,,,,,2 Valve,,None or Unspecified,,,,,,,,,,,,,,None or Unspecified,PAT,None or Unspecified,,
22114,1586451,25000,1218283,132,10.0,2005,,,6/15/2011 0:00,450JLT,450,J,,LT,,"Track Type Tractor, Dozer - 20.0 to 75.0 Horsepower",Louisiana,TTT,Track Type Tractors,,OROPS,,,,,Standard,,,,,,2 Valve,,None or Unspecified,,,,,,,,,,,,,,None or Unspecified,PAT,None or Unspecified,,
22114,1586452,25000,1218283,132,99.0,2005,,,7/14/2011 0:00,450JLT,450,J,,LT,,"Track Type Tractor, Dozer - 20.0 to 75.0 Horsepower",Georgia,TTT,Track Type Tractors,,OROPS,,,,,Standard,,,,,,2 Valve,,None or Unspecified,,,,,,,,,,,,,,None or Unspecified,PAT,None or Unspecified,,
22114,1586477,27000,1122810,132,1.0,2005,1885.0,Medium,3/24/2009 0:00,450JLT,450,J,,LT,,"Track Type Tractor, Dozer - 20.0 to 75.0 Horsepower",North Carolina,TTT,Track Type Tractors,,OROPS,,,,,Standard,,,,,,2 Valve,,None or Unspecified,,,,,,,,,,,,,,None or Unspecified,PAT,None or Unspecified,,
22114,1586481,46000,1096295,132,1.0,2005,734.0,Low,2/21/2008 0:00,450JLT,450,J,,LT,,"Track Type Tractor, Dozer - 20.0 to 75.0 Horsepower",Florida,TTT,Track Type Tractors,,OROPS,,,,,Standard,,,,,,2 Valve,,None or Unspecified,,,,,,,,,,,,,,None or Unspecified,PAT,None or Unspecified,,
22114,1586527,30000,1509900,132,1.0,2005,1736.0,Low,3/30/2011 0:00,450JLT,450,J,,LT,,"Track Type Tractor, Dozer - 20.0 to 75.0 Horsepower",North Carolina,TTT,Track Type Tractors,,OROPS,,,,,Standard,,,,,,2 Valve,,None or Unspecified,,,,,,,,,,,,,,None or Unspecified,PAT,None or Unspecified,,
22114,1586680,27000,1505516,132,1.0,2005,1259.0,Low,3/24/2009 0:00,450JLT,450,J,,LT,,"Track Type Tractor, Dozer - 20.0 to 75.0 Horsepower",North Carolina,TTT,Track Type Tractors,,OROPS,,,,,Standard,,,,,,2 Valve,,None or Unspecified,,,,,,,,,,,,,,None or Unspecified,PAT,None or Unspecified,,
22114,1586683,29000,1232985,132,1.0,2005,2418.0,Medium,5/27/2010 0:00,450JLT,450,J,,LT,,"Track Type Tractor, Dozer - 20.0 to 75.0 Horsepower",Washington,TTT,Track Type Tractors,,OROPS,,,,,Standard,,,,,,2 Valve,,Multi Shank,,,,,,,,,,,,,,None or Unspecified,PAT,None or Unspecified,,
22114,1586738,55000,1087546,132,1.0,2005,1024.0,Medium,3/28/2007 0:00,450JLT,450,J,,LT,,"Track Type Tractor, Dozer - 20.0 to 75.0 Horsepower",Missouri,TTT,Track Type Tractors,,EROPS,,,,,Standard,,,,,,2 Valve,,None or Unspecified,,,,,,,,,,,,,,None or Unspecified,PAT,None or Unspecified,,
22114,1586816,27000,1509159,132,1.0,2005,,,7/27/2011 0:00,450JLT,450,J,,LT,,"Track Type Tractor, Dozer - 20.0 to 75.0 Horsepower",Texas,TTT,Track Type Tractors,,OROPS,,,,,Standard,,,,,,2 Valve,,Multi Shank,,,,,,,,,,,,,,None or Unspecified,PAT,None or Unspecified,,
22114,1586848,30000,1515450,132,1.0,2005,1494.0,Low,9/21/2010 0:00,450JLT,450,J,,LT,,"Track Type Tractor, Dozer - 20.0 to 75.0 Horsepower",Washington,TTT,Track Type Tractors,,OROPS,,,,,Standard,,,,,,2 Valve,,None or Unspecified,,,,,,,,,,,,,,None or Unspecified,PAT,None or Unspecified,,
22114,1586849,26000,1111828,132,1.0,2005,2150.0,Low,9/21/2010 0:00,450JLT,450,J,,LT,,"Track Type Tractor, Dozer - 20.0 to 75.0 Horsepower",Washington,TTT,Track Type Tractors,,EROPS,,,,,Standard,,,,,,2 Valve,,Multi Shank,,,,,,,,,,,,,,None or Unspecified,PAT,None or Unspecified,,
22114,1586869,24000,1270700,132,1.0,2005,2297.0,Medium,12/13/2010 0:00,450JLT,450,J,,LT,,"Track Type Tractor, Dozer - 20.0 to 75.0 Horsepower",Mississippi,TTT,Track Type Tractors,,OROPS,,,,,Standard,,,,,,2 Valve,,None or Unspecified,,,,,,,,,,,,,,None or Unspecified,PAT,None or Unspecified,,
22114,1586876,30000,1155758,132,1.0,2005,2046.0,Low,9/21/2010 0:00,450JLT,450,J,,LT,,"Track Type Tractor, Dozer - 20.0 to 75.0 Horsepower",Washington,TTT,Track Type Tractors,,OROPS,,,,,Standard,,,,,,2 Valve,,Multi Shank,,,,,,,,,,,,,,None or Unspecified,PAT,None or Unspecified,,
22114,1586878,32000,1355235,132,1.0,2005,1980.0,Low,12/9/2010 0:00,450JLT,450,J,,LT,,"Track Type Tractor, Dozer - 20.0 to 75.0 Horsepower",Washington,TTT,Track Type Tractors,,OROPS,,,,,Standard,,,,,,2 Valve,,Multi Shank,,,,,,,,,,,,,,None or Unspecified,PAT,None or Unspecified,,
22114,1586899,30000,1488066,132,1.0,2005,2236.0,Medium,3/26/2009 0:00,450JLT,450,J,,LT,,"Track Type Tractor, Dozer - 20.0 to 75.0 Horsepower",Georgia,TTT,Track Type Tractors,,OROPS,,,,,Standard,,,,,,2 Valve,,None or Unspecified,,,,,,,,,,,,,,None or Unspecified,PAT,None or Unspecified,,
22114,1586911,28000,1498837,132,1.0,2005,,,11/13/2008 0:00,450JLT,450,J,,LT,,"Track Type Tractor, Dozer - 20.0 to 75.0 Horsepower",Texas,TTT,Track Type Tractors,,OROPS,,,,,Standard,,,,,,2 Valve,,None or Unspecified,,,,,,,,,,,,,,None or Unspecified,PAT,None or Unspecified,,
22114,1586918,56000,1359823,132,7.0,2005,,,3/7/2007 0:00,450JLT,450,J,,LT,,"Track Type Tractor, Dozer - 20.0 to 75.0 Horsepower",Alabama,TTT,Track Type Tractors,,OROPS,,,,,Standard,,,,,,2 Valve,,Multi Shank,,,,,,,,,,,,,,None or Unspecified,PAT,None or Unspecified,,
22114,1586919,46000,1220530,132,3.0,2005,,,4/19/2007 0:00,450JLT,450,J,,LT,,"Track Type Tractor, Dozer - 20.0 to 75.0 Horsepower",California,TTT,Track Type Tractors,,OROPS,,,,,Hydrostatic,,,,,,2 Valve,,None or Unspecified,,,,,,,,,,,,,,None or Unspecified,None or Unspecified,None or Unspecified,,
22114,1587015,31000,1279920,132,1.0,2005,1306.0,Medium,9/16/2008 0:00,450JLT,450,J,,LT,,"Track Type Tractor, Dozer - 20.0 to 75.0 Horsepower",Washington,TTT,Track Type Tractors,,OROPS,,,,,Standard,,,,,,2 Valve,,None or Unspecified,,,,,,,,,,,,,,None or Unspecified,PAT,None or Unspecified,,
22114,1587025,24000,1510732,132,1.0,2005,4641.0,High,6/24/2009 0:00,450JLT,450,J,,LT,,"Track Type Tractor, Dozer - 20.0 to 75.0 Horsepower",Maryland,TTT,Track Type Tractors,,OROPS,,,,,Standard,,,,,,2 Valve,,None or Unspecified,,,,,,,,,,,,,,None or Unspecified,PAT,None or Unspecified,,
22114,1587065,28500,1547350,132,20.0,2005,2270.0,Medium,4/15/2010 0:00,450JLT,450,J,,LT,,"Track Type Tractor, Dozer - 20.0 to 75.0 Horsepower",Arkansas,TTT,Track Type Tractors,,OROPS,,,,,Powershift,,,,,,2 Valve,,None or Unspecified,,,,,,,,,,,,,,None or Unspecified,PAT,None or Unspecified,,
22114,1587068,34500,1547350,132,8.0,2005,2322.0,Medium,5/26/2010 0:00,450JLT,450,J,,LT,,"Track Type Tractor, Dozer - 20.0 to 75.0 Horsepower",Mississippi,TTT,Track Type Tractors,,OROPS,,,,,Powershift,,,,,,2 Valve,,None or Unspecified,,,,,,,,,,,,,,None or Unspecified,PAT,None or Unspecified,,
22114,1587069,29000,1547350,132,1.0,2005,2258.0,Medium,11/20/2008 0:00,450JLT,450,J,,LT,,"Track Type Tractor, Dozer - 20.0 to 75.0 Horsepower",Georgia,TTT,Track Type Tractors,,OROPS,,,,,Powershift,,,,,,2 Valve,,None or Unspecified,,,,,,,,,,,,,,None or Unspecified,PAT,None or Unspecified,,
22114,1587074,29000,1161931,132,1.0,2005,1098.0,Low,3/5/2009 0:00,450JLT,450,J,,LT,,"Track Type Tractor, Dozer - 20.0 to 75.0 Horsepower",Virginia,TTT,Track Type Tractors,,OROPS,,,,,Standard,,,,,,2 Valve,,None or Unspecified,,,,,,,,,,,,,,None or Unspecified,PAT,None or Unspecified,,
22114,1587118,28000,1266052,132,1.0,2005,3047.0,Medium,7/27/2011 0:00,450JLT,450,J,,LT,,"Track Type Tractor, Dozer - 20.0 to 75.0 Horsepower",Texas,TTT,Track Type Tractors,,EROPS,,,,,Standard,,,,,,2 Valve,,Multi Shank,,,,,,,,,,,,,,None or Unspecified,PAT,None or Unspecified,,
22114,1587132,29000,1095180,132,1.0,2005,1996.0,Medium,12/16/2008 0:00,450JLT,450,J,,LT,,"Track Type Tractor, Dozer - 20.0 to 75.0 Horsepower",Washington,TTT,Track Type Tractors,,OROPS,,,,,Standard,,,,,,2 Valve,,None or Unspecified,,,,,,,,,,,,,,None or Unspecified,PAT,Differential Steer,,
22114,1587190,27500,1400312,132,1.0,2005,464.0,Low,3/19/2009 0:00,450JLT,450,J,,LT,,"Track Type Tractor, Dozer - 20.0 to 75.0 Horsepower",Tennessee,TTT,Track Type Tractors,,OROPS,,,,,Standard,,,,,,2 Valve,,None or Unspecified,,,,,,,,,,,,,,None or Unspecified,PAT,None or Unspecified,,
22114,1587252,32000,1327655,132,1.0,2005,3655.0,Medium,3/15/2011 0:00,450JLT,450,J,,LT,,"Track Type Tractor, Dozer - 20.0 to 75.0 Horsepower",Tennessee,TTT,Track Type Tractors,,OROPS,,,,,Standard,,,,,,2 Valve,,None or Unspecified,,,,,,,,,,,,,,None or Unspecified,PAT,None or Unspecified,,
22114,1587269,42000,1381684,132,1.0,2005,1127.0,Medium,10/10/2007 0:00,450JLT,450,J,,LT,,"Track Type Tractor, Dozer - 20.0 to 75.0 Horsepower",Florida,TTT,Track Type Tractors,,OROPS,,,,,Standard,,,,,,2 Valve,,None or Unspecified,,,,,,,,,,,,,,None or Unspecified,PAT,None or Unspecified,,
22114,1587274,42500,1113366,132,1.0,2005,,,6/3/2011 0:00,450JLT,450,J,,LT,,"Track Type Tractor, Dozer - 20.0 to 75.0 Horsepower",Arkansas,TTT,Track Type Tractors,,EROPS w AC,,,,,Standard,,,,,,2 Valve,,Multi Shank,,,,,,,,,,,,,,None or Unspecified,PAT,None or Unspecified,,
22114,1587315,26000,1115606,132,1.0,2005,997.0,Low,12/9/2008 0:00,450JLT,450,J,,LT,,"Track Type Tractor, Dozer - 20.0 to 75.0 Horsepower",North Carolina,TTT,Track Type Tractors,,OROPS,,,,,Standard,,,,,,2 Valve,,None or Unspecified,,,,,,,,,,,,,,None or Unspecified,PAT,None or Unspecified,,
22114,1587327,38000,1355189,132,1.0,2005,1413.0,Medium,10/10/2007 0:00,450JLT,450,J,,LT,,"Track Type Tractor, Dozer - 20.0 to 75.0 Horsepower",Florida,TTT,Track Type Tractors,,OROPS,,,,,Standard,,,,,,2 Valve,,None or Unspecified,,,,,,,,,,,,,,None or Unspecified,PAT,None or Unspecified,,
22114,1587340,42000,1107766,132,1.0,2005,833.0,Low,10/10/2007 0:00,450JLT,450,J,,LT,,"Track Type Tractor, Dozer - 20.0 to 75.0 Horsepower",Florida,TTT,Track Type Tractors,,OROPS,,,,,Standard,,,,,,2 Valve,,None or Unspecified,,,,,,,,,,,,,,None or Unspecified,PAT,None or Unspecified,,
22114,1587342,28000,1379113,132,1.0,2005,706.0,Low,7/13/2010 0:00,450JLT,450,J,,LT,,"Track Type Tractor, Dozer - 20.0 to 75.0 Horsepower",Illinois,TTT,Track Type Tractors,,OROPS,,,,,Standard,,,,,,2 Valve,,None or Unspecified,,,,,,,,,,,,,,None or Unspecified,PAT,None or Unspecified,,
22114,1587486,39000,1182425,132,99.0,2005,1424.0,Low,3/6/2010 0:00,450JLT,450,J,,LT,,"Track Type Tractor, Dozer - 20.0 to 75.0 Horsepower",Tennessee,TTT,Track Type Tractors,,EROPS,,,,,Standard,,,,,,2 Valve,,None or Unspecified,,,,,,,,,,,,,,None or Unspecified,None or Unspecified,None or Unspecified,,
22114,1587715,28000,1526692,132,1.0,2006,745.0,Low,12/8/2008 0:00,450JLT,450,J,,LT,,"Track Type Tractor, Dozer - 20.0 to 75.0 Horsepower",Illinois,TTT,Track Type Tractors,,OROPS,,,,,Standard,,,,,,2 Valve,,None or Unspecified,,,,,,,,,,,,,,None or Unspecified,PAT,None or Unspecified,,
22114,1587721,37000,1475068,132,1.0,2005,,,6/7/2011 0:00,450JLT,450,J,,LT,,"Track Type Tractor, Dozer - 20.0 to 75.0 Horsepower",Colorado,TTT,Track Type Tractors,,OROPS,,,,,Standard,,,,,,2 Valve,,Single Shank,,,,,,,,,,,,,,None or Unspecified,PAT,None or Unspecified,,
22114,1587838,27000,655862,132,1.0,2006,,,4/13/2010 0:00,450JLT,450,J,,LT,,"Track Type Tractor, Dozer - 20.0 to 75.0 Horsepower",Idaho,TTT,Track Type Tractors,,OROPS,,,,,Standard,,,,,,2 Valve,,None or Unspecified,,,,,,,,,,,,,,None or Unspecified,PAT,None or Unspecified,,
22114,1587904,29000,1106787,132,1.0,2006,1175.0,Medium,12/16/2008 0:00,450JLT,450,J,,LT,,"Track Type Tractor, Dozer - 20.0 to 75.0 Horsepower",Washington,TTT,Track Type Tractors,,OROPS,,,,,Standard,,,,,,2 Valve,,None or Unspecified,,,,,,,,,,,,,,None or Unspecified,PAT,None or Unspecified,,
22114,1587940,26000,1345018,132,1.0,2006,1103.0,Medium,12/9/2008 0:00,450JLT,450,J,,LT,,"Track Type Tractor, Dozer - 20.0 to 75.0 Horsepower",North Carolina,TTT,Track Type Tractors,,OROPS,,,,,Standard,,,,,,2 Valve,,None or Unspecified,,,,,,,,,,,,,,None or Unspecified,PAT,None or Unspecified,,
22114,1587994,27500,1288026,132,1.0,2006,1062.0,Low,3/19/2009 0:00,450JLT,450,J,,LT,,"Track Type Tractor, Dozer - 20.0 to 75.0 Horsepower",Tennessee,TTT,Track Type Tractors,,OROPS,,,,,Standard,,,,,,2 Valve,,None or Unspecified,,,,,,,,,,,,,,None or Unspecified,PAT,None or Unspecified,,
22114,1588025,30000,1230614,132,1.0,2006,2730.0,Medium,12/2/2009 0:00,450JLT,450,J,,LT,,"Track Type Tractor, Dozer - 20.0 to 75.0 Horsepower",Texas,TTT,Track Type Tractors,,OROPS,,,,,Standard,,,,,,2 Valve,,None or Unspecified,,,,,,,,,,,,,,None or Unspecified,PAT,None or Unspecified,,
22114,1588084,26000,1202954,132,1.0,2006,1584.0,Low,8/18/2010 0:00,450JLT,450,J,,LT,,"Track Type Tractor, Dozer - 20.0 to 75.0 Horsepower",Florida,TTT,Track Type Tractors,,OROPS,,,,,Standard,,,,,,2 Valve,,None or Unspecified,,,,,,,,,,,,,,None or Unspecified,PAT,None or Unspecified,,
22114,1588087,31000,1393239,132,1.0,2006,1073.0,Medium,9/16/2008 0:00,450JLT,450,J,,LT,,"Track Type Tractor, Dozer - 20.0 to 75.0 Horsepower",Washington,TTT,Track Type Tractors,,OROPS,,,,,Standard,,,,,,2 Valve,,None or Unspecified,,,,,,,,,,,,,,None or Unspecified,PAT,None or Unspecified,,
22114,1588093,25000,1228160,132,1.0,2006,1833.0,Medium,12/9/2010 0:00,450JLT,450,J,,LT,,"Track Type Tractor, Dozer - 20.0 to 75.0 Horsepower",Washington,TTT,Track Type Tractors,,OROPS,,,,,Standard,,,,,,2 Valve,,None or Unspecified,,,,,,,,,,,,,,None or Unspecified,PAT,None or Unspecified,,
22114,1588096,26000,1181096,132,1.0,2006,1455.0,Low,8/18/2010 0:00,450JLT,450,J,,LT,,"Track Type Tractor, Dozer - 20.0 to 75.0 Horsepower",Florida,TTT,Track Type Tractors,,OROPS,,,,,Standard,,,,,,2 Valve,,None or Unspecified,,,,,,,,,,,,,,None or Unspecified,PAT,None or Unspecified,,
22114,1588103,24500,1185222,132,1.0,2006,,,8/18/2010 0:00,450JLT,450,J,,LT,,"Track Type Tractor, Dozer - 20.0 to 75.0 Horsepower",Florida,TTT,Track Type Tractors,,OROPS,,,,,Standard,,,,,,2 Valve,,None or Unspecified,,,,,,,,,,,,,,None or Unspecified,PAT,None or Unspecified,,
22114,1588104,31000,1185222,132,8.0,2006,,,9/15/2010 0:00,450JLT,450,J,,LT,,"Track Type Tractor, Dozer - 20.0 to 75.0 Horsepower",Mississippi,TTT,Track Type Tractors,,OROPS,,,,,Standard,,,,,,2 Valve,,None or Unspecified,,,,,,,,,,,,,,None or Unspecified,PAT,None or Unspecified,,
22114,1588160,40000,1431448,132,1.0,2006,229.0,Low,9/24/2008 0:00,450JLT,450,J,,LT,,"Track Type Tractor, Dozer - 20.0 to 75.0 Horsepower",Texas,TTT,Track Type Tractors,,OROPS,,,,,Hydrostatic,,,,,,2 Valve,,None or Unspecified,,,,,,,,,,,,,,None or Unspecified,PAT,None or Unspecified,,
22114,1588218,57500,1088524,132,1.0,2006,212.0,Low,2/28/2007 0:00,450JLT,450,J,,LT,,"Track Type Tractor, Dozer - 20.0 to 75.0 Horsepower",Texas,TTT,Track Type Tractors,,OROPS,,,,,Standard,,,,,,2 Valve,,None or Unspecified,,,,,,,,,,,,,,None or Unspecified,PAT,None or Unspecified,,
22114,1588373,37500,1299215,132,1.0,2006,1022.0,Low,4/3/2009 0:00,450JLT,450,J,,LT,,"Track Type Tractor, Dozer - 20.0 to 75.0 Horsepower",Nevada,TTT,Track Type Tractors,,OROPS,,,,,Standard,,,,,,2 Valve,,Multi Shank,,,,,,,,,,,,,,None or Unspecified,PAT,None or Unspecified,,
22114,1588432,35000,1213780,132,1.0,2006,1504.0,Medium,5/13/2009 0:00,450JLT,450,J,,LT,,"Track Type Tractor, Dozer - 20.0 to 75.0 Horsepower",Illinois,TTT,Track Type Tractors,,OROPS,,,,,Standard,,,,,,2 Valve,,None or Unspecified,,,,,,,,,,,,,,None or Unspecified,PAT,None or Unspecified,,
22114,1588452,32000,1164277,132,1.0,2006,,,12/8/2008 0:00,450JLT,450,J,,LT,,"Track Type Tractor, Dozer - 20.0 to 75.0 Horsepower",Illinois,TTT,Track Type Tractors,,EROPS w AC,,,,,Standard,,,,,,2 Valve,,None or Unspecified,,,,,,,,,,,,,,None or Unspecified,PAT,None or Unspecified,,
22114,1588454,40500,1164277,132,14.0,2006,,,12/11/2009 0:00,450JLT,450,J,,LT,,"Track Type Tractor, Dozer - 20.0 to 75.0 Horsepower",Indiana,TTT,Track Type Tractors,,EROPS w AC,,,,,Standard,,,,,,2 Valve,,None or Unspecified,,,,,,,,,,,,,,None or Unspecified,PAT,None or Unspecified,,
22114,1588531,51000,1516297,132,2.0,2006,,,12/1/2007 0:00,450JLT,450,J,,LT,,"Track Type Tractor, Dozer - 20.0 to 75.0 Horsepower",New York,TTT,Track Type Tractors,,OROPS,,,,,Standard,,,,,,2 Valve,,None or Unspecified,,,,,,,,,,,,,,None or Unspecified,PAT,None or Unspecified,,
22114,1588532,45000,1516297,132,2.0,2006,,,11/3/2007 0:00,450JLT,450,J,,LT,,"Track Type Tractor, Dozer - 20.0 to 75.0 Horsepower",New York,TTT,Track Type Tractors,,OROPS,,,,,Standard,,,,,,2 Valve,,None or Unspecified,,,,,,,,,,,,,,None or Unspecified,PAT,None or Unspecified,,
22114,1588606,36000,1158089,132,1.0,2006,966.0,Low,6/16/2011 0:00,450JLT,450,J,,LT,,"Track Type Tractor, Dozer - 20.0 to 75.0 Horsepower",Washington,TTT,Track Type Tractors,,OROPS,,,,,Standard,,,,,,2 Valve,,None or Unspecified,,,,,,,,,,,,,,None or Unspecified,PAT,None or Unspecified,,
22114,1588849,42000,1412438,132,13.0,2007,1153.0,Low,6/19/2010 0:00,450JLT,450,J,,LT,,"Track Type Tractor, Dozer - 20.0 to 75.0 Horsepower",Tennessee,TTT,Track Type Tractors,,EROPS w AC,,,,,Standard,,,,,,2 Valve,,None or Unspecified,,,,,,,,,,,,,,None or Unspecified,PAT,None or Unspecified,,
22114,1588886,27000,1407244,132,1.0,2007,,,10/27/2010 0:00,450JLT,450,J,,LT,,"Track Type Tractor, Dozer - 20.0 to 75.0 Horsepower",Florida,TTT,Track Type Tractors,,OROPS,,,,,Standard,,,,,,2 Valve,,None or Unspecified,,,,,,,,,,,,,,None or Unspecified,PAT,None or Unspecified,,
22114,1588888,31000,1407244,132,1.0,2007,3244.0,Medium,2/17/2011 0:00,450JLT,450,J,,LT,,"Track Type Tractor, Dozer - 20.0 to 75.0 Horsepower",Florida,TTT,Track Type Tractors,,OROPS,,,,,Standard,,,,,,2 Valve,,None or Unspecified,,,,,,,,,,,,,,None or Unspecified,PAT,None or Unspecified,,
22114,1589108,36000,1165705,132,1.0,2007,334.0,Low,8/18/2010 0:00,450JLT,450,J,,LT,,"Track Type Tractor, Dozer - 20.0 to 75.0 Horsepower",Florida,TTT,Track Type Tractors,,OROPS,,,,,Standard,,,,,,2 Valve,,None or Unspecified,,,,,,,,,,,,,,None or Unspecified,PAT,None or Unspecified,,
22114,1589522,54000,1224088,132,2.0,2007,,,2/4/2011 0:00,450JLT,450,J,,LT,,"Track Type Tractor, Dozer - 20.0 to 75.0 Horsepower",Florida,TTT,Track Type Tractors,,OROPS,,,,,Standard,,,,,,2 Valve,,None or Unspecified,,,,,,,,,,,,,,None or Unspecified,PAT,None or Unspecified,,
22114,1591396,72500,1501574,132,2.0,2005,,,3/23/2006 0:00,450JLT,450,J,,LT,,"Track Type Tractor, Dozer - 20.0 to 75.0 Horsepower",New Jersey,TTT,Track Type Tractors,,EROPS w AC,,,,,,,,,,,Standard,,,,,,,,,,,,,,,,,No,2 Pedal,,
22114,2328771,32000,1724105,136,2.0,2005,0.0,,5/22/2010 0:00,450JLT,450,J,,LT,,"Track Type Tractor, Dozer - 20.0 to 75.0 Horsepower",New York,TTT,Track Type Tractors,,OROPS,,,,,Standard,,,,,,2 Valve,,None or Unspecified,,,,,,,,,,,,,,None or Unspecified,PAT,None or Unspecified,,
22114,2328777,42000,780860,136,1.0,2005,0.0,,5/28/2008 0:00,450JLT,450,J,,LT,,"Track Type Tractor, Dozer - 20.0 to 75.0 Horsepower",Florida,TTT,Track Type Tractors,,EROPS w AC,,,,,Standard,,,,,,2 Valve,,None or Unspecified,,,,,,,,,,,,,,None or Unspecified,PAT,None or Unspecified,,
22114,2328779,35500,1496429,136,8.0,2005,1348.0,Medium,5/29/2008 0:00,450JLT,450,J,,LT,,"Track Type Tractor, Dozer - 20.0 to 75.0 Horsepower",Mississippi,TTT,Track Type Tractors,,OROPS,,,,,Standard,,,,,,2 Valve,,None or Unspecified,,,,,,,,,,,,,,None or Unspecified,PAT,None or Unspecified,,
22114,2328870,23500,1250624,136,99.0,1999,0.0,,11/18/2009 0:00,450JLT,450,J,,LT,,"Track Type Tractor, Dozer - 20.0 to 75.0 Horsepower",Minnesota,TTT,Track Type Tractors,,OROPS,,,,,Standard,,,,,,2 Valve,,None or Unspecified,,,,,,,,,,,,,,None or Unspecified,PAT,None or Unspecified,,
22114,2328986,37500,1547350,136,8.0,2005,2276.0,Medium,5/28/2009 0:00,450JLT,450,J,,LT,,"Track Type Tractor, Dozer - 20.0 to 75.0 Horsepower",Mississippi,TTT,Track Type Tractors,,OROPS,,,,,Powershift,,,,,,2 Valve,,None or Unspecified,,,,,,,,,,,,,,None or Unspecified,PAT,None or Unspecified,,
22114,2328987,29500,1547350,136,8.0,2005,2200.0,Medium,9/17/2009 0:00,450JLT,450,J,,LT,,"Track Type Tractor, Dozer - 20.0 to 75.0 Horsepower",Mississippi,TTT,Track Type Tractors,,OROPS,,,,,Powershift,,,,,,2 Valve,,None or Unspecified,,,,,,,,,,,,,,None or Unspecified,PAT,None or Unspecified,,
22114,2328988,35000,1547350,136,8.0,2005,227000.0,High,4/2/2009 0:00,450JLT,450,J,,LT,,"Track Type Tractor, Dozer - 20.0 to 75.0 Horsepower",Mississippi,TTT,Track Type Tractors,,OROPS,,,,,Powershift,,,,,,2 Valve,,None or Unspecified,,,,,,,,,,,,,,None or Unspecified,PAT,None or Unspecified,,
22114,2328989,32000,1547350,136,8.0,2005,0.0,,12/10/2008 0:00,450JLT,450,J,,LT,,"Track Type Tractor, Dozer - 20.0 to 75.0 Horsepower",Arkansas,TTT,Track Type Tractors,,OROPS,,,,,Powershift,,,,,,2 Valve,,None or Unspecified,,,,,,,,,,,,,,None or Unspecified,PAT,None or Unspecified,,
22114,2328990,31000,1547350,136,8.0,2005,0.0,,11/18/2009 0:00,450JLT,450,J,,LT,,"Track Type Tractor, Dozer - 20.0 to 75.0 Horsepower",Mississippi,TTT,Track Type Tractors,,OROPS,,,,,Powershift,,,,,,2 Valve,,None or Unspecified,,,,,,,,,,,,,,None or Unspecified,PAT,None or Unspecified,,
22114,2329120,25000,1209226,136,99.0,2006,0.0,,11/18/2009 0:00,450JLT,450,J,,LT,,"Track Type Tractor, Dozer - 20.0 to 75.0 Horsepower",Minnesota,TTT,Track Type Tractors,,OROPS,,,,,Standard,,,,,,2 Valve,,None or Unspecified,,,,,,,,,,,,,,None or Unspecified,PAT,None or Unspecified,,
22114,2329205,57000,1656848,136,,1000,0.0,,4/25/2009 0:00,450JLT,450,J,,LT,,"Track Type Tractor, Dozer - 20.0 to 75.0 Horsepower",New York,TTT,Track Type Tractors,,EROPS,,,,,Standard,,,,,,2 Valve,,None or Unspecified,,,,,,,,,,,,,,None or Unspecified,PAT,None or Unspecified,,
22114,2331217,27000,1723414,136,,2005,1658.0,Low,2/4/2009 0:00,450JLT,450,J,,LT,,"Track Type Tractor, Dozer - 20.0 to 75.0 Horsepower",Arkansas,TTT,Track Type Tractors,,OROPS,,,,,Standard,,,,,,2 Valve,,None or Unspecified,,,,,,,,,,,,,,None or Unspecified,PAT,None or Unspecified,,
22114,2345482,30000,1709577,136,99.0,2006,1407.0,Low,6/25/2010 0:00,450JLT,450,J,,LT,,"Track Type Tractor, Dozer - 20.0 to 75.0 Horsepower",California,TTT,Track Type Tractors,,OROPS,,,,,Standard,,,,,,2 Valve,,None or Unspecified,,,,,,,,,,,,,,None or Unspecified,None or Unspecified,None or Unspecified,,
22114,2354066,41000,1668978,136,1.0,2005,1823.0,Medium,10/10/2007 0:00,450JLT,450,J,,LT,,"Track Type Tractor, Dozer - 20.0 to 75.0 Horsepower",Florida,TTT,Track Type Tractors,,OROPS,,,,,Standard,,,,,,2 Valve,,None or Unspecified,,,,,,,,,,,,,,None or Unspecified,PAT,None or Unspecified,,
22114,2354067,37500,1668941,136,1.0,2005,1545.0,Medium,10/10/2007 0:00,450JLT,450,J,,LT,,"Track Type Tractor, Dozer - 20.0 to 75.0 Horsepower",Florida,TTT,Track Type Tractors,,OROPS,,,,,Standard,,,,,,2 Valve,,None or Unspecified,,,,,,,,,,,,,,None or Unspecified,PAT,None or Unspecified,,
22114,2354071,26500,1786974,136,,2004,0.0,,6/10/2009 0:00,450JLT,450,J,,LT,,"Track Type Tractor, Dozer - 20.0 to 75.0 Horsepower",Tennessee,TTT,Track Type Tractors,,OROPS,,,,,Standard,,,,,,2 Valve,,None or Unspecified,,,,,,,,,,,,,,None or Unspecified,PAT,None or Unspecified,,
22114,2354076,50000,1676186,136,,2005,1251.0,Medium,3/28/2007 0:00,450JLT,450,J,,LT,,"Track Type Tractor, Dozer - 20.0 to 75.0 Horsepower",Missouri,TTT,Track Type Tractors,,OROPS,,,,,Standard,,,,,,2 Valve,,None or Unspecified,,,,,,,,,,,,,,None or Unspecified,PAT,None or Unspecified,,
22114,2354080,39000,1742523,136,1.0,2005,0.0,,3/5/2009 0:00,450JLT,450,J,,LT,,"Track Type Tractor, Dozer - 20.0 to 75.0 Horsepower",Virginia,TTT,Track Type Tractors,,EROPS w AC,,,,,Standard,,,,,,2 Valve,,None or Unspecified,,,,,,,,,,,,,,None or Unspecified,PAT,None or Unspecified,,
22114,2354098,36000,1744994,136,1.0,2005,0.0,,5/28/2008 0:00,450JLT,450,J,,LT,,"Track Type Tractor, Dozer - 20.0 to 75.0 Horsepower",Florida,TTT,Track Type Tractors,,OROPS,,,,,Standard,,,,,,2 Valve,,None or Unspecified,,,,,,,,,,,,,,None or Unspecified,PAT,None or Unspecified,,
22114,2354101,37500,1714363,136,1.0,2005,2261.0,Medium,3/30/2010 0:00,450JLT,450,J,,LT,,"Track Type Tractor, Dozer - 20.0 to 75.0 Horsepower",Missouri,TTT,Track Type Tractors,,EROPS w AC,,,,,Standard,,,,,,2 Valve,,None or Unspecified,,,,,,,,,,,,,,None or Unspecified,PAT,None or Unspecified,,
22114,2354111,75000,1777648,136,1.0,2005,0.0,,11/30/2007 0:00,450JLT,450,J,,LT,,"Track Type Tractor, Dozer - 20.0 to 75.0 Horsepower",Nevada,TTT,Track Type Tractors,,EROPS w AC,,,,,Standard,,,,,,2 Valve,,Multi Shank,,,,,,,,,,,,,,None or Unspecified,None or Unspecified,None or Unspecified,,
22114,2354115,26000,1671591,136,1.0,2005,0.0,,3/18/2009 0:00,450JLT,450,J,,LT,,"Track Type Tractor, Dozer - 20.0 to 75.0 Horsepower",Washington,TTT,Track Type Tractors,,OROPS,,,,,Standard,,,,,,2 Valve,,None or Unspecified,,,,,,,,,,,,,,None or Unspecified,PAT,None or Unspecified,,
22114,2354118,28500,1781631,136,,2005,1330.0,Low,11/17/2009 0:00,450JLT,450,J,,LT,,"Track Type Tractor, Dozer - 20.0 to 75.0 Horsepower",Texas,TTT,Track Type Tractors,,OROPS,,,,,Standard,,,,,,2 Valve,,Single Shank,,,,,,,,,,,,,,None or Unspecified,PAT,None or Unspecified,,
22114,2354119,49500,1779461,136,,2005,797.0,Low,11/6/2008 0:00,450JLT,450,J,,LT,,"Track Type Tractor, Dozer - 20.0 to 75.0 Horsepower",Maine,TTT,Track Type Tractors,,EROPS w AC,,,,,Standard,,,,,,2 Valve,,None or Unspecified,,,,,,,,,,,,,,None or Unspecified,PAT,None or Unspecified,,
22114,2354120,31000,1719958,136,1.0,2004,1449.0,Low,9/16/2008 0:00,450JLT,450,J,,LT,,"Track Type Tractor, Dozer - 20.0 to 75.0 Horsepower",Washington,TTT,Track Type Tractors,,OROPS,,,,,Standard,,,,,,2 Valve,,None or Unspecified,,,,,,,,,,,,,,None or Unspecified,PAT,None or Unspecified,,
22114,2354126,27000,1758675,136,1.0,2005,0.0,,3/24/2009 0:00,450JLT,450,J,,LT,,"Track Type Tractor, Dozer - 20.0 to 75.0 Horsepower",North Carolina,TTT,Track Type Tractors,,OROPS,,,,,Standard,,,,,,2 Valve,,None or Unspecified,,,,,,,,,,,,,,None or Unspecified,PAT,None or Unspecified,,
22114,2354127,46000,1672220,136,1.0,2005,0.0,,2/19/2008 0:00,450JLT,450,J,,LT,,"Track Type Tractor, Dozer - 20.0 to 75.0 Horsepower",Florida,TTT,Track Type Tractors,,OROPS,,,,,Standard,,,,,,2 Valve,,None or Unspecified,,,,,,,,,,,,,,None or Unspecified,PAT,None or Unspecified,,
22114,2354129,35000,1771251,136,1.0,2005,0.0,,10/15/2008 0:00,450JLT,450,J,,LT,,"Track Type Tractor, Dozer - 20.0 to 75.0 Horsepower",Florida,TTT,Track Type Tractors,,OROPS,,,,,Standard,,,,,,2 Valve,,None or Unspecified,,,,,,,,,,,,,,None or Unspecified,PAT,None or Unspecified,,
22114,2354132,36500,1665878,136,,2005,0.0,,6/24/2008 0:00,450JLT,450,J,,LT,,"Track Type Tractor, Dozer - 20.0 to 75.0 Horsepower",Virginia,TTT,Track Type Tractors,,OROPS,,,,,Standard,,,,,,2 Valve,,None or Unspecified,,,,,,,,,,,,,,None or Unspecified,PAT,None or Unspecified,,
22114,2354146,44000,1756343,136,1.0,2005,0.0,,12/4/2007 0:00,450JLT,450,J,,LT,,"Track Type Tractor, Dozer - 20.0 to 75.0 Horsepower",California,TTT,Track Type Tractors,,OROPS,,,,,Standard,,,,,,2 Valve,,Multi Shank,,,,,,,,,,,,,,None or Unspecified,PAT,None or Unspecified,,
22114,2354147,44000,1678421,136,1.0,2005,866.0,Low,12/4/2007 0:00,450JLT,450,J,,LT,,"Track Type Tractor, Dozer - 20.0 to 75.0 Horsepower",California,TTT,Track Type Tractors,,OROPS,,,,,Standard,,,,,,2 Valve,,Multi Shank,,,,,,,,,,,,,,None or Unspecified,PAT,None or Unspecified,,
22114,2354156,27000,1782909,136,1.0,2005,0.0,,3/24/2009 0:00,450JLT,450,J,,LT,,"Track Type Tractor, Dozer - 20.0 to 75.0 Horsepower",North Carolina,TTT,Track Type Tractors,,OROPS,,,,,Standard,,,,,,2 Valve,,None or Unspecified,,,,,,,,,,,,,,None or Unspecified,PAT,None or Unspecified,,
22114,2354157,34000,1657385,136,1.0,2005,0.0,,5/14/2009 0:00,450JLT,450,J,,LT,,"Track Type Tractor, Dozer - 20.0 to 75.0 Horsepower",California,TTT,Track Type Tractors,,OROPS,,,,,Standard,,,,,,2 Valve,,Multi Shank,,,,,,,,,,,,,,None or Unspecified,PAT,None or Unspecified,,
22114,2354158,29000,1656584,136,1.0,2005,2418.0,Medium,5/27/2010 0:00,450JLT,450,J,,LT,,"Track Type Tractor, Dozer - 20.0 to 75.0 Horsepower",Washington,TTT,Track Type Tractors,,OROPS,,,,,Standard,,,,,,2 Valve,,Multi Shank,,,,,,,,,,,,,,None or Unspecified,PAT,None or Unspecified,,
22114,2354166,60000,1684671,136,,2005,774.0,Low,3/23/2007 0:00,450JLT,450,J,,LT,,"Track Type Tractor, Dozer - 20.0 to 75.0 Horsepower",Indiana,TTT,Track Type Tractors,,EROPS w AC,,,,,Standard,,,,,,2 Valve,,None or Unspecified,,,,,,,,,,,,,,None or Unspecified,PAT,None or Unspecified,,
22114,2354167,55000,1707403,136,,2005,1024.0,Medium,3/28/2007 0:00,450JLT,450,J,,LT,,"Track Type Tractor, Dozer - 20.0 to 75.0 Horsepower",Missouri,TTT,Track Type Tractors,,EROPS,,,,,Standard,,,,,,2 Valve,,None or Unspecified,,,,,,,,,,,,,,None or Unspecified,PAT,None or Unspecified,,
22114,2354174,30000,1711424,136,1.0,2005,1580.0,Low,5/14/2009 0:00,450JLT,450,J,,LT,,"Track Type Tractor, Dozer - 20.0 to 75.0 Horsepower",California,TTT,Track Type Tractors,,OROPS,,,,,Standard,,,,,,2 Valve,,Multi Shank,,,,,,,,,,,,,,None or Unspecified,PAT,None or Unspecified,,
22114,2354175,30000,1664128,136,1.0,2005,1456.0,Low,5/14/2009 0:00,450JLT,450,J,,LT,,"Track Type Tractor, Dozer - 20.0 to 75.0 Horsepower",California,TTT,Track Type Tractors,,OROPS,,,,,Standard,,,,,,2 Valve,,Multi Shank,,,,,,,,,,,,,,None or Unspecified,PAT,None or Unspecified,,
22114,2354188,31000,1717432,136,1.0,2005,1306.0,Medium,9/16/2008 0:00,450JLT,450,J,,LT,,"Track Type Tractor, Dozer - 20.0 to 75.0 Horsepower",Washington,TTT,Track Type Tractors,,OROPS,,,,,Standard,,,,,,2 Valve,,None or Unspecified,,,,,,,,,,,,,,None or Unspecified,PAT,None or Unspecified,,
22114,2354189,24000,1650193,136,1.0,2005,4641.0,High,6/24/2009 0:00,450JLT,450,J,,LT,,"Track Type Tractor, Dozer - 20.0 to 75.0 Horsepower",Maryland,TTT,Track Type Tractors,,OROPS,,,,,Standard,,,,,,2 Valve,,None or Unspecified,,,,,,,,,,,,,,None or Unspecified,PAT,None or Unspecified,,
22114,2354192,29000,1646177,136,1.0,2005,0.0,,11/20/2008 0:00,450JLT,450,J,,LT,,"Track Type Tractor, Dozer - 20.0 to 75.0 Horsepower",Georgia,TTT,Track Type Tractors,,OROPS,,,,,Standard,,,,,,2 Valve,,None or Unspecified,,,,,,,,,,,,,,None or Unspecified,PAT,None or Unspecified,,
22114,2354193,29500,1646177,136,,2005,2200.0,Medium,6/17/2009 0:00,450JLT,450,J,,LT,,"Track Type Tractor, Dozer - 20.0 to 75.0 Horsepower",Arkansas,TTT,Track Type Tractors,,OROPS,,,,,Standard,,,,,,2 Valve,,None or Unspecified,,,,,,,,,,,,,,None or Unspecified,PAT,None or Unspecified,,
22114,2354194,34000,1646177,136,,2005,2269.0,Medium,1/28/2009 0:00,450JLT,450,J,,LT,,"Track Type Tractor, Dozer - 20.0 to 75.0 Horsepower",Alabama,TTT,Track Type Tractors,,OROPS,,,,,Standard,,,,,,2 Valve,,None or Unspecified,,,,,,,,,,,,,,None or Unspecified,PAT,None or Unspecified,,
22114,2354201,29000,1661788,136,1.0,2005,1996.0,Medium,12/16/2008 0:00,450JLT,450,J,,LT,,"Track Type Tractor, Dozer - 20.0 to 75.0 Horsepower",Washington,TTT,Track Type Tractors,,OROPS,,,,,Standard,,,,,,2 Valve,,None or Unspecified,,,,,,,,,,,,,,None or Unspecified,PAT,Differential Steer,,
22114,2354206,27500,1728227,136,1.0,2005,464.0,Low,3/19/2009 0:00,450JLT,450,J,,LT,,"Track Type Tractor, Dozer - 20.0 to 75.0 Horsepower",Tennessee,TTT,Track Type Tractors,,OROPS,,,,,Standard,,,,,,2 Valve,,None or Unspecified,,,,,,,,,,,,,,None or Unspecified,PAT,None or Unspecified,,
22114,2354213,38000,1667162,136,1.0,2005,0.0,,10/10/2007 0:00,450JLT,450,J,,LT,,"Track Type Tractor, Dozer - 20.0 to 75.0 Horsepower",Florida,TTT,Track Type Tractors,,OROPS,,,,,Standard,,,,,,2 Valve,,None or Unspecified,,,,,,,,,,,,,,None or Unspecified,PAT,None or Unspecified,,
22114,2354214,42000,1764439,136,1.0,2005,0.0,,10/10/2007 0:00,450JLT,450,J,,LT,,"Track Type Tractor, Dozer - 20.0 to 75.0 Horsepower",Florida,TTT,Track Type Tractors,,OROPS,,,,,Standard,,,,,,2 Valve,,None or Unspecified,,,,,,,,,,,,,,None or Unspecified,PAT,None or Unspecified,,
22114,2354221,26000,1687052,136,1.0,2005,0.0,,12/9/2008 0:00,450JLT,450,J,,LT,,"Track Type Tractor, Dozer - 20.0 to 75.0 Horsepower",North Carolina,TTT,Track Type Tractors,,OROPS,,,,,Standard,,,,,,2 Valve,,None or Unspecified,,,,,,,,,,,,,,None or Unspecified,PAT,None or Unspecified,,
22114,2354223,38000,1711100,136,1.0,2005,0.0,,10/10/2007 0:00,450JLT,450,J,,LT,,"Track Type Tractor, Dozer - 20.0 to 75.0 Horsepower",Florida,TTT,Track Type Tractors,,OROPS,,,,,Standard,,,,,,2 Valve,,None or Unspecified,,,,,,,,,,,,,,None or Unspecified,PAT,None or Unspecified,,
22114,2354226,42000,1708489,136,1.0,2005,833.0,Low,10/10/2007 0:00,450JLT,450,J,,LT,,"Track Type Tractor, Dozer - 20.0 to 75.0 Horsepower",Florida,TTT,Track Type Tractors,,OROPS,,,,,Standard,,,,,,2 Valve,,None or Unspecified,,,,,,,,,,,,,,None or Unspecified,PAT,None or Unspecified,,
22114,2354243,28000,1688603,136,1.0,2006,745.0,Low,12/8/2008 0:00,450JLT,450,J,,LT,,"Track Type Tractor, Dozer - 20.0 to 75.0 Horsepower",Illinois,TTT,Track Type Tractors,,OROPS,,,,,Standard,,,,,,2 Valve,,None or Unspecified,,,,,,,,,,,,,,None or Unspecified,PAT,None or Unspecified,,
22114,2354248,27000,1713988,136,1.0,2006,0.0,,4/13/2010 0:00,450JLT,450,J,,LT,,"Track Type Tractor, Dozer - 20.0 to 75.0 Horsepower",Idaho,TTT,Track Type Tractors,,OROPS,,,,,Standard,,,,,,2 Valve,,None or Unspecified,,,,,,,,,,,,,,None or Unspecified,PAT,None or Unspecified,,
22114,2354249,29000,1757630,136,1.0,2006,1175.0,Medium,12/16/2008 0:00,450JLT,450,J,,LT,,"Track Type Tractor, Dozer - 20.0 to 75.0 Horsepower",Washington,TTT,Track Type Tractors,,OROPS,,,,,Standard,,,,,,2 Valve,,None or Unspecified,,,,,,,,,,,,,,None or Unspecified,PAT,None or Unspecified,,
22114,2354257,26000,1715357,136,1.0,2006,0.0,,12/9/2008 0:00,450JLT,450,J,,LT,,"Track Type Tractor, Dozer - 20.0 to 75.0 Horsepower",North Carolina,TTT,Track Type Tractors,,OROPS,,,,,Standard,,,,,,2 Valve,,None or Unspecified,,,,,,,,,,,,,,None or Unspecified,PAT,None or Unspecified,,
22114,2354260,27500,1733014,136,1.0,2006,1062.0,Low,3/19/2009 0:00,450JLT,450,J,,LT,,"Track Type Tractor, Dozer - 20.0 to 75.0 Horsepower",Tennessee,TTT,Track Type Tractors,,OROPS,,,,,Standard,,,,,,2 Valve,,None or Unspecified,,,,,,,,,,,,,,None or Unspecified,PAT,None or Unspecified,,
22114,2354263,30000,1736861,136,1.0,2006,0.0,,12/2/2009 0:00,450JLT,450,J,,LT,,"Track Type Tractor, Dozer - 20.0 to 75.0 Horsepower",Texas,TTT,Track Type Tractors,,OROPS,,,,,Standard,,,,,,2 Valve,,None or Unspecified,,,,,,,,,,,,,,None or Unspecified,PAT,None or Unspecified,,
22114,2354273,31000,1726533,136,1.0,2006,1073.0,Medium,9/16/2008 0:00,450JLT,450,J,,LT,,"Track Type Tractor, Dozer - 20.0 to 75.0 Horsepower",Washington,TTT,Track Type Tractors,,OROPS,,,,,Standard,,,,,,2 Valve,,None or Unspecified,,,,,,,,,,,,,,None or Unspecified,PAT,None or Unspecified,,
22114,2354278,40000,1718712,136,1.0,2006,229.0,Low,9/24/2008 0:00,450JLT,450,J,,LT,,"Track Type Tractor, Dozer - 20.0 to 75.0 Horsepower",Texas,TTT,Track Type Tractors,,OROPS,,,,,Standard,,,,,,2 Valve,,Multi Shank,,,,,,,,,,,,,,None or Unspecified,PAT,None or Unspecified,,
22114,2354294,37500,1681739,136,1.0,2006,1022.0,Low,4/3/2009 0:00,450JLT,450,J,,LT,,"Track Type Tractor, Dozer - 20.0 to 75.0 Horsepower",Nevada,TTT,Track Type Tractors,,OROPS,,,,,Standard,,,,,,2 Valve,,Multi Shank,,,,,,,,,,,,,,None or Unspecified,PAT,None or Unspecified,,
22114,2354295,34000,1735033,136,1.0,2006,88.0,Low,12/11/2008 0:00,450JLT,450,J,,LT,,"Track Type Tractor, Dozer - 20.0 to 75.0 Horsepower",Ohio,TTT,Track Type Tractors,,OROPS,,,,,Standard,,,,,,2 Valve,,None or Unspecified,,,,,,,,,,,,,,None or Unspecified,PAT,None or Unspecified,,
22114,2354306,32000,1771945,136,1.0,2006,0.0,,12/8/2008 0:00,450JLT,450,J,,LT,,"Track Type Tractor, Dozer - 20.0 to 75.0 Horsepower",Illinois,TTT,Track Type Tractors,,EROPS,,,,,Standard,,,,,,2 Valve,,None or Unspecified,,,,,,,,,,,,,,None or Unspecified,PAT,None or Unspecified,,
22114,2354309,42000,1659109,136,1.0,2006,0.0,,3/18/2008 0:00,450JLT,450,J,,LT,,"Track Type Tractor, Dozer - 20.0 to 75.0 Horsepower",Illinois,TTT,Track Type Tractors,,OROPS,,,,,Standard,,,,,,2 Valve,,None or Unspecified,,,,,,,,,,,,,,None or Unspecified,PAT,None or Unspecified,,
22114,2354314,45000,1741136,136,,2006,0.0,,11/3/2007 0:00,450JLT,450,J,,LT,,"Track Type Tractor, Dozer - 20.0 to 75.0 Horsepower",New York,TTT,Track Type Tractors,,OROPS,,,,,Standard,,,,,,2 Valve,,None or Unspecified,,,,,,,,,,,,,,None or Unspecified,PAT,None or Unspecified,,
22114,2354315,51000,1741136,136,,2006,0.0,,12/1/2007 0:00,450JLT,450,J,,LT,,"Track Type Tractor, Dozer - 20.0 to 75.0 Horsepower",New York,TTT,Track Type Tractors,,OROPS,,,,,Standard,,,,,,2 Valve,,None or Unspecified,,,,,,,,,,,,,,None or Unspecified,PAT,None or Unspecified,,
22114,2354343,42000,1739496,136,13.0,2007,1153.0,Low,6/19/2010 0:00,450JLT,450,J,,LT,,"Track Type Tractor, Dozer - 20.0 to 75.0 Horsepower",Tennessee,TTT,Track Type Tractors,,EROPS w AC,,,,,Standard,,,,,,2 Valve,,None or Unspecified,,,,,,,,,,,,,,None or Unspecified,PAT,None or Unspecified,,
22114,2354361,35000,1720092,136,1.0,2007,0.0,,12/11/2008 0:00,450JLT,450,J,,LT,,"Track Type Tractor, Dozer - 20.0 to 75.0 Horsepower",Ohio,TTT,Track Type Tractors,,OROPS,,,,,Standard,,,,,,2 Valve,,None or Unspecified,,,,,,,,,,,,,,None or Unspecified,PAT,None or Unspecified,,
22114,2354362,52500,1690848,136,2.0,2007,16.0,Low,6/19/2010 0:00,450JLT,450,J,,LT,,"Track Type Tractor, Dozer - 20.0 to 75.0 Horsepower",New Jersey,TTT,Track Type Tractors,,OROPS,,,,,Standard,,,,,,2 Valve,,None or Unspecified,,,,,,,,,,,,,,None or Unspecified,None or Unspecified,None or Unspecified,,
22114,2358329,28500,1733194,136,20.0,2005,2270.0,Medium,4/15/2010 0:00,450JLT,450,J,,LT,,"Track Type Tractor, Dozer - 20.0 to 75.0 Horsepower",Arkansas,TTT,Track Type Tractors,,OROPS,,,,,Standard,,,,,,2 Valve,,None or Unspecified,,,,,,,,,,,,,,None or Unspecified,PAT,None or Unspecified,,
22114,2622265,44500,1872746,149,2.0,2005,0.0,,8/25/2010 0:00,450JLT,450,J,,LT,,"Track Type Tractor, Dozer - 20.0 to 75.0 Horsepower",Texas,TTT,Track Type Tractors,,OROPS,,,,,Standard,,,,,,2 Valve,,None or Unspecified,,,,,,,,,,,,,,None or Unspecified,None or Unspecified,None or Unspecified,,
22114,2622984,37000,1408546,149,0.0,2007,1542.0,Medium,11/17/2010 0:00,450JLT,450,J,,LT,,"Track Type Tractor, Dozer - 20.0 to 75.0 Horsepower",Mississippi,TTT,Track Type Tractors,,OROPS,,,,,Standard,,,,,,2 Valve,,None or Unspecified,,,,,,,,,,,,,,None or Unspecified,PAT,None or Unspecified,,
22114,2640239,34000,1805731,149,2.0,2005,1944.0,Low,3/31/2011 0:00,450JLT,450,J,,LT,,"Track Type Tractor, Dozer - 20.0 to 75.0 Horsepower",New Jersey,TTT,Track Type Tractors,,OROPS,,,,,Standard,,,,,,2 Valve,,None or Unspecified,,,,,,,,,,,,,,None or Unspecified,None or Unspecified,None or Unspecified,,
22114,2640260,29000,1844746,149,99.0,2004,1197.0,Low,6/25/2010 0:00,450JLT,450,J,,LT,,"Track Type Tractor, Dozer - 20.0 to 75.0 Horsepower",California,TTT,Track Type Tractors,,OROPS,,,,,Standard,,,,,,2 Valve,,None or Unspecified,,,,,,,,,,,,,,None or Unspecified,None or Unspecified,None or Unspecified,,
22114,2649406,32500,1686923,149,2.0,2005,0.0,,7/17/2010 0:00,450JLT,450,J,,LT,,"Track Type Tractor, Dozer - 20.0 to 75.0 Horsepower",New York,TTT,Track Type Tractors,,OROPS,,,,,Standard,,,,,,2 Valve,,None or Unspecified,,,,,,,,,,,,,,None or Unspecified,PAT,None or Unspecified,,
22114,2649407,26000,1686923,149,2.0,2005,0.0,,6/5/2010 0:00,450JLT,450,J,,LT,,"Track Type Tractor, Dozer - 20.0 to 75.0 Horsepower",New York,TTT,Track Type Tractors,,OROPS,,,,,Standard,,,,,,2 Valve,,None or Unspecified,,,,,,,,,,,,,,None or Unspecified,PAT,None or Unspecified,,
22114,2649408,32000,1686923,149,2.0,2005,0.0,,5/22/2010 0:00,450JLT,450,J,,LT,,"Track Type Tractor, Dozer - 20.0 to 75.0 Horsepower",New York,TTT,Track Type Tractors,,OROPS,,,,,Standard,,,,,,2 Valve,,None or Unspecified,,,,,,,,,,,,,,None or Unspecified,PAT,None or Unspecified,,
22114,2649438,24000,1818241,149,1.0,2005,7209.0,High,4/13/2011 0:00,450JLT,450,J,,LT,,"Track Type Tractor, Dozer - 20.0 to 75.0 Horsepower",Texas,TTT,Track Type Tractors,,OROPS,,,,,Standard,,,,,,2 Valve,,None or Unspecified,,,,,,,,,,,,,,None or Unspecified,PAT,None or Unspecified,,
22114,2649440,24500,1802357,149,2.0,2006,0.0,,5/10/2011 0:00,450JLT,450,J,,LT,,"Track Type Tractor, Dozer - 20.0 to 75.0 Horsepower",Texas,TTT,Track Type Tractors,,OROPS,,,,,Standard,,,,,,2 Valve,,None or Unspecified,,,,,,,,,,,,,,None or Unspecified,None or Unspecified,None or Unspecified,,
22114,2649442,30000,1842022,149,99.0,2005,1736.0,Low,4/16/2011 0:00,450JLT,450,J,,LT,,"Track Type Tractor, Dozer - 20.0 to 75.0 Horsepower",Iowa,TTT,Track Type Tractors,,OROPS,,,,,Standard,,,,,,2 Valve,,None or Unspecified,,,,,,,,,,,,,,None or Unspecified,PAT,None or Unspecified,,
22114,2649443,30000,1842022,149,1.0,2005,1736.0,Low,3/30/2011 0:00,450JLT,450,J,,LT,,"Track Type Tractor, Dozer - 20.0 to 75.0 Horsepower",North Carolina,TTT,Track Type Tractors,,OROPS,,,,,Standard,,,,,,2 Valve,,None or Unspecified,,,,,,,,,,,,,,None or Unspecified,PAT,None or Unspecified,,
22114,2649457,27000,1758670,149,2.0,2005,0.0,,4/15/2010 0:00,450JLT,450,J,,LT,,"Track Type Tractor, Dozer - 20.0 to 75.0 Horsepower",North Carolina,TTT,Track Type Tractors,,OROPS,,,,,Standard,,,,,,2 Valve,,None or Unspecified,,,,,,,,,,,,,,None or Unspecified,PAT,None or Unspecified,,
22114,2649474,30000,1792027,149,1.0,2005,1494.0,Low,9/21/2010 0:00,450JLT,450,J,,LT,,"Track Type Tractor, Dozer - 20.0 to 75.0 Horsepower",Washington,TTT,Track Type Tractors,,OROPS,,,,,Standard,,,,,,2 Valve,,None or Unspecified,,,,,,,,,,,,,,None or Unspecified,PAT,None or Unspecified,,
22114,2649475,26000,1933280,149,1.0,2005,2150.0,Low,9/21/2010 0:00,450JLT,450,J,,LT,,"Track Type Tractor, Dozer - 20.0 to 75.0 Horsepower",Washington,TTT,Track Type Tractors,,OROPS,,,,,Standard,,,,,,2 Valve,,None or Unspecified,,,,,,,,,,,,,,None or Unspecified,PAT,None or Unspecified,,
22114,2649481,24000,1925051,149,1.0,2005,2297.0,Medium,12/13/2010 0:00,450JLT,450,J,,LT,,"Track Type Tractor, Dozer - 20.0 to 75.0 Horsepower",Mississippi,TTT,Track Type Tractors,,OROPS,,,,,Standard,,,,,,2 Valve,,None or Unspecified,,,,,,,,,,,,,,None or Unspecified,PAT,None or Unspecified,,
22114,2649483,30000,1886694,149,1.0,2005,2046.0,Low,9/21/2010 0:00,450JLT,450,J,,LT,,"Track Type Tractor, Dozer - 20.0 to 75.0 Horsepower",Washington,TTT,Track Type Tractors,,OROPS,,,,,Standard,,,,,,2 Valve,,Multi Shank,,,,,,,,,,,,,,None or Unspecified,PAT,None or Unspecified,,
22114,2649484,32000,1837665,149,1.0,2005,1980.0,Low,12/9/2010 0:00,450JLT,450,J,,LT,,"Track Type Tractor, Dozer - 20.0 to 75.0 Horsepower",Washington,TTT,Track Type Tractors,,OROPS,,,,,Standard,,,,,,2 Valve,,Multi Shank,,,,,,,,,,,,,,None or Unspecified,PAT,None or Unspecified,,
22114,2649523,32000,1809591,149,1.0,2005,3655.0,Medium,3/15/2011 0:00,450JLT,450,J,,LT,,"Track Type Tractor, Dozer - 20.0 to 75.0 Horsepower",Tennessee,TTT,Track Type Tractors,,OROPS,,,,,Standard,,,,,,2 Valve,,None or Unspecified,,,,,,,,,,,,,,None or Unspecified,PAT,None or Unspecified,,
22114,2649531,42500,1830501,149,1.0,2005,1028.0,Low,6/3/2011 0:00,450JLT,450,J,,LT,,"Track Type Tractor, Dozer - 20.0 to 75.0 Horsepower",Arkansas,TTT,Track Type Tractors,,EROPS w AC,,,,,Standard,,,,,,2 Valve,,None or Unspecified,,,,,,,,,,,,,,None or Unspecified,PAT,None or Unspecified,,
22114,2649533,28000,1899378,149,1.0,2005,706.0,Low,7/13/2010 0:00,450JLT,450,J,,LT,,"Track Type Tractor, Dozer - 20.0 to 75.0 Horsepower",Illinois,TTT,Track Type Tractors,,OROPS,,,,,Standard,,,,,,2 Valve,,None or Unspecified,,,,,,,,,,,,,,None or Unspecified,PAT,None or Unspecified,,
22114,2649561,37000,1940308,149,1.0,2005,0.0,,6/7/2011 0:00,450JLT,450,J,,LT,,"Track Type Tractor, Dozer - 20.0 to 75.0 Horsepower",Colorado,TTT,Track Type Tractors,,OROPS,,,,,Standard,,,,,,2 Valve,,Single Shank,,,,,,,,,,,,,,None or Unspecified,PAT,None or Unspecified,,
22114,2649573,26000,1749324,149,1.0,2006,1584.0,Low,8/18/2010 0:00,450JLT,450,J,,LT,,"Track Type Tractor, Dozer - 20.0 to 75.0 Horsepower",Florida,TTT,Track Type Tractors,,OROPS,,,,,Standard,,,,,,2 Valve,,None or Unspecified,,,,,,,,,,,,,,None or Unspecified,PAT,None or Unspecified,,
22114,2649595,30500,1822733,149,99.0,2006,1220.0,Low,6/25/2010 0:00,450JLT,450,J,,LT,,"Track Type Tractor, Dozer - 20.0 to 75.0 Horsepower",California,TTT,Track Type Tractors,,OROPS,,,,,Standard,,,,,,2 Valve,,None or Unspecified,,,,,,,,,,,,,,None or Unspecified,None or Unspecified,None or Unspecified,,
22114,2649660,36000,1920782,149,1.0,2006,0.0,,6/16/2011 0:00,450JLT,450,J,,LT,,"Track Type Tractor, Dozer - 20.0 to 75.0 Horsepower",Washington,TTT,Track Type Tractors,,OROPS,,,,,Standard,,,,,,2 Valve,,None or Unspecified,,,,,,,,,,,,,,None or Unspecified,PAT,None or Unspecified,,
22114,2649687,31000,1722949,149,1.0,2007,3244.0,Medium,2/15/2011 0:00,450JLT,450,J,,LT,,"Track Type Tractor, Dozer - 20.0 to 75.0 Horsepower",Florida,TTT,Track Type Tractors,,OROPS,,,,,Standard,,,,,,2 Valve,,None or Unspecified,,,,,,,,,,,,,,None or Unspecified,PAT,None or Unspecified,,
22114,2649688,27000,1722949,149,1.0,2007,0.0,,10/27/2010 0:00,450JLT,450,J,,LT,,"Track Type Tractor, Dozer - 20.0 to 75.0 Horsepower",Florida,TTT,Track Type Tractors,,OROPS,,,,,Standard,,,,,,2 Valve,,None or Unspecified,,,,,,,,,,,,,,None or Unspecified,PAT,None or Unspecified,,
22114,2649706,36000,1692847,149,1.0,2007,318.0,Low,8/18/2010 0:00,450JLT,450,J,,LT,,"Track Type Tractor, Dozer - 20.0 to 75.0 Horsepower",Florida,TTT,Track Type Tractors,,OROPS,,,,,Standard,,,,,,2 Valve,,None or Unspecified,,,,,,,,,,,,,,None or Unspecified,PAT,None or Unspecified,,
22114,2649736,54000,1938680,149,2.0,1000,0.0,,1/29/2011 0:00,450JLT,450,J,,LT,,"Track Type Tractor, Dozer - 20.0 to 75.0 Horsepower",Florida,TTT,Track Type Tractors,,OROPS,,,,,Standard,,,,,,2 Valve,,None or Unspecified,,,,,,,,,,,,,,None or Unspecified,None or Unspecified,None or Unspecified,,
22114,2650541,21500,1877673,149,2.0,2004,0.0,,5/10/2011 0:00,450JLT,450,J,,LT,,"Track Type Tractor, Dozer - 20.0 to 75.0 Horsepower",Texas,TTT,Track Type Tractors,,OROPS,,,,,Standard,,,,,,2 Valve,,None or Unspecified,,,,,,,,,,,,,,None or Unspecified,PAT,None or Unspecified,,
22114,4323055,27000,2296806,172,1.0,2005,2757.0,Low,9/13/2011 0:00,450JLT,450,J,,LT,,"Track Type Tractor, Dozer - 20.0 to 75.0 Horsepower",Georgia,TTT,Track Type Tractors,,EROPS w AC,,,,,Standard,,,,,,2 Valve,,None or Unspecified,,,,,,,,,,,,,,None or Unspecified,PAT,Differential Steer,,
22114,4323058,29000,2296806,172,1.0,2005,856.0,Low,12/19/2011 0:00,450JLT,450,J,,LT,,"Track Type Tractor, Dozer - 20.0 to 75.0 Horsepower",Washington,TTT,Track Type Tractors,,EROPS w AC,,,,,Standard,,,,,,2 Valve,,None or Unspecified,,,,,,,,,,,,,,None or Unspecified,PAT,Differential Steer,,
22114,4323124,27500,2295862,172,1.0,2005,2182.0,Low,10/6/2011 0:00,450JLT,450,J,,LT,,"Track Type Tractor, Dozer - 20.0 to 75.0 Horsepower",California,TTT,Track Type Tractors,,EROPS w AC,,,,,Standard,,,,,,2 Valve,,Multi Shank,,,,,,,,,,,,,,None or Unspecified,PAT,Differential Steer,,
22114,4323127,25000,2295862,172,1.0,2005,2726.0,Medium,12/15/2011 0:00,450JLT,450,J,,LT,,"Track Type Tractor, Dozer - 20.0 to 75.0 Horsepower",California,TTT,Track Type Tractors,,EROPS w AC,,,,,Standard,,,,,,2 Valve,,Multi Shank,,,,,,,,,,,,,,None or Unspecified,PAT,Differential Steer,,
22114,4323135,28000,2295862,172,1.0,2005,2037.0,Low,6/23/2011 0:00,450JLT,450,J,,LT,,"Track Type Tractor, Dozer - 20.0 to 75.0 Horsepower",New Mexico,TTT,Track Type Tractors,,EROPS w AC,,,,,Standard,,,,,,2 Valve,,Multi Shank,,,,,,,,,,,,,,None or Unspecified,PAT,Differential Steer,,
22114,4323138,28000,2295862,172,1.0,2005,3047.0,Medium,7/26/2011 0:00,450JLT,450,J,,LT,,"Track Type Tractor, Dozer - 20.0 to 75.0 Horsepower",Texas,TTT,Track Type Tractors,,EROPS w AC,,,,,Standard,,,,,,2 Valve,,Multi Shank,,,,,,,,,,,,,,None or Unspecified,PAT,Differential Steer,,
22114,4323151,26000,1727210,172,1.0,2006,1455.0,Low,8/18/2010 0:00,450JLT,450,J,,LT,,"Track Type Tractor, Dozer - 20.0 to 75.0 Horsepower",Florida,TTT,Track Type Tractors,,OROPS,,,,,Standard,,,,,,2 Valve,,None or Unspecified,,,,,,,,,,,,,,None or Unspecified,PAT,None or Unspecified,,
22114,4323154,24500,2282654,172,1.0,2006,5.0,Low,8/18/2010 0:00,450JLT,450,J,,LT,,"Track Type Tractor, Dozer - 20.0 to 75.0 Horsepower",Florida,TTT,Track Type Tractors,,OROPS,,,,,Standard,,,,,,2 Valve,,None or Unspecified,,,,,,,,,,,,,,None or Unspecified,PAT,None or Unspecified,,
22114,6282318,25000,1800963,149,2.0,2005,,,7/26/2011 0:00,450JLT,450,J,,LT,,"Track Type Tractor, Dozer - 20.0 to 75.0 Horsepower",Texas,TTT,Track Type Tractors,,OROPS,,,,,Standard,,,,,,2 Valve,,None or Unspecified,,,,,,,,,,,,,,None or Unspecified,PAT,None or Unspecified,,
22114,6282328,25000,1915505,149,8.0,2006,,,11/16/2011 0:00,450JLT,450,J,,LT,,"Track Type Tractor, Dozer - 20.0 to 75.0 Horsepower",Mississippi,TTT,Track Type Tractors,,OROPS,,,,,Standard,,,,,,2 Valve,,None or Unspecified,,,,,,,,,,,,,,None or Unspecified,PAT,None or Unspecified,,
22114,6287317,25000,1806934,149,1.0,2005,,,7/28/2011 0:00,450JLT,450,J,,LT,,"Track Type Tractor, Dozer - 20.0 to 75.0 Horsepower",Connecticut,TTT,Track Type Tractors,,OROPS,,,,,Standard,,,,,,2 Valve,,None or Unspecified,,,,,,,,,,,,,,None or Unspecified,PAT,None or Unspecified,,
22114,6287319,25000,1917970,149,1.0,2005,,,9/14/2011 0:00,450JLT,450,J,,LT,,"Track Type Tractor, Dozer - 20.0 to 75.0 Horsepower",Georgia,TTT,Track Type Tractors,,OROPS,,,,,Standard,,,,,,2 Valve,,None or Unspecified,,,,,,,,,,,,,,None or Unspecified,PAT,None or Unspecified,,
22114,6287321,29000,1884500,149,1.0,2005,,,12/20/2011 0:00,450JLT,450,J,,LT,,"Track Type Tractor, Dozer - 20.0 to 75.0 Horsepower",Washington,TTT,Track Type Tractors,,OROPS,,,,,Standard,,,,,,2 Valve,,None or Unspecified,,,,,,,,,,,,,,None or Unspecified,PAT,None or Unspecified,,
22114,6287323,25000,1880977,149,1.0,2005,,,12/20/2011 0:00,450JLT,450,J,,LT,,"Track Type Tractor, Dozer - 20.0 to 75.0 Horsepower",Washington,TTT,Track Type Tractors,,OROPS,,,,,Standard,,,,,,2 Valve,,None or Unspecified,,,,,,,,,,,,,,None or Unspecified,PAT,None or Unspecified,,
22114,6287324,28000,1932001,149,2.0,2005,,,10/3/2011 0:00,450JLT,450,J,,LT,,"Track Type Tractor, Dozer - 20.0 to 75.0 Horsepower",Texas,TTT,Track Type Tractors,,OROPS,,,,,Standard,,,,,,2 Valve,,None or Unspecified,,,,,,,,,,,,,,None or Unspecified,None or Unspecified,None or Unspecified,,
22114,6287327,27000,1918244,149,1.0,2005,,,9/14/2011 0:00,450JLT,450,J,,LT,,"Track Type Tractor, Dozer - 20.0 to 75.0 Horsepower",Georgia,TTT,Track Type Tractors,,OROPS,,,,,Standard,,,,,,2 Valve,,None or Unspecified,,,,,,,,,,,,,,None or Unspecified,PAT,None or Unspecified,,
22114,6287328,25000,1758670,149,2.0,2005,,,7/26/2011 0:00,450JLT,450,J,,LT,,"Track Type Tractor, Dozer - 20.0 to 75.0 Horsepower",Texas,TTT,Track Type Tractors,,OROPS,,,,,Standard,,,,,,2 Valve,,None or Unspecified,,,,,,,,,,,,,,None or Unspecified,PAT,None or Unspecified,,
22114,6287333,27000,1895119,149,1.0,2005,,,7/27/2011 0:00,450JLT,450,J,,LT,,"Track Type Tractor, Dozer - 20.0 to 75.0 Horsepower",Texas,TTT,Track Type Tractors,,OROPS,,,,,Standard,,,,,,2 Valve,,None or Unspecified,,,,,,,,,,,,,,None or Unspecified,None or Unspecified,None or Unspecified,,
22114,6287339,28000,1884425,149,1.0,2005,,,6/24/2011 0:00,450JLT,450,J,,LT,,"Track Type Tractor, Dozer - 20.0 to 75.0 Horsepower",New Mexico,TTT,Track Type Tractors,,OROPS,,,,,Standard,,,,,,2 Valve,,Multi Shank,,,,,,,,,,,,,,None or Unspecified,PAT,None or Unspecified,,
22114,6287342,34000,1863062,149,1.0,2005,,,11/2/2011 0:00,450JLT,450,J,,LT,,"Track Type Tractor, Dozer - 20.0 to 75.0 Horsepower",Maryland,TTT,Track Type Tractors,,EROPS w AC,,,,,Standard,,,,,,2 Valve,,None or Unspecified,,,,,,,,,,,,,,None or Unspecified,PAT,None or Unspecified,,
22114,6287345,25000,1934333,149,1.0,2005,,,11/2/2011 0:00,450JLT,450,J,,LT,,"Track Type Tractor, Dozer - 20.0 to 75.0 Horsepower",Maryland,TTT,Track Type Tractors,,OROPS,,,,,Standard,,,,,,2 Valve,,None or Unspecified,,,,,,,,,,,,,,None or Unspecified,PAT,None or Unspecified,,
22114,6287348,24000,1914077,149,1.0,2005,,,11/2/2011 0:00,450JLT,450,J,,LT,,"Track Type Tractor, Dozer - 20.0 to 75.0 Horsepower",Maryland,TTT,Track Type Tractors,,OROPS,,,,,Standard,,,,,,2 Valve,,None or Unspecified,,,,,,,,,,,,,,None or Unspecified,PAT,None or Unspecified,,
22114,6287349,23500,1868330,149,1.0,2005,,,11/2/2011 0:00,450JLT,450,J,,LT,,"Track Type Tractor, Dozer - 20.0 to 75.0 Horsepower",Maryland,TTT,Track Type Tractors,,OROPS,,,,,Standard,,,,,,2 Valve,,None or Unspecified,,,,,,,,,,,,,,None or Unspecified,PAT,None or Unspecified,,
22114,6287350,28000,1856332,149,1.0,2005,,,7/27/2011 0:00,450JLT,450,J,,LT,,"Track Type Tractor, Dozer - 20.0 to 75.0 Horsepower",Texas,TTT,Track Type Tractors,,OROPS,,,,,Standard,,,,,,2 Valve,,None or Unspecified,,,,,,,,,,,,,,None or Unspecified,PAT,None or Unspecified,,
22114,6287351,27500,2486275,149,1.0,2005,,,10/7/2011 0:00,450JLT,450,J,,LT,,"Track Type Tractor, Dozer - 20.0 to 75.0 Horsepower",California,TTT,Track Type Tractors,,OROPS,,,,,Standard,,,,,,2 Valve,,None or Unspecified,,,,,,,,,,,,,,None or Unspecified,PAT,None or Unspecified,,
22114,6287352,25000,1933800,149,1.0,2005,,,11/2/2011 0:00,450JLT,450,J,,LT,,"Track Type Tractor, Dozer - 20.0 to 75.0 Horsepower",Maryland,TTT,Track Type Tractors,,OROPS,,,,,Standard,,,,,,2 Valve,,None or Unspecified,,,,,,,,,,,,,,None or Unspecified,PAT,None or Unspecified,,
22114,6287356,24000,1811432,149,1.0,2005,,,11/2/2011 0:00,450JLT,450,J,,LT,,"Track Type Tractor, Dozer - 20.0 to 75.0 Horsepower",Maryland,TTT,Track Type Tractors,,OROPS,,,,,Standard,,,,,,2 Valve,,None or Unspecified,,,,,,,,,,,,,,None or Unspecified,PAT,None or Unspecified,,
22114,6287370,27000,1816948,149,1.0,2006,,,11/2/2011 0:00,450JLT,450,J,,LT,,"Track Type Tractor, Dozer - 20.0 to 75.0 Horsepower",Maryland,TTT,Track Type Tractors,,OROPS,,,,,Standard,,,,,,2 Valve,,None or Unspecified,,,,,,,,,,,,,,None or Unspecified,PAT,None or Unspecified,,
