ModelID,SalesID,SalePrice,MachineID,datasource,auctioneerID,YearMade,MachineHoursCurrentMeter,UsageBand,saledate,fiModelDesc,fiBaseModel,fiSecondaryDesc,fiModelSeries,fiModelDescriptor,ProductSize,fiProductClassDesc,state,ProductGroup,ProductGroupDesc,Drive_System,Enclosure,Forks,Pad_Type,Ride_Control,Stick,Transmission,Turbocharged,Blade_Extension,Blade_Width,Enclosure_Type,Engine_Horsepower,Hydraulics,Pushblock,Ripper,Scarifier,Tip_Control,Tire_Size,Coupler,Coupler_System,Grouser_Tracks,Hydraulics_Flow,Track_Type,Undercarriage_Pad_Width,Stick_Length,Thumb,Pattern_Changer,Grouser_Type,Backhoe_Mounting,Blade_Type,Travel_Controls,Differential_Type,Steering_Controls
22150,1150844,29000,1005577,121,3.0,1999,5380.0,Medium,12/2/2004 0:00,650GIVLGP,650,G,IV,LGP,,"Track Type Tractor, Dozer - 85.0 to 105.0 Horsepower",Florida,TTT,Track Type Tractors,,OROPS,,,,,Standard,,,,,,2 Valve,,None or Unspecified,,,,,,,,,,,,,,None or Unspecified,None or Unspecified,None or Unspecified,,
22150,1162799,31000,1062555,121,3.0,1998,4564.0,Medium,9/22/2005 0:00,650GIVLGP,650,G,IV,LGP,,"Track Type Tractor, Dozer - 85.0 to 105.0 Horsepower",Louisiana,TTT,Track Type Tractors,,OROPS,,,,,Standard,,,,,,2 Valve,,None or Unspecified,,,,,,,,,,,,,,Yes,None or Unspecified,None or Unspecified,,
22150,1205495,13500,1050680,121,3.0,1000,13421.0,Low,9/2/2010 0:00,650GIVLGP,650,G,IV,LGP,,"Track Type Tractor, Dozer - 85.0 to 105.0 Horsepower",Minnesota,TTT,Track Type Tractors,,OROPS,,,,,Powershift,,,,,,2 Valve,,None or Unspecified,,,,,,,,,,,,,,None or Unspecified,None or Unspecified,None or Unspecified,,
22150,2334404,13000,1747533,136,,1000,0.0,,7/23/2009 0:00,650GIVLGP,650,G,IV,LGP,,"Track Type Tractor, Dozer - 85.0 to 105.0 Horsepower",North Carolina,TTT,Track Type Tractors,,OROPS,,,,,Standard,,,,,,2 Valve,,None or Unspecified,,,,,,,,,,,,,,None or Unspecified,PAT,None or Unspecified,,
22150,2334494,19000,1652632,136,,1997,0.0,,4/2/2009 0:00,650GIVLGP,650,G,IV,LGP,,"Track Type Tractor, Dozer - 85.0 to 105.0 Horsepower",Mississippi,TTT,Track Type Tractors,,OROPS,,,,,Standard,,,,,,2 Valve,,None or Unspecified,,,,,,,,,,,,,,None or Unspecified,PAT,None or Unspecified,,
22150,2334506,18750,1695952,136,,1000,0.0,,7/23/2009 0:00,650GIVLGP,650,G,IV,LGP,,"Track Type Tractor, Dozer - 85.0 to 105.0 Horsepower",Oklahoma,TTT,Track Type Tractors,,OROPS,,,,,Standard,,,,,,2 Valve,,None or Unspecified,,,,,,,,,,,,,,None or Unspecified,PAT,None or Unspecified,,
22150,2334587,21250,1738161,136,,1997,0.0,,12/5/2007 0:00,650GIVLGP,650,G,IV,LGP,,"Track Type Tractor, Dozer - 85.0 to 105.0 Horsepower",Alabama,TTT,Track Type Tractors,,OROPS,,,,,Powershift,,,,,,2 Valve,,None or Unspecified,,,,,,,,,,,,,,None or Unspecified,PAT,Pedal,,
22150,2334588,26000,1738161,136,,1997,0.0,,3/12/2008 0:00,650GIVLGP,650,G,IV,LGP,,"Track Type Tractor, Dozer - 85.0 to 105.0 Horsepower",Alabama,TTT,Track Type Tractors,,OROPS,,,,,Powershift,,,,,,2 Valve,,None or Unspecified,,,,,,,,,,,,,,None or Unspecified,PAT,Pedal,,
22150,2334648,21500,1496546,136,99.0,1997,500.0,Low,10/23/2009 0:00,650GIVLGP,650,G,IV,LGP,,"Track Type Tractor, Dozer - 85.0 to 105.0 Horsepower",Wisconsin,TTT,Track Type Tractors,,OROPS,,,,,Standard,,,,,,2 Valve,,None or Unspecified,,,,,,,,,,,,,,None or Unspecified,PAT,None or Unspecified,,
22150,2334734,33000,1681912,136,,1997,0.0,,9/10/2008 0:00,650GIVLGP,650,G,IV,LGP,,"Track Type Tractor, Dozer - 85.0 to 105.0 Horsepower",Alabama,TTT,Track Type Tractors,,OROPS,,,,,Standard,,,,,,2 Valve,,None or Unspecified,,,,,,,,,,,,,,None or Unspecified,PAT,None or Unspecified,,
22150,2334829,38000,1265531,136,5.0,1998,2857.0,Low,11/1/2008 0:00,650GIVLGP,650,G,IV,LGP,,"Track Type Tractor, Dozer - 85.0 to 105.0 Horsepower",Tennessee,TTT,Track Type Tractors,,EROPS w AC,,,,,Standard,,,,,,2 Valve,,None or Unspecified,,,,,,,,,,,,,,None or Unspecified,PAT,None or Unspecified,,
22150,2334830,25500,1265531,136,5.0,1998,2855.0,Low,9/27/2008 0:00,650GIVLGP,650,G,IV,LGP,,"Track Type Tractor, Dozer - 85.0 to 105.0 Horsepower",North Carolina,TTT,Track Type Tractors,,EROPS w AC,,,,,Standard,,,,,,2 Valve,,None or Unspecified,,,,,,,,,,,,,,None or Unspecified,PAT,None or Unspecified,,
22150,2334877,18500,1743023,136,,1998,0.0,,7/16/2008 0:00,650GIVLGP,650,G,IV,LGP,,"Track Type Tractor, Dozer - 85.0 to 105.0 Horsepower",Mississippi,TTT,Track Type Tractors,,OROPS,,,,,Standard,,,,,,2 Valve,,None or Unspecified,,,,,,,,,,,,,,None or Unspecified,PAT,None or Unspecified,,
22150,2355321,18500,1728235,136,,1997,0.0,,10/24/2008 0:00,650GIVLGP,650,G,IV,LGP,,"Track Type Tractor, Dozer - 85.0 to 105.0 Horsepower",Wisconsin,TTT,Track Type Tractors,,OROPS,,,,,Standard,,,,,,2 Valve,,None or Unspecified,,,,,,,,,,,,,,None or Unspecified,PAT,None or Unspecified,,
22150,2355398,12500,1764931,136,1.0,1996,0.0,,2/16/2009 0:00,650GIVLGP,650,G,IV,LGP,,"Track Type Tractor, Dozer - 85.0 to 105.0 Horsepower",Florida,TTT,Track Type Tractors,,OROPS,,,,,Standard,,,,,,2 Valve,,None or Unspecified,,,,,,,,,,,,,,None or Unspecified,PAT,None or Unspecified,,
22150,2355404,15500,1745912,136,1.0,1996,0.0,,2/16/2009 0:00,650GIVLGP,650,G,IV,LGP,,"Track Type Tractor, Dozer - 85.0 to 105.0 Horsepower",Florida,TTT,Track Type Tractors,,OROPS,,,,,Standard,,,,,,2 Valve,,None or Unspecified,,,,,,,,,,,,,,None or Unspecified,PAT,None or Unspecified,,
22150,2355410,23000,1673493,136,1.0,1998,0.0,,12/5/2007 0:00,650GIVLGP,650,G,IV,LGP,,"Track Type Tractor, Dozer - 85.0 to 105.0 Horsepower",Illinois,TTT,Track Type Tractors,,OROPS,,,,,Standard,,,,,,2 Valve,,None or Unspecified,,,,,,,,,,,,,,None or Unspecified,PAT,None or Unspecified,,
22150,2355413,30000,1665099,136,,1997,0.0,,3/14/2007 0:00,650GIVLGP,650,G,IV,LGP,,"Track Type Tractor, Dozer - 85.0 to 105.0 Horsepower",Colorado,TTT,Track Type Tractors,,OROPS,,,,,Standard,,,,,,2 Valve,,None or Unspecified,,,,,,,,,,,,,,None or Unspecified,PAT,None or Unspecified,,
22150,2355414,29000,1665099,136,,1997,0.0,,5/14/2008 0:00,650GIVLGP,650,G,IV,LGP,,"Track Type Tractor, Dozer - 85.0 to 105.0 Horsepower",Colorado,TTT,Track Type Tractors,,OROPS,,,,,Standard,,,,,,2 Valve,,None or Unspecified,,,,,,,,,,,,,,None or Unspecified,PAT,None or Unspecified,,
22150,2355416,22000,1743825,136,,1997,0.0,,10/24/2008 0:00,650GIVLGP,650,G,IV,LGP,,"Track Type Tractor, Dozer - 85.0 to 105.0 Horsepower",Wisconsin,TTT,Track Type Tractors,,EROPS,,,,,Standard,,,,,,2 Valve,,None or Unspecified,,,,,,,,,,,,,,None or Unspecified,PAT,None or Unspecified,,
22150,2355417,17000,1743825,136,,1997,0.0,,6/21/2008 0:00,650GIVLGP,650,G,IV,LGP,,"Track Type Tractor, Dozer - 85.0 to 105.0 Horsepower",Wisconsin,TTT,Track Type Tractors,,EROPS,,,,,Standard,,,,,,2 Valve,,None or Unspecified,,,,,,,,,,,,,,None or Unspecified,PAT,None or Unspecified,,
22150,2355419,17000,1778025,136,1.0,1997,0.0,,2/16/2009 0:00,650GIVLGP,650,G,IV,LGP,,"Track Type Tractor, Dozer - 85.0 to 105.0 Horsepower",Florida,TTT,Track Type Tractors,,OROPS,,,,,Standard,,,,,,2 Valve,,None or Unspecified,,,,,,,,,,,,,,None or Unspecified,PAT,None or Unspecified,,
22150,2355424,31000,1773160,136,,1997,0.0,,6/26/2007 0:00,650GIVLGP,650,G,IV,LGP,,"Track Type Tractor, Dozer - 85.0 to 105.0 Horsepower",Minnesota,TTT,Track Type Tractors,,OROPS,,,,,Standard,,,,,,2 Valve,,None or Unspecified,,,,,,,,,,,,,,None or Unspecified,PAT,None or Unspecified,,
22150,2355425,15000,1712190,136,1.0,1997,0.0,,6/24/2008 0:00,650GIVLGP,650,G,IV,LGP,,"Track Type Tractor, Dozer - 85.0 to 105.0 Horsepower",Minnesota,TTT,Track Type Tractors,,OROPS,,,,,Standard,,,,,,2 Valve,,None or Unspecified,,,,,,,,,,,,,,None or Unspecified,PAT,None or Unspecified,,
22150,2355437,12000,1724327,136,,1998,0.0,,6/17/2009 0:00,650GIVLGP,650,G,IV,LGP,,"Track Type Tractor, Dozer - 85.0 to 105.0 Horsepower",Arkansas,TTT,Track Type Tractors,,OROPS,,,,,Powershift,,,,,,2 Valve,,None or Unspecified,,,,,,,,,,,,,,None or Unspecified,PAT,None or Unspecified,,
22150,2355438,21000,1710443,136,1.0,1998,0.0,,3/25/2008 0:00,650GIVLGP,650,G,IV,LGP,,"Track Type Tractor, Dozer - 85.0 to 105.0 Horsepower",Minnesota,TTT,Track Type Tractors,,OROPS,,,,,Standard,,,,,,2 Valve,,None or Unspecified,,,,,,,,,,,,,,None or Unspecified,PAT,None or Unspecified,,
22150,2355444,20000,1696989,136,,1998,0.0,,8/15/2008 0:00,650GIVLGP,650,G,IV,LGP,,"Track Type Tractor, Dozer - 85.0 to 105.0 Horsepower",Connecticut,TTT,Track Type Tractors,,EROPS,,,,,Standard,,,,,,2 Valve,,None or Unspecified,,,,,,,,,,,,,,None or Unspecified,PAT,None or Unspecified,,
22150,2355447,23000,1682790,136,1.0,1998,0.0,,10/30/2007 0:00,650GIVLGP,650,G,IV,LGP,,"Track Type Tractor, Dozer - 85.0 to 105.0 Horsepower",Missouri,TTT,Track Type Tractors,,OROPS,,,,,Standard,,,,,,2 Valve,,None or Unspecified,,,,,,,,,,,,,,None or Unspecified,PAT,None or Unspecified,,
22150,2355455,17500,1677140,136,1.0,1999,0.0,,2/16/2009 0:00,650GIVLGP,650,G,IV,LGP,,"Track Type Tractor, Dozer - 85.0 to 105.0 Horsepower",Florida,TTT,Track Type Tractors,,OROPS,,,,,Standard,,,,,,2 Valve,,None or Unspecified,,,,,,,,,,,,,,None or Unspecified,PAT,None or Unspecified,,
22150,2355456,25000,1686515,136,,1999,0.0,,7/19/2007 0:00,650GIVLGP,650,G,IV,LGP,,"Track Type Tractor, Dozer - 85.0 to 105.0 Horsepower",Tennessee,TTT,Track Type Tractors,,OROPS,,,,,Standard,,,,,,2 Valve,,None or Unspecified,,,,,,,,,,,,,,None or Unspecified,PAT,None or Unspecified,,
22150,2355461,28000,1760970,136,,1999,0.0,,3/27/2007 0:00,650GIVLGP,650,G,IV,LGP,,"Track Type Tractor, Dozer - 85.0 to 105.0 Horsepower",Georgia,TTT,Track Type Tractors,,OROPS,,,,,Standard,,,,,,2 Valve,,None or Unspecified,,,,,,,,,,,,,,None or Unspecified,PAT,None or Unspecified,,
22150,2355462,35000,1744323,136,,1999,0.0,,5/15/2008 0:00,650GIVLGP,650,G,IV,LGP,,"Track Type Tractor, Dozer - 85.0 to 105.0 Horsepower",Wisconsin,TTT,Track Type Tractors,,OROPS,,,,,Standard,,,,,,2 Valve,,None or Unspecified,,,,,,,,,,,,,,None or Unspecified,PAT,None or Unspecified,,
22150,2355464,16000,1705380,136,1.0,1999,0.0,,2/16/2009 0:00,650GIVLGP,650,G,IV,LGP,,"Track Type Tractor, Dozer - 85.0 to 105.0 Horsepower",Florida,TTT,Track Type Tractors,,OROPS,,,,,Standard,,,,,,2 Valve,,None or Unspecified,,,,,,,,,,,,,,None or Unspecified,PAT,None or Unspecified,,
22150,2355466,25000,1650023,136,1.0,2000,0.0,,9/18/2007 0:00,650GIVLGP,650,G,IV,LGP,,"Track Type Tractor, Dozer - 85.0 to 105.0 Horsepower",Georgia,TTT,Track Type Tractors,,OROPS,,,,,Standard,,,,,,2 Valve,,None or Unspecified,,,,,,,,,,,,,,None or Unspecified,PAT,None or Unspecified,,
22150,2356265,15500,1653747,136,1.0,1993,0.0,,12/10/2008 0:00,650GIVLGP,650,G,IV,LGP,,"Track Type Tractor, Dozer - 85.0 to 105.0 Horsepower",Minnesota,TTT,Track Type Tractors,,OROPS,,,,,Standard,,,,,,2 Valve,,None or Unspecified,,,,,,,,,,,,,,None or Unspecified,PAT,None or Unspecified,,
22150,2630104,11500,1924609,149,27.0,1999,4292.0,Low,12/28/2010 0:00,650GIVLGP,650,G,IV,LGP,,"Track Type Tractor, Dozer - 85.0 to 105.0 Horsepower",North Carolina,TTT,Track Type Tractors,,OROPS,,,,,Standard,,,,,,2 Valve,,None or Unspecified,,,,,,,,,,,,,,None or Unspecified,None or Unspecified,None or Unspecified,,
22150,2630174,17000,1794023,149,26.0,1998,4275.0,Low,6/8/2011 0:00,650GIVLGP,650,G,IV,LGP,,"Track Type Tractor, Dozer - 85.0 to 105.0 Horsepower",Alabama,TTT,Track Type Tractors,,OROPS,,,,,Standard,,,,,,2 Valve,,None or Unspecified,,,,,,,,,,,,,,None or Unspecified,PAT,None or Unspecified,,
22150,2630207,21000,1822017,149,26.0,1999,0.0,,3/2/2011 0:00,650GIVLGP,650,G,IV,LGP,,"Track Type Tractor, Dozer - 85.0 to 105.0 Horsepower",Alabama,TTT,Track Type Tractors,,OROPS,,,,,Standard,,,,,,2 Valve,,None or Unspecified,,,,,,,,,,,,,,None or Unspecified,PAT,None or Unspecified,,
22150,2630291,17000,1367449,149,27.0,1999,3072.0,Low,12/28/2010 0:00,650GIVLGP,650,G,IV,LGP,,"Track Type Tractor, Dozer - 85.0 to 105.0 Horsepower",North Carolina,TTT,Track Type Tractors,,OROPS,,,,,Powershift,,,,,,2 Valve,,None or Unspecified,,,,,,,,,,,,,,None or Unspecified,PAT,None or Unspecified,,
22150,2650442,20000,1871105,149,1.0,1996,7215.0,Medium,5/12/2010 0:00,650GIVLGP,650,G,IV,LGP,,"Track Type Tractor, Dozer - 85.0 to 105.0 Horsepower",Illinois,TTT,Track Type Tractors,,OROPS,,,,,Standard,,,,,,2 Valve,,None or Unspecified,,,,,,,,,,,,,,None or Unspecified,PAT,None or Unspecified,,
22150,2650446,19000,1939357,149,1.0,1997,5468.0,Low,5/12/2010 0:00,650GIVLGP,650,G,IV,LGP,,"Track Type Tractor, Dozer - 85.0 to 105.0 Horsepower",Illinois,TTT,Track Type Tractors,,OROPS,,,,,Standard,,,,,,2 Valve,,None or Unspecified,,,,,,,,,,,,,,None or Unspecified,PAT,None or Unspecified,,
22150,2650456,12000,1928649,149,1.0,1997,0.0,,3/24/2011 0:00,650GIVLGP,650,G,IV,LGP,,"Track Type Tractor, Dozer - 85.0 to 105.0 Horsepower",Nevada,TTT,Track Type Tractors,,OROPS,,,,,Standard,,,,,,2 Valve,,None or Unspecified,,,,,,,,,,,,,,None or Unspecified,PAT,None or Unspecified,,
22150,2650471,20000,1818872,149,4.0,1998,0.0,,2/7/2011 0:00,650GIVLGP,650,G,IV,LGP,,"Track Type Tractor, Dozer - 85.0 to 105.0 Horsepower",Florida,TTT,Track Type Tractors,,OROPS,,,,,Standard,,,,,,2 Valve,,None or Unspecified,,,,,,,,,,,,,,None or Unspecified,PAT,None or Unspecified,,
22150,2650472,18000,1797824,149,2.0,1998,0.0,,4/9/2011 0:00,650GIVLGP,650,G,IV,LGP,,"Track Type Tractor, Dozer - 85.0 to 105.0 Horsepower",Wisconsin,TTT,Track Type Tractors,,OROPS,,,,,Standard,,,,,,2 Valve,,None or Unspecified,,,,,,,,,,,,,,None or Unspecified,None or Unspecified,None or Unspecified,,
22150,2650477,14250,1843151,149,12.0,1999,7373.0,Medium,6/1/2011 0:00,650GIVLGP,650,G,IV,LGP,,"Track Type Tractor, Dozer - 85.0 to 105.0 Horsepower",North Carolina,TTT,Track Type Tractors,,OROPS,,,,,Standard,,,,,,2 Valve,,None or Unspecified,,,,,,,,,,,,,,None or Unspecified,PAT,None or Unspecified,,
22150,4310453,10000,2267870,172,1.0,1996,8441.0,Medium,11/17/2009 0:00,650GIVLGP,650,G,IV,LGP,,"Track Type Tractor, Dozer - 85.0 to 105.0 Horsepower",Texas,TTT,Track Type Tractors,,OROPS,,,,,Standard,,,,,,2 Valve,,None or Unspecified,,,,,,,,,,,,,,None or Unspecified,PAT,None or Unspecified,,
22150,4323717,17000,2280604,172,1.0,1996,6015.0,Low,8/1/2011 0:00,650GIVLGP,650,G,IV,LGP,,"Track Type Tractor, Dozer - 85.0 to 105.0 Horsepower",Illinois,TTT,Track Type Tractors,,OROPS,,,,,Standard,,,,,,2 Valve,,None or Unspecified,,,,,,,,,,,,,,None or Unspecified,PAT,Differential Steer,,
22150,4323745,16500,2280835,172,1.0,1999,8200.0,Medium,8/24/2011 0:00,650GIVLGP,650,G,IV,LGP,,"Track Type Tractor, Dozer - 85.0 to 105.0 Horsepower",Maryland,TTT,Track Type Tractors,,OROPS,,,,,Standard,,,,,,2 Valve,,None or Unspecified,,,,,,,,,,,,,,None or Unspecified,PAT,None or Unspecified,,
22150,4323812,17500,2284481,172,1.0,1999,9530.0,Medium,12/14/2011 0:00,650GIVLGP,650,G,IV,LGP,,"Track Type Tractor, Dozer - 85.0 to 105.0 Horsepower",California,TTT,Track Type Tractors,,EROPS,,,,,Standard,,,,,,2 Valve,,Multi Shank,,,,,,,,,,,,,,None or Unspecified,PAT,None or Unspecified,,
22150,6283136,17000,1817067,149,13.0,1998,,,9/17/2011 0:00,650GIVLGP,650,G,IV,LGP,,"Track Type Tractor, Dozer - 85.0 to 105.0 Horsepower",Tennessee,TTT,Track Type Tractors,,OROPS,,,,,Standard,,,,,,2 Valve,,None or Unspecified,,,,,,,,,,,,,,None or Unspecified,PAT,None or Unspecified,,
22150,6287535,17000,1858604,149,1.0,1996,,,8/2/2011 0:00,650GIVLGP,650,G,IV,LGP,,"Track Type Tractor, Dozer - 85.0 to 105.0 Horsepower",Illinois,TTT,Track Type Tractors,,OROPS,,,,,Standard,,,,,,2 Valve,,None or Unspecified,,,,,,,,,,,,,,None or Unspecified,PAT,Differential Steer,,
22150,6287567,17500,1791714,149,1.0,1999,,,12/15/2011 0:00,650GIVLGP,650,G,IV,LGP,,"Track Type Tractor, Dozer - 85.0 to 105.0 Horsepower",California,TTT,Track Type Tractors,,OROPS,,,,,Standard,,,,,,2 Valve,,Multi Shank,,,,,,,,,,,,,,None or Unspecified,PAT,None or Unspecified,,
