ModelID,SalesID,SalePrice,MachineID,datasource,auctioneerID,YearMade,MachineHoursCurrentMeter,UsageBand,saledate,fiModelDesc,fiBaseModel,fiSecondaryDesc,fiModelSeries,fiModelDescriptor,ProductSize,fiProductClassDesc,state,ProductGroup,ProductGroupDesc,Drive_System,Enclosure,Forks,Pad_Type,Ride_Control,Stick,Transmission,Turbocharged,Blade_Extension,Blade_Width,Enclosure_Type,Engine_Horsepower,Hydraulics,Pushblock,Ripper,Scarifier,Tip_Control,Tire_Size,Coupler,Coupler_System,Grouser_Tracks,Hydraulics_Flow,Track_Type,Undercarriage_Pad_Width,Stick_Length,Thumb,Pattern_Changer,Grouser_Type,Backhoe_Mounting,Blade_Type,Travel_Controls,Differential_Type,Steering_Controls
22154,1640601,35000,1137530,132,22.0,2003,,,6/11/2011 0:00,650HXLT,650,H,,XLT,,"Track Type Tractor, Dozer - 85.0 to 105.0 Horsepower",Minnesota,TTT,Track Type Tractors,,EROPS w AC,,,,,Standard,,,,,,2 Valve,,None or Unspecified,,,,,,,,,,,,,,None or Unspecified,PAT,None or Unspecified,,
22154,1640711,40000,1455567,132,1.0,2003,3237.0,Medium,3/26/2008 0:00,650HXLT,650,H,,XLT,,"Track Type Tractor, Dozer - 85.0 to 105.0 Horsepower",Georgia,TTT,Track Type Tractors,,OROPS,,,,,Standard,,,,,,2 Valve,,None or Unspecified,,,,,,,,,,,,,,None or Unspecified,PAT,None or Unspecified,,
22154,1640778,34000,1136660,132,1.0,2003,,,12/16/2009 0:00,650HXLT,650,H,,XLT,,"Track Type Tractor, Dozer - 85.0 to 105.0 Horsepower",Maryland,TTT,Track Type Tractors,,EROPS w AC,,,,,Standard,,,,,,2 Valve,,Multi Shank,,,,,,,,,,,,,,None or Unspecified,PAT,None or Unspecified,,
22154,1641140,32000,1215438,132,1.0,2003,8621.0,Medium,5/5/2011 0:00,650HXLT,650,H,,XLT,,"Track Type Tractor, Dozer - 85.0 to 105.0 Horsepower",Maryland,TTT,Track Type Tractors,,EROPS w AC,,,,,Standard,,,,,,2 Valve,,None or Unspecified,,,,,,,,,,,,,,None or Unspecified,PAT,None or Unspecified,,
22154,1641605,67000,1402201,132,1.0,2004,,,12/9/2010 0:00,650HXLT,650,H,,XLT,,"Track Type Tractor, Dozer - 85.0 to 105.0 Horsepower",Illinois,TTT,Track Type Tractors,,OROPS,,,,,Standard,,,,,,2 Valve,,None or Unspecified,,,,,,,,,,,,,,None or Unspecified,PAT,None or Unspecified,,
22154,1641648,32000,1484657,132,1.0,2004,4832.0,High,12/16/2008 0:00,650HXLT,650,H,,XLT,,"Track Type Tractor, Dozer - 85.0 to 105.0 Horsepower",Washington,TTT,Track Type Tractors,,EROPS,,,,,Standard,,,,,,2 Valve,,Multi Shank,,,,,,,,,,,,,,None or Unspecified,PAT,None or Unspecified,,
22154,1642085,35000,1121785,132,20.0,2004,,,3/1/2011 0:00,650HXLT,650,H,,XLT,,"Track Type Tractor, Dozer - 85.0 to 105.0 Horsepower",Missouri,TTT,Track Type Tractors,,EROPS w AC,,,,,Standard,,,,,,2 Valve,,Multi Shank,,,,,,,,,,,,,,None or Unspecified,PAT,None or Unspecified,,
22154,1642139,57500,1427188,132,1.0,2004,5285.0,High,3/13/2008 0:00,650HXLT,650,H,,XLT,,"Track Type Tractor, Dozer - 85.0 to 105.0 Horsepower",Nevada,TTT,Track Type Tractors,,EROPS w AC,,,,,Standard,,,,,,2 Valve,,Multi Shank,,,,,,,,,,,,,,None or Unspecified,PAT,None or Unspecified,,
22154,2336080,51000,1337094,136,2.0,2003,0.0,,3/22/2007 0:00,650HXLT,650,H,,XLT,,"Track Type Tractor, Dozer - 85.0 to 105.0 Horsepower",New Jersey,TTT,Track Type Tractors,,EROPS w AC,,,,,Standard,,,,,,2 Valve,,None or Unspecified,,,,,,,,,,,,,,None or Unspecified,PAT,Finger Tip,,
22154,2336380,62500,1133454,136,5.0,2004,0.0,,3/29/2007 0:00,650HXLT,650,H,,XLT,,"Track Type Tractor, Dozer - 85.0 to 105.0 Horsepower",Connecticut,TTT,Track Type Tractors,,EROPS w AC,,,,,Standard,,,,,,2 Valve,,None or Unspecified,,,,,,,,,,,,,,None or Unspecified,PAT,None or Unspecified,,
22154,2355707,40000,1667402,136,1.0,2003,0.0,,3/26/2008 0:00,650HXLT,650,H,,XLT,,"Track Type Tractor, Dozer - 85.0 to 105.0 Horsepower",Georgia,TTT,Track Type Tractors,,OROPS,,,,,Standard,,,,,,2 Valve,,None or Unspecified,,,,,,,,,,,,,,None or Unspecified,PAT,None or Unspecified,,
22154,2355782,32000,1724013,136,1.0,2004,4828.0,High,12/16/2008 0:00,650HXLT,650,H,,XLT,,"Track Type Tractor, Dozer - 85.0 to 105.0 Horsepower",Washington,TTT,Track Type Tractors,,EROPS,,,,,Standard,,,,,,2 Valve,,None or Unspecified,,,,,,,,,,,,,,None or Unspecified,PAT,None or Unspecified,,
22154,2355816,57500,1779687,136,1.0,2004,5285.0,High,3/13/2008 0:00,650HXLT,650,H,,XLT,,"Track Type Tractor, Dozer - 85.0 to 105.0 Horsepower",Nevada,TTT,Track Type Tractors,,EROPS w AC,,,,,Standard,,,,,,2 Valve,,Multi Shank,,,,,,,,,,,,,,None or Unspecified,PAT,None or Unspecified,,
22154,2355817,54000,1731544,136,1.0,2004,2797.0,Medium,4/29/2008 0:00,650HXLT,650,H,,XLT,,"Track Type Tractor, Dozer - 85.0 to 105.0 Horsepower",California,TTT,Track Type Tractors,,EROPS w AC,,,,,Standard,,,,,,2 Valve,,Single Shank,,,,,,,,,,,,,,None or Unspecified,PAT,None or Unspecified,,
22154,2355856,57500,1740769,136,1.0,2004,0.0,,12/4/2007 0:00,650HXLT,650,H,,XLT,,"Track Type Tractor, Dozer - 85.0 to 105.0 Horsepower",California,TTT,Track Type Tractors,,OROPS,,,,,Standard,,,,,,2 Valve,,Multi Shank,,,,,,,,,,,,,,None or Unspecified,PAT,None or Unspecified,,
22154,2355857,57000,1773636,136,1.0,2004,1382.0,Medium,12/4/2007 0:00,650HXLT,650,H,,XLT,,"Track Type Tractor, Dozer - 85.0 to 105.0 Horsepower",California,TTT,Track Type Tractors,,OROPS,,,,,Standard,,,,,,2 Valve,,Multi Shank,,,,,,,,,,,,,,None or Unspecified,PAT,None or Unspecified,,
22154,2355883,57500,1772176,136,1.0,2004,0.0,,12/4/2007 0:00,650HXLT,650,H,,XLT,,"Track Type Tractor, Dozer - 85.0 to 105.0 Horsepower",California,TTT,Track Type Tractors,,OROPS,,,,,Standard,,,,,,2 Valve,,Multi Shank,,,,,,,,,,,,,,None or Unspecified,PAT,None or Unspecified,,
22154,2650642,32000,1823470,149,1.0,2003,8621.0,Medium,5/5/2011 0:00,650HXLT,650,H,,XLT,,"Track Type Tractor, Dozer - 85.0 to 105.0 Horsepower",Maryland,TTT,Track Type Tractors,,EROPS w AC,,,,,Standard,,,,,,2 Valve,,None or Unspecified,,,,,,,,,,,,,,None or Unspecified,PAT,None or Unspecified,,
22154,2650662,19000,1871342,149,1.0,2004,915.0,Low,12/9/2010 0:00,650HXLT,650,H,,XLT,,"Track Type Tractor, Dozer - 85.0 to 105.0 Horsepower",Illinois,TTT,Track Type Tractors,,OROPS,,,,,Standard,,,,,,2 Valve,,None or Unspecified,,,,,,,,,,,,,,None or Unspecified,PAT,None or Unspecified,,
22154,4323943,34000,2283679,172,1.0,2003,6353.0,Medium,12/16/2009 0:00,650HXLT,650,H,,XLT,,"Track Type Tractor, Dozer - 85.0 to 105.0 Horsepower",Maryland,TTT,Track Type Tractors,,EROPS w AC,,,,,Standard,,,,,,2 Valve,,Multi Shank,,,,,,,,,,,,,,None or Unspecified,PAT,None or Unspecified,,
22154,6287521,30000,1911772,149,2.0,2004,,,9/15/2011 0:00,650HXLT,650,H,,XLT,,"Track Type Tractor, Dozer - 85.0 to 105.0 Horsepower",Georgia,TTT,Track Type Tractors,,EROPS w AC,,,,,Standard,,,,,,2 Valve,,None or Unspecified,,,,,,,,,,,,,,None or Unspecified,None or Unspecified,None or Unspecified,,
