ModelID,SalesID,SalePrice,MachineID,datasource,auctioneerID,YearMade,MachineHoursCurrentMeter,UsageBand,saledate,fiModelDesc,fiBaseModel,fiSecondaryDesc,fiModelSeries,fiModelDescriptor,ProductSize,fiProductClassDesc,state,ProductGroup,ProductGroupDesc,Drive_System,Enclosure,Forks,Pad_Type,Ride_Control,Stick,Transmission,Turbocharged,Blade_Extension,Blade_Width,Enclosure_Type,Engine_Horsepower,Hydraulics,Pushblock,Ripper,Scarifier,Tip_Control,Tire_Size,Coupler,Coupler_System,Grouser_Tracks,Hydraulics_Flow,Track_Type,Undercarriage_Pad_Width,Stick_Length,Thumb,Pattern_Changer,Grouser_Type,Backhoe_Mounting,Blade_Type,Travel_Controls,Differential_Type,Steering_Controls
22248,1255686,85000,1088373,132,1.0,2002,,,10/13/2005 0:00,1850KLT,1850,K,,LT,Medium,"Track Type Tractor, Dozer - 160.0 to 190.0 Horsepower",Florida,TTT,Track Type Tractors,,EROPS w AC,,,,,Standard,,,,,,2 Valve,,None or Unspecified,,,,,,,,,,,,,,None or Unspecified,Semi U,None or Unspecified,,
22248,1268439,102500,1231015,132,2.0,2003,,,2/10/2006 0:00,1850KLT,1850,K,,LT,Medium,"Track Type Tractor, Dozer - 160.0 to 190.0 Horsepower",Florida,TTT,Track Type Tractors,,EROPS w AC,,,,,Standard,,,,,,2 Valve,,Multi Shank,,,,,,,,,,,,,,None or Unspecified,Semi U,None or Unspecified,,
22248,1268440,92500,1120331,132,1.0,2004,909.0,Low,3/25/2008 0:00,1850KLT,1850,K,,LT,Medium,"Track Type Tractor, Dozer - 160.0 to 190.0 Horsepower",North Carolina,TTT,Track Type Tractors,,EROPS w AC,,,,,Standard,,,,,,2 Valve,,Multi Shank,,,,,,,,,,,,,,None or Unspecified,Semi U,None or Unspecified,,
22248,2201344,92500,1722704,136,1.0,2004,,,3/25/2008 0:00,1850KLT,1850,K,,LT,Medium,"Track Type Tractor, Dozer - 160.0 to 190.0 Horsepower",North Carolina,TTT,Track Type Tractors,,EROPS w AC,,,,,Standard,,,,,,2 Valve,,Multi Shank,,,,,,,,,,,,,,None or Unspecified,Semi U,None or Unspecified,,
22248,2201485,85000,1101017,136,2.0,2003,,,1/19/2008 0:00,1850KLT,1850,K,,LT,Medium,"Track Type Tractor, Dozer - 160.0 to 190.0 Horsepower",Ohio,TTT,Track Type Tractors,,EROPS w AC,,,,,Standard,,,,,,2 Valve,,Multi Shank,,,,,,,,,,,,,,None or Unspecified,Semi U,None or Unspecified,,
