ModelID,SalesID,SalePrice,MachineID,datasource,auctioneerID,YearMade,MachineHoursCurrentMeter,UsageBand,saledate,fiModelDesc,fiBaseModel,fiSecondaryDesc,fiModelSeries,fiModelDescriptor,ProductSize,fiProductClassDesc,state,ProductGroup,ProductGroupDesc,Drive_System,Enclosure,Forks,Pad_Type,Ride_Control,Stick,Transmission,Turbocharged,Blade_Extension,Blade_Width,Enclosure_Type,Engine_Horsepower,Hydraulics,Pushblock,Ripper,Scarifier,Tip_Control,Tire_Size,Coupler,Coupler_System,Grouser_Tracks,Hydraulics_Flow,Track_Type,Undercarriage_Pad_Width,Stick_Length,Thumb,Pattern_Changer,Grouser_Type,Backhoe_Mounting,Blade_Type,Travel_Controls,Differential_Type,Steering_Controls
22247,1156656,62000,1039992,121,3.0,2004,3000.0,Medium,10/18/2007 0:00,1850KLGP,1850,K,,LGP,Medium,"Track Type Tractor, Dozer - 160.0 to 190.0 Horsepower",Texas,TTT,Track Type Tractors,,OROPS,,,,,Powershift,,,,,,2 Valve,,None or Unspecified,,,,,,,,,,,,,,None or Unspecified,Straight,None or Unspecified,,
22247,2195551,72500,1719888,136,,2007,,,1/31/2009 0:00,1850KLGP,1850,K,,LGP,Medium,"Track Type Tractor, Dozer - 160.0 to 190.0 Horsepower",Florida,TTT,Track Type Tractors,,EROPS w AC,,,,,Standard,,,,,,2 Valve,,None or Unspecified,,,,,,,,,,,,,,None or Unspecified,Straight,None or Unspecified,,
22247,2201383,67500,1642076,136,1.0,2002,2959.0,Medium,10/10/2007 0:00,1850KLGP,1850,K,,LGP,Medium,"Track Type Tractor, Dozer - 160.0 to 190.0 Horsepower",Florida,TTT,Track Type Tractors,,EROPS w AC,,,,,Standard,,,,,,2 Valve,,None or Unspecified,,,,,,,,,,,,,,None or Unspecified,Straight,None or Unspecified,,
22247,2201385,72000,1711427,136,1.0,2003,,,12/14/2007 0:00,1850KLGP,1850,K,,LGP,Medium,"Track Type Tractor, Dozer - 160.0 to 190.0 Horsepower",North Carolina,TTT,Track Type Tractors,,EROPS w AC,,,,,Standard,,,,,,2 Valve,,None or Unspecified,,,,,,,,,,,,,,None or Unspecified,Straight,None or Unspecified,,
22247,2201386,51000,1759237,136,1.0,2003,1221.0,Low,9/30/2008 0:00,1850KLGP,1850,K,,LGP,Medium,"Track Type Tractor, Dozer - 160.0 to 190.0 Horsepower",Minnesota,TTT,Track Type Tractors,,EROPS w AC,,,,,Powershift,,,,,,2 Valve,,None or Unspecified,,,,,,,,,,,,,,None or Unspecified,Straight,None or Unspecified,,
22247,2201387,47500,1666206,136,,1000,,,12/3/2008 0:00,1850KLGP,1850,K,,LGP,Medium,"Track Type Tractor, Dozer - 160.0 to 190.0 Horsepower",Texas,TTT,Track Type Tractors,,OROPS,,,,,Standard,,,,,,2 Valve,,None or Unspecified,,,,,,,,,,,,,,None or Unspecified,None or Unspecified,None or Unspecified,,
22247,2201388,69000,1650282,136,1.0,2005,,,6/24/2008 0:00,1850KLGP,1850,K,,LGP,Medium,"Track Type Tractor, Dozer - 160.0 to 190.0 Horsepower",North Carolina,TTT,Track Type Tractors,,EROPS w AC,,,,,Standard,,,,,,2 Valve,,None or Unspecified,,,,,,,,,,,,,,None or Unspecified,Straight,None or Unspecified,,
22247,2201391,45000,1039992,136,1.0,2004,6440.0,High,9/24/2008 0:00,1850KLGP,1850,K,,LGP,Medium,"Track Type Tractor, Dozer - 160.0 to 190.0 Horsepower",Texas,TTT,Track Type Tractors,,OROPS,,,,,Powershift,,,,,,2 Valve,,None or Unspecified,,,,,,,,,,,,,,None or Unspecified,Straight,None or Unspecified,,
22247,2201392,64000,1682350,136,1.0,2004,,,12/14/2007 0:00,1850KLGP,1850,K,,LGP,Medium,"Track Type Tractor, Dozer - 160.0 to 190.0 Horsepower",North Carolina,TTT,Track Type Tractors,,EROPS w AC,,,,,Standard,,,,,,2 Valve,,None or Unspecified,,,,,,,,,,,,,,None or Unspecified,Straight,None or Unspecified,,
22247,2201394,70000,1651880,136,1.0,2004,,,12/6/2007 0:00,1850KLGP,1850,K,,LGP,Medium,"Track Type Tractor, Dozer - 160.0 to 190.0 Horsepower",Texas,TTT,Track Type Tractors,,OROPS,,,,,Standard,,,,,,2 Valve,,None or Unspecified,,,,,,,,,,,,,,None or Unspecified,Straight,None or Unspecified,,
22247,2201415,54000,1127122,136,2.0,2002,,,8/19/2008 0:00,1850KLGP,1850,K,,LGP,Medium,"Track Type Tractor, Dozer - 160.0 to 190.0 Horsepower",Texas,TTT,Track Type Tractors,,EROPS w AC,,,,,Standard,,,,,,2 Valve,,None or Unspecified,,,,,,,,,,,,,,None or Unspecified,Straight,None or Unspecified,,
22247,2201488,76000,1195762,136,2.0,2005,1236.0,Medium,10/9/2007 0:00,1850KLGP,1850,K,,LGP,Medium,"Track Type Tractor, Dozer - 160.0 to 190.0 Horsepower",Florida,TTT,Track Type Tractors,,OROPS,,,,,Powershift,,,,,,2 Valve,,None or Unspecified,,,,,,,,,,,,,,None or Unspecified,Straight,None or Unspecified,,
22247,2494233,87500,1717126,149,2.0,2006,704.0,Low,9/22/2010 0:00,1850KLGP,1850,K,,LGP,Medium,"Track Type Tractor, Dozer - 160.0 to 190.0 Horsepower",Illinois,TTT,Track Type Tractors,,EROPS w AC,,,,,Standard,,,,,,2 Valve,,None or Unspecified,,,,,,,,,,,,,,None or Unspecified,None or Unspecified,None or Unspecified,,
22247,2506182,90000,1671831,149,2.0,2007,744.0,Low,9/22/2010 0:00,1850KLGP,1850,K,,LGP,Medium,"Track Type Tractor, Dozer - 160.0 to 190.0 Horsepower",Illinois,TTT,Track Type Tractors,,EROPS w AC,,,,,Standard,,,,,,2 Valve,,None or Unspecified,,,,,,,,,,,,,,None or Unspecified,PAT,None or Unspecified,,
