ModelID,SalesID,SalePrice,MachineID,datasource,auctioneerID,YearMade,MachineHoursCurrentMeter,UsageBand,saledate,fiModelDesc,fiBaseModel,fiSecondaryDesc,fiModelSeries,fiModelDescriptor,ProductSize,fiProductClassDesc,state,ProductGroup,ProductGroupDesc,Drive_System,Enclosure,Forks,Pad_Type,Ride_Control,Stick,Transmission,Turbocharged,Blade_Extension,Blade_Width,Enclosure_Type,Engine_Horsepower,Hydraulics,Pushblock,Ripper,Scarifier,Tip_Control,Tire_Size,Coupler,Coupler_System,Grouser_Tracks,Hydraulics_Flow,Track_Type,Undercarriage_Pad_Width,Stick_Length,Thumb,Pattern_Changer,Grouser_Type,Backhoe_Mounting,Blade_Type,Travel_Controls,Differential_Type,Steering_Controls
2230,1158639,10500,1038283,121,3.0,1000,9274.0,Medium,4/19/2007 0:00,PC200LC3,PC200,,LC,3,Large / Medium,"Hydraulic Excavator, Track - 19.0 to 21.0 Metric Tons",Missouri,TEX,Track Excavators,,EROPS,,,,,,,,,,,Standard,,,,,,None or Unspecified,,,,Steel,28 inch,None or Unspecified,None or Unspecified,None or Unspecified,Double,,,,,
2230,1164152,91000,1030959,121,3.0,2004,1214.0,Medium,2/9/2006 0:00,PC200LC3,PC200,,LC,3,Large / Medium,"Hydraulic Excavator, Track - 19.0 to 21.0 Metric Tons",New Jersey,TEX,Track Excavators,,EROPS w AC,,,,,,,,,,,Standard,,,,,,None or Unspecified,,,,Steel,None or Unspecified,None or Unspecified,None or Unspecified,None or Unspecified,Double,,,,,
2230,1164683,40500,1010616,121,3.0,1996,4387.0,Medium,2/12/2004 0:00,PC200LC3,PC200,,LC,3,Large / Medium,"Hydraulic Excavator, Track - 19.0 to 21.0 Metric Tons",Mississippi,TEX,Track Excavators,,EROPS,,,,,,,,,,,Standard,,,,,,Manual,,,,Steel,None or Unspecified,None or Unspecified,None or Unspecified,None or Unspecified,Double,,,,,
2230,1176077,26000,1016311,121,3.0,1990,876.0,Low,12/13/2007 0:00,PC200LC3,PC200,,LC,3,Large / Medium,"Hydraulic Excavator, Track - 19.0 to 21.0 Metric Tons",Texas,TEX,Track Excavators,,EROPS,,,,,,,,,,,2 Valve,,,,,,None or Unspecified,,,,,,,,,,,,,,
2230,1179864,41000,1065664,121,3.0,2000,8225.0,Medium,5/29/2008 0:00,PC200LC3,PC200,,LC,3,Large / Medium,"Hydraulic Excavator, Track - 19.0 to 21.0 Metric Tons",North Carolina,TEX,Track Excavators,,EROPS w AC,,,,,,,,,,,Standard,,,,,,Manual,,,,Steel,None or Unspecified,None or Unspecified,Hydraulic,None or Unspecified,Double,,,,,
2230,1183897,10000,1036683,121,3.0,1000,17275.0,Medium,10/30/2008 0:00,PC200LC3,PC200,,LC,3,Large / Medium,"Hydraulic Excavator, Track - 19.0 to 21.0 Metric Tons",Kentucky,TEX,Track Excavators,,EROPS w AC,,,,,,,,,,,Standard,,,,,,None or Unspecified,,,,Steel,None or Unspecified,None or Unspecified,None or Unspecified,None or Unspecified,Double,,,,,
2230,1186664,17000,197885,121,3.0,1000,21521.0,High,1/15/2009 0:00,PC200LC3,PC200,,LC,3,Large / Medium,"Hydraulic Excavator, Track - 19.0 to 21.0 Metric Tons",Colorado,TEX,Track Excavators,,EROPS,,,,,,,,,,,Standard,,,,,,None or Unspecified,,,,Steel,None or Unspecified,None or Unspecified,None or Unspecified,None or Unspecified,Double,,,,,
2230,1190181,13000,1020707,121,3.0,1000,0.0,,5/14/2009 0:00,PC200LC3,PC200,,LC,3,Large / Medium,"Hydraulic Excavator, Track - 19.0 to 21.0 Metric Tons",North Carolina,TEX,Track Excavators,,EROPS w AC,,,,,,,,,,,Standard,,,,,,None or Unspecified,,,,Steel,None or Unspecified,None or Unspecified,None or Unspecified,None or Unspecified,Double,,,,,
2230,1190905,44000,1059554,121,3.0,2005,4205.0,Medium,5/28/2009 0:00,PC200LC3,PC200,,LC,3,Large / Medium,"Hydraulic Excavator, Track - 19.0 to 21.0 Metric Tons",Mississippi,TEX,Track Excavators,,EROPS w AC,,,,,,,,,,,Standard,,,,,,Hydraulic,,,,Steel,None or Unspecified,None or Unspecified,None or Unspecified,None or Unspecified,Double,,,,,
2230,1196090,40000,1007523,121,3.0,2002,10731.0,High,12/3/2009 0:00,PC200LC3,PC200,,LC,3,Large / Medium,"Hydraulic Excavator, Track - 19.0 to 21.0 Metric Tons",Florida,TEX,Track Excavators,,EROPS w AC,,,,,,,,,,,Standard,,,,,,None or Unspecified,,,,Steel,None or Unspecified,None or Unspecified,Manual,None or Unspecified,Double,,,,,
2230,1196813,36500,999833,121,3.0,2001,8479.0,Medium,12/17/2009 0:00,PC200LC3,PC200,,LC,3,Large / Medium,"Hydraulic Excavator, Track - 19.0 to 21.0 Metric Tons",Texas,TEX,Track Excavators,,EROPS w AC,,,,,,,,,,,Standard,,,,,,None or Unspecified,,,,Steel,None or Unspecified,None or Unspecified,Manual,None or Unspecified,Double,,,,,
2230,1202516,30500,1051390,121,3.0,1996,8974.0,Medium,6/10/2010 0:00,PC200LC3,PC200,,LC,3,Large / Medium,"Hydraulic Excavator, Track - 19.0 to 21.0 Metric Tons",Oklahoma,TEX,Track Excavators,,EROPS,,,,,,,,,,,Standard,,,,,,None or Unspecified,,,,Steel,27 inch,None or Unspecified,None or Unspecified,None or Unspecified,Double,,,,,
2230,1727365,34000,1234540,132,9.0,1000,,,2/23/2006 0:00,PC200LC3,PC200,,LC,3,Large / Medium,"Hydraulic Excavator, Track - 19.0 to 21.0 Metric Tons",Florida,TEX,Track Excavators,,EROPS,,,,,,,,,,,Standard,,,,,,None or Unspecified,,,,Steel,None or Unspecified,None or Unspecified,None or Unspecified,None or Unspecified,Double,,,,,
2230,1729729,45000,1217258,132,99.0,1999,2965.0,Low,8/25/2011 0:00,PC200LC3,PC200,,LC,3,Large / Medium,"Hydraulic Excavator, Track - 19.0 to 21.0 Metric Tons",Tennessee,TEX,Track Excavators,,EROPS w AC,,,,,,,,,,,Standard,,,,,,None or Unspecified,,,,Steel,None or Unspecified,None or Unspecified,None or Unspecified,None or Unspecified,Double,,,,,
2230,1729916,45000,1440783,132,1.0,2000,,,10/4/2006 0:00,PC200LC3,PC200,,LC,3,Large / Medium,"Hydraulic Excavator, Track - 19.0 to 21.0 Metric Tons",Maryland,TEX,Track Excavators,,EROPS w AC,,,,,,,,,,,Auxiliary,,,,,,None or Unspecified,,,,Steel,None or Unspecified,"9' 8""",None or Unspecified,None or Unspecified,Double,,,,,
2230,1730979,72500,1314302,132,2.0,2003,,,10/11/2006 0:00,PC200LC3,PC200,,LC,3,Large / Medium,"Hydraulic Excavator, Track - 19.0 to 21.0 Metric Tons",Florida,TEX,Track Excavators,,EROPS,,,,,,,,,,,Standard,,,,,,None or Unspecified,,,,Steel,None or Unspecified,None or Unspecified,None or Unspecified,None or Unspecified,Double,,,,,
2230,1733118,23500,1240886,132,4.0,1000,,,2/4/1999 0:00,PC200LC3,PC200,,LC,3,Large / Medium,"Hydraulic Excavator, Track - 19.0 to 21.0 Metric Tons",Florida,TEX,Track Excavators,,EROPS,,,,,,,,,,,Standard,,,,,,None or Unspecified,,,,Steel,None or Unspecified,None or Unspecified,None or Unspecified,None or Unspecified,Double,,,,,
2230,1735614,10700,1309844,132,20.0,1000,,,7/15/1999 0:00,PC200LC3,PC200,,LC,3,Large / Medium,"Hydraulic Excavator, Track - 19.0 to 21.0 Metric Tons",Arkansas,TEX,Track Excavators,,EROPS,,,,,,,,,,,Standard,,,,,,None or Unspecified,,,,Steel,32 inch,None or Unspecified,None or Unspecified,None or Unspecified,Triple,,,,,
2230,1735825,11500,1184554,132,5.0,1984,,,4/25/1998 0:00,PC200LC3,PC200,,LC,3,Large / Medium,"Hydraulic Excavator, Track - 19.0 to 21.0 Metric Tons",New Hampshire,TEX,Track Excavators,,EROPS,,,,,,,,,,,Standard,,,,,,None or Unspecified,,,,Steel,None or Unspecified,None or Unspecified,None or Unspecified,None or Unspecified,Double,,,,,
2230,1736170,72000,1509303,132,8.0,2002,,,9/14/2005 0:00,PC200LC3,PC200,,LC,3,Large / Medium,"Hydraulic Excavator, Track - 19.0 to 21.0 Metric Tons",Mississippi,TEX,Track Excavators,,EROPS w AC,,,,,,,,,,,Standard,,,,,,None or Unspecified,,,,Steel,32 inch,"9' 8""",Manual,None or Unspecified,Double,,,,,
2230,1736661,13000,1190037,132,2.0,1000,,,12/11/1999 0:00,PC200LC3,PC200,,LC,3,Large / Medium,"Hydraulic Excavator, Track - 19.0 to 21.0 Metric Tons",Pennsylvania,TEX,Track Excavators,,EROPS,,,,,,,,,,,Standard,,,,,,None or Unspecified,,,,Steel,None or Unspecified,None or Unspecified,None or Unspecified,None or Unspecified,Double,,,,,
2230,1736775,38000,1267093,132,1.0,2003,,,6/23/2009 0:00,PC200LC3,PC200,,LC,3,Large / Medium,"Hydraulic Excavator, Track - 19.0 to 21.0 Metric Tons",California,TEX,Track Excavators,,EROPS,,,,,,,,,,,Standard,,,,,,None or Unspecified,,,,Steel,None or Unspecified,None or Unspecified,None or Unspecified,None or Unspecified,Double,,,,,
2230,1738292,16500,1427801,132,1.0,1000,,,3/29/2006 0:00,PC200LC3,PC200,,LC,3,Large / Medium,"Hydraulic Excavator, Track - 19.0 to 21.0 Metric Tons",Texas,TEX,Track Excavators,,EROPS,,,,,,,,,,,Standard,,,,,,None or Unspecified,,,,Steel,32 inch,"9' 6""",None or Unspecified,None or Unspecified,Double,,,,,
2230,1738999,15000,1114719,132,4.0,1000,,,2/10/2011 0:00,PC200LC3,PC200,,LC,3,Large / Medium,"Hydraulic Excavator, Track - 19.0 to 21.0 Metric Tons",Florida,TEX,Track Excavators,,EROPS,,,,,,,,,,,Standard,,,,,,None or Unspecified,,,,Steel,None or Unspecified,None or Unspecified,None or Unspecified,None or Unspecified,Double,,,,,
2230,1739243,28000,1350105,132,10.0,1000,,,1/27/2000 0:00,PC200LC3,PC200,,LC,3,Large / Medium,"Hydraulic Excavator, Track - 19.0 to 21.0 Metric Tons",Louisiana,TEX,Track Excavators,,EROPS,,,,,,,,,,,Standard,,,,,,None or Unspecified,,,,Steel,32 inch,None or Unspecified,None or Unspecified,None or Unspecified,Triple,,,,,
2230,1740067,22000,1468347,132,2.0,1000,,,10/3/1998 0:00,PC200LC3,PC200,,LC,3,Large / Medium,"Hydraulic Excavator, Track - 19.0 to 21.0 Metric Tons",Pennsylvania,TEX,Track Excavators,,EROPS,,,,,,,,,,,Standard,,,,,,None or Unspecified,,,,Steel,None or Unspecified,None or Unspecified,None or Unspecified,None or Unspecified,Double,,,,,
2230,1740512,11000,433408,132,2.0,1000,,,10/4/2003 0:00,PC200LC3,PC200,,LC,3,Large / Medium,"Hydraulic Excavator, Track - 19.0 to 21.0 Metric Tons",Pennsylvania,TEX,Track Excavators,,EROPS,,,,,,,,,,,Standard,,,,,,None or Unspecified,,,,Steel,None or Unspecified,None or Unspecified,None or Unspecified,None or Unspecified,Double,,,,,
2230,1740625,33000,1452476,132,99.0,1000,,,10/30/1997 0:00,PC200LC3,PC200,,LC,3,Large / Medium,"Hydraulic Excavator, Track - 19.0 to 21.0 Metric Tons",Wisconsin,TEX,Track Excavators,,EROPS,,,,,,,,,,,Standard,,,,,,None or Unspecified,,,,Steel,28 inch,"9' 7""",None or Unspecified,None or Unspecified,Double,,,,,
2230,1740899,35000,1503439,132,13.0,1987,,,5/9/1996 0:00,PC200LC3,PC200,,LC,3,Large / Medium,"Hydraulic Excavator, Track - 19.0 to 21.0 Metric Tons",Tennessee,TEX,Track Excavators,,EROPS,,,,,,,,,,,Standard,,,,,,None or Unspecified,,,,Steel,None or Unspecified,None or Unspecified,None or Unspecified,None or Unspecified,Double,,,,,
2230,1740959,11500,891660,132,8.0,1987,,,1/27/2011 0:00,PC200LC3,PC200,,LC,3,Large / Medium,"Hydraulic Excavator, Track - 19.0 to 21.0 Metric Tons",Alabama,TEX,Track Excavators,,EROPS,,,,,,,,,,,Standard,,,,,,None or Unspecified,,,,Steel,32 inch,"9' 8""",Manual,None or Unspecified,Triple,,,,,
2230,1742827,36000,1505433,132,8.0,1000,,,11/16/2005 0:00,PC200LC3,PC200,,LC,3,Large / Medium,"Hydraulic Excavator, Track - 19.0 to 21.0 Metric Tons",Mississippi,TEX,Track Excavators,,EROPS,,,,,,,,,,,Auxiliary,,,,,,None or Unspecified,,,,Steel,None or Unspecified,None or Unspecified,None or Unspecified,None or Unspecified,Double,,,,,
2230,1745136,24500,1109101,132,2.0,1987,,,12/3/2004 0:00,PC200LC3,PC200,,LC,3,Large / Medium,"Hydraulic Excavator, Track - 19.0 to 21.0 Metric Tons",Maine,TEX,Track Excavators,,EROPS,,,,,,,,,,,Standard,,,,,,None or Unspecified,,,,Steel,None or Unspecified,None or Unspecified,None or Unspecified,None or Unspecified,Double,,,,,
2230,1750408,41000,1180325,132,23.0,1000,,,12/14/1996 0:00,PC200LC3,PC200,,LC,3,Large / Medium,"Hydraulic Excavator, Track - 19.0 to 21.0 Metric Tons",New Jersey,TEX,Track Excavators,,EROPS,,,,,,,,,,,Auxiliary,,,,,,None or Unspecified,,,,Steel,None or Unspecified,None or Unspecified,None or Unspecified,None or Unspecified,Double,,,,,
2230,1750881,78000,1090380,132,2.0,2004,,,12/7/2007 0:00,PC200LC3,PC200,,LC,3,Large / Medium,"Hydraulic Excavator, Track - 19.0 to 21.0 Metric Tons",Pennsylvania,TEX,Track Excavators,,EROPS w AC,,,,,,,,,,,2 Valve,,,,,,,,,,,None or Unspecified,,,,,,,,,
2230,1753098,100000,1194808,132,8.0,1000,,,5/25/2005 0:00,PC200LC3,PC200,,LC,3,Large / Medium,"Hydraulic Excavator, Track - 19.0 to 21.0 Metric Tons",Mississippi,TEX,Track Excavators,,EROPS,,,,,,,,,,,Standard,,,,,,None or Unspecified,,,,Steel,None or Unspecified,None or Unspecified,None or Unspecified,None or Unspecified,Double,,,,,
2230,1753192,16000,1077099,132,17.0,1000,,,4/26/2001 0:00,PC200LC3,PC200,,LC,3,Large / Medium,"Hydraulic Excavator, Track - 19.0 to 21.0 Metric Tons",Montana,TEX,Track Excavators,,OROPS,,,,,,,,,,,2 Valve,,,,,,,,,,,None or Unspecified,,,,,,,,,
2230,1760257,51000,1279352,132,2.0,1000,,,10/23/1999 0:00,PC200LC3,PC200,,LC,3,Large / Medium,"Hydraulic Excavator, Track - 19.0 to 21.0 Metric Tons",Florida,TEX,Track Excavators,,EROPS,,,,,,,,,,,2 Valve,,,,,,,,,,,None or Unspecified,,,,,,,,,
2230,1760790,36500,1525101,132,2.0,1000,,,6/16/2004 0:00,PC200LC3,PC200,,LC,3,Large / Medium,"Hydraulic Excavator, Track - 19.0 to 21.0 Metric Tons",Texas,TEX,Track Excavators,,EROPS,,,,,,,,,,,Standard,,,,,,None or Unspecified,,,,Steel,None or Unspecified,None or Unspecified,None or Unspecified,None or Unspecified,Double,,,,,
2230,1760828,60500,1126026,132,2.0,1000,,,3/18/1999 0:00,PC200LC3,PC200,,LC,3,Large / Medium,"Hydraulic Excavator, Track - 19.0 to 21.0 Metric Tons",New Jersey,TEX,Track Excavators,,EROPS,,,,,,,,,,,Standard,,,,,,None or Unspecified,,,,Steel,None or Unspecified,None or Unspecified,None or Unspecified,None or Unspecified,Double,,,,,
2230,1761504,37000,1547798,132,2.0,1998,,,2/28/2007 0:00,PC200LC3,PC200,,LC,3,Large / Medium,"Hydraulic Excavator, Track - 19.0 to 21.0 Metric Tons",Texas,TEX,Track Excavators,,EROPS,,,,,,,,,,,Standard,,,,,,None or Unspecified,,,,Steel,None or Unspecified,"9' 7""",None or Unspecified,None or Unspecified,Double,,,,,
2230,1761700,38500,1386664,132,2.0,1999,,,2/28/2007 0:00,PC200LC3,PC200,,LC,3,Large / Medium,"Hydraulic Excavator, Track - 19.0 to 21.0 Metric Tons",Texas,TEX,Track Excavators,,EROPS w AC,,,,,,,,,,,Standard,,,,,,None or Unspecified,,,,Steel,None or Unspecified,None or Unspecified,None or Unspecified,None or Unspecified,Double,,,,,
2230,1766053,20000,1236369,132,3.0,1990,,,7/14/2005 0:00,PC200LC3,PC200,,LC,3,Large / Medium,"Hydraulic Excavator, Track - 19.0 to 21.0 Metric Tons",California,TEX,Track Excavators,,EROPS w AC,,,,,,,,,,,2 Valve,,,,,,None or Unspecified,,,,,,,,,,,,,,
2230,1766093,11000,1034368,132,7.0,1990,,,5/31/2006 0:00,PC200LC3,PC200,,LC,3,Large / Medium,"Hydraulic Excavator, Track - 19.0 to 21.0 Metric Tons",Alabama,TEX,Track Excavators,,EROPS,,,,,,,,,,,Auxiliary,,,,,,None or Unspecified,,,,,,,,,,,,,,
2230,1766601,25000,1000712,132,27.0,1992,,,9/16/2005 0:00,PC200LC3,PC200,,LC,3,Large / Medium,"Hydraulic Excavator, Track - 19.0 to 21.0 Metric Tons",North Carolina,TEX,Track Excavators,,EROPS,,,,,,,,,,,Standard,,,,,,None or Unspecified,,,,Steel,None or Unspecified,None or Unspecified,None or Unspecified,None or Unspecified,Double,,,,,
2230,1767863,27000,1550955,132,1.0,1000,,,11/18/2004 0:00,PC200LC3,PC200,,LC,3,Large / Medium,"Hydraulic Excavator, Track - 19.0 to 21.0 Metric Tons",Georgia,TEX,Track Excavators,,EROPS,,,,,,,,,,,Auxiliary,,,,,,None or Unspecified,,,,Steel,28 inch,"11' 0""",Manual,None or Unspecified,Double,,,,,
2230,1769107,47000,1354858,132,27.0,1995,,,12/28/2005 0:00,PC200LC3,PC200,,LC,3,Large / Medium,"Hydraulic Excavator, Track - 19.0 to 21.0 Metric Tons",North Carolina,TEX,Track Excavators,,EROPS,,,,,,,,,,,Standard,,,,,,None or Unspecified,,,,Steel,None or Unspecified,None or Unspecified,None or Unspecified,None or Unspecified,Double,,,,,
2230,1769147,21750,1245180,132,5.0,1995,,,6/20/2008 0:00,PC200LC3,PC200,,LC,3,Large / Medium,"Hydraulic Excavator, Track - 19.0 to 21.0 Metric Tons",Connecticut,TEX,Track Excavators,,EROPS,,,,,,,,,,,Standard,,,,,,Manual,,,,Steel,28 inch,None or Unspecified,None or Unspecified,None or Unspecified,Double,,,,,
2230,1769401,24000,1283414,132,28.0,1996,,,9/8/2006 0:00,PC200LC3,PC200,,LC,3,Large / Medium,"Hydraulic Excavator, Track - 19.0 to 21.0 Metric Tons",Mississippi,TEX,Track Excavators,,EROPS,,,,,,,,,,,Standard,,,,,,None or Unspecified,,,,Steel,None or Unspecified,None or Unspecified,Manual,None or Unspecified,Double,,,,,
2230,1769430,47500,1264297,132,10.0,1000,,,8/12/1999 0:00,PC200LC3,PC200,,LC,3,Large / Medium,"Hydraulic Excavator, Track - 19.0 to 21.0 Metric Tons",Louisiana,TEX,Track Excavators,,EROPS,,,,,,,,,,,Standard,,,,,,None or Unspecified,,,,Steel,None or Unspecified,None or Unspecified,None or Unspecified,None or Unspecified,Double,,,,,
2230,1769523,14000,1310449,132,10.0,1996,,,3/14/2007 0:00,PC200LC3,PC200,,LC,3,Large / Medium,"Hydraulic Excavator, Track - 19.0 to 21.0 Metric Tons",Louisiana,TEX,Track Excavators,,EROPS,,,,,,,,,,,Standard,,,,,,None or Unspecified,,,,Steel,32 inch,None or Unspecified,Manual,None or Unspecified,Double,,,,,
2230,1769528,27000,1011035,132,1.0,1996,,,11/17/2005 0:00,PC200LC3,PC200,,LC,3,Large / Medium,"Hydraulic Excavator, Track - 19.0 to 21.0 Metric Tons",Texas,TEX,Track Excavators,,EROPS,,,,,,,,,,,Standard,,,,,,None or Unspecified,,,,Steel,None or Unspecified,None or Unspecified,Manual,None or Unspecified,Double,,,,,
2230,1769755,37500,1399218,132,7.0,1997,,,5/31/2006 0:00,PC200LC3,PC200,,LC,3,Large / Medium,"Hydraulic Excavator, Track - 19.0 to 21.0 Metric Tons",Alabama,TEX,Track Excavators,,EROPS,,,,,,,,,,,Standard,,,,,,None or Unspecified,,,,Steel,None or Unspecified,None or Unspecified,Manual,None or Unspecified,Double,,,,,
2230,1770253,43000,1409029,132,1.0,1997,,,4/21/2004 0:00,PC200LC3,PC200,,LC,3,Large / Medium,"Hydraulic Excavator, Track - 19.0 to 21.0 Metric Tons",Missouri,TEX,Track Excavators,,EROPS w AC,,,,,,,,,,,Auxiliary,,,,,,None or Unspecified,,,,Steel,None or Unspecified,"9' 6""",Manual,None or Unspecified,Triple,,,,,
2230,1770563,43500,1187893,132,2.0,1998,,,5/26/2004 0:00,PC200LC3,PC200,,LC,3,Large / Medium,"Hydraulic Excavator, Track - 19.0 to 21.0 Metric Tons",Florida,TEX,Track Excavators,,EROPS w AC,,,,,,,,,,,Auxiliary,,,,,,None or Unspecified,,,,Steel,None or Unspecified,None or Unspecified,None or Unspecified,None or Unspecified,Double,,,,,
2230,1770686,42500,1275982,132,2.0,1999,,,9/17/2003 0:00,PC200LC3,PC200,,LC,3,Large / Medium,"Hydraulic Excavator, Track - 19.0 to 21.0 Metric Tons",Texas,TEX,Track Excavators,,EROPS w AC,,,,,,,,,,,Auxiliary,,,,,,None or Unspecified,,,,Steel,None or Unspecified,None or Unspecified,Manual,None or Unspecified,Double,,,,,
2230,1770762,63000,1119388,132,4.0,2000,,,2/16/2006 0:00,PC200LC3,PC200,,LC,3,Large / Medium,"Hydraulic Excavator, Track - 19.0 to 21.0 Metric Tons",Florida,TEX,Track Excavators,,EROPS,,,,,,,,,,,Standard,,,,,,None or Unspecified,,,,Steel,None or Unspecified,None or Unspecified,None or Unspecified,None or Unspecified,Double,,,,,
2230,1771485,65000,1149202,132,2.0,2003,,,12/8/2007 0:00,PC200LC3,PC200,,LC,3,Large / Medium,"Hydraulic Excavator, Track - 19.0 to 21.0 Metric Tons",Pennsylvania,TEX,Track Excavators,,EROPS w AC,,,,,,,,,,,Auxiliary,,,,,,None or Unspecified,,,,Steel,None or Unspecified,None or Unspecified,Hydraulic,None or Unspecified,Double,,,,,
2230,1771534,62000,1244734,132,7.0,2002,,,3/12/2008 0:00,PC200LC3,PC200,,LC,3,Large / Medium,"Hydraulic Excavator, Track - 19.0 to 21.0 Metric Tons",Alabama,TEX,Track Excavators,,EROPS w AC,,,,,,,,,,,Standard,,,,,,None or Unspecified,,,,Steel,32 inch,"9' 6""",None or Unspecified,None or Unspecified,Triple,,,,,
2230,1771867,67000,1485220,132,28.0,1999,,,12/1/2006 0:00,PC200LC3,PC200,,LC,3,Large / Medium,"Hydraulic Excavator, Track - 19.0 to 21.0 Metric Tons",Mississippi,TEX,Track Excavators,,EROPS,,,,,,,,,,,Standard,,,,,,None or Unspecified,,,,Steel,None or Unspecified,None or Unspecified,Manual,None or Unspecified,Double,,,,,
2230,1772109,55000,1454527,132,10.0,2006,,,12/9/2009 0:00,PC200LC3,PC200,,LC,3,Large / Medium,"Hydraulic Excavator, Track - 19.0 to 21.0 Metric Tons",Louisiana,TEX,Track Excavators,,EROPS,,,,,,,,,,,Standard,,,,,,None or Unspecified,,,,Steel,32 inch,None or Unspecified,None or Unspecified,None or Unspecified,Triple,,,,,
2230,1772410,62000,1211271,132,7.0,2002,,,3/12/2008 0:00,PC200LC3,PC200,,LC,3,Large / Medium,"Hydraulic Excavator, Track - 19.0 to 21.0 Metric Tons",Alabama,TEX,Track Excavators,,EROPS w AC,,,,,,,,,,,Standard,,,,,,None or Unspecified,,,,Steel,32 inch,"9' 6""",None or Unspecified,None or Unspecified,Triple,,,,,
2230,1774164,89500,1147744,132,4.0,1991,,,2/10/2005 0:00,PC200LC3,PC200,,LC,3,Large / Medium,"Hydraulic Excavator, Track - 19.0 to 21.0 Metric Tons",Florida,TEX,Track Excavators,,EROPS,,,,,,,,,,,Standard,,,,,,None or Unspecified,,,,Steel,None or Unspecified,None or Unspecified,None or Unspecified,None or Unspecified,Double,,,,,
2230,1774201,95000,1228286,132,4.0,2005,2001.0,Medium,2/15/2007 0:00,PC200LC3,PC200,,LC,3,Large / Medium,"Hydraulic Excavator, Track - 19.0 to 21.0 Metric Tons",Florida,TEX,Track Excavators,,EROPS w AC,,,,,,,,,,,Standard,,,,,,None or Unspecified,,,,Steel,None or Unspecified,"9' 8""",None or Unspecified,None or Unspecified,Double,,,,,
2230,1774212,91000,1153908,132,4.0,2005,1035.0,Medium,2/15/2007 0:00,PC200LC3,PC200,,LC,3,Large / Medium,"Hydraulic Excavator, Track - 19.0 to 21.0 Metric Tons",Florida,TEX,Track Excavators,,EROPS,,,,,,,,,,,Standard,,,,,,None or Unspecified,,,,Steel,None or Unspecified,None or Unspecified,None or Unspecified,None or Unspecified,Double,,,,,
2230,1774220,97500,1508816,132,4.0,2005,1366.0,Medium,2/15/2007 0:00,PC200LC3,PC200,,LC,3,Large / Medium,"Hydraulic Excavator, Track - 19.0 to 21.0 Metric Tons",Florida,TEX,Track Excavators,,EROPS w AC,,,,,,,,,,,Standard,,,,,,None or Unspecified,,,,Steel,None or Unspecified,"9' 8""",None or Unspecified,None or Unspecified,Double,,,,,
2230,1774226,97500,1486240,132,4.0,2005,1335.0,High,2/15/2007 0:00,PC200LC3,PC200,,LC,3,Large / Medium,"Hydraulic Excavator, Track - 19.0 to 21.0 Metric Tons",Florida,TEX,Track Excavators,,EROPS w AC,,,,,,,,,,,Standard,,,,,,None or Unspecified,,,,Steel,None or Unspecified,None or Unspecified,None or Unspecified,None or Unspecified,Double,,,,,
2230,1774242,75000,1427652,132,4.0,2006,2550.0,Medium,2/12/2009 0:00,PC200LC3,PC200,,LC,3,Large / Medium,"Hydraulic Excavator, Track - 19.0 to 21.0 Metric Tons",Florida,TEX,Track Excavators,,EROPS,,,,,,,,,,,Standard,,,,,,None or Unspecified,,,,Steel,None or Unspecified,None or Unspecified,None or Unspecified,None or Unspecified,Double,,,,,
2230,1774249,75000,1303028,132,4.0,2006,2600.0,Medium,2/12/2009 0:00,PC200LC3,PC200,,LC,3,Large / Medium,"Hydraulic Excavator, Track - 19.0 to 21.0 Metric Tons",Florida,TEX,Track Excavators,,EROPS,,,,,,,,,,,Standard,,,,,,None or Unspecified,,,,Steel,None or Unspecified,None or Unspecified,None or Unspecified,None or Unspecified,Double,,,,,
2230,1775356,42500,1200298,132,4.0,1998,,,2/12/2004 0:00,PC200LC3,PC200,,LC,3,Large / Medium,"Hydraulic Excavator, Track - 19.0 to 21.0 Metric Tons",Florida,TEX,Track Excavators,,EROPS,,,,,,,,,,,Standard,,,,,,None or Unspecified,,,,Steel,32 inch,None or Unspecified,Manual,None or Unspecified,Triple,,,,,
2230,2396823,14500,1467306,136,1.0,1987,0.0,,4/1/2009 0:00,PC200LC3,PC200,,LC,3,Large / Medium,"Hydraulic Excavator, Track - 19.0 to 21.0 Metric Tons",Maryland,TEX,Track Excavators,,EROPS,,,,,,,,,,,Standard,,,,,,None or Unspecified,,,,Steel,None or Unspecified,"9' 6""",Manual,None or Unspecified,Double,,,,,
2230,2397765,40500,1781035,136,,1999,0.0,,7/26/2008 0:00,PC200LC3,PC200,,LC,3,Large / Medium,"Hydraulic Excavator, Track - 19.0 to 21.0 Metric Tons",Tennessee,TEX,Track Excavators,,EROPS,,,,,,,,,,,Standard,,,,,,None or Unspecified,,,,Steel,None or Unspecified,None or Unspecified,Manual,None or Unspecified,Double,,,,,
2230,2398315,42000,1529462,136,1.0,2001,0.0,,2/16/2009 0:00,PC200LC3,PC200,,LC,3,Large / Medium,"Hydraulic Excavator, Track - 19.0 to 21.0 Metric Tons",Florida,TEX,Track Excavators,,EROPS w AC,,,,,,,,,,,Standard,,,,,,None or Unspecified,,,,Steel,None or Unspecified,"9' 7""",None or Unspecified,None or Unspecified,Double,,,,,
2230,2398343,58000,1314302,136,2.0,2003,0.0,,2/11/2008 0:00,PC200LC3,PC200,,LC,3,Large / Medium,"Hydraulic Excavator, Track - 19.0 to 21.0 Metric Tons",Florida,TEX,Track Excavators,,EROPS,,,,,,,,,,,Standard,,,,,,None or Unspecified,,,,Steel,None or Unspecified,None or Unspecified,None or Unspecified,None or Unspecified,Double,,,,,
2230,2402016,16000,1221683,136,1.0,1984,0.0,,3/30/2010 0:00,PC200LC3,PC200,,LC,3,Large / Medium,"Hydraulic Excavator, Track - 19.0 to 21.0 Metric Tons",Missouri,TEX,Track Excavators,,EROPS,,,,,,,,,,,Auxiliary,,,,,,None or Unspecified,,,,Steel,28 inch,"8' 6""",None or Unspecified,None or Unspecified,Triple,,,,,
2230,2402475,82000,1180404,136,8.0,1000,0.0,,5/29/2008 0:00,PC200LC3,PC200,,LC,3,Large / Medium,"Hydraulic Excavator, Track - 19.0 to 21.0 Metric Tons",Mississippi,TEX,Track Excavators,,EROPS,,,,,,,,,,,Standard,,,,,,None or Unspecified,,,,Steel,None or Unspecified,None or Unspecified,None or Unspecified,None or Unspecified,Double,,,,,
2230,2402753,8000,1153054,136,1.0,1985,0.0,,6/12/2007 0:00,PC200LC3,PC200,,LC,3,Large / Medium,"Hydraulic Excavator, Track - 19.0 to 21.0 Metric Tons",Washington,TEX,Track Excavators,,EROPS,,,,,,,,,,,Auxiliary,,,,,,None or Unspecified,,,,Steel,None or Unspecified,"9' 6""",None or Unspecified,None or Unspecified,Double,,,,,
2230,2402769,21500,1410294,136,1.0,1985,0.0,,4/23/2008 0:00,PC200LC3,PC200,,LC,3,Large / Medium,"Hydraulic Excavator, Track - 19.0 to 21.0 Metric Tons",Arizona,TEX,Track Excavators,,EROPS,,,,,,,,,,,Auxiliary,,,,,,None or Unspecified,,,,Steel,None or Unspecified,"9' 6""",None or Unspecified,None or Unspecified,Double,,,,,
2230,2403976,10000,1551720,136,16.0,1988,0.0,,5/29/2008 0:00,PC200LC3,PC200,,LC,3,Large / Medium,"Hydraulic Excavator, Track - 19.0 to 21.0 Metric Tons",Ohio,TEX,Track Excavators,,EROPS,,,,,,,,,,,Standard,,,,,,None or Unspecified,,,,Steel,27 inch,None or Unspecified,None or Unspecified,None or Unspecified,Double,,,,,
2230,2403981,17000,1298432,136,1.0,1000,0.0,,6/22/2010 0:00,PC200LC3,PC200,,LC,3,Large / Medium,"Hydraulic Excavator, Track - 19.0 to 21.0 Metric Tons",Mississippi,TEX,Track Excavators,,EROPS,,,,,,,,,,,Standard,,,,,,None or Unspecified,,,,Steel,32 inch,"9' 6""",None or Unspecified,None or Unspecified,Triple,,,,,
2230,2404450,14000,1312943,136,1.0,1988,0.0,,12/10/2009 0:00,PC200LC3,PC200,,LC,3,Large / Medium,"Hydraulic Excavator, Track - 19.0 to 21.0 Metric Tons",Illinois,TEX,Track Excavators,,EROPS,,,,,,,,,,,Auxiliary,,,,,,Manual,,,,Steel,None or Unspecified,"9' 8""",None or Unspecified,None or Unspecified,Double,,,,,
2230,2404560,15500,1220119,136,1.0,1988,0.0,,6/12/2007 0:00,PC200LC3,PC200,,LC,3,Large / Medium,"Hydraulic Excavator, Track - 19.0 to 21.0 Metric Tons",Washington,TEX,Track Excavators,,EROPS,,,,,,,,,,,Auxiliary,,,,,,None or Unspecified,,,,Steel,None or Unspecified,"9' 6""",Hydraulic,None or Unspecified,Double,,,,,
2230,2404614,17000,1524594,136,99.0,1000,0.0,,4/22/2010 0:00,PC200LC3,PC200,,LC,3,Large / Medium,"Hydraulic Excavator, Track - 19.0 to 21.0 Metric Tons",South Carolina,TEX,Track Excavators,,EROPS,,,,,,,,,,,Standard,,,,,,None or Unspecified,,,,Steel,32 inch,"9' 7""",Manual,None or Unspecified,Triple,,,,,
2230,2405768,14000,1228704,136,99.0,1998,0.0,,3/19/2010 0:00,PC200LC3,PC200,,LC,3,Large / Medium,"Hydraulic Excavator, Track - 19.0 to 21.0 Metric Tons",California,TEX,Track Excavators,,EROPS,,,,,,,,,,,Standard,,,,,,Manual,,,,Steel,None or Unspecified,None or Unspecified,Manual,None or Unspecified,Double,,,,,
2230,2406202,68000,1673195,136,,1000,0.0,,5/30/2008 0:00,PC200LC3,PC200,,LC,3,Large / Medium,"Hydraulic Excavator, Track - 19.0 to 21.0 Metric Tons",Mississippi,TEX,Track Excavators,,EROPS,,,,,,,,,,,Standard,,,,,,None or Unspecified,,,,Steel,None or Unspecified,None or Unspecified,None or Unspecified,None or Unspecified,Double,,,,,
2230,2409436,8000,1130314,136,1.0,1000,0.0,,6/20/2007 0:00,PC200LC3,PC200,,LC,3,Large / Medium,"Hydraulic Excavator, Track - 19.0 to 21.0 Metric Tons",Maryland,TEX,Track Excavators,,EROPS,,,,,,,,,,,Auxiliary,,,,,,None or Unspecified,,,,Rubber,None or Unspecified,"9' 6""",None or Unspecified,None or Unspecified,Double,,,,,
2230,2409512,13000,1537384,136,13.0,1000,0.0,,6/20/2009 0:00,PC200LC3,PC200,,LC,3,Large / Medium,"Hydraulic Excavator, Track - 19.0 to 21.0 Metric Tons",Tennessee,TEX,Track Excavators,,EROPS,,,,,,,,,,,Standard,,,,,,None or Unspecified,,,,Steel,None or Unspecified,None or Unspecified,None or Unspecified,None or Unspecified,Double,,,,,
2230,2410046,21000,1653243,136,,1000,0.0,,8/21/2008 0:00,PC200LC3,PC200,,LC,3,Large / Medium,"Hydraulic Excavator, Track - 19.0 to 21.0 Metric Tons",South Carolina,TEX,Track Excavators,,EROPS w AC,,,,,,,,,,,2 Valve,,,,,,,,,,,None or Unspecified,,,,,,,,,
2230,2410956,27500,1270197,136,1.0,1000,0.0,,5/7/2008 0:00,PC200LC3,PC200,,LC,3,Large / Medium,"Hydraulic Excavator, Track - 19.0 to 21.0 Metric Tons",Texas,TEX,Track Excavators,,EROPS w AC,,,,,,,,,,,Standard,,,,,,None or Unspecified,,,,Steel,32 inch,"9' 8""",None or Unspecified,None or Unspecified,Double,,,,,
2230,2411234,37000,1203792,136,8.0,1000,0.0,,7/11/2007 0:00,PC200LC3,PC200,,LC,3,Large / Medium,"Hydraulic Excavator, Track - 19.0 to 21.0 Metric Tons",Mississippi,TEX,Track Excavators,,EROPS w AC,,,,,,,,,,,Standard,,,,,,None or Unspecified,,,,Steel,None or Unspecified,None or Unspecified,Manual,None or Unspecified,Triple,,,,,
2230,2411694,16000,1556079,136,8.0,1000,0.0,,9/17/2009 0:00,PC200LC3,PC200,,LC,3,Large / Medium,"Hydraulic Excavator, Track - 19.0 to 21.0 Metric Tons",Mississippi,TEX,Track Excavators,,EROPS,,,,,,,,,,,Standard,,,,,,None or Unspecified,,,,Steel,None or Unspecified,None or Unspecified,Manual,None or Unspecified,Double,,,,,
2230,2413605,17500,1479707,136,1.0,1000,0.0,,6/9/2010 0:00,PC200LC3,PC200,,LC,3,Large / Medium,"Hydraulic Excavator, Track - 19.0 to 21.0 Metric Tons",Texas,TEX,Track Excavators,,EROPS w AC,,,,,,,,,,,Auxiliary,,,,,,None or Unspecified,,,,Steel,None or Unspecified,"9' 8""",None or Unspecified,None or Unspecified,Double,,,,,
2230,2413606,13500,1479707,136,,1991,0.0,,7/11/2007 0:00,PC200LC3,PC200,,LC,3,Large / Medium,"Hydraulic Excavator, Track - 19.0 to 21.0 Metric Tons",Texas,TEX,Track Excavators,,EROPS w AC,,,,,,,,,,,Auxiliary,,,,,,None or Unspecified,,,,Steel,None or Unspecified,"9' 8""",None or Unspecified,None or Unspecified,Double,,,,,
2230,2413734,19000,799643,136,1.0,1993,0.0,,2/19/2008 0:00,PC200LC3,PC200,,LC,3,Large / Medium,"Hydraulic Excavator, Track - 19.0 to 21.0 Metric Tons",Florida,TEX,Track Excavators,,EROPS,,,,,,,,,,,Standard,,,,,,None or Unspecified,,,,Steel,None or Unspecified,"10' 6""",Manual,None or Unspecified,Double,,,,,
2230,2413784,10500,197885,136,,1993,0.0,,11/25/2008 0:00,PC200LC3,PC200,,LC,3,Large / Medium,"Hydraulic Excavator, Track - 19.0 to 21.0 Metric Tons",California,TEX,Track Excavators,,EROPS,,,,,,,,,,,Standard,,,,,,None or Unspecified,,,,Steel,None or Unspecified,None or Unspecified,None or Unspecified,None or Unspecified,Double,,,,,
2230,2413791,16000,1412921,136,99.0,1990,0.0,,10/4/2007 0:00,PC200LC3,PC200,,LC,3,Large / Medium,"Hydraulic Excavator, Track - 19.0 to 21.0 Metric Tons",Texas,TEX,Track Excavators,,EROPS,,,,,,,,,,,Standard,,,,,,None or Unspecified,,,,Steel,None or Unspecified,None or Unspecified,None or Unspecified,None or Unspecified,Double,,,,,
2230,2414685,21750,1245180,136,5.0,1995,0.0,,6/28/2008 0:00,PC200LC3,PC200,,LC,3,Large / Medium,"Hydraulic Excavator, Track - 19.0 to 21.0 Metric Tons",New Jersey,TEX,Track Excavators,,EROPS,,,,,,,,,,,Standard,,,,,,Manual,,,,Steel,28 inch,None or Unspecified,None or Unspecified,None or Unspecified,Double,,,,,
2230,2414696,23000,1357677,136,99.0,1000,9036.0,Medium,10/4/2007 0:00,PC200LC3,PC200,,LC,3,Large / Medium,"Hydraulic Excavator, Track - 19.0 to 21.0 Metric Tons",Texas,TEX,Track Excavators,,EROPS,,,,,,,,,,,Standard,,,,,,None or Unspecified,,,,Steel,None or Unspecified,None or Unspecified,None or Unspecified,None or Unspecified,Double,,,,,
2230,2414841,39000,1335605,136,1.0,1996,0.0,,12/18/2009 0:00,PC200LC3,PC200,,LC,3,Large / Medium,"Hydraulic Excavator, Track - 19.0 to 21.0 Metric Tons",Missouri,TEX,Track Excavators,,EROPS w AC,,,,,,,,,,,Standard,,,,,,None or Unspecified,,,,Steel,None or Unspecified,"9' 6""",None or Unspecified,None or Unspecified,Double,,,,,
2230,2414858,33000,1185028,136,4.0,1993,0.0,,2/11/2008 0:00,PC200LC3,PC200,,LC,3,Large / Medium,"Hydraulic Excavator, Track - 19.0 to 21.0 Metric Tons",Florida,TEX,Track Excavators,,EROPS,,,,,,,,,,,Standard,,,,,,None or Unspecified,,,,Steel,30 inch,None or Unspecified,Manual,None or Unspecified,Triple,,,,,
2230,2414902,27000,1282334,136,8.0,1997,0.0,,11/18/2008 0:00,PC200LC3,PC200,,LC,3,Large / Medium,"Hydraulic Excavator, Track - 19.0 to 21.0 Metric Tons",Mississippi,TEX,Track Excavators,,EROPS,,,,,,,,,,,Auxiliary,,,,,,None or Unspecified,,,,Steel,None or Unspecified,None or Unspecified,Manual,None or Unspecified,Double,,,,,
2230,2414906,26000,1421114,136,1.0,1997,0.0,,8/20/2009 0:00,PC200LC3,PC200,,LC,3,Large / Medium,"Hydraulic Excavator, Track - 19.0 to 21.0 Metric Tons",Colorado,TEX,Track Excavators,,EROPS,,,,,,,,,,,Auxiliary,,,,,,None or Unspecified,,,,Steel,None or Unspecified,None or Unspecified,None or Unspecified,None or Unspecified,Double,,,,,
2230,2414907,32500,866901,136,3.0,1000,0.0,,1/23/2008 0:00,PC200LC3,PC200,,LC,3,Large / Medium,"Hydraulic Excavator, Track - 19.0 to 21.0 Metric Tons",New York,TEX,Track Excavators,,EROPS w AC,,,,,,,,,,,Auxiliary,,,,,,None or Unspecified,,,,Steel,28 inch,"10' 6""",Manual,None or Unspecified,Double,,,,,
2230,2415004,17500,408626,136,2.0,1997,0.0,,9/10/2009 0:00,PC200LC3,PC200,,LC,3,Large / Medium,"Hydraulic Excavator, Track - 19.0 to 21.0 Metric Tons",New York,TEX,Track Excavators,,EROPS,,,,,,,,,,,Standard,,,,,,None or Unspecified,,,,Steel,None or Unspecified,None or Unspecified,None or Unspecified,None or Unspecified,Double,,,,,
2230,2415135,35500,1685635,136,,1998,0.0,,6/1/2007 0:00,PC200LC3,PC200,,LC,3,Large / Medium,"Hydraulic Excavator, Track - 19.0 to 21.0 Metric Tons",Mississippi,TEX,Track Excavators,,EROPS,,,,,,,,,,,Standard,,,,,,None or Unspecified,,,,Steel,None or Unspecified,None or Unspecified,None or Unspecified,None or Unspecified,Double,,,,,
2230,2415305,27500,1688190,136,,1999,0.0,,6/20/2007 0:00,PC200LC3,PC200,,LC,3,Large / Medium,"Hydraulic Excavator, Track - 19.0 to 21.0 Metric Tons",Arkansas,TEX,Track Excavators,,EROPS,,,,,,,,,,,Standard,,,,,,None or Unspecified,,,,Steel,None or Unspecified,None or Unspecified,Manual,None or Unspecified,Triple,,,,,
2230,2415321,31000,1399605,136,10.0,1999,0.0,,10/21/2008 0:00,PC200LC3,PC200,,LC,3,Large / Medium,"Hydraulic Excavator, Track - 19.0 to 21.0 Metric Tons",Louisiana,TEX,Track Excavators,,EROPS,,,,,,,,,,,Standard,,,,,,None or Unspecified,,,,Steel,32 inch,None or Unspecified,Manual,None or Unspecified,Triple,,,,,
2230,2415414,24000,447359,136,99.0,2000,0.0,,12/2/2009 0:00,PC200LC3,PC200,,LC,3,Large / Medium,"Hydraulic Excavator, Track - 19.0 to 21.0 Metric Tons",Alabama,TEX,Track Excavators,,EROPS w AC,,,,,,,,,,,Standard,,,,,,Manual,,,,Steel,28 inch,"9' 6""",None or Unspecified,None or Unspecified,Triple,,,,,
2230,2417186,28500,1145144,136,8.0,1000,0.0,,3/31/2010 0:00,PC200LC3,PC200,,LC,3,Large / Medium,"Hydraulic Excavator, Track - 19.0 to 21.0 Metric Tons",Mississippi,TEX,Track Excavators,,EROPS,,,,,,,,,,,Standard,,,,,,None or Unspecified,,,,Steel,None or Unspecified,None or Unspecified,None or Unspecified,None or Unspecified,Double,,,,,
2230,2417207,37500,1698126,136,,1000,0.0,,9/10/2008 0:00,PC200LC3,PC200,,LC,3,Large / Medium,"Hydraulic Excavator, Track - 19.0 to 21.0 Metric Tons",Alabama,TEX,Track Excavators,,EROPS w AC,,,,,,,,,,,Standard,,,,,,None or Unspecified,,,,Steel,None or Unspecified,None or Unspecified,Manual,None or Unspecified,Double,,,,,
2230,2420733,75000,1763471,136,,1000,2550.0,Low,2/9/2009 0:00,PC200LC3,PC200,,LC,3,Large / Medium,"Hydraulic Excavator, Track - 19.0 to 21.0 Metric Tons",Florida,TEX,Track Excavators,,EROPS,,,,,,,,,,,Standard,,,,,,None or Unspecified,,,,Steel,None or Unspecified,None or Unspecified,None or Unspecified,None or Unspecified,Double,,,,,
2230,2420734,75000,1689052,136,,2006,2600.0,Medium,2/9/2009 0:00,PC200LC3,PC200,,LC,3,Large / Medium,"Hydraulic Excavator, Track - 19.0 to 21.0 Metric Tons",Florida,TEX,Track Excavators,,EROPS,,,,,,,,,,,Standard,,,,,,None or Unspecified,,,,Steel,None or Unspecified,None or Unspecified,None or Unspecified,None or Unspecified,Double,,,,,
2230,2421510,107500,1754991,136,,2005,1884.0,Medium,5/1/2008 0:00,PC200LC3,PC200,,LC,3,Large / Medium,"Hydraulic Excavator, Track - 19.0 to 21.0 Metric Tons",Iowa,TEX,Track Excavators,,EROPS w AC,,,,,,,,,,,Standard,,,,,,None or Unspecified,,,,Steel,None or Unspecified,None or Unspecified,Hydraulic,None or Unspecified,Double,,,,,
2230,2693845,9750,891660,149,26.0,1000,0.0,,3/2/2011 0:00,PC200LC3,PC200,,LC,3,Large / Medium,"Hydraulic Excavator, Track - 19.0 to 21.0 Metric Tons",Alabama,TEX,Track Excavators,,EROPS,,,,,,,,,,,Standard,,,,,,None or Unspecified,,,,Steel,32 inch,"9' 8""",Manual,None or Unspecified,Triple,,,,,
2230,2698289,33000,1134835,149,12.0,1000,0.0,,6/15/2011 0:00,PC200LC3,PC200,,LC,3,Large / Medium,"Hydraulic Excavator, Track - 19.0 to 21.0 Metric Tons",South Carolina,TEX,Track Excavators,,EROPS,,,,,,,,,,,Standard,,,,,,None or Unspecified,,,,Steel,None or Unspecified,None or Unspecified,None or Unspecified,None or Unspecified,Double,,,,,
2230,2699750,28000,1529439,149,99.0,1000,0.0,,4/19/2011 0:00,PC200LC3,PC200,,LC,3,Large / Medium,"Hydraulic Excavator, Track - 19.0 to 21.0 Metric Tons",Kentucky,TEX,Track Excavators,,EROPS,,,,,,,,,,,Auxiliary,,,,,,None or Unspecified,,,,Steel,None or Unspecified,None or Unspecified,None or Unspecified,None or Unspecified,Triple,,,,,
2230,2700440,34500,1127532,149,12.0,1997,13841.0,Medium,4/20/2011 0:00,PC200LC3,PC200,,LC,3,Large / Medium,"Hydraulic Excavator, Track - 19.0 to 21.0 Metric Tons",West Virginia,TEX,Track Excavators,,EROPS,,,,,,,,,,,Standard,,,,,,None or Unspecified,,,,Steel,None or Unspecified,None or Unspecified,None or Unspecified,None or Unspecified,Double,,,,,
2230,4357755,31000,1249342,172,1.0,1993,8263.0,Medium,9/29/2010 0:00,PC200LC3,PC200,,LC,3,Large / Medium,"Hydraulic Excavator, Track - 19.0 to 21.0 Metric Tons",Texas,TEX,Track Excavators,,EROPS w AC,,,,,,,,,,,2 Valve,,,,,,Manual,,,,,,,,,,,,,,
2230,4359375,31000,1335605,172,1.0,1996,8900.0,Medium,3/25/2011 0:00,PC200LC3,PC200,,LC,3,Large / Medium,"Hydraulic Excavator, Track - 19.0 to 21.0 Metric Tons",Missouri,TEX,Track Excavators,,EROPS w AC,,,,,,,,,,,Standard,,,,,,None or Unspecified,,,,Steel,None or Unspecified,"9' 6""",None or Unspecified,None or Unspecified,Double,,,,,
2230,4359384,29000,1428019,172,1.0,1996,11258.0,Medium,2/15/2011 0:00,PC200LC3,PC200,,LC,3,Large / Medium,"Hydraulic Excavator, Track - 19.0 to 21.0 Metric Tons",Florida,TEX,Track Excavators,,EROPS,,,,,,,,,,,Standard,,,,,,None or Unspecified,,,,Steel,None or Unspecified,"9' 7""",None or Unspecified,None or Unspecified,Double,,,,,
2230,6302226,14500,1114719,149,1.0,1000,,,12/14/2011 0:00,PC200LC3,PC200,,LC,3,Large / Medium,"Hydraulic Excavator, Track - 19.0 to 21.0 Metric Tons",North Carolina,TEX,Track Excavators,,EROPS,,,,,,,,,,,Standard,,,,,,None or Unspecified,,,,Steel,None or Unspecified,None or Unspecified,None or Unspecified,None or Unspecified,Double,,,,,
2230,6302287,20000,1651004,149,1.0,1987,,,9/15/2011 0:00,PC200LC3,PC200,,LC,3,Large / Medium,"Hydraulic Excavator, Track - 19.0 to 21.0 Metric Tons",Missouri,TEX,Track Excavators,,EROPS,,,,,,,,,,,Auxiliary,,,,,,None or Unspecified,,,,Steel,None or Unspecified,"9' 6""",None or Unspecified,None or Unspecified,Double,,,,,
2230,6307726,35000,1807327,149,2.0,1000,,,12/16/2011 0:00,PC200LC3,PC200,,LC,3,Large / Medium,"Hydraulic Excavator, Track - 19.0 to 21.0 Metric Tons",Ohio,TEX,Track Excavators,,EROPS,,,,,,,,,,,Standard,,,,,,None or Unspecified,,,,Steel,None or Unspecified,None or Unspecified,None or Unspecified,None or Unspecified,Double,,,,,
