ModelID,SalesID,SalePrice,MachineID,datasource,auctioneerID,YearMade,MachineHoursCurrentMeter,UsageBand,saledate,fiModelDesc,fiBaseModel,fiSecondaryDesc,fiModelSeries,fiModelDescriptor,ProductSize,fiProductClassDesc,state,ProductGroup,ProductGroupDesc,Drive_System,Enclosure,Forks,Pad_Type,Ride_Control,Stick,Transmission,Turbocharged,Blade_Extension,Blade_Width,Enclosure_Type,Engine_Horsepower,Hydraulics,Pushblock,Ripper,Scarifier,Tip_Control,Tire_Size,Coupler,Coupler_System,Grouser_Tracks,Hydraulics_Flow,Track_Type,Undercarriage_Pad_Width,Stick_Length,Thumb,Pattern_Changer,Grouser_Type,Backhoe_Mounting,Blade_Type,Travel_Controls,Differential_Type,Steering_Controls
22358,1158993,68000,1040009,121,3.0,2005,2636.0,Medium,12/7/2009 0:00,865,865,,,,,Motorgrader - 170.0 to 200.0 Horsepower,California,MG,Motor Graders,No,EROPS w AC,,,,,Powershift,,None or Unspecified,None or Unspecified,None or Unspecified,No,Base + 1 Function,None or Unspecified,Yes,Yes,None or Unspecified,"17.5""",,,,,,,,,,,,,,,
22358,1192296,49000,1016713,121,3.0,2004,3476.0,Medium,9/10/2009 0:00,865,865,,,,,Motorgrader - 170.0 to 200.0 Horsepower,Florida,MG,Motor Graders,No,EROPS w AC,,,,,Powershift,,None or Unspecified,14',None or Unspecified,No,Base + 1 Function,None or Unspecified,None or Unspecified,Yes,None or Unspecified,"17.5""",,,,,,,,,,,,,,,
22358,1192322,77000,1048565,121,3.0,2005,728.0,Low,9/17/2009 0:00,865,865,,,,,Motorgrader - 170.0 to 200.0 Horsepower,Texas,MG,Motor Graders,No,EROPS w AC,,,,,Powershift,,None or Unspecified,12',Low Profile,No,Base + 1 Function,None or Unspecified,None or Unspecified,Yes,None or Unspecified,"14""",,,,,,,,,,,,,,,
22358,1220839,88000,1017966,121,3.0,2007,4304.0,High,11/17/2011 0:00,865,865,,,,,Motorgrader - 170.0 to 200.0 Horsepower,Texas,MG,Motor Graders,No,EROPS w AC,,,,,Powershift,,None or Unspecified,14',None or Unspecified,No,Base + 1 Function,None or Unspecified,Yes,Yes,None or Unspecified,"14""",,,,,,,,,,,,,,,
22358,1268305,82500,1518948,132,2.0,2004,,,10/11/2006 0:00,865,865,,,,,Motorgrader - 170.0 to 200.0 Horsepower,Florida,MG,Motor Graders,No,EROPS w AC,,,,,None or Unspecified,,None or Unspecified,14',None or Unspecified,No,Base + 1 Function,None or Unspecified,Yes,Yes,Sideshift & Tip,"14""",,,,,,,,,,,,,,,
22358,1268306,105000,1518948,132,8.0,1000,,,10/12/2006 0:00,865,865,,,,,Motorgrader - 170.0 to 200.0 Horsepower,Florida,MG,Motor Graders,No,EROPS w AC,,,,,None or Unspecified,,None or Unspecified,14',None or Unspecified,No,Base + 1 Function,None or Unspecified,Yes,Yes,Sideshift & Tip,"14""",,,,,,,,,,,,,,,
22358,1268307,85000,1518948,132,8.0,2004,,,2/16/2007 0:00,865,865,,,,,Motorgrader - 170.0 to 200.0 Horsepower,Florida,MG,Motor Graders,No,EROPS w AC,,,,,None or Unspecified,,None or Unspecified,14',None or Unspecified,No,Base + 1 Function,None or Unspecified,Yes,Yes,Sideshift & Tip,"14""",,,,,,,,,,,,,,,
22358,1268310,102500,1450795,132,1.0,2004,,,9/12/2006 0:00,865,865,,,,,Motorgrader - 170.0 to 200.0 Horsepower,Ohio,MG,Motor Graders,No,EROPS,,,,,None or Unspecified,,None or Unspecified,12',None or Unspecified,No,Base + 1 Function,None or Unspecified,None or Unspecified,Yes,None or Unspecified,"14""",,,,,,,,,,,,,,,
22358,1268312,95000,1104404,132,1.0,2004,,,7/12/2006 0:00,865,865,,,,,Motorgrader - 170.0 to 200.0 Horsepower,Texas,MG,Motor Graders,No,EROPS w AC,,,,,None or Unspecified,,None or Unspecified,12',None or Unspecified,No,Base + 1 Function,Yes,Yes,None or Unspecified,None or Unspecified,"17.5""",,,,,,,,,,,,,,,
22358,1268315,57500,1209880,132,8.0,2002,,,5/26/2010 0:00,865,865,,,,,Motorgrader - 170.0 to 200.0 Horsepower,Mississippi,MG,Motor Graders,No,EROPS w AC,,,,,None or Unspecified,,None or Unspecified,None or Unspecified,Low Profile,No,Base + 1 Function,Yes,Yes,None or Unspecified,None or Unspecified,"17.5""",,,,,,,,,,,,,,,
22358,1268316,60000,1316639,132,4.0,2002,,,2/7/2011 0:00,865,865,,,,,Motorgrader - 170.0 to 200.0 Horsepower,Florida,MG,Motor Graders,No,EROPS w AC,,,,,None or Unspecified,,None or Unspecified,None or Unspecified,None or Unspecified,No,Base + 1 Function,None or Unspecified,Yes,None or Unspecified,Sideshift & Tip,None or Unspecified,,,,,,,,,,,,,,,
22358,1268317,112500,1502977,132,1.0,2003,,,2/22/2006 0:00,865,865,,,,,Motorgrader - 170.0 to 200.0 Horsepower,Florida,MG,Motor Graders,No,EROPS w AC,,,,,None or Unspecified,,None or Unspecified,None or Unspecified,None or Unspecified,No,Base + 1 Function,None or Unspecified,Yes,Yes,None or Unspecified,None or Unspecified,,,,,,,,,,,,,,,
22358,1268323,105000,1218109,132,8.0,2003,,,10/12/2006 0:00,865,865,,,,,Motorgrader - 170.0 to 200.0 Horsepower,Florida,MG,Motor Graders,No,EROPS w AC,,,,,None or Unspecified,,None or Unspecified,None or Unspecified,None or Unspecified,No,Base + 1 Function,None or Unspecified,Yes,Yes,Sideshift & Tip,None or Unspecified,,,,,,,,,,,,,,,
22358,1268324,61000,1475144,132,1.0,2003,,,7/9/2009 0:00,865,865,,,,,Motorgrader - 170.0 to 200.0 Horsepower,Texas,MG,Motor Graders,No,EROPS w AC,,,,,None or Unspecified,,None or Unspecified,None or Unspecified,None or Unspecified,No,Base + 1 Function,None or Unspecified,Yes,None or Unspecified,None or Unspecified,"14""",,,,,,,,,,,,,,,
22358,1268325,50000,1273691,132,1.0,2003,,,5/6/2009 0:00,865,865,,,,,Motorgrader - 170.0 to 200.0 Horsepower,Texas,MG,Motor Graders,No,EROPS w AC,,,,,None or Unspecified,,None or Unspecified,None or Unspecified,None or Unspecified,No,Base + 1 Function,None or Unspecified,Yes,None or Unspecified,None or Unspecified,"14""",,,,,,,,,,,,,,,
22358,1268327,49000,1462692,132,3.0,2004,,,9/10/2009 0:00,865,865,,,,,Motorgrader - 170.0 to 200.0 Horsepower,California,MG,Motor Graders,No,EROPS w AC,,,,,None or Unspecified,,None or Unspecified,14',None or Unspecified,No,Base + 1 Function,None or Unspecified,None or Unspecified,Yes,None or Unspecified,None or Unspecified,,,,,,,,,,,,,,,
22358,1268329,94000,1492284,132,28.0,2005,1187.0,Low,11/30/2007 0:00,865,865,,,,,Motorgrader - 170.0 to 200.0 Horsepower,Mississippi,MG,Motor Graders,No,EROPS w AC,,,,,None or Unspecified,,None or Unspecified,None or Unspecified,None or Unspecified,No,Base + 1 Function,Yes,Yes,Yes,None or Unspecified,None or Unspecified,,,,,,,,,,,,,,,
22358,1268330,95000,1492284,132,8.0,2004,,,3/31/2010 0:00,865,865,,,,,Motorgrader - 170.0 to 200.0 Horsepower,Mississippi,MG,Motor Graders,No,EROPS w AC,,,,,None or Unspecified,,None or Unspecified,None or Unspecified,None or Unspecified,No,Base + 1 Function,Yes,Yes,Yes,None or Unspecified,None or Unspecified,,,,,,,,,,,,,,,
22358,1268331,94000,1083969,132,28.0,2005,423.0,Low,11/30/2007 0:00,865,865,,,,,Motorgrader - 170.0 to 200.0 Horsepower,Mississippi,MG,Motor Graders,No,EROPS w AC,,,,,None or Unspecified,,None or Unspecified,None or Unspecified,None or Unspecified,No,Base + 1 Function,None or Unspecified,None or Unspecified,None or Unspecified,None or Unspecified,None or Unspecified,,,,,,,,,,,,,,,
22358,1268332,95000,1550197,132,1.0,2004,,,7/12/2006 0:00,865,865,,,,,Motorgrader - 170.0 to 200.0 Horsepower,Texas,MG,Motor Graders,No,EROPS w AC,,,,,None or Unspecified,,None or Unspecified,None or Unspecified,None or Unspecified,No,Base + 1 Function,Yes,Yes,None or Unspecified,None or Unspecified,None or Unspecified,,,,,,,,,,,,,,,
22358,1295887,63000,1207837,132,10.0,2005,,,3/18/2009 0:00,865,865,,,,,Motorgrader - 170.0 to 200.0 Horsepower,Louisiana,MG,Motor Graders,No,EROPS w AC,,,,,None or Unspecified,,None or Unspecified,None or Unspecified,None or Unspecified,No,Base + 1 Function,None or Unspecified,None or Unspecified,None or Unspecified,None or Unspecified,None or Unspecified,,,,,,,,,,,,,,,
22358,1295896,82000,1366566,132,1.0,2006,,,3/16/2011 0:00,865,865,,,,,Motorgrader - 170.0 to 200.0 Horsepower,Illinois,MG,Motor Graders,No,EROPS,,,,,None or Unspecified,,None or Unspecified,14',None or Unspecified,No,Base + 1 Function,None or Unspecified,Yes,Yes,None or Unspecified,"14""",,,,,,,,,,,,,,,
22358,1295899,70000,1431661,132,8.0,2005,,,5/26/2010 0:00,865,865,,,,,Motorgrader - 170.0 to 200.0 Horsepower,Mississippi,MG,Motor Graders,No,EROPS w AC,,,,,None or Unspecified,,None or Unspecified,14',None or Unspecified,No,Base + 1 Function,None or Unspecified,None or Unspecified,None or Unspecified,Tip,"14""",,,,,,,,,,,,,,,
22358,1295900,75000,1469739,132,20.0,2005,,,4/16/2008 0:00,865,865,,,,,Motorgrader - 170.0 to 200.0 Horsepower,Arkansas,MG,Motor Graders,No,EROPS w AC,,,,,None or Unspecified,,None or Unspecified,None or Unspecified,None or Unspecified,No,Base + 1 Function,None or Unspecified,None or Unspecified,None or Unspecified,None or Unspecified,"14""",,,,,,,,,,,,,,,
22358,1295901,71000,1161224,132,10.0,2005,,,10/21/2008 0:00,865,865,,,,,Motorgrader - 170.0 to 200.0 Horsepower,Louisiana,MG,Motor Graders,No,EROPS,,,,,None or Unspecified,,None or Unspecified,None or Unspecified,None or Unspecified,No,Base + 1 Function,None or Unspecified,None or Unspecified,None or Unspecified,None or Unspecified,None or Unspecified,,,,,,,,,,,,,,,
22358,1295902,75000,1480580,132,20.0,2005,,,4/16/2008 0:00,865,865,,,,,Motorgrader - 170.0 to 200.0 Horsepower,Arkansas,MG,Motor Graders,No,EROPS w AC,,,,,None or Unspecified,,None or Unspecified,None or Unspecified,None or Unspecified,No,Base + 1 Function,None or Unspecified,None or Unspecified,None or Unspecified,None or Unspecified,"14""",,,,,,,,,,,,,,,
22358,1295903,85000,1235125,132,8.0,2005,1243.0,Low,3/31/2010 0:00,865,865,,,,,Motorgrader - 170.0 to 200.0 Horsepower,Mississippi,MG,Motor Graders,No,EROPS w AC,,,,,None or Unspecified,,None or Unspecified,None or Unspecified,None or Unspecified,No,Base + 1 Function,None or Unspecified,None or Unspecified,None or Unspecified,None or Unspecified,None or Unspecified,,,,,,,,,,,,,,,
22358,1295904,74000,1391393,132,2.0,2005,,,2/3/2011 0:00,865,865,,,,,Motorgrader - 170.0 to 200.0 Horsepower,Florida,MG,Motor Graders,No,EROPS w AC,,,,,None or Unspecified,,None or Unspecified,None or Unspecified,None or Unspecified,No,Base + 1 Function,None or Unspecified,None or Unspecified,None or Unspecified,Sideshift & Tip,None or Unspecified,,,,,,,,,,,,,,,
22358,1295905,67500,1246948,132,2.0,2005,,,2/3/2011 0:00,865,865,,,,,Motorgrader - 170.0 to 200.0 Horsepower,Florida,MG,Motor Graders,No,EROPS w AC,,,,,None or Unspecified,,None or Unspecified,None or Unspecified,None or Unspecified,No,Base + 1 Function,None or Unspecified,None or Unspecified,None or Unspecified,None or Unspecified,None or Unspecified,,,,,,,,,,,,,,,
22358,1295907,110000,1327870,132,1.0,2005,,,12/18/2007 0:00,865,865,,,,,Motorgrader - 170.0 to 200.0 Horsepower,Ohio,MG,Motor Graders,No,EROPS w AC,,,,,None or Unspecified,,None or Unspecified,None or Unspecified,Low Profile,No,Base + 1 Function,None or Unspecified,None or Unspecified,Yes,None or Unspecified,"14""",,,,,,,,,,,,,,,
22358,1295908,77000,1327870,132,3.0,2005,,,9/17/2009 0:00,865,865,,,,,Motorgrader - 170.0 to 200.0 Horsepower,California,MG,Motor Graders,No,EROPS w AC,,,,,None or Unspecified,,None or Unspecified,None or Unspecified,Low Profile,No,Base + 1 Function,None or Unspecified,None or Unspecified,Yes,None or Unspecified,"14""",,,,,,,,,,,,,,,
22358,1295909,72000,1497688,132,1.0,2005,,,5/11/2011 0:00,865,865,,,,,Motorgrader - 170.0 to 200.0 Horsepower,Texas,MG,Motor Graders,No,EROPS w AC,,,,,None or Unspecified,,None or Unspecified,None or Unspecified,None or Unspecified,No,Base + 1 Function,Yes,Yes,None or Unspecified,None or Unspecified,"14""",,,,,,,,,,,,,,,
22358,1296197,82000,1502447,132,1.0,2006,932.0,Low,3/16/2011 0:00,865,865,,,,,Motorgrader - 170.0 to 200.0 Horsepower,Illinois,MG,Motor Graders,No,EROPS,,,,,None or Unspecified,,None or Unspecified,None or Unspecified,None or Unspecified,No,Base + 1 Function,None or Unspecified,Yes,Yes,None or Unspecified,None or Unspecified,,,,,,,,,,,,,,,
22358,1296434,96000,1186004,132,7.0,2007,,,6/9/2010 0:00,865,865,,,,,Motorgrader - 170.0 to 200.0 Horsepower,Alabama,MG,Motor Graders,No,EROPS,,,,,None or Unspecified,,None or Unspecified,None or Unspecified,None or Unspecified,Variable,Base + 1 Function,None or Unspecified,None or Unspecified,Yes,Tip,None or Unspecified,,,,,,,,,,,,,,,
22358,2201296,61000,1292814,136,1.0,2003,,,7/9/2009 0:00,865,865,,,,,Motorgrader - 170.0 to 200.0 Horsepower,Texas,MG,Motor Graders,No,EROPS w AC,,,,,None or Unspecified,,None or Unspecified,14',None or Unspecified,No,Base + 1 Function,None or Unspecified,Yes,None or Unspecified,None or Unspecified,"14""",,,,,,,,,,,,,,,
22358,2201297,50000,1470772,136,1.0,2003,,,5/6/2009 0:00,865,865,,,,,Motorgrader - 170.0 to 200.0 Horsepower,Texas,MG,Motor Graders,No,EROPS w AC,,,,,None or Unspecified,,None or Unspecified,14',None or Unspecified,No,Base + 1 Function,None or Unspecified,Yes,None or Unspecified,None or Unspecified,"14""",,,,,,,,,,,,,,,
22358,2211427,85000,1737181,136,1.0,2005,,,7/9/2008 0:00,865,865,,,,,Motorgrader - 170.0 to 200.0 Horsepower,Texas,MG,Motor Graders,No,EROPS w AC,,,,,None or Unspecified,,None or Unspecified,14',None or Unspecified,No,Base + 1 Function,None or Unspecified,Yes,None or Unspecified,None or Unspecified,"14""",,,,,,,,,,,,,,,
22358,2211430,71000,1207837,136,10.0,2005,,,10/21/2008 0:00,865,865,,,,,Motorgrader - 170.0 to 200.0 Horsepower,Louisiana,MG,Motor Graders,No,EROPS w AC,,,,,None or Unspecified,,None or Unspecified,None or Unspecified,None or Unspecified,No,Base + 1 Function,None or Unspecified,None or Unspecified,None or Unspecified,None or Unspecified,None or Unspecified,,,,,,,,,,,,,,,
22358,2211432,82000,1683835,136,,2005,,,6/4/2008 0:00,865,865,,,,,Motorgrader - 170.0 to 200.0 Horsepower,Texas,MG,Motor Graders,No,EROPS w AC,,,,,None or Unspecified,,None or Unspecified,14',None or Unspecified,No,Base + 1 Function,None or Unspecified,None or Unspecified,None or Unspecified,None or Unspecified,None or Unspecified,,,,,,,,,,,,,,,
22358,2211433,72000,1414299,136,4.0,2005,,,2/8/2010 0:00,865,865,,,,,Motorgrader - 170.0 to 200.0 Horsepower,Florida,MG,Motor Graders,No,EROPS,,,,,None or Unspecified,,None or Unspecified,None or Unspecified,None or Unspecified,No,Base + 1 Function,None or Unspecified,Yes,None or Unspecified,None or Unspecified,None or Unspecified,,,,,,,,,,,,,,,
22358,2211434,67500,1779610,136,,2005,,,8/20/2008 0:00,865,865,,,,,Motorgrader - 170.0 to 200.0 Horsepower,Arkansas,MG,Motor Graders,No,EROPS w AC,,,,,None or Unspecified,,None or Unspecified,14',None or Unspecified,No,Base + 1 Function,None or Unspecified,None or Unspecified,None or Unspecified,None or Unspecified,"14""",,,,,,,,,,,,,,,
22358,2211435,74000,1403345,136,4.0,2005,,,2/8/2010 0:00,865,865,,,,,Motorgrader - 170.0 to 200.0 Horsepower,Florida,MG,Motor Graders,No,OROPS,,,,,None or Unspecified,,None or Unspecified,None or Unspecified,None or Unspecified,No,Base + 1 Function,None or Unspecified,None or Unspecified,None or Unspecified,None or Unspecified,None or Unspecified,,,,,,,,,,,,,,,
22358,2211438,110000,1048565,136,1.0,2005,367.0,Low,12/18/2007 0:00,865,865,,,,,Motorgrader - 170.0 to 200.0 Horsepower,Ohio,MG,Motor Graders,No,EROPS w AC,,,,,Powershift,,None or Unspecified,12',Low Profile,No,Base + 1 Function,None or Unspecified,None or Unspecified,Yes,None or Unspecified,"14""",,,,,,,,,,,,,,,
22358,2213239,112500,1760292,136,2.0,1000,,,4/16/2010 0:00,865,865,,,,,Motorgrader - 170.0 to 200.0 Horsepower,North Carolina,MG,Motor Graders,No,EROPS w AC,,,,,None or Unspecified,,None or Unspecified,14',None or Unspecified,No,Base + 1 Function,None or Unspecified,None or Unspecified,Yes,None or Unspecified,None or Unspecified,,,,,,,,,,,,,,,
22358,2213244,100000,1161943,136,7.0,1000,142.0,Low,3/11/2009 0:00,865,865,,,,,Motorgrader - 170.0 to 200.0 Horsepower,Alabama,MG,Motor Graders,No,EROPS w AC,,,,,None or Unspecified,,None or Unspecified,None or Unspecified,None or Unspecified,Variable,Base + 1 Function,None or Unspecified,None or Unspecified,Yes,Tip,"17.5""",,,,,,,,,,,,,,,
22358,2494036,60000,414271,149,4.0,2003,0.0,,2/7/2011 0:00,865,865,,,,,Motorgrader - 170.0 to 200.0 Horsepower,Florida,MG,Motor Graders,No,EROPS w AC,,,,,None or Unspecified,,None or Unspecified,None or Unspecified,None or Unspecified,No,Base + 1 Function,None or Unspecified,Yes,Yes,Sideshift & Tip,None or Unspecified,,,,,,,,,,,,,,,
22358,2494045,67500,1843279,149,1.0,2003,4529.0,Medium,12/1/2010 0:00,865,865,,,,,Motorgrader - 170.0 to 200.0 Horsepower,Texas,MG,Motor Graders,No,EROPS w AC,,,,,None or Unspecified,,None or Unspecified,14',None or Unspecified,No,Base + 1 Function,None or Unspecified,Yes,Yes,None or Unspecified,"14""",,,,,,,,,,,,,,,
22358,2494053,95000,1165720,149,1.0,2004,0.0,,3/31/2010 0:00,865,865,,,,,Motorgrader - 170.0 to 200.0 Horsepower,Mississippi,MG,Motor Graders,No,OROPS,,,,,None or Unspecified,,None or Unspecified,None or Unspecified,None or Unspecified,No,Base + 1 Function,None or Unspecified,None or Unspecified,None or Unspecified,None or Unspecified,None or Unspecified,,,,,,,,,,,,,,,
22358,2503174,84000,1942974,149,2.0,2005,0.0,,3/19/2011 0:00,865,865,,,,,Motorgrader - 170.0 to 200.0 Horsepower,Mississippi,MG,Motor Graders,No,EROPS w AC,,,,,None or Unspecified,,None or Unspecified,None or Unspecified,None or Unspecified,No,Base + 1 Function,None or Unspecified,None or Unspecified,None or Unspecified,None or Unspecified,None or Unspecified,,,,,,,,,,,,,,,
22358,2503180,85000,1399427,149,2.0,2005,0.0,,3/31/2010 0:00,865,865,,,,,Motorgrader - 170.0 to 200.0 Horsepower,Mississippi,MG,Motor Graders,No,EROPS w AC,,,,,None or Unspecified,,None or Unspecified,None or Unspecified,None or Unspecified,No,Base + 1 Function,None or Unspecified,None or Unspecified,None or Unspecified,None or Unspecified,"14""",,,,,,,,,,,,,,,
22358,2503182,74000,104518,149,2.0,2005,0.0,,1/29/2011 0:00,865,865,,,,,Motorgrader - 170.0 to 200.0 Horsepower,Florida,MG,Motor Graders,No,EROPS w AC,,,,,None or Unspecified,,None or Unspecified,14',None or Unspecified,No,Base + 1 Function,None or Unspecified,None or Unspecified,None or Unspecified,Sideshift & Tip,"14""",,,,,,,,,,,,,,,
22358,2503183,68500,105720,149,2.0,2005,0.0,,1/29/2011 0:00,865,865,,,,,Motorgrader - 170.0 to 200.0 Horsepower,Florida,MG,Motor Graders,No,EROPS w AC,,,,,None or Unspecified,,None or Unspecified,None or Unspecified,None or Unspecified,No,Base + 1 Function,None or Unspecified,None or Unspecified,None or Unspecified,None or Unspecified,None or Unspecified,,,,,,,,,,,,,,,
22358,2503194,72000,1081096,149,1.0,2005,6354.0,Medium,5/11/2011 0:00,865,865,,,,,Motorgrader - 170.0 to 200.0 Horsepower,Texas,MG,Motor Graders,No,EROPS w AC,,,,,None or Unspecified,,None or Unspecified,14',None or Unspecified,No,Base + 1 Function,Yes,Yes,None or Unspecified,None or Unspecified,"14""",,,,,,,,,,,,,,,
22358,2504386,80000,1809449,149,1.0,2007,1750.0,Medium,12/16/2010 0:00,865,865,,,,,Motorgrader - 170.0 to 200.0 Horsepower,Tennessee,MG,Motor Graders,No,EROPS w AC,,,,,None or Unspecified,,None or Unspecified,14',None or Unspecified,No,Base + 1 Function,None or Unspecified,Yes,None or Unspecified,None or Unspecified,None or Unspecified,,,,,,,,,,,,,,,
22358,2504392,82000,1899462,149,1.0,2006,932.0,Low,3/16/2011 0:00,865,865,,,,,Motorgrader - 170.0 to 200.0 Horsepower,Illinois,MG,Motor Graders,No,EROPS,,,,,None or Unspecified,,None or Unspecified,14',None or Unspecified,No,Base + 1 Function,None or Unspecified,Yes,Yes,None or Unspecified,"14""",,,,,,,,,,,,,,,
22358,2506797,102500,1177105,149,1.0,2008,0.0,,8/26/2010 0:00,865,865,,,,,Motorgrader - 170.0 to 200.0 Horsepower,Texas,MG,Motor Graders,No,EROPS w AC,,,,,None or Unspecified,,None or Unspecified,12',None or Unspecified,No,Base + 1 Function,Yes,Yes,None or Unspecified,None or Unspecified,"14""",,,,,,,,,,,,,,,
22358,4247102,47500,2271113,172,1.0,2002,7291.0,Medium,12/6/2011 0:00,865,865,,,,,Motorgrader - 170.0 to 200.0 Horsepower,New Mexico,MG,Motor Graders,No,EROPS w AC,,,,,None or Unspecified,,None or Unspecified,14',Low Profile,No,Base + 1 Function,Yes,Yes,Yes,None or Unspecified,"14""",,,,,,,,,,,,,,,
22358,4252264,67500,2287553,172,1.0,2006,7090.0,High,11/15/2011 0:00,865,865,,,,,Motorgrader - 170.0 to 200.0 Horsepower,Texas,MG,Motor Graders,No,EROPS w AC,,,,,None or Unspecified,,None or Unspecified,14',None or Unspecified,No,Base + 1 Function,None or Unspecified,Yes,Yes,None or Unspecified,"14""",,,,,,,,,,,,,,,
22358,4252672,80000,1457693,172,1.0,2007,1750.0,Medium,12/16/2010 0:00,865,865,,,,,Motorgrader - 170.0 to 200.0 Horsepower,Tennessee,MG,Motor Graders,No,EROPS w AC,,,,,None or Unspecified,,None or Unspecified,14',None or Unspecified,No,Base + 1 Function,None or Unspecified,Yes,None or Unspecified,None or Unspecified,"14""",,,,,,,,,,,,,,,
22358,4252676,95000,2285762,172,1.0,2006,1289.0,Low,10/17/2011 0:00,865,865,,,,,Motorgrader - 170.0 to 200.0 Horsepower,California,MG,Motor Graders,No,EROPS w AC,,,,,None or Unspecified,,None or Unspecified,14',Low Profile,No,Base + 1 Function,Yes,Yes,None or Unspecified,None or Unspecified,"14""",,,,,,,,,,,,,,,
22358,6257298,47500,1854172,149,1.0,2002,,,12/7/2011 0:00,865,865,,,,,Motorgrader - 170.0 to 200.0 Horsepower,New Mexico,MG,Motor Graders,No,EROPS w AC,,,,,None or Unspecified,,None or Unspecified,14',None or Unspecified,No,Base + 1 Function,Yes,Yes,None or Unspecified,None or Unspecified,"14""",,,,,,,,,,,,,,,
22358,6259243,95000,1880216,149,1.0,2006,,,10/18/2011 0:00,865,865,,,,,Motorgrader - 170.0 to 200.0 Horsepower,California,MG,Motor Graders,No,OROPS,,,,,None or Unspecified,,None or Unspecified,None or Unspecified,None or Unspecified,No,Base + 1 Function,None or Unspecified,None or Unspecified,None or Unspecified,None or Unspecified,None or Unspecified,,,,,,,,,,,,,,,
