ModelID,SalesID,SalePrice,MachineID,datasource,auctioneerID,YearMade,MachineHoursCurrentMeter,UsageBand,saledate,fiModelDesc,fiBaseModel,fiSecondaryDesc,fiModelSeries,fiModelDescriptor,ProductSize,fiProductClassDesc,state,ProductGroup,ProductGroupDesc,Drive_System,Enclosure,Forks,Pad_Type,Ride_Control,Stick,Transmission,Turbocharged,Blade_Extension,Blade_Width,Enclosure_Type,Engine_Horsepower,Hydraulics,Pushblock,Ripper,Scarifier,Tip_Control,Tire_Size,Coupler,Coupler_System,Grouser_Tracks,Hydraulics_Flow,Track_Type,Undercarriage_Pad_Width,Stick_Length,Thumb,Pattern_Changer,Grouser_Type,Backhoe_Mounting,Blade_Type,Travel_Controls,Differential_Type,Steering_Controls
2246,1142141,23500,1066129,121,3.0,1992,13031.0,Medium,7/28/2005 0:00,PC220LC5,PC220,,LC,5,Large / Medium,"Hydraulic Excavator, Track - 21.0 to 24.0 Metric Tons",West Virginia,TEX,Track Excavators,,EROPS,,,,,,,,,,,Auxiliary,,,,,,Hydraulic,,,,Steel,24 inch,None or Unspecified,None or Unspecified,None or Unspecified,Double,,,,,
2246,1144081,28000,1059738,121,3.0,1000,4237.0,Low,7/16/2009 0:00,PC220LC5,PC220,,LC,5,Large / Medium,"Hydraulic Excavator, Track - 21.0 to 24.0 Metric Tons",Utah,TEX,Track Excavators,,EROPS,,,,,,,,,,,Standard,,,,,,None or Unspecified,,,,Steel,None or Unspecified,None or Unspecified,None or Unspecified,None or Unspecified,Double,,,,,
2246,1148129,12500,1031006,121,3.0,1991,14421.0,Medium,10/20/2005 0:00,PC220LC5,PC220,,LC,5,Large / Medium,"Hydraulic Excavator, Track - 21.0 to 24.0 Metric Tons",Arkansas,TEX,Track Excavators,,EROPS w AC,,,,,,,,,,,Standard,,,,,,None or Unspecified,,,,Steel,None or Unspecified,None or Unspecified,Manual,None or Unspecified,Double,,,,,
2246,1149450,17000,1054413,121,3.0,1992,3673.0,Medium,2/26/2004 0:00,PC220LC5,PC220,,LC,5,Large / Medium,"Hydraulic Excavator, Track - 21.0 to 24.0 Metric Tons",Texas,TEX,Track Excavators,,EROPS w AC,,,,,,,,,,,2 Valve,,,,,,None or Unspecified,,,,,,,,,,,,,,
2246,1156953,20000,1057118,121,3.0,1993,0.0,,9/8/2005 0:00,PC220LC5,PC220,,LC,5,Large / Medium,"Hydraulic Excavator, Track - 21.0 to 24.0 Metric Tons",Florida,TEX,Track Excavators,,EROPS,,,,,,,,,,,Standard,,,,,,None or Unspecified,,,,Steel,None or Unspecified,None or Unspecified,None or Unspecified,None or Unspecified,Double,,,,,
2246,1158118,18000,1011848,121,3.0,1000,8565.0,Medium,12/6/2007 0:00,PC220LC5,PC220,,LC,5,Large / Medium,"Hydraulic Excavator, Track - 21.0 to 24.0 Metric Tons",Georgia,TEX,Track Excavators,,EROPS,,,,,,,,,,,Standard,,,,,,None or Unspecified,,,,Steel,None or Unspecified,None or Unspecified,None or Unspecified,None or Unspecified,Double,,,,,
2246,1167016,13500,1067398,121,3.0,1993,0.0,,10/18/2007 0:00,PC220LC5,PC220,,LC,5,Large / Medium,"Hydraulic Excavator, Track - 21.0 to 24.0 Metric Tons",Georgia,TEX,Track Excavators,,EROPS,,,,,,,,,,,Standard,,,,,,None or Unspecified,,,,Steel,None or Unspecified,None or Unspecified,None or Unspecified,None or Unspecified,Double,,,,,
2246,1179133,22500,1057970,121,3.0,1000,20064.0,High,5/1/2008 0:00,PC220LC5,PC220,,LC,5,Large / Medium,"Hydraulic Excavator, Track - 21.0 to 24.0 Metric Tons",Minnesota,TEX,Track Excavators,,EROPS w AC,,,,,,,,,,,Standard,,,,,,None or Unspecified,,,,Steel,32 inch,None or Unspecified,None or Unspecified,None or Unspecified,Double,,,,,
2246,1185799,11000,1011199,121,3.0,1000,17432.0,Medium,12/11/2008 0:00,PC220LC5,PC220,,LC,5,Large / Medium,"Hydraulic Excavator, Track - 21.0 to 24.0 Metric Tons",Utah,TEX,Track Excavators,,EROPS,,,,,,,,,,,Standard,,,,,,None or Unspecified,,,,Steel,None or Unspecified,None or Unspecified,None or Unspecified,None or Unspecified,Double,,,,,
2246,1189794,22000,1029857,121,3.0,1000,13188.0,Medium,5/15/2009 0:00,PC220LC5,PC220,,LC,5,Large / Medium,"Hydraulic Excavator, Track - 21.0 to 24.0 Metric Tons",Missouri,TEX,Track Excavators,,EROPS,,,,,,,,,,,Standard,,,,,,None or Unspecified,,,,Steel,None or Unspecified,None or Unspecified,None or Unspecified,None or Unspecified,Double,,,,,
2246,1193039,16000,1029082,121,3.0,1000,0.0,,9/24/2009 0:00,PC220LC5,PC220,,LC,5,Large / Medium,"Hydraulic Excavator, Track - 21.0 to 24.0 Metric Tons",Kentucky,TEX,Track Excavators,,EROPS,,,,,,,,,,,Auxiliary,,,,,,None or Unspecified,,,,,,,,,,,,,,
2246,1196969,12000,1042459,121,3.0,1000,17086.0,High,12/17/2009 0:00,PC220LC5,PC220,,LC,5,Large / Medium,"Hydraulic Excavator, Track - 21.0 to 24.0 Metric Tons",Texas,TEX,Track Excavators,,EROPS,,,,,,,,,,,Standard,,,,,,Manual,,,,Steel,32 inch,None or Unspecified,None or Unspecified,None or Unspecified,Double,,,,,
2246,1209642,23500,1004379,121,3.0,1000,8790.0,Low,12/9/2010 0:00,PC220LC5,PC220,,LC,5,Large / Medium,"Hydraulic Excavator, Track - 21.0 to 24.0 Metric Tons",New Jersey,TEX,Track Excavators,,EROPS,,,,,,,,,,,Standard,,,,,,None or Unspecified,,,,Steel,None or Unspecified,None or Unspecified,None or Unspecified,None or Unspecified,Double,,,,,
2246,1735824,34000,1277724,132,10.0,1000,,,5/20/1999 0:00,PC220LC5,PC220,,LC,5,Large / Medium,"Hydraulic Excavator, Track - 21.0 to 24.0 Metric Tons",Louisiana,TEX,Track Excavators,,EROPS,,,,,,,,,,,Standard,,,,,,None or Unspecified,,,,Steel,32 inch,None or Unspecified,None or Unspecified,None or Unspecified,Triple,,,,,
2246,1737250,18000,1380108,132,13.0,1991,,,7/10/1999 0:00,PC220LC5,PC220,,LC,5,Large / Medium,"Hydraulic Excavator, Track - 21.0 to 24.0 Metric Tons",Tennessee,TEX,Track Excavators,,EROPS,,,,,,,,,,,Standard,,,,,,None or Unspecified,,,,Steel,26 inch,None or Unspecified,None or Unspecified,None or Unspecified,Double,,,,,
2246,1738489,42000,1526440,132,6.0,1988,,,4/27/1995 0:00,PC220LC5,PC220,,LC,5,Large / Medium,"Hydraulic Excavator, Track - 21.0 to 24.0 Metric Tons",Wyoming,TEX,Track Excavators,,EROPS w AC,,,,,,,,,,,Auxiliary,,,,,,None or Unspecified,,,,Steel,None or Unspecified,None or Unspecified,None or Unspecified,None or Unspecified,Double,,,,,
2246,1738730,8000,1210505,132,1.0,1987,,,10/20/2005 0:00,PC220LC5,PC220,,LC,5,Large / Medium,"Hydraulic Excavator, Track - 21.0 to 24.0 Metric Tons",Tennessee,TEX,Track Excavators,,EROPS,,,,,,,,,,,Auxiliary,,,,,,Hydraulic,,,,Steel,None or Unspecified,"9' 10""",None or Unspecified,None or Unspecified,Double,,,,,
2246,1744139,62000,1193998,132,4.0,1988,4000.0,Medium,2/9/1995 0:00,PC220LC5,PC220,,LC,5,Large / Medium,"Hydraulic Excavator, Track - 21.0 to 24.0 Metric Tons",Florida,TEX,Track Excavators,,EROPS,,,,,,,,,,,Standard,,,,,,None or Unspecified,,,,Steel,28 inch,None or Unspecified,None or Unspecified,None or Unspecified,Double,,,,,
2246,1744162,21000,1303834,132,2.0,1000,,,7/27/2002 0:00,PC220LC5,PC220,,LC,5,Large / Medium,"Hydraulic Excavator, Track - 21.0 to 24.0 Metric Tons",Ohio,TEX,Track Excavators,,EROPS,,,,,,,,,,,Auxiliary,,,,,,None or Unspecified,,,,Steel,None or Unspecified,None or Unspecified,None or Unspecified,None or Unspecified,Double,,,,,
2246,1744164,18000,1519005,132,1.0,1988,,,3/25/2003 0:00,PC220LC5,PC220,,LC,5,Large / Medium,"Hydraulic Excavator, Track - 21.0 to 24.0 Metric Tons",Washington,TEX,Track Excavators,,EROPS,,,,,,,,,,,Standard,,,,,,None or Unspecified,,,,Steel,None or Unspecified,None or Unspecified,None or Unspecified,None or Unspecified,Double,,,,,
2246,1744182,14000,1340144,132,1.0,1000,,,3/28/2001 0:00,PC220LC5,PC220,,LC,5,Large / Medium,"Hydraulic Excavator, Track - 21.0 to 24.0 Metric Tons",Washington,TEX,Track Excavators,,EROPS,,,,,,,,,,,Standard,,,,,,None or Unspecified,,,,Steel,None or Unspecified,None or Unspecified,None or Unspecified,None or Unspecified,Double,,,,,
2246,1744183,15500,1340144,132,1.0,1000,,,3/26/2002 0:00,PC220LC5,PC220,,LC,5,Large / Medium,"Hydraulic Excavator, Track - 21.0 to 24.0 Metric Tons",Washington,TEX,Track Excavators,,EROPS,,,,,,,,,,,Standard,,,,,,None or Unspecified,,,,Steel,None or Unspecified,None or Unspecified,None or Unspecified,None or Unspecified,Double,,,,,
2246,1744215,24000,1543824,132,1.0,1000,,,6/28/2003 0:00,PC220LC5,PC220,,LC,5,Large / Medium,"Hydraulic Excavator, Track - 21.0 to 24.0 Metric Tons",California,TEX,Track Excavators,,EROPS,,,,,,,,,,,Standard,,,,,,None or Unspecified,,,,Steel,None or Unspecified,None or Unspecified,Manual,None or Unspecified,Double,,,,,
2246,1744281,25000,1343841,132,99.0,1989,,,10/20/2000 0:00,PC220LC5,PC220,,LC,5,Large / Medium,"Hydraulic Excavator, Track - 21.0 to 24.0 Metric Tons",Minnesota,TEX,Track Excavators,,EROPS,,,,,,,,,,,Standard,,,,,,None or Unspecified,,,,Steel,None or Unspecified,None or Unspecified,None or Unspecified,None or Unspecified,Double,,,,,
2246,1744287,18000,1117357,132,1.0,1989,,,4/29/2004 0:00,PC220LC5,PC220,,LC,5,Large / Medium,"Hydraulic Excavator, Track - 21.0 to 24.0 Metric Tons",Pennsylvania,TEX,Track Excavators,,EROPS,,,,,,,,,,,Standard,,,,,,None or Unspecified,,,,Steel,None or Unspecified,None or Unspecified,None or Unspecified,None or Unspecified,Double,,,,,
2246,1744292,31000,1312863,132,14.0,1989,,,3/30/1999 0:00,PC220LC5,PC220,,LC,5,Large / Medium,"Hydraulic Excavator, Track - 21.0 to 24.0 Metric Tons",Indiana,TEX,Track Excavators,,EROPS,,,,,,,,,,,Standard,,,,,,None or Unspecified,,,,Steel,None or Unspecified,None or Unspecified,None or Unspecified,None or Unspecified,Double,,,,,
2246,1744293,30500,1214486,132,4.0,1989,,,2/10/2003 0:00,PC220LC5,PC220,,LC,5,Large / Medium,"Hydraulic Excavator, Track - 21.0 to 24.0 Metric Tons",Florida,TEX,Track Excavators,,EROPS w AC,,,,,,,,,,,Standard,,,,,,None or Unspecified,,,,Steel,32 inch,None or Unspecified,None or Unspecified,None or Unspecified,Double,,,,,
2246,1744295,39000,1118508,132,4.0,1989,,,2/4/1999 0:00,PC220LC5,PC220,,LC,5,Large / Medium,"Hydraulic Excavator, Track - 21.0 to 24.0 Metric Tons",Florida,TEX,Track Excavators,,EROPS w AC,,,,,,,,,,,2 Valve,,,,,,,,,,,None or Unspecified,,,,,,,,,
2246,1744311,15500,43872,132,1.0,1000,,,9/17/2003 0:00,PC220LC5,PC220,,LC,5,Large / Medium,"Hydraulic Excavator, Track - 21.0 to 24.0 Metric Tons",Texas,TEX,Track Excavators,,EROPS,,,,,,,,,,,Standard,,,,,,None or Unspecified,,,,Steel,None or Unspecified,"9' 6""",None or Unspecified,None or Unspecified,Double,,,,,
2246,1744314,18000,1526220,132,1.0,1989,,,6/26/2002 0:00,PC220LC5,PC220,,LC,5,Large / Medium,"Hydraulic Excavator, Track - 21.0 to 24.0 Metric Tons",Maryland,TEX,Track Excavators,,EROPS,,,,,,,,,,,Standard,,,,,,None or Unspecified,,,,Steel,None or Unspecified,None or Unspecified,Manual,None or Unspecified,Double,,,,,
2246,1744317,39000,1111353,132,1.0,1989,,,12/5/1997 0:00,PC220LC5,PC220,,LC,5,Large / Medium,"Hydraulic Excavator, Track - 21.0 to 24.0 Metric Tons",Wyoming,TEX,Track Excavators,,EROPS,,,,,,,,,,,Auxiliary,,,,,,None or Unspecified,,,,Steel,None or Unspecified,None or Unspecified,None or Unspecified,None or Unspecified,Double,,,,,
2246,1744318,43000,1422205,132,11.0,1989,,,12/14/1995 0:00,PC220LC5,PC220,,LC,5,Large / Medium,"Hydraulic Excavator, Track - 21.0 to 24.0 Metric Tons",Mississippi,TEX,Track Excavators,,EROPS,,,,,,,,,,,Standard,,,,,,None or Unspecified,,,,Steel,32 inch,None or Unspecified,None or Unspecified,None or Unspecified,Double,,,,,
2246,1744319,31500,1244374,132,5.0,1989,,,1/7/2006 0:00,PC220LC5,PC220,,LC,5,Large / Medium,"Hydraulic Excavator, Track - 21.0 to 24.0 Metric Tons",New Jersey,TEX,Track Excavators,,EROPS,,,,,,,,,,,Standard,,,,,,None or Unspecified,,,,Steel,32 inch,"11' 0""",None or Unspecified,None or Unspecified,Triple,,,,,
2246,1744327,8000,1212522,132,1.0,1000,,,9/17/2002 0:00,PC220LC5,PC220,,LC,5,Large / Medium,"Hydraulic Excavator, Track - 21.0 to 24.0 Metric Tons",Mississippi,TEX,Track Excavators,,EROPS,,,,,,,,,,,Standard,,,,,,None or Unspecified,,,,Steel,None or Unspecified,None or Unspecified,None or Unspecified,None or Unspecified,Double,,,,,
2246,1744353,8000,1324609,132,1.0,1000,,,9/22/2005 0:00,PC220LC5,PC220,,LC,5,Large / Medium,"Hydraulic Excavator, Track - 21.0 to 24.0 Metric Tons",Washington,TEX,Track Excavators,,EROPS,,,,,,,,,,,Standard,,,,,,None or Unspecified,,,,Steel,None or Unspecified,None or Unspecified,None or Unspecified,None or Unspecified,Double,,,,,
2246,1744354,47000,1222160,132,1.0,1989,,,12/9/1997 0:00,PC220LC5,PC220,,LC,5,Large / Medium,"Hydraulic Excavator, Track - 21.0 to 24.0 Metric Tons",Washington,TEX,Track Excavators,,EROPS,,,,,,,,,,,Standard,,,,,,None or Unspecified,,,,Steel,None or Unspecified,None or Unspecified,Manual,None or Unspecified,Double,,,,,
2246,1744355,47000,1122638,132,1.0,1989,,,3/11/1998 0:00,PC220LC5,PC220,,LC,5,Large / Medium,"Hydraulic Excavator, Track - 21.0 to 24.0 Metric Tons",Texas,TEX,Track Excavators,,EROPS,,,,,,,,,,,Standard,,,,,,None or Unspecified,,,,Steel,None or Unspecified,None or Unspecified,None or Unspecified,None or Unspecified,Double,,,,,
2246,1744356,39000,1218875,132,1.0,1990,,,10/7/1996 0:00,PC220LC5,PC220,,LC,5,Large / Medium,"Hydraulic Excavator, Track - 21.0 to 24.0 Metric Tons",California,TEX,Track Excavators,,EROPS,,,,,,,,,,,Standard,,,,,,None or Unspecified,,,,Steel,None or Unspecified,None or Unspecified,None or Unspecified,None or Unspecified,Double,,,,,
2246,1744357,80000,1253065,132,1.0,1988,,,3/15/1994 0:00,PC220LC5,PC220,,LC,5,Large / Medium,"Hydraulic Excavator, Track - 21.0 to 24.0 Metric Tons",California,TEX,Track Excavators,,EROPS,,,,,,,,,,,Standard,,,,,,None or Unspecified,,,,Steel,None or Unspecified,None or Unspecified,None or Unspecified,None or Unspecified,Triple,,,,,
2246,1744359,17000,1133488,132,14.0,1000,,,3/30/2001 0:00,PC220LC5,PC220,,LC,5,Large / Medium,"Hydraulic Excavator, Track - 21.0 to 24.0 Metric Tons",Indiana,TEX,Track Excavators,,EROPS,,,,,,,,,,,Standard,,,,,,Manual,,,,Steel,None or Unspecified,None or Unspecified,None or Unspecified,None or Unspecified,Double,,,,,
2246,1744360,24000,1434681,132,1.0,1989,,,6/19/2000 0:00,PC220LC5,PC220,,LC,5,Large / Medium,"Hydraulic Excavator, Track - 21.0 to 24.0 Metric Tons",Missouri,TEX,Track Excavators,,EROPS,,,,,,,,,,,Standard,,,,,,None or Unspecified,,,,Steel,None or Unspecified,None or Unspecified,None or Unspecified,None or Unspecified,Double,,,,,
2246,1744365,52000,1112295,132,1.0,1989,,,10/19/1995 0:00,PC220LC5,PC220,,LC,5,Large / Medium,"Hydraulic Excavator, Track - 21.0 to 24.0 Metric Tons",Minnesota,TEX,Track Excavators,,EROPS,,,,,,,,,,,Standard,,,,,,None or Unspecified,,,,Steel,24 inch,None or Unspecified,None or Unspecified,None or Unspecified,Triple,,,,,
2246,1744366,12500,1422544,132,2.0,1989,,,9/20/2002 0:00,PC220LC5,PC220,,LC,5,Large / Medium,"Hydraulic Excavator, Track - 21.0 to 24.0 Metric Tons",Alabama,TEX,Track Excavators,,EROPS,,,,,,,,,,,Standard,,,,,,None or Unspecified,,,,Steel,None or Unspecified,None or Unspecified,None or Unspecified,None or Unspecified,Double,,,,,
2246,1744370,32000,1366149,132,2.0,1000,,,10/23/1999 0:00,PC220LC5,PC220,,LC,5,Large / Medium,"Hydraulic Excavator, Track - 21.0 to 24.0 Metric Tons",Florida,TEX,Track Excavators,,EROPS,,,,,,,,,,,Standard,,,,,,None or Unspecified,,,,Steel,None or Unspecified,None or Unspecified,None or Unspecified,None or Unspecified,Double,,,,,
2246,1744378,42000,1227779,132,6.0,1989,,,3/13/1997 0:00,PC220LC5,PC220,,LC,5,Large / Medium,"Hydraulic Excavator, Track - 21.0 to 24.0 Metric Tons",Florida,TEX,Track Excavators,,EROPS,,,,,,,,,,,2 Valve,,,,,,,,,,,None or Unspecified,,,,,,,,,
2246,1744380,61000,1495105,132,2.0,1000,,,11/5/1994 0:00,PC220LC5,PC220,,LC,5,Large / Medium,"Hydraulic Excavator, Track - 21.0 to 24.0 Metric Tons",Wisconsin,TEX,Track Excavators,,EROPS,,,,,,,,,,,Standard,,,,,,None or Unspecified,,,,Steel,None or Unspecified,None or Unspecified,None or Unspecified,None or Unspecified,Double,,,,,
2246,1744465,15500,1256644,132,1.0,1991,,,6/19/2001 0:00,PC220LC5,PC220,,LC,5,Large / Medium,"Hydraulic Excavator, Track - 21.0 to 24.0 Metric Tons",Washington,TEX,Track Excavators,,EROPS,,,,,,,,,,,Standard,,,,,,None or Unspecified,,,,Steel,None or Unspecified,None or Unspecified,None or Unspecified,None or Unspecified,Double,,,,,
2246,1744546,67500,1323459,132,99.0,1989,,,5/12/1994 0:00,PC220LC5,PC220,,LC,5,Large / Medium,"Hydraulic Excavator, Track - 21.0 to 24.0 Metric Tons",Texas,TEX,Track Excavators,,EROPS,,,,,,,,,,,Standard,,,,,,None or Unspecified,,,,Steel,32 inch,None or Unspecified,None or Unspecified,None or Unspecified,Triple,,,,,
2246,1744547,29500,1323459,132,5.0,1990,,,3/24/2000 0:00,PC220LC5,PC220,,LC,5,Large / Medium,"Hydraulic Excavator, Track - 21.0 to 24.0 Metric Tons",Connecticut,TEX,Track Excavators,,EROPS,,,,,,,,,,,Standard,,,,,,None or Unspecified,,,,Steel,32 inch,None or Unspecified,None or Unspecified,None or Unspecified,Triple,,,,,
2246,1744562,45000,1173421,132,4.0,1989,,,2/8/1996 0:00,PC220LC5,PC220,,LC,5,Large / Medium,"Hydraulic Excavator, Track - 21.0 to 24.0 Metric Tons",Florida,TEX,Track Excavators,,EROPS,,,,,,,,,,,Standard,,,,,,None or Unspecified,,,,Steel,32 inch,"11' 0""",None or Unspecified,None or Unspecified,Triple,,,,,
2246,1744563,52000,1173421,132,4.0,1989,,,5/19/1995 0:00,PC220LC5,PC220,,LC,5,Large / Medium,"Hydraulic Excavator, Track - 21.0 to 24.0 Metric Tons",Texas,TEX,Track Excavators,,EROPS,,,,,,,,,,,Standard,,,,,,None or Unspecified,,,,Steel,32 inch,"11' 0""",None or Unspecified,None or Unspecified,Triple,,,,,
2246,1744575,26500,1101798,132,28.0,1991,,,3/3/2006 0:00,PC220LC5,PC220,,LC,5,Large / Medium,"Hydraulic Excavator, Track - 21.0 to 24.0 Metric Tons",Mississippi,TEX,Track Excavators,,EROPS,,,,,,,,,,,2 Valve,,,,,,None or Unspecified,,,,,,,,,,,,,,
2246,1744750,32000,1299378,132,1.0,1991,,,6/11/2001 0:00,PC220LC5,PC220,,LC,5,Large / Medium,"Hydraulic Excavator, Track - 21.0 to 24.0 Metric Tons",California,TEX,Track Excavators,,EROPS,,,,,,,,,,,Auxiliary,,,,,,Manual,,,,Steel,None or Unspecified,"9' 6""",Manual,None or Unspecified,Double,,,,,
2246,1744752,18500,1147911,132,15.0,1990,,,3/27/2003 0:00,PC220LC5,PC220,,LC,5,Large / Medium,"Hydraulic Excavator, Track - 21.0 to 24.0 Metric Tons",Pennsylvania,TEX,Track Excavators,,EROPS,,,,,,,,,,,Standard,,,,,,Manual,,,,Steel,32 inch,None or Unspecified,None or Unspecified,None or Unspecified,Triple,,,,,
2246,1744753,17000,1117983,132,1.0,1990,,,12/13/2000 0:00,PC220LC5,PC220,,LC,5,Large / Medium,"Hydraulic Excavator, Track - 21.0 to 24.0 Metric Tons",Texas,TEX,Track Excavators,,EROPS,,,,,,,,,,,Auxiliary,,,,,,None or Unspecified,,,,Steel,None or Unspecified,None or Unspecified,None or Unspecified,None or Unspecified,Double,,,,,
2246,1744770,38000,1287162,132,14.0,1991,,,3/20/1998 0:00,PC220LC5,PC220,,LC,5,Large / Medium,"Hydraulic Excavator, Track - 21.0 to 24.0 Metric Tons",Indiana,TEX,Track Excavators,,EROPS,,,,,,,,,,,Standard,,,,,,None or Unspecified,,,,Steel,None or Unspecified,None or Unspecified,None or Unspecified,None or Unspecified,Double,,,,,
2246,1744771,39500,1555931,132,14.0,1990,,,3/30/1999 0:00,PC220LC5,PC220,,LC,5,Large / Medium,"Hydraulic Excavator, Track - 21.0 to 24.0 Metric Tons",Indiana,TEX,Track Excavators,,EROPS,,,,,,,,,,,Standard,,,,,,None or Unspecified,,,,Steel,None or Unspecified,None or Unspecified,None or Unspecified,None or Unspecified,Double,,,,,
2246,1744774,36000,1291727,132,1.0,1991,,,8/25/2005 0:00,PC220LC5,PC220,,LC,5,Large / Medium,"Hydraulic Excavator, Track - 21.0 to 24.0 Metric Tons",Texas,TEX,Track Excavators,,EROPS,,,,,,,,,,,Auxiliary,,,,,,Manual,,,,Steel,None or Unspecified,None or Unspecified,None or Unspecified,None or Unspecified,Double,,,,,
2246,1744806,22000,1082320,132,2.0,1995,,,6/23/2001 0:00,PC220LC5,PC220,,LC,5,Large / Medium,"Hydraulic Excavator, Track - 21.0 to 24.0 Metric Tons",New Hampshire,TEX,Track Excavators,,EROPS,,,,,,,,,,,Standard,,,,,,None or Unspecified,,,,Steel,None or Unspecified,None or Unspecified,None or Unspecified,None or Unspecified,Double,,,,,
2246,1744885,68000,1298169,132,4.0,1990,,,2/8/1996 0:00,PC220LC5,PC220,,LC,5,Large / Medium,"Hydraulic Excavator, Track - 21.0 to 24.0 Metric Tons",Florida,TEX,Track Excavators,,EROPS w AC,,,,,,,,,,,Auxiliary,,,,,,None or Unspecified,,,,Steel,28 inch,None or Unspecified,None or Unspecified,None or Unspecified,Double,,,,,
2246,1744945,25000,1539666,132,1.0,1990,,,2/22/2000 0:00,PC220LC5,PC220,,LC,5,Large / Medium,"Hydraulic Excavator, Track - 21.0 to 24.0 Metric Tons",Texas,TEX,Track Excavators,,EROPS,,,,,,,,,,,Standard,,,,,,None or Unspecified,,,,Steel,None or Unspecified,None or Unspecified,None or Unspecified,None or Unspecified,Double,,,,,
2246,1744949,72000,1283471,132,99.0,1991,,,2/5/1994 0:00,PC220LC5,PC220,,LC,5,Large / Medium,"Hydraulic Excavator, Track - 21.0 to 24.0 Metric Tons",Washington,TEX,Track Excavators,,EROPS,,,,,,,,,,,Standard,,,,,,None or Unspecified,,,,Steel,27 inch,None or Unspecified,None or Unspecified,None or Unspecified,Triple,,,,,
2246,1744958,25000,1132342,132,1.0,1000,,,3/30/2005 0:00,PC220LC5,PC220,,LC,5,Large / Medium,"Hydraulic Excavator, Track - 21.0 to 24.0 Metric Tons",Washington,TEX,Track Excavators,,EROPS,,,,,,,,,,,Standard,,,,,,None or Unspecified,,,,Steel,None or Unspecified,None or Unspecified,Manual,None or Unspecified,Triple,,,,,
2246,1744959,32000,1132342,132,1.0,1000,,,12/16/2004 0:00,PC220LC5,PC220,,LC,5,Large / Medium,"Hydraulic Excavator, Track - 21.0 to 24.0 Metric Tons",Washington,TEX,Track Excavators,,EROPS,,,,,,,,,,,Standard,,,,,,None or Unspecified,,,,Steel,None or Unspecified,None or Unspecified,Manual,None or Unspecified,Triple,,,,,
2246,1745076,27500,1333178,132,1.0,1991,,,6/26/2004 0:00,PC220LC5,PC220,,LC,5,Large / Medium,"Hydraulic Excavator, Track - 21.0 to 24.0 Metric Tons",Hawaii,TEX,Track Excavators,,EROPS,,,,,,,,,,,Auxiliary,,,,,,Manual,,,,Steel,None or Unspecified,None or Unspecified,None or Unspecified,None or Unspecified,Double,,,,,
2246,1745196,60000,1403031,132,6.0,1992,,,5/10/1996 0:00,PC220LC5,PC220,,LC,5,Large / Medium,"Hydraulic Excavator, Track - 21.0 to 24.0 Metric Tons",Tennessee,TEX,Track Excavators,,EROPS w AC,,,,,,,,,,,2 Valve,,,,,,,,,,,28 inch,,,,,,,,,
2246,1745387,26000,1241075,132,1.0,1994,,,9/25/2001 0:00,PC220LC5,PC220,,LC,5,Large / Medium,"Hydraulic Excavator, Track - 21.0 to 24.0 Metric Tons",Illinois,TEX,Track Excavators,,EROPS,,,,,,,,,,,Standard,,,,,,None or Unspecified,,,,Steel,None or Unspecified,"10' 2""",None or Unspecified,None or Unspecified,Double,,,,,
2246,1745388,28000,1241075,132,1.0,1994,,,10/17/2000 0:00,PC220LC5,PC220,,LC,5,Large / Medium,"Hydraulic Excavator, Track - 21.0 to 24.0 Metric Tons",Florida,TEX,Track Excavators,,EROPS,,,,,,,,,,,Standard,,,,,,None or Unspecified,,,,Steel,None or Unspecified,"10' 2""",None or Unspecified,None or Unspecified,Double,,,,,
2246,1749585,13000,1178641,132,19.0,1993,,,9/26/2002 0:00,PC220LC5,PC220,,LC,5,Large / Medium,"Hydraulic Excavator, Track - 21.0 to 24.0 Metric Tons",Nevada,TEX,Track Excavators,,EROPS,,,,,,,,,,,Standard,,,,,,None or Unspecified,,,,Steel,None or Unspecified,"9' 6""",None or Unspecified,None or Unspecified,Triple,,,,,
2246,1752449,30000,1468574,132,11.0,1000,,,9/1/1999 0:00,PC220LC5,PC220,,LC,5,Large / Medium,"Hydraulic Excavator, Track - 21.0 to 24.0 Metric Tons",Mississippi,TEX,Track Excavators,,EROPS,,,,,,,,,,,Standard,,,,,,None or Unspecified,,,,Rubber,28 inch,None or Unspecified,None or Unspecified,None or Unspecified,Double,,,,,
2246,1757938,67500,1249352,132,4.0,1990,,,2/9/1995 0:00,PC220LC5,PC220,,LC,5,Large / Medium,"Hydraulic Excavator, Track - 21.0 to 24.0 Metric Tons",Florida,TEX,Track Excavators,,EROPS,,,,,,,,,,,2 Valve,,,,,,,,,,,None or Unspecified,,,,,,,,,
2246,1757950,56000,1200986,132,2.0,1991,,,2/5/1997 0:00,PC220LC5,PC220,,LC,5,Large / Medium,"Hydraulic Excavator, Track - 21.0 to 24.0 Metric Tons",Florida,TEX,Track Excavators,,EROPS,,,,,,,,,,,Standard,,,,,,None or Unspecified,,,,Steel,31 inch,None or Unspecified,None or Unspecified,None or Unspecified,Double,,,,,
2246,1758065,29500,1478150,132,2.0,1000,,,2/4/2002 0:00,PC220LC5,PC220,,LC,5,Large / Medium,"Hydraulic Excavator, Track - 21.0 to 24.0 Metric Tons",Florida,TEX,Track Excavators,,EROPS,,,,,,,,,,,Standard,,,,,,None or Unspecified,,,,Steel,None or Unspecified,None or Unspecified,None or Unspecified,None or Unspecified,Double,,,,,
2246,1758070,86000,1207625,132,6.0,1992,,,4/23/1996 0:00,PC220LC5,PC220,,LC,5,Large / Medium,"Hydraulic Excavator, Track - 21.0 to 24.0 Metric Tons",Kentucky,TEX,Track Excavators,,EROPS,,,,,,,,,,,Standard,,,,,,None or Unspecified,,,,Steel,None or Unspecified,None or Unspecified,None or Unspecified,None or Unspecified,Double,,,,,
2246,1758095,46000,1470877,132,6.0,1992,,,10/7/1997 0:00,PC220LC5,PC220,,LC,5,Large / Medium,"Hydraulic Excavator, Track - 21.0 to 24.0 Metric Tons",North Carolina,TEX,Track Excavators,,EROPS,,,,,,,,,,,Standard,,,,,,None or Unspecified,,,,Steel,32 inch,None or Unspecified,None or Unspecified,None or Unspecified,Double,,,,,
2246,1758129,53000,1336491,132,6.0,1992,,,6/24/1997 0:00,PC220LC5,PC220,,LC,5,Large / Medium,"Hydraulic Excavator, Track - 21.0 to 24.0 Metric Tons",Nevada,TEX,Track Excavators,,EROPS w AC,,,,,,,,,,,Auxiliary,,,,,,None or Unspecified,,,,Steel,28 inch,None or Unspecified,None or Unspecified,None or Unspecified,Double,,,,,
2246,1758137,41000,1345690,132,1.0,1993,,,9/24/1999 0:00,PC220LC5,PC220,,LC,5,Large / Medium,"Hydraulic Excavator, Track - 21.0 to 24.0 Metric Tons",Texas,TEX,Track Excavators,,EROPS,,,,,,,,,,,Standard,,,,,,None or Unspecified,,,,Steel,None or Unspecified,None or Unspecified,None or Unspecified,None or Unspecified,Double,,,,,
2246,1758141,52000,1350215,132,9.0,1993,,,2/11/1998 0:00,PC220LC5,PC220,,LC,5,Large / Medium,"Hydraulic Excavator, Track - 21.0 to 24.0 Metric Tons",Florida,TEX,Track Excavators,,EROPS,,,,,,,,,,,Standard,,,,,,None or Unspecified,,,,Steel,None or Unspecified,None or Unspecified,None or Unspecified,None or Unspecified,Double,,,,,
2246,1758193,32500,1530878,132,2.0,1000,,,2/4/2002 0:00,PC220LC5,PC220,,LC,5,Large / Medium,"Hydraulic Excavator, Track - 21.0 to 24.0 Metric Tons",Florida,TEX,Track Excavators,,EROPS,,,,,,,,,,,2 Valve,,,,,,None or Unspecified,,,,,,,,,,,,,,
2246,1758226,51000,1346218,132,9.0,1993,,,2/11/1998 0:00,PC220LC5,PC220,,LC,5,Large / Medium,"Hydraulic Excavator, Track - 21.0 to 24.0 Metric Tons",Florida,TEX,Track Excavators,,EROPS,,,,,,,,,,,Standard,,,,,,None or Unspecified,,,,Steel,None or Unspecified,None or Unspecified,None or Unspecified,None or Unspecified,Double,,,,,
2246,1758239,62000,1181742,132,6.0,1993,,,6/24/1997 0:00,PC220LC5,PC220,,LC,5,Large / Medium,"Hydraulic Excavator, Track - 21.0 to 24.0 Metric Tons",Nevada,TEX,Track Excavators,,EROPS w AC,,,,,,,,,,,2 Valve,,,,,,None or Unspecified,,,,,,,,,,,,,,
2246,1758241,24500,1432664,132,16.0,1000,,,4/15/2004 0:00,PC220LC5,PC220,,LC,5,Large / Medium,"Hydraulic Excavator, Track - 21.0 to 24.0 Metric Tons",Ohio,TEX,Track Excavators,,EROPS w AC,,,,,,,,,,,2 Valve,,,,,,Hydraulic,,,,,,,,,,,,,,
2246,1761120,40000,1105800,132,10.0,1000,,,1/28/1999 0:00,PC220LC5,PC220,,LC,5,Large / Medium,"Hydraulic Excavator, Track - 21.0 to 24.0 Metric Tons",Louisiana,TEX,Track Excavators,,EROPS,,,,,,,,,,,Standard,,,,,,None or Unspecified,,,,Steel,None or Unspecified,None or Unspecified,None or Unspecified,None or Unspecified,Double,,,,,
2246,1761121,39000,1105800,132,10.0,1000,,,12/2/1998 0:00,PC220LC5,PC220,,LC,5,Large / Medium,"Hydraulic Excavator, Track - 21.0 to 24.0 Metric Tons",Louisiana,TEX,Track Excavators,,EROPS,,,,,,,,,,,Standard,,,,,,None or Unspecified,,,,Steel,None or Unspecified,None or Unspecified,None or Unspecified,None or Unspecified,Double,,,,,
2246,1762011,31000,1332997,132,14.0,1992,,,3/29/2000 0:00,PC220LC5,PC220,,LC,5,Large / Medium,"Hydraulic Excavator, Track - 21.0 to 24.0 Metric Tons",Indiana,TEX,Track Excavators,,EROPS,,,,,,,,,,,Standard,,,,,,None or Unspecified,,,,Steel,None or Unspecified,None or Unspecified,None or Unspecified,None or Unspecified,Double,,,,,
2246,1764340,46000,1135660,132,1.0,1989,,,4/24/1997 0:00,PC220LC5,PC220,,LC,5,Large / Medium,"Hydraulic Excavator, Track - 21.0 to 24.0 Metric Tons",Wyoming,TEX,Track Excavators,,EROPS,,,,,,,,,,,Standard,,,,,,None or Unspecified,,,,Steel,None or Unspecified,None or Unspecified,None or Unspecified,None or Unspecified,Double,,,,,
2246,1764342,24000,1466636,132,1.0,1989,,,2/21/2001 0:00,PC220LC5,PC220,,LC,5,Large / Medium,"Hydraulic Excavator, Track - 21.0 to 24.0 Metric Tons",Florida,TEX,Track Excavators,,EROPS w AC,,,,,,,,,,,Standard,,,,,,None or Unspecified,,,,Steel,None or Unspecified,None or Unspecified,Manual,None or Unspecified,Double,,,,,
2246,1764344,43000,1241021,132,1.0,1989,,,9/13/1995 0:00,PC220LC5,PC220,,LC,5,Large / Medium,"Hydraulic Excavator, Track - 21.0 to 24.0 Metric Tons",Washington,TEX,Track Excavators,,EROPS,,,,,,,,,,,Standard,,,,,,None or Unspecified,,,,Steel,None or Unspecified,"9' 6""",None or Unspecified,None or Unspecified,Triple,,,,,
2246,1764345,42000,1212346,132,1.0,1989,,,10/21/1997 0:00,PC220LC5,PC220,,LC,5,Large / Medium,"Hydraulic Excavator, Track - 21.0 to 24.0 Metric Tons",Wisconsin,TEX,Track Excavators,,EROPS,,,,,,,,,,,Standard,,,,,,None or Unspecified,,,,Steel,None or Unspecified,None or Unspecified,None or Unspecified,None or Unspecified,Double,,,,,
2246,1764346,70000,1170079,132,6.0,1989,,,9/28/1995 0:00,PC220LC5,PC220,,LC,5,Large / Medium,"Hydraulic Excavator, Track - 21.0 to 24.0 Metric Tons",South Dakota,TEX,Track Excavators,,EROPS,,,,,,,,,,,Standard,,,,,,None or Unspecified,,,,Steel,None or Unspecified,None or Unspecified,None or Unspecified,None or Unspecified,Double,,,,,
2246,1764349,17000,1519821,132,1.0,1989,,,10/18/2001 0:00,PC220LC5,PC220,,LC,5,Large / Medium,"Hydraulic Excavator, Track - 21.0 to 24.0 Metric Tons",Tennessee,TEX,Track Excavators,,EROPS,,,,,,,,,,,Standard,,,,,,None or Unspecified,,,,Steel,None or Unspecified,"10' 2""",None or Unspecified,None or Unspecified,Double,,,,,
2246,1764350,25500,1112114,132,2.0,1989,,,7/10/2004 0:00,PC220LC5,PC220,,LC,5,Large / Medium,"Hydraulic Excavator, Track - 21.0 to 24.0 Metric Tons",New York,TEX,Track Excavators,,EROPS,,,,,,,,,,,Standard,,,,,,None or Unspecified,,,,Steel,None or Unspecified,None or Unspecified,Hydraulic,None or Unspecified,Double,,,,,
2246,1764351,45500,1322101,132,18.0,1989,,,8/26/1997 0:00,PC220LC5,PC220,,LC,5,Large / Medium,"Hydraulic Excavator, Track - 21.0 to 24.0 Metric Tons",New York,TEX,Track Excavators,,EROPS,,,,,,,,,,,Standard,,,,,,None or Unspecified,,,,Steel,32 inch,None or Unspecified,None or Unspecified,None or Unspecified,Double,,,,,
2246,1764352,20000,1186735,132,4.0,1989,,,2/10/2011 0:00,PC220LC5,PC220,,LC,5,Large / Medium,"Hydraulic Excavator, Track - 21.0 to 24.0 Metric Tons",Florida,TEX,Track Excavators,,EROPS,,,,,,,,,,,Standard,,,,,,None or Unspecified,,,,Steel,None or Unspecified,None or Unspecified,None or Unspecified,None or Unspecified,Double,,,,,
2246,1764353,20000,1186735,132,4.0,1989,,,2/7/2011 0:00,PC220LC5,PC220,,LC,5,Large / Medium,"Hydraulic Excavator, Track - 21.0 to 24.0 Metric Tons",Florida,TEX,Track Excavators,,EROPS,,,,,,,,,,,Standard,,,,,,None or Unspecified,,,,Steel,None or Unspecified,None or Unspecified,None or Unspecified,None or Unspecified,Double,,,,,
2246,1764354,60000,1210880,132,23.0,1989,,,11/2/1996 0:00,PC220LC5,PC220,,LC,5,Large / Medium,"Hydraulic Excavator, Track - 21.0 to 24.0 Metric Tons",New Jersey,TEX,Track Excavators,,EROPS,,,,,,,,,,,Standard,,,,,,None or Unspecified,,,,Steel,None or Unspecified,None or Unspecified,None or Unspecified,None or Unspecified,Double,,,,,
2246,1764357,55000,1100274,132,2.0,1989,,,2/8/1995 0:00,PC220LC5,PC220,,LC,5,Large / Medium,"Hydraulic Excavator, Track - 21.0 to 24.0 Metric Tons",Florida,TEX,Track Excavators,,EROPS,,,,,,,,,,,Standard,,,,,,None or Unspecified,,,,Steel,None or Unspecified,"10' 6""",None or Unspecified,None or Unspecified,Triple,,,,,
2246,1764358,60000,1100274,132,6.0,1989,,,3/2/1995 0:00,PC220LC5,PC220,,LC,5,Large / Medium,"Hydraulic Excavator, Track - 21.0 to 24.0 Metric Tons",Florida,TEX,Track Excavators,,EROPS,,,,,,,,,,,Standard,,,,,,None or Unspecified,,,,Steel,None or Unspecified,"10' 6""",None or Unspecified,None or Unspecified,Triple,,,,,
2246,1764360,16500,1293736,132,7.0,1989,,,3/2/2001 0:00,PC220LC5,PC220,,LC,5,Large / Medium,"Hydraulic Excavator, Track - 21.0 to 24.0 Metric Tons",Alabama,TEX,Track Excavators,,EROPS,,,,,,,,,,,Standard,,,,,,None or Unspecified,,,,Steel,28 inch,None or Unspecified,None or Unspecified,None or Unspecified,Triple,,,,,
2246,1764361,22000,1295415,132,1.0,1989,,,3/29/2004 0:00,PC220LC5,PC220,,LC,5,Large / Medium,"Hydraulic Excavator, Track - 21.0 to 24.0 Metric Tons",Illinois,TEX,Track Excavators,,EROPS,,,,,,,,,,,Standard,,,,,,None or Unspecified,,,,Steel,None or Unspecified,None or Unspecified,None or Unspecified,None or Unspecified,Double,,,,,
2246,1764362,42500,1428078,132,1.0,1989,,,6/27/1995 0:00,PC220LC5,PC220,,LC,5,Large / Medium,"Hydraulic Excavator, Track - 21.0 to 24.0 Metric Tons",Texas,TEX,Track Excavators,,EROPS,,,,,,,,,,,Standard,,,,,,None or Unspecified,,,,Steel,None or Unspecified,None or Unspecified,None or Unspecified,None or Unspecified,Triple,,,,,
2246,1764373,25000,1293363,132,8.0,1990,,,5/26/2004 0:00,PC220LC5,PC220,,LC,5,Large / Medium,"Hydraulic Excavator, Track - 21.0 to 24.0 Metric Tons",Mississippi,TEX,Track Excavators,,EROPS,,,,,,,,,,,Standard,,,,,,None or Unspecified,,,,Steel,None or Unspecified,None or Unspecified,None or Unspecified,None or Unspecified,Double,,,,,
2246,1764375,19000,1131749,132,2.0,1989,,,3/31/2005 0:00,PC220LC5,PC220,,LC,5,Large / Medium,"Hydraulic Excavator, Track - 21.0 to 24.0 Metric Tons",New Jersey,TEX,Track Excavators,,EROPS w AC,,,,,,,,,,,Standard,,,,,,None or Unspecified,,,,Steel,None or Unspecified,None or Unspecified,None or Unspecified,None or Unspecified,Double,,,,,
2246,1764376,65000,1130205,132,6.0,1989,,,12/8/1998 0:00,PC220LC5,PC220,,LC,5,Large / Medium,"Hydraulic Excavator, Track - 21.0 to 24.0 Metric Tons",Virginia,TEX,Track Excavators,,EROPS,,,,,,,,,,,Standard,,,,,,None or Unspecified,,,,Steel,32 inch,None or Unspecified,None or Unspecified,None or Unspecified,Double,,,,,
2246,1764378,24000,1555802,132,13.0,1990,313.0,Low,12/18/2010 0:00,PC220LC5,PC220,,LC,5,Large / Medium,"Hydraulic Excavator, Track - 21.0 to 24.0 Metric Tons",Tennessee,TEX,Track Excavators,,EROPS,,,,,,,,,,,Standard,,,,,,None or Unspecified,,,,Steel,None or Unspecified,None or Unspecified,None or Unspecified,None or Unspecified,Double,,,,,
2246,1764379,60000,1288172,132,1.0,1989,,,6/5/1996 0:00,PC220LC5,PC220,,LC,5,Large / Medium,"Hydraulic Excavator, Track - 21.0 to 24.0 Metric Tons",Texas,TEX,Track Excavators,,EROPS,,,,,,,,,,,Standard,,,,,,None or Unspecified,,,,Steel,None or Unspecified,"11' 0""",None or Unspecified,None or Unspecified,Double,,,,,
2246,1764380,25000,1553222,132,1.0,1000,,,6/30/2004 0:00,PC220LC5,PC220,,LC,5,Large / Medium,"Hydraulic Excavator, Track - 21.0 to 24.0 Metric Tons",North Carolina,TEX,Track Excavators,,EROPS,,,,,,,,,,,Standard,,,,,,None or Unspecified,,,,Steel,None or Unspecified,None or Unspecified,None or Unspecified,None or Unspecified,Double,,,,,
2246,1764381,55000,420181,132,1.0,1989,,,4/21/1994 0:00,PC220LC5,PC220,,LC,5,Large / Medium,"Hydraulic Excavator, Track - 21.0 to 24.0 Metric Tons",Texas,TEX,Track Excavators,,EROPS,,,,,,,,,,,Standard,,,,,,None or Unspecified,,,,Steel,None or Unspecified,None or Unspecified,None or Unspecified,None or Unspecified,Triple,,,,,
2246,1764382,42500,1102387,132,1.0,1989,,,6/27/1995 0:00,PC220LC5,PC220,,LC,5,Large / Medium,"Hydraulic Excavator, Track - 21.0 to 24.0 Metric Tons",Texas,TEX,Track Excavators,,EROPS,,,,,,,,,,,Standard,,,,,,None or Unspecified,,,,Steel,None or Unspecified,None or Unspecified,None or Unspecified,None or Unspecified,Triple,,,,,
2246,1764384,65000,1119389,132,1.0,1989,,,5/17/1994 0:00,PC220LC5,PC220,,LC,5,Large / Medium,"Hydraulic Excavator, Track - 21.0 to 24.0 Metric Tons",Kansas,TEX,Track Excavators,,EROPS,,,,,,,,,,,Auxiliary,,,,,,None or Unspecified,,,,Steel,None or Unspecified,None or Unspecified,None or Unspecified,None or Unspecified,Double,,,,,
2246,1764385,52000,1210286,132,6.0,1990,,,10/23/1997 0:00,PC220LC5,PC220,,LC,5,Large / Medium,"Hydraulic Excavator, Track - 21.0 to 24.0 Metric Tons",Kansas,TEX,Track Excavators,,EROPS,,,,,,,,,,,Standard,,,,,,None or Unspecified,,,,Steel,31 inch,None or Unspecified,None or Unspecified,None or Unspecified,Double,,,,,
2246,1764444,50000,1543098,132,23.0,1000,,,7/20/1996 0:00,PC220LC5,PC220,,LC,5,Large / Medium,"Hydraulic Excavator, Track - 21.0 to 24.0 Metric Tons",New York,TEX,Track Excavators,,EROPS,,,,,,,,,,,Standard,,,,,,None or Unspecified,,,,Steel,None or Unspecified,None or Unspecified,None or Unspecified,None or Unspecified,Double,,,,,
2246,1765798,17000,1160563,132,1.0,1990,,,4/8/2004 0:00,PC220LC5,PC220,,LC,5,Large / Medium,"Hydraulic Excavator, Track - 21.0 to 24.0 Metric Tons",Georgia,TEX,Track Excavators,,EROPS,,,,,,,,,,,Standard,,,,,,None or Unspecified,,,,Steel,None or Unspecified,"9' 10""",Manual,None or Unspecified,Double,,,,,
2246,1765810,66000,571927,132,4.0,1990,,,2/9/1995 0:00,PC220LC5,PC220,,LC,5,Large / Medium,"Hydraulic Excavator, Track - 21.0 to 24.0 Metric Tons",Florida,TEX,Track Excavators,,EROPS w AC,,,,,,,,,,,,,,,,,,,,,,,,None or Unspecified,,,,,,,
2246,1765814,64000,1445565,132,4.0,1990,,,2/6/1997 0:00,PC220LC5,PC220,,LC,5,Large / Medium,"Hydraulic Excavator, Track - 21.0 to 24.0 Metric Tons",Florida,TEX,Track Excavators,,EROPS w AC,,,,,,,,,,,,,,,,,,,,,,,,None or Unspecified,,,,,,,
2246,1765818,22500,1324679,132,7.0,1000,,,6/2/2005 0:00,PC220LC5,PC220,,LC,5,Large / Medium,"Hydraulic Excavator, Track - 21.0 to 24.0 Metric Tons",Alabama,TEX,Track Excavators,,EROPS w AC,,,,,,,,,,,,,,,,,,,,,,,,Manual,,,,,,,
2246,1765819,21000,1327705,132,1.0,1990,,,9/21/2000 0:00,PC220LC5,PC220,,LC,5,Large / Medium,"Hydraulic Excavator, Track - 21.0 to 24.0 Metric Tons",Texas,TEX,Track Excavators,,EROPS,,,,,,,,,,,Standard,,,,,,None or Unspecified,,,,Steel,None or Unspecified,None or Unspecified,None or Unspecified,None or Unspecified,Double,,,,,
2246,1765826,72500,1439841,132,2.0,1990,,,2/7/1996 0:00,PC220LC5,PC220,,LC,5,Large / Medium,"Hydraulic Excavator, Track - 21.0 to 24.0 Metric Tons",Florida,TEX,Track Excavators,,EROPS,,,,,,,,,,,Standard,,,,,,None or Unspecified,,,,Steel,32 inch,None or Unspecified,None or Unspecified,None or Unspecified,Double,,,,,
2246,1765827,27500,1439841,132,2.0,1990,,,3/30/2000 0:00,PC220LC5,PC220,,LC,5,Large / Medium,"Hydraulic Excavator, Track - 21.0 to 24.0 Metric Tons",New Jersey,TEX,Track Excavators,,EROPS,,,,,,,,,,,Standard,,,,,,None or Unspecified,,,,Steel,32 inch,None or Unspecified,None or Unspecified,None or Unspecified,Double,,,,,
2246,1765831,50000,1417081,132,1.0,1990,,,2/19/1998 0:00,PC220LC5,PC220,,LC,5,Large / Medium,"Hydraulic Excavator, Track - 21.0 to 24.0 Metric Tons",California,TEX,Track Excavators,,EROPS,,,,,,,,,,,2 Valve,,,,,,Manual,,,,,,,,,,,,,,
2246,1765833,12000,1017027,132,1.0,1990,,,9/21/2002 0:00,PC220LC5,PC220,,LC,5,Large / Medium,"Hydraulic Excavator, Track - 21.0 to 24.0 Metric Tons",Nevada,TEX,Track Excavators,,EROPS w AC,,,,,,,,,,,Auxiliary,,,,,,None or Unspecified,,,,Steel,None or Unspecified,None or Unspecified,None or Unspecified,None or Unspecified,Double,,,,,
2246,1765834,40000,1372072,132,14.0,1990,,,3/20/1998 0:00,PC220LC5,PC220,,LC,5,Large / Medium,"Hydraulic Excavator, Track - 21.0 to 24.0 Metric Tons",Indiana,TEX,Track Excavators,,EROPS w AC,,,,,,,,,,,2 Valve,,,,,,Manual,,,,,,,,,,,,,,
2246,1765841,28000,1111669,132,1.0,1990,,,9/14/2000 0:00,PC220LC5,PC220,,LC,5,Large / Medium,"Hydraulic Excavator, Track - 21.0 to 24.0 Metric Tons",Ohio,TEX,Track Excavators,,EROPS,,,,,,,,,,,2 Valve,,,,,,None or Unspecified,,,,,,,,,,,,,,
2246,1765843,34000,1111669,132,99.0,1990,,,7/20/2000 0:00,PC220LC5,PC220,,LC,5,Large / Medium,"Hydraulic Excavator, Track - 21.0 to 24.0 Metric Tons",South Carolina,TEX,Track Excavators,,EROPS,,,,,,,,,,,2 Valve,,,,,,None or Unspecified,,,,,,,,,,,,,,
2246,1765848,71000,1358475,132,15.0,1990,,,10/5/1995 0:00,PC220LC5,PC220,,LC,5,Large / Medium,"Hydraulic Excavator, Track - 21.0 to 24.0 Metric Tons",Pennsylvania,TEX,Track Excavators,,OROPS,,,,,,,,,,,,,,,,,,,,,,,,None or Unspecified,,,,,,,
2246,1765856,11000,1139702,132,5.0,1990,,,5/18/2007 0:00,PC220LC5,PC220,,LC,5,Large / Medium,"Hydraulic Excavator, Track - 21.0 to 24.0 Metric Tons",Ohio,TEX,Track Excavators,,OROPS,,,,,,,,,,,,,,,,,,,,,,,,None or Unspecified,,,,,,,
2246,1765857,23500,821518,132,11.0,1989,,,5/26/1999 0:00,PC220LC5,PC220,,LC,5,Large / Medium,"Hydraulic Excavator, Track - 21.0 to 24.0 Metric Tons",Mississippi,TEX,Track Excavators,,EROPS,,,,,,,,,,,Auxiliary,,,,,,Manual,,,,,,,,,,,,,,
2246,1765864,34000,1015754,132,1.0,1990,,,3/3/1998 0:00,PC220LC5,PC220,,LC,5,Large / Medium,"Hydraulic Excavator, Track - 21.0 to 24.0 Metric Tons",Wisconsin,TEX,Track Excavators,,EROPS w AC,,,,,,,,,,,2 Valve,,,,,,None or Unspecified,,,,,,,,,,,,,,
2246,1765885,45000,1183757,132,10.0,1990,,,12/11/2001 0:00,PC220LC5,PC220,,LC,5,Large / Medium,"Hydraulic Excavator, Track - 21.0 to 24.0 Metric Tons",Louisiana,TEX,Track Excavators,,EROPS,,,,,,,,,,,Standard,,,,,,None or Unspecified,,,,Steel,31 inch,None or Unspecified,None or Unspecified,None or Unspecified,Triple,,,,,
2246,1765894,56000,1185858,132,99.0,1990,,,10/24/1996 0:00,PC220LC5,PC220,,LC,5,Large / Medium,"Hydraulic Excavator, Track - 21.0 to 24.0 Metric Tons",Missouri,TEX,Track Excavators,,EROPS,,,,,,,,,,,Standard,,,,,,None or Unspecified,,,,Steel,None or Unspecified,None or Unspecified,None or Unspecified,None or Unspecified,Double,,,,,
2246,1765900,27000,1122580,132,4.0,1990,,,2/9/2004 0:00,PC220LC5,PC220,,LC,5,Large / Medium,"Hydraulic Excavator, Track - 21.0 to 24.0 Metric Tons",Florida,TEX,Track Excavators,,EROPS,,,,,,,,,,,Standard,,,,,,None or Unspecified,,,,Steel,32 inch,None or Unspecified,None or Unspecified,None or Unspecified,Triple,,,,,
2246,1765901,27000,1122580,132,4.0,1990,,,2/12/2004 0:00,PC220LC5,PC220,,LC,5,Large / Medium,"Hydraulic Excavator, Track - 21.0 to 24.0 Metric Tons",Florida,TEX,Track Excavators,,EROPS,,,,,,,,,,,Standard,,,,,,None or Unspecified,,,,Steel,32 inch,None or Unspecified,None or Unspecified,None or Unspecified,Triple,,,,,
2246,1765909,26000,1252579,132,7.0,1990,,,3/2/2000 0:00,PC220LC5,PC220,,LC,5,Large / Medium,"Hydraulic Excavator, Track - 21.0 to 24.0 Metric Tons",Alabama,TEX,Track Excavators,,EROPS,,,,,,,,,,,Standard,,,,,,None or Unspecified,,,,Steel,None or Unspecified,"9' 6""",None or Unspecified,None or Unspecified,Double,,,,,
2246,1765910,43000,1034937,132,1.0,1990,,,3/11/1998 0:00,PC220LC5,PC220,,LC,5,Large / Medium,"Hydraulic Excavator, Track - 21.0 to 24.0 Metric Tons",Texas,TEX,Track Excavators,,EROPS,,,,,,,,,,,2 Valve,,,,,,Hydraulic,,,,,,,,,,,,,,
2246,1765915,16000,1533180,132,4.0,1990,,,2/13/2006 0:00,PC220LC5,PC220,,LC,5,Large / Medium,"Hydraulic Excavator, Track - 21.0 to 24.0 Metric Tons",Florida,TEX,Track Excavators,,EROPS w AC,,,,,,,,,,,2 Valve,,,,,,Hydraulic,,,,,,,,,,,,,,
2246,1765917,16000,1533180,132,4.0,1990,,,2/16/2006 0:00,PC220LC5,PC220,,LC,5,Large / Medium,"Hydraulic Excavator, Track - 21.0 to 24.0 Metric Tons",Florida,TEX,Track Excavators,,EROPS w AC,,,,,,,,,,,2 Valve,,,,,,Hydraulic,,,,,,,,,,,,,,
2246,1765924,26000,1294597,132,10.0,1990,,,12/11/2001 0:00,PC220LC5,PC220,,LC,5,Large / Medium,"Hydraulic Excavator, Track - 21.0 to 24.0 Metric Tons",Louisiana,TEX,Track Excavators,,OROPS,,,,,,,,,,,2 Valve,,,,,,None or Unspecified,,,,,,,,,,,,,,
2246,1765932,50000,1397829,132,1.0,1990,,,10/3/1996 0:00,PC220LC5,PC220,,LC,5,Large / Medium,"Hydraulic Excavator, Track - 21.0 to 24.0 Metric Tons",Iowa,TEX,Track Excavators,,EROPS,,,,,,,,,,,2 Valve,,,,,,None or Unspecified,,,,,,,,,,,,,,
2246,1765934,44000,1157614,132,12.0,1991,5823.0,Medium,5/28/1997 0:00,PC220LC5,PC220,,LC,5,Large / Medium,"Hydraulic Excavator, Track - 21.0 to 24.0 Metric Tons",South Carolina,TEX,Track Excavators,,EROPS,,,,,,,,,,,Standard,,,,,,None or Unspecified,,,,Steel,32 inch,None or Unspecified,None or Unspecified,None or Unspecified,Triple,,,,,
2246,1765938,62000,1364323,132,6.0,1990,,,4/27/1995 0:00,PC220LC5,PC220,,LC,5,Large / Medium,"Hydraulic Excavator, Track - 21.0 to 24.0 Metric Tons",Wyoming,TEX,Track Excavators,,EROPS w AC,,,,,,,,,,,2 Valve,,,,,,None or Unspecified,,,,,,,,,,,,,,
2246,1765948,25500,1169194,132,5.0,1990,,,9/14/2006 0:00,PC220LC5,PC220,,LC,5,Large / Medium,"Hydraulic Excavator, Track - 21.0 to 24.0 Metric Tons",Ohio,TEX,Track Excavators,,EROPS,,,,,,,,,,,Auxiliary,,,,,,None or Unspecified,,,,Steel,32 inch,None or Unspecified,None or Unspecified,None or Unspecified,Triple,,,,,
2246,1765951,64000,1462938,132,1.0,1990,,,5/17/1994 0:00,PC220LC5,PC220,,LC,5,Large / Medium,"Hydraulic Excavator, Track - 21.0 to 24.0 Metric Tons",Kansas,TEX,Track Excavators,,EROPS,,,,,,,,,,,2 Valve,,,,,,None or Unspecified,,,,,,,,,,,,,,
2246,1765953,77500,1466381,132,6.0,1990,,,2/16/1996 0:00,PC220LC5,PC220,,LC,5,Large / Medium,"Hydraulic Excavator, Track - 21.0 to 24.0 Metric Tons",Florida,TEX,Track Excavators,,EROPS,,,,,,,,,,,Standard,,,,,,None or Unspecified,,,,Steel,None or Unspecified,None or Unspecified,None or Unspecified,None or Unspecified,Double,,,,,
2246,1765960,25000,1400962,132,12.0,1991,,,9/20/2007 0:00,PC220LC5,PC220,,LC,5,Large / Medium,"Hydraulic Excavator, Track - 21.0 to 24.0 Metric Tons",South Carolina,TEX,Track Excavators,,EROPS w AC,,,,,,,,,,,Standard,,,,,,None or Unspecified,,,,Steel,None or Unspecified,None or Unspecified,None or Unspecified,None or Unspecified,Double,,,,,
2246,1765978,45000,1056909,132,1.0,1990,,,6/26/1997 0:00,PC220LC5,PC220,,LC,5,Large / Medium,"Hydraulic Excavator, Track - 21.0 to 24.0 Metric Tons",Colorado,TEX,Track Excavators,,EROPS w AC,,,,,,,,,,,Auxiliary,,,,,,Manual,,,,Steel,None or Unspecified,None or Unspecified,Hydraulic,None or Unspecified,Double,,,,,
2246,1765989,80000,1478095,132,1.0,1990,,,5/12/1994 0:00,PC220LC5,PC220,,LC,5,Large / Medium,"Hydraulic Excavator, Track - 21.0 to 24.0 Metric Tons",Wisconsin,TEX,Track Excavators,,EROPS,,,,,,,,,,,Standard,,,,,,None or Unspecified,,,,Steel,None or Unspecified,"11' 0""",None or Unspecified,None or Unspecified,Double,,,,,
2246,1765992,14000,1178826,132,1.0,1000,,,4/16/2003 0:00,PC220LC5,PC220,,LC,5,Large / Medium,"Hydraulic Excavator, Track - 21.0 to 24.0 Metric Tons",Utah,TEX,Track Excavators,,OROPS,,,,,,,,,,,Auxiliary,,,,,,None or Unspecified,,,,,,,,,,,,,,
2246,1765995,15000,1060288,132,1.0,1991,,,9/19/2001 0:00,PC220LC5,PC220,,LC,5,Large / Medium,"Hydraulic Excavator, Track - 21.0 to 24.0 Metric Tons",Texas,TEX,Track Excavators,,EROPS w AC,,,,,,,,,,,2 Valve,,,,,,None or Unspecified,,,,,,,,,,,,,,
2246,1765997,25000,1341973,132,1.0,1991,,,4/30/2002 0:00,PC220LC5,PC220,,LC,5,Large / Medium,"Hydraulic Excavator, Track - 21.0 to 24.0 Metric Tons",Pennsylvania,TEX,Track Excavators,,EROPS,,,,,,,,,,,Auxiliary,,,,,,Manual,,,,Steel,None or Unspecified,"9' 6""",None or Unspecified,None or Unspecified,Double,,,,,
2246,1765999,13500,1341973,132,1.0,1991,,,11/14/2006 0:00,PC220LC5,PC220,,LC,5,Large / Medium,"Hydraulic Excavator, Track - 21.0 to 24.0 Metric Tons",Pennsylvania,TEX,Track Excavators,,EROPS,,,,,,,,,,,Auxiliary,,,,,,Manual,,,,Steel,None or Unspecified,"9' 6""",None or Unspecified,None or Unspecified,Double,,,,,
2246,1766000,58000,1310060,132,2.0,1991,,,3/20/1997 0:00,PC220LC5,PC220,,LC,5,Large / Medium,"Hydraulic Excavator, Track - 21.0 to 24.0 Metric Tons",New Jersey,TEX,Track Excavators,,EROPS,,,,,,,,,,,Standard,,,,,,None or Unspecified,,,,Steel,None or Unspecified,None or Unspecified,None or Unspecified,None or Unspecified,Double,,,,,
2246,1766002,82000,1412451,132,1.0,1990,,,5/12/1994 0:00,PC220LC5,PC220,,LC,5,Large / Medium,"Hydraulic Excavator, Track - 21.0 to 24.0 Metric Tons",Wisconsin,TEX,Track Excavators,,EROPS,,,,,,,,,,,2 Valve,,,,,,None or Unspecified,,,,,,,,,,,,,,
2246,1766003,26000,1474049,132,1.0,1990,,,12/2/1999 0:00,PC220LC5,PC220,,LC,5,Large / Medium,"Hydraulic Excavator, Track - 21.0 to 24.0 Metric Tons",Washington,TEX,Track Excavators,,EROPS w AC,,,,,,,,,,,2 Valve,,,,,,None or Unspecified,,,,,,,,,,,,,,
2246,1766004,22000,1474049,132,1.0,1000,,,9/26/2003 0:00,PC220LC5,PC220,,LC,5,Large / Medium,"Hydraulic Excavator, Track - 21.0 to 24.0 Metric Tons",California,TEX,Track Excavators,,EROPS w AC,,,,,,,,,,,2 Valve,,,,,,None or Unspecified,,,,,,,,,,,,,,
2246,1766021,55000,1511487,132,1.0,1991,,,9/10/1996 0:00,PC220LC5,PC220,,LC,5,Large / Medium,"Hydraulic Excavator, Track - 21.0 to 24.0 Metric Tons",Florida,TEX,Track Excavators,,EROPS,,,,,,,,,,,Standard,,,,,,None or Unspecified,,,,Steel,None or Unspecified,None or Unspecified,None or Unspecified,None or Unspecified,Double,,,,,
2246,1766022,42000,1511487,132,2.0,1990,,,12/7/1996 0:00,PC220LC5,PC220,,LC,5,Large / Medium,"Hydraulic Excavator, Track - 21.0 to 24.0 Metric Tons",Pennsylvania,TEX,Track Excavators,,EROPS,,,,,,,,,,,Standard,,,,,,None or Unspecified,,,,Steel,None or Unspecified,None or Unspecified,None or Unspecified,None or Unspecified,Double,,,,,
2246,1766025,14000,1087314,132,2.0,1990,,,4/5/2002 0:00,PC220LC5,PC220,,LC,5,Large / Medium,"Hydraulic Excavator, Track - 21.0 to 24.0 Metric Tons",North Carolina,TEX,Track Excavators,,EROPS w AC,,,,,,,,,,,2 Valve,,,,,,None or Unspecified,,,,,,,,,,,,,,
2246,1766029,59000,911203,132,6.0,1990,,,5/8/1997 0:00,PC220LC5,PC220,,LC,5,Large / Medium,"Hydraulic Excavator, Track - 21.0 to 24.0 Metric Tons",Tennessee,TEX,Track Excavators,,EROPS,,,,,,,,,,,Standard,,,,,,None or Unspecified,,,,Steel,None or Unspecified,None or Unspecified,None or Unspecified,None or Unspecified,Double,,,,,
2246,1766030,14500,1438281,132,8.0,1990,,,3/26/2003 0:00,PC220LC5,PC220,,LC,5,Large / Medium,"Hydraulic Excavator, Track - 21.0 to 24.0 Metric Tons",Mississippi,TEX,Track Excavators,,EROPS,,,,,,,,,,,Standard,,,,,,None or Unspecified,,,,Steel,None or Unspecified,None or Unspecified,None or Unspecified,None or Unspecified,Double,,,,,
2246,1766044,15000,1016311,132,1.0,1990,,,3/28/2003 0:00,PC220LC5,PC220,,LC,5,Large / Medium,"Hydraulic Excavator, Track - 21.0 to 24.0 Metric Tons",North Carolina,TEX,Track Excavators,,EROPS,,,,,,,,,,,2 Valve,,,,,,None or Unspecified,,,,,,,,,,,,,,
2246,1766047,13000,1164362,132,1.0,1990,,,3/7/2006 0:00,PC220LC5,PC220,,LC,5,Large / Medium,"Hydraulic Excavator, Track - 21.0 to 24.0 Metric Tons",California,TEX,Track Excavators,,EROPS,,,,,,,,,,,Standard,,,,,,None or Unspecified,,,,Steel,None or Unspecified,None or Unspecified,None or Unspecified,None or Unspecified,Double,,,,,
2246,1766059,18000,1445395,132,1.0,1991,,,12/16/2003 0:00,PC220LC5,PC220,,LC,5,Large / Medium,"Hydraulic Excavator, Track - 21.0 to 24.0 Metric Tons",Colorado,TEX,Track Excavators,,EROPS,,,,,,,,,,,Standard,,,,,,None or Unspecified,,,,Steel,None or Unspecified,None or Unspecified,None or Unspecified,None or Unspecified,Double,,,,,
2246,1766076,50000,1197552,132,12.0,1000,,,5/28/1997 0:00,PC220LC5,PC220,,LC,5,Large / Medium,"Hydraulic Excavator, Track - 21.0 to 24.0 Metric Tons",South Carolina,TEX,Track Excavators,,EROPS,,,,,,,,,,,Standard,,,,,,None or Unspecified,,,,Steel,None or Unspecified,None or Unspecified,None or Unspecified,None or Unspecified,Triple,,,,,
2246,1766077,15000,1504901,132,1.0,1992,,,4/6/2004 0:00,PC220LC5,PC220,,LC,5,Large / Medium,"Hydraulic Excavator, Track - 21.0 to 24.0 Metric Tons",Maryland,TEX,Track Excavators,,EROPS,,,,,,,,,,,2 Valve,,,,,,None or Unspecified,,,,,,,,,,,,,,
2246,1766080,16000,1227741,132,13.0,1991,,,6/3/2006 0:00,PC220LC5,PC220,,LC,5,Large / Medium,"Hydraulic Excavator, Track - 21.0 to 24.0 Metric Tons",Tennessee,TEX,Track Excavators,,EROPS w AC,,,,,,,,,,,2 Valve,,,,,,Manual,,,,,,,,,,,,,,
2246,1766082,66000,1227741,132,1.0,1991,,,4/24/1997 0:00,PC220LC5,PC220,,LC,5,Large / Medium,"Hydraulic Excavator, Track - 21.0 to 24.0 Metric Tons",Wyoming,TEX,Track Excavators,,EROPS w AC,,,,,,,,,,,2 Valve,,,,,,Manual,,,,,,,,,,,,,,
2246,1766086,17000,5995,132,7.0,1991,,,2/28/2002 0:00,PC220LC5,PC220,,LC,5,Large / Medium,"Hydraulic Excavator, Track - 21.0 to 24.0 Metric Tons",Alabama,TEX,Track Excavators,,EROPS,,,,,,,,,,,2 Valve,,,,,,None or Unspecified,,,,,,,,,,,,,,
2246,1766092,51000,1053937,132,6.0,1991,,,10/7/1997 0:00,PC220LC5,PC220,,LC,5,Large / Medium,"Hydraulic Excavator, Track - 21.0 to 24.0 Metric Tons",North Carolina,TEX,Track Excavators,,EROPS w AC,,,,,,,,,,,2 Valve,,,,,,Manual,,,,,,,,,,,,,,
2246,1766100,25000,1257212,132,1.0,1991,,,3/28/2001 0:00,PC220LC5,PC220,,LC,5,Large / Medium,"Hydraulic Excavator, Track - 21.0 to 24.0 Metric Tons",Washington,TEX,Track Excavators,,EROPS,,,,,,,,,,,Standard,,,,,,None or Unspecified,,,,Steel,None or Unspecified,None or Unspecified,Manual,None or Unspecified,Double,,,,,
2246,1766102,24000,801276,132,1.0,1990,,,12/5/2001 0:00,PC220LC5,PC220,,LC,5,Large / Medium,"Hydraulic Excavator, Track - 21.0 to 24.0 Metric Tons",Washington,TEX,Track Excavators,,OROPS,,,,,,,,,,,2 Valve,,,,,,None or Unspecified,,,,,,,,,,,,,,
2246,1766103,74000,801276,132,1.0,1990,,,12/6/1994 0:00,PC220LC5,PC220,,LC,5,Large / Medium,"Hydraulic Excavator, Track - 21.0 to 24.0 Metric Tons",Washington,TEX,Track Excavators,,OROPS,,,,,,,,,,,2 Valve,,,,,,None or Unspecified,,,,,,,,,,,,,,
2246,1766107,24000,285729,132,1.0,1000,,,12/20/2005 0:00,PC220LC5,PC220,,LC,5,Large / Medium,"Hydraulic Excavator, Track - 21.0 to 24.0 Metric Tons",Connecticut,TEX,Track Excavators,,EROPS w AC,,,,,,,,,,,3 Valve,,,,,,None or Unspecified,,,,,,,,,,,,,,
2246,1766118,70000,200854,132,1.0,1991,,,5/4/1995 0:00,PC220LC5,PC220,,LC,5,Large / Medium,"Hydraulic Excavator, Track - 21.0 to 24.0 Metric Tons",Texas,TEX,Track Excavators,,EROPS w AC,,,,,,,,,,,2 Valve,,,,,,None or Unspecified,,,,,,,,,,,,,,
2246,1766132,66000,1479610,132,6.0,1991,,,8/11/1995 0:00,PC220LC5,PC220,,LC,5,Large / Medium,"Hydraulic Excavator, Track - 21.0 to 24.0 Metric Tons",Texas,TEX,Track Excavators,,EROPS,,,,,,,,,,,Auxiliary,,,,,,None or Unspecified,,,,Steel,32 inch,None or Unspecified,None or Unspecified,None or Unspecified,Double,,,,,
2246,1766141,77500,1230391,132,6.0,1992,3100.0,Low,10/15/1996 0:00,PC220LC5,PC220,,LC,5,Large / Medium,"Hydraulic Excavator, Track - 21.0 to 24.0 Metric Tons",Maine,TEX,Track Excavators,,EROPS w AC,,,,,,,,,,,2 Valve,,,,,,None or Unspecified,,,,,,,,,,,,,,
2246,1766143,46000,1230533,132,6.0,1991,,,10/20/1998 0:00,PC220LC5,PC220,,LC,5,Large / Medium,"Hydraulic Excavator, Track - 21.0 to 24.0 Metric Tons",Maine,TEX,Track Excavators,,EROPS,,,,,,,,,,,Standard,,,,,,None or Unspecified,,,,Steel,None or Unspecified,None or Unspecified,None or Unspecified,None or Unspecified,Double,,,,,
2246,1766144,70000,1420774,132,1.0,1991,,,4/25/1996 0:00,PC220LC5,PC220,,LC,5,Large / Medium,"Hydraulic Excavator, Track - 21.0 to 24.0 Metric Tons",Indiana,TEX,Track Excavators,,OROPS,,,,,,,,,,,2 Valve,,,,,,None or Unspecified,,,,,,,,,,,,,,
2246,1766154,20500,1278934,132,5.0,1992,,,1/23/2004 0:00,PC220LC5,PC220,,LC,5,Large / Medium,"Hydraulic Excavator, Track - 21.0 to 24.0 Metric Tons",Connecticut,TEX,Track Excavators,,EROPS,,,,,,,,,,,Standard,,,,,,None or Unspecified,,,,Steel,36 inch,None or Unspecified,Manual,None or Unspecified,Triple,,,,,
2246,1766155,70000,1278934,132,1.0,1992,,,4/24/1997 0:00,PC220LC5,PC220,,LC,5,Large / Medium,"Hydraulic Excavator, Track - 21.0 to 24.0 Metric Tons",Wyoming,TEX,Track Excavators,,EROPS,,,,,,,,,,,Standard,,,,,,None or Unspecified,,,,Steel,36 inch,None or Unspecified,Manual,None or Unspecified,Triple,,,,,
2246,1766158,70000,1316814,132,23.0,1991,,,7/13/1996 0:00,PC220LC5,PC220,,LC,5,Large / Medium,"Hydraulic Excavator, Track - 21.0 to 24.0 Metric Tons",Florida,TEX,Track Excavators,,EROPS,,,,,,,,,,,Standard,,,,,,None or Unspecified,,,,Steel,None or Unspecified,"9' 7""",None or Unspecified,None or Unspecified,Double,,,,,
2246,1766162,43000,788834,132,2.0,1991,,,4/11/2002 0:00,PC220LC5,PC220,,LC,5,Large / Medium,"Hydraulic Excavator, Track - 21.0 to 24.0 Metric Tons",Ohio,TEX,Track Excavators,,EROPS w AC,,,,,,,,,,,2 Valve,,,,,,Manual,,,,,,,,,,,,,,
2246,1766163,47000,788834,132,10.0,1991,,,6/25/1998 0:00,PC220LC5,PC220,,LC,5,Large / Medium,"Hydraulic Excavator, Track - 21.0 to 24.0 Metric Tons",Louisiana,TEX,Track Excavators,,EROPS w AC,,,,,,,,,,,2 Valve,,,,,,Manual,,,,,,,,,,,,,,
2246,1766164,37000,1112054,132,16.0,1991,,,4/7/1999 0:00,PC220LC5,PC220,,LC,5,Large / Medium,"Hydraulic Excavator, Track - 21.0 to 24.0 Metric Tons",Ohio,TEX,Track Excavators,,EROPS w AC,,,,,,,,,,,Auxiliary,,,,,,Manual,,,,Steel,None or Unspecified,"9' 6""",None or Unspecified,None or Unspecified,Double,,,,,
2246,1766165,14000,1112054,132,1.0,1992,,,9/24/2002 0:00,PC220LC5,PC220,,LC,5,Large / Medium,"Hydraulic Excavator, Track - 21.0 to 24.0 Metric Tons",Ohio,TEX,Track Excavators,,EROPS w AC,,,,,,,,,,,Auxiliary,,,,,,Manual,,,,Steel,None or Unspecified,"9' 6""",None or Unspecified,None or Unspecified,Double,,,,,
2246,1766168,18000,1477644,132,1.0,1994,,,9/17/2003 0:00,PC220LC5,PC220,,LC,5,Large / Medium,"Hydraulic Excavator, Track - 21.0 to 24.0 Metric Tons",Texas,TEX,Track Excavators,,EROPS,,,,,,,,,,,Auxiliary,,,,,,None or Unspecified,,,,Steel,None or Unspecified,"11' 0""",None or Unspecified,None or Unspecified,Double,,,,,
2246,1766170,24000,1130821,132,1.0,1991,,,4/8/2004 0:00,PC220LC5,PC220,,LC,5,Large / Medium,"Hydraulic Excavator, Track - 21.0 to 24.0 Metric Tons",Georgia,TEX,Track Excavators,,EROPS,,,,,,,,,,,2 Valve,,,,,,None or Unspecified,,,,,,,,,,,,,,
2246,1766174,29000,372585,132,1.0,1000,,,2/17/2004 0:00,PC220LC5,PC220,,LC,5,Large / Medium,"Hydraulic Excavator, Track - 21.0 to 24.0 Metric Tons",Florida,TEX,Track Excavators,,OROPS,,,,,,,,,,,2 Valve,,,,,,Manual,,,,,,,,,,,,,,
2246,1766178,24000,1259176,132,1.0,1991,,,6/28/2002 0:00,PC220LC5,PC220,,LC,5,Large / Medium,"Hydraulic Excavator, Track - 21.0 to 24.0 Metric Tons",North Carolina,TEX,Track Excavators,,EROPS,,,,,,,,,,,Auxiliary,,,,,,Manual,,,,Steel,32 inch,None or Unspecified,None or Unspecified,None or Unspecified,Double,,,,,
2246,1766184,30000,1261543,132,2.0,1992,,,3/17/2001 0:00,PC220LC5,PC220,,LC,5,Large / Medium,"Hydraulic Excavator, Track - 21.0 to 24.0 Metric Tons",New York,TEX,Track Excavators,,EROPS,,,,,,,,,,,2 Valve,,,,,,Manual,,,,,,,,,,,,,,
2246,1766191,83000,1551874,132,2.0,1000,,,2/7/1996 0:00,PC220LC5,PC220,,LC,5,Large / Medium,"Hydraulic Excavator, Track - 21.0 to 24.0 Metric Tons",Florida,TEX,Track Excavators,,EROPS w AC,,,,,,,,,,,2 Valve,,,,,,None or Unspecified,,,,,,,,,,,,,,
2246,1766192,22500,1551874,132,1.0,1000,,,12/14/2005 0:00,PC220LC5,PC220,,LC,5,Large / Medium,"Hydraulic Excavator, Track - 21.0 to 24.0 Metric Tons",Maryland,TEX,Track Excavators,,EROPS w AC,,,,,,,,,,,2 Valve,,,,,,None or Unspecified,,,,,,,,,,,,,,
2246,1766193,79000,1334379,132,6.0,1992,,,4/7/1998 0:00,PC220LC5,PC220,,LC,5,Large / Medium,"Hydraulic Excavator, Track - 21.0 to 24.0 Metric Tons",Kentucky,TEX,Track Excavators,,EROPS,,,,,,,,,,,Standard,,,,,,None or Unspecified,,,,Steel,None or Unspecified,None or Unspecified,None or Unspecified,None or Unspecified,Double,,,,,
2246,1766205,67500,1556196,132,6.0,1991,,,10/15/1996 0:00,PC220LC5,PC220,,LC,5,Large / Medium,"Hydraulic Excavator, Track - 21.0 to 24.0 Metric Tons",Maine,TEX,Track Excavators,,EROPS,,,,,,,,,,,Standard,,,,,,None or Unspecified,,,,Steel,None or Unspecified,None or Unspecified,None or Unspecified,None or Unspecified,Double,,,,,
2246,1766209,22000,1354465,132,2.0,1991,,,8/17/2002 0:00,PC220LC5,PC220,,LC,5,Large / Medium,"Hydraulic Excavator, Track - 21.0 to 24.0 Metric Tons",New York,TEX,Track Excavators,,EROPS,,,,,,,,,,,Standard,,,,,,None or Unspecified,,,,Steel,None or Unspecified,None or Unspecified,None or Unspecified,None or Unspecified,Double,,,,,
2246,1766217,22000,1514823,132,1.0,1992,,,10/22/2003 0:00,PC220LC5,PC220,,LC,5,Large / Medium,"Hydraulic Excavator, Track - 21.0 to 24.0 Metric Tons",Maine,TEX,Track Excavators,,EROPS,,,,,,,,,,,Standard,,,,,,None or Unspecified,,,,Steel,None or Unspecified,None or Unspecified,None or Unspecified,None or Unspecified,Double,,,,,
2246,1766218,22500,1514823,132,1.0,1991,,,6/23/2003 0:00,PC220LC5,PC220,,LC,5,Large / Medium,"Hydraulic Excavator, Track - 21.0 to 24.0 Metric Tons",Missouri,TEX,Track Excavators,,EROPS,,,,,,,,,,,Standard,,,,,,None or Unspecified,,,,Steel,None or Unspecified,None or Unspecified,None or Unspecified,None or Unspecified,Double,,,,,
2246,1766225,59000,1291866,132,6.0,1992,,,4/7/1998 0:00,PC220LC5,PC220,,LC,5,Large / Medium,"Hydraulic Excavator, Track - 21.0 to 24.0 Metric Tons",Kentucky,TEX,Track Excavators,,EROPS,,,,,,,,,,,Standard,,,,,,None or Unspecified,,,,Steel,None or Unspecified,None or Unspecified,None or Unspecified,None or Unspecified,Double,,,,,
2246,1766242,17000,51966,132,8.0,1992,,,11/20/2002 0:00,PC220LC5,PC220,,LC,5,Large / Medium,"Hydraulic Excavator, Track - 21.0 to 24.0 Metric Tons",Mississippi,TEX,Track Excavators,,EROPS w AC,,,,,,,,,,,Standard,,,,,,None or Unspecified,,,,,,,,,,,,,,
2246,1766243,19500,51966,132,7.0,1992,,,12/6/2002 0:00,PC220LC5,PC220,,LC,5,Large / Medium,"Hydraulic Excavator, Track - 21.0 to 24.0 Metric Tons",Alabama,TEX,Track Excavators,,EROPS w AC,,,,,,,,,,,Standard,,,,,,None or Unspecified,,,,,,,,,,,,,,
2246,1766264,26000,1047440,132,1.0,1994,,,2/19/2002 0:00,PC220LC5,PC220,,LC,5,Large / Medium,"Hydraulic Excavator, Track - 21.0 to 24.0 Metric Tons",Florida,TEX,Track Excavators,,EROPS,,,,,,,,,,,2 Valve,,,,,,Manual,,,,,,,,,,,,,,
2246,1766271,28000,1295644,132,1.0,1992,,,3/14/2000 0:00,PC220LC5,PC220,,LC,5,Large / Medium,"Hydraulic Excavator, Track - 21.0 to 24.0 Metric Tons",Texas,TEX,Track Excavators,,EROPS w AC,,,,,,,,,,,Auxiliary,,,,,,None or Unspecified,,,,,,,,,,,,,,
2246,1766273,75000,1294495,132,1.0,1992,,,10/9/1997 0:00,PC220LC5,PC220,,LC,5,Large / Medium,"Hydraulic Excavator, Track - 21.0 to 24.0 Metric Tons",Colorado,TEX,Track Excavators,,EROPS,,,,,,,,,,,Standard,,,,,,None or Unspecified,,,,Steel,None or Unspecified,None or Unspecified,None or Unspecified,None or Unspecified,Double,,,,,
2246,1766275,39000,1266146,132,2.0,1992,,,3/23/2006 0:00,PC220LC5,PC220,,LC,5,Large / Medium,"Hydraulic Excavator, Track - 21.0 to 24.0 Metric Tons",New Jersey,TEX,Track Excavators,,EROPS w AC,,,,,,,,,,,2 Valve,,,,,,Manual,,,,,,,,,,,,,,
2246,1766277,30000,1266146,132,4.0,1992,,,5/18/2006 0:00,PC220LC5,PC220,,LC,5,Large / Medium,"Hydraulic Excavator, Track - 21.0 to 24.0 Metric Tons",New Hampshire,TEX,Track Excavators,,EROPS w AC,,,,,,,,,,,2 Valve,,,,,,Manual,,,,,,,,,,,,,,
2246,1766279,21000,1497054,132,1.0,1992,,,11/18/2004 0:00,PC220LC5,PC220,,LC,5,Large / Medium,"Hydraulic Excavator, Track - 21.0 to 24.0 Metric Tons",Georgia,TEX,Track Excavators,,OROPS,,,,,,,,,,,2 Valve,,,,,,None or Unspecified,,,,,,,,,,,,,,
2246,1766295,42000,1264215,132,1.0,1992,,,12/18/2000 0:00,PC220LC5,PC220,,LC,5,Large / Medium,"Hydraulic Excavator, Track - 21.0 to 24.0 Metric Tons",Maryland,TEX,Track Excavators,,EROPS,,,,,,,,,,,Auxiliary,,,,,,None or Unspecified,,,,Steel,None or Unspecified,None or Unspecified,None or Unspecified,None or Unspecified,Double,,,,,
2246,1766300,30000,1294532,132,22.0,1992,,,6/27/2003 0:00,PC220LC5,PC220,,LC,5,Large / Medium,"Hydraulic Excavator, Track - 21.0 to 24.0 Metric Tons",Minnesota,TEX,Track Excavators,,EROPS,,,,,,,,,,,Standard,,,,,,None or Unspecified,,,,Steel,32 inch,None or Unspecified,None or Unspecified,None or Unspecified,Double,,,,,
2246,1766313,26000,1011848,132,1.0,1991,,,10/12/2000 0:00,PC220LC5,PC220,,LC,5,Large / Medium,"Hydraulic Excavator, Track - 21.0 to 24.0 Metric Tons",North Carolina,TEX,Track Excavators,,EROPS,,,,,,,,,,,Standard,,,,,,None or Unspecified,,,,Steel,None or Unspecified,None or Unspecified,None or Unspecified,None or Unspecified,Double,,,,,
2246,1766315,45000,1441777,132,6.0,1992,,,4/16/1998 0:00,PC220LC5,PC220,,LC,5,Large / Medium,"Hydraulic Excavator, Track - 21.0 to 24.0 Metric Tons",North Carolina,TEX,Track Excavators,,OROPS,,,,,,,,,,,2 Valve,,,,,,None or Unspecified,,,,,,,,,,,,,,
2246,1766321,16000,1408456,132,2.0,1992,,,4/5/2002 0:00,PC220LC5,PC220,,LC,5,Large / Medium,"Hydraulic Excavator, Track - 21.0 to 24.0 Metric Tons",North Carolina,TEX,Track Excavators,,EROPS,,,,,,,,,,,Standard,,,,,,None or Unspecified,,,,Steel,None or Unspecified,None or Unspecified,Manual,None or Unspecified,Double,,,,,
2246,1766322,22500,1408456,132,1.0,1000,,,12/8/2004 0:00,PC220LC5,PC220,,LC,5,Large / Medium,"Hydraulic Excavator, Track - 21.0 to 24.0 Metric Tons",North Carolina,TEX,Track Excavators,,EROPS,,,,,,,,,,,Standard,,,,,,None or Unspecified,,,,Steel,None or Unspecified,None or Unspecified,Manual,None or Unspecified,Double,,,,,
2246,1766353,55000,854467,132,4.0,1992,,,2/5/1998 0:00,PC220LC5,PC220,,LC,5,Large / Medium,"Hydraulic Excavator, Track - 21.0 to 24.0 Metric Tons",Florida,TEX,Track Excavators,,EROPS,,,,,,,,,,,Standard,,,,,,None or Unspecified,,,,Steel,None or Unspecified,None or Unspecified,None or Unspecified,None or Unspecified,Double,,,,,
2246,1766356,27000,520329,132,2.0,1992,,,10/27/2001 0:00,PC220LC5,PC220,,LC,5,Large / Medium,"Hydraulic Excavator, Track - 21.0 to 24.0 Metric Tons",Florida,TEX,Track Excavators,,EROPS,,,,,,,,,,,Standard,,,,,,None or Unspecified,,,,Steel,None or Unspecified,None or Unspecified,None or Unspecified,None or Unspecified,Double,,,,,
2246,1766365,28000,1381781,132,1.0,1992,,,3/14/2000 0:00,PC220LC5,PC220,,LC,5,Large / Medium,"Hydraulic Excavator, Track - 21.0 to 24.0 Metric Tons",Texas,TEX,Track Excavators,,EROPS w AC,,,,,,,,,,,2 Valve,,,,,,None or Unspecified,,,,,,,,,,,,,,
2246,1766366,64000,1381781,132,1.0,1992,,,6/17/1997 0:00,PC220LC5,PC220,,LC,5,Large / Medium,"Hydraulic Excavator, Track - 21.0 to 24.0 Metric Tons",Texas,TEX,Track Excavators,,EROPS w AC,,,,,,,,,,,2 Valve,,,,,,None or Unspecified,,,,,,,,,,,,,,
2246,1766367,12500,1500856,132,2.0,1992,,,11/15/2002 0:00,PC220LC5,PC220,,LC,5,Large / Medium,"Hydraulic Excavator, Track - 21.0 to 24.0 Metric Tons",Georgia,TEX,Track Excavators,,EROPS,,,,,,,,,,,Standard,,,,,,None or Unspecified,,,,Steel,None or Unspecified,None or Unspecified,None or Unspecified,None or Unspecified,Double,,,,,
2246,1766370,27000,1427672,132,1.0,1992,,,4/11/2001 0:00,PC220LC5,PC220,,LC,5,Large / Medium,"Hydraulic Excavator, Track - 21.0 to 24.0 Metric Tons",Ohio,TEX,Track Excavators,,EROPS,,,,,,,,,,,Auxiliary,,,,,,None or Unspecified,,,,Steel,None or Unspecified,"10' 6""",None or Unspecified,None or Unspecified,Double,,,,,
2246,1766371,42500,1427672,132,1.0,1992,,,12/5/1997 0:00,PC220LC5,PC220,,LC,5,Large / Medium,"Hydraulic Excavator, Track - 21.0 to 24.0 Metric Tons",Wyoming,TEX,Track Excavators,,EROPS,,,,,,,,,,,Auxiliary,,,,,,None or Unspecified,,,,Steel,None or Unspecified,"10' 6""",None or Unspecified,None or Unspecified,Double,,,,,
2246,1766374,12000,1086028,132,2.0,1993,,,3/1/2002 0:00,PC220LC5,PC220,,LC,5,Large / Medium,"Hydraulic Excavator, Track - 21.0 to 24.0 Metric Tons",Texas,TEX,Track Excavators,,EROPS,,,,,,,,,,,Standard,,,,,,None or Unspecified,,,,Steel,None or Unspecified,"10' 6""",None or Unspecified,None or Unspecified,Double,,,,,
2246,1766377,19500,1507569,132,10.0,1993,,,9/6/2006 0:00,PC220LC5,PC220,,LC,5,Large / Medium,"Hydraulic Excavator, Track - 21.0 to 24.0 Metric Tons",Louisiana,TEX,Track Excavators,,EROPS,,,,,,,,,,,Standard,,,,,,None or Unspecified,,,,Steel,32 inch,None or Unspecified,None or Unspecified,None or Unspecified,Triple,,,,,
2246,1766381,34000,1443091,132,1.0,1992,,,5/13/1999 0:00,PC220LC5,PC220,,LC,5,Large / Medium,"Hydraulic Excavator, Track - 21.0 to 24.0 Metric Tons",Texas,TEX,Track Excavators,,EROPS,,,,,,,,,,,Auxiliary,,,,,,None or Unspecified,,,,Steel,None or Unspecified,"9' 6""",None or Unspecified,None or Unspecified,Double,,,,,
2246,1766405,42000,1346051,132,2.0,1992,,,3/23/2006 0:00,PC220LC5,PC220,,LC,5,Large / Medium,"Hydraulic Excavator, Track - 21.0 to 24.0 Metric Tons",New Jersey,TEX,Track Excavators,,EROPS,,,,,,,,,,,2 Valve,,,,,,Manual,,,,,,,,,,,,,,
2246,1766433,28000,1385224,132,1.0,1993,,,5/9/2006 0:00,PC220LC5,PC220,,LC,5,Large / Medium,"Hydraulic Excavator, Track - 21.0 to 24.0 Metric Tons",Texas,TEX,Track Excavators,,EROPS,,,,,,,,,,,Standard,,,,,,None or Unspecified,,,,Steel,None or Unspecified,None or Unspecified,None or Unspecified,None or Unspecified,Double,,,,,
2246,1766453,22500,1389686,132,7.0,1993,,,9/15/2000 0:00,PC220LC5,PC220,,LC,5,Large / Medium,"Hydraulic Excavator, Track - 21.0 to 24.0 Metric Tons",Alabama,TEX,Track Excavators,,EROPS w AC,,,,,,,,,,,2 Valve,,,,,,None or Unspecified,,,,,,,,,,,,,,
2246,1766454,23000,1389686,132,1.0,1993,,,10/4/2000 0:00,PC220LC5,PC220,,LC,5,Large / Medium,"Hydraulic Excavator, Track - 21.0 to 24.0 Metric Tons",Georgia,TEX,Track Excavators,,EROPS w AC,,,,,,,,,,,2 Valve,,,,,,None or Unspecified,,,,,,,,,,,,,,
2246,1766477,23000,1430187,132,1.0,1993,,,6/12/2002 0:00,PC220LC5,PC220,,LC,5,Large / Medium,"Hydraulic Excavator, Track - 21.0 to 24.0 Metric Tons",Texas,TEX,Track Excavators,,EROPS,,,,,,,,,,,Standard,,,,,,None or Unspecified,,,,Steel,None or Unspecified,"10' 6""",None or Unspecified,None or Unspecified,Triple,,,,,
2246,1766482,67500,1462357,132,6.0,1993,,,10/20/1998 0:00,PC220LC5,PC220,,LC,5,Large / Medium,"Hydraulic Excavator, Track - 21.0 to 24.0 Metric Tons",Maine,TEX,Track Excavators,,EROPS,,,,,,,,,,,Standard,,,,,,None or Unspecified,,,,Steel,32 inch,None or Unspecified,None or Unspecified,None or Unspecified,Double,,,,,
2246,1766487,26000,1275958,132,1.0,1993,,,3/30/2007 0:00,PC220LC5,PC220,,LC,5,Large / Medium,"Hydraulic Excavator, Track - 21.0 to 24.0 Metric Tons",North Carolina,TEX,Track Excavators,,EROPS,,,,,,,,,,,Standard,,,,,,None or Unspecified,,,,Steel,None or Unspecified,None or Unspecified,None or Unspecified,None or Unspecified,Double,,,,,
2246,1766496,60000,1098454,132,4.0,1993,,,2/6/1997 0:00,PC220LC5,PC220,,LC,5,Large / Medium,"Hydraulic Excavator, Track - 21.0 to 24.0 Metric Tons",Florida,TEX,Track Excavators,,EROPS,,,,,,,,,,,Standard,,,,,,None or Unspecified,,,,Steel,None or Unspecified,None or Unspecified,None or Unspecified,None or Unspecified,Double,,,,,
2246,1766497,47000,1312294,132,1.0,1992,,,6/22/2001 0:00,PC220LC5,PC220,,LC,5,Large / Medium,"Hydraulic Excavator, Track - 21.0 to 24.0 Metric Tons",Illinois,TEX,Track Excavators,,OROPS,,,,,,,,,,,Standard,,,,,,None or Unspecified,,,,,,,,,,,,,,
2246,1766499,68000,1312294,132,6.0,1993,,,12/6/1996 0:00,PC220LC5,PC220,,LC,5,Large / Medium,"Hydraulic Excavator, Track - 21.0 to 24.0 Metric Tons",Texas,TEX,Track Excavators,,OROPS,,,,,,,,,,,Standard,,,,,,None or Unspecified,,,,,,,,,,,,,,
2246,1766505,41000,1029857,132,1.0,1993,,,10/13/1998 0:00,PC220LC5,PC220,,LC,5,Large / Medium,"Hydraulic Excavator, Track - 21.0 to 24.0 Metric Tons",Missouri,TEX,Track Excavators,,EROPS,,,,,,,,,,,Standard,,,,,,None or Unspecified,,,,Steel,None or Unspecified,None or Unspecified,None or Unspecified,None or Unspecified,Double,,,,,
2246,1766510,27000,1325018,132,1.0,1993,,,10/8/2004 0:00,PC220LC5,PC220,,LC,5,Large / Medium,"Hydraulic Excavator, Track - 21.0 to 24.0 Metric Tons",Missouri,TEX,Track Excavators,,EROPS,,,,,,,,,,,Auxiliary,,,,,,Manual,,,,Steel,None or Unspecified,"11' 0""",None or Unspecified,None or Unspecified,Double,,,,,
2246,1766511,30000,1325018,132,1.0,1000,,,6/8/2005 0:00,PC220LC5,PC220,,LC,5,Large / Medium,"Hydraulic Excavator, Track - 21.0 to 24.0 Metric Tons",Missouri,TEX,Track Excavators,,EROPS,,,,,,,,,,,Auxiliary,,,,,,Manual,,,,Steel,None or Unspecified,"11' 0""",None or Unspecified,None or Unspecified,Double,,,,,
2246,1766512,19500,1196949,132,14.0,1993,,,9/18/2009 0:00,PC220LC5,PC220,,LC,5,Large / Medium,"Hydraulic Excavator, Track - 21.0 to 24.0 Metric Tons",Indiana,TEX,Track Excavators,,EROPS,,,,,,,,,,,Standard,,,,,,None or Unspecified,,,,Steel,32 inch,None or Unspecified,None or Unspecified,None or Unspecified,Double,,,,,
2246,1766520,22500,259016,132,1.0,1994,,,2/21/2001 0:00,PC220LC5,PC220,,LC,5,Large / Medium,"Hydraulic Excavator, Track - 21.0 to 24.0 Metric Tons",Florida,TEX,Track Excavators,,EROPS,,,,,,,,,,,Standard,,,,,,None or Unspecified,,,,Steel,None or Unspecified,"9' 6""",None or Unspecified,None or Unspecified,Double,,,,,
2246,1766537,84500,1250532,132,15.0,1993,3825.0,High,10/5/1995 0:00,PC220LC5,PC220,,LC,5,Large / Medium,"Hydraulic Excavator, Track - 21.0 to 24.0 Metric Tons",Pennsylvania,TEX,Track Excavators,,EROPS,,,,,,,,,,,Standard,,,,,,None or Unspecified,,,,Steel,None or Unspecified,None or Unspecified,None or Unspecified,None or Unspecified,Triple,,,,,
2246,1766538,87000,1354916,132,15.0,1993,4000.0,High,10/5/1995 0:00,PC220LC5,PC220,,LC,5,Large / Medium,"Hydraulic Excavator, Track - 21.0 to 24.0 Metric Tons",Pennsylvania,TEX,Track Excavators,,EROPS,,,,,,,,,,,Standard,,,,,,None or Unspecified,,,,Steel,None or Unspecified,None or Unspecified,None or Unspecified,None or Unspecified,Triple,,,,,
2246,1766546,15000,1527910,132,8.0,1993,,,9/22/2005 0:00,PC220LC5,PC220,,LC,5,Large / Medium,"Hydraulic Excavator, Track - 21.0 to 24.0 Metric Tons",Mississippi,TEX,Track Excavators,,EROPS,,,,,,,,,,,Standard,,,,,,None or Unspecified,,,,Steel,None or Unspecified,None or Unspecified,None or Unspecified,None or Unspecified,Double,,,,,
2246,1766547,15000,1527910,132,8.0,1993,,,9/14/2005 0:00,PC220LC5,PC220,,LC,5,Large / Medium,"Hydraulic Excavator, Track - 21.0 to 24.0 Metric Tons",Mississippi,TEX,Track Excavators,,EROPS,,,,,,,,,,,Standard,,,,,,None or Unspecified,,,,Steel,None or Unspecified,None or Unspecified,None or Unspecified,None or Unspecified,Double,,,,,
2246,1766554,52500,1435286,132,10.0,1993,,,6/25/1998 0:00,PC220LC5,PC220,,LC,5,Large / Medium,"Hydraulic Excavator, Track - 21.0 to 24.0 Metric Tons",Louisiana,TEX,Track Excavators,,EROPS w AC,,,,,,,,,,,2 Valve,,,,,,None or Unspecified,,,,,,,,,,,,,,
2246,1766560,63000,1066129,132,1.0,1993,,,12/12/1996 0:00,PC220LC5,PC220,,LC,5,Large / Medium,"Hydraulic Excavator, Track - 21.0 to 24.0 Metric Tons",Pennsylvania,TEX,Track Excavators,,EROPS,,,,,,,,,,,Auxiliary,,,,,,Hydraulic,,,,Steel,24 inch,None or Unspecified,None or Unspecified,None or Unspecified,Double,,,,,
2246,1766561,22000,880423,132,1.0,1993,,,9/29/2004 0:00,PC220LC5,PC220,,LC,5,Large / Medium,"Hydraulic Excavator, Track - 21.0 to 24.0 Metric Tons",Washington,TEX,Track Excavators,,EROPS w AC,,,,,,,,,,,2 Valve,,,,,,,,,,,36 inch,,,,,,,,,
2246,1766565,42000,1462793,132,1.0,1992,,,12/2/1998 0:00,PC220LC5,PC220,,LC,5,Large / Medium,"Hydraulic Excavator, Track - 21.0 to 24.0 Metric Tons",Texas,TEX,Track Excavators,,EROPS,,,,,,,,,,,Standard,,,,,,None or Unspecified,,,,Steel,None or Unspecified,None or Unspecified,Manual,None or Unspecified,Double,,,,,
2246,1766572,60000,1376191,132,1.0,1993,,,10/9/1997 0:00,PC220LC5,PC220,,LC,5,Large / Medium,"Hydraulic Excavator, Track - 21.0 to 24.0 Metric Tons",Colorado,TEX,Track Excavators,,EROPS,,,,,,,,,,,Standard,,,,,,None or Unspecified,,,,Steel,None or Unspecified,"11' 0""",None or Unspecified,None or Unspecified,Double,,,,,
2246,1766573,92500,1405160,132,6.0,1993,,,9/28/1995 0:00,PC220LC5,PC220,,LC,5,Large / Medium,"Hydraulic Excavator, Track - 21.0 to 24.0 Metric Tons",South Dakota,TEX,Track Excavators,,EROPS w AC,,,,,,,,,,,2 Valve,,,,,,None or Unspecified,,,,,,,,,,,,,,
2246,1766584,17000,1274377,132,1.0,1993,,,9/19/2002 0:00,PC220LC5,PC220,,LC,5,Large / Medium,"Hydraulic Excavator, Track - 21.0 to 24.0 Metric Tons",Georgia,TEX,Track Excavators,,EROPS,,,,,,,,,,,Standard,,,,,,None or Unspecified,,,,Steel,None or Unspecified,"10' 6""",None or Unspecified,None or Unspecified,Triple,,,,,
2246,1766585,22000,1311460,132,8.0,1993,,,9/22/2004 0:00,PC220LC5,PC220,,LC,5,Large / Medium,"Hydraulic Excavator, Track - 21.0 to 24.0 Metric Tons",Mississippi,TEX,Track Excavators,,EROPS,,,,,,,,,,,Standard,,,,,,Manual,,,,Steel,None or Unspecified,None or Unspecified,None or Unspecified,None or Unspecified,Double,,,,,
2246,1766587,25000,1544305,132,4.0,1993,,,2/11/2002 0:00,PC220LC5,PC220,,LC,5,Large / Medium,"Hydraulic Excavator, Track - 21.0 to 24.0 Metric Tons",Florida,TEX,Track Excavators,,EROPS,,,,,,,,,,,Standard,,,,,,None or Unspecified,,,,Steel,32 inch,None or Unspecified,None or Unspecified,None or Unspecified,Double,,,,,
2246,1766590,35000,1544305,132,12.0,1000,,,1/23/2002 0:00,PC220LC5,PC220,,LC,5,Large / Medium,"Hydraulic Excavator, Track - 21.0 to 24.0 Metric Tons",South Carolina,TEX,Track Excavators,,EROPS,,,,,,,,,,,Standard,,,,,,None or Unspecified,,,,Steel,32 inch,None or Unspecified,None or Unspecified,None or Unspecified,Double,,,,,
2246,1766596,26000,1111086,132,1.0,1994,,,2/28/2001 0:00,PC220LC5,PC220,,LC,5,Large / Medium,"Hydraulic Excavator, Track - 21.0 to 24.0 Metric Tons",Texas,TEX,Track Excavators,,EROPS,,,,,,,,,,,Standard,,,,,,None or Unspecified,,,,Steel,None or Unspecified,"11' 0""",None or Unspecified,None or Unspecified,Triple,,,,,
2246,1766599,30000,1161741,132,1.0,1993,,,3/27/2001 0:00,PC220LC5,PC220,,LC,5,Large / Medium,"Hydraulic Excavator, Track - 21.0 to 24.0 Metric Tons",North Carolina,TEX,Track Excavators,,OROPS,,,,,,,,,,,Standard,,,,,,None or Unspecified,,,,,,,,,,,,,,
2246,1766605,26000,1132598,132,1.0,1993,,,9/15/2006 0:00,PC220LC5,PC220,,LC,5,Large / Medium,"Hydraulic Excavator, Track - 21.0 to 24.0 Metric Tons",Missouri,TEX,Track Excavators,,EROPS,,,,,,,,,,,Standard,,,,,,Manual,,,,Steel,None or Unspecified,None or Unspecified,None or Unspecified,None or Unspecified,Double,,,,,
2246,1766606,32000,1132598,132,1.0,1993,,,3/24/2006 0:00,PC220LC5,PC220,,LC,5,Large / Medium,"Hydraulic Excavator, Track - 21.0 to 24.0 Metric Tons",Missouri,TEX,Track Excavators,,EROPS,,,,,,,,,,,Standard,,,,,,Manual,,,,Steel,None or Unspecified,None or Unspecified,None or Unspecified,None or Unspecified,Double,,,,,
2246,1766612,34000,623198,132,1.0,1993,,,3/12/2002 0:00,PC220LC5,PC220,,LC,5,Large / Medium,"Hydraulic Excavator, Track - 21.0 to 24.0 Metric Tons",California,TEX,Track Excavators,,EROPS w AC,,,,,,,,,,,2 Valve,,,,,,None or Unspecified,,,,,,,,,,,,,,
2246,1766615,58000,1517860,132,1.0,1993,,,3/30/1999 0:00,PC220LC5,PC220,,LC,5,Large / Medium,"Hydraulic Excavator, Track - 21.0 to 24.0 Metric Tons",Maryland,TEX,Track Excavators,,EROPS,,,,,,,,,,,Standard,,,,,,None or Unspecified,,,,Steel,None or Unspecified,"10' 2""",None or Unspecified,None or Unspecified,Double,,,,,
2246,1766616,90000,1160668,132,1.0,1993,,,4/24/1997 0:00,PC220LC5,PC220,,LC,5,Large / Medium,"Hydraulic Excavator, Track - 21.0 to 24.0 Metric Tons",Wyoming,TEX,Track Excavators,,EROPS,,,,,,,,,,,Standard,,,,,,None or Unspecified,,,,Steel,None or Unspecified,"9' 6""",None or Unspecified,None or Unspecified,Double,,,,,
2246,1766625,17000,1480202,132,1.0,1993,,,4/23/2003 0:00,PC220LC5,PC220,,LC,5,Large / Medium,"Hydraulic Excavator, Track - 21.0 to 24.0 Metric Tons",Ohio,TEX,Track Excavators,,EROPS,,,,,,,,,,,Auxiliary,,,,,,None or Unspecified,,,,Steel,28 inch,"10' 6""",None or Unspecified,None or Unspecified,Triple,,,,,
2246,1766639,35000,1515768,132,1.0,1993,,,3/21/2007 0:00,PC220LC5,PC220,,LC,5,Large / Medium,"Hydraulic Excavator, Track - 21.0 to 24.0 Metric Tons",Washington,TEX,Track Excavators,,EROPS,,,,,,,,,,,Standard,,,,,,Manual,,,,Steel,None or Unspecified,"11' 0""",Hydraulic,None or Unspecified,Double,,,,,
2246,1766656,79000,1342147,132,1.0,1993,,,2/20/1997 0:00,PC220LC5,PC220,,LC,5,Large / Medium,"Hydraulic Excavator, Track - 21.0 to 24.0 Metric Tons",Texas,TEX,Track Excavators,,EROPS,,,,,,,,,,,Standard,,,,,,None or Unspecified,,,,Steel,None or Unspecified,"10' 6""",None or Unspecified,None or Unspecified,Double,,,,,
2246,1766660,89000,1168478,132,1.0,1993,,,2/20/1997 0:00,PC220LC5,PC220,,LC,5,Large / Medium,"Hydraulic Excavator, Track - 21.0 to 24.0 Metric Tons",Texas,TEX,Track Excavators,,EROPS,,,,,,,,,,,Standard,,,,,,None or Unspecified,,,,Steel,None or Unspecified,None or Unspecified,None or Unspecified,None or Unspecified,Double,,,,,
2246,1766662,75000,1448897,132,6.0,1993,,,5/8/1997 0:00,PC220LC5,PC220,,LC,5,Large / Medium,"Hydraulic Excavator, Track - 21.0 to 24.0 Metric Tons",Tennessee,TEX,Track Excavators,,EROPS,,,,,,,,,,,Standard,,,,,,None or Unspecified,,,,Steel,None or Unspecified,None or Unspecified,None or Unspecified,None or Unspecified,Double,,,,,
2246,1766680,49500,1535669,132,2.0,1993,,,4/18/1998 0:00,PC220LC5,PC220,,LC,5,Large / Medium,"Hydraulic Excavator, Track - 21.0 to 24.0 Metric Tons",South Carolina,TEX,Track Excavators,,EROPS w AC,,,,,,,,,,,Standard,,,,,,None or Unspecified,,,,Steel,30 inch,None or Unspecified,Manual,None or Unspecified,Triple,,,,,
2246,1766682,20000,1184574,132,1.0,1993,,,12/13/2000 0:00,PC220LC5,PC220,,LC,5,Large / Medium,"Hydraulic Excavator, Track - 21.0 to 24.0 Metric Tons",Texas,TEX,Track Excavators,,EROPS,,,,,,,,,,,Standard,,,,,,Manual,,,,Steel,None or Unspecified,None or Unspecified,None or Unspecified,None or Unspecified,Double,,,,,
2246,1766686,26000,1534779,132,1.0,1993,,,4/25/2001 0:00,PC220LC5,PC220,,LC,5,Large / Medium,"Hydraulic Excavator, Track - 21.0 to 24.0 Metric Tons",New York,TEX,Track Excavators,,EROPS,,,,,,,,,,,Standard,,,,,,None or Unspecified,,,,Steel,None or Unspecified,None or Unspecified,None or Unspecified,None or Unspecified,Double,,,,,
2246,1766690,40000,1094135,132,2.0,1993,,,6/30/2001 0:00,PC220LC5,PC220,,LC,5,Large / Medium,"Hydraulic Excavator, Track - 21.0 to 24.0 Metric Tons",New York,TEX,Track Excavators,,EROPS w AC,,,,,,,,,,,Auxiliary,,,,,,Manual,,,,Steel,None or Unspecified,"9' 6""",None or Unspecified,None or Unspecified,Double,,,,,
2246,1766694,72000,1181136,132,4.0,1993,,,2/6/1997 0:00,PC220LC5,PC220,,LC,5,Large / Medium,"Hydraulic Excavator, Track - 21.0 to 24.0 Metric Tons",Florida,TEX,Track Excavators,,EROPS w AC,,,,,,,,,,,2 Valve,,,,,,None or Unspecified,,,,,,,,,,,,,,
2246,1766695,45000,1418907,132,1.0,1993,,,11/20/1997 0:00,PC220LC5,PC220,,LC,5,Large / Medium,"Hydraulic Excavator, Track - 21.0 to 24.0 Metric Tons",Georgia,TEX,Track Excavators,,EROPS,,,,,,,,,,,Standard,,,,,,None or Unspecified,,,,Steel,None or Unspecified,None or Unspecified,None or Unspecified,None or Unspecified,Double,,,,,
2246,1766709,25000,734594,132,1.0,1000,,,4/19/2006 0:00,PC220LC5,PC220,,LC,5,Large / Medium,"Hydraulic Excavator, Track - 21.0 to 24.0 Metric Tons",Wyoming,TEX,Track Excavators,,EROPS,,,,,,,,,,,Auxiliary,,,,,,Manual,,,,Steel,None or Unspecified,None or Unspecified,Manual,None or Unspecified,Triple,,,,,
2246,1766714,37000,1351721,132,1.0,1993,,,3/25/2004 0:00,PC220LC5,PC220,,LC,5,Large / Medium,"Hydraulic Excavator, Track - 21.0 to 24.0 Metric Tons",Colorado,TEX,Track Excavators,,EROPS,,,,,,,,,,,Standard,,,,,,None or Unspecified,,,,Steel,32 inch,"9' 6""",Manual,None or Unspecified,Triple,,,,,
2246,1766723,15000,1093166,132,11.0,1993,,,10/12/2000 0:00,PC220LC5,PC220,,LC,5,Large / Medium,"Hydraulic Excavator, Track - 21.0 to 24.0 Metric Tons",Mississippi,TEX,Track Excavators,,EROPS,,,,,,,,,,,Standard,,,,,,None or Unspecified,,,,Steel,None or Unspecified,None or Unspecified,Manual,None or Unspecified,Double,,,,,
2246,1766726,39000,1278492,132,9.0,1000,,,2/11/1998 0:00,PC220LC5,PC220,,LC,5,Large / Medium,"Hydraulic Excavator, Track - 21.0 to 24.0 Metric Tons",Florida,TEX,Track Excavators,,EROPS,,,,,,,,,,,Standard,,,,,,None or Unspecified,,,,Steel,None or Unspecified,None or Unspecified,None or Unspecified,None or Unspecified,Double,,,,,
2246,1766736,36500,1198751,132,2.0,1993,,,2/4/2002 0:00,PC220LC5,PC220,,LC,5,Large / Medium,"Hydraulic Excavator, Track - 21.0 to 24.0 Metric Tons",Florida,TEX,Track Excavators,,EROPS,,,,,,,,,,,Standard,,,,,,None or Unspecified,,,,Steel,None or Unspecified,None or Unspecified,None or Unspecified,None or Unspecified,Double,,,,,
2246,1766749,19000,1477523,132,8.0,1000,,,11/16/2005 0:00,PC220LC5,PC220,,LC,5,Large / Medium,"Hydraulic Excavator, Track - 21.0 to 24.0 Metric Tons",Mississippi,TEX,Track Excavators,,EROPS,,,,,,,,,,,Standard,,,,,,None or Unspecified,,,,Steel,34 inch,None or Unspecified,None or Unspecified,None or Unspecified,Double,,,,,
2246,1766750,19000,1477523,132,8.0,1000,,,9/22/2005 0:00,PC220LC5,PC220,,LC,5,Large / Medium,"Hydraulic Excavator, Track - 21.0 to 24.0 Metric Tons",Mississippi,TEX,Track Excavators,,EROPS,,,,,,,,,,,Standard,,,,,,None or Unspecified,,,,Steel,34 inch,None or Unspecified,None or Unspecified,None or Unspecified,Double,,,,,
2246,1766752,21500,1196415,132,3.0,1994,,,9/15/2003 0:00,PC220LC5,PC220,,LC,5,Large / Medium,"Hydraulic Excavator, Track - 21.0 to 24.0 Metric Tons",Unspecified,TEX,Track Excavators,,EROPS,,,,,,,,,,,Standard,,,,,,None or Unspecified,,,,Steel,28 inch,None or Unspecified,None or Unspecified,None or Unspecified,Double,,,,,
2246,1766771,57000,1398029,132,24.0,1993,,,9/29/1998 0:00,PC220LC5,PC220,,LC,5,Large / Medium,"Hydraulic Excavator, Track - 21.0 to 24.0 Metric Tons",Montana,TEX,Track Excavators,,EROPS,,,,,,,,,,,Standard,,,,,,None or Unspecified,,,,Steel,None or Unspecified,None or Unspecified,None or Unspecified,None or Unspecified,Triple,,,,,
2246,1766772,74000,1398029,132,1.0,1993,,,2/20/1997 0:00,PC220LC5,PC220,,LC,5,Large / Medium,"Hydraulic Excavator, Track - 21.0 to 24.0 Metric Tons",Texas,TEX,Track Excavators,,EROPS,,,,,,,,,,,Standard,,,,,,None or Unspecified,,,,Steel,None or Unspecified,None or Unspecified,None or Unspecified,None or Unspecified,Triple,,,,,
2246,1766778,26000,1301975,132,1.0,1000,,,5/25/2004 0:00,PC220LC5,PC220,,LC,5,Large / Medium,"Hydraulic Excavator, Track - 21.0 to 24.0 Metric Tons",New Mexico,TEX,Track Excavators,,EROPS,,,,,,,,,,,Auxiliary,,,,,,Manual,,,,Steel,None or Unspecified,None or Unspecified,None or Unspecified,None or Unspecified,Double,,,,,
2246,1766779,37500,1301975,132,1.0,1994,,,3/14/2000 0:00,PC220LC5,PC220,,LC,5,Large / Medium,"Hydraulic Excavator, Track - 21.0 to 24.0 Metric Tons",Texas,TEX,Track Excavators,,EROPS,,,,,,,,,,,Auxiliary,,,,,,Manual,,,,Steel,None or Unspecified,None or Unspecified,None or Unspecified,None or Unspecified,Double,,,,,
2246,1766789,23000,1539808,132,1.0,1000,,,4/5/2007 0:00,PC220LC5,PC220,,LC,5,Large / Medium,"Hydraulic Excavator, Track - 21.0 to 24.0 Metric Tons",Maryland,TEX,Track Excavators,,EROPS,,,,,,,,,,,Standard,,,,,,Manual,,,,Steel,None or Unspecified,"15' 9""",None or Unspecified,None or Unspecified,Double,,,,,
2246,1766790,25000,1308005,132,13.0,1998,,,2/4/2006 0:00,PC220LC5,PC220,,LC,5,Large / Medium,"Hydraulic Excavator, Track - 21.0 to 24.0 Metric Tons",Georgia,TEX,Track Excavators,,EROPS,,,,,,,,,,,Standard,,,,,,None or Unspecified,,,,Steel,None or Unspecified,None or Unspecified,None or Unspecified,None or Unspecified,Double,,,,,
2246,1766792,20000,1308005,132,13.0,1000,,,3/18/2006 0:00,PC220LC5,PC220,,LC,5,Large / Medium,"Hydraulic Excavator, Track - 21.0 to 24.0 Metric Tons",Tennessee,TEX,Track Excavators,,EROPS,,,,,,,,,,,Standard,,,,,,None or Unspecified,,,,Steel,None or Unspecified,None or Unspecified,None or Unspecified,None or Unspecified,Double,,,,,
2246,1766793,24000,1180454,132,1.0,1994,,,6/28/2003 0:00,PC220LC5,PC220,,LC,5,Large / Medium,"Hydraulic Excavator, Track - 21.0 to 24.0 Metric Tons",California,TEX,Track Excavators,,EROPS w AC,,,,,,,,,,,2 Valve,,,,,,None or Unspecified,,,,,,,,,,,,,,
2246,1766866,23000,1097757,132,7.0,1993,,,3/2/2000 0:00,PC220LC5,PC220,,LC,5,Large / Medium,"Hydraulic Excavator, Track - 21.0 to 24.0 Metric Tons",Alabama,TEX,Track Excavators,,EROPS,,,,,,,,,,,Standard,,,,,,None or Unspecified,,,,Steel,32 inch,"9' 6""",None or Unspecified,None or Unspecified,Triple,,,,,
2246,1767825,41000,1391792,132,2.0,1993,,,4/11/2002 0:00,PC220LC5,PC220,,LC,5,Large / Medium,"Hydraulic Excavator, Track - 21.0 to 24.0 Metric Tons",Ohio,TEX,Track Excavators,,EROPS w AC,,,,,,,,,,,Auxiliary,,,,,,None or Unspecified,,,,Steel,None or Unspecified,None or Unspecified,None or Unspecified,None or Unspecified,Double,,,,,
2246,1767998,44500,1300909,132,2.0,1994,,,10/3/1998 0:00,PC220LC5,PC220,,LC,5,Large / Medium,"Hydraulic Excavator, Track - 21.0 to 24.0 Metric Tons",Pennsylvania,TEX,Track Excavators,,EROPS,,,,,,,,,,,Standard,,,,,,None or Unspecified,,,,Steel,None or Unspecified,None or Unspecified,None or Unspecified,None or Unspecified,Double,,,,,
2246,1768928,60000,1462885,132,8.0,1996,,,8/25/2005 0:00,PC220LC5,PC220,,LC,5,Large / Medium,"Hydraulic Excavator, Track - 21.0 to 24.0 Metric Tons",Georgia,TEX,Track Excavators,,EROPS w AC,,,,,,,,,,,Standard,,,,,,None or Unspecified,,,,Steel,None or Unspecified,None or Unspecified,None or Unspecified,None or Unspecified,Double,,,,,
2246,1769518,90000,664506,132,20.0,1996,,,11/4/1998 0:00,PC220LC5,PC220,,LC,5,Large / Medium,"Hydraulic Excavator, Track - 21.0 to 24.0 Metric Tons",Arkansas,TEX,Track Excavators,,EROPS,,,,,,,,,,,Standard,,,,,,Manual,,,,Steel,32 inch,"9' 6""",None or Unspecified,None or Unspecified,Triple,,,,,
2246,1769556,39000,1552101,132,4.0,1998,,,2/12/2007 0:00,PC220LC5,PC220,,LC,5,Large / Medium,"Hydraulic Excavator, Track - 21.0 to 24.0 Metric Tons",Florida,TEX,Track Excavators,,EROPS w AC,,,,,,,,,,,Standard,,,,,,None or Unspecified,,,,Steel,None or Unspecified,None or Unspecified,None or Unspecified,None or Unspecified,Double,,,,,
2246,1769558,39000,1552101,132,4.0,1998,,,2/15/2007 0:00,PC220LC5,PC220,,LC,5,Large / Medium,"Hydraulic Excavator, Track - 21.0 to 24.0 Metric Tons",Florida,TEX,Track Excavators,,EROPS w AC,,,,,,,,,,,Standard,,,,,,None or Unspecified,,,,Steel,None or Unspecified,None or Unspecified,None or Unspecified,None or Unspecified,Double,,,,,
2246,2404355,25000,1443666,136,1.0,1000,0.0,,4/2/2008 0:00,PC220LC5,PC220,,LC,5,Large / Medium,"Hydraulic Excavator, Track - 21.0 to 24.0 Metric Tons",Maryland,TEX,Track Excavators,,EROPS,,,,,,,,,,,Auxiliary,,,,,,None or Unspecified,,,,Steel,None or Unspecified,"8' 6""",None or Unspecified,None or Unspecified,Double,,,,,
2246,2404367,27500,1355543,136,1.0,1000,0.0,,2/15/2010 0:00,PC220LC5,PC220,,LC,5,Large / Medium,"Hydraulic Excavator, Track - 21.0 to 24.0 Metric Tons",Florida,TEX,Track Excavators,,EROPS,,,,,,,,,,,Standard,,,,,,None or Unspecified,,,,Steel,None or Unspecified,None or Unspecified,None or Unspecified,None or Unspecified,Double,,,,,
2246,2404439,16000,1515709,136,1.0,1000,0.0,,7/21/2009 0:00,PC220LC5,PC220,,LC,5,Large / Medium,"Hydraulic Excavator, Track - 21.0 to 24.0 Metric Tons",California,TEX,Track Excavators,,EROPS,,,,,,,,,,,Standard,,,,,,Hydraulic,,,,Steel,None or Unspecified,None or Unspecified,None or Unspecified,None or Unspecified,Double,,,,,
2246,2411799,19500,1700910,136,,1993,0.0,,9/18/2009 0:00,PC220LC5,PC220,,LC,5,Large / Medium,"Hydraulic Excavator, Track - 21.0 to 24.0 Metric Tons",Indiana,TEX,Track Excavators,,EROPS,,,,,,,,,,,Standard,,,,,,None or Unspecified,,,,Steel,None or Unspecified,None or Unspecified,None or Unspecified,None or Unspecified,Double,,,,,
2246,2412809,17000,1466636,136,4.0,1989,0.0,,2/11/2008 0:00,PC220LC5,PC220,,LC,5,Large / Medium,"Hydraulic Excavator, Track - 21.0 to 24.0 Metric Tons",Florida,TEX,Track Excavators,,EROPS w AC,,,,,,,,,,,Standard,,,,,,None or Unspecified,,,,Steel,None or Unspecified,None or Unspecified,Manual,None or Unspecified,Double,,,,,
2246,2412810,12000,1420949,136,1.0,1989,0.0,,1/29/2009 0:00,PC220LC5,PC220,,LC,5,Large / Medium,"Hydraulic Excavator, Track - 21.0 to 24.0 Metric Tons",Florida,TEX,Track Excavators,,EROPS,,,,,,,,,,,Standard,,,,,,None or Unspecified,,,,Steel,None or Unspecified,"10' 6""",None or Unspecified,None or Unspecified,Double,,,,,
2246,2412811,15000,1420949,136,1.0,1989,0.0,,10/14/2009 0:00,PC220LC5,PC220,,LC,5,Large / Medium,"Hydraulic Excavator, Track - 21.0 to 24.0 Metric Tons",Florida,TEX,Track Excavators,,EROPS,,,,,,,,,,,Standard,,,,,,None or Unspecified,,,,Steel,None or Unspecified,"10' 6""",None or Unspecified,None or Unspecified,Double,,,,,
2246,2412814,18000,1420949,136,1.0,1000,0.0,,5/27/2009 0:00,PC220LC5,PC220,,LC,5,Large / Medium,"Hydraulic Excavator, Track - 21.0 to 24.0 Metric Tons",Florida,TEX,Track Excavators,,EROPS,,,,,,,,,,,Standard,,,,,,None or Unspecified,,,,Steel,None or Unspecified,"10' 6""",None or Unspecified,None or Unspecified,Double,,,,,
2246,2412817,17000,1396058,136,1.0,1000,0.0,,2/6/2009 0:00,PC220LC5,PC220,,LC,5,Large / Medium,"Hydraulic Excavator, Track - 21.0 to 24.0 Metric Tons",Nevada,TEX,Track Excavators,,EROPS,,,,,,,,,,,Standard,,,,,,None or Unspecified,,,,Steel,None or Unspecified,None or Unspecified,None or Unspecified,None or Unspecified,Double,,,,,
2246,2413462,8000,1417081,136,1.0,1000,0.0,,8/28/2007 0:00,PC220LC5,PC220,,LC,5,Large / Medium,"Hydraulic Excavator, Track - 21.0 to 24.0 Metric Tons",California,TEX,Track Excavators,,EROPS,,,,,,,,,,,2 Valve,,,,,,Manual,,,,,,,,,,,,,,
2246,2413500,20000,1226069,136,1.0,1000,0.0,,3/17/2008 0:00,PC220LC5,PC220,,LC,5,Large / Medium,"Hydraulic Excavator, Track - 21.0 to 24.0 Metric Tons",Illinois,TEX,Track Excavators,,EROPS,,,,,,,,,,,Auxiliary,,,,,,None or Unspecified,,,,Steel,None or Unspecified,None or Unspecified,None or Unspecified,None or Unspecified,Double,,,,,
2246,2413501,15000,1204114,136,,1000,0.0,,9/26/2007 0:00,PC220LC5,PC220,,LC,5,Large / Medium,"Hydraulic Excavator, Track - 21.0 to 24.0 Metric Tons",Texas,TEX,Track Excavators,,EROPS w AC,,,,,,,,,,,2 Valve,,,,,,None or Unspecified,,,,,,,,,,,,,,
2246,2413546,7500,1037653,136,1.0,1000,0.0,,12/4/2007 0:00,PC220LC5,PC220,,LC,5,Large / Medium,"Hydraulic Excavator, Track - 21.0 to 24.0 Metric Tons",California,TEX,Track Excavators,,EROPS,,,,,,,,,,,Auxiliary,,,,,,Manual,,,,Steel,None or Unspecified,"9' 10""",Manual,None or Unspecified,Double,,,,,
2246,2413591,22000,1102923,136,4.0,1994,9316.0,Medium,3/11/2009 0:00,PC220LC5,PC220,,LC,5,Large / Medium,"Hydraulic Excavator, Track - 21.0 to 24.0 Metric Tons",Nebraska,TEX,Track Excavators,,EROPS,,,,,,,,,,,2 Valve,,,,,,Manual,,,,,,,,,,,,,,
2246,2413592,30000,1329392,136,1.0,1000,0.0,,2/15/2010 0:00,PC220LC5,PC220,,LC,5,Large / Medium,"Hydraulic Excavator, Track - 21.0 to 24.0 Metric Tons",Florida,TEX,Track Excavators,,EROPS w AC,,,,,,,,,,,Standard,,,,,,None or Unspecified,,,,Steel,None or Unspecified,None or Unspecified,None or Unspecified,None or Unspecified,Double,,,,,
2246,2413618,29000,1766216,136,,1992,0.0,,6/22/2007 0:00,PC220LC5,PC220,,LC,5,Large / Medium,"Hydraulic Excavator, Track - 21.0 to 24.0 Metric Tons",Indiana,TEX,Track Excavators,,EROPS,,,,,,,,,,,Standard,,,,,,None or Unspecified,,,,Steel,None or Unspecified,None or Unspecified,None or Unspecified,None or Unspecified,Double,,,,,
2246,2413626,19000,1458731,136,1.0,1992,0.0,,9/24/2008 0:00,PC220LC5,PC220,,LC,5,Large / Medium,"Hydraulic Excavator, Track - 21.0 to 24.0 Metric Tons",Texas,TEX,Track Excavators,,EROPS,,,,,,,,,,,Standard,,,,,,None or Unspecified,,,,Steel,None or Unspecified,None or Unspecified,None or Unspecified,None or Unspecified,Double,,,,,
2246,2413661,18500,1218143,136,,1000,0.0,,3/26/2008 0:00,PC220LC5,PC220,,LC,5,Large / Medium,"Hydraulic Excavator, Track - 21.0 to 24.0 Metric Tons",Georgia,TEX,Track Excavators,,EROPS,,,,,,,,,,,Standard,,,,,,None or Unspecified,,,,Steel,None or Unspecified,None or Unspecified,Manual,None or Unspecified,Double,,,,,
2246,2413668,22000,1366667,136,99.0,1000,0.0,,6/7/2007 0:00,PC220LC5,PC220,,LC,5,Large / Medium,"Hydraulic Excavator, Track - 21.0 to 24.0 Metric Tons",Michigan,TEX,Track Excavators,,EROPS,,,,,,,,,,,Auxiliary,,,,,,None or Unspecified,,,,Steel,None or Unspecified,None or Unspecified,None or Unspecified,None or Unspecified,Triple,,,,,
2246,2413675,19000,1150393,136,1.0,1992,0.0,,9/21/2007 0:00,PC220LC5,PC220,,LC,5,Large / Medium,"Hydraulic Excavator, Track - 21.0 to 24.0 Metric Tons",Indiana,TEX,Track Excavators,,EROPS,,,,,,,,,,,Standard,,,,,,None or Unspecified,,,,Steel,None or Unspecified,"9' 8""",None or Unspecified,None or Unspecified,Double,,,,,
2246,2413727,20000,1321024,136,1.0,1000,0.0,,12/10/2009 0:00,PC220LC5,PC220,,LC,5,Large / Medium,"Hydraulic Excavator, Track - 21.0 to 24.0 Metric Tons",Washington,TEX,Track Excavators,,EROPS w AC,,,,,,,,,,,Auxiliary,,,,,,Hydraulic,,,,Steel,None or Unspecified,None or Unspecified,Hydraulic,None or Unspecified,Double,,,,,
2246,2413731,14500,1754495,136,,1992,0.0,,9/12/2007 0:00,PC220LC5,PC220,,LC,5,Large / Medium,"Hydraulic Excavator, Track - 21.0 to 24.0 Metric Tons",Oklahoma,TEX,Track Excavators,,EROPS w AC,,,,,,,,,,,Standard,,,,,,None or Unspecified,,,,Steel,None or Unspecified,None or Unspecified,None or Unspecified,None or Unspecified,Double,,,,,
2246,2413743,15000,1528796,136,99.0,1993,934400.0,High,3/26/2009 0:00,PC220LC5,PC220,,LC,5,Large / Medium,"Hydraulic Excavator, Track - 21.0 to 24.0 Metric Tons",Minnesota,TEX,Track Excavators,,EROPS,,,,,,,,,,,Standard,,,,,,None or Unspecified,,,,Steel,32 inch,None or Unspecified,None or Unspecified,None or Unspecified,Double,,,,,
2246,2413748,25000,1408640,136,1.0,1993,0.0,,6/25/2008 0:00,PC220LC5,PC220,,LC,5,Large / Medium,"Hydraulic Excavator, Track - 21.0 to 24.0 Metric Tons",Maryland,TEX,Track Excavators,,OROPS,,,,,,,,,,,2 Valve,,,,,,None or Unspecified,,,,,,,,,,,,,,
2246,2413756,15000,1441323,136,1.0,1000,0.0,,6/30/2009 0:00,PC220LC5,PC220,,LC,5,Large / Medium,"Hydraulic Excavator, Track - 21.0 to 24.0 Metric Tons",North Carolina,TEX,Track Excavators,,EROPS,,,,,,,,,,,Standard,,,,,,None or Unspecified,,,,Steel,None or Unspecified,None or Unspecified,Hydraulic,None or Unspecified,Double,,,,,
2246,2694533,29000,1326751,149,1.0,1990,0.0,,6/7/2011 0:00,PC220LC5,PC220,,LC,5,Large / Medium,"Hydraulic Excavator, Track - 21.0 to 24.0 Metric Tons",Maryland,TEX,Track Excavators,,EROPS,,,,,,,,,,,Standard,,,,,,None or Unspecified,,,,Steel,None or Unspecified,None or Unspecified,None or Unspecified,None or Unspecified,Double,,,,,
2246,2694534,29000,1173965,149,1.0,1990,10997.0,Medium,5/26/2011 0:00,PC220LC5,PC220,,LC,5,Large / Medium,"Hydraulic Excavator, Track - 21.0 to 24.0 Metric Tons",Illinois,TEX,Track Excavators,,EROPS,,,,,,,,,,,Standard,,,,,,None or Unspecified,,,,Steel,None or Unspecified,"10' 6""",None or Unspecified,None or Unspecified,Double,,,,,
2246,2699648,26500,1259176,149,27.0,1992,6301.0,Low,4/28/2011 0:00,PC220LC5,PC220,,LC,5,Large / Medium,"Hydraulic Excavator, Track - 21.0 to 24.0 Metric Tons",North Carolina,TEX,Track Excavators,,EROPS,,,,,,,,,,,Auxiliary,,,,,,Manual,,,,Steel,32 inch,None or Unspecified,None or Unspecified,None or Unspecified,Double,,,,,
2246,4356686,31000,1808518,172,1.0,1993,14081.0,Medium,9/20/2011 0:00,PC220LC5,PC220,,LC,5,Large / Medium,"Hydraulic Excavator, Track - 21.0 to 24.0 Metric Tons",Washington,TEX,Track Excavators,,EROPS w AC,,,,,,,,,,,2 Valve,,,,,,,,,,,None or Unspecified,,,,,,,,,
2246,6302750,31000,1893541,149,1.0,1993,,,9/21/2011 0:00,PC220LC5,PC220,,LC,5,Large / Medium,"Hydraulic Excavator, Track - 21.0 to 24.0 Metric Tons",Washington,TEX,Track Excavators,,EROPS,,,,,,,,,,,Standard,,,,,,None or Unspecified,,,,Steel,None or Unspecified,None or Unspecified,Hydraulic,None or Unspecified,Double,,,,,
2246,6304137,23500,1872705,149,12.0,1989,,,9/21/2011 0:00,PC220LC5,PC220,,LC,5,Large / Medium,"Hydraulic Excavator, Track - 21.0 to 24.0 Metric Tons",South Carolina,TEX,Track Excavators,,EROPS,,,,,,,,,,,Standard,,,,,,None or Unspecified,,,,Steel,None or Unspecified,None or Unspecified,None or Unspecified,None or Unspecified,Double,,,,,
2246,6304251,17000,1306549,149,2.0,1000,,,8/23/2011 0:00,PC220LC5,PC220,,LC,5,Large / Medium,"Hydraulic Excavator, Track - 21.0 to 24.0 Metric Tons",Texas,TEX,Track Excavators,,EROPS w AC,,,,,,,,,,,Standard,,,,,,None or Unspecified,,,,Steel,None or Unspecified,None or Unspecified,None or Unspecified,None or Unspecified,Double,,,,,
