ModelID,SalesID,SalePrice,MachineID,datasource,auctioneerID,YearMade,MachineHoursCurrentMeter,UsageBand,saledate,fiModelDesc,fiBaseModel,fiSecondaryDesc,fiModelSeries,fiModelDescriptor,ProductSize,fiProductClassDesc,state,ProductGroup,ProductGroupDesc,Drive_System,Enclosure,Forks,Pad_Type,Ride_Control,Stick,Transmission,Turbocharged,Blade_Extension,Blade_Width,Enclosure_Type,Engine_Horsepower,Hydraulics,Pushblock,Ripper,Scarifier,Tip_Control,Tire_Size,Coupler,Coupler_System,Grouser_Tracks,Hydraulics_Flow,Track_Type,Undercarriage_Pad_Width,Stick_Length,Thumb,Pattern_Changer,Grouser_Type,Backhoe_Mounting,Blade_Type,Travel_Controls,Differential_Type,Steering_Controls
22653,1185903,32000,1046932,121,3.0,2005,522.0,Low,12/11/2008 0:00,D37EX-21,D37,EX,-21,,,"Track Type Tractor, Dozer - 75.0 to 85.0 Horsepower",Pennsylvania,TTT,Track Type Tractors,,OROPS,,,,,Hydrostatic,,,,,,2 Valve,,None or Unspecified,,,,,,,,,,,,,,None or Unspecified,None or Unspecified,None or Unspecified,,
22653,1187667,25000,1018130,121,3.0,2003,4056.0,Low,2/5/2009 0:00,D37EX-21,D37,EX,-21,,,"Track Type Tractor, Dozer - 75.0 to 85.0 Horsepower",North Carolina,TTT,Track Type Tractors,,EROPS,,,,,,,,,,,Standard,,,,,,,,,,,,,,,,,No,2 Pedal,,
22653,1189060,26000,1037050,121,3.0,2003,1673.0,Low,4/22/2009 0:00,D37EX-21,D37,EX,-21,,,"Track Type Tractor, Dozer - 75.0 to 85.0 Horsepower",Arkansas,TTT,Track Type Tractors,,OROPS,,,,,Hydrostatic,,,,,,2 Valve,,None or Unspecified,,,,,,,,,,,,,,None or Unspecified,PAT,None or Unspecified,,
22653,1189376,39000,1041160,121,3.0,2007,247.0,Low,4/30/2009 0:00,D37EX-21,D37,EX,-21,,,"Track Type Tractor, Dozer - 75.0 to 85.0 Horsepower",Georgia,TTT,Track Type Tractors,,OROPS,,,,,Hydrostatic,,,,,,2 Valve,,None or Unspecified,,,,,,,,,,,,,,None or Unspecified,None or Unspecified,None or Unspecified,,
22653,1192971,17500,1017711,121,3.0,2003,2722.0,Low,9/24/2009 0:00,D37EX-21,D37,EX,-21,,,"Track Type Tractor, Dozer - 75.0 to 85.0 Horsepower",Michigan,TTT,Track Type Tractors,,EROPS,,,,,,,,,,,Standard,,,,,,,,,,,,,,,,,No,2 Pedal,,
22653,1195177,35000,41306,121,3.0,2007,796.0,Low,11/12/2009 0:00,D37EX-21,D37,EX,-21,,,"Track Type Tractor, Dozer - 75.0 to 85.0 Horsepower",Alabama,TTT,Track Type Tractors,,OROPS,,,,,Hydrostatic,,,,,,2 Valve,,None or Unspecified,,,,,,,,,,,,,,None or Unspecified,PAT,None or Unspecified,,
22653,1198976,22500,1005520,121,3.0,2005,713.0,Low,3/18/2010 0:00,D37EX-21,D37,EX,-21,,,"Track Type Tractor, Dozer - 75.0 to 85.0 Horsepower",Tennessee,TTT,Track Type Tractors,,EROPS,,,,,Hydrostatic,,,,,,2 Valve,,None or Unspecified,,,,,,,,,,,,,,None or Unspecified,None or Unspecified,None or Unspecified,,
22653,1202627,32000,1057725,121,3.0,2007,608.0,Low,6/17/2010 0:00,D37EX-21,D37,EX,-21,,,"Track Type Tractor, Dozer - 75.0 to 85.0 Horsepower",California,TTT,Track Type Tractors,,OROPS,,,,,Hydrostatic,,,,,,2 Valve,,Single Shank,,,,,,,,,,,,,,None or Unspecified,None or Unspecified,None or Unspecified,,
22653,1219783,34000,1039660,121,3.0,2005,1055.0,Low,10/27/2011 0:00,D37EX-21,D37,EX,-21,,,"Track Type Tractor, Dozer - 75.0 to 85.0 Horsepower",Pennsylvania,TTT,Track Type Tractors,,OROPS,,,,,Hydrostatic,,,,,,2 Valve,,None or Unspecified,,,,,,,,,,,,,,None or Unspecified,PAT,None or Unspecified,,
22653,1727667,57500,1300866,132,1.0,2004,1133.0,Low,7/31/2007 0:00,D37EX-21,D37,EX,-21,,,"Track Type Tractor, Dozer - 75.0 to 85.0 Horsepower",Connecticut,TTT,Track Type Tractors,,EROPS w AC,,,,,Standard,,,,,,2 Valve,,None or Unspecified,,,,,,,,,,,,,,None or Unspecified,PAT,None or Unspecified,,
22653,1750821,27500,1503429,132,3.0,2002,,,9/17/2009 0:00,D37EX-21,D37,EX,-21,,,"Track Type Tractor, Dozer - 75.0 to 85.0 Horsepower",California,TTT,Track Type Tractors,,EROPS w AC,,,,,Standard,,,,,,2 Valve,,Single Shank,,,,,,,,,,,,,,None or Unspecified,PAT,None or Unspecified,,
22653,1750968,22000,1029381,132,5.0,2002,,,10/2/2009 0:00,D37EX-21,D37,EX,-21,,,"Track Type Tractor, Dozer - 75.0 to 85.0 Horsepower",New York,TTT,Track Type Tractors,,OROPS,,,,,Hydrostatic,,,,,,2 Valve,,None or Unspecified,,,,,,,,,,,,,,None or Unspecified,PAT,None or Unspecified,,
22653,1750991,46000,1503655,132,1.0,2002,,,3/29/2004 0:00,D37EX-21,D37,EX,-21,,,"Track Type Tractor, Dozer - 75.0 to 85.0 Horsepower",Illinois,TTT,Track Type Tractors,,OROPS,,,,,Standard,,,,,,2 Valve,,None or Unspecified,,,,,,,,,,,,,,None or Unspecified,PAT,None or Unspecified,,
22653,1751029,50000,1079910,132,2.0,2002,,,2/2/2003 0:00,D37EX-21,D37,EX,-21,,,"Track Type Tractor, Dozer - 75.0 to 85.0 Horsepower",Florida,TTT,Track Type Tractors,,EROPS w AC,,,,,,,,,,,Auxiliary,,,,,,,,,,,,,,,,,No,2 Pedal,,
22653,1751042,50000,1515978,132,2.0,2002,,,2/2/2003 0:00,D37EX-21,D37,EX,-21,,,"Track Type Tractor, Dozer - 75.0 to 85.0 Horsepower",Florida,TTT,Track Type Tractors,,EROPS w AC,,,,,,,,,,,Standard,,,,,,,,,,,,,,,,,No,2 Pedal,,
22653,1751308,47000,1220493,132,10.0,2003,,,6/22/2006 0:00,D37EX-21,D37,EX,-21,,,"Track Type Tractor, Dozer - 75.0 to 85.0 Horsepower",Louisiana,TTT,Track Type Tractors,,EROPS,,,,,,,,,,,Standard,,,,,,,,,,,,,,,,,No,2 Pedal,,
22653,1751353,25000,1018130,132,10.0,2003,,,3/18/2009 0:00,D37EX-21,D37,EX,-21,,,"Track Type Tractor, Dozer - 75.0 to 85.0 Horsepower",Louisiana,TTT,Track Type Tractors,,EROPS,,,,,,,,,,,Standard,,,,,,,,,,,,,,,,,No,2 Pedal,,
22653,1751503,41000,1079177,132,1.0,2001,,,2/28/2007 0:00,D37EX-21,D37,EX,-21,,,"Track Type Tractor, Dozer - 75.0 to 85.0 Horsepower",Texas,TTT,Track Type Tractors,,EROPS w AC,,,,,,,,,,,Standard,,,,,,,,,,,,,,,,,Straight,2 Pedal,,
22653,1751570,26000,1243256,132,1.0,2004,2844.0,Medium,12/7/2010 0:00,D37EX-21,D37,EX,-21,,,"Track Type Tractor, Dozer - 75.0 to 85.0 Horsepower",North Carolina,TTT,Track Type Tractors,,EROPS,,,,,Standard,,,,,,2 Valve,,None or Unspecified,,,,,,,,,,,,,,None or Unspecified,PAT,None or Unspecified,,
22653,1753435,24000,1456770,132,1.0,2007,2132.0,Medium,8/10/2011 0:00,D37EX-21,D37,EX,-21,,,"Track Type Tractor, Dozer - 75.0 to 85.0 Horsepower",New York,TTT,Track Type Tractors,,OROPS,,,,,Standard,,,,,,2 Valve,,None or Unspecified,,,,,,,,,,,,,,None or Unspecified,PAT,None or Unspecified,,
22653,1753546,57500,1533958,132,1.0,2008,25.0,Low,6/16/2011 0:00,D37EX-21,D37,EX,-21,,,"Track Type Tractor, Dozer - 75.0 to 85.0 Horsepower",Washington,TTT,Track Type Tractors,,OROPS,,,,,Standard,,,,,,2 Valve,,None or Unspecified,,,,,,,,,,,,,,None or Unspecified,PAT,None or Unspecified,,
22653,2406588,24500,1018130,136,1.0,2003,0.0,,3/4/2009 0:00,D37EX-21,D37,EX,-21,,,"Track Type Tractor, Dozer - 75.0 to 85.0 Horsepower",Texas,TTT,Track Type Tractors,,EROPS,,,,,,,,,,,Standard,,,,,,,,,,,,,,,,,No,2 Pedal,,
22653,2406720,41000,1079177,136,1.0,2004,0.0,,6/20/2007 0:00,D37EX-21,D37,EX,-21,,,"Track Type Tractor, Dozer - 75.0 to 85.0 Horsepower",Louisiana,TTT,Track Type Tractors,,EROPS w AC,,,,,,,,,,,Standard,,,,,,,,,,,,,,,,,Straight,2 Pedal,,
22653,2406748,20000,1177513,136,1.0,2004,0.0,,6/10/2009 0:00,D37EX-21,D37,EX,-21,,,"Track Type Tractor, Dozer - 75.0 to 85.0 Horsepower",Texas,TTT,Track Type Tractors,,OROPS,,,,,Standard,,,,,,2 Valve,,None or Unspecified,,,,,,,,,,,,,,None or Unspecified,PAT,None or Unspecified,,
22653,2407400,46000,1204969,136,2.0,2004,1342.0,Low,2/3/2008 0:00,D37EX-21,D37,EX,-21,,,"Track Type Tractor, Dozer - 75.0 to 85.0 Horsepower",Florida,TTT,Track Type Tractors,,EROPS w AC,,,,,Hydrostatic,,,,,,2 Valve,,None or Unspecified,,,,,,,,,,,,,,None or Unspecified,PAT,None or Unspecified,,
22653,2407493,26000,1765485,136,1.0,2004,0.0,,8/26/2009 0:00,D37EX-21,D37,EX,-21,,,"Track Type Tractor, Dozer - 75.0 to 85.0 Horsepower",Texas,TTT,Track Type Tractors,,OROPS,,,,,Standard,,,,,,2 Valve,,None or Unspecified,,,,,,,,,,,,,,None or Unspecified,PAT,None or Unspecified,,
22653,2407539,40500,1140132,136,1.0,2005,0.0,,12/4/2007 0:00,D37EX-21,D37,EX,-21,,,"Track Type Tractor, Dozer - 75.0 to 85.0 Horsepower",Kentucky,TTT,Track Type Tractors,,EROPS,,,,,Powershift,,,,,,2 Valve,,Multi Shank,,,,,,,,,,,,,,None or Unspecified,PAT,Lever,,
22653,2407722,36000,1350228,136,4.0,2005,0.0,,5/15/2008 0:00,D37EX-21,D37,EX,-21,,,"Track Type Tractor, Dozer - 75.0 to 85.0 Horsepower",New Hampshire,TTT,Track Type Tractors,,EROPS w AC,,,,,Hydrostatic,,,,,,2 Valve,,None or Unspecified,,,,,,,,,,,,,,None or Unspecified,PAT,None or Unspecified,,
22653,2407820,32000,1259658,136,15.0,2005,0.0,,5/21/2009 0:00,D37EX-21,D37,EX,-21,,,"Track Type Tractor, Dozer - 75.0 to 85.0 Horsepower",Pennsylvania,TTT,Track Type Tractors,,EROPS w AC,,,,,Standard,,,,,,2 Valve,,None or Unspecified,,,,,,,,,,,,,,None or Unspecified,PAT,None or Unspecified,,
22653,2407861,38500,1660959,136,,2006,0.0,,7/18/2009 0:00,D37EX-21,D37,EX,-21,,,"Track Type Tractor, Dozer - 75.0 to 85.0 Horsepower",New York,TTT,Track Type Tractors,,EROPS w AC,,,,,Powershift,,,,,,2 Valve,,None or Unspecified,,,,,,,,,,,,,,None or Unspecified,PAT,None or Unspecified,,
22653,2420347,57500,1680008,136,,2004,1133.0,Low,7/31/2007 0:00,D37EX-21,D37,EX,-21,,,"Track Type Tractor, Dozer - 75.0 to 85.0 Horsepower",Connecticut,TTT,Track Type Tractors,,EROPS w AC,,,,,Standard,,,,,,2 Valve,,None or Unspecified,,,,,,,,,,,,,,None or Unspecified,PAT,None or Unspecified,,
22653,2420376,50500,1749741,136,,2006,0.0,,7/19/2008 0:00,D37EX-21,D37,EX,-21,,,"Track Type Tractor, Dozer - 75.0 to 85.0 Horsepower",New York,TTT,Track Type Tractors,,OROPS,,,,,Standard,,,,,,2 Valve,,None or Unspecified,,,,,,,,,,,,,,None or Unspecified,PAT,None or Unspecified,,
22653,2696016,34000,1271367,149,1.0,2005,1501.0,Low,2/15/2011 0:00,D37EX-21,D37,EX,-21,,,"Track Type Tractor, Dozer - 75.0 to 85.0 Horsepower",Florida,TTT,Track Type Tractors,,EROPS w AC,,,,,Standard,,,,,,2 Valve,,None or Unspecified,,,,,,,,,,,,,,None or Unspecified,PAT,None or Unspecified,,
22653,2696132,44500,1358677,149,26.0,2007,0.0,,6/9/2010 0:00,D37EX-21,D37,EX,-21,,,"Track Type Tractor, Dozer - 75.0 to 85.0 Horsepower",Alabama,TTT,Track Type Tractors,,OROPS,,,,,Standard,,,,,,2 Valve,,None or Unspecified,,,,,,,,,,,,,,None or Unspecified,PAT,None or Unspecified,,
22653,2704651,57500,1802720,149,1.0,2008,25.0,Low,6/16/2011 0:00,D37EX-21,D37,EX,-21,,,"Track Type Tractor, Dozer - 75.0 to 85.0 Horsepower",Washington,TTT,Track Type Tractors,,OROPS,,,,,Standard,,,,,,2 Valve,,None or Unspecified,,,,,,,,,,,,,,None or Unspecified,PAT,None or Unspecified,,
22653,2704652,26000,1219585,149,1.0,2004,2844.0,Medium,12/7/2010 0:00,D37EX-21,D37,EX,-21,,,"Track Type Tractor, Dozer - 75.0 to 85.0 Horsepower",North Carolina,TTT,Track Type Tractors,,OROPS,,,,,Standard,,,,,,2 Valve,,None or Unspecified,,,,,,,,,,,,,,None or Unspecified,PAT,None or Unspecified,,
22653,4357165,30000,1459663,172,1.0,2005,1250.0,Low,6/2/2010 0:00,D37EX-21,D37,EX,-21,,,"Track Type Tractor, Dozer - 75.0 to 85.0 Horsepower",Maryland,TTT,Track Type Tractors,,OROPS,,,,,Standard,,,,,,2 Valve,,None or Unspecified,,,,,,,,,,,,,,None or Unspecified,PAT,None or Unspecified,,
22653,4361166,24000,2303000,172,1.0,2007,2132.0,Medium,8/9/2011 0:00,D37EX-21,D37,EX,-21,,,"Track Type Tractor, Dozer - 75.0 to 85.0 Horsepower",New York,TTT,Track Type Tractors,,OROPS,,,,,Standard,,,,,,2 Valve,,None or Unspecified,,,,,,,,,,,,,,None or Unspecified,PAT,None or Unspecified,,
22653,4361168,26000,2288277,172,1.0,2004,2282.0,Medium,8/26/2009 0:00,D37EX-21,D37,EX,-21,,,"Track Type Tractor, Dozer - 75.0 to 85.0 Horsepower",Texas,TTT,Track Type Tractors,,OROPS,,,,,Standard,,,,,,2 Valve,,None or Unspecified,,,,,,,,,,,,,,None or Unspecified,PAT,None or Unspecified,,
22653,4361170,37000,2283943,172,1.0,2007,573.0,Low,12/19/2011 0:00,D37EX-21,D37,EX,-21,,,"Track Type Tractor, Dozer - 75.0 to 85.0 Horsepower",Washington,TTT,Track Type Tractors,,OROPS,,,,,Standard,,,,,,2 Valve,,None or Unspecified,,,,,,,,,,,,,,None or Unspecified,PAT,None or Unspecified,,
22653,6302806,18000,1805697,149,1.0,2002,,,11/16/2011 0:00,D37EX-21,D37,EX,-21,,,"Track Type Tractor, Dozer - 75.0 to 85.0 Horsepower",Texas,TTT,Track Type Tractors,,OROPS,,,,,Standard,,,,,,2 Valve,,None or Unspecified,,,,,,,,,,,,,,None or Unspecified,PAT,None or Unspecified,,
22653,6303082,25000,1533063,149,1.0,2003,,,12/20/2011 0:00,D37EX-21,D37,EX,-21,,,"Track Type Tractor, Dozer - 75.0 to 85.0 Horsepower",Washington,TTT,Track Type Tractors,,OROPS,,,,,Standard,,,,,,2 Valve,,Multi Shank,,,,,,,,,,,,,,None or Unspecified,PAT,None or Unspecified,,
22653,6305724,24000,1921196,149,1.0,2007,,,8/10/2011 0:00,D37EX-21,D37,EX,-21,,,"Track Type Tractor, Dozer - 75.0 to 85.0 Horsepower",New York,TTT,Track Type Tractors,,OROPS,,,,,Standard,,,,,,2 Valve,,None or Unspecified,,,,,,,,,,,,,,None or Unspecified,PAT,None or Unspecified,,
22653,6305725,37000,1920523,149,1.0,2007,,,12/20/2011 0:00,D37EX-21,D37,EX,-21,,,"Track Type Tractor, Dozer - 75.0 to 85.0 Horsepower",Washington,TTT,Track Type Tractors,,OROPS,,,,,Standard,,,,,,2 Valve,,None or Unspecified,,,,,,,,,,,,,,None or Unspecified,PAT,None or Unspecified,,
22653,6305872,18000,1845449,149,5.0,2004,,,12/2/2011 0:00,D37EX-21,D37,EX,-21,,,"Track Type Tractor, Dozer - 75.0 to 85.0 Horsepower",Connecticut,TTT,Track Type Tractors,,OROPS,,,,,Standard,,,,,,2 Valve,,None or Unspecified,,,,,,,,,,,,,,None or Unspecified,None or Unspecified,None or Unspecified,,
