SalesID,2408633
SalePrice,24000
MachineID,1230575
datasource,136
auctioneerID,99.0
YearMade,1996
MachineHoursCurrentMeter,8131.0
UsageBand,Medium
saledate,8/27/2008 0:00
fiModelDesc,D65-12
fiBaseModel,D65
fiSecondaryDesc,
fiModelSeries,-12
fiModelDescriptor,
ProductSize,Large
fiProductClassDesc,"Track Type Tractor, Dozer - 190.0 to 260.0 Horsepower"
state,West Virginia
ProductGroup,TTT
ProductGroupDesc,Track Type Tractors
Drive_System,
Enclosure,OROPS
Forks,
Pad_Type,
Ride_Control,
Stick,
Transmission,Powershift
Turbocharged,
Blade_Extension,
Blade_Width,
Enclosure_Type,
Engine_Horsepower,
Hydraulics,2 Valve
Pushblock,
Ripper,None or Unspecified
Scarifier,
Tip_Control,
Tire_Size,
Coupler,
Coupler_System,
Grouser_Tracks,
Hydraulics_Flow,
Track_Type,
Undercarriage_Pad_Width,
Stick_Length,
Thumb,
Pattern_Changer,
Grouser_Type,
Backhoe_Mounting,None or Unspecified
Blade_Type,None or Unspecified
Travel_Controls,None or Unspecified
Differential_Type,
Steering_Controls,
