SalesID,1775331
SalePrice,62500
MachineID,1429565
datasource,132
auctioneerID,2.0
YearMade,1996
MachineHoursCurrentMeter,
UsageBand,
saledate,2/2/1999 0:00
fiModelDesc,D85ESS
fiBaseModel,D85
fiSecondaryDesc,ESS
fiModelSeries,
fiModelDescriptor,
ProductSize,Large
fiProductClassDesc,"Track Type Tractor, Dozer - 190.0 to 260.0 Horsepower"
state,Florida
ProductGroup,TTT
ProductGroupDesc,Track Type Tractors
Drive_System,
Enclosure,OROPS
Forks,
Pad_Type,
Ride_Control,
Stick,
Transmission,Standard
Turbocharged,
Blade_Extension,
Blade_Width,
Enclosure_Type,
Engine_Horsepower,
Hydraulics,3 Valve
Pushblock,
Ripper,None or Unspecified
Scarifier,
Tip_Control,
Tire_Size,
Coupler,
Coupler_System,
Grouser_Tracks,
Hydraulics_Flow,
Track_Type,
Undercarriage_Pad_Width,
Stick_Length,
Thumb,
Pattern_Changer,
Grouser_Type,
Backhoe_Mounting,None or Unspecified
Blade_Type,None or Unspecified
Travel_Controls,Differential Steer
Differential_Type,
Steering_Controls,
