SalesID,1754820
SalePrice,11000
MachineID,1133587
datasource,132
auctioneerID,4.0
YearMade,1000
MachineHoursCurrentMeter,
UsageBand,
saledate,2/15/2006 0:00
fiModelDesc,D21PL
fiBaseModel,D21
fiSecondaryDesc,PL
fiModelSeries,
fiModelDescriptor,
ProductSize,
fiProductClassDesc,"Track Type Tractor, Dozer - 20.0 to 75.0 Horsepower"
state,Florida
ProductGroup,TTT
ProductGroupDesc,Track Type Tractors
Drive_System,
Enclosure,EROPS
Forks,
Pad_Type,
Ride_Control,
Stick,
Transmission,
Turbocharged,
Blade_Extension,
Blade_Width,
Enclosure_Type,
Engine_Horsepower,
Hydraulics,Standard
Pushblock,
Ripper,
Scarifier,
Tip_Control,
Tire_Size,
Coupler,
Coupler_System,
Grouser_Tracks,
Hydraulics_Flow,
Track_Type,
Undercarriage_Pad_Width,
Stick_Length,
Thumb,
Pattern_Changer,
Grouser_Type,
Backhoe_Mounting,
Blade_Type,Straight
Travel_Controls,2 Pedal
Differential_Type,
Steering_Controls,
