ModelID,SalesID,SalePrice,MachineID,datasource,auctioneerID,YearMade,MachineHoursCurrentMeter,UsageBand,saledate,fiModelDesc,fiBaseModel,fiSecondaryDesc,fiModelSeries,fiModelDescriptor,ProductSize,fiProductClassDesc,state,ProductGroup,ProductGroupDesc,Drive_System,Enclosure,Forks,Pad_Type,Ride_Control,Stick,Transmission,Turbocharged,Blade_Extension,Blade_Width,Enclosure_Type,Engine_Horsepower,Hydraulics,Pushblock,Ripper,Scarifier,Tip_Control,Tire_Size,Coupler,Coupler_System,Grouser_Tracks,Hydraulics_Flow,Track_Type,Undercarriage_Pad_Width,Stick_Length,Thumb,Pattern_Changer,Grouser_Type,Backhoe_Mounting,Blade_Type,Travel_Controls,Differential_Type,Steering_Controls
22753,2408821,8300,1347210,136,4.0,1000,3200.0,Low,10/18/2007 0:00,D21P-6LGP,D21,P,-6,LGP,,"Track Type Tractor, Dozer - 20.0 to 75.0 Horsepower",Pennsylvania,TTT,Track Type Tractors,,OROPS,,,,,Powershift,,,,,,2 Valve,,None or Unspecified,,,,,,,,,,,,,,None or Unspecified,PAT,None or Unspecified,,
22753,2409211,10500,1546337,136,1.0,1000,0.0,,11/8/2007 0:00,D21P-6LGP,D21,P,-6,LGP,,"Track Type Tractor, Dozer - 20.0 to 75.0 Horsepower",Texas,TTT,Track Type Tractors,,OROPS,,,,,Standard,,,,,,2 Valve,,None or Unspecified,,,,,,,,,,,,,,None or Unspecified,PAT,None or Unspecified,,
22753,2409227,12000,1346964,136,1.0,1000,0.0,,6/7/2007 0:00,D21P-6LGP,D21,P,-6,LGP,,"Track Type Tractor, Dozer - 20.0 to 75.0 Horsepower",Texas,TTT,Track Type Tractors,,OROPS,,,,,Standard,,,,,,2 Valve,,None or Unspecified,,,,,,,,,,,,,,None or Unspecified,PAT,None or Unspecified,,
22753,2409941,8000,1554595,136,1.0,1990,0.0,,3/21/2007 0:00,D21P-6LGP,D21,P,-6,LGP,,"Track Type Tractor, Dozer - 20.0 to 75.0 Horsepower",Washington,TTT,Track Type Tractors,,OROPS,,,,,Standard,,,,,,2 Valve,,None or Unspecified,,,,,,,,,,,,,,None or Unspecified,PAT,None or Unspecified,,
