ModelID,SalesID,SalePrice,MachineID,datasource,auctioneerID,YearMade,MachineHoursCurrentMeter,UsageBand,saledate,fiModelDesc,fiBaseModel,fiSecondaryDesc,fiModelSeries,fiModelDescriptor,ProductSize,fiProductClassDesc,state,ProductGroup,ProductGroupDesc,Drive_System,Enclosure,Forks,Pad_Type,Ride_Control,Stick,Transmission,Turbocharged,Blade_Extension,Blade_Width,Enclosure_Type,Engine_Horsepower,Hydraulics,Pushblock,Ripper,Scarifier,Tip_Control,Tire_Size,Coupler,Coupler_System,Grouser_Tracks,Hydraulics_Flow,Track_Type,Undercarriage_Pad_Width,Stick_Length,Thumb,Pattern_Changer,Grouser_Type,Backhoe_Mounting,Blade_Type,Travel_Controls,Differential_Type,Steering_Controls
22757,1173158,25000,1044757,121,3.0,2006,1058.0,Low,9/1/2011 0:00,D21P-8,D21,P,-8,,,"Track Type Tractor, Dozer - 20.0 to 75.0 Horsepower",Alabama,TTT,Track Type Tractors,,OROPS,,,,,Hydrostatic,,,,,,2 Valve,,None or Unspecified,,,,,,,,,,,,,,None or Unspecified,PAT,None or Unspecified,,
22757,1760720,22500,659291,132,8.0,2006,977.0,Low,6/24/2010 0:00,D21P-8,D21,P,-8,,,"Track Type Tractor, Dozer - 20.0 to 75.0 Horsepower",Alabama,TTT,Track Type Tractors,,EROPS,,,,,Standard,,,,,,2 Valve,,None or Unspecified,,,,,,,,,,,,,,None or Unspecified,PAT,None or Unspecified,,
22757,1760742,37500,1528283,132,12.0,1000,,,9/21/2006 0:00,D21P-8,D21,P,-8,,,"Track Type Tractor, Dozer - 20.0 to 75.0 Horsepower",South Carolina,TTT,Track Type Tractors,,OROPS,,,,,Standard,,,,,,2 Valve,,None or Unspecified,,,,,,,,,,,,,,None or Unspecified,PAT,None or Unspecified,,
22757,2411153,16000,1190816,136,4.0,1969,1436.0,Low,6/17/2010 0:00,D21P-8,D21,P,-8,,,"Track Type Tractor, Dozer - 20.0 to 75.0 Horsepower",Pennsylvania,TTT,Track Type Tractors,,OROPS,,,,,Standard,,,,,,2 Valve,,None or Unspecified,,,,,,,,,,,,,,None or Unspecified,None or Unspecified,Differential Steer,,
22757,2411171,24000,1233663,136,1.0,2006,0.0,,3/26/2009 0:00,D21P-8,D21,P,-8,,,"Track Type Tractor, Dozer - 20.0 to 75.0 Horsepower",Georgia,TTT,Track Type Tractors,,OROPS,,,,,Standard,,,,,,2 Valve,,None or Unspecified,,,,,,,,,,,,,,None or Unspecified,PAT,None or Unspecified,,
22757,2420398,20000,1522627,136,1.0,2005,0.0,,3/26/2009 0:00,D21P-8,D21,P,-8,,,"Track Type Tractor, Dozer - 20.0 to 75.0 Horsepower",Georgia,TTT,Track Type Tractors,,OROPS,,,,,Standard,,,,,,2 Valve,,None or Unspecified,,,,,,,,,,,,,,None or Unspecified,PAT,None or Unspecified,,
22757,2420400,26000,1449764,136,1.0,2006,0.0,,3/26/2009 0:00,D21P-8,D21,P,-8,,,"Track Type Tractor, Dozer - 20.0 to 75.0 Horsepower",Georgia,TTT,Track Type Tractors,,OROPS,,,,,Standard,,,,,,2 Valve,,None or Unspecified,,,,,,,,,,,,,,None or Unspecified,PAT,None or Unspecified,,
22757,2698028,17600,1190816,149,4.0,1000,0.0,,10/21/2010 0:00,D21P-8,D21,P,-8,,,"Track Type Tractor, Dozer - 20.0 to 75.0 Horsepower",Pennsylvania,TTT,Track Type Tractors,,OROPS,,,,,Standard,,,,,,2 Valve,,None or Unspecified,,,,,,,,,,,,,,None or Unspecified,None or Unspecified,Differential Steer,,
22757,2698034,17500,1115303,149,1.0,2006,1989.0,Medium,12/9/2010 0:00,D21P-8,D21,P,-8,,,"Track Type Tractor, Dozer - 20.0 to 75.0 Horsepower",Georgia,TTT,Track Type Tractors,,OROPS,,,,,Standard,,,,,,2 Valve,,None or Unspecified,,,,,,,,,,,,,,None or Unspecified,PAT,None or Unspecified,,
