ModelID,SalesID,SalePrice,MachineID,datasource,auctioneerID,YearMade,MachineHoursCurrentMeter,UsageBand,saledate,fiModelDesc,fiBaseModel,fiSecondaryDesc,fiModelSeries,fiModelDescriptor,ProductSize,fiProductClassDesc,state,ProductGroup,ProductGroupDesc,Drive_System,Enclosure,Forks,Pad_Type,Ride_Control,Stick,Transmission,Turbocharged,Blade_Extension,Blade_Width,Enclosure_Type,Engine_Horsepower,Hydraulics,Pushblock,Ripper,Scarifier,Tip_Control,Tire_Size,Coupler,Coupler_System,Grouser_Tracks,Hydraulics_Flow,Track_Type,Undercarriage_Pad_Width,Stick_Length,Thumb,Pattern_Changer,Grouser_Type,Backhoe_Mounting,Blade_Type,Travel_Controls,Differential_Type,Steering_Controls
2279,1179945,60000,1040203,121,3.0,1999,13510.0,High,6/12/2008 0:00,PC450LC,PC450,,,LC,Large / Medium,"Hydraulic Excavator, Track - 40.0 to 50.0 Metric Tons",Florida,TEX,Track Excavators,,EROPS w AC,,,,,,,,,,,Standard,,,,,,None or Unspecified,,,,Steel,31 inch,None or Unspecified,None or Unspecified,None or Unspecified,Double,,,,,
2279,1183132,35000,1038537,121,3.0,1000,11475.0,Low,10/2/2008 0:00,PC450LC,PC450,,,LC,Large / Medium,"Hydraulic Excavator, Track - 40.0 to 50.0 Metric Tons",Florida,TEX,Track Excavators,,EROPS w AC,,,,,,,,,,,Standard,,,,,,None or Unspecified,,,,Steel,None or Unspecified,None or Unspecified,None or Unspecified,None or Unspecified,Double,,,,,
2279,1776471,35000,1425918,132,3.0,1000,,,10/2/2008 0:00,PC450LC,PC450,,,LC,Large / Medium,"Hydraulic Excavator, Track - 40.0 to 50.0 Metric Tons",California,TEX,Track Excavators,,EROPS w AC,,,,,,,,,,,Auxiliary,,,,,,Manual,,,,Steel,None or Unspecified,None or Unspecified,None or Unspecified,None or Unspecified,Double,,,,,
