ModelID,SalesID,SalePrice,MachineID,datasource,auctioneerID,YearMade,MachineHoursCurrentMeter,UsageBand,saledate,fiModelDesc,fiBaseModel,fiSecondaryDesc,fiModelSeries,fiModelDescriptor,ProductSize,fiProductClassDesc,state,ProductGroup,ProductGroupDesc,Drive_System,Enclosure,Forks,Pad_Type,Ride_Control,Stick,Transmission,Turbocharged,Blade_Extension,Blade_Width,Enclosure_Type,Engine_Horsepower,Hydraulics,Pushblock,Ripper,Scarifier,Tip_Control,Tire_Size,Coupler,Coupler_System,Grouser_Tracks,Hydraulics_Flow,Track_Type,Undercarriage_Pad_Width,Stick_Length,Thumb,Pattern_Changer,Grouser_Type,Backhoe_Mounting,Blade_Type,Travel_Controls,Differential_Type,Steering_Controls
228,1728569,35000,1098959,132,1.0,1991,,,6/2/1998 0:00,D475A-2,D475,A,-2,,Large,"Track Type Tractor, Dozer - 260.0 + Horsepower",Wyoming,TTT,Track Type Tractors,,EROPS w AC,,,,,,,,,,,Auxiliary,,,,,,,,,,,,,,,,,No,2 Pedal,,
228,1728584,95000,1102841,132,1.0,1989,,,10/6/1998 0:00,D475A-2,D475,A,-2,,Large,"Track Type Tractor, Dozer - 260.0 + Horsepower",Wyoming,TTT,Track Type Tractors,,EROPS w AC,,,,,,,,,,,,,,,,,,,,,,,,,,,,,,,
228,1728893,35000,1404594,132,1.0,1991,,,6/2/1998 0:00,D475A-2,D475,A,-2,,Large,"Track Type Tractor, Dozer - 260.0 + Horsepower",Wyoming,TTT,Track Type Tractors,,EROPS w AC,,,,,,,,,,,,,,,,,,,,,,,,,,,,,,,
228,1728924,90000,23410,132,1.0,1992,,,6/2/1998 0:00,D475A-2,D475,A,-2,,Large,"Track Type Tractor, Dozer - 260.0 + Horsepower",Wyoming,TTT,Track Type Tractors,,EROPS w AC,,,,,Powershift,,,,,,2 Valve,,Single Shank,,,,,,,,,,,,,,None or Unspecified,U,None or Unspecified,,
228,1729116,42500,587590,132,1.0,1993,,,6/2/1998 0:00,D475A-2,D475,A,-2,,Large,"Track Type Tractor, Dozer - 260.0 + Horsepower",Wyoming,TTT,Track Type Tractors,,EROPS w AC,,,,,,,,,,,2 Valve,,,,,,,,,,,,,,,,,,,,
