ModelID,SalesID,SalePrice,MachineID,datasource,auctioneerID,YearMade,MachineHoursCurrentMeter,UsageBand,saledate,fiModelDesc,fiBaseModel,fiSecondaryDesc,fiModelSeries,fiModelDescriptor,ProductSize,fiProductClassDesc,state,ProductGroup,ProductGroupDesc,Drive_System,Enclosure,Forks,Pad_Type,Ride_Control,Stick,Transmission,Turbocharged,Blade_Extension,Blade_Width,Enclosure_Type,Engine_Horsepower,Hydraulics,Pushblock,Ripper,Scarifier,Tip_Control,Tire_Size,Coupler,Coupler_System,Grouser_Tracks,Hydraulics_Flow,Track_Type,Undercarriage_Pad_Width,Stick_Length,Thumb,Pattern_Changer,Grouser_Type,Backhoe_Mounting,Blade_Type,Travel_Controls,Differential_Type,Steering_Controls
22805,1139594,45000,1020765,121,3.0,2005,3724.0,Medium,6/3/2010 0:00,EC210BLC,EC210,B,,LC,Large / Medium,"Hydraulic Excavator, Track - 21.0 to 24.0 Metric Tons",Wyoming,TEX,Track Excavators,,EROPS w AC,,,,,,,,,,,Auxiliary,,,,,,Hydraulic,,,,Steel,None or Unspecified,None or Unspecified,None or Unspecified,None or Unspecified,Double,,,,,
22805,1140166,75000,1056397,121,3.0,2006,3337.0,Medium,5/19/2011 0:00,EC210BLC,EC210,B,,LC,Large / Medium,"Hydraulic Excavator, Track - 21.0 to 24.0 Metric Tons",New York,TEX,Track Excavators,,EROPS w AC,,,,,,,,,,,Auxiliary,,,,,,Hydraulic,,,,Steel,None or Unspecified,"9' 6""",None or Unspecified,None or Unspecified,Double,,,,,
22805,1140689,34000,1044272,121,3.0,2005,3150.0,Medium,6/18/2009 0:00,EC210BLC,EC210,B,,LC,Large / Medium,"Hydraulic Excavator, Track - 21.0 to 24.0 Metric Tons",Louisiana,TEX,Track Excavators,,EROPS w AC,,,,,,,,,,,Standard,,,,,,Manual,,,,Steel,None or Unspecified,None or Unspecified,Manual,None or Unspecified,Double,,,,,
22805,1141739,52000,1046261,121,3.0,2005,4479.0,Medium,12/16/2010 0:00,EC210BLC,EC210,B,,LC,Large / Medium,"Hydraulic Excavator, Track - 21.0 to 24.0 Metric Tons",Ohio,TEX,Track Excavators,,EROPS w AC,,,,,,,,,,,Standard,,,,,,Hydraulic,,,,Steel,None or Unspecified,"9' 7""",None or Unspecified,None or Unspecified,Double,,,,,
22805,1144472,88000,1066499,121,3.0,2004,919.0,Medium,12/14/2006 0:00,EC210BLC,EC210,B,,LC,Large / Medium,"Hydraulic Excavator, Track - 21.0 to 24.0 Metric Tons",Iowa,TEX,Track Excavators,,EROPS w AC,,,,,,,,,,,Auxiliary,,,,,,Hydraulic,,,,Steel,None or Unspecified,None or Unspecified,None or Unspecified,None or Unspecified,Double,,,,,
22805,1145518,46000,1031017,121,3.0,2004,3237.0,Medium,7/24/2009 0:00,EC210BLC,EC210,B,,LC,Large / Medium,"Hydraulic Excavator, Track - 21.0 to 24.0 Metric Tons",Georgia,TEX,Track Excavators,,EROPS w AC,,,,,,,,,,,Auxiliary,,,,,,None or Unspecified,,,,Steel,None or Unspecified,None or Unspecified,Hydraulic,None or Unspecified,Double,,,,,
22805,1149973,60000,1063378,121,3.0,2006,1099.0,Low,2/19/2009 0:00,EC210BLC,EC210,B,,LC,Large / Medium,"Hydraulic Excavator, Track - 21.0 to 24.0 Metric Tons",Georgia,TEX,Track Excavators,,EROPS w AC,,,,,,,,,,,Standard,,,,,,None or Unspecified,,,,Steel,None or Unspecified,None or Unspecified,None or Unspecified,None or Unspecified,Double,,,,,
22805,1150459,56000,1038244,121,3.0,2005,4172.0,Medium,12/16/2010 0:00,EC210BLC,EC210,B,,LC,Large / Medium,"Hydraulic Excavator, Track - 21.0 to 24.0 Metric Tons",Ohio,TEX,Track Excavators,,EROPS w AC,,,,,,,,,,,Standard,,,,,,Hydraulic,,,,Steel,None or Unspecified,"9' 7""",None or Unspecified,None or Unspecified,Double,,,,,
22805,1160723,59000,1060516,121,3.0,2003,1572.0,Low,4/19/2007 0:00,EC210BLC,EC210,B,,LC,Large / Medium,"Hydraulic Excavator, Track - 21.0 to 24.0 Metric Tons",New Jersey,TEX,Track Excavators,,EROPS w AC,,,,,,,,,,,Auxiliary,,,,,,Manual,,,,Steel,None or Unspecified,None or Unspecified,None or Unspecified,None or Unspecified,Double,,,,,
22805,1163579,51000,1024996,121,3.0,2005,2185.0,Medium,7/9/2009 0:00,EC210BLC,EC210,B,,LC,Large / Medium,"Hydraulic Excavator, Track - 21.0 to 24.0 Metric Tons",Alabama,TEX,Track Excavators,,EROPS w AC,,,,,,,,,,,Standard,,,,,,Manual,,,,Steel,None or Unspecified,None or Unspecified,None or Unspecified,None or Unspecified,Double,,,,,
22805,1163754,38000,1065073,121,3.0,2004,3916.0,Medium,6/25/2009 0:00,EC210BLC,EC210,B,,LC,Large / Medium,"Hydraulic Excavator, Track - 21.0 to 24.0 Metric Tons",Georgia,TEX,Track Excavators,,EROPS w AC,,,,,,,,,,,Standard,,,,,,None or Unspecified,,,,Steel,None or Unspecified,None or Unspecified,None or Unspecified,None or Unspecified,Double,,,,,
22805,1166004,51000,1013985,121,3.0,2006,2377.0,Medium,6/18/2009 0:00,EC210BLC,EC210,B,,LC,Large / Medium,"Hydraulic Excavator, Track - 21.0 to 24.0 Metric Tons",Utah,TEX,Track Excavators,,EROPS w AC,,,,,,,,,,,Standard,,,,,,Hydraulic,,,,Steel,None or Unspecified,None or Unspecified,Hydraulic,None or Unspecified,Double,,,,,
22805,1168341,53000,1065342,121,3.0,2006,2179.0,Medium,8/27/2009 0:00,EC210BLC,EC210,B,,LC,Large / Medium,"Hydraulic Excavator, Track - 21.0 to 24.0 Metric Tons",Nevada,TEX,Track Excavators,,EROPS w AC,,,,,,,,,,,Auxiliary,,,,,,Hydraulic,,,,Steel,None or Unspecified,None or Unspecified,None or Unspecified,None or Unspecified,Double,,,,,
22805,1169071,97000,1010688,121,3.0,2006,711.0,Medium,11/15/2007 0:00,EC210BLC,EC210,B,,LC,Large / Medium,"Hydraulic Excavator, Track - 21.0 to 24.0 Metric Tons",Florida,TEX,Track Excavators,,EROPS w AC,,,,,,,,,,,Standard,,,,,,None or Unspecified,,,,Steel,None or Unspecified,None or Unspecified,None or Unspecified,None or Unspecified,Double,,,,,
22805,1176222,78000,1040114,121,3.0,2006,0.0,,12/13/2007 0:00,EC210BLC,EC210,B,,LC,Large / Medium,"Hydraulic Excavator, Track - 21.0 to 24.0 Metric Tons",California,TEX,Track Excavators,,EROPS w AC,,,,,,,,,,,Standard,,,,,,Manual,,,,Steel,None or Unspecified,None or Unspecified,None or Unspecified,None or Unspecified,Double,,,,,
22805,1176224,76000,1007479,121,3.0,2005,508.0,Low,12/13/2007 0:00,EC210BLC,EC210,B,,LC,Large / Medium,"Hydraulic Excavator, Track - 21.0 to 24.0 Metric Tons",Missouri,TEX,Track Excavators,,EROPS w AC,,,,,,,,,,,Auxiliary,,,,,,None or Unspecified,,,,Steel,None or Unspecified,None or Unspecified,None or Unspecified,None or Unspecified,Double,,,,,
22805,1177222,59000,1006870,121,3.0,2003,6761.0,High,1/31/2008 0:00,EC210BLC,EC210,B,,LC,Large / Medium,"Hydraulic Excavator, Track - 21.0 to 24.0 Metric Tons",Maine,TEX,Track Excavators,,EROPS w AC,,,,,,,,,,,Standard,,,,,,None or Unspecified,,,,Steel,None or Unspecified,None or Unspecified,None or Unspecified,None or Unspecified,Double,,,,,
22805,1178002,86000,1003311,121,3.0,2006,732.0,Low,3/6/2008 0:00,EC210BLC,EC210,B,,LC,Large / Medium,"Hydraulic Excavator, Track - 21.0 to 24.0 Metric Tons",Florida,TEX,Track Excavators,,EROPS w AC,,,,,,,,,,,Auxiliary,,,,,,None or Unspecified,,,,Steel,None or Unspecified,"9' 6""",None or Unspecified,None or Unspecified,Double,,,,,
22805,1179555,68000,1061727,121,3.0,2006,2767.0,High,5/1/2008 0:00,EC210BLC,EC210,B,,LC,Large / Medium,"Hydraulic Excavator, Track - 21.0 to 24.0 Metric Tons",Arizona,TEX,Track Excavators,,EROPS w AC,,,,,,,,,,,Standard,,,,,,Manual,,,,Steel,None or Unspecified,None or Unspecified,None or Unspecified,None or Unspecified,Double,,,,,
22805,1179837,61000,1029281,121,3.0,2004,1462.0,Low,5/15/2008 0:00,EC210BLC,EC210,B,,LC,Large / Medium,"Hydraulic Excavator, Track - 21.0 to 24.0 Metric Tons",Georgia,TEX,Track Excavators,,EROPS w AC,,,,,,,,,,,Standard,,,,,,None or Unspecified,,,,Steel,None or Unspecified,None or Unspecified,Manual,None or Unspecified,Double,,,,,
22805,1180875,73000,1021930,121,3.0,2006,1588.0,Medium,6/19/2008 0:00,EC210BLC,EC210,B,,LC,Large / Medium,"Hydraulic Excavator, Track - 21.0 to 24.0 Metric Tons",North Carolina,TEX,Track Excavators,,EROPS w AC,,,,,,,,,,,Standard,,,,,,None or Unspecified,,,,Steel,None or Unspecified,None or Unspecified,Manual,None or Unspecified,Double,,,,,
22805,1181141,66000,1061968,121,3.0,2005,1214.0,Low,6/26/2008 0:00,EC210BLC,EC210,B,,LC,Large / Medium,"Hydraulic Excavator, Track - 21.0 to 24.0 Metric Tons",New Hampshire,TEX,Track Excavators,,EROPS w AC,,,,,,,,,,,Auxiliary,,,,,,None or Unspecified,,,,Steel,None or Unspecified,None or Unspecified,Manual,None or Unspecified,Double,,,,,
22805,1181286,59000,1057654,121,3.0,2002,6565.0,High,7/24/2008 0:00,EC210BLC,EC210,B,,LC,Large / Medium,"Hydraulic Excavator, Track - 21.0 to 24.0 Metric Tons",Ohio,TEX,Track Excavators,,EROPS w AC,,,,,,,,,,,Auxiliary,,,,,,Manual,,,,Steel,None or Unspecified,None or Unspecified,None or Unspecified,None or Unspecified,Double,,,,,
22805,1181698,76000,1033692,121,3.0,2006,2004.0,Medium,7/24/2008 0:00,EC210BLC,EC210,B,,LC,Large / Medium,"Hydraulic Excavator, Track - 21.0 to 24.0 Metric Tons",Texas,TEX,Track Excavators,,EROPS w AC,,,,,,,,,,,Auxiliary,,,,,,None or Unspecified,,,,Steel,None or Unspecified,None or Unspecified,None or Unspecified,None or Unspecified,Double,,,,,
22805,1181699,59000,1059576,121,3.0,2005,2104.0,Medium,8/7/2008 0:00,EC210BLC,EC210,B,,LC,Large / Medium,"Hydraulic Excavator, Track - 21.0 to 24.0 Metric Tons",Texas,TEX,Track Excavators,,EROPS w AC,,,,,,,,,,,Auxiliary,,,,,,None or Unspecified,,,,Steel,None or Unspecified,None or Unspecified,None or Unspecified,None or Unspecified,Double,,,,,
22805,1181712,46000,1059010,121,3.0,2003,8271.0,High,8/7/2008 0:00,EC210BLC,EC210,B,,LC,Large / Medium,"Hydraulic Excavator, Track - 21.0 to 24.0 Metric Tons",Texas,TEX,Track Excavators,,EROPS w AC,,,,,,,,,,,Auxiliary,,,,,,Manual,,,,Steel,None or Unspecified,None or Unspecified,None or Unspecified,None or Unspecified,Double,,,,,
22805,1182614,49000,1068562,121,3.0,2004,2561.0,Medium,8/21/2008 0:00,EC210BLC,EC210,B,,LC,Large / Medium,"Hydraulic Excavator, Track - 21.0 to 24.0 Metric Tons",Virginia,TEX,Track Excavators,,EROPS w AC,,,,,,,,,,,Auxiliary,,,,,,Manual,,,,Steel,None or Unspecified,None or Unspecified,None or Unspecified,None or Unspecified,Double,,,,,
22805,1182617,62000,1023805,121,3.0,2005,2512.0,Medium,8/21/2008 0:00,EC210BLC,EC210,B,,LC,Large / Medium,"Hydraulic Excavator, Track - 21.0 to 24.0 Metric Tons",Georgia,TEX,Track Excavators,,EROPS w AC,,,,,,,,,,,Auxiliary,,,,,,None or Unspecified,,,,Steel,None or Unspecified,None or Unspecified,Manual,None or Unspecified,Double,,,,,
22805,1183284,46000,1047568,121,3.0,2003,4099.0,Medium,9/18/2008 0:00,EC210BLC,EC210,B,,LC,Large / Medium,"Hydraulic Excavator, Track - 21.0 to 24.0 Metric Tons",Ohio,TEX,Track Excavators,,EROPS w AC,,,,,,,,,,,Auxiliary,,,,,,Manual,,,,Steel,None or Unspecified,None or Unspecified,None or Unspecified,None or Unspecified,Double,,,,,
22805,1183597,60000,1056806,121,3.0,2005,1397.0,Medium,10/2/2008 0:00,EC210BLC,EC210,B,,LC,Large / Medium,"Hydraulic Excavator, Track - 21.0 to 24.0 Metric Tons",Utah,TEX,Track Excavators,,EROPS w AC,,,,,,,,,,,Auxiliary,,,,,,Manual,,,,Steel,25 inch,None or Unspecified,None or Unspecified,None or Unspecified,Double,,,,,
22805,1184940,49000,1039692,121,3.0,2006,3535.0,High,11/20/2008 0:00,EC210BLC,EC210,B,,LC,Large / Medium,"Hydraulic Excavator, Track - 21.0 to 24.0 Metric Tons",North Carolina,TEX,Track Excavators,,EROPS w AC,,,,,,,,,,,Auxiliary,,,,,,None or Unspecified,,,,Steel,None or Unspecified,None or Unspecified,None or Unspecified,None or Unspecified,Double,,,,,
22805,1185040,43000,1056593,121,3.0,2004,2385.0,Medium,11/6/2008 0:00,EC210BLC,EC210,B,,LC,Large / Medium,"Hydraulic Excavator, Track - 21.0 to 24.0 Metric Tons",Kentucky,TEX,Track Excavators,,EROPS w AC,,,,,,,,,,,Auxiliary,,,,,,Manual,,,,Steel,None or Unspecified,None or Unspecified,None or Unspecified,None or Unspecified,Double,,,,,
22805,1185094,67000,1040545,121,3.0,2006,846.0,Low,11/13/2008 0:00,EC210BLC,EC210,B,,LC,Large / Medium,"Hydraulic Excavator, Track - 21.0 to 24.0 Metric Tons",Georgia,TEX,Track Excavators,,EROPS w AC,,,,,,,,,,,Standard,,,,,,None or Unspecified,,,,Steel,None or Unspecified,None or Unspecified,Manual,None or Unspecified,Double,,,,,
22805,1185985,54000,1038704,121,3.0,2006,2240.0,High,12/4/2008 0:00,EC210BLC,EC210,B,,LC,Large / Medium,"Hydraulic Excavator, Track - 21.0 to 24.0 Metric Tons",Tennessee,TEX,Track Excavators,,EROPS w AC,,,,,,,,,,,Standard,,,,,,None or Unspecified,,,,Steel,None or Unspecified,None or Unspecified,None or Unspecified,None or Unspecified,Double,,,,,
22805,1186381,38000,1028022,121,3.0,2004,3745.0,Medium,12/11/2008 0:00,EC210BLC,EC210,B,,LC,Large / Medium,"Hydraulic Excavator, Track - 21.0 to 24.0 Metric Tons",Virginia,TEX,Track Excavators,,EROPS w AC,,,,,,,,,,,Auxiliary,,,,,,None or Unspecified,,,,Steel,None or Unspecified,None or Unspecified,None or Unspecified,None or Unspecified,Double,,,,,
22805,1186528,47000,1008903,121,3.0,2005,3341.0,High,12/18/2008 0:00,EC210BLC,EC210,B,,LC,Large / Medium,"Hydraulic Excavator, Track - 21.0 to 24.0 Metric Tons",Alabama,TEX,Track Excavators,,EROPS w AC,,,,,,,,,,,Auxiliary,,,,,,None or Unspecified,,,,Steel,32 inch,None or Unspecified,Manual,None or Unspecified,Double,,,,,
22805,1186531,68000,1051368,121,3.0,2006,1453.0,Medium,12/18/2008 0:00,EC210BLC,EC210,B,,LC,Large / Medium,"Hydraulic Excavator, Track - 21.0 to 24.0 Metric Tons",Montana,TEX,Track Excavators,,EROPS w AC,,,,,,,,,,,Standard,,,,,,None or Unspecified,,,,Steel,32 inch,"9' 6""",Manual,None or Unspecified,Double,,,,,
22805,1186768,55000,1044493,121,3.0,2006,3964.0,High,1/8/2009 0:00,EC210BLC,EC210,B,,LC,Large / Medium,"Hydraulic Excavator, Track - 21.0 to 24.0 Metric Tons",North Carolina,TEX,Track Excavators,,EROPS w AC,,,,,,,,,,,Standard,,,,,,None or Unspecified,,,,Steel,None or Unspecified,None or Unspecified,Hydraulic,None or Unspecified,Double,,,,,
22805,1186774,62000,1017405,121,3.0,2006,1820.0,Medium,1/8/2009 0:00,EC210BLC,EC210,B,,LC,Large / Medium,"Hydraulic Excavator, Track - 21.0 to 24.0 Metric Tons",Utah,TEX,Track Excavators,,EROPS w AC,,,,,,,,,,,Auxiliary,,,,,,Manual,,,,Steel,None or Unspecified,None or Unspecified,None or Unspecified,None or Unspecified,Double,,,,,
22805,1187579,46000,1032598,121,3.0,2005,2819.0,Medium,3/5/2009 0:00,EC210BLC,EC210,B,,LC,Large / Medium,"Hydraulic Excavator, Track - 21.0 to 24.0 Metric Tons",Utah,TEX,Track Excavators,,EROPS w AC,,,,,,,,,,,Auxiliary,,,,,,None or Unspecified,,,,Steel,None or Unspecified,None or Unspecified,None or Unspecified,None or Unspecified,Double,,,,,
22805,1187580,45000,1032195,121,3.0,2004,4556.0,Medium,1/29/2009 0:00,EC210BLC,EC210,B,,LC,Large / Medium,"Hydraulic Excavator, Track - 21.0 to 24.0 Metric Tons",North Carolina,TEX,Track Excavators,,EROPS w AC,,,,,,,,,,,Auxiliary,,,,,,Hydraulic,,,,Steel,None or Unspecified,None or Unspecified,Hydraulic,None or Unspecified,Double,,,,,
22805,1187948,40000,1027666,121,3.0,2004,1005.0,Low,3/5/2009 0:00,EC210BLC,EC210,B,,LC,Large / Medium,"Hydraulic Excavator, Track - 21.0 to 24.0 Metric Tons",California,TEX,Track Excavators,,EROPS w AC,,,,,,,,,,,Standard,,,,,,None or Unspecified,,,,Steel,None or Unspecified,None or Unspecified,Manual,None or Unspecified,Double,,,,,
22805,1187983,49000,1069309,121,3.0,2005,3553.0,Medium,3/5/2009 0:00,EC210BLC,EC210,B,,LC,Large / Medium,"Hydraulic Excavator, Track - 21.0 to 24.0 Metric Tons",Georgia,TEX,Track Excavators,,EROPS w AC,,,,,,,,,,,Standard,,,,,,None or Unspecified,,,,Steel,32 inch,None or Unspecified,Hydraulic,None or Unspecified,Double,,,,,
22805,1188039,45000,1061835,121,3.0,2005,2028.0,Medium,3/26/2009 0:00,EC210BLC,EC210,B,,LC,Large / Medium,"Hydraulic Excavator, Track - 21.0 to 24.0 Metric Tons",Ohio,TEX,Track Excavators,,EROPS w AC,,,,,,,,,,,Auxiliary,,,,,,Hydraulic,,,,Steel,None or Unspecified,None or Unspecified,None or Unspecified,None or Unspecified,Double,,,,,
22805,1188041,57000,1018424,121,3.0,2006,0.0,,3/26/2009 0:00,EC210BLC,EC210,B,,LC,Large / Medium,"Hydraulic Excavator, Track - 21.0 to 24.0 Metric Tons",Ohio,TEX,Track Excavators,,EROPS w AC,,,,,,,,,,,Auxiliary,,,,,,None or Unspecified,,,,Steel,None or Unspecified,None or Unspecified,None or Unspecified,None or Unspecified,Double,,,,,
22805,1188042,47000,1040735,121,3.0,2006,0.0,,3/26/2009 0:00,EC210BLC,EC210,B,,LC,Large / Medium,"Hydraulic Excavator, Track - 21.0 to 24.0 Metric Tons",Ohio,TEX,Track Excavators,,EROPS w AC,,,,,,,,,,,Auxiliary,,,,,,Hydraulic,,,,Steel,None or Unspecified,None or Unspecified,None or Unspecified,None or Unspecified,Double,,,,,
22805,1188052,45000,1050525,121,3.0,2004,4226.0,Medium,3/12/2009 0:00,EC210BLC,EC210,B,,LC,Large / Medium,"Hydraulic Excavator, Track - 21.0 to 24.0 Metric Tons",Utah,TEX,Track Excavators,,EROPS w AC,,,,,,,,,,,Auxiliary,,,,,,Hydraulic,,,,Steel,None or Unspecified,None or Unspecified,None or Unspecified,None or Unspecified,Double,,,,,
22805,1189146,41000,1000574,121,3.0,2005,2863.0,Medium,4/2/2009 0:00,EC210BLC,EC210,B,,LC,Large / Medium,"Hydraulic Excavator, Track - 21.0 to 24.0 Metric Tons",Utah,TEX,Track Excavators,,EROPS w AC,,,,,,,,,,,Auxiliary,,,,,,Hydraulic,,,,Steel,None or Unspecified,None or Unspecified,None or Unspecified,None or Unspecified,Double,,,,,
22805,1189340,44000,1052205,121,3.0,2005,4584.0,High,4/23/2009 0:00,EC210BLC,EC210,B,,LC,Large / Medium,"Hydraulic Excavator, Track - 21.0 to 24.0 Metric Tons",West Virginia,TEX,Track Excavators,,EROPS w AC,,,,,,,,,,,Auxiliary,,,,,,None or Unspecified,,,,Steel,None or Unspecified,None or Unspecified,None or Unspecified,None or Unspecified,Double,,,,,
22805,1189429,37000,1001498,121,3.0,2004,4507.0,Medium,4/30/2009 0:00,EC210BLC,EC210,B,,LC,Large / Medium,"Hydraulic Excavator, Track - 21.0 to 24.0 Metric Tons",Florida,TEX,Track Excavators,,EROPS w AC,,,,,,,,,,,Auxiliary,,,,,,None or Unspecified,,,,Steel,32 inch,None or Unspecified,None or Unspecified,None or Unspecified,Double,,,,,
22805,1190259,38000,1044898,121,3.0,2005,4411.0,High,5/14/2009 0:00,EC210BLC,EC210,B,,LC,Large / Medium,"Hydraulic Excavator, Track - 21.0 to 24.0 Metric Tons",Texas,TEX,Track Excavators,,EROPS w AC,,,,,,,,,,,Auxiliary,,,,,,None or Unspecified,,,,Steel,None or Unspecified,None or Unspecified,Manual,None or Unspecified,Double,,,,,
22805,1192321,33000,1052457,121,3.0,2003,6618.0,High,9/17/2009 0:00,EC210BLC,EC210,B,,LC,Large / Medium,"Hydraulic Excavator, Track - 21.0 to 24.0 Metric Tons",Florida,TEX,Track Excavators,,EROPS w AC,,,,,,,,,,,Auxiliary,,,,,,Hydraulic,,,,Steel,None or Unspecified,None or Unspecified,None or Unspecified,None or Unspecified,Double,,,,,
22805,1194259,53000,1011599,121,3.0,2006,2518.0,Medium,10/8/2009 0:00,EC210BLC,EC210,B,,LC,Large / Medium,"Hydraulic Excavator, Track - 21.0 to 24.0 Metric Tons",Kansas,TEX,Track Excavators,,EROPS w AC,,,,,,,,,,,Auxiliary,,,,,,Hydraulic,,,,Steel,32 inch,None or Unspecified,None or Unspecified,None or Unspecified,Double,,,,,
22805,1197445,54000,1065981,121,3.0,2006,,,12/17/2009 0:00,EC210BLC,EC210,B,,LC,Large / Medium,"Hydraulic Excavator, Track - 21.0 to 24.0 Metric Tons",Florida,TEX,Track Excavators,,EROPS w AC,,,,,,,,,,,Auxiliary,,,,,,None or Unspecified,,,,Steel,None or Unspecified,None or Unspecified,None or Unspecified,None or Unspecified,Double,,,,,
22805,1197715,27000,1047596,121,3.0,2002,,,12/16/2009 0:00,EC210BLC,EC210,B,,LC,Large / Medium,"Hydraulic Excavator, Track - 21.0 to 24.0 Metric Tons",Idaho,TEX,Track Excavators,,EROPS w AC,,,,,,,,,,,Auxiliary,,,,,,Hydraulic,,,,Steel,None or Unspecified,None or Unspecified,None or Unspecified,None or Unspecified,Double,,,,,
22805,1197717,45000,1027590,121,3.0,2006,3404.0,High,12/16/2009 0:00,EC210BLC,EC210,B,,LC,Large / Medium,"Hydraulic Excavator, Track - 21.0 to 24.0 Metric Tons",Georgia,TEX,Track Excavators,,EROPS w AC,,,,,,,,,,,Standard,,,,,,None or Unspecified,,,,Steel,None or Unspecified,None or Unspecified,Manual,None or Unspecified,Double,,,,,
22805,1204844,63000,1015357,121,3.0,2006,3827.0,Medium,8/12/2010 0:00,EC210BLC,EC210,B,,LC,Large / Medium,"Hydraulic Excavator, Track - 21.0 to 24.0 Metric Tons",Colorado,TEX,Track Excavators,,EROPS w AC,,,,,,,,,,,Auxiliary,,,,,,Hydraulic,,,,Steel,None or Unspecified,None or Unspecified,None or Unspecified,None or Unspecified,Double,,,,,
22805,1208855,42000,1044559,121,3.0,2005,,,10/28/2010 0:00,EC210BLC,EC210,B,,LC,Large / Medium,"Hydraulic Excavator, Track - 21.0 to 24.0 Metric Tons",Michigan,TEX,Track Excavators,,EROPS w AC,,,,,,,,,,,Standard,,,,,,None or Unspecified,,,,Steel,None or Unspecified,"9' 6""",None or Unspecified,None or Unspecified,Double,,,,,
22805,1211684,49000,1066630,121,3.0,2004,7913.0,High,2/24/2011 0:00,EC210BLC,EC210,B,,LC,Large / Medium,"Hydraulic Excavator, Track - 21.0 to 24.0 Metric Tons",North Carolina,TEX,Track Excavators,,EROPS w AC,,,,,,,,,,,Standard,,,,,,None or Unspecified,,,,Steel,None or Unspecified,"9' 6""",None or Unspecified,None or Unspecified,Double,,,,,
22805,1211685,48000,1065042,121,3.0,2004,7413.0,Medium,2/24/2011 0:00,EC210BLC,EC210,B,,LC,Large / Medium,"Hydraulic Excavator, Track - 21.0 to 24.0 Metric Tons",North Carolina,TEX,Track Excavators,,EROPS w AC,,,,,,,,,,,Standard,,,,,,None or Unspecified,,,,Steel,None or Unspecified,None or Unspecified,None or Unspecified,None or Unspecified,Double,,,,,
22805,1211687,46000,1013581,121,3.0,2004,8258.0,High,2/24/2011 0:00,EC210BLC,EC210,B,,LC,Large / Medium,"Hydraulic Excavator, Track - 21.0 to 24.0 Metric Tons",North Carolina,TEX,Track Excavators,,EROPS w AC,,,,,,,,,,,Standard,,,,,,None or Unspecified,,,,Steel,None or Unspecified,"9' 6""",None or Unspecified,None or Unspecified,Double,,,,,
22805,1211688,58000,1043764,121,3.0,2004,558.0,Low,2/24/2011 0:00,EC210BLC,EC210,B,,LC,Large / Medium,"Hydraulic Excavator, Track - 21.0 to 24.0 Metric Tons",North Carolina,TEX,Track Excavators,,EROPS w AC,,,,,,,,,,,Standard,,,,,,None or Unspecified,,,,Steel,None or Unspecified,"9' 6""",None or Unspecified,None or Unspecified,Double,,,,,
22805,1211689,47000,1013911,121,3.0,2004,8318.0,High,2/24/2011 0:00,EC210BLC,EC210,B,,LC,Large / Medium,"Hydraulic Excavator, Track - 21.0 to 24.0 Metric Tons",North Carolina,TEX,Track Excavators,,EROPS w AC,,,,,,,,,,,Auxiliary,,,,,,None or Unspecified,,,,Steel,None or Unspecified,"9' 6""",None or Unspecified,None or Unspecified,Double,,,,,
22805,1218002,45000,1038763,121,3.0,2006,7084.0,High,9/22/2011 0:00,EC210BLC,EC210,B,,LC,Large / Medium,"Hydraulic Excavator, Track - 21.0 to 24.0 Metric Tons",New Hampshire,TEX,Track Excavators,,EROPS w AC,,,,,,,,,,,Auxiliary,,,,,,Hydraulic,,,,Steel,None or Unspecified,"9' 6""",None or Unspecified,None or Unspecified,Double,,,,,
22805,1218477,47000,1010103,121,3.0,2004,6488.0,Medium,9/29/2011 0:00,EC210BLC,EC210,B,,LC,Large / Medium,"Hydraulic Excavator, Track - 21.0 to 24.0 Metric Tons",Ohio,TEX,Track Excavators,,EROPS w AC,,,,,,,,,,,Auxiliary,,,,,,None or Unspecified,,,,Steel,None or Unspecified,None or Unspecified,None or Unspecified,None or Unspecified,Double,,,,,
22805,1221049,76000,999752,121,3.0,2007,6404.0,High,11/17/2011 0:00,EC210BLC,EC210,B,,LC,Large / Medium,"Hydraulic Excavator, Track - 21.0 to 24.0 Metric Tons",North Carolina,TEX,Track Excavators,,EROPS w AC,,,,,,,,,,,Standard,,,,,,None or Unspecified,,,,Steel,None or Unspecified,"9' 6""",Hydraulic,None or Unspecified,Double,,,,,
22805,1221071,47000,1015273,121,3.0,2006,6411.0,High,11/17/2011 0:00,EC210BLC,EC210,B,,LC,Large / Medium,"Hydraulic Excavator, Track - 21.0 to 24.0 Metric Tons",Kentucky,TEX,Track Excavators,,EROPS w AC,,,,,,,,,,,Auxiliary,,,,,,None or Unspecified,,,,Steel,None or Unspecified,"9' 7""",Manual,None or Unspecified,Double,,,,,
22805,1222351,60000,1042932,121,3.0,2004,4056.0,Medium,12/15/2011 0:00,EC210BLC,EC210,B,,LC,Large / Medium,"Hydraulic Excavator, Track - 21.0 to 24.0 Metric Tons",Tennessee,TEX,Track Excavators,,EROPS w AC,,,,,,,,,,,Auxiliary,,,,,,Hydraulic,,,,Steel,None or Unspecified,"9' 7""",None or Unspecified,None or Unspecified,Double,,,,,
22805,2450116,31500,1722188,136,13.0,2004,6722.0,High,9/19/2009 0:00,EC210BLC,EC210,B,,LC,Large / Medium,"Hydraulic Excavator, Track - 21.0 to 24.0 Metric Tons",Tennessee,TEX,Track Excavators,,EROPS w AC,,,,,,,,,,,Auxiliary,,,,,,None or Unspecified,,,,Steel,None or Unspecified,None or Unspecified,None or Unspecified,None or Unspecified,Double,,,,,
22805,2450222,38250,1729396,136,13.0,2005,892.0,Low,12/12/2009 0:00,EC210BLC,EC210,B,,LC,Large / Medium,"Hydraulic Excavator, Track - 21.0 to 24.0 Metric Tons",Tennessee,TEX,Track Excavators,,EROPS w AC,,,,,,,,,,,Auxiliary,,,,,,None or Unspecified,,,,Steel,None or Unspecified,None or Unspecified,None or Unspecified,None or Unspecified,Double,,,,,
22805,2454488,32500,1714164,136,,2002,0.0,,5/14/2009 0:00,EC210BLC,EC210,B,,LC,Large / Medium,"Hydraulic Excavator, Track - 21.0 to 24.0 Metric Tons",Pennsylvania,TEX,Track Excavators,,EROPS,,,,,,,,,,,Auxiliary,,,,,,None or Unspecified,,,,Steel,None or Unspecified,None or Unspecified,None or Unspecified,None or Unspecified,Double,,,,,
22805,2454489,42500,1788945,136,,2002,0.0,,8/20/2009 0:00,EC210BLC,EC210,B,,LC,Large / Medium,"Hydraulic Excavator, Track - 21.0 to 24.0 Metric Tons",Colorado,TEX,Track Excavators,,EROPS w AC,,,,,,,,,,,Standard,,,,,,None or Unspecified,,,,Steel,None or Unspecified,None or Unspecified,None or Unspecified,None or Unspecified,Double,,,,,
22805,2454496,62500,1701547,136,1.0,2006,2403.0,Medium,6/8/2010 0:00,EC210BLC,EC210,B,,LC,Large / Medium,"Hydraulic Excavator, Track - 21.0 to 24.0 Metric Tons",Kentucky,TEX,Track Excavators,,EROPS w AC,,,,,,,,,,,Auxiliary,,,,,,None or Unspecified,,,,Steel,None or Unspecified,None or Unspecified,None or Unspecified,None or Unspecified,Double,,,,,
22805,2454515,53000,1772702,136,,2006,0.0,,5/14/2009 0:00,EC210BLC,EC210,B,,LC,Large / Medium,"Hydraulic Excavator, Track - 21.0 to 24.0 Metric Tons",Pennsylvania,TEX,Track Excavators,,EROPS,,,,,,,,,,,Auxiliary,,,,,,Manual,,,,Steel,None or Unspecified,None or Unspecified,None or Unspecified,None or Unspecified,Double,,,,,
22805,2454520,36000,1785424,136,1.0,2003,0.0,,2/5/2010 0:00,EC210BLC,EC210,B,,LC,Large / Medium,"Hydraulic Excavator, Track - 21.0 to 24.0 Metric Tons",Nevada,TEX,Track Excavators,,EROPS w AC,,,,,,,,,,,Auxiliary,,,,,,None or Unspecified,,,,Steel,None or Unspecified,None or Unspecified,None or Unspecified,None or Unspecified,Double,,,,,
22805,2454521,39000,1685971,136,,2004,0.0,,3/26/2009 0:00,EC210BLC,EC210,B,,LC,Large / Medium,"Hydraulic Excavator, Track - 21.0 to 24.0 Metric Tons",Georgia,TEX,Track Excavators,,EROPS w AC,,,,,,,,,,,Auxiliary,,,,,,None or Unspecified,,,,Steel,None or Unspecified,None or Unspecified,None or Unspecified,None or Unspecified,Double,,,,,
22805,2454525,42000,1711668,136,1.0,2004,5034.0,Medium,3/24/2010 0:00,EC210BLC,EC210,B,,LC,Large / Medium,"Hydraulic Excavator, Track - 21.0 to 24.0 Metric Tons",Texas,TEX,Track Excavators,,EROPS w AC,,,,,,,,,,,Auxiliary,,,,,,None or Unspecified,,,,Steel,None or Unspecified,None or Unspecified,None or Unspecified,None or Unspecified,Double,,,,,
22805,2454526,45000,1654931,136,1.0,2005,4172.0,Medium,6/23/2010 0:00,EC210BLC,EC210,B,,LC,Large / Medium,"Hydraulic Excavator, Track - 21.0 to 24.0 Metric Tons",Ohio,TEX,Track Excavators,,EROPS w AC,,,,,,,,,,,Standard,,,,,,None or Unspecified,,,,Steel,None or Unspecified,"9' 10""",None or Unspecified,None or Unspecified,Double,,,,,
22805,2454529,41000,1746118,136,1.0,2004,0.0,,12/2/2009 0:00,EC210BLC,EC210,B,,LC,Large / Medium,"Hydraulic Excavator, Track - 21.0 to 24.0 Metric Tons",Texas,TEX,Track Excavators,,EROPS w AC,,,,,,,,,,,Auxiliary,,,,,,None or Unspecified,,,,Steel,None or Unspecified,None or Unspecified,None or Unspecified,None or Unspecified,Double,,,,,
22805,2454532,39000,1715380,136,,2004,0.0,,9/10/2009 0:00,EC210BLC,EC210,B,,LC,Large / Medium,"Hydraulic Excavator, Track - 21.0 to 24.0 Metric Tons",Georgia,TEX,Track Excavators,,EROPS w AC,,,,,,,,,,,Standard,,,,,,None or Unspecified,,,,Steel,None or Unspecified,None or Unspecified,None or Unspecified,None or Unspecified,Double,,,,,
22805,2454534,41000,1777097,136,,2004,3971.0,Medium,11/10/2009 0:00,EC210BLC,EC210,B,,LC,Large / Medium,"Hydraulic Excavator, Track - 21.0 to 24.0 Metric Tons",Michigan,TEX,Track Excavators,,EROPS,,,,,,,,,,,Auxiliary,,,,,,Hydraulic,,,,Steel,None or Unspecified,None or Unspecified,None or Unspecified,None or Unspecified,Double,,,,,
22805,2454537,46000,1773743,136,,2004,2565.0,Medium,9/22/2009 0:00,EC210BLC,EC210,B,,LC,Large / Medium,"Hydraulic Excavator, Track - 21.0 to 24.0 Metric Tons",North Carolina,TEX,Track Excavators,,EROPS w AC,,,,,,,,,,,Standard,,,,,,None or Unspecified,,,,Steel,None or Unspecified,None or Unspecified,Hydraulic,None or Unspecified,Double,,,,,
22805,2454540,42000,1703430,136,1.0,2005,3425.0,Medium,12/17/2009 0:00,EC210BLC,EC210,B,,LC,Large / Medium,"Hydraulic Excavator, Track - 21.0 to 24.0 Metric Tons",California,TEX,Track Excavators,,EROPS w AC,,,,,,,,,,,Auxiliary,,,,,,Hydraulic,,,,Steel,None or Unspecified,None or Unspecified,None or Unspecified,None or Unspecified,Double,,,,,
22805,2454543,60000,1676329,136,1.0,2005,0.0,,2/15/2010 0:00,EC210BLC,EC210,B,,LC,Large / Medium,"Hydraulic Excavator, Track - 21.0 to 24.0 Metric Tons",Florida,TEX,Track Excavators,,EROPS w AC,,,,,,,,,,,Auxiliary,,,,,,None or Unspecified,,,,Steel,None or Unspecified,None or Unspecified,Manual,None or Unspecified,Double,,,,,
22805,2454544,40000,1647518,136,2.0,2005,0.0,,4/21/2010 0:00,EC210BLC,EC210,B,,LC,Large / Medium,"Hydraulic Excavator, Track - 21.0 to 24.0 Metric Tons",Tennessee,TEX,Track Excavators,,EROPS w AC,,,,,,,,,,,Auxiliary,,,,,,None or Unspecified,,,,Steel,None or Unspecified,None or Unspecified,None or Unspecified,None or Unspecified,Triple,,,,,
22805,2454545,39000,1779278,136,,2005,0.0,,3/26/2009 0:00,EC210BLC,EC210,B,,LC,Large / Medium,"Hydraulic Excavator, Track - 21.0 to 24.0 Metric Tons",Georgia,TEX,Track Excavators,,EROPS w AC,,,,,,,,,,,Auxiliary,,,,,,None or Unspecified,,,,Steel,None or Unspecified,None or Unspecified,Manual,None or Unspecified,Double,,,,,
22805,2454546,35000,1639218,136,,2005,0.0,,3/26/2009 0:00,EC210BLC,EC210,B,,LC,Large / Medium,"Hydraulic Excavator, Track - 21.0 to 24.0 Metric Tons",Georgia,TEX,Track Excavators,,EROPS w AC,,,,,,,,,,,Auxiliary,,,,,,None or Unspecified,,,,Steel,None or Unspecified,None or Unspecified,Manual,None or Unspecified,Double,,,,,
22805,2454547,34000,1044898,136,,2005,0.0,,3/25/2009 0:00,EC210BLC,EC210,B,,LC,Large / Medium,"Hydraulic Excavator, Track - 21.0 to 24.0 Metric Tons",Texas,TEX,Track Excavators,,EROPS w AC,,,,,,,,,,,Auxiliary,,,,,,None or Unspecified,,,,Steel,None or Unspecified,None or Unspecified,Manual,None or Unspecified,Double,,,,,
22805,2454549,40000,1674014,136,1.0,2005,6363.0,High,12/8/2009 0:00,EC210BLC,EC210,B,,LC,Large / Medium,"Hydraulic Excavator, Track - 21.0 to 24.0 Metric Tons",North Carolina,TEX,Track Excavators,,EROPS w AC,,,,,,,,,,,Standard,,,,,,None or Unspecified,,,,Steel,None or Unspecified,None or Unspecified,Hydraulic,None or Unspecified,Double,,,,,
22805,2454550,43000,1738611,136,1.0,2005,6281.0,High,12/8/2009 0:00,EC210BLC,EC210,B,,LC,Large / Medium,"Hydraulic Excavator, Track - 21.0 to 24.0 Metric Tons",North Carolina,TEX,Track Excavators,,EROPS w AC,,,,,,,,,,,Standard,,,,,,None or Unspecified,,,,Steel,None or Unspecified,None or Unspecified,Hydraulic,None or Unspecified,Double,,,,,
22805,2454556,55000,1684212,136,,2005,3230.0,Medium,11/13/2009 0:00,EC210BLC,EC210,B,,LC,Large / Medium,"Hydraulic Excavator, Track - 21.0 to 24.0 Metric Tons",Utah,TEX,Track Excavators,,EROPS w AC,,,,,,,,,,,Auxiliary,,,,,,Hydraulic,,,,Steel,None or Unspecified,None or Unspecified,None or Unspecified,None or Unspecified,Double,,,,,
22805,2454557,61000,1660426,136,1.0,1000,1068.0,Low,2/2/2010 0:00,EC210BLC,EC210,B,,LC,Large / Medium,"Hydraulic Excavator, Track - 21.0 to 24.0 Metric Tons",Arizona,TEX,Track Excavators,,EROPS w AC,,,,,,,,,,,Auxiliary,,,,,,None or Unspecified,,,,Steel,None or Unspecified,None or Unspecified,None or Unspecified,None or Unspecified,Double,,,,,
22805,2454558,53000,1717798,136,,2006,3319.0,High,5/14/2009 0:00,EC210BLC,EC210,B,,LC,Large / Medium,"Hydraulic Excavator, Track - 21.0 to 24.0 Metric Tons",Pennsylvania,TEX,Track Excavators,,EROPS,,,,,,,,,,,Standard,,,,,,Manual,,,,Steel,None or Unspecified,None or Unspecified,None or Unspecified,None or Unspecified,Double,,,,,
22805,2454559,42500,1684514,136,1.0,2006,2309.0,Medium,2/15/2010 0:00,EC210BLC,EC210,B,,LC,Large / Medium,"Hydraulic Excavator, Track - 21.0 to 24.0 Metric Tons",Florida,TEX,Track Excavators,,EROPS w AC,,,,,,,,,,,Auxiliary,,,,,,None or Unspecified,,,,Steel,None or Unspecified,None or Unspecified,None or Unspecified,None or Unspecified,Double,,,,,
22805,2454561,57500,1752061,136,,2006,0.0,,3/26/2009 0:00,EC210BLC,EC210,B,,LC,Large / Medium,"Hydraulic Excavator, Track - 21.0 to 24.0 Metric Tons",Georgia,TEX,Track Excavators,,EROPS w AC,,,,,,,,,,,Auxiliary,,,,,,None or Unspecified,,,,Steel,None or Unspecified,None or Unspecified,Manual,None or Unspecified,Double,,,,,
22805,2454562,63000,1640374,136,,2006,3203.0,High,8/20/2009 0:00,EC210BLC,EC210,B,,LC,Large / Medium,"Hydraulic Excavator, Track - 21.0 to 24.0 Metric Tons",Colorado,TEX,Track Excavators,,EROPS,,,,,,,,,,,Standard,,,,,,Hydraulic,,,,Steel,None or Unspecified,None or Unspecified,Manual,None or Unspecified,Double,,,,,
22805,2454564,49750,1755571,136,12.0,2006,0.0,,12/9/2009 0:00,EC210BLC,EC210,B,,LC,Large / Medium,"Hydraulic Excavator, Track - 21.0 to 24.0 Metric Tons",South Carolina,TEX,Track Excavators,,EROPS,,,,,,,,,,,Standard,,,,,,None or Unspecified,,,,Steel,None or Unspecified,None or Unspecified,Hydraulic,None or Unspecified,Double,,,,,
22805,2454568,60000,1717589,136,,1000,108900.0,Low,4/24/2009 0:00,EC210BLC,EC210,B,,LC,Large / Medium,"Hydraulic Excavator, Track - 21.0 to 24.0 Metric Tons",Maryland,TEX,Track Excavators,,EROPS,,,,,,,,,,,Standard,,,,,,None or Unspecified,,,,Steel,None or Unspecified,None or Unspecified,None or Unspecified,None or Unspecified,Double,,,,,
22805,2454571,49000,1739459,136,,2006,1867.0,Medium,9/22/2009 0:00,EC210BLC,EC210,B,,LC,Large / Medium,"Hydraulic Excavator, Track - 21.0 to 24.0 Metric Tons",North Carolina,TEX,Track Excavators,,EROPS w AC,,,,,,,,,,,Standard,,,,,,None or Unspecified,,,,Steel,None or Unspecified,None or Unspecified,None or Unspecified,None or Unspecified,Double,,,,,
22805,2456795,39000,1690155,136,99.0,2004,3125.0,Medium,12/2/2009 0:00,EC210BLC,EC210,B,,LC,Large / Medium,"Hydraulic Excavator, Track - 21.0 to 24.0 Metric Tons",Alabama,TEX,Track Excavators,,EROPS w AC,,,,,,,,,,,Standard,,,,,,None or Unspecified,,,,Steel,None or Unspecified,None or Unspecified,Manual,None or Unspecified,Triple,,,,,
22805,2456798,40000,1745237,136,7.0,2004,2650.0,Medium,6/16/2009 0:00,EC210BLC,EC210,B,,LC,Large / Medium,"Hydraulic Excavator, Track - 21.0 to 24.0 Metric Tons",Alabama,TEX,Track Excavators,,EROPS,,,,,,,,,,,Standard,,,,,,None or Unspecified,,,,Steel,None or Unspecified,None or Unspecified,None or Unspecified,None or Unspecified,Triple,,,,,
22805,2747729,46000,1922801,149,10.0,2005,,,6/15/2011 0:00,EC210BLC,EC210,B,,LC,Large / Medium,"Hydraulic Excavator, Track - 21.0 to 24.0 Metric Tons",Louisiana,TEX,Track Excavators,,EROPS,,,,,,,,,,,Standard,,,,,,None or Unspecified,,,,Steel,32 inch,None or Unspecified,None or Unspecified,None or Unspecified,Triple,,,,,
22805,2752679,51000,1875289,149,2.0,2004,,,4/9/2011 0:00,EC210BLC,EC210,B,,LC,Large / Medium,"Hydraulic Excavator, Track - 21.0 to 24.0 Metric Tons",Wisconsin,TEX,Track Excavators,,EROPS,,,,,,,,,,,Standard,,,,,,None or Unspecified,,,,Steel,None or Unspecified,None or Unspecified,None or Unspecified,None or Unspecified,Double,,,,,
22805,2752687,44500,1863445,149,10.0,2004,,,4/6/2011 0:00,EC210BLC,EC210,B,,LC,Large / Medium,"Hydraulic Excavator, Track - 21.0 to 24.0 Metric Tons",Louisiana,TEX,Track Excavators,,EROPS w AC,,,,,,,,,,,Standard,,,,,,None or Unspecified,,,,Steel,None or Unspecified,None or Unspecified,None or Unspecified,None or Unspecified,Double,,,,,
22805,2752690,49000,1888369,149,1.0,2004,5414.0,Medium,4/19/2011 0:00,EC210BLC,EC210,B,,LC,Large / Medium,"Hydraulic Excavator, Track - 21.0 to 24.0 Metric Tons",Utah,TEX,Track Excavators,,EROPS w AC,,,,,,,,,,,Auxiliary,,,,,,Hydraulic,,,,Steel,None or Unspecified,None or Unspecified,None or Unspecified,None or Unspecified,Double,,,,,
22805,2752699,40000,1832943,149,1.0,2004,,,3/31/2011 0:00,EC210BLC,EC210,B,,LC,Large / Medium,"Hydraulic Excavator, Track - 21.0 to 24.0 Metric Tons",Georgia,TEX,Track Excavators,,EROPS w AC,,,,,,,,,,,Auxiliary,,,,,,None or Unspecified,,,,Steel,None or Unspecified,None or Unspecified,None or Unspecified,None or Unspecified,Double,,,,,
22805,2752710,61000,1916929,149,2.0,2005,,,4/9/2011 0:00,EC210BLC,EC210,B,,LC,Large / Medium,"Hydraulic Excavator, Track - 21.0 to 24.0 Metric Tons",Wisconsin,TEX,Track Excavators,,EROPS,,,,,,,,,,,Standard,,,,,,None or Unspecified,,,,Steel,None or Unspecified,None or Unspecified,None or Unspecified,None or Unspecified,Double,,,,,
22805,2752711,57500,1837693,149,2.0,2005,,,4/9/2011 0:00,EC210BLC,EC210,B,,LC,Large / Medium,"Hydraulic Excavator, Track - 21.0 to 24.0 Metric Tons",Wisconsin,TEX,Track Excavators,,EROPS,,,,,,,,,,,Standard,,,,,,None or Unspecified,,,,Steel,None or Unspecified,None or Unspecified,None or Unspecified,None or Unspecified,Double,,,,,
22805,2752712,60000,1826835,149,1.0,2005,6260.0,Medium,6/10/2011 0:00,EC210BLC,EC210,B,,LC,Large / Medium,"Hydraulic Excavator, Track - 21.0 to 24.0 Metric Tons",Nevada,TEX,Track Excavators,,EROPS,,,,,,,,,,,Standard,,,,,,Hydraulic,,,,Steel,None or Unspecified,None or Unspecified,None or Unspecified,None or Unspecified,Double,,,,,
22805,2752715,68000,1822883,149,1.0,2005,3058.0,Medium,6/16/2011 0:00,EC210BLC,EC210,B,,LC,Large / Medium,"Hydraulic Excavator, Track - 21.0 to 24.0 Metric Tons",Washington,TEX,Track Excavators,,EROPS,,,,,,,,,,,Standard,,,,,,None or Unspecified,,,,Steel,None or Unspecified,"9' 6""",Hydraulic,None or Unspecified,Double,,,,,
22805,2752722,46000,1843738,149,1.0,2005,7193.0,High,5/11/2011 0:00,EC210BLC,EC210,B,,LC,Large / Medium,"Hydraulic Excavator, Track - 21.0 to 24.0 Metric Tons",Texas,TEX,Track Excavators,,EROPS w AC,,,,,,,,,,,Auxiliary,,,,,,Manual,,,,Steel,None or Unspecified,None or Unspecified,None or Unspecified,None or Unspecified,Double,,,,,
22805,4390100,49000,2296440,172,1.0,2005,9306.0,High,11/3/2010 0:00,EC210BLC,EC210,B,,LC,Large / Medium,"Hydraulic Excavator, Track - 21.0 to 24.0 Metric Tons",Texas,TEX,Track Excavators,,EROPS w AC,,,,,,,,,,,Auxiliary,,,,,,None or Unspecified,,,,Steel,None or Unspecified,None or Unspecified,Manual,None or Unspecified,Double,,,,,
22805,4390107,55000,2308530,172,1.0,2006,5600.0,High,11/3/2010 0:00,EC210BLC,EC210,B,,LC,Large / Medium,"Hydraulic Excavator, Track - 21.0 to 24.0 Metric Tons",Texas,TEX,Track Excavators,,EROPS w AC,,,,,,,,,,,Standard,,,,,,None or Unspecified,,,,Steel,None or Unspecified,None or Unspecified,Manual,None or Unspecified,Double,,,,,
22805,4392739,67500,2283776,172,1.0,2004,1845.0,Low,12/14/2010 0:00,EC210BLC,EC210,B,,LC,Large / Medium,"Hydraulic Excavator, Track - 21.0 to 24.0 Metric Tons",California,TEX,Track Excavators,,EROPS w AC,,,,,,,,,,,Auxiliary,,,,,,None or Unspecified,,,,Steel,None or Unspecified,None or Unspecified,Hydraulic,None or Unspecified,Double,,,,,
22805,4392745,63000,2293558,172,1.0,2006,3203.0,High,8/20/2009 0:00,EC210BLC,EC210,B,,LC,Large / Medium,"Hydraulic Excavator, Track - 21.0 to 24.0 Metric Tons",Colorado,TEX,Track Excavators,,EROPS,,,,,,,,,,,Standard,,,,,,None or Unspecified,,,,Steel,None or Unspecified,None or Unspecified,Manual,None or Unspecified,Double,,,,,
22805,4392749,45000,2271006,172,1.0,2002,3039.0,Low,12/4/2011 0:00,EC210BLC,EC210,B,,LC,Large / Medium,"Hydraulic Excavator, Track - 21.0 to 24.0 Metric Tons",Arizona,TEX,Track Excavators,,EROPS w AC,,,,,,,,,,,Auxiliary,,,,,,None or Unspecified,,,,Steel,None or Unspecified,None or Unspecified,Hydraulic,None or Unspecified,Double,,,,,
22805,4392777,45000,2290503,172,1.0,2003,5078.0,Medium,3/9/2011 0:00,EC210BLC,EC210,B,,LC,Large / Medium,"Hydraulic Excavator, Track - 21.0 to 24.0 Metric Tons",Texas,TEX,Track Excavators,,EROPS w AC,,,,,,,,,,,Auxiliary,,,,,,None or Unspecified,,,,Steel,None or Unspecified,None or Unspecified,None or Unspecified,None or Unspecified,Double,,,,,
22805,4392784,47500,2294447,172,1.0,2004,3832.0,Medium,11/17/2009 0:00,EC210BLC,EC210,B,,LC,Large / Medium,"Hydraulic Excavator, Track - 21.0 to 24.0 Metric Tons",Texas,TEX,Track Excavators,,EROPS w AC,,,,,,,,,,,Auxiliary,,,,,,None or Unspecified,,,,Steel,None or Unspecified,None or Unspecified,None or Unspecified,None or Unspecified,Double,,,,,
22805,4392786,62000,2277985,172,1.0,2004,2999.0,Medium,11/12/2010 0:00,EC210BLC,EC210,B,,LC,Large / Medium,"Hydraulic Excavator, Track - 21.0 to 24.0 Metric Tons",Montana,TEX,Track Excavators,,EROPS w AC,,,,,,,,,,,Auxiliary,,,,,,None or Unspecified,,,,Steel,None or Unspecified,None or Unspecified,None or Unspecified,None or Unspecified,Double,,,,,
22805,4392797,42000,2271128,172,1.0,2004,9304.0,High,2/15/2011 0:00,EC210BLC,EC210,B,,LC,Large / Medium,"Hydraulic Excavator, Track - 21.0 to 24.0 Metric Tons",Florida,TEX,Track Excavators,,EROPS w AC,,,,,,,,,,,Auxiliary,,,,,,None or Unspecified,,,,Steel,None or Unspecified,None or Unspecified,Manual,None or Unspecified,Double,,,,,
22805,4392799,47500,1020765,172,1.0,2005,2882.0,Medium,6/4/2009 0:00,EC210BLC,EC210,B,,LC,Large / Medium,"Hydraulic Excavator, Track - 21.0 to 24.0 Metric Tons",Colorado,TEX,Track Excavators,,EROPS w AC,,,,,,,,,,,Auxiliary,,,,,,Hydraulic,,,,Steel,None or Unspecified,None or Unspecified,None or Unspecified,None or Unspecified,Double,,,,,
22805,4392810,58000,2275927,172,1.0,2005,5591.0,Medium,3/24/2011 0:00,EC210BLC,EC210,B,,LC,Large / Medium,"Hydraulic Excavator, Track - 21.0 to 24.0 Metric Tons",Nevada,TEX,Track Excavators,,EROPS w AC,,,,,,,,,,,Auxiliary,,,,,,None or Unspecified,,,,Steel,None or Unspecified,None or Unspecified,None or Unspecified,None or Unspecified,Double,,,,,
22805,4392818,85000,1897896,172,1.0,2006,1508.0,Low,5/27/2010 0:00,EC210BLC,EC210,B,,LC,Large / Medium,"Hydraulic Excavator, Track - 21.0 to 24.0 Metric Tons",Washington,TEX,Track Excavators,,EROPS w AC,,,,,,,,,,,Standard,,,,,,Hydraulic,,,,Steel,None or Unspecified,"9' 6""",Hydraulic,None or Unspecified,Double,,,,,
22805,4392820,53000,2298331,172,1.0,2006,3354.0,High,5/14/2009 0:00,EC210BLC,EC210,B,,LC,Large / Medium,"Hydraulic Excavator, Track - 21.0 to 24.0 Metric Tons",Pennsylvania,TEX,Track Excavators,,EROPS,,,,,,,,,,,Auxiliary,,,,,,None or Unspecified,,,,Steel,None or Unspecified,None or Unspecified,None or Unspecified,None or Unspecified,Double,,,,,
22805,4392826,62500,2273576,172,1.0,2006,1905.0,Medium,2/25/2009 0:00,EC210BLC,EC210,B,,LC,Large / Medium,"Hydraulic Excavator, Track - 21.0 to 24.0 Metric Tons",Arizona,TEX,Track Excavators,,EROPS w AC,,,,,,,,,,,Auxiliary,,,,,,None or Unspecified,,,,Steel,None or Unspecified,None or Unspecified,None or Unspecified,None or Unspecified,Double,,,,,
22805,4392830,57000,2275960,172,1.0,2006,2528.0,Medium,8/7/2009 0:00,EC210BLC,EC210,B,,LC,Large / Medium,"Hydraulic Excavator, Track - 21.0 to 24.0 Metric Tons",Nevada,TEX,Track Excavators,,EROPS w AC,,,,,,,,,,,Standard,,,,,,None or Unspecified,,,,Steel,None or Unspecified,None or Unspecified,Hydraulic,None or Unspecified,Double,,,,,
22805,4392831,41000,2290266,172,1.0,2006,,,2/15/2011 0:00,EC210BLC,EC210,B,,LC,Large / Medium,"Hydraulic Excavator, Track - 21.0 to 24.0 Metric Tons",Florida,TEX,Track Excavators,,EROPS w AC,,,,,,,,,,,Standard,,,,,,None or Unspecified,,,,Steel,None or Unspecified,None or Unspecified,None or Unspecified,None or Unspecified,Double,,,,,
22805,4392832,65000,2281111,172,1.0,2006,2265.0,Medium,4/13/2011 0:00,EC210BLC,EC210,B,,LC,Large / Medium,"Hydraulic Excavator, Track - 21.0 to 24.0 Metric Tons",Texas,TEX,Track Excavators,,EROPS w AC,,,,,,,,,,,Auxiliary,,,,,,None or Unspecified,,,,Steel,None or Unspecified,None or Unspecified,Manual,None or Unspecified,Double,,,,,
22805,4392847,52000,2290893,172,1.0,2005,3873.0,Medium,6/23/2011 0:00,EC210BLC,EC210,B,,LC,Large / Medium,"Hydraulic Excavator, Track - 21.0 to 24.0 Metric Tons",Ohio,TEX,Track Excavators,,EROPS w AC,,,,,,,,,,,Auxiliary,,,,,,None or Unspecified,,,,Steel,None or Unspecified,None or Unspecified,Hydraulic,None or Unspecified,Triple,,,,,
22805,4392848,81000,2290893,172,1.0,2006,,,12/4/2011 0:00,EC210BLC,EC210,B,,LC,Large / Medium,"Hydraulic Excavator, Track - 21.0 to 24.0 Metric Tons",Arizona,TEX,Track Excavators,,EROPS w AC,,,,,,,,,,,Auxiliary,,,,,,None or Unspecified,,,,Steel,None or Unspecified,None or Unspecified,Hydraulic,None or Unspecified,Triple,,,,,
22805,4392850,51000,2290893,172,1.0,2004,5892.0,High,11/15/2011 0:00,EC210BLC,EC210,B,,LC,Large / Medium,"Hydraulic Excavator, Track - 21.0 to 24.0 Metric Tons",Texas,TEX,Track Excavators,,EROPS w AC,,,,,,,,,,,Auxiliary,,,,,,None or Unspecified,,,,Steel,None or Unspecified,None or Unspecified,Hydraulic,None or Unspecified,Triple,,,,,
22805,4392853,67500,2290893,172,1.0,2006,4925.0,Medium,12/7/2011 0:00,EC210BLC,EC210,B,,LC,Large / Medium,"Hydraulic Excavator, Track - 21.0 to 24.0 Metric Tons",Texas,TEX,Track Excavators,,EROPS w AC,,,,,,,,,,,Auxiliary,,,,,,None or Unspecified,,,,Steel,None or Unspecified,None or Unspecified,Hydraulic,None or Unspecified,Triple,,,,,
22805,4392854,42500,2290893,172,1.0,2004,7893.0,High,12/11/2011 0:00,EC210BLC,EC210,B,,LC,Large / Medium,"Hydraulic Excavator, Track - 21.0 to 24.0 Metric Tons",Utah,TEX,Track Excavators,,EROPS w AC,,,,,,,,,,,Auxiliary,,,,,,None or Unspecified,,,,Steel,None or Unspecified,None or Unspecified,Hydraulic,None or Unspecified,Triple,,,,,
22805,4392864,52000,2290893,172,1.0,2005,3873.0,Medium,6/22/2011 0:00,EC210BLC,EC210,B,,LC,Large / Medium,"Hydraulic Excavator, Track - 21.0 to 24.0 Metric Tons",Ohio,TEX,Track Excavators,,EROPS w AC,,,,,,,,,,,Auxiliary,,,,,,None or Unspecified,,,,Steel,None or Unspecified,None or Unspecified,Hydraulic,None or Unspecified,Triple,,,,,
22805,6318500,45000,1857109,149,2.0,2004,,,10/25/2011 0:00,EC210BLC,EC210,B,,LC,Large / Medium,"Hydraulic Excavator, Track - 21.0 to 24.0 Metric Tons",Florida,TEX,Track Excavators,,EROPS,,,,,,,,,,,Standard,,,,,,None or Unspecified,,,,Steel,None or Unspecified,None or Unspecified,None or Unspecified,None or Unspecified,Double,,,,,
22805,6318523,55000,1939900,149,2.0,2004,,,10/25/2011 0:00,EC210BLC,EC210,B,,LC,Large / Medium,"Hydraulic Excavator, Track - 21.0 to 24.0 Metric Tons",Florida,TEX,Track Excavators,,EROPS,,,,,,,,,,,Standard,,,,,,None or Unspecified,,,,Steel,None or Unspecified,None or Unspecified,None or Unspecified,None or Unspecified,Double,,,,,
22805,6319660,42000,1804229,149,2.0,2004,,,12/14/2011 0:00,EC210BLC,EC210,B,,LC,Large / Medium,"Hydraulic Excavator, Track - 21.0 to 24.0 Metric Tons",Florida,TEX,Track Excavators,,EROPS,,,,,,,,,,,Standard,,,,,,None or Unspecified,,,,Steel,None or Unspecified,None or Unspecified,None or Unspecified,None or Unspecified,Double,,,,,
22805,6319662,45000,1816865,149,1.0,2002,,,12/5/2011 0:00,EC210BLC,EC210,B,,LC,Large / Medium,"Hydraulic Excavator, Track - 21.0 to 24.0 Metric Tons",Arizona,TEX,Track Excavators,,EROPS,,,,,,,,,,,Auxiliary,,,,,,None or Unspecified,,,,Steel,None or Unspecified,None or Unspecified,None or Unspecified,None or Unspecified,Double,,,,,
22805,6319674,42500,1914864,149,1.0,2004,,,12/12/2011 0:00,EC210BLC,EC210,B,,LC,Large / Medium,"Hydraulic Excavator, Track - 21.0 to 24.0 Metric Tons",Utah,TEX,Track Excavators,,EROPS w AC,,,,,,,,,,,Standard,,,,,,None or Unspecified,,,,Steel,None or Unspecified,None or Unspecified,None or Unspecified,None or Unspecified,Double,,,,,
22805,6319678,51000,1816111,149,1.0,2004,,,11/16/2011 0:00,EC210BLC,EC210,B,,LC,Large / Medium,"Hydraulic Excavator, Track - 21.0 to 24.0 Metric Tons",Texas,TEX,Track Excavators,,EROPS w AC,,,,,,,,,,,Auxiliary,,,,,,None or Unspecified,,,,Steel,None or Unspecified,None or Unspecified,None or Unspecified,None or Unspecified,Double,,,,,
22805,6319692,81000,1819858,149,1.0,2006,,,12/5/2011 0:00,EC210BLC,EC210,B,,LC,Large / Medium,"Hydraulic Excavator, Track - 21.0 to 24.0 Metric Tons",Arizona,TEX,Track Excavators,,EROPS w AC,,,,,,,,,,,Auxiliary,,,,,,None or Unspecified,,,,Steel,None or Unspecified,None or Unspecified,Hydraulic,None or Unspecified,Double,,,,,
22805,6319695,67500,1914361,149,1.0,2006,,,12/8/2011 0:00,EC210BLC,EC210,B,,LC,Large / Medium,"Hydraulic Excavator, Track - 21.0 to 24.0 Metric Tons",Texas,TEX,Track Excavators,,EROPS w AC,,,,,,,,,,,Auxiliary,,,,,,Hydraulic,,,,Steel,None or Unspecified,None or Unspecified,None or Unspecified,None or Unspecified,Double,,,,,
