SalesID,2753954
SalePrice,13500
MachineID,1893599
datasource,149
auctioneerID,1.0
YearMade,2005
MachineHoursCurrentMeter,
UsageBand,
saledate,9/29/2010 0:00
fiModelDesc,L35BZ
fiBaseModel,L35
fiSecondaryDesc,BZ
fiModelSeries,
fiModelDescriptor,
ProductSize,Compact
fiProductClassDesc,Wheel Loader - 60.0 to 80.0 Horsepower
state,Texas
ProductGroup,WL
ProductGroupDesc,Wheel Loader
Drive_System,
Enclosure,OROPS
Forks,None or Unspecified
Pad_Type,
Ride_Control,None or Unspecified
Stick,
Transmission,
Turbocharged,
Blade_Extension,
Blade_Width,
Enclosure_Type,
Engine_Horsepower,
Hydraulics,2 Valve
Pushblock,
Ripper,
Scarifier,
Tip_Control,
Tire_Size,None or Unspecified
Coupler,None or Unspecified
Coupler_System,
Grouser_Tracks,
Hydraulics_Flow,
Track_Type,
Undercarriage_Pad_Width,
Stick_Length,
Thumb,
Pattern_Changer,
Grouser_Type,
Backhoe_Mounting,
Blade_Type,
Travel_Controls,
Differential_Type,Standard
Steering_Controls,Conventional
