ModelID,SalesID,SalePrice,MachineID,datasource,auctioneerID,YearMade,MachineHoursCurrentMeter,UsageBand,saledate,fiModelDesc,fiBaseModel,fiSecondaryDesc,fiModelSeries,fiModelDescriptor,ProductSize,fiProductClassDesc,state,ProductGroup,ProductGroupDesc,Drive_System,Enclosure,Forks,Pad_Type,Ride_Control,Stick,Transmission,Turbocharged,Blade_Extension,Blade_Width,Enclosure_Type,Engine_Horsepower,Hydraulics,Pushblock,Ripper,Scarifier,Tip_Control,Tire_Size,Coupler,Coupler_System,Grouser_Tracks,Hydraulics_Flow,Track_Type,Undercarriage_Pad_Width,Stick_Length,Thumb,Pattern_Changer,Grouser_Type,Backhoe_Mounting,Blade_Type,Travel_Controls,Differential_Type,Steering_Controls
22861,2450430,17500,1693905,136,1.0,1999,0.0,,10/14/2008 0:00,L45D,L45,D,,,,Wheel Loader - 90.0 to 100.0 Horsepower,Florida,WL,Wheel Loader,,OROPS,None or Unspecified,,None or Unspecified,,,,,,,,2 Valve,,,,,None or Unspecified,None or Unspecified,,,,,,,,,,,,,Standard,Conventional
22861,2450440,33500,1684777,136,,2006,0.0,,5/30/2009 0:00,L45D,L45,D,,,,Wheel Loader - 90.0 to 100.0 Horsepower,South Carolina,WL,Wheel Loader,,EROPS w AC,Yes,,None or Unspecified,,,,,,,,3 Valve,,,,,None or Unspecified,Manual,,,,,,,,,,,,,Standard,Conventional
