ModelID,SalesID,SalePrice,MachineID,datasource,auctioneerID,YearMade,MachineHoursCurrentMeter,UsageBand,saledate,fiModelDesc,fiBaseModel,fiSecondaryDesc,fiModelSeries,fiModelDescriptor,ProductSize,fiProductClassDesc,state,ProductGroup,ProductGroupDesc,Drive_System,Enclosure,Forks,Pad_Type,Ride_Control,Stick,Transmission,Turbocharged,Blade_Extension,Blade_Width,Enclosure_Type,Engine_Horsepower,Hydraulics,Pushblock,Ripper,Scarifier,Tip_Control,Tire_Size,Coupler,Coupler_System,Grouser_Tracks,Hydraulics_Flow,Track_Type,Undercarriage_Pad_Width,Stick_Length,Thumb,Pattern_Changer,Grouser_Type,Backhoe_Mounting,Blade_Type,Travel_Controls,Differential_Type,Steering_Controls
22869,1139957,12500,999548,121,3.0,2004,555.0,Low,5/10/2007 0:00,MC60,MC60,,,,,Skid Steer Loader - 1251.0 to 1351.0 Lb Operating Capacity,Louisiana,SSL,Skid Steer Loaders,,OROPS,None or Unspecified,,,,,,,,,,Auxiliary,,,,,,None or Unspecified,None or Unspecified,None or Unspecified,Standard,,,,,,,,,,,
22869,1150971,11500,1027196,121,3.0,2004,720.0,Medium,5/10/2007 0:00,MC60,MC60,,,,,Skid Steer Loader - 1251.0 to 1351.0 Lb Operating Capacity,Louisiana,SSL,Skid Steer Loaders,,OROPS,None or Unspecified,,,,,,,,,,Auxiliary,,,,,,Manual,None or Unspecified,None or Unspecified,Standard,,,,,,,,,,,
22869,1156101,11000,1046918,121,3.0,2004,667.0,Medium,5/10/2007 0:00,MC60,MC60,,,,,Skid Steer Loader - 1251.0 to 1351.0 Lb Operating Capacity,Louisiana,SSL,Skid Steer Loaders,,OROPS,None or Unspecified,,,,,,,,,,Auxiliary,,,,,,None or Unspecified,None or Unspecified,None or Unspecified,Standard,,,,,,,,,,,
22869,1168165,12500,1027225,121,3.0,2004,634.0,Medium,3/23/2006 0:00,MC60,MC60,,,,,Skid Steer Loader - 1251.0 to 1351.0 Lb Operating Capacity,Illinois,SSL,Skid Steer Loaders,,OROPS,None or Unspecified,,,,,,,,,,Auxiliary,,,,,,None or Unspecified,None or Unspecified,None or Unspecified,Standard,,,,,,,,,,,
22869,1179865,12500,1027196,121,3.0,2004,787.0,Medium,5/29/2008 0:00,MC60,MC60,,,,,Skid Steer Loader - 1251.0 to 1351.0 Lb Operating Capacity,Texas,SSL,Skid Steer Loaders,,OROPS,None or Unspecified,,,,,,,,,,Auxiliary,,,,,,Manual,None or Unspecified,None or Unspecified,Standard,,,,,,,,,,,
22869,1182768,7500,1027225,121,3.0,2004,754.0,Low,10/16/2008 0:00,MC60,MC60,,,,,Skid Steer Loader - 1251.0 to 1351.0 Lb Operating Capacity,Alabama,SSL,Skid Steer Loaders,,OROPS,None or Unspecified,,,,,,,,,,Auxiliary,,,,,,None or Unspecified,None or Unspecified,None or Unspecified,Standard,,,,,,,,,,,
22869,1200313,7000,1069142,121,3.0,2004,1363.0,Medium,4/15/2010 0:00,MC60,MC60,,,,,Skid Steer Loader - 1251.0 to 1351.0 Lb Operating Capacity,Texas,SSL,Skid Steer Loaders,,OROPS,None or Unspecified,,,,,,,,,,Auxiliary,,,,,,Manual,Yes,None or Unspecified,Standard,,,,,,,,,,,
22869,2754537,6750,1854342,149,99.0,2004,1614.0,Medium,11/10/2010 0:00,MC60,MC60,,,,,Skid Steer Loader - 1251.0 to 1351.0 Lb Operating Capacity,Colorado,SSL,Skid Steer Loaders,,OROPS,None or Unspecified,,,,,,,,,,Auxiliary,,,,,,Manual,Yes,None or Unspecified,Standard,,,,,,,,,,,
22869,2754538,6500,1854342,149,2.0,2004,1620.0,Medium,9/28/2010 0:00,MC60,MC60,,,,,Skid Steer Loader - 1251.0 to 1351.0 Lb Operating Capacity,Texas,SSL,Skid Steer Loaders,,OROPS,None or Unspecified,,,,,,,,,,Auxiliary,,,,,,Manual,Yes,None or Unspecified,Standard,,,,,,,,,,,
22869,2754539,5500,1894788,149,1.0,2003,5408.0,High,5/18/2011 0:00,MC60,MC60,,,,,Skid Steer Loader - 1251.0 to 1351.0 Lb Operating Capacity,Florida,SSL,Skid Steer Loaders,,OROPS,None or Unspecified,,,,,,,,,,Auxiliary,,,,,,None or Unspecified,None or Unspecified,None or Unspecified,Standard,,,,,,,,,,,
