SalesID,1180583
SalePrice,14000
MachineID,1064759
datasource,121
auctioneerID,3.0
YearMade,2002
MachineHoursCurrentMeter,0.0
UsageBand,
saledate,6/26/2008 0:00
fiModelDesc,L35
fiBaseModel,L35
fiSecondaryDesc,
fiModelSeries,
fiModelDescriptor,
ProductSize,Compact
fiProductClassDesc,Wheel Loader - 60.0 to 80.0 Horsepower
state,Florida
ProductGroup,WL
ProductGroupDesc,Wheel Loader
Drive_System,
Enclosure,OROPS
Forks,Yes
Pad_Type,
Ride_Control,None or Unspecified
Stick,
Transmission,
Turbocharged,
Blade_Extension,
Blade_Width,
Enclosure_Type,
Engine_Horsepower,
Hydraulics,2 Valve
Pushblock,
Ripper,
Scarifier,
Tip_Control,
Tire_Size,None or Unspecified
Coupler,None or Unspecified
Coupler_System,
Grouser_Tracks,
Hydraulics_Flow,
Track_Type,
Undercarriage_Pad_Width,
Stick_Length,
Thumb,
Pattern_Changer,
Grouser_Type,
Backhoe_Mounting,
Blade_Type,
Travel_Controls,
Differential_Type,Standard
Steering_Controls,Conventional
