ModelID,SalesID,SalePrice,MachineID,datasource,auctioneerID,YearMade,MachineHoursCurrentMeter,UsageBand,saledate,fiModelDesc,fiBaseModel,fiSecondaryDesc,fiModelSeries,fiModelDescriptor,ProductSize,fiProductClassDesc,state,ProductGroup,ProductGroupDesc,Drive_System,Enclosure,Forks,Pad_Type,Ride_Control,Stick,Transmission,Turbocharged,Blade_Extension,Blade_Width,Enclosure_Type,Engine_Horsepower,Hydraulics,Pushblock,Ripper,Scarifier,Tip_Control,Tire_Size,Coupler,Coupler_System,Grouser_Tracks,Hydraulics_Flow,Track_Type,Undercarriage_Pad_Width,Stick_Length,Thumb,Pattern_Changer,Grouser_Type,Backhoe_Mounting,Blade_Type,Travel_Controls,Differential_Type,Steering_Controls
2292,1140944,24000,1041389,121,3.0,1999,2378.0,Low,6/29/2006 0:00,PC75UU,PC75,UU,,,Mini,"Hydraulic Excavator, Track - 6.0 to 8.0 Metric Tons",Tennessee,TEX,Track Excavators,,EROPS w AC,,,,,,,,,,,Standard,,,,,,None or Unspecified,,,,Rubber,None or Unspecified,None or Unspecified,None or Unspecified,None or Unspecified,Double,,,,,
2292,1173878,17000,700158,121,3.0,1995,3674.0,Medium,8/16/2004 0:00,PC75UU,PC75,UU,,,Mini,"Hydraulic Excavator, Track - 6.0 to 8.0 Metric Tons",Michigan,TEX,Track Excavators,,EROPS w AC,,,,,,,,,,,Standard,,,,,,Hydraulic,,,,Rubber,24 inch,"9' 8""",Manual,None or Unspecified,Double,,,,,
2292,1726312,10500,1268319,132,1.0,1000,,,2/25/2004 0:00,PC75UU,PC75,UU,,,Mini,"Hydraulic Excavator, Track - 6.0 to 8.0 Metric Tons",Missouri,TEX,Track Excavators,,EROPS,,,,,,,,,,,Standard,,,,,,None or Unspecified,,,,Steel,None or Unspecified,None or Unspecified,None or Unspecified,None or Unspecified,Double,,,,,
2292,1729494,17000,1178227,132,2.0,1995,,,2/4/2002 0:00,PC75UU,PC75,UU,,,Mini,"Hydraulic Excavator, Track - 6.0 to 8.0 Metric Tons",Florida,TEX,Track Excavators,,EROPS w AC,,,,,,,,,,,Standard,,,,,,None or Unspecified,,,,Rubber,None or Unspecified,None or Unspecified,None or Unspecified,None or Unspecified,Double,,,,,
2292,1729516,14000,1418878,132,9.0,1000,,,2/18/2002 0:00,PC75UU,PC75,UU,,,Mini,"Hydraulic Excavator, Track - 6.0 to 8.0 Metric Tons",Florida,TEX,Track Excavators,,EROPS,,,,,,,,,,,Standard,,,,,,Manual,,,,Rubber,25 inch,None or Unspecified,None or Unspecified,None or Unspecified,Double,,,,,
2292,1729519,16500,1418878,132,4.0,1997,,,2/11/2002 0:00,PC75UU,PC75,UU,,,Mini,"Hydraulic Excavator, Track - 6.0 to 8.0 Metric Tons",Florida,TEX,Track Excavators,,EROPS,,,,,,,,,,,Standard,,,,,,Manual,,,,Rubber,25 inch,None or Unspecified,None or Unspecified,None or Unspecified,Double,,,,,
2292,1730678,22500,1134505,132,5.0,1000,,,4/6/2006 0:00,PC75UU,PC75,UU,,,Mini,"Hydraulic Excavator, Track - 6.0 to 8.0 Metric Tons",Connecticut,TEX,Track Excavators,,EROPS,,,,,,,,,,,Standard,,,,,,None or Unspecified,,,,Rubber,None or Unspecified,None or Unspecified,None or Unspecified,None or Unspecified,Double,,,,,
2292,1730689,24000,1227806,132,4.0,1997,,,2/7/2005 0:00,PC75UU,PC75,UU,,,Mini,"Hydraulic Excavator, Track - 6.0 to 8.0 Metric Tons",Florida,TEX,Track Excavators,,EROPS,,,,,,,,,,,Standard,,,,,,None or Unspecified,,,,Steel,None or Unspecified,None or Unspecified,None or Unspecified,None or Unspecified,Double,,,,,
2292,1730690,24000,1227806,132,4.0,1997,,,2/10/2005 0:00,PC75UU,PC75,UU,,,Mini,"Hydraulic Excavator, Track - 6.0 to 8.0 Metric Tons",Florida,TEX,Track Excavators,,EROPS,,,,,,,,,,,Standard,,,,,,None or Unspecified,,,,Steel,None or Unspecified,None or Unspecified,None or Unspecified,None or Unspecified,Double,,,,,
2292,1730812,16500,1522738,132,3.0,1995,,,3/13/2003 0:00,PC75UU,PC75,UU,,,Mini,"Hydraulic Excavator, Track - 6.0 to 8.0 Metric Tons",Unspecified,TEX,Track Excavators,,EROPS,,,,,,,,,,,Standard,,,,,,None or Unspecified,,,,Steel,18 inch,None or Unspecified,None or Unspecified,None or Unspecified,Double,,,,,
2292,1730945,15500,1093327,132,2.0,1995,,,11/14/2003 0:00,PC75UU,PC75,UU,,,Mini,"Hydraulic Excavator, Track - 6.0 to 8.0 Metric Tons",New Hampshire,TEX,Track Excavators,,EROPS,,,,,,,,,,,Standard,,,,,,None or Unspecified,,,,Steel,None or Unspecified,None or Unspecified,None or Unspecified,None or Unspecified,Double,,,,,
2292,1731072,12500,266545,132,2.0,1000,,,6/19/1999 0:00,PC75UU,PC75,UU,,,Mini,"Hydraulic Excavator, Track - 6.0 to 8.0 Metric Tons",North Carolina,TEX,Track Excavators,,,,,,,,,,,,,,,,,,,,,,,,,,,,,,,,,
2292,1732119,15500,1522351,132,2.0,1000,,,4/24/1999 0:00,PC75UU,PC75,UU,,,Mini,"Hydraulic Excavator, Track - 6.0 to 8.0 Metric Tons",Ohio,TEX,Track Excavators,,EROPS,,,,,,,,,,,2 Valve,,,,,,,,,,,None or Unspecified,,,,,,,,,
2292,1732776,18000,1217356,132,10.0,1000,,,9/6/2006 0:00,PC75UU,PC75,UU,,,Mini,"Hydraulic Excavator, Track - 6.0 to 8.0 Metric Tons",Louisiana,TEX,Track Excavators,,EROPS,,,,,,,,,,,Standard,,,,,,None or Unspecified,,,,Steel,18 inch,None or Unspecified,None or Unspecified,None or Unspecified,Triple,,,,,
2292,1732995,17000,1487738,132,5.0,1000,,,6/20/2006 0:00,PC75UU,PC75,UU,,,Mini,"Hydraulic Excavator, Track - 6.0 to 8.0 Metric Tons",Connecticut,TEX,Track Excavators,,EROPS,,,,,,,,,,,Standard,,,,,,None or Unspecified,,,,Steel,None or Unspecified,None or Unspecified,None or Unspecified,None or Unspecified,Double,,,,,
2292,1732997,17000,1487738,132,5.0,1000,,,6/16/2006 0:00,PC75UU,PC75,UU,,,Mini,"Hydraulic Excavator, Track - 6.0 to 8.0 Metric Tons",Connecticut,TEX,Track Excavators,,EROPS,,,,,,,,,,,Standard,,,,,,None or Unspecified,,,,Steel,None or Unspecified,None or Unspecified,None or Unspecified,None or Unspecified,Double,,,,,
2292,1733059,9000,1516060,132,17.0,1000,,,3/25/2008 0:00,PC75UU,PC75,UU,,,Mini,"Hydraulic Excavator, Track - 6.0 to 8.0 Metric Tons",Washington,TEX,Track Excavators,,EROPS,,,,,,,,,,,2 Valve,,,,,,None or Unspecified,,,,,,,,,,,,,,
2292,1733065,17500,1467764,132,9.0,1000,,,5/19/2005 0:00,PC75UU,PC75,UU,,,Mini,"Hydraulic Excavator, Track - 6.0 to 8.0 Metric Tons",South Carolina,TEX,Track Excavators,,EROPS,,,,,,,,,,,Standard,,,,,,None or Unspecified,,,,Rubber,None or Unspecified,None or Unspecified,None or Unspecified,None or Unspecified,Double,,,,,
2292,1733264,17500,1078322,132,4.0,1000,,,2/12/2009 0:00,PC75UU,PC75,UU,,,Mini,"Hydraulic Excavator, Track - 6.0 to 8.0 Metric Tons",Florida,TEX,Track Excavators,,EROPS,,,,,,,,,,,Standard,,,,,,None or Unspecified,,,,Rubber,None or Unspecified,None or Unspecified,None or Unspecified,None or Unspecified,Double,,,,,
2292,1733441,27500,1181424,132,2.0,1000,,,4/29/2000 0:00,PC75UU,PC75,UU,,,Mini,"Hydraulic Excavator, Track - 6.0 to 8.0 Metric Tons",Ohio,TEX,Track Excavators,,EROPS,,,,,,,,,,,Standard,,,,,,None or Unspecified,,,,Steel,None or Unspecified,None or Unspecified,None or Unspecified,None or Unspecified,Double,,,,,
2292,1733495,20000,1364454,132,4.0,1999,,,2/15/2007 0:00,PC75UU,PC75,UU,,,Mini,"Hydraulic Excavator, Track - 6.0 to 8.0 Metric Tons",Florida,TEX,Track Excavators,,EROPS w AC,,,,,,,,,,,Standard,,,,,,None or Unspecified,,,,Rubber,None or Unspecified,None or Unspecified,None or Unspecified,None or Unspecified,Double,,,,,
2292,1733496,20000,1364454,132,4.0,1999,,,2/12/2007 0:00,PC75UU,PC75,UU,,,Mini,"Hydraulic Excavator, Track - 6.0 to 8.0 Metric Tons",Florida,TEX,Track Excavators,,EROPS w AC,,,,,,,,,,,Standard,,,,,,None or Unspecified,,,,Rubber,None or Unspecified,None or Unspecified,None or Unspecified,None or Unspecified,Double,,,,,
2292,1733671,12000,1246496,132,9.0,1991,,,2/15/2000 0:00,PC75UU,PC75,UU,,,Mini,"Hydraulic Excavator, Track - 6.0 to 8.0 Metric Tons",Florida,TEX,Track Excavators,,EROPS,,,,,,,,,,,Standard,,,,,,None or Unspecified,,,,Rubber,None or Unspecified,None or Unspecified,None or Unspecified,None or Unspecified,Double,,,,,
2292,1733860,10000,1096639,132,18.0,1000,,,11/13/1999 0:00,PC75UU,PC75,UU,,,Mini,"Hydraulic Excavator, Track - 6.0 to 8.0 Metric Tons",New Jersey,TEX,Track Excavators,,EROPS,,,,,,,,,,,Standard,,,,,,None or Unspecified,,,,Steel,None or Unspecified,None or Unspecified,None or Unspecified,None or Unspecified,Double,,,,,
2292,1733892,12500,1322474,132,1.0,1000,,,5/22/2007 0:00,PC75UU,PC75,UU,,,Mini,"Hydraulic Excavator, Track - 6.0 to 8.0 Metric Tons",California,TEX,Track Excavators,,EROPS,,,,,,,,,,,Standard,,,,,,None or Unspecified,,,,Rubber,None or Unspecified,None or Unspecified,None or Unspecified,None or Unspecified,Double,,,,,
2292,1733928,14500,1435307,132,2.0,1000,,,6/2/2001 0:00,PC75UU,PC75,UU,,,Mini,"Hydraulic Excavator, Track - 6.0 to 8.0 Metric Tons",Florida,TEX,Track Excavators,,EROPS,,,,,,,,,,,Standard,,,,,,None or Unspecified,,,,Steel,None or Unspecified,None or Unspecified,None or Unspecified,None or Unspecified,Double,,,,,
2292,1734702,22500,1178370,132,8.0,1000,,,2/16/2007 0:00,PC75UU,PC75,UU,,,Mini,"Hydraulic Excavator, Track - 6.0 to 8.0 Metric Tons",Florida,TEX,Track Excavators,,EROPS,,,,,,,,,,,Standard,,,,,,None or Unspecified,,,,Steel,18 inch,None or Unspecified,None or Unspecified,None or Unspecified,Double,,,,,
2292,1734991,10500,1109139,132,4.0,1990,,,2/5/1998 0:00,PC75UU,PC75,UU,,,Mini,"Hydraulic Excavator, Track - 6.0 to 8.0 Metric Tons",Florida,TEX,Track Excavators,,EROPS,,,,,,,,,,,2 Valve,,,,,,,,,,,None or Unspecified,,,,,,,,,
2292,1735073,17500,1489788,132,10.0,1000,,,3/13/2007 0:00,PC75UU,PC75,UU,,,Mini,"Hydraulic Excavator, Track - 6.0 to 8.0 Metric Tons",Louisiana,TEX,Track Excavators,,EROPS w AC,,,,,,,,,,,2 Valve,,,,,,,,,,,None or Unspecified,,,,,,,,,
2292,1735075,17500,1489788,132,10.0,1000,,,3/14/2007 0:00,PC75UU,PC75,UU,,,Mini,"Hydraulic Excavator, Track - 6.0 to 8.0 Metric Tons",Louisiana,TEX,Track Excavators,,EROPS w AC,,,,,,,,,,,2 Valve,,,,,,,,,,,None or Unspecified,,,,,,,,,
2292,1735077,14000,1489788,132,8.0,1000,,,3/21/2007 0:00,PC75UU,PC75,UU,,,Mini,"Hydraulic Excavator, Track - 6.0 to 8.0 Metric Tons",Mississippi,TEX,Track Excavators,,EROPS w AC,,,,,,,,,,,2 Valve,,,,,,,,,,,None or Unspecified,,,,,,,,,
2292,1735198,11000,1277569,132,2.0,1990,,,2/4/1998 0:00,PC75UU,PC75,UU,,,Mini,"Hydraulic Excavator, Track - 6.0 to 8.0 Metric Tons",Florida,TEX,Track Excavators,,EROPS,,,,,,,,,,,Standard,,,,,,None or Unspecified,,,,Rubber,None or Unspecified,None or Unspecified,None or Unspecified,None or Unspecified,Double,,,,,
2292,1735535,8250,1206508,132,7.0,1000,,,10/21/2004 0:00,PC75UU,PC75,UU,,,Mini,"Hydraulic Excavator, Track - 6.0 to 8.0 Metric Tons",South Carolina,TEX,Track Excavators,,EROPS,,,,,,,,,,,Standard,,,,,,None or Unspecified,,,,Rubber,None or Unspecified,None or Unspecified,None or Unspecified,None or Unspecified,Double,,,,,
2292,1735536,8400,1206508,132,9.0,1000,,,11/17/2004 0:00,PC75UU,PC75,UU,,,Mini,"Hydraulic Excavator, Track - 6.0 to 8.0 Metric Tons",South Carolina,TEX,Track Excavators,,EROPS,,,,,,,,,,,Standard,,,,,,None or Unspecified,,,,Rubber,None or Unspecified,None or Unspecified,None or Unspecified,None or Unspecified,Double,,,,,
2292,1735569,12500,1321684,132,2.0,1991,,,10/10/1998 0:00,PC75UU,PC75,UU,,,Mini,"Hydraulic Excavator, Track - 6.0 to 8.0 Metric Tons",Florida,TEX,Track Excavators,,EROPS,,,,,,,,,,,None or Unspecified,,,,,,,,,,,,,,,,,,,,
2292,1735575,10000,340099,132,1.0,1000,,,12/8/2005 0:00,PC75UU,PC75,UU,,,Mini,"Hydraulic Excavator, Track - 6.0 to 8.0 Metric Tons",Texas,TEX,Track Excavators,,EROPS,,,,,,,,,,,Standard,,,,,,None or Unspecified,,,,Steel,16 inch,None or Unspecified,None or Unspecified,None or Unspecified,Double,,,,,
2292,1735662,12500,1496836,132,9.0,1000,,,2/16/2005 0:00,PC75UU,PC75,UU,,,Mini,"Hydraulic Excavator, Track - 6.0 to 8.0 Metric Tons",Florida,TEX,Track Excavators,,EROPS,,,,,,,,,,,2 Valve,,,,,,Manual,,,,,,,,,,,,,,
2292,1735692,22000,1274387,132,1.0,1999,,,7/21/2005 0:00,PC75UU,PC75,UU,,,Mini,"Hydraulic Excavator, Track - 6.0 to 8.0 Metric Tons",Texas,TEX,Track Excavators,,EROPS w AC,,,,,,,,,,,Auxiliary,,,,,,None or Unspecified,,,,Steel,None or Unspecified,None or Unspecified,None or Unspecified,None or Unspecified,Double,,,,,
2292,1735695,37500,1392851,132,2.0,2000,,,11/14/2003 0:00,PC75UU,PC75,UU,,,Mini,"Hydraulic Excavator, Track - 6.0 to 8.0 Metric Tons",New Hampshire,TEX,Track Excavators,,EROPS w AC,,,,,,,,,,,Standard,,,,,,None or Unspecified,,,,Rubber,18 inch,None or Unspecified,None or Unspecified,None or Unspecified,Double,,,,,
2292,1735789,17000,1464468,132,9.0,1000,,,8/19/2010 0:00,PC75UU,PC75,UU,,,Mini,"Hydraulic Excavator, Track - 6.0 to 8.0 Metric Tons",South Carolina,TEX,Track Excavators,,EROPS,,,,,,,,,,,Standard,,,,,,None or Unspecified,,,,Steel,None or Unspecified,None or Unspecified,Manual,None or Unspecified,Double,,,,,
2292,1735790,16000,1464468,132,12.0,1000,,,11/17/2010 0:00,PC75UU,PC75,UU,,,Mini,"Hydraulic Excavator, Track - 6.0 to 8.0 Metric Tons",South Carolina,TEX,Track Excavators,,EROPS,,,,,,,,,,,Standard,,,,,,None or Unspecified,,,,Steel,None or Unspecified,None or Unspecified,Manual,None or Unspecified,Double,,,,,
2292,1735791,24500,1464468,132,2.0,2000,,,2/9/2007 0:00,PC75UU,PC75,UU,,,Mini,"Hydraulic Excavator, Track - 6.0 to 8.0 Metric Tons",Florida,TEX,Track Excavators,,EROPS,,,,,,,,,,,Standard,,,,,,None or Unspecified,,,,Steel,None or Unspecified,None or Unspecified,Manual,None or Unspecified,Double,,,,,
2292,1735797,16000,1117780,132,2.0,1991,,,8/1/1998 0:00,PC75UU,PC75,UU,,,Mini,"Hydraulic Excavator, Track - 6.0 to 8.0 Metric Tons",Ohio,TEX,Track Excavators,,EROPS w AC,,,,,,,,,,,Standard,,,,,,None or Unspecified,,,,Rubber,None or Unspecified,None or Unspecified,None or Unspecified,None or Unspecified,Double,,,,,
2292,1736238,19000,1379363,132,2.0,1992,,,2/4/1998 0:00,PC75UU,PC75,UU,,,Mini,"Hydraulic Excavator, Track - 6.0 to 8.0 Metric Tons",Florida,TEX,Track Excavators,,EROPS,,,,,,,,,,,Standard,,,,,,None or Unspecified,,,,Rubber,16 inch,None or Unspecified,None or Unspecified,None or Unspecified,Double,,,,,
2292,1736971,9000,1264929,132,9.0,1000,,,8/19/2004 0:00,PC75UU,PC75,UU,,,Mini,"Hydraulic Excavator, Track - 6.0 to 8.0 Metric Tons",South Carolina,TEX,Track Excavators,,EROPS,,,,,,,,,,,Standard,,,,,,None or Unspecified,,,,Steel,None or Unspecified,None or Unspecified,None or Unspecified,None or Unspecified,Double,,,,,
2292,1737359,13000,1546718,132,2.0,1000,,,6/13/1998 0:00,PC75UU,PC75,UU,,,Mini,"Hydraulic Excavator, Track - 6.0 to 8.0 Metric Tons",Florida,TEX,Track Excavators,,EROPS,,,,,,,,,,,Standard,,,,,,None or Unspecified,,,,Steel,None or Unspecified,None or Unspecified,None or Unspecified,None or Unspecified,Double,,,,,
2292,1737458,10500,1213017,132,1.0,1000,,,6/23/2004 0:00,PC75UU,PC75,UU,,,Mini,"Hydraulic Excavator, Track - 6.0 to 8.0 Metric Tons",Washington,TEX,Track Excavators,,EROPS,,,,,,,,,,,Auxiliary,,,,,,None or Unspecified,,,,Rubber,None or Unspecified,None or Unspecified,None or Unspecified,None or Unspecified,Double,,,,,
2292,1737687,12500,83886,132,2.0,1991,,,3/30/2000 0:00,PC75UU,PC75,UU,,,Mini,"Hydraulic Excavator, Track - 6.0 to 8.0 Metric Tons",New Jersey,TEX,Track Excavators,,EROPS w AC,,,,,,,,,,,Standard,,,,,,None or Unspecified,,,,Rubber,26 inch,None or Unspecified,None or Unspecified,None or Unspecified,Double,,,,,
2292,1737760,7500,1226077,132,7.0,1000,,,10/21/2004 0:00,PC75UU,PC75,UU,,,Mini,"Hydraulic Excavator, Track - 6.0 to 8.0 Metric Tons",South Carolina,TEX,Track Excavators,,EROPS w AC,,,,,,,,,,,2 Valve,,,,,,,,,,,None or Unspecified,,,,,,,,,
2292,1738005,9000,1266375,132,27.0,1000,,,12/28/2005 0:00,PC75UU,PC75,UU,,,Mini,"Hydraulic Excavator, Track - 6.0 to 8.0 Metric Tons",North Carolina,TEX,Track Excavators,,EROPS w AC,,,,,,,,,,,2 Valve,,,,,,,,,,,None or Unspecified,,,,,,,,,
2292,1738433,13500,1539769,132,2.0,1990,,,5/9/1998 0:00,PC75UU,PC75,UU,,,Mini,"Hydraulic Excavator, Track - 6.0 to 8.0 Metric Tons",Indiana,TEX,Track Excavators,,EROPS w AC,,,,,,,,,,,Auxiliary,,,,,,None or Unspecified,,,,,,None or Unspecified,None or Unspecified,No,,,,,,
2292,1738562,13500,1407179,132,2.0,1000,,,4/28/2001 0:00,PC75UU,PC75,UU,,,Mini,"Hydraulic Excavator, Track - 6.0 to 8.0 Metric Tons",Ohio,TEX,Track Excavators,,EROPS,,,,,,,,,,,2 Valve,,,,,,,,,,,18 inch,,,,,,,,,
2292,1738853,10000,1452281,132,7.0,1000,,,10/19/2006 0:00,PC75UU,PC75,UU,,,Mini,"Hydraulic Excavator, Track - 6.0 to 8.0 Metric Tons",South Carolina,TEX,Track Excavators,,EROPS,,,,,,,,,,,Standard,,,,,,Manual,,,,Rubber,None or Unspecified,None or Unspecified,None or Unspecified,None or Unspecified,Double,,,,,
2292,1740266,11500,1285213,132,10.0,1000,,,6/25/1998 0:00,PC75UU,PC75,UU,,,Mini,"Hydraulic Excavator, Track - 6.0 to 8.0 Metric Tons",Louisiana,TEX,Track Excavators,,EROPS,,,,,,,,,,,Standard,,,,,,None or Unspecified,,,,Rubber,None or Unspecified,None or Unspecified,None or Unspecified,None or Unspecified,Double,,,,,
2292,1740413,12000,1503092,132,2.0,1991,,,7/10/1999 0:00,PC75UU,PC75,UU,,,Mini,"Hydraulic Excavator, Track - 6.0 to 8.0 Metric Tons",New Hampshire,TEX,Track Excavators,,EROPS,,,,,,,,,,,Standard,,,,,,None or Unspecified,,,,Steel,None or Unspecified,None or Unspecified,None or Unspecified,None or Unspecified,Double,,,,,
2292,1740476,17000,1548732,132,2.0,1000,,,6/26/2004 0:00,PC75UU,PC75,UU,,,Mini,"Hydraulic Excavator, Track - 6.0 to 8.0 Metric Tons",Ohio,TEX,Track Excavators,,EROPS,,,,,,,,,,,Standard,,,,,,None or Unspecified,,,,Rubber,None or Unspecified,None or Unspecified,None or Unspecified,None or Unspecified,Double,,,,,
2292,1740711,10000,1268279,132,10.0,1000,,,6/25/1998 0:00,PC75UU,PC75,UU,,,Mini,"Hydraulic Excavator, Track - 6.0 to 8.0 Metric Tons",Louisiana,TEX,Track Excavators,,EROPS,,,,,,,,,,,Standard,,,,,,None or Unspecified,,,,Rubber,None or Unspecified,None or Unspecified,None or Unspecified,None or Unspecified,Double,,,,,
2292,1740732,16000,1165351,132,2.0,1991,,,2/7/2000 0:00,PC75UU,PC75,UU,,,Mini,"Hydraulic Excavator, Track - 6.0 to 8.0 Metric Tons",Florida,TEX,Track Excavators,,EROPS,,,,,,,,,,,Standard,,,,,,None or Unspecified,,,,Rubber,None or Unspecified,None or Unspecified,None or Unspecified,None or Unspecified,Double,,,,,
2292,1741622,12000,1433942,132,7.0,1000,,,10/19/2006 0:00,PC75UU,PC75,UU,,,Mini,"Hydraulic Excavator, Track - 6.0 to 8.0 Metric Tons",South Carolina,TEX,Track Excavators,,EROPS,,,,,,,,,,,Standard,,,,,,None or Unspecified,,,,Rubber,None or Unspecified,None or Unspecified,None or Unspecified,None or Unspecified,Double,,,,,
2292,1741637,15000,1183001,132,28.0,1000,3352.0,Low,3/7/2008 0:00,PC75UU,PC75,UU,,,Mini,"Hydraulic Excavator, Track - 6.0 to 8.0 Metric Tons",Mississippi,TEX,Track Excavators,,EROPS,,,,,,,,,,,Standard,,,,,,None or Unspecified,,,,Steel,28 inch,"9' 6""",None or Unspecified,None or Unspecified,Double,,,,,
2292,1741640,16000,1183001,132,28.0,1000,3342.0,Low,11/30/2007 0:00,PC75UU,PC75,UU,,,Mini,"Hydraulic Excavator, Track - 6.0 to 8.0 Metric Tons",Mississippi,TEX,Track Excavators,,EROPS,,,,,,,,,,,Standard,,,,,,None or Unspecified,,,,Steel,28 inch,"9' 6""",None or Unspecified,None or Unspecified,Double,,,,,
2292,1741697,11000,1471817,132,25.0,1000,,,10/24/1998 0:00,PC75UU,PC75,UU,,,Mini,"Hydraulic Excavator, Track - 6.0 to 8.0 Metric Tons",California,TEX,Track Excavators,,EROPS,,,,,,,,,,,Standard,,,,,,None or Unspecified,,,,Steel,None or Unspecified,None or Unspecified,None or Unspecified,None or Unspecified,Double,,,,,
2292,1741787,8750,901562,132,27.0,1000,,,12/28/2005 0:00,PC75UU,PC75,UU,,,Mini,"Hydraulic Excavator, Track - 6.0 to 8.0 Metric Tons",North Carolina,TEX,Track Excavators,,EROPS,,,,,,,,,,,Standard,,,,,,None or Unspecified,,,,Steel,None or Unspecified,None or Unspecified,None or Unspecified,None or Unspecified,Double,,,,,
2292,1743565,8500,1360003,132,1.0,1991,,,6/11/2001 0:00,PC75UU,PC75,UU,,,Mini,"Hydraulic Excavator, Track - 6.0 to 8.0 Metric Tons",California,TEX,Track Excavators,,EROPS,,,,,,,,,,,Standard,,,,,,None or Unspecified,,,,Steel,None or Unspecified,None or Unspecified,None or Unspecified,None or Unspecified,Double,,,,,
2292,1744079,11000,1531406,132,2.0,1000,,,12/11/1999 0:00,PC75UU,PC75,UU,,,Mini,"Hydraulic Excavator, Track - 6.0 to 8.0 Metric Tons",Pennsylvania,TEX,Track Excavators,,EROPS w AC,,,,,,,,,,,Auxiliary,,,,,,None or Unspecified,,,,Steel,None or Unspecified,None or Unspecified,None or Unspecified,None or Unspecified,Double,,,,,
2292,1744298,14500,1437866,132,16.0,1000,,,8/21/2001 0:00,PC75UU,PC75,UU,,,Mini,"Hydraulic Excavator, Track - 6.0 to 8.0 Metric Tons",Ohio,TEX,Track Excavators,,EROPS,,,,,,,,,,,Standard,,,,,,None or Unspecified,,,,Steel,None or Unspecified,None or Unspecified,None or Unspecified,None or Unspecified,Double,,,,,
2292,1744470,19000,1326409,132,1.0,1000,,,12/9/1997 0:00,PC75UU,PC75,UU,,,Mini,"Hydraulic Excavator, Track - 6.0 to 8.0 Metric Tons",Washington,TEX,Track Excavators,,EROPS,,,,,,,,,,,Standard,,,,,,None or Unspecified,,,,Steel,None or Unspecified,None or Unspecified,None or Unspecified,None or Unspecified,Double,,,,,
2292,1744471,14500,1326409,132,1.0,1991,,,3/22/2000 0:00,PC75UU,PC75,UU,,,Mini,"Hydraulic Excavator, Track - 6.0 to 8.0 Metric Tons",Washington,TEX,Track Excavators,,EROPS,,,,,,,,,,,Standard,,,,,,None or Unspecified,,,,Steel,None or Unspecified,None or Unspecified,None or Unspecified,None or Unspecified,Double,,,,,
2292,1745066,9500,781680,132,9.0,1000,,,6/21/2002 0:00,PC75UU,PC75,UU,,,Mini,"Hydraulic Excavator, Track - 6.0 to 8.0 Metric Tons",Tennessee,TEX,Track Excavators,,OROPS,,,,,,,,,,,2 Valve,,,,,,,,,,,None or Unspecified,,,,,,,,,
2292,1745086,9000,1473612,132,99.0,1000,,,11/5/1998 0:00,PC75UU,PC75,UU,,,Mini,"Hydraulic Excavator, Track - 6.0 to 8.0 Metric Tons",Virginia,TEX,Track Excavators,,EROPS w AC,,,,,,,,,,,Standard,,,,,,None or Unspecified,,,,Steel,32 inch,None or Unspecified,None or Unspecified,None or Unspecified,Triple,,,,,
2292,1745182,11500,1533150,132,10.0,1000,,,3/18/2009 0:00,PC75UU,PC75,UU,,,Mini,"Hydraulic Excavator, Track - 6.0 to 8.0 Metric Tons",Louisiana,TEX,Track Excavators,,EROPS,,,,,,,,,,,2 Valve,,,,,,,,,,,None or Unspecified,,,,,,,,,
2292,1745503,11000,1116531,132,9.0,1000,,,2/16/2005 0:00,PC75UU,PC75,UU,,,Mini,"Hydraulic Excavator, Track - 6.0 to 8.0 Metric Tons",Florida,TEX,Track Excavators,,EROPS,,,,,,,,,,,Standard,,,,,,None or Unspecified,,,,Rubber,None or Unspecified,None or Unspecified,None or Unspecified,None or Unspecified,Double,,,,,
2292,1745563,15500,1280548,132,2.0,1000,,,11/16/2002 0:00,PC75UU,PC75,UU,,,Mini,"Hydraulic Excavator, Track - 6.0 to 8.0 Metric Tons",Connecticut,TEX,Track Excavators,,EROPS,,,,,,,,,,,2 Valve,,,,,,,,,,,None or Unspecified,,,,,,,,,
2292,1745592,14500,1075102,132,8.0,1000,,,3/27/2002 0:00,PC75UU,PC75,UU,,,Mini,"Hydraulic Excavator, Track - 6.0 to 8.0 Metric Tons",Mississippi,TEX,Track Excavators,,EROPS,,,,,,,,,,,Standard,,,,,,None or Unspecified,,,,Steel,None or Unspecified,None or Unspecified,None or Unspecified,None or Unspecified,Double,,,,,
2292,1745610,9000,1171401,132,4.0,1000,,,2/7/2005 0:00,PC75UU,PC75,UU,,,Mini,"Hydraulic Excavator, Track - 6.0 to 8.0 Metric Tons",Florida,TEX,Track Excavators,,EROPS,,,,,,,,,,,Standard,,,,,,None or Unspecified,,,,Rubber,None or Unspecified,None or Unspecified,None or Unspecified,None or Unspecified,Double,,,,,
2292,1745611,9000,1171401,132,4.0,1000,,,2/10/2005 0:00,PC75UU,PC75,UU,,,Mini,"Hydraulic Excavator, Track - 6.0 to 8.0 Metric Tons",Florida,TEX,Track Excavators,,EROPS,,,,,,,,,,,Standard,,,,,,None or Unspecified,,,,Rubber,None or Unspecified,None or Unspecified,None or Unspecified,None or Unspecified,Double,,,,,
2292,1751894,23000,1175606,132,1.0,1000,,,12/6/2005 0:00,PC75UU,PC75,UU,,,Mini,"Hydraulic Excavator, Track - 6.0 to 8.0 Metric Tons",Washington,TEX,Track Excavators,,EROPS,,,,,,,,,,,Standard,,,,,,None or Unspecified,,,,Rubber,None or Unspecified,None or Unspecified,None or Unspecified,None or Unspecified,Double,,,,,
2292,1751960,17750,1500528,132,9.0,1000,,,8/19/2004 0:00,PC75UU,PC75,UU,,,Mini,"Hydraulic Excavator, Track - 6.0 to 8.0 Metric Tons",South Carolina,TEX,Track Excavators,,EROPS,,,,,,,,,,,Standard,,,,,,None or Unspecified,,,,Rubber,None or Unspecified,None or Unspecified,None or Unspecified,None or Unspecified,Double,,,,,
2292,1753231,13500,1220778,132,2.0,1000,,,11/16/2002 0:00,PC75UU,PC75,UU,,,Mini,"Hydraulic Excavator, Track - 6.0 to 8.0 Metric Tons",Connecticut,TEX,Track Excavators,,EROPS,,,,,,,,,,,Standard,,,,,,None or Unspecified,,,,Steel,None or Unspecified,None or Unspecified,None or Unspecified,None or Unspecified,Double,,,,,
2292,1753379,13500,1235288,132,2.0,1995,,,12/14/2002 0:00,PC75UU,PC75,UU,,,Mini,"Hydraulic Excavator, Track - 6.0 to 8.0 Metric Tons",Pennsylvania,TEX,Track Excavators,,EROPS,,,,,,,,,,,Standard,,,,,,None or Unspecified,,,,Steel,None or Unspecified,None or Unspecified,None or Unspecified,None or Unspecified,Double,,,,,
2292,1753544,14000,863307,132,5.0,1000,,,6/15/2005 0:00,PC75UU,PC75,UU,,,Mini,"Hydraulic Excavator, Track - 6.0 to 8.0 Metric Tons",Connecticut,TEX,Track Excavators,,EROPS,,,,,,,,,,,Auxiliary,,,,,,None or Unspecified,,,,Rubber,None or Unspecified,None or Unspecified,None or Unspecified,None or Unspecified,Double,,,,,
2292,1754504,17000,1277152,132,1.0,1000,,,10/6/2004 0:00,PC75UU,PC75,UU,,,Mini,"Hydraulic Excavator, Track - 6.0 to 8.0 Metric Tons",Maryland,TEX,Track Excavators,,EROPS,,,,,,,,,,,Standard,,,,,,None or Unspecified,,,,Rubber,None or Unspecified,None or Unspecified,None or Unspecified,None or Unspecified,Double,,,,,
2292,1756354,14500,1483757,132,13.0,1000,,,6/12/2004 0:00,PC75UU,PC75,UU,,,Mini,"Hydraulic Excavator, Track - 6.0 to 8.0 Metric Tons",Tennessee,TEX,Track Excavators,,EROPS,,,,,,,,,,,Standard,,,,,,None or Unspecified,,,,Steel,None or Unspecified,"8' 6""",None or Unspecified,None or Unspecified,Double,,,,,
2292,1756872,21000,1542552,132,5.0,1000,,,4/6/2006 0:00,PC75UU,PC75,UU,,,Mini,"Hydraulic Excavator, Track - 6.0 to 8.0 Metric Tons",Connecticut,TEX,Track Excavators,,EROPS,,,,,,,,,,,Standard,,,,,,None or Unspecified,,,,Steel,None or Unspecified,None or Unspecified,None or Unspecified,None or Unspecified,Double,,,,,
2292,1757165,7800,1538726,132,12.0,1000,,,3/17/2010 0:00,PC75UU,PC75,UU,,,Mini,"Hydraulic Excavator, Track - 6.0 to 8.0 Metric Tons",South Carolina,TEX,Track Excavators,,EROPS,,,,,,,,,,,Standard,,,,,,None or Unspecified,,,,Rubber,None or Unspecified,None or Unspecified,Manual,None or Unspecified,Double,,,,,
2292,1757353,17500,1097678,132,17.0,1998,,,9/14/2004 0:00,PC75UU,PC75,UU,,,Mini,"Hydraulic Excavator, Track - 6.0 to 8.0 Metric Tons",Oregon,TEX,Track Excavators,,EROPS,,,,,,,,,,,Standard,,,,,,None or Unspecified,,,,Rubber,None or Unspecified,None or Unspecified,Manual,None or Unspecified,Double,,,,,
2292,1757481,16000,1430720,132,1.0,1000,,,2/24/2006 0:00,PC75UU,PC75,UU,,,Mini,"Hydraulic Excavator, Track - 6.0 to 8.0 Metric Tons",Florida,TEX,Track Excavators,,EROPS,,,,,,,,,,,Standard,,,,,,None or Unspecified,,,,Steel,28 inch,None or Unspecified,None or Unspecified,None or Unspecified,Double,,,,,
2292,1758124,19000,1349612,132,1.0,1000,,,2/24/2006 0:00,PC75UU,PC75,UU,,,Mini,"Hydraulic Excavator, Track - 6.0 to 8.0 Metric Tons",Florida,TEX,Track Excavators,,EROPS,,,,,,,,,,,Auxiliary,,,,,,None or Unspecified,,,,Rubber,None or Unspecified,None or Unspecified,None or Unspecified,None or Unspecified,Double,,,,,
2292,1758437,22000,1166937,132,2.0,1993,,,2/8/2001 0:00,PC75UU,PC75,UU,,,Mini,"Hydraulic Excavator, Track - 6.0 to 8.0 Metric Tons",Florida,TEX,Track Excavators,,EROPS,,,,,,,,,,,Standard,,,,,,None or Unspecified,,,,Rubber,None or Unspecified,None or Unspecified,None or Unspecified,None or Unspecified,Double,,,,,
2292,1758458,12500,1008055,132,2.0,1000,,,12/30/2004 0:00,PC75UU,PC75,UU,,,Mini,"Hydraulic Excavator, Track - 6.0 to 8.0 Metric Tons",New York,TEX,Track Excavators,,EROPS,,,,,,,,,,,Auxiliary,,,,,,Manual,,,,Rubber,None or Unspecified,None or Unspecified,None or Unspecified,None or Unspecified,Double,,,,,
2292,1758628,18000,1342295,132,11.0,1000,,,12/1/1999 0:00,PC75UU,PC75,UU,,,Mini,"Hydraulic Excavator, Track - 6.0 to 8.0 Metric Tons",Mississippi,TEX,Track Excavators,,EROPS,,,,,,,,,,,Standard,,,,,,None or Unspecified,,,,Rubber,None or Unspecified,None or Unspecified,None or Unspecified,None or Unspecified,Double,,,,,
2292,1758756,14000,1229767,132,2.0,1000,,,11/9/2001 0:00,PC75UU,PC75,UU,,,Mini,"Hydraulic Excavator, Track - 6.0 to 8.0 Metric Tons",Wisconsin,TEX,Track Excavators,,EROPS,,,,,,,,,,,Standard,,,,,,None or Unspecified,,,,Rubber,None or Unspecified,None or Unspecified,None or Unspecified,None or Unspecified,Double,,,,,
2292,1758766,14500,1488073,132,13.0,1000,,,3/20/2004 0:00,PC75UU,PC75,UU,,,Mini,"Hydraulic Excavator, Track - 6.0 to 8.0 Metric Tons",Tennessee,TEX,Track Excavators,,EROPS,,,,,,,,,,,Standard,,,,,,None or Unspecified,,,,Rubber,None or Unspecified,None or Unspecified,None or Unspecified,None or Unspecified,Double,,,,,
2292,1759042,20000,1185183,132,2.0,1000,,,11/16/2002 0:00,PC75UU,PC75,UU,,,Mini,"Hydraulic Excavator, Track - 6.0 to 8.0 Metric Tons",Connecticut,TEX,Track Excavators,,EROPS w AC,,,,,,,,,,,Standard,,,,,,None or Unspecified,,,,Rubber,None or Unspecified,None or Unspecified,None or Unspecified,None or Unspecified,Double,,,,,
2292,1759370,16000,1113547,132,4.0,1000,,,2/11/2002 0:00,PC75UU,PC75,UU,,,Mini,"Hydraulic Excavator, Track - 6.0 to 8.0 Metric Tons",Florida,TEX,Track Excavators,,EROPS,,,,,,,,,,,Standard,,,,,,None or Unspecified,,,,Rubber,None or Unspecified,None or Unspecified,None or Unspecified,None or Unspecified,Double,,,,,
2292,1759661,14500,1499119,132,10.0,1000,6500.0,Low,12/9/2009 0:00,PC75UU,PC75,UU,,,Mini,"Hydraulic Excavator, Track - 6.0 to 8.0 Metric Tons",Louisiana,TEX,Track Excavators,,EROPS,,,,,,,,,,,Standard,,,,,,None or Unspecified,,,,Steel,None or Unspecified,None or Unspecified,None or Unspecified,None or Unspecified,Double,,,,,
2292,1759693,16000,1477589,132,13.0,1000,,,12/9/2006 0:00,PC75UU,PC75,UU,,,Mini,"Hydraulic Excavator, Track - 6.0 to 8.0 Metric Tons",Tennessee,TEX,Track Excavators,,EROPS,,,,,,,,,,,Standard,,,,,,None or Unspecified,,,,Steel,None or Unspecified,None or Unspecified,None or Unspecified,None or Unspecified,Double,,,,,
2292,1760830,24500,1519275,132,8.0,1000,,,2/16/2007 0:00,PC75UU,PC75,UU,,,Mini,"Hydraulic Excavator, Track - 6.0 to 8.0 Metric Tons",Florida,TEX,Track Excavators,,EROPS,,,,,,,,,,,Standard,,,,,,None or Unspecified,,,,Rubber,None or Unspecified,None or Unspecified,None or Unspecified,None or Unspecified,Double,,,,,
2292,1761128,16500,1556787,132,1.0,1995,,,9/26/2002 0:00,PC75UU,PC75,UU,,,Mini,"Hydraulic Excavator, Track - 6.0 to 8.0 Metric Tons",Illinois,TEX,Track Excavators,,EROPS,,,,,,,,,,,Standard,,,,,,None or Unspecified,,,,Rubber,None or Unspecified,None or Unspecified,None or Unspecified,None or Unspecified,Double,,,,,
2292,1761261,17000,1397654,132,10.0,1000,,,3/14/2007 0:00,PC75UU,PC75,UU,,,Mini,"Hydraulic Excavator, Track - 6.0 to 8.0 Metric Tons",Louisiana,TEX,Track Excavators,,EROPS,,,,,,,,,,,Standard,,,,,,None or Unspecified,,,,Steel,18 inch,None or Unspecified,None or Unspecified,None or Unspecified,Triple,,,,,
2292,1761262,17000,1397654,132,10.0,1000,,,3/13/2007 0:00,PC75UU,PC75,UU,,,Mini,"Hydraulic Excavator, Track - 6.0 to 8.0 Metric Tons",Louisiana,TEX,Track Excavators,,EROPS,,,,,,,,,,,Standard,,,,,,None or Unspecified,,,,Steel,18 inch,None or Unspecified,None or Unspecified,None or Unspecified,Triple,,,,,
2292,1761488,14000,1182387,132,99.0,1000,,,10/5/2004 0:00,PC75UU,PC75,UU,,,Mini,"Hydraulic Excavator, Track - 6.0 to 8.0 Metric Tons",Texas,TEX,Track Excavators,,EROPS,,,,,,,,,,,Standard,,,,,,None or Unspecified,,,,Rubber,None or Unspecified,None or Unspecified,None or Unspecified,None or Unspecified,Double,,,,,
2292,1761609,25000,1077674,132,8.0,1000,,,2/16/2007 0:00,PC75UU,PC75,UU,,,Mini,"Hydraulic Excavator, Track - 6.0 to 8.0 Metric Tons",Florida,TEX,Track Excavators,,EROPS,,,,,,,,,,,Standard,,,,,,None or Unspecified,,,,Steel,None or Unspecified,None or Unspecified,None or Unspecified,None or Unspecified,Double,,,,,
2292,1761749,19500,440914,132,7.0,1000,,,5/31/2006 0:00,PC75UU,PC75,UU,,,Mini,"Hydraulic Excavator, Track - 6.0 to 8.0 Metric Tons",Alabama,TEX,Track Excavators,,EROPS,,,,,,,,,,,Standard,,,,,,None or Unspecified,,,,Steel,None or Unspecified,None or Unspecified,Manual,None or Unspecified,Double,,,,,
2292,2396895,7800,1730219,136,12.0,1000,0.0,,3/17/2010 0:00,PC75UU,PC75,UU,,,Mini,"Hydraulic Excavator, Track - 6.0 to 8.0 Metric Tons",South Carolina,TEX,Track Excavators,,EROPS,,,,,,,,,,,Standard,,,,,,None or Unspecified,,,,Rubber,None or Unspecified,None or Unspecified,Manual,None or Unspecified,Double,,,,,
2292,2397835,19000,658985,136,1.0,1000,0.0,,12/13/2007 0:00,PC75UU,PC75,UU,,,Mini,"Hydraulic Excavator, Track - 6.0 to 8.0 Metric Tons",Colorado,TEX,Track Excavators,,EROPS,,,,,,,,,,,Standard,,,,,,None or Unspecified,,,,Rubber,22 inch,None or Unspecified,Manual,None or Unspecified,Double,,,,,
2292,2397942,10500,1476836,136,2.0,1000,0.0,,7/11/2007 0:00,PC75UU,PC75,UU,,,Mini,"Hydraulic Excavator, Track - 6.0 to 8.0 Metric Tons",Texas,TEX,Track Excavators,,EROPS w AC,,,,,,,,,,,2 Valve,,,,,,,,,,,None or Unspecified,,,,,,,,,
2292,2397969,22000,1786824,136,4.0,1996,2411.0,Low,11/14/2007 0:00,PC75UU,PC75,UU,,,Mini,"Hydraulic Excavator, Track - 6.0 to 8.0 Metric Tons",Colorado,TEX,Track Excavators,,EROPS,,,,,,,,,,,2 Valve,,,,,,None or Unspecified,,,,,,,,,,,,,,
2292,2398627,12000,687846,136,1.0,1988,0.0,,8/20/2008 0:00,PC75UU,PC75,UU,,,Mini,"Hydraulic Excavator, Track - 6.0 to 8.0 Metric Tons",Texas,TEX,Track Excavators,,EROPS w AC,,,,,,,,,,,Standard,,,,,,Manual,,,,Rubber,18 inch,None or Unspecified,None or Unspecified,None or Unspecified,Double,,,,,
2292,2398803,17000,1737160,136,27.0,1996,3188.0,Low,6/10/2009 0:00,PC75UU,PC75,UU,,,Mini,"Hydraulic Excavator, Track - 6.0 to 8.0 Metric Tons",Tennessee,TEX,Track Excavators,,EROPS,,,,,,,,,,,Standard,,,,,,None or Unspecified,,,,Rubber,None or Unspecified,None or Unspecified,None or Unspecified,None or Unspecified,Double,,,,,
2292,2399021,9000,1702631,136,99.0,1000,0.0,,7/24/2010 0:00,PC75UU,PC75,UU,,,Mini,"Hydraulic Excavator, Track - 6.0 to 8.0 Metric Tons",Washington,TEX,Track Excavators,,EROPS,,,,,,,,,,,Standard,,,,,,None or Unspecified,,,,Steel,None or Unspecified,None or Unspecified,None or Unspecified,None or Unspecified,Double,,,,,
2292,2399378,16500,1497118,136,7.0,1000,2913.0,Low,6/4/2008 0:00,PC75UU,PC75,UU,,,Mini,"Hydraulic Excavator, Track - 6.0 to 8.0 Metric Tons",Alabama,TEX,Track Excavators,,EROPS,,,,,,,,,,,Standard,,,,,,None or Unspecified,,,,Steel,28 inch,None or Unspecified,None or Unspecified,None or Unspecified,Triple,,,,,
2292,2399462,17000,1078322,136,4.0,1000,0.0,,2/9/2009 0:00,PC75UU,PC75,UU,,,Mini,"Hydraulic Excavator, Track - 6.0 to 8.0 Metric Tons",Florida,TEX,Track Excavators,,EROPS,,,,,,,,,,,Standard,,,,,,None or Unspecified,,,,Rubber,None or Unspecified,None or Unspecified,None or Unspecified,None or Unspecified,Double,,,,,
2292,2399525,15000,440186,136,,1000,0.0,,7/12/2008 0:00,PC75UU,PC75,UU,,,Mini,"Hydraulic Excavator, Track - 6.0 to 8.0 Metric Tons",Michigan,TEX,Track Excavators,,EROPS,,,,,,,,,,,Standard,,,,,,None or Unspecified,,,,Rubber,None or Unspecified,None or Unspecified,None or Unspecified,None or Unspecified,Double,,,,,
2292,2399538,11250,1786923,136,4.0,1000,1200.0,Low,4/15/2010 0:00,PC75UU,PC75,UU,,,Mini,"Hydraulic Excavator, Track - 6.0 to 8.0 Metric Tons",Pennsylvania,TEX,Track Excavators,,EROPS,,,,,,,,,,,Standard,,,,,,None or Unspecified,,,,Rubber,None or Unspecified,None or Unspecified,Hydraulic,None or Unspecified,Double,,,,,
2292,2399539,12000,1786923,136,4.0,1988,0.0,,6/17/2010 0:00,PC75UU,PC75,UU,,,Mini,"Hydraulic Excavator, Track - 6.0 to 8.0 Metric Tons",Pennsylvania,TEX,Track Excavators,,EROPS,,,,,,,,,,,Standard,,,,,,None or Unspecified,,,,Rubber,None or Unspecified,None or Unspecified,Hydraulic,None or Unspecified,Double,,,,,
2292,2399541,10500,1786923,136,1.0,1000,0.0,,10/22/2009 0:00,PC75UU,PC75,UU,,,Mini,"Hydraulic Excavator, Track - 6.0 to 8.0 Metric Tons",Pennsylvania,TEX,Track Excavators,,EROPS,,,,,,,,,,,Standard,,,,,,None or Unspecified,,,,Rubber,None or Unspecified,None or Unspecified,Hydraulic,None or Unspecified,Double,,,,,
2292,2399643,12500,1250419,136,12.0,1997,0.0,,9/24/2008 0:00,PC75UU,PC75,UU,,,Mini,"Hydraulic Excavator, Track - 6.0 to 8.0 Metric Tons",South Carolina,TEX,Track Excavators,,EROPS,,,,,,,,,,,Auxiliary,,,,,,None or Unspecified,,,,Rubber,None or Unspecified,None or Unspecified,Manual,None or Unspecified,Double,,,,,
2292,2400276,14500,1320322,136,2.0,1000,3527.0,Low,6/10/2009 0:00,PC75UU,PC75,UU,,,Mini,"Hydraulic Excavator, Track - 6.0 to 8.0 Metric Tons",Tennessee,TEX,Track Excavators,,EROPS,,,,,,,,,,,Auxiliary,,,,,,None or Unspecified,,,,Rubber,18 inch,None or Unspecified,None or Unspecified,None or Unspecified,Triple,,,,,
2292,2400320,9500,1365081,136,1.0,1989,0.0,,12/11/2007 0:00,PC75UU,PC75,UU,,,Mini,"Hydraulic Excavator, Track - 6.0 to 8.0 Metric Tons",Minnesota,TEX,Track Excavators,,EROPS w AC,,,,,,,,,,,Standard,,,,,,None or Unspecified,,,,Rubber,18 inch,None or Unspecified,None or Unspecified,None or Unspecified,Double,,,,,
2292,2400322,13000,1365081,136,1.0,1000,0.0,,9/21/2007 0:00,PC75UU,PC75,UU,,,Mini,"Hydraulic Excavator, Track - 6.0 to 8.0 Metric Tons",Minnesota,TEX,Track Excavators,,EROPS w AC,,,,,,,,,,,Standard,,,,,,None or Unspecified,,,,Rubber,18 inch,None or Unspecified,None or Unspecified,None or Unspecified,Double,,,,,
2292,2400403,13500,1433128,136,4.0,1989,3800.0,Medium,2/8/2010 0:00,PC75UU,PC75,UU,,,Mini,"Hydraulic Excavator, Track - 6.0 to 8.0 Metric Tons",Florida,TEX,Track Excavators,,EROPS,,,,,,,,,,,2 Valve,,,,,,,,,,,24 inch,,,,,,,,,
2292,2400491,17000,1066655,136,2.0,1989,0.0,,12/14/2007 0:00,PC75UU,PC75,UU,,,Mini,"Hydraulic Excavator, Track - 6.0 to 8.0 Metric Tons",North Carolina,TEX,Track Excavators,,EROPS w AC,,,,,,,,,,,2 Valve,,,,,,,,,,,20 inch,,,,,,,,,
2292,2400492,12000,1066655,136,2.0,1989,0.0,,12/9/2008 0:00,PC75UU,PC75,UU,,,Mini,"Hydraulic Excavator, Track - 6.0 to 8.0 Metric Tons",North Carolina,TEX,Track Excavators,,EROPS w AC,,,,,,,,,,,2 Valve,,,,,,,,,,,20 inch,,,,,,,,,
2292,2400661,7800,692347,136,1.0,1000,0.0,,6/20/2007 0:00,PC75UU,PC75,UU,,,Mini,"Hydraulic Excavator, Track - 6.0 to 8.0 Metric Tons",Arkansas,TEX,Track Excavators,,EROPS,,,,,,,,,,,Standard,,,,,,None or Unspecified,,,,Rubber,20 inch,None or Unspecified,None or Unspecified,None or Unspecified,Double,,,,,
2292,2400872,8000,1647871,136,20.0,1989,0.0,,11/18/2008 0:00,PC75UU,PC75,UU,,,Mini,"Hydraulic Excavator, Track - 6.0 to 8.0 Metric Tons",California,TEX,Track Excavators,,EROPS,,,,,,,,,,,Standard,,,,,,None or Unspecified,,,,Rubber,None or Unspecified,None or Unspecified,None or Unspecified,None or Unspecified,Double,,,,,
2292,2400921,17000,1725466,136,,1999,2942.0,Low,6/10/2009 0:00,PC75UU,PC75,UU,,,Mini,"Hydraulic Excavator, Track - 6.0 to 8.0 Metric Tons",Tennessee,TEX,Track Excavators,,EROPS,,,,,,,,,,,Standard,,,,,,None or Unspecified,,,,Rubber,None or Unspecified,None or Unspecified,None or Unspecified,None or Unspecified,Double,,,,,
2292,2401025,13000,1220857,136,16.0,1000,0.0,,6/14/2007 0:00,PC75UU,PC75,UU,,,Mini,"Hydraulic Excavator, Track - 6.0 to 8.0 Metric Tons",Pennsylvania,TEX,Track Excavators,,OROPS,,,,,,,,,,,2 Valve,,,,,,,,,,,None or Unspecified,,,,,,,,,
2292,2401088,12250,388114,136,1.0,1000,0.0,,10/18/2007 0:00,PC75UU,PC75,UU,,,Mini,"Hydraulic Excavator, Track - 6.0 to 8.0 Metric Tons",Pennsylvania,TEX,Track Excavators,,EROPS,,,,,,,,,,,2 Valve,,,,,,None or Unspecified,,,,,,,,,,,,,,
2292,2401694,9250,1647816,136,4.0,1990,0.0,,2/3/2008 0:00,PC75UU,PC75,UU,,,Mini,"Hydraulic Excavator, Track - 6.0 to 8.0 Metric Tons",Florida,TEX,Track Excavators,,EROPS,,,,,,,,,,,Standard,,,,,,None or Unspecified,,,,Rubber,None or Unspecified,None or Unspecified,None or Unspecified,None or Unspecified,Double,,,,,
2292,2401851,11000,1196523,136,4.0,1000,0.0,,7/11/2007 0:00,PC75UU,PC75,UU,,,Mini,"Hydraulic Excavator, Track - 6.0 to 8.0 Metric Tons",Texas,TEX,Track Excavators,,,,,,,,,,,,,,,,,,,,,,,,,,,,,,,,,
2292,2402265,10750,1713153,136,2.0,1990,1970.0,Low,2/11/2008 0:00,PC75UU,PC75,UU,,,Mini,"Hydraulic Excavator, Track - 6.0 to 8.0 Metric Tons",Florida,TEX,Track Excavators,,EROPS,,,,,,,,,,,Standard,,,,,,None or Unspecified,,,,Rubber,None or Unspecified,None or Unspecified,None or Unspecified,None or Unspecified,Double,,,,,
2292,2402374,11250,1719917,136,1.0,1000,0.0,,6/19/2008 0:00,PC75UU,PC75,UU,,,Mini,"Hydraulic Excavator, Track - 6.0 to 8.0 Metric Tons",Pennsylvania,TEX,Track Excavators,,EROPS,,,,,,,,,,,Standard,,,,,,None or Unspecified,,,,Steel,None or Unspecified,None or Unspecified,None or Unspecified,None or Unspecified,Double,,,,,
2292,2402401,10500,1700939,136,10.0,1990,0.0,,9/11/2007 0:00,PC75UU,PC75,UU,,,Mini,"Hydraulic Excavator, Track - 6.0 to 8.0 Metric Tons",Washington,TEX,Track Excavators,,EROPS,,,,,,,,,,,Standard,,,,,,None or Unspecified,,,,Steel,None or Unspecified,None or Unspecified,None or Unspecified,None or Unspecified,Double,,,,,
2292,2402633,8750,1197947,136,12.0,1990,0.0,,12/9/2009 0:00,PC75UU,PC75,UU,,,Mini,"Hydraulic Excavator, Track - 6.0 to 8.0 Metric Tons",South Carolina,TEX,Track Excavators,,EROPS,,,,,,,,,,,Standard,,,,,,None or Unspecified,,,,Steel,None or Unspecified,None or Unspecified,None or Unspecified,None or Unspecified,Triple,,,,,
2292,2402634,12500,1197947,136,4.0,1990,6000.0,Low,2/11/2008 0:00,PC75UU,PC75,UU,,,Mini,"Hydraulic Excavator, Track - 6.0 to 8.0 Metric Tons",Florida,TEX,Track Excavators,,EROPS,,,,,,,,,,,Standard,,,,,,None or Unspecified,,,,Steel,None or Unspecified,None or Unspecified,None or Unspecified,None or Unspecified,Triple,,,,,
2292,2402891,9000,1698176,136,2.0,1000,0.0,,8/23/2007 0:00,PC75UU,PC75,UU,,,Mini,"Hydraulic Excavator, Track - 6.0 to 8.0 Metric Tons",Texas,TEX,Track Excavators,,EROPS,,,,,,,,,,,Standard,,,,,,None or Unspecified,,,,Rubber,None or Unspecified,None or Unspecified,None or Unspecified,None or Unspecified,Double,,,,,
2292,2402917,15000,1215102,136,4.0,1990,0.0,,2/8/2010 0:00,PC75UU,PC75,UU,,,Mini,"Hydraulic Excavator, Track - 6.0 to 8.0 Metric Tons",Florida,TEX,Track Excavators,,EROPS w AC,,,,,,,,,,,Standard,,,,,,None or Unspecified,,,,Steel,26 inch,None or Unspecified,None or Unspecified,None or Unspecified,Double,,,,,
2292,2403128,10000,1511641,136,1.0,1990,0.0,,9/26/2007 0:00,PC75UU,PC75,UU,,,Mini,"Hydraulic Excavator, Track - 6.0 to 8.0 Metric Tons",Texas,TEX,Track Excavators,,EROPS w AC,,,,,,,,,,,Standard,,,,,,Manual,,,,Rubber,None or Unspecified,None or Unspecified,Hydraulic,None or Unspecified,Double,,,,,
2292,2403129,9000,1511641,136,1.0,1000,0.0,,6/5/2008 0:00,PC75UU,PC75,UU,,,Mini,"Hydraulic Excavator, Track - 6.0 to 8.0 Metric Tons",Texas,TEX,Track Excavators,,EROPS w AC,,,,,,,,,,,Standard,,,,,,Manual,,,,Rubber,None or Unspecified,None or Unspecified,Hydraulic,None or Unspecified,Double,,,,,
2292,2403179,9500,1361963,136,8.0,1990,7000.0,Low,2/11/2008 0:00,PC75UU,PC75,UU,,,Mini,"Hydraulic Excavator, Track - 6.0 to 8.0 Metric Tons",Florida,TEX,Track Excavators,,EROPS,,,,,,,,,,,Standard,,,,,,None or Unspecified,,,,Rubber,None or Unspecified,None or Unspecified,None or Unspecified,None or Unspecified,Double,,,,,
2292,2403245,13500,1642703,136,1.0,1991,2800.0,Low,10/18/2007 0:00,PC75UU,PC75,UU,,,Mini,"Hydraulic Excavator, Track - 6.0 to 8.0 Metric Tons",Pennsylvania,TEX,Track Excavators,,EROPS w AC,,,,,,,,,,,Standard,,,,,,None or Unspecified,,,,Steel,None or Unspecified,None or Unspecified,None or Unspecified,None or Unspecified,Double,,,,,
2292,2403276,16000,1685395,136,11.0,1991,0.0,,12/11/2007 0:00,PC75UU,PC75,UU,,,Mini,"Hydraulic Excavator, Track - 6.0 to 8.0 Metric Tons",Louisiana,TEX,Track Excavators,,EROPS,,,,,,,,,,,Standard,,,,,,None or Unspecified,,,,Rubber,None or Unspecified,None or Unspecified,None or Unspecified,None or Unspecified,Double,,,,,
2292,2403277,11000,1685395,136,11.0,1991,0.0,,9/20/2007 0:00,PC75UU,PC75,UU,,,Mini,"Hydraulic Excavator, Track - 6.0 to 8.0 Metric Tons",Louisiana,TEX,Track Excavators,,EROPS,,,,,,,,,,,Standard,,,,,,None or Unspecified,,,,Rubber,None or Unspecified,None or Unspecified,None or Unspecified,None or Unspecified,Double,,,,,
2292,2403421,13000,1645924,136,1.0,1991,3300.0,Low,8/21/2008 0:00,PC75UU,PC75,UU,,,Mini,"Hydraulic Excavator, Track - 6.0 to 8.0 Metric Tons",South Carolina,TEX,Track Excavators,,EROPS,,,,,,,,,,,Standard,,,,,,None or Unspecified,,,,Rubber,None or Unspecified,None or Unspecified,None or Unspecified,None or Unspecified,Double,,,,,
2292,2403671,9750,1156136,136,1.0,1991,0.0,,2/9/2009 0:00,PC75UU,PC75,UU,,,Mini,"Hydraulic Excavator, Track - 6.0 to 8.0 Metric Tons",Florida,TEX,Track Excavators,,EROPS,,,,,,,,,,,Standard,,,,,,None or Unspecified,,,,Rubber,None or Unspecified,None or Unspecified,Hydraulic,None or Unspecified,Double,,,,,
2292,2403905,11000,1317803,136,4.0,1991,3800.0,Low,10/18/2007 0:00,PC75UU,PC75,UU,,,Mini,"Hydraulic Excavator, Track - 6.0 to 8.0 Metric Tons",Pennsylvania,TEX,Track Excavators,,EROPS,,,,,,,,,,,Standard,,,,,,None or Unspecified,,,,Rubber,None or Unspecified,None or Unspecified,None or Unspecified,None or Unspecified,Double,,,,,
2292,2404146,11000,1208586,136,10.0,1991,0.0,,9/20/2007 0:00,PC75UU,PC75,UU,,,Mini,"Hydraulic Excavator, Track - 6.0 to 8.0 Metric Tons",Louisiana,TEX,Track Excavators,,EROPS,,,,,,,,,,,Base + 1 Function,,,,,,,,,,,,,,,,,,,,
2292,2404147,15500,1208586,136,28.0,1991,0.0,,9/7/2007 0:00,PC75UU,PC75,UU,,,Mini,"Hydraulic Excavator, Track - 6.0 to 8.0 Metric Tons",Mississippi,TEX,Track Excavators,,EROPS,,,,,,,,,,,Base + 1 Function,,,,,,,,,,,,,,,,,,,,
2292,2404243,13750,1425817,136,1.0,1991,3900.0,Medium,10/23/2008 0:00,PC75UU,PC75,UU,,,Mini,"Hydraulic Excavator, Track - 6.0 to 8.0 Metric Tons",Pennsylvania,TEX,Track Excavators,,EROPS,,,,,,,,,,,Standard,,,,,,None or Unspecified,,,,Rubber,None or Unspecified,"6' 3""",None or Unspecified,None or Unspecified,Double,,,,,
2292,2404494,10600,1745056,136,99.0,1991,0.0,,8/21/2008 0:00,PC75UU,PC75,UU,,,Mini,"Hydraulic Excavator, Track - 6.0 to 8.0 Metric Tons",South Carolina,TEX,Track Excavators,,EROPS w AC,,,,,,,,,,,Standard,,,,,,None or Unspecified,,,,Rubber,None or Unspecified,None or Unspecified,None or Unspecified,None or Unspecified,Double,,,,,
2292,2404495,10750,1745056,136,99.0,1991,0.0,,10/23/2008 0:00,PC75UU,PC75,UU,,,Mini,"Hydraulic Excavator, Track - 6.0 to 8.0 Metric Tons",Pennsylvania,TEX,Track Excavators,,EROPS w AC,,,,,,,,,,,Standard,,,,,,None or Unspecified,,,,Rubber,None or Unspecified,None or Unspecified,None or Unspecified,None or Unspecified,Double,,,,,
2292,2404496,9500,1745056,136,99.0,1991,0.0,,5/15/2008 0:00,PC75UU,PC75,UU,,,Mini,"Hydraulic Excavator, Track - 6.0 to 8.0 Metric Tons",South Carolina,TEX,Track Excavators,,EROPS w AC,,,,,,,,,,,Standard,,,,,,None or Unspecified,,,,Rubber,None or Unspecified,None or Unspecified,None or Unspecified,None or Unspecified,Double,,,,,
2292,2404497,11750,1745056,136,99.0,1000,0.0,,6/19/2008 0:00,PC75UU,PC75,UU,,,Mini,"Hydraulic Excavator, Track - 6.0 to 8.0 Metric Tons",Pennsylvania,TEX,Track Excavators,,EROPS w AC,,,,,,,,,,,Standard,,,,,,None or Unspecified,,,,Rubber,None or Unspecified,None or Unspecified,None or Unspecified,None or Unspecified,Double,,,,,
2292,2404500,8000,1089593,136,2.0,1991,0.0,,3/10/2009 0:00,PC75UU,PC75,UU,,,Mini,"Hydraulic Excavator, Track - 6.0 to 8.0 Metric Tons",Colorado,TEX,Track Excavators,,EROPS,,,,,,,,,,,Standard,,,,,,None or Unspecified,,,,Steel,None or Unspecified,None or Unspecified,Manual,None or Unspecified,Double,,,,,
2292,2404537,11100,1173699,136,5.0,1991,7700.0,Medium,2/11/2008 0:00,PC75UU,PC75,UU,,,Mini,"Hydraulic Excavator, Track - 6.0 to 8.0 Metric Tons",Florida,TEX,Track Excavators,,EROPS,,,,,,,,,,,Standard,,,,,,None or Unspecified,,,,Rubber,None or Unspecified,None or Unspecified,None or Unspecified,None or Unspecified,Double,,,,,
2292,2404547,16000,1391137,136,2.0,1000,0.0,,8/24/2008 0:00,PC75UU,PC75,UU,,,Mini,"Hydraulic Excavator, Track - 6.0 to 8.0 Metric Tons",New York,TEX,Track Excavators,,EROPS,,,,,,,,,,,Standard,,,,,,None or Unspecified,,,,Rubber,None or Unspecified,None or Unspecified,None or Unspecified,None or Unspecified,Double,,,,,
2292,2404640,9500,1703922,136,,1991,0.0,,7/31/2009 0:00,PC75UU,PC75,UU,,,Mini,"Hydraulic Excavator, Track - 6.0 to 8.0 Metric Tons",Washington,TEX,Track Excavators,,EROPS,,,,,,,,,,,Standard,,,,,,None or Unspecified,,,,Rubber,None or Unspecified,None or Unspecified,None or Unspecified,None or Unspecified,Double,,,,,
2292,2404696,8000,1535924,136,1.0,1991,0.0,,9/18/2008 0:00,PC75UU,PC75,UU,,,Mini,"Hydraulic Excavator, Track - 6.0 to 8.0 Metric Tons",Georgia,TEX,Track Excavators,,EROPS,,,,,,,,,,,Standard,,,,,,None or Unspecified,,,,Rubber,None or Unspecified,None or Unspecified,None or Unspecified,None or Unspecified,Double,,,,,
2292,2404697,11250,1535924,136,1.0,1991,0.0,,8/21/2008 0:00,PC75UU,PC75,UU,,,Mini,"Hydraulic Excavator, Track - 6.0 to 8.0 Metric Tons",South Carolina,TEX,Track Excavators,,EROPS,,,,,,,,,,,Standard,,,,,,None or Unspecified,,,,Rubber,None or Unspecified,None or Unspecified,None or Unspecified,None or Unspecified,Double,,,,,
2292,2404826,12500,1007292,136,1.0,1991,4750.0,Low,2/11/2008 0:00,PC75UU,PC75,UU,,,Mini,"Hydraulic Excavator, Track - 6.0 to 8.0 Metric Tons",Florida,TEX,Track Excavators,,EROPS,,,,,,,,,,,Standard,,,,,,None or Unspecified,,,,Rubber,None or Unspecified,None or Unspecified,None or Unspecified,None or Unspecified,Double,,,,,
2292,2404946,14000,1085162,136,6.0,1992,0.0,,6/14/2007 0:00,PC75UU,PC75,UU,,,Mini,"Hydraulic Excavator, Track - 6.0 to 8.0 Metric Tons",Pennsylvania,TEX,Track Excavators,,EROPS,,,,,,,,,,,Standard,,,,,,None or Unspecified,,,,Steel,None or Unspecified,None or Unspecified,None or Unspecified,None or Unspecified,Double,,,,,
2292,2407254,10000,1460517,136,1.0,1992,0.0,,6/19/2007 0:00,PC75UU,PC75,UU,,,Mini,"Hydraulic Excavator, Track - 6.0 to 8.0 Metric Tons",Oregon,TEX,Track Excavators,,EROPS,,,,,,,,,,,Standard,,,,,,None or Unspecified,,,,Rubber,None or Unspecified,None or Unspecified,None or Unspecified,None or Unspecified,Double,,,,,
2292,2408835,17500,1213341,136,1.0,1000,0.0,,3/22/2008 0:00,PC75UU,PC75,UU,,,Mini,"Hydraulic Excavator, Track - 6.0 to 8.0 Metric Tons",Washington,TEX,Track Excavators,,EROPS,,,,,,,,,,,Standard,,,,,,None or Unspecified,,,,Rubber,None or Unspecified,None or Unspecified,Hydraulic,None or Unspecified,Double,,,,,
2292,2409372,12000,1410915,136,1.0,1993,0.0,,8/1/2009 0:00,PC75UU,PC75,UU,,,Mini,"Hydraulic Excavator, Track - 6.0 to 8.0 Metric Tons",California,TEX,Track Excavators,,EROPS,,,,,,,,,,,Standard,,,,,,None or Unspecified,,,,Steel,None or Unspecified,"8' 6""",None or Unspecified,None or Unspecified,Double,,,,,
2292,2409664,24000,1100563,136,7.0,1993,0.0,,3/12/2008 0:00,PC75UU,PC75,UU,,,Mini,"Hydraulic Excavator, Track - 6.0 to 8.0 Metric Tons",Alabama,TEX,Track Excavators,,EROPS,,,,,,,,,,,Standard,,,,,,None or Unspecified,,,,Rubber,None or Unspecified,None or Unspecified,None or Unspecified,None or Unspecified,Double,,,,,
2292,2409665,17000,1100563,136,7.0,1993,3008.0,Low,12/5/2007 0:00,PC75UU,PC75,UU,,,Mini,"Hydraulic Excavator, Track - 6.0 to 8.0 Metric Tons",Alabama,TEX,Track Excavators,,EROPS,,,,,,,,,,,Standard,,,,,,None or Unspecified,,,,Rubber,None or Unspecified,None or Unspecified,None or Unspecified,None or Unspecified,Double,,,,,
2292,2409836,7500,1044449,136,3.0,1000,0.0,,6/10/2008 0:00,PC75UU,PC75,UU,,,Mini,"Hydraulic Excavator, Track - 6.0 to 8.0 Metric Tons",Oregon,TEX,Track Excavators,,EROPS,,,,,,,,,,,Standard,,,,,,Manual,,,,Steel,None or Unspecified,None or Unspecified,Hydraulic,None or Unspecified,Double,,,,,
2292,2409851,14250,1272787,136,14.0,1993,0.0,,9/19/2008 0:00,PC75UU,PC75,UU,,,Mini,"Hydraulic Excavator, Track - 6.0 to 8.0 Metric Tons",Indiana,TEX,Track Excavators,,EROPS,,,,,,,,,,,Standard,,,,,,None or Unspecified,,,,Rubber,None or Unspecified,None or Unspecified,Manual,None or Unspecified,Double,,,,,
2292,2410434,17000,1767837,136,1.0,1000,4594.0,Low,6/20/2008 0:00,PC75UU,PC75,UU,,,Mini,"Hydraulic Excavator, Track - 6.0 to 8.0 Metric Tons",Indiana,TEX,Track Excavators,,EROPS,,,,,,,,,,,Standard,,,,,,Manual,,,,Steel,None or Unspecified,None or Unspecified,None or Unspecified,None or Unspecified,Double,,,,,
2292,2410587,15000,1700797,136,,1994,0.0,,9/21/2009 0:00,PC75UU,PC75,UU,,,Mini,"Hydraulic Excavator, Track - 6.0 to 8.0 Metric Tons",Illinois,TEX,Track Excavators,,EROPS,,,,,,,,,,,Standard,,,,,,None or Unspecified,,,,Steel,None or Unspecified,None or Unspecified,None or Unspecified,None or Unspecified,Double,,,,,
2292,2410809,14000,1246872,136,1.0,1000,0.0,,11/8/2007 0:00,PC75UU,PC75,UU,,,Mini,"Hydraulic Excavator, Track - 6.0 to 8.0 Metric Tons",Texas,TEX,Track Excavators,,EROPS,,,,,,,,,,,Standard,,,,,,None or Unspecified,,,,Steel,None or Unspecified,None or Unspecified,None or Unspecified,None or Unspecified,Double,,,,,
2292,2411406,11000,1087879,136,99.0,1994,0.0,,12/2/2009 0:00,PC75UU,PC75,UU,,,Mini,"Hydraulic Excavator, Track - 6.0 to 8.0 Metric Tons",Alabama,TEX,Track Excavators,,EROPS,,,,,,,,,,,Standard,,,,,,None or Unspecified,,,,Steel,18 inch,None or Unspecified,None or Unspecified,None or Unspecified,Triple,,,,,
2292,2411453,17000,1525851,136,5.0,1995,0.0,,4/10/2008 0:00,PC75UU,PC75,UU,,,Mini,"Hydraulic Excavator, Track - 6.0 to 8.0 Metric Tons",Connecticut,TEX,Track Excavators,,EROPS,,,,,,,,,,,Standard,,,,,,None or Unspecified,,,,Steel,None or Unspecified,None or Unspecified,None or Unspecified,None or Unspecified,Double,,,,,
2292,2411647,10000,655459,136,,1995,0.0,,3/21/2009 0:00,PC75UU,PC75,UU,,,Mini,"Hydraulic Excavator, Track - 6.0 to 8.0 Metric Tons",Washington,TEX,Track Excavators,,EROPS,,,,,,,,,,,Standard,,,,,,None or Unspecified,,,,Rubber,None or Unspecified,None or Unspecified,None or Unspecified,None or Unspecified,Double,,,,,
2292,2411669,15750,1187649,136,,1995,0.0,,6/20/2007 0:00,PC75UU,PC75,UU,,,Mini,"Hydraulic Excavator, Track - 6.0 to 8.0 Metric Tons",Arkansas,TEX,Track Excavators,,EROPS,,,,,,,,,,,Standard,,,,,,None or Unspecified,,,,Rubber,None or Unspecified,None or Unspecified,None or Unspecified,None or Unspecified,Double,,,,,
2292,2411750,17500,1750877,136,1.0,1000,0.0,,11/1/2008 0:00,PC75UU,PC75,UU,,,Mini,"Hydraulic Excavator, Track - 6.0 to 8.0 Metric Tons",New York,TEX,Track Excavators,,EROPS w AC,,,,,,,,,,,Standard,,,,,,None or Unspecified,,,,Rubber,None or Unspecified,None or Unspecified,None or Unspecified,None or Unspecified,Double,,,,,
2292,2411755,13250,1376250,136,20.0,1995,0.0,,10/31/2007 0:00,PC75UU,PC75,UU,,,Mini,"Hydraulic Excavator, Track - 6.0 to 8.0 Metric Tons",Arkansas,TEX,Track Excavators,,EROPS,,,,,,,,,,,Standard,,,,,,None or Unspecified,,,,Rubber,None or Unspecified,None or Unspecified,Manual,None or Unspecified,Double,,,,,
2292,2691754,15000,1534134,149,1.0,1997,0.0,,5/26/2011 0:00,PC75UU,PC75,UU,,,Mini,"Hydraulic Excavator, Track - 6.0 to 8.0 Metric Tons",Illinois,TEX,Track Excavators,,EROPS,,,,,,,,,,,Auxiliary,,,,,,None or Unspecified,,,,Rubber,36 inch,None or Unspecified,None or Unspecified,None or Unspecified,Double,,,,,
2292,2694202,15000,1383282,149,5.0,1991,4340.0,Low,4/7/2011 0:00,PC75UU,PC75,UU,,,Mini,"Hydraulic Excavator, Track - 6.0 to 8.0 Metric Tons",Connecticut,TEX,Track Excavators,,EROPS,,,,,,,,,,,Standard,,,,,,None or Unspecified,,,,Rubber,None or Unspecified,None or Unspecified,None or Unspecified,None or Unspecified,Double,,,,,
2292,2698158,10000,1411559,149,99.0,1000,6720.0,Low,5/5/2011 0:00,PC75UU,PC75,UU,,,Mini,"Hydraulic Excavator, Track - 6.0 to 8.0 Metric Tons",Texas,TEX,Track Excavators,,EROPS,,,,,,,,,,,Standard,,,,,,None or Unspecified,,,,Rubber,None or Unspecified,None or Unspecified,None or Unspecified,None or Unspecified,Double,,,,,
2292,4356374,9500,1750645,172,1.0,1000,3433.0,Low,8/31/2010 0:00,PC75UU,PC75,UU,,,Mini,"Hydraulic Excavator, Track - 6.0 to 8.0 Metric Tons",Colorado,TEX,Track Excavators,,EROPS,,,,,,,,,,,Standard,,,,,,None or Unspecified,,,,Steel,None or Unspecified,None or Unspecified,Manual,None or Unspecified,Double,,,,,
2292,6301783,9000,1932719,149,1.0,1986,,,6/30/2011 0:00,PC75UU,PC75,UU,,,Mini,"Hydraulic Excavator, Track - 6.0 to 8.0 Metric Tons",North Carolina,TEX,Track Excavators,,EROPS,,,,,,,,,,,Standard,,,,,,None or Unspecified,,,,Steel,None or Unspecified,None or Unspecified,None or Unspecified,None or Unspecified,Double,,,,,
