ModelID,SalesID,SalePrice,MachineID,datasource,auctioneerID,YearMade,MachineHoursCurrentMeter,UsageBand,saledate,fiModelDesc,fiBaseModel,fiSecondaryDesc,fiModelSeries,fiModelDescriptor,ProductSize,fiProductClassDesc,state,ProductGroup,ProductGroupDesc,Drive_System,Enclosure,Forks,Pad_Type,Ride_Control,Stick,Transmission,Turbocharged,Blade_Extension,Blade_Width,Enclosure_Type,Engine_Horsepower,Hydraulics,Pushblock,Ripper,Scarifier,Tip_Control,Tire_Size,Coupler,Coupler_System,Grouser_Tracks,Hydraulics_Flow,Track_Type,Undercarriage_Pad_Width,Stick_Length,Thumb,Pattern_Changer,Grouser_Type,Backhoe_Mounting,Blade_Type,Travel_Controls,Differential_Type,Steering_Controls
22960,1684020,63000,1396261,132,1.0,1996,,,6/22/1999 0:00,EX300-5,EX300,,-5,,Large / Medium,"Hydraulic Excavator, Track - 28.0 to 33.0 Metric Tons",Washington,TEX,Track Excavators,,EROPS,,,,,,,,,,,Auxiliary,,,,,,None or Unspecified,,,,Steel,None or Unspecified,None or Unspecified,None or Unspecified,None or Unspecified,Double,,,,,
22960,1689344,30000,1357008,132,1.0,1999,5960.0,Medium,2/18/2011 0:00,EX300-5,EX300,,-5,,Large / Medium,"Hydraulic Excavator, Track - 28.0 to 33.0 Metric Tons",Florida,TEX,Track Excavators,,EROPS w AC,,,,,,,,,,,Auxiliary,,,,,,None or Unspecified,,,,Steel,None or Unspecified,"10' 6""",None or Unspecified,None or Unspecified,Double,,,,,
22960,1689345,32500,1352319,132,1.0,1999,,,6/23/2008 0:00,EX300-5,EX300,,-5,,Large / Medium,"Hydraulic Excavator, Track - 28.0 to 33.0 Metric Tons",California,TEX,Track Excavators,,EROPS w AC,,,,,,,,,,,Standard,,,,,,None or Unspecified,,,,Steel,None or Unspecified,"10' 6""",None or Unspecified,None or Unspecified,Double,,,,,
22960,2371995,42500,1229630,136,1.0,1998,0.0,,6/17/2008 0:00,EX300-5,EX300,,-5,,Large / Medium,"Hydraulic Excavator, Track - 28.0 to 33.0 Metric Tons",Washington,TEX,Track Excavators,,EROPS,,,,,,,,,,,Auxiliary,,,,,,Hydraulic,,,,Steel,None or Unspecified,"10' 6""",Hydraulic,None or Unspecified,Double,,,,,
22960,2371996,64000,1229630,136,1.0,1998,0.0,,6/12/2007 0:00,EX300-5,EX300,,-5,,Large / Medium,"Hydraulic Excavator, Track - 28.0 to 33.0 Metric Tons",Washington,TEX,Track Excavators,,EROPS,,,,,,,,,,,Auxiliary,,,,,,Hydraulic,,,,Steel,None or Unspecified,"10' 6""",Hydraulic,None or Unspecified,Double,,,,,
22960,2372000,8000,1407046,136,1.0,1998,14097.0,High,9/10/2010 0:00,EX300-5,EX300,,-5,,Large / Medium,"Hydraulic Excavator, Track - 28.0 to 33.0 Metric Tons",Indiana,TEX,Track Excavators,,EROPS,,,,,,,,,,,Standard,,,,,,Manual,,,,Steel,None or Unspecified,"10' 6""",None or Unspecified,None or Unspecified,Double,,,,,
22960,2372001,44000,1466876,136,1.0,1999,0.0,,3/13/2008 0:00,EX300-5,EX300,,-5,,Large / Medium,"Hydraulic Excavator, Track - 28.0 to 33.0 Metric Tons",Nevada,TEX,Track Excavators,,EROPS,,,,,,,,,,,Standard,,,,,,Hydraulic,,,,Steel,32 inch,"10' 6""",None or Unspecified,None or Unspecified,Double,,,,,
22960,2372018,32500,1785080,136,,1999,0.0,,6/23/2008 0:00,EX300-5,EX300,,-5,,Large / Medium,"Hydraulic Excavator, Track - 28.0 to 33.0 Metric Tons",California,TEX,Track Excavators,,EROPS,,,,,,,,,,,Standard,,,,,,Manual,,,,Steel,None or Unspecified,None or Unspecified,None or Unspecified,None or Unspecified,Double,,,,,
22960,2372022,32000,1126278,136,1.0,2000,0.0,,10/7/2009 0:00,EX300-5,EX300,,-5,,Large / Medium,"Hydraulic Excavator, Track - 28.0 to 33.0 Metric Tons",Idaho,TEX,Track Excavators,,EROPS,,,,,,,,,,,Standard,,,,,,Manual,,,,Steel,None or Unspecified,"10' 6""",None or Unspecified,None or Unspecified,Double,,,,,
22960,2372069,44000,1077578,136,1.0,2000,0.0,,6/17/2009 0:00,EX300-5,EX300,,-5,,Large / Medium,"Hydraulic Excavator, Track - 28.0 to 33.0 Metric Tons",Washington,TEX,Track Excavators,,EROPS,,,,,,,,,,,Auxiliary,,,,,,None or Unspecified,,,,Steel,None or Unspecified,"10' 6""",Hydraulic,None or Unspecified,Double,,,,,
22960,4334841,30000,1149864,172,1.0,1999,5960.0,Medium,2/15/2011 0:00,EX300-5,EX300,,-5,,Large / Medium,"Hydraulic Excavator, Track - 28.0 to 33.0 Metric Tons",Florida,TEX,Track Excavators,,EROPS w AC,,,,,,,,,,,Auxiliary,,,,,,None or Unspecified,,,,Steel,None or Unspecified,"10' 6""",None or Unspecified,None or Unspecified,Double,,,,,
22960,4334880,55000,1812232,172,1.0,2000,10546.0,Medium,6/28/2011 0:00,EX300-5,EX300,,-5,,Large / Medium,"Hydraulic Excavator, Track - 28.0 to 33.0 Metric Tons",Michigan,TEX,Track Excavators,,EROPS w AC,,,,,,,,,,,Auxiliary,,,,,,None or Unspecified,,,,Steel,None or Unspecified,None or Unspecified,Hydraulic,None or Unspecified,Triple,,,,,
22960,4334891,55000,1812232,172,1.0,2000,10546.0,Medium,6/27/2011 0:00,EX300-5,EX300,,-5,,Large / Medium,"Hydraulic Excavator, Track - 28.0 to 33.0 Metric Tons",Michigan,TEX,Track Excavators,,EROPS w AC,,,,,,,,,,,Auxiliary,,,,,,None or Unspecified,,,,Steel,None or Unspecified,None or Unspecified,Hydraulic,None or Unspecified,Triple,,,,,
22960,6292291,55000,1908328,149,1.0,2000,,,6/28/2011 0:00,EX300-5,EX300,,-5,,Large / Medium,"Hydraulic Excavator, Track - 28.0 to 33.0 Metric Tons",Michigan,TEX,Track Excavators,,EROPS,,,,,,,,,,,Auxiliary,,,,,,None or Unspecified,,,,Steel,None or Unspecified,None or Unspecified,None or Unspecified,None or Unspecified,Double,,,,,
