ModelID,SalesID,SalePrice,MachineID,datasource,auctioneerID,YearMade,MachineHoursCurrentMeter,UsageBand,saledate,fiModelDesc,fiBaseModel,fiSecondaryDesc,fiModelSeries,fiModelDescriptor,ProductSize,fiProductClassDesc,state,ProductGroup,ProductGroupDesc,Drive_System,Enclosure,Forks,Pad_Type,Ride_Control,Stick,Transmission,Turbocharged,Blade_Extension,Blade_Width,Enclosure_Type,Engine_Horsepower,Hydraulics,Pushblock,Ripper,Scarifier,Tip_Control,Tire_Size,Coupler,Coupler_System,Grouser_Tracks,Hydraulics_Flow,Track_Type,Undercarriage_Pad_Width,Stick_Length,Thumb,Pattern_Changer,Grouser_Type,Backhoe_Mounting,Blade_Type,Travel_Controls,Differential_Type,Steering_Controls
22964,1687403,11250,1550155,132,4.0,1997,,,2/12/2004 0:00,EX30UR-2,EX30,UR,-2,,Mini,"Hydraulic Excavator, Track - 3.0 to 4.0 Metric Tons",Florida,TEX,Track Excavators,,EROPS,,,,,,,,,,,Standard,,,,,,None or Unspecified,,,,Steel,None or Unspecified,None or Unspecified,None or Unspecified,None or Unspecified,Double,,,,,
22964,1688215,8500,1086861,132,1.0,1994,,,3/19/2003 0:00,EX30UR-2,EX30,UR,-2,,Mini,"Hydraulic Excavator, Track - 3.0 to 4.0 Metric Tons",Texas,TEX,Track Excavators,,EROPS,,,,,,,,,,,Standard,,,,,,None or Unspecified,,,,Rubber,None or Unspecified,None or Unspecified,None or Unspecified,None or Unspecified,Double,,,,,
22964,1688220,8500,1498043,132,1.0,1000,,,9/25/2001 0:00,EX30UR-2,EX30,UR,-2,,Mini,"Hydraulic Excavator, Track - 3.0 to 4.0 Metric Tons",Washington,TEX,Track Excavators,,EROPS,,,,,,,,,,,Standard,,,,,,None or Unspecified,,,,Rubber,None or Unspecified,None or Unspecified,None or Unspecified,None or Unspecified,Double,,,,,
22964,1688225,8500,1409076,132,4.0,1995,,,2/10/2005 0:00,EX30UR-2,EX30,UR,-2,,Mini,"Hydraulic Excavator, Track - 3.0 to 4.0 Metric Tons",Florida,TEX,Track Excavators,,EROPS,,,,,,,,,,,Standard,,,,,,None or Unspecified,,,,Steel,None or Unspecified,None or Unspecified,None or Unspecified,None or Unspecified,Double,,,,,
22964,1688226,8500,1409076,132,4.0,1995,,,2/7/2005 0:00,EX30UR-2,EX30,UR,-2,,Mini,"Hydraulic Excavator, Track - 3.0 to 4.0 Metric Tons",Florida,TEX,Track Excavators,,EROPS,,,,,,,,,,,Standard,,,,,,None or Unspecified,,,,Steel,None or Unspecified,None or Unspecified,None or Unspecified,None or Unspecified,Double,,,,,
22964,1688234,9500,1404929,132,1.0,1995,,,9/24/2002 0:00,EX30UR-2,EX30,UR,-2,,Mini,"Hydraulic Excavator, Track - 3.0 to 4.0 Metric Tons",Washington,TEX,Track Excavators,,EROPS,,,,,,,,,,,Standard,,,,,,None or Unspecified,,,,Rubber,None or Unspecified,None or Unspecified,None or Unspecified,None or Unspecified,Double,,,,,
22964,1688235,9500,1094700,132,1.0,1000,,,3/6/2006 0:00,EX30UR-2,EX30,UR,-2,,Mini,"Hydraulic Excavator, Track - 3.0 to 4.0 Metric Tons",Kansas,TEX,Track Excavators,,EROPS,,,,,,,,,,,Standard,,,,,,None or Unspecified,,,,Steel,None or Unspecified,None or Unspecified,None or Unspecified,None or Unspecified,Double,,,,,
22964,1688236,8500,1094700,132,1.0,1000,,,3/11/2005 0:00,EX30UR-2,EX30,UR,-2,,Mini,"Hydraulic Excavator, Track - 3.0 to 4.0 Metric Tons",Missouri,TEX,Track Excavators,,EROPS,,,,,,,,,,,Standard,,,,,,None or Unspecified,,,,Steel,None or Unspecified,None or Unspecified,None or Unspecified,None or Unspecified,Double,,,,,
22964,1688244,9000,1097378,132,1.0,1000,,,12/4/2002 0:00,EX30UR-2,EX30,UR,-2,,Mini,"Hydraulic Excavator, Track - 3.0 to 4.0 Metric Tons",Washington,TEX,Track Excavators,,EROPS,,,,,,,,,,,Standard,,,,,,None or Unspecified,,,,Rubber,None or Unspecified,None or Unspecified,None or Unspecified,None or Unspecified,Double,,,,,
22964,1688246,8500,1513331,132,4.0,1000,,,2/7/2005 0:00,EX30UR-2,EX30,UR,-2,,Mini,"Hydraulic Excavator, Track - 3.0 to 4.0 Metric Tons",Florida,TEX,Track Excavators,,EROPS,,,,,,,,,,,Standard,,,,,,None or Unspecified,,,,Rubber,None or Unspecified,None or Unspecified,None or Unspecified,None or Unspecified,Double,,,,,
22964,1688250,13500,1250245,132,1.0,1997,,,9/28/2004 0:00,EX30UR-2,EX30,UR,-2,,Mini,"Hydraulic Excavator, Track - 3.0 to 4.0 Metric Tons",Illinois,TEX,Track Excavators,,EROPS,,,,,,,,,,,Standard,,,,,,None or Unspecified,,,,Rubber,None or Unspecified,None or Unspecified,None or Unspecified,None or Unspecified,Double,,,,,
22964,1688252,11250,1400221,132,4.0,1997,,,2/9/2004 0:00,EX30UR-2,EX30,UR,-2,,Mini,"Hydraulic Excavator, Track - 3.0 to 4.0 Metric Tons",Florida,TEX,Track Excavators,,EROPS,,,,,,,,,,,Standard,,,,,,None or Unspecified,,,,Steel,None or Unspecified,None or Unspecified,None or Unspecified,None or Unspecified,Double,,,,,
22964,1688254,11250,1086837,132,4.0,1000,,,2/9/2004 0:00,EX30UR-2,EX30,UR,-2,,Mini,"Hydraulic Excavator, Track - 3.0 to 4.0 Metric Tons",Florida,TEX,Track Excavators,,EROPS,,,,,,,,,,,Standard,,,,,,None or Unspecified,,,,Rubber,None or Unspecified,None or Unspecified,None or Unspecified,None or Unspecified,Double,,,,,
22964,1689595,8900,1196038,132,9.0,1000,,,5/19/2005 0:00,EX30UR-2,EX30,UR,-2,,Mini,"Hydraulic Excavator, Track - 3.0 to 4.0 Metric Tons",South Carolina,TEX,Track Excavators,,EROPS,,,,,,,,,,,Standard,,,,,,None or Unspecified,,,,Steel,None or Unspecified,None or Unspecified,None or Unspecified,None or Unspecified,Double,,,,,
22964,1689676,9500,1527311,132,2.0,1994,,,8/12/2001 0:00,EX30UR-2,EX30,UR,-2,,Mini,"Hydraulic Excavator, Track - 3.0 to 4.0 Metric Tons",New York,TEX,Track Excavators,,EROPS,,,,,,,,,,,Standard,,,,,,None or Unspecified,,,,Rubber,None or Unspecified,None or Unspecified,None or Unspecified,None or Unspecified,Double,,,,,
22964,1689730,9000,1473803,132,2.0,1995,,,4/30/2004 0:00,EX30UR-2,EX30,UR,-2,,Mini,"Hydraulic Excavator, Track - 3.0 to 4.0 Metric Tons",Pennsylvania,TEX,Track Excavators,,EROPS,,,,,,,,,,,Standard,,,,,,None or Unspecified,,,,Rubber,None or Unspecified,None or Unspecified,None or Unspecified,None or Unspecified,Double,,,,,
22964,1689769,11250,1124028,132,4.0,1000,,,2/12/2004 0:00,EX30UR-2,EX30,UR,-2,,Mini,"Hydraulic Excavator, Track - 3.0 to 4.0 Metric Tons",Florida,TEX,Track Excavators,,EROPS,,,,,,,,,,,Standard,,,,,,None or Unspecified,,,,Rubber,None or Unspecified,None or Unspecified,None or Unspecified,None or Unspecified,Double,,,,,
22964,1689779,8600,1146229,132,2.0,1995,,,3/19/2004 0:00,EX30UR-2,EX30,UR,-2,,Mini,"Hydraulic Excavator, Track - 3.0 to 4.0 Metric Tons",Alabama,TEX,Track Excavators,,EROPS,,,,,,,,,,,Standard,,,,,,None or Unspecified,,,,Rubber,None or Unspecified,None or Unspecified,None or Unspecified,None or Unspecified,Double,,,,,
22964,1689853,8000,1406104,132,2.0,1000,,,7/11/2003 0:00,EX30UR-2,EX30,UR,-2,,Mini,"Hydraulic Excavator, Track - 3.0 to 4.0 Metric Tons",New York,TEX,Track Excavators,,EROPS w AC,,,,,,,,,,,Standard,,,,,,None or Unspecified,,,,Rubber,None or Unspecified,None or Unspecified,None or Unspecified,None or Unspecified,Double,,,,,
22964,1690166,8500,1117776,132,4.0,1000,,,2/10/2005 0:00,EX30UR-2,EX30,UR,-2,,Mini,"Hydraulic Excavator, Track - 3.0 to 4.0 Metric Tons",Florida,TEX,Track Excavators,,EROPS,,,,,,,,,,,Standard,,,,,,None or Unspecified,,,,Steel,None or Unspecified,None or Unspecified,None or Unspecified,None or Unspecified,Double,,,,,
22964,1690176,10000,1370143,132,2.0,1997,,,8/7/2004 0:00,EX30UR-2,EX30,UR,-2,,Mini,"Hydraulic Excavator, Track - 3.0 to 4.0 Metric Tons",Wisconsin,TEX,Track Excavators,,EROPS,,,,,,,,,,,Standard,,,,,,None or Unspecified,,,,Steel,None or Unspecified,None or Unspecified,None or Unspecified,None or Unspecified,Double,,,,,
22964,1691860,9750,93271,132,2.0,1997,,,9/18/2004 0:00,EX30UR-2,EX30,UR,-2,,Mini,"Hydraulic Excavator, Track - 3.0 to 4.0 Metric Tons",New Jersey,TEX,Track Excavators,,EROPS,,,,,,,,,,,Auxiliary,,,,,,None or Unspecified,,,,Rubber,None or Unspecified,None or Unspecified,None or Unspecified,None or Unspecified,Double,,,,,
22964,2367516,11000,1673103,136,,1995,0.0,,2/3/2008 0:00,EX30UR-2,EX30,UR,-2,,Mini,"Hydraulic Excavator, Track - 3.0 to 4.0 Metric Tons",Florida,TEX,Track Excavators,,EROPS,,,,,,,,,,,Standard,,,,,,None or Unspecified,,,,Rubber,None or Unspecified,None or Unspecified,None or Unspecified,None or Unspecified,Double,,,,,
22964,2371096,9500,1213724,136,1.0,1000,0.0,,9/11/2007 0:00,EX30UR-2,EX30,UR,-2,,Mini,"Hydraulic Excavator, Track - 3.0 to 4.0 Metric Tons",Washington,TEX,Track Excavators,,EROPS,,,,,,,,,,,Standard,,,,,,None or Unspecified,,,,Rubber,None or Unspecified,None or Unspecified,None or Unspecified,None or Unspecified,Double,,,,,
22964,2371101,11000,1649813,136,,1000,0.0,,12/5/2007 0:00,EX30UR-2,EX30,UR,-2,,Mini,"Hydraulic Excavator, Track - 3.0 to 4.0 Metric Tons",Illinois,TEX,Track Excavators,,EROPS,,,,,,,,,,,Standard,,,,,,None or Unspecified,,,,Rubber,None or Unspecified,None or Unspecified,None or Unspecified,None or Unspecified,Double,,,,,
22964,2371113,9000,1741858,136,,1996,0.0,,7/26/2008 0:00,EX30UR-2,EX30,UR,-2,,Mini,"Hydraulic Excavator, Track - 3.0 to 4.0 Metric Tons",Washington,TEX,Track Excavators,,EROPS,,,,,,,,,,,Standard,,,,,,None or Unspecified,,,,Steel,None or Unspecified,None or Unspecified,None or Unspecified,None or Unspecified,Double,,,,,
