ModelID,SalesID,SalePrice,MachineID,datasource,auctioneerID,YearMade,MachineHoursCurrentMeter,UsageBand,saledate,fiModelDesc,fiBaseModel,fiSecondaryDesc,fiModelSeries,fiModelDescriptor,ProductSize,fiProductClassDesc,state,ProductGroup,ProductGroupDesc,Drive_System,Enclosure,Forks,Pad_Type,Ride_Control,Stick,Transmission,Turbocharged,Blade_Extension,Blade_Width,Enclosure_Type,Engine_Horsepower,Hydraulics,Pushblock,Ripper,Scarifier,Tip_Control,Tire_Size,Coupler,Coupler_System,Grouser_Tracks,Hydraulics_Flow,Track_Type,Undercarriage_Pad_Width,Stick_Length,Thumb,Pattern_Changer,Grouser_Type,Backhoe_Mounting,Blade_Type,Travel_Controls,Differential_Type,Steering_Controls
22996,1678578,23500,1203351,132,5.0,1997,,,3/29/2005 0:00,EX75,EX75,,,,Mini,"Hydraulic Excavator, Track - 6.0 to 8.0 Metric Tons",Connecticut,TEX,Track Excavators,,EROPS,,,,,,,,,,,Standard,,,,,,None or Unspecified,,,,Steel,None or Unspecified,None or Unspecified,None or Unspecified,None or Unspecified,Double,,,,,
22996,1679801,13500,1130758,132,4.0,1997,,,12/2/2004 0:00,EX75,EX75,,,,Mini,"Hydraulic Excavator, Track - 6.0 to 8.0 Metric Tons",New Hampshire,TEX,Track Excavators,,EROPS,,,,,,,,,,,Standard,,,,,,None or Unspecified,,,,Steel,None or Unspecified,None or Unspecified,None or Unspecified,None or Unspecified,Double,,,,,
22996,1679807,15500,1280801,132,9.0,1000,,,5/19/2005 0:00,EX75,EX75,,,,Mini,"Hydraulic Excavator, Track - 6.0 to 8.0 Metric Tons",South Carolina,TEX,Track Excavators,,EROPS,,,,,,,,,,,Standard,,,,,,None or Unspecified,,,,Steel,None or Unspecified,None or Unspecified,None or Unspecified,None or Unspecified,Double,,,,,
22996,1679808,15000,1280801,132,9.0,1000,,,2/16/2005 0:00,EX75,EX75,,,,Mini,"Hydraulic Excavator, Track - 6.0 to 8.0 Metric Tons",Florida,TEX,Track Excavators,,EROPS,,,,,,,,,,,Standard,,,,,,None or Unspecified,,,,Steel,None or Unspecified,None or Unspecified,None or Unspecified,None or Unspecified,Double,,,,,
22996,1679827,16000,1192878,132,4.0,1000,,,2/7/2005 0:00,EX75,EX75,,,,Mini,"Hydraulic Excavator, Track - 6.0 to 8.0 Metric Tons",Florida,TEX,Track Excavators,,EROPS,,,,,,,,,,,Standard,,,,,,None or Unspecified,,,,Steel,None or Unspecified,None or Unspecified,None or Unspecified,None or Unspecified,Double,,,,,
22996,1679839,17500,1502506,132,5.0,1996,,,6/15/2005 0:00,EX75,EX75,,,,Mini,"Hydraulic Excavator, Track - 6.0 to 8.0 Metric Tons",Connecticut,TEX,Track Excavators,,EROPS w AC,,,,,,,,,,,Standard,,,,,,None or Unspecified,,,,Rubber,None or Unspecified,None or Unspecified,None or Unspecified,None or Unspecified,Double,,,,,
22996,1679840,21500,1502506,132,5.0,1996,,,1/21/2005 0:00,EX75,EX75,,,,Mini,"Hydraulic Excavator, Track - 6.0 to 8.0 Metric Tons",Connecticut,TEX,Track Excavators,,EROPS w AC,,,,,,,,,,,Standard,,,,,,None or Unspecified,,,,Rubber,None or Unspecified,None or Unspecified,None or Unspecified,None or Unspecified,Double,,,,,
22996,1679893,26000,1099139,132,5.0,1998,,,6/15/2005 0:00,EX75,EX75,,,,Mini,"Hydraulic Excavator, Track - 6.0 to 8.0 Metric Tons",Connecticut,TEX,Track Excavators,,EROPS,,,,,,,,,,,Standard,,,,,,None or Unspecified,,,,Rubber,None or Unspecified,None or Unspecified,None or Unspecified,None or Unspecified,Double,,,,,
22996,1692136,15250,1172022,132,9.0,1000,,,2/16/2005 0:00,EX75,EX75,,,,Mini,"Hydraulic Excavator, Track - 6.0 to 8.0 Metric Tons",Florida,TEX,Track Excavators,,EROPS w AC,,,,,,,,,,,Standard,,,,,,None or Unspecified,,,,Rubber,None or Unspecified,None or Unspecified,None or Unspecified,None or Unspecified,Double,,,,,
22996,2368271,18500,1689858,136,,1997,0.0,,8/15/2008 0:00,EX75,EX75,,,,Mini,"Hydraulic Excavator, Track - 6.0 to 8.0 Metric Tons",Connecticut,TEX,Track Excavators,,EROPS,,,,,,,,,,,Standard,,,,,,None or Unspecified,,,,Rubber,None or Unspecified,None or Unspecified,None or Unspecified,None or Unspecified,Double,,,,,
22996,2368302,15500,1460381,136,5.0,1996,0.0,,1/23/2009 0:00,EX75,EX75,,,,Mini,"Hydraulic Excavator, Track - 6.0 to 8.0 Metric Tons",Connecticut,TEX,Track Excavators,,EROPS w AC,,,,,,,,,,,Standard,,,,,,None or Unspecified,,,,Steel,None or Unspecified,None or Unspecified,None or Unspecified,None or Unspecified,Double,,,,,
22996,2368327,17500,1302321,136,5.0,1998,0.0,,11/14/2008 0:00,EX75,EX75,,,,Mini,"Hydraulic Excavator, Track - 6.0 to 8.0 Metric Tons",Connecticut,TEX,Track Excavators,,EROPS w AC,,,,,,,,,,,Standard,,,,,,None or Unspecified,,,,Steel,None or Unspecified,None or Unspecified,None or Unspecified,None or Unspecified,Double,,,,,
