SalesID,1691831
SalePrice,19500
MachineID,1115241
datasource,132
auctioneerID,2.0
YearMade,1999
MachineHoursCurrentMeter,
UsageBand,
saledate,2/2/2003 0:00
fiModelDesc,LX40-3
fiBaseModel,LX40
fiSecondaryDesc,
fiModelSeries,-3
fiModelDescriptor,
ProductSize,Compact
fiProductClassDesc,Wheel Loader - 0.0 to 40.0 Horsepower
state,Florida
ProductGroup,WL
ProductGroupDesc,Wheel Loader
Drive_System,
Enclosure,OROPS
Forks,None or Unspecified
Pad_Type,
Ride_Control,None or Unspecified
Stick,
Transmission,
Turbocharged,
Blade_Extension,
Blade_Width,
Enclosure_Type,
Engine_Horsepower,
Hydraulics,2 Valve
Pushblock,
Ripper,
Scarifier,
Tip_Control,
Tire_Size,None or Unspecified
Coupler,None or Unspecified
Coupler_System,
Grouser_Tracks,
Hydraulics_Flow,
Track_Type,
Undercarriage_Pad_Width,
Stick_Length,
Thumb,
Pattern_Changer,
Grouser_Type,
Backhoe_Mounting,
Blade_Type,
Travel_Controls,
Differential_Type,Standard
Steering_Controls,Conventional
