SalesID,2394033
SalePrice,27500
MachineID,1687394
datasource,136
auctioneerID,
YearMade,1998
MachineHoursCurrentMeter,0.0
UsageBand,
saledate,11/3/2007 0:00
fiModelDesc,KZ65ZIV
fiBaseModel,KZ65
fiSecondaryDesc,Z
fiModelSeries,IV
fiModelDescriptor,
ProductSize,
fiProductClassDesc,Wheel Loader - 120.0 to 135.0 Horsepower
state,New York
ProductGroup,WL
ProductGroupDesc,Wheel Loader
Drive_System,
Enclosure,EROPS
Forks,None or Unspecified
Pad_Type,
Ride_Control,None or Unspecified
Stick,
Transmission,
Turbocharged,
Blade_Extension,
Blade_Width,
Enclosure_Type,
Engine_Horsepower,
Hydraulics,2 Valve
Pushblock,
Ripper,
Scarifier,
Tip_Control,
Tire_Size,None or Unspecified
Coupler,None or Unspecified
Coupler_System,
Grouser_Tracks,
Hydraulics_Flow,
Track_Type,
Undercarriage_Pad_Width,
Stick_Length,
Thumb,
Pattern_Changer,
Grouser_Type,
Backhoe_Mounting,
Blade_Type,
Travel_Controls,
Differential_Type,Standard
Steering_Controls,Conventional
