ModelID,SalesID,SalePrice,MachineID,datasource,auctioneerID,YearMade,MachineHoursCurrentMeter,UsageBand,saledate,fiModelDesc,fiBaseModel,fiSecondaryDesc,fiModelSeries,fiModelDescriptor,ProductSize,fiProductClassDesc,state,ProductGroup,ProductGroupDesc,Drive_System,Enclosure,Forks,Pad_Type,Ride_Control,Stick,Transmission,Turbocharged,Blade_Extension,Blade_Width,Enclosure_Type,Engine_Horsepower,Hydraulics,Pushblock,Ripper,Scarifier,Tip_Control,Tire_Size,Coupler,Coupler_System,Grouser_Tracks,Hydraulics_Flow,Track_Type,Undercarriage_Pad_Width,Stick_Length,Thumb,Pattern_Changer,Grouser_Type,Backhoe_Mounting,Blade_Type,Travel_Controls,Differential_Type,Steering_Controls
2323,1144586,47000,785042,121,3.0,2001,6159.0,Medium,5/3/2007 0:00,WA250-3MC,WA250,,-3MC,,,Wheel Loader - 120.0 to 135.0 Horsepower,West Virginia,WL,Wheel Loader,,EROPS w AC,Yes,,None or Unspecified,,,,,,,,2 Valve,,,,,20.5,Hydraulic,,,,,,,,,,,,,Standard,Conventional
2323,1145408,58000,1045182,121,3.0,2002,6393.0,High,4/20/2006 0:00,WA250-3MC,WA250,,-3MC,,,Wheel Loader - 120.0 to 135.0 Horsepower,Colorado,WL,Wheel Loader,,EROPS w AC,None or Unspecified,,None or Unspecified,,,,,,,,2 Valve,,,,,20.5,Hydraulic,,,,,,,,,,,,,Standard,Conventional
2323,1147463,23500,1055366,121,3.0,2001,0.0,,10/21/2010 0:00,WA250-3MC,WA250,,-3MC,,,Wheel Loader - 120.0 to 135.0 Horsepower,Florida,WL,Wheel Loader,,OROPS,Yes,,None or Unspecified,,,,,,,,3 Valve,,,,,20.5,Hydraulic,,,,,,,,,,,,,Standard,Conventional
2323,1150025,55000,1009456,121,3.0,2002,6031.0,High,12/14/2006 0:00,WA250-3MC,WA250,,-3MC,,,Wheel Loader - 120.0 to 135.0 Horsepower,Texas,WL,Wheel Loader,,EROPS w AC,None or Unspecified,,None or Unspecified,,,,,,,,2 Valve,,,,,20.5,None or Unspecified,,,,,,,,,,,,,Standard,Conventional
2323,1162903,55000,1002372,121,3.0,2002,4863.0,High,9/2/2004 0:00,WA250-3MC,WA250,,-3MC,,,Wheel Loader - 120.0 to 135.0 Horsepower,Florida,WL,Wheel Loader,,OROPS,None or Unspecified,,None or Unspecified,,,,,,,,2 Valve,,,,,None or Unspecified,None or Unspecified,,,,,,,,,,,,,Standard,Conventional
2323,1174967,65000,785042,121,3.0,2001,4391.0,Medium,2/24/2005 0:00,WA250-3MC,WA250,,-3MC,,,Wheel Loader - 120.0 to 135.0 Horsepower,Florida,WL,Wheel Loader,,EROPS w AC,Yes,,None or Unspecified,,,,,,,,2 Valve,,,,,20.5,Hydraulic,,,,,,,,,,,,,Standard,Conventional
2323,1181006,41000,1001988,121,3.0,2002,8021.0,Medium,7/24/2008 0:00,WA250-3MC,WA250,,-3MC,,,Wheel Loader - 120.0 to 135.0 Horsepower,Florida,WL,Wheel Loader,,OROPS,None or Unspecified,,None or Unspecified,,,,,,,,2 Valve,,,,,20.5,Manual,,,,,,,,,,,,,Standard,Conventional
2323,1186731,30000,1054570,121,3.0,2001,10913.0,Medium,1/29/2009 0:00,WA250-3MC,WA250,,-3MC,,,Wheel Loader - 120.0 to 135.0 Horsepower,Colorado,WL,Wheel Loader,,EROPS w AC,Yes,,None or Unspecified,,,,,,,,2 Valve,,,,,20.5,Hydraulic,,,,,,,,,,,,,Standard,Conventional
2323,1186732,30000,1042518,121,3.0,2001,11647.0,Medium,1/29/2009 0:00,WA250-3MC,WA250,,-3MC,,,Wheel Loader - 120.0 to 135.0 Horsepower,Colorado,WL,Wheel Loader,,EROPS w AC,Yes,,None or Unspecified,,,,,,,,2 Valve,,,,,20.5,Hydraulic,,,,,,,,,,,,,Standard,Conventional
2323,1190053,22000,1038090,121,3.0,2001,8168.0,Medium,6/11/2009 0:00,WA250-3MC,WA250,,-3MC,,,Wheel Loader - 120.0 to 135.0 Horsepower,Florida,WL,Wheel Loader,,OROPS,Yes,,None or Unspecified,,,,,,,,2 Valve,,,,,20.5,Manual,,,,,,,,,,,,,Standard,Conventional
2323,1194515,43000,1063702,121,3.0,2003,4862.0,High,11/5/2009 0:00,WA250-3MC,WA250,,-3MC,,,Wheel Loader - 120.0 to 135.0 Horsepower,South Carolina,WL,Wheel Loader,,EROPS w AC,,,,,,,,,,,Auxiliary,,,,,,Hydraulic,,,,,,,,,,,,,,
2323,1196093,23000,560817,121,3.0,2000,6962.0,Medium,12/3/2009 0:00,WA250-3MC,WA250,,-3MC,,,Wheel Loader - 120.0 to 135.0 Horsepower,Florida,WL,Wheel Loader,,EROPS,None or Unspecified,,None or Unspecified,,,,,,,,2 Valve,,,,,20.5,Hydraulic,,,,,,,,,,,,,Standard,Conventional
2323,1196955,25500,1015436,121,3.0,2002,6813.0,Medium,12/10/2009 0:00,WA250-3MC,WA250,,-3MC,,,Wheel Loader - 120.0 to 135.0 Horsepower,Florida,WL,Wheel Loader,,OROPS,Yes,,None or Unspecified,,,,,,,,2 Valve,,,,,20.5,Hydraulic,,,,,,,,,,,,,Standard,Conventional
2323,1206867,36000,1044824,121,3.0,2003,9811.0,Medium,9/23/2010 0:00,WA250-3MC,WA250,,-3MC,,,Wheel Loader - 120.0 to 135.0 Horsepower,Texas,WL,Wheel Loader,,EROPS w AC,Yes,,None or Unspecified,,,,,,,,2 Valve,,,,,20.5,Hydraulic,,,,,,,,,,,,,Standard,Conventional
2323,1211804,27500,1017648,121,3.0,2001,8111.0,Medium,2/24/2011 0:00,WA250-3MC,WA250,,-3MC,,,Wheel Loader - 120.0 to 135.0 Horsepower,Florida,WL,Wheel Loader,,OROPS,None or Unspecified,,None or Unspecified,,,,,,,,3 Valve,,,,,None or Unspecified,Hydraulic,,,,,,,,,,,,,Standard,Conventional
2323,1215257,47000,1065246,121,3.0,2002,4504.0,Low,7/14/2011 0:00,WA250-3MC,WA250,,-3MC,,,Wheel Loader - 120.0 to 135.0 Horsepower,Virginia,WL,Wheel Loader,,EROPS w AC,None or Unspecified,,None or Unspecified,,,,,,,,2 Valve,,,,,20.5,None or Unspecified,,,,,,,,,,,,,Standard,Conventional
2323,1216176,25500,380825,121,3.0,2000,6740.0,Medium,7/28/2011 0:00,WA250-3MC,WA250,,-3MC,,,Wheel Loader - 120.0 to 135.0 Horsepower,Texas,WL,Wheel Loader,,EROPS w AC,None or Unspecified,,None or Unspecified,,,,,,,,2 Valve,,,,,20.5,Hydraulic,,,,,,,,,,,,,Standard,Conventional
2323,1766888,44000,550772,132,1.0,2000,,,10/10/2006 0:00,WA250-3MC,WA250,,-3MC,,,Wheel Loader - 120.0 to 135.0 Horsepower,Florida,WL,Wheel Loader,,EROPS w AC,None or Unspecified,,None or Unspecified,,,,,,,,2 Valve,,,,,20.5,None or Unspecified,,,,,,,,,,,,,Standard,Conventional
2323,1767019,52000,1341792,132,1.0,2001,,,3/31/2006 0:00,WA250-3MC,WA250,,-3MC,,,Wheel Loader - 120.0 to 135.0 Horsepower,Nevada,WL,Wheel Loader,,EROPS w AC,None or Unspecified,,None or Unspecified,,,,,,,,2 Valve,,,,,20.5,None or Unspecified,,,,,,,,,,,,,Standard,Conventional
2323,1767078,44000,1335913,132,1.0,2001,,,2/21/2007 0:00,WA250-3MC,WA250,,-3MC,,,Wheel Loader - 120.0 to 135.0 Horsepower,Florida,WL,Wheel Loader,,EROPS w AC,None or Unspecified,,None or Unspecified,,,,,,,,2 Valve,,,,,20.5,Manual,,,,,,,,,,,,,Standard,Conventional
2323,1767095,50000,1473902,132,1.0,2001,,,2/21/2007 0:00,WA250-3MC,WA250,,-3MC,,,Wheel Loader - 120.0 to 135.0 Horsepower,Florida,WL,Wheel Loader,,EROPS w AC,None or Unspecified,,None or Unspecified,,,,,,,,2 Valve,,,,,20.5,Manual,,,,,,,,,,,,,Standard,Conventional
2323,1767113,22500,1389710,132,14.0,2001,,,6/18/2010 0:00,WA250-3MC,WA250,,-3MC,,,Wheel Loader - 120.0 to 135.0 Horsepower,Indiana,WL,Wheel Loader,,EROPS,None or Unspecified,,None or Unspecified,,,,,,,,2 Valve,,,,,20.5,None or Unspecified,,,,,,,,,,,,,Standard,Conventional
2323,1767129,33000,1474617,132,99.0,2001,,,12/5/2007 0:00,WA250-3MC,WA250,,-3MC,,,Wheel Loader - 120.0 to 135.0 Horsepower,Florida,WL,Wheel Loader,,OROPS,None or Unspecified,,None or Unspecified,,,,,,,,2 Valve,,,,,None or Unspecified,None or Unspecified,,,,,,,,,,,,,Standard,Conventional
2323,1767131,31000,1501108,132,99.0,2001,5861.0,Medium,12/5/2007 0:00,WA250-3MC,WA250,,-3MC,,,Wheel Loader - 120.0 to 135.0 Horsepower,Florida,WL,Wheel Loader,,OROPS,None or Unspecified,,None or Unspecified,,,,,,,,2 Valve,,,,,None or Unspecified,None or Unspecified,,,,,,,,,,,,,Standard,Conventional
2323,1767142,27000,1351448,132,1.0,1998,10469.0,Medium,5/18/2011 0:00,WA250-3MC,WA250,,-3MC,,,Wheel Loader - 120.0 to 135.0 Horsepower,Florida,WL,Wheel Loader,,OROPS,Yes,,None or Unspecified,,,,,,,,2 Valve,,,,,20.5,Manual,,,,,,,,,,,,,Standard,Conventional
2323,1767171,50000,1119798,132,1.0,2001,,,7/12/2006 0:00,WA250-3MC,WA250,,-3MC,,,Wheel Loader - 120.0 to 135.0 Horsepower,Texas,WL,Wheel Loader,,EROPS w AC,None or Unspecified,,None or Unspecified,,,,,,,,2 Valve,,,,,20.5,None or Unspecified,,,,,,,,,,,,,Standard,Conventional
2323,1767188,72500,1462497,132,1.0,2001,,,2/15/2007 0:00,WA250-3MC,WA250,,-3MC,,,Wheel Loader - 120.0 to 135.0 Horsepower,Arizona,WL,Wheel Loader,,EROPS w AC,,,,,,,,,,,Standard,,,,,,None or Unspecified,,,,,,,,,,,,,,
2323,1767200,38250,1401873,132,2.0,2001,,,10/11/2006 0:00,WA250-3MC,WA250,,-3MC,,,Wheel Loader - 120.0 to 135.0 Horsepower,Florida,WL,Wheel Loader,,OROPS,None or Unspecified,,None or Unspecified,,,,,,,,2 Valve,,,,,None or Unspecified,None or Unspecified,,,,,,,,,,,,,Standard,Conventional
2323,1767212,47000,1268686,132,1.0,2001,,,2/21/2007 0:00,WA250-3MC,WA250,,-3MC,,,Wheel Loader - 120.0 to 135.0 Horsepower,Florida,WL,Wheel Loader,,OROPS,Yes,,None or Unspecified,,,,,,,,2 Valve,,,,,20.5,Manual,,,,,,,,,,,,,Standard,Conventional
2323,1767217,36000,1226304,132,1.0,2001,,,2/21/2007 0:00,WA250-3MC,WA250,,-3MC,,,Wheel Loader - 120.0 to 135.0 Horsepower,Florida,WL,Wheel Loader,,OROPS,None or Unspecified,,None or Unspecified,,,,,,,,2 Valve,,,,,None or Unspecified,None or Unspecified,,,,,,,,,,,,,Standard,Conventional
2323,1767219,34000,1226304,132,1.0,2001,,,2/20/2008 0:00,WA250-3MC,WA250,,-3MC,,,Wheel Loader - 120.0 to 135.0 Horsepower,Florida,WL,Wheel Loader,,OROPS,None or Unspecified,,None or Unspecified,,,,,,,,2 Valve,,,,,None or Unspecified,None or Unspecified,,,,,,,,,,,,,Standard,Conventional
2323,1767235,22000,1336676,132,4.0,2002,4322.0,Medium,2/10/2009 0:00,WA250-3MC,WA250,,-3MC,,,Wheel Loader - 120.0 to 135.0 Horsepower,Florida,WL,Wheel Loader,,OROPS,None or Unspecified,,None or Unspecified,,,,,,,,2 Valve,,,,,None or Unspecified,Manual,,,,,,,,,,,,,Standard,Conventional
2323,1767237,50000,1375299,132,1.0,2002,4309.0,Medium,2/21/2007 0:00,WA250-3MC,WA250,,-3MC,,,Wheel Loader - 120.0 to 135.0 Horsepower,Florida,WL,Wheel Loader,,OROPS,None or Unspecified,,None or Unspecified,,,,,,,,2 Valve,,,,,20.5,Manual,,,,,,,,,,,,,Standard,Conventional
2323,1767248,23000,1240720,132,1.0,2002,8677.0,Medium,5/18/2011 0:00,WA250-3MC,WA250,,-3MC,,,Wheel Loader - 120.0 to 135.0 Horsepower,Florida,WL,Wheel Loader,,EROPS w AC,None or Unspecified,,None or Unspecified,,,,,,,,2 Valve,,,,,20.5,Manual,,,,,,,,,,,,,Standard,Conventional
2323,1767261,31000,1367689,132,1.0,2002,,,2/25/2009 0:00,WA250-3MC,WA250,,-3MC,,,Wheel Loader - 120.0 to 135.0 Horsepower,Arizona,WL,Wheel Loader,,EROPS w AC,None or Unspecified,,None or Unspecified,,,,,,,,2 Valve,,,,,20.5,None or Unspecified,,,,,,,,,,,,,Standard,Conventional
2323,1767268,16500,1375881,132,4.0,2000,7232.0,Medium,2/10/2009 0:00,WA250-3MC,WA250,,-3MC,,,Wheel Loader - 120.0 to 135.0 Horsepower,Florida,WL,Wheel Loader,,OROPS,None or Unspecified,,None or Unspecified,,,,,,,,2 Valve,,,,,None or Unspecified,None or Unspecified,,,,,,,,,,,,,Standard,Conventional
2323,1767270,48000,1473235,132,1.0,2002,,,2/21/2007 0:00,WA250-3MC,WA250,,-3MC,,,Wheel Loader - 120.0 to 135.0 Horsepower,Florida,WL,Wheel Loader,,EROPS,,,,,,,,,,,Auxiliary,,,,,,Manual,,,,,,,,,,,,,,
2323,1767275,50000,1468540,132,1.0,2002,3350.0,Medium,2/21/2007 0:00,WA250-3MC,WA250,,-3MC,,,Wheel Loader - 120.0 to 135.0 Horsepower,Florida,WL,Wheel Loader,,OROPS,None or Unspecified,,None or Unspecified,,,,,,,,2 Valve,,,,,20.5,Manual,,,,,,,,,,,,,Standard,Conventional
2323,1767283,54000,1223665,132,1.0,2002,,,7/21/2005 0:00,WA250-3MC,WA250,,-3MC,,,Wheel Loader - 120.0 to 135.0 Horsepower,Texas,WL,Wheel Loader,,OROPS,Yes,,None or Unspecified,,,,,,,,2 Valve,,,,,20.5,Manual,,,,,,,,,,,,,Standard,Conventional
2323,1767295,57500,1463669,132,1.0,2002,,,7/21/2005 0:00,WA250-3MC,WA250,,-3MC,,,Wheel Loader - 120.0 to 135.0 Horsepower,Texas,WL,Wheel Loader,,OROPS,Yes,,None or Unspecified,,,,,,,,2 Valve,,,,,20.5,Manual,,,,,,,,,,,,,Standard,Conventional
2323,1767298,55000,1161160,132,1.0,2003,,,7/21/2005 0:00,WA250-3MC,WA250,,-3MC,,,Wheel Loader - 120.0 to 135.0 Horsepower,Texas,WL,Wheel Loader,,OROPS,Yes,,None or Unspecified,,,,,,,,2 Valve,,,,,20.5,Manual,,,,,,,,,,,,,Standard,Conventional
2323,1767312,50000,1375631,132,4.0,2003,,,2/13/2007 0:00,WA250-3MC,WA250,,-3MC,,,Wheel Loader - 120.0 to 135.0 Horsepower,Florida,WL,Wheel Loader,,EROPS w AC,None or Unspecified,,None or Unspecified,,,,,,,,3 Valve,,,,,None or Unspecified,Manual,,,,,,,,,,,,,Standard,Conventional
2323,2410247,33500,1469706,136,2.0,2001,0.0,,1/31/2009 0:00,WA250-3MC,WA250,,-3MC,,,Wheel Loader - 120.0 to 135.0 Horsepower,Florida,WL,Wheel Loader,,OROPS,None or Unspecified,,None or Unspecified,,,,,,,,2 Valve,,,,,None or Unspecified,Manual,,,,,,,,,,,,,Standard,Conventional
2323,2410248,35000,1469706,136,8.0,2001,0.0,,11/18/2008 0:00,WA250-3MC,WA250,,-3MC,,,Wheel Loader - 120.0 to 135.0 Horsepower,Mississippi,WL,Wheel Loader,,OROPS,None or Unspecified,,None or Unspecified,,,,,,,,2 Valve,,,,,None or Unspecified,Manual,,,,,,,,,,,,,Standard,Conventional
2323,2410275,28000,1696738,136,,1000,0.0,,8/13/2009 0:00,WA250-3MC,WA250,,-3MC,,,Wheel Loader - 120.0 to 135.0 Horsepower,Florida,WL,Wheel Loader,,EROPS w AC,None or Unspecified,,None or Unspecified,,,,,,,,2 Valve,,,,,None or Unspecified,None or Unspecified,,,,,,,,,,,,,Standard,Conventional
2323,2413790,36000,1489792,136,1.0,2000,0.0,,5/28/2008 0:00,WA250-3MC,WA250,,-3MC,,,Wheel Loader - 120.0 to 135.0 Horsepower,Florida,WL,Wheel Loader,,EROPS,,,,,,,,,,,Standard,,,,,,Manual,,,,,,,,,,,,,,
2323,2413797,22000,820704,136,1.0,2000,0.0,,9/23/2008 0:00,WA250-3MC,WA250,,-3MC,,,Wheel Loader - 120.0 to 135.0 Horsepower,Ohio,WL,Wheel Loader,,EROPS,,,,,,,,,,,Standard,,,,,,None or Unspecified,,,,,,,,,,,,,,
2323,2413804,15500,1514417,136,1.0,2000,0.0,,3/26/2009 0:00,WA250-3MC,WA250,,-3MC,,,Wheel Loader - 120.0 to 135.0 Horsepower,Georgia,WL,Wheel Loader,,EROPS w AC,None or Unspecified,,None or Unspecified,,,,,,,,2 Valve,,,,,17.5,Manual,,,,,,,,,,,,,Standard,Conventional
2323,2413809,32500,1327255,136,1.0,2000,0.0,,5/24/2007 0:00,WA250-3MC,WA250,,-3MC,,,Wheel Loader - 120.0 to 135.0 Horsepower,Florida,WL,Wheel Loader,,EROPS w AC,None or Unspecified,,None or Unspecified,,,,,,,,2 Valve,,,,,17.5,Manual,,,,,,,,,,,,,Standard,Conventional
2323,2413810,37500,1327255,136,1.0,2000,0.0,,5/28/2008 0:00,WA250-3MC,WA250,,-3MC,,,Wheel Loader - 120.0 to 135.0 Horsepower,Florida,WL,Wheel Loader,,EROPS w AC,None or Unspecified,,None or Unspecified,,,,,,,,2 Valve,,,,,17.5,Manual,,,,,,,,,,,,,Standard,Conventional
2323,2413812,42500,246049,136,4.0,2001,0.0,,2/11/2008 0:00,WA250-3MC,WA250,,-3MC,,,Wheel Loader - 120.0 to 135.0 Horsepower,Florida,WL,Wheel Loader,,EROPS,None or Unspecified,,None or Unspecified,,,,,,,,2 Valve,,,,,None or Unspecified,None or Unspecified,,,,,,,,,,,,,Standard,Conventional
2323,2413813,32000,1478282,136,1.0,2000,0.0,,5/24/2007 0:00,WA250-3MC,WA250,,-3MC,,,Wheel Loader - 120.0 to 135.0 Horsepower,Florida,WL,Wheel Loader,,EROPS w AC,None or Unspecified,,None or Unspecified,,,,,,,,2 Valve,,,,,17.5,Manual,,,,,,,,,,,,,Standard,Conventional
2323,2413815,21500,1129760,136,1.0,1000,0.0,,2/16/2009 0:00,WA250-3MC,WA250,,-3MC,,,Wheel Loader - 120.0 to 135.0 Horsepower,Florida,WL,Wheel Loader,,EROPS,,,,,,,,,,,Standard,,,,,,Manual,,,,,,,,,,,,,,
2323,2413817,38000,1434370,136,1.0,2000,0.0,,10/10/2007 0:00,WA250-3MC,WA250,,-3MC,,,Wheel Loader - 120.0 to 135.0 Horsepower,Florida,WL,Wheel Loader,,EROPS,,,,,,,,,,,Standard,,,,,,None or Unspecified,,,,,,,,,,,,,,
2323,2413818,28000,1491297,136,1.0,1000,0.0,,5/25/2010 0:00,WA250-3MC,WA250,,-3MC,,,Wheel Loader - 120.0 to 135.0 Horsepower,Florida,WL,Wheel Loader,,EROPS,None or Unspecified,,None or Unspecified,,,,,,,,2 Valve,,,,,20.5,None or Unspecified,,,,,,,,,,,,,Standard,Conventional
2323,2413822,31000,1193429,136,1.0,2000,0.0,,8/8/2007 0:00,WA250-3MC,WA250,,-3MC,,,Wheel Loader - 120.0 to 135.0 Horsepower,Florida,WL,Wheel Loader,,OROPS,None or Unspecified,,None or Unspecified,,,,,,,,2 Valve,,,,,None or Unspecified,Manual,,,,,,,,,,,,,Standard,Conventional
2323,2413823,28000,826125,136,4.0,2001,4000.0,Medium,2/11/2008 0:00,WA250-3MC,WA250,,-3MC,,,Wheel Loader - 120.0 to 135.0 Horsepower,Florida,WL,Wheel Loader,,OROPS,None or Unspecified,,None or Unspecified,,,,,,,,2 Valve,,,,,None or Unspecified,None or Unspecified,,,,,,,,,,,,,Standard,Conventional
2323,2413824,42500,537256,136,4.0,2000,0.0,,6/9/2007 0:00,WA250-3MC,WA250,,-3MC,,,Wheel Loader - 120.0 to 135.0 Horsepower,New Jersey,WL,Wheel Loader,,EROPS w AC,None or Unspecified,,None or Unspecified,,,,,,,,2 Valve,,,,,None or Unspecified,None or Unspecified,,,,,,,,,,,,,Standard,Conventional
2323,2413828,43000,1677659,136,,2000,0.0,,6/16/2007 0:00,WA250-3MC,WA250,,-3MC,,,Wheel Loader - 120.0 to 135.0 Horsepower,New Hampshire,WL,Wheel Loader,,EROPS w AC,,,,,,,,,,,Standard,,,,,,None or Unspecified,,,,,,,,,,,,,,
2323,2413829,50000,1677659,136,,2000,0.0,,5/19/2007 0:00,WA250-3MC,WA250,,-3MC,,,Wheel Loader - 120.0 to 135.0 Horsepower,Connecticut,WL,Wheel Loader,,EROPS w AC,,,,,,,,,,,Standard,,,,,,None or Unspecified,,,,,,,,,,,,,,
2323,2413836,27500,1069342,136,1.0,2001,0.0,,3/3/2009 0:00,WA250-3MC,WA250,,-3MC,,,Wheel Loader - 120.0 to 135.0 Horsepower,California,WL,Wheel Loader,,EROPS w AC,None or Unspecified,,None or Unspecified,,,,,,,,2 Valve,,,,,20.5,None or Unspecified,,,,,,,,,,,,,Standard,Conventional
2323,2413837,27000,1373812,136,1.0,2001,12164.0,Medium,5/6/2010 0:00,WA250-3MC,WA250,,-3MC,,,Wheel Loader - 120.0 to 135.0 Horsepower,Texas,WL,Wheel Loader,,EROPS w AC,None or Unspecified,,None or Unspecified,,,,,,,,2 Valve,,,,,20.5,None or Unspecified,,,,,,,,,,,,,Standard,Conventional
2323,2413840,52000,1404644,136,4.0,2000,0.0,,5/19/2007 0:00,WA250-3MC,WA250,,-3MC,,,Wheel Loader - 120.0 to 135.0 Horsepower,Connecticut,WL,Wheel Loader,,EROPS w AC,None or Unspecified,,None or Unspecified,,,,,,,,2 Valve,,,,,29.5,Manual,,,,,,,,,,,,,Standard,Conventional
2323,2413842,22000,1185468,136,1.0,2000,0.0,,12/13/2007 0:00,WA250-3MC,WA250,,-3MC,,,Wheel Loader - 120.0 to 135.0 Horsepower,Texas,WL,Wheel Loader,,EROPS w AC,None or Unspecified,,None or Unspecified,,,,,,,,2 Valve,,,,,20.5,None or Unspecified,,,,,,,,,,,,,Standard,Conventional
2323,2413847,32500,1313784,136,1.0,2000,0.0,,10/13/2009 0:00,WA250-3MC,WA250,,-3MC,,,Wheel Loader - 120.0 to 135.0 Horsepower,California,WL,Wheel Loader,,EROPS w AC,None or Unspecified,,None or Unspecified,,,,,,,,2 Valve,,,,,17.5,Hydraulic,,,,,,,,,,,,,Standard,Conventional
2323,2413850,29000,1769925,136,1.0,2003,0.0,,3/25/2009 0:00,WA250-3MC,WA250,,-3MC,,,Wheel Loader - 120.0 to 135.0 Horsepower,Texas,WL,Wheel Loader,,EROPS,None or Unspecified,,None or Unspecified,,,,,,,,2 Valve,,,,,20.5,None or Unspecified,,,,,,,,,,,,,Standard,Conventional
2323,2413861,40000,1332544,136,1.0,2001,0.0,,9/18/2008 0:00,WA250-3MC,WA250,,-3MC,,,Wheel Loader - 120.0 to 135.0 Horsepower,Georgia,WL,Wheel Loader,,EROPS w AC,Yes,,None or Unspecified,,,,,,,,2 Valve,,,,,20.5,Manual,,,,,,,,,,,,,Standard,Conventional
2323,2413864,37500,1473902,136,1.0,2002,0.0,,5/1/2008 0:00,WA250-3MC,WA250,,-3MC,,,Wheel Loader - 120.0 to 135.0 Horsepower,West Virginia,WL,Wheel Loader,,EROPS w AC,None or Unspecified,,None or Unspecified,,,,,,,,2 Valve,,,,,20.5,Manual,,,,,,,,,,,,,Standard,Conventional
2323,2413868,37500,1372550,136,1.0,2001,0.0,,10/10/2007 0:00,WA250-3MC,WA250,,-3MC,,,Wheel Loader - 120.0 to 135.0 Horsepower,Florida,WL,Wheel Loader,,OROPS,None or Unspecified,,None or Unspecified,,,,,,,,2 Valve,,,,,20.5,None or Unspecified,,,,,,,,,,,,,Standard,Conventional
2323,2413869,39000,1295558,136,1.0,2001,0.0,,2/19/2008 0:00,WA250-3MC,WA250,,-3MC,,,Wheel Loader - 120.0 to 135.0 Horsepower,Florida,WL,Wheel Loader,,OROPS,None or Unspecified,,None or Unspecified,,,,,,,,2 Valve,,,,,20.5,None or Unspecified,,,,,,,,,,,,,Standard,Conventional
2323,2413873,31000,1378458,136,4.0,2001,5138.0,Medium,2/11/2008 0:00,WA250-3MC,WA250,,-3MC,,,Wheel Loader - 120.0 to 135.0 Horsepower,Florida,WL,Wheel Loader,,OROPS,None or Unspecified,,None or Unspecified,,,,,,,,2 Valve,,,,,None or Unspecified,Hydraulic,,,,,,,,,,,,,Standard,Conventional
2323,2413874,32500,1378458,136,2.0,2001,0.0,,8/7/2008 0:00,WA250-3MC,WA250,,-3MC,,,Wheel Loader - 120.0 to 135.0 Horsepower,Florida,WL,Wheel Loader,,OROPS,None or Unspecified,,None or Unspecified,,,,,,,,2 Valve,,,,,None or Unspecified,Hydraulic,,,,,,,,,,,,,Standard,Conventional
2323,2413876,17000,1172651,136,1.0,2001,0.0,,5/27/2009 0:00,WA250-3MC,WA250,,-3MC,,,Wheel Loader - 120.0 to 135.0 Horsepower,Florida,WL,Wheel Loader,,OROPS,None or Unspecified,,None or Unspecified,,,,,,,,2 Valve,,,,,20.5,Manual,,,,,,,,,,,,,Standard,Conventional
2323,2413877,23000,1439650,136,1.0,2001,0.0,,2/16/2009 0:00,WA250-3MC,WA250,,-3MC,,,Wheel Loader - 120.0 to 135.0 Horsepower,Florida,WL,Wheel Loader,,OROPS,Yes,,None or Unspecified,,,,,,,,2 Valve,,,,,20.5,Manual,,,,,,,,,,,,,Standard,Conventional
2323,2413880,45000,1345877,136,1.0,2001,0.0,,10/10/2007 0:00,WA250-3MC,WA250,,-3MC,,,Wheel Loader - 120.0 to 135.0 Horsepower,Florida,WL,Wheel Loader,,EROPS w AC,None or Unspecified,,None or Unspecified,,,,,,,,2 Valve,,,,,20.5,Manual,,,,,,,,,,,,,Standard,Conventional
2323,2413881,31000,1219875,136,4.0,2001,9063.0,Medium,2/11/2008 0:00,WA250-3MC,WA250,,-3MC,,,Wheel Loader - 120.0 to 135.0 Horsepower,Florida,WL,Wheel Loader,,OROPS,None or Unspecified,,None or Unspecified,,,,,,,,2 Valve,,,,,None or Unspecified,None or Unspecified,,,,,,,,,,,,,Standard,Conventional
2323,2413886,40000,1362927,136,1.0,2001,0.0,,9/25/2007 0:00,WA250-3MC,WA250,,-3MC,,,Wheel Loader - 120.0 to 135.0 Horsepower,Colorado,WL,Wheel Loader,,EROPS,None or Unspecified,,None or Unspecified,,,,,,,,2 Valve,,,,,20.5,Manual,,,,,,,,,,,,,Standard,Conventional
2323,2413890,22000,1114840,136,1.0,2001,0.0,,5/25/2010 0:00,WA250-3MC,WA250,,-3MC,,,Wheel Loader - 120.0 to 135.0 Horsepower,Florida,WL,Wheel Loader,,OROPS,None or Unspecified,,None or Unspecified,,,,,,,,2 Valve,,,,,20.5,None or Unspecified,,,,,,,,,,,,,Standard,Conventional
2323,2413893,21500,1110066,136,1.0,2001,0.0,,2/16/2009 0:00,WA250-3MC,WA250,,-3MC,,,Wheel Loader - 120.0 to 135.0 Horsepower,Florida,WL,Wheel Loader,,OROPS,Yes,,None or Unspecified,,,,,,,,2 Valve,,,,,20.5,Manual,,,,,,,,,,,,,Standard,Conventional
2323,2413894,45000,1424065,136,1.0,2001,0.0,,2/12/2008 0:00,WA250-3MC,WA250,,-3MC,,,Wheel Loader - 120.0 to 135.0 Horsepower,Arizona,WL,Wheel Loader,,EROPS w AC,None or Unspecified,,None or Unspecified,,,,,,,,2 Valve,,,,,20.5,None or Unspecified,,,,,,,,,,,,,Standard,Conventional
2323,2413896,39000,1226304,136,1.0,2001,0.0,,2/19/2008 0:00,WA250-3MC,WA250,,-3MC,,,Wheel Loader - 120.0 to 135.0 Horsepower,Florida,WL,Wheel Loader,,OROPS,None or Unspecified,,None or Unspecified,,,,,,,,2 Valve,,,,,None or Unspecified,None or Unspecified,,,,,,,,,,,,,Standard,Conventional
2323,2413897,42500,1334578,136,1.0,2002,0.0,,12/13/2007 0:00,WA250-3MC,WA250,,-3MC,,,Wheel Loader - 120.0 to 135.0 Horsepower,Colorado,WL,Wheel Loader,,EROPS,None or Unspecified,,None or Unspecified,,,,,,,,2 Valve,,,,,20.5,Manual,,,,,,,,,,,,,Standard,Conventional
2323,2413900,42000,1336676,136,4.0,2002,4322.0,Medium,2/9/2009 0:00,WA250-3MC,WA250,,-3MC,,,Wheel Loader - 120.0 to 135.0 Horsepower,Florida,WL,Wheel Loader,,OROPS,None or Unspecified,,None or Unspecified,,,,,,,,2 Valve,,,,,None or Unspecified,Manual,,,,,,,,,,,,,Standard,Conventional
2323,2413901,28000,1308906,136,1.0,2002,0.0,,11/6/2008 0:00,WA250-3MC,WA250,,-3MC,,,Wheel Loader - 120.0 to 135.0 Horsepower,Tennessee,WL,Wheel Loader,,EROPS,,,,,,,,,,,Standard,,,,,,Manual,,,,,,,,,,,,,,
2323,2413909,34000,1023206,136,4.0,2002,0.0,,2/11/2008 0:00,WA250-3MC,WA250,,-3MC,,,Wheel Loader - 120.0 to 135.0 Horsepower,Florida,WL,Wheel Loader,,EROPS w AC,,,,,,,,,,,Standard,,,,,,Manual,,,,,,,,,,,,,,
2323,2413911,45000,1145954,136,1.0,2002,0.0,,5/28/2009 0:00,WA250-3MC,WA250,,-3MC,,,Wheel Loader - 120.0 to 135.0 Horsepower,Missouri,WL,Wheel Loader,,EROPS w AC,Yes,,None or Unspecified,,,,,,,,2 Valve,,,,,20.5,Manual,,,,,,,,,,,,,Standard,Conventional
2323,2413913,47500,1145954,136,1.0,2002,0.0,,12/12/2008 0:00,WA250-3MC,WA250,,-3MC,,,Wheel Loader - 120.0 to 135.0 Horsepower,Missouri,WL,Wheel Loader,,EROPS w AC,Yes,,None or Unspecified,,,,,,,,2 Valve,,,,,20.5,Manual,,,,,,,,,,,,,Standard,Conventional
2323,2413914,12500,1375881,136,,2000,0.0,,2/9/2009 0:00,WA250-3MC,WA250,,-3MC,,,Wheel Loader - 120.0 to 135.0 Horsepower,Florida,WL,Wheel Loader,,OROPS,None or Unspecified,,None or Unspecified,,,,,,,,2 Valve,,,,,None or Unspecified,None or Unspecified,,,,,,,,,,,,,Standard,Conventional
2323,2413916,37500,1414464,136,1.0,2002,6374.0,Medium,9/28/2007 0:00,WA250-3MC,WA250,,-3MC,,,Wheel Loader - 120.0 to 135.0 Horsepower,North Carolina,WL,Wheel Loader,,OROPS,Yes,,None or Unspecified,,,,,,,,2 Valve,,,,,None or Unspecified,Manual,,,,,,,,,,,,,Standard,Conventional
2323,2413918,26000,1441216,136,1.0,2002,0.0,,2/16/2009 0:00,WA250-3MC,WA250,,-3MC,,,Wheel Loader - 120.0 to 135.0 Horsepower,Florida,WL,Wheel Loader,,OROPS,None or Unspecified,,None or Unspecified,,,,,,,,2 Valve,,,,,20.5,Manual,,,,,,,,,,,,,Standard,Conventional
2323,2413921,21500,1085504,136,1.0,2002,0.0,,2/16/2009 0:00,WA250-3MC,WA250,,-3MC,,,Wheel Loader - 120.0 to 135.0 Horsepower,Florida,WL,Wheel Loader,,OROPS,Yes,,None or Unspecified,,,,,,,,2 Valve,,,,,None or Unspecified,Manual,,,,,,,,,,,,,Standard,Conventional
2323,2413922,24000,1421438,136,1.0,2002,0.0,,2/16/2009 0:00,WA250-3MC,WA250,,-3MC,,,Wheel Loader - 120.0 to 135.0 Horsepower,Florida,WL,Wheel Loader,,OROPS,None or Unspecified,,None or Unspecified,,,,,,,,2 Valve,,,,,20.5,Manual,,,,,,,,,,,,,Standard,Conventional
2323,2413924,44000,1249778,136,1.0,2002,0.0,,10/10/2007 0:00,WA250-3MC,WA250,,-3MC,,,Wheel Loader - 120.0 to 135.0 Horsepower,Florida,WL,Wheel Loader,,OROPS,Yes,,None or Unspecified,,,,,,,,2 Valve,,,,,20.5,Manual,,,,,,,,,,,,,Standard,Conventional
2323,2413927,42000,1321206,136,1.0,2001,0.0,,4/5/2007 0:00,WA250-3MC,WA250,,-3MC,,,Wheel Loader - 120.0 to 135.0 Horsepower,Colorado,WL,Wheel Loader,,EROPS,None or Unspecified,,None or Unspecified,,,,,,,,2 Valve,,,,,20.5,Manual,,,,,,,,,,,,,Standard,Conventional
2323,2413928,30000,1321206,136,1.0,1000,0.0,,8/26/2008 0:00,WA250-3MC,WA250,,-3MC,,,Wheel Loader - 120.0 to 135.0 Horsepower,Utah,WL,Wheel Loader,,EROPS,None or Unspecified,,None or Unspecified,,,,,,,,2 Valve,,,,,20.5,Manual,,,,,,,,,,,,,Standard,Conventional
2323,2413929,36000,1194163,136,1.0,2001,0.0,,4/5/2007 0:00,WA250-3MC,WA250,,-3MC,,,Wheel Loader - 120.0 to 135.0 Horsepower,Colorado,WL,Wheel Loader,,EROPS,None or Unspecified,,None or Unspecified,,,,,,,,2 Valve,,,,,20.5,Manual,,,,,,,,,,,,,Standard,Conventional
2323,2413931,36000,1682711,136,1.0,2002,0.0,,10/15/2008 0:00,WA250-3MC,WA250,,-3MC,,,Wheel Loader - 120.0 to 135.0 Horsepower,Florida,WL,Wheel Loader,,OROPS,None or Unspecified,,None or Unspecified,,,,,,,,2 Valve,,,,,20.5,Manual,,,,,,,,,,,,,Standard,Conventional
2323,2413933,40000,1099696,136,1.0,2003,3485.0,Medium,2/19/2008 0:00,WA250-3MC,WA250,,-3MC,,,Wheel Loader - 120.0 to 135.0 Horsepower,Florida,WL,Wheel Loader,,OROPS,None or Unspecified,,None or Unspecified,,,,,,,,2 Valve,,,,,20.5,Manual,,,,,,,,,,,,,Standard,Conventional
2323,2413935,32500,1554408,136,1.0,2003,0.0,,2/27/2009 0:00,WA250-3MC,WA250,,-3MC,,,Wheel Loader - 120.0 to 135.0 Horsepower,California,WL,Wheel Loader,,EROPS w AC,None or Unspecified,,None or Unspecified,,,,,,,,2 Valve,,,,,20.5,None or Unspecified,,,,,,,,,,,,,Standard,Conventional
2323,2413936,40000,527752,136,1.0,2003,623.0,Low,2/19/2008 0:00,WA250-3MC,WA250,,-3MC,,,Wheel Loader - 120.0 to 135.0 Horsepower,Florida,WL,Wheel Loader,,OROPS,None or Unspecified,,None or Unspecified,,,,,,,,2 Valve,,,,,20.5,Manual,,,,,,,,,,,,,Standard,Conventional
2323,2413938,40000,1274240,136,1.0,2003,0.0,,3/31/2009 0:00,WA250-3MC,WA250,,-3MC,,,Wheel Loader - 120.0 to 135.0 Horsepower,Connecticut,WL,Wheel Loader,,EROPS w AC,None or Unspecified,,None or Unspecified,,,,,,,,2 Valve,,,,,20.5,None or Unspecified,,,,,,,,,,,,,Standard,Conventional
2323,2414076,27500,1768905,136,1.0,2003,0.0,,3/3/2009 0:00,WA250-3MC,WA250,,-3MC,,,Wheel Loader - 120.0 to 135.0 Horsepower,California,WL,Wheel Loader,,EROPS w AC,None or Unspecified,,None or Unspecified,,,,,,,,2 Valve,,,,,20.5,None or Unspecified,,,,,,,,,,,,,Standard,Conventional
2323,2423531,31000,1645665,136,1.0,2002,0.0,,2/25/2009 0:00,WA250-3MC,WA250,,-3MC,,,Wheel Loader - 120.0 to 135.0 Horsepower,Arizona,WL,Wheel Loader,,EROPS w AC,None or Unspecified,,None or Unspecified,,,,,,,,2 Valve,,,,,20.5,None or Unspecified,,,,,,,,,,,,,Standard,Conventional
2323,2699792,22000,1013094,149,99.0,2001,4226.0,Low,9/30/2010 0:00,WA250-3MC,WA250,,-3MC,,,Wheel Loader - 120.0 to 135.0 Horsepower,California,WL,Wheel Loader,,EROPS,Yes,,None or Unspecified,,,,,,,,2 Valve,,,,,20.5,None or Unspecified,,,,,,,,,,,,,Standard,Conventional
2323,2699793,28000,1013094,149,99.0,2001,3400.0,Low,12/11/2010 0:00,WA250-3MC,WA250,,-3MC,,,Wheel Loader - 120.0 to 135.0 Horsepower,California,WL,Wheel Loader,,EROPS,Yes,,None or Unspecified,,,,,,,,2 Valve,,,,,20.5,None or Unspecified,,,,,,,,,,,,,Standard,Conventional
2323,2699800,22500,869163,149,2.0,2001,0.0,,6/21/2011 0:00,WA250-3MC,WA250,,-3MC,,,Wheel Loader - 120.0 to 135.0 Horsepower,Texas,WL,Wheel Loader,,EROPS w AC,None or Unspecified,,None or Unspecified,,,,,,,,2 Valve,,,,,None or Unspecified,None or Unspecified,,,,,,,,,,,,,Standard,Conventional
2323,2699817,32000,1464864,149,1.0,2001,6640.0,Medium,2/15/2011 0:00,WA250-3MC,WA250,,-3MC,,,Wheel Loader - 120.0 to 135.0 Horsepower,Florida,WL,Wheel Loader,,OROPS,None or Unspecified,,None or Unspecified,,,,,,,,2 Valve,,,,,20.5,None or Unspecified,,,,,,,,,,,,,Standard,Conventional
2323,2699818,37000,1391961,149,1.0,2002,11481.0,Medium,5/11/2011 0:00,WA250-3MC,WA250,,-3MC,,,Wheel Loader - 120.0 to 135.0 Horsepower,Texas,WL,Wheel Loader,,OROPS,Yes,,None or Unspecified,,,,,,,,2 Valve,,,,,20.5,None or Unspecified,,,,,,,,,,,,,Standard,Conventional
2323,2699822,43000,1045182,149,1.0,2002,0.0,,8/31/2010 0:00,WA250-3MC,WA250,,-3MC,,,Wheel Loader - 120.0 to 135.0 Horsepower,Colorado,WL,Wheel Loader,,EROPS w AC,None or Unspecified,,None or Unspecified,,,,,,,,2 Valve,,,,,20.5,Hydraulic,,,,,,,,,,,,,Standard,Conventional
2323,2699832,36000,1534763,149,1.0,2003,6014.0,Medium,2/15/2011 0:00,WA250-3MC,WA250,,-3MC,,,Wheel Loader - 120.0 to 135.0 Horsepower,Florida,WL,Wheel Loader,,OROPS,None or Unspecified,,None or Unspecified,,,,,,,,2 Valve,,,,,20.5,None or Unspecified,,,,,,,,,,,,,Standard,Conventional
2323,2699834,38000,1375631,149,4.0,1000,0.0,,2/7/2011 0:00,WA250-3MC,WA250,,-3MC,,,Wheel Loader - 120.0 to 135.0 Horsepower,Florida,WL,Wheel Loader,,EROPS w AC,None or Unspecified,,None or Unspecified,,,,,,,,3 Valve,,,,,None or Unspecified,Manual,,,,,,,,,,,,,Standard,Conventional
2323,2705796,45000,1889284,149,1.0,2004,7469.0,Medium,5/11/2011 0:00,WA250-3MC,WA250,,-3MC,,,Wheel Loader - 120.0 to 135.0 Horsepower,Texas,WL,Wheel Loader,,EROPS w AC,Yes,,Yes,,,,,,,,2 Valve,,,,,20.5,None or Unspecified,,,,,,,,,,,,,Standard,Conventional
2323,4358977,27500,1100054,172,1.0,2003,3666.0,Medium,3/3/2009 0:00,WA250-3MC,WA250,,-3MC,,,Wheel Loader - 120.0 to 135.0 Horsepower,California,WL,Wheel Loader,,EROPS w AC,None or Unspecified,,None or Unspecified,,,,,,,,2 Valve,,,,,20.5,None or Unspecified,,,,,,,,,,,,,Standard,Conventional
2323,4358988,22500,1539966,172,1.0,1998,3598.0,Low,2/16/2009 0:00,WA250-3MC,WA250,,-3MC,,,Wheel Loader - 120.0 to 135.0 Horsepower,Florida,WL,Wheel Loader,,EROPS w AC,None or Unspecified,,None or Unspecified,,,,,,,,2 Valve,,,,,20.5,None or Unspecified,,,,,,,,,,,,,Standard,Conventional
2323,4358994,29000,1342845,172,1.0,2003,3797.0,Medium,3/25/2009 0:00,WA250-3MC,WA250,,-3MC,,,Wheel Loader - 120.0 to 135.0 Horsepower,Texas,WL,Wheel Loader,,EROPS,None or Unspecified,,None or Unspecified,,,,,,,,2 Valve,,,,,20.5,None or Unspecified,,,,,,,,,,,,,Standard,Conventional
2323,6303219,40000,1873541,149,1.0,2000,,,12/20/2011 0:00,WA250-3MC,WA250,,-3MC,,,Wheel Loader - 120.0 to 135.0 Horsepower,Washington,WL,Wheel Loader,,EROPS,None or Unspecified,,None or Unspecified,,,,,,,,2 Valve,,,,,20.5,None or Unspecified,,,,,,,,,,,,,Standard,Conventional
2323,6304286,45000,1281553,149,1.0,2002,,,12/20/2011 0:00,WA250-3MC,WA250,,-3MC,,,Wheel Loader - 120.0 to 135.0 Horsepower,Washington,WL,Wheel Loader,,EROPS w AC,None or Unspecified,,None or Unspecified,,,,,,,,2 Valve,,,,,20.5,None or Unspecified,,,,,,,,,,,,,Standard,Conventional
2323,6304293,46000,1426059,149,1.0,2001,,,6/23/2011 0:00,WA250-3MC,WA250,,-3MC,,,Wheel Loader - 120.0 to 135.0 Horsepower,Ohio,WL,Wheel Loader,,OROPS,None or Unspecified,,None or Unspecified,,,,,,,,2 Valve,,,,,20.5,None or Unspecified,,,,,,,,,,,,,Standard,Conventional
2323,6304294,38000,1915461,149,12.0,2001,,,8/17/2011 0:00,WA250-3MC,WA250,,-3MC,,,Wheel Loader - 120.0 to 135.0 Horsepower,South Carolina,WL,Wheel Loader,,EROPS w AC,None or Unspecified,,None or Unspecified,,,,,,,,2 Valve,,,,,None or Unspecified,None or Unspecified,,,,,,,,,,,,,Standard,Conventional
