SalesID,2323153
SalePrice,37000
MachineID,1715697
datasource,136
auctioneerID,
YearMade,1000
MachineHoursCurrentMeter,0.0
UsageBand,
saledate,10/13/2007 0:00
fiModelDesc,EL240B
fiBaseModel,EL240
fiSecondaryDesc,B
fiModelSeries,
fiModelDescriptor,
ProductSize,Large / Medium
fiProductClassDesc,"Hydraulic Excavator, Track - 21.0 to 24.0 Metric Tons"
state,Florida
ProductGroup,TEX
ProductGroupDesc,Track Excavators
Drive_System,
Enclosure,EROPS
Forks,
Pad_Type,
Ride_Control,
Stick,
Transmission,
Turbocharged,
Blade_Extension,
Blade_Width,
Enclosure_Type,
Engine_Horsepower,
Hydraulics,Standard
Pushblock,
Ripper,
Scarifier,
Tip_Control,
Tire_Size,
Coupler,None or Unspecified
Coupler_System,
Grouser_Tracks,
Hydraulics_Flow,
Track_Type,Steel
Undercarriage_Pad_Width,None or Unspecified
Stick_Length,None or Unspecified
Thumb,None or Unspecified
Pattern_Changer,None or Unspecified
Grouser_Type,Double
Backhoe_Mounting,
Blade_Type,
Travel_Controls,
Differential_Type,
Steering_Controls,
