SalesID,1779960
SalePrice,8500
MachineID,180008
datasource,132
auctioneerID,28.0
YearMade,1985
MachineHoursCurrentMeter,
UsageBand,
saledate,9/8/2006 0:00
fiModelDesc,KH170L
fiBaseModel,KH170
fiSecondaryDesc,
fiModelSeries,
fiModelDescriptor,L
ProductSize,Mini
fiProductClassDesc,"Hydraulic Excavator, Track - 5.0 to 6.0 Metric Tons"
state,Mississippi
ProductGroup,TEX
ProductGroupDesc,Track Excavators
Drive_System,
Enclosure,EROPS
Forks,
Pad_Type,
Ride_Control,
Stick,
Transmission,
Turbocharged,
Blade_Extension,
Blade_Width,
Enclosure_Type,
Engine_Horsepower,
Hydraulics,Standard
Pushblock,
Ripper,
Scarifier,
Tip_Control,
Tire_Size,
Coupler,None or Unspecified
Coupler_System,
Grouser_Tracks,
Hydraulics_Flow,
Track_Type,Steel
Undercarriage_Pad_Width,None or Unspecified
Stick_Length,None or Unspecified
Thumb,None or Unspecified
Pattern_Changer,None or Unspecified
Grouser_Type,Double
Backhoe_Mounting,
Blade_Type,
Travel_Controls,
Differential_Type,
Steering_Controls,
