SalesID,1776085
SalePrice,67000
MachineID,1265106
datasource,132
auctioneerID,4.0
YearMade,1998
MachineHoursCurrentMeter,
UsageBand,
saledate,2/10/2003 0:00
fiModelDesc,PC340LC6
fiBaseModel,PC340
fiSecondaryDesc,
fiModelSeries,LC
fiModelDescriptor,6
ProductSize,Large / Medium
fiProductClassDesc,"Hydraulic Excavator, Track - 33.0 to 40.0 Metric Tons"
state,Florida
ProductGroup,TEX
ProductGroupDesc,Track Excavators
Drive_System,
Enclosure,EROPS w AC
Forks,
Pad_Type,
Ride_Control,
Stick,
Transmission,
Turbocharged,
Blade_Extension,
Blade_Width,
Enclosure_Type,
Engine_Horsepower,
Hydraulics,Standard
Pushblock,
Ripper,
Scarifier,
Tip_Control,
Tire_Size,
Coupler,None or Unspecified
Coupler_System,
Grouser_Tracks,
Hydraulics_Flow,
Track_Type,Steel
Undercarriage_Pad_Width,28 inch
Stick_Length,"10' 6"""
Thumb,None or Unspecified
Pattern_Changer,None or Unspecified
Grouser_Type,Triple
Backhoe_Mounting,
Blade_Type,
Travel_Controls,
Differential_Type,
Steering_Controls,
