ModelID,SalesID,SalePrice,MachineID,datasource,auctioneerID,YearMade,MachineHoursCurrentMeter,UsageBand,saledate,fiModelDesc,fiBaseModel,fiSecondaryDesc,fiModelSeries,fiModelDescriptor,ProductSize,fiProductClassDesc,state,ProductGroup,ProductGroupDesc,Drive_System,Enclosure,Forks,Pad_Type,Ride_Control,Stick,Transmission,Turbocharged,Blade_Extension,Blade_Width,Enclosure_Type,Engine_Horsepower,Hydraulics,Pushblock,Ripper,Scarifier,Tip_Control,Tire_Size,Coupler,Coupler_System,Grouser_Tracks,Hydraulics_Flow,Track_Type,Undercarriage_Pad_Width,Stick_Length,Thumb,Pattern_Changer,Grouser_Type,Backhoe_Mounting,Blade_Type,Travel_Controls,Differential_Type,Steering_Controls
23610,1746419,76000,1194882,132,2.0,2002,,,2/4/2007 0:00,PC210LC7,PC210,,LC,7,Large / Medium,"Hydraulic Excavator, Track - 21.0 to 24.0 Metric Tons",Florida,TEX,Track Excavators,,EROPS w AC,,,,,,,,,,,Standard,,,,,,None or Unspecified,,,,Steel,32 inch,None or Unspecified,None or Unspecified,None or Unspecified,Double,,,,,
23610,1746420,76000,1194882,132,2.0,2002,,,2/9/2007 0:00,PC210LC7,PC210,,LC,7,Large / Medium,"Hydraulic Excavator, Track - 21.0 to 24.0 Metric Tons",Florida,TEX,Track Excavators,,EROPS w AC,,,,,,,,,,,Standard,,,,,,None or Unspecified,,,,Steel,32 inch,None or Unspecified,None or Unspecified,None or Unspecified,Double,,,,,
23610,1746499,106000,1211332,132,2.0,2003,,,11/15/2003 0:00,PC210LC7,PC210,,LC,7,Large / Medium,"Hydraulic Excavator, Track - 21.0 to 24.0 Metric Tons",Connecticut,TEX,Track Excavators,,EROPS,,,,,,,,,,,Standard,,,,,,None or Unspecified,,,,Steel,28 inch,None or Unspecified,None or Unspecified,None or Unspecified,Double,,,,,
23610,1776640,47500,1256043,132,1.0,2002,,,3/29/2007 0:00,PC210LC7,PC210,,LC,7,Large / Medium,"Hydraulic Excavator, Track - 21.0 to 24.0 Metric Tons",Texas,TEX,Track Excavators,,EROPS w AC,,,,,,,,,,,Standard,,,,,,None or Unspecified,,,,Steel,None or Unspecified,"9' 6""",None or Unspecified,None or Unspecified,Double,,,,,
23610,1776671,57500,1468245,132,1.0,2002,,,3/26/2007 0:00,PC210LC7,PC210,,LC,7,Large / Medium,"Hydraulic Excavator, Track - 21.0 to 24.0 Metric Tons",Connecticut,TEX,Track Excavators,,EROPS w AC,,,,,,,,,,,Auxiliary,,,,,,Manual,,,,Steel,24 inch,"9' 6""",None or Unspecified,None or Unspecified,Double,,,,,
23610,1776702,104000,1551402,132,2.0,2003,,,12/6/2003 0:00,PC210LC7,PC210,,LC,7,Large / Medium,"Hydraulic Excavator, Track - 21.0 to 24.0 Metric Tons",Ohio,TEX,Track Excavators,,EROPS,,,,,,,,,,,Standard,,,,,,None or Unspecified,,,,Steel,28 inch,None or Unspecified,None or Unspecified,None or Unspecified,Double,,,,,
23610,2420021,72500,1468245,136,1.0,2003,0.0,,2/19/2008 0:00,PC210LC7,PC210,,LC,7,Large / Medium,"Hydraulic Excavator, Track - 21.0 to 24.0 Metric Tons",Florida,TEX,Track Excavators,,EROPS w AC,,,,,,,,,,,Auxiliary,,,,,,Manual,,,,Steel,24 inch,"9' 6""",None or Unspecified,None or Unspecified,Double,,,,,
23610,4361055,64000,1295965,172,1.0,2003,7446.0,Medium,2/15/2011 0:00,PC210LC7,PC210,,LC,7,Large / Medium,"Hydraulic Excavator, Track - 21.0 to 24.0 Metric Tons",Florida,TEX,Track Excavators,,EROPS w AC,,,,,,,,,,,Standard,,,,,,None or Unspecified,,,,Steel,None or Unspecified,"9' 8""",None or Unspecified,None or Unspecified,Double,,,,,
