ModelID,SalesID,SalePrice,MachineID,datasource,auctioneerID,YearMade,MachineHoursCurrentMeter,UsageBand,saledate,fiModelDesc,fiBaseModel,fiSecondaryDesc,fiModelSeries,fiModelDescriptor,ProductSize,fiProductClassDesc,state,ProductGroup,ProductGroupDesc,Drive_System,Enclosure,Forks,Pad_Type,Ride_Control,Stick,Transmission,Turbocharged,Blade_Extension,Blade_Width,Enclosure_Type,Engine_Horsepower,Hydraulics,Pushblock,Ripper,Scarifier,Tip_Control,Tire_Size,Coupler,Coupler_System,Grouser_Tracks,Hydraulics_Flow,Track_Type,Undercarriage_Pad_Width,Stick_Length,Thumb,Pattern_Changer,Grouser_Type,Backhoe_Mounting,Blade_Type,Travel_Controls,Differential_Type,Steering_Controls
23711,1856755,9250,1398706,132,5.0,1970,,,11/7/2003 0:00,H90E,H90,E,,,,Wheel Loader - Unidentified,Connecticut,WL,Wheel Loader,,EROPS,None or Unspecified,,None or Unspecified,,,,,,,,2 Valve,,,,,23.5,None or Unspecified,,,,,,,,,,,,,Standard,Conventional
23711,1856853,14000,1464232,132,16.0,1973,,,7/10/1997 0:00,H90E,H90,E,,,,Wheel Loader - Unidentified,Ohio,WL,Wheel Loader,,EROPS,None or Unspecified,,None or Unspecified,,,,,,,,2 Valve,,,,,None or Unspecified,None or Unspecified,,,,,,,,,,,,,Standard,Conventional
23711,1856869,14000,1298356,132,1.0,1973,,,9/21/1995 0:00,H90E,H90,E,,,,Wheel Loader - Unidentified,Illinois,WL,Wheel Loader,,EROPS,None or Unspecified,,None or Unspecified,,,,,,,,2 Valve,,,,,None or Unspecified,None or Unspecified,,,,,,,,,,,,,Standard,Conventional
23711,1856893,9000,1377520,132,2.0,1000,,,4/27/1996 0:00,H90E,H90,E,,,,Wheel Loader - Unidentified,Ohio,WL,Wheel Loader,,EROPS,None or Unspecified,,None or Unspecified,,,,,,,,2 Valve,,,,,None or Unspecified,None or Unspecified,,,,,,,,,,,,,Standard,Conventional
23711,1856896,9000,1513254,132,22.0,1000,,,3/20/1999 0:00,H90E,H90,E,,,,Wheel Loader - Unidentified,Minnesota,WL,Wheel Loader,,OROPS,None or Unspecified,,None or Unspecified,,,,,,,,2 Valve,,,,,None or Unspecified,None or Unspecified,,,,,,,,,,,,,Standard,Conventional
23711,1856901,10500,1512385,132,99.0,1974,,,3/8/1994 0:00,H90E,H90,E,,,,Wheel Loader - Unidentified,Maine,WL,Wheel Loader,,EROPS,None or Unspecified,,None or Unspecified,,,,,,,,2 Valve,,,,,None or Unspecified,None or Unspecified,,,,,,,,,,,,,Standard,Conventional
23711,1856904,8500,1246594,132,1.0,1974,,,3/5/2003 0:00,H90E,H90,E,,,,Wheel Loader - Unidentified,Minnesota,WL,Wheel Loader,,EROPS,None or Unspecified,,None or Unspecified,,,,,,,,2 Valve,,,,,26.5,None or Unspecified,,,,,,,,,,,,,Standard,Conventional
23711,1856913,14000,1297485,132,1.0,1975,,,12/8/1995 0:00,H90E,H90,E,,,,Wheel Loader - Unidentified,Illinois,WL,Wheel Loader,,EROPS,None or Unspecified,,None or Unspecified,,,,,,,,2 Valve,,,,,None or Unspecified,None or Unspecified,,,,,,,,,,,,,Standard,Conventional
23711,1856981,8000,1252664,132,1.0,1978,,,9/19/2007 0:00,H90E,H90,E,,,,Wheel Loader - Unidentified,Illinois,WL,Wheel Loader,,EROPS,None or Unspecified,,None or Unspecified,,,,,,,,2 Valve,,,,,26.5,None or Unspecified,,,,,,,,,,,,,Standard,Conventional
23711,1857011,14000,1443421,132,11.0,1980,,,12/14/1995 0:00,H90E,H90,E,,,,Wheel Loader - Unidentified,Mississippi,WL,Wheel Loader,,EROPS,None or Unspecified,,None or Unspecified,,,,,,,,2 Valve,,,,,None or Unspecified,None or Unspecified,,,,,,,,,,,,,Standard,Conventional
23711,1857013,17000,1474384,132,5.0,1981,,,3/18/1995 0:00,H90E,H90,E,,,,Wheel Loader - Unidentified,Connecticut,WL,Wheel Loader,,OROPS,None or Unspecified,,None or Unspecified,,,,,,,,2 Valve,,,,,None or Unspecified,None or Unspecified,,,,,,,,,,,,,Standard,Conventional
23711,1857154,8000,1125971,132,21.0,1000,,,4/26/1996 0:00,H90E,H90,E,,,,Wheel Loader - Unidentified,Maine,WL,Wheel Loader,,OROPS,None or Unspecified,,None or Unspecified,,,,,,,,2 Valve,,,,,None or Unspecified,None or Unspecified,,,,,,,,,,,,,Standard,Conventional
23711,1857156,21000,1322837,132,1.0,1979,,,4/17/1997 0:00,H90E,H90,E,,,,Wheel Loader - Unidentified,Minnesota,WL,Wheel Loader,,EROPS,None or Unspecified,,None or Unspecified,,,,,,,,2 Valve,,,,,None or Unspecified,None or Unspecified,,,,,,,,,,,,,Standard,Conventional
23711,1857159,12500,1507094,132,2.0,1000,,,7/9/1994 0:00,H90E,H90,E,,,,Wheel Loader - Unidentified,New Hampshire,WL,Wheel Loader,,OROPS,None or Unspecified,,None or Unspecified,,,,,,,,2 Valve,,,,,None or Unspecified,None or Unspecified,,,,,,,,,,,,,Standard,Conventional
23711,1857160,15500,1456873,132,6.0,1972,,,9/14/1995 0:00,H90E,H90,E,,,,Wheel Loader - Unidentified,Wyoming,WL,Wheel Loader,,EROPS,None or Unspecified,,None or Unspecified,,,,,,,,2 Valve,,,,,None or Unspecified,None or Unspecified,,,,,,,,,,,,,Standard,Conventional
23711,1857163,9000,1540671,132,99.0,1000,,,6/28/1994 0:00,H90E,H90,E,,,,Wheel Loader - Unidentified,Texas,WL,Wheel Loader,,OROPS,None or Unspecified,,None or Unspecified,,,,,,,,2 Valve,,,,,None or Unspecified,None or Unspecified,,,,,,,,,,,,,Standard,Conventional
23711,1857169,9600,1091786,132,99.0,1000,,,8/24/1996 0:00,H90E,H90,E,,,,Wheel Loader - Unidentified,Illinois,WL,Wheel Loader,,OROPS,None or Unspecified,,None or Unspecified,,,,,,,,2 Valve,,,,,None or Unspecified,None or Unspecified,,,,,,,,,,,,,Standard,Conventional
23711,1857170,8000,1223878,132,2.0,1971,,,9/30/1995 0:00,H90E,H90,E,,,,Wheel Loader - Unidentified,Maine,WL,Wheel Loader,,OROPS,None or Unspecified,,None or Unspecified,,,,,,,,2 Valve,,,,,None or Unspecified,None or Unspecified,,,,,,,,,,,,,Standard,Conventional
23711,1857173,11000,1227421,132,99.0,1974,,,3/24/1994 0:00,H90E,H90,E,,,,Wheel Loader - Unidentified,Texas,WL,Wheel Loader,,EROPS,None or Unspecified,,None or Unspecified,,,,,,,,2 Valve,,,,,None or Unspecified,None or Unspecified,,,,,,,,,,,,,Standard,Conventional
23711,1857174,12500,1291352,132,1.0,1977,,,4/21/1994 0:00,H90E,H90,E,,,,Wheel Loader - Unidentified,Texas,WL,Wheel Loader,,EROPS,None or Unspecified,,None or Unspecified,,,,,,,,2 Valve,,,,,None or Unspecified,None or Unspecified,,,,,,,,,,,,,Standard,Conventional
23711,1857175,9000,1407936,132,2.0,1978,,,10/3/1998 0:00,H90E,H90,E,,,,Wheel Loader - Unidentified,Pennsylvania,WL,Wheel Loader,,OROPS,None or Unspecified,,None or Unspecified,,,,,,,,2 Valve,,,,,None or Unspecified,None or Unspecified,,,,,,,,,,,,,Standard,Conventional
23711,1857176,8500,1130262,132,1.0,1978,,,3/5/2003 0:00,H90E,H90,E,,,,Wheel Loader - Unidentified,Minnesota,WL,Wheel Loader,,EROPS,None or Unspecified,,None or Unspecified,,,,,,,,2 Valve,,,,,26.5,None or Unspecified,,,,,,,,,,,,,Standard,Conventional
23711,1857177,17000,1431743,132,1.0,1000,,,4/30/1996 0:00,H90E,H90,E,,,,Wheel Loader - Unidentified,Montana,WL,Wheel Loader,,EROPS,None or Unspecified,,None or Unspecified,,,,,,,,2 Valve,,,,,None or Unspecified,None or Unspecified,,,,,,,,,,,,,Standard,Conventional
23711,1857178,14000,1225120,132,1.0,1000,,,6/22/1995 0:00,H90E,H90,E,,,,Wheel Loader - Unidentified,Colorado,WL,Wheel Loader,,EROPS,None or Unspecified,,None or Unspecified,,,,,,,,2 Valve,,,,,None or Unspecified,None or Unspecified,,,,,,,,,,,,,Standard,Conventional
23711,1857179,15500,1225120,132,1.0,1979,,,4/21/1994 0:00,H90E,H90,E,,,,Wheel Loader - Unidentified,Texas,WL,Wheel Loader,,EROPS,None or Unspecified,,None or Unspecified,,,,,,,,2 Valve,,,,,None or Unspecified,None or Unspecified,,,,,,,,,,,,,Standard,Conventional
23711,1857184,9750,1188474,132,21.0,1969,,,3/10/2001 0:00,H90E,H90,E,,,,Wheel Loader - Unidentified,Maine,WL,Wheel Loader,,EROPS,None or Unspecified,,None or Unspecified,,,,,,,,2 Valve,,,,,23.5,None or Unspecified,,,,,,,,,,,,,Standard,Conventional
23711,1857185,21000,1451199,132,2.0,1979,,,2/25/1995 0:00,H90E,H90,E,,,,Wheel Loader - Unidentified,Maine,WL,Wheel Loader,,EROPS,None or Unspecified,,None or Unspecified,,,,,,,,2 Valve,,,,,None or Unspecified,None or Unspecified,,,,,,,,,,,,,Standard,Conventional
23711,1857186,21000,1434614,132,2.0,1979,,,2/25/1995 0:00,H90E,H90,E,,,,Wheel Loader - Unidentified,Maine,WL,Wheel Loader,,EROPS,None or Unspecified,,None or Unspecified,,,,,,,,2 Valve,,,,,None or Unspecified,None or Unspecified,,,,,,,,,,,,,Standard,Conventional
23711,1857187,19500,1206043,132,2.0,1979,,,2/25/1995 0:00,H90E,H90,E,,,,Wheel Loader - Unidentified,Maine,WL,Wheel Loader,,EROPS,None or Unspecified,,None or Unspecified,,,,,,,,2 Valve,,,,,None or Unspecified,None or Unspecified,,,,,,,,,,,,,Standard,Conventional
23711,1857188,8000,1079904,132,2.0,1971,,,11/23/1996 0:00,H90E,H90,E,,,,Wheel Loader - Unidentified,New Jersey,WL,Wheel Loader,,EROPS,None or Unspecified,,None or Unspecified,,,,,,,,2 Valve,,,,,None or Unspecified,None or Unspecified,,,,,,,,,,,,,Standard,Conventional
23711,1857218,11500,1217601,132,1.0,1980,,,3/25/2003 0:00,H90E,H90,E,,,,Wheel Loader - Unidentified,Washington,WL,Wheel Loader,,EROPS,Yes,,None or Unspecified,,,,,,,,2 Valve,,,,,26.5,None or Unspecified,,,,,,,,,,,,,Standard,Conventional
23711,1857219,10000,1136923,132,1.0,1980,,,9/10/1997 0:00,H90E,H90,E,,,,Wheel Loader - Unidentified,New York,WL,Wheel Loader,,EROPS,None or Unspecified,,None or Unspecified,,,,,,,,2 Valve,,,,,None or Unspecified,None or Unspecified,,,,,,,,,,,,,Standard,Conventional
23711,1857289,9000,1505100,132,99.0,1000,,,6/14/1997 0:00,H90E,H90,E,,,,Wheel Loader - Unidentified,Illinois,WL,Wheel Loader,,OROPS,None or Unspecified,,None or Unspecified,,,,,,,,2 Valve,,,,,None or Unspecified,None or Unspecified,,,,,,,,,,,,,Standard,Conventional
23711,1857331,9250,1474557,132,21.0,1000,,,7/29/1995 0:00,H90E,H90,E,,,,Wheel Loader - Unidentified,Maine,WL,Wheel Loader,,EROPS,None or Unspecified,,None or Unspecified,,,,,,,,2 Valve,,,,,None or Unspecified,None or Unspecified,,,,,,,,,,,,,Standard,Conventional
23711,1857405,8500,1231550,132,1.0,1969,,,9/29/1994 0:00,H90E,H90,E,,,,Wheel Loader - Unidentified,Arizona,WL,Wheel Loader,,EROPS,None or Unspecified,,None or Unspecified,,,,,,,,2 Valve,,,,,None or Unspecified,None or Unspecified,,,,,,,,,,,,,Standard,Conventional
23711,1857407,14000,1220257,132,16.0,1000,,,4/27/2000 0:00,H90E,H90,E,,,,Wheel Loader - Unidentified,Illinois,WL,Wheel Loader,,EROPS,None or Unspecified,,None or Unspecified,,,,,,,,2 Valve,,,,,26.5,None or Unspecified,,,,,,,,,,,,,Standard,Conventional
23711,1857408,11500,1134392,132,1.0,1000,,,8/20/1996 0:00,H90E,H90,E,,,,Wheel Loader - Unidentified,Texas,WL,Wheel Loader,,EROPS,None or Unspecified,,None or Unspecified,,,,,,,,2 Valve,,,,,None or Unspecified,None or Unspecified,,,,,,,,,,,,,Standard,Conventional
23711,1857420,12500,1165753,132,5.0,1978,,,4/8/2000 0:00,H90E,H90,E,,,,Wheel Loader - Unidentified,Maine,WL,Wheel Loader,,EROPS,None or Unspecified,,None or Unspecified,,,,,,,,2 Valve,,,,,26.5,None or Unspecified,,,,,,,,,,,,,Standard,Conventional
23711,1857422,20000,1322603,132,5.0,1979,,,11/17/2001 0:00,H90E,H90,E,,,,Wheel Loader - Unidentified,Connecticut,WL,Wheel Loader,,EROPS,None or Unspecified,,None or Unspecified,,,,,,,,2 Valve,,,,,26.5,None or Unspecified,,,,,,,,,,,,,Standard,Conventional
23711,1857427,9000,1546503,132,2.0,1000,,,11/22/2003 0:00,H90E,H90,E,,,,Wheel Loader - Unidentified,New Jersey,WL,Wheel Loader,,EROPS,None or Unspecified,,None or Unspecified,,,,,,,,2 Valve,,,,,None or Unspecified,None or Unspecified,,,,,,,,,,,,,Standard,Conventional
23711,1857428,9000,1483773,132,99.0,1000,,,3/5/2010 0:00,H90E,H90,E,,,,Wheel Loader - Unidentified,Minnesota,WL,Wheel Loader,,EROPS,None or Unspecified,,None or Unspecified,,,,,,,,2 Valve,,,,,None or Unspecified,None or Unspecified,,,,,,,,,,,,,Standard,Conventional
