ModelID,SalesID,SalePrice,MachineID,datasource,auctioneerID,YearMade,MachineHoursCurrentMeter,UsageBand,saledate,fiModelDesc,fiBaseModel,fiSecondaryDesc,fiModelSeries,fiModelDescriptor,ProductSize,fiProductClassDesc,state,ProductGroup,ProductGroupDesc,Drive_System,Enclosure,Forks,Pad_Type,Ride_Control,Stick,Transmission,Turbocharged,Blade_Extension,Blade_Width,Enclosure_Type,Engine_Horsepower,Hydraulics,Pushblock,Ripper,Scarifier,Tip_Control,Tire_Size,Coupler,Coupler_System,Grouser_Tracks,Hydraulics_Flow,Track_Type,Undercarriage_Pad_Width,Stick_Length,Thumb,Pattern_Changer,Grouser_Type,Backhoe_Mounting,Blade_Type,Travel_Controls,Differential_Type,Steering_Controls
23743,1147642,29500,1040876,121,3.0,1996,6125.0,Medium,9/7/2006 0:00,PC220LC6L,PC220,LC,6,L,Large / Medium,"Hydraulic Excavator, Track - 21.0 to 24.0 Metric Tons",Mississippi,TEX,Track Excavators,,EROPS,,,,,,,,,,,Standard,,,,,,None or Unspecified,,,,Steel,None or Unspecified,None or Unspecified,Manual,None or Unspecified,Double,,,,,
23743,1148362,22000,1064766,121,3.0,1000,10863.0,High,11/18/2010 0:00,PC220LC6L,PC220,LC,6,L,Large / Medium,"Hydraulic Excavator, Track - 21.0 to 24.0 Metric Tons",Alabama,TEX,Track Excavators,,EROPS,,,,,,,,,,,Auxiliary,,,,,,Manual,,,,Steel,None or Unspecified,None or Unspecified,Manual,None or Unspecified,Double,,,,,
23743,1151417,28500,1060126,121,3.0,1000,11332.0,Low,5/19/2011 0:00,PC220LC6L,PC220,LC,6,L,Large / Medium,"Hydraulic Excavator, Track - 21.0 to 24.0 Metric Tons",Mississippi,TEX,Track Excavators,,EROPS,,,,,,,,,,,Standard,,,,,,None or Unspecified,,,,Steel,None or Unspecified,None or Unspecified,None or Unspecified,None or Unspecified,Double,,,,,
23743,1153343,28000,1052942,121,3.0,1994,11950.0,Low,7/28/2005 0:00,PC220LC6L,PC220,LC,6,L,Large / Medium,"Hydraulic Excavator, Track - 21.0 to 24.0 Metric Tons",West Virginia,TEX,Track Excavators,,EROPS,,,,,,,,,,,2 Valve,,,,,,Hydraulic,,,,,,,,,,,,,,
23743,1163555,41000,1018554,121,3.0,1995,9639.0,Medium,1/26/2006 0:00,PC220LC6L,PC220,LC,6,L,Large / Medium,"Hydraulic Excavator, Track - 21.0 to 24.0 Metric Tons",Texas,TEX,Track Excavators,,EROPS,,,,,,,,,,,Standard,,,,,,None or Unspecified,,,,Steel,None or Unspecified,None or Unspecified,None or Unspecified,None or Unspecified,Double,,,,,
23743,1164891,30000,1028193,121,3.0,1997,12472.0,High,8/9/2007 0:00,PC220LC6L,PC220,LC,6,L,Large / Medium,"Hydraulic Excavator, Track - 21.0 to 24.0 Metric Tons",West Virginia,TEX,Track Excavators,,EROPS,,,,,,,,,,,Standard,,,,,,None or Unspecified,,,,Steel,None or Unspecified,None or Unspecified,None or Unspecified,None or Unspecified,Double,,,,,
23743,1169740,30000,1015592,121,3.0,1994,7932.0,Medium,11/2/2006 0:00,PC220LC6L,PC220,LC,6,L,Large / Medium,"Hydraulic Excavator, Track - 21.0 to 24.0 Metric Tons",North Carolina,TEX,Track Excavators,,EROPS w AC,,,,,,,,,,,2 Valve,,,,,,None or Unspecified,,,,,,,,,,,,,,
23743,1173789,40000,1051336,121,3.0,1996,0.0,,9/23/2004 0:00,PC220LC6L,PC220,LC,6,L,Large / Medium,"Hydraulic Excavator, Track - 21.0 to 24.0 Metric Tons",Kentucky,TEX,Track Excavators,,EROPS,,,,,,,,,,,Auxiliary,,,,,,None or Unspecified,,,,Steel,32 inch,None or Unspecified,None or Unspecified,None or Unspecified,Double,,,,,
23743,1177780,30500,1028164,121,3.0,1994,11598.0,Medium,3/12/2008 0:00,PC220LC6L,PC220,LC,6,L,Large / Medium,"Hydraulic Excavator, Track - 21.0 to 24.0 Metric Tons",Florida,TEX,Track Excavators,,EROPS,,,,,,,,,,,Standard,,,,,,None or Unspecified,,,,Steel,32 inch,None or Unspecified,None or Unspecified,None or Unspecified,Double,,,,,
23743,1187536,28000,1016292,121,3.0,1000,7483.0,Medium,2/19/2009 0:00,PC220LC6L,PC220,LC,6,L,Large / Medium,"Hydraulic Excavator, Track - 21.0 to 24.0 Metric Tons",Texas,TEX,Track Excavators,,EROPS w AC,,,,,,,,,,,Standard,,,,,,None or Unspecified,,,,Steel,None or Unspecified,None or Unspecified,None or Unspecified,None or Unspecified,Double,,,,,
23743,1765792,19500,1433598,132,1.0,1000,,,10/13/2009 0:00,PC220LC6L,PC220,LC,6,L,Large / Medium,"Hydraulic Excavator, Track - 21.0 to 24.0 Metric Tons",California,TEX,Track Excavators,,EROPS w AC,,,,,,,,,,,Auxiliary,,,,,,None or Unspecified,,,,Steel,None or Unspecified,None or Unspecified,Hydraulic,None or Unspecified,Double,,,,,
23743,1767934,37500,1513711,132,1.0,2000,,,5/22/2007 0:00,PC220LC6L,PC220,LC,6,L,Large / Medium,"Hydraulic Excavator, Track - 21.0 to 24.0 Metric Tons",California,TEX,Track Excavators,,EROPS,,,,,,,,,,,Standard,,,,,,Hydraulic,,,,Steel,None or Unspecified,None or Unspecified,None or Unspecified,None or Unspecified,Double,,,,,
23743,1767980,36000,1511118,132,1.0,1994,,,6/13/2006 0:00,PC220LC6L,PC220,LC,6,L,Large / Medium,"Hydraulic Excavator, Track - 21.0 to 24.0 Metric Tons",California,TEX,Track Excavators,,EROPS w AC,,,,,,,,,,,Standard,,,,,,None or Unspecified,,,,Steel,None or Unspecified,None or Unspecified,None or Unspecified,None or Unspecified,Double,,,,,
23743,1768520,17500,1217469,132,27.0,1994,,,12/29/2006 0:00,PC220LC6L,PC220,LC,6,L,Large / Medium,"Hydraulic Excavator, Track - 21.0 to 24.0 Metric Tons",North Carolina,TEX,Track Excavators,,EROPS w AC,,,,,,,,,,,2 Valve,,,,,,None or Unspecified,,,,,,,,,,,,,,
23743,1768524,30000,1311230,132,4.0,1994,,,2/10/2011 0:00,PC220LC6L,PC220,LC,6,L,Large / Medium,"Hydraulic Excavator, Track - 21.0 to 24.0 Metric Tons",Florida,TEX,Track Excavators,,EROPS w AC,,,,,,,,,,,Standard,,,,,,None or Unspecified,,,,Steel,None or Unspecified,None or Unspecified,None or Unspecified,None or Unspecified,Double,,,,,
23743,1768954,30000,1238383,132,1.0,1995,,,2/28/2007 0:00,PC220LC6L,PC220,LC,6,L,Large / Medium,"Hydraulic Excavator, Track - 21.0 to 24.0 Metric Tons",Texas,TEX,Track Excavators,,EROPS,,,,,,,,,,,Standard,,,,,,None or Unspecified,,,,Steel,None or Unspecified,None or Unspecified,None or Unspecified,None or Unspecified,Double,,,,,
23743,1768971,35000,1446028,132,1.0,1997,,,5/31/2006 0:00,PC220LC6L,PC220,LC,6,L,Large / Medium,"Hydraulic Excavator, Track - 21.0 to 24.0 Metric Tons",Illinois,TEX,Track Excavators,,EROPS,,,,,,,,,,,Standard,,,,,,None or Unspecified,,,,Steel,None or Unspecified,None or Unspecified,None or Unspecified,None or Unspecified,Double,,,,,
23743,1768990,34000,1361905,132,27.0,1996,,,12/29/2006 0:00,PC220LC6L,PC220,LC,6,L,Large / Medium,"Hydraulic Excavator, Track - 21.0 to 24.0 Metric Tons",North Carolina,TEX,Track Excavators,,EROPS,,,,,,,,,,,Standard,,,,,,None or Unspecified,,,,Steel,None or Unspecified,None or Unspecified,None or Unspecified,None or Unspecified,Double,,,,,
23743,1769415,33500,1067818,132,12.0,1996,,,3/20/2008 0:00,PC220LC6L,PC220,LC,6,L,Large / Medium,"Hydraulic Excavator, Track - 21.0 to 24.0 Metric Tons",South Carolina,TEX,Track Excavators,,EROPS,,,,,,,,,,,Standard,,,,,,None or Unspecified,,,,Steel,32 inch,None or Unspecified,Manual,None or Unspecified,Double,,,,,
23743,1769542,57000,1038678,132,8.0,1998,,,11/16/2005 0:00,PC220LC6L,PC220,LC,6,L,Large / Medium,"Hydraulic Excavator, Track - 21.0 to 24.0 Metric Tons",Mississippi,TEX,Track Excavators,,EROPS w AC,,,,,,,,,,,Standard,,,,,,None or Unspecified,,,,Steel,32 inch,None or Unspecified,Manual,None or Unspecified,Double,,,,,
23743,1770446,52500,1094586,132,2.0,1999,,,9/16/2006 0:00,PC220LC6L,PC220,LC,6,L,Large / Medium,"Hydraulic Excavator, Track - 21.0 to 24.0 Metric Tons",New Jersey,TEX,Track Excavators,,EROPS w AC,,,,,,,,,,,Standard,,,,,,None or Unspecified,,,,Steel,None or Unspecified,None or Unspecified,None or Unspecified,None or Unspecified,Double,,,,,
23743,1778850,46000,1519105,132,4.0,1994,,,2/16/2006 0:00,PC220LC6L,PC220,LC,6,L,Large / Medium,"Hydraulic Excavator, Track - 21.0 to 24.0 Metric Tons",Florida,TEX,Track Excavators,,EROPS,,,,,,,,,,,Standard,,,,,,None or Unspecified,,,,Steel,32 inch,None or Unspecified,None or Unspecified,None or Unspecified,Double,,,,,
23743,1778851,26000,1350339,132,1.0,1994,,,3/18/2008 0:00,PC220LC6L,PC220,LC,6,L,Large / Medium,"Hydraulic Excavator, Track - 21.0 to 24.0 Metric Tons",Illinois,TEX,Track Excavators,,EROPS,,,,,,,,,,,Standard,,,,,,None or Unspecified,,,,Steel,None or Unspecified,None or Unspecified,None or Unspecified,None or Unspecified,Double,,,,,
23743,1778852,27000,1157517,132,1.0,1994,,,6/4/2008 0:00,PC220LC6L,PC220,LC,6,L,Large / Medium,"Hydraulic Excavator, Track - 21.0 to 24.0 Metric Tons",Missouri,TEX,Track Excavators,,EROPS,,,,,,,,,,,Standard,,,,,,None or Unspecified,,,,Steel,None or Unspecified,None or Unspecified,None or Unspecified,None or Unspecified,Double,,,,,
23743,1778853,44000,1475187,132,1.0,1994,,,6/22/2006 0:00,PC220LC6L,PC220,LC,6,L,Large / Medium,"Hydraulic Excavator, Track - 21.0 to 24.0 Metric Tons",Colorado,TEX,Track Excavators,,EROPS,,,,,,,,,,,Standard,,,,,,None or Unspecified,,,,Steel,None or Unspecified,None or Unspecified,None or Unspecified,None or Unspecified,Double,,,,,
23743,1778857,37000,1088569,132,1.0,1994,,,6/19/2006 0:00,PC220LC6L,PC220,LC,6,L,Large / Medium,"Hydraulic Excavator, Track - 21.0 to 24.0 Metric Tons",New Mexico,TEX,Track Excavators,,EROPS w AC,,,,,,,,,,,Standard,,,,,,None or Unspecified,,,,Steel,None or Unspecified,None or Unspecified,Hydraulic,None or Unspecified,Double,,,,,
23743,1778867,26000,1415522,132,1.0,1994,,,3/18/2008 0:00,PC220LC6L,PC220,LC,6,L,Large / Medium,"Hydraulic Excavator, Track - 21.0 to 24.0 Metric Tons",Illinois,TEX,Track Excavators,,EROPS,,,,,,,,,,,Standard,,,,,,None or Unspecified,,,,Steel,None or Unspecified,"11' 0""",None or Unspecified,None or Unspecified,Double,,,,,
23743,1778869,35000,1462957,132,1.0,1995,,,3/29/2006 0:00,PC220LC6L,PC220,LC,6,L,Large / Medium,"Hydraulic Excavator, Track - 21.0 to 24.0 Metric Tons",Texas,TEX,Track Excavators,,EROPS,,,,,,,,,,,Standard,,,,,,None or Unspecified,,,,Steel,None or Unspecified,None or Unspecified,None or Unspecified,None or Unspecified,Double,,,,,
23743,1778877,38000,1233004,132,1.0,1995,,,3/30/2007 0:00,PC220LC6L,PC220,LC,6,L,Large / Medium,"Hydraulic Excavator, Track - 21.0 to 24.0 Metric Tons",Nevada,TEX,Track Excavators,,EROPS,,,,,,,,,,,Standard,,,,,,None or Unspecified,,,,Steel,None or Unspecified,None or Unspecified,None or Unspecified,None or Unspecified,Double,,,,,
23743,1778879,32000,1449158,132,5.0,1995,,,11/14/2008 0:00,PC220LC6L,PC220,LC,6,L,Large / Medium,"Hydraulic Excavator, Track - 21.0 to 24.0 Metric Tons",Connecticut,TEX,Track Excavators,,EROPS,,,,,,,,,,,Standard,,,,,,None or Unspecified,,,,Steel,None or Unspecified,None or Unspecified,None or Unspecified,None or Unspecified,Double,,,,,
23743,1778881,22000,1484087,132,1.0,1995,,,6/25/2008 0:00,PC220LC6L,PC220,LC,6,L,Large / Medium,"Hydraulic Excavator, Track - 21.0 to 24.0 Metric Tons",Missouri,TEX,Track Excavators,,EROPS,,,,,,,,,,,Standard,,,,,,None or Unspecified,,,,Steel,None or Unspecified,None or Unspecified,None or Unspecified,None or Unspecified,Double,,,,,
23743,1778883,16000,1276758,132,1.0,1995,,,9/16/2008 0:00,PC220LC6L,PC220,LC,6,L,Large / Medium,"Hydraulic Excavator, Track - 21.0 to 24.0 Metric Tons",Washington,TEX,Track Excavators,,EROPS,,,,,,,,,,,Standard,,,,,,None or Unspecified,,,,Steel,None or Unspecified,None or Unspecified,Hydraulic,None or Unspecified,Double,,,,,
23743,1778888,25000,1211516,132,8.0,1995,,,2/16/2009 0:00,PC220LC6L,PC220,LC,6,L,Large / Medium,"Hydraulic Excavator, Track - 21.0 to 24.0 Metric Tons",Florida,TEX,Track Excavators,,EROPS w AC,,,,,,,,,,,Standard,,,,,,None or Unspecified,,,,Steel,None or Unspecified,None or Unspecified,Manual,None or Unspecified,Double,,,,,
23743,2411796,19500,1380265,136,1.0,1000,0.0,,10/13/2009 0:00,PC220LC6L,PC220,LC,6,L,Large / Medium,"Hydraulic Excavator, Track - 21.0 to 24.0 Metric Tons",California,TEX,Track Excavators,,EROPS w AC,,,,,,,,,,,Auxiliary,,,,,,None or Unspecified,,,,Steel,None or Unspecified,None or Unspecified,Hydraulic,None or Unspecified,Double,,,,,
23743,2414318,26500,1440120,136,1.0,1994,0.0,,4/18/2008 0:00,PC220LC6L,PC220,LC,6,L,Large / Medium,"Hydraulic Excavator, Track - 21.0 to 24.0 Metric Tons",Wisconsin,TEX,Track Excavators,,OROPS,,,,,,,,,,,Standard,,,,,,None or Unspecified,,,,,,,,,,,,,,
23743,2414323,25000,1000481,136,1.0,1000,0.0,,5/20/2008 0:00,PC220LC6L,PC220,LC,6,L,Large / Medium,"Hydraulic Excavator, Track - 21.0 to 24.0 Metric Tons",California,TEX,Track Excavators,,EROPS,,,,,,,,,,,Standard,,,,,,Hydraulic,,,,Steel,36 inch,None or Unspecified,None or Unspecified,None or Unspecified,Double,,,,,
23743,2414324,22000,1424902,136,1.0,1000,0.0,,3/24/2010 0:00,PC220LC6L,PC220,LC,6,L,Large / Medium,"Hydraulic Excavator, Track - 21.0 to 24.0 Metric Tons",Connecticut,TEX,Track Excavators,,EROPS w AC,,,,,,,,,,,Standard,,,,,,Manual,,,,Steel,None or Unspecified,None or Unspecified,None or Unspecified,None or Unspecified,Double,,,,,
23743,2414330,21000,1300909,136,,1000,422200.0,High,4/24/2009 0:00,PC220LC6L,PC220,LC,6,L,Large / Medium,"Hydraulic Excavator, Track - 21.0 to 24.0 Metric Tons",Maryland,TEX,Track Excavators,,EROPS,,,,,,,,,,,Standard,,,,,,None or Unspecified,,,,Steel,None or Unspecified,None or Unspecified,None or Unspecified,None or Unspecified,Double,,,,,
23743,2414366,21000,1167953,136,1.0,1000,0.0,,3/23/2010 0:00,PC220LC6L,PC220,LC,6,L,Large / Medium,"Hydraulic Excavator, Track - 21.0 to 24.0 Metric Tons",North Carolina,TEX,Track Excavators,,EROPS w AC,,,,,,,,,,,Auxiliary,,,,,,None or Unspecified,,,,Steel,None or Unspecified,None or Unspecified,Manual,None or Unspecified,Double,,,,,
23743,2414371,24000,1167814,136,1.0,1000,0.0,,6/3/2008 0:00,PC220LC6L,PC220,LC,6,L,Large / Medium,"Hydraulic Excavator, Track - 21.0 to 24.0 Metric Tons",Pennsylvania,TEX,Track Excavators,,EROPS,,,,,,,,,,,Standard,,,,,,Manual,,,,Steel,None or Unspecified,None or Unspecified,None or Unspecified,None or Unspecified,Double,,,,,
23743,2414376,26000,1166921,136,7.0,1000,0.0,,3/18/2008 0:00,PC220LC6L,PC220,LC,6,L,Large / Medium,"Hydraulic Excavator, Track - 21.0 to 24.0 Metric Tons",Illinois,TEX,Track Excavators,,EROPS,,,,,,,,,,,Auxiliary,,,,,,None or Unspecified,,,,Steel,36 inch,None or Unspecified,None or Unspecified,None or Unspecified,Triple,,,,,
23743,2414387,33000,55405,136,2.0,1996,0.0,,2/3/2008 0:00,PC220LC6L,PC220,LC,6,L,Large / Medium,"Hydraulic Excavator, Track - 21.0 to 24.0 Metric Tons",Florida,TEX,Track Excavators,,EROPS,,,,,,,,,,,Standard,,,,,,None or Unspecified,,,,Steel,None or Unspecified,None or Unspecified,None or Unspecified,None or Unspecified,Double,,,,,
23743,2414419,27000,1461943,136,1.0,1000,0.0,,6/28/2008 0:00,PC220LC6L,PC220,LC,6,L,Large / Medium,"Hydraulic Excavator, Track - 21.0 to 24.0 Metric Tons",New Jersey,TEX,Track Excavators,,EROPS w AC,,,,,,,,,,,Standard,,,,,,Manual,,,,Steel,36 inch,None or Unspecified,Hydraulic,None or Unspecified,Triple,,,,,
23743,2414422,27000,418015,136,1.0,1000,0.0,,6/4/2008 0:00,PC220LC6L,PC220,LC,6,L,Large / Medium,"Hydraulic Excavator, Track - 21.0 to 24.0 Metric Tons",Missouri,TEX,Track Excavators,,EROPS w AC,,,,,,,,,,,Auxiliary,,,,,,None or Unspecified,,,,Steel,None or Unspecified,"10' 6""",None or Unspecified,None or Unspecified,Double,,,,,
23743,2414480,17000,1526762,136,1.0,1000,0.0,,3/3/2009 0:00,PC220LC6L,PC220,LC,6,L,Large / Medium,"Hydraulic Excavator, Track - 21.0 to 24.0 Metric Tons",California,TEX,Track Excavators,,EROPS w AC,,,,,,,,,,,Auxiliary,,,,,,None or Unspecified,,,,Steel,None or Unspecified,None or Unspecified,None or Unspecified,None or Unspecified,Double,,,,,
23743,2414493,30000,866492,136,1.0,1000,0.0,,7/9/2008 0:00,PC220LC6L,PC220,LC,6,L,Large / Medium,"Hydraulic Excavator, Track - 21.0 to 24.0 Metric Tons",Texas,TEX,Track Excavators,,EROPS w AC,,,,,,,,,,,Standard,,,,,,None or Unspecified,,,,Steel,None or Unspecified,"11' 10""",None or Unspecified,None or Unspecified,Double,,,,,
23743,2414495,24000,1194069,136,1.0,1000,0.0,,6/19/2008 0:00,PC220LC6L,PC220,LC,6,L,Large / Medium,"Hydraulic Excavator, Track - 21.0 to 24.0 Metric Tons",Arizona,TEX,Track Excavators,,EROPS,,,,,,,,,,,Standard,,,,,,None or Unspecified,,,,Steel,None or Unspecified,None or Unspecified,None or Unspecified,None or Unspecified,Double,,,,,
23743,2414534,22500,1310820,136,2.0,1000,0.0,,9/27/2008 0:00,PC220LC6L,PC220,LC,6,L,Large / Medium,"Hydraulic Excavator, Track - 21.0 to 24.0 Metric Tons",New Jersey,TEX,Track Excavators,,EROPS,,,,,,,,,,,Standard,,,,,,None or Unspecified,,,,Steel,None or Unspecified,None or Unspecified,None or Unspecified,None or Unspecified,Double,,,,,
23743,2414535,19000,1310820,136,2.0,1993,0.0,,3/27/2008 0:00,PC220LC6L,PC220,LC,6,L,Large / Medium,"Hydraulic Excavator, Track - 21.0 to 24.0 Metric Tons",New Jersey,TEX,Track Excavators,,EROPS,,,,,,,,,,,Standard,,,,,,None or Unspecified,,,,Steel,None or Unspecified,None or Unspecified,None or Unspecified,None or Unspecified,Double,,,,,
23743,2414539,26000,1215268,136,1.0,1000,0.0,,3/18/2008 0:00,PC220LC6L,PC220,LC,6,L,Large / Medium,"Hydraulic Excavator, Track - 21.0 to 24.0 Metric Tons",Illinois,TEX,Track Excavators,,EROPS,,,,,,,,,,,Standard,,,,,,Manual,,,,Steel,None or Unspecified,"11' 0""",None or Unspecified,None or Unspecified,Double,,,,,
23743,2414540,30000,1215268,136,1.0,1000,0.0,,12/5/2007 0:00,PC220LC6L,PC220,LC,6,L,Large / Medium,"Hydraulic Excavator, Track - 21.0 to 24.0 Metric Tons",Illinois,TEX,Track Excavators,,EROPS,,,,,,,,,,,Standard,,,,,,Manual,,,,Steel,None or Unspecified,"11' 0""",None or Unspecified,None or Unspecified,Double,,,,,
23743,2414546,13500,1429714,136,13.0,1000,15779.0,High,6/19/2010 0:00,PC220LC6L,PC220,LC,6,L,Large / Medium,"Hydraulic Excavator, Track - 21.0 to 24.0 Metric Tons",Tennessee,TEX,Track Excavators,,EROPS w AC,,,,,,,,,,,Standard,,,,,,Manual,,,,Steel,None or Unspecified,"10' 6""",None or Unspecified,None or Unspecified,Double,,,,,
23743,2414550,21000,1087144,136,,1000,0.0,,9/24/2008 0:00,PC220LC6L,PC220,LC,6,L,Large / Medium,"Hydraulic Excavator, Track - 21.0 to 24.0 Metric Tons",Texas,TEX,Track Excavators,,EROPS w AC,,,,,,,,,,,Standard,,,,,,None or Unspecified,,,,Steel,None or Unspecified,None or Unspecified,None or Unspecified,None or Unspecified,Double,,,,,
23743,2414565,33000,128549,136,2.0,1993,0.0,,3/27/2008 0:00,PC220LC6L,PC220,LC,6,L,Large / Medium,"Hydraulic Excavator, Track - 21.0 to 24.0 Metric Tons",New Jersey,TEX,Track Excavators,,EROPS,,,,,,,,,,,Standard,,,,,,None or Unspecified,,,,Steel,None or Unspecified,"9' 7""",None or Unspecified,None or Unspecified,Double,,,,,
23743,2414607,32000,1769968,136,,1000,0.0,,11/14/2008 0:00,PC220LC6L,PC220,LC,6,L,Large / Medium,"Hydraulic Excavator, Track - 21.0 to 24.0 Metric Tons",Connecticut,TEX,Track Excavators,,EROPS,,,,,,,,,,,Standard,,,,,,None or Unspecified,,,,Steel,None or Unspecified,None or Unspecified,None or Unspecified,None or Unspecified,Double,,,,,
23743,2414608,39000,197745,136,1.0,1000,0.0,,3/13/2008 0:00,PC220LC6L,PC220,LC,6,L,Large / Medium,"Hydraulic Excavator, Track - 21.0 to 24.0 Metric Tons",Nevada,TEX,Track Excavators,,EROPS w AC,,,,,,,,,,,Standard,,,,,,None or Unspecified,,,,Steel,None or Unspecified,None or Unspecified,Manual,None or Unspecified,Double,,,,,
23743,2414612,22000,385489,136,1.0,1000,0.0,,6/25/2008 0:00,PC220LC6L,PC220,LC,6,L,Large / Medium,"Hydraulic Excavator, Track - 21.0 to 24.0 Metric Tons",Missouri,TEX,Track Excavators,,EROPS w AC,,,,,,,,,,,Standard,,,,,,Manual,,,,Steel,None or Unspecified,"10' 6""",None or Unspecified,None or Unspecified,Double,,,,,
23743,2414625,26000,1427299,136,1.0,1000,0.0,,4/2/2008 0:00,PC220LC6L,PC220,LC,6,L,Large / Medium,"Hydraulic Excavator, Track - 21.0 to 24.0 Metric Tons",Maryland,TEX,Track Excavators,,EROPS w AC,,,,,,,,,,,Auxiliary,,,,,,Manual,,,,Steel,None or Unspecified,"11' 0""",None or Unspecified,None or Unspecified,Double,,,,,
23743,2414628,16000,1323826,136,1.0,1996,0.0,,9/16/2008 0:00,PC220LC6L,PC220,LC,6,L,Large / Medium,"Hydraulic Excavator, Track - 21.0 to 24.0 Metric Tons",Washington,TEX,Track Excavators,,EROPS,,,,,,,,,,,Auxiliary,,,,,,None or Unspecified,,,,Steel,None or Unspecified,None or Unspecified,Hydraulic,None or Unspecified,Double,,,,,
23743,2414632,17000,1368459,136,13.0,1000,9022.0,Medium,12/12/2009 0:00,PC220LC6L,PC220,LC,6,L,Large / Medium,"Hydraulic Excavator, Track - 21.0 to 24.0 Metric Tons",Tennessee,TEX,Track Excavators,,EROPS w AC,,,,,,,,,,,Standard,,,,,,None or Unspecified,,,,Steel,None or Unspecified,None or Unspecified,Manual,None or Unspecified,Double,,,,,
23743,2414635,19000,1497655,136,1.0,1000,0.0,,5/13/2009 0:00,PC220LC6L,PC220,LC,6,L,Large / Medium,"Hydraulic Excavator, Track - 21.0 to 24.0 Metric Tons",Illinois,TEX,Track Excavators,,EROPS,,,,,,,,,,,Auxiliary,,,,,,None or Unspecified,,,,Steel,32 inch,"11' 0""",None or Unspecified,None or Unspecified,Double,,,,,
23743,2414650,21000,1703392,136,,1996,0.0,,6/30/2007 0:00,PC220LC6L,PC220,LC,6,L,Large / Medium,"Hydraulic Excavator, Track - 21.0 to 24.0 Metric Tons",New York,TEX,Track Excavators,,EROPS w AC,,,,,,,,,,,Standard,,,,,,None or Unspecified,,,,Steel,None or Unspecified,None or Unspecified,None or Unspecified,None or Unspecified,Double,,,,,
23743,2414653,26000,1311599,136,8.0,1000,0.0,,2/13/2009 0:00,PC220LC6L,PC220,LC,6,L,Large / Medium,"Hydraulic Excavator, Track - 21.0 to 24.0 Metric Tons",Florida,TEX,Track Excavators,,EROPS w AC,,,,,,,,,,,Standard,,,,,,None or Unspecified,,,,Steel,32 inch,None or Unspecified,Manual,None or Unspecified,Double,,,,,
23743,2414662,19000,1476282,136,1.0,1000,0.0,,11/18/2008 0:00,PC220LC6L,PC220,LC,6,L,Large / Medium,"Hydraulic Excavator, Track - 21.0 to 24.0 Metric Tons",California,TEX,Track Excavators,,EROPS w AC,,,,,,,,,,,Auxiliary,,,,,,None or Unspecified,,,,Steel,None or Unspecified,None or Unspecified,None or Unspecified,None or Unspecified,Double,,,,,
23743,2414723,37500,1235346,136,1.0,1000,0.0,,3/5/2008 0:00,PC220LC6L,PC220,LC,6,L,Large / Medium,"Hydraulic Excavator, Track - 21.0 to 24.0 Metric Tons",Texas,TEX,Track Excavators,,EROPS,,,,,,,,,,,Standard,,,,,,None or Unspecified,,,,Steel,None or Unspecified,"9' 6""",None or Unspecified,None or Unspecified,Double,,,,,
23743,2414814,18500,1718663,136,,1000,0.0,,12/16/2008 0:00,PC220LC6L,PC220,LC,6,L,Large / Medium,"Hydraulic Excavator, Track - 21.0 to 24.0 Metric Tons",Maryland,TEX,Track Excavators,,EROPS w AC,,,,,,,,,,,Standard,,,,,,None or Unspecified,,,,Steel,None or Unspecified,None or Unspecified,None or Unspecified,None or Unspecified,Double,,,,,
23743,2414937,33000,1339720,136,1.0,1999,0.0,,11/28/2007 0:00,PC220LC6L,PC220,LC,6,L,Large / Medium,"Hydraulic Excavator, Track - 21.0 to 24.0 Metric Tons",Washington,TEX,Track Excavators,,EROPS w AC,,,,,,,,,,,Auxiliary,,,,,,Hydraulic,,,,Steel,None or Unspecified,"10' 6""",Hydraulic,None or Unspecified,Double,,,,,
23743,2415006,37500,1110319,136,8.0,1997,0.0,,9/24/2008 0:00,PC220LC6L,PC220,LC,6,L,Large / Medium,"Hydraulic Excavator, Track - 21.0 to 24.0 Metric Tons",South Carolina,TEX,Track Excavators,,EROPS w AC,,,,,,,,,,,Standard,,,,,,None or Unspecified,,,,Steel,None or Unspecified,None or Unspecified,Manual,None or Unspecified,Double,,,,,
23743,2415167,42000,1221559,136,1.0,1999,0.0,,7/11/2007 0:00,PC220LC6L,PC220,LC,6,L,Large / Medium,"Hydraulic Excavator, Track - 21.0 to 24.0 Metric Tons",Texas,TEX,Track Excavators,,EROPS w AC,,,,,,,,,,,Auxiliary,,,,,,None or Unspecified,,,,Steel,None or Unspecified,"9' 6""",None or Unspecified,None or Unspecified,Double,,,,,
23743,2700242,37000,1463359,149,1.0,1996,18860.0,High,6/2/2011 0:00,PC220LC6L,PC220,LC,6,L,Large / Medium,"Hydraulic Excavator, Track - 21.0 to 24.0 Metric Tons",Tennessee,TEX,Track Excavators,,EROPS w AC,,,,,,,,,,,Auxiliary,,,,,,None or Unspecified,,,,Steel,None or Unspecified,None or Unspecified,None or Unspecified,None or Unspecified,Double,,,,,
23743,2700256,24000,1309686,149,1.0,1996,16268.0,High,4/19/2011 0:00,PC220LC6L,PC220,LC,6,L,Large / Medium,"Hydraulic Excavator, Track - 21.0 to 24.0 Metric Tons",Utah,TEX,Track Excavators,,EROPS,,,,,,,,,,,Standard,,,,,,None or Unspecified,,,,Steel,None or Unspecified,None or Unspecified,None or Unspecified,None or Unspecified,Double,,,,,
23743,4359202,27000,1278117,172,1.0,1994,2333.0,Low,3/18/2011 0:00,PC220LC6L,PC220,LC,6,L,Large / Medium,"Hydraulic Excavator, Track - 21.0 to 24.0 Metric Tons",Mississippi,TEX,Track Excavators,,EROPS w AC,,,,,,,,,,,Standard,,,,,,None or Unspecified,,,,Steel,None or Unspecified,"10' 2""",Manual,None or Unspecified,Double,,,,,
23743,4359241,30000,1452263,172,1.0,1994,10517.0,Medium,2/15/2011 0:00,PC220LC6L,PC220,LC,6,L,Large / Medium,"Hydraulic Excavator, Track - 21.0 to 24.0 Metric Tons",Florida,TEX,Track Excavators,,EROPS,,,,,,,,,,,Standard,,,,,,None or Unspecified,,,,Steel,None or Unspecified,"10' 6""",None or Unspecified,None or Unspecified,Double,,,,,
23743,4359249,26000,1063007,172,1.0,1994,5342.0,Low,2/15/2011 0:00,PC220LC6L,PC220,LC,6,L,Large / Medium,"Hydraulic Excavator, Track - 21.0 to 24.0 Metric Tons",Florida,TEX,Track Excavators,,EROPS w AC,,,,,,,,,,,Auxiliary,,,,,,Hydraulic,,,,Steel,32 inch,"11' 0""",Hydraulic,None or Unspecified,Double,,,,,
23743,4359251,22000,1268327,172,1.0,1996,7299.0,Medium,3/9/2011 0:00,PC220LC6L,PC220,LC,6,L,Large / Medium,"Hydraulic Excavator, Track - 21.0 to 24.0 Metric Tons",Texas,TEX,Track Excavators,,EROPS w AC,,,,,,,,,,,Standard,,,,,,None or Unspecified,,,,Steel,None or Unspecified,"9' 6""",None or Unspecified,None or Unspecified,Triple,,,,,
23743,4359256,27000,973595,172,1.0,1994,7924.0,Medium,8/6/2010 0:00,PC220LC6L,PC220,LC,6,L,Large / Medium,"Hydraulic Excavator, Track - 21.0 to 24.0 Metric Tons",Nevada,TEX,Track Excavators,,EROPS w AC,,,,,,,,,,,Auxiliary,,,,,,Manual,,,,Steel,None or Unspecified,None or Unspecified,Hydraulic,None or Unspecified,Double,,,,,
23743,4359315,28000,1287827,172,1.0,1995,13269.0,Medium,2/9/2011 0:00,PC220LC6L,PC220,LC,6,L,Large / Medium,"Hydraulic Excavator, Track - 21.0 to 24.0 Metric Tons",Texas,TEX,Track Excavators,,EROPS w AC,,,,,,,,,,,Standard,,,,,,None or Unspecified,,,,Steel,None or Unspecified,None or Unspecified,None or Unspecified,None or Unspecified,Double,,,,,
23743,4359316,25000,1348881,172,1.0,1996,11097.0,Medium,7/29/2010 0:00,PC220LC6L,PC220,LC,6,L,Large / Medium,"Hydraulic Excavator, Track - 21.0 to 24.0 Metric Tons",Washington,TEX,Track Excavators,,EROPS,,,,,,,,,,,Standard,,,,,,None or Unspecified,,,,Steel,None or Unspecified,None or Unspecified,None or Unspecified,None or Unspecified,Double,,,,,
23743,4359637,41000,1530396,172,1.0,2002,7799.0,Medium,12/1/2010 0:00,PC220LC6L,PC220,LC,6,L,Large / Medium,"Hydraulic Excavator, Track - 21.0 to 24.0 Metric Tons",Texas,TEX,Track Excavators,,EROPS w AC,,,,,,,,,,,Standard,,,,,,None or Unspecified,,,,Steel,None or Unspecified,None or Unspecified,None or Unspecified,None or Unspecified,Double,,,,,
23743,6304387,23000,1516439,149,1.0,1994,,,12/8/2011 0:00,PC220LC6L,PC220,LC,6,L,Large / Medium,"Hydraulic Excavator, Track - 21.0 to 24.0 Metric Tons",Texas,TEX,Track Excavators,,EROPS w AC,,,,,,,,,,,Auxiliary,,,,,,None or Unspecified,,,,Steel,None or Unspecified,"11' 0""",None or Unspecified,None or Unspecified,Double,,,,,
23743,6304398,29000,1201123,149,12.0,1994,,,9/21/2011 0:00,PC220LC6L,PC220,LC,6,L,Large / Medium,"Hydraulic Excavator, Track - 21.0 to 24.0 Metric Tons",South Carolina,TEX,Track Excavators,,EROPS w AC,,,,,,,,,,,Standard,,,,,,Hydraulic,,,,Steel,None or Unspecified,"11' 0""",None or Unspecified,None or Unspecified,Double,,,,,
23743,6304410,24000,1536805,149,1.0,1995,,,12/8/2011 0:00,PC220LC6L,PC220,LC,6,L,Large / Medium,"Hydraulic Excavator, Track - 21.0 to 24.0 Metric Tons",Texas,TEX,Track Excavators,,EROPS,,,,,,,,,,,Standard,,,,,,None or Unspecified,,,,Steel,None or Unspecified,None or Unspecified,None or Unspecified,None or Unspecified,Double,,,,,
23743,6304412,24000,1537447,149,1.0,1995,,,12/8/2011 0:00,PC220LC6L,PC220,LC,6,L,Large / Medium,"Hydraulic Excavator, Track - 21.0 to 24.0 Metric Tons",Texas,TEX,Track Excavators,,EROPS,,,,,,,,,,,Standard,,,,,,None or Unspecified,,,,Steel,None or Unspecified,"10' 10""",None or Unspecified,None or Unspecified,Double,,,,,
23743,6304415,27000,1912526,149,99.0,1996,,,7/20/2011 0:00,PC220LC6L,PC220,LC,6,L,Large / Medium,"Hydraulic Excavator, Track - 21.0 to 24.0 Metric Tons",Colorado,TEX,Track Excavators,,EROPS,,,,,,,,,,,Standard,,,,,,None or Unspecified,,,,Steel,27 inch,None or Unspecified,Manual,None or Unspecified,Triple,,,,,
