SalesID,1186482
SalePrice,58000
MachineID,1026114
datasource,121
auctioneerID,3.0
YearMade,2001
MachineHoursCurrentMeter,7602.0
UsageBand,High
saledate,12/18/2008 0:00
fiModelDesc,G720AVHP
fiBaseModel,G720
fiSecondaryDesc,A
fiModelSeries,
fiModelDescriptor,VHP
ProductSize,
fiProductClassDesc,Motorgrader - 200.0 + Horsepower
state,Colorado
ProductGroup,MG
ProductGroupDesc,Motor Graders
Drive_System,No
Enclosure,EROPS w AC
Forks,
Pad_Type,
Ride_Control,
Stick,
Transmission,Powershift
Turbocharged,
Blade_Extension,None or Unspecified
Blade_Width,14'
Enclosure_Type,None or Unspecified
Engine_Horsepower,No
Hydraulics,Base + 1 Function
Pushblock,None or Unspecified
Ripper,Yes
Scarifier,None or Unspecified
Tip_Control,None or Unspecified
Tire_Size,"14"""
Coupler,
Coupler_System,
Grouser_Tracks,
Hydraulics_Flow,
Track_Type,
Undercarriage_Pad_Width,
Stick_Length,
Thumb,
Pattern_Changer,
Grouser_Type,
Backhoe_Mounting,
Blade_Type,
Travel_Controls,
Differential_Type,
Steering_Controls,
