ModelID,SalesID,SalePrice,MachineID,datasource,auctioneerID,YearMade,MachineHoursCurrentMeter,UsageBand,saledate,fiModelDesc,fiBaseModel,fiSecondaryDesc,fiModelSeries,fiModelDescriptor,ProductSize,fiProductClassDesc,state,ProductGroup,ProductGroupDesc,Drive_System,Enclosure,Forks,Pad_Type,Ride_Control,Stick,Transmission,Turbocharged,Blade_Extension,Blade_Width,Enclosure_Type,Engine_Horsepower,Hydraulics,Pushblock,Ripper,Scarifier,Tip_Control,Tire_Size,Coupler,Coupler_System,Grouser_Tracks,Hydraulics_Flow,Track_Type,Undercarriage_Pad_Width,Stick_Length,Thumb,Pattern_Changer,Grouser_Type,Backhoe_Mounting,Blade_Type,Travel_Controls,Differential_Type,Steering_Controls
23920,1147970,94000,613540,121,3.0,2003,4303.0,Medium,2/3/2011 0:00,120HNA,120,H,,,,Motorgrader - 45.0 to 130.0 Horsepower,Texas,MG,Motor Graders,No,EROPS w AC,,,,,Powershift,,None or Unspecified,12',None or Unspecified,Variable,Base + 1 Function,Yes,None or Unspecified,Yes,None or Unspecified,None or Unspecified,,,,,,,,,,,,,,,
23920,1149966,68000,911265,121,3.0,2000,3813.0,Medium,4/22/2010 0:00,120HNA,120,H,,,,Motorgrader - 45.0 to 130.0 Horsepower,Kentucky,MG,Motor Graders,No,EROPS w AC,,,,,Powershift,,None or Unspecified,None or Unspecified,None or Unspecified,No,Base + 1 Function,None or Unspecified,None or Unspecified,None or Unspecified,None or Unspecified,"14""",,,,,,,,,,,,,,,
23920,1164410,131000,793194,121,3.0,2007,928.0,Low,2/25/2010 0:00,120HNA,120,H,,,,Motorgrader - 45.0 to 130.0 Horsepower,Florida,MG,Motor Graders,No,EROPS w AC,,,,,Powershift,,None or Unspecified,None or Unspecified,High Profile,No,Base + 1 Function,None or Unspecified,None or Unspecified,Yes,None or Unspecified,"17.5""",,,,,,,,,,,,,,,
23920,1174587,78000,991141,121,3.0,2001,11074.0,High,12/16/2004 0:00,120HNA,120,H,,,,Motorgrader - 45.0 to 130.0 Horsepower,Utah,MG,Motor Graders,No,EROPS,,,,,Powershift,,None or Unspecified,14',High Profile,Variable,Base + 1 Function,None or Unspecified,None or Unspecified,None or Unspecified,None or Unspecified,None or Unspecified,,,,,,,,,,,,,,,
23920,1179305,75000,109024,121,3.0,1996,11981.0,High,5/15/2008 0:00,120HNA,120,H,,,,Motorgrader - 45.0 to 130.0 Horsepower,North Carolina,MG,Motor Graders,No,EROPS,,,,,Powershift,,None or Unspecified,None or Unspecified,None or Unspecified,No,Base + 1 Function,None or Unspecified,None or Unspecified,Yes,None or Unspecified,"14""",,,,,,,,,,,,,,,
23920,1189213,83000,63473,121,3.0,2005,4017.0,High,4/16/2009 0:00,120HNA,120,H,,,,Motorgrader - 45.0 to 130.0 Horsepower,Louisiana,MG,Motor Graders,No,EROPS w AC,,,,,Powershift,,None or Unspecified,12',None or Unspecified,No,Base + 1 Function,None or Unspecified,None or Unspecified,Yes,None or Unspecified,"14""",,,,,,,,,,,,,,,
23920,1190061,61000,765597,121,3.0,2002,4369.0,Medium,6/11/2009 0:00,120HNA,120,H,,,,Motorgrader - 45.0 to 130.0 Horsepower,Florida,MG,Motor Graders,No,EROPS w AC,,,,,Powershift,,None or Unspecified,None or Unspecified,High Profile,Variable,Base + 1 Function,None or Unspecified,None or Unspecified,Yes,None or Unspecified,"15.5""",,,,,,,,,,,,,,,
23920,1190302,55000,17976,121,3.0,1996,5556.0,Medium,5/14/2009 0:00,120HNA,120,H,,,,Motorgrader - 45.0 to 130.0 Horsepower,Oklahoma,MG,Motor Graders,No,EROPS w AC,,,,,Powershift,,None or Unspecified,None or Unspecified,None or Unspecified,No,Base + 1 Function,None or Unspecified,None or Unspecified,None or Unspecified,None or Unspecified,"14""",,,,,,,,,,,,,,,
23920,1200147,95000,802135,121,3.0,2005,3441.0,Medium,4/1/2010 0:00,120HNA,120,H,,,,Motorgrader - 45.0 to 130.0 Horsepower,Florida,MG,Motor Graders,No,EROPS w AC,,,,,Powershift,,None or Unspecified,14',High Profile,No,Base + 1 Function,None or Unspecified,None or Unspecified,Yes,None or Unspecified,"17.5""",,,,,,,,,,,,,,,
23920,1200148,97000,785694,121,3.0,2005,1864.0,Medium,4/1/2010 0:00,120HNA,120,H,,,,Motorgrader - 45.0 to 130.0 Horsepower,Florida,MG,Motor Graders,No,EROPS w AC,,,,,Powershift,,None or Unspecified,14',High Profile,No,Base + 1 Function,None or Unspecified,None or Unspecified,Yes,None or Unspecified,"17.5""",,,,,,,,,,,,,,,
23920,1204498,51000,593161,121,3.0,1997,770.0,Low,7/22/2010 0:00,120HNA,120,H,,,,Motorgrader - 45.0 to 130.0 Horsepower,Texas,MG,Motor Graders,No,OROPS,,,,,None or Unspecified,,None or Unspecified,12',High Profile,No,Base + 1 Function,Yes,None or Unspecified,Yes,None or Unspecified,None or Unspecified,,,,,,,,,,,,,,,
23920,1205032,83000,1019046,121,3.0,2000,5573.0,Medium,7/22/2010 0:00,120HNA,120,H,,,,Motorgrader - 45.0 to 130.0 Horsepower,Florida,MG,Motor Graders,No,EROPS w AC,,,,,Powershift,,None or Unspecified,12',None or Unspecified,Variable,Base + 1 Function,None or Unspecified,None or Unspecified,Yes,None or Unspecified,"14""",,,,,,,,,,,,,,,
23920,1205704,75000,1050964,121,3.0,1998,5254.0,Medium,8/19/2010 0:00,120HNA,120,H,,,,Motorgrader - 45.0 to 130.0 Horsepower,Missouri,MG,Motor Graders,No,EROPS w AC,,,,,None or Unspecified,,None or Unspecified,14',None or Unspecified,Variable,Base + 1 Function,None or Unspecified,None or Unspecified,None or Unspecified,None or Unspecified,"14""",,,,,,,,,,,,,,,
23920,1206235,71000,112221,121,3.0,1997,,,9/23/2010 0:00,120HNA,120,H,,,,Motorgrader - 45.0 to 130.0 Horsepower,North Carolina,MG,Motor Graders,No,EROPS,,,,,Powershift,,None or Unspecified,12',None or Unspecified,No,Base + 1 Function,None or Unspecified,None or Unspecified,Yes,None or Unspecified,"14""",,,,,,,,,,,,,,,
23920,1207763,55000,14246,121,3.0,1995,4001.0,Low,10/7/2010 0:00,120HNA,120,H,,,,Motorgrader - 45.0 to 130.0 Horsepower,Georgia,MG,Motor Graders,No,EROPS,,,,,None or Unspecified,,None or Unspecified,12',None or Unspecified,No,Base + 1 Function,Yes,None or Unspecified,None or Unspecified,Sideshift & Tip,"14""",,,,,,,,,,,,,,,
23920,1215127,78000,118033,121,3.0,1997,,,6/23/2011 0:00,120HNA,120,H,,,,Motorgrader - 45.0 to 130.0 Horsepower,North Carolina,MG,Motor Graders,No,EROPS w AC,,,,,None or Unspecified,,None or Unspecified,12',None or Unspecified,No,Base + 1 Function,None or Unspecified,None or Unspecified,Yes,None or Unspecified,"14""",,,,,,,,,,,,,,,
23920,1215128,85000,126945,121,3.0,1000,11250.0,Medium,6/23/2011 0:00,120HNA,120,H,,,,Motorgrader - 45.0 to 130.0 Horsepower,North Carolina,MG,Motor Graders,No,EROPS,,,,,None or Unspecified,,None or Unspecified,12',None or Unspecified,No,Base + 1 Function,None or Unspecified,None or Unspecified,Yes,None or Unspecified,"14""",,,,,,,,,,,,,,,
23920,1215134,73000,113210,121,3.0,1999,3227.0,Low,6/23/2011 0:00,120HNA,120,H,,,,Motorgrader - 45.0 to 130.0 Horsepower,North Carolina,MG,Motor Graders,No,EROPS,,,,,None or Unspecified,,None or Unspecified,12',None or Unspecified,No,Base + 1 Function,None or Unspecified,None or Unspecified,Yes,None or Unspecified,"14""",,,,,,,,,,,,,,,
23920,1217720,73000,20378,121,3.0,1000,1634.0,Low,9/15/2011 0:00,120HNA,120,H,,,,Motorgrader - 45.0 to 130.0 Horsepower,Alabama,MG,Motor Graders,No,OROPS,,,,,None or Unspecified,,None or Unspecified,12',High Profile,No,Base + 1 Function,None or Unspecified,None or Unspecified,Yes,None or Unspecified,None or Unspecified,,,,,,,,,,,,,,,
23920,1378700,53000,413291,132,8.0,1995,,,5/26/2010 0:00,120HNA,120,H,,,,Motorgrader - 45.0 to 130.0 Horsepower,Mississippi,MG,Motor Graders,No,EROPS w AC,,,,,None or Unspecified,,None or Unspecified,None or Unspecified,Low Profile,Variable,Base + 1 Function,None or Unspecified,Yes,Yes,Sideshift & Tip,None or Unspecified,,,,,,,,,,,,,,,
23920,1378702,56000,1283622,132,1.0,1995,,,8/28/2001 0:00,120HNA,120,H,,,,Motorgrader - 45.0 to 130.0 Horsepower,Missouri,MG,Motor Graders,No,EROPS w AC,,,,,None or Unspecified,,None or Unspecified,12',None or Unspecified,No,Base + 1 Function,None or Unspecified,None or Unspecified,Yes,None or Unspecified,"14""",,,,,,,,,,,,,,,
23920,1378703,115000,585076,132,6.0,1995,,,3/13/1997 0:00,120HNA,120,H,,,,Motorgrader - 45.0 to 130.0 Horsepower,Florida,MG,Motor Graders,No,EROPS w AC,,,,,None or Unspecified,,None or Unspecified,None or Unspecified,Low Profile,No,Base + 1 Function,None or Unspecified,None or Unspecified,Yes,Sideshift & Tip,None or Unspecified,,,,,,,,,,,,,,,
23920,1378706,86000,1529573,132,1.0,1995,,,2/22/2006 0:00,120HNA,120,H,,,,Motorgrader - 45.0 to 130.0 Horsepower,Florida,MG,Motor Graders,No,EROPS w AC,,,,,None or Unspecified,,None or Unspecified,None or Unspecified,High Profile,Variable,Base + 1 Function,None or Unspecified,None or Unspecified,Yes,None or Unspecified,None or Unspecified,,,,,,,,,,,,,,,
23920,1378707,69000,757895,132,1.0,1995,,,2/15/2005 0:00,120HNA,120,H,,,,Motorgrader - 45.0 to 130.0 Horsepower,Florida,MG,Motor Graders,No,EROPS,,,,,None or Unspecified,,None or Unspecified,12',None or Unspecified,No,Base + 1 Function,None or Unspecified,None or Unspecified,Yes,None or Unspecified,"14""",,,,,,,,,,,,,,,
23920,1378710,70000,1477231,132,1.0,1995,,,3/14/2001 0:00,120HNA,120,H,,,,Motorgrader - 45.0 to 130.0 Horsepower,Illinois,MG,Motor Graders,No,EROPS w AC,,,,,None or Unspecified,,None or Unspecified,12',Low Profile,Variable,Base + 1 Function,None or Unspecified,None or Unspecified,Yes,None or Unspecified,"14""",,,,,,,,,,,,,,,
23920,1378711,62000,1481444,132,1.0,1995,,,3/14/2001 0:00,120HNA,120,H,,,,Motorgrader - 45.0 to 130.0 Horsepower,Illinois,MG,Motor Graders,No,EROPS w AC,,,,,None or Unspecified,,None or Unspecified,12',Low Profile,Variable,Base + 1 Function,None or Unspecified,None or Unspecified,Yes,None or Unspecified,"14""",,,,,,,,,,,,,,,
23920,1378714,97500,14246,132,6.0,1995,,,5/7/1998 0:00,120HNA,120,H,,,,Motorgrader - 45.0 to 130.0 Horsepower,Tennessee,MG,Motor Graders,No,EROPS,,,,,None or Unspecified,,None or Unspecified,12',None or Unspecified,No,Base + 1 Function,Yes,None or Unspecified,None or Unspecified,Sideshift & Tip,"14""",,,,,,,,,,,,,,,
23920,1378715,79500,795043,132,1.0,1996,,,2/17/2004 0:00,120HNA,120,H,,,,Motorgrader - 45.0 to 130.0 Horsepower,Florida,MG,Motor Graders,No,EROPS w AC,,,,,None or Unspecified,,None or Unspecified,14',High Profile,No,Base + 1 Function,None or Unspecified,None or Unspecified,Yes,None or Unspecified,"14""",,,,,,,,,,,,,,,
23920,1378716,60000,108271,132,1.0,1996,,,6/28/2002 0:00,120HNA,120,H,,,,Motorgrader - 45.0 to 130.0 Horsepower,North Carolina,MG,Motor Graders,No,EROPS w AC,,,,,None or Unspecified,,None or Unspecified,12',None or Unspecified,No,Base + 1 Function,None or Unspecified,None or Unspecified,Yes,None or Unspecified,"14""",,,,,,,,,,,,,,,
23920,1378717,80000,108271,132,1.0,1996,,,2/15/2005 0:00,120HNA,120,H,,,,Motorgrader - 45.0 to 130.0 Horsepower,Florida,MG,Motor Graders,No,EROPS w AC,,,,,None or Unspecified,,None or Unspecified,12',None or Unspecified,No,Base + 1 Function,None or Unspecified,None or Unspecified,Yes,None or Unspecified,"14""",,,,,,,,,,,,,,,
23920,1378718,90000,9860,132,99.0,1996,,,4/27/2000 0:00,120HNA,120,H,,,,Motorgrader - 45.0 to 130.0 Horsepower,South Carolina,MG,Motor Graders,No,EROPS w AC,,,,,None or Unspecified,,None or Unspecified,None or Unspecified,None or Unspecified,No,Base + 1 Function,None or Unspecified,None or Unspecified,None or Unspecified,Tip,None or Unspecified,,,,,,,,,,,,,,,
23920,1378719,69000,368074,132,19.0,1996,,,11/8/2001 0:00,120HNA,120,H,,,,Motorgrader - 45.0 to 130.0 Horsepower,California,MG,Motor Graders,No,EROPS w AC,,,,,None or Unspecified,,None or Unspecified,12',Low Profile,No,Base + 1 Function,Yes,None or Unspecified,Yes,None or Unspecified,"14""",,,,,,,,,,,,,,,
23920,1378721,80000,1151214,132,4.0,1996,,,2/12/2007 0:00,120HNA,120,H,,,,Motorgrader - 45.0 to 130.0 Horsepower,Florida,MG,Motor Graders,No,EROPS w AC,,,,,None or Unspecified,,None or Unspecified,None or Unspecified,None or Unspecified,No,Base + 1 Function,None or Unspecified,None or Unspecified,None or Unspecified,None or Unspecified,None or Unspecified,,,,,,,,,,,,,,,
23920,1378723,60000,1524367,132,1.0,1996,,,8/28/2001 0:00,120HNA,120,H,,,,Motorgrader - 45.0 to 130.0 Horsepower,Missouri,MG,Motor Graders,No,EROPS w AC,,,,,None or Unspecified,,None or Unspecified,12',Low Profile,No,Base + 1 Function,None or Unspecified,None or Unspecified,Yes,None or Unspecified,"14""",,,,,,,,,,,,,,,
23920,1378726,82000,114934,132,7.0,1996,,,3/8/2006 0:00,120HNA,120,H,,,,Motorgrader - 45.0 to 130.0 Horsepower,Alabama,MG,Motor Graders,No,EROPS,,,,,None or Unspecified,,None or Unspecified,None or Unspecified,None or Unspecified,No,Base + 1 Function,None or Unspecified,None or Unspecified,Yes,Tip,"14""",,,,,,,,,,,,,,,
23920,1378728,110000,248982,132,99.0,1996,,,4/27/2000 0:00,120HNA,120,H,,,,Motorgrader - 45.0 to 130.0 Horsepower,South Carolina,MG,Motor Graders,No,EROPS w AC,,,,,Powershift,,None or Unspecified,None or Unspecified,Low Profile,No,Base + 1 Function,None or Unspecified,None or Unspecified,None or Unspecified,Tip,None or Unspecified,,,,,,,,,,,,,,,
23920,1378729,73000,248982,132,2.0,1996,,,3/14/2002 0:00,120HNA,120,H,,,,Motorgrader - 45.0 to 130.0 Horsepower,New Jersey,MG,Motor Graders,No,EROPS w AC,,,,,Powershift,,None or Unspecified,None or Unspecified,Low Profile,No,Base + 1 Function,None or Unspecified,None or Unspecified,None or Unspecified,Tip,None or Unspecified,,,,,,,,,,,,,,,
23920,1378737,87500,23827,132,1.0,1996,,,4/6/2000 0:00,120HNA,120,H,,,,Motorgrader - 45.0 to 130.0 Horsepower,Georgia,MG,Motor Graders,No,EROPS,,,,,None or Unspecified,,None or Unspecified,12',None or Unspecified,No,Base + 1 Function,None or Unspecified,None or Unspecified,None or Unspecified,None or Unspecified,"14""",,,,,,,,,,,,,,,
23920,1378741,79000,363821,132,19.0,1997,,,11/8/2001 0:00,120HNA,120,H,,,,Motorgrader - 45.0 to 130.0 Horsepower,California,MG,Motor Graders,No,EROPS w AC,,,,,None or Unspecified,,None or Unspecified,14',Low Profile,No,Base + 1 Function,Yes,None or Unspecified,Yes,None or Unspecified,"15.5""",,,,,,,,,,,,,,,
23920,1378743,76000,1222794,132,1.0,1997,,,6/22/2006 0:00,120HNA,120,H,,,,Motorgrader - 45.0 to 130.0 Horsepower,Colorado,MG,Motor Graders,No,EROPS,,,,,None or Unspecified,,Yes,14',None or Unspecified,No,Base + 1 Function,None or Unspecified,None or Unspecified,None or Unspecified,None or Unspecified,"14""",,,,,,,,,,,,,,,
23920,1378744,67500,1280074,132,1.0,1997,,,9/25/2006 0:00,120HNA,120,H,,,,Motorgrader - 45.0 to 130.0 Horsepower,Colorado,MG,Motor Graders,No,EROPS,,,,,None or Unspecified,,None or Unspecified,14',None or Unspecified,No,Base + 1 Function,None or Unspecified,None or Unspecified,None or Unspecified,None or Unspecified,"14""",,,,,,,,,,,,,,,
23920,1378750,68000,37298,132,1.0,1997,,,9/12/2002 0:00,120HNA,120,H,,,,Motorgrader - 45.0 to 130.0 Horsepower,Texas,MG,Motor Graders,No,EROPS,,,,,None or Unspecified,,None or Unspecified,12',None or Unspecified,Variable,Base + 1 Function,None or Unspecified,None or Unspecified,None or Unspecified,None or Unspecified,"13""",,,,,,,,,,,,,,,
23920,1378751,60000,535855,132,3.0,1997,,,6/13/2002 0:00,120HNA,120,H,,,,Motorgrader - 45.0 to 130.0 Horsepower,Unspecified,MG,Motor Graders,No,OROPS,,,,,Powershift,,None or Unspecified,14',High Profile,No,Base + 1 Function,None or Unspecified,None or Unspecified,Yes,None or Unspecified,None or Unspecified,,,,,,,,,,,,,,,
23920,1378753,67000,593161,132,2.0,1997,,,2/3/2011 0:00,120HNA,120,H,,,,Motorgrader - 45.0 to 130.0 Horsepower,Florida,MG,Motor Graders,No,OROPS,,,,,None or Unspecified,,None or Unspecified,12',High Profile,No,Base + 1 Function,Yes,None or Unspecified,Yes,None or Unspecified,None or Unspecified,,,,,,,,,,,,,,,
23920,1378755,67500,782053,132,1.0,1997,,,10/27/2010 0:00,120HNA,120,H,,,,Motorgrader - 45.0 to 130.0 Horsepower,Florida,MG,Motor Graders,No,OROPS,,,,,None or Unspecified,,None or Unspecified,None or Unspecified,None or Unspecified,Variable,Base + 1 Function,None or Unspecified,None or Unspecified,Yes,None or Unspecified,None or Unspecified,,,,,,,,,,,,,,,
23920,1378756,77000,505382,132,1.0,1997,,,5/12/2005 0:00,120HNA,120,H,,,,Motorgrader - 45.0 to 130.0 Horsepower,Texas,MG,Motor Graders,No,EROPS w AC,,,,,None or Unspecified,,None or Unspecified,14',None or Unspecified,No,Base + 1 Function,Yes,None or Unspecified,Yes,None or Unspecified,"14""",,,,,,,,,,,,,,,
23920,1378757,92500,1470423,132,2.0,1997,,,5/27/2008 0:00,120HNA,120,H,,,,Motorgrader - 45.0 to 130.0 Horsepower,Florida,MG,Motor Graders,No,EROPS w AC,,,,,None or Unspecified,,None or Unspecified,None or Unspecified,None or Unspecified,Variable,Base + 1 Function,None or Unspecified,None or Unspecified,Yes,None or Unspecified,"15.5""",,,,,,,,,,,,,,,
23920,1378759,88500,1277145,132,2.0,1997,,,5/27/2008 0:00,120HNA,120,H,,,,Motorgrader - 45.0 to 130.0 Horsepower,Florida,MG,Motor Graders,No,EROPS w AC,,,,,None or Unspecified,,None or Unspecified,None or Unspecified,None or Unspecified,Variable,Base + 1 Function,None or Unspecified,None or Unspecified,Yes,Sideshift & Tip,"15.5""",,,,,,,,,,,,,,,
23920,1378761,90000,803565,132,2.0,1998,,,3/14/2002 0:00,120HNA,120,H,,,,Motorgrader - 45.0 to 130.0 Horsepower,New Jersey,MG,Motor Graders,No,EROPS,,,,,None or Unspecified,,None or Unspecified,None or Unspecified,High Profile,Variable,Base + 4 Function,None or Unspecified,None or Unspecified,Yes,None or Unspecified,None or Unspecified,,,,,,,,,,,,,,,
23920,1378762,71000,386000,132,3.0,1998,,,8/19/2003 0:00,120HNA,120,H,,,,Motorgrader - 45.0 to 130.0 Horsepower,Unspecified,MG,Motor Graders,No,EROPS w AC,,,,,None or Unspecified,,None or Unspecified,None or Unspecified,None or Unspecified,No,Base + 1 Function,None or Unspecified,None or Unspecified,None or Unspecified,None or Unspecified,None or Unspecified,,,,,,,,,,,,,,,
23920,1378763,74000,786679,132,1.0,1998,,,10/9/2003 0:00,120HNA,120,H,,,,Motorgrader - 45.0 to 130.0 Horsepower,Florida,MG,Motor Graders,No,EROPS w AC,,,,,None or Unspecified,,None or Unspecified,14',High Profile,Variable,Base + 1 Function,None or Unspecified,None or Unspecified,Yes,Tip,"15.5""",,,,,,,,,,,,,,,
23920,1378765,74000,792039,132,1.0,1998,,,10/9/2003 0:00,120HNA,120,H,,,,Motorgrader - 45.0 to 130.0 Horsepower,Florida,MG,Motor Graders,No,EROPS w AC,,,,,None or Unspecified,,None or Unspecified,14',None or Unspecified,No,Base + 1 Function,None or Unspecified,Yes,Yes,Sideshift & Tip,"14""",,,,,,,,,,,,,,,
23920,1378767,69000,34193,132,3.0,1998,,,10/16/2003 0:00,120HNA,120,H,,,,Motorgrader - 45.0 to 130.0 Horsepower,Unspecified,MG,Motor Graders,No,EROPS w AC,,,,,Powershift,,None or Unspecified,12',None or Unspecified,No,Base + 1 Function,None or Unspecified,None or Unspecified,None or Unspecified,None or Unspecified,None or Unspecified,,,,,,,,,,,,,,,
23920,1378769,80000,774492,132,1.0,1998,,,5/26/2005 0:00,120HNA,120,H,,,,Motorgrader - 45.0 to 130.0 Horsepower,Florida,MG,Motor Graders,No,EROPS w AC,,,,,None or Unspecified,,None or Unspecified,14',Low Profile,No,Base + 1 Function,None or Unspecified,None or Unspecified,Yes,None or Unspecified,"17.5""",,,,,,,,,,,,,,,
23920,1378774,80000,485830,132,1.0,1998,,,11/28/2001 0:00,120HNA,120,H,,,,Motorgrader - 45.0 to 130.0 Horsepower,Texas,MG,Motor Graders,No,EROPS w AC,,,,,None or Unspecified,,None or Unspecified,14',None or Unspecified,No,Base + 1 Function,Yes,None or Unspecified,Yes,None or Unspecified,None or Unspecified,,,,,,,,,,,,,,,
23920,1378775,80000,619689,132,1.0,1998,,,11/6/2002 0:00,120HNA,120,H,,,,Motorgrader - 45.0 to 130.0 Horsepower,Texas,MG,Motor Graders,No,EROPS w AC,,,,,None or Unspecified,,None or Unspecified,14',None or Unspecified,No,Base + 1 Function,Yes,None or Unspecified,None or Unspecified,None or Unspecified,"14""",,,,,,,,,,,,,,,
23920,1378777,80000,254068,132,1.0,1998,,,3/26/2004 0:00,120HNA,120,H,,,,Motorgrader - 45.0 to 130.0 Horsepower,North Carolina,MG,Motor Graders,No,EROPS,,,,,None or Unspecified,,None or Unspecified,12',None or Unspecified,No,Base + 1 Function,None or Unspecified,None or Unspecified,Yes,None or Unspecified,"14""",,,,,,,,,,,,,,,
23920,1378779,72500,121040,132,1.0,1998,,,5/22/2003 0:00,120HNA,120,H,,,,Motorgrader - 45.0 to 130.0 Horsepower,Tennessee,MG,Motor Graders,No,EROPS,,,,,None or Unspecified,,None or Unspecified,12',None or Unspecified,No,Base + 1 Function,None or Unspecified,None or Unspecified,Yes,None or Unspecified,"14""",,,,,,,,,,,,,,,
23920,1378780,77000,252082,132,2.0,1998,,,3/14/2002 0:00,120HNA,120,H,,,,Motorgrader - 45.0 to 130.0 Horsepower,New Jersey,MG,Motor Graders,No,EROPS w AC,,,,,None or Unspecified,,None or Unspecified,None or Unspecified,None or Unspecified,No,Base + 1 Function,None or Unspecified,None or Unspecified,Yes,None or Unspecified,None or Unspecified,,,,,,,,,,,,,,,
23920,1378781,88000,1436836,132,1.0,1998,,,5/14/2003 0:00,120HNA,120,H,,,,Motorgrader - 45.0 to 130.0 Horsepower,Florida,MG,Motor Graders,No,EROPS w AC,,,,,None or Unspecified,,None or Unspecified,14',None or Unspecified,No,Base + 1 Function,None or Unspecified,None or Unspecified,Yes,Sideshift & Tip,"15.5""",,,,,,,,,,,,,,,
23920,1378782,66000,148450,132,1.0,1998,,,11/18/2004 0:00,120HNA,120,H,,,,Motorgrader - 45.0 to 130.0 Horsepower,Georgia,MG,Motor Graders,No,EROPS w AC,,,,,None or Unspecified,,None or Unspecified,14',None or Unspecified,No,Base + 1 Function,None or Unspecified,None or Unspecified,None or Unspecified,None or Unspecified,"14""",,,,,,,,,,,,,,,
23920,1378783,78000,589329,132,1.0,1998,,,8/14/2002 0:00,120HNA,120,H,,,,Motorgrader - 45.0 to 130.0 Horsepower,Texas,MG,Motor Graders,No,EROPS w AC,,,,,None or Unspecified,,None or Unspecified,12',None or Unspecified,No,Base + 1 Function,Yes,None or Unspecified,Yes,None or Unspecified,"14""",,,,,,,,,,,,,,,
23920,1378786,82500,1307733,132,2.0,1999,,,2/5/2009 0:00,120HNA,120,H,,,,Motorgrader - 45.0 to 130.0 Horsepower,Florida,MG,Motor Graders,No,EROPS w AC,,,,,None or Unspecified,,None or Unspecified,None or Unspecified,None or Unspecified,Variable,Base + 1 Function,None or Unspecified,None or Unspecified,Yes,Sideshift & Tip,None or Unspecified,,,,,,,,,,,,,,,
23920,1378787,97500,1307733,132,2.0,1999,,,5/27/2008 0:00,120HNA,120,H,,,,Motorgrader - 45.0 to 130.0 Horsepower,Florida,MG,Motor Graders,No,EROPS w AC,,,,,None or Unspecified,,None or Unspecified,None or Unspecified,None or Unspecified,Variable,Base + 1 Function,None or Unspecified,None or Unspecified,Yes,Sideshift & Tip,None or Unspecified,,,,,,,,,,,,,,,
23920,1378789,82500,1307733,132,2.0,1999,,,1/31/2009 0:00,120HNA,120,H,,,,Motorgrader - 45.0 to 130.0 Horsepower,Florida,MG,Motor Graders,No,EROPS w AC,,,,,None or Unspecified,,None or Unspecified,None or Unspecified,None or Unspecified,Variable,Base + 1 Function,None or Unspecified,None or Unspecified,Yes,Sideshift & Tip,None or Unspecified,,,,,,,,,,,,,,,
23920,1378790,55000,987501,132,3.0,1999,,,7/21/2003 0:00,120HNA,120,H,,,,Motorgrader - 45.0 to 130.0 Horsepower,Unspecified,MG,Motor Graders,No,EROPS w AC,,,,,Powershift,,None or Unspecified,None or Unspecified,High Profile,Variable,Base + 1 Function,None or Unspecified,None or Unspecified,None or Unspecified,None or Unspecified,None or Unspecified,,,,,,,,,,,,,,,
23920,1378791,81000,798930,132,1.0,1999,,,2/15/2005 0:00,120HNA,120,H,,,,Motorgrader - 45.0 to 130.0 Horsepower,Florida,MG,Motor Graders,No,EROPS w AC,,,,,None or Unspecified,,None or Unspecified,12',High Profile,Variable,Base + 1 Function,None or Unspecified,None or Unspecified,Yes,None or Unspecified,"17.5""",,,,,,,,,,,,,,,
23920,1378793,102500,493363,132,1.0,1999,,,3/29/2006 0:00,120HNA,120,H,,,,Motorgrader - 45.0 to 130.0 Horsepower,Texas,MG,Motor Graders,No,EROPS w AC,,,,,None or Unspecified,,None or Unspecified,None or Unspecified,None or Unspecified,No,Base + 1 Function,Yes,None or Unspecified,Yes,None or Unspecified,"14""",,,,,,,,,,,,,,,
23920,1378794,84500,780438,132,7.0,1999,,,6/4/2008 0:00,120HNA,120,H,,,,Motorgrader - 45.0 to 130.0 Horsepower,Alabama,MG,Motor Graders,No,EROPS w AC,,,,,None or Unspecified,,None or Unspecified,None or Unspecified,High Profile,Variable,Base + 1 Function,None or Unspecified,None or Unspecified,Yes,Tip,"14""",,,,,,,,,,,,,,,
23920,1378796,64000,190200,132,20.0,1999,6700.0,Medium,12/8/2010 0:00,120HNA,120,H,,,,Motorgrader - 45.0 to 130.0 Horsepower,Arkansas,MG,Motor Graders,No,EROPS w AC,,,,,None or Unspecified,,None or Unspecified,None or Unspecified,None or Unspecified,Variable,Base + 1 Function,Yes,None or Unspecified,Yes,Sideshift & Tip,"14""",,,,,,,,,,,,,,,
23920,1442397,95000,593996,132,3.0,2001,,,6/12/2003 0:00,120HNA,120,H,,,,Motorgrader - 45.0 to 130.0 Horsepower,Unspecified,MG,Motor Graders,No,EROPS w AC,,,,,Powershift,,None or Unspecified,None or Unspecified,None or Unspecified,No,Base + 1 Function,Yes,None or Unspecified,Yes,None or Unspecified,"14""",,,,,,,,,,,,,,,
23920,1442399,135000,1081236,132,1.0,2001,,,6/27/2006 0:00,120HNA,120,H,,,,Motorgrader - 45.0 to 130.0 Horsepower,North Carolina,MG,Motor Graders,No,EROPS w AC,,,,,None or Unspecified,,None or Unspecified,12',None or Unspecified,No,Base + 1 Function,None or Unspecified,None or Unspecified,Yes,None or Unspecified,"14""",,,,,,,,,,,,,,,
23920,1442401,75000,1551894,132,8.0,2001,,,5/28/2008 0:00,120HNA,120,H,,,,Motorgrader - 45.0 to 130.0 Horsepower,Mississippi,MG,Motor Graders,No,EROPS w AC,,,,,None or Unspecified,,None or Unspecified,None or Unspecified,Low Profile,No,Base + 1 Function,None or Unspecified,None or Unspecified,Yes,Tip,None or Unspecified,,,,,,,,,,,,,,,
23920,1442403,96000,1309072,132,4.0,2001,,,2/7/2005 0:00,120HNA,120,H,,,,Motorgrader - 45.0 to 130.0 Horsepower,Florida,MG,Motor Graders,No,EROPS w AC,,,,,None or Unspecified,,None or Unspecified,None or Unspecified,None or Unspecified,No,Base + 1 Function,None or Unspecified,None or Unspecified,Yes,Sideshift & Tip,"14""",,,,,,,,,,,,,,,
23920,1442405,96000,623727,132,4.0,2001,,,2/7/2005 0:00,120HNA,120,H,,,,Motorgrader - 45.0 to 130.0 Horsepower,Florida,MG,Motor Graders,No,EROPS w AC,,,,,None or Unspecified,,None or Unspecified,None or Unspecified,None or Unspecified,Variable,Base + 1 Function,Yes,Yes,None or Unspecified,Sideshift & Tip,"14""",,,,,,,,,,,,,,,
23920,1442407,94000,412967,132,8.0,2002,,,11/15/2006 0:00,120HNA,120,H,,,,Motorgrader - 45.0 to 130.0 Horsepower,Mississippi,MG,Motor Graders,No,EROPS,,,,,None or Unspecified,,None or Unspecified,None or Unspecified,Low Profile,Variable,Base + 1 Function,None or Unspecified,None or Unspecified,None or Unspecified,None or Unspecified,None or Unspecified,,,,,,,,,,,,,,,
23920,1442408,94000,411207,132,8.0,2002,,,11/15/2006 0:00,120HNA,120,H,,,,Motorgrader - 45.0 to 130.0 Horsepower,Mississippi,MG,Motor Graders,No,EROPS,,,,,None or Unspecified,,None or Unspecified,None or Unspecified,Low Profile,Variable,Base + 1 Function,None or Unspecified,None or Unspecified,None or Unspecified,None or Unspecified,None or Unspecified,,,,,,,,,,,,,,,
23920,1442413,101000,411756,132,8.0,2002,,,11/15/2006 0:00,120HNA,120,H,,,,Motorgrader - 45.0 to 130.0 Horsepower,Mississippi,MG,Motor Graders,No,EROPS,,,,,None or Unspecified,,None or Unspecified,None or Unspecified,Low Profile,Variable,Base + 1 Function,None or Unspecified,None or Unspecified,None or Unspecified,None or Unspecified,None or Unspecified,,,,,,,,,,,,,,,
23920,1442415,120000,1468975,132,4.0,2002,,,2/13/2006 0:00,120HNA,120,H,,,,Motorgrader - 45.0 to 130.0 Horsepower,Florida,MG,Motor Graders,No,EROPS,,,,,None or Unspecified,,None or Unspecified,None or Unspecified,None or Unspecified,No,Base + 1 Function,None or Unspecified,None or Unspecified,None or Unspecified,None or Unspecified,None or Unspecified,,,,,,,,,,,,,,,
23920,1548803,134000,25097,132,28.0,2006,534.0,Low,3/2/2007 0:00,120HNA,120,H,,,,Motorgrader - 45.0 to 130.0 Horsepower,Mississippi,MG,Motor Graders,No,EROPS w AC,,,,,None or Unspecified,,None or Unspecified,None or Unspecified,None or Unspecified,Variable,Base + 1 Function,None or Unspecified,None or Unspecified,Yes,None or Unspecified,None or Unspecified,,,,,,,,,,,,,,,
23920,1548804,137000,25097,132,28.0,2006,,,12/1/2006 0:00,120HNA,120,H,,,,Motorgrader - 45.0 to 130.0 Horsepower,Mississippi,MG,Motor Graders,No,EROPS w AC,,,,,None or Unspecified,,None or Unspecified,None or Unspecified,None or Unspecified,Variable,Base + 1 Function,None or Unspecified,None or Unspecified,Yes,None or Unspecified,None or Unspecified,,,,,,,,,,,,,,,
23920,1548806,117500,282823,132,2.0,2006,,,2/3/2011 0:00,120HNA,120,H,,,,Motorgrader - 45.0 to 130.0 Horsepower,Florida,MG,Motor Graders,No,EROPS w AC,,,,,None or Unspecified,,None or Unspecified,12',Low Profile,No,Base + 1 Function,Yes,Yes,None or Unspecified,Sideshift & Tip,"14""",,,,,,,,,,,,,,,
23920,1548810,137000,733050,132,28.0,2006,,,12/1/2006 0:00,120HNA,120,H,,,,Motorgrader - 45.0 to 130.0 Horsepower,Mississippi,MG,Motor Graders,No,EROPS w AC,,,,,None or Unspecified,,None or Unspecified,None or Unspecified,None or Unspecified,Variable,Base + 1 Function,None or Unspecified,None or Unspecified,Yes,None or Unspecified,None or Unspecified,,,,,,,,,,,,,,,
23920,1548816,82500,908120,132,99.0,2007,,,9/15/2009 0:00,120HNA,120,H,,,,Motorgrader - 45.0 to 130.0 Horsepower,Kentucky,MG,Motor Graders,No,EROPS w AC,,,,,None or Unspecified,,None or Unspecified,None or Unspecified,None or Unspecified,No,Base + 1 Function,Yes,None or Unspecified,None or Unspecified,Sideshift & Tip,None or Unspecified,,,,,,,,,,,,,,,
23920,2239607,62500,622725,136,1.0,1995,0.0,,11/13/2008 0:00,120HNA,120,H,,,,Motorgrader - 45.0 to 130.0 Horsepower,Texas,MG,Motor Graders,No,EROPS w AC,,,,,None or Unspecified,,None or Unspecified,12',None or Unspecified,No,Base + 1 Function,None or Unspecified,None or Unspecified,Yes,None or Unspecified,"14""",,,,,,,,,,,,,,,
23920,2239609,97500,107123,136,1.0,1995,0.0,,2/19/2008 0:00,120HNA,120,H,,,,Motorgrader - 45.0 to 130.0 Horsepower,Florida,MG,Motor Graders,No,EROPS w AC,,,,,None or Unspecified,,None or Unspecified,12',Low Profile,No,Base + 2 Function,None or Unspecified,None or Unspecified,Yes,Tip,"14""",,,,,,,,,,,,,,,
23920,2239611,72500,799701,136,1.0,1995,0.0,,2/15/2010 0:00,120HNA,120,H,,,,Motorgrader - 45.0 to 130.0 Horsepower,Florida,MG,Motor Graders,No,EROPS w AC,,,,,None or Unspecified,,None or Unspecified,14',None or Unspecified,No,Base + 1 Function,None or Unspecified,None or Unspecified,None or Unspecified,None or Unspecified,"14""",,,,,,,,,,,,,,,
23920,2239613,54000,395568,136,1.0,1000,0.0,,8/26/2009 0:00,120HNA,120,H,,,,Motorgrader - 45.0 to 130.0 Horsepower,Texas,MG,Motor Graders,No,EROPS w AC,,,,,None or Unspecified,,None or Unspecified,12',Low Profile,Variable,Base + 2 Function,Yes,None or Unspecified,None or Unspecified,None or Unspecified,"14""",,,,,,,,,,,,,,,
23920,2239616,89000,1415755,136,2.0,1996,0.0,,3/26/2008 0:00,120HNA,120,H,,,,Motorgrader - 45.0 to 130.0 Horsepower,Texas,MG,Motor Graders,No,EROPS w AC,,,,,None or Unspecified,,None or Unspecified,12',High Profile,No,Base + 1 Function,None or Unspecified,None or Unspecified,Yes,None or Unspecified,None or Unspecified,,,,,,,,,,,,,,,
23920,2239617,52500,507401,136,1.0,1996,0.0,,5/6/2009 0:00,120HNA,120,H,,,,Motorgrader - 45.0 to 130.0 Horsepower,Texas,MG,Motor Graders,No,EROPS,,,,,None or Unspecified,,None or Unspecified,14',None or Unspecified,No,Base + 1 Function,None or Unspecified,None or Unspecified,Yes,None or Unspecified,"14""",,,,,,,,,,,,,,,
23920,2239618,79000,248982,136,16.0,1998,3607.0,Low,6/12/2008 0:00,120HNA,120,H,,,,Motorgrader - 45.0 to 130.0 Horsepower,Ohio,MG,Motor Graders,No,EROPS w AC,,,,,Powershift,,None or Unspecified,None or Unspecified,Low Profile,No,Base + 1 Function,None or Unspecified,None or Unspecified,None or Unspecified,Tip,None or Unspecified,,,,,,,,,,,,,,,
23920,2239619,64000,248982,136,4.0,1996,0.0,,2/9/2009 0:00,120HNA,120,H,,,,Motorgrader - 45.0 to 130.0 Horsepower,Florida,MG,Motor Graders,No,EROPS w AC,,,,,Powershift,,None or Unspecified,None or Unspecified,Low Profile,No,Base + 1 Function,None or Unspecified,None or Unspecified,None or Unspecified,Tip,None or Unspecified,,,,,,,,,,,,,,,
23920,2239620,110000,253728,136,1.0,1996,0.0,,2/19/2008 0:00,120HNA,120,H,,,,Motorgrader - 45.0 to 130.0 Horsepower,Florida,MG,Motor Graders,No,EROPS w AC,,,,,None or Unspecified,,None or Unspecified,12',Low Profile,No,Base + 1 Function,None or Unspecified,None or Unspecified,Yes,None or Unspecified,"14""",,,,,,,,,,,,,,,
23920,2239621,79000,1139390,136,1.0,1998,6415.0,Medium,5/3/2008 0:00,120HNA,120,H,,,,Motorgrader - 45.0 to 130.0 Horsepower,Florida,MG,Motor Graders,No,EROPS w AC,,,,,None or Unspecified,,None or Unspecified,12',Low Profile,No,Base + 1 Function,None or Unspecified,None or Unspecified,Yes,None or Unspecified,"17.5""",,,,,,,,,,,,,,,
23920,2239622,92500,1139390,136,1.0,1996,0.0,,5/28/2008 0:00,120HNA,120,H,,,,Motorgrader - 45.0 to 130.0 Horsepower,Florida,MG,Motor Graders,No,EROPS w AC,,,,,None or Unspecified,,None or Unspecified,12',Low Profile,No,Base + 1 Function,None or Unspecified,None or Unspecified,Yes,None or Unspecified,"17.5""",,,,,,,,,,,,,,,
23920,2239624,65000,126504,136,1.0,1996,0.0,,6/30/2010 0:00,120HNA,120,H,,,,Motorgrader - 45.0 to 130.0 Horsepower,North Carolina,MG,Motor Graders,No,EROPS w AC,,,,,None or Unspecified,,None or Unspecified,12',Low Profile,No,Base + 1 Function,None or Unspecified,None or Unspecified,Yes,None or Unspecified,"14""",,,,,,,,,,,,,,,
23920,2239625,65000,387198,136,1.0,1996,0.0,,4/1/2008 0:00,120HNA,120,H,,,,Motorgrader - 45.0 to 130.0 Horsepower,Missouri,MG,Motor Graders,No,EROPS w AC,,,,,None or Unspecified,,None or Unspecified,12',None or Unspecified,No,Base + 1 Function,None or Unspecified,None or Unspecified,None or Unspecified,None or Unspecified,"14""",,,,,,,,,,,,,,,
23920,2239628,65000,93169,136,1.0,1000,0.0,,6/30/2010 0:00,120HNA,120,H,,,,Motorgrader - 45.0 to 130.0 Horsepower,North Carolina,MG,Motor Graders,No,EROPS,,,,,None or Unspecified,,None or Unspecified,12',Low Profile,No,Base + 1 Function,None or Unspecified,None or Unspecified,Yes,Sideshift & Tip,"14""",,,,,,,,,,,,,,,
23920,2239629,62500,214700,136,1.0,1000,0.0,,6/10/2010 0:00,120HNA,120,H,,,,Motorgrader - 45.0 to 130.0 Horsepower,Colorado,MG,Motor Graders,No,EROPS w AC,,,,,None or Unspecified,,None or Unspecified,12',Low Profile,Variable,Base + 1 Function,None or Unspecified,None or Unspecified,Yes,None or Unspecified,"14""",,,,,,,,,,,,,,,
23920,2239630,55000,603767,136,1.0,1997,0.0,,7/9/2009 0:00,120HNA,120,H,,,,Motorgrader - 45.0 to 130.0 Horsepower,Texas,MG,Motor Graders,No,EROPS w AC,,,,,None or Unspecified,,None or Unspecified,14',None or Unspecified,No,Base + 1 Function,Yes,None or Unspecified,Yes,None or Unspecified,"14""",,,,,,,,,,,,,,,
23920,2239631,78000,1513713,136,4.0,1997,0.0,,2/9/2009 0:00,120HNA,120,H,,,,Motorgrader - 45.0 to 130.0 Horsepower,Florida,MG,Motor Graders,No,EROPS w AC,,,,,None or Unspecified,,None or Unspecified,None or Unspecified,None or Unspecified,No,Base + 1 Function,None or Unspecified,None or Unspecified,Yes,None or Unspecified,"15.5""",,,,,,,,,,,,,,,
23920,2239632,82000,1513713,136,4.0,1998,7942.0,Medium,5/3/2008 0:00,120HNA,120,H,,,,Motorgrader - 45.0 to 130.0 Horsepower,Florida,MG,Motor Graders,No,EROPS w AC,,,,,None or Unspecified,,None or Unspecified,None or Unspecified,None or Unspecified,No,Base + 1 Function,None or Unspecified,None or Unspecified,Yes,None or Unspecified,"15.5""",,,,,,,,,,,,,,,
23920,2239634,81000,1608120,136,,1998,6792.0,Medium,5/3/2008 0:00,120HNA,120,H,,,,Motorgrader - 45.0 to 130.0 Horsepower,Florida,MG,Motor Graders,No,OROPS,,,,,None or Unspecified,,None or Unspecified,None or Unspecified,None or Unspecified,No,Base + 1 Function,None or Unspecified,None or Unspecified,None or Unspecified,None or Unspecified,"15.5""",,,,,,,,,,,,,,,
23920,2239636,84000,1470423,136,2.0,1998,8570.0,Medium,5/3/2008 0:00,120HNA,120,H,,,,Motorgrader - 45.0 to 130.0 Horsepower,Florida,MG,Motor Graders,No,EROPS w AC,,,,,None or Unspecified,,None or Unspecified,None or Unspecified,None or Unspecified,Variable,Base + 1 Function,None or Unspecified,None or Unspecified,Yes,None or Unspecified,"15.5""",,,,,,,,,,,,,,,
23920,2239637,77500,1277145,136,4.0,1999,0.0,,2/9/2009 0:00,120HNA,120,H,,,,Motorgrader - 45.0 to 130.0 Horsepower,Florida,MG,Motor Graders,No,EROPS w AC,,,,,None or Unspecified,,None or Unspecified,None or Unspecified,None or Unspecified,Variable,Base + 1 Function,None or Unspecified,None or Unspecified,Yes,Sideshift & Tip,"15.5""",,,,,,,,,,,,,,,
23920,2239638,90000,1277145,136,2.0,1997,0.0,,8/7/2008 0:00,120HNA,120,H,,,,Motorgrader - 45.0 to 130.0 Horsepower,Florida,MG,Motor Graders,No,EROPS w AC,,,,,None or Unspecified,,None or Unspecified,None or Unspecified,None or Unspecified,Variable,Base + 1 Function,None or Unspecified,None or Unspecified,Yes,Sideshift & Tip,"15.5""",,,,,,,,,,,,,,,
23920,2239639,83000,1277145,136,2.0,1998,8067.0,Medium,5/3/2008 0:00,120HNA,120,H,,,,Motorgrader - 45.0 to 130.0 Horsepower,Florida,MG,Motor Graders,No,EROPS w AC,,,,,None or Unspecified,,None or Unspecified,None or Unspecified,None or Unspecified,Variable,Base + 1 Function,None or Unspecified,None or Unspecified,Yes,Sideshift & Tip,"15.5""",,,,,,,,,,,,,,,
23920,2239640,90000,121560,136,1.0,1998,0.0,,2/16/2009 0:00,120HNA,120,H,,,,Motorgrader - 45.0 to 130.0 Horsepower,Florida,MG,Motor Graders,No,EROPS w AC,,,,,None or Unspecified,,None or Unspecified,12',Low Profile,No,Base + 1 Function,None or Unspecified,None or Unspecified,Yes,None or Unspecified,"14""",,,,,,,,,,,,,,,
23920,2239641,100000,774492,136,4.0,1998,0.0,,2/11/2008 0:00,120HNA,120,H,,,,Motorgrader - 45.0 to 130.0 Horsepower,Florida,MG,Motor Graders,No,EROPS w AC,,,,,None or Unspecified,,None or Unspecified,14',Low Profile,No,Base + 1 Function,None or Unspecified,None or Unspecified,Yes,None or Unspecified,"17.5""",,,,,,,,,,,,,,,
23920,2239643,95000,770337,136,1.0,1998,0.0,,5/24/2007 0:00,120HNA,120,H,,,,Motorgrader - 45.0 to 130.0 Horsepower,Florida,MG,Motor Graders,No,EROPS,,,,,None or Unspecified,,None or Unspecified,14',None or Unspecified,No,Base + 1 Function,None or Unspecified,None or Unspecified,Yes,None or Unspecified,"15.5""",,,,,,,,,,,,,,,
23920,2239644,70000,765365,136,1.0,1000,0.0,,5/27/2009 0:00,120HNA,120,H,,,,Motorgrader - 45.0 to 130.0 Horsepower,Florida,MG,Motor Graders,No,EROPS w AC,,,,,None or Unspecified,,None or Unspecified,14',High Profile,Variable,Base + 1 Function,None or Unspecified,None or Unspecified,Yes,None or Unspecified,"15.5""",,,,,,,,,,,,,,,
23920,2239646,92500,1307733,136,2.0,1999,0.0,,8/7/2008 0:00,120HNA,120,H,,,,Motorgrader - 45.0 to 130.0 Horsepower,Florida,MG,Motor Graders,No,EROPS w AC,,,,,None or Unspecified,,None or Unspecified,None or Unspecified,None or Unspecified,Variable,Base + 1 Function,None or Unspecified,None or Unspecified,Yes,Sideshift & Tip,None or Unspecified,,,,,,,,,,,,,,,
23920,2239648,81000,1307733,136,2.0,1999,4736.0,Medium,5/3/2008 0:00,120HNA,120,H,,,,Motorgrader - 45.0 to 130.0 Horsepower,Florida,MG,Motor Graders,No,EROPS w AC,,,,,None or Unspecified,,None or Unspecified,None or Unspecified,None or Unspecified,Variable,Base + 1 Function,None or Unspecified,None or Unspecified,Yes,Sideshift & Tip,None or Unspecified,,,,,,,,,,,,,,,
23920,2239649,76000,1307733,136,4.0,1999,0.0,,2/9/2009 0:00,120HNA,120,H,,,,Motorgrader - 45.0 to 130.0 Horsepower,Florida,MG,Motor Graders,No,EROPS w AC,,,,,None or Unspecified,,None or Unspecified,None or Unspecified,None or Unspecified,Variable,Base + 1 Function,None or Unspecified,None or Unspecified,Yes,Sideshift & Tip,None or Unspecified,,,,,,,,,,,,,,,
23920,2239651,90000,780438,136,7.0,1999,5681.0,Medium,4/24/2008 0:00,120HNA,120,H,,,,Motorgrader - 45.0 to 130.0 Horsepower,South Carolina,MG,Motor Graders,No,EROPS w AC,,,,,None or Unspecified,,None or Unspecified,None or Unspecified,High Profile,Variable,Base + 1 Function,None or Unspecified,None or Unspecified,Yes,Tip,"14""",,,,,,,,,,,,,,,
23920,2239655,73000,145749,136,1.0,2000,0.0,,3/26/2009 0:00,120HNA,120,H,,,,Motorgrader - 45.0 to 130.0 Horsepower,Georgia,MG,Motor Graders,No,EROPS w AC,,,,,None or Unspecified,,None or Unspecified,12',Low Profile,No,Base + 1 Function,None or Unspecified,None or Unspecified,Yes,None or Unspecified,"14""",,,,,,,,,,,,,,,
23920,2239658,70000,123364,136,1.0,2000,0.0,,9/22/2009 0:00,120HNA,120,H,,,,Motorgrader - 45.0 to 130.0 Horsepower,North Carolina,MG,Motor Graders,No,EROPS w AC,,,,,None or Unspecified,,None or Unspecified,12',None or Unspecified,No,Base + 1 Function,None or Unspecified,None or Unspecified,Yes,None or Unspecified,"14""",,,,,,,,,,,,,,,
23920,2257770,105000,505588,136,,2000,3360.0,Medium,6/4/2008 0:00,120HNA,120,H,,,,Motorgrader - 45.0 to 130.0 Horsepower,Alabama,MG,Motor Graders,No,EROPS w AC,,,,,None or Unspecified,,Yes,14',Low Profile,No,Base + 1 Function,None or Unspecified,None or Unspecified,Yes,Tip,None or Unspecified,,,,,,,,,,,,,,,
23920,2257771,105000,505588,136,,2001,3300.0,Medium,5/29/2008 0:00,120HNA,120,H,,,,Motorgrader - 45.0 to 130.0 Horsepower,Mississippi,MG,Motor Graders,No,EROPS w AC,,,,,None or Unspecified,,Yes,14',Low Profile,No,Base + 1 Function,None or Unspecified,None or Unspecified,Yes,Tip,None or Unspecified,,,,,,,,,,,,,,,
23920,2257772,95000,254594,136,,2003,0.0,,11/12/2008 0:00,120HNA,120,H,,,,Motorgrader - 45.0 to 130.0 Horsepower,Texas,MG,Motor Graders,No,EROPS w AC,,,,,None or Unspecified,,None or Unspecified,None or Unspecified,None or Unspecified,No,Base + 1 Function,None or Unspecified,None or Unspecified,Yes,Sideshift & Tip,None or Unspecified,,,,,,,,,,,,,,,
23920,2257773,102500,461072,136,1.0,2001,0.0,,6/11/2008 0:00,120HNA,120,H,,,,Motorgrader - 45.0 to 130.0 Horsepower,Texas,MG,Motor Graders,No,EROPS w AC,,,,,None or Unspecified,,None or Unspecified,14',None or Unspecified,No,Base + 1 Function,None or Unspecified,None or Unspecified,Yes,None or Unspecified,"14""",,,,,,,,,,,,,,,
23920,2257775,90000,1551894,136,,2001,0.0,,6/4/2008 0:00,120HNA,120,H,,,,Motorgrader - 45.0 to 130.0 Horsepower,Alabama,MG,Motor Graders,No,EROPS w AC,,,,,None or Unspecified,,None or Unspecified,None or Unspecified,Low Profile,No,Base + 1 Function,None or Unspecified,None or Unspecified,Yes,Tip,None or Unspecified,,,,,,,,,,,,,,,
23920,2257776,70000,120006,136,1.0,2002,0.0,,12/8/2008 0:00,120HNA,120,H,,,,Motorgrader - 45.0 to 130.0 Horsepower,Illinois,MG,Motor Graders,No,EROPS w AC,,,,,None or Unspecified,,None or Unspecified,12',Low Profile,No,Base + 1 Function,None or Unspecified,None or Unspecified,Yes,None or Unspecified,"14""",,,,,,,,,,,,,,,
23920,2257777,100000,767264,136,1.0,2002,0.0,,5/28/2008 0:00,120HNA,120,H,,,,Motorgrader - 45.0 to 130.0 Horsepower,Florida,MG,Motor Graders,No,EROPS,,,,,None or Unspecified,,None or Unspecified,14',High Profile,Variable,Base + 1 Function,None or Unspecified,None or Unspecified,Yes,None or Unspecified,None or Unspecified,,,,,,,,,,,,,,,
23920,2257779,122500,597582,136,1.0,2002,3705.0,Medium,3/29/2007 0:00,120HNA,120,H,,,,Motorgrader - 45.0 to 130.0 Horsepower,Texas,MG,Motor Graders,No,EROPS w AC,,,,,None or Unspecified,,None or Unspecified,14',None or Unspecified,No,Base + 1 Function,None or Unspecified,None or Unspecified,Yes,None or Unspecified,"13""",,,,,,,,,,,,,,,
23920,2257780,67000,597582,136,1.0,2002,0.0,,6/10/2009 0:00,120HNA,120,H,,,,Motorgrader - 45.0 to 130.0 Horsepower,Texas,MG,Motor Graders,No,EROPS w AC,,,,,None or Unspecified,,None or Unspecified,14',None or Unspecified,No,Base + 1 Function,None or Unspecified,None or Unspecified,Yes,None or Unspecified,"13""",,,,,,,,,,,,,,,
23920,2257783,77000,117976,136,1.0,2002,0.0,,12/8/2009 0:00,120HNA,120,H,,,,Motorgrader - 45.0 to 130.0 Horsepower,North Carolina,MG,Motor Graders,No,EROPS w AC,,,,,None or Unspecified,,None or Unspecified,12',None or Unspecified,No,Base + 1 Function,None or Unspecified,None or Unspecified,Yes,None or Unspecified,"14""",,,,,,,,,,,,,,,
23920,2296497,100000,345507,136,2.0,2005,0.0,,3/19/2009 0:00,120HNA,120,H,,,,Motorgrader - 45.0 to 130.0 Horsepower,New Jersey,MG,Motor Graders,No,EROPS w AC,,,,,None or Unspecified,,None or Unspecified,None or Unspecified,None or Unspecified,No,Base + 1 Function,None or Unspecified,None or Unspecified,Yes,Sideshift & Tip,None or Unspecified,,,,,,,,,,,,,,,
23920,2296498,87500,802883,136,,2005,2544.0,Medium,9/11/2009 0:00,120HNA,120,H,,,,Motorgrader - 45.0 to 130.0 Horsepower,Georgia,MG,Motor Graders,No,EROPS w AC,,,,,None or Unspecified,,None or Unspecified,None or Unspecified,High Profile,No,Base + 1 Function,None or Unspecified,None or Unspecified,Yes,Sideshift & Tip,None or Unspecified,,,,,,,,,,,,,,,
23920,2296499,132500,622846,136,2.0,2006,0.0,,6/4/2008 0:00,120HNA,120,H,,,,Motorgrader - 45.0 to 130.0 Horsepower,Texas,MG,Motor Graders,No,EROPS w AC,,,,,None or Unspecified,,None or Unspecified,None or Unspecified,None or Unspecified,No,Base + 1 Function,None or Unspecified,None or Unspecified,Yes,Sideshift & Tip,None or Unspecified,,,,,,,,,,,,,,,
23920,2296500,130000,776575,136,1.0,2006,0.0,,2/16/2009 0:00,120HNA,120,H,,,,Motorgrader - 45.0 to 130.0 Horsepower,Florida,MG,Motor Graders,No,EROPS w AC,,,,,None or Unspecified,,None or Unspecified,14',High Profile,No,Base + 1 Function,None or Unspecified,None or Unspecified,Yes,None or Unspecified,None or Unspecified,,,,,,,,,,,,,,,
23920,2296504,127500,282823,136,2.0,2006,1302.0,Low,3/18/2010 0:00,120HNA,120,H,,,,Motorgrader - 45.0 to 130.0 Horsepower,Virginia,MG,Motor Graders,No,EROPS w AC,,,,,None or Unspecified,,None or Unspecified,12',Low Profile,No,Base + 1 Function,Yes,Yes,None or Unspecified,Sideshift & Tip,"14""",,,,,,,,,,,,,,,
23920,2296515,100000,773469,136,1.0,2006,0.0,,5/27/2009 0:00,120HNA,120,H,,,,Motorgrader - 45.0 to 130.0 Horsepower,Florida,MG,Motor Graders,No,EROPS w AC,,,,,None or Unspecified,,None or Unspecified,12',Low Profile,No,Base + 1 Function,None or Unspecified,None or Unspecified,Yes,None or Unspecified,"17.5""",,,,,,,,,,,,,,,
23920,2296517,135000,773469,136,1.0,2006,0.0,,10/15/2008 0:00,120HNA,120,H,,,,Motorgrader - 45.0 to 130.0 Horsepower,Florida,MG,Motor Graders,No,EROPS w AC,,,,,None or Unspecified,,None or Unspecified,12',Low Profile,No,Base + 1 Function,None or Unspecified,None or Unspecified,Yes,None or Unspecified,"17.5""",,,,,,,,,,,,,,,
23920,2296518,100000,790700,136,1.0,2006,0.0,,5/27/2009 0:00,120HNA,120,H,,,,Motorgrader - 45.0 to 130.0 Horsepower,Florida,MG,Motor Graders,No,EROPS w AC,,,,,None or Unspecified,,None or Unspecified,14',Low Profile,No,Base + 1 Function,None or Unspecified,None or Unspecified,Yes,None or Unspecified,None or Unspecified,,,,,,,,,,,,,,,
23920,2296521,92500,531381,136,1.0,2006,0.0,,5/27/2009 0:00,120HNA,120,H,,,,Motorgrader - 45.0 to 130.0 Horsepower,Florida,MG,Motor Graders,No,EROPS w AC,,,,,None or Unspecified,,None or Unspecified,12',High Profile,No,Base + 1 Function,None or Unspecified,None or Unspecified,Yes,Sideshift & Tip,"17.5""",,,,,,,,,,,,,,,
23920,2530003,58000,153748,149,13.0,1995,8336.0,Medium,9/18/2010 0:00,120HNA,120,H,,,,Motorgrader - 45.0 to 130.0 Horsepower,Tennessee,MG,Motor Graders,No,EROPS w AC,,,,,None or Unspecified,,None or Unspecified,14',None or Unspecified,No,Base + 1 Function,None or Unspecified,None or Unspecified,None or Unspecified,Sideshift & Tip,"13""",,,,,,,,,,,,,,,
23920,2530007,71000,113516,149,1.0,1996,0.0,,3/31/2011 0:00,120HNA,120,H,,,,Motorgrader - 45.0 to 130.0 Horsepower,Georgia,MG,Motor Graders,No,EROPS w AC,,,,,None or Unspecified,,None or Unspecified,12',Low Profile,No,Base + 1 Function,None or Unspecified,None or Unspecified,Yes,None or Unspecified,"14""",,,,,,,,,,,,,,,
23920,2530009,70000,126504,149,1.0,1996,10313.0,Medium,2/15/2011 0:00,120HNA,120,H,,,,Motorgrader - 45.0 to 130.0 Horsepower,Florida,MG,Motor Graders,No,EROPS w AC,,,,,None or Unspecified,,None or Unspecified,12',Low Profile,No,Base + 1 Function,None or Unspecified,None or Unspecified,Yes,None or Unspecified,"14""",,,,,,,,,,,,,,,
23920,2530012,65000,613026,149,1.0,1997,0.0,,3/24/2010 0:00,120HNA,120,H,,,,Motorgrader - 45.0 to 130.0 Horsepower,Texas,MG,Motor Graders,No,EROPS w AC,,,,,None or Unspecified,,None or Unspecified,12',None or Unspecified,No,Base + 1 Function,Yes,None or Unspecified,Yes,None or Unspecified,"14""",,,,,,,,,,,,,,,
23920,2530014,65000,603545,149,1.0,1997,0.0,,3/24/2010 0:00,120HNA,120,H,,,,Motorgrader - 45.0 to 130.0 Horsepower,Texas,MG,Motor Graders,No,EROPS w AC,,,,,None or Unspecified,,None or Unspecified,12',None or Unspecified,No,Base + 1 Function,Yes,None or Unspecified,Yes,None or Unspecified,"13""",,,,,,,,,,,,,,,
23920,2530018,67000,593161,149,2.0,1997,0.0,,1/29/2011 0:00,120HNA,120,H,,,,Motorgrader - 45.0 to 130.0 Horsepower,Florida,MG,Motor Graders,No,OROPS,,,,,None or Unspecified,,None or Unspecified,12',High Profile,No,Base + 1 Function,Yes,None or Unspecified,Yes,None or Unspecified,None or Unspecified,,,,,,,,,,,,,,,
23920,2530021,72500,1340922,149,1.0,1998,9844.0,Medium,2/15/2011 0:00,120HNA,120,H,,,,Motorgrader - 45.0 to 130.0 Horsepower,Florida,MG,Motor Graders,No,EROPS,,,,,None or Unspecified,,None or Unspecified,14',None or Unspecified,Variable,Base + 1 Function,None or Unspecified,None or Unspecified,Yes,None or Unspecified,"15.5""",,,,,,,,,,,,,,,
23920,2530035,72000,107759,149,1.0,1999,9550.0,High,12/7/2010 0:00,120HNA,120,H,,,,Motorgrader - 45.0 to 130.0 Horsepower,North Carolina,MG,Motor Graders,No,EROPS w AC,,,,,None or Unspecified,,None or Unspecified,12',Low Profile,No,Base + 1 Function,None or Unspecified,None or Unspecified,Yes,None or Unspecified,"14""",,,,,,,,,,,,,,,
23920,2530043,86000,900067,149,1.0,2001,5179.0,Medium,10/12/2010 0:00,120HNA,120,H,,,,Motorgrader - 45.0 to 130.0 Horsepower,Kentucky,MG,Motor Graders,No,EROPS w AC,,,,,None or Unspecified,,Yes,12',None or Unspecified,No,Base + 1 Function,None or Unspecified,None or Unspecified,None or Unspecified,None or Unspecified,"14""",,,,,,,,,,,,,,,
23920,2580303,117000,413582,149,4.0,2005,2891.0,Medium,2/7/2011 0:00,120HNA,120,H,,,,Motorgrader - 45.0 to 130.0 Horsepower,Florida,MG,Motor Graders,No,EROPS w AC,,,,,None or Unspecified,,None or Unspecified,None or Unspecified,None or Unspecified,Variable,Base + 1 Function,None or Unspecified,None or Unspecified,None or Unspecified,Sideshift & Tip,None or Unspecified,,,,,,,,,,,,,,,
23920,2580311,111000,282823,149,2.0,2006,1500.0,Medium,12/18/2010 0:00,120HNA,120,H,,,,Motorgrader - 45.0 to 130.0 Horsepower,New Jersey,MG,Motor Graders,No,EROPS w AC,,,,,None or Unspecified,,None or Unspecified,12',Low Profile,No,Base + 1 Function,Yes,Yes,None or Unspecified,Sideshift & Tip,"14""",,,,,,,,,,,,,,,
23920,2580312,117500,282823,149,2.0,2006,1500.0,Low,1/29/2011 0:00,120HNA,120,H,,,,Motorgrader - 45.0 to 130.0 Horsepower,Florida,MG,Motor Graders,No,EROPS w AC,,,,,None or Unspecified,,None or Unspecified,12',Low Profile,No,Base + 1 Function,Yes,Yes,None or Unspecified,Sideshift & Tip,"14""",,,,,,,,,,,,,,,
23920,2580323,120000,410926,149,4.0,2006,0.0,,5/25/2011 0:00,120HNA,120,H,,,,Motorgrader - 45.0 to 130.0 Horsepower,Mississippi,MG,Motor Graders,No,OROPS,,,,,None or Unspecified,,None or Unspecified,None or Unspecified,None or Unspecified,Variable,Base + 1 Function,None or Unspecified,None or Unspecified,Yes,Sideshift & Tip,None or Unspecified,,,,,,,,,,,,,,,
23920,2580343,117000,414058,149,4.0,2006,1977.0,Medium,2/7/2011 0:00,120HNA,120,H,,,,Motorgrader - 45.0 to 130.0 Horsepower,Florida,MG,Motor Graders,No,EROPS w AC,,,,,None or Unspecified,,None or Unspecified,None or Unspecified,None or Unspecified,Variable,Base + 1 Function,None or Unspecified,None or Unspecified,None or Unspecified,Sideshift & Tip,None or Unspecified,,,,,,,,,,,,,,,
23920,4265662,55000,507401,172,1.0,1996,31795.0,High,6/10/2009 0:00,120HNA,120,H,,,,Motorgrader - 45.0 to 130.0 Horsepower,Texas,MG,Motor Graders,No,EROPS,,,,,None or Unspecified,,None or Unspecified,14',None or Unspecified,No,Base + 1 Function,None or Unspecified,None or Unspecified,Yes,None or Unspecified,"14""",,,,,,,,,,,,,,,
23920,4265679,89000,2307106,172,1.0,2000,5111.0,Medium,9/15/2011 0:00,120HNA,120,H,,,,Motorgrader - 45.0 to 130.0 Horsepower,South Carolina,MG,Motor Graders,No,EROPS w AC,,,,,None or Unspecified,,None or Unspecified,12',Low Profile,No,Base + 1 Function,None or Unspecified,None or Unspecified,Yes,None or Unspecified,"14""",,,,,,,,,,,,,,,
23920,4294215,100000,778679,172,1.0,2005,7506.0,High,2/15/2011 0:00,120HNA,120,H,,,,Motorgrader - 45.0 to 130.0 Horsepower,Florida,MG,Motor Graders,No,EROPS w AC,,,,,None or Unspecified,,None or Unspecified,14',High Profile,No,Base + 1 Function,None or Unspecified,None or Unspecified,Yes,None or Unspecified,None or Unspecified,,,,,,,,,,,,,,,
23920,4294224,115000,2266876,172,1.0,2004,2045.0,Low,9/28/2011 0:00,120HNA,120,H,,,,Motorgrader - 45.0 to 130.0 Horsepower,Tennessee,MG,Motor Graders,No,EROPS w AC,,,,,None or Unspecified,,None or Unspecified,12',None or Unspecified,No,Base + 1 Function,Yes,Yes,Yes,None or Unspecified,"14""",,,,,,,,,,,,,,,
23920,6264294,89000,267394,149,1.0,2000,,,9/16/2011 0:00,120HNA,120,H,,,,Motorgrader - 45.0 to 130.0 Horsepower,South Carolina,MG,Motor Graders,No,EROPS w AC,,,,,None or Unspecified,,None or Unspecified,12',Low Profile,No,Base + 1 Function,None or Unspecified,None or Unspecified,Yes,Sideshift & Tip,"14""",,,,,,,,,,,,,,,
23920,6267577,85000,359792,149,8.0,2002,,,11/16/2011 0:00,120HNA,120,H,,,,Motorgrader - 45.0 to 130.0 Horsepower,Mississippi,MG,Motor Graders,No,EROPS w AC,,,,,None or Unspecified,,None or Unspecified,None or Unspecified,None or Unspecified,Variable,Base + 1 Function,None or Unspecified,Yes,Yes,None or Unspecified,None or Unspecified,,,,,,,,,,,,,,,
23920,6274582,115000,122495,149,1.0,2004,,,9/29/2011 0:00,120HNA,120,H,,,,Motorgrader - 45.0 to 130.0 Horsepower,Tennessee,MG,Motor Graders,No,EROPS w AC,,,,,None or Unspecified,,None or Unspecified,12',None or Unspecified,No,Base + 1 Function,None or Unspecified,None or Unspecified,Yes,None or Unspecified,None or Unspecified,,,,,,,,,,,,,,,
