ModelID,SalesID,SalePrice,MachineID,datasource,auctioneerID,YearMade,MachineHoursCurrentMeter,UsageBand,saledate,fiModelDesc,fiBaseModel,fiSecondaryDesc,fiModelSeries,fiModelDescriptor,ProductSize,fiProductClassDesc,state,ProductGroup,ProductGroupDesc,Drive_System,Enclosure,Forks,Pad_Type,Ride_Control,Stick,Transmission,Turbocharged,Blade_Extension,Blade_Width,Enclosure_Type,Engine_Horsepower,Hydraulics,Pushblock,Ripper,Scarifier,Tip_Control,Tire_Size,Coupler,Coupler_System,Grouser_Tracks,Hydraulics_Flow,Track_Type,Undercarriage_Pad_Width,Stick_Length,Thumb,Pattern_Changer,Grouser_Type,Backhoe_Mounting,Blade_Type,Travel_Controls,Differential_Type,Steering_Controls
241,1144208,26000,1014471,121,3.0,1999,5286.0,Medium,6/16/2011 0:00,D58E-1,D58,E,-1,,Medium,"Track Type Tractor, Dozer - 105.0 to 130.0 Horsepower",Louisiana,TTT,Track Type Tractors,,OROPS,,,,,Standard,,,,,,2 Valve,,None or Unspecified,,,,,,,,,,,,,,None or Unspecified,PAT,None or Unspecified,,
241,1152481,11000,1047052,121,3.0,1999,6936.0,Medium,8/20/2009 0:00,D58E-1,D58,E,-1,,Medium,"Track Type Tractor, Dozer - 105.0 to 130.0 Horsepower",Texas,TTT,Track Type Tractors,,EROPS w AC,,,,,Standard,,,,,,2 Valve,,None or Unspecified,,,,,,,,,,,,,,None or Unspecified,PAT,None or Unspecified,,
241,1161688,33000,1043145,121,3.0,1998,3906.0,Medium,8/11/2005 0:00,D58E-1,D58,E,-1,,Medium,"Track Type Tractor, Dozer - 105.0 to 130.0 Horsepower",Kentucky,TTT,Track Type Tractors,,OROPS,,,,,Standard,,,,,,2 Valve,,None or Unspecified,,,,,,,,,,,,,,None or Unspecified,None or Unspecified,None or Unspecified,,
241,1165392,24500,1046615,121,3.0,1000,7013.0,Low,3/17/2011 0:00,D58E-1,D58,E,-1,,Medium,"Track Type Tractor, Dozer - 105.0 to 130.0 Horsepower",Georgia,TTT,Track Type Tractors,,OROPS,,,,,Powershift,,,,,,2 Valve,,None or Unspecified,,,,,,,,,,,,,,None or Unspecified,PAT,Lever,,
241,1171074,38000,1053070,121,3.0,1999,2913.0,Medium,8/11/2005 0:00,D58E-1,D58,E,-1,,Medium,"Track Type Tractor, Dozer - 105.0 to 130.0 Horsepower",Texas,TTT,Track Type Tractors,,OROPS,,,,,Standard,,,,,,2 Valve,,None or Unspecified,,,,,,,,,,,,,,None or Unspecified,None or Unspecified,None or Unspecified,,
241,1178748,11000,1041583,121,3.0,1000,0.0,,4/17/2008 0:00,D58E-1,D58,E,-1,,Medium,"Track Type Tractor, Dozer - 105.0 to 130.0 Horsepower",Florida,TTT,Track Type Tractors,,EROPS,,,,,Powershift,,,,,,2 Valve,,None or Unspecified,,,,,,,,,,,,,,None or Unspecified,None or Unspecified,None or Unspecified,,
241,1182434,15500,1010501,121,3.0,1994,4924.0,Low,9/4/2008 0:00,D58E-1,D58,E,-1,,Medium,"Track Type Tractor, Dozer - 105.0 to 130.0 Horsepower",Texas,TTT,Track Type Tractors,,OROPS,,,,,Powershift,,,,,,2 Valve,,None or Unspecified,,,,,,,,,,,,,,None or Unspecified,None or Unspecified,None or Unspecified,,
241,1185438,20000,1052310,121,3.0,1995,6560.0,Medium,11/20/2008 0:00,D58E-1,D58,E,-1,,Medium,"Track Type Tractor, Dozer - 105.0 to 130.0 Horsepower",Florida,TTT,Track Type Tractors,,OROPS,,,,,Powershift,,,,,,2 Valve,,None or Unspecified,,,,,,,,,,,,,,None or Unspecified,PAT,None or Unspecified,,
241,1185577,16500,1010562,121,3.0,1995,7778.0,Medium,12/11/2008 0:00,D58E-1,D58,E,-1,,Medium,"Track Type Tractor, Dozer - 105.0 to 130.0 Horsepower",Georgia,TTT,Track Type Tractors,,OROPS,,,,,Powershift,,,,,,2 Valve,,None or Unspecified,,,,,,,,,,,,,,None or Unspecified,None or Unspecified,None or Unspecified,,
241,1185578,16500,1065627,121,3.0,1998,8410.0,Medium,12/11/2008 0:00,D58E-1,D58,E,-1,,Medium,"Track Type Tractor, Dozer - 105.0 to 130.0 Horsepower",Georgia,TTT,Track Type Tractors,,OROPS,,,,,Powershift,,,,,,2 Valve,,None or Unspecified,,,,,,,,,,,,,,None or Unspecified,None or Unspecified,None or Unspecified,,
241,1190647,18000,1010043,121,3.0,1998,8858.0,Medium,5/28/2009 0:00,D58E-1,D58,E,-1,,Medium,"Track Type Tractor, Dozer - 105.0 to 130.0 Horsepower",Georgia,TTT,Track Type Tractors,,OROPS,,,,,Powershift,,,,,,2 Valve,,None or Unspecified,,,,,,,,,,,,,,None or Unspecified,None or Unspecified,None or Unspecified,,
241,1211242,18500,1005292,121,3.0,1998,6562.0,Medium,2/24/2011 0:00,D58E-1,D58,E,-1,,Medium,"Track Type Tractor, Dozer - 105.0 to 130.0 Horsepower",Oklahoma,TTT,Track Type Tractors,,OROPS,,,,,Powershift,,,,,,2 Valve,,None or Unspecified,,,,,,,,,,,,,,None or Unspecified,PAT,None or Unspecified,,
241,1212600,23500,1008712,121,3.0,1000,3210.0,Low,3/17/2011 0:00,D58E-1,D58,E,-1,,Medium,"Track Type Tractor, Dozer - 105.0 to 130.0 Horsepower",California,TTT,Track Type Tractors,,OROPS,,,,,Powershift,,,,,,2 Valve,,None or Unspecified,,,,,,,,,,,,,,None or Unspecified,PAT,None or Unspecified,,
241,1216034,20500,1036322,121,3.0,1000,8300.0,Low,7/14/2011 0:00,D58E-1,D58,E,-1,,Medium,"Track Type Tractor, Dozer - 105.0 to 130.0 Horsepower",West Virginia,TTT,Track Type Tractors,,OROPS,,,,,Powershift,,,,,,2 Valve,,Single Shank,,,,,,,,,,,,,,None or Unspecified,None or Unspecified,Lever,,
241,1731563,38000,1046600,132,13.0,1000,,,3/20/1999 0:00,D58E-1,D58,E,-1,,Medium,"Track Type Tractor, Dozer - 105.0 to 130.0 Horsepower",Tennessee,TTT,Track Type Tractors,,EROPS w AC,,,,,Standard,,,,,,2 Valve,,None or Unspecified,,,,,,,,,,,,,,None or Unspecified,PAT,None or Unspecified,,
241,1760038,14000,735110,132,8.0,1000,,,5/28/2003 0:00,D58E-1,D58,E,-1,,Medium,"Track Type Tractor, Dozer - 105.0 to 130.0 Horsepower",Mississippi,TTT,Track Type Tractors,,OROPS,,,,,Standard,,,,,,2 Valve,,None or Unspecified,,,,,,,,,,,,,,None or Unspecified,Straight,None or Unspecified,,
241,1760090,14500,1552186,132,1.0,1988,,,4/23/2003 0:00,D58E-1,D58,E,-1,,Medium,"Track Type Tractor, Dozer - 105.0 to 130.0 Horsepower",Ohio,TTT,Track Type Tractors,,OROPS,,,,,Standard,,,,,,2 Valve,,None or Unspecified,,,,,,,,,,,,,,None or Unspecified,Straight,None or Unspecified,,
241,1760092,10500,1108727,132,4.0,1989,,,2/15/2006 0:00,D58E-1,D58,E,-1,,Medium,"Track Type Tractor, Dozer - 105.0 to 130.0 Horsepower",Florida,TTT,Track Type Tractors,,OROPS,,,,,Standard,,,,,,2 Valve,,None or Unspecified,,,,,,,,,,,,,,None or Unspecified,Straight,None or Unspecified,,
241,1760093,10500,1108727,132,4.0,1989,,,2/13/2006 0:00,D58E-1,D58,E,-1,,Medium,"Track Type Tractor, Dozer - 105.0 to 130.0 Horsepower",Florida,TTT,Track Type Tractors,,OROPS,,,,,Standard,,,,,,2 Valve,,None or Unspecified,,,,,,,,,,,,,,None or Unspecified,Straight,None or Unspecified,,
241,1760094,46000,1485407,132,23.0,1989,2153.0,Low,3/24/1994 0:00,D58E-1,D58,E,-1,,Medium,"Track Type Tractor, Dozer - 105.0 to 130.0 Horsepower",Pennsylvania,TTT,Track Type Tractors,,OROPS,,,,,Standard,,,,,,2 Valve,,None or Unspecified,,,,,,,,,,,,,,None or Unspecified,Straight,None or Unspecified,,
241,1760099,16000,1500800,132,1.0,1987,,,11/15/2005 0:00,D58E-1,D58,E,-1,,Medium,"Track Type Tractor, Dozer - 105.0 to 130.0 Horsepower",Georgia,TTT,Track Type Tractors,,OROPS,,,,,Standard,,,,,,2 Valve,,None or Unspecified,,,,,,,,,,,,,,None or Unspecified,Semi U,None or Unspecified,,
241,1760106,34000,1041583,132,13.0,1988,,,3/22/1997 0:00,D58E-1,D58,E,-1,,Medium,"Track Type Tractor, Dozer - 105.0 to 130.0 Horsepower",Tennessee,TTT,Track Type Tractors,,EROPS,,,,,Powershift,,,,,,2 Valve,,None or Unspecified,,,,,,,,,,,,,,None or Unspecified,None or Unspecified,None or Unspecified,,
241,1760149,22500,1442364,132,6.0,1987,,,11/17/1998 0:00,D58E-1,D58,E,-1,,Medium,"Track Type Tractor, Dozer - 105.0 to 130.0 Horsepower",New York,TTT,Track Type Tractors,,OROPS,,,,,Standard,,,,,,2 Valve,,None or Unspecified,,,,,,,,,,,,,,None or Unspecified,Straight,None or Unspecified,,
241,1760156,25750,1269089,132,12.0,1987,,,11/19/1997 0:00,D58E-1,D58,E,-1,,Medium,"Track Type Tractor, Dozer - 105.0 to 130.0 Horsepower",Florida,TTT,Track Type Tractors,,OROPS,,,,,Standard,,,,,,2 Valve,,None or Unspecified,,,,,,,,,,,,,,None or Unspecified,Straight,None or Unspecified,,
241,1760158,15500,1096613,132,1.0,1987,,,11/14/2002 0:00,D58E-1,D58,E,-1,,Medium,"Track Type Tractor, Dozer - 105.0 to 130.0 Horsepower",Georgia,TTT,Track Type Tractors,,EROPS,,,,,Powershift,,,,,,2 Valve,,None or Unspecified,,,,,,,,,,,,,,None or Unspecified,Straight,None or Unspecified,,
241,1760159,16000,1174328,132,4.0,1991,,,2/11/2002 0:00,D58E-1,D58,E,-1,,Medium,"Track Type Tractor, Dozer - 105.0 to 130.0 Horsepower",Florida,TTT,Track Type Tractors,,OROPS,,,,,Standard,,,,,,2 Valve,,None or Unspecified,,,,,,,,,,,,,,None or Unspecified,Straight,None or Unspecified,,
241,1760182,20000,1396912,132,4.0,1992,,,4/18/2000 0:00,D58E-1,D58,E,-1,,Medium,"Track Type Tractor, Dozer - 105.0 to 130.0 Horsepower",Georgia,TTT,Track Type Tractors,,OROPS,,,,,Standard,,,,,,2 Valve,,None or Unspecified,,,,,,,,,,,,,,None or Unspecified,None or Unspecified,None or Unspecified,,
241,1760193,17000,1362787,132,8.0,1988,,,5/29/2002 0:00,D58E-1,D58,E,-1,,Medium,"Track Type Tractor, Dozer - 105.0 to 130.0 Horsepower",Mississippi,TTT,Track Type Tractors,,OROPS,,,,,Standard,,,,,,2 Valve,,None or Unspecified,,,,,,,,,,,,,,None or Unspecified,None or Unspecified,None or Unspecified,,
241,1760209,47000,1493352,132,1.0,1988,,,6/27/1995 0:00,D58E-1,D58,E,-1,,Medium,"Track Type Tractor, Dozer - 105.0 to 130.0 Horsepower",Texas,TTT,Track Type Tractors,,OROPS,,,,,Standard,,,,,,2 Valve,,None or Unspecified,,,,,,,,,,,,,,None or Unspecified,Straight,None or Unspecified,,
241,1760232,37000,1503740,132,16.0,1993,,,9/30/1999 0:00,D58E-1,D58,E,-1,,Medium,"Track Type Tractor, Dozer - 105.0 to 130.0 Horsepower",Ohio,TTT,Track Type Tractors,,OROPS,,,,,Standard,,,,,,3 Valve,,None or Unspecified,,,,,,,,,,,,,,None or Unspecified,Straight,None or Unspecified,,
241,1760236,31500,1263733,132,4.0,1988,,,5/24/1994 0:00,D58E-1,D58,E,-1,,Medium,"Track Type Tractor, Dozer - 105.0 to 130.0 Horsepower",Ohio,TTT,Track Type Tractors,,OROPS,,,,,Standard,,,,,,2 Valve,,None or Unspecified,,,,,,,,,,,,,,None or Unspecified,None or Unspecified,None or Unspecified,,
241,1760237,21000,1225723,132,13.0,1990,,,3/18/2000 0:00,D58E-1,D58,E,-1,,Medium,"Track Type Tractor, Dozer - 105.0 to 130.0 Horsepower",Tennessee,TTT,Track Type Tractors,,OROPS,,,,,Standard,,,,,,2 Valve,,None or Unspecified,,,,,,,,,,,,,,None or Unspecified,Straight,None or Unspecified,,
241,1760238,23000,1472014,132,28.0,1990,,,9/15/2001 0:00,D58E-1,D58,E,-1,,Medium,"Track Type Tractor, Dozer - 105.0 to 130.0 Horsepower",Mississippi,TTT,Track Type Tractors,,OROPS,,,,,Standard,,,,,,2 Valve,,None or Unspecified,,,,,,,,,,,,,,None or Unspecified,Straight,None or Unspecified,,
241,1760239,19000,1472014,132,28.0,1990,,,3/9/2002 0:00,D58E-1,D58,E,-1,,Medium,"Track Type Tractor, Dozer - 105.0 to 130.0 Horsepower",Mississippi,TTT,Track Type Tractors,,OROPS,,,,,Standard,,,,,,2 Valve,,None or Unspecified,,,,,,,,,,,,,,None or Unspecified,Straight,None or Unspecified,,
241,1760241,37000,1379028,132,11.0,1000,,,3/27/1997 0:00,D58E-1,D58,E,-1,,Medium,"Track Type Tractor, Dozer - 105.0 to 130.0 Horsepower",Mississippi,TTT,Track Type Tractors,,OROPS,,,,,Standard,,,,,,2 Valve,,None or Unspecified,,,,,,,,,,,,,,None or Unspecified,Straight,None or Unspecified,,
241,1760242,35000,1206115,132,11.0,1000,,,3/27/1997 0:00,D58E-1,D58,E,-1,,Medium,"Track Type Tractor, Dozer - 105.0 to 130.0 Horsepower",Mississippi,TTT,Track Type Tractors,,OROPS,,,,,Standard,,,,,,2 Valve,,None or Unspecified,,,,,,,,,,,,,,None or Unspecified,Straight,None or Unspecified,,
241,1760246,37000,1533977,132,7.0,1993,,,3/5/1998 0:00,D58E-1,D58,E,-1,,Medium,"Track Type Tractor, Dozer - 105.0 to 130.0 Horsepower",Alabama,TTT,Track Type Tractors,,OROPS,,,,,Standard,,,,,,2 Valve,,None or Unspecified,,,,,,,,,,,,,,None or Unspecified,Straight,None or Unspecified,,
241,1760263,17000,1109916,132,8.0,1000,,,9/15/2010 0:00,D58E-1,D58,E,-1,,Medium,"Track Type Tractor, Dozer - 105.0 to 130.0 Horsepower",Mississippi,TTT,Track Type Tractors,,OROPS,,,,,Standard,,,,,,2 Valve,,None or Unspecified,,,,,,,,,,,,,,None or Unspecified,Straight,Differential Steer,,
241,1760264,25000,1109916,132,1.0,1992,,,3/29/2002 0:00,D58E-1,D58,E,-1,,Medium,"Track Type Tractor, Dozer - 105.0 to 130.0 Horsepower",North Carolina,TTT,Track Type Tractors,,OROPS,,,,,Standard,,,,,,2 Valve,,None or Unspecified,,,,,,,,,,,,,,None or Unspecified,Straight,Differential Steer,,
241,1760265,29000,1117909,132,6.0,1990,,,2/11/1998 0:00,D58E-1,D58,E,-1,,Medium,"Track Type Tractor, Dozer - 105.0 to 130.0 Horsepower",Florida,TTT,Track Type Tractors,,OROPS,,,,,Standard,,,,,,2 Valve,,None or Unspecified,,,,,,,,,,,,,,None or Unspecified,None or Unspecified,None or Unspecified,,
241,1760319,49500,1112808,132,6.0,1989,,,12/18/1996 0:00,D58E-1,D58,E,-1,,Medium,"Track Type Tractor, Dozer - 105.0 to 130.0 Horsepower",Kentucky,TTT,Track Type Tractors,,OROPS,,,,,Standard,,,,,,2 Valve,,None or Unspecified,,,,,,,,,,,,,,None or Unspecified,PAT,None or Unspecified,,
241,1760329,38000,1231835,132,99.0,1989,,,9/18/1998 0:00,D58E-1,D58,E,-1,,Medium,"Track Type Tractor, Dozer - 105.0 to 130.0 Horsepower",Pennsylvania,TTT,Track Type Tractors,,OROPS,,,,,Standard,,,,,,2 Valve,,None or Unspecified,,,,,,,,,,,,,,None or Unspecified,PAT,None or Unspecified,,
241,1760332,22500,1127396,132,4.0,1989,,,2/11/2002 0:00,D58E-1,D58,E,-1,,Medium,"Track Type Tractor, Dozer - 105.0 to 130.0 Horsepower",Florida,TTT,Track Type Tractors,,OROPS,,,,,Standard,,,,,,2 Valve,,None or Unspecified,,,,,,,,,,,,,,None or Unspecified,PAT,None or Unspecified,,
241,1760343,15000,1304888,132,1.0,1000,,,6/28/2003 0:00,D58E-1,D58,E,-1,,Medium,"Track Type Tractor, Dozer - 105.0 to 130.0 Horsepower",California,TTT,Track Type Tractors,,OROPS,,,,,Standard,,,,,,2 Valve,,None or Unspecified,,,,,,,,,,,,,,None or Unspecified,PAT,None or Unspecified,,
241,1760382,25000,1462521,132,13.0,1990,,,9/14/2002 0:00,D58E-1,D58,E,-1,,Medium,"Track Type Tractor, Dozer - 105.0 to 130.0 Horsepower",Tennessee,TTT,Track Type Tractors,,OROPS,,,,,Standard,,,,,,2 Valve,,None or Unspecified,,,,,,,,,,,,,,None or Unspecified,PAT,None or Unspecified,,
241,1760427,28000,1483732,132,1.0,1990,,,9/9/1999 0:00,D58E-1,D58,E,-1,,Medium,"Track Type Tractor, Dozer - 105.0 to 130.0 Horsepower",Georgia,TTT,Track Type Tractors,,OROPS,,,,,Standard,,,,,,2 Valve,,None or Unspecified,,,,,,,,,,,,,,None or Unspecified,PAT,None or Unspecified,,
241,1760440,23500,1195357,132,8.0,1992,,,3/27/2002 0:00,D58E-1,D58,E,-1,,Medium,"Track Type Tractor, Dozer - 105.0 to 130.0 Horsepower",Mississippi,TTT,Track Type Tractors,,OROPS,,,,,Standard,,,,,,2 Valve,,None or Unspecified,,,,,,,,,,,,,,None or Unspecified,PAT,None or Unspecified,,
241,1760447,17500,1459515,132,8.0,1990,,,8/25/2005 0:00,D58E-1,D58,E,-1,,Medium,"Track Type Tractor, Dozer - 105.0 to 130.0 Horsepower",Georgia,TTT,Track Type Tractors,,OROPS,,,,,Standard,,,,,,2 Valve,,None or Unspecified,,,,,,,,,,,,,,None or Unspecified,None or Unspecified,None or Unspecified,,
241,1760448,22500,735865,132,7.0,1991,,,3/9/2005 0:00,D58E-1,D58,E,-1,,Medium,"Track Type Tractor, Dozer - 105.0 to 130.0 Horsepower",Alabama,TTT,Track Type Tractors,,OROPS,,,,,Standard,,,,,,2 Valve,,None or Unspecified,,,,,,,,,,,,,,None or Unspecified,PAT,None or Unspecified,,
241,1760456,22500,1189444,132,1.0,1990,,,9/27/2001 0:00,D58E-1,D58,E,-1,,Medium,"Track Type Tractor, Dozer - 105.0 to 130.0 Horsepower",Maryland,TTT,Track Type Tractors,,OROPS,,,,,Standard,,,,,,2 Valve,,None or Unspecified,,,,,,,,,,,,,,None or Unspecified,PAT,None or Unspecified,,
241,1760458,30000,1533904,132,15.0,1990,,,5/5/2005 0:00,D58E-1,D58,E,-1,,Medium,"Track Type Tractor, Dozer - 105.0 to 130.0 Horsepower",Pennsylvania,TTT,Track Type Tractors,,OROPS,,,,,Powershift,,,,,,2 Valve,,None or Unspecified,,,,,,,,,,,,,,None or Unspecified,PAT,None or Unspecified,,
241,1760474,52000,1539954,132,1.0,1990,,,4/24/1997 0:00,D58E-1,D58,E,-1,,Medium,"Track Type Tractor, Dozer - 105.0 to 130.0 Horsepower",Wyoming,TTT,Track Type Tractors,,OROPS,,,,,Standard,,,,,,2 Valve,,None or Unspecified,,,,,,,,,,,,,,None or Unspecified,PAT,None or Unspecified,,
241,1760477,37000,1436193,132,20.0,1991,,,9/21/1995 0:00,D58E-1,D58,E,-1,,Medium,"Track Type Tractor, Dozer - 105.0 to 130.0 Horsepower",Texas,TTT,Track Type Tractors,,OROPS,,,,,Powershift,,,,,,2 Valve,,None or Unspecified,,,,,,,,,,,,,,None or Unspecified,Straight,None or Unspecified,,
241,1760480,20000,1273269,132,1.0,1991,,,9/29/2005 0:00,D58E-1,D58,E,-1,,Medium,"Track Type Tractor, Dozer - 105.0 to 130.0 Horsepower",Texas,TTT,Track Type Tractors,,OROPS,,,,,Standard,,,,,,2 Valve,,None or Unspecified,,,,,,,,,,,,,,None or Unspecified,PAT,None or Unspecified,,
241,1760482,46000,1308508,132,10.0,1991,,,4/10/1997 0:00,D58E-1,D58,E,-1,,Medium,"Track Type Tractor, Dozer - 105.0 to 130.0 Horsepower",Louisiana,TTT,Track Type Tractors,,OROPS,,,,,Standard,,,,,,2 Valve,,None or Unspecified,,,,,,,,,,,,,,None or Unspecified,Straight,None or Unspecified,,
241,1760491,22500,41116,132,10.0,1992,,,6/27/2002 0:00,D58E-1,D58,E,-1,,Medium,"Track Type Tractor, Dozer - 105.0 to 130.0 Horsepower",Louisiana,TTT,Track Type Tractors,,OROPS,,,,,Standard,,,,,,2 Valve,,None or Unspecified,,,,,,,,,,,,,,None or Unspecified,None or Unspecified,None or Unspecified,,
241,1760499,18000,1511106,132,2.0,1000,,,12/7/2005 0:00,D58E-1,D58,E,-1,,Medium,"Track Type Tractor, Dozer - 105.0 to 130.0 Horsepower",Texas,TTT,Track Type Tractors,,EROPS,,,,,Standard,,,,,,2 Valve,,None or Unspecified,,,,,,,,,,,,,,None or Unspecified,PAT,None or Unspecified,,
241,1760515,25500,1369083,132,10.0,1992,,,6/22/2006 0:00,D58E-1,D58,E,-1,,Medium,"Track Type Tractor, Dozer - 105.0 to 130.0 Horsepower",Louisiana,TTT,Track Type Tractors,,OROPS,,,,,Standard,,,,,,2 Valve,,None or Unspecified,,,,,,,,,,,,,,None or Unspecified,PAT,None or Unspecified,,
241,1760528,42000,1177757,132,6.0,1992,,,2/11/1998 0:00,D58E-1,D58,E,-1,,Medium,"Track Type Tractor, Dozer - 105.0 to 130.0 Horsepower",Florida,TTT,Track Type Tractors,,OROPS,,,,,Standard,,,,,,2 Valve,,None or Unspecified,,,,,,,,,,,,,,None or Unspecified,PAT,None or Unspecified,,
241,1760530,33000,1092469,132,1.0,1992,,,6/17/1998 0:00,D58E-1,D58,E,-1,,Medium,"Track Type Tractor, Dozer - 105.0 to 130.0 Horsepower",Texas,TTT,Track Type Tractors,,OROPS,,,,,Standard,,,,,,2 Valve,,Multi Shank,,,,,,,,,,,,,,None or Unspecified,Straight,None or Unspecified,,
241,1760531,37000,1124057,132,6.0,1992,,,11/12/1997 0:00,D58E-1,D58,E,-1,,Medium,"Track Type Tractor, Dozer - 105.0 to 130.0 Horsepower",Maryland,TTT,Track Type Tractors,,OROPS,,,,,Standard,,,,,,2 Valve,,None or Unspecified,,,,,,,,,,,,,,None or Unspecified,PAT,None or Unspecified,,
241,1760533,18000,1170280,132,2.0,1000,,,10/28/2000 0:00,D58E-1,D58,E,-1,,Medium,"Track Type Tractor, Dozer - 105.0 to 130.0 Horsepower",Florida,TTT,Track Type Tractors,,OROPS,,,,,Standard,,,,,,2 Valve,,None or Unspecified,,,,,,,,,,,,,,None or Unspecified,PAT,None or Unspecified,,
241,1760535,38000,1167764,132,4.0,1992,,,2/9/2000 0:00,D58E-1,D58,E,-1,,Medium,"Track Type Tractor, Dozer - 105.0 to 130.0 Horsepower",Florida,TTT,Track Type Tractors,,EROPS,,,,,Standard,,,,,,2 Valve,,None or Unspecified,,,,,,,,,,,,,,None or Unspecified,PAT,None or Unspecified,,
241,1760543,27000,1464965,132,1.0,1993,,,2/19/2002 0:00,D58E-1,D58,E,-1,,Medium,"Track Type Tractor, Dozer - 105.0 to 130.0 Horsepower",Florida,TTT,Track Type Tractors,,OROPS,,,,,Standard,,,,,,2 Valve,,None or Unspecified,,,,,,,,,,,,,,None or Unspecified,PAT,None or Unspecified,,
241,1760544,26000,1464965,132,7.0,1993,,,4/19/2002 0:00,D58E-1,D58,E,-1,,Medium,"Track Type Tractor, Dozer - 105.0 to 130.0 Horsepower",South Carolina,TTT,Track Type Tractors,,OROPS,,,,,Standard,,,,,,2 Valve,,None or Unspecified,,,,,,,,,,,,,,None or Unspecified,PAT,None or Unspecified,,
241,1760545,36000,1196046,132,1.0,1993,,,11/19/1998 0:00,D58E-1,D58,E,-1,,Medium,"Track Type Tractor, Dozer - 105.0 to 130.0 Horsepower",Tennessee,TTT,Track Type Tractors,,OROPS,,,,,Standard,,,,,,2 Valve,,None or Unspecified,,,,,,,,,,,,,,None or Unspecified,PAT,None or Unspecified,,
241,1760546,51000,1196046,132,4.0,1993,,,2/6/1997 0:00,D58E-1,D58,E,-1,,Medium,"Track Type Tractor, Dozer - 105.0 to 130.0 Horsepower",Florida,TTT,Track Type Tractors,,OROPS,,,,,Standard,,,,,,2 Valve,,None or Unspecified,,,,,,,,,,,,,,None or Unspecified,PAT,None or Unspecified,,
241,1760552,31000,1439811,132,1.0,1993,,,4/6/2004 0:00,D58E-1,D58,E,-1,,Medium,"Track Type Tractor, Dozer - 105.0 to 130.0 Horsepower",Maryland,TTT,Track Type Tractors,,OROPS,,,,,Standard,,,,,,2 Valve,,None or Unspecified,,,,,,,,,,,,,,None or Unspecified,PAT,None or Unspecified,,
241,1760553,48000,1439811,132,6.0,1993,,,10/20/1998 0:00,D58E-1,D58,E,-1,,Medium,"Track Type Tractor, Dozer - 105.0 to 130.0 Horsepower",Maine,TTT,Track Type Tractors,,OROPS,,,,,Standard,,,,,,2 Valve,,None or Unspecified,,,,,,,,,,,,,,None or Unspecified,PAT,None or Unspecified,,
241,1760566,12500,1512394,132,1.0,1000,,,9/11/2003 0:00,D58E-1,D58,E,-1,,Medium,"Track Type Tractor, Dozer - 105.0 to 130.0 Horsepower",California,TTT,Track Type Tractors,,OROPS,,,,,Standard,,,,,,2 Valve,,None or Unspecified,,,,,,,,,,,,,,None or Unspecified,PAT,None or Unspecified,,
241,1760569,31000,1167504,132,1.0,1996,,,3/2/2005 0:00,D58E-1,D58,E,-1,,Medium,"Track Type Tractor, Dozer - 105.0 to 130.0 Horsepower",Texas,TTT,Track Type Tractors,,OROPS,,,,,Standard,,,,,,2 Valve,,Multi Shank,,,,,,,,,,,,,,None or Unspecified,PAT,None or Unspecified,,
241,1760570,30000,1167504,132,1.0,1000,,,7/21/2005 0:00,D58E-1,D58,E,-1,,Medium,"Track Type Tractor, Dozer - 105.0 to 130.0 Horsepower",Texas,TTT,Track Type Tractors,,OROPS,,,,,Standard,,,,,,2 Valve,,Multi Shank,,,,,,,,,,,,,,None or Unspecified,PAT,None or Unspecified,,
241,1760571,25000,1425775,132,4.0,1995,,,2/9/2004 0:00,D58E-1,D58,E,-1,,Medium,"Track Type Tractor, Dozer - 105.0 to 130.0 Horsepower",Florida,TTT,Track Type Tractors,,OROPS,,,,,Standard,,,,,,2 Valve,,None or Unspecified,,,,,,,,,,,,,,None or Unspecified,PAT,None or Unspecified,,
241,1760573,27000,1365957,132,1.0,1000,,,3/9/2005 0:00,D58E-1,D58,E,-1,,Medium,"Track Type Tractor, Dozer - 105.0 to 130.0 Horsepower",Minnesota,TTT,Track Type Tractors,,OROPS,,,,,Standard,,,,,,2 Valve,,None or Unspecified,,,,,,,,,,,,,,None or Unspecified,PAT,None or Unspecified,,
241,1760574,9500,1389289,132,1.0,1000,,,7/11/2007 0:00,D58E-1,D58,E,-1,,Medium,"Track Type Tractor, Dozer - 105.0 to 130.0 Horsepower",Texas,TTT,Track Type Tractors,,OROPS,,,,,Standard,,,,,,2 Valve,,None or Unspecified,,,,,,,,,,,,,,None or Unspecified,PAT,None or Unspecified,,
241,1760576,51000,1082409,132,6.0,1994,,,10/20/1998 0:00,D58E-1,D58,E,-1,,Medium,"Track Type Tractor, Dozer - 105.0 to 130.0 Horsepower",Maine,TTT,Track Type Tractors,,OROPS,,,,,Standard,,,,,,2 Valve,,None or Unspecified,,,,,,,,,,,,,,None or Unspecified,PAT,None or Unspecified,,
241,1760587,14000,1075279,132,1.0,1994,,,6/16/2005 0:00,D58E-1,D58,E,-1,,Medium,"Track Type Tractor, Dozer - 105.0 to 130.0 Horsepower",Texas,TTT,Track Type Tractors,,OROPS,,,,,Standard,,,,,,2 Valve,,None or Unspecified,,,,,,,,,,,,,,None or Unspecified,PAT,None or Unspecified,,
241,1760593,34000,1408668,132,13.0,1995,,,12/1/2001 0:00,D58E-1,D58,E,-1,,Medium,"Track Type Tractor, Dozer - 105.0 to 130.0 Horsepower",Tennessee,TTT,Track Type Tractors,,OROPS,,,,,Powershift,,,,,,2 Valve,,None or Unspecified,,,,,,,,,,,,,,None or Unspecified,PAT,Lever,,
241,1760598,26000,1553921,132,1.0,1995,,,6/19/2003 0:00,D58E-1,D58,E,-1,,Medium,"Track Type Tractor, Dozer - 105.0 to 130.0 Horsepower",Illinois,TTT,Track Type Tractors,,EROPS,,,,,,,,,,,Standard,,,,,,,,,,,,,,,,,No,2 Pedal,,
241,1760600,30000,1120641,132,7.0,1995,,,6/6/2003 0:00,D58E-1,D58,E,-1,,Medium,"Track Type Tractor, Dozer - 105.0 to 130.0 Horsepower",Alabama,TTT,Track Type Tractors,,OROPS,,,,,Standard,,,,,,2 Valve,,None or Unspecified,,,,,,,,,,,,,,None or Unspecified,PAT,None or Unspecified,,
241,1760601,43000,1323804,132,1.0,1996,,,8/16/2000 0:00,D58E-1,D58,E,-1,,Medium,"Track Type Tractor, Dozer - 105.0 to 130.0 Horsepower",Texas,TTT,Track Type Tractors,,OROPS,,,,,Standard,,,,,,2 Valve,,None or Unspecified,,,,,,,,,,,,,,None or Unspecified,PAT,None or Unspecified,,
241,1760608,51000,1391428,132,1.0,1995,,,4/21/1999 0:00,D58E-1,D58,E,-1,,Medium,"Track Type Tractor, Dozer - 105.0 to 130.0 Horsepower",North Carolina,TTT,Track Type Tractors,,OROPS,,,,,Standard,,,,,,2 Valve,,None or Unspecified,,,,,,,,,,,,,,None or Unspecified,PAT,None or Unspecified,,
241,1760609,27500,1079963,132,1.0,1996,,,10/1/2004 0:00,D58E-1,D58,E,-1,,Medium,"Track Type Tractor, Dozer - 105.0 to 130.0 Horsepower",Colorado,TTT,Track Type Tractors,,OROPS,,,,,Standard,,,,,,2 Valve,,None or Unspecified,,,,,,,,,,,,,,None or Unspecified,PAT,None or Unspecified,,
241,1760611,28000,1392193,132,1.0,1996,,,3/2/2005 0:00,D58E-1,D58,E,-1,,Medium,"Track Type Tractor, Dozer - 105.0 to 130.0 Horsepower",Texas,TTT,Track Type Tractors,,OROPS,,,,,Standard,,,,,,2 Valve,,None or Unspecified,,,,,,,,,,,,,,None or Unspecified,PAT,None or Unspecified,,
241,1760615,55000,1514805,132,1.0,1996,,,6/14/2000 0:00,D58E-1,D58,E,-1,,Medium,"Track Type Tractor, Dozer - 105.0 to 130.0 Horsepower",Texas,TTT,Track Type Tractors,,OROPS,,,,,Standard,,,,,,2 Valve,,None or Unspecified,,,,,,,,,,,,,,None or Unspecified,PAT,None or Unspecified,,
241,1760616,36000,1095928,132,1.0,1997,,,3/20/2002 0:00,D58E-1,D58,E,-1,,Medium,"Track Type Tractor, Dozer - 105.0 to 130.0 Horsepower",Texas,TTT,Track Type Tractors,,EROPS w AC,,,,,Standard,,,,,,2 Valve,,Multi Shank,,,,,,,,,,,,,,None or Unspecified,PAT,None or Unspecified,,
241,1760624,36000,1495019,132,27.0,1996,,,12/29/2006 0:00,D58E-1,D58,E,-1,,Medium,"Track Type Tractor, Dozer - 105.0 to 130.0 Horsepower",North Carolina,TTT,Track Type Tractors,,OROPS,,,,,Standard,,,,,,2 Valve,,None or Unspecified,,,,,,,,,,,,,,None or Unspecified,PAT,None or Unspecified,,
241,1760627,26000,39613,132,4.0,1997,,,2/9/2004 0:00,D58E-1,D58,E,-1,,Medium,"Track Type Tractor, Dozer - 105.0 to 130.0 Horsepower",Florida,TTT,Track Type Tractors,,OROPS,,,,,Standard,,,,,,2 Valve,,None or Unspecified,,,,,,,,,,,,,,None or Unspecified,PAT,None or Unspecified,,
241,1760628,19000,1319056,132,8.0,1997,,,9/14/2005 0:00,D58E-1,D58,E,-1,,Medium,"Track Type Tractor, Dozer - 105.0 to 130.0 Horsepower",Mississippi,TTT,Track Type Tractors,,EROPS,,,,,Standard,,,,,,2 Valve,,None or Unspecified,,,,,,,,,,,,,,None or Unspecified,None or Unspecified,None or Unspecified,,
241,1760629,19000,1319056,132,8.0,1997,,,9/22/2005 0:00,D58E-1,D58,E,-1,,Medium,"Track Type Tractor, Dozer - 105.0 to 130.0 Horsepower",Mississippi,TTT,Track Type Tractors,,EROPS,,,,,Standard,,,,,,2 Valve,,None or Unspecified,,,,,,,,,,,,,,None or Unspecified,None or Unspecified,None or Unspecified,,
241,1760630,48000,219278,132,1.0,1997,,,2/23/2006 0:00,D58E-1,D58,E,-1,,Medium,"Track Type Tractor, Dozer - 105.0 to 130.0 Horsepower",Florida,TTT,Track Type Tractors,,OROPS,,,,,Standard,,,,,,2 Valve,,None or Unspecified,,,,,,,,,,,,,,None or Unspecified,PAT,None or Unspecified,,
241,1760631,30000,1315365,132,7.0,1997,,,6/3/2004 0:00,D58E-1,D58,E,-1,,Medium,"Track Type Tractor, Dozer - 105.0 to 130.0 Horsepower",Alabama,TTT,Track Type Tractors,,EROPS,,,,,Standard,,,,,,2 Valve,,None or Unspecified,,,,,,,,,,,,,,None or Unspecified,PAT,None or Unspecified,,
241,1760633,45000,1518081,132,1.0,1997,,,11/19/2002 0:00,D58E-1,D58,E,-1,,Medium,"Track Type Tractor, Dozer - 105.0 to 130.0 Horsepower",Pennsylvania,TTT,Track Type Tractors,,OROPS,,,,,Standard,,,,,,2 Valve,,None or Unspecified,,,,,,,,,,,,,,None or Unspecified,PAT,None or Unspecified,,
241,1760639,37000,1313327,132,1.0,1997,,,3/29/2002 0:00,D58E-1,D58,E,-1,,Medium,"Track Type Tractor, Dozer - 105.0 to 130.0 Horsepower",California,TTT,Track Type Tractors,,OROPS,,,,,Standard,,,,,,2 Valve,,Multi Shank,,,,,,,,,,,,,,None or Unspecified,PAT,None or Unspecified,,
241,1760642,53000,1223474,132,7.0,1998,,,6/6/2003 0:00,D58E-1,D58,E,-1,,Medium,"Track Type Tractor, Dozer - 105.0 to 130.0 Horsepower",Alabama,TTT,Track Type Tractors,,OROPS,,,,,Standard,,,,,,2 Valve,,Multi Shank,,,,,,,,,,,,,,None or Unspecified,PAT,None or Unspecified,,
241,1760643,39000,1327114,132,1.0,1998,,,6/24/2004 0:00,D58E-1,D58,E,-1,,Medium,"Track Type Tractor, Dozer - 105.0 to 130.0 Horsepower",Georgia,TTT,Track Type Tractors,,OROPS,,,,,Standard,,,,,,2 Valve,,None or Unspecified,,,,,,,,,,,,,,None or Unspecified,PAT,None or Unspecified,,
241,1760647,38500,1481208,132,2.0,1998,,,6/24/2005 0:00,D58E-1,D58,E,-1,,Medium,"Track Type Tractor, Dozer - 105.0 to 130.0 Horsepower",Georgia,TTT,Track Type Tractors,,OROPS,,,,,Standard,,,,,,2 Valve,,None or Unspecified,,,,,,,,,,,,,,None or Unspecified,PAT,None or Unspecified,,
241,1760652,40000,1157081,132,1.0,1998,,,9/24/2004 0:00,D58E-1,D58,E,-1,,Medium,"Track Type Tractor, Dozer - 105.0 to 130.0 Horsepower",Texas,TTT,Track Type Tractors,,OROPS,,,,,Standard,,,,,,2 Valve,,None or Unspecified,,,,,,,,,,,,,,None or Unspecified,PAT,None or Unspecified,,
241,1760653,40000,1157081,132,1.0,1998,,,9/15/2004 0:00,D58E-1,D58,E,-1,,Medium,"Track Type Tractor, Dozer - 105.0 to 130.0 Horsepower",Texas,TTT,Track Type Tractors,,OROPS,,,,,Standard,,,,,,2 Valve,,None or Unspecified,,,,,,,,,,,,,,None or Unspecified,PAT,None or Unspecified,,
241,1760657,40500,1550875,132,13.0,2000,,,3/19/2005 0:00,D58E-1,D58,E,-1,,Medium,"Track Type Tractor, Dozer - 105.0 to 130.0 Horsepower",Tennessee,TTT,Track Type Tractors,,OROPS,,,,,Standard,,,,,,2 Valve,,None or Unspecified,,,,,,,,,,,,,,None or Unspecified,PAT,Differential Steer,,
241,1760659,41000,1294775,132,1.0,1999,,,12/8/2004 0:00,D58E-1,D58,E,-1,,Medium,"Track Type Tractor, Dozer - 105.0 to 130.0 Horsepower",North Carolina,TTT,Track Type Tractors,,OROPS,,,,,Standard,,,,,,2 Valve,,None or Unspecified,,,,,,,,,,,,,,None or Unspecified,PAT,None or Unspecified,,
241,1760660,52000,1311934,132,1.0,1999,,,9/28/2004 0:00,D58E-1,D58,E,-1,,Medium,"Track Type Tractor, Dozer - 105.0 to 130.0 Horsepower",Illinois,TTT,Track Type Tractors,,OROPS,,,,,Standard,,,,,,2 Valve,,None or Unspecified,,,,,,,,,,,,,,None or Unspecified,PAT,None or Unspecified,,
241,1760663,34000,1524839,132,1.0,1999,,,8/25/2005 0:00,D58E-1,D58,E,-1,,Medium,"Track Type Tractor, Dozer - 105.0 to 130.0 Horsepower",Texas,TTT,Track Type Tractors,,OROPS,,,,,Standard,,,,,,2 Valve,,None or Unspecified,,,,,,,,,,,,,,None or Unspecified,PAT,None or Unspecified,,
241,1769284,19500,1166044,132,7.0,1990,,,8/31/2005 0:00,D58E-1,D58,E,-1,,Medium,"Track Type Tractor, Dozer - 105.0 to 130.0 Horsepower",Alabama,TTT,Track Type Tractors,,EROPS,,,,,,,,,,,Auxiliary,,,,,,,,,,,,,,,,,Straight,2 Pedal,,
241,1769304,17000,1299279,132,8.0,1992,,,9/15/2010 0:00,D58E-1,D58,E,-1,,Medium,"Track Type Tractor, Dozer - 105.0 to 130.0 Horsepower",Mississippi,TTT,Track Type Tractors,,EROPS,,,,,Standard,,,,,,2 Valve,,None or Unspecified,,,,,,,,,,,,,,None or Unspecified,Straight,None or Unspecified,,
241,1769305,17500,1324331,132,12.0,1989,,,8/17/2005 0:00,D58E-1,D58,E,-1,,Medium,"Track Type Tractor, Dozer - 105.0 to 130.0 Horsepower",South Carolina,TTT,Track Type Tractors,,OROPS,,,,,Standard,,,,,,2 Valve,,None or Unspecified,,,,,,,,,,,,,,None or Unspecified,Straight,None or Unspecified,,
241,1769306,43000,1433613,132,6.0,1990,,,5/10/1996 0:00,D58E-1,D58,E,-1,,Medium,"Track Type Tractor, Dozer - 105.0 to 130.0 Horsepower",Tennessee,TTT,Track Type Tractors,,OROPS,,,,,Standard,,,,,,2 Valve,,None or Unspecified,,,,,,,,,,,,,,None or Unspecified,Straight,None or Unspecified,,
241,1769325,51000,1023901,132,23.0,1990,900.0,Low,2/24/1996 0:00,D58E-1,D58,E,-1,,Medium,"Track Type Tractor, Dozer - 105.0 to 130.0 Horsepower",New Jersey,TTT,Track Type Tractors,,EROPS w AC,,,,,,,,,,,Standard,,,,,,,,,,,,,,,,,Straight,2 Pedal,,
241,1769326,25000,1023901,132,1.0,1990,,,3/20/2002 0:00,D58E-1,D58,E,-1,,Medium,"Track Type Tractor, Dozer - 105.0 to 130.0 Horsepower",Texas,TTT,Track Type Tractors,,EROPS w AC,,,,,,,,,,,Standard,,,,,,,,,,,,,,,,,Straight,2 Pedal,,
241,1769327,65000,1023901,132,23.0,1990,732.0,Low,3/24/1994 0:00,D58E-1,D58,E,-1,,Medium,"Track Type Tractor, Dozer - 105.0 to 130.0 Horsepower",Pennsylvania,TTT,Track Type Tractors,,EROPS w AC,,,,,,,,,,,Standard,,,,,,,,,,,,,,,,,Straight,2 Pedal,,
241,1769380,52000,1271850,132,6.0,1991,,,4/6/1995 0:00,D58E-1,D58,E,-1,,Medium,"Track Type Tractor, Dozer - 105.0 to 130.0 Horsepower",Ohio,TTT,Track Type Tractors,,OROPS,,,,,Standard,,,,,,2 Valve,,None or Unspecified,,,,,,,,,,,,,,None or Unspecified,PAT,None or Unspecified,,
241,1778799,17500,1351889,132,12.0,1991,,,3/20/2008 0:00,D58E-1,D58,E,-1,,Medium,"Track Type Tractor, Dozer - 105.0 to 130.0 Horsepower",South Carolina,TTT,Track Type Tractors,,OROPS,,,,,Standard,,,,,,2 Valve,,None or Unspecified,,,,,,,,,,,,,,None or Unspecified,None or Unspecified,None or Unspecified,,
241,1778800,19000,1417821,132,1.0,1995,,,2/17/2010 0:00,D58E-1,D58,E,-1,,Medium,"Track Type Tractor, Dozer - 105.0 to 130.0 Horsepower",Florida,TTT,Track Type Tractors,,OROPS,,,,,Standard,,,,,,2 Valve,,None or Unspecified,,,,,,,,,,,,,,None or Unspecified,PAT,None or Unspecified,,
241,1778801,35000,1230604,132,1.0,1995,,,6/8/2006 0:00,D58E-1,D58,E,-1,,Medium,"Track Type Tractor, Dozer - 105.0 to 130.0 Horsepower",Texas,TTT,Track Type Tractors,,OROPS,,,,,Standard,,,,,,2 Valve,,None or Unspecified,,,,,,,,,,,,,,None or Unspecified,PAT,None or Unspecified,,
241,2410938,19500,1699680,136,,1987,0.0,,6/23/2007 0:00,D58E-1,D58,E,-1,,Medium,"Track Type Tractor, Dozer - 105.0 to 130.0 Horsepower",New York,TTT,Track Type Tractors,,OROPS,,,,,Powershift,,,,,,2 Valve,,None or Unspecified,,,,,,,,,,,,,,None or Unspecified,Straight,Lever,,
241,2410940,13500,1161810,136,8.0,1987,0.0,,9/17/2009 0:00,D58E-1,D58,E,-1,,Medium,"Track Type Tractor, Dozer - 105.0 to 130.0 Horsepower",Mississippi,TTT,Track Type Tractors,,OROPS,,,,,Standard,,,,,,2 Valve,,None or Unspecified,,,,,,,,,,,,,,None or Unspecified,Straight,None or Unspecified,,
241,2410966,18000,1254718,136,1.0,1000,0.0,,6/30/2010 0:00,D58E-1,D58,E,-1,,Medium,"Track Type Tractor, Dozer - 105.0 to 130.0 Horsepower",North Carolina,TTT,Track Type Tractors,,OROPS,,,,,Standard,,,,,,2 Valve,,None or Unspecified,,,,,,,,,,,,,,None or Unspecified,Straight,None or Unspecified,,
241,2410967,9500,1248264,136,12.0,1990,0.0,,3/18/2009 0:00,D58E-1,D58,E,-1,,Medium,"Track Type Tractor, Dozer - 105.0 to 130.0 Horsepower",South Carolina,TTT,Track Type Tractors,,OROPS,,,,,Standard,,,,,,2 Valve,,None or Unspecified,,,,,,,,,,,,,,None or Unspecified,Semi U,None or Unspecified,,
241,2410972,13500,1533977,136,1.0,1990,0.0,,9/18/2007 0:00,D58E-1,D58,E,-1,,Medium,"Track Type Tractor, Dozer - 105.0 to 130.0 Horsepower",Georgia,TTT,Track Type Tractors,,OROPS,,,,,Standard,,,,,,2 Valve,,None or Unspecified,,,,,,,,,,,,,,None or Unspecified,Straight,None or Unspecified,,
241,2411045,8000,1533904,136,2.0,1990,0.0,,3/19/2009 0:00,D58E-1,D58,E,-1,,Medium,"Track Type Tractor, Dozer - 105.0 to 130.0 Horsepower",New Jersey,TTT,Track Type Tractors,,OROPS,,,,,Powershift,,,,,,2 Valve,,None or Unspecified,,,,,,,,,,,,,,None or Unspecified,PAT,None or Unspecified,,
241,2411050,12500,1436873,136,1.0,1990,0.0,,10/1/2008 0:00,D58E-1,D58,E,-1,,Medium,"Track Type Tractor, Dozer - 105.0 to 130.0 Horsepower",Maryland,TTT,Track Type Tractors,,OROPS,,,,,Standard,,,,,,2 Valve,,None or Unspecified,,,,,,,,,,,,,,None or Unspecified,PAT,None or Unspecified,,
241,2411054,26250,1681058,136,,1000,0.0,,3/15/2008 0:00,D58E-1,D58,E,-1,,Medium,"Track Type Tractor, Dozer - 105.0 to 130.0 Horsepower",Tennessee,TTT,Track Type Tractors,,EROPS,,,,,Standard,,,,,,2 Valve,,None or Unspecified,,,,,,,,,,,,,,None or Unspecified,None or Unspecified,None or Unspecified,,
241,2411059,11000,1278011,136,21.0,1992,6078.0,Low,9/10/2009 0:00,D58E-1,D58,E,-1,,Medium,"Track Type Tractor, Dozer - 105.0 to 130.0 Horsepower",Michigan,TTT,Track Type Tractors,,OROPS,,,,,Standard,,,,,,2 Valve,,None or Unspecified,,,,,,,,,,,,,,None or Unspecified,PAT,None or Unspecified,,
241,2411080,17000,1309087,136,1.0,1992,0.0,,9/17/2008 0:00,D58E-1,D58,E,-1,,Medium,"Track Type Tractor, Dozer - 105.0 to 130.0 Horsepower",Illinois,TTT,Track Type Tractors,,OROPS,,,,,Standard,,,,,,2 Valve,,None or Unspecified,,,,,,,,,,,,,,None or Unspecified,PAT,None or Unspecified,,
241,2411093,20000,1235961,136,1.0,1000,0.0,,11/17/2009 0:00,D58E-1,D58,E,-1,,Medium,"Track Type Tractor, Dozer - 105.0 to 130.0 Horsepower",Texas,TTT,Track Type Tractors,,OROPS,,,,,Standard,,,,,,2 Valve,,None or Unspecified,,,,,,,,,,,,,,None or Unspecified,PAT,None or Unspecified,,
241,2411098,26000,1408737,136,1.0,1000,0.0,,5/3/2007 0:00,D58E-1,D58,E,-1,,Medium,"Track Type Tractor, Dozer - 105.0 to 130.0 Horsepower",Arizona,TTT,Track Type Tractors,,OROPS,,,,,Standard,,,,,,2 Valve,,Multi Shank,,,,,,,,,,,,,,None or Unspecified,PAT,None or Unspecified,,
241,2411107,19000,567783,136,1.0,1000,0.0,,2/15/2010 0:00,D58E-1,D58,E,-1,,Medium,"Track Type Tractor, Dozer - 105.0 to 130.0 Horsepower",Florida,TTT,Track Type Tractors,,OROPS,,,,,Standard,,,,,,2 Valve,,None or Unspecified,,,,,,,,,,,,,,None or Unspecified,PAT,None or Unspecified,,
241,2411114,16500,1304161,136,5.0,1995,0.0,,9/15/2007 0:00,D58E-1,D58,E,-1,,Medium,"Track Type Tractor, Dozer - 105.0 to 130.0 Horsepower",New Jersey,TTT,Track Type Tractors,,OROPS,,,,,Standard,,,,,,2 Valve,,None or Unspecified,,,,,,,,,,,,,,None or Unspecified,PAT,None or Unspecified,,
241,2411116,19500,1099708,136,7.0,1000,0.0,,3/12/2008 0:00,D58E-1,D58,E,-1,,Medium,"Track Type Tractor, Dozer - 105.0 to 130.0 Horsepower",Alabama,TTT,Track Type Tractors,,OROPS,,,,,Standard,,,,,,2 Valve,,None or Unspecified,,,,,,,,,,,,,,None or Unspecified,PAT,None or Unspecified,,
241,2411118,20000,1095928,136,1.0,1000,0.0,,12/3/2008 0:00,D58E-1,D58,E,-1,,Medium,"Track Type Tractor, Dozer - 105.0 to 130.0 Horsepower",Texas,TTT,Track Type Tractors,,EROPS w AC,,,,,Standard,,,,,,2 Valve,,Multi Shank,,,,,,,,,,,,,,None or Unspecified,PAT,None or Unspecified,,
241,2411123,21000,1495019,136,1.0,1996,0.0,,6/24/2008 0:00,D58E-1,D58,E,-1,,Medium,"Track Type Tractor, Dozer - 105.0 to 130.0 Horsepower",North Carolina,TTT,Track Type Tractors,,OROPS,,,,,Standard,,,,,,2 Valve,,None or Unspecified,,,,,,,,,,,,,,None or Unspecified,PAT,None or Unspecified,,
241,2411128,16000,1121249,136,1.0,1000,0.0,,12/9/2009 0:00,D58E-1,D58,E,-1,,Medium,"Track Type Tractor, Dozer - 105.0 to 130.0 Horsepower",Ohio,TTT,Track Type Tractors,,OROPS,,,,,Standard,,,,,,2 Valve,,None or Unspecified,,,,,,,,,,,,,,None or Unspecified,PAT,None or Unspecified,,
241,2411130,22000,1370846,136,12.0,1997,0.0,,3/17/2010 0:00,D58E-1,D58,E,-1,,Medium,"Track Type Tractor, Dozer - 105.0 to 130.0 Horsepower",South Carolina,TTT,Track Type Tractors,,OROPS,,,,,Standard,,,,,,2 Valve,,Single Shank,,,,,,,,,,,,,,None or Unspecified,PAT,None or Unspecified,,
241,2411132,38850,1223474,136,13.0,1998,0.0,,6/2/2007 0:00,D58E-1,D58,E,-1,,Medium,"Track Type Tractor, Dozer - 105.0 to 130.0 Horsepower",Tennessee,TTT,Track Type Tractors,,OROPS,,,,,Standard,,,,,,2 Valve,,Multi Shank,,,,,,,,,,,,,,None or Unspecified,PAT,None or Unspecified,,
241,2411136,40950,1372217,136,13.0,1998,0.0,,6/2/2007 0:00,D58E-1,D58,E,-1,,Medium,"Track Type Tractor, Dozer - 105.0 to 130.0 Horsepower",Tennessee,TTT,Track Type Tractors,,OROPS,,,,,,,,,,,2 Valve,,,,,,,,,,,,,,,,,,,,
241,2411137,33600,1252941,136,13.0,1998,8129.0,Medium,9/15/2007 0:00,D58E-1,D58,E,-1,,Medium,"Track Type Tractor, Dozer - 105.0 to 130.0 Horsepower",Tennessee,TTT,Track Type Tractors,,OROPS,,,,,Standard,,,,,,2 Valve,,Multi Shank,,,,,,,,,,,,,,None or Unspecified,PAT,None or Unspecified,,
241,2411139,33075,1550875,136,13.0,2000,0.0,,6/2/2007 0:00,D58E-1,D58,E,-1,,Medium,"Track Type Tractor, Dozer - 105.0 to 130.0 Horsepower",Tennessee,TTT,Track Type Tractors,,OROPS,,,,,Standard,,,,,,2 Valve,,None or Unspecified,,,,,,,,,,,,,,None or Unspecified,PAT,Differential Steer,,
241,2414785,11000,1214151,136,1.0,1989,0.0,,3/27/2007 0:00,D58E-1,D58,E,-1,,Medium,"Track Type Tractor, Dozer - 105.0 to 130.0 Horsepower",Georgia,TTT,Track Type Tractors,,OROPS,,,,,Standard,,,,,,2 Valve,,None or Unspecified,,,,,,,,,,,,,,None or Unspecified,PAT,None or Unspecified,,
241,2414786,22500,1214151,136,1.0,1000,0.0,,6/26/2008 0:00,D58E-1,D58,E,-1,,Medium,"Track Type Tractor, Dozer - 105.0 to 130.0 Horsepower",Georgia,TTT,Track Type Tractors,,OROPS,,,,,Standard,,,,,,2 Valve,,None or Unspecified,,,,,,,,,,,,,,None or Unspecified,PAT,None or Unspecified,,
241,2423211,10500,1727743,136,1.0,1000,0.0,,6/16/2009 0:00,D58E-1,D58,E,-1,,Medium,"Track Type Tractor, Dozer - 105.0 to 130.0 Horsepower",Ohio,TTT,Track Type Tractors,,OROPS,,,,,Standard,,,,,,2 Valve,,None or Unspecified,,,,,,,,,,,,,,None or Unspecified,PAT,None or Unspecified,,
241,2697924,17000,1493352,149,1.0,1988,0.0,,3/31/2011 0:00,D58E-1,D58,E,-1,,Medium,"Track Type Tractor, Dozer - 105.0 to 130.0 Horsepower",Georgia,TTT,Track Type Tractors,,OROPS,,,,,Standard,,,,,,2 Valve,,None or Unspecified,,,,,,,,,,,,,,None or Unspecified,Straight,None or Unspecified,,
241,2697925,20000,1493352,149,1.0,1988,5780.0,Low,12/9/2010 0:00,D58E-1,D58,E,-1,,Medium,"Track Type Tractor, Dozer - 105.0 to 130.0 Horsepower",Georgia,TTT,Track Type Tractors,,OROPS,,,,,Standard,,,,,,2 Valve,,None or Unspecified,,,,,,,,,,,,,,None or Unspecified,Straight,None or Unspecified,,
241,2697971,15000,1486164,149,12.0,1991,0.0,,3/17/2010 0:00,D58E-1,D58,E,-1,,Medium,"Track Type Tractor, Dozer - 105.0 to 130.0 Horsepower",South Carolina,TTT,Track Type Tractors,,OROPS,,,,,Standard,,,,,,2 Valve,,None or Unspecified,,,,,,,,,,,,,,None or Unspecified,PAT,None or Unspecified,,
241,2697996,12000,1470108,149,12.0,1000,0.0,,11/17/2010 0:00,D58E-1,D58,E,-1,,Medium,"Track Type Tractor, Dozer - 105.0 to 130.0 Horsepower",South Carolina,TTT,Track Type Tractors,,OROPS,,,,,Standard,,,,,,2 Valve,,None or Unspecified,,,,,,,,,,,,,,None or Unspecified,PAT,None or Unspecified,,
241,4357996,10500,1183305,172,1.0,1996,11386.0,Medium,6/16/2009 0:00,D58E-1,D58,E,-1,,Medium,"Track Type Tractor, Dozer - 105.0 to 130.0 Horsepower",Ohio,TTT,Track Type Tractors,,OROPS,,,,,Standard,,,,,,2 Valve,,None or Unspecified,,,,,,,,,,,,,,None or Unspecified,PAT,None or Unspecified,,
241,4358050,16000,2268164,172,1.0,1987,4784.0,High,12/19/2011 0:00,D58E-1,D58,E,-1,,Medium,"Track Type Tractor, Dozer - 105.0 to 130.0 Horsepower",Tennessee,TTT,Track Type Tractors,,EROPS w AC,,,,,Standard,,,,,,2 Valve,,Multi Shank,,,,,,,,,,,,,,None or Unspecified,PAT,Differential Steer,,
241,6303809,16000,1844077,149,1.0,1987,,,12/20/2011 0:00,D58E-1,D58,E,-1,,Medium,"Track Type Tractor, Dozer - 105.0 to 130.0 Horsepower",Tennessee,TTT,Track Type Tractors,,OROPS,,,,,Standard,,,,,,2 Valve,,None or Unspecified,,,,,,,,,,,,,,None or Unspecified,Straight,None or Unspecified,,
241,6303823,17000,1283682,149,16.0,1991,,,8/18/2011 0:00,D58E-1,D58,E,-1,,Medium,"Track Type Tractor, Dozer - 105.0 to 130.0 Horsepower",Ohio,TTT,Track Type Tractors,,OROPS,,,,,Standard,,,,,,2 Valve,,None or Unspecified,,,,,,,,,,,,,,None or Unspecified,PAT,None or Unspecified,,
