ModelID,SalesID,SalePrice,MachineID,datasource,auctioneerID,YearMade,MachineHoursCurrentMeter,UsageBand,saledate,fiModelDesc,fiBaseModel,fiSecondaryDesc,fiModelSeries,fiModelDescriptor,ProductSize,fiProductClassDesc,state,ProductGroup,ProductGroupDesc,Drive_System,Enclosure,Forks,Pad_Type,Ride_Control,Stick,Transmission,Turbocharged,Blade_Extension,Blade_Width,Enclosure_Type,Engine_Horsepower,Hydraulics,Pushblock,Ripper,Scarifier,Tip_Control,Tire_Size,Coupler,Coupler_System,Grouser_Tracks,Hydraulics_Flow,Track_Type,Undercarriage_Pad_Width,Stick_Length,Thumb,Pattern_Changer,Grouser_Type,Backhoe_Mounting,Blade_Type,Travel_Controls,Differential_Type,Steering_Controls
2445,1167266,14500,244651,121,3.0,1000,2347.0,Low,8/19/2010 0:00,LS3400CII,LS3400,C,II,,Large / Medium,"Hydraulic Excavator, Track - 21.0 to 24.0 Metric Tons",Illinois,TEX,Track Excavators,,EROPS,,,,,,,,,,,Standard,,,,,,None or Unspecified,,,,Steel,None or Unspecified,None or Unspecified,Manual,None or Unspecified,Double,,,,,
2445,2425697,16000,1640514,136,1.0,1000,0.0,,5/27/2010 0:00,LS3400CII,LS3400,C,II,,Large / Medium,"Hydraulic Excavator, Track - 21.0 to 24.0 Metric Tons",Washington,TEX,Track Excavators,,EROPS,,,,,,,,,,,Standard,,,,,,None or Unspecified,,,,Steel,None or Unspecified,None or Unspecified,Hydraulic,None or Unspecified,Double,,,,,
2445,2425757,10000,1746062,136,1.0,1000,0.0,,12/9/2009 0:00,LS3400CII,LS3400,C,II,,Large / Medium,"Hydraulic Excavator, Track - 21.0 to 24.0 Metric Tons",Ohio,TEX,Track Excavators,,EROPS,,,,,,,,,,,Standard,,,,,,None or Unspecified,,,,Steel,None or Unspecified,None or Unspecified,None or Unspecified,None or Unspecified,Double,,,,,
2445,2425759,8500,1759663,136,,1994,0.0,,6/17/2009 0:00,LS3400CII,LS3400,C,II,,Large / Medium,"Hydraulic Excavator, Track - 21.0 to 24.0 Metric Tons",Arkansas,TEX,Track Excavators,,EROPS,,,,,,,,,,,Standard,,,,,,None or Unspecified,,,,Steel,None or Unspecified,None or Unspecified,None or Unspecified,None or Unspecified,Triple,,,,,
2445,2425762,19000,1690113,136,,1000,0.0,,6/1/2007 0:00,LS3400CII,LS3400,C,II,,Large / Medium,"Hydraulic Excavator, Track - 21.0 to 24.0 Metric Tons",Nevada,TEX,Track Excavators,,EROPS,,,,,,,,,,,Standard,,,,,,None or Unspecified,,,,Steel,None or Unspecified,None or Unspecified,None or Unspecified,None or Unspecified,Double,,,,,
2445,2425763,10000,1722939,136,,1000,0.0,,4/1/2009 0:00,LS3400CII,LS3400,C,II,,Large / Medium,"Hydraulic Excavator, Track - 21.0 to 24.0 Metric Tons",Maryland,TEX,Track Excavators,,EROPS,,,,,,,,,,,Auxiliary,,,,,,None or Unspecified,,,,Steel,None or Unspecified,None or Unspecified,None or Unspecified,None or Unspecified,Double,,,,,
2445,2426152,12000,1708539,136,1.0,1000,1363.0,Low,5/13/2010 0:00,LS3400CII,LS3400,C,II,,Large / Medium,"Hydraulic Excavator, Track - 21.0 to 24.0 Metric Tons",Illinois,TEX,Track Excavators,,EROPS,,,,,,,,,,,Standard,,,,,,None or Unspecified,,,,Steel,None or Unspecified,None or Unspecified,None or Unspecified,None or Unspecified,Double,,,,,
