ModelID,SalesID,SalePrice,MachineID,datasource,auctioneerID,YearMade,MachineHoursCurrentMeter,UsageBand,saledate,fiModelDesc,fiBaseModel,fiSecondaryDesc,fiModelSeries,fiModelDescriptor,ProductSize,fiProductClassDesc,state,ProductGroup,ProductGroupDesc,Drive_System,Enclosure,Forks,Pad_Type,Ride_Control,Stick,Transmission,Turbocharged,Blade_Extension,Blade_Width,Enclosure_Type,Engine_Horsepower,Hydraulics,Pushblock,Ripper,Scarifier,Tip_Control,Tire_Size,Coupler,Coupler_System,Grouser_Tracks,Hydraulics_Flow,Track_Type,Undercarriage_Pad_Width,Stick_Length,Thumb,Pattern_Changer,Grouser_Type,Backhoe_Mounting,Blade_Type,Travel_Controls,Differential_Type,Steering_Controls
24514,1161425,58000,999413,121,3.0,2001,5266.0,Medium,9/21/2006 0:00,850CII,850,C,II,,Medium,"Track Type Tractor, Dozer - 160.0 to 190.0 Horsepower",Texas,TTT,Track Type Tractors,,OROPS,,,,,Standard,,,,,,2 Valve,,Single Shank,,,,,,,,,,,,,,None or Unspecified,Semi U,None or Unspecified,,
24514,1163207,42000,1007541,121,3.0,1997,3664.0,Low,9/3/2009 0:00,850CII,850,C,II,,Medium,"Track Type Tractor, Dozer - 160.0 to 190.0 Horsepower",Illinois,TTT,Track Type Tractors,,EROPS w AC,,,,,Hydrostatic,,,,,,2 Valve,,None or Unspecified,,,,,,,,,,,,,,None or Unspecified,None or Unspecified,None or Unspecified,,
24514,1163938,70000,1068789,121,3.0,2005,3391.0,Medium,5/28/2009 0:00,850CII,850,C,II,,Medium,"Track Type Tractor, Dozer - 160.0 to 190.0 Horsepower",Oklahoma,TTT,Track Type Tractors,,EROPS w AC,,,,,Hydrostatic,,,,,,2 Valve,,Single Shank,,,,,,,,,,,,,,None or Unspecified,None or Unspecified,None or Unspecified,,
24514,1171289,41000,1019643,121,3.0,2004,9212.0,High,12/18/2008 0:00,850CII,850,C,II,,Medium,"Track Type Tractor, Dozer - 160.0 to 190.0 Horsepower",Iowa,TTT,Track Type Tractors,,EROPS w AC,,,,,Hydrostatic,,,,,,2 Valve,,Single Shank,,,,,,,,,,,,,,None or Unspecified,None or Unspecified,None or Unspecified,,
24514,1628415,29000,1122339,132,1.0,1996,,,5/9/2007 0:00,850CII,850,C,II,,Medium,"Track Type Tractor, Dozer - 160.0 to 190.0 Horsepower",Texas,TTT,Track Type Tractors,,EROPS w AC,,,,,Standard,,,,,,2 Valve,,Single Shank,,,,,,,,,,,,,,None or Unspecified,Semi U,None or Unspecified,,
24514,1629868,42000,1127974,132,3.0,1997,,,9/3/2009 0:00,850CII,850,C,II,,Medium,"Track Type Tractor, Dozer - 160.0 to 190.0 Horsepower",California,TTT,Track Type Tractors,,EROPS w AC,,,,,Standard,,,,,,2 Valve,,None or Unspecified,,,,,,,,,,,,,,None or Unspecified,None or Unspecified,None or Unspecified,,
24514,1636991,47500,1123719,132,1.0,2000,,,11/15/2006 0:00,850CII,850,C,II,,Medium,"Track Type Tractor, Dozer - 160.0 to 190.0 Horsepower",Georgia,TTT,Track Type Tractors,,EROPS w AC,,,,,Standard,,,,,,2 Valve,,None or Unspecified,,,,,,,,,,,,,,None or Unspecified,Semi U,None or Unspecified,,
24514,1637406,48000,1385305,132,1.0,2000,,,2/15/2005 0:00,850CII,850,C,II,,Medium,"Track Type Tractor, Dozer - 160.0 to 190.0 Horsepower",Florida,TTT,Track Type Tractors,,OROPS,,,,,Standard,,,,,,2 Valve,,None or Unspecified,,,,,,,,,,,,,,None or Unspecified,PAT,None or Unspecified,,
24514,1637407,32000,1385305,132,1.0,2000,,,5/13/2009 0:00,850CII,850,C,II,,Medium,"Track Type Tractor, Dozer - 160.0 to 190.0 Horsepower",Illinois,TTT,Track Type Tractors,,OROPS,,,,,Standard,,,,,,2 Valve,,None or Unspecified,,,,,,,,,,,,,,None or Unspecified,PAT,None or Unspecified,,
24514,1637553,27500,1002102,132,1.0,2000,,,7/11/2007 0:00,850CII,850,C,II,,Medium,"Track Type Tractor, Dozer - 160.0 to 190.0 Horsepower",Texas,TTT,Track Type Tractors,,OROPS,,,,,Standard,,,,,,2 Valve,,None or Unspecified,,,,,,,,,,,,,,None or Unspecified,Straight,None or Unspecified,,
24514,1638040,33000,1476133,132,1.0,2000,,,10/15/2008 0:00,850CII,850,C,II,,Medium,"Track Type Tractor, Dozer - 160.0 to 190.0 Horsepower",Florida,TTT,Track Type Tractors,,EROPS w AC,,,,,Standard,,,,,,2 Valve,,None or Unspecified,,,,,,,,,,,,,,None or Unspecified,PAT,None or Unspecified,,
24514,1638041,62500,1476133,132,1.0,2000,,,10/13/2005 0:00,850CII,850,C,II,,Medium,"Track Type Tractor, Dozer - 160.0 to 190.0 Horsepower",Florida,TTT,Track Type Tractors,,EROPS w AC,,,,,Standard,,,,,,2 Valve,,None or Unspecified,,,,,,,,,,,,,,None or Unspecified,PAT,None or Unspecified,,
24514,1638540,53000,1242011,132,1.0,2001,,,3/18/2008 0:00,850CII,850,C,II,,Medium,"Track Type Tractor, Dozer - 160.0 to 190.0 Horsepower",Washington,TTT,Track Type Tractors,,OROPS,,,,,Standard,,,,,,2 Valve,,None or Unspecified,,,,,,,,,,,,,,None or Unspecified,PAT,Differential Steer,,
24514,1638834,22500,1431400,132,1.0,2001,,,4/1/2009 0:00,850CII,850,C,II,,Medium,"Track Type Tractor, Dozer - 160.0 to 190.0 Horsepower",Maryland,TTT,Track Type Tractors,,EROPS w AC,,,,,Standard,,,,,,2 Valve,,None or Unspecified,,,,,,,,,,,,,,None or Unspecified,PAT,None or Unspecified,,
24514,1639079,35000,1505858,132,1.0,2001,,,9/24/2008 0:00,850CII,850,C,II,,Medium,"Track Type Tractor, Dozer - 160.0 to 190.0 Horsepower",Texas,TTT,Track Type Tractors,,EROPS w AC,,,,,Hydrostatic,,,,,,2 Valve,,None or Unspecified,,,,,,,,,,,,,,None or Unspecified,PAT,None or Unspecified,,
24514,1639142,60000,1449302,132,1.0,2001,,,3/28/2007 0:00,850CII,850,C,II,,Medium,"Track Type Tractor, Dozer - 160.0 to 190.0 Horsepower",Missouri,TTT,Track Type Tractors,,OROPS,,,,,Standard,,,,,,2 Valve,,None or Unspecified,,,,,,,,,,,,,,None or Unspecified,PAT,None or Unspecified,,
24514,1639488,52000,1137529,132,1.0,2001,,,9/24/2008 0:00,850CII,850,C,II,,Medium,"Track Type Tractor, Dozer - 160.0 to 190.0 Horsepower",Texas,TTT,Track Type Tractors,,EROPS w AC,,,,,Standard,,,,,,2 Valve,,Multi Shank,,,,,,,,,,,,,,None or Unspecified,PAT,None or Unspecified,,
24514,1639993,73000,1223723,132,1.0,2002,,,9/20/2006 0:00,850CII,850,C,II,,Medium,"Track Type Tractor, Dozer - 160.0 to 190.0 Horsepower",Washington,TTT,Track Type Tractors,,EROPS,,,,,Standard,,,,,,2 Valve,,Multi Shank,,,,,,,,,,,,,,None or Unspecified,PAT,None or Unspecified,,
24514,1640096,32000,1123947,132,1.0,2002,,,8/21/2008 0:00,850CII,850,C,II,,Medium,"Track Type Tractor, Dozer - 160.0 to 190.0 Horsepower",Arizona,TTT,Track Type Tractors,,OROPS,,,,,Standard,,,,,,2 Valve,,None or Unspecified,,,,,,,,,,,,,,None or Unspecified,PAT,None or Unspecified,,
24514,1640379,55000,1402692,132,2.0,2004,,,2/4/2011 0:00,850CII,850,C,II,,Medium,"Track Type Tractor, Dozer - 160.0 to 190.0 Horsepower",Florida,TTT,Track Type Tractors,,EROPS w AC,,,,,Standard,,,,,,2 Valve,,Single Shank,,,,,,,,,,,,,,None or Unspecified,PAT,None or Unspecified,,
24514,1640837,36000,1468817,132,1.0,2003,,,2/17/2010 0:00,850CII,850,C,II,,Medium,"Track Type Tractor, Dozer - 160.0 to 190.0 Horsepower",Florida,TTT,Track Type Tractors,,EROPS w AC,,,,,Standard,,,,,,2 Valve,,None or Unspecified,,,,,,,,,,,,,,None or Unspecified,PAT,None or Unspecified,,
24514,1640867,27500,1150503,132,1.0,2003,,,2/17/2010 0:00,850CII,850,C,II,,Medium,"Track Type Tractor, Dozer - 160.0 to 190.0 Horsepower",Florida,TTT,Track Type Tractors,,EROPS w AC,,,,,Standard,,,,,,2 Valve,,None or Unspecified,,,,,,,,,,,,,,None or Unspecified,PAT,None or Unspecified,,
24514,1641035,47500,1107200,132,7.0,2004,,,9/8/2010 0:00,850CII,850,C,II,,Medium,"Track Type Tractor, Dozer - 160.0 to 190.0 Horsepower",Alabama,TTT,Track Type Tractors,,EROPS w AC,,,,,Standard,,,,,,2 Valve,,None or Unspecified,,,,,,,,,,,,,,None or Unspecified,PAT,None or Unspecified,,
24514,1641658,50000,1410300,132,1.0,2004,,,10/1/2008 0:00,850CII,850,C,II,,Medium,"Track Type Tractor, Dozer - 160.0 to 190.0 Horsepower",Maryland,TTT,Track Type Tractors,,EROPS w AC,,,,,Standard,,,,,,2 Valve,,None or Unspecified,,,,,,,,,,,,,,None or Unspecified,PAT,None or Unspecified,,
24514,1641787,35000,1365326,132,1.0,2004,6216.0,High,10/15/2008 0:00,850CII,850,C,II,,Medium,"Track Type Tractor, Dozer - 160.0 to 190.0 Horsepower",Florida,TTT,Track Type Tractors,,OROPS,,,,,Standard,,,,,,2 Valve,,None or Unspecified,,,,,,,,,,,,,,None or Unspecified,Semi U,None or Unspecified,,
24514,1641798,35000,1201616,132,1.0,2004,,,10/15/2008 0:00,850CII,850,C,II,,Medium,"Track Type Tractor, Dozer - 160.0 to 190.0 Horsepower",Florida,TTT,Track Type Tractors,,OROPS,,,,,Standard,,,,,,2 Valve,,None or Unspecified,,,,,,,,,,,,,,None or Unspecified,Semi U,None or Unspecified,,
24514,1641868,43000,1415410,132,1.0,2004,,,2/25/2010 0:00,850CII,850,C,II,,Medium,"Track Type Tractor, Dozer - 160.0 to 190.0 Horsepower",Texas,TTT,Track Type Tractors,,EROPS w AC,,,,,Standard,,,,,,2 Valve,,None or Unspecified,,,,,,,,,,,,,,None or Unspecified,PAT,None or Unspecified,,
24514,1641869,42500,1415410,132,1.0,2004,4716.0,Medium,12/2/2009 0:00,850CII,850,C,II,,Medium,"Track Type Tractor, Dozer - 160.0 to 190.0 Horsepower",Texas,TTT,Track Type Tractors,,EROPS w AC,,,,,Standard,,,,,,2 Valve,,None or Unspecified,,,,,,,,,,,,,,None or Unspecified,PAT,None or Unspecified,,
24514,1642493,72500,1104672,132,1.0,2004,5077.0,High,4/2/2008 0:00,850CII,850,C,II,,Medium,"Track Type Tractor, Dozer - 160.0 to 190.0 Horsepower",Maryland,TTT,Track Type Tractors,,EROPS w AC,,,,,Standard,,,,,,2 Valve,,None or Unspecified,,,,,,,,,,,,,,None or Unspecified,None or Unspecified,None or Unspecified,,
24514,1642753,46000,1329597,132,1.0,2004,,,3/29/2011 0:00,850CII,850,C,II,,Medium,"Track Type Tractor, Dozer - 160.0 to 190.0 Horsepower",Maryland,TTT,Track Type Tractors,,EROPS w AC,,,,,Hydrostatic,,,,,,2 Valve,,None or Unspecified,,,,,,,,,,,,,,None or Unspecified,PAT,None or Unspecified,,
24514,1643322,76000,1513991,132,1.0,2005,5029.0,High,2/18/2009 0:00,850CII,850,C,II,,Medium,"Track Type Tractor, Dozer - 160.0 to 190.0 Horsepower",Florida,TTT,Track Type Tractors,,EROPS w AC,,,,,Standard,,,,,,2 Valve,,None or Unspecified,,,,,,,,,,,,,,None or Unspecified,PAT,None or Unspecified,,
24514,1643377,88000,1194247,132,4.0,2005,3055.0,Medium,2/13/2008 0:00,850CII,850,C,II,,Medium,"Track Type Tractor, Dozer - 160.0 to 190.0 Horsepower",Florida,TTT,Track Type Tractors,,EROPS,,,,,Standard,,,,,,2 Valve,,None or Unspecified,,,,,,,,,,,,,,None or Unspecified,PAT,None or Unspecified,,
24514,2357608,53000,1787349,136,1.0,2001,0.0,,3/18/2008 0:00,850CII,850,C,II,,Medium,"Track Type Tractor, Dozer - 160.0 to 190.0 Horsepower",Washington,TTT,Track Type Tractors,,OROPS,,,,,Standard,,,,,,2 Valve,,None or Unspecified,,,,,,,,,,,,,,None or Unspecified,PAT,Differential Steer,,
24514,2357613,35000,1711969,136,1.0,2001,0.0,,9/24/2008 0:00,850CII,850,C,II,,Medium,"Track Type Tractor, Dozer - 160.0 to 190.0 Horsepower",Texas,TTT,Track Type Tractors,,EROPS w AC,,,,,Standard,,,,,,2 Valve,,None or Unspecified,,,,,,,,,,,,,,None or Unspecified,PAT,None or Unspecified,,
24514,2357624,52000,1787929,136,1.0,2001,0.0,,9/24/2008 0:00,850CII,850,C,II,,Medium,"Track Type Tractor, Dozer - 160.0 to 190.0 Horsepower",Texas,TTT,Track Type Tractors,,EROPS w AC,,,,,Standard,,,,,,2 Valve,,Multi Shank,,,,,,,,,,,,,,None or Unspecified,PAT,None or Unspecified,,
24514,2357699,88000,1693359,136,,2005,3055.0,Medium,2/11/2008 0:00,850CII,850,C,II,,Medium,"Track Type Tractor, Dozer - 160.0 to 190.0 Horsepower",Florida,TTT,Track Type Tractors,,OROPS,,,,,Standard,,,,,,2 Valve,,None or Unspecified,,,,,,,,,,,,,,None or Unspecified,None or Unspecified,None or Unspecified,,
24514,2631580,34000,1815271,149,1.0,2004,0.0,,7/15/2010 0:00,850CII,850,C,II,,Medium,"Track Type Tractor, Dozer - 160.0 to 190.0 Horsepower",Texas,TTT,Track Type Tractors,,EROPS w AC,,,,,Standard,,,,,,2 Valve,,Multi Shank,,,,,,,,,,,,,,None or Unspecified,PAT,None or Unspecified,,
24514,2652606,27000,1804835,149,99.0,1996,0.0,,3/26/2010 0:00,850CII,850,C,II,,Medium,"Track Type Tractor, Dozer - 160.0 to 190.0 Horsepower",Indiana,TTT,Track Type Tractors,,EROPS,,,,,Standard,,,,,,2 Valve,,None or Unspecified,,,,,,,,,,,,,,None or Unspecified,Angle,None or Unspecified,,
24514,2652679,35000,1938111,149,1.0,2003,8282.0,Medium,6/7/2011 0:00,850CII,850,C,II,,Medium,"Track Type Tractor, Dozer - 160.0 to 190.0 Horsepower",Maryland,TTT,Track Type Tractors,,EROPS w AC,,,,,Standard,,,,,,2 Valve,,None or Unspecified,,,,,,,,,,,,,,None or Unspecified,PAT,None or Unspecified,,
24514,2652687,64000,1818666,149,1.0,2003,0.0,,6/7/2011 0:00,850CII,850,C,II,,Medium,"Track Type Tractor, Dozer - 160.0 to 190.0 Horsepower",Maryland,TTT,Track Type Tractors,,EROPS w AC,,,,,Standard,,,,,,2 Valve,,None or Unspecified,,,,,,,,,,,,,,None or Unspecified,PAT,None or Unspecified,,
