ModelID,SalesID,SalePrice,MachineID,datasource,auctioneerID,YearMade,MachineHoursCurrentMeter,UsageBand,saledate,fiModelDesc,fiBaseModel,fiSecondaryDesc,fiModelSeries,fiModelDescriptor,ProductSize,fiProductClassDesc,state,ProductGroup,ProductGroupDesc,Drive_System,Enclosure,Forks,Pad_Type,Ride_Control,Stick,Transmission,Turbocharged,Blade_Extension,Blade_Width,Enclosure_Type,Engine_Horsepower,Hydraulics,Pushblock,Ripper,Scarifier,Tip_Control,Tire_Size,Coupler,Coupler_System,Grouser_Tracks,Hydraulics_Flow,Track_Type,Undercarriage_Pad_Width,Stick_Length,Thumb,Pattern_Changer,Grouser_Type,Backhoe_Mounting,Blade_Type,Travel_Controls,Differential_Type,Steering_Controls
24515,1151891,31000,1035098,121,3.0,2000,6532.0,Medium,10/22/2010 0:00,850CLT,850,C,,LT,Medium,"Track Type Tractor, Dozer - 160.0 to 190.0 Horsepower",New Hampshire,TTT,Track Type Tractors,,EROPS w AC,,,,,Hydrostatic,,,,,,2 Valve,,None or Unspecified,,,,,,,,,,,,,,None or Unspecified,PAT,None or Unspecified,,
24515,1156579,31000,1027553,121,3.0,2000,8229.0,Medium,9/25/2008 0:00,850CLT,850,C,,LT,Medium,"Track Type Tractor, Dozer - 160.0 to 190.0 Horsepower",Maryland,TTT,Track Type Tractors,,EROPS w AC,,,,,Hydrostatic,,,,,,2 Valve,,None or Unspecified,,,,,,,,,,,,,,None or Unspecified,None or Unspecified,None or Unspecified,,
24515,1628338,22000,1487502,132,1.0,1996,,,2/17/2010 0:00,850CLT,850,C,,LT,Medium,"Track Type Tractor, Dozer - 160.0 to 190.0 Horsepower",Florida,TTT,Track Type Tractors,,OROPS,,,,,Standard,,,,,,2 Valve,,None or Unspecified,,,,,,,,,,,,,,None or Unspecified,U,None or Unspecified,,
24515,1637577,31000,1328169,132,3.0,2000,,,10/21/2010 0:00,850CLT,850,C,,LT,Medium,"Track Type Tractor, Dozer - 160.0 to 190.0 Horsepower",California,TTT,Track Type Tractors,,EROPS w AC,,,,,Hydrostatic,,,,,,2 Valve,,None or Unspecified,,,,,,,,,,,,,,None or Unspecified,PAT,None or Unspecified,,
24515,1637722,30000,1334376,132,13.0,2001,11589.0,High,4/24/2010 0:00,850CLT,850,C,,LT,Medium,"Track Type Tractor, Dozer - 160.0 to 190.0 Horsepower",Kentucky,TTT,Track Type Tractors,,EROPS,,,,,Standard,,,,,,2 Valve,,None or Unspecified,,,,,,,,,,,,,,None or Unspecified,Semi U,None or Unspecified,,
24515,1638163,75000,1126749,132,7.0,2000,,,5/31/2006 0:00,850CLT,850,C,,LT,Medium,"Track Type Tractor, Dozer - 160.0 to 190.0 Horsepower",Alabama,TTT,Track Type Tractors,,OROPS,,,,,Standard,,,,,,2 Valve,,None or Unspecified,,,,,,,,,,,,,,None or Unspecified,PAT,None or Unspecified,,
24515,1639395,27000,1510973,132,1.0,2001,10868.0,High,9/28/2010 0:00,850CLT,850,C,,LT,Medium,"Track Type Tractor, Dozer - 160.0 to 190.0 Horsepower",North Carolina,TTT,Track Type Tractors,,OROPS,,,,,Standard,,,,,,2 Valve,,None or Unspecified,,,,,,,,,,,,,,None or Unspecified,Semi U,None or Unspecified,,
24515,1639784,29000,1180005,132,1.0,2002,8869.0,Medium,5/11/2011 0:00,850CLT,850,C,,LT,Medium,"Track Type Tractor, Dozer - 160.0 to 190.0 Horsepower",Texas,TTT,Track Type Tractors,,EROPS w AC,,,,,Standard,,,,,,2 Valve,,Multi Shank,,,,,,,,,,,,,,None or Unspecified,Semi U,None or Unspecified,,
24515,1640078,55000,1178094,132,1.0,2002,,,3/4/2009 0:00,850CLT,850,C,,LT,Medium,"Track Type Tractor, Dozer - 160.0 to 190.0 Horsepower",Texas,TTT,Track Type Tractors,,EROPS w AC,,,,,Hydrostatic,,,,,,2 Valve,,None or Unspecified,,,,,,,,,,,,,,None or Unspecified,PAT,None or Unspecified,,
24515,1642065,45000,1326537,132,1.0,2004,1889.0,Medium,12/16/2008 0:00,850CLT,850,C,,LT,Medium,"Track Type Tractor, Dozer - 160.0 to 190.0 Horsepower",Washington,TTT,Track Type Tractors,,OROPS,,,,,Standard,,,,,,2 Valve,,None or Unspecified,,,,,,,,,,,,,,None or Unspecified,PAT,None or Unspecified,,
24515,1642294,30000,1443255,132,5.0,2004,6520.0,High,12/3/2009 0:00,850CLT,850,C,,LT,Medium,"Track Type Tractor, Dozer - 160.0 to 190.0 Horsepower",North Carolina,TTT,Track Type Tractors,,EROPS w AC,,,,,Standard,,,,,,2 Valve,,None or Unspecified,,,,,,,,,,,,,,None or Unspecified,None or Unspecified,None or Unspecified,,
24515,1643082,37000,1121487,132,1.0,2004,,,3/25/2010 0:00,850CLT,850,C,,LT,Medium,"Track Type Tractor, Dozer - 160.0 to 190.0 Horsepower",Georgia,TTT,Track Type Tractors,,EROPS w AC,,,,,Standard,,,,,,2 Valve,,None or Unspecified,,,,,,,,,,,,,,None or Unspecified,PAT,None or Unspecified,,
24515,1643100,50000,1439925,132,1.0,2004,3076.0,Medium,3/27/2009 0:00,850CLT,850,C,,LT,Medium,"Track Type Tractor, Dozer - 160.0 to 190.0 Horsepower",California,TTT,Track Type Tractors,,EROPS w AC,,,,,Standard,,,,,,2 Valve,,Multi Shank,,,,,,,,,,,,,,None or Unspecified,Straight,None or Unspecified,,
24515,1643432,65000,1140193,132,1.0,2004,,,3/17/2010 0:00,850CLT,850,C,,LT,Medium,"Track Type Tractor, Dozer - 160.0 to 190.0 Horsepower",Ohio,TTT,Track Type Tractors,,EROPS,,,,,Standard,,,,,,2 Valve,,Multi Shank,,,,,,,,,,,,,,None or Unspecified,Semi U,None or Unspecified,,
24515,2357535,22000,1642399,136,1.0,1996,0.0,,2/15/2010 0:00,850CLT,850,C,,LT,Medium,"Track Type Tractor, Dozer - 160.0 to 190.0 Horsepower",Florida,TTT,Track Type Tractors,,OROPS,,,,,Standard,,,,,,2 Valve,,None or Unspecified,,,,,,,,,,,,,,None or Unspecified,U,None or Unspecified,,
24515,2357637,55000,1689210,136,1.0,2002,0.0,,3/4/2009 0:00,850CLT,850,C,,LT,Medium,"Track Type Tractor, Dozer - 160.0 to 190.0 Horsepower",Texas,TTT,Track Type Tractors,,EROPS w AC,,,,,Standard,,,,,,2 Valve,,None or Unspecified,,,,,,,,,,,,,,None or Unspecified,PAT,None or Unspecified,,
24515,2357680,45000,1661735,136,1.0,2004,1889.0,Medium,12/16/2008 0:00,850CLT,850,C,,LT,Medium,"Track Type Tractor, Dozer - 160.0 to 190.0 Horsepower",Washington,TTT,Track Type Tractors,,OROPS,,,,,Standard,,,,,,2 Valve,,None or Unspecified,,,,,,,,,,,,,,None or Unspecified,PAT,None or Unspecified,,
24515,2357691,37000,1700704,136,1.0,2004,0.0,,3/25/2010 0:00,850CLT,850,C,,LT,Medium,"Track Type Tractor, Dozer - 160.0 to 190.0 Horsepower",Georgia,TTT,Track Type Tractors,,EROPS w AC,,,,,Standard,,,,,,2 Valve,,None or Unspecified,,,,,,,,,,,,,,None or Unspecified,PAT,None or Unspecified,,
24515,2357694,50000,1659101,136,1.0,2004,3076.0,Medium,3/27/2009 0:00,850CLT,850,C,,LT,Medium,"Track Type Tractor, Dozer - 160.0 to 190.0 Horsepower",California,TTT,Track Type Tractors,,EROPS w AC,,,,,Standard,,,,,,2 Valve,,Multi Shank,,,,,,,,,,,,,,None or Unspecified,PAT,None or Unspecified,,
24515,2357701,65000,1673585,136,1.0,2004,0.0,,3/17/2010 0:00,850CLT,850,C,,LT,Medium,"Track Type Tractor, Dozer - 160.0 to 190.0 Horsepower",Ohio,TTT,Track Type Tractors,,EROPS,,,,,Standard,,,,,,2 Valve,,Multi Shank,,,,,,,,,,,,,,None or Unspecified,Semi U,None or Unspecified,,
24515,2630213,38000,1293566,149,4.0,1999,0.0,,2/7/2011 0:00,850CLT,850,C,,LT,Medium,"Track Type Tractor, Dozer - 160.0 to 190.0 Horsepower",Florida,TTT,Track Type Tractors,,EROPS w AC,,,,,Standard,,,,,,2 Valve,,None or Unspecified,,,,,,,,,,,,,,None or Unspecified,Straight,None or Unspecified,,
24515,2630662,41000,1795523,149,1.0,2000,0.0,,3/9/2011 0:00,850CLT,850,C,,LT,Medium,"Track Type Tractor, Dozer - 160.0 to 190.0 Horsepower",Texas,TTT,Track Type Tractors,,EROPS w AC,,,,,Standard,,,,,,2 Valve,,None or Unspecified,,,,,,,,,,,,,,None or Unspecified,Semi U,None or Unspecified,,
24515,2652677,27000,1900250,149,1.0,2001,10868.0,High,9/28/2010 0:00,850CLT,850,C,,LT,Medium,"Track Type Tractor, Dozer - 160.0 to 190.0 Horsepower",North Carolina,TTT,Track Type Tractors,,OROPS,,,,,Standard,,,,,,2 Valve,,None or Unspecified,,,,,,,,,,,,,,None or Unspecified,Semi U,None or Unspecified,,
24515,2652682,29000,1861446,149,1.0,2002,8869.0,Medium,5/11/2011 0:00,850CLT,850,C,,LT,Medium,"Track Type Tractor, Dozer - 160.0 to 190.0 Horsepower",Texas,TTT,Track Type Tractors,,EROPS w AC,,,,,Standard,,,,,,2 Valve,,Multi Shank,,,,,,,,,,,,,,None or Unspecified,Semi U,None or Unspecified,,
24515,2652695,47500,1668060,149,2.0,2003,0.0,,6/21/2011 0:00,850CLT,850,C,,LT,Medium,"Track Type Tractor, Dozer - 160.0 to 190.0 Horsepower",Texas,TTT,Track Type Tractors,,EROPS w AC,,,,,Standard,,,,,,2 Valve,,Multi Shank,,,,,,,,,,,,,,None or Unspecified,PAT,None or Unspecified,,
24515,4310610,41000,1177718,172,1.0,2000,,,3/9/2011 0:00,850CLT,850,C,,LT,Medium,"Track Type Tractor, Dozer - 160.0 to 190.0 Horsepower",Texas,TTT,Track Type Tractors,,EROPS w AC,,,,,Standard,,,,,,2 Valve,,None or Unspecified,,,,,,,,,,,,,,None or Unspecified,Semi U,None or Unspecified,,
