SalesID,1175549
SalePrice,74000
MachineID,1032261
datasource,121
auctioneerID,3.0
YearMade,2000
MachineHoursCurrentMeter,3997.0
UsageBand,Medium
saledate,5/19/2005 0:00
fiModelDesc,736AVHP
fiBaseModel,736
fiSecondaryDesc,A
fiModelSeries,
fiModelDescriptor,VHP
ProductSize,
fiProductClassDesc,Motorgrader - 170.0 to 200.0 Horsepower
state,Texas
ProductGroup,MG
ProductGroupDesc,Motor Graders
Drive_System,All Wheel Drive
Enclosure,EROPS w AC
Forks,
Pad_Type,
Ride_Control,
Stick,
Transmission,Powershift
Turbocharged,
Blade_Extension,None or Unspecified
Blade_Width,14'
Enclosure_Type,None or Unspecified
Engine_Horsepower,No
Hydraulics,Base + 1 Function
Pushblock,Yes
Ripper,Yes
Scarifier,Yes
Tip_Control,None or Unspecified
Tire_Size,None or Unspecified
Coupler,
Coupler_System,
Grouser_Tracks,
Hydraulics_Flow,
Track_Type,
Undercarriage_Pad_Width,
Stick_Length,
Thumb,
Pattern_Changer,
Grouser_Type,
Backhoe_Mounting,
Blade_Type,
Travel_Controls,
Differential_Type,
Steering_Controls,
