ModelID,SalesID,SalePrice,MachineID,datasource,auctioneerID,YearMade,MachineHoursCurrentMeter,UsageBand,saledate,fiModelDesc,fiBaseModel,fiSecondaryDesc,fiModelSeries,fiModelDescriptor,ProductSize,fiProductClassDesc,state,ProductGroup,ProductGroupDesc,Drive_System,Enclosure,Forks,Pad_Type,Ride_Control,Stick,Transmission,Turbocharged,Blade_Extension,Blade_Width,Enclosure_Type,Engine_Horsepower,Hydraulics,Pushblock,Ripper,Scarifier,Tip_Control,Tire_Size,Coupler,Coupler_System,Grouser_Tracks,Hydraulics_Flow,Track_Type,Undercarriage_Pad_Width,Stick_Length,Thumb,Pattern_Changer,Grouser_Type,Backhoe_Mounting,Blade_Type,Travel_Controls,Differential_Type,Steering_Controls
24765,1152535,19000,1069426,121,3.0,2006,6.0,Low,10/16/2008 0:00,8027,8027,,,,Mini,"Hydraulic Excavator, Track - 2.0 to 3.0 Metric Tons",Florida,TEX,Track Excavators,,EROPS,,,,,,,,,,,Auxiliary,,,,,,None or Unspecified,,,,Rubber,None or Unspecified,None or Unspecified,None or Unspecified,None or Unspecified,Double,,,,,
24765,1172632,16000,1013289,121,3.0,2005,6.0,Low,10/18/2007 0:00,8027,8027,,,,Mini,"Hydraulic Excavator, Track - 2.0 to 3.0 Metric Tons",Indiana,TEX,Track Excavators,,EROPS,,,,,,,,,,,Auxiliary,,,,,,None or Unspecified,,,,Rubber,None or Unspecified,None or Unspecified,None or Unspecified,None or Unspecified,Double,,,,,
24765,1706826,11000,1512131,132,1.0,2006,1025.0,Low,3/25/2010 0:00,8027,8027,,,,Mini,"Hydraulic Excavator, Track - 2.0 to 3.0 Metric Tons",Georgia,TEX,Track Excavators,,EROPS,,,,,,,,,,,Auxiliary,,,,,,None or Unspecified,,,,Steel,None or Unspecified,None or Unspecified,None or Unspecified,None or Unspecified,Double,,,,,
24765,1713530,9000,1516744,132,1.0,2004,,,5/25/2010 0:00,8027,8027,,,,Mini,"Hydraulic Excavator, Track - 2.0 to 3.0 Metric Tons",Florida,TEX,Track Excavators,,EROPS,,,,,,,,,,,Auxiliary,,,,,,None or Unspecified,,,,Steel,None or Unspecified,None or Unspecified,None or Unspecified,None or Unspecified,Double,,,,,
24765,2391139,8500,1656876,136,1.0,2004,0.0,,5/25/2010 0:00,8027,8027,,,,Mini,"Hydraulic Excavator, Track - 2.0 to 3.0 Metric Tons",Florida,TEX,Track Excavators,,EROPS,,,,,,,,,,,Auxiliary,,,,,,None or Unspecified,,,,Steel,None or Unspecified,None or Unspecified,None or Unspecified,None or Unspecified,Double,,,,,
24765,4349153,11000,1412479,172,1.0,2006,1025.0,Low,3/25/2010 0:00,8027,8027,,,,Mini,"Hydraulic Excavator, Track - 2.0 to 3.0 Metric Tons",Georgia,TEX,Track Excavators,,EROPS,,,,,,,,,,,Auxiliary,,,,,,None or Unspecified,,,,Steel,None or Unspecified,None or Unspecified,None or Unspecified,None or Unspecified,Double,,,,,
24765,4349366,8500,1496655,172,1.0,2004,1566.0,Low,5/25/2010 0:00,8027,8027,,,,Mini,"Hydraulic Excavator, Track - 2.0 to 3.0 Metric Tons",Florida,TEX,Track Excavators,,EROPS,,,,,,,,,,,Auxiliary,,,,,,None or Unspecified,,,,Steel,None or Unspecified,None or Unspecified,None or Unspecified,None or Unspecified,Double,,,,,
