ModelID,SalesID,SalePrice,MachineID,datasource,auctioneerID,YearMade,MachineHoursCurrentMeter,UsageBand,saledate,fiModelDesc,fiBaseModel,fiSecondaryDesc,fiModelSeries,fiModelDescriptor,ProductSize,fiProductClassDesc,state,ProductGroup,ProductGroupDesc,Drive_System,Enclosure,Forks,Pad_Type,Ride_Control,Stick,Transmission,Turbocharged,Blade_Extension,Blade_Width,Enclosure_Type,Engine_Horsepower,Hydraulics,Pushblock,Ripper,Scarifier,Tip_Control,Tire_Size,Coupler,Coupler_System,Grouser_Tracks,Hydraulics_Flow,Track_Type,Undercarriage_Pad_Width,Stick_Length,Thumb,Pattern_Changer,Grouser_Type,Backhoe_Mounting,Blade_Type,Travel_Controls,Differential_Type,Steering_Controls
24841,2677677,38500,1817102,149,2.0,1000,0.0,,1/29/2011 0:00,3CX 14FT,3,CX,, 14FT,,Backhoe Loader - 14.0 to 15.0 Ft Standard Digging Depth,Florida,BL,Backhoe Loaders,Two Wheel Drive,OROPS,None or Unspecified,None or Unspecified,No,Standard,Standard,None or Unspecified,,,,,,,,,,,,,,,,,,,,,,,,,
24841,2684495,32000,1902756,149,2.0,2007,0.0,,1/29/2011 0:00,3CX 14FT,3,CX,, 14FT,,Backhoe Loader - 14.0 to 15.0 Ft Standard Digging Depth,Florida,BL,Backhoe Loaders,Two Wheel Drive,OROPS,None or Unspecified,None or Unspecified,No,Standard,Standard,None or Unspecified,,,,,,,,,,,,,,,,,,,,,,,,,
24841,2684505,35500,1899469,149,2.0,1000,0.0,,1/29/2011 0:00,3CX 14FT,3,CX,, 14FT,,Backhoe Loader - 14.0 to 15.0 Ft Standard Digging Depth,Florida,BL,Backhoe Loaders,Two Wheel Drive,OROPS,None or Unspecified,None or Unspecified,No,Standard,Standard,None or Unspecified,,,,,,,,,,,,,,,,,,,,,,,,,
24841,2684546,24000,1834594,149,2.0,2008,0.0,,1/29/2011 0:00,3CX 14FT,3,CX,, 14FT,,Backhoe Loader - 14.0 to 15.0 Ft Standard Digging Depth,Florida,BL,Backhoe Loaders,Two Wheel Drive,OROPS,None or Unspecified,None or Unspecified,No,Standard,Standard,None or Unspecified,,,,,,,,,,,,,,,,,,,,,,,,,
24841,6296276,37500,1812750,149,2.0,1000,,,9/24/2011 0:00,3CX 14FT,3,CX,, 14FT,,Backhoe Loader - 14.0 to 15.0 Ft Standard Digging Depth,New Jersey,BL,Backhoe Loaders,Two Wheel Drive,OROPS,None or Unspecified,None or Unspecified,No,Standard,Standard,None or Unspecified,,,,,,,,,,,,,,,,,,,,,,,,,
