ModelID,SalesID,SalePrice,MachineID,datasource,auctioneerID,YearMade,MachineHoursCurrentMeter,UsageBand,saledate,fiModelDesc,fiBaseModel,fiSecondaryDesc,fiModelSeries,fiModelDescriptor,ProductSize,fiProductClassDesc,state,ProductGroup,ProductGroupDesc,Drive_System,Enclosure,Forks,Pad_Type,Ride_Control,Stick,Transmission,Turbocharged,Blade_Extension,Blade_Width,Enclosure_Type,Engine_Horsepower,Hydraulics,Pushblock,Ripper,Scarifier,Tip_Control,Tire_Size,Coupler,Coupler_System,Grouser_Tracks,Hydraulics_Flow,Track_Type,Undercarriage_Pad_Width,Stick_Length,Thumb,Pattern_Changer,Grouser_Type,Backhoe_Mounting,Blade_Type,Travel_Controls,Differential_Type,Steering_Controls
25092,4249818,18000,2302376,172,1.0,1999,8455.0,High,3/16/2010 0:00,580SUPERLII,580,SUPER,L,II,,Backhoe Loader - 14.0 to 15.0 Ft Standard Digging Depth,Colorado,BL,Backhoe Loaders,Two Wheel Drive,EROPS,None or Unspecified,None or Unspecified,Yes,Extended,Standard,None or Unspecified,,,,,,,,,,,,,,,,,,,,,,,,,
25092,4250506,22000,2305140,172,1.0,1998,4138.0,Medium,6/10/2009 0:00,580SUPERLII,580,SUPER,L,II,,Backhoe Loader - 14.0 to 15.0 Ft Standard Digging Depth,Texas,BL,Backhoe Loaders,Two Wheel Drive,OROPS,None or Unspecified,None or Unspecified,No,Standard,Standard,None or Unspecified,,,,,,,,,,,,,,,,,,,,,,,,,
25092,4250510,22000,1726771,172,1.0,1998,2610.0,Low,6/10/2009 0:00,580SUPERLII,580,SUPER,L,II,,Backhoe Loader - 14.0 to 15.0 Ft Standard Digging Depth,Texas,BL,Backhoe Loaders,Two Wheel Drive,OROPS,None or Unspecified,None or Unspecified,No,Extended,Standard,None or Unspecified,,,,,,,,,,,,,,,,,,,,,,,,,
25092,4250517,17500,2288739,172,1.0,1998,6203.0,Medium,12/10/2009 0:00,580SUPERLII,580,SUPER,L,II,,Backhoe Loader - 14.0 to 15.0 Ft Standard Digging Depth,Washington,BL,Backhoe Loaders,Two Wheel Drive,OROPS,None or Unspecified,None or Unspecified,No,Extended,Standard,None or Unspecified,,,,,,,,,,,,,,,,,,,,,,,,,
25092,4250524,23000,2303328,172,1.0,1998,,,12/12/2011 0:00,580SUPERLII,580,SUPER,L,II,,Backhoe Loader - 14.0 to 15.0 Ft Standard Digging Depth,Colorado,BL,Backhoe Loaders,,EROPS w AC,,,,,Standard,,,,,,,,,,,,,,,,,,,,,,,,,,
25092,4250675,23000,2290598,172,1.0,1000,,,5/11/2011 0:00,580SUPERLII,580,SUPER,L,II,,Backhoe Loader - 14.0 to 15.0 Ft Standard Digging Depth,Texas,BL,Backhoe Loaders,Two Wheel Drive,OROPS,None or Unspecified,None or Unspecified,No,Standard,Standard,None or Unspecified,,,,,,,,,,,,,,,,,,,,,,,,,
25092,4250749,18000,2293171,172,1.0,1999,4301.0,Low,7/14/2011 0:00,580SUPERLII,580,SUPER,L,II,,Backhoe Loader - 14.0 to 15.0 Ft Standard Digging Depth,Louisiana,BL,Backhoe Loaders,,EROPS w AC,None or Unspecified,,None or Unspecified,,,,,,,,,,,,,,,,,,,,,,,,,,,,
25092,4250750,24000,2293171,172,1.0,1999,4268.0,Low,8/24/2011 0:00,580SUPERLII,580,SUPER,L,II,,Backhoe Loader - 14.0 to 15.0 Ft Standard Digging Depth,Maryland,BL,Backhoe Loaders,,EROPS w AC,None or Unspecified,,None or Unspecified,,,,,,,,,,,,,,,,,,,,,,,,,,,,
25092,4250795,22500,2296545,172,1.0,1999,2825.0,Low,12/10/2009 0:00,580SUPERLII,580,SUPER,L,II,,Backhoe Loader - 14.0 to 15.0 Ft Standard Digging Depth,Washington,BL,Backhoe Loaders,Two Wheel Drive,OROPS,None or Unspecified,None or Unspecified,No,Standard,Standard,None or Unspecified,,,,,,,,,,,,,,,,,,,,,,,,,
25092,4250904,24000,2296919,172,1.0,1999,442.0,Low,9/20/2011 0:00,580SUPERLII,580,SUPER,L,II,,Backhoe Loader - 14.0 to 15.0 Ft Standard Digging Depth,Washington,BL,Backhoe Loaders,Two Wheel Drive,EROPS w AC,Yes,None or Unspecified,Yes,Extended,Standard,None or Unspecified,,,,,,,,,,,,,,,,,,,,,,,,,
25092,4250906,24000,2296919,172,1.0,2000,6174.0,Medium,8/1/2011 0:00,580SUPERLII,580,SUPER,L,II,,Backhoe Loader - 14.0 to 15.0 Ft Standard Digging Depth,Illinois,BL,Backhoe Loaders,Two Wheel Drive,EROPS w AC,Yes,None or Unspecified,Yes,Extended,Standard,None or Unspecified,,,,,,,,,,,,,,,,,,,,,,,,,
25092,4250909,22000,2296919,172,1.0,1999,5023.0,Medium,8/18/2011 0:00,580SUPERLII,580,SUPER,L,II,,Backhoe Loader - 14.0 to 15.0 Ft Standard Digging Depth,Nevada,BL,Backhoe Loaders,Two Wheel Drive,EROPS w AC,Yes,None or Unspecified,Yes,Extended,Standard,None or Unspecified,,,,,,,,,,,,,,,,,,,,,,,,,
25092,4250915,23000,2296919,172,1.0,1999,2309.0,Low,10/17/2011 0:00,580SUPERLII,580,SUPER,L,II,,Backhoe Loader - 14.0 to 15.0 Ft Standard Digging Depth,Maryland,BL,Backhoe Loaders,Two Wheel Drive,EROPS w AC,Yes,None or Unspecified,Yes,Extended,Standard,None or Unspecified,,,,,,,,,,,,,,,,,,,,,,,,,
25092,4250919,24000,2296919,172,1.0,2000,1446.0,Low,12/19/2011 0:00,580SUPERLII,580,SUPER,L,II,,Backhoe Loader - 14.0 to 15.0 Ft Standard Digging Depth,Washington,BL,Backhoe Loaders,Two Wheel Drive,EROPS w AC,Yes,None or Unspecified,Yes,Extended,Standard,None or Unspecified,,,,,,,,,,,,,,,,,,,,,,,,,
25092,4250925,17000,2296919,172,1.0,1999,9189.0,High,10/10/2011 0:00,580SUPERLII,580,SUPER,L,II,,Backhoe Loader - 14.0 to 15.0 Ft Standard Digging Depth,Colorado,BL,Backhoe Loaders,Two Wheel Drive,EROPS w AC,Yes,None or Unspecified,Yes,Extended,Standard,None or Unspecified,,,,,,,,,,,,,,,,,,,,,,,,,
25092,4250930,22000,2296919,172,1.0,1999,5545.0,Medium,12/5/2011 0:00,580SUPERLII,580,SUPER,L,II,,Backhoe Loader - 14.0 to 15.0 Ft Standard Digging Depth,Missouri,BL,Backhoe Loaders,Two Wheel Drive,EROPS w AC,Yes,None or Unspecified,Yes,Extended,Standard,None or Unspecified,,,,,,,,,,,,,,,,,,,,,,,,,
25092,4250936,29000,2296919,172,1.0,2000,1197.0,Low,12/12/2011 0:00,580SUPERLII,580,SUPER,L,II,,Backhoe Loader - 14.0 to 15.0 Ft Standard Digging Depth,Maryland,BL,Backhoe Loaders,Two Wheel Drive,EROPS w AC,Yes,None or Unspecified,Yes,Extended,Standard,None or Unspecified,,,,,,,,,,,,,,,,,,,,,,,,,
