ModelID,SalesID,SalePrice,MachineID,datasource,auctioneerID,YearMade,MachineHoursCurrentMeter,UsageBand,saledate,fiModelDesc,fiBaseModel,fiSecondaryDesc,fiModelSeries,fiModelDescriptor,ProductSize,fiProductClassDesc,state,ProductGroup,ProductGroupDesc,Drive_System,Enclosure,Forks,Pad_Type,Ride_Control,Stick,Transmission,Turbocharged,Blade_Extension,Blade_Width,Enclosure_Type,Engine_Horsepower,Hydraulics,Pushblock,Ripper,Scarifier,Tip_Control,Tire_Size,Coupler,Coupler_System,Grouser_Tracks,Hydraulics_Flow,Track_Type,Undercarriage_Pad_Width,Stick_Length,Thumb,Pattern_Changer,Grouser_Type,Backhoe_Mounting,Blade_Type,Travel_Controls,Differential_Type,Steering_Controls
25144,1195539,28500,1010405,121,3.0,2004,2309.0,Medium,11/19/2009 0:00,850KII XLT,850,K,II, XLT,,"Track Type Tractor, Dozer - 85.0 to 105.0 Horsepower",Florida,TTT,Track Type Tractors,,OROPS,,,,,Hydrostatic,,,,,,2 Valve,,None or Unspecified,,,,,,,,,,,,,,None or Unspecified,None or Unspecified,None or Unspecified,,
25144,4245909,39000,2269575,172,1.0,2006,2214.0,Medium,3/24/2010 0:00,850KII XLT,850,K,II, XLT,,"Track Type Tractor, Dozer - 85.0 to 105.0 Horsepower",Texas,TTT,Track Type Tractors,,EROPS w AC,,,,,Standard,,,,,,2 Valve,,None or Unspecified,,,,,,,,,,,,,,None or Unspecified,PAT,None or Unspecified,,
25144,4245910,28000,1054883,172,1.0,2006,1453.0,Medium,6/10/2009 0:00,850KII XLT,850,K,II, XLT,,"Track Type Tractor, Dozer - 85.0 to 105.0 Horsepower",Texas,TTT,Track Type Tractors,,OROPS,,,,,Hydrostatic,,,,,,2 Valve,,Multi Shank,,,,,,,,,,,,,,None or Unspecified,PAT,None or Unspecified,,
