ModelID,SalesID,SalePrice,MachineID,datasource,auctioneerID,YearMade,MachineHoursCurrentMeter,UsageBand,saledate,fiModelDesc,fiBaseModel,fiSecondaryDesc,fiModelSeries,fiModelDescriptor,ProductSize,fiProductClassDesc,state,ProductGroup,ProductGroupDesc,Drive_System,Enclosure,Forks,Pad_Type,Ride_Control,Stick,Transmission,Turbocharged,Blade_Extension,Blade_Width,Enclosure_Type,Engine_Horsepower,Hydraulics,Pushblock,Ripper,Scarifier,Tip_Control,Tire_Size,Coupler,Coupler_System,Grouser_Tracks,Hydraulics_Flow,Track_Type,Undercarriage_Pad_Width,Stick_Length,Thumb,Pattern_Changer,Grouser_Type,Backhoe_Mounting,Blade_Type,Travel_Controls,Differential_Type,Steering_Controls
25305,1678655,7500,1483008,132,1.0,1984,,,6/23/2004 0:00,UH025-7,UH025,,-7,,Mini,"Hydraulic Excavator, Track - 6.0 to 8.0 Metric Tons",Washington,TEX,Track Excavators,,EROPS,,,,,,,,,,,Standard,,,,,,None or Unspecified,,,,Steel,None or Unspecified,None or Unspecified,None or Unspecified,None or Unspecified,Double,,,,,
25305,1678657,9400,1485766,132,9.0,1000,,,2/18/2004 0:00,UH025-7,UH025,,-7,,Mini,"Hydraulic Excavator, Track - 6.0 to 8.0 Metric Tons",Florida,TEX,Track Excavators,,EROPS,,,,,,,,,,,Standard,,,,,,None or Unspecified,,,,Steel,18 inch,None or Unspecified,None or Unspecified,None or Unspecified,Triple,,,,,
25305,1678663,9000,1202743,132,1.0,1000,,,9/24/2002 0:00,UH025-7,UH025,,-7,,Mini,"Hydraulic Excavator, Track - 6.0 to 8.0 Metric Tons",Washington,TEX,Track Excavators,,EROPS,,,,,,,,,,,Standard,,,,,,None or Unspecified,,,,Steel,None or Unspecified,None or Unspecified,None or Unspecified,None or Unspecified,Double,,,,,
25305,1678675,15500,1427268,132,1.0,1000,,,9/22/2004 0:00,UH025-7,UH025,,-7,,Mini,"Hydraulic Excavator, Track - 6.0 to 8.0 Metric Tons",California,TEX,Track Excavators,,EROPS,,,,,,,,,,,Auxiliary,,,,,,None or Unspecified,,,,Steel,None or Unspecified,None or Unspecified,None or Unspecified,None or Unspecified,Double,,,,,
25305,1678676,8500,1475112,132,1.0,1000,,,3/9/2005 0:00,UH025-7,UH025,,-7,,Mini,"Hydraulic Excavator, Track - 6.0 to 8.0 Metric Tons",Minnesota,TEX,Track Excavators,,EROPS,,,,,,,,,,,Standard,,,,,,None or Unspecified,,,,Steel,None or Unspecified,None or Unspecified,None or Unspecified,None or Unspecified,Double,,,,,
25305,1678679,9000,1505569,132,1.0,1000,,,9/24/2002 0:00,UH025-7,UH025,,-7,,Mini,"Hydraulic Excavator, Track - 6.0 to 8.0 Metric Tons",Washington,TEX,Track Excavators,,EROPS,,,,,,,,,,,Standard,,,,,,None or Unspecified,,,,Steel,None or Unspecified,None or Unspecified,None or Unspecified,None or Unspecified,Double,,,,,
25305,1691741,8500,1492592,132,1.0,1000,,,6/4/2004 0:00,UH025-7,UH025,,-7,,Mini,"Hydraulic Excavator, Track - 6.0 to 8.0 Metric Tons",Minnesota,TEX,Track Excavators,,EROPS,,,,,,,,,,,Standard,,,,,,None or Unspecified,,,,Steel,None or Unspecified,None or Unspecified,None or Unspecified,None or Unspecified,Double,,,,,
25305,1692235,8500,1349606,132,1.0,1000,,,12/4/2002 0:00,UH025-7,UH025,,-7,,Mini,"Hydraulic Excavator, Track - 6.0 to 8.0 Metric Tons",North Carolina,TEX,Track Excavators,,EROPS,,,,,,,,,,,Standard,,,,,,None or Unspecified,,,,Steel,None or Unspecified,None or Unspecified,None or Unspecified,None or Unspecified,Double,,,,,
25305,1692237,10000,1346484,132,2.0,1000,2642.0,Low,11/20/1999 0:00,UH025-7,UH025,,-7,,Mini,"Hydraulic Excavator, Track - 6.0 to 8.0 Metric Tons",Ohio,TEX,Track Excavators,,EROPS,,,,,,,,,,,Standard,,,,,,None or Unspecified,,,,Steel,24 inch,None or Unspecified,None or Unspecified,None or Unspecified,Double,,,,,
25305,1692275,8000,1547942,132,1.0,1000,,,4/20/2001 0:00,UH025-7,UH025,,-7,,Mini,"Hydraulic Excavator, Track - 6.0 to 8.0 Metric Tons",Minnesota,TEX,Track Excavators,,EROPS,,,,,,,,,,,Standard,,,,,,None or Unspecified,,,,Steel,None or Unspecified,None or Unspecified,None or Unspecified,None or Unspecified,Double,,,,,
25305,1692276,8000,1372010,132,1.0,1000,,,9/24/2002 0:00,UH025-7,UH025,,-7,,Mini,"Hydraulic Excavator, Track - 6.0 to 8.0 Metric Tons",Washington,TEX,Track Excavators,,EROPS,,,,,,,,,,,Standard,,,,,,None or Unspecified,,,,Steel,None or Unspecified,None or Unspecified,None or Unspecified,None or Unspecified,Double,,,,,
25305,1692279,8000,1130849,132,1.0,1000,,,3/9/2005 0:00,UH025-7,UH025,,-7,,Mini,"Hydraulic Excavator, Track - 6.0 to 8.0 Metric Tons",Minnesota,TEX,Track Excavators,,EROPS,,,,,,,,,,,Standard,,,,,,None or Unspecified,,,,Steel,None or Unspecified,None or Unspecified,None or Unspecified,None or Unspecified,Double,,,,,
25305,2373076,8000,1686052,136,,1000,1616.0,Low,12/6/2008 0:00,UH025-7,UH025,,-7,,Mini,"Hydraulic Excavator, Track - 6.0 to 8.0 Metric Tons",California,TEX,Track Excavators,,EROPS,,,,,,,,,,,Standard,,,,,,None or Unspecified,,,,Steel,None or Unspecified,None or Unspecified,Manual,None or Unspecified,Double,,,,,
