ModelID,SalesID,SalePrice,MachineID,datasource,auctioneerID,YearMade,MachineHoursCurrentMeter,UsageBand,saledate,fiModelDesc,fiBaseModel,fiSecondaryDesc,fiModelSeries,fiModelDescriptor,ProductSize,fiProductClassDesc,state,ProductGroup,ProductGroupDesc,Drive_System,Enclosure,Forks,Pad_Type,Ride_Control,Stick,Transmission,Turbocharged,Blade_Extension,Blade_Width,Enclosure_Type,Engine_Horsepower,Hydraulics,Pushblock,Ripper,Scarifier,Tip_Control,Tire_Size,Coupler,Coupler_System,Grouser_Tracks,Hydraulics_Flow,Track_Type,Undercarriage_Pad_Width,Stick_Length,Thumb,Pattern_Changer,Grouser_Type,Backhoe_Mounting,Blade_Type,Travel_Controls,Differential_Type,Steering_Controls
25317,1692183,57000,1269100,132,13.0,2007,,,6/19/2010 0:00,ZX135,ZX135,,,,Small,"Hydraulic Excavator, Track - 12.0 to 14.0 Metric Tons",Tennessee,TEX,Track Excavators,,EROPS w AC,,,,,,,,,,,Standard,,,,,,None or Unspecified,,,,Steel,None or Unspecified,None or Unspecified,None or Unspecified,None or Unspecified,Double,,,,,
25317,1693317,52500,1470862,132,1.0,1000,,,5/28/2008 0:00,ZX135,ZX135,,,,Small,"Hydraulic Excavator, Track - 12.0 to 14.0 Metric Tons",Florida,TEX,Track Excavators,,EROPS w AC,,,,,,,,,,,Standard,,,,,,None or Unspecified,,,,Rubber,None or Unspecified,"9' 10""",None or Unspecified,None or Unspecified,Double,,,,,
25317,1693318,41000,1521913,132,1.0,1000,,,9/16/2008 0:00,ZX135,ZX135,,,,Small,"Hydraulic Excavator, Track - 12.0 to 14.0 Metric Tons",Washington,TEX,Track Excavators,,EROPS,,,,,,,,,,,Standard,,,,,,Manual,,,,Steel,None or Unspecified,None or Unspecified,Hydraulic,None or Unspecified,Double,,,,,
25317,2373767,60000,1749003,136,,2007,1399.0,Medium,6/17/2009 0:00,ZX135,ZX135,,,,Small,"Hydraulic Excavator, Track - 12.0 to 14.0 Metric Tons",Washington,TEX,Track Excavators,,EROPS,,,,,,,,,,,Standard,,,,,,Manual,,,,Steel,None or Unspecified,None or Unspecified,Hydraulic,None or Unspecified,Double,,,,,
25317,6292879,53000,1897672,149,12.0,2006,,,8/17/2011 0:00,ZX135,ZX135,,,,Small,"Hydraulic Excavator, Track - 12.0 to 14.0 Metric Tons",South Carolina,TEX,Track Excavators,,EROPS w AC,,,,,,,,,,,Standard,,,,,,None or Unspecified,,,,Steel,None or Unspecified,None or Unspecified,None or Unspecified,None or Unspecified,Double,,,,,
