SalesID,2371785
SalePrice,18500
MachineID,1714369
datasource,136
auctioneerID,
YearMade,1000
MachineHoursCurrentMeter,6479.0
UsageBand,Medium
saledate,7/24/2009 0:00
fiModelDesc,EX210-5
fiBaseModel,EX210
fiSecondaryDesc,
fiModelSeries,-5
fiModelDescriptor,
ProductSize,Large / Medium
fiProductClassDesc,"Hydraulic Excavator, Track - 21.0 to 24.0 Metric Tons"
state,Virginia
ProductGroup,TEX
ProductGroupDesc,Track Excavators
Drive_System,
Enclosure,EROPS w AC
Forks,
Pad_Type,
Ride_Control,
Stick,
Transmission,
Turbocharged,
Blade_Extension,
Blade_Width,
Enclosure_Type,
Engine_Horsepower,
Hydraulics,Standard
Pushblock,
Ripper,
Scarifier,
Tip_Control,
Tire_Size,
Coupler,None or Unspecified
Coupler_System,
Grouser_Tracks,
Hydraulics_Flow,
Track_Type,Steel
Undercarriage_Pad_Width,None or Unspecified
Stick_Length,None or Unspecified
Thumb,Manual
Pattern_Changer,None or Unspecified
Grouser_Type,Double
Backhoe_Mounting,
Blade_Type,
Travel_Controls,
Differential_Type,
Steering_Controls,
