SalesID,1185006
SalePrice,35000
MachineID,999701
datasource,121
auctioneerID,3.0
YearMade,2004
MachineHoursCurrentMeter,2427.0
UsageBand,Medium
saledate,12/4/2008 0:00
fiModelDesc,ZAXIS 135US
fiBaseModel,ZAXIS 135
fiSecondaryDesc,US
fiModelSeries,
fiModelDescriptor,
ProductSize,Small
fiProductClassDesc,"Hydraulic Excavator, Track - 12.0 to 14.0 Metric Tons"
state,Oregon
ProductGroup,TEX
ProductGroupDesc,Track Excavators
Drive_System,
Enclosure,EROPS w AC
Forks,
Pad_Type,
Ride_Control,
Stick,
Transmission,
Turbocharged,
Blade_Extension,
Blade_Width,
Enclosure_Type,
Engine_Horsepower,
Hydraulics,Auxiliary
Pushblock,
Ripper,
Scarifier,
Tip_Control,
Tire_Size,
Coupler,Hydraulic
Coupler_System,
Grouser_Tracks,
Hydraulics_Flow,
Track_Type,Steel
Undercarriage_Pad_Width,None or Unspecified
Stick_Length,None or Unspecified
Thumb,Hydraulic
Pattern_Changer,None or Unspecified
Grouser_Type,Double
Backhoe_Mounting,
Blade_Type,
Travel_Controls,
Differential_Type,
Steering_Controls,
