ModelID,SalesID,SalePrice,MachineID,datasource,auctioneerID,YearMade,MachineHoursCurrentMeter,UsageBand,saledate,fiModelDesc,fiBaseModel,fiSecondaryDesc,fiModelSeries,fiModelDescriptor,ProductSize,fiProductClassDesc,state,ProductGroup,ProductGroupDesc,Drive_System,Enclosure,Forks,Pad_Type,Ride_Control,Stick,Transmission,Turbocharged,Blade_Extension,Blade_Width,Enclosure_Type,Engine_Horsepower,Hydraulics,Pushblock,Ripper,Scarifier,Tip_Control,Tire_Size,Coupler,Coupler_System,Grouser_Tracks,Hydraulics_Flow,Track_Type,Undercarriage_Pad_Width,Stick_Length,Thumb,Pattern_Changer,Grouser_Type,Backhoe_Mounting,Blade_Type,Travel_Controls,Differential_Type,Steering_Controls
256,1745855,22500,1119074,132,17.0,1000,,,7/11/2000 0:00,D65E-7,D65,E,-7,,Large,"Track Type Tractor, Dozer - 190.0 to 260.0 Horsepower",Washington,TTT,Track Type Tractors,,EROPS,,,,,,,,,,,Standard,,,,,,,,,,,,,,,,,Straight,2 Pedal,,
256,1746123,10500,1557637,132,10.0,1000,,,10/24/2001 0:00,D65E-7,D65,E,-7,,Large,"Track Type Tractor, Dozer - 190.0 to 260.0 Horsepower",Pennsylvania,TTT,Track Type Tractors,,OROPS,,,,,Standard,,,,,,2 Valve,,None or Unspecified,,,,,,,,,,,,,,None or Unspecified,None or Unspecified,None or Unspecified,,
256,1746135,27500,1347406,132,6.0,1919,,,5/8/1997 0:00,D65E-7,D65,E,-7,,Large,"Track Type Tractor, Dozer - 190.0 to 260.0 Horsepower",Tennessee,TTT,Track Type Tractors,,OROPS,,,,,Standard,,,,,,2 Valve,,None or Unspecified,,,,,,,,,,,,,,None or Unspecified,Straight,None or Unspecified,,
256,1746341,13250,1544616,132,2.0,1919,,,11/16/1994 0:00,D65E-7,D65,E,-7,,Large,"Track Type Tractor, Dozer - 190.0 to 260.0 Horsepower",New Hampshire,TTT,Track Type Tractors,,OROPS,,,,,Standard,,,,,,2 Valve,,None or Unspecified,,,,,,,,,,,,,,None or Unspecified,Straight,None or Unspecified,,
256,1746400,16000,1271235,132,7.0,1919,,,6/5/1998 0:00,D65E-7,D65,E,-7,,Large,"Track Type Tractor, Dozer - 190.0 to 260.0 Horsepower",Alabama,TTT,Track Type Tractors,,OROPS,,,,,Standard,,,,,,2 Valve,,None or Unspecified,,,,,,,,,,,,,,None or Unspecified,Straight,None or Unspecified,,
256,1746410,20500,1147973,132,2.0,1919,,,9/19/1998 0:00,D65E-7,D65,E,-7,,Large,"Track Type Tractor, Dozer - 190.0 to 260.0 Horsepower",Ohio,TTT,Track Type Tractors,,OROPS,,,,,Standard,,,,,,2 Valve,,None or Unspecified,,,,,,,,,,,,,,None or Unspecified,Straight,None or Unspecified,,
256,1746444,17000,1449565,132,14.0,1000,,,12/17/1996 0:00,D65E-7,D65,E,-7,,Large,"Track Type Tractor, Dozer - 190.0 to 260.0 Horsepower",Indiana,TTT,Track Type Tractors,,EROPS w AC,,,,,Powershift,,,,,,2 Valve,,None or Unspecified,,,,,,,,,,,,,,None or Unspecified,Straight,None or Unspecified,,
256,1746449,30000,1284144,132,2.0,1919,,,5/20/1995 0:00,D65E-7,D65,E,-7,,Large,"Track Type Tractor, Dozer - 190.0 to 260.0 Horsepower",New Hampshire,TTT,Track Type Tractors,,OROPS,,,,,Standard,,,,,,2 Valve,,None or Unspecified,,,,,,,,,,,,,,None or Unspecified,PAT,None or Unspecified,,
256,1746465,24750,1347070,132,9.0,1000,,,2/11/1998 0:00,D65E-7,D65,E,-7,,Large,"Track Type Tractor, Dozer - 190.0 to 260.0 Horsepower",Florida,TTT,Track Type Tractors,,OROPS,,,,,Standard,,,,,,2 Valve,,None or Unspecified,,,,,,,,,,,,,,None or Unspecified,Straight,None or Unspecified,,
256,1746484,17500,321165,132,99.0,1919,,,4/6/1994 0:00,D65E-7,D65,E,-7,,Large,"Track Type Tractor, Dozer - 190.0 to 260.0 Horsepower",Wyoming,TTT,Track Type Tractors,,OROPS,,,,,Standard,,,,,,2 Valve,,None or Unspecified,,,,,,,,,,,,,,None or Unspecified,None or Unspecified,None or Unspecified,,
256,1746489,20000,1107659,132,99.0,1919,,,4/21/1999 0:00,D65E-7,D65,E,-7,,Large,"Track Type Tractor, Dozer - 190.0 to 260.0 Horsepower",Wyoming,TTT,Track Type Tractors,,OROPS,,,,,Standard,,,,,,2 Valve,,None or Unspecified,,,,,,,,,,,,,,None or Unspecified,None or Unspecified,None or Unspecified,,
256,1746495,15500,1105734,132,99.0,1919,,,11/5/2003 0:00,D65E-7,D65,E,-7,,Large,"Track Type Tractor, Dozer - 190.0 to 260.0 Horsepower",Wyoming,TTT,Track Type Tractors,,OROPS,,,,,Powershift,,,,,,2 Valve,,None or Unspecified,,,,,,,,,,,,,,None or Unspecified,PAT,None or Unspecified,,
256,1748551,19000,1135025,132,6.0,1919,,,10/20/1998 0:00,D65E-7,D65,E,-7,,Large,"Track Type Tractor, Dozer - 190.0 to 260.0 Horsepower",Maine,TTT,Track Type Tractors,,OROPS,,,,,Standard,,,,,,2 Valve,,None or Unspecified,,,,,,,,,,,,,,None or Unspecified,Straight,None or Unspecified,,
256,1773574,55000,1390388,132,2.0,1000,,,9/21/1996 0:00,D65E-7,D65,E,-7,,Large,"Track Type Tractor, Dozer - 190.0 to 260.0 Horsepower",Ohio,TTT,Track Type Tractors,,OROPS,,,,,Standard,,,,,,2 Valve,,None or Unspecified,,,,,,,,,,,,,,None or Unspecified,None or Unspecified,None or Unspecified,,
256,2405065,21000,1536936,136,1.0,1000,0.0,,11/6/2007 0:00,D65E-7,D65,E,-7,,Large,"Track Type Tractor, Dozer - 190.0 to 260.0 Horsepower",Tennessee,TTT,Track Type Tractors,,EROPS w AC,,,,,Standard,,,,,,2 Valve,,None or Unspecified,,,,,,,,,,,,,,None or Unspecified,PAT,None or Unspecified,,
256,2405072,11000,1782974,136,1.0,1000,0.0,,6/17/2008 0:00,D65E-7,D65,E,-7,,Large,"Track Type Tractor, Dozer - 190.0 to 260.0 Horsepower",Ohio,TTT,Track Type Tractors,,OROPS,,,,,Standard,,,,,,2 Valve,,None or Unspecified,,,,,,,,,,,,,,None or Unspecified,Straight,None or Unspecified,,
256,2405145,17500,857976,136,8.0,1000,0.0,,9/15/2007 0:00,D65E-7,D65,E,-7,,Large,"Track Type Tractor, Dozer - 190.0 to 260.0 Horsepower",New Hampshire,TTT,Track Type Tractors,,OROPS,,,,,Powershift,,,,,,2 Valve,,Single Shank,,,,,,,,,,,,,,None or Unspecified,PAT,None or Unspecified,,
256,2694855,17000,1196404,149,1.0,1984,1702.0,Low,10/19/2010 0:00,D65E-7,D65,E,-7,,Large,"Track Type Tractor, Dozer - 190.0 to 260.0 Horsepower",Maryland,TTT,Track Type Tractors,,EROPS,,,,,Standard,,,,,,2 Valve,,None or Unspecified,,,,,,,,,,,,,,None or Unspecified,PAT,None or Unspecified,,
256,6302844,18000,1809077,149,2.0,1000,,,11/19/2011 0:00,D65E-7,D65,E,-7,,Large,"Track Type Tractor, Dozer - 190.0 to 260.0 Horsepower",Connecticut,TTT,Track Type Tractors,,OROPS,,,,,Standard,,,,,,2 Valve,,None or Unspecified,,,,,,,,,,,,,,None or Unspecified,PAT,None or Unspecified,,
256,6302860,12000,1105734,149,1.0,1984,,,12/6/2011 0:00,D65E-7,D65,E,-7,,Large,"Track Type Tractor, Dozer - 190.0 to 260.0 Horsepower",Ohio,TTT,Track Type Tractors,,OROPS,,,,,Powershift,,,,,,2 Valve,,None or Unspecified,,,,,,,,,,,,,,None or Unspecified,PAT,None or Unspecified,,
