SalesID,2672103
SalePrice,47500
MachineID,1847671
datasource,149
auctioneerID,2.0
YearMade,2005
MachineHoursCurrentMeter,0.0
UsageBand,
saledate,3/31/2011 0:00
fiModelDesc,ZX330LC5
fiBaseModel,ZX330
fiSecondaryDesc,
fiModelSeries,LC
fiModelDescriptor,5
ProductSize,Large / Medium
fiProductClassDesc,"Hydraulic Excavator, Track - 33.0 to 40.0 Metric Tons"
state,New Jersey
ProductGroup,TEX
ProductGroupDesc,Track Excavators
Drive_System,
Enclosure,EROPS w AC
Forks,
Pad_Type,
Ride_Control,
Stick,
Transmission,
Turbocharged,
Blade_Extension,
Blade_Width,
Enclosure_Type,
Engine_Horsepower,
Hydraulics,Auxiliary
Pushblock,
Ripper,
Scarifier,
Tip_Control,
Tire_Size,
Coupler,None or Unspecified
Coupler_System,
Grouser_Tracks,
Hydraulics_Flow,
Track_Type,Steel
Undercarriage_Pad_Width,None or Unspecified
Stick_Length,"10' 10"""
Thumb,None or Unspecified
Pattern_Changer,None or Unspecified
Grouser_Type,Double
Backhoe_Mounting,
Blade_Type,
Travel_Controls,
Differential_Type,
Steering_Controls,
