SalesID,1180286
SalePrice,46000
MachineID,1049274
datasource,121
auctioneerID,3.0
YearMade,2004
MachineHoursCurrentMeter,3842.0
UsageBand,Medium
saledate,6/26/2008 0:00
fiModelDesc,ZX330CLC
fiBaseModel,ZX330
fiSecondaryDesc,C
fiModelSeries,
fiModelDescriptor,LC
ProductSize,Large / Medium
fiProductClassDesc,"Hydraulic Excavator, Track - 33.0 to 40.0 Metric Tons"
state,Texas
ProductGroup,TEX
ProductGroupDesc,Track Excavators
Drive_System,
Enclosure,EROPS w AC
Forks,
Pad_Type,
Ride_Control,
Stick,
Transmission,
Turbocharged,
Blade_Extension,
Blade_Width,
Enclosure_Type,
Engine_Horsepower,
Hydraulics,Auxiliary
Pushblock,
Ripper,
Scarifier,
Tip_Control,
Tire_Size,
Coupler,Manual
Coupler_System,
Grouser_Tracks,
Hydraulics_Flow,
Track_Type,Steel
Undercarriage_Pad_Width,None or Unspecified
Stick_Length,None or Unspecified
Thumb,None or Unspecified
Pattern_Changer,None or Unspecified
Grouser_Type,Double
Backhoe_Mounting,
Blade_Type,
Travel_Controls,
Differential_Type,
Steering_Controls,
