SalesID,6316125
SalePrice,37000
MachineID,1285405
datasource,149
auctioneerID,1.0
YearMade,1999
MachineHoursCurrentMeter,
UsageBand,
saledate,6/22/2011 0:00
fiModelDesc,SE240NLC-3
fiBaseModel,SE240
fiSecondaryDesc,NLC
fiModelSeries,-3
fiModelDescriptor,
ProductSize,Large / Medium
fiProductClassDesc,"Hydraulic Excavator, Track - 24.0 to 28.0 Metric Tons"
state,Texas
ProductGroup,TEX
ProductGroupDesc,Track Excavators
Drive_System,
Enclosure,EROPS w AC
Forks,
Pad_Type,
Ride_Control,
Stick,
Transmission,
Turbocharged,
Blade_Extension,
Blade_Width,
Enclosure_Type,
Engine_Horsepower,
Hydraulics,Standard
Pushblock,
Ripper,
Scarifier,
Tip_Control,
Tire_Size,
Coupler,None or Unspecified
Coupler_System,
Grouser_Tracks,
Hydraulics_Flow,
Track_Type,Steel
Undercarriage_Pad_Width,None or Unspecified
Stick_Length,"9' 6"""
Thumb,None or Unspecified
Pattern_Changer,None or Unspecified
Grouser_Type,Double
Backhoe_Mounting,
Blade_Type,
Travel_Controls,
Differential_Type,
Steering_Controls,
