SalesID,1825945
SalePrice,21000
MachineID,1459870
datasource,132
auctioneerID,2.0
YearMade,1000
MachineHoursCurrentMeter,
UsageBand,
saledate,12/10/1999 0:00
fiModelDesc,MX8
fiBaseModel,MX8
fiSecondaryDesc,
fiModelSeries,
fiModelDescriptor,
ProductSize,Small
fiProductClassDesc,"Hydraulic Excavator, Track - 8.0 to 11.0 Metric Tons"
state,Georgia
ProductGroup,TEX
ProductGroupDesc,Track Excavators
Drive_System,
Enclosure,EROPS
Forks,
Pad_Type,
Ride_Control,
Stick,
Transmission,
Turbocharged,
Blade_Extension,
Blade_Width,
Enclosure_Type,
Engine_Horsepower,
Hydraulics,Standard
Pushblock,
Ripper,
Scarifier,
Tip_Control,
Tire_Size,
Coupler,None or Unspecified
Coupler_System,
Grouser_Tracks,
Hydraulics_Flow,
Track_Type,Steel
Undercarriage_Pad_Width,None or Unspecified
Stick_Length,None or Unspecified
Thumb,None or Unspecified
Pattern_Changer,None or Unspecified
Grouser_Type,Double
Backhoe_Mounting,
Blade_Type,
Travel_Controls,
Differential_Type,
Steering_Controls,
