SalesID,2192361
SalePrice,14000
MachineID,1703309
datasource,136
auctioneerID,
YearMade,1000
MachineHoursCurrentMeter,
UsageBand,
saledate,5/2/2009 0:00
fiModelDesc,RC150
fiBaseModel,RC150
fiSecondaryDesc,
fiModelSeries,
fiModelDescriptor,
ProductSize,
fiProductClassDesc,Skid Steer Loader - Unidentified
state,Minnesota
ProductGroup,SSL
ProductGroupDesc,Skid Steer Loaders
Drive_System,
Enclosure,OROPS
Forks,None or Unspecified
Pad_Type,
Ride_Control,
Stick,
Transmission,
Turbocharged,
Blade_Extension,
Blade_Width,
Enclosure_Type,
Engine_Horsepower,
Hydraulics,Auxiliary
Pushblock,
Ripper,
Scarifier,
Tip_Control,
Tire_Size,
Coupler,Manual
Coupler_System,Yes
Grouser_Tracks,Yes
Hydraulics_Flow,Standard
Track_Type,
Undercarriage_Pad_Width,
Stick_Length,
Thumb,
Pattern_Changer,
Grouser_Type,
Backhoe_Mounting,
Blade_Type,
Travel_Controls,
Differential_Type,
Steering_Controls,
