ModelID,SalesID,SalePrice,MachineID,datasource,auctioneerID,YearMade,MachineHoursCurrentMeter,UsageBand,saledate,fiModelDesc,fiBaseModel,fiSecondaryDesc,fiModelSeries,fiModelDescriptor,ProductSize,fiProductClassDesc,state,ProductGroup,ProductGroupDesc,Drive_System,Enclosure,Forks,Pad_Type,Ride_Control,Stick,Transmission,Turbocharged,Blade_Extension,Blade_Width,Enclosure_Type,Engine_Horsepower,Hydraulics,Pushblock,Ripper,Scarifier,Tip_Control,Tire_Size,Coupler,Coupler_System,Grouser_Tracks,Hydraulics_Flow,Track_Type,Undercarriage_Pad_Width,Stick_Length,Thumb,Pattern_Changer,Grouser_Type,Backhoe_Mounting,Blade_Type,Travel_Controls,Differential_Type,Steering_Controls
26125,2395633,28000,1728458,136,1.0,2002,0.0,,5/8/2009 0:00,200SR,200,SR,,,Large / Medium,"Hydraulic Excavator, Track - 19.0 to 21.0 Metric Tons",Utah,TEX,Track Excavators,,EROPS w AC,,,,,,,,,,,Standard,,,,,,None or Unspecified,,,,Steel,None or Unspecified,None or Unspecified,None or Unspecified,None or Unspecified,Double,,,,,
26125,2395634,26000,1759721,136,1.0,2002,0.0,,5/8/2009 0:00,200SR,200,SR,,,Large / Medium,"Hydraulic Excavator, Track - 19.0 to 21.0 Metric Tons",Utah,TEX,Track Excavators,,EROPS w AC,,,,,,,,,,,Standard,,,,,,None or Unspecified,,,,Steel,None or Unspecified,None or Unspecified,None or Unspecified,None or Unspecified,Double,,,,,
26125,2687061,45000,1870231,149,2.0,2006,0.0,,5/10/2011 0:00,200SR,200,SR,,,Large / Medium,"Hydraulic Excavator, Track - 19.0 to 21.0 Metric Tons",Texas,TEX,Track Excavators,,EROPS,,,,,,,,,,,Standard,,,,,,None or Unspecified,,,,Steel,None or Unspecified,None or Unspecified,None or Unspecified,None or Unspecified,Double,,,,,
26125,4353311,28000,1847917,172,1.0,2001,3331.0,Low,3/12/2009 0:00,200SR,200,SR,,,Large / Medium,"Hydraulic Excavator, Track - 19.0 to 21.0 Metric Tons",Illinois,TEX,Track Excavators,,EROPS,,,,,,,,,,,Auxiliary,,,,,,None or Unspecified,,,,Steel,None or Unspecified,None or Unspecified,Manual,None or Unspecified,Double,,,,,
