ModelID,SalesID,SalePrice,MachineID,datasource,auctioneerID,YearMade,MachineHoursCurrentMeter,UsageBand,saledate,fiModelDesc,fiBaseModel,fiSecondaryDesc,fiModelSeries,fiModelDescriptor,ProductSize,fiProductClassDesc,state,ProductGroup,ProductGroupDesc,Drive_System,Enclosure,Forks,Pad_Type,Ride_Control,Stick,Transmission,Turbocharged,Blade_Extension,Blade_Width,Enclosure_Type,Engine_Horsepower,Hydraulics,Pushblock,Ripper,Scarifier,Tip_Control,Tire_Size,Coupler,Coupler_System,Grouser_Tracks,Hydraulics_Flow,Track_Type,Undercarriage_Pad_Width,Stick_Length,Thumb,Pattern_Changer,Grouser_Type,Backhoe_Mounting,Blade_Type,Travel_Controls,Differential_Type,Steering_Controls
26185,1169127,57000,1013349,121,3.0,2004,2498.0,Medium,9/6/2007 0:00,SK135SRLC-1,SK135,SRLC,-1,,Small,"Hydraulic Excavator, Track - 12.0 to 14.0 Metric Tons",Wisconsin,TEX,Track Excavators,,EROPS w AC,,,,,,,,,,,Auxiliary,,,,,,None or Unspecified,,,,Steel,None or Unspecified,"9' 8""",None or Unspecified,None or Unspecified,Double,,,,,
26185,1212441,34500,1060021,121,3.0,2004,4115.0,Medium,3/3/2011 0:00,SK135SRLC-1,SK135,SRLC,-1,,Small,"Hydraulic Excavator, Track - 12.0 to 14.0 Metric Tons",Texas,TEX,Track Excavators,,EROPS w AC,,,,,,,,,,,Auxiliary,,,,,,None or Unspecified,,,,Steel,24 inch,"9' 8""",None or Unspecified,None or Unspecified,Double,,,,,
26185,1217727,27000,1000166,121,3.0,2004,4028.0,Medium,9/14/2011 0:00,SK135SRLC-1,SK135,SRLC,-1,,Small,"Hydraulic Excavator, Track - 12.0 to 14.0 Metric Tons",Kentucky,TEX,Track Excavators,,EROPS w AC,,,,,,,,,,,Auxiliary,,,,,,Manual,,,,Steel,None or Unspecified,"9' 7""",None or Unspecified,Yes,Double,,,,,
26185,1218105,31000,1004258,121,3.0,2005,2468.0,Low,9/29/2011 0:00,SK135SRLC-1,SK135,SRLC,-1,,Small,"Hydraulic Excavator, Track - 12.0 to 14.0 Metric Tons",Texas,TEX,Track Excavators,,EROPS,,,,,,,,,,,Auxiliary,,,,,,None or Unspecified,,,,Steel,24 inch,None or Unspecified,None or Unspecified,None or Unspecified,Double,,,,,
26185,2688723,26000,1944635,149,26.0,2004,6639.0,Medium,6/8/2011 0:00,SK135SRLC-1,SK135,SRLC,-1,,Small,"Hydraulic Excavator, Track - 12.0 to 14.0 Metric Tons",Alabama,TEX,Track Excavators,,EROPS,,,,,,,,,,,Standard,,,,,,None or Unspecified,,,,Steel,28 inch,"9' 6""",None or Unspecified,None or Unspecified,Triple,,,,,
26185,4353843,20000,1909049,172,1.0,2004,7686.0,High,11/18/2010 0:00,SK135SRLC-1,SK135,SRLC,-1,,Small,"Hydraulic Excavator, Track - 12.0 to 14.0 Metric Tons",Arizona,TEX,Track Excavators,,EROPS w AC,,,,,,,,,,,Auxiliary,,,,,,Manual,,,,Steel,24 inch,None or Unspecified,Hydraulic,None or Unspecified,Double,,,,,
26185,6300295,29000,1809707,149,1.0,2004,,,12/13/2011 0:00,SK135SRLC-1,SK135,SRLC,-1,,Small,"Hydraulic Excavator, Track - 12.0 to 14.0 Metric Tons",Maryland,TEX,Track Excavators,,EROPS w AC,,,,,,,,,,,Standard,,,,,,None or Unspecified,,,,Steel,None or Unspecified,None or Unspecified,None or Unspecified,None or Unspecified,Double,,,,,
26185,6300316,35500,1888187,149,2.0,2006,,,7/26/2011 0:00,SK135SRLC-1,SK135,SRLC,-1,,Small,"Hydraulic Excavator, Track - 12.0 to 14.0 Metric Tons",Texas,TEX,Track Excavators,,EROPS,,,,,,,,,,,Auxiliary,,,,,,None or Unspecified,,,,Steel,24 inch,None or Unspecified,None or Unspecified,None or Unspecified,Double,,,,,
26185,6300327,31000,1791775,149,1.0,2005,,,12/13/2011 0:00,SK135SRLC-1,SK135,SRLC,-1,,Small,"Hydraulic Excavator, Track - 12.0 to 14.0 Metric Tons",Maryland,TEX,Track Excavators,,EROPS w AC,,,,,,,,,,,Auxiliary,,,,,,None or Unspecified,,,,Steel,None or Unspecified,None or Unspecified,Hydraulic,None or Unspecified,Triple,,,,,
