ModelID,SalesID,SalePrice,MachineID,datasource,auctioneerID,YearMade,MachineHoursCurrentMeter,UsageBand,saledate,fiModelDesc,fiBaseModel,fiSecondaryDesc,fiModelSeries,fiModelDescriptor,ProductSize,fiProductClassDesc,state,ProductGroup,ProductGroupDesc,Drive_System,Enclosure,Forks,Pad_Type,Ride_Control,Stick,Transmission,Turbocharged,Blade_Extension,Blade_Width,Enclosure_Type,Engine_Horsepower,Hydraulics,Pushblock,Ripper,Scarifier,Tip_Control,Tire_Size,Coupler,Coupler_System,Grouser_Tracks,Hydraulics_Flow,Track_Type,Undercarriage_Pad_Width,Stick_Length,Thumb,Pattern_Changer,Grouser_Type,Backhoe_Mounting,Blade_Type,Travel_Controls,Differential_Type,Steering_Controls
26216,1153139,9000,1002845,121,3.0,1000,0.0,,2/25/2010 0:00,560B,560,B,,,Large,Wheel Loader - 350.0 to 500.0 Horsepower,Iowa,WL,Wheel Loader,,EROPS w AC,None or Unspecified,,None or Unspecified,,,,,,,,2 Valve,,,,,None or Unspecified,None or Unspecified,,,,,,,,,,,,,Standard,Conventional
26216,1164174,11000,1032367,121,3.0,1000,18556.0,Low,8/19/2011 0:00,560B,560,B,,,Large,Wheel Loader - 350.0 to 500.0 Horsepower,New York,WL,Wheel Loader,,EROPS w AC,None or Unspecified,,None or Unspecified,,,,,,,,2 Valve,,,,,29.5,None or Unspecified,,,,,,,,,,,,,Standard,Conventional
26216,2359694,22000,1679555,136,1.0,1000,0.0,,7/18/2007 0:00,560B,560,B,,,Large,Wheel Loader - 350.0 to 500.0 Horsepower,Michigan,WL,Wheel Loader,,EROPS,None or Unspecified,,None or Unspecified,,,,,,,,2 Valve,,,,,None or Unspecified,None or Unspecified,,,,,,,,,,,,,Standard,Conventional
26216,2359698,19000,1780000,136,1.0,1999,0.0,,12/8/2008 0:00,560B,560,B,,,Large,Wheel Loader - 350.0 to 500.0 Horsepower,Illinois,WL,Wheel Loader,,OROPS,None or Unspecified,,None or Unspecified,,,,,,,,2 Valve,,,,,None or Unspecified,None or Unspecified,,,,,,,,,,,,,Standard,Conventional
26216,2359699,21000,1640370,136,1.0,1990,0.0,,3/12/2009 0:00,560B,560,B,,,Large,Wheel Loader - 350.0 to 500.0 Horsepower,Illinois,WL,Wheel Loader,,EROPS,None or Unspecified,,None or Unspecified,,,,,,,,2 Valve,,,,,29.5,None or Unspecified,,,,,,,,,,,,,Standard,Conventional
26216,2359700,10500,1679208,136,1.0,1987,0.0,,10/30/2007 0:00,560B,560,B,,,Large,Wheel Loader - 350.0 to 500.0 Horsepower,Missouri,WL,Wheel Loader,,EROPS w AC,None or Unspecified,,None or Unspecified,,,,,,,,2 Valve,,,,,None or Unspecified,None or Unspecified,,,,,,,,,,,,,Standard,Conventional
26216,2359701,15000,1775641,136,1.0,1000,0.0,,6/29/2010 0:00,560B,560,B,,,Large,Wheel Loader - 350.0 to 500.0 Horsepower,Missouri,WL,Wheel Loader,,EROPS,None or Unspecified,,None or Unspecified,,,,,,,,2 Valve,,,,,None or Unspecified,None or Unspecified,,,,,,,,,,,,,Standard,Conventional
26216,2360094,13000,1682211,136,5.0,1990,12165.0,Medium,6/25/2010 0:00,560B,560,B,,,Large,Wheel Loader - 350.0 to 500.0 Horsepower,Connecticut,WL,Wheel Loader,,EROPS,None or Unspecified,,None or Unspecified,,,,,,,,2 Valve,,,,,None or Unspecified,None or Unspecified,,,,,,,,,,,,,Standard,Conventional
