SalesID,1155307
SalePrice,19500
MachineID,1037300
datasource,121
auctioneerID,3.0
YearMade,1992
MachineHoursCurrentMeter,574.0
UsageBand,Low
saledate,5/17/2007 0:00
fiModelDesc,TD15ELT
fiBaseModel,TD15
fiSecondaryDesc,E
fiModelSeries,
fiModelDescriptor,LT
ProductSize,Medium
fiProductClassDesc,"Track Type Tractor, Dozer - 160.0 to 190.0 Horsepower"
state,North Carolina
ProductGroup,TTT
ProductGroupDesc,Track Type Tractors
Drive_System,
Enclosure,OROPS
Forks,
Pad_Type,
Ride_Control,
Stick,
Transmission,Powershift
Turbocharged,
Blade_Extension,
Blade_Width,
Enclosure_Type,
Engine_Horsepower,
Hydraulics,2 Valve
Pushblock,
Ripper,None or Unspecified
Scarifier,
Tip_Control,
Tire_Size,
Coupler,
Coupler_System,
Grouser_Tracks,
Hydraulics_Flow,
Track_Type,
Undercarriage_Pad_Width,
Stick_Length,
Thumb,
Pattern_Changer,
Grouser_Type,
Backhoe_Mounting,None or Unspecified
Blade_Type,None or Unspecified
Travel_Controls,None or Unspecified
Differential_Type,
Steering_Controls,
