ModelID,SalesID,SalePrice,MachineID,datasource,auctioneerID,YearMade,MachineHoursCurrentMeter,UsageBand,saledate,fiModelDesc,fiBaseModel,fiSecondaryDesc,fiModelSeries,fiModelDescriptor,ProductSize,fiProductClassDesc,state,ProductGroup,ProductGroupDesc,Drive_System,Enclosure,Forks,Pad_Type,Ride_Control,Stick,Transmission,Turbocharged,Blade_Extension,Blade_Width,Enclosure_Type,Engine_Horsepower,Hydraulics,Pushblock,Ripper,Scarifier,Tip_Control,Tire_Size,Coupler,Coupler_System,Grouser_Tracks,Hydraulics_Flow,Track_Type,Undercarriage_Pad_Width,Stick_Length,Thumb,Pattern_Changer,Grouser_Type,Backhoe_Mounting,Blade_Type,Travel_Controls,Differential_Type,Steering_Controls
26316,1177936,48000,1035423,121,3.0,2006,396.0,Low,3/27/2008 0:00,D85LT,D85,LT,,,,"Track Type Tractor, Dozer - 75.0 to 85.0 Horsepower",Arkansas,TTT,Track Type Tractors,,OROPS,,,,,Hydrostatic,,,,,,2 Valve,,None or Unspecified,,,,,,,,,,,,,,None or Unspecified,PAT,None or Unspecified,,
26316,1177937,48000,1020374,121,3.0,2006,1175.0,Medium,3/27/2008 0:00,D85LT,D85,LT,,,,"Track Type Tractor, Dozer - 75.0 to 85.0 Horsepower",Arkansas,TTT,Track Type Tractors,,EROPS w AC,,,,,Hydrostatic,,,,,,2 Valve,,None or Unspecified,,,,,,,,,,,,,,None or Unspecified,PAT,None or Unspecified,,
