SalesID,1177907
SalePrice,53000
MachineID,1017307
datasource,121
auctioneerID,3.0
YearMade,2006
MachineHoursCurrentMeter,300.0
UsageBand,Low
saledate,3/27/2008 0:00
fiModelDesc,D95LGP
fiBaseModel,D95
fiSecondaryDesc,LGP
fiModelSeries,
fiModelDescriptor,
ProductSize,
fiProductClassDesc,"Track Type Tractor, Dozer - 85.0 to 105.0 Horsepower"
state,Tennessee
ProductGroup,TTT
ProductGroupDesc,Track Type Tractors
Drive_System,
Enclosure,OROPS
Forks,
Pad_Type,
Ride_Control,
Stick,
Transmission,Hydrostatic
Turbocharged,
Blade_Extension,
Blade_Width,
Enclosure_Type,
Engine_Horsepower,
Hydraulics,2 Valve
Pushblock,
Ripper,None or Unspecified
Scarifier,
Tip_Control,
Tire_Size,
Coupler,
Coupler_System,
Grouser_Tracks,
Hydraulics_Flow,
Track_Type,
Undercarriage_Pad_Width,
Stick_Length,
Thumb,
Pattern_Changer,
Grouser_Type,
Backhoe_Mounting,None or Unspecified
Blade_Type,PAT
Travel_Controls,None or Unspecified
Differential_Type,
Steering_Controls,
