SalesID,2441023
SalePrice,52500
MachineID,1774210
datasource,136
auctioneerID,1.0
YearMade,2003
MachineHoursCurrentMeter,2351.0
UsageBand,Medium
saledate,9/19/2007 0:00
fiModelDesc,DC150LT
fiBaseModel,DC150
fiSecondaryDesc,LT
fiModelSeries,
fiModelDescriptor,
ProductSize,Medium
fiProductClassDesc,"Track Type Tractor, Dozer - 130.0 to 160.0 Horsepower"
state,Illinois
ProductGroup,TTT
ProductGroupDesc,Track Type Tractors
Drive_System,
Enclosure,EROPS
Forks,
Pad_Type,
Ride_Control,
Stick,
Transmission,Standard
Turbocharged,
Blade_Extension,
Blade_Width,
Enclosure_Type,
Engine_Horsepower,
Hydraulics,2 Valve
Pushblock,
Ripper,Multi Shank
Scarifier,
Tip_Control,
Tire_Size,
Coupler,
Coupler_System,
Grouser_Tracks,
Hydraulics_Flow,
Track_Type,
Undercarriage_Pad_Width,
Stick_Length,
Thumb,
Pattern_Changer,
Grouser_Type,
Backhoe_Mounting,None or Unspecified
Blade_Type,PAT
Travel_Controls,Differential Steer
Differential_Type,
Steering_Controls,
