ModelID,SalesID,SalePrice,MachineID,datasource,auctioneerID,YearMade,MachineHoursCurrentMeter,UsageBand,saledate,fiModelDesc,fiBaseModel,fiSecondaryDesc,fiModelSeries,fiModelDescriptor,ProductSize,fiProductClassDesc,state,ProductGroup,ProductGroupDesc,Drive_System,Enclosure,Forks,Pad_Type,Ride_Control,Stick,Transmission,Turbocharged,Blade_Extension,Blade_Width,Enclosure_Type,Engine_Horsepower,Hydraulics,Pushblock,Ripper,Scarifier,Tip_Control,Tire_Size,Coupler,Coupler_System,Grouser_Tracks,Hydraulics_Flow,Track_Type,Undercarriage_Pad_Width,Stick_Length,Thumb,Pattern_Changer,Grouser_Type,Backhoe_Mounting,Blade_Type,Travel_Controls,Differential_Type,Steering_Controls
26343,1201056,39000,1025947,121,3.0,2000,5.0,Low,4/29/2010 0:00,DC180LT,DC180,LT,,,Medium,"Track Type Tractor, Dozer - 160.0 to 190.0 Horsepower",Illinois,TTT,Track Type Tractors,,EROPS w AC,,,,,Hydrostatic,,,,,,2 Valve,,None or Unspecified,,,,,,,,,,,,,,None or Unspecified,None or Unspecified,None or Unspecified,,
26343,2438502,35000,1647505,136,5.0,2001,0.0,,10/10/2008 0:00,DC180LT,DC180,LT,,,Medium,"Track Type Tractor, Dozer - 160.0 to 190.0 Horsepower",Connecticut,TTT,Track Type Tractors,,EROPS w AC,,,,,Standard,,,,,,2 Valve,,None or Unspecified,,,,,,,,,,,,,,None or Unspecified,Semi U,Finger Tip,,
26343,2438503,45000,1772518,136,1.0,2002,0.0,,3/20/2008 0:00,DC180LT,DC180,LT,,,Medium,"Track Type Tractor, Dozer - 160.0 to 190.0 Horsepower",Ohio,TTT,Track Type Tractors,,EROPS,,,,,Standard,,,,,,2 Valve,,None or Unspecified,,,,,,,,,,,,,,None or Unspecified,Semi U,None or Unspecified,,
26343,2439353,54000,1666892,136,,1000,1937.0,Low,4/18/2007 0:00,DC180LT,DC180,LT,,,Medium,"Track Type Tractor, Dozer - 160.0 to 190.0 Horsepower",Arkansas,TTT,Track Type Tractors,,EROPS w AC,,,,,Standard,,,,,,2 Valve,,None or Unspecified,,,,,,,,,,,,,,None or Unspecified,Semi U,None or Unspecified,,
26343,2731724,36000,1647505,149,1.0,2001,0.0,,12/15/2010 0:00,DC180LT,DC180,LT,,,Medium,"Track Type Tractor, Dozer - 160.0 to 190.0 Horsepower",Missouri,TTT,Track Type Tractors,,EROPS w AC,,,,,Standard,,,,,,2 Valve,,None or Unspecified,,,,,,,,,,,,,,None or Unspecified,Semi U,Finger Tip,,
