ModelID,SalesID,SalePrice,MachineID,datasource,auctioneerID,YearMade,MachineHoursCurrentMeter,UsageBand,saledate,fiModelDesc,fiBaseModel,fiSecondaryDesc,fiModelSeries,fiModelDescriptor,ProductSize,fiProductClassDesc,state,ProductGroup,ProductGroupDesc,Drive_System,Enclosure,Forks,Pad_Type,Ride_Control,Stick,Transmission,Turbocharged,Blade_Extension,Blade_Width,Enclosure_Type,Engine_Horsepower,Hydraulics,Pushblock,Ripper,Scarifier,Tip_Control,Tire_Size,Coupler,Coupler_System,Grouser_Tracks,Hydraulics_Flow,Track_Type,Undercarriage_Pad_Width,Stick_Length,Thumb,Pattern_Changer,Grouser_Type,Backhoe_Mounting,Blade_Type,Travel_Controls,Differential_Type,Steering_Controls
26351,1147744,29500,1026213,121,3.0,2005,796.0,Low,7/9/2009 0:00,DC75,DC75,,,,,"Track Type Tractor, Dozer - 75.0 to 85.0 Horsepower",New York,TTT,Track Type Tractors,,EROPS w AC,,,,,Hydrostatic,,,,,,2 Valve,,None or Unspecified,,,,,,,,,,,,,,None or Unspecified,None or Unspecified,None or Unspecified,,
26351,1156082,21000,1031881,121,3.0,2005,1407.0,Low,3/12/2009 0:00,DC75,DC75,,,,,"Track Type Tractor, Dozer - 75.0 to 85.0 Horsepower",Alabama,TTT,Track Type Tractors,,OROPS,,,,,Hydrostatic,,,,,,2 Valve,,None or Unspecified,,,,,,,,,,,,,,None or Unspecified,None or Unspecified,None or Unspecified,,
26351,1183290,33000,1060525,121,3.0,2005,927.0,Low,10/16/2008 0:00,DC75,DC75,,,,,"Track Type Tractor, Dozer - 75.0 to 85.0 Horsepower",Connecticut,TTT,Track Type Tractors,,OROPS,,,,,Hydrostatic,,,,,,2 Valve,,None or Unspecified,,,,,,,,,,,,,,None or Unspecified,PAT,None or Unspecified,,
26351,1217222,25000,1060525,121,3.0,2005,963.0,Low,9/8/2011 0:00,DC75,DC75,,,,,"Track Type Tractor, Dozer - 75.0 to 85.0 Horsepower",Connecticut,TTT,Track Type Tractors,,OROPS,,,,,Hydrostatic,,,,,,2 Valve,,None or Unspecified,,,,,,,,,,,,,,None or Unspecified,PAT,None or Unspecified,,
26351,1219337,25500,1060525,121,3.0,2005,965.0,Low,10/13/2011 0:00,DC75,DC75,,,,,"Track Type Tractor, Dozer - 75.0 to 85.0 Horsepower",Tennessee,TTT,Track Type Tractors,,OROPS,,,,,Hydrostatic,,,,,,2 Valve,,None or Unspecified,,,,,,,,,,,,,,None or Unspecified,PAT,None or Unspecified,,
26351,2440038,34000,1709042,136,,2004,1756.0,Medium,3/29/2007 0:00,DC75,DC75,,,,,"Track Type Tractor, Dozer - 75.0 to 85.0 Horsepower",Texas,TTT,Track Type Tractors,,OROPS,,,,,Standard,,,,,,2 Valve,,None or Unspecified,,,,,,,,,,,,,,None or Unspecified,PAT,None or Unspecified,,
26351,2440041,44000,1652278,136,,2005,78.0,Low,9/11/2007 0:00,DC75,DC75,,,,,"Track Type Tractor, Dozer - 75.0 to 85.0 Horsepower",Ohio,TTT,Track Type Tractors,,OROPS,,,,,Standard,,,,,,2 Valve,,None or Unspecified,,,,,,,,,,,,,,None or Unspecified,PAT,None or Unspecified,,
26351,2440042,39000,1724095,136,4.0,2005,0.0,,3/21/2007 0:00,DC75,DC75,,,,,"Track Type Tractor, Dozer - 75.0 to 85.0 Horsepower",Mississippi,TTT,Track Type Tractors,,OROPS,,,,,Standard,,,,,,2 Valve,,None or Unspecified,,,,,,,,,,,,,,None or Unspecified,None or Unspecified,None or Unspecified,,
26351,2440047,37500,1720678,136,1.0,2005,678.0,Low,12/18/2007 0:00,DC75,DC75,,,,,"Track Type Tractor, Dozer - 75.0 to 85.0 Horsepower",Ohio,TTT,Track Type Tractors,,OROPS,,,,,Standard,,,,,,2 Valve,,None or Unspecified,,,,,,,,,,,,,,None or Unspecified,PAT,None or Unspecified,,
26351,2440050,36000,1771537,136,1.0,2005,0.0,,4/10/2008 0:00,DC75,DC75,,,,,"Track Type Tractor, Dozer - 75.0 to 85.0 Horsepower",Tennessee,TTT,Track Type Tractors,,OROPS,,,,,Standard,,,,,,2 Valve,,None or Unspecified,,,,,,,,,,,,,,None or Unspecified,PAT,None or Unspecified,,
26351,2440052,35000,1746935,136,1.0,2005,0.0,,10/10/2007 0:00,DC75,DC75,,,,,"Track Type Tractor, Dozer - 75.0 to 85.0 Horsepower",Florida,TTT,Track Type Tractors,,EROPS w AC,,,,,Standard,,,,,,2 Valve,,None or Unspecified,,,,,,,,,,,,,,None or Unspecified,PAT,None or Unspecified,,
26351,2440056,32500,1739880,136,,2005,0.0,,9/27/2008 0:00,DC75,DC75,,,,,"Track Type Tractor, Dozer - 75.0 to 85.0 Horsepower",New Jersey,TTT,Track Type Tractors,,OROPS,,,,,Standard,,,,,,2 Valve,,None or Unspecified,,,,,,,,,,,,,,None or Unspecified,PAT,None or Unspecified,,
26351,2440057,45000,1709330,136,1.0,2006,42.0,Low,12/18/2007 0:00,DC75,DC75,,,,,"Track Type Tractor, Dozer - 75.0 to 85.0 Horsepower",Ohio,TTT,Track Type Tractors,,OROPS,,,,,Standard,,,,,,2 Valve,,None or Unspecified,,,,,,,,,,,,,,None or Unspecified,PAT,None or Unspecified,,
26351,2440312,40500,1656799,136,5.0,2006,301.0,Low,1/23/2009 0:00,DC75,DC75,,,,,"Track Type Tractor, Dozer - 75.0 to 85.0 Horsepower",Connecticut,TTT,Track Type Tractors,,EROPS,,,,,Standard,,,,,,2 Valve,,None or Unspecified,,,,,,,,,,,,,,None or Unspecified,PAT,None or Unspecified,,
