ModelID,SalesID,SalePrice,MachineID,datasource,auctioneerID,YearMade,MachineHoursCurrentMeter,UsageBand,saledate,fiModelDesc,fiBaseModel,fiSecondaryDesc,fiModelSeries,fiModelDescriptor,ProductSize,fiProductClassDesc,state,ProductGroup,ProductGroupDesc,Drive_System,Enclosure,Forks,Pad_Type,Ride_Control,Stick,Transmission,Turbocharged,Blade_Extension,Blade_Width,Enclosure_Type,Engine_Horsepower,Hydraulics,Pushblock,Ripper,Scarifier,Tip_Control,Tire_Size,Coupler,Coupler_System,Grouser_Tracks,Hydraulics_Flow,Track_Type,Undercarriage_Pad_Width,Stick_Length,Thumb,Pattern_Changer,Grouser_Type,Backhoe_Mounting,Blade_Type,Travel_Controls,Differential_Type,Steering_Controls
26362,2440058,29500,1706469,136,20.0,2004,3210.0,Medium,3/10/2010 0:00,DC95XLT,DC95,XLT,,,,"Track Type Tractor, Dozer - 85.0 to 105.0 Horsepower",Oklahoma,TTT,Track Type Tractors,,OROPS,,,,,Standard,,,,,,2 Valve,,None or Unspecified,,,,,,,,,,,,,,None or Unspecified,PAT,None or Unspecified,,
26362,2440079,42500,1770759,136,,2005,0.0,,11/1/2008 0:00,DC95XLT,DC95,XLT,,,,"Track Type Tractor, Dozer - 85.0 to 105.0 Horsepower",New York,TTT,Track Type Tractors,,OROPS,,,,,Standard,,,,,,2 Valve,,None or Unspecified,,,,,,,,,,,,,,None or Unspecified,PAT,None or Unspecified,,
26362,2440081,63000,1658335,136,5.0,2005,0.0,,8/15/2008 0:00,DC95XLT,DC95,XLT,,,,"Track Type Tractor, Dozer - 85.0 to 105.0 Horsepower",Connecticut,TTT,Track Type Tractors,,EROPS w AC,,,,,Standard,,,,,,2 Valve,,None or Unspecified,,,,,,,,,,,,,,None or Unspecified,PAT,None or Unspecified,,
26362,2440083,30000,1785428,136,,2005,0.0,,7/18/2009 0:00,DC95XLT,DC95,XLT,,,,"Track Type Tractor, Dozer - 85.0 to 105.0 Horsepower",New York,TTT,Track Type Tractors,,OROPS,,,,,Standard,,,,,,2 Valve,,None or Unspecified,,,,,,,,,,,,,,None or Unspecified,PAT,None or Unspecified,,
26362,2440099,70000,1691439,136,,2005,0.0,,8/18/2007 0:00,DC95XLT,DC95,XLT,,,,"Track Type Tractor, Dozer - 85.0 to 105.0 Horsepower",New York,TTT,Track Type Tractors,,EROPS w AC,,,,,Standard,,,,,,2 Valve,,None or Unspecified,,,,,,,,,,,,,,None or Unspecified,PAT,None or Unspecified,,
26362,2440337,31000,1685582,136,1.0,2006,880.0,Medium,12/11/2008 0:00,DC95XLT,DC95,XLT,,,,"Track Type Tractor, Dozer - 85.0 to 105.0 Horsepower",Ohio,TTT,Track Type Tractors,,OROPS,,,,,Standard,,,,,,2 Valve,,None or Unspecified,,,,,,,,,,,,,,None or Unspecified,PAT,None or Unspecified,,
26362,2440906,53000,1716117,136,,2005,0.0,,8/24/2007 0:00,DC95XLT,DC95,XLT,,,,"Track Type Tractor, Dozer - 85.0 to 105.0 Horsepower",Connecticut,TTT,Track Type Tractors,,EROPS w AC,,,,,Standard,,,,,,2 Valve,,None or Unspecified,,,,,,,,,,,,,,None or Unspecified,PAT,None or Unspecified,,
26362,4381015,32000,2275080,172,1.0,2004,4890.0,Medium,12/7/2011 0:00,DC95XLT,DC95,XLT,,,,"Track Type Tractor, Dozer - 85.0 to 105.0 Horsepower",Texas,TTT,Track Type Tractors,,EROPS w AC,,,,,Standard,,,,,,2 Valve,,Multi Shank,,,,,,,,,,,,,,None or Unspecified,PAT,None or Unspecified,,
26362,6315342,32000,1938824,149,1.0,2004,,,12/8/2011 0:00,DC95XLT,DC95,XLT,,,,"Track Type Tractor, Dozer - 85.0 to 105.0 Horsepower",Texas,TTT,Track Type Tractors,,EROPS w AC,,,,,Standard,,,,,,2 Valve,,Multi Shank,,,,,,,,,,,,,,None or Unspecified,PAT,None or Unspecified,,
