SalesID,1206642
SalePrice,35500
MachineID,1039452
datasource,121
auctioneerID,3.0
YearMade,2007
MachineHoursCurrentMeter,629.0
UsageBand,Low
saledate,9/9/2010 0:00
fiModelDesc,W50
fiBaseModel,W50
fiSecondaryDesc,
fiModelSeries,
fiModelDescriptor,
ProductSize,Compact
fiProductClassDesc,Wheel Loader - 40.0 to 60.0 Horsepower
state,New Hampshire
ProductGroup,WL
ProductGroupDesc,Wheel Loader
Drive_System,
Enclosure,EROPS
Forks,None or Unspecified
Pad_Type,
Ride_Control,None or Unspecified
Stick,
Transmission,
Turbocharged,
Blade_Extension,
Blade_Width,
Enclosure_Type,
Engine_Horsepower,
Hydraulics,3 Valve
Pushblock,
Ripper,
Scarifier,
Tip_Control,
Tire_Size,None or Unspecified
Coupler,Hydraulic
Coupler_System,
Grouser_Tracks,
Hydraulics_Flow,
Track_Type,
Undercarriage_Pad_Width,
Stick_Length,
Thumb,
Pattern_Changer,
Grouser_Type,
Backhoe_Mounting,
Blade_Type,
Travel_Controls,
Differential_Type,Standard
Steering_Controls,Conventional
