ModelID,SalesID,SalePrice,MachineID,datasource,auctioneerID,YearMade,MachineHoursCurrentMeter,UsageBand,saledate,fiModelDesc,fiBaseModel,fiSecondaryDesc,fiModelSeries,fiModelDescriptor,ProductSize,fiProductClassDesc,state,ProductGroup,ProductGroupDesc,Drive_System,Enclosure,Forks,Pad_Type,Ride_Control,Stick,Transmission,Turbocharged,Blade_Extension,Blade_Width,Enclosure_Type,Engine_Horsepower,Hydraulics,Pushblock,Ripper,Scarifier,Tip_Control,Tire_Size,Coupler,Coupler_System,Grouser_Tracks,Hydraulics_Flow,Track_Type,Undercarriage_Pad_Width,Stick_Length,Thumb,Pattern_Changer,Grouser_Type,Backhoe_Mounting,Blade_Type,Travel_Controls,Differential_Type,Steering_Controls
26964,1727154,62500,809026,132,10.0,1995,,,8/26/1998 0:00,D65E12,D65,E,12,,Large,"Track Type Tractor, Dozer - 190.0 to 260.0 Horsepower",Louisiana,TTT,Track Type Tractors,,EROPS w AC,,,,,Standard,,,,,,2 Valve,,None or Unspecified,,,,,,,,,,,,,,None or Unspecified,None or Unspecified,None or Unspecified,,
26964,1727580,74000,1302516,132,10.0,1996,,,8/26/1998 0:00,D65E12,D65,E,12,,Large,"Track Type Tractor, Dozer - 190.0 to 260.0 Horsepower",Louisiana,TTT,Track Type Tractors,,EROPS w AC,,,,,,,,,,,Auxiliary,,,,,,,,,,,,,,,,,Straight,2 Pedal,,
26964,1727581,60000,1302516,132,2.0,1000,,,8/21/1999 0:00,D65E12,D65,E,12,,Large,"Track Type Tractor, Dozer - 190.0 to 260.0 Horsepower",Wisconsin,TTT,Track Type Tractors,,EROPS w AC,,,,,,,,,,,Auxiliary,,,,,,,,,,,,,,,,,Straight,2 Pedal,,
26964,1755242,55000,1208348,132,1.0,1999,,,11/17/2005 0:00,D65E12,D65,E,12,,Large,"Track Type Tractor, Dozer - 190.0 to 260.0 Horsepower",Texas,TTT,Track Type Tractors,,OROPS,,,,,Standard,,,,,,2 Valve,,None or Unspecified,,,,,,,,,,,,,,None or Unspecified,PAT,None or Unspecified,,
26964,1755244,81000,1410894,132,2.0,1999,,,11/8/2003 0:00,D65E12,D65,E,12,,Large,"Track Type Tractor, Dozer - 190.0 to 260.0 Horsepower",Wisconsin,TTT,Track Type Tractors,,OROPS,,,,,Standard,,,,,,2 Valve,,None or Unspecified,,,,,,,,,,,,,,None or Unspecified,Straight,None or Unspecified,,
26964,1775310,66000,1541136,132,99.0,1997,,,4/27/2000 0:00,D65E12,D65,E,12,,Large,"Track Type Tractor, Dozer - 190.0 to 260.0 Horsepower",South Carolina,TTT,Track Type Tractors,,OROPS,,,,,Standard,,,,,,2 Valve,,None or Unspecified,,,,,,,,,,,,,,None or Unspecified,Straight,None or Unspecified,,
26964,1775311,72500,1541136,132,7.0,1997,2887.0,Medium,3/2/2000 0:00,D65E12,D65,E,12,,Large,"Track Type Tractor, Dozer - 190.0 to 260.0 Horsepower",Alabama,TTT,Track Type Tractors,,OROPS,,,,,Standard,,,,,,2 Valve,,None or Unspecified,,,,,,,,,,,,,,None or Unspecified,Straight,None or Unspecified,,
26964,1775326,46000,1139687,132,1.0,1996,,,4/8/2004 0:00,D65E12,D65,E,12,,Large,"Track Type Tractor, Dozer - 190.0 to 260.0 Horsepower",Georgia,TTT,Track Type Tractors,,OROPS,,,,,Standard,,,,,,2 Valve,,None or Unspecified,,,,,,,,,,,,,,None or Unspecified,Semi U,None or Unspecified,,
26964,1775327,42000,1139687,132,1.0,1999,,,10/6/2004 0:00,D65E12,D65,E,12,,Large,"Track Type Tractor, Dozer - 190.0 to 260.0 Horsepower",Maryland,TTT,Track Type Tractors,,OROPS,,,,,Standard,,,,,,2 Valve,,None or Unspecified,,,,,,,,,,,,,,None or Unspecified,Semi U,None or Unspecified,,
26964,1775328,46000,1355240,132,8.0,1999,,,3/22/2006 0:00,D65E12,D65,E,12,,Large,"Track Type Tractor, Dozer - 190.0 to 260.0 Horsepower",Mississippi,TTT,Track Type Tractors,,OROPS,,,,,Standard,,,,,,2 Valve,,None or Unspecified,,,,,,,,,,,,,,None or Unspecified,Semi U,None or Unspecified,,
26964,2408749,72500,1351959,136,1.0,1997,0.0,,7/9/2008 0:00,D65E12,D65,E,12,,Large,"Track Type Tractor, Dozer - 190.0 to 260.0 Horsepower",Texas,TTT,Track Type Tractors,,OROPS,,,,,Standard,,,,,,2 Valve,,Multi Shank,,,,,,,,,,,,,,None or Unspecified,Semi U,None or Unspecified,,
26964,2411843,36000,1111396,136,1.0,1000,5448.0,High,3/28/2007 0:00,D65E12,D65,E,12,,Large,"Track Type Tractor, Dozer - 190.0 to 260.0 Horsepower",Michigan,TTT,Track Type Tractors,,,,,,,,,,,,,,,,,,,,,,,,,,,,,,,,,
26964,2418935,46000,1364378,136,7.0,1000,0.0,,3/12/2008 0:00,D65E12,D65,E,12,,Large,"Track Type Tractor, Dozer - 190.0 to 260.0 Horsepower",Alabama,TTT,Track Type Tractors,,EROPS,,,,,Standard,,,,,,2 Valve,,None or Unspecified,,,,,,,,,,,,,,None or Unspecified,Straight,None or Unspecified,,
26964,6303438,39000,1895721,149,1.0,1996,,,11/3/2011 0:00,D65E12,D65,E,12,,Large,"Track Type Tractor, Dozer - 190.0 to 260.0 Horsepower",Michigan,TTT,Track Type Tractors,,OROPS,,,,,Standard,,,,,,2 Valve,,None or Unspecified,,,,,,,,,,,,,,None or Unspecified,Straight,None or Unspecified,,
