SalesID,2405362
SalePrice,14000
MachineID,1039946
datasource,136
auctioneerID,
YearMade,1000
MachineHoursCurrentMeter,0.0
UsageBand,
saledate,11/19/2008 0:00
fiModelDesc,D31LGP
fiBaseModel,D31
fiSecondaryDesc,
fiModelSeries,
fiModelDescriptor,LGP
ProductSize,
fiProductClassDesc,"Track Type Tractor, Dozer - 20.0 to 75.0 Horsepower"
state,South Carolina
ProductGroup,TTT
ProductGroupDesc,Track Type Tractors
Drive_System,
Enclosure,OROPS
Forks,
Pad_Type,
Ride_Control,
Stick,
Transmission,Powershift
Turbocharged,
Blade_Extension,
Blade_Width,
Enclosure_Type,
Engine_Horsepower,
Hydraulics,2 Valve
Pushblock,
Ripper,None or Unspecified
Scarifier,
Tip_Control,
Tire_Size,
Coupler,
Coupler_System,
Grouser_Tracks,
Hydraulics_Flow,
Track_Type,
Undercarriage_Pad_Width,
Stick_Length,
Thumb,
Pattern_Changer,
Grouser_Type,
Backhoe_Mounting,None or Unspecified
Blade_Type,PAT
Travel_Controls,None or Unspecified
Differential_Type,
Steering_Controls,
