ModelID,SalesID,SalePrice,MachineID,datasource,auctioneerID,YearMade,MachineHoursCurrentMeter,UsageBand,saledate,fiModelDesc,fiBaseModel,fiSecondaryDesc,fiModelSeries,fiModelDescriptor,ProductSize,fiProductClassDesc,state,ProductGroup,ProductGroupDesc,Drive_System,Enclosure,Forks,Pad_Type,Ride_Control,Stick,Transmission,Turbocharged,Blade_Extension,Blade_Width,Enclosure_Type,Engine_Horsepower,Hydraulics,Pushblock,Ripper,Scarifier,Tip_Control,Tire_Size,Coupler,Coupler_System,Grouser_Tracks,Hydraulics_Flow,Track_Type,Undercarriage_Pad_Width,Stick_Length,Thumb,Pattern_Changer,Grouser_Type,Backhoe_Mounting,Blade_Type,Travel_Controls,Differential_Type,Steering_Controls
27002,1751207,39500,1111077,132,2.0,2008,52.0,Low,2/6/2009 0:00,D31EX,D31,EX,,,,"Track Type Tractor, Dozer - 20.0 to 75.0 Horsepower",Florida,TTT,Track Type Tractors,,OROPS,,,,,Standard,,,,,,2 Valve,,None or Unspecified,,,,,,,,,,,,,,None or Unspecified,PAT,None or Unspecified,,
27002,1751231,26000,1556577,132,2.0,2005,1112.0,Low,2/6/2009 0:00,D31EX,D31,EX,,,,"Track Type Tractor, Dozer - 20.0 to 75.0 Horsepower",Florida,TTT,Track Type Tractors,,OROPS,,,,,Standard,,,,,,2 Valve,,None or Unspecified,,,,,,,,,,,,,,None or Unspecified,PAT,None or Unspecified,,
27002,2406268,35000,1008762,136,,1000,0.0,,8/23/2008 0:00,D31EX,D31,EX,,,,"Track Type Tractor, Dozer - 20.0 to 75.0 Horsepower",California,TTT,Track Type Tractors,,OROPS,,,,,Hydrostatic,,,,,,2 Valve,,Multi Shank,,,,,,,,,,,,,,None or Unspecified,None or Unspecified,None or Unspecified,,
27002,2406476,34000,1131256,136,5.0,1000,0.0,,5/16/2008 0:00,D31EX,D31,EX,,,,"Track Type Tractor, Dozer - 20.0 to 75.0 Horsepower",Ohio,TTT,Track Type Tractors,,OROPS,,,,,Standard,,,,,,2 Valve,,None or Unspecified,,,,,,,,,,,,,,None or Unspecified,PAT,None or Unspecified,,
27002,2406510,29000,1556577,136,2.0,2006,0.0,,10/14/2008 0:00,D31EX,D31,EX,,,,"Track Type Tractor, Dozer - 20.0 to 75.0 Horsepower",Florida,TTT,Track Type Tractors,,OROPS,,,,,Standard,,,,,,2 Valve,,None or Unspecified,,,,,,,,,,,,,,None or Unspecified,PAT,None or Unspecified,,
27002,2406511,25000,1556577,136,2.0,2006,900.0,Low,9/24/2008 0:00,D31EX,D31,EX,,,,"Track Type Tractor, Dozer - 20.0 to 75.0 Horsepower",Texas,TTT,Track Type Tractors,,OROPS,,,,,Standard,,,,,,2 Valve,,None or Unspecified,,,,,,,,,,,,,,None or Unspecified,PAT,None or Unspecified,,
27002,2695587,35500,1890138,149,2.0,2007,1500.0,Low,4/12/2011 0:00,D31EX,D31,EX,,,,"Track Type Tractor, Dozer - 20.0 to 75.0 Horsepower",Texas,TTT,Track Type Tractors,,EROPS w AC,,,,,Standard,,,,,,2 Valve,,None or Unspecified,,,,,,,,,,,,,,None or Unspecified,PAT,None or Unspecified,,
