ModelID,SalesID,SalePrice,MachineID,datasource,auctioneerID,YearMade,MachineHoursCurrentMeter,UsageBand,saledate,fiModelDesc,fiBaseModel,fiSecondaryDesc,fiModelSeries,fiModelDescriptor,ProductSize,fiProductClassDesc,state,ProductGroup,ProductGroupDesc,Drive_System,Enclosure,Forks,Pad_Type,Ride_Control,Stick,Transmission,Turbocharged,Blade_Extension,Blade_Width,Enclosure_Type,Engine_Horsepower,Hydraulics,Pushblock,Ripper,Scarifier,Tip_Control,Tire_Size,Coupler,Coupler_System,Grouser_Tracks,Hydraulics_Flow,Track_Type,Undercarriage_Pad_Width,Stick_Length,Thumb,Pattern_Changer,Grouser_Type,Backhoe_Mounting,Blade_Type,Travel_Controls,Differential_Type,Steering_Controls
27010,2405111,12000,1380023,136,1.0,1000,0.0,,8/26/2009 0:00,D31P18LGP,D31,P,18,LGP,,"Track Type Tractor, Dozer - 20.0 to 75.0 Horsepower",Texas,TTT,Track Type Tractors,,OROPS,,,,,Powershift,,,,,,2 Valve,,None or Unspecified,,,,,,,,,,,,,,None or Unspecified,PAT,None or Unspecified,,
27010,2405113,14000,1380023,136,1.0,1000,0.0,,5/7/2008 0:00,D31P18LGP,D31,P,18,LGP,,"Track Type Tractor, Dozer - 20.0 to 75.0 Horsepower",Texas,TTT,Track Type Tractors,,OROPS,,,,,Powershift,,,,,,2 Valve,,None or Unspecified,,,,,,,,,,,,,,None or Unspecified,PAT,None or Unspecified,,
27010,2405195,16000,1257707,136,1.0,1000,0.0,,6/7/2007 0:00,D31P18LGP,D31,P,18,LGP,,"Track Type Tractor, Dozer - 20.0 to 75.0 Horsepower",Texas,TTT,Track Type Tractors,,OROPS,,,,,Standard,,,,,,2 Valve,,None or Unspecified,,,,,,,,,,,,,,None or Unspecified,PAT,None or Unspecified,,
27010,2405212,16500,1304935,136,1.0,1000,0.0,,6/10/2009 0:00,D31P18LGP,D31,P,18,LGP,,"Track Type Tractor, Dozer - 20.0 to 75.0 Horsepower",Texas,TTT,Track Type Tractors,,OROPS,,,,,Standard,,,,,,2 Valve,,None or Unspecified,,,,,,,,,,,,,,None or Unspecified,PAT,None or Unspecified,,
27010,2405286,13500,1162751,136,1.0,1000,0.0,,9/26/2007 0:00,D31P18LGP,D31,P,18,LGP,,"Track Type Tractor, Dozer - 20.0 to 75.0 Horsepower",Texas,TTT,Track Type Tractors,,OROPS,,,,,Standard,,,,,,2 Valve,,None or Unspecified,,,,,,,,,,,,,,None or Unspecified,PAT,None or Unspecified,,
27010,2405289,16000,1097179,136,1.0,1999,0.0,,6/7/2007 0:00,D31P18LGP,D31,P,18,LGP,,"Track Type Tractor, Dozer - 20.0 to 75.0 Horsepower",Texas,TTT,Track Type Tractors,,OROPS,,,,,Standard,,,,,,2 Valve,,None or Unspecified,,,,,,,,,,,,,,None or Unspecified,PAT,None or Unspecified,,
27010,2405321,13000,1400562,136,1.0,1990,0.0,,8/23/2007 0:00,D31P18LGP,D31,P,18,LGP,,"Track Type Tractor, Dozer - 20.0 to 75.0 Horsepower",Texas,TTT,Track Type Tractors,,OROPS,,,,,Standard,,,,,,2 Valve,,None or Unspecified,,,,,,,,,,,,,,None or Unspecified,PAT,None or Unspecified,,
27010,2405331,12000,1170326,136,1.0,1000,0.0,,8/26/2009 0:00,D31P18LGP,D31,P,18,LGP,,"Track Type Tractor, Dozer - 20.0 to 75.0 Horsepower",Texas,TTT,Track Type Tractors,,OROPS,,,,,Standard,,,,,,2 Valve,,None or Unspecified,,,,,,,,,,,,,,None or Unspecified,PAT,None or Unspecified,,
27010,2405347,20000,1367421,136,1.0,1000,0.0,,3/29/2007 0:00,D31P18LGP,D31,P,18,LGP,,"Track Type Tractor, Dozer - 20.0 to 75.0 Horsepower",Texas,TTT,Track Type Tractors,,OROPS,,,,,Standard,,,,,,2 Valve,,None or Unspecified,,,,,,,,,,,,,,None or Unspecified,PAT,None or Unspecified,,
27010,2405354,15000,1339974,136,1.0,1990,0.0,,3/29/2007 0:00,D31P18LGP,D31,P,18,LGP,,"Track Type Tractor, Dozer - 20.0 to 75.0 Horsepower",Texas,TTT,Track Type Tractors,,OROPS,,,,,Standard,,,,,,2 Valve,,None or Unspecified,,,,,,,,,,,,,,None or Unspecified,Straight,None or Unspecified,,
27010,2405380,15000,1381227,136,1.0,1990,0.0,,3/25/2009 0:00,D31P18LGP,D31,P,18,LGP,,"Track Type Tractor, Dozer - 20.0 to 75.0 Horsepower",Texas,TTT,Track Type Tractors,,OROPS,,,,,Standard,,,,,,2 Valve,,None or Unspecified,,,,,,,,,,,,,,None or Unspecified,PAT,None or Unspecified,,
27010,2405382,12000,1459036,136,1.0,1000,0.0,,8/26/2009 0:00,D31P18LGP,D31,P,18,LGP,,"Track Type Tractor, Dozer - 20.0 to 75.0 Horsepower",Texas,TTT,Track Type Tractors,,OROPS,,,,,Standard,,,,,,2 Valve,,None or Unspecified,,,,,,,,,,,,,,None or Unspecified,PAT,None or Unspecified,,
27010,2405403,12000,1544276,136,1.0,1000,0.0,,8/26/2009 0:00,D31P18LGP,D31,P,18,LGP,,"Track Type Tractor, Dozer - 20.0 to 75.0 Horsepower",Texas,TTT,Track Type Tractors,,OROPS,,,,,Powershift,,,,,,2 Valve,,None or Unspecified,,,,,,,,,,,,,,None or Unspecified,PAT,None or Unspecified,,
27010,2405406,15000,1177452,136,1.0,1000,0.0,,3/25/2009 0:00,D31P18LGP,D31,P,18,LGP,,"Track Type Tractor, Dozer - 20.0 to 75.0 Horsepower",Texas,TTT,Track Type Tractors,,OROPS,,,,,Standard,,,,,,2 Valve,,None or Unspecified,,,,,,,,,,,,,,None or Unspecified,PAT,None or Unspecified,,
27010,2405421,15000,1095319,136,1.0,1000,0.0,,3/29/2007 0:00,D31P18LGP,D31,P,18,LGP,,"Track Type Tractor, Dozer - 20.0 to 75.0 Horsepower",Texas,TTT,Track Type Tractors,,OROPS,,,,,Standard,,,,,,2 Valve,,None or Unspecified,,,,,,,,,,,,,,None or Unspecified,PAT,None or Unspecified,,
27010,2405426,14500,1274836,136,1.0,1000,0.0,,6/10/2009 0:00,D31P18LGP,D31,P,18,LGP,,"Track Type Tractor, Dozer - 20.0 to 75.0 Horsepower",Texas,TTT,Track Type Tractors,,OROPS,,,,,Standard,,,,,,2 Valve,,None or Unspecified,,,,,,,,,,,,,,None or Unspecified,PAT,None or Unspecified,,
27010,2405427,15500,1274836,136,1.0,1000,0.0,,3/25/2009 0:00,D31P18LGP,D31,P,18,LGP,,"Track Type Tractor, Dozer - 20.0 to 75.0 Horsepower",Texas,TTT,Track Type Tractors,,OROPS,,,,,Standard,,,,,,2 Valve,,None or Unspecified,,,,,,,,,,,,,,None or Unspecified,PAT,None or Unspecified,,
27010,2405430,15000,1131466,136,1.0,1000,0.0,,3/25/2009 0:00,D31P18LGP,D31,P,18,LGP,,"Track Type Tractor, Dozer - 20.0 to 75.0 Horsepower",Texas,TTT,Track Type Tractors,,OROPS,,,,,Standard,,,,,,2 Valve,,None or Unspecified,,,,,,,,,,,,,,None or Unspecified,PAT,None or Unspecified,,
27010,6302897,18000,1381227,149,1.0,1000,,,6/22/2011 0:00,D31P18LGP,D31,P,18,LGP,,"Track Type Tractor, Dozer - 20.0 to 75.0 Horsepower",Texas,TTT,Track Type Tractors,,OROPS,,,,,Standard,,,,,,2 Valve,,None or Unspecified,,,,,,,,,,,,,,None or Unspecified,PAT,None or Unspecified,,
