SalesID,1296468
SalePrice,68500
MachineID,1176545
datasource,132
auctioneerID,2.0
YearMade,2006
MachineHoursCurrentMeter,
UsageBand,
saledate,2/4/2011 0:00
fiModelDesc,1150KWT
fiBaseModel,1150
fiSecondaryDesc,K
fiModelSeries,
fiModelDescriptor,WT
ProductSize,Medium
fiProductClassDesc,"Track Type Tractor, Dozer - 105.0 to 130.0 Horsepower"
state,Florida
ProductGroup,TTT
ProductGroupDesc,Track Type Tractors
Drive_System,
Enclosure,OROPS
Forks,
Pad_Type,
Ride_Control,
Stick,
Transmission,Standard
Turbocharged,
Blade_Extension,
Blade_Width,
Enclosure_Type,
Engine_Horsepower,
Hydraulics,2 Valve
Pushblock,
Ripper,None or Unspecified
Scarifier,
Tip_Control,
Tire_Size,
Coupler,
Coupler_System,
Grouser_Tracks,
Hydraulics_Flow,
Track_Type,
Undercarriage_Pad_Width,
Stick_Length,
Thumb,
Pattern_Changer,
Grouser_Type,
Backhoe_Mounting,None or Unspecified
Blade_Type,PAT
Travel_Controls,None or Unspecified
Differential_Type,
Steering_Controls,
