SalesID,1157489
SalePrice,45000
MachineID,1050854
datasource,121
auctioneerID,3.0
YearMade,1996
MachineHoursCurrentMeter,0.0
UsageBand,
saledate,9/8/2005 0:00
fiModelDesc,EX550LCE3
fiBaseModel,EX550
fiSecondaryDesc,LC
fiModelSeries,E
fiModelDescriptor,3
ProductSize,Large / Medium
fiProductClassDesc,"Hydraulic Excavator, Track - 50.0 to 66.0 Metric Tons"
state,Florida
ProductGroup,TEX
ProductGroupDesc,Track Excavators
Drive_System,
Enclosure,EROPS w AC
Forks,
Pad_Type,
Ride_Control,
Stick,
Transmission,
Turbocharged,
Blade_Extension,
Blade_Width,
Enclosure_Type,
Engine_Horsepower,
Hydraulics,Standard
Pushblock,
Ripper,
Scarifier,
Tip_Control,
Tire_Size,
Coupler,None or Unspecified
Coupler_System,
Grouser_Tracks,
Hydraulics_Flow,
Track_Type,Steel
Undercarriage_Pad_Width,None or Unspecified
Stick_Length,None or Unspecified
Thumb,None or Unspecified
Pattern_Changer,None or Unspecified
Grouser_Type,Double
Backhoe_Mounting,
Blade_Type,
Travel_Controls,
Differential_Type,
Steering_Controls,
