SalesID,4245929
SalePrice,66000
MachineID,1748117
datasource,172
auctioneerID,1.0
YearMade,2007
MachineHoursCurrentMeter,28.0
UsageBand,Low
saledate,12/16/2009 0:00
fiModelDesc,850KIII
fiBaseModel,850
fiSecondaryDesc,K
fiModelSeries,III
fiModelDescriptor,
ProductSize,
fiProductClassDesc,"Track Type Tractor, Dozer - 85.0 to 105.0 Horsepower"
state,Missouri
ProductGroup,TTT
ProductGroupDesc,Track Type Tractors
Drive_System,
Enclosure,OROPS
Forks,
Pad_Type,
Ride_Control,
Stick,
Transmission,Standard
Turbocharged,
Blade_Extension,
Blade_Width,
Enclosure_Type,
Engine_Horsepower,
Hydraulics,2 Valve
Pushblock,
Ripper,Multi Shank
Scarifier,
Tip_Control,
Tire_Size,
Coupler,
Coupler_System,
Grouser_Tracks,
Hydraulics_Flow,
Track_Type,
Undercarriage_Pad_Width,
Stick_Length,
Thumb,
Pattern_Changer,
Grouser_Type,
Backhoe_Mounting,None or Unspecified
Blade_Type,PAT
Travel_Controls,None or Unspecified
Differential_Type,
Steering_Controls,
