ModelID,SalesID,SalePrice,MachineID,datasource,auctioneerID,YearMade,MachineHoursCurrentMeter,UsageBand,saledate,fiModelDesc,fiBaseModel,fiSecondaryDesc,fiModelSeries,fiModelDescriptor,ProductSize,fiProductClassDesc,state,ProductGroup,ProductGroupDesc,Drive_System,Enclosure,Forks,Pad_Type,Ride_Control,Stick,Transmission,Turbocharged,Blade_Extension,Blade_Width,Enclosure_Type,Engine_Horsepower,Hydraulics,Pushblock,Ripper,Scarifier,Tip_Control,Tire_Size,Coupler,Coupler_System,Grouser_Tracks,Hydraulics_Flow,Track_Type,Undercarriage_Pad_Width,Stick_Length,Thumb,Pattern_Changer,Grouser_Type,Backhoe_Mounting,Blade_Type,Travel_Controls,Differential_Type,Steering_Controls
28228,1197945,59000,268099,121,3.0,2008,534.0,Low,1/14/2010 0:00,D39PX22,D39,PX,22,,Medium,"Track Type Tractor, Dozer - 130.0 to 160.0 Horsepower",Alabama,TTT,Track Type Tractors,,EROPS w AC,,,,,Hydrostatic,,,,,,2 Valve,,None or Unspecified,,,,,,,,,,,,,,None or Unspecified,None or Unspecified,None or Unspecified,,
28228,4361473,80000,2292076,172,1.0,2009,963.0,Medium,6/30/2011 0:00,D39PX22,D39,PX,22,,Medium,"Track Type Tractor, Dozer - 130.0 to 160.0 Horsepower",North Carolina,TTT,Track Type Tractors,,EROPS w AC,,,,,Standard,,,,,,2 Valve,,None or Unspecified,,,,,,,,,,,,,,None or Unspecified,PAT,None or Unspecified,,
28228,4361474,80000,2292076,172,1.0,2009,963.0,Medium,6/29/2011 0:00,D39PX22,D39,PX,22,,Medium,"Track Type Tractor, Dozer - 130.0 to 160.0 Horsepower",North Carolina,TTT,Track Type Tractors,,EROPS w AC,,,,,Standard,,,,,,2 Valve,,None or Unspecified,,,,,,,,,,,,,,None or Unspecified,PAT,None or Unspecified,,
28228,6302697,85000,1218009,149,2.0,2011,,,11/2/2011 0:00,D39PX22,D39,PX,22,,Medium,"Track Type Tractor, Dozer - 130.0 to 160.0 Horsepower",Alabama,TTT,Track Type Tractors,,OROPS,,,,,Standard,,,,,,2 Valve,,None or Unspecified,,,,,,,,,,,,,,None or Unspecified,PAT,None or Unspecified,,
28228,6305802,85000,1889250,149,2.0,2011,,,11/2/2011 0:00,D39PX22,D39,PX,22,,Medium,"Track Type Tractor, Dozer - 130.0 to 160.0 Horsepower",Alabama,TTT,Track Type Tractors,,OROPS,,,,,Standard,,,,,,2 Valve,,None or Unspecified,,,,,,,,,,,,,,None or Unspecified,None or Unspecified,None or Unspecified,,
