SalesID,1154509
SalePrice,31000
MachineID,1027272
datasource,121
auctioneerID,3.0
YearMade,1999
MachineHoursCurrentMeter,0.0
UsageBand,
saledate,12/16/2010 0:00
fiModelDesc,D65EX12LT
fiBaseModel,D65
fiSecondaryDesc,EX
fiModelSeries,12
fiModelDescriptor,LT
ProductSize,Large
fiProductClassDesc,"Track Type Tractor, Dozer - 190.0 to 260.0 Horsepower"
state,Florida
ProductGroup,TTT
ProductGroupDesc,Track Type Tractors
Drive_System,
Enclosure,OROPS
Forks,
Pad_Type,
Ride_Control,
Stick,
Transmission,Powershift
Turbocharged,
Blade_Extension,
Blade_Width,
Enclosure_Type,
Engine_Horsepower,
Hydraulics,2 Valve
Pushblock,
Ripper,None or Unspecified
Scarifier,
Tip_Control,
Tire_Size,
Coupler,
Coupler_System,
Grouser_Tracks,
Hydraulics_Flow,
Track_Type,
Undercarriage_Pad_Width,
Stick_Length,
Thumb,
Pattern_Changer,
Grouser_Type,
Backhoe_Mounting,None or Unspecified
Blade_Type,PAT
Travel_Controls,None or Unspecified
Differential_Type,
Steering_Controls,
