SalesID,1738042
SalePrice,35000
MachineID,1370677
datasource,132
auctioneerID,9.0
YearMade,1000
MachineHoursCurrentMeter,
UsageBand,
saledate,2/9/1999 0:00
fiModelDesc,GD405A
fiBaseModel,GD405
fiSecondaryDesc,A
fiModelSeries,
fiModelDescriptor,
ProductSize,
fiProductClassDesc,Motorgrader - 45.0 to 130.0 Horsepower
state,Florida
ProductGroup,MG
ProductGroupDesc,Motor Graders
Drive_System,
Enclosure,EROPS w AC
Forks,
Pad_Type,
Ride_Control,
Stick,
Transmission,
Turbocharged,
Blade_Extension,
Blade_Width,
Enclosure_Type,
Engine_Horsepower,
Hydraulics,
Pushblock,
Ripper,None or Unspecified
Scarifier,
Tip_Control,
Tire_Size,None or Unspecified
Coupler,
Coupler_System,
Grouser_Tracks,
Hydraulics_Flow,
Track_Type,
Undercarriage_Pad_Width,
Stick_Length,
Thumb,
Pattern_Changer,
Grouser_Type,
Backhoe_Mounting,
Blade_Type,
Travel_Controls,
Differential_Type,
Steering_Controls,
