ModelID,SalesID,SalePrice,MachineID,datasource,auctioneerID,YearMade,MachineHoursCurrentMeter,UsageBand,saledate,fiModelDesc,fiBaseModel,fiSecondaryDesc,fiModelSeries,fiModelDescriptor,ProductSize,fiProductClassDesc,state,ProductGroup,ProductGroupDesc,Drive_System,Enclosure,Forks,Pad_Type,Ride_Control,Stick,Transmission,Turbocharged,Blade_Extension,Blade_Width,Enclosure_Type,Engine_Horsepower,Hydraulics,Pushblock,Ripper,Scarifier,Tip_Control,Tire_Size,Coupler,Coupler_System,Grouser_Tracks,Hydraulics_Flow,Track_Type,Undercarriage_Pad_Width,Stick_Length,Thumb,Pattern_Changer,Grouser_Type,Backhoe_Mounting,Blade_Type,Travel_Controls,Differential_Type,Steering_Controls
28546,1140629,23500,1005112,121,3.0,2001,7361.0,Medium,8/13/2009 0:00,PC1506K,PC150,,6,K,Small,"Hydraulic Excavator, Track - 14.0 to 16.0 Metric Tons",Pennsylvania,TEX,Track Excavators,,EROPS w AC,,,,,,,,,,,Standard,,,,,,Hydraulic,,,,Steel,None or Unspecified,None or Unspecified,None or Unspecified,None or Unspecified,Double,,,,,
28546,1776545,19500,39038,132,99.0,2002,,,9/22/2010 0:00,PC1506K,PC150,,6,K,Small,"Hydraulic Excavator, Track - 14.0 to 16.0 Metric Tons",Arkansas,TEX,Track Excavators,,EROPS w AC,,,,,,,,,,,Standard,,,,,,None or Unspecified,,,,Steel,None or Unspecified,None or Unspecified,None or Unspecified,None or Unspecified,Triple,,,,,
28546,1776550,52500,1548790,132,1.0,2002,3253.0,Medium,4/5/2007 0:00,PC1506K,PC150,,6,K,Small,"Hydraulic Excavator, Track - 14.0 to 16.0 Metric Tons",Maryland,TEX,Track Excavators,,EROPS,,,,,,,,,,,Standard,,,,,,None or Unspecified,,,,Steel,None or Unspecified,"9' 6""",Manual,None or Unspecified,Double,,,,,
28546,2419736,21000,1770206,136,,2001,0.0,,6/24/2009 0:00,PC1506K,PC150,,6,K,Small,"Hydraulic Excavator, Track - 14.0 to 16.0 Metric Tons",Maryland,TEX,Track Excavators,,EROPS,,,,,,,,,,,Standard,,,,,,Hydraulic,,,,Steel,None or Unspecified,None or Unspecified,Hydraulic,None or Unspecified,Double,,,,,
28546,6305539,26000,1897972,149,2.0,1000,,,11/19/2011 0:00,PC1506K,PC150,,6,K,Small,"Hydraulic Excavator, Track - 14.0 to 16.0 Metric Tons",Connecticut,TEX,Track Excavators,,EROPS,,,,,,,,,,,Standard,,,,,,None or Unspecified,,,,Steel,None or Unspecified,None or Unspecified,None or Unspecified,None or Unspecified,Double,,,,,
