SalesID,1160456
SalePrice,45000
MachineID,1045489
datasource,121
auctioneerID,3.0
YearMade,1997
MachineHoursCurrentMeter,5978.0
UsageBand,Medium
saledate,9/8/2005 0:00
fiModelDesc,PC200Z6LE
fiBaseModel,PC200
fiSecondaryDesc,Z
fiModelSeries,6
fiModelDescriptor,LE
ProductSize,Large / Medium
fiProductClassDesc,"Hydraulic Excavator, Track - 21.0 to 24.0 Metric Tons"
state,Kentucky
ProductGroup,TEX
ProductGroupDesc,Track Excavators
Drive_System,
Enclosure,EROPS
Forks,
Pad_Type,
Ride_Control,
Stick,
Transmission,
Turbocharged,
Blade_Extension,
Blade_Width,
Enclosure_Type,
Engine_Horsepower,
Hydraulics,Auxiliary
Pushblock,
Ripper,
Scarifier,
Tip_Control,
Tire_Size,
Coupler,None or Unspecified
Coupler_System,
Grouser_Tracks,
Hydraulics_Flow,
Track_Type,Steel
Undercarriage_Pad_Width,32 inch
Stick_Length,"9' 8"""
Thumb,None or Unspecified
Pattern_Changer,None or Unspecified
Grouser_Type,Double
Backhoe_Mounting,
Blade_Type,
Travel_Controls,
Differential_Type,
Steering_Controls,
