ModelID,SalesID,SalePrice,MachineID,datasource,auctioneerID,YearMade,MachineHoursCurrentMeter,UsageBand,saledate,fiModelDesc,fiBaseModel,fiSecondaryDesc,fiModelSeries,fiModelDescriptor,ProductSize,fiProductClassDesc,state,ProductGroup,ProductGroupDesc,Drive_System,Enclosure,Forks,Pad_Type,Ride_Control,Stick,Transmission,Turbocharged,Blade_Extension,Blade_Width,Enclosure_Type,Engine_Horsepower,Hydraulics,Pushblock,Ripper,Scarifier,Tip_Control,Tire_Size,Coupler,Coupler_System,Grouser_Tracks,Hydraulics_Flow,Track_Type,Undercarriage_Pad_Width,Stick_Length,Thumb,Pattern_Changer,Grouser_Type,Backhoe_Mounting,Blade_Type,Travel_Controls,Differential_Type,Steering_Controls
28667,2398864,24000,27846,136,99.0,1000,12381.0,High,3/26/2010 0:00,PC901,PC90,,1,,Small,"Hydraulic Excavator, Track - 8.0 to 11.0 Metric Tons",Wisconsin,TEX,Track Excavators,,,,,,,,,,,,,,,,,,,,,,,,,,,,,,,,,
28667,2399186,23500,1694937,136,1.0,1990,15000.0,Medium,4/18/2008 0:00,PC901,PC90,,1,,Small,"Hydraulic Excavator, Track - 8.0 to 11.0 Metric Tons",Wisconsin,TEX,Track Excavators,,OROPS,,,,,,,,,,,2 Valve,,,,,,None or Unspecified,,,,,None or Unspecified,,,,,,,,,
28667,6304182,16000,1792109,149,5.0,1990,,,12/16/2011 0:00,PC901,PC90,,1,,Small,"Hydraulic Excavator, Track - 8.0 to 11.0 Metric Tons",Connecticut,TEX,Track Excavators,,EROPS,,,,,,,,,,,Standard,,,,,,Manual,,,,Steel,None or Unspecified,None or Unspecified,None or Unspecified,None or Unspecified,Double,,,,,
