ModelID,SalesID,SalePrice,MachineID,datasource,auctioneerID,YearMade,MachineHoursCurrentMeter,UsageBand,saledate,fiModelDesc,fiBaseModel,fiSecondaryDesc,fiModelSeries,fiModelDescriptor,ProductSize,fiProductClassDesc,state,ProductGroup,ProductGroupDesc,Drive_System,Enclosure,Forks,Pad_Type,Ride_Control,Stick,Transmission,Turbocharged,Blade_Extension,Blade_Width,Enclosure_Type,Engine_Horsepower,Hydraulics,Pushblock,Ripper,Scarifier,Tip_Control,Tire_Size,Coupler,Coupler_System,Grouser_Tracks,Hydraulics_Flow,Track_Type,Undercarriage_Pad_Width,Stick_Length,Thumb,Pattern_Changer,Grouser_Type,Backhoe_Mounting,Blade_Type,Travel_Controls,Differential_Type,Steering_Controls
28734,1195404,59000,96336,121,3.0,2004,3531.0,Medium,11/12/2009 0:00,WA4005L,WA400,,5,L,Medium,Wheel Loader - 200.0 to 225.0 Horsepower,Delaware,WL,Wheel Loader,,EROPS w AC,None or Unspecified,,Yes,,,,,,,,2 Valve,,,,,23.5,None or Unspecified,,,,,,,,,,,,,Standard,Conventional
28734,1220130,57000,1047775,121,3.0,2006,14479.0,High,11/3/2011 0:00,WA4005L,WA400,,5,L,Medium,Wheel Loader - 200.0 to 225.0 Horsepower,South Carolina,WL,Wheel Loader,,EROPS w AC,None or Unspecified,,None or Unspecified,,,,,,,,2 Valve,,,,,None or Unspecified,None or Unspecified,,,,,,,,,,,,,Standard,Conventional
28734,2411788,64000,1080333,136,1.0,2003,5537.0,Medium,4/1/2008 0:00,WA4005L,WA400,,5,L,Medium,Wheel Loader - 200.0 to 225.0 Horsepower,Missouri,WL,Wheel Loader,,EROPS w AC,None or Unspecified,,Yes,,,,,,,,2 Valve,,,,,23.5,None or Unspecified,,,,,,,,,,,,,Standard,Conventional
28734,2412902,63000,1357153,136,1.0,2003,6420.0,High,3/11/2008 0:00,WA4005L,WA400,,5,L,Medium,Wheel Loader - 200.0 to 225.0 Horsepower,Colorado,WL,Wheel Loader,,EROPS w AC,None or Unspecified,,Yes,,,,,,,,,,,,,,,,,,,,,,,,,,,Standard,Four Wheel Standard
28734,2412911,40000,1170714,136,1.0,1000,0.0,,11/17/2009 0:00,WA4005L,WA400,,5,L,Medium,Wheel Loader - 200.0 to 225.0 Horsepower,Texas,WL,Wheel Loader,,EROPS w AC,None or Unspecified,,Yes,,,,,,,,,,,,,,,,,,,,,,,,,,,Standard,Four Wheel Standard
28734,2412922,62500,1460018,136,1.0,2005,6532.0,High,2/15/2010 0:00,WA4005L,WA400,,5,L,Medium,Wheel Loader - 200.0 to 225.0 Horsepower,Florida,WL,Wheel Loader,,EROPS w AC,,,,,,,,,,,Standard,,,,,,Manual,,,,,,,,,,,,,,
28734,2423621,42500,1720288,136,1.0,2003,0.0,,11/13/2008 0:00,WA4005L,WA400,,5,L,Medium,Wheel Loader - 200.0 to 225.0 Horsepower,Texas,WL,Wheel Loader,,EROPS w AC,None or Unspecified,,Yes,,,,,,,,2 Valve,,,,,23.5,None or Unspecified,,,,,,,,,,,,,Standard,Conventional
28734,2699181,69500,1298592,149,26.0,2004,0.0,,9/8/2010 0:00,WA4005L,WA400,,5,L,Medium,Wheel Loader - 200.0 to 225.0 Horsepower,Alabama,WL,Wheel Loader,,EROPS w AC,None or Unspecified,,,,,,,,,,,,,,,,None or Unspecified,,,,,,,,,,,,,,
28734,6308000,41000,1858157,149,1.0,2004,,,10/11/2011 0:00,WA4005L,WA400,,5,L,Medium,Wheel Loader - 200.0 to 225.0 Horsepower,Colorado,WL,Wheel Loader,,EROPS w AC,None or Unspecified,,Yes,,,,,,,,2 Valve,,,,,23.5,None or Unspecified,,,,,,,,,,,,,Standard,Conventional
