ModelID,SalesID,SalePrice,MachineID,datasource,auctioneerID,YearMade,MachineHoursCurrentMeter,UsageBand,saledate,fiModelDesc,fiBaseModel,fiSecondaryDesc,fiModelSeries,fiModelDescriptor,ProductSize,fiProductClassDesc,state,ProductGroup,ProductGroupDesc,Drive_System,Enclosure,Forks,Pad_Type,Ride_Control,Stick,Transmission,Turbocharged,Blade_Extension,Blade_Width,Enclosure_Type,Engine_Horsepower,Hydraulics,Pushblock,Ripper,Scarifier,Tip_Control,Tire_Size,Coupler,Coupler_System,Grouser_Tracks,Hydraulics_Flow,Track_Type,Undercarriage_Pad_Width,Stick_Length,Thumb,Pattern_Changer,Grouser_Type,Backhoe_Mounting,Blade_Type,Travel_Controls,Differential_Type,Steering_Controls
28741,1139532,36000,1042645,121,3.0,1996,24794.0,High,5/17/2007 0:00,WA5001LC,WA500,,1,LC,Medium,Wheel Loader - 275.0 to 350.0 Horsepower,Texas,WL,Wheel Loader,,EROPS w AC,None or Unspecified,,None or Unspecified,,,,,,,,2 Valve,,,,,29.5,None or Unspecified,,,,,,,,,,,,,Standard,Conventional
28741,1147769,46500,1047953,121,3.0,1000,4174.0,Low,5/26/2011 0:00,WA5001LC,WA500,,1,LC,Medium,Wheel Loader - 275.0 to 350.0 Horsepower,Georgia,WL,Wheel Loader,,EROPS w AC,Yes,,None or Unspecified,,,,,,,,2 Valve,,,,,29.5,Hydraulic,,,,,,,,,,,,,Standard,Conventional
28741,1149721,36000,1035541,121,3.0,1996,21625.0,High,5/17/2007 0:00,WA5001LC,WA500,,1,LC,Medium,Wheel Loader - 275.0 to 350.0 Horsepower,Texas,WL,Wheel Loader,,EROPS,None or Unspecified,,None or Unspecified,,,,,,,,2 Valve,,,,,None or Unspecified,None or Unspecified,,,,,,,,,,,,,Standard,Conventional
28741,1156297,36000,1002315,121,3.0,1996,0.0,,5/17/2007 0:00,WA5001LC,WA500,,1,LC,Medium,Wheel Loader - 275.0 to 350.0 Horsepower,Texas,WL,Wheel Loader,,EROPS w AC,None or Unspecified,,None or Unspecified,,,,,,,,2 Valve,,,,,29.5,None or Unspecified,,,,,,,,,,,,,Standard,Conventional
28741,1168884,28500,1063540,121,3.0,1000,0.0,,5/17/2007 0:00,WA5001LC,WA500,,1,LC,Medium,Wheel Loader - 275.0 to 350.0 Horsepower,Texas,WL,Wheel Loader,,EROPS,None or Unspecified,,None or Unspecified,,,,,,,,2 Valve,,,,,20.5,Manual,,,,,,,,,,,,,Standard,Conventional
28741,1176095,31500,1024431,121,3.0,1995,3170.0,High,12/13/2007 0:00,WA5001LC,WA500,,1,LC,Medium,Wheel Loader - 275.0 to 350.0 Horsepower,Texas,WL,Wheel Loader,,EROPS w AC,None or Unspecified,,No,,,,,,,,,,,,,,,,,,,,,,,,,,,Standard,Four Wheel Standard
28741,1176096,34000,1005882,121,3.0,1996,24594.0,High,12/13/2007 0:00,WA5001LC,WA500,,1,LC,Medium,Wheel Loader - 275.0 to 350.0 Horsepower,Texas,WL,Wheel Loader,,EROPS w AC,None or Unspecified,,None or Unspecified,,,,,,,,2 Valve,,,,,29.5,None or Unspecified,,,,,,,,,,,,,Standard,Conventional
28741,1179749,30500,1066783,121,3.0,1995,19518.0,High,5/29/2008 0:00,WA5001LC,WA500,,1,LC,Medium,Wheel Loader - 275.0 to 350.0 Horsepower,Tennessee,WL,Wheel Loader,,EROPS w AC,None or Unspecified,,None or Unspecified,,,,,,,,2 Valve,,,,,23.5,None or Unspecified,,,,,,,,,,,,,Standard,Conventional
28741,2413282,27500,875939,136,,1994,0.0,,1/25/2008 0:00,WA5001LC,WA500,,1,LC,Medium,Wheel Loader - 275.0 to 350.0 Horsepower,Connecticut,WL,Wheel Loader,,EROPS,None or Unspecified,,None or Unspecified,,,,,,,,2 Valve,,,,,29.5,None or Unspecified,,,,,,,,,,,,,Standard,Conventional
28741,2413293,26000,998800,136,,1995,0.0,,9/15/2007 0:00,WA5001LC,WA500,,1,LC,Medium,Wheel Loader - 275.0 to 350.0 Horsepower,New Jersey,WL,Wheel Loader,,EROPS,None or Unspecified,,No,,,,,,,,,,,,,,,,,,,,,,,,,,,Standard,Four Wheel Standard
28741,2413298,37000,1388101,136,1.0,1000,0.0,,3/25/2008 0:00,WA5001LC,WA500,,1,LC,Medium,Wheel Loader - 275.0 to 350.0 Horsepower,Minnesota,WL,Wheel Loader,,EROPS,Yes,,None or Unspecified,,,,,,,,2 Valve,,,,,29.5,Manual,,,,,,,,,,,,,Standard,Conventional
28741,2413315,40000,1235893,136,99.0,1000,0.0,,9/12/2007 0:00,WA5001LC,WA500,,1,LC,Medium,Wheel Loader - 275.0 to 350.0 Horsepower,Missouri,WL,Wheel Loader,,EROPS,None or Unspecified,,None or Unspecified,,,,,,,,2 Valve,,,,,None or Unspecified,None or Unspecified,,,,,,,,,,,,,Standard,Conventional
28741,2698545,23000,1416407,149,4.0,1993,0.0,,2/7/2011 0:00,WA5001LC,WA500,,1,LC,Medium,Wheel Loader - 275.0 to 350.0 Horsepower,Florida,WL,Wheel Loader,,EROPS w AC,None or Unspecified,,None or Unspecified,,,,,,,,2 Valve,,,,,29.5,None or Unspecified,,,,,,,,,,,,,Standard,Conventional
