ModelID,SalesID,SalePrice,MachineID,datasource,auctioneerID,YearMade,MachineHoursCurrentMeter,UsageBand,saledate,fiModelDesc,fiBaseModel,fiSecondaryDesc,fiModelSeries,fiModelDescriptor,ProductSize,fiProductClassDesc,state,ProductGroup,ProductGroupDesc,Drive_System,Enclosure,Forks,Pad_Type,Ride_Control,Stick,Transmission,Turbocharged,Blade_Extension,Blade_Width,Enclosure_Type,Engine_Horsepower,Hydraulics,Pushblock,Ripper,Scarifier,Tip_Control,Tire_Size,Coupler,Coupler_System,Grouser_Tracks,Hydraulics_Flow,Track_Type,Undercarriage_Pad_Width,Stick_Length,Thumb,Pattern_Changer,Grouser_Type,Backhoe_Mounting,Blade_Type,Travel_Controls,Differential_Type,Steering_Controls
28922,1153717,26000,5034,121,3.0,1997,12979.0,Medium,8/25/2011 0:00,WA2503L,WA250,,3,L,,Wheel Loader - 120.0 to 135.0 Horsepower,Virginia,WL,Wheel Loader,,EROPS,None or Unspecified,,None or Unspecified,,,,,,,,2 Valve,,,,,20.5,None or Unspecified,,,,,,,,,,,,,Standard,Conventional
28922,1154702,21500,1015754,121,3.0,1997,9672.0,Medium,8/25/2011 0:00,WA2503L,WA250,,3,L,,Wheel Loader - 120.0 to 135.0 Horsepower,Virginia,WL,Wheel Loader,,EROPS w AC,None or Unspecified,,None or Unspecified,,,,,,,,2 Valve,,,,,20.5,None or Unspecified,,,,,,,,,,,,,Standard,Conventional
28922,1162444,40000,1060288,121,3.0,1998,4139.0,Low,8/24/2006 0:00,WA2503L,WA250,,3,L,,Wheel Loader - 120.0 to 135.0 Horsepower,Michigan,WL,Wheel Loader,,EROPS w AC,None or Unspecified,,None or Unspecified,,,,,,,,2 Valve,,,,,None or Unspecified,None or Unspecified,,,,,,,,,,,,,Standard,Conventional
28922,1167299,25500,999820,121,3.0,1998,20696.0,High,3/12/2009 0:00,WA2503L,WA250,,3,L,,Wheel Loader - 120.0 to 135.0 Horsepower,New Mexico,WL,Wheel Loader,,EROPS w AC,None or Unspecified,,None or Unspecified,,,,,,,,2 Valve,,,,,20.5,None or Unspecified,,,,,,,,,,,,,Standard,Conventional
28922,1170293,40000,1007693,121,3.0,1999,3100.0,Low,8/24/2006 0:00,WA2503L,WA250,,3,L,,Wheel Loader - 120.0 to 135.0 Horsepower,Michigan,WL,Wheel Loader,,EROPS,None or Unspecified,,None or Unspecified,,,,,,,,2 Valve,,,,,20.5,None or Unspecified,,,,,,,,,,,,,Standard,Conventional
28922,1172737,21500,1047001,121,3.0,1999,8675.0,Low,5/26/2011 0:00,WA2503L,WA250,,3,L,,Wheel Loader - 120.0 to 135.0 Horsepower,Virginia,WL,Wheel Loader,,EROPS w AC,,,,,,,,,,,Standard,,,,,,None or Unspecified,,,,,,,,,,,,,,
28922,1173637,35000,1037762,121,3.0,1998,11641.0,High,8/26/2004 0:00,WA2503L,WA250,,3,L,,Wheel Loader - 120.0 to 135.0 Horsepower,Texas,WL,Wheel Loader,,EROPS w AC,Yes,,None or Unspecified,,,,,,,,3 Valve,,,,,26.5,Manual,,,,,,,,,,,,,Standard,Conventional
28922,1181442,31000,1053937,121,3.0,1998,7099.0,Medium,8/7/2008 0:00,WA2503L,WA250,,3,L,,Wheel Loader - 120.0 to 135.0 Horsepower,Florida,WL,Wheel Loader,,EROPS w AC,Yes,,None or Unspecified,,,,,,,,2 Valve,,,,,20.5,Manual,,,,,,,,,,,,,Standard,Conventional
28922,1182996,33500,1060288,121,3.0,1998,4351.0,Low,9/30/2008 0:00,WA2503L,WA250,,3,L,,Wheel Loader - 120.0 to 135.0 Horsepower,Pennsylvania,WL,Wheel Loader,,EROPS w AC,None or Unspecified,,None or Unspecified,,,,,,,,2 Valve,,,,,None or Unspecified,None or Unspecified,,,,,,,,,,,,,Standard,Conventional
28922,1186382,19000,768808,121,3.0,1999,0.0,,12/11/2008 0:00,WA2503L,WA250,,3,L,,Wheel Loader - 120.0 to 135.0 Horsepower,Florida,WL,Wheel Loader,,OROPS,Yes,,None or Unspecified,,,,,,,,2 Valve,,,,,20.5,Manual,,,,,,,,,,,,,Standard,Conventional
28922,1218066,33500,1015754,121,3.0,1997,9672.0,Medium,9/22/2011 0:00,WA2503L,WA250,,3,L,,Wheel Loader - 120.0 to 135.0 Horsepower,Virginia,WL,Wheel Loader,,EROPS w AC,None or Unspecified,,None or Unspecified,,,,,,,,2 Valve,,,,,20.5,None or Unspecified,,,,,,,,,,,,,Standard,Conventional
28922,1765986,31000,1241728,132,8.0,1000,,,10/12/2006 0:00,WA2503L,WA250,,3,L,,Wheel Loader - 120.0 to 135.0 Horsepower,Florida,WL,Wheel Loader,,EROPS,None or Unspecified,,,,,,,,,,Auxiliary,,,,,"7.0""",None or Unspecified,,,,,,,,,,,,,,
28922,1766198,29500,1392713,132,8.0,1000,,,10/12/2006 0:00,WA2503L,WA250,,3,L,,Wheel Loader - 120.0 to 135.0 Horsepower,Florida,WL,Wheel Loader,,EROPS,None or Unspecified,,None or Unspecified,,,,,,,,2 Valve,,,,,20.5,Manual,,,,,,,,,,,,,Standard,Conventional
28922,2407182,54000,1539842,136,4.0,1999,0.0,,2/11/2008 0:00,WA2503L,WA250,,3,L,,Wheel Loader - 120.0 to 135.0 Horsepower,Florida,WL,Wheel Loader,,OROPS,None or Unspecified,,None or Unspecified,,,,,,,,2 Valve,,,,,None or Unspecified,None or Unspecified,,,,,,,,,,,,,Standard,Conventional
28922,2410122,10250,1661436,136,27.0,1999,0.0,,10/1/2009 0:00,WA2503L,WA250,,3,L,,Wheel Loader - 120.0 to 135.0 Horsepower,North Carolina,WL,Wheel Loader,,OROPS,Yes,,None or Unspecified,,,,,,,,2 Valve,,,,,None or Unspecified,Manual,,,,,,,,,,,,,Standard,Conventional
28922,2413451,23500,1643784,136,12.0,1997,0.0,,2/3/2010 0:00,WA2503L,WA250,,3,L,,Wheel Loader - 120.0 to 135.0 Horsepower,South Carolina,WL,Wheel Loader,,OROPS,None or Unspecified,,None or Unspecified,,,,,,,,2 Valve,,,,,None or Unspecified,None or Unspecified,,,,,,,,,,,,,Standard,Conventional
28922,2413458,16000,50622,136,1.0,1000,0.0,,5/27/2009 0:00,WA2503L,WA250,,3,L,,Wheel Loader - 120.0 to 135.0 Horsepower,Florida,WL,Wheel Loader,,OROPS,None or Unspecified,,None or Unspecified,,,,,,,,2 Valve,,,,,20.5,None or Unspecified,,,,,,,,,,,,,Standard,Conventional
28922,2413464,25000,47169,136,1.0,1000,0.0,,12/16/2008 0:00,WA2503L,WA250,,3,L,,Wheel Loader - 120.0 to 135.0 Horsepower,Washington,WL,Wheel Loader,,EROPS,None or Unspecified,,,,,,,,,,Auxiliary,,,,,"7.0""",None or Unspecified,,,,,,,,,,,,,,
28922,2413466,30000,1111669,136,1.0,1000,0.0,,6/9/2010 0:00,WA2503L,WA250,,3,L,,Wheel Loader - 120.0 to 135.0 Horsepower,Michigan,WL,Wheel Loader,,EROPS,None or Unspecified,,None or Unspecified,,,,,,,,2 Valve,,,,,20.5,None or Unspecified,,,,,,,,,,,,,Standard,Conventional
28922,2413479,30000,536079,136,1.0,1000,0.0,,12/13/2007 0:00,WA2503L,WA250,,3,L,,Wheel Loader - 120.0 to 135.0 Horsepower,Colorado,WL,Wheel Loader,,EROPS w AC,None or Unspecified,,None or Unspecified,,,,,,,,2 Valve,,,,,20.5,Manual,,,,,,,,,,,,,Standard,Conventional
28922,2413484,20000,869886,136,1.0,1000,0.0,,12/13/2007 0:00,WA2503L,WA250,,3,L,,Wheel Loader - 120.0 to 135.0 Horsepower,Texas,WL,Wheel Loader,,OROPS,Yes,,None or Unspecified,,,,,,,,2 Valve,,,,,20.5,None or Unspecified,,,,,,,,,,,,,Standard,Conventional
28922,2413489,29000,1533180,136,1.0,1997,0.0,,11/13/2007 0:00,WA2503L,WA250,,3,L,,Wheel Loader - 120.0 to 135.0 Horsepower,California,WL,Wheel Loader,,EROPS w AC,None or Unspecified,,None or Unspecified,,,,,,,,2 Valve,,,,,20.5,Hydraulic,,,,,,,,,,,,,Standard,Conventional
28922,2413490,20000,1533180,136,1.0,1000,0.0,,5/20/2008 0:00,WA2503L,WA250,,3,L,,Wheel Loader - 120.0 to 135.0 Horsepower,California,WL,Wheel Loader,,EROPS w AC,None or Unspecified,,None or Unspecified,,,,,,,,2 Valve,,,,,20.5,Hydraulic,,,,,,,,,,,,,Standard,Conventional
28922,2413491,15500,1533180,136,1.0,1997,0.0,,6/17/2008 0:00,WA2503L,WA250,,3,L,,Wheel Loader - 120.0 to 135.0 Horsepower,Washington,WL,Wheel Loader,,EROPS w AC,None or Unspecified,,None or Unspecified,,,,,,,,2 Valve,,,,,20.5,Hydraulic,,,,,,,,,,,,,Standard,Conventional
28922,2413492,27000,1185461,136,1.0,1000,0.0,,5/28/2008 0:00,WA2503L,WA250,,3,L,,Wheel Loader - 120.0 to 135.0 Horsepower,Florida,WL,Wheel Loader,,OROPS,Yes,,None or Unspecified,,,,,,,,2 Valve,,,,,20.5,Manual,,,,,,,,,,,,,Standard,Conventional
28922,2413493,42000,1780642,136,1.0,1000,0.0,,2/19/2008 0:00,WA2503L,WA250,,3,L,,Wheel Loader - 120.0 to 135.0 Horsepower,Florida,WL,Wheel Loader,,EROPS w AC,None or Unspecified,,None or Unspecified,,,,,,,,2 Valve,,,,,20.5,None or Unspecified,,,,,,,,,,,,,Standard,Conventional
28922,2413496,22000,523783,136,1.0,1000,0.0,,5/25/2010 0:00,WA2503L,WA250,,3,L,,Wheel Loader - 120.0 to 135.0 Horsepower,Florida,WL,Wheel Loader,,OROPS,None or Unspecified,,None or Unspecified,,,,,,,,2 Valve,,,,,20.5,Manual,,,,,,,,,,,,,Standard,Conventional
28922,2413497,10000,1397829,136,99.0,1999,3450.0,Low,4/15/2010 0:00,WA2503L,WA250,,3,L,,Wheel Loader - 120.0 to 135.0 Horsepower,Illinois,WL,Wheel Loader,,EROPS,None or Unspecified,,None or Unspecified,,,,,,,,2 Valve,,,,,None or Unspecified,None or Unspecified,,,,,,,,,,,,,Standard,Conventional
28922,2413499,32000,1364323,136,1.0,1000,0.0,,2/19/2008 0:00,WA2503L,WA250,,3,L,,Wheel Loader - 120.0 to 135.0 Horsepower,Florida,WL,Wheel Loader,,EROPS w AC,None or Unspecified,,None or Unspecified,,,,,,,,2 Valve,,,,,20.5,None or Unspecified,,,,,,,,,,,,,Standard,Conventional
28922,2413512,36000,1400962,136,1.0,1998,0.0,,10/10/2007 0:00,WA2503L,WA250,,3,L,,Wheel Loader - 120.0 to 135.0 Horsepower,Florida,WL,Wheel Loader,,EROPS w AC,,,,,,,,,,,Standard,,,,,,None or Unspecified,,,,,,,,,,,,,,
28922,2413514,22500,1405625,136,1.0,1998,0.0,,3/19/2009 0:00,WA2503L,WA250,,3,L,,Wheel Loader - 120.0 to 135.0 Horsepower,Tennessee,WL,Wheel Loader,,EROPS w AC,Yes,,None or Unspecified,,,,,,,,2 Valve,,,,,20.5,Manual,,,,,,,,,,,,,Standard,Conventional
28922,2413516,22500,1046116,136,1.0,1998,0.0,,10/15/2008 0:00,WA2503L,WA250,,3,L,,Wheel Loader - 120.0 to 135.0 Horsepower,Florida,WL,Wheel Loader,,EROPS,,,,,,,,,,,Standard,,,,,,None or Unspecified,,,,,,,,,,,,,,
28922,2413518,20000,921796,136,1.0,1998,0.0,,12/13/2007 0:00,WA2503L,WA250,,3,L,,Wheel Loader - 120.0 to 135.0 Horsepower,Colorado,WL,Wheel Loader,,EROPS,None or Unspecified,,,,,,,,,,Auxiliary,,,,,"7.0""",Manual,,,,,,,,,,,,,,
28922,2413521,46000,1142963,136,1.0,1000,0.0,,2/19/2008 0:00,WA2503L,WA250,,3,L,,Wheel Loader - 120.0 to 135.0 Horsepower,Florida,WL,Wheel Loader,,EROPS w AC,None or Unspecified,,None or Unspecified,,,,,,,,2 Valve,,,,,20.5,None or Unspecified,,,,,,,,,,,,,Standard,Conventional
28922,2413534,21000,1049770,136,1.0,1000,0.0,,9/9/2008 0:00,WA2503L,WA250,,3,L,,Wheel Loader - 120.0 to 135.0 Horsepower,Ohio,WL,Wheel Loader,,EROPS w AC,None or Unspecified,,,,,,,,,,Auxiliary,,,,,"7.0""",Manual,,,,,,,,,,,,,,
28922,2413535,17000,1100260,136,1.0,1000,0.0,,5/27/2009 0:00,WA2503L,WA250,,3,L,,Wheel Loader - 120.0 to 135.0 Horsepower,Florida,WL,Wheel Loader,,EROPS w AC,None or Unspecified,,None or Unspecified,,,,,,,,2 Valve,,,,,20.5,None or Unspecified,,,,,,,,,,,,,Standard,Conventional
28922,2413537,14750,1202622,136,4.0,1000,0.0,,2/9/2009 0:00,WA2503L,WA250,,3,L,,Wheel Loader - 120.0 to 135.0 Horsepower,Florida,WL,Wheel Loader,,OROPS,None or Unspecified,,None or Unspecified,,,,,,,,2 Valve,,,,,None or Unspecified,None or Unspecified,,,,,,,,,,,,,Standard,Conventional
28922,2413541,26000,1021531,136,4.0,1998,0.0,,2/11/2008 0:00,WA2503L,WA250,,3,L,,Wheel Loader - 120.0 to 135.0 Horsepower,Florida,WL,Wheel Loader,,EROPS w AC,Yes,,None or Unspecified,,,,,,,,2 Valve,,,,,20.5,Manual,,,,,,,,,,,,,Standard,Conventional
28922,2413545,49500,1717902,136,,2000,0.0,,1/12/2008 0:00,WA2503L,WA250,,3,L,,Wheel Loader - 120.0 to 135.0 Horsepower,New York,WL,Wheel Loader,,EROPS w AC,Yes,,None or Unspecified,,,,,,,,2 Valve,,,,,None or Unspecified,Manual,,,,,,,,,,,,,Standard,Conventional
28922,2413550,11500,1227741,136,1.0,1997,0.0,,9/10/2009 0:00,WA2503L,WA250,,3,L,,Wheel Loader - 120.0 to 135.0 Horsepower,Georgia,WL,Wheel Loader,,EROPS w AC,Yes,,None or Unspecified,,,,,,,,2 Valve,,,,,20.5,Manual,,,,,,,,,,,,,Standard,Conventional
28922,2413551,10250,1227741,136,27.0,1998,4252.0,Low,10/1/2009 0:00,WA2503L,WA250,,3,L,,Wheel Loader - 120.0 to 135.0 Horsepower,North Carolina,WL,Wheel Loader,,EROPS w AC,Yes,,None or Unspecified,,,,,,,,2 Valve,,,,,20.5,Manual,,,,,,,,,,,,,Standard,Conventional
28922,2413558,17000,1215568,136,1.0,1998,0.0,,3/26/2009 0:00,WA2503L,WA250,,3,L,,Wheel Loader - 120.0 to 135.0 Horsepower,Georgia,WL,Wheel Loader,,OROPS,None or Unspecified,,None or Unspecified,,,,,,,,2 Valve,,,,,20.5,None or Unspecified,,,,,,,,,,,,,Standard,Conventional
28922,2413561,26000,1017690,136,1.0,1998,0.0,,7/11/2007 0:00,WA2503L,WA250,,3,L,,Wheel Loader - 120.0 to 135.0 Horsepower,Texas,WL,Wheel Loader,,EROPS w AC,Yes,,None or Unspecified,,,,,,,,2 Valve,,,,,20.5,Manual,,,,,,,,,,,,,Standard,Conventional
28922,2413564,17500,1441832,136,4.0,1999,0.0,,2/8/2010 0:00,WA2503L,WA250,,3,L,,Wheel Loader - 120.0 to 135.0 Horsepower,Florida,WL,Wheel Loader,,OROPS,Yes,,None or Unspecified,,,,,,,,2 Valve,,,,,None or Unspecified,Manual,,,,,,,,,,,,,Standard,Conventional
28922,2413565,18000,1441832,136,99.0,1999,0.0,,12/4/2009 0:00,WA2503L,WA250,,3,L,,Wheel Loader - 120.0 to 135.0 Horsepower,Georgia,WL,Wheel Loader,,OROPS,Yes,,None or Unspecified,,,,,,,,2 Valve,,,,,None or Unspecified,Manual,,,,,,,,,,,,,Standard,Conventional
28922,2413566,22000,1238878,136,1.0,1999,0.0,,10/15/2008 0:00,WA2503L,WA250,,3,L,,Wheel Loader - 120.0 to 135.0 Horsepower,Florida,WL,Wheel Loader,,OROPS,Yes,,None or Unspecified,,,,,,,,2 Valve,,,,,None or Unspecified,None or Unspecified,,,,,,,,,,,,,Standard,Conventional
28922,2413571,22500,768808,136,,1999,0.0,,11/20/2008 0:00,WA2503L,WA250,,3,L,,Wheel Loader - 120.0 to 135.0 Horsepower,Florida,WL,Wheel Loader,,OROPS,Yes,,None or Unspecified,,,,,,,,2 Valve,,,,,20.5,Manual,,,,,,,,,,,,,Standard,Conventional
28922,2413580,26000,1458210,136,1.0,1999,0.0,,7/11/2007 0:00,WA2503L,WA250,,3,L,,Wheel Loader - 120.0 to 135.0 Horsepower,Texas,WL,Wheel Loader,,EROPS w AC,Yes,,None or Unspecified,,,,,,,,2 Valve,,,,,20.5,Manual,,,,,,,,,,,,,Standard,Conventional
28922,2413589,23000,1711250,136,1.0,1000,0.0,,3/4/2009 0:00,WA2503L,WA250,,3,L,,Wheel Loader - 120.0 to 135.0 Horsepower,Texas,WL,Wheel Loader,,OROPS,Yes,,None or Unspecified,,,,,,,,2 Valve,,,,,20.5,Manual,,,,,,,,,,,,,Standard,Conventional
28922,2413594,20000,1193249,136,1.0,1999,0.0,,9/26/2007 0:00,WA2503L,WA250,,3,L,,Wheel Loader - 120.0 to 135.0 Horsepower,Texas,WL,Wheel Loader,,EROPS w AC,None or Unspecified,,None or Unspecified,,,,,,,,2 Valve,,,,,20.5,None or Unspecified,,,,,,,,,,,,,Standard,Conventional
28922,2413597,17500,21904,136,8.0,1999,0.0,,11/18/2009 0:00,WA2503L,WA250,,3,L,,Wheel Loader - 120.0 to 135.0 Horsepower,Mississippi,WL,Wheel Loader,,OROPS,None or Unspecified,,None or Unspecified,,,,,,,,2 Valve,,,,,None or Unspecified,None or Unspecified,,,,,,,,,,,,,Standard,Conventional
28922,2413599,10000,1295022,136,1.0,1997,0.0,,9/10/2009 0:00,WA2503L,WA250,,3,L,,Wheel Loader - 120.0 to 135.0 Horsepower,Georgia,WL,Wheel Loader,,EROPS w AC,Yes,,None or Unspecified,,,,,,,,2 Valve,,,,,20.5,Manual,,,,,,,,,,,,,Standard,Conventional
28922,2413600,11250,1295022,136,27.0,1999,0.0,,10/1/2009 0:00,WA2503L,WA250,,3,L,,Wheel Loader - 120.0 to 135.0 Horsepower,North Carolina,WL,Wheel Loader,,EROPS w AC,Yes,,None or Unspecified,,,,,,,,2 Valve,,,,,20.5,Manual,,,,,,,,,,,,,Standard,Conventional
28922,2413602,10000,1131804,136,,1997,0.0,,9/10/2009 0:00,WA2503L,WA250,,3,L,,Wheel Loader - 120.0 to 135.0 Horsepower,Georgia,WL,Wheel Loader,,OROPS,Yes,,None or Unspecified,,,,,,,,2 Valve,,,,,20.5,Manual,,,,,,,,,,,,,Standard,Conventional
28922,2413608,18000,1551792,136,4.0,1999,0.0,,2/9/2009 0:00,WA2503L,WA250,,3,L,,Wheel Loader - 120.0 to 135.0 Horsepower,Florida,WL,Wheel Loader,,EROPS w AC,None or Unspecified,,None or Unspecified,,,,,,,,2 Valve,,,,,None or Unspecified,None or Unspecified,,,,,,,,,,,,,Standard,Conventional
28922,2413611,31000,1305053,136,1.0,1999,0.0,,5/6/2009 0:00,WA2503L,WA250,,3,L,,Wheel Loader - 120.0 to 135.0 Horsepower,Texas,WL,Wheel Loader,,EROPS w AC,None or Unspecified,,None or Unspecified,,,,,,,,2 Valve,,,,,20.5,None or Unspecified,,,,,,,,,,,,,Standard,Conventional
28922,2413629,19000,1743401,136,,1000,0.0,,7/18/2009 0:00,WA2503L,WA250,,3,L,,Wheel Loader - 120.0 to 135.0 Horsepower,New York,WL,Wheel Loader,,EROPS,None or Unspecified,,None or Unspecified,,,,,,,,2 Valve,,,,,None or Unspecified,None or Unspecified,,,,,,,,,,,,,Standard,Conventional
28922,2413638,39000,1777575,136,1.0,2000,0.0,,10/1/2008 0:00,WA2503L,WA250,,3,L,,Wheel Loader - 120.0 to 135.0 Horsepower,Maryland,WL,Wheel Loader,,EROPS,Yes,,None or Unspecified,,,,,,,,2 Valve,,,,,20.5,Manual,,,,,,,,,,,,,Standard,Conventional
28922,2413646,40000,1340939,136,1.0,1000,0.0,,3/11/2010 0:00,WA2503L,WA250,,3,L,,Wheel Loader - 120.0 to 135.0 Horsepower,Illinois,WL,Wheel Loader,,EROPS,None or Unspecified,,,,,,,,,,Auxiliary,,,,,"7.0""",Hydraulic,,,,,,,,,,,,,,
28922,2414094,32000,1516674,136,1.0,1000,5932.0,Low,5/14/2010 0:00,WA2503L,WA250,,3,L,,Wheel Loader - 120.0 to 135.0 Horsepower,Nevada,WL,Wheel Loader,,EROPS w AC,None or Unspecified,,None or Unspecified,,,,,,,,2 Valve,,,,,20.5,Manual,,,,,,,,,,,,,Standard,Conventional
28922,2414098,26000,1446795,136,1.0,1000,0.0,,9/24/2008 0:00,WA2503L,WA250,,3,L,,Wheel Loader - 120.0 to 135.0 Horsepower,South Carolina,WL,Wheel Loader,,EROPS w AC,Yes,,None or Unspecified,,,,,,,,2 Valve,,,,,20.5,Manual,,,,,,,,,,,,,Standard,Conventional
28922,2414099,39000,1446795,136,1.0,1000,0.0,,2/16/2009 0:00,WA2503L,WA250,,3,L,,Wheel Loader - 120.0 to 135.0 Horsepower,Florida,WL,Wheel Loader,,EROPS w AC,Yes,,None or Unspecified,,,,,,,,2 Valve,,,,,20.5,Manual,,,,,,,,,,,,,Standard,Conventional
28922,2414114,21000,1668905,136,,1000,6568.0,Low,12/19/2008 0:00,WA2503L,WA250,,3,L,,Wheel Loader - 120.0 to 135.0 Horsepower,California,WL,Wheel Loader,,OROPS,None or Unspecified,,None or Unspecified,,,,,,,,2 Valve,,,,,None or Unspecified,None or Unspecified,,,,,,,,,,,,,Standard,Conventional
28922,2423530,34000,1726499,136,1.0,1999,0.0,,5/29/2008 0:00,WA2503L,WA250,,3,L,,Wheel Loader - 120.0 to 135.0 Horsepower,Utah,WL,Wheel Loader,,EROPS,None or Unspecified,,None or Unspecified,,,,,,,,2 Valve,,,,,20.5,Manual,,,,,,,,,,,,,Standard,Conventional
28922,2699565,31000,1287015,149,1.0,1997,5217.0,Low,2/15/2011 0:00,WA2503L,WA250,,3,L,,Wheel Loader - 120.0 to 135.0 Horsepower,Florida,WL,Wheel Loader,,EROPS w AC,,,,,,,,,,,Standard,,,,,,None or Unspecified,,,,,,,,,,,,,,
28922,2699583,35000,1506107,149,1.0,1997,0.0,,10/7/2010 0:00,WA2503L,WA250,,3,L,,Wheel Loader - 120.0 to 135.0 Horsepower,Arkansas,WL,Wheel Loader,,EROPS w AC,None or Unspecified,,None or Unspecified,,,,,,,,2 Valve,,,,,20.5,None or Unspecified,,,,,,,,,,,,,Standard,Conventional
28922,2699653,26250,1855004,149,12.0,1998,0.0,,3/30/2011 0:00,WA2503L,WA250,,3,L,,Wheel Loader - 120.0 to 135.0 Horsepower,South Carolina,WL,Wheel Loader,,OROPS,None or Unspecified,,None or Unspecified,,,,,,,,2 Valve,,,,,None or Unspecified,None or Unspecified,,,,,,,,,,,,,Standard,Conventional
28922,2699673,20500,1421654,149,5.0,1999,0.0,,4/7/2011 0:00,WA2503L,WA250,,3,L,,Wheel Loader - 120.0 to 135.0 Horsepower,Connecticut,WL,Wheel Loader,,EROPS w AC,None or Unspecified,,None or Unspecified,,,,,,,,2 Valve,,,,,17.5,None or Unspecified,,,,,,,,,,,,,Standard,Conventional
28922,2699930,27500,1209517,149,1.0,1998,13214.0,Medium,2/15/2011 0:00,WA2503L,WA250,,3,L,,Wheel Loader - 120.0 to 135.0 Horsepower,Florida,WL,Wheel Loader,,EROPS,None or Unspecified,,None or Unspecified,,,,,,,,2 Valve,,,,,20.5,Manual,,,,,,,,,,,,,Standard,Conventional
28922,2699934,25000,1299828,149,1.0,1999,11534.0,Medium,6/9/2011 0:00,WA2503L,WA250,,3,L,,Wheel Loader - 120.0 to 135.0 Horsepower,Georgia,WL,Wheel Loader,,OROPS,Yes,,None or Unspecified,,,,,,,,2 Valve,,,,,20.5,Manual,,,,,,,,,,,,,Standard,Conventional
28922,2699935,26500,1894030,149,27.0,1998,0.0,,12/28/2010 0:00,WA2503L,WA250,,3,L,,Wheel Loader - 120.0 to 135.0 Horsepower,North Carolina,WL,Wheel Loader,,EROPS,None or Unspecified,,None or Unspecified,,,,,,,,2 Valve,,,,,None or Unspecified,None or Unspecified,,,,,,,,,,,,,Standard,Conventional
28922,4358175,29000,2274882,172,1.0,2000,9927.0,Medium,7/15/2010 0:00,WA2503L,WA250,,3,L,,Wheel Loader - 120.0 to 135.0 Horsepower,Texas,WL,Wheel Loader,,EROPS w AC,None or Unspecified,,None or Unspecified,,,,,,,,2 Valve,,,,,20.5,None or Unspecified,,,,,,,,,,,,,Standard,Conventional
28922,4359114,30000,2273478,172,1.0,1999,4909.0,Low,8/16/2011 0:00,WA2503L,WA250,,3,L,,Wheel Loader - 120.0 to 135.0 Horsepower,Florida,WL,Wheel Loader,,EROPS w AC,,,,,,,,,,,Auxiliary,,,,,,None or Unspecified,,,,,,,,,,,,,,
28922,4359116,32000,2273478,172,1.0,1998,11231.0,Medium,8/23/2011 0:00,WA2503L,WA250,,3,L,,Wheel Loader - 120.0 to 135.0 Horsepower,Texas,WL,Wheel Loader,,EROPS w AC,,,,,,,,,,,Auxiliary,,,,,,None or Unspecified,,,,,,,,,,,,,,
28922,6304257,30000,1206274,149,1.0,1999,,,8/17/2011 0:00,WA2503L,WA250,,3,L,,Wheel Loader - 120.0 to 135.0 Horsepower,Florida,WL,Wheel Loader,,EROPS,None or Unspecified,,None or Unspecified,,,,,,,,2 Valve,,,,,None or Unspecified,None or Unspecified,,,,,,,,,,,,,Standard,Conventional
28922,6304262,35000,1029040,149,1.0,1999,,,10/6/2011 0:00,WA2503L,WA250,,3,L,,Wheel Loader - 120.0 to 135.0 Horsepower,Connecticut,WL,Wheel Loader,,EROPS w AC,None or Unspecified,,None or Unspecified,,,,,,,,2 Valve,,,,,None or Unspecified,Manual,,,,,,,,,,,,,Standard,Conventional
28922,6304323,8400,1818925,149,12.0,1998,,,9/21/2011 0:00,WA2503L,WA250,,3,L,,Wheel Loader - 120.0 to 135.0 Horsepower,South Carolina,WL,Wheel Loader,,OROPS,None or Unspecified,,None or Unspecified,,,,,,,,2 Valve,,,,,None or Unspecified,None or Unspecified,,,,,,,,,,,,,Standard,Conventional
28922,6304324,40000,1295687,149,1.0,1998,,,8/26/2011 0:00,WA2503L,WA250,,3,L,,Wheel Loader - 120.0 to 135.0 Horsepower,Idaho,WL,Wheel Loader,,EROPS w AC,None or Unspecified,,None or Unspecified,,,,,,,,2 Valve,,,,,20.5,Hydraulic,,,,,,,,,,,,,Standard,Conventional
