ModelID,SalesID,SalePrice,MachineID,datasource,auctioneerID,YearMade,MachineHoursCurrentMeter,UsageBand,saledate,fiModelDesc,fiBaseModel,fiSecondaryDesc,fiModelSeries,fiModelDescriptor,ProductSize,fiProductClassDesc,state,ProductGroup,ProductGroupDesc,Drive_System,Enclosure,Forks,Pad_Type,Ride_Control,Stick,Transmission,Turbocharged,Blade_Extension,Blade_Width,Enclosure_Type,Engine_Horsepower,Hydraulics,Pushblock,Ripper,Scarifier,Tip_Control,Tire_Size,Coupler,Coupler_System,Grouser_Tracks,Hydraulics_Flow,Track_Type,Undercarriage_Pad_Width,Stick_Length,Thumb,Pattern_Changer,Grouser_Type,Backhoe_Mounting,Blade_Type,Travel_Controls,Differential_Type,Steering_Controls
3109,2201832,6500,1677555,136,1.0,1988,,,9/11/2008 0:00,1835C,1835,C,,,,Skid Steer Loader - 1251.0 to 1351.0 Lb Operating Capacity,Missouri,SSL,Skid Steer Loaders,,OROPS,None or Unspecified,,,,,,,,,,Auxiliary,,,,,,None or Unspecified,None or Unspecified,None or Unspecified,Standard,,,,,,,,,,,
3109,2201833,7750,1714793,136,,1988,2074.0,Low,11/14/2007 0:00,1835C,1835,C,,,,Skid Steer Loader - 1251.0 to 1351.0 Lb Operating Capacity,Colorado,SSL,Skid Steer Loaders,,OROPS,None or Unspecified,,,,,,,,,,Standard,,,,,,None or Unspecified,None or Unspecified,None or Unspecified,Standard,,,,,,,,,,,
3109,2201858,7000,1709603,136,,1000,,,5/15/2009 0:00,1835C,1835,C,,,,Skid Steer Loader - 1251.0 to 1351.0 Lb Operating Capacity,Michigan,SSL,Skid Steer Loaders,,OROPS,None or Unspecified,,,,,,,,,,Auxiliary,,,,,,None or Unspecified,None or Unspecified,None or Unspecified,Standard,,,,,,,,,,,
3109,2201859,6250,1723501,136,,1989,2099.0,Low,3/13/2008 0:00,1835C,1835,C,,,,Skid Steer Loader - 1251.0 to 1351.0 Lb Operating Capacity,Colorado,SSL,Skid Steer Loaders,,OROPS,None or Unspecified,,,,,,,,,,Auxiliary,,,,,,None or Unspecified,None or Unspecified,None or Unspecified,Standard,,,,,,,,,,,
3109,2201860,6750,1691450,136,,1989,2434.0,Low,11/14/2007 0:00,1835C,1835,C,,,,Skid Steer Loader - 1251.0 to 1351.0 Lb Operating Capacity,Colorado,SSL,Skid Steer Loaders,,OROPS,None or Unspecified,,,,,,,,,,Standard,,,,,,None or Unspecified,None or Unspecified,None or Unspecified,Standard,,,,,,,,,,,
3109,2202062,5000,1689275,136,,1988,,,6/20/2007 0:00,1835C,1835,C,,,,Skid Steer Loader - 1251.0 to 1351.0 Lb Operating Capacity,Maryland,SSL,Skid Steer Loaders,,OROPS,None or Unspecified,,,,,,,,,,Auxiliary,,,,,,None or Unspecified,None or Unspecified,None or Unspecified,Standard,,,,,,,,,,,
3109,2202244,6500,1685292,136,1.0,1996,,,6/28/2008 0:00,1835C,1835,C,,,,Skid Steer Loader - 1251.0 to 1351.0 Lb Operating Capacity,Alaska,SSL,Skid Steer Loaders,,OROPS,None or Unspecified,,,,,,,,,,Auxiliary,,,,,,None or Unspecified,None or Unspecified,None or Unspecified,Standard,,,,,,,,,,,
3109,2203585,4750,1779062,136,,1988,,,12/30/2008 0:00,1835C,1835,C,,,,Skid Steer Loader - 1251.0 to 1351.0 Lb Operating Capacity,North Carolina,SSL,Skid Steer Loaders,,OROPS,Yes,,,,,,,,,,Auxiliary,,,,,,None or Unspecified,None or Unspecified,None or Unspecified,Standard,,,,,,,,,,,
3109,6257415,5500,1922765,149,99.0,1988,,,10/20/2011 0:00,1835C,1835,C,,,,Skid Steer Loader - 1251.0 to 1351.0 Lb Operating Capacity,Indiana,SSL,Skid Steer Loaders,,OROPS,None or Unspecified,,,,,,,,,,Standard,,,,,,None or Unspecified,None or Unspecified,None or Unspecified,Standard,,,,,,,,,,,
