ModelID,SalesID,SalePrice,MachineID,datasource,auctioneerID,YearMade,MachineHoursCurrentMeter,UsageBand,saledate,fiModelDesc,fiBaseModel,fiSecondaryDesc,fiModelSeries,fiModelDescriptor,ProductSize,fiProductClassDesc,state,ProductGroup,ProductGroupDesc,Drive_System,Enclosure,Forks,Pad_Type,Ride_Control,Stick,Transmission,Turbocharged,Blade_Extension,Blade_Width,Enclosure_Type,Engine_Horsepower,Hydraulics,Pushblock,Ripper,Scarifier,Tip_Control,Tire_Size,Coupler,Coupler_System,Grouser_Tracks,Hydraulics_Flow,Track_Type,Undercarriage_Pad_Width,Stick_Length,Thumb,Pattern_Changer,Grouser_Type,Backhoe_Mounting,Blade_Type,Travel_Controls,Differential_Type,Steering_Controls
3135,1140771,6750,1064227,121,3.0,2002,2393.0,Medium,8/27/2009 0:00,40XT,40,XT,,,,Skid Steer Loader - 1351.0 to 1601.0 Lb Operating Capacity,Oregon,SSL,Skid Steer Loaders,,OROPS,None or Unspecified,,,,,,,,,,Auxiliary,,,,,,Manual,Yes,None or Unspecified,Standard,,,,,,,,,,,
3135,1141262,10500,1041895,121,3.0,2003,575.0,Low,10/19/2006 0:00,40XT,40,XT,,,,Skid Steer Loader - 1351.0 to 1601.0 Lb Operating Capacity,Missouri,SSL,Skid Steer Loaders,,OROPS,None or Unspecified,,,,,,,,,,Auxiliary,,,,,,None or Unspecified,None or Unspecified,None or Unspecified,Standard,,,,,,,,,,,
3135,1148009,8750,999599,121,3.0,2002,0.0,,2/26/2010 0:00,40XT,40,XT,,,,Skid Steer Loader - 1351.0 to 1601.0 Lb Operating Capacity,Texas,SSL,Skid Steer Loaders,,OROPS,None or Unspecified,,,,,,,,,,Auxiliary,,,,,,Manual,Yes,None or Unspecified,Standard,,,,,,,,,,,
3135,1155963,11500,388016,121,3.0,2002,767.0,Medium,11/3/2005 0:00,40XT,40,XT,,,,Skid Steer Loader - 1351.0 to 1601.0 Lb Operating Capacity,Missouri,SSL,Skid Steer Loaders,,OROPS,None or Unspecified,,,,,,,,,,Auxiliary,,,,,,None or Unspecified,None or Unspecified,None or Unspecified,Standard,,,,,,,,,,,
3135,1166496,6500,1027660,121,3.0,2002,0.0,,2/26/2010 0:00,40XT,40,XT,,,,Skid Steer Loader - 1351.0 to 1601.0 Lb Operating Capacity,Oregon,SSL,Skid Steer Loaders,,OROPS,None or Unspecified,,,,,,,,,,Auxiliary,,,,,,None or Unspecified,None or Unspecified,None or Unspecified,Standard,,,,,,,,,,,
3135,1169015,8000,1047784,121,3.0,2002,2205.0,Medium,12/13/2007 0:00,40XT,40,XT,,,,Skid Steer Loader - 1351.0 to 1601.0 Lb Operating Capacity,Texas,SSL,Skid Steer Loaders,,OROPS,None or Unspecified,,,,,,,,,,Auxiliary,,,,,,None or Unspecified,None or Unspecified,None or Unspecified,Standard,,,,,,,,,,,
3135,1176037,9000,1057459,121,3.0,2004,5340.0,High,12/13/2007 0:00,40XT,40,XT,,,,Skid Steer Loader - 1351.0 to 1601.0 Lb Operating Capacity,Texas,SSL,Skid Steer Loaders,,OROPS,None or Unspecified,,,,,,,,,,Auxiliary,,,,,,None or Unspecified,None or Unspecified,None or Unspecified,Standard,,,,,,,,,,,
3135,1181438,10750,1055704,121,3.0,2004,250.0,Low,8/7/2008 0:00,40XT,40,XT,,,,Skid Steer Loader - 1351.0 to 1601.0 Lb Operating Capacity,Pennsylvania,SSL,Skid Steer Loaders,,OROPS,None or Unspecified,,,,,,,,,,Auxiliary,,,,,,None or Unspecified,None or Unspecified,None or Unspecified,Standard,,,,,,,,,,,
3135,1182113,10500,1062176,121,3.0,2004,1051.0,Medium,8/21/2008 0:00,40XT,40,XT,,,,Skid Steer Loader - 1351.0 to 1601.0 Lb Operating Capacity,Colorado,SSL,Skid Steer Loaders,,OROPS,None or Unspecified,,,,,,,,,,Auxiliary,,,,,,None or Unspecified,None or Unspecified,None or Unspecified,Standard,,,,,,,,,,,
3135,1182242,10000,1011084,121,3.0,2004,1213.0,Medium,9/4/2008 0:00,40XT,40,XT,,,,Skid Steer Loader - 1351.0 to 1601.0 Lb Operating Capacity,Colorado,SSL,Skid Steer Loaders,,OROPS,None or Unspecified,,,,,,,,,,Auxiliary,,,,,,Manual,Yes,None or Unspecified,Standard,,,,,,,,,,,
3135,1182244,11500,1057163,121,3.0,2004,1167.0,Medium,9/4/2008 0:00,40XT,40,XT,,,,Skid Steer Loader - 1351.0 to 1601.0 Lb Operating Capacity,Colorado,SSL,Skid Steer Loaders,,OROPS,None or Unspecified,,,,,,,,,,Auxiliary,,,,,,None or Unspecified,None or Unspecified,None or Unspecified,Standard,,,,,,,,,,,
3135,1182247,11000,1063057,121,3.0,2004,1456.0,Medium,9/4/2008 0:00,40XT,40,XT,,,,Skid Steer Loader - 1351.0 to 1601.0 Lb Operating Capacity,Colorado,SSL,Skid Steer Loaders,,OROPS,None or Unspecified,,,,,,,,,,Auxiliary,,,,,,None or Unspecified,None or Unspecified,None or Unspecified,Standard,,,,,,,,,,,
3135,1182292,10000,1019394,121,3.0,2004,1640.0,Medium,8/21/2008 0:00,40XT,40,XT,,,,Skid Steer Loader - 1351.0 to 1601.0 Lb Operating Capacity,Colorado,SSL,Skid Steer Loaders,,OROPS,None or Unspecified,,,,,,,,,,Auxiliary,,,,,,Manual,Yes,None or Unspecified,Standard,,,,,,,,,,,
3135,1182425,7500,988303,121,3.0,2003,913.0,Low,9/4/2008 0:00,40XT,40,XT,,,,Skid Steer Loader - 1351.0 to 1601.0 Lb Operating Capacity,Utah,SSL,Skid Steer Loaders,,OROPS,None or Unspecified,,,,,,,,,,Auxiliary,,,,,,Manual,Yes,None or Unspecified,Standard,,,,,,,,,,,
3135,1183708,8250,1049415,121,3.0,2003,1160.0,Medium,10/30/2008 0:00,40XT,40,XT,,,,Skid Steer Loader - 1351.0 to 1601.0 Lb Operating Capacity,Michigan,SSL,Skid Steer Loaders,,EROPS,None or Unspecified,,,,,,,,,,Auxiliary,,,,,,None or Unspecified,None or Unspecified,None or Unspecified,Standard,,,,,,,,,,,
3135,1205911,7000,1065483,121,3.0,2002,3514.0,Medium,9/9/2010 0:00,40XT,40,XT,,,,Skid Steer Loader - 1351.0 to 1601.0 Lb Operating Capacity,Illinois,SSL,Skid Steer Loaders,,OROPS,None or Unspecified,,,,,,,,,,Auxiliary,,,,,,Manual,Yes,None or Unspecified,Standard,,,,,,,,,,,
3135,1206857,5750,1050082,121,3.0,2004,4423.0,High,9/24/2010 0:00,40XT,40,XT,,,,Skid Steer Loader - 1351.0 to 1601.0 Lb Operating Capacity,Texas,SSL,Skid Steer Loaders,,OROPS,None or Unspecified,,,,,,,,,,Auxiliary,,,,,,Manual,Yes,None or Unspecified,Standard,,,,,,,,,,,
3135,1217509,8250,1022539,121,3.0,2004,1267.0,Low,9/15/2011 0:00,40XT,40,XT,,,,Skid Steer Loader - 1351.0 to 1601.0 Lb Operating Capacity,Massachusetts,SSL,Skid Steer Loaders,,OROPS,None or Unspecified,,,,,,,,,,Auxiliary,,,,,,Manual,Yes,None or Unspecified,Standard,,,,,,,,,,,
3135,1255501,13000,1172655,132,2.0,1000,,,3/20/2004 0:00,40XT,40,XT,,,,Skid Steer Loader - 1351.0 to 1601.0 Lb Operating Capacity,Pennsylvania,SSL,Skid Steer Loaders,,OROPS,None or Unspecified,,,,,,,,,,Standard,,,,,,None or Unspecified,None or Unspecified,None or Unspecified,Standard,,,,,,,,,,,
3135,1255971,12000,1462022,132,1.0,2006,,,12/1/2010 0:00,40XT,40,XT,,,,Skid Steer Loader - 1351.0 to 1601.0 Lb Operating Capacity,Texas,SSL,Skid Steer Loaders,,OROPS,None or Unspecified,,,,,,,,,,Standard,,,,,,None or Unspecified,None or Unspecified,None or Unspecified,Standard,,,,,,,,,,,
3135,1268895,15000,1246620,132,2.0,2002,,,10/9/2003 0:00,40XT,40,XT,,,,Skid Steer Loader - 1351.0 to 1601.0 Lb Operating Capacity,Indiana,SSL,Skid Steer Loaders,,OROPS,None or Unspecified,,,,,,,,,,Standard,,,,,,None or Unspecified,None or Unspecified,None or Unspecified,Standard,,,,,,,,,,,
3135,1274382,11000,1306321,132,1.0,2002,,,12/13/2005 0:00,40XT,40,XT,,,,Skid Steer Loader - 1351.0 to 1601.0 Lb Operating Capacity,California,SSL,Skid Steer Loaders,,OROPS,None or Unspecified,,,,,,,,,,Standard,,,,,,None or Unspecified,None or Unspecified,None or Unspecified,Standard,,,,,,,,,,,
3135,1274551,16000,1527696,132,2.0,2002,,,5/4/2002 0:00,40XT,40,XT,,,,Skid Steer Loader - 1351.0 to 1601.0 Lb Operating Capacity,Tennessee,SSL,Skid Steer Loaders,,OROPS,None or Unspecified,,,,,,,,,,Standard,,,,,,None or Unspecified,None or Unspecified,None or Unspecified,Standard,,,,,,,,,,,
3135,1274552,11000,1462229,132,1.0,2001,,,9/24/2004 0:00,40XT,40,XT,,,,Skid Steer Loader - 1351.0 to 1601.0 Lb Operating Capacity,Texas,SSL,Skid Steer Loaders,,OROPS,None or Unspecified,,,,,,,,,,Standard,,,,,,None or Unspecified,None or Unspecified,None or Unspecified,Standard,,,,,,,,,,,
3135,1274553,16250,1121713,132,22.0,1000,,,6/10/2006 0:00,40XT,40,XT,,,,Skid Steer Loader - 1351.0 to 1601.0 Lb Operating Capacity,Minnesota,SSL,Skid Steer Loaders,,OROPS,None or Unspecified,,,,,,,,,,Standard,,,,,,None or Unspecified,None or Unspecified,None or Unspecified,Standard,,,,,,,,,,,
3135,1274560,13000,1223432,132,1.0,2001,,,11/18/2004 0:00,40XT,40,XT,,,,Skid Steer Loader - 1351.0 to 1601.0 Lb Operating Capacity,Georgia,SSL,Skid Steer Loaders,,OROPS,None or Unspecified,,,,,,,,,,Standard,,,,,,None or Unspecified,None or Unspecified,None or Unspecified,Standard,,,,,,,,,,,
3135,1274561,12500,1380204,132,2.0,2002,,,3/23/2006 0:00,40XT,40,XT,,,,Skid Steer Loader - 1351.0 to 1601.0 Lb Operating Capacity,New Jersey,SSL,Skid Steer Loaders,,OROPS,None or Unspecified,,,,,,,,,,Standard,,,,,,None or Unspecified,None or Unspecified,None or Unspecified,Standard,,,,,,,,,,,
3135,1274562,13000,1367635,132,1.0,2001,,,4/7/2005 0:00,40XT,40,XT,,,,Skid Steer Loader - 1351.0 to 1601.0 Lb Operating Capacity,Georgia,SSL,Skid Steer Loaders,,OROPS,None or Unspecified,,,,,,,,,,Standard,,,,,,None or Unspecified,None or Unspecified,None or Unspecified,Standard,,,,,,,,,,,
3135,1274565,11000,1385613,132,1.0,2002,,,3/7/2003 0:00,40XT,40,XT,,,,Skid Steer Loader - 1351.0 to 1601.0 Lb Operating Capacity,Missouri,SSL,Skid Steer Loaders,,OROPS,None or Unspecified,,,,,,,,,,Standard,,,,,,None or Unspecified,None or Unspecified,None or Unspecified,Standard,,,,,,,,,,,
3135,1274566,17500,1381249,132,2.0,2002,,,5/4/2002 0:00,40XT,40,XT,,,,Skid Steer Loader - 1351.0 to 1601.0 Lb Operating Capacity,Tennessee,SSL,Skid Steer Loaders,,OROPS,None or Unspecified,,,,,,,,,,Standard,,,,,,None or Unspecified,None or Unspecified,None or Unspecified,Standard,,,,,,,,,,,
3135,1274567,13000,1296715,132,1.0,2002,,,4/7/2005 0:00,40XT,40,XT,,,,Skid Steer Loader - 1351.0 to 1601.0 Lb Operating Capacity,Georgia,SSL,Skid Steer Loaders,,OROPS,None or Unspecified,,,,,,,,,,Standard,,,,,,None or Unspecified,None or Unspecified,None or Unspecified,Standard,,,,,,,,,,,
3135,1274568,13500,1296715,132,1.0,2002,,,12/14/2005 0:00,40XT,40,XT,,,,Skid Steer Loader - 1351.0 to 1601.0 Lb Operating Capacity,Maryland,SSL,Skid Steer Loaders,,OROPS,None or Unspecified,,,,,,,,,,Standard,,,,,,None or Unspecified,None or Unspecified,None or Unspecified,Standard,,,,,,,,,,,
3135,1274570,18000,1400721,132,7.0,1000,,,9/5/2002 0:00,40XT,40,XT,,,,Skid Steer Loader - 1351.0 to 1601.0 Lb Operating Capacity,Alabama,SSL,Skid Steer Loaders,,OROPS,None or Unspecified,,,,,,,,,,Standard,,,,,,None or Unspecified,None or Unspecified,None or Unspecified,Standard,,,,,,,,,,,
3135,1274571,15000,1400721,132,7.0,1000,,,12/6/2002 0:00,40XT,40,XT,,,,Skid Steer Loader - 1351.0 to 1601.0 Lb Operating Capacity,Alabama,SSL,Skid Steer Loaders,,OROPS,None or Unspecified,,,,,,,,,,Standard,,,,,,None or Unspecified,None or Unspecified,None or Unspecified,Standard,,,,,,,,,,,
3135,1274572,10000,1308957,132,2.0,2002,,,8/10/2007 0:00,40XT,40,XT,,,,Skid Steer Loader - 1351.0 to 1601.0 Lb Operating Capacity,South Carolina,SSL,Skid Steer Loaders,,OROPS,None or Unspecified,,,,,,,,,,Auxiliary,,,,,,None or Unspecified,None or Unspecified,None or Unspecified,Standard,,,,,,,,,,,
3135,1274575,12500,1285065,132,1.0,1000,,,6/27/2005 0:00,40XT,40,XT,,,,Skid Steer Loader - 1351.0 to 1601.0 Lb Operating Capacity,Minnesota,SSL,Skid Steer Loaders,,OROPS,None or Unspecified,,,,,,,,,,Standard,,,,,,None or Unspecified,None or Unspecified,None or Unspecified,Standard,,,,,,,,,,,
3135,1274579,16500,1350442,132,2.0,1000,,,3/23/2006 0:00,40XT,40,XT,,,,Skid Steer Loader - 1351.0 to 1601.0 Lb Operating Capacity,New Jersey,SSL,Skid Steer Loaders,,OROPS,None or Unspecified,,,,,,,,,,Standard,,,,,,None or Unspecified,None or Unspecified,None or Unspecified,Standard,,,,,,,,,,,
3135,1274581,10000,1134248,132,1.0,2002,,,12/13/2005 0:00,40XT,40,XT,,,,Skid Steer Loader - 1351.0 to 1601.0 Lb Operating Capacity,California,SSL,Skid Steer Loaders,,OROPS,None or Unspecified,,,,,,,,,,Standard,,,,,,None or Unspecified,None or Unspecified,None or Unspecified,Standard,,,,,,,,,,,
3135,1274582,9000,1134248,132,1.0,2002,,,2/27/2007 0:00,40XT,40,XT,,,,Skid Steer Loader - 1351.0 to 1601.0 Lb Operating Capacity,California,SSL,Skid Steer Loaders,,OROPS,None or Unspecified,,,,,,,,,,Standard,,,,,,None or Unspecified,None or Unspecified,None or Unspecified,Standard,,,,,,,,,,,
3135,1274583,11000,521696,132,1.0,2002,,,5/26/2005 0:00,40XT,40,XT,,,,Skid Steer Loader - 1351.0 to 1601.0 Lb Operating Capacity,Florida,SSL,Skid Steer Loaders,,OROPS,None or Unspecified,,,,,,,,,,Standard,,,,,,None or Unspecified,None or Unspecified,None or Unspecified,Standard,,,,,,,,,,,
3135,1274585,12000,1079389,132,1.0,2002,,,2/15/2005 0:00,40XT,40,XT,,,,Skid Steer Loader - 1351.0 to 1601.0 Lb Operating Capacity,Florida,SSL,Skid Steer Loaders,,OROPS,None or Unspecified,,,,,,,,,,Standard,,,,,,None or Unspecified,None or Unspecified,None or Unspecified,Standard,,,,,,,,,,,
3135,1274588,7250,1113838,132,8.0,2002,,,11/18/2009 0:00,40XT,40,XT,,,,Skid Steer Loader - 1351.0 to 1601.0 Lb Operating Capacity,Mississippi,SSL,Skid Steer Loaders,,OROPS,None or Unspecified,,,,,,,,,,Auxiliary,,,,,,None or Unspecified,None or Unspecified,None or Unspecified,Standard,,,,,,,,,,,
3135,1274719,12000,1487783,132,2.0,2001,,,3/2/2005 0:00,40XT,40,XT,,,,Skid Steer Loader - 1351.0 to 1601.0 Lb Operating Capacity,Texas,SSL,Skid Steer Loaders,,OROPS,None or Unspecified,,,,,,,,,,Standard,,,,,,None or Unspecified,None or Unspecified,None or Unspecified,Standard,,,,,,,,,,,
3135,1274720,12000,1512108,132,1.0,2001,,,8/26/2004 0:00,40XT,40,XT,,,,Skid Steer Loader - 1351.0 to 1601.0 Lb Operating Capacity,Missouri,SSL,Skid Steer Loaders,,OROPS,None or Unspecified,,,,,,,,,,Standard,,,,,,None or Unspecified,None or Unspecified,None or Unspecified,Standard,,,,,,,,,,,
3135,1274846,13500,1428355,132,1.0,2002,,,9/25/2006 0:00,40XT,40,XT,,,,Skid Steer Loader - 1351.0 to 1601.0 Lb Operating Capacity,Colorado,SSL,Skid Steer Loaders,,OROPS,None or Unspecified,,,,,,,,,,Standard,,,,,,None or Unspecified,None or Unspecified,None or Unspecified,Standard,,,,,,,,,,,
3135,1274848,19750,1323217,132,4.0,2003,,,2/13/2006 0:00,40XT,40,XT,,,,Skid Steer Loader - 1351.0 to 1601.0 Lb Operating Capacity,Florida,SSL,Skid Steer Loaders,,OROPS,None or Unspecified,,,,,,,,,,Standard,,,,,,None or Unspecified,None or Unspecified,None or Unspecified,Standard,,,,,,,,,,,
3135,1274850,10500,1186181,132,1.0,2003,,,9/12/2006 0:00,40XT,40,XT,,,,Skid Steer Loader - 1351.0 to 1601.0 Lb Operating Capacity,Ohio,SSL,Skid Steer Loaders,,OROPS,None or Unspecified,,,,,,,,,,Standard,,,,,,None or Unspecified,None or Unspecified,None or Unspecified,Standard,,,,,,,,,,,
3135,1274851,17500,1302983,132,1.0,2002,,,9/16/2003 0:00,40XT,40,XT,,,,Skid Steer Loader - 1351.0 to 1601.0 Lb Operating Capacity,Ohio,SSL,Skid Steer Loaders,,OROPS,None or Unspecified,,,,,,,,,,Standard,,,,,,None or Unspecified,None or Unspecified,None or Unspecified,Standard,,,,,,,,,,,
3135,1274852,11500,1266048,132,1.0,2002,,,10/1/2004 0:00,40XT,40,XT,,,,Skid Steer Loader - 1351.0 to 1601.0 Lb Operating Capacity,Colorado,SSL,Skid Steer Loaders,,OROPS,None or Unspecified,,,,,,,,,,Standard,,,,,,None or Unspecified,None or Unspecified,None or Unspecified,Standard,,,,,,,,,,,
3135,1274857,13000,1431762,132,2.0,2002,,,12/8/2004 0:00,40XT,40,XT,,,,Skid Steer Loader - 1351.0 to 1601.0 Lb Operating Capacity,Texas,SSL,Skid Steer Loaders,,OROPS,None or Unspecified,,,,,,,,,,Standard,,,,,,None or Unspecified,None or Unspecified,None or Unspecified,Standard,,,,,,,,,,,
3135,1274858,12000,1431762,132,14.0,2002,,,12/9/2005 0:00,40XT,40,XT,,,,Skid Steer Loader - 1351.0 to 1601.0 Lb Operating Capacity,Indiana,SSL,Skid Steer Loaders,,OROPS,None or Unspecified,,,,,,,,,,Standard,,,,,,None or Unspecified,None or Unspecified,None or Unspecified,Standard,,,,,,,,,,,
3135,1274859,12000,1431762,132,2.0,2002,,,11/16/2004 0:00,40XT,40,XT,,,,Skid Steer Loader - 1351.0 to 1601.0 Lb Operating Capacity,Texas,SSL,Skid Steer Loaders,,OROPS,None or Unspecified,,,,,,,,,,Standard,,,,,,None or Unspecified,None or Unspecified,None or Unspecified,Standard,,,,,,,,,,,
3135,1274861,10500,1124948,132,1.0,2002,,,7/11/2007 0:00,40XT,40,XT,,,,Skid Steer Loader - 1351.0 to 1601.0 Lb Operating Capacity,Texas,SSL,Skid Steer Loaders,,OROPS,None or Unspecified,,,,,,,,,,Standard,,,,,,None or Unspecified,None or Unspecified,None or Unspecified,Standard,,,,,,,,,,,
3135,1274939,14000,1264375,132,2.0,2002,,,1/21/2006 0:00,40XT,40,XT,,,,Skid Steer Loader - 1351.0 to 1601.0 Lb Operating Capacity,Ohio,SSL,Skid Steer Loaders,,OROPS,None or Unspecified,,,,,,,,,,Standard,,,,,,None or Unspecified,None or Unspecified,None or Unspecified,Standard,,,,,,,,,,,
3135,1274942,14500,1503449,132,2.0,1000,,,3/17/2004 0:00,40XT,40,XT,,,,Skid Steer Loader - 1351.0 to 1601.0 Lb Operating Capacity,Texas,SSL,Skid Steer Loaders,,OROPS,None or Unspecified,,,,,,,,,,Standard,,,,,,None or Unspecified,None or Unspecified,None or Unspecified,Standard,,,,,,,,,,,
3135,1274943,13000,520863,132,1.0,2003,,,10/9/2003 0:00,40XT,40,XT,,,,Skid Steer Loader - 1351.0 to 1601.0 Lb Operating Capacity,Florida,SSL,Skid Steer Loaders,,OROPS,None or Unspecified,,,,,,,,,,Standard,,,,,,None or Unspecified,None or Unspecified,None or Unspecified,Standard,,,,,,,,,,,
3135,1274946,8000,1436062,132,1.0,2002,,,4/25/2006 0:00,40XT,40,XT,,,,Skid Steer Loader - 1351.0 to 1601.0 Lb Operating Capacity,New York,SSL,Skid Steer Loaders,,OROPS,None or Unspecified,,,,,,,,,,Standard,,,,,,None or Unspecified,None or Unspecified,None or Unspecified,Standard,,,,,,,,,,,
3135,1274948,10000,1405503,132,1.0,2003,,,7/21/2005 0:00,40XT,40,XT,,,,Skid Steer Loader - 1351.0 to 1601.0 Lb Operating Capacity,Texas,SSL,Skid Steer Loaders,,OROPS,None or Unspecified,,,,,,,,,,Standard,,,,,,None or Unspecified,None or Unspecified,None or Unspecified,Standard,,,,,,,,,,,
3135,1274952,13500,1459069,132,2.0,2003,,,2/5/2006 0:00,40XT,40,XT,,,,Skid Steer Loader - 1351.0 to 1601.0 Lb Operating Capacity,Florida,SSL,Skid Steer Loaders,,OROPS,None or Unspecified,,,,,,,,,,Standard,,,,,,None or Unspecified,None or Unspecified,None or Unspecified,Standard,,,,,,,,,,,
3135,1274953,9750,1291777,132,2.0,2003,,,6/7/2006 0:00,40XT,40,XT,,,,Skid Steer Loader - 1351.0 to 1601.0 Lb Operating Capacity,Texas,SSL,Skid Steer Loaders,,OROPS,None or Unspecified,,,,,,,,,,Standard,,,,,,None or Unspecified,None or Unspecified,None or Unspecified,Standard,,,,,,,,,,,
3135,1274954,9000,1502870,132,1.0,2003,,,3/29/2007 0:00,40XT,40,XT,,,,Skid Steer Loader - 1351.0 to 1601.0 Lb Operating Capacity,Texas,SSL,Skid Steer Loaders,,OROPS,None or Unspecified,,,,,,,,,,Standard,,,,,,None or Unspecified,None or Unspecified,None or Unspecified,Standard,,,,,,,,,,,
3135,1274955,14000,1393274,132,2.0,2003,,,1/21/2006 0:00,40XT,40,XT,,,,Skid Steer Loader - 1351.0 to 1601.0 Lb Operating Capacity,Ohio,SSL,Skid Steer Loaders,,OROPS,None or Unspecified,,,,,,,,,,Standard,,,,,,None or Unspecified,None or Unspecified,None or Unspecified,Standard,,,,,,,,,,,
3135,1274957,13500,1497769,132,2.0,2003,,,2/5/2006 0:00,40XT,40,XT,,,,Skid Steer Loader - 1351.0 to 1601.0 Lb Operating Capacity,Florida,SSL,Skid Steer Loaders,,OROPS,None or Unspecified,,,,,,,,,,Standard,,,,,,None or Unspecified,None or Unspecified,None or Unspecified,Standard,,,,,,,,,,,
3135,1274965,9000,1105120,132,1.0,2003,,,3/29/2007 0:00,40XT,40,XT,,,,Skid Steer Loader - 1351.0 to 1601.0 Lb Operating Capacity,Texas,SSL,Skid Steer Loaders,,OROPS,None or Unspecified,,,,,,,,,,Standard,,,,,,None or Unspecified,None or Unspecified,None or Unspecified,Standard,,,,,,,,,,,
3135,1274971,15500,1248958,132,2.0,2003,,,1/21/2006 0:00,40XT,40,XT,,,,Skid Steer Loader - 1351.0 to 1601.0 Lb Operating Capacity,Ohio,SSL,Skid Steer Loaders,,OROPS,None or Unspecified,,,,,,,,,,Standard,,,,,,None or Unspecified,None or Unspecified,None or Unspecified,Standard,,,,,,,,,,,
3135,1274972,14000,1515203,132,1.0,2003,,,9/25/2006 0:00,40XT,40,XT,,,,Skid Steer Loader - 1351.0 to 1601.0 Lb Operating Capacity,Colorado,SSL,Skid Steer Loaders,,OROPS,None or Unspecified,,,,,,,,,,Auxiliary,,,,,,None or Unspecified,None or Unspecified,None or Unspecified,Standard,,,,,,,,,,,
3135,1274974,14000,1463913,132,1.0,2003,,,9/25/2006 0:00,40XT,40,XT,,,,Skid Steer Loader - 1351.0 to 1601.0 Lb Operating Capacity,Colorado,SSL,Skid Steer Loaders,,OROPS,None or Unspecified,,,,,,,,,,Auxiliary,,,,,,None or Unspecified,None or Unspecified,None or Unspecified,Standard,,,,,,,,,,,
3135,1274979,13500,1424563,132,1.0,2003,,,9/25/2006 0:00,40XT,40,XT,,,,Skid Steer Loader - 1351.0 to 1601.0 Lb Operating Capacity,Colorado,SSL,Skid Steer Loaders,,OROPS,None or Unspecified,,,,,,,,,,Standard,,,,,,None or Unspecified,None or Unspecified,None or Unspecified,Standard,,,,,,,,,,,
3135,1274984,11000,529301,132,1.0,2003,,,5/26/2005 0:00,40XT,40,XT,,,,Skid Steer Loader - 1351.0 to 1601.0 Lb Operating Capacity,Florida,SSL,Skid Steer Loaders,,OROPS,None or Unspecified,,,,,,,,,,Standard,,,,,,None or Unspecified,None or Unspecified,None or Unspecified,Standard,,,,,,,,,,,
3135,1274988,10500,1296859,132,1.0,2003,,,5/12/2005 0:00,40XT,40,XT,,,,Skid Steer Loader - 1351.0 to 1601.0 Lb Operating Capacity,Texas,SSL,Skid Steer Loaders,,OROPS,None or Unspecified,,,,,,,,,,Standard,,,,,,None or Unspecified,None or Unspecified,None or Unspecified,Standard,,,,,,,,,,,
3135,1275024,11000,1413621,132,8.0,1000,,,5/28/2008 0:00,40XT,40,XT,,,,Skid Steer Loader - 1351.0 to 1601.0 Lb Operating Capacity,Mississippi,SSL,Skid Steer Loaders,,OROPS,None or Unspecified,,,,,,,,,,Standard,,,,,,None or Unspecified,None or Unspecified,None or Unspecified,Standard,,,,,,,,,,,
3135,1275025,15800,1438760,132,13.0,2003,,,3/20/2004 0:00,40XT,40,XT,,,,Skid Steer Loader - 1351.0 to 1601.0 Lb Operating Capacity,Tennessee,SSL,Skid Steer Loaders,,OROPS,None or Unspecified,,,,,,,,,,Standard,,,,,,None or Unspecified,None or Unspecified,None or Unspecified,Standard,,,,,,,,,,,
3135,1275029,16000,1410217,132,1.0,2004,,,11/2/2006 0:00,40XT,40,XT,,,,Skid Steer Loader - 1351.0 to 1601.0 Lb Operating Capacity,New Mexico,SSL,Skid Steer Loaders,,OROPS,None or Unspecified,,,,,,,,,,Auxiliary,,,,,,None or Unspecified,None or Unspecified,None or Unspecified,Standard,,,,,,,,,,,
3135,1275046,13000,1307863,132,1.0,2004,,,9/17/2008 0:00,40XT,40,XT,,,,Skid Steer Loader - 1351.0 to 1601.0 Lb Operating Capacity,Illinois,SSL,Skid Steer Loaders,,OROPS,None or Unspecified,,,,,,,,,,Standard,,,,,,None or Unspecified,None or Unspecified,None or Unspecified,Standard,,,,,,,,,,,
3135,1275047,16000,1153964,132,1.0,2004,,,11/2/2006 0:00,40XT,40,XT,,,,Skid Steer Loader - 1351.0 to 1601.0 Lb Operating Capacity,New Mexico,SSL,Skid Steer Loaders,,OROPS,None or Unspecified,,,,,,,,,,Standard,,,,,,None or Unspecified,None or Unspecified,None or Unspecified,Standard,,,,,,,,,,,
3135,1275049,8500,1385952,132,2.0,2004,,,8/19/2008 0:00,40XT,40,XT,,,,Skid Steer Loader - 1351.0 to 1601.0 Lb Operating Capacity,Texas,SSL,Skid Steer Loaders,,OROPS,None or Unspecified,,,,,,,,,,Standard,,,,,,None or Unspecified,None or Unspecified,None or Unspecified,Standard,,,,,,,,,,,
3135,1275050,10000,1557773,132,1.0,2004,,,9/12/2006 0:00,40XT,40,XT,,,,Skid Steer Loader - 1351.0 to 1601.0 Lb Operating Capacity,Ohio,SSL,Skid Steer Loaders,,OROPS,None or Unspecified,,,,,,,,,,Standard,,,,,,None or Unspecified,None or Unspecified,None or Unspecified,Standard,,,,,,,,,,,
3135,1276136,11000,1276259,132,1.0,2001,,,9/15/2004 0:00,40XT,40,XT,,,,Skid Steer Loader - 1351.0 to 1601.0 Lb Operating Capacity,Texas,SSL,Skid Steer Loaders,,OROPS,None or Unspecified,,,,,,,,,,Standard,,,,,,None or Unspecified,None or Unspecified,None or Unspecified,Standard,,,,,,,,,,,
3135,1276137,6000,1245830,132,1.0,2002,,,12/10/2009 0:00,40XT,40,XT,,,,Skid Steer Loader - 1351.0 to 1601.0 Lb Operating Capacity,Washington,SSL,Skid Steer Loaders,,OROPS,None or Unspecified,,,,,,,,,,Standard,,,,,,None or Unspecified,None or Unspecified,None or Unspecified,Standard,,,,,,,,,,,
3135,1276138,8000,1466706,132,1.0,2002,2326.0,Medium,6/10/2009 0:00,40XT,40,XT,,,,Skid Steer Loader - 1351.0 to 1601.0 Lb Operating Capacity,Texas,SSL,Skid Steer Loaders,,OROPS,None or Unspecified,,,,,,,,,,Standard,,,,,,None or Unspecified,None or Unspecified,None or Unspecified,Standard,,,,,,,,,,,
3135,1276139,8000,1325260,132,1.0,2002,2255.0,Medium,9/30/2010 0:00,40XT,40,XT,,,,Skid Steer Loader - 1351.0 to 1601.0 Lb Operating Capacity,Tennessee,SSL,Skid Steer Loaders,,OROPS,None or Unspecified,,,,,,,,,,Standard,,,,,,None or Unspecified,None or Unspecified,None or Unspecified,Standard,,,,,,,,,,,
3135,1276141,8000,1259672,132,3.0,2002,,,12/13/2007 0:00,40XT,40,XT,,,,Skid Steer Loader - 1351.0 to 1601.0 Lb Operating Capacity,California,SSL,Skid Steer Loaders,,OROPS,None or Unspecified,,,,,,,,,,Standard,,,,,,None or Unspecified,None or Unspecified,None or Unspecified,Standard,,,,,,,,,,,
3135,1276142,7000,1459109,132,1.0,2002,,,6/4/2010 0:00,40XT,40,XT,,,,Skid Steer Loader - 1351.0 to 1601.0 Lb Operating Capacity,Nevada,SSL,Skid Steer Loaders,,OROPS,None or Unspecified,,,,,,,,,,Standard,,,,,,None or Unspecified,None or Unspecified,None or Unspecified,Standard,,,,,,,,,,,
3135,1276143,5750,1259555,132,4.0,2002,,,8/26/2010 0:00,40XT,40,XT,,,,Skid Steer Loader - 1351.0 to 1601.0 Lb Operating Capacity,New Hampshire,SSL,Skid Steer Loaders,,OROPS,None or Unspecified,,,,,,,,,,Standard,,,,,,None or Unspecified,None or Unspecified,None or Unspecified,Standard,,,,,,,,,,,
3135,1276144,7000,1123698,132,3.0,2002,,,9/9/2010 0:00,40XT,40,XT,,,,Skid Steer Loader - 1351.0 to 1601.0 Lb Operating Capacity,California,SSL,Skid Steer Loaders,,OROPS,None or Unspecified,,,,,,,,,,Standard,,,,,,None or Unspecified,None or Unspecified,None or Unspecified,Standard,,,,,,,,,,,
3135,1276145,7750,1502631,132,2.0,2002,,,12/11/2007 0:00,40XT,40,XT,,,,Skid Steer Loader - 1351.0 to 1601.0 Lb Operating Capacity,Florida,SSL,Skid Steer Loaders,,OROPS,None or Unspecified,,,,,,,,,,Standard,,,,,,None or Unspecified,None or Unspecified,None or Unspecified,Standard,,,,,,,,,,,
3135,1276146,8250,1191238,132,2.0,2002,,,12/11/2007 0:00,40XT,40,XT,,,,Skid Steer Loader - 1351.0 to 1601.0 Lb Operating Capacity,Florida,SSL,Skid Steer Loaders,,OROPS,None or Unspecified,,,,,,,,,,Standard,,,,,,None or Unspecified,None or Unspecified,None or Unspecified,Standard,,,,,,,,,,,
3135,1276147,6000,1281028,132,10.0,2002,,,6/23/2010 0:00,40XT,40,XT,,,,Skid Steer Loader - 1351.0 to 1601.0 Lb Operating Capacity,Louisiana,SSL,Skid Steer Loaders,,OROPS,None or Unspecified,,,,,,,,,,Standard,,,,,,None or Unspecified,None or Unspecified,None or Unspecified,Standard,,,,,,,,,,,
3135,1276148,8750,1451869,132,99.0,2002,,,7/29/2010 0:00,40XT,40,XT,,,,Skid Steer Loader - 1351.0 to 1601.0 Lb Operating Capacity,Nebraska,SSL,Skid Steer Loaders,,OROPS,None or Unspecified,,,,,,,,,,Standard,,,,,,None or Unspecified,None or Unspecified,None or Unspecified,Standard,,,,,,,,,,,
3135,1276149,7500,1201333,132,1.0,2002,,,3/26/2009 0:00,40XT,40,XT,,,,Skid Steer Loader - 1351.0 to 1601.0 Lb Operating Capacity,Georgia,SSL,Skid Steer Loaders,,OROPS,None or Unspecified,,,,,,,,,,Standard,,,,,,None or Unspecified,None or Unspecified,None or Unspecified,Standard,,,,,,,,,,,
3135,1276150,10250,1395909,132,4.0,2002,,,2/12/2008 0:00,40XT,40,XT,,,,Skid Steer Loader - 1351.0 to 1601.0 Lb Operating Capacity,Florida,SSL,Skid Steer Loaders,,OROPS,None or Unspecified,,,,,,,,,,Standard,,,,,,None or Unspecified,None or Unspecified,None or Unspecified,Standard,,,,,,,,,,,
3135,1276151,5500,1380345,132,20.0,2002,,,10/29/2009 0:00,40XT,40,XT,,,,Skid Steer Loader - 1351.0 to 1601.0 Lb Operating Capacity,Arkansas,SSL,Skid Steer Loaders,,OROPS,None or Unspecified,,,,,,,,,,Standard,,,,,,None or Unspecified,None or Unspecified,None or Unspecified,Standard,,,,,,,,,,,
3135,1276152,7250,1380345,132,8.0,2002,2104.0,Medium,11/18/2009 0:00,40XT,40,XT,,,,Skid Steer Loader - 1351.0 to 1601.0 Lb Operating Capacity,Mississippi,SSL,Skid Steer Loaders,,OROPS,None or Unspecified,,,,,,,,,,Standard,,,,,,None or Unspecified,None or Unspecified,None or Unspecified,Standard,,,,,,,,,,,
3135,1276153,7500,1309251,132,1.0,2002,,,6/16/2010 0:00,40XT,40,XT,,,,Skid Steer Loader - 1351.0 to 1601.0 Lb Operating Capacity,Kentucky,SSL,Skid Steer Loaders,,OROPS,None or Unspecified,,,,,,,,,,Standard,,,,,,None or Unspecified,None or Unspecified,None or Unspecified,Standard,,,,,,,,,,,
3135,1276165,11000,1390254,132,4.0,2002,855.0,Low,2/12/2008 0:00,40XT,40,XT,,,,Skid Steer Loader - 1351.0 to 1601.0 Lb Operating Capacity,Florida,SSL,Skid Steer Loaders,,OROPS,None or Unspecified,,,,,,,,,,Standard,,,,,,None or Unspecified,None or Unspecified,None or Unspecified,Standard,,,,,,,,,,,
3135,1276219,9000,1450605,132,1.0,2002,790.0,Low,12/7/2010 0:00,40XT,40,XT,,,,Skid Steer Loader - 1351.0 to 1601.0 Lb Operating Capacity,North Carolina,SSL,Skid Steer Loaders,,OROPS,None or Unspecified,,,,,,,,,,Standard,,,,,,None or Unspecified,None or Unspecified,None or Unspecified,Standard,,,,,,,,,,,
3135,1276323,19750,1095055,132,4.0,2003,,,2/14/2006 0:00,40XT,40,XT,,,,Skid Steer Loader - 1351.0 to 1601.0 Lb Operating Capacity,Florida,SSL,Skid Steer Loaders,,OROPS,None or Unspecified,,,,,,,,,,Standard,,,,,,None or Unspecified,None or Unspecified,None or Unspecified,Standard,,,,,,,,,,,
3135,1276324,6750,1292253,132,3.0,2002,,,8/27/2009 0:00,40XT,40,XT,,,,Skid Steer Loader - 1351.0 to 1601.0 Lb Operating Capacity,California,SSL,Skid Steer Loaders,,OROPS,None or Unspecified,,,,,,,,,,Standard,,,,,,None or Unspecified,None or Unspecified,None or Unspecified,Standard,,,,,,,,,,,
3135,1276325,13250,1171233,132,15.0,2002,,,3/8/2007 0:00,40XT,40,XT,,,,Skid Steer Loader - 1351.0 to 1601.0 Lb Operating Capacity,Pennsylvania,SSL,Skid Steer Loaders,,OROPS,None or Unspecified,,,,,,,,,,Standard,,,,,,None or Unspecified,None or Unspecified,None or Unspecified,Standard,,,,,,,,,,,
3135,1276326,7500,1385875,132,1.0,2002,,,8/18/2010 0:00,40XT,40,XT,,,,Skid Steer Loader - 1351.0 to 1601.0 Lb Operating Capacity,Florida,SSL,Skid Steer Loaders,,OROPS,None or Unspecified,,,,,,,,,,Standard,,,,,,None or Unspecified,None or Unspecified,None or Unspecified,Standard,,,,,,,,,,,
3135,1276328,11000,1117867,132,1.0,2002,1777.0,Medium,2/18/2011 0:00,40XT,40,XT,,,,Skid Steer Loader - 1351.0 to 1601.0 Lb Operating Capacity,Florida,SSL,Skid Steer Loaders,,OROPS,None or Unspecified,,,,,,,,,,Standard,,,,,,None or Unspecified,None or Unspecified,None or Unspecified,Standard,,,,,,,,,,,
3135,1276329,13000,1080459,132,2.0,2002,,,12/7/2004 0:00,40XT,40,XT,,,,Skid Steer Loader - 1351.0 to 1601.0 Lb Operating Capacity,Texas,SSL,Skid Steer Loaders,,OROPS,None or Unspecified,,,,,,,,,,Standard,,,,,,None or Unspecified,None or Unspecified,None or Unspecified,Standard,,,,,,,,,,,
3135,1276368,11000,1466733,132,1.0,2002,225.0,Low,6/22/2011 0:00,40XT,40,XT,,,,Skid Steer Loader - 1351.0 to 1601.0 Lb Operating Capacity,Texas,SSL,Skid Steer Loaders,,OROPS,None or Unspecified,,,,,,,,,,Standard,,,,,,None or Unspecified,None or Unspecified,None or Unspecified,Standard,,,,,,,,,,,
3135,1276369,10000,1466733,132,1.0,2002,224.0,Low,4/13/2011 0:00,40XT,40,XT,,,,Skid Steer Loader - 1351.0 to 1601.0 Lb Operating Capacity,Texas,SSL,Skid Steer Loaders,,OROPS,None or Unspecified,,,,,,,,,,Standard,,,,,,None or Unspecified,None or Unspecified,None or Unspecified,Standard,,,,,,,,,,,
3135,1276370,8750,1550092,132,2.0,2003,,,12/5/2007 0:00,40XT,40,XT,,,,Skid Steer Loader - 1351.0 to 1601.0 Lb Operating Capacity,Texas,SSL,Skid Steer Loaders,,OROPS,None or Unspecified,,,,,,,,,,Standard,,,,,,None or Unspecified,None or Unspecified,None or Unspecified,Standard,,,,,,,,,,,
3135,1276371,9500,1509443,132,13.0,2003,1429.0,Low,6/4/2011 0:00,40XT,40,XT,,,,Skid Steer Loader - 1351.0 to 1601.0 Lb Operating Capacity,Tennessee,SSL,Skid Steer Loaders,,OROPS,None or Unspecified,,,,,,,,,,Standard,,,,,,None or Unspecified,None or Unspecified,None or Unspecified,Standard,,,,,,,,,,,
3135,1276372,13500,1340546,132,2.0,2003,,,2/8/2006 0:00,40XT,40,XT,,,,Skid Steer Loader - 1351.0 to 1601.0 Lb Operating Capacity,Florida,SSL,Skid Steer Loaders,,OROPS,None or Unspecified,,,,,,,,,,Standard,,,,,,None or Unspecified,None or Unspecified,None or Unspecified,Standard,,,,,,,,,,,
3135,1276373,13500,1269973,132,2.0,2003,,,2/8/2006 0:00,40XT,40,XT,,,,Skid Steer Loader - 1351.0 to 1601.0 Lb Operating Capacity,Florida,SSL,Skid Steer Loaders,,OROPS,None or Unspecified,,,,,,,,,,Standard,,,,,,None or Unspecified,None or Unspecified,None or Unspecified,Standard,,,,,,,,,,,
3135,1276387,7500,1152291,132,1.0,2003,,,6/4/2010 0:00,40XT,40,XT,,,,Skid Steer Loader - 1351.0 to 1601.0 Lb Operating Capacity,Nevada,SSL,Skid Steer Loaders,,OROPS,None or Unspecified,,,,,,,,,,Standard,,,,,,None or Unspecified,None or Unspecified,None or Unspecified,Standard,,,,,,,,,,,
3135,1276388,13500,1114828,132,1.0,2003,,,2/24/2006 0:00,40XT,40,XT,,,,Skid Steer Loader - 1351.0 to 1601.0 Lb Operating Capacity,Florida,SSL,Skid Steer Loaders,,OROPS,None or Unspecified,,,,,,,,,,Standard,,,,,,None or Unspecified,None or Unspecified,None or Unspecified,Standard,,,,,,,,,,,
3135,1276389,13000,1406439,132,1.0,2003,876.0,Low,12/16/2008 0:00,40XT,40,XT,,,,Skid Steer Loader - 1351.0 to 1601.0 Lb Operating Capacity,Washington,SSL,Skid Steer Loaders,,OROPS,None or Unspecified,,,,,,,,,,Standard,,,,,,None or Unspecified,None or Unspecified,None or Unspecified,Standard,,,,,,,,,,,
3135,1276390,13500,1296674,132,1.0,2003,367.0,Low,3/15/2011 0:00,40XT,40,XT,,,,Skid Steer Loader - 1351.0 to 1601.0 Lb Operating Capacity,Colorado,SSL,Skid Steer Loaders,,OROPS,None or Unspecified,,,,,,,,,,Standard,,,,,,None or Unspecified,None or Unspecified,None or Unspecified,Standard,,,,,,,,,,,
3135,1276391,8000,1279381,132,1.0,2003,,,6/4/2010 0:00,40XT,40,XT,,,,Skid Steer Loader - 1351.0 to 1601.0 Lb Operating Capacity,Nevada,SSL,Skid Steer Loaders,,OROPS,None or Unspecified,,,,,,,,,,Standard,,,,,,None or Unspecified,None or Unspecified,None or Unspecified,Standard,,,,,,,,,,,
3135,1276392,11000,1304734,132,8.0,2003,520.0,Low,5/29/2008 0:00,40XT,40,XT,,,,Skid Steer Loader - 1351.0 to 1601.0 Lb Operating Capacity,Mississippi,SSL,Skid Steer Loaders,,OROPS,None or Unspecified,,,,,,,,,,Standard,,,,,,None or Unspecified,None or Unspecified,None or Unspecified,Standard,,,,,,,,,,,
3135,1276393,9000,1153153,132,1.0,2003,9738.0,High,12/1/2010 0:00,40XT,40,XT,,,,Skid Steer Loader - 1351.0 to 1601.0 Lb Operating Capacity,Texas,SSL,Skid Steer Loaders,,OROPS,None or Unspecified,,,,,,,,,,Standard,,,,,,None or Unspecified,None or Unspecified,None or Unspecified,Standard,,,,,,,,,,,
3135,1276394,5000,1329530,132,1.0,2003,,,9/30/2009 0:00,40XT,40,XT,,,,Skid Steer Loader - 1351.0 to 1601.0 Lb Operating Capacity,Maryland,SSL,Skid Steer Loaders,,OROPS,None or Unspecified,,,,,,,,,,Standard,,,,,,None or Unspecified,None or Unspecified,None or Unspecified,Standard,,,,,,,,,,,
3135,1276396,8000,1439374,132,1.0,2003,,,6/4/2010 0:00,40XT,40,XT,,,,Skid Steer Loader - 1351.0 to 1601.0 Lb Operating Capacity,Nevada,SSL,Skid Steer Loaders,,OROPS,None or Unspecified,,,,,,,,,,Standard,,,,,,None or Unspecified,None or Unspecified,None or Unspecified,Standard,,,,,,,,,,,
3135,1276398,14000,1428176,132,1.0,2003,,,2/24/2006 0:00,40XT,40,XT,,,,Skid Steer Loader - 1351.0 to 1601.0 Lb Operating Capacity,Florida,SSL,Skid Steer Loaders,,OROPS,None or Unspecified,,,,,,,,,,Standard,,,,,,None or Unspecified,None or Unspecified,None or Unspecified,Standard,,,,,,,,,,,
3135,1276417,10500,393533,132,3.0,2003,,,10/19/2006 0:00,40XT,40,XT,,,,Skid Steer Loader - 1351.0 to 1601.0 Lb Operating Capacity,California,SSL,Skid Steer Loaders,,OROPS,None or Unspecified,,,,,,,,,,Standard,,,,,,None or Unspecified,None or Unspecified,None or Unspecified,Standard,,,,,,,,,,,
3135,1276418,6500,1502325,132,1.0,2003,,,3/19/2010 0:00,40XT,40,XT,,,,Skid Steer Loader - 1351.0 to 1601.0 Lb Operating Capacity,Minnesota,SSL,Skid Steer Loaders,,OROPS,None or Unspecified,,,,,,,,,,Standard,,,,,,None or Unspecified,None or Unspecified,None or Unspecified,Standard,,,,,,,,,,,
3135,1276419,11000,1226856,132,1.0,2003,689.0,Low,6/22/2011 0:00,40XT,40,XT,,,,Skid Steer Loader - 1351.0 to 1601.0 Lb Operating Capacity,Texas,SSL,Skid Steer Loaders,,OROPS,None or Unspecified,,,,,,,,,,Standard,,,,,,None or Unspecified,None or Unspecified,None or Unspecified,Standard,,,,,,,,,,,
3135,1276420,10000,1226856,132,1.0,2003,,,4/13/2011 0:00,40XT,40,XT,,,,Skid Steer Loader - 1351.0 to 1601.0 Lb Operating Capacity,Texas,SSL,Skid Steer Loaders,,OROPS,None or Unspecified,,,,,,,,,,Standard,,,,,,None or Unspecified,None or Unspecified,None or Unspecified,Standard,,,,,,,,,,,
3135,1276421,7500,1519590,132,2.0,2003,,,12/5/2007 0:00,40XT,40,XT,,,,Skid Steer Loader - 1351.0 to 1601.0 Lb Operating Capacity,Texas,SSL,Skid Steer Loaders,,OROPS,None or Unspecified,,,,,,,,,,Standard,,,,,,None or Unspecified,None or Unspecified,None or Unspecified,Standard,,,,,,,,,,,
3135,1276422,13000,1440966,132,2.0,2004,,,1/13/2007 0:00,40XT,40,XT,,,,Skid Steer Loader - 1351.0 to 1601.0 Lb Operating Capacity,Ohio,SSL,Skid Steer Loaders,,OROPS,None or Unspecified,,,,,,,,,,Standard,,,,,,None or Unspecified,None or Unspecified,None or Unspecified,Standard,,,,,,,,,,,
3135,1276423,7500,1282438,132,99.0,2004,800.0,Low,3/12/2009 0:00,40XT,40,XT,,,,Skid Steer Loader - 1351.0 to 1601.0 Lb Operating Capacity,Arkansas,SSL,Skid Steer Loaders,,OROPS,None or Unspecified,,,,,,,,,,Standard,,,,,,None or Unspecified,None or Unspecified,None or Unspecified,Standard,,,,,,,,,,,
3135,1276424,10500,1282438,132,8.0,2004,800.0,Low,4/2/2009 0:00,40XT,40,XT,,,,Skid Steer Loader - 1351.0 to 1601.0 Lb Operating Capacity,Mississippi,SSL,Skid Steer Loaders,,OROPS,None or Unspecified,,,,,,,,,,Standard,,,,,,None or Unspecified,None or Unspecified,None or Unspecified,Standard,,,,,,,,,,,
3135,1276425,9000,1307345,132,15.0,2004,,,5/6/2010 0:00,40XT,40,XT,,,,Skid Steer Loader - 1351.0 to 1601.0 Lb Operating Capacity,New York,SSL,Skid Steer Loaders,,OROPS,None or Unspecified,,,,,,,,,,Standard,,,,,,None or Unspecified,None or Unspecified,None or Unspecified,Standard,,,,,,,,,,,
3135,1276426,11000,1204404,132,1.0,2003,838.0,Low,10/1/2008 0:00,40XT,40,XT,,,,Skid Steer Loader - 1351.0 to 1601.0 Lb Operating Capacity,Maryland,SSL,Skid Steer Loaders,,OROPS,None or Unspecified,,,,,,,,,,Standard,,,,,,None or Unspecified,None or Unspecified,None or Unspecified,Standard,,,,,,,,,,,
3135,1276428,9000,1166547,132,3.0,2004,,,12/13/2007 0:00,40XT,40,XT,,,,Skid Steer Loader - 1351.0 to 1601.0 Lb Operating Capacity,California,SSL,Skid Steer Loaders,,OROPS,None or Unspecified,,,,,,,,,,Standard,,,,,,None or Unspecified,None or Unspecified,None or Unspecified,Standard,,,,,,,,,,,
3135,1276429,8750,1125976,132,99.0,2004,6622.0,High,8/4/2011 0:00,40XT,40,XT,,,,Skid Steer Loader - 1351.0 to 1601.0 Lb Operating Capacity,Texas,SSL,Skid Steer Loaders,,OROPS,None or Unspecified,,,,,,,,,,Standard,,,,,,None or Unspecified,None or Unspecified,None or Unspecified,Standard,,,,,,,,,,,
3135,1276449,12000,1259861,132,1.0,2004,,,3/11/2008 0:00,40XT,40,XT,,,,Skid Steer Loader - 1351.0 to 1601.0 Lb Operating Capacity,Colorado,SSL,Skid Steer Loaders,,OROPS,None or Unspecified,,,,,,,,,,Standard,,,,,,None or Unspecified,None or Unspecified,None or Unspecified,Standard,,,,,,,,,,,
3135,1276451,7500,1294881,132,99.0,2004,,,8/13/2009 0:00,40XT,40,XT,,,,Skid Steer Loader - 1351.0 to 1601.0 Lb Operating Capacity,New York,SSL,Skid Steer Loaders,,OROPS,None or Unspecified,,,,,,,,,,Auxiliary,,,,,,None or Unspecified,None or Unspecified,None or Unspecified,Standard,,,,,,,,,,,
3135,1276453,13000,1467948,132,14.0,2004,1777.0,Medium,3/25/2011 0:00,40XT,40,XT,,,,Skid Steer Loader - 1351.0 to 1601.0 Lb Operating Capacity,Indiana,SSL,Skid Steer Loaders,,OROPS,None or Unspecified,,,,,,,,,,Standard,,,,,,None or Unspecified,None or Unspecified,None or Unspecified,Standard,,,,,,,,,,,
3135,1276455,9500,1118993,132,1.0,2004,,,6/26/2008 0:00,40XT,40,XT,,,,Skid Steer Loader - 1351.0 to 1601.0 Lb Operating Capacity,Colorado,SSL,Skid Steer Loaders,,OROPS,None or Unspecified,,,,,,,,,,Standard,,,,,,None or Unspecified,None or Unspecified,None or Unspecified,Standard,,,,,,,,,,,
3135,1276470,11500,1105196,132,2.0,1000,,,5/24/2006 0:00,40XT,40,XT,,,,Skid Steer Loader - 1351.0 to 1601.0 Lb Operating Capacity,Florida,SSL,Skid Steer Loaders,,OROPS,None or Unspecified,,,,,,,,,,Standard,,,,,,None or Unspecified,None or Unspecified,None or Unspecified,Standard,,,,,,,,,,,
3135,1276471,12500,1327049,132,1.0,2005,,,12/8/2005 0:00,40XT,40,XT,,,,Skid Steer Loader - 1351.0 to 1601.0 Lb Operating Capacity,Texas,SSL,Skid Steer Loaders,,OROPS,None or Unspecified,,,,,,,,,,Standard,,,,,,None or Unspecified,None or Unspecified,None or Unspecified,Standard,,,,,,,,,,,
3135,1276479,10500,605272,132,2.0,2004,,,2/28/2007 0:00,40XT,40,XT,,,,Skid Steer Loader - 1351.0 to 1601.0 Lb Operating Capacity,Texas,SSL,Skid Steer Loaders,,OROPS,None or Unspecified,,,,,,,,,,Standard,,,,,,None or Unspecified,None or Unspecified,None or Unspecified,Standard,,,,,,,,,,,
3135,1276481,14000,1477531,132,1.0,2004,,,4/5/2007 0:00,40XT,40,XT,,,,Skid Steer Loader - 1351.0 to 1601.0 Lb Operating Capacity,Maryland,SSL,Skid Steer Loaders,,OROPS,None or Unspecified,,,,,,,,,,Standard,,,,,,None or Unspecified,None or Unspecified,None or Unspecified,Standard,,,,,,,,,,,
3135,1276482,12000,1324790,132,14.0,2004,,,9/22/2006 0:00,40XT,40,XT,,,,Skid Steer Loader - 1351.0 to 1601.0 Lb Operating Capacity,Indiana,SSL,Skid Steer Loaders,,OROPS,None or Unspecified,,,,,,,,,,Standard,,,,,,None or Unspecified,None or Unspecified,None or Unspecified,Standard,,,,,,,,,,,
3135,1276483,15500,1347973,132,4.0,2004,,,2/8/2010 0:00,40XT,40,XT,,,,Skid Steer Loader - 1351.0 to 1601.0 Lb Operating Capacity,Florida,SSL,Skid Steer Loaders,,OROPS,None or Unspecified,,,,,,,,,,Standard,,,,,,None or Unspecified,None or Unspecified,None or Unspecified,Standard,,,,,,,,,,,
3135,1276484,15500,1347973,132,4.0,2004,60.0,Low,2/9/2010 0:00,40XT,40,XT,,,,Skid Steer Loader - 1351.0 to 1601.0 Lb Operating Capacity,Florida,SSL,Skid Steer Loaders,,OROPS,None or Unspecified,,,,,,,,,,Standard,,,,,,None or Unspecified,None or Unspecified,None or Unspecified,Standard,,,,,,,,,,,
3135,1276485,13000,1389400,132,2.0,2004,,,1/13/2007 0:00,40XT,40,XT,,,,Skid Steer Loader - 1351.0 to 1601.0 Lb Operating Capacity,Ohio,SSL,Skid Steer Loaders,,OROPS,None or Unspecified,,,,,,,,,,Standard,,,,,,None or Unspecified,None or Unspecified,None or Unspecified,Standard,,,,,,,,,,,
3135,1276487,15000,1245351,132,1.0,2004,,,9/29/2005 0:00,40XT,40,XT,,,,Skid Steer Loader - 1351.0 to 1601.0 Lb Operating Capacity,Texas,SSL,Skid Steer Loaders,,OROPS,None or Unspecified,,,,,,,,,,Standard,,,,,,None or Unspecified,None or Unspecified,None or Unspecified,Standard,,,,,,,,,,,
3135,1276489,14000,1108946,132,1.0,2004,,,9/25/2006 0:00,40XT,40,XT,,,,Skid Steer Loader - 1351.0 to 1601.0 Lb Operating Capacity,Colorado,SSL,Skid Steer Loaders,,OROPS,None or Unspecified,,,,,,,,,,Standard,,,,,,None or Unspecified,None or Unspecified,None or Unspecified,Standard,,,,,,,,,,,
3135,1276490,14000,1538109,132,1.0,2004,291.0,Low,6/7/2011 0:00,40XT,40,XT,,,,Skid Steer Loader - 1351.0 to 1601.0 Lb Operating Capacity,Colorado,SSL,Skid Steer Loaders,,OROPS,None or Unspecified,,,,,,,,,,Standard,,,,,,None or Unspecified,None or Unspecified,None or Unspecified,Standard,,,,,,,,,,,
3135,1276494,11500,1530743,132,2.0,2004,,,5/24/2006 0:00,40XT,40,XT,,,,Skid Steer Loader - 1351.0 to 1601.0 Lb Operating Capacity,Florida,SSL,Skid Steer Loaders,,OROPS,None or Unspecified,,,,,,,,,,Standard,,,,,,None or Unspecified,None or Unspecified,None or Unspecified,Standard,,,,,,,,,,,
3135,1276497,5400,1215349,132,4.0,2005,,,2/8/2011 0:00,40XT,40,XT,,,,Skid Steer Loader - 1351.0 to 1601.0 Lb Operating Capacity,Florida,SSL,Skid Steer Loaders,,OROPS,None or Unspecified,,,,,,,,,,Standard,,,,,,None or Unspecified,None or Unspecified,None or Unspecified,Standard,,,,,,,,,,,
3135,1276498,5400,1215349,132,4.0,2003,,,2/7/2011 0:00,40XT,40,XT,,,,Skid Steer Loader - 1351.0 to 1601.0 Lb Operating Capacity,Florida,SSL,Skid Steer Loaders,,OROPS,None or Unspecified,,,,,,,,,,Standard,,,,,,None or Unspecified,None or Unspecified,None or Unspecified,Standard,,,,,,,,,,,
3135,1276499,9000,1363319,132,3.0,2005,,,7/14/2011 0:00,40XT,40,XT,,,,Skid Steer Loader - 1351.0 to 1601.0 Lb Operating Capacity,California,SSL,Skid Steer Loaders,,OROPS,None or Unspecified,,,,,,,,,,Standard,,,,,,None or Unspecified,None or Unspecified,None or Unspecified,Standard,,,,,,,,,,,
3135,1276569,14000,1250071,132,1.0,2004,,,9/25/2006 0:00,40XT,40,XT,,,,Skid Steer Loader - 1351.0 to 1601.0 Lb Operating Capacity,Colorado,SSL,Skid Steer Loaders,,OROPS,None or Unspecified,,,,,,,,,,Standard,,,,,,None or Unspecified,None or Unspecified,None or Unspecified,Standard,,,,,,,,,,,
3135,1276616,7200,1197619,132,21.0,1000,1963.0,Low,2/23/2008 0:00,40XT,40,XT,,,,Skid Steer Loader - 1351.0 to 1601.0 Lb Operating Capacity,Maine,SSL,Skid Steer Loaders,,OROPS,None or Unspecified,,,,,,,,,,Standard,,,,,,None or Unspecified,None or Unspecified,None or Unspecified,Standard,,,,,,,,,,,
3135,2196466,7750,1685313,136,2.0,1000,,,12/11/2007 0:00,40XT,40,XT,,,,Skid Steer Loader - 1351.0 to 1601.0 Lb Operating Capacity,Florida,SSL,Skid Steer Loaders,,EROPS,None or Unspecified,,,,,,,,,,Auxiliary,,,,,,None or Unspecified,None or Unspecified,None or Unspecified,Standard,,,,,,,,,,,
3135,2196545,7500,1744569,136,,1000,,,8/13/2009 0:00,40XT,40,XT,,,,Skid Steer Loader - 1351.0 to 1601.0 Lb Operating Capacity,New York,SSL,Skid Steer Loaders,,OROPS,None or Unspecified,,,,,,,,,,Standard,,,,,,None or Unspecified,None or Unspecified,None or Unspecified,Standard,,,,,,,,,,,
3135,2196548,13750,1776796,136,,2004,,,8/21/2007 0:00,40XT,40,XT,,,,Skid Steer Loader - 1351.0 to 1601.0 Lb Operating Capacity,Iowa,SSL,Skid Steer Loaders,,OROPS,None or Unspecified,,,,,,,,,,Standard,,,,,,None or Unspecified,None or Unspecified,None or Unspecified,Standard,,,,,,,,,,,
3135,2197065,11000,1234163,136,2.0,1000,,,12/8/2007 0:00,40XT,40,XT,,,,Skid Steer Loader - 1351.0 to 1601.0 Lb Operating Capacity,Pennsylvania,SSL,Skid Steer Loaders,,EROPS,None or Unspecified,,,,,,,,,,Auxiliary,,,,,,None or Unspecified,None or Unspecified,None or Unspecified,Standard,,,,,,,,,,,
3135,2198308,5250,1669496,136,,1000,,,1/28/2009 0:00,40XT,40,XT,,,,Skid Steer Loader - 1351.0 to 1601.0 Lb Operating Capacity,New York,SSL,Skid Steer Loaders,,OROPS,None or Unspecified,,,,,,,,,,Standard,,,,,,None or Unspecified,None or Unspecified,None or Unspecified,Standard,,,,,,,,,,,
3135,2201821,10000,1744894,136,,2004,1213.0,Medium,9/4/2008 0:00,40XT,40,XT,,,,Skid Steer Loader - 1351.0 to 1601.0 Lb Operating Capacity,Colorado,SSL,Skid Steer Loaders,,OROPS,None or Unspecified,,,,,,,,,,Standard,,,,,,None or Unspecified,None or Unspecified,None or Unspecified,Standard,,,,,,,,,,,
3135,2203038,9000,1504217,136,1.0,2001,,,9/13/2007 0:00,40XT,40,XT,,,,Skid Steer Loader - 1351.0 to 1601.0 Lb Operating Capacity,Arizona,SSL,Skid Steer Loaders,,OROPS,None or Unspecified,,,,,,,,,,Auxiliary,,,,,,None or Unspecified,None or Unspecified,None or Unspecified,Standard,,,,,,,,,,,
3135,2203040,10000,1777207,136,,1000,,,10/9/2007 0:00,40XT,40,XT,,,,Skid Steer Loader - 1351.0 to 1601.0 Lb Operating Capacity,Florida,SSL,Skid Steer Loaders,,OROPS,None or Unspecified,,,,,,,,,,Standard,,,,,,None or Unspecified,None or Unspecified,None or Unspecified,Standard,,,,,,,,,,,
3135,2203042,10000,1496307,136,2.0,2002,,,8/10/2007 0:00,40XT,40,XT,,,,Skid Steer Loader - 1351.0 to 1601.0 Lb Operating Capacity,South Carolina,SSL,Skid Steer Loaders,,OROPS,None or Unspecified,,,,,,,,,,Auxiliary,,,,,,None or Unspecified,None or Unspecified,None or Unspecified,Standard,,,,,,,,,,,
3135,2203044,8000,1528741,136,1.0,2004,2326.0,Medium,6/10/2009 0:00,40XT,40,XT,,,,Skid Steer Loader - 1351.0 to 1601.0 Lb Operating Capacity,Texas,SSL,Skid Steer Loaders,,OROPS,None or Unspecified,,,,,,,,,,Auxiliary,,,,,,None or Unspecified,None or Unspecified,None or Unspecified,Standard,,,,,,,,,,,
3135,2203048,7000,1108778,136,1.0,2002,,,6/4/2010 0:00,40XT,40,XT,,,,Skid Steer Loader - 1351.0 to 1601.0 Lb Operating Capacity,Nevada,SSL,Skid Steer Loaders,,OROPS,None or Unspecified,,,,,,,,,,Auxiliary,,,,,,None or Unspecified,None or Unspecified,None or Unspecified,Standard,,,,,,,,,,,
3135,2203050,9500,1398972,136,1.0,2002,,,5/1/2008 0:00,40XT,40,XT,,,,Skid Steer Loader - 1351.0 to 1601.0 Lb Operating Capacity,West Virginia,SSL,Skid Steer Loaders,,OROPS,None or Unspecified,,,,,,,,,,Standard,,,,,,None or Unspecified,None or Unspecified,None or Unspecified,Standard,,,,,,,,,,,
3135,2203051,8000,1711299,136,,1000,,,7/11/2008 0:00,40XT,40,XT,,,,Skid Steer Loader - 1351.0 to 1601.0 Lb Operating Capacity,Texas,SSL,Skid Steer Loaders,,OROPS,None or Unspecified,,,,,,,,,,Standard,,,,,,None or Unspecified,None or Unspecified,None or Unspecified,Standard,,,,,,,,,,,
3135,2203053,9000,1719565,136,,2002,,,9/15/2007 0:00,40XT,40,XT,,,,Skid Steer Loader - 1351.0 to 1601.0 Lb Operating Capacity,New Hampshire,SSL,Skid Steer Loaders,,OROPS,None or Unspecified,,,,,,,,,,Auxiliary,,,,,,None or Unspecified,None or Unspecified,None or Unspecified,Standard,,,,,,,,,,,
3135,2203054,8500,1710318,136,,1000,,,11/16/2007 0:00,40XT,40,XT,,,,Skid Steer Loader - 1351.0 to 1601.0 Lb Operating Capacity,South Carolina,SSL,Skid Steer Loaders,,OROPS,None or Unspecified,,,,,,,,,,Standard,,,,,,None or Unspecified,None or Unspecified,None or Unspecified,Standard,,,,,,,,,,,
3135,2203055,9500,1693934,136,,2002,,,9/15/2007 0:00,40XT,40,XT,,,,Skid Steer Loader - 1351.0 to 1601.0 Lb Operating Capacity,New Hampshire,SSL,Skid Steer Loaders,,OROPS,None or Unspecified,,,,,,,,,,Auxiliary,,,,,,None or Unspecified,None or Unspecified,None or Unspecified,Standard,,,,,,,,,,,
3135,2203056,9000,1671849,136,,2002,,,10/20/2007 0:00,40XT,40,XT,,,,Skid Steer Loader - 1351.0 to 1601.0 Lb Operating Capacity,Ohio,SSL,Skid Steer Loaders,,EROPS,None or Unspecified,,,,,,,,,,Auxiliary,,,,,,None or Unspecified,None or Unspecified,None or Unspecified,Standard,,,,,,,,,,,
3135,2203059,8250,1735180,136,,1000,,,12/11/2007 0:00,40XT,40,XT,,,,Skid Steer Loader - 1351.0 to 1601.0 Lb Operating Capacity,Florida,SSL,Skid Steer Loaders,,EROPS,None or Unspecified,,,,,,,,,,Auxiliary,,,,,,None or Unspecified,None or Unspecified,None or Unspecified,Standard,,,,,,,,,,,
3135,2203060,7000,1683230,136,,2002,,,8/23/2007 0:00,40XT,40,XT,,,,Skid Steer Loader - 1351.0 to 1601.0 Lb Operating Capacity,New York,SSL,Skid Steer Loaders,,OROPS,None or Unspecified,,,,,,,,,,Auxiliary,,,,,,None or Unspecified,None or Unspecified,None or Unspecified,Standard,,,,,,,,,,,
3135,2203068,7500,1272762,136,1.0,1000,,,3/26/2009 0:00,40XT,40,XT,,,,Skid Steer Loader - 1351.0 to 1601.0 Lb Operating Capacity,Georgia,SSL,Skid Steer Loaders,,OROPS,None or Unspecified,,,,,,,,,,Auxiliary,,,,,,None or Unspecified,None or Unspecified,None or Unspecified,Standard,,,,,,,,,,,
3135,2203069,10250,1425697,136,4.0,1000,,,2/11/2008 0:00,40XT,40,XT,,,,Skid Steer Loader - 1351.0 to 1601.0 Lb Operating Capacity,Florida,SSL,Skid Steer Loaders,,OROPS,None or Unspecified,,,,,,,,,,Standard,,,,,,None or Unspecified,None or Unspecified,None or Unspecified,Standard,,,,,,,,,,,
3135,2203072,11000,1485405,136,1.0,1000,,,3/11/2008 0:00,40XT,40,XT,,,,Skid Steer Loader - 1351.0 to 1601.0 Lb Operating Capacity,Colorado,SSL,Skid Steer Loaders,,OROPS,None or Unspecified,,,,,,,,,,Standard,,,,,,None or Unspecified,None or Unspecified,None or Unspecified,Standard,,,,,,,,,,,
3135,2203073,11000,1311476,136,1.0,1000,,,3/11/2008 0:00,40XT,40,XT,,,,Skid Steer Loader - 1351.0 to 1601.0 Lb Operating Capacity,Colorado,SSL,Skid Steer Loaders,,OROPS,None or Unspecified,,,,,,,,,,Standard,,,,,,None or Unspecified,None or Unspecified,None or Unspecified,Standard,,,,,,,,,,,
3135,2203076,7500,1488639,136,1.0,2002,,,6/16/2010 0:00,40XT,40,XT,,,,Skid Steer Loader - 1351.0 to 1601.0 Lb Operating Capacity,Kentucky,SSL,Skid Steer Loaders,,OROPS,None or Unspecified,,,,,,,,,,Auxiliary,,,,,,None or Unspecified,None or Unspecified,None or Unspecified,Standard,,,,,,,,,,,
3135,2203089,11000,1346494,136,4.0,2002,855.0,Low,2/11/2008 0:00,40XT,40,XT,,,,Skid Steer Loader - 1351.0 to 1601.0 Lb Operating Capacity,Florida,SSL,Skid Steer Loaders,,EROPS,None or Unspecified,,,,,,,,,,Standard,,,,,,None or Unspecified,None or Unspecified,None or Unspecified,Standard,,,,,,,,,,,
3135,2203336,6500,1520269,136,1.0,1000,,,5/5/2009 0:00,40XT,40,XT,,,,Skid Steer Loader - 1351.0 to 1601.0 Lb Operating Capacity,Arizona,SSL,Skid Steer Loaders,,OROPS,None or Unspecified,,,,,,,,,,Auxiliary,,,,,,None or Unspecified,None or Unspecified,None or Unspecified,Standard,,,,,,,,,,,
3135,2203337,8750,1661919,136,,2002,,,12/6/2008 0:00,40XT,40,XT,,,,Skid Steer Loader - 1351.0 to 1601.0 Lb Operating Capacity,California,SSL,Skid Steer Loaders,,OROPS,None or Unspecified,,,,,,,,,,Auxiliary,,,,,,None or Unspecified,None or Unspecified,None or Unspecified,Standard,,,,,,,,,,,
3135,2203341,10500,1700720,136,,2002,,,7/11/2007 0:00,40XT,40,XT,,,,Skid Steer Loader - 1351.0 to 1601.0 Lb Operating Capacity,Texas,SSL,Skid Steer Loaders,,OROPS,None or Unspecified,,,,,,,,,,Auxiliary,,,,,,None or Unspecified,None or Unspecified,None or Unspecified,Standard,,,,,,,,,,,
3135,2203342,12000,1287529,136,1.0,2002,157.0,Low,7/19/2007 0:00,40XT,40,XT,,,,Skid Steer Loader - 1351.0 to 1601.0 Lb Operating Capacity,Tennessee,SSL,Skid Steer Loaders,,OROPS,None or Unspecified,,,,,,,,,,Auxiliary,,,,,,None or Unspecified,None or Unspecified,None or Unspecified,Standard,,,,,,,,,,,
3135,2203434,12000,1118892,136,1.0,2003,1626.0,Medium,5/22/2007 0:00,40XT,40,XT,,,,Skid Steer Loader - 1351.0 to 1601.0 Lb Operating Capacity,Pennsylvania,SSL,Skid Steer Loaders,,OROPS,None or Unspecified,,,,,,,,,,Standard,,,,,,None or Unspecified,None or Unspecified,None or Unspecified,Standard,,,,,,,,,,,
3135,2203442,8750,1258282,136,2.0,2003,,,8/22/2007 0:00,40XT,40,XT,,,,Skid Steer Loader - 1351.0 to 1601.0 Lb Operating Capacity,Texas,SSL,Skid Steer Loaders,,OROPS,None or Unspecified,,,,,,,,,,Auxiliary,,,,,,None or Unspecified,None or Unspecified,None or Unspecified,Standard,,,,,,,,,,,
3135,2203443,7750,1258282,136,2.0,2003,,,9/26/2007 0:00,40XT,40,XT,,,,Skid Steer Loader - 1351.0 to 1601.0 Lb Operating Capacity,Texas,SSL,Skid Steer Loaders,,OROPS,None or Unspecified,,,,,,,,,,Auxiliary,,,,,,None or Unspecified,None or Unspecified,None or Unspecified,Standard,,,,,,,,,,,
3135,2203444,8750,1741347,136,,2003,,,12/5/2007 0:00,40XT,40,XT,,,,Skid Steer Loader - 1351.0 to 1601.0 Lb Operating Capacity,Texas,SSL,Skid Steer Loaders,,OROPS,None or Unspecified,,,,,,,,,,Auxiliary,,,,,,None or Unspecified,None or Unspecified,None or Unspecified,Standard,,,,,,,,,,,
3135,2203448,8000,1723695,136,,2003,1440.0,Medium,6/21/2008 0:00,40XT,40,XT,,,,Skid Steer Loader - 1351.0 to 1601.0 Lb Operating Capacity,California,SSL,Skid Steer Loaders,,OROPS,None or Unspecified,,,,,,,,,,Auxiliary,,,,,,None or Unspecified,None or Unspecified,None or Unspecified,Standard,,,,,,,,,,,
3135,2203468,7500,1302073,136,1.0,2003,,,6/4/2010 0:00,40XT,40,XT,,,,Skid Steer Loader - 1351.0 to 1601.0 Lb Operating Capacity,Nevada,SSL,Skid Steer Loaders,,OROPS,None or Unspecified,,,,,,,,,,Auxiliary,,,,,,None or Unspecified,None or Unspecified,None or Unspecified,Standard,,,,,,,,,,,
3135,2203472,13000,1515203,136,1.0,2003,876.0,Low,12/16/2008 0:00,40XT,40,XT,,,,Skid Steer Loader - 1351.0 to 1601.0 Lb Operating Capacity,Washington,SSL,Skid Steer Loaders,,OROPS,None or Unspecified,,,,,,,,,,Auxiliary,,,,,,None or Unspecified,None or Unspecified,None or Unspecified,Standard,,,,,,,,,,,
3135,2203473,8000,1513308,136,1.0,2003,,,6/4/2010 0:00,40XT,40,XT,,,,Skid Steer Loader - 1351.0 to 1601.0 Lb Operating Capacity,Nevada,SSL,Skid Steer Loaders,,OROPS,None or Unspecified,,,,,,,,,,Auxiliary,,,,,,None or Unspecified,None or Unspecified,None or Unspecified,Standard,,,,,,,,,,,
3135,2203474,11000,1749029,136,,2003,520.0,Low,5/29/2008 0:00,40XT,40,XT,,,,Skid Steer Loader - 1351.0 to 1601.0 Lb Operating Capacity,Mississippi,SSL,Skid Steer Loaders,,OROPS,None or Unspecified,,,,,,,,,,Standard,,,,,,None or Unspecified,None or Unspecified,None or Unspecified,Standard,,,,,,,,,,,
3135,2203477,11000,1403218,136,1.0,2003,1141.0,Medium,7/19/2007 0:00,40XT,40,XT,,,,Skid Steer Loader - 1351.0 to 1601.0 Lb Operating Capacity,Tennessee,SSL,Skid Steer Loaders,,OROPS,None or Unspecified,,,,,,,,,,Auxiliary,,,,,,None or Unspecified,None or Unspecified,None or Unspecified,Standard,,,,,,,,,,,
3135,2203478,5000,1317816,136,1.0,2003,,,9/30/2009 0:00,40XT,40,XT,,,,Skid Steer Loader - 1351.0 to 1601.0 Lb Operating Capacity,Maryland,SSL,Skid Steer Loaders,,OROPS,None or Unspecified,,,,,,,,,,Auxiliary,,,,,,None or Unspecified,None or Unspecified,None or Unspecified,Standard,,,,,,,,,,,
3135,2203481,13500,1726960,136,1.0,2003,,,12/5/2007 0:00,40XT,40,XT,,,,Skid Steer Loader - 1351.0 to 1601.0 Lb Operating Capacity,Illinois,SSL,Skid Steer Loaders,,OROPS,None or Unspecified,,,,,,,,,,Standard,,,,,,None or Unspecified,None or Unspecified,None or Unspecified,Standard,,,,,,,,,,,
3135,2203482,8000,1248291,136,1.0,2003,,,6/4/2010 0:00,40XT,40,XT,,,,Skid Steer Loader - 1351.0 to 1601.0 Lb Operating Capacity,Nevada,SSL,Skid Steer Loaders,,OROPS,None or Unspecified,,,,,,,,,,Auxiliary,,,,,,None or Unspecified,None or Unspecified,None or Unspecified,Standard,,,,,,,,,,,
3135,2203483,6750,1377934,136,1.0,2003,,,6/17/2009 0:00,40XT,40,XT,,,,Skid Steer Loader - 1351.0 to 1601.0 Lb Operating Capacity,Washington,SSL,Skid Steer Loaders,,OROPS,None or Unspecified,,,,,,,,,,Auxiliary,,,,,,None or Unspecified,None or Unspecified,None or Unspecified,Standard,,,,,,,,,,,
3135,2203537,10500,1698382,136,,2003,,,7/9/2008 0:00,40XT,40,XT,,,,Skid Steer Loader - 1351.0 to 1601.0 Lb Operating Capacity,Texas,SSL,Skid Steer Loaders,,OROPS,None or Unspecified,,,,,,,,,,Standard,,,,,,None or Unspecified,None or Unspecified,None or Unspecified,Standard,,,,,,,,,,,
3135,2203538,7500,1769813,136,,2003,,,12/5/2007 0:00,40XT,40,XT,,,,Skid Steer Loader - 1351.0 to 1601.0 Lb Operating Capacity,Texas,SSL,Skid Steer Loaders,,OROPS,None or Unspecified,,,,,,,,,,Auxiliary,,,,,,None or Unspecified,None or Unspecified,None or Unspecified,Standard,,,,,,,,,,,
3135,2203541,8250,1705020,136,,2004,,,6/25/2008 0:00,40XT,40,XT,,,,Skid Steer Loader - 1351.0 to 1601.0 Lb Operating Capacity,Georgia,SSL,Skid Steer Loaders,,OROPS,None or Unspecified,,,,,,,,,,Auxiliary,,,,,,Manual,Yes,None or Unspecified,Standard,,,,,,,,,,,
3135,2203542,10500,1734523,136,,2004,80000.0,High,4/2/2009 0:00,40XT,40,XT,,,,Skid Steer Loader - 1351.0 to 1601.0 Lb Operating Capacity,Mississippi,SSL,Skid Steer Loaders,,OROPS,None or Unspecified,,,,,,,,,,Auxiliary,,,,,,None or Unspecified,None or Unspecified,None or Unspecified,Standard,,,,,,,,,,,
3135,2203543,7500,1734523,136,,2004,800.0,Low,3/12/2009 0:00,40XT,40,XT,,,,Skid Steer Loader - 1351.0 to 1601.0 Lb Operating Capacity,Arkansas,SSL,Skid Steer Loaders,,OROPS,None or Unspecified,,,,,,,,,,Auxiliary,,,,,,None or Unspecified,None or Unspecified,None or Unspecified,Standard,,,,,,,,,,,
3135,2203544,9500,1686743,136,,2004,,,12/11/2008 0:00,40XT,40,XT,,,,Skid Steer Loader - 1351.0 to 1601.0 Lb Operating Capacity,Kentucky,SSL,Skid Steer Loaders,,OROPS,None or Unspecified,,,,,,,,,,Standard,,,,,,None or Unspecified,None or Unspecified,None or Unspecified,Standard,,,,,,,,,,,
3135,2203545,11000,1784616,136,1.0,2003,,,10/1/2008 0:00,40XT,40,XT,,,,Skid Steer Loader - 1351.0 to 1601.0 Lb Operating Capacity,Maryland,SSL,Skid Steer Loaders,,EROPS,None or Unspecified,,,,,,,,,,Standard,,,,,,None or Unspecified,None or Unspecified,None or Unspecified,Standard,,,,,,,,,,,
3135,2203566,12000,1782944,136,1.0,2004,1057.0,Medium,3/11/2008 0:00,40XT,40,XT,,,,Skid Steer Loader - 1351.0 to 1601.0 Lb Operating Capacity,Colorado,SSL,Skid Steer Loaders,,OROPS,None or Unspecified,,,,,,,,,,Auxiliary,,,,,,None or Unspecified,None or Unspecified,None or Unspecified,Standard,,,,,,,,,,,
3135,2203567,8500,1387054,136,2.0,2004,,,8/19/2008 0:00,40XT,40,XT,,,,Skid Steer Loader - 1351.0 to 1601.0 Lb Operating Capacity,Texas,SSL,Skid Steer Loaders,,OROPS,None or Unspecified,,,,,,,,,,Auxiliary,,,,,,None or Unspecified,None or Unspecified,None or Unspecified,Standard,,,,,,,,,,,
3135,2203576,10600,1714273,136,,1000,,,12/5/2007 0:00,40XT,40,XT,,,,Skid Steer Loader - 1351.0 to 1601.0 Lb Operating Capacity,Oklahoma,SSL,Skid Steer Loaders,,OROPS,None or Unspecified,,,,,,,,,,Standard,,,,,,None or Unspecified,None or Unspecified,None or Unspecified,Standard,,,,,,,,,,,
3135,2203644,10500,1660733,136,,1000,,,7/9/2008 0:00,40XT,40,XT,,,,Skid Steer Loader - 1351.0 to 1601.0 Lb Operating Capacity,Texas,SSL,Skid Steer Loaders,,OROPS,None or Unspecified,,,,,,,,,,Standard,,,,,,None or Unspecified,None or Unspecified,None or Unspecified,Standard,,,,,,,,,,,
3135,2203665,13000,1672049,136,1.0,2004,925.0,Medium,9/17/2008 0:00,40XT,40,XT,,,,Skid Steer Loader - 1351.0 to 1601.0 Lb Operating Capacity,Illinois,SSL,Skid Steer Loaders,,EROPS,None or Unspecified,,,,,,,,,,Auxiliary,,,,,,None or Unspecified,None or Unspecified,None or Unspecified,Standard,,,,,,,,,,,
3135,2203668,9500,1532169,136,1.0,1000,,,4/1/2009 0:00,40XT,40,XT,,,,Skid Steer Loader - 1351.0 to 1601.0 Lb Operating Capacity,Maryland,SSL,Skid Steer Loaders,,OROPS,None or Unspecified,,,,,,,,,,Auxiliary,,,,,,None or Unspecified,None or Unspecified,None or Unspecified,Standard,,,,,,,,,,,
3135,2203669,10000,1392134,136,99.0,2004,993.0,Low,3/10/2010 0:00,40XT,40,XT,,,,Skid Steer Loader - 1351.0 to 1601.0 Lb Operating Capacity,Colorado,SSL,Skid Steer Loaders,,OROPS,None or Unspecified,,,,,,,,,,Auxiliary,,,,,,None or Unspecified,None or Unspecified,None or Unspecified,Standard,,,,,,,,,,,
3135,2203670,7500,1175950,136,1.0,2004,,,7/29/2010 0:00,40XT,40,XT,,,,Skid Steer Loader - 1351.0 to 1601.0 Lb Operating Capacity,Washington,SSL,Skid Steer Loaders,,OROPS,None or Unspecified,,,,,,,,,,Auxiliary,,,,,,None or Unspecified,None or Unspecified,None or Unspecified,Standard,,,,,,,,,,,
3135,2203671,8500,1287252,136,1.0,2004,,,3/5/2009 0:00,40XT,40,XT,,,,Skid Steer Loader - 1351.0 to 1601.0 Lb Operating Capacity,Virginia,SSL,Skid Steer Loaders,,OROPS,None or Unspecified,,,,,,,,,,Auxiliary,,,,,,None or Unspecified,None or Unspecified,None or Unspecified,Standard,,,,,,,,,,,
3135,2203672,9500,1208429,136,1.0,2004,,,4/1/2009 0:00,40XT,40,XT,,,,Skid Steer Loader - 1351.0 to 1601.0 Lb Operating Capacity,Maryland,SSL,Skid Steer Loaders,,OROPS,None or Unspecified,,,,,,,,,,Auxiliary,,,,,,None or Unspecified,None or Unspecified,None or Unspecified,Standard,,,,,,,,,,,
3135,2203673,7500,1208429,136,1.0,2004,1042.0,Medium,6/24/2009 0:00,40XT,40,XT,,,,Skid Steer Loader - 1351.0 to 1601.0 Lb Operating Capacity,Maryland,SSL,Skid Steer Loaders,,OROPS,None or Unspecified,,,,,,,,,,Auxiliary,,,,,,None or Unspecified,None or Unspecified,None or Unspecified,Standard,,,,,,,,,,,
3135,2203674,11000,1116949,136,1.0,2004,,,10/15/2008 0:00,40XT,40,XT,,,,Skid Steer Loader - 1351.0 to 1601.0 Lb Operating Capacity,Florida,SSL,Skid Steer Loaders,,OROPS,None or Unspecified,,,,,,,,,,Auxiliary,,,,,,None or Unspecified,None or Unspecified,None or Unspecified,Standard,,,,,,,,,,,
3135,2203675,7500,1773975,136,,2004,,,12/19/2008 0:00,40XT,40,XT,,,,Skid Steer Loader - 1351.0 to 1601.0 Lb Operating Capacity,New Jersey,SSL,Skid Steer Loaders,,OROPS,None or Unspecified,,,,,,,,,,Auxiliary,,,,,,Manual,None or Unspecified,None or Unspecified,Standard,,,,,,,,,,,
3135,2203676,9500,1259264,136,1.0,2004,,,12/19/2008 0:00,40XT,40,XT,,,,Skid Steer Loader - 1351.0 to 1601.0 Lb Operating Capacity,Missouri,SSL,Skid Steer Loaders,,OROPS,None or Unspecified,,,,,,,,,,Auxiliary,,,,,,None or Unspecified,None or Unspecified,None or Unspecified,Standard,,,,,,,,,,,
3135,2203677,9500,1515824,136,1.0,2004,,,12/19/2008 0:00,40XT,40,XT,,,,Skid Steer Loader - 1351.0 to 1601.0 Lb Operating Capacity,Missouri,SSL,Skid Steer Loaders,,OROPS,None or Unspecified,,,,,,,,,,Auxiliary,,,,,,None or Unspecified,None or Unspecified,None or Unspecified,Standard,,,,,,,,,,,
3135,2203678,9500,1370270,136,1.0,2004,,,4/1/2009 0:00,40XT,40,XT,,,,Skid Steer Loader - 1351.0 to 1601.0 Lb Operating Capacity,Maryland,SSL,Skid Steer Loaders,,OROPS,None or Unspecified,,,,,,,,,,Auxiliary,,,,,,None or Unspecified,None or Unspecified,None or Unspecified,Standard,,,,,,,,,,,
3135,2203679,14000,1513288,136,1.0,2004,481.0,Low,6/19/2007 0:00,40XT,40,XT,,,,Skid Steer Loader - 1351.0 to 1601.0 Lb Operating Capacity,Missouri,SSL,Skid Steer Loaders,,OROPS,None or Unspecified,,,,,,,,,,Auxiliary,,,,,,None or Unspecified,None or Unspecified,None or Unspecified,Standard,,,,,,,,,,,
3135,2203680,9250,1675481,136,,2004,,,9/13/2008 0:00,40XT,40,XT,,,,Skid Steer Loader - 1351.0 to 1601.0 Lb Operating Capacity,New Hampshire,SSL,Skid Steer Loaders,,OROPS,None or Unspecified,,,,,,,,,,Auxiliary,,,,,,Manual,Yes,None or Unspecified,Standard,,,,,,,,,,,
3135,2203681,7500,1486551,136,1.0,2004,,,7/29/2010 0:00,40XT,40,XT,,,,Skid Steer Loader - 1351.0 to 1601.0 Lb Operating Capacity,Washington,SSL,Skid Steer Loaders,,OROPS,None or Unspecified,,,,,,,,,,Auxiliary,,,,,,None or Unspecified,None or Unspecified,None or Unspecified,Standard,,,,,,,,,,,
3135,2203682,9500,1710854,136,1.0,2004,,,6/26/2008 0:00,40XT,40,XT,,,,Skid Steer Loader - 1351.0 to 1601.0 Lb Operating Capacity,Colorado,SSL,Skid Steer Loaders,,OROPS,None or Unspecified,,,,,,,,,,Standard,,,,,,None or Unspecified,None or Unspecified,None or Unspecified,Standard,,,,,,,,,,,
3135,2203683,9000,1143827,136,1.0,2004,,,7/9/2009 0:00,40XT,40,XT,,,,Skid Steer Loader - 1351.0 to 1601.0 Lb Operating Capacity,Texas,SSL,Skid Steer Loaders,,OROPS,None or Unspecified,,,,,,,,,,Auxiliary,,,,,,None or Unspecified,None or Unspecified,None or Unspecified,Standard,,,,,,,,,,,
3135,2203684,9500,1173729,136,1.0,2004,,,4/1/2009 0:00,40XT,40,XT,,,,Skid Steer Loader - 1351.0 to 1601.0 Lb Operating Capacity,Maryland,SSL,Skid Steer Loaders,,OROPS,None or Unspecified,,,,,,,,,,Auxiliary,,,,,,None or Unspecified,None or Unspecified,None or Unspecified,Standard,,,,,,,,,,,
3135,2203685,9500,1261737,136,1.0,2004,,,4/1/2009 0:00,40XT,40,XT,,,,Skid Steer Loader - 1351.0 to 1601.0 Lb Operating Capacity,Maryland,SSL,Skid Steer Loaders,,OROPS,None or Unspecified,,,,,,,,,,Auxiliary,,,,,,None or Unspecified,None or Unspecified,None or Unspecified,Standard,,,,,,,,,,,
3135,2203686,9250,1670890,136,2.0,1000,,,8/7/2010 0:00,40XT,40,XT,,,,Skid Steer Loader - 1351.0 to 1601.0 Lb Operating Capacity,Wisconsin,SSL,Skid Steer Loaders,,OROPS,None or Unspecified,,,,,,,,,,Auxiliary,,,,,,Manual,Yes,None or Unspecified,Standard,,,,,,,,,,,
3135,2203688,8500,1659756,136,,2004,,,12/19/2008 0:00,40XT,40,XT,,,,Skid Steer Loader - 1351.0 to 1601.0 Lb Operating Capacity,New Jersey,SSL,Skid Steer Loaders,,OROPS,None or Unspecified,,,,,,,,,,Auxiliary,,,,,,Manual,None or Unspecified,None or Unspecified,Standard,,,,,,,,,,,
3135,2203690,8250,1755576,136,,2004,,,12/19/2008 0:00,40XT,40,XT,,,,Skid Steer Loader - 1351.0 to 1601.0 Lb Operating Capacity,New Jersey,SSL,Skid Steer Loaders,,OROPS,None or Unspecified,,,,,,,,,,Auxiliary,,,,,,Manual,None or Unspecified,None or Unspecified,Standard,,,,,,,,,,,
3135,2203692,9500,1476608,136,1.0,2004,,,9/23/2008 0:00,40XT,40,XT,,,,Skid Steer Loader - 1351.0 to 1601.0 Lb Operating Capacity,Colorado,SSL,Skid Steer Loaders,,OROPS,None or Unspecified,,,,,,,,,,Standard,,,,,,None or Unspecified,None or Unspecified,None or Unspecified,Standard,,,,,,,,,,,
3135,2203693,10000,1517209,136,1.0,2004,,,9/23/2008 0:00,40XT,40,XT,,,,Skid Steer Loader - 1351.0 to 1601.0 Lb Operating Capacity,Colorado,SSL,Skid Steer Loaders,,OROPS,None or Unspecified,,,,,,,,,,Standard,,,,,,None or Unspecified,None or Unspecified,None or Unspecified,Standard,,,,,,,,,,,
3135,2203696,10000,1743398,136,,2004,,,12/19/2008 0:00,40XT,40,XT,,,,Skid Steer Loader - 1351.0 to 1601.0 Lb Operating Capacity,New Jersey,SSL,Skid Steer Loaders,,OROPS,None or Unspecified,,,,,,,,,,Auxiliary,,,,,,Manual,None or Unspecified,None or Unspecified,Standard,,,,,,,,,,,
3135,2203700,8500,1105074,136,2.0,2004,,,12/5/2007 0:00,40XT,40,XT,,,,Skid Steer Loader - 1351.0 to 1601.0 Lb Operating Capacity,Texas,SSL,Skid Steer Loaders,,OROPS,None or Unspecified,,,,,,,,,,Auxiliary,,,,,,None or Unspecified,None or Unspecified,None or Unspecified,Standard,,,,,,,,,,,
3135,2203703,12000,1315135,136,1.0,2005,430.0,Low,3/11/2008 0:00,40XT,40,XT,,,,Skid Steer Loader - 1351.0 to 1601.0 Lb Operating Capacity,Colorado,SSL,Skid Steer Loaders,,OROPS,None or Unspecified,,,,,,,,,,Auxiliary,,,,,,None or Unspecified,None or Unspecified,None or Unspecified,Standard,,,,,,,,,,,
3135,2203705,10000,1158429,136,2.0,2004,,,12/27/2008 0:00,40XT,40,XT,,,,Skid Steer Loader - 1351.0 to 1601.0 Lb Operating Capacity,New York,SSL,Skid Steer Loaders,,OROPS,None or Unspecified,,,,,,,,,,Auxiliary,,,,,,Manual,Yes,None or Unspecified,Standard,,,,,,,,,,,
3135,2203706,9500,1780278,136,,2004,985.0,Medium,9/13/2008 0:00,40XT,40,XT,,,,Skid Steer Loader - 1351.0 to 1601.0 Lb Operating Capacity,California,SSL,Skid Steer Loaders,,OROPS,None or Unspecified,,,,,,,,,,Auxiliary,,,,,,None or Unspecified,None or Unspecified,None or Unspecified,Standard,,,,,,,,,,,
3135,2203707,10000,1647099,136,2.0,2004,873.0,Low,4/16/2010 0:00,40XT,40,XT,,,,Skid Steer Loader - 1351.0 to 1601.0 Lb Operating Capacity,North Carolina,SSL,Skid Steer Loaders,,OROPS,None or Unspecified,,,,,,,,,,Auxiliary,,,,,,Manual,Yes,None or Unspecified,Standard,,,,,,,,,,,
3135,2203709,9000,1707392,136,,2004,,,12/19/2008 0:00,40XT,40,XT,,,,Skid Steer Loader - 1351.0 to 1601.0 Lb Operating Capacity,New Jersey,SSL,Skid Steer Loaders,,OROPS,None or Unspecified,,,,,,,,,,Auxiliary,,,,,,Manual,None or Unspecified,None or Unspecified,Standard,,,,,,,,,,,
3135,2203712,8500,1353356,136,1.0,2004,5900.0,High,3/19/2009 0:00,40XT,40,XT,,,,Skid Steer Loader - 1351.0 to 1601.0 Lb Operating Capacity,Minnesota,SSL,Skid Steer Loaders,,OROPS,None or Unspecified,,,,,,,,,,Auxiliary,,,,,,None or Unspecified,None or Unspecified,None or Unspecified,Standard,,,,,,,,,,,
3135,2203736,9000,1782656,136,1.0,2005,1603.0,Medium,6/7/2010 0:00,40XT,40,XT,,,,Skid Steer Loader - 1351.0 to 1601.0 Lb Operating Capacity,Texas,SSL,Skid Steer Loaders,,OROPS,None or Unspecified,,,,,,,,,,Auxiliary,,,,,,None or Unspecified,None or Unspecified,None or Unspecified,Standard,,,,,,,,,,,
3135,2203804,6500,1782192,136,,1000,,,3/7/2008 0:00,40XT,40,XT,,,,Skid Steer Loader - 1351.0 to 1601.0 Lb Operating Capacity,Oklahoma,SSL,Skid Steer Loaders,,OROPS,None or Unspecified,,,,,,,,,,Standard,,,,,,None or Unspecified,None or Unspecified,None or Unspecified,Standard,,,,,,,,,,,
3135,2214260,8000,1374375,136,1.0,1000,,,3/17/2010 0:00,40XT,40,XT,,,,Skid Steer Loader - 1351.0 to 1601.0 Lb Operating Capacity,Ohio,SSL,Skid Steer Loaders,,OROPS,None or Unspecified,,,,,,,,,,Auxiliary,,,,,,None or Unspecified,None or Unspecified,None or Unspecified,Standard,,,,,,,,,,,
3135,2488379,8000,1795365,149,99.0,1000,5524.0,Low,8/12/2010 0:00,40XT,40,XT,,,,Skid Steer Loader - 1351.0 to 1601.0 Lb Operating Capacity,New York,SSL,Skid Steer Loaders,,OROPS,None or Unspecified,,,,,,,,,,Standard,,,,,,None or Unspecified,None or Unspecified,None or Unspecified,Standard,,,,,,,,,,,
3135,2494505,10000,1430300,149,1.0,2007,1207.0,Medium,9/21/2010 0:00,40XT,40,XT,,,,Skid Steer Loader - 1351.0 to 1601.0 Lb Operating Capacity,Washington,SSL,Skid Steer Loaders,,OROPS,None or Unspecified,,,,,,,,,,Auxiliary,,,,,,None or Unspecified,None or Unspecified,None or Unspecified,Standard,,,,,,,,,,,
3135,2496081,8000,1177959,149,1.0,2003,2255.0,Medium,9/30/2010 0:00,40XT,40,XT,,,,Skid Steer Loader - 1351.0 to 1601.0 Lb Operating Capacity,Tennessee,SSL,Skid Steer Loaders,,OROPS,None or Unspecified,,,,,,,,,,Auxiliary,,,,,,None or Unspecified,None or Unspecified,None or Unspecified,Standard,,,,,,,,,,,
3135,2496085,6500,1831200,149,2.0,2002,0.0,,8/19/2010 0:00,40XT,40,XT,,,,Skid Steer Loader - 1351.0 to 1601.0 Lb Operating Capacity,Florida,SSL,Skid Steer Loaders,,OROPS,None or Unspecified,,,,,,,,,,Auxiliary,,,,,,None or Unspecified,None or Unspecified,None or Unspecified,Standard,,,,,,,,,,,
3135,2496086,5750,1211675,149,4.0,2003,0.0,,8/26/2010 0:00,40XT,40,XT,,,,Skid Steer Loader - 1351.0 to 1601.0 Lb Operating Capacity,New Hampshire,SSL,Skid Steer Loaders,,EROPS,None or Unspecified,,,,,,,,,,Standard,,,,,,None or Unspecified,None or Unspecified,None or Unspecified,Standard,,,,,,,,,,,
3135,2496103,8750,1822968,149,0.0,2002,0.0,,7/29/2010 0:00,40XT,40,XT,,,,Skid Steer Loader - 1351.0 to 1601.0 Lb Operating Capacity,Nebraska,SSL,Skid Steer Loaders,,OROPS,None or Unspecified,,,,,,,,,,Standard,,,,,,None or Unspecified,None or Unspecified,None or Unspecified,Standard,,,,,,,,,,,
3135,2496215,9000,1091049,149,1.0,2002,2395.0,Medium,12/7/2010 0:00,40XT,40,XT,,,,Skid Steer Loader - 1351.0 to 1601.0 Lb Operating Capacity,North Carolina,SSL,Skid Steer Loaders,,OROPS,None or Unspecified,,,,,,,,,,Auxiliary,,,,,,None or Unspecified,None or Unspecified,None or Unspecified,Standard,,,,,,,,,,,
3135,2496357,11000,1098145,149,1.0,1000,0.0,,2/15/2011 0:00,40XT,40,XT,,,,Skid Steer Loader - 1351.0 to 1601.0 Lb Operating Capacity,Florida,SSL,Skid Steer Loaders,,OROPS,None or Unspecified,,,,,,,,,,Auxiliary,,,,,,None or Unspecified,None or Unspecified,None or Unspecified,Standard,,,,,,,,,,,
3135,2496358,6250,1887665,149,99.0,1000,0.0,,9/15/2010 0:00,40XT,40,XT,,,,Skid Steer Loader - 1351.0 to 1601.0 Lb Operating Capacity,Colorado,SSL,Skid Steer Loaders,,OROPS,None or Unspecified,,,,,,,,,,Standard,,,,,,None or Unspecified,None or Unspecified,None or Unspecified,Standard,,,,,,,,,,,
3135,2496360,8500,1932076,149,1.0,2002,1942.0,Medium,9/29/2010 0:00,40XT,40,XT,,,,Skid Steer Loader - 1351.0 to 1601.0 Lb Operating Capacity,Texas,SSL,Skid Steer Loaders,,OROPS,None or Unspecified,,,,,,,,,,Auxiliary,,,,,,None or Unspecified,None or Unspecified,None or Unspecified,Standard,,,,,,,,,,,
3135,2496437,10000,1457908,149,1.0,2003,0.0,,8/26/2010 0:00,40XT,40,XT,,,,Skid Steer Loader - 1351.0 to 1601.0 Lb Operating Capacity,Texas,SSL,Skid Steer Loaders,,OROPS,None or Unspecified,,,,,,,,,,Auxiliary,,,,,,None or Unspecified,None or Unspecified,None or Unspecified,Standard,,,,,,,,,,,
3135,2496438,10000,1437624,149,1.0,2002,224.0,Low,4/13/2011 0:00,40XT,40,XT,,,,Skid Steer Loader - 1351.0 to 1601.0 Lb Operating Capacity,Texas,SSL,Skid Steer Loaders,,OROPS,None or Unspecified,,,,,,,,,,Auxiliary,,,,,,None or Unspecified,None or Unspecified,None or Unspecified,Standard,,,,,,,,,,,
3135,2496448,9500,1458331,149,13.0,2003,1429.0,Low,6/4/2011 0:00,40XT,40,XT,,,,Skid Steer Loader - 1351.0 to 1601.0 Lb Operating Capacity,Tennessee,SSL,Skid Steer Loaders,,OROPS,None or Unspecified,,,,,,,,,,Auxiliary,,,,,,None or Unspecified,None or Unspecified,None or Unspecified,Standard,,,,,,,,,,,
3135,2496473,13500,1463913,149,1.0,2003,367.0,Low,3/15/2011 0:00,40XT,40,XT,,,,Skid Steer Loader - 1351.0 to 1601.0 Lb Operating Capacity,Colorado,SSL,Skid Steer Loaders,,OROPS,None or Unspecified,,,,,,,,,,Auxiliary,,,,,,None or Unspecified,None or Unspecified,None or Unspecified,Standard,,,,,,,,,,,
3135,2496478,9000,1159059,149,1.0,2003,0.0,,12/1/2010 0:00,40XT,40,XT,,,,Skid Steer Loader - 1351.0 to 1601.0 Lb Operating Capacity,Texas,SSL,Skid Steer Loaders,,OROPS,None or Unspecified,,,,,,,,,,Auxiliary,,,,,,None or Unspecified,None or Unspecified,None or Unspecified,Standard,,,,,,,,,,,
3135,2496492,5400,1890189,149,4.0,2003,0.0,,2/7/2011 0:00,40XT,40,XT,,,,Skid Steer Loader - 1351.0 to 1601.0 Lb Operating Capacity,Florida,SSL,Skid Steer Loaders,,OROPS,None or Unspecified,,,,,,,,,,Standard,,,,,,None or Unspecified,None or Unspecified,None or Unspecified,Standard,,,,,,,,,,,
3135,2496547,6500,1386849,149,1.0,2003,0.0,,3/19/2010 0:00,40XT,40,XT,,,,Skid Steer Loader - 1351.0 to 1601.0 Lb Operating Capacity,Minnesota,SSL,Skid Steer Loaders,,EROPS,None or Unspecified,,,,,,,,,,Auxiliary,,,,,,None or Unspecified,None or Unspecified,None or Unspecified,Standard,,,,,,,,,,,
3135,2496550,10000,1095679,149,1.0,2003,0.0,,4/13/2011 0:00,40XT,40,XT,,,,Skid Steer Loader - 1351.0 to 1601.0 Lb Operating Capacity,Texas,SSL,Skid Steer Loaders,,OROPS,None or Unspecified,,,,,,,,,,Auxiliary,,,,,,None or Unspecified,None or Unspecified,None or Unspecified,Standard,,,,,,,,,,,
3135,2496572,9000,1793397,149,15.0,2004,0.0,,5/6/2010 0:00,40XT,40,XT,,,,Skid Steer Loader - 1351.0 to 1601.0 Lb Operating Capacity,New York,SSL,Skid Steer Loaders,,OROPS,None or Unspecified,,,,,,,,,,Standard,,,,,,None or Unspecified,None or Unspecified,None or Unspecified,Standard,,,,,,,,,,,
3135,2496657,7500,1271915,149,2.0,1000,2100.0,Low,12/18/2010 0:00,40XT,40,XT,,,,Skid Steer Loader - 1351.0 to 1601.0 Lb Operating Capacity,New Jersey,SSL,Skid Steer Loaders,,OROPS,None or Unspecified,,,,,,,,,,Auxiliary,,,,,,None or Unspecified,None or Unspecified,None or Unspecified,Standard,,,,,,,,,,,
3135,2496725,7750,1908507,149,2.0,2004,0.0,,6/18/2011 0:00,40XT,40,XT,,,,Skid Steer Loader - 1351.0 to 1601.0 Lb Operating Capacity,New Jersey,SSL,Skid Steer Loaders,,OROPS,None or Unspecified,,,,,,,,,,Auxiliary,,,,,,Hydraulic,None or Unspecified,None or Unspecified,Standard,,,,,,,,,,,
3135,2496734,8750,1873431,149,2.0,2004,0.0,,3/31/2011 0:00,40XT,40,XT,,,,Skid Steer Loader - 1351.0 to 1601.0 Lb Operating Capacity,New Jersey,SSL,Skid Steer Loaders,,OROPS,None or Unspecified,,,,,,,,,,Auxiliary,,,,,,None or Unspecified,None or Unspecified,None or Unspecified,Standard,,,,,,,,,,,
3135,2496737,12000,1147559,149,1.0,2005,952.0,Low,3/29/2011 0:00,40XT,40,XT,,,,Skid Steer Loader - 1351.0 to 1601.0 Lb Operating Capacity,Maryland,SSL,Skid Steer Loaders,,OROPS,None or Unspecified,,,,,,,,,,Auxiliary,,,,,,None or Unspecified,None or Unspecified,None or Unspecified,Standard,,,,,,,,,,,
3135,2496750,11000,1370210,149,1.0,2004,970.0,Low,9/30/2010 0:00,40XT,40,XT,,,,Skid Steer Loader - 1351.0 to 1601.0 Lb Operating Capacity,Tennessee,SSL,Skid Steer Loaders,,OROPS,None or Unspecified,,,,,,,,,,Auxiliary,,,,,,None or Unspecified,None or Unspecified,None or Unspecified,Standard,,,,,,,,,,,
3135,2497389,7500,1337333,149,1.0,2004,0.0,,8/18/2010 0:00,40XT,40,XT,,,,Skid Steer Loader - 1351.0 to 1601.0 Lb Operating Capacity,Florida,SSL,Skid Steer Loaders,,OROPS,None or Unspecified,,,,,,,,,,Auxiliary,,,,,,None or Unspecified,None or Unspecified,None or Unspecified,Standard,,,,,,,,,,,
3135,4248049,6000,1441390,172,1.0,2001,1041.0,Low,12/10/2009 0:00,40XT,40,XT,,,,Skid Steer Loader - 1351.0 to 1601.0 Lb Operating Capacity,Washington,SSL,Skid Steer Loaders,,OROPS,None or Unspecified,,,,,,,,,,Auxiliary,,,,,,None or Unspecified,None or Unspecified,None or Unspecified,Standard,,,,,,,,,,,
3135,4248067,13000,2304115,172,1.0,2002,1573.0,Low,9/12/2011 0:00,40XT,40,XT,,,,Skid Steer Loader - 1351.0 to 1601.0 Lb Operating Capacity,Minnesota,SSL,Skid Steer Loaders,,EROPS,None or Unspecified,,,,,,,,,,Auxiliary,,,,,,None or Unspecified,None or Unspecified,None or Unspecified,Standard,,,,,,,,,,,
3135,4248168,8500,1075015,172,1.0,2002,1942.0,Medium,9/29/2010 0:00,40XT,40,XT,,,,Skid Steer Loader - 1351.0 to 1601.0 Lb Operating Capacity,Texas,SSL,Skid Steer Loaders,,OROPS,None or Unspecified,,,,,,,,,,Auxiliary,,,,,,None or Unspecified,None or Unspecified,None or Unspecified,Standard,,,,,,,,,,,
3135,4248242,11000,2305092,172,1.0,2002,225.0,Low,6/21/2011 0:00,40XT,40,XT,,,,Skid Steer Loader - 1351.0 to 1601.0 Lb Operating Capacity,Texas,SSL,Skid Steer Loaders,,EROPS,Yes,,,,,,,,,,Auxiliary,,,,,,None or Unspecified,None or Unspecified,None or Unspecified,Standard,,,,,,,,,,,
3135,4248255,9000,1410217,172,1.0,2004,2889.0,Medium,12/11/2011 0:00,40XT,40,XT,,,,Skid Steer Loader - 1351.0 to 1601.0 Lb Operating Capacity,Utah,SSL,Skid Steer Loaders,,OROPS,None or Unspecified,,,,,,,,,,Auxiliary,,,,,,None or Unspecified,None or Unspecified,None or Unspecified,Standard,,,,,,,,,,,
3135,4248269,9000,2271032,172,1.0,2003,2532.0,Medium,10/17/2011 0:00,40XT,40,XT,,,,Skid Steer Loader - 1351.0 to 1601.0 Lb Operating Capacity,Maryland,SSL,Skid Steer Loaders,,EROPS,None or Unspecified,,,,,,,,,,Auxiliary,,,,,,None or Unspecified,None or Unspecified,None or Unspecified,Standard,,,,,,,,,,,
3135,4248273,11000,2271032,172,1.0,2003,689.0,Low,6/21/2011 0:00,40XT,40,XT,,,,Skid Steer Loader - 1351.0 to 1601.0 Lb Operating Capacity,Texas,SSL,Skid Steer Loaders,,EROPS,None or Unspecified,,,,,,,,,,Auxiliary,,,,,,None or Unspecified,None or Unspecified,None or Unspecified,Standard,,,,,,,,,,,
3135,4248317,7000,1294881,172,1.0,2004,3428.0,High,12/16/2009 0:00,40XT,40,XT,,,,Skid Steer Loader - 1351.0 to 1601.0 Lb Operating Capacity,Maryland,SSL,Skid Steer Loaders,,OROPS,None or Unspecified,,,,,,,,,,Auxiliary,,,,,,None or Unspecified,None or Unspecified,None or Unspecified,Standard,,,,,,,,,,,
3135,4248333,9000,1486551,172,1.0,2005,1603.0,Medium,6/7/2010 0:00,40XT,40,XT,,,,Skid Steer Loader - 1351.0 to 1601.0 Lb Operating Capacity,Texas,SSL,Skid Steer Loaders,,OROPS,None or Unspecified,,,,,,,,,,Auxiliary,,,,,,None or Unspecified,None or Unspecified,None or Unspecified,Standard,,,,,,,,,,,
3135,4248354,10500,2276599,172,1.0,2004,1291.0,Medium,12/13/2011 0:00,40XT,40,XT,,,,Skid Steer Loader - 1351.0 to 1601.0 Lb Operating Capacity,North Carolina,SSL,Skid Steer Loaders,,EROPS,None or Unspecified,,,,,,,,,,Auxiliary,,,,,,None or Unspecified,None or Unspecified,None or Unspecified,Standard,,,,,,,,,,,
3135,6257641,13000,1932842,149,1.0,2002,,,9/13/2011 0:00,40XT,40,XT,,,,Skid Steer Loader - 1351.0 to 1601.0 Lb Operating Capacity,Minnesota,SSL,Skid Steer Loaders,,EROPS,None or Unspecified,,,,,,,,,,Standard,,,,,,None or Unspecified,None or Unspecified,None or Unspecified,Standard,,,,,,,,,,,
3135,6257642,7500,415879,149,99.0,2002,,,9/8/2011 0:00,40XT,40,XT,,,,Skid Steer Loader - 1351.0 to 1601.0 Lb Operating Capacity,Nebraska,SSL,Skid Steer Loaders,,OROPS,None or Unspecified,,,,,,,,,,Auxiliary,,,,,,None or Unspecified,None or Unspecified,None or Unspecified,Standard,,,,,,,,,,,
3135,6257655,9000,1835086,149,99.0,2002,,,11/16/2011 0:00,40XT,40,XT,,,,Skid Steer Loader - 1351.0 to 1601.0 Lb Operating Capacity,Mississippi,SSL,Skid Steer Loaders,,OROPS,None or Unspecified,,,,,,,,,,Standard,,,,,,None or Unspecified,None or Unspecified,None or Unspecified,Standard,,,,,,,,,,,
3135,6257694,11000,1437624,149,1.0,2002,,,6/22/2011 0:00,40XT,40,XT,,,,Skid Steer Loader - 1351.0 to 1601.0 Lb Operating Capacity,Texas,SSL,Skid Steer Loaders,,OROPS,None or Unspecified,,,,,,,,,,Auxiliary,,,,,,None or Unspecified,None or Unspecified,None or Unspecified,Standard,,,,,,,,,,,
3135,6257697,11500,1458331,149,,2003,24.0,Low,12/21/2011 0:00,40XT,40,XT,,,,Skid Steer Loader - 1351.0 to 1601.0 Lb Operating Capacity,Indiana,SSL,Skid Steer Loaders,,OROPS,None or Unspecified,,,,,,,,,,Auxiliary,,,,,,None or Unspecified,None or Unspecified,None or Unspecified,Standard,,,,,,,,,,,
3135,6257712,11000,1095679,149,1.0,2003,,,6/22/2011 0:00,40XT,40,XT,,,,Skid Steer Loader - 1351.0 to 1601.0 Lb Operating Capacity,Texas,SSL,Skid Steer Loaders,,OROPS,None or Unspecified,,,,,,,,,,Auxiliary,,,,,,None or Unspecified,None or Unspecified,None or Unspecified,Standard,,,,,,,,,,,
3135,6257714,9000,1824166,149,1.0,2003,,,10/18/2011 0:00,40XT,40,XT,,,,Skid Steer Loader - 1351.0 to 1601.0 Lb Operating Capacity,Maryland,SSL,Skid Steer Loaders,,OROPS,None or Unspecified,,,,,,,,,,Auxiliary,,,,,,None or Unspecified,None or Unspecified,None or Unspecified,Standard,,,,,,,,,,,
3135,6257719,8750,1923548,149,99.0,2004,,,8/4/2011 0:00,40XT,40,XT,,,,Skid Steer Loader - 1351.0 to 1601.0 Lb Operating Capacity,Texas,SSL,Skid Steer Loaders,,OROPS,None or Unspecified,,,,,,,,,,Standard,,,,,,None or Unspecified,None or Unspecified,None or Unspecified,Standard,,,,,,,,,,,
3135,6257742,8000,1925491,149,1.0,2004,,,12/14/2011 0:00,40XT,40,XT,,,,Skid Steer Loader - 1351.0 to 1601.0 Lb Operating Capacity,North Carolina,SSL,Skid Steer Loaders,,OROPS,None or Unspecified,,,,,,,,,,Auxiliary,,,,,,None or Unspecified,None or Unspecified,None or Unspecified,Standard,,,,,,,,,,,
3135,6257744,10500,1907831,149,1.0,2004,,,12/14/2011 0:00,40XT,40,XT,,,,Skid Steer Loader - 1351.0 to 1601.0 Lb Operating Capacity,North Carolina,SSL,Skid Steer Loaders,,OROPS,None or Unspecified,,,,,,,,,,Auxiliary,,,,,,None or Unspecified,None or Unspecified,None or Unspecified,Standard,,,,,,,,,,,
3135,6257745,10500,1867527,149,1.0,2004,,,12/14/2011 0:00,40XT,40,XT,,,,Skid Steer Loader - 1351.0 to 1601.0 Lb Operating Capacity,North Carolina,SSL,Skid Steer Loaders,,OROPS,None or Unspecified,,,,,,,,,,Auxiliary,,,,,,None or Unspecified,None or Unspecified,None or Unspecified,Standard,,,,,,,,,,,
3135,6257746,9500,1819773,149,1.0,2004,,,12/14/2011 0:00,40XT,40,XT,,,,Skid Steer Loader - 1351.0 to 1601.0 Lb Operating Capacity,North Carolina,SSL,Skid Steer Loaders,,OROPS,None or Unspecified,,,,,,,,,,Auxiliary,,,,,,None or Unspecified,None or Unspecified,None or Unspecified,Standard,,,,,,,,,,,
3135,6257760,13600,1901613,149,99.0,2005,1040.0,Low,12/28/2011 0:00,40XT,40,XT,,,,Skid Steer Loader - 1351.0 to 1601.0 Lb Operating Capacity,Iowa,SSL,Skid Steer Loaders,,OROPS,None or Unspecified,,,,,,,,,,Standard,,,,,,None or Unspecified,None or Unspecified,None or Unspecified,Standard,,,,,,,,,,,
