ModelID,SalesID,SalePrice,MachineID,datasource,auctioneerID,YearMade,MachineHoursCurrentMeter,UsageBand,saledate,fiModelDesc,fiBaseModel,fiSecondaryDesc,fiModelSeries,fiModelDescriptor,ProductSize,fiProductClassDesc,state,ProductGroup,ProductGroupDesc,Drive_System,Enclosure,Forks,Pad_Type,Ride_Control,Stick,Transmission,Turbocharged,Blade_Extension,Blade_Width,Enclosure_Type,Engine_Horsepower,Hydraulics,Pushblock,Ripper,Scarifier,Tip_Control,Tire_Size,Coupler,Coupler_System,Grouser_Tracks,Hydraulics_Flow,Track_Type,Undercarriage_Pad_Width,Stick_Length,Thumb,Pattern_Changer,Grouser_Type,Backhoe_Mounting,Blade_Type,Travel_Controls,Differential_Type,Steering_Controls
3150,1174451,7750,1064548,121,3.0,1988,5672.0,Medium,12/16/2004 0:00,480F,480,F,,,,Backhoe Loader - 0.0 to 14.0 Ft Standard Digging Depth,North Dakota,BL,Backhoe Loaders,Two Wheel Drive,OROPS,None or Unspecified,None or Unspecified,No,Standard,Standard,None or Unspecified,,,,,,,,,,,,,,,,,,,,,,,,,
3150,1218614,10250,1001080,121,3.0,1000,2563.0,Low,9/30/2011 0:00,480F,480,F,,,,Backhoe Loader - 0.0 to 14.0 Ft Standard Digging Depth,Illinois,BL,Backhoe Loaders,Two Wheel Drive,EROPS,None or Unspecified,None or Unspecified,No,Standard,Standard,None or Unspecified,,,,,,,,,,,,,,,,,,,,,,,,,
3150,1255471,16750,1368182,132,4.0,1990,,,2/6/1997 0:00,480F,480,F,,,,Backhoe Loader - 0.0 to 14.0 Ft Standard Digging Depth,Florida,BL,Backhoe Loaders,Two Wheel Drive,OROPS,None or Unspecified,None or Unspecified,No,Standard,Standard,None or Unspecified,,,,,,,,,,,,,,,,,,,,,,,,,
3150,1255658,14000,1394956,132,25.0,1991,,,9/11/1999 0:00,480F,480,F,,,,Backhoe Loader - 0.0 to 14.0 Ft Standard Digging Depth,California,BL,Backhoe Loaders,Two Wheel Drive,OROPS,None or Unspecified,None or Unspecified,No,Standard,Standard,None or Unspecified,,,,,,,,,,,,,,,,,,,,,,,,,
3150,1255758,19500,1107914,132,2.0,1990,,,2/5/1997 0:00,480F,480,F,,,,Backhoe Loader - 0.0 to 14.0 Ft Standard Digging Depth,Florida,BL,Backhoe Loaders,Four Wheel Drive,OROPS,None or Unspecified,None or Unspecified,No,Standard,Standard,None or Unspecified,,,,,,,,,,,,,,,,,,,,,,,,,
3150,1256260,10000,1546162,132,2.0,1994,,,12/15/2000 0:00,480F,480,F,,,,Backhoe Loader - 0.0 to 14.0 Ft Standard Digging Depth,Georgia,BL,Backhoe Loaders,Two Wheel Drive,OROPS,None or Unspecified,None or Unspecified,No,Standard,Standard,None or Unspecified,,,,,,,,,,,,,,,,,,,,,,,,,
3150,1256305,10500,1430966,132,7.0,1992,,,9/4/2003 0:00,480F,480,F,,,,Backhoe Loader - 0.0 to 14.0 Ft Standard Digging Depth,Alabama,BL,Backhoe Loaders,Two Wheel Drive,OROPS,None or Unspecified,None or Unspecified,No,Standard,Standard,None or Unspecified,,,,,,,,,,,,,,,,,,,,,,,,,
3150,1256548,9250,1553397,132,2.0,1000,,,2/5/2008 0:00,480F,480,F,,,,Backhoe Loader - 0.0 to 14.0 Ft Standard Digging Depth,Florida,BL,Backhoe Loaders,Two Wheel Drive,OROPS,None or Unspecified,None or Unspecified,No,Standard,Powershift,None or Unspecified,,,,,,,,,,,,,,,,,,,,,,,,,
3150,1280707,14250,1373786,132,21.0,1991,,,9/9/1999 0:00,480F,480,F,,,,Backhoe Loader - 0.0 to 14.0 Ft Standard Digging Depth,Maine,BL,Backhoe Loaders,Four Wheel Drive,EROPS,None or Unspecified,None or Unspecified,No,Standard,Standard,None or Unspecified,,,,,,,,,,,,,,,,,,,,,,,,,
3150,1280711,13000,531425,132,2.0,1990,,,10/23/1999 0:00,480F,480,F,,,,Backhoe Loader - 0.0 to 14.0 Ft Standard Digging Depth,Florida,BL,Backhoe Loaders,Four Wheel Drive,OROPS,None or Unspecified,None or Unspecified,No,Standard,Standard,None or Unspecified,,,,,,,,,,,,,,,,,,,,,,,,,
3150,1280714,17000,1510796,132,99.0,1990,,,2/5/1994 0:00,480F,480,F,,,,Backhoe Loader - 0.0 to 14.0 Ft Standard Digging Depth,Washington,BL,Backhoe Loaders,Two Wheel Drive,OROPS,None or Unspecified,None or Unspecified,No,Standard,Powershuttle,None or Unspecified,,,,,,,,,,,,,,,,,,,,,,,,,
3150,1280715,8000,1137861,132,1.0,1990,,,12/12/2006 0:00,480F,480,F,,,,Backhoe Loader - 0.0 to 14.0 Ft Standard Digging Depth,California,BL,Backhoe Loaders,Two Wheel Drive,OROPS,None or Unspecified,None or Unspecified,No,Standard,Standard,None or Unspecified,,,,,,,,,,,,,,,,,,,,,,,,,
3150,1280716,15500,1435255,132,1.0,1990,,,6/20/1997 0:00,480F,480,F,,,,Backhoe Loader - 0.0 to 14.0 Ft Standard Digging Depth,Washington,BL,Backhoe Loaders,Two Wheel Drive,OROPS,None or Unspecified,None or Unspecified,No,Standard,Standard,None or Unspecified,,,,,,,,,,,,,,,,,,,,,,,,,
3150,1280722,15000,1107240,132,1.0,1990,,,2/23/1996 0:00,480F,480,F,,,,Backhoe Loader - 0.0 to 14.0 Ft Standard Digging Depth,Arizona,BL,Backhoe Loaders,Two Wheel Drive,OROPS,None or Unspecified,None or Unspecified,No,Standard,Standard,None or Unspecified,,,,,,,,,,,,,,,,,,,,,,,,,
3150,1280723,18500,1108993,132,1.0,1990,,,2/23/1996 0:00,480F,480,F,,,,Backhoe Loader - 0.0 to 14.0 Ft Standard Digging Depth,Arizona,BL,Backhoe Loaders,Two Wheel Drive,OROPS,None or Unspecified,None or Unspecified,No,Standard,Standard,None or Unspecified,,,,,,,,,,,,,,,,,,,,,,,,,
3150,1280724,13300,1139594,132,9.0,1000,,,2/15/2000 0:00,480F,480,F,,,,Backhoe Loader - 0.0 to 14.0 Ft Standard Digging Depth,Florida,BL,Backhoe Loaders,Two Wheel Drive,OROPS,None or Unspecified,None or Unspecified,No,Extended,Powershuttle,None or Unspecified,,,,,,,,,,,,,,,,,,,,,,,,,
3150,1280726,10750,1210801,132,18.0,1990,,,6/20/1998 0:00,480F,480,F,,,,Backhoe Loader - 0.0 to 14.0 Ft Standard Digging Depth,Pennsylvania,BL,Backhoe Loaders,Two Wheel Drive,EROPS,None or Unspecified,None or Unspecified,No,Standard,Standard,None or Unspecified,,,,,,,,,,,,,,,,,,,,,,,,,
3150,1280728,9000,1440349,132,1.0,1990,,,8/25/2005 0:00,480F,480,F,,,,Backhoe Loader - 0.0 to 14.0 Ft Standard Digging Depth,Texas,BL,Backhoe Loaders,Two Wheel Drive,OROPS,None or Unspecified,None or Unspecified,No,Standard,Standard,None or Unspecified,,,,,,,,,,,,,,,,,,,,,,,,,
3150,1280729,15500,1269150,132,1.0,1990,,,9/10/1996 0:00,480F,480,F,,,,Backhoe Loader - 0.0 to 14.0 Ft Standard Digging Depth,Florida,BL,Backhoe Loaders,Four Wheel Drive,OROPS,None or Unspecified,None or Unspecified,No,Standard,Standard,None or Unspecified,,,,,,,,,,,,,,,,,,,,,,,,,
3150,1280730,14000,1278446,132,1.0,1991,,,11/16/1995 0:00,480F,480,F,,,,Backhoe Loader - 0.0 to 14.0 Ft Standard Digging Depth,Georgia,BL,Backhoe Loaders,Two Wheel Drive,OROPS,None or Unspecified,None or Unspecified,No,Standard,Standard,None or Unspecified,,,,,,,,,,,,,,,,,,,,,,,,,
3150,1280731,15500,1251931,132,25.0,1990,,,5/4/1996 0:00,480F,480,F,,,,Backhoe Loader - 0.0 to 14.0 Ft Standard Digging Depth,California,BL,Backhoe Loaders,Two Wheel Drive,OROPS,None or Unspecified,None or Unspecified,No,Standard,Standard,None or Unspecified,,,,,,,,,,,,,,,,,,,,,,,,,
3150,1280732,16000,1393377,132,1.0,1990,,,4/4/1996 0:00,480F,480,F,,,,Backhoe Loader - 0.0 to 14.0 Ft Standard Digging Depth,Georgia,BL,Backhoe Loaders,Two Wheel Drive,OROPS,None or Unspecified,None or Unspecified,No,Standard,Standard,None or Unspecified,,,,,,,,,,,,,,,,,,,,,,,,,
3150,1280734,17000,1335227,132,1.0,1990,,,5/10/1994 0:00,480F,480,F,,,,Backhoe Loader - 0.0 to 14.0 Ft Standard Digging Depth,Nevada,BL,Backhoe Loaders,Two Wheel Drive,OROPS,None or Unspecified,None or Unspecified,No,Standard,Powershuttle,None or Unspecified,,,,,,,,,,,,,,,,,,,,,,,,,
3150,1280735,16000,1335227,132,99.0,1990,,,2/5/1994 0:00,480F,480,F,,,,Backhoe Loader - 0.0 to 14.0 Ft Standard Digging Depth,Washington,BL,Backhoe Loaders,Two Wheel Drive,OROPS,None or Unspecified,None or Unspecified,No,Standard,Powershuttle,None or Unspecified,,,,,,,,,,,,,,,,,,,,,,,,,
3150,1280737,17500,1256069,132,1.0,1990,,,3/14/1996 0:00,480F,480,F,,,,Backhoe Loader - 0.0 to 14.0 Ft Standard Digging Depth,Florida,BL,Backhoe Loaders,Four Wheel Drive,OROPS,None or Unspecified,None or Unspecified,No,Standard,Standard,None or Unspecified,,,,,,,,,,,,,,,,,,,,,,,,,
3150,1280738,20500,1538836,132,2.0,1990,,,2/8/1995 0:00,480F,480,F,,,,Backhoe Loader - 0.0 to 14.0 Ft Standard Digging Depth,Florida,BL,Backhoe Loaders,Four Wheel Drive,OROPS,None or Unspecified,None or Unspecified,No,Standard,Standard,None or Unspecified,,,,,,,,,,,,,,,,,,,,,,,,,
3150,1280739,17000,1465013,132,1.0,1990,,,2/23/1996 0:00,480F,480,F,,,,Backhoe Loader - 0.0 to 14.0 Ft Standard Digging Depth,Arizona,BL,Backhoe Loaders,Two Wheel Drive,OROPS,None or Unspecified,None or Unspecified,No,Standard,Standard,None or Unspecified,,,,,,,,,,,,,,,,,,,,,,,,,
3150,1280740,15750,1400348,132,13.0,1991,,,5/17/1997 0:00,480F,480,F,,,,Backhoe Loader - 0.0 to 14.0 Ft Standard Digging Depth,Tennessee,BL,Backhoe Loaders,Two Wheel Drive,OROPS,None or Unspecified,None or Unspecified,No,Standard,Standard,None or Unspecified,,,,,,,,,,,,,,,,,,,,,,,,,
3150,1280742,15000,1251787,132,1.0,1990,,,12/12/1995 0:00,480F,480,F,,,,Backhoe Loader - 0.0 to 14.0 Ft Standard Digging Depth,Texas,BL,Backhoe Loaders,Two Wheel Drive,EROPS,None or Unspecified,None or Unspecified,No,Standard,Standard,None or Unspecified,,,,,,,,,,,,,,,,,,,,,,,,,
3150,1280744,17000,1468306,132,1.0,1990,,,2/23/1996 0:00,480F,480,F,,,,Backhoe Loader - 0.0 to 14.0 Ft Standard Digging Depth,Arizona,BL,Backhoe Loaders,Two Wheel Drive,OROPS,None or Unspecified,None or Unspecified,No,Standard,Standard,None or Unspecified,,,,,,,,,,,,,,,,,,,,,,,,,
3150,1280745,17000,1215301,132,1.0,1990,,,2/23/1996 0:00,480F,480,F,,,,Backhoe Loader - 0.0 to 14.0 Ft Standard Digging Depth,Arizona,BL,Backhoe Loaders,Two Wheel Drive,OROPS,None or Unspecified,None or Unspecified,No,Standard,Standard,None or Unspecified,,,,,,,,,,,,,,,,,,,,,,,,,
3150,1280746,17000,1240458,132,1.0,1990,,,2/23/1996 0:00,480F,480,F,,,,Backhoe Loader - 0.0 to 14.0 Ft Standard Digging Depth,Arizona,BL,Backhoe Loaders,Two Wheel Drive,OROPS,None or Unspecified,None or Unspecified,No,Standard,Standard,None or Unspecified,,,,,,,,,,,,,,,,,,,,,,,,,
3150,1280747,15000,1118502,132,12.0,1990,2658.0,Medium,5/28/1997 0:00,480F,480,F,,,,Backhoe Loader - 0.0 to 14.0 Ft Standard Digging Depth,South Carolina,BL,Backhoe Loaders,Two Wheel Drive,OROPS,None or Unspecified,None or Unspecified,No,Standard,Standard,None or Unspecified,,,,,,,,,,,,,,,,,,,,,,,,,
3150,1280748,18000,1552117,132,1.0,1990,,,4/3/1997 0:00,480F,480,F,,,,Backhoe Loader - 0.0 to 14.0 Ft Standard Digging Depth,Georgia,BL,Backhoe Loaders,Two Wheel Drive,OROPS,None or Unspecified,None or Unspecified,No,Standard,Standard,None or Unspecified,,,,,,,,,,,,,,,,,,,,,,,,,
3150,1280750,17000,1178821,132,1.0,1990,,,4/20/1995 0:00,480F,480,F,,,,Backhoe Loader - 0.0 to 14.0 Ft Standard Digging Depth,Georgia,BL,Backhoe Loaders,Two Wheel Drive,OROPS,None or Unspecified,None or Unspecified,No,Standard,Standard,None or Unspecified,,,,,,,,,,,,,,,,,,,,,,,,,
3150,1280751,17500,1388296,132,1.0,1990,,,2/23/1996 0:00,480F,480,F,,,,Backhoe Loader - 0.0 to 14.0 Ft Standard Digging Depth,Arizona,BL,Backhoe Loaders,Two Wheel Drive,OROPS,None or Unspecified,None or Unspecified,No,Standard,Standard,None or Unspecified,,,,,,,,,,,,,,,,,,,,,,,,,
3150,1280752,17500,1362761,132,1.0,1990,,,2/23/1996 0:00,480F,480,F,,,,Backhoe Loader - 0.0 to 14.0 Ft Standard Digging Depth,Arizona,BL,Backhoe Loaders,Two Wheel Drive,OROPS,None or Unspecified,None or Unspecified,No,Standard,Standard,None or Unspecified,,,,,,,,,,,,,,,,,,,,,,,,,
3150,1280753,15000,1393882,132,1.0,1990,,,2/23/1996 0:00,480F,480,F,,,,Backhoe Loader - 0.0 to 14.0 Ft Standard Digging Depth,Arizona,BL,Backhoe Loaders,Two Wheel Drive,OROPS,None or Unspecified,None or Unspecified,No,Standard,Standard,None or Unspecified,,,,,,,,,,,,,,,,,,,,,,,,,
3150,1280754,15000,1526300,132,1.0,1990,,,2/23/1996 0:00,480F,480,F,,,,Backhoe Loader - 0.0 to 14.0 Ft Standard Digging Depth,Arizona,BL,Backhoe Loaders,Two Wheel Drive,OROPS,None or Unspecified,None or Unspecified,No,Standard,Standard,None or Unspecified,,,,,,,,,,,,,,,,,,,,,,,,,
3150,1280755,14000,1079933,132,1.0,1990,,,7/17/1997 0:00,480F,480,F,,,,Backhoe Loader - 0.0 to 14.0 Ft Standard Digging Depth,Georgia,BL,Backhoe Loaders,Two Wheel Drive,OROPS,None or Unspecified,None or Unspecified,No,Standard,Standard,None or Unspecified,,,,,,,,,,,,,,,,,,,,,,,,,
3150,1280756,18000,1262397,132,1.0,1990,,,4/3/1997 0:00,480F,480,F,,,,Backhoe Loader - 0.0 to 14.0 Ft Standard Digging Depth,Georgia,BL,Backhoe Loaders,Two Wheel Drive,OROPS,None or Unspecified,None or Unspecified,No,Standard,Standard,None or Unspecified,,,,,,,,,,,,,,,,,,,,,,,,,
3150,1280758,17500,1500535,132,1.0,1990,,,2/23/1996 0:00,480F,480,F,,,,Backhoe Loader - 0.0 to 14.0 Ft Standard Digging Depth,Arizona,BL,Backhoe Loaders,Two Wheel Drive,OROPS,None or Unspecified,None or Unspecified,No,Standard,Standard,None or Unspecified,,,,,,,,,,,,,,,,,,,,,,,,,
3150,1280759,17500,1474263,132,1.0,1990,,,2/23/1996 0:00,480F,480,F,,,,Backhoe Loader - 0.0 to 14.0 Ft Standard Digging Depth,Arizona,BL,Backhoe Loaders,Two Wheel Drive,OROPS,None or Unspecified,None or Unspecified,No,Standard,Standard,None or Unspecified,,,,,,,,,,,,,,,,,,,,,,,,,
3150,1280762,14500,1370662,132,1.0,1990,,,9/22/2004 0:00,480F,480,F,,,,Backhoe Loader - 0.0 to 14.0 Ft Standard Digging Depth,California,BL,Backhoe Loaders,Four Wheel Drive,OROPS,None or Unspecified,None or Unspecified,No,Standard,Standard,None or Unspecified,,,,,,,,,,,,,,,,,,,,,,,,,
3150,1280763,16500,1119981,132,1.0,1990,,,6/14/2005 0:00,480F,480,F,,,,Backhoe Loader - 0.0 to 14.0 Ft Standard Digging Depth,California,BL,Backhoe Loaders,Four Wheel Drive,OROPS,None or Unspecified,None or Unspecified,No,Standard,Standard,None or Unspecified,,,,,,,,,,,,,,,,,,,,,,,,,
3150,1280764,19500,1420024,132,2.0,1990,,,2/5/1997 0:00,480F,480,F,,,,Backhoe Loader - 0.0 to 14.0 Ft Standard Digging Depth,Florida,BL,Backhoe Loaders,Two Wheel Drive,OROPS,None or Unspecified,None or Unspecified,No,Standard,Standard,None or Unspecified,,,,,,,,,,,,,,,,,,,,,,,,,
3150,1280766,8500,1433782,132,4.0,1990,,,2/11/2008 0:00,480F,480,F,,,,Backhoe Loader - 0.0 to 14.0 Ft Standard Digging Depth,Florida,BL,Backhoe Loaders,Two Wheel Drive,OROPS,None or Unspecified,None or Unspecified,No,Standard,Standard,None or Unspecified,,,,,,,,,,,,,,,,,,,,,,,,,
3150,1280767,13000,1258221,132,25.0,1991,,,5/12/2001 0:00,480F,480,F,,,,Backhoe Loader - 0.0 to 14.0 Ft Standard Digging Depth,California,BL,Backhoe Loaders,Two Wheel Drive,OROPS,None or Unspecified,None or Unspecified,No,Standard,Standard,None or Unspecified,,,,,,,,,,,,,,,,,,,,,,,,,
3150,1280769,13800,1304194,132,2.0,1991,,,2/4/1998 0:00,480F,480,F,,,,Backhoe Loader - 0.0 to 14.0 Ft Standard Digging Depth,Florida,BL,Backhoe Loaders,Two Wheel Drive,OROPS,None or Unspecified,None or Unspecified,No,Standard,Standard,None or Unspecified,,,,,,,,,,,,,,,,,,,,,,,,,
3150,1280771,12000,961116,132,1.0,1991,,,6/16/2000 0:00,480F,480,F,,,,Backhoe Loader - 0.0 to 14.0 Ft Standard Digging Depth,Idaho,BL,Backhoe Loaders,Four Wheel Drive,OROPS,None or Unspecified,None or Unspecified,No,Standard,Standard,None or Unspecified,,,,,,,,,,,,,,,,,,,,,,,,,
3150,1280773,10000,1184126,132,1.0,1991,,,3/25/2002 0:00,480F,480,F,,,,Backhoe Loader - 0.0 to 14.0 Ft Standard Digging Depth,Nevada,BL,Backhoe Loaders,Four Wheel Drive,OROPS,None or Unspecified,None or Unspecified,No,Standard,Standard,None or Unspecified,,,,,,,,,,,,,,,,,,,,,,,,,
3150,1280780,17000,1432237,132,1.0,1991,,,4/20/1995 0:00,480F,480,F,,,,Backhoe Loader - 0.0 to 14.0 Ft Standard Digging Depth,Georgia,BL,Backhoe Loaders,Two Wheel Drive,OROPS,None or Unspecified,None or Unspecified,No,Standard,Standard,None or Unspecified,,,,,,,,,,,,,,,,,,,,,,,,,
3150,1280783,16000,1421624,132,10.0,1991,,,3/26/1996 0:00,480F,480,F,,,,Backhoe Loader - 0.0 to 14.0 Ft Standard Digging Depth,Tennessee,BL,Backhoe Loaders,Two Wheel Drive,EROPS,None or Unspecified,None or Unspecified,No,Standard,Standard,None or Unspecified,,,,,,,,,,,,,,,,,,,,,,,,,
3150,1280784,16500,1421624,132,99.0,1992,,,4/26/1996 0:00,480F,480,F,,,,Backhoe Loader - 0.0 to 14.0 Ft Standard Digging Depth,Mississippi,BL,Backhoe Loaders,Two Wheel Drive,EROPS,None or Unspecified,None or Unspecified,No,Standard,Standard,None or Unspecified,,,,,,,,,,,,,,,,,,,,,,,,,
3150,1280785,12500,1075885,132,1.0,1991,,,9/11/2003 0:00,480F,480,F,,,,Backhoe Loader - 0.0 to 14.0 Ft Standard Digging Depth,California,BL,Backhoe Loaders,Four Wheel Drive,OROPS,None or Unspecified,None or Unspecified,No,Standard,Standard,None or Unspecified,,,,,,,,,,,,,,,,,,,,,,,,,
3150,1280787,16000,1302731,132,1.0,1991,,,4/4/1996 0:00,480F,480,F,,,,Backhoe Loader - 0.0 to 14.0 Ft Standard Digging Depth,Georgia,BL,Backhoe Loaders,Two Wheel Drive,OROPS,None or Unspecified,None or Unspecified,No,Standard,Standard,None or Unspecified,,,,,,,,,,,,,,,,,,,,,,,,,
3150,1280788,16500,1394418,132,1.0,1991,,,7/17/1997 0:00,480F,480,F,,,,Backhoe Loader - 0.0 to 14.0 Ft Standard Digging Depth,Georgia,BL,Backhoe Loaders,Two Wheel Drive,EROPS,None or Unspecified,None or Unspecified,No,Standard,Standard,None or Unspecified,,,,,,,,,,,,,,,,,,,,,,,,,
3150,1280790,11000,1337380,132,1.0,1991,,,10/6/2005 0:00,480F,480,F,,,,Backhoe Loader - 0.0 to 14.0 Ft Standard Digging Depth,Arizona,BL,Backhoe Loaders,Two Wheel Drive,OROPS,None or Unspecified,None or Unspecified,No,Standard,Standard,None or Unspecified,,,,,,,,,,,,,,,,,,,,,,,,,
3150,1280792,15750,1286569,132,12.0,1991,,,1/11/1995 0:00,480F,480,F,,,,Backhoe Loader - 0.0 to 14.0 Ft Standard Digging Depth,South Carolina,BL,Backhoe Loaders,Two Wheel Drive,OROPS,None or Unspecified,None or Unspecified,No,Standard,Standard,None or Unspecified,,,,,,,,,,,,,,,,,,,,,,,,,
3150,1280793,15000,1286569,132,12.0,1991,,,3/29/1995 0:00,480F,480,F,,,,Backhoe Loader - 0.0 to 14.0 Ft Standard Digging Depth,South Carolina,BL,Backhoe Loaders,Two Wheel Drive,OROPS,None or Unspecified,None or Unspecified,No,Standard,Standard,None or Unspecified,,,,,,,,,,,,,,,,,,,,,,,,,
3150,1280794,16000,1345613,132,10.0,1991,,,3/26/1996 0:00,480F,480,F,,,,Backhoe Loader - 0.0 to 14.0 Ft Standard Digging Depth,Tennessee,BL,Backhoe Loaders,Two Wheel Drive,EROPS,None or Unspecified,None or Unspecified,No,Standard,Standard,None or Unspecified,,,,,,,,,,,,,,,,,,,,,,,,,
3150,1280795,14000,1355549,132,1.0,1991,,,11/7/1996 0:00,480F,480,F,,,,Backhoe Loader - 0.0 to 14.0 Ft Standard Digging Depth,Wisconsin,BL,Backhoe Loaders,Two Wheel Drive,OROPS,None or Unspecified,None or Unspecified,No,Standard,Standard,None or Unspecified,,,,,,,,,,,,,,,,,,,,,,,,,
3150,1280796,14100,1395676,132,10.0,1991,,,1/29/1998 0:00,480F,480,F,,,,Backhoe Loader - 0.0 to 14.0 Ft Standard Digging Depth,Louisiana,BL,Backhoe Loaders,Four Wheel Drive,OROPS,None or Unspecified,None or Unspecified,No,Standard,Standard,None or Unspecified,,,,,,,,,,,,,,,,,,,,,,,,,
3150,1280797,17000,1395676,132,20.0,1000,,,4/15/1998 0:00,480F,480,F,,,,Backhoe Loader - 0.0 to 14.0 Ft Standard Digging Depth,Arkansas,BL,Backhoe Loaders,Four Wheel Drive,OROPS,None or Unspecified,None or Unspecified,No,Standard,Standard,None or Unspecified,,,,,,,,,,,,,,,,,,,,,,,,,
3150,1280798,14500,1395676,132,11.0,1991,,,3/18/1998 0:00,480F,480,F,,,,Backhoe Loader - 0.0 to 14.0 Ft Standard Digging Depth,Mississippi,BL,Backhoe Loaders,Four Wheel Drive,OROPS,None or Unspecified,None or Unspecified,No,Standard,Standard,None or Unspecified,,,,,,,,,,,,,,,,,,,,,,,,,
3150,1280799,18500,1535947,132,99.0,1991,,,4/26/1996 0:00,480F,480,F,,,,Backhoe Loader - 0.0 to 14.0 Ft Standard Digging Depth,Mississippi,BL,Backhoe Loaders,Two Wheel Drive,EROPS,None or Unspecified,None or Unspecified,No,Standard,Standard,None or Unspecified,,,,,,,,,,,,,,,,,,,,,,,,,
3150,1280800,16000,1535947,132,10.0,1991,,,3/26/1996 0:00,480F,480,F,,,,Backhoe Loader - 0.0 to 14.0 Ft Standard Digging Depth,Tennessee,BL,Backhoe Loaders,Two Wheel Drive,EROPS,None or Unspecified,None or Unspecified,No,Standard,Standard,None or Unspecified,,,,,,,,,,,,,,,,,,,,,,,,,
3150,1280802,12000,1353931,132,10.0,1991,,,8/9/2000 0:00,480F,480,F,,,,Backhoe Loader - 0.0 to 14.0 Ft Standard Digging Depth,Louisiana,BL,Backhoe Loaders,Two Wheel Drive,OROPS,None or Unspecified,None or Unspecified,No,Standard,Standard,None or Unspecified,,,,,,,,,,,,,,,,,,,,,,,,,
3150,1280803,10000,1102199,132,4.0,1991,,,2/5/1998 0:00,480F,480,F,,,,Backhoe Loader - 0.0 to 14.0 Ft Standard Digging Depth,Florida,BL,Backhoe Loaders,Two Wheel Drive,OROPS,None or Unspecified,None or Unspecified,No,Standard,Standard,None or Unspecified,,,,,,,,,,,,,,,,,,,,,,,,,
3150,1280804,20000,1432629,132,10.0,1991,,,3/26/1996 0:00,480F,480,F,,,,Backhoe Loader - 0.0 to 14.0 Ft Standard Digging Depth,Tennessee,BL,Backhoe Loaders,Two Wheel Drive,EROPS,None or Unspecified,None or Unspecified,No,Standard,Standard,None or Unspecified,,,,,,,,,,,,,,,,,,,,,,,,,
3150,1280805,16500,1432629,132,99.0,1991,,,4/26/1996 0:00,480F,480,F,,,,Backhoe Loader - 0.0 to 14.0 Ft Standard Digging Depth,Mississippi,BL,Backhoe Loaders,Two Wheel Drive,EROPS,None or Unspecified,None or Unspecified,No,Standard,Standard,None or Unspecified,,,,,,,,,,,,,,,,,,,,,,,,,
3150,1280806,14000,1387477,132,7.0,1991,,,3/5/1998 0:00,480F,480,F,,,,Backhoe Loader - 0.0 to 14.0 Ft Standard Digging Depth,Alabama,BL,Backhoe Loaders,Two Wheel Drive,OROPS,None or Unspecified,None or Unspecified,No,Standard,Standard,None or Unspecified,,,,,,,,,,,,,,,,,,,,,,,,,
3150,1280807,20000,1236212,132,10.0,1992,,,3/26/1996 0:00,480F,480,F,,,,Backhoe Loader - 0.0 to 14.0 Ft Standard Digging Depth,Tennessee,BL,Backhoe Loaders,Two Wheel Drive,EROPS,None or Unspecified,None or Unspecified,No,Standard,Standard,None or Unspecified,,,,,,,,,,,,,,,,,,,,,,,,,
3150,1280808,16500,1236212,132,99.0,1992,,,4/26/1996 0:00,480F,480,F,,,,Backhoe Loader - 0.0 to 14.0 Ft Standard Digging Depth,Mississippi,BL,Backhoe Loaders,Two Wheel Drive,EROPS,None or Unspecified,None or Unspecified,No,Standard,Standard,None or Unspecified,,,,,,,,,,,,,,,,,,,,,,,,,
3150,1280809,16250,1288021,132,11.0,1991,,,12/3/1997 0:00,480F,480,F,,,,Backhoe Loader - 0.0 to 14.0 Ft Standard Digging Depth,Mississippi,BL,Backhoe Loaders,Two Wheel Drive,OROPS,None or Unspecified,None or Unspecified,No,Standard,Standard,None or Unspecified,,,,,,,,,,,,,,,,,,,,,,,,,
3150,1280811,13000,1503094,132,1.0,1991,,,11/7/1996 0:00,480F,480,F,,,,Backhoe Loader - 0.0 to 14.0 Ft Standard Digging Depth,Wisconsin,BL,Backhoe Loaders,Two Wheel Drive,OROPS,None or Unspecified,None or Unspecified,No,Standard,Standard,None or Unspecified,,,,,,,,,,,,,,,,,,,,,,,,,
3150,1280812,11500,1453905,132,1.0,1991,,,12/5/2002 0:00,480F,480,F,,,,Backhoe Loader - 0.0 to 14.0 Ft Standard Digging Depth,Illinois,BL,Backhoe Loaders,Two Wheel Drive,OROPS,None or Unspecified,None or Unspecified,No,Standard,Standard,None or Unspecified,,,,,,,,,,,,,,,,,,,,,,,,,
3150,1280813,10500,1151877,132,1.0,1992,,,12/13/2000 0:00,480F,480,F,,,,Backhoe Loader - 0.0 to 14.0 Ft Standard Digging Depth,Texas,BL,Backhoe Loaders,Two Wheel Drive,OROPS,None or Unspecified,None or Unspecified,No,Standard,Standard,None or Unspecified,,,,,,,,,,,,,,,,,,,,,,,,,
3150,1280816,8500,1351445,132,6.0,1992,,,12/10/1998 0:00,480F,480,F,,,,Backhoe Loader - 0.0 to 14.0 Ft Standard Digging Depth,North Carolina,BL,Backhoe Loaders,Two Wheel Drive,OROPS,None or Unspecified,None or Unspecified,No,Standard,Standard,None or Unspecified,,,,,,,,,,,,,,,,,,,,,,,,,
3150,1280817,12500,1392039,132,1.0,1000,,,11/17/2005 0:00,480F,480,F,,,,Backhoe Loader - 0.0 to 14.0 Ft Standard Digging Depth,Texas,BL,Backhoe Loaders,Two Wheel Drive,OROPS,None or Unspecified,None or Unspecified,No,Standard,Standard,None or Unspecified,,,,,,,,,,,,,,,,,,,,,,,,,
3150,1280818,14000,1266893,132,2.0,1992,,,12/14/1996 0:00,480F,480,F,,,,Backhoe Loader - 0.0 to 14.0 Ft Standard Digging Depth,Illinois,BL,Backhoe Loaders,Two Wheel Drive,OROPS,None or Unspecified,None or Unspecified,No,Standard,Standard,None or Unspecified,,,,,,,,,,,,,,,,,,,,,,,,,
3150,1280819,13500,1266893,132,99.0,1992,,,8/24/1996 0:00,480F,480,F,,,,Backhoe Loader - 0.0 to 14.0 Ft Standard Digging Depth,Illinois,BL,Backhoe Loaders,Two Wheel Drive,OROPS,None or Unspecified,None or Unspecified,No,Standard,Standard,None or Unspecified,,,,,,,,,,,,,,,,,,,,,,,,,
3150,1280820,20000,1254406,132,10.0,1992,,,3/26/1996 0:00,480F,480,F,,,,Backhoe Loader - 0.0 to 14.0 Ft Standard Digging Depth,Tennessee,BL,Backhoe Loaders,Two Wheel Drive,EROPS,None or Unspecified,None or Unspecified,No,Standard,Standard,None or Unspecified,,,,,,,,,,,,,,,,,,,,,,,,,
3150,1280821,16000,1254406,132,99.0,1992,,,4/26/1996 0:00,480F,480,F,,,,Backhoe Loader - 0.0 to 14.0 Ft Standard Digging Depth,Mississippi,BL,Backhoe Loaders,Two Wheel Drive,EROPS,None or Unspecified,None or Unspecified,No,Standard,Standard,None or Unspecified,,,,,,,,,,,,,,,,,,,,,,,,,
3150,1280822,14000,1466071,132,1.0,1992,,,11/7/1996 0:00,480F,480,F,,,,Backhoe Loader - 0.0 to 14.0 Ft Standard Digging Depth,Wisconsin,BL,Backhoe Loaders,Two Wheel Drive,OROPS,None or Unspecified,None or Unspecified,No,Standard,Standard,None or Unspecified,,,,,,,,,,,,,,,,,,,,,,,,,
3150,1280823,10000,1239980,132,11.0,1992,,,9/30/1998 0:00,480F,480,F,,,,Backhoe Loader - 0.0 to 14.0 Ft Standard Digging Depth,Mississippi,BL,Backhoe Loaders,Two Wheel Drive,OROPS,None or Unspecified,None or Unspecified,No,Standard,Standard,None or Unspecified,,,,,,,,,,,,,,,,,,,,,,,,,
3150,1280824,17500,1159327,132,1.0,1992,,,10/8/1996 0:00,480F,480,F,,,,Backhoe Loader - 0.0 to 14.0 Ft Standard Digging Depth,Texas,BL,Backhoe Loaders,Two Wheel Drive,OROPS,None or Unspecified,None or Unspecified,No,Standard,Standard,None or Unspecified,,,,,,,,,,,,,,,,,,,,,,,,,
3150,1280826,12000,1403352,132,1.0,1992,,,12/8/2004 0:00,480F,480,F,,,,Backhoe Loader - 0.0 to 14.0 Ft Standard Digging Depth,Texas,BL,Backhoe Loaders,Four Wheel Drive,OROPS,None or Unspecified,None or Unspecified,No,Standard,Standard,None or Unspecified,,,,,,,,,,,,,,,,,,,,,,,,,
3150,1280829,10500,1223044,132,1.0,1992,,,10/9/2001 0:00,480F,480,F,,,,Backhoe Loader - 0.0 to 14.0 Ft Standard Digging Depth,Texas,BL,Backhoe Loaders,Two Wheel Drive,OROPS,None or Unspecified,None or Unspecified,No,Standard,Standard,None or Unspecified,,,,,,,,,,,,,,,,,,,,,,,,,
3150,1280831,12500,1533480,132,1.0,1992,,,6/21/2005 0:00,480F,480,F,,,,Backhoe Loader - 0.0 to 14.0 Ft Standard Digging Depth,New Mexico,BL,Backhoe Loaders,Four Wheel Drive,OROPS,None or Unspecified,None or Unspecified,No,Standard,Standard,None or Unspecified,,,,,,,,,,,,,,,,,,,,,,,,,
3150,1280832,8500,1524552,132,1.0,1993,,,9/18/2002 0:00,480F,480,F,,,,Backhoe Loader - 0.0 to 14.0 Ft Standard Digging Depth,Colorado,BL,Backhoe Loaders,Two Wheel Drive,OROPS,None or Unspecified,None or Unspecified,No,Standard,Standard,None or Unspecified,,,,,,,,,,,,,,,,,,,,,,,,,
3150,1280833,15500,1135728,132,1.0,1992,,,7/23/1996 0:00,480F,480,F,,,,Backhoe Loader - 0.0 to 14.0 Ft Standard Digging Depth,Texas,BL,Backhoe Loaders,Two Wheel Drive,OROPS,None or Unspecified,None or Unspecified,No,Standard,Standard,None or Unspecified,,,,,,,,,,,,,,,,,,,,,,,,,
3150,1280834,10500,1475479,132,1.0,1992,,,2/26/2003 0:00,480F,480,F,,,,Backhoe Loader - 0.0 to 14.0 Ft Standard Digging Depth,New Mexico,BL,Backhoe Loaders,Two Wheel Drive,EROPS,None or Unspecified,None or Unspecified,No,Standard,Standard,None or Unspecified,,,,,,,,,,,,,,,,,,,,,,,,,
3150,1280835,11000,1475479,132,7.0,1992,,,6/6/2003 0:00,480F,480,F,,,,Backhoe Loader - 0.0 to 14.0 Ft Standard Digging Depth,Alabama,BL,Backhoe Loaders,Two Wheel Drive,EROPS,None or Unspecified,None or Unspecified,No,Standard,Standard,None or Unspecified,,,,,,,,,,,,,,,,,,,,,,,,,
3150,1280836,15000,1223810,132,1.0,1993,,,3/30/1999 0:00,480F,480,F,,,,Backhoe Loader - 0.0 to 14.0 Ft Standard Digging Depth,Maryland,BL,Backhoe Loaders,Two Wheel Drive,OROPS,None or Unspecified,None or Unspecified,No,Standard,Standard,None or Unspecified,,,,,,,,,,,,,,,,,,,,,,,,,
3150,1280837,11000,1504869,132,1.0,1993,,,12/2/1998 0:00,480F,480,F,,,,Backhoe Loader - 0.0 to 14.0 Ft Standard Digging Depth,Texas,BL,Backhoe Loaders,Two Wheel Drive,OROPS,None or Unspecified,None or Unspecified,No,Standard,Standard,None or Unspecified,,,,,,,,,,,,,,,,,,,,,,,,,
3150,1280838,8500,1204886,132,1.0,1993,,,6/16/2004 0:00,480F,480,F,,,,Backhoe Loader - 0.0 to 14.0 Ft Standard Digging Depth,Texas,BL,Backhoe Loaders,Two Wheel Drive,OROPS,None or Unspecified,None or Unspecified,No,Standard,Standard,None or Unspecified,,,,,,,,,,,,,,,,,,,,,,,,,
3150,1280839,15750,1414025,132,18.0,1993,,,3/6/1999 0:00,480F,480,F,,,,Backhoe Loader - 0.0 to 14.0 Ft Standard Digging Depth,Pennsylvania,BL,Backhoe Loaders,Two Wheel Drive,OROPS,None or Unspecified,None or Unspecified,No,Standard,Standard,None or Unspecified,,,,,,,,,,,,,,,,,,,,,,,,,
3150,1280840,13500,1489673,132,21.0,1993,,,3/18/2000 0:00,480F,480,F,,,,Backhoe Loader - 0.0 to 14.0 Ft Standard Digging Depth,Maine,BL,Backhoe Loaders,Four Wheel Drive,OROPS,None or Unspecified,None or Unspecified,No,Standard,Standard,None or Unspecified,,,,,,,,,,,,,,,,,,,,,,,,,
3150,1280842,19500,1461559,132,2.0,1993,,,2/8/1995 0:00,480F,480,F,,,,Backhoe Loader - 0.0 to 14.0 Ft Standard Digging Depth,Florida,BL,Backhoe Loaders,Two Wheel Drive,OROPS,None or Unspecified,None or Unspecified,No,Standard,Standard,None or Unspecified,,,,,,,,,,,,,,,,,,,,,,,,,
3150,1280850,11500,1109473,132,1.0,1993,,,9/11/2003 0:00,480F,480,F,,,,Backhoe Loader - 0.0 to 14.0 Ft Standard Digging Depth,California,BL,Backhoe Loaders,Four Wheel Drive,OROPS,None or Unspecified,None or Unspecified,No,Standard,Standard,None or Unspecified,,,,,,,,,,,,,,,,,,,,,,,,,
3150,1280852,21000,1364286,132,1.0,1993,572.0,Low,4/23/1996 0:00,480F,480,F,,,,Backhoe Loader - 0.0 to 14.0 Ft Standard Digging Depth,Virginia,BL,Backhoe Loaders,Two Wheel Drive,OROPS,None or Unspecified,None or Unspecified,No,Extended,Standard,None or Unspecified,,,,,,,,,,,,,,,,,,,,,,,,,
3150,1280853,11750,1139434,132,18.0,1993,,,6/20/1998 0:00,480F,480,F,,,,Backhoe Loader - 0.0 to 14.0 Ft Standard Digging Depth,Pennsylvania,BL,Backhoe Loaders,Two Wheel Drive,EROPS,None or Unspecified,None or Unspecified,No,Standard,Standard,None or Unspecified,,,,,,,,,,,,,,,,,,,,,,,,,
3150,1280854,11000,1270675,132,7.0,1993,,,3/9/2005 0:00,480F,480,F,,,,Backhoe Loader - 0.0 to 14.0 Ft Standard Digging Depth,Alabama,BL,Backhoe Loaders,Four Wheel Drive,OROPS,None or Unspecified,None or Unspecified,No,Standard,Standard,None or Unspecified,,,,,,,,,,,,,,,,,,,,,,,,,
3150,1280856,9250,1150954,132,2.0,1000,,,2/3/2008 0:00,480F,480,F,,,,Backhoe Loader - 0.0 to 14.0 Ft Standard Digging Depth,Florida,BL,Backhoe Loaders,Two Wheel Drive,OROPS,None or Unspecified,None or Unspecified,No,Standard,Powershift,None or Unspecified,,,,,,,,,,,,,,,,,,,,,,,,,
3150,1280857,19000,1215491,132,2.0,1994,,,5/30/1998 0:00,480F,480,F,,,,Backhoe Loader - 0.0 to 14.0 Ft Standard Digging Depth,Alabama,BL,Backhoe Loaders,Two Wheel Drive,OROPS,None or Unspecified,None or Unspecified,No,Standard,Standard,None or Unspecified,,,,,,,,,,,,,,,,,,,,,,,,,
3150,1280858,15000,1305205,132,1.0,1994,,,9/21/1999 0:00,480F,480,F,,,,Backhoe Loader - 0.0 to 14.0 Ft Standard Digging Depth,Texas,BL,Backhoe Loaders,Two Wheel Drive,OROPS,None or Unspecified,None or Unspecified,No,Standard,Standard,None or Unspecified,,,,,,,,,,,,,,,,,,,,,,,,,
3150,1280859,15000,1441909,132,6.0,1996,,,2/10/1999 0:00,480F,480,F,,,,Backhoe Loader - 0.0 to 14.0 Ft Standard Digging Depth,Florida,BL,Backhoe Loaders,Two Wheel Drive,OROPS,None or Unspecified,None or Unspecified,No,Standard,Standard,None or Unspecified,,,,,,,,,,,,,,,,,,,,,,,,,
3150,1280860,9000,1407418,132,2.0,1000,,,11/15/2000 0:00,480F,480,F,,,,Backhoe Loader - 0.0 to 14.0 Ft Standard Digging Depth,Texas,BL,Backhoe Loaders,Two Wheel Drive,OROPS,None or Unspecified,None or Unspecified,No,Standard,Standard,None or Unspecified,,,,,,,,,,,,,,,,,,,,,,,,,
3150,1280862,14000,1185661,132,1.0,1994,,,3/10/2005 0:00,480F,480,F,,,,Backhoe Loader - 0.0 to 14.0 Ft Standard Digging Depth,California,BL,Backhoe Loaders,Four Wheel Drive,OROPS,None or Unspecified,None or Unspecified,No,Standard,Standard,None or Unspecified,,,,,,,,,,,,,,,,,,,,,,,,,
3150,1280868,22000,1378160,132,10.0,1995,850.0,Medium,6/26/1997 0:00,480F,480,F,,,,Backhoe Loader - 0.0 to 14.0 Ft Standard Digging Depth,Louisiana,BL,Backhoe Loaders,Two Wheel Drive,OROPS,None or Unspecified,None or Unspecified,No,Standard,Standard,None or Unspecified,,,,,,,,,,,,,,,,,,,,,,,,,
3150,1280869,12500,1114026,132,1.0,1994,,,6/8/2004 0:00,480F,480,F,,,,Backhoe Loader - 0.0 to 14.0 Ft Standard Digging Depth,Tennessee,BL,Backhoe Loaders,Two Wheel Drive,OROPS,None or Unspecified,None or Unspecified,No,Standard,Standard,None or Unspecified,,,,,,,,,,,,,,,,,,,,,,,,,
3150,1280870,14000,1330962,132,2.0,1994,,,9/12/1998 0:00,480F,480,F,,,,Backhoe Loader - 0.0 to 14.0 Ft Standard Digging Depth,North Carolina,BL,Backhoe Loaders,Two Wheel Drive,OROPS,None or Unspecified,None or Unspecified,No,Standard,Standard,None or Unspecified,,,,,,,,,,,,,,,,,,,,,,,,,
3150,1280871,17500,1514414,132,2.0,1994,,,5/30/1998 0:00,480F,480,F,,,,Backhoe Loader - 0.0 to 14.0 Ft Standard Digging Depth,Alabama,BL,Backhoe Loaders,Two Wheel Drive,OROPS,None or Unspecified,None or Unspecified,No,Standard,Standard,None or Unspecified,,,,,,,,,,,,,,,,,,,,,,,,,
3150,1280872,13000,1514414,132,11.0,1994,,,9/30/1998 0:00,480F,480,F,,,,Backhoe Loader - 0.0 to 14.0 Ft Standard Digging Depth,Mississippi,BL,Backhoe Loaders,Two Wheel Drive,OROPS,None or Unspecified,None or Unspecified,No,Standard,Standard,None or Unspecified,,,,,,,,,,,,,,,,,,,,,,,,,
3150,1280874,14500,1223423,132,1.0,1997,,,4/9/2002 0:00,480F,480,F,,,,Backhoe Loader - 0.0 to 14.0 Ft Standard Digging Depth,Georgia,BL,Backhoe Loaders,Two Wheel Drive,OROPS,None or Unspecified,None or Unspecified,No,Extended,Standard,None or Unspecified,,,,,,,,,,,,,,,,,,,,,,,,,
3150,1280986,12000,1555368,132,1.0,1994,,,11/21/2002 0:00,480F,480,F,,,,Backhoe Loader - 0.0 to 14.0 Ft Standard Digging Depth,Arizona,BL,Backhoe Loaders,Two Wheel Drive,OROPS,None or Unspecified,None or Unspecified,No,Extended,Standard,None or Unspecified,,,,,,,,,,,,,,,,,,,,,,,,,
3150,1282874,21000,1277087,132,20.0,1990,,,4/3/1997 0:00,480F,480,F,,,,Backhoe Loader - 0.0 to 14.0 Ft Standard Digging Depth,Texas,BL,Backhoe Loaders,Four Wheel Drive,OROPS,None or Unspecified,None or Unspecified,No,Extended,Standard,None or Unspecified,,,,,,,,,,,,,,,,,,,,,,,,,
3150,1283393,10000,1253879,132,2.0,1995,,,2/8/2001 0:00,480F,480,F,,,,Backhoe Loader - 0.0 to 14.0 Ft Standard Digging Depth,Florida,BL,Backhoe Loaders,Two Wheel Drive,OROPS,None or Unspecified,None or Unspecified,No,Standard,Standard,None or Unspecified,,,,,,,,,,,,,,,,,,,,,,,,,
3150,1283396,9200,333410,132,12.0,1990,,,1/12/2000 0:00,480F,480,F,,,,Backhoe Loader - 0.0 to 14.0 Ft Standard Digging Depth,South Carolina,BL,Backhoe Loaders,Two Wheel Drive,EROPS,None or Unspecified,None or Unspecified,No,Standard,Standard,None or Unspecified,,,,,,,,,,,,,,,,,,,,,,,,,
3150,1283397,20000,1194036,132,2.0,1990,,,2/7/1996 0:00,480F,480,F,,,,Backhoe Loader - 0.0 to 14.0 Ft Standard Digging Depth,Florida,BL,Backhoe Loaders,Four Wheel Drive,EROPS,None or Unspecified,None or Unspecified,No,Standard,Standard,None or Unspecified,,,,,,,,,,,,,,,,,,,,,,,,,
3150,1283398,11500,1470404,132,9.0,1000,,,2/15/2000 0:00,480F,480,F,,,,Backhoe Loader - 0.0 to 14.0 Ft Standard Digging Depth,Florida,BL,Backhoe Loaders,Two Wheel Drive,OROPS,None or Unspecified,Street,No,Standard,Powershuttle,None or Unspecified,,,,,,,,,,,,,,,,,,,,,,,,,
3150,1283407,13500,1267183,132,1.0,1991,,,11/16/1995 0:00,480F,480,F,,,,Backhoe Loader - 0.0 to 14.0 Ft Standard Digging Depth,Georgia,BL,Backhoe Loaders,Two Wheel Drive,OROPS,None or Unspecified,None or Unspecified,No,Standard,Standard,None or Unspecified,,,,,,,,,,,,,,,,,,,,,,,,,
3150,1283408,16000,1538582,132,99.0,1991,,,4/26/1996 0:00,480F,480,F,,,,Backhoe Loader - 0.0 to 14.0 Ft Standard Digging Depth,Mississippi,BL,Backhoe Loaders,Two Wheel Drive,OROPS,None or Unspecified,None or Unspecified,No,Standard,Standard,None or Unspecified,,,,,,,,,,,,,,,,,,,,,,,,,
3150,1283409,14000,1305612,132,10.0,1992,,,11/19/1997 0:00,480F,480,F,,,,Backhoe Loader - 0.0 to 14.0 Ft Standard Digging Depth,Louisiana,BL,Backhoe Loaders,Two Wheel Drive,OROPS,None or Unspecified,None or Unspecified,No,Standard,Standard,None or Unspecified,,,,,,,,,,,,,,,,,,,,,,,,,
3150,1283410,15000,1205799,132,2.0,1992,,,2/4/1998 0:00,480F,480,F,,,,Backhoe Loader - 0.0 to 14.0 Ft Standard Digging Depth,Florida,BL,Backhoe Loaders,Two Wheel Drive,OROPS,None or Unspecified,None or Unspecified,No,Standard,Standard,None or Unspecified,,,,,,,,,,,,,,,,,,,,,,,,,
3150,1283411,16000,1488590,132,99.0,1992,,,6/27/1998 0:00,480F,480,F,,,,Backhoe Loader - 0.0 to 14.0 Ft Standard Digging Depth,Illinois,BL,Backhoe Loaders,Two Wheel Drive,EROPS,None or Unspecified,None or Unspecified,No,Standard,Standard,None or Unspecified,,,,,,,,,,,,,,,,,,,,,,,,,
3150,1286212,14500,1545486,132,1.0,1997,,,4/9/2002 0:00,480F,480,F,,,,Backhoe Loader - 0.0 to 14.0 Ft Standard Digging Depth,Georgia,BL,Backhoe Loaders,Two Wheel Drive,OROPS,None or Unspecified,None or Unspecified,No,Extended,Standard,None or Unspecified,,,,,,,,,,,,,,,,,,,,,,,,,
3150,1286216,14000,1314304,132,2.0,1994,,,9/12/1998 0:00,480F,480,F,,,,Backhoe Loader - 0.0 to 14.0 Ft Standard Digging Depth,North Carolina,BL,Backhoe Loaders,Two Wheel Drive,OROPS,None or Unspecified,None or Unspecified,No,Standard,Standard,None or Unspecified,,,,,,,,,,,,,,,,,,,,,,,,,
3150,1286217,14500,1247821,132,1.0,1997,,,4/9/2002 0:00,480F,480,F,,,,Backhoe Loader - 0.0 to 14.0 Ft Standard Digging Depth,Georgia,BL,Backhoe Loaders,Two Wheel Drive,OROPS,None or Unspecified,None or Unspecified,No,Extended,Standard,None or Unspecified,,,,,,,,,,,,,,,,,,,,,,,,,
3150,1286219,14500,1533656,132,1.0,1997,,,4/9/2002 0:00,480F,480,F,,,,Backhoe Loader - 0.0 to 14.0 Ft Standard Digging Depth,Georgia,BL,Backhoe Loaders,Two Wheel Drive,OROPS,None or Unspecified,None or Unspecified,No,Extended,Standard,None or Unspecified,,,,,,,,,,,,,,,,,,,,,,,,,
3150,1286223,15000,1414233,132,1.0,1994,,,6/5/2001 0:00,480F,480,F,,,,Backhoe Loader - 0.0 to 14.0 Ft Standard Digging Depth,Utah,BL,Backhoe Loaders,Four Wheel Drive,OROPS,None or Unspecified,None or Unspecified,No,Standard,Standard,None or Unspecified,,,,,,,,,,,,,,,,,,,,,,,,,
3150,1286225,16500,1197172,132,1.0,1994,,,3/7/2006 0:00,480F,480,F,,,,Backhoe Loader - 0.0 to 14.0 Ft Standard Digging Depth,California,BL,Backhoe Loaders,Four Wheel Drive,OROPS,None or Unspecified,None or Unspecified,No,Standard,Standard,None or Unspecified,,,,,,,,,,,,,,,,,,,,,,,,,
3150,1286226,15000,1365845,132,1.0,1994,,,9/23/1998 0:00,480F,480,F,,,,Backhoe Loader - 0.0 to 14.0 Ft Standard Digging Depth,Texas,BL,Backhoe Loaders,Two Wheel Drive,OROPS,None or Unspecified,None or Unspecified,No,Standard,Standard,None or Unspecified,,,,,,,,,,,,,,,,,,,,,,,,,
3150,1286228,9500,1174486,132,1.0,1000,,,6/20/2005 0:00,480F,480,F,,,,Backhoe Loader - 0.0 to 14.0 Ft Standard Digging Depth,Arizona,BL,Backhoe Loaders,Two Wheel Drive,OROPS,None or Unspecified,None or Unspecified,No,Standard,Standard,None or Unspecified,,,,,,,,,,,,,,,,,,,,,,,,,
3150,1286229,12500,1398572,132,2.0,1000,,,2/4/2007 0:00,480F,480,F,,,,Backhoe Loader - 0.0 to 14.0 Ft Standard Digging Depth,Florida,BL,Backhoe Loaders,Four Wheel Drive,OROPS,None or Unspecified,None or Unspecified,No,Standard,Standard,None or Unspecified,,,,,,,,,,,,,,,,,,,,,,,,,
3150,1286230,8500,1129108,132,1.0,1994,,,9/18/2002 0:00,480F,480,F,,,,Backhoe Loader - 0.0 to 14.0 Ft Standard Digging Depth,Colorado,BL,Backhoe Loaders,Two Wheel Drive,OROPS,None or Unspecified,None or Unspecified,No,Standard,Standard,None or Unspecified,,,,,,,,,,,,,,,,,,,,,,,,,
3150,1290067,9500,1473609,132,2.0,1991,,,7/25/2002 0:00,480F,480,F,,,,Backhoe Loader - 0.0 to 14.0 Ft Standard Digging Depth,California,BL,Backhoe Loaders,Two Wheel Drive,OROPS,None or Unspecified,None or Unspecified,No,Standard,Standard,None or Unspecified,,,,,,,,,,,,,,,,,,,,,,,,,
3150,1290072,12500,1181287,132,2.0,1000,,,11/6/1999 0:00,480F,480,F,,,,Backhoe Loader - 0.0 to 14.0 Ft Standard Digging Depth,New York,BL,Backhoe Loaders,Two Wheel Drive,OROPS,None or Unspecified,None or Unspecified,No,Standard,Standard,None or Unspecified,,,,,,,,,,,,,,,,,,,,,,,,,
3150,1292102,8000,1274307,132,14.0,1994,,,9/17/2010 0:00,480F,480,F,,,,Backhoe Loader - 0.0 to 14.0 Ft Standard Digging Depth,Indiana,BL,Backhoe Loaders,Two Wheel Drive,OROPS,None or Unspecified,None or Unspecified,No,Standard,Standard,None or Unspecified,,,,,,,,,,,,,,,,,,,,,,,,,
3150,1292109,8000,1151657,132,1.0,1994,,,6/30/2009 0:00,480F,480,F,,,,Backhoe Loader - 0.0 to 14.0 Ft Standard Digging Depth,Wyoming,BL,Backhoe Loaders,Two Wheel Drive,OROPS,None or Unspecified,None or Unspecified,No,Standard,Standard,None or Unspecified,,,,,,,,,,,,,,,,,,,,,,,,,
3150,1292114,12500,1455326,132,2.0,1994,,,2/8/2007 0:00,480F,480,F,,,,Backhoe Loader - 0.0 to 14.0 Ft Standard Digging Depth,Florida,BL,Backhoe Loaders,Four Wheel Drive,OROPS,None or Unspecified,None or Unspecified,No,Standard,Standard,None or Unspecified,,,,,,,,,,,,,,,,,,,,,,,,,
3150,1294574,12500,1325721,132,1.0,1989,,,2/22/2006 0:00,480F,480,F,,,,Backhoe Loader - 0.0 to 14.0 Ft Standard Digging Depth,Florida,BL,Backhoe Loaders,Two Wheel Drive,OROPS,None or Unspecified,None or Unspecified,No,Extended,Standard,None or Unspecified,,,,,,,,,,,,,,,,,,,,,,,,,
3150,1294780,13500,1229256,132,15.0,1990,,,7/28/1999 0:00,480F,480,F,,,,Backhoe Loader - 0.0 to 14.0 Ft Standard Digging Depth,Indiana,BL,Backhoe Loaders,Two Wheel Drive,OROPS,None or Unspecified,None or Unspecified,No,Standard,Powershuttle,None or Unspecified,,,,,,,,,,,,,,,,,,,,,,,,,
3150,1294782,8250,1086009,132,99.0,1990,,,7/17/2010 0:00,480F,480,F,,,,Backhoe Loader - 0.0 to 14.0 Ft Standard Digging Depth,Wisconsin,BL,Backhoe Loaders,Four Wheel Drive,OROPS,None or Unspecified,None or Unspecified,No,Standard,Standard,None or Unspecified,,,,,,,,,,,,,,,,,,,,,,,,,
3150,1294788,8000,1373734,132,1.0,1990,2496.0,Low,5/12/2010 0:00,480F,480,F,,,,Backhoe Loader - 0.0 to 14.0 Ft Standard Digging Depth,California,BL,Backhoe Loaders,Two Wheel Drive,EROPS,None or Unspecified,None or Unspecified,No,Standard,Standard,None or Unspecified,,,,,,,,,,,,,,,,,,,,,,,,,
3150,1294797,11000,1413807,132,1.0,1990,,,9/20/2006 0:00,480F,480,F,,,,Backhoe Loader - 0.0 to 14.0 Ft Standard Digging Depth,Washington,BL,Backhoe Loaders,Two Wheel Drive,OROPS,None or Unspecified,None or Unspecified,No,Standard,Standard,None or Unspecified,,,,,,,,,,,,,,,,,,,,,,,,,
3150,1294798,9000,1353471,132,1.0,1990,,,12/16/2008 0:00,480F,480,F,,,,Backhoe Loader - 0.0 to 14.0 Ft Standard Digging Depth,Washington,BL,Backhoe Loaders,Two Wheel Drive,OROPS,None or Unspecified,None or Unspecified,No,Standard,Standard,None or Unspecified,,,,,,,,,,,,,,,,,,,,,,,,,
3150,1294807,8500,1081953,132,4.0,1990,,,2/12/2008 0:00,480F,480,F,,,,Backhoe Loader - 0.0 to 14.0 Ft Standard Digging Depth,Florida,BL,Backhoe Loaders,Two Wheel Drive,OROPS,None or Unspecified,None or Unspecified,No,Standard,Standard,None or Unspecified,,,,,,,,,,,,,,,,,,,,,,,,,
3150,1294816,11000,1409261,132,1.0,1991,,,9/20/2006 0:00,480F,480,F,,,,Backhoe Loader - 0.0 to 14.0 Ft Standard Digging Depth,Washington,BL,Backhoe Loaders,Two Wheel Drive,OROPS,None or Unspecified,None or Unspecified,No,Standard,Standard,None or Unspecified,,,,,,,,,,,,,,,,,,,,,,,,,
3150,1294820,8000,1156746,132,1.0,1991,,,4/1/2009 0:00,480F,480,F,,,,Backhoe Loader - 0.0 to 14.0 Ft Standard Digging Depth,Maryland,BL,Backhoe Loaders,Two Wheel Drive,EROPS,None or Unspecified,None or Unspecified,No,Standard,Standard,None or Unspecified,,,,,,,,,,,,,,,,,,,,,,,,,
3150,1294821,9500,1124811,132,1.0,1991,,,6/28/2007 0:00,480F,480,F,,,,Backhoe Loader - 0.0 to 14.0 Ft Standard Digging Depth,Arizona,BL,Backhoe Loaders,Four Wheel Drive,OROPS,None or Unspecified,None or Unspecified,No,Standard,Standard,None or Unspecified,,,,,,,,,,,,,,,,,,,,,,,,,
3150,1294824,8500,1425013,132,1.0,1991,,,2/27/2009 0:00,480F,480,F,,,,Backhoe Loader - 0.0 to 14.0 Ft Standard Digging Depth,California,BL,Backhoe Loaders,Four Wheel Drive,OROPS,None or Unspecified,None or Unspecified,No,Standard,Standard,None or Unspecified,,,,,,,,,,,,,,,,,,,,,,,,,
3150,1294827,11500,1130306,132,1.0,1991,5228.0,Low,3/4/2011 0:00,480F,480,F,,,,Backhoe Loader - 0.0 to 14.0 Ft Standard Digging Depth,California,BL,Backhoe Loaders,Four Wheel Drive,OROPS,None or Unspecified,None or Unspecified,No,Extended,Standard,None or Unspecified,,,,,,,,,,,,,,,,,,,,,,,,,
3150,1294832,7750,1119604,132,99.0,1991,2151.0,Low,12/1/2007 0:00,480F,480,F,,,,Backhoe Loader - 0.0 to 14.0 Ft Standard Digging Depth,Maine,BL,Backhoe Loaders,Two Wheel Drive,OROPS,None or Unspecified,None or Unspecified,No,Standard,Powershuttle,None or Unspecified,,,,,,,,,,,,,,,,,,,,,,,,,
3150,1294835,9500,1542283,132,1.0,1991,,,6/28/2007 0:00,480F,480,F,,,,Backhoe Loader - 0.0 to 14.0 Ft Standard Digging Depth,Arizona,BL,Backhoe Loaders,Four Wheel Drive,OROPS,None or Unspecified,None or Unspecified,No,Standard,Standard,None or Unspecified,,,,,,,,,,,,,,,,,,,,,,,,,
3150,1294836,12250,1260127,132,99.0,1992,,,10/26/2006 0:00,480F,480,F,,,,Backhoe Loader - 0.0 to 14.0 Ft Standard Digging Depth,Texas,BL,Backhoe Loaders,Two Wheel Drive,OROPS,None or Unspecified,None or Unspecified,No,Standard,Standard,None or Unspecified,,,,,,,,,,,,,,,,,,,,,,,,,
3150,1294838,13750,1330996,132,10.0,1992,,,6/25/1998 0:00,480F,480,F,,,,Backhoe Loader - 0.0 to 14.0 Ft Standard Digging Depth,Louisiana,BL,Backhoe Loaders,Two Wheel Drive,OROPS,None or Unspecified,None or Unspecified,No,Standard,Standard,None or Unspecified,,,,,,,,,,,,,,,,,,,,,,,,,
3150,1294866,10750,1152651,132,3.0,1993,,,3/11/2010 0:00,480F,480,F,,,,Backhoe Loader - 0.0 to 14.0 Ft Standard Digging Depth,California,BL,Backhoe Loaders,Four Wheel Drive,OROPS,None or Unspecified,None or Unspecified,No,Standard,Standard,None or Unspecified,,,,,,,,,,,,,,,,,,,,,,,,,
3150,1294877,8000,1088480,132,1.0,1993,,,6/5/2007 0:00,480F,480,F,,,,Backhoe Loader - 0.0 to 14.0 Ft Standard Digging Depth,California,BL,Backhoe Loaders,Four Wheel Drive,OROPS,None or Unspecified,None or Unspecified,No,Standard,Standard,None or Unspecified,,,,,,,,,,,,,,,,,,,,,,,,,
3150,1294883,8000,1489006,132,1.0,1993,,,2/15/2007 0:00,480F,480,F,,,,Backhoe Loader - 0.0 to 14.0 Ft Standard Digging Depth,Arizona,BL,Backhoe Loaders,Two Wheel Drive,OROPS,None or Unspecified,None or Unspecified,No,Standard,Standard,None or Unspecified,,,,,,,,,,,,,,,,,,,,,,,,,
3150,1294887,17750,1476719,132,28.0,1994,2736.0,Medium,8/7/1999 0:00,480F,480,F,,,,Backhoe Loader - 0.0 to 14.0 Ft Standard Digging Depth,Mississippi,BL,Backhoe Loaders,Two Wheel Drive,OROPS,None or Unspecified,None or Unspecified,No,Standard,Standard,None or Unspecified,,,,,,,,,,,,,,,,,,,,,,,,,
3150,1294890,9500,1211149,132,1.0,1994,,,12/8/2005 0:00,480F,480,F,,,,Backhoe Loader - 0.0 to 14.0 Ft Standard Digging Depth,Texas,BL,Backhoe Loaders,Two Wheel Drive,OROPS,None or Unspecified,None or Unspecified,No,Standard,Standard,None or Unspecified,,,,,,,,,,,,,,,,,,,,,,,,,
3150,1294897,8500,1485247,132,1.0,1994,,,2/15/2007 0:00,480F,480,F,,,,Backhoe Loader - 0.0 to 14.0 Ft Standard Digging Depth,Arizona,BL,Backhoe Loaders,Two Wheel Drive,OROPS,None or Unspecified,None or Unspecified,No,Standard,Standard,None or Unspecified,,,,,,,,,,,,,,,,,,,,,,,,,
3150,1294903,8500,1262509,132,1.0,1994,,,2/21/2006 0:00,480F,480,F,,,,Backhoe Loader - 0.0 to 14.0 Ft Standard Digging Depth,Florida,BL,Backhoe Loaders,Four Wheel Drive,OROPS,None or Unspecified,None or Unspecified,No,Standard,Standard,None or Unspecified,,,,,,,,,,,,,,,,,,,,,,,,,
3150,1294909,11000,1371115,132,10.0,1994,,,9/6/2006 0:00,480F,480,F,,,,Backhoe Loader - 0.0 to 14.0 Ft Standard Digging Depth,Louisiana,BL,Backhoe Loaders,Two Wheel Drive,OROPS,None or Unspecified,None or Unspecified,No,Standard,Standard,None or Unspecified,,,,,,,,,,,,,,,,,,,,,,,,,
3150,1294913,16500,1421254,132,10.0,1994,,,6/25/1998 0:00,480F,480,F,,,,Backhoe Loader - 0.0 to 14.0 Ft Standard Digging Depth,Louisiana,BL,Backhoe Loaders,Two Wheel Drive,OROPS,None or Unspecified,None or Unspecified,No,Standard,Standard,None or Unspecified,,,,,,,,,,,,,,,,,,,,,,,,,
3150,2205472,8000,1440529,136,1.0,1000,2496.0,Low,5/12/2010 0:00,480F,480,F,,,,Backhoe Loader - 0.0 to 14.0 Ft Standard Digging Depth,California,BL,Backhoe Loaders,Two Wheel Drive,EROPS,None or Unspecified,None or Unspecified,No,Standard,Standard,None or Unspecified,,,,,,,,,,,,,,,,,,,,,,,,,
3150,2205474,9000,1454486,136,1.0,1990,,,12/16/2008 0:00,480F,480,F,,,,Backhoe Loader - 0.0 to 14.0 Ft Standard Digging Depth,Washington,BL,Backhoe Loaders,Two Wheel Drive,OROPS,None or Unspecified,None or Unspecified,No,Standard,Standard,None or Unspecified,,,,,,,,,,,,,,,,,,,,,,,,,
3150,2205476,7500,1687523,136,,1990,,,3/24/2009 0:00,480F,480,F,,,,Backhoe Loader - 0.0 to 14.0 Ft Standard Digging Depth,Texas,BL,Backhoe Loaders,Two Wheel Drive,OROPS,None or Unspecified,None or Unspecified,No,Standard,Powershuttle,None or Unspecified,,,,,,,,,,,,,,,,,,,,,,,,,
3150,2205480,8000,1140809,136,1.0,1990,,,3/19/2009 0:00,480F,480,F,,,,Backhoe Loader - 0.0 to 14.0 Ft Standard Digging Depth,Minnesota,BL,Backhoe Loaders,Two Wheel Drive,EROPS,None or Unspecified,None or Unspecified,No,Standard,Standard,None or Unspecified,,,,,,,,,,,,,,,,,,,,,,,,,
3150,2205481,8000,1232036,136,1.0,1991,,,4/1/2009 0:00,480F,480,F,,,,Backhoe Loader - 0.0 to 14.0 Ft Standard Digging Depth,Maryland,BL,Backhoe Loaders,Two Wheel Drive,EROPS,None or Unspecified,None or Unspecified,No,Standard,Standard,None or Unspecified,,,,,,,,,,,,,,,,,,,,,,,,,
3150,2205485,7750,1717367,136,,1991,2151.0,Low,12/1/2007 0:00,480F,480,F,,,,Backhoe Loader - 0.0 to 14.0 Ft Standard Digging Depth,Michigan,BL,Backhoe Loaders,Two Wheel Drive,OROPS,None or Unspecified,None or Unspecified,No,Standard,Powershuttle,None or Unspecified,,,,,,,,,,,,,,,,,,,,,,,,,
3150,2205486,8500,1756253,136,,1992,,,7/24/2008 0:00,480F,480,F,,,,Backhoe Loader - 0.0 to 14.0 Ft Standard Digging Depth,Texas,BL,Backhoe Loaders,Two Wheel Drive,OROPS,None or Unspecified,None or Unspecified,No,Standard,Standard,None or Unspecified,,,,,,,,,,,,,,,,,,,,,,,,,
3150,2205487,7500,1685837,136,1.0,1000,,,11/20/2008 0:00,480F,480,F,,,,Backhoe Loader - 0.0 to 14.0 Ft Standard Digging Depth,Georgia,BL,Backhoe Loaders,Two Wheel Drive,OROPS,None or Unspecified,None or Unspecified,No,Standard,Standard,None or Unspecified,,,,,,,,,,,,,,,,,,,,,,,,,
3150,2205488,14000,1761634,136,,1993,3471.0,Low,9/6/2007 0:00,480F,480,F,,,,Backhoe Loader - 0.0 to 14.0 Ft Standard Digging Depth,Iowa,BL,Backhoe Loaders,Two Wheel Drive,EROPS,None or Unspecified,None or Unspecified,No,Standard,Standard,None or Unspecified,,,,,,,,,,,,,,,,,,,,,,,,,
3150,2205872,8000,1701956,136,,1000,,,5/17/2008 0:00,480F,480,F,,,,Backhoe Loader - 0.0 to 14.0 Ft Standard Digging Depth,Massachusetts,BL,Backhoe Loaders,Two Wheel Drive,OROPS,None or Unspecified,None or Unspecified,No,Standard,Standard,None or Unspecified,,,,,,,,,,,,,,,,,,,,,,,,,
3150,2210576,12100,1733617,136,,1991,,,6/5/2007 0:00,480F,480,F,,,,Backhoe Loader - 0.0 to 14.0 Ft Standard Digging Depth,Indiana,BL,Backhoe Loaders,Two Wheel Drive,EROPS,None or Unspecified,None or Unspecified,No,Standard,Standard,None or Unspecified,,,,,,,,,,,,,,,,,,,,,,,,,
3150,2498553,11500,1336325,149,1.0,1991,5228.0,Low,3/4/2011 0:00,480F,480,F,,,,Backhoe Loader - 0.0 to 14.0 Ft Standard Digging Depth,California,BL,Backhoe Loaders,Four Wheel Drive,EROPS,None or Unspecified,None or Unspecified,No,Extended,Standard,None or Unspecified,,,,,,,,,,,,,,,,,,,,,,,,,
3150,2498554,8500,1847944,149,99.0,1992,2809.0,Low,2/3/2011 0:00,480F,480,F,,,,Backhoe Loader - 0.0 to 14.0 Ft Standard Digging Depth,California,BL,Backhoe Loaders,Two Wheel Drive,OROPS,None or Unspecified,None or Unspecified,No,Standard,Standard,None or Unspecified,,,,,,,,,,,,,,,,,,,,,,,,,
3150,4249357,8500,2278451,172,1.0,1991,7077.0,Medium,2/27/2009 0:00,480F,480,F,,,,Backhoe Loader - 0.0 to 14.0 Ft Standard Digging Depth,California,BL,Backhoe Loaders,Two Wheel Drive,OROPS,None or Unspecified,None or Unspecified,No,Standard,Standard,None or Unspecified,,,,,,,,,,,,,,,,,,,,,,,,,
3150,4249369,7500,1126598,172,1.0,1994,2872.0,Low,4/27/2011 0:00,480F,480,F,,,,Backhoe Loader - 0.0 to 14.0 Ft Standard Digging Depth,Nebraska,BL,Backhoe Loaders,Four Wheel Drive,OROPS,None or Unspecified,None or Unspecified,No,Standard,Standard,None or Unspecified,,,,,,,,,,,,,,,,,,,,,,,,,
3150,4249993,8000,1236706,172,1.0,1994,4339.0,Low,6/30/2009 0:00,480F,480,F,,,,Backhoe Loader - 0.0 to 14.0 Ft Standard Digging Depth,Wyoming,BL,Backhoe Loaders,Two Wheel Drive,OROPS,None or Unspecified,None or Unspecified,No,Standard,Standard,None or Unspecified,,,,,,,,,,,,,,,,,,,,,,,,,
