SalesID,2195955
SalePrice,13500
MachineID,1401724
datasource,136
auctioneerID,1.0
YearMade,1000
MachineHoursCurrentMeter,
UsageBand,
saledate,2/12/2010 0:00
fiModelDesc,580H      
fiBaseModel,580
fiSecondaryDesc,H      
fiModelSeries,
fiModelDescriptor,
ProductSize,
fiProductClassDesc,Backhoe Loader - 14.0 to 15.0 Ft Standard Digging Depth
state,California
ProductGroup,BL
ProductGroupDesc,Backhoe Loaders
Drive_System,Two Wheel Drive
Enclosure,OROPS
Forks,None or Unspecified
Pad_Type,None or Unspecified
Ride_Control,No
Stick,Extended
Transmission,Standard
Turbocharged,None or Unspecified
Blade_Extension,
Blade_Width,
Enclosure_Type,
Engine_Horsepower,
Hydraulics,
Pushblock,
Ripper,
Scarifier,
Tip_Control,
Tire_Size,
Coupler,
Coupler_System,
Grouser_Tracks,
Hydraulics_Flow,
Track_Type,
Undercarriage_Pad_Width,
Stick_Length,
Thumb,
Pattern_Changer,
Grouser_Type,
Backhoe_Mounting,
Blade_Type,
Travel_Controls,
Differential_Type,
Steering_Controls,
