ModelID,SalesID,SalePrice,MachineID,datasource,auctioneerID,YearMade,MachineHoursCurrentMeter,UsageBand,saledate,fiModelDesc,fiBaseModel,fiSecondaryDesc,fiModelSeries,fiModelDescriptor,ProductSize,fiProductClassDesc,state,ProductGroup,ProductGroupDesc,Drive_System,Enclosure,Forks,Pad_Type,Ride_Control,Stick,Transmission,Turbocharged,Blade_Extension,Blade_Width,Enclosure_Type,Engine_Horsepower,Hydraulics,Pushblock,Ripper,Scarifier,Tip_Control,Tire_Size,Coupler,Coupler_System,Grouser_Tracks,Hydraulics_Flow,Track_Type,Undercarriage_Pad_Width,Stick_Length,Thumb,Pattern_Changer,Grouser_Type,Backhoe_Mounting,Blade_Type,Travel_Controls,Differential_Type,Steering_Controls
3235,1175451,8000,1040634,121,3.0,1983,0.0,,4/21/2005 0:00,850C,850,C,,,,"Track Type Tractor, Dozer - 75.0 to 85.0 Horsepower",Oklahoma,TTT,Track Type Tractors,,OROPS,,,,,Standard,,,,,,2 Valve,,None or Unspecified,,,,,,,,,,,,,,None or Unspecified,PAT,None or Unspecified,,
3235,1207523,10000,1055024,121,3.0,1000,7085.0,Low,9/23/2010 0:00,850C,850,C,,,,"Track Type Tractor, Dozer - 75.0 to 85.0 Horsepower",Washington,TTT,Track Type Tractors,,OROPS,,,,,Powershift,,,,,,2 Valve,,None or Unspecified,,,,,,,,,,,,,,None or Unspecified,None or Unspecified,Lever,,
3235,1215924,11500,1027271,121,3.0,1000,,,8/4/2011 0:00,850C,850,C,,,,"Track Type Tractor, Dozer - 75.0 to 85.0 Horsepower",Idaho,TTT,Track Type Tractors,,OROPS,,,,,Powershift,,,,,,2 Valve,,Single Shank,,,,,,,,,,,,,,None or Unspecified,PAT,None or Unspecified,,
3235,2197178,10000,1698774,136,1.0,1981,,,4/10/2008 0:00,850C,850,C,,,,"Track Type Tractor, Dozer - 75.0 to 85.0 Horsepower",Tennessee,TTT,Track Type Tractors,,OROPS,,,,,Standard,,,,,,2 Valve,,None or Unspecified,,,,,,,,,,,,,,None or Unspecified,Straight,None or Unspecified,,
3235,2197180,14000,1671334,136,,1981,,,12/1/2007 0:00,850C,850,C,,,,"Track Type Tractor, Dozer - 75.0 to 85.0 Horsepower",New York,TTT,Track Type Tractors,,OROPS,,,,,Powershift,,,,,,2 Valve,,None or Unspecified,,,,,,,,,,,,,,None or Unspecified,PAT,None or Unspecified,,
3235,2197181,13100,1673730,136,,1981,,,10/29/2008 0:00,850C,850,C,,,,"Track Type Tractor, Dozer - 75.0 to 85.0 Horsepower",Arkansas,TTT,Track Type Tractors,,OROPS,,,,,Standard,,,,,,2 Valve,,None or Unspecified,,,,,,,,,,,,,,None or Unspecified,PAT,None or Unspecified,,
3235,2197182,9000,1717133,136,,1981,,,12/30/2008 0:00,850C,850,C,,,,"Track Type Tractor, Dozer - 75.0 to 85.0 Horsepower",North Carolina,TTT,Track Type Tractors,,OROPS,,,,,Standard,,,,,,2 Valve,,None or Unspecified,,,,,,,,,,,,,,None or Unspecified,PAT,None or Unspecified,,
3235,2197183,12250,1717133,136,,1981,,,8/24/2007 0:00,850C,850,C,,,,"Track Type Tractor, Dozer - 75.0 to 85.0 Horsepower",Connecticut,TTT,Track Type Tractors,,OROPS,,,,,Standard,,,,,,2 Valve,,None or Unspecified,,,,,,,,,,,,,,None or Unspecified,PAT,None or Unspecified,,
3235,2197184,8900,1717133,136,,1981,,,11/14/2008 0:00,850C,850,C,,,,"Track Type Tractor, Dozer - 75.0 to 85.0 Horsepower",Connecticut,TTT,Track Type Tractors,,OROPS,,,,,Standard,,,,,,2 Valve,,None or Unspecified,,,,,,,,,,,,,,None or Unspecified,PAT,None or Unspecified,,
3235,2197185,10500,1674795,136,1.0,1981,,,12/12/2007 0:00,850C,850,C,,,,"Track Type Tractor, Dozer - 75.0 to 85.0 Horsepower",Maryland,TTT,Track Type Tractors,,OROPS,,,,,Standard,,,,,,2 Valve,,None or Unspecified,,,,,,,,,,,,,,None or Unspecified,None or Unspecified,None or Unspecified,,
3235,2197188,10000,1649461,136,,1981,,,7/16/2009 0:00,850C,850,C,,,,"Track Type Tractor, Dozer - 75.0 to 85.0 Horsepower",Mississippi,TTT,Track Type Tractors,,OROPS,,,,,Standard,,,,,,2 Valve,,None or Unspecified,,,,,,,,,,,,,,None or Unspecified,PAT,None or Unspecified,,
3235,2197190,9500,1708878,136,,1982,,,3/27/2008 0:00,850C,850,C,,,,"Track Type Tractor, Dozer - 75.0 to 85.0 Horsepower",Arkansas,TTT,Track Type Tractors,,OROPS,,,,,Standard,,,,,,2 Valve,,None or Unspecified,,,,,,,,,,,,,,None or Unspecified,PAT,None or Unspecified,,
3235,2197193,10500,1725092,136,1.0,1983,,,10/30/2007 0:00,850C,850,C,,,,"Track Type Tractor, Dozer - 75.0 to 85.0 Horsepower",Missouri,TTT,Track Type Tractors,,OROPS,,,,,Standard,,,,,,2 Valve,,None or Unspecified,,,,,,,,,,,,,,None or Unspecified,PAT,None or Unspecified,,
3235,2197195,13000,1745454,136,,1983,,,6/20/2007 0:00,850C,850,C,,,,"Track Type Tractor, Dozer - 75.0 to 85.0 Horsepower",Louisiana,TTT,Track Type Tractors,,OROPS,,,,,Standard,,,,,,2 Valve,,None or Unspecified,,,,,,,,,,,,,,None or Unspecified,PAT,None or Unspecified,,
3235,2197196,9250,1666838,136,,1983,,,4/2/2009 0:00,850C,850,C,,,,"Track Type Tractor, Dozer - 75.0 to 85.0 Horsepower",Mississippi,TTT,Track Type Tractors,,OROPS,,,,,Standard,,,,,,2 Valve,,None or Unspecified,,,,,,,,,,,,,,None or Unspecified,None or Unspecified,None or Unspecified,,
3235,2197197,12500,1772129,136,,1983,,,9/23/2009 0:00,850C,850,C,,,,"Track Type Tractor, Dozer - 75.0 to 85.0 Horsepower",Texas,TTT,Track Type Tractors,,OROPS,,,,,Standard,,,,,,2 Valve,,None or Unspecified,,,,,,,,,,,,,,None or Unspecified,PAT,None or Unspecified,,
3235,2197201,17000,1027271,136,,1984,,,4/24/2007 0:00,850C,850,C,,,,"Track Type Tractor, Dozer - 75.0 to 85.0 Horsepower",Idaho,TTT,Track Type Tractors,,OROPS,,,,,Powershift,,,,,,2 Valve,,Single Shank,,,,,,,,,,,,,,None or Unspecified,PAT,None or Unspecified,,
3235,2197202,13250,1696689,136,,1984,,,11/9/2007 0:00,850C,850,C,,,,"Track Type Tractor, Dozer - 75.0 to 85.0 Horsepower",Connecticut,TTT,Track Type Tractors,,OROPS,,,,,Standard,,,,,,2 Valve,,None or Unspecified,,,,,,,,,,,,,,None or Unspecified,PAT,None or Unspecified,,
3235,2197203,13000,1743733,136,1.0,1984,,,6/10/2009 0:00,850C,850,C,,,,"Track Type Tractor, Dozer - 75.0 to 85.0 Horsepower",Texas,TTT,Track Type Tractors,,OROPS,,,,,Standard,,,,,,2 Valve,,None or Unspecified,,,,,,,,,,,,,,None or Unspecified,PAT,None or Unspecified,,
3235,2197208,15000,1652815,136,1.0,1984,,,3/30/2010 0:00,850C,850,C,,,,"Track Type Tractor, Dozer - 75.0 to 85.0 Horsepower",Missouri,TTT,Track Type Tractors,,OROPS,,,,,Standard,,,,,,2 Valve,,None or Unspecified,,,,,,,,,,,,,,None or Unspecified,PAT,None or Unspecified,,
3235,2197209,22000,330975,136,,1984,,,1/23/2008 0:00,850C,850,C,,,,"Track Type Tractor, Dozer - 75.0 to 85.0 Horsepower",New York,TTT,Track Type Tractors,,OROPS,,,,,Standard,,,,,,2 Valve,,None or Unspecified,,,,,,,,,,,,,,None or Unspecified,PAT,None or Unspecified,,
3235,2197210,10750,1688711,136,,1984,,,3/12/2008 0:00,850C,850,C,,,,"Track Type Tractor, Dozer - 75.0 to 85.0 Horsepower",Alabama,TTT,Track Type Tractors,,OROPS,,,,,Standard,,,,,,2 Valve,,None or Unspecified,,,,,,,,,,,,,,None or Unspecified,PAT,None or Unspecified,,
3235,2197211,15000,1676563,136,1.0,1984,,,9/9/2008 0:00,850C,850,C,,,,"Track Type Tractor, Dozer - 75.0 to 85.0 Horsepower",Ohio,TTT,Track Type Tractors,,OROPS,,,,,Standard,,,,,,2 Valve,,None or Unspecified,,,,,,,,,,,,,,None or Unspecified,PAT,None or Unspecified,,
3235,2197214,9750,1646422,136,,1983,,,6/13/2009 0:00,850C,850,C,,,,"Track Type Tractor, Dozer - 75.0 to 85.0 Horsepower",New York,TTT,Track Type Tractors,,OROPS,,,,,Powershift,,,,,,2 Valve,,None or Unspecified,,,,,,,,,,,,,,None or Unspecified,Straight,None or Unspecified,,
3235,2197215,13500,1787100,136,2.0,1984,,,1/23/2010 0:00,850C,850,C,,,,"Track Type Tractor, Dozer - 75.0 to 85.0 Horsepower",Ohio,TTT,Track Type Tractors,,OROPS,,,,,Standard,,,,,,2 Valve,,None or Unspecified,,,,,,,,,,,,,,None or Unspecified,PAT,None or Unspecified,,
3235,2197278,13500,1739966,136,1.0,1000,,,5/10/2008 0:00,850C,850,C,,,,"Track Type Tractor, Dozer - 75.0 to 85.0 Horsepower",Wisconsin,TTT,Track Type Tractors,,OROPS,,,,,Standard,,,,,,2 Valve,,None or Unspecified,,,,,,,,,,,,,,None or Unspecified,PAT,None or Unspecified,,
3235,2490326,8000,1886817,149,1.0,1982,0.0,,5/6/2011 0:00,850C,850,C,,,,"Track Type Tractor, Dozer - 75.0 to 85.0 Horsepower",California,TTT,Track Type Tractors,,OROPS,,,,,Standard,,,,,,2 Valve,,Single Shank,,,,,,,,,,,,,,None or Unspecified,PAT,None or Unspecified,,
