SalesID,2198331
SalePrice,9500
MachineID,1127801
datasource,136
auctioneerID,1.0
YearMade,1969
MachineHoursCurrentMeter,
UsageBand,
saledate,10/24/2007 0:00
fiModelDesc,W7C
fiBaseModel,W7
fiSecondaryDesc,C
fiModelSeries,
fiModelDescriptor,
ProductSize,Compact
fiProductClassDesc,Wheel Loader - 40.0 to 60.0 Horsepower
state,North Dakota
ProductGroup,WL
ProductGroupDesc,Wheel Loader
Drive_System,
Enclosure,EROPS
Forks,None or Unspecified
Pad_Type,
Ride_Control,None or Unspecified
Stick,
Transmission,
Turbocharged,
Blade_Extension,
Blade_Width,
Enclosure_Type,
Engine_Horsepower,
Hydraulics,2 Valve
Pushblock,
Ripper,
Scarifier,
Tip_Control,
Tire_Size,None or Unspecified
Coupler,None or Unspecified
Coupler_System,
Grouser_Tracks,
Hydraulics_Flow,
Track_Type,
Undercarriage_Pad_Width,
Stick_Length,
Thumb,
Pattern_Changer,
Grouser_Type,
Backhoe_Mounting,
Blade_Type,
Travel_Controls,
Differential_Type,Standard
Steering_Controls,Conventional
