SalesID,1151833
SalePrice,136000
MachineID,690362
datasource,121
auctioneerID,3.0
YearMade,2006
MachineHoursCurrentMeter,54.0
UsageBand,Low
saledate,1/28/2010 0:00
fiModelDesc,120M      
fiBaseModel,120
fiSecondaryDesc,M      
fiModelSeries,
fiModelDescriptor,
ProductSize,
fiProductClassDesc,Motorgrader - 145.0 to 170.0 Horsepower
state,Illinois
ProductGroup,MG
ProductGroupDesc,Motor Graders
Drive_System,All Wheel Drive
Enclosure,EROPS w AC
Forks,
Pad_Type,
Ride_Control,
Stick,
Transmission,Powershift
Turbocharged,
Blade_Extension,Yes
Blade_Width,None or Unspecified
Enclosure_Type,None or Unspecified
Engine_Horsepower,Variable
Hydraulics,Base + 5 Function
Pushblock,None or Unspecified
Ripper,Yes
Scarifier,None or Unspecified
Tip_Control,None or Unspecified
Tire_Size,"14"""
Coupler,
Coupler_System,
Grouser_Tracks,
Hydraulics_Flow,
Track_Type,
Undercarriage_Pad_Width,
Stick_Length,
Thumb,
Pattern_Changer,
Grouser_Type,
Backhoe_Mounting,
Blade_Type,
Travel_Controls,
Differential_Type,
Steering_Controls,
