ModelID,SalesID,SalePrice,MachineID,datasource,auctioneerID,YearMade,MachineHoursCurrentMeter,UsageBand,saledate,fiModelDesc,fiBaseModel,fiSecondaryDesc,fiModelSeries,fiModelDescriptor,ProductSize,fiProductClassDesc,state,ProductGroup,ProductGroupDesc,Drive_System,Enclosure,Forks,Pad_Type,Ride_Control,Stick,Transmission,Turbocharged,Blade_Extension,Blade_Width,Enclosure_Type,Engine_Horsepower,Hydraulics,Pushblock,Ripper,Scarifier,Tip_Control,Tire_Size,Coupler,Coupler_System,Grouser_Tracks,Hydraulics_Flow,Track_Type,Undercarriage_Pad_Width,Stick_Length,Thumb,Pattern_Changer,Grouser_Type,Backhoe_Mounting,Blade_Type,Travel_Controls,Differential_Type,Steering_Controls
339,1728470,8500,1241715,132,1.0,1996,,,12/19/2005 0:00,PC12R-8,PC12,R,-8,,Mini,"Hydraulic Excavator, Track - 0.0 to 2.0 Metric Tons",Ohio,TEX,Track Excavators,,EROPS,,,,,,,,,,,2 Valve,,,,,,None or Unspecified,,,,,,,,,,,,,,
339,1741214,8000,1018016,132,4.0,1000,,,11/17/2005 0:00,PC12R-8,PC12,R,-8,,Mini,"Hydraulic Excavator, Track - 0.0 to 2.0 Metric Tons",New Hampshire,TEX,Track Excavators,,EROPS,,,,,,,,,,,Base + 1 Function,,,,,,,,,,,,,,,,,,,,
339,1741215,7600,1018016,132,2.0,1000,,,3/27/2008 0:00,PC12R-8,PC12,R,-8,,Mini,"Hydraulic Excavator, Track - 0.0 to 2.0 Metric Tons",New Jersey,TEX,Track Excavators,,EROPS,,,,,,,,,,,Base + 1 Function,,,,,,,,,,,,,,,,,,,,
339,1741395,8000,1547145,132,2.0,1000,,,7/12/2003 0:00,PC12R-8,PC12,R,-8,,Mini,"Hydraulic Excavator, Track - 0.0 to 2.0 Metric Tons",New York,TEX,Track Excavators,,EROPS,,,,,,,,,,,2 Valve,,,,,,None or Unspecified,,,,,,,,,,,,,,
339,1774629,8100,1477319,132,4.0,1000,,,6/23/2003 0:00,PC12R-8,PC12,R,-8,,Mini,"Hydraulic Excavator, Track - 0.0 to 2.0 Metric Tons",New Hampshire,TEX,Track Excavators,,EROPS,,,,,,,,,,,Standard,,,,,,None or Unspecified,,,,Rubber,None or Unspecified,None or Unspecified,None or Unspecified,None or Unspecified,Double,,,,,
339,1774635,8000,1147342,132,2.0,1998,,,6/1/2003 0:00,PC12R-8,PC12,R,-8,,Mini,"Hydraulic Excavator, Track - 0.0 to 2.0 Metric Tons",Maine,TEX,Track Excavators,,EROPS,,,,,,,,,,,Standard,,,,,,None or Unspecified,,,,Rubber,None or Unspecified,None or Unspecified,None or Unspecified,None or Unspecified,Double,,,,,
339,1774639,11000,1309200,132,4.0,1000,,,6/23/2003 0:00,PC12R-8,PC12,R,-8,,Mini,"Hydraulic Excavator, Track - 0.0 to 2.0 Metric Tons",New Hampshire,TEX,Track Excavators,,EROPS,,,,,,,,,,,Standard,,,,,,None or Unspecified,,,,Rubber,None or Unspecified,None or Unspecified,None or Unspecified,None or Unspecified,Double,,,,,
339,1774671,8500,1309891,132,4.0,1000,,,6/23/2003 0:00,PC12R-8,PC12,R,-8,,Mini,"Hydraulic Excavator, Track - 0.0 to 2.0 Metric Tons",New Hampshire,TEX,Track Excavators,,EROPS,,,,,,,,,,,Standard,,,,,,None or Unspecified,,,,Rubber,None or Unspecified,None or Unspecified,None or Unspecified,None or Unspecified,Double,,,,,
