SalesID,1219826
SalePrice,19500
MachineID,462811
datasource,121
auctioneerID,3.0
YearMade,2007
MachineHoursCurrentMeter,5434.0
UsageBand,High
saledate,10/27/2011 0:00
fiModelDesc,272C
fiBaseModel,272
fiSecondaryDesc,C
fiModelSeries,
fiModelDescriptor,
ProductSize,
fiProductClassDesc,Skid Steer Loader - 2701.0+ Lb Operating Capacity
state,Texas
ProductGroup,SSL
ProductGroupDesc,Skid Steer Loaders
Drive_System,
Enclosure,OROPS
Forks,None or Unspecified
Pad_Type,
Ride_Control,
Stick,
Transmission,
Turbocharged,
Blade_Extension,
Blade_Width,
Enclosure_Type,
Engine_Horsepower,
Hydraulics,Auxiliary
Pushblock,
Ripper,
Scarifier,
Tip_Control,
Tire_Size,
Coupler,Manual
Coupler_System,Yes
Grouser_Tracks,None or Unspecified
Hydraulics_Flow,Standard
Track_Type,
Undercarriage_Pad_Width,
Stick_Length,
Thumb,
Pattern_Changer,
Grouser_Type,
Backhoe_Mounting,
Blade_Type,
Travel_Controls,
Differential_Type,
Steering_Controls,
