ModelID,SalesID,SalePrice,MachineID,datasource,auctioneerID,YearMade,MachineHoursCurrentMeter,UsageBand,saledate,fiModelDesc,fiBaseModel,fiSecondaryDesc,fiModelSeries,fiModelDescriptor,ProductSize,fiProductClassDesc,state,ProductGroup,ProductGroupDesc,Drive_System,Enclosure,Forks,Pad_Type,Ride_Control,Stick,Transmission,Turbocharged,Blade_Extension,Blade_Width,Enclosure_Type,Engine_Horsepower,Hydraulics,Pushblock,Ripper,Scarifier,Tip_Control,Tire_Size,Coupler,Coupler_System,Grouser_Tracks,Hydraulics_Flow,Track_Type,Undercarriage_Pad_Width,Stick_Length,Thumb,Pattern_Changer,Grouser_Type,Backhoe_Mounting,Blade_Type,Travel_Controls,Differential_Type,Steering_Controls
3449,1148144,8000,384217,121,3.0,2006,0.0,,3/12/2009 0:00,301.8C,301.8,C,,,Mini,"Hydraulic Excavator, Track - 0.0 to 2.0 Metric Tons",Arizona,TEX,Track Excavators,,EROPS,,,,,,,,,,,Auxiliary,,,,,,Manual,,,,Rubber,None or Unspecified,None or Unspecified,None or Unspecified,Yes,Double,,,,,
3449,1148897,10000,377203,121,3.0,2006,274.0,Low,3/12/2009 0:00,301.8C,301.8,C,,,Mini,"Hydraulic Excavator, Track - 0.0 to 2.0 Metric Tons",Arizona,TEX,Track Excavators,,EROPS,,,,,,,,,,,Auxiliary,,,,,,None or Unspecified,,,,Rubber,None or Unspecified,None or Unspecified,None or Unspecified,None or Unspecified,Double,,,,,
3449,1164710,18000,310934,121,3.0,2007,298.0,Low,6/2/2011 0:00,301.8C,301.8,C,,,Mini,"Hydraulic Excavator, Track - 0.0 to 2.0 Metric Tons",Nevada,TEX,Track Excavators,,EROPS,,,,,,,,,,,Auxiliary,,,,,,Manual,,,,Steel,None or Unspecified,None or Unspecified,Hydraulic,Yes,Double,,,,,
3449,1180416,14000,307084,121,3.0,2006,434.0,Medium,5/23/2008 0:00,301.8C,301.8,C,,,Mini,"Hydraulic Excavator, Track - 0.0 to 2.0 Metric Tons",Nevada,TEX,Track Excavators,,EROPS,,,,,,,,,,,Auxiliary,,,,,,None or Unspecified,,,,Rubber,16 inch,None or Unspecified,None or Unspecified,Yes,Double,,,,,
3449,1184456,13000,370351,121,3.0,2006,303.0,Low,11/6/2008 0:00,301.8C,301.8,C,,,Mini,"Hydraulic Excavator, Track - 0.0 to 2.0 Metric Tons",Arizona,TEX,Track Excavators,,EROPS,,,,,,,,,,,Auxiliary,,,,,,None or Unspecified,,,,Rubber,None or Unspecified,None or Unspecified,None or Unspecified,None or Unspecified,Double,,,,,
3449,1185614,11500,365910,121,3.0,2006,76.0,Low,12/4/2008 0:00,301.8C,301.8,C,,,Mini,"Hydraulic Excavator, Track - 0.0 to 2.0 Metric Tons",Arizona,TEX,Track Excavators,,EROPS,,,,,,,,,,,Auxiliary,,,,,,None or Unspecified,,,,Rubber,None or Unspecified,None or Unspecified,None or Unspecified,None or Unspecified,Double,,,,,
3449,1186257,10500,316149,121,3.0,2006,573.0,Medium,12/18/2008 0:00,301.8C,301.8,C,,,Mini,"Hydraulic Excavator, Track - 0.0 to 2.0 Metric Tons",Nevada,TEX,Track Excavators,,EROPS,,,,,,,,,,,Auxiliary,,,,,,None or Unspecified,,,,Rubber,None or Unspecified,None or Unspecified,None or Unspecified,Yes,Double,,,,,
3449,1186296,9000,313548,121,3.0,2006,737.0,Medium,12/18/2008 0:00,301.8C,301.8,C,,,Mini,"Hydraulic Excavator, Track - 0.0 to 2.0 Metric Tons",Nevada,TEX,Track Excavators,,EROPS,,,,,,,,,,,Auxiliary,,,,,,Manual,,,,Rubber,None or Unspecified,None or Unspecified,None or Unspecified,Yes,Double,,,,,
3449,1187107,10000,785867,121,3.0,2006,137.0,Low,1/29/2009 0:00,301.8C,301.8,C,,,Mini,"Hydraulic Excavator, Track - 0.0 to 2.0 Metric Tons",Florida,TEX,Track Excavators,,EROPS,,,,,,,,,,,Auxiliary,,,,,,None or Unspecified,,,,Rubber,None or Unspecified,None or Unspecified,None or Unspecified,Yes,Double,,,,,
3449,1192025,9000,702549,121,3.0,2006,0.0,,9/10/2009 0:00,301.8C,301.8,C,,,Mini,"Hydraulic Excavator, Track - 0.0 to 2.0 Metric Tons",California,TEX,Track Excavators,,EROPS,,,,,,,,,,,Auxiliary,,,,,,Manual,,,,Rubber,None or Unspecified,None or Unspecified,Hydraulic,Yes,Double,,,,,
3449,1219082,13000,608577,121,3.0,2008,802.0,Medium,10/13/2011 0:00,301.8C,301.8,C,,,Mini,"Hydraulic Excavator, Track - 0.0 to 2.0 Metric Tons",Texas,TEX,Track Excavators,,EROPS,,,,,,,,,,,Auxiliary,,,,,,None or Unspecified,,,,Rubber,None or Unspecified,None or Unspecified,None or Unspecified,Yes,Double,,,,,
3449,1219083,12500,614528,121,3.0,2008,993.0,Medium,10/13/2011 0:00,301.8C,301.8,C,,,Mini,"Hydraulic Excavator, Track - 0.0 to 2.0 Metric Tons",Texas,TEX,Track Excavators,,EROPS,,,,,,,,,,,Auxiliary,,,,,,None or Unspecified,,,,Rubber,None or Unspecified,None or Unspecified,None or Unspecified,Yes,Double,,,,,
3449,1219116,17500,490604,121,3.0,2007,344.0,Low,10/13/2011 0:00,301.8C,301.8,C,,,Mini,"Hydraulic Excavator, Track - 0.0 to 2.0 Metric Tons",Texas,TEX,Track Excavators,,EROPS,,,,,,,,,,,Auxiliary,,,,,,None or Unspecified,,,,Rubber,None or Unspecified,None or Unspecified,None or Unspecified,Yes,Double,,,,,
3449,1219124,14000,497929,121,3.0,2007,880.0,Medium,10/13/2011 0:00,301.8C,301.8,C,,,Mini,"Hydraulic Excavator, Track - 0.0 to 2.0 Metric Tons",Texas,TEX,Track Excavators,,EROPS,,,,,,,,,,,Auxiliary,,,,,,None or Unspecified,,,,Rubber,None or Unspecified,None or Unspecified,None or Unspecified,Yes,Double,,,,,
3449,1219136,13000,478869,121,3.0,2008,,,10/13/2011 0:00,301.8C,301.8,C,,,Mini,"Hydraulic Excavator, Track - 0.0 to 2.0 Metric Tons",Texas,TEX,Track Excavators,,EROPS,,,,,,,,,,,Auxiliary,,,,,,None or Unspecified,,,,Rubber,None or Unspecified,None or Unspecified,None or Unspecified,Yes,Double,,,,,
3449,1563463,8500,69111,132,99.0,2006,,,6/2/2009 0:00,301.8C,301.8,C,,,Mini,"Hydraulic Excavator, Track - 0.0 to 2.0 Metric Tons",Texas,TEX,Track Excavators,,EROPS,,,,,,,,,,,Standard,,,,,,None or Unspecified,,,,Steel,None or Unspecified,None or Unspecified,None or Unspecified,Yes,Double,,,,,
3449,1563472,17500,239159,132,2.0,2007,,,2/5/2010 0:00,301.8C,301.8,C,,,Mini,"Hydraulic Excavator, Track - 0.0 to 2.0 Metric Tons",Florida,TEX,Track Excavators,,EROPS,,,,,,,,,,,Auxiliary,,,,,,Manual,,,,Rubber,16 inch,None or Unspecified,None or Unspecified,Yes,Double,,,,,
3449,1563480,14500,1066943,132,3.0,2008,,,10/1/2009 0:00,301.8C,301.8,C,,,Mini,"Hydraulic Excavator, Track - 0.0 to 2.0 Metric Tons",California,TEX,Track Excavators,,EROPS,,,,,,,,,,,Auxiliary,,,,,,None or Unspecified,,,,Rubber,None or Unspecified,None or Unspecified,None or Unspecified,None or Unspecified,Double,,,,,
3449,2218297,10000,1778801,136,,2006,,,3/12/2009 0:00,301.8C,301.8,C,,,Mini,"Hydraulic Excavator, Track - 0.0 to 2.0 Metric Tons",Arizona,TEX,Track Excavators,,EROPS,,,,,,,,,,,Standard,,,,,,None or Unspecified,,,,Steel,None or Unspecified,None or Unspecified,None or Unspecified,None or Unspecified,Double,,,,,
3449,2247820,13500,1704472,136,,2006,0.0,,5/22/2009 0:00,301.8C,301.8,C,,,Mini,"Hydraulic Excavator, Track - 0.0 to 2.0 Metric Tons",New Jersey,TEX,Track Excavators,,EROPS,,,,,,,,,,,Standard,,,,,,None or Unspecified,,,,Steel,None or Unspecified,None or Unspecified,None or Unspecified,None or Unspecified,Double,,,,,
3449,2247821,11500,1704472,136,,2006,585.0,Medium,6/27/2009 0:00,301.8C,301.8,C,,,Mini,"Hydraulic Excavator, Track - 0.0 to 2.0 Metric Tons",New Jersey,TEX,Track Excavators,,EROPS,,,,,,,,,,,Standard,,,,,,None or Unspecified,,,,Steel,None or Unspecified,None or Unspecified,None or Unspecified,None or Unspecified,Double,,,,,
3449,2311399,12000,364765,136,1.0,2006,2173.0,High,2/25/2009 0:00,301.8C,301.8,C,,,Mini,"Hydraulic Excavator, Track - 0.0 to 2.0 Metric Tons",Arizona,TEX,Track Excavators,,EROPS,,,,,,,,,,,Auxiliary,,,,,,Manual,,,,Rubber,None or Unspecified,None or Unspecified,None or Unspecified,None or Unspecified,Double,,,,,
3449,2311403,8500,13709,136,1.0,2006,0.0,,6/18/2009 0:00,301.8C,301.8,C,,,Mini,"Hydraulic Excavator, Track - 0.0 to 2.0 Metric Tons",Georgia,TEX,Track Excavators,,EROPS,,,,,,,,,,,Auxiliary,,,,,,Manual,,,,Rubber,None or Unspecified,None or Unspecified,None or Unspecified,Yes,Double,,,,,
3449,2311409,11000,378438,136,1.0,2006,0.0,,2/25/2009 0:00,301.8C,301.8,C,,,Mini,"Hydraulic Excavator, Track - 0.0 to 2.0 Metric Tons",Arizona,TEX,Track Excavators,,EROPS,,,,,,,,,,,Auxiliary,,,,,,Manual,,,,Rubber,None or Unspecified,None or Unspecified,None or Unspecified,Yes,Double,,,,,
3449,2311416,15000,793192,136,1.0,2006,0.0,,10/15/2008 0:00,301.8C,301.8,C,,,Mini,"Hydraulic Excavator, Track - 0.0 to 2.0 Metric Tons",Florida,TEX,Track Excavators,,EROPS,,,,,,,,,,,Auxiliary,,,,,,None or Unspecified,,,,Rubber,None or Unspecified,None or Unspecified,None or Unspecified,Yes,Double,,,,,
3449,2311418,8000,765744,136,1.0,2006,0.0,,5/27/2009 0:00,301.8C,301.8,C,,,Mini,"Hydraulic Excavator, Track - 0.0 to 2.0 Metric Tons",Florida,TEX,Track Excavators,,EROPS,,,,,,,,,,,Auxiliary,,,,,,None or Unspecified,,,,Steel,None or Unspecified,None or Unspecified,None or Unspecified,Yes,Double,,,,,
3449,2311419,8000,794605,136,1.0,2006,605.0,Medium,5/27/2009 0:00,301.8C,301.8,C,,,Mini,"Hydraulic Excavator, Track - 0.0 to 2.0 Metric Tons",Florida,TEX,Track Excavators,,EROPS,,,,,,,,,,,Auxiliary,,,,,,None or Unspecified,,,,Steel,None or Unspecified,None or Unspecified,None or Unspecified,Yes,Double,,,,,
3449,2311420,13000,783512,136,1.0,2006,249.0,Low,2/16/2009 0:00,301.8C,301.8,C,,,Mini,"Hydraulic Excavator, Track - 0.0 to 2.0 Metric Tons",Florida,TEX,Track Excavators,,EROPS,,,,,,,,,,,Auxiliary,,,,,,None or Unspecified,,,,Steel,None or Unspecified,None or Unspecified,None or Unspecified,Yes,Double,,,,,
3449,2311421,8000,791540,136,1.0,2006,263.0,Low,5/27/2009 0:00,301.8C,301.8,C,,,Mini,"Hydraulic Excavator, Track - 0.0 to 2.0 Metric Tons",Florida,TEX,Track Excavators,,EROPS,,,,,,,,,,,Auxiliary,,,,,,None or Unspecified,,,,Steel,None or Unspecified,None or Unspecified,None or Unspecified,Yes,Double,,,,,
3449,2311422,13000,765737,136,1.0,2006,113.0,Low,2/16/2009 0:00,301.8C,301.8,C,,,Mini,"Hydraulic Excavator, Track - 0.0 to 2.0 Metric Tons",Florida,TEX,Track Excavators,,EROPS,,,,,,,,,,,Auxiliary,,,,,,None or Unspecified,,,,Steel,None or Unspecified,None or Unspecified,None or Unspecified,Yes,Double,,,,,
3449,2311424,8000,759987,136,1.0,2006,385.0,Low,5/27/2009 0:00,301.8C,301.8,C,,,Mini,"Hydraulic Excavator, Track - 0.0 to 2.0 Metric Tons",Florida,TEX,Track Excavators,,EROPS,,,,,,,,,,,Auxiliary,,,,,,None or Unspecified,,,,Rubber,None or Unspecified,None or Unspecified,None or Unspecified,Yes,Double,,,,,
3449,2311426,15000,777733,136,1.0,2006,0.0,,10/15/2008 0:00,301.8C,301.8,C,,,Mini,"Hydraulic Excavator, Track - 0.0 to 2.0 Metric Tons",Florida,TEX,Track Excavators,,EROPS,,,,,,,,,,,Auxiliary,,,,,,None or Unspecified,,,,Rubber,None or Unspecified,None or Unspecified,None or Unspecified,Yes,Double,,,,,
3449,2311429,14000,307084,136,3.0,2006,434.0,Medium,5/29/2008 0:00,301.8C,301.8,C,,,Mini,"Hydraulic Excavator, Track - 0.0 to 2.0 Metric Tons",Nevada,TEX,Track Excavators,,EROPS,,,,,,,,,,,Auxiliary,,,,,,None or Unspecified,,,,Rubber,16 inch,None or Unspecified,None or Unspecified,Yes,Double,,,,,
3449,2311432,16500,167917,136,1.0,2006,230.0,Low,9/29/2009 0:00,301.8C,301.8,C,,,Mini,"Hydraulic Excavator, Track - 0.0 to 2.0 Metric Tons",California,TEX,Track Excavators,,EROPS,,,,,,,,,,,Auxiliary,,,,,,Manual,,,,Steel,None or Unspecified,None or Unspecified,None or Unspecified,Yes,Double,,,,,
3449,2311434,15000,308637,136,1.0,2006,62800.0,High,4/3/2009 0:00,301.8C,301.8,C,,,Mini,"Hydraulic Excavator, Track - 0.0 to 2.0 Metric Tons",Nevada,TEX,Track Excavators,,EROPS,,,,,,,,,,,Auxiliary,,,,,,Manual,,,,Rubber,None or Unspecified,None or Unspecified,None or Unspecified,Yes,Double,,,,,
3449,2311439,14000,513918,136,,2006,108.0,Low,9/20/2007 0:00,301.8C,301.8,C,,,Mini,"Hydraulic Excavator, Track - 0.0 to 2.0 Metric Tons",California,TEX,Track Excavators,,EROPS,,,,,,,,,,,Auxiliary,,,,,,Manual,,,,Steel,None or Unspecified,None or Unspecified,None or Unspecified,Yes,Double,,,,,
3449,2311440,11250,517257,136,,2006,0.0,,10/3/2009 0:00,301.8C,301.8,C,,,Mini,"Hydraulic Excavator, Track - 0.0 to 2.0 Metric Tons",California,TEX,Track Excavators,,EROPS,,,,,,,,,,,Auxiliary,,,,,,Manual,,,,Steel,None or Unspecified,None or Unspecified,None or Unspecified,Yes,Double,,,,,
3449,2311441,15000,517257,136,,2006,129.0,Low,9/20/2007 0:00,301.8C,301.8,C,,,Mini,"Hydraulic Excavator, Track - 0.0 to 2.0 Metric Tons",California,TEX,Track Excavators,,EROPS,,,,,,,,,,,Auxiliary,,,,,,Manual,,,,Steel,None or Unspecified,None or Unspecified,None or Unspecified,Yes,Double,,,,,
3449,2311442,15500,512438,136,,2006,107.0,Low,9/20/2007 0:00,301.8C,301.8,C,,,Mini,"Hydraulic Excavator, Track - 0.0 to 2.0 Metric Tons",California,TEX,Track Excavators,,EROPS,,,,,,,,,,,Auxiliary,,,,,,Manual,,,,Steel,None or Unspecified,None or Unspecified,None or Unspecified,Yes,Double,,,,,
3449,2311443,13500,305761,136,1.0,2007,1029.0,Medium,5/12/2010 0:00,301.8C,301.8,C,,,Mini,"Hydraulic Excavator, Track - 0.0 to 2.0 Metric Tons",California,TEX,Track Excavators,,EROPS,,,,,,,,,,,Auxiliary,,,,,,None or Unspecified,,,,Rubber,None or Unspecified,None or Unspecified,None or Unspecified,Yes,Double,,,,,
3449,2311444,11000,305761,136,1.0,2007,1007.0,High,5/1/2009 0:00,301.8C,301.8,C,,,Mini,"Hydraulic Excavator, Track - 0.0 to 2.0 Metric Tons",Nevada,TEX,Track Excavators,,EROPS,,,,,,,,,,,Auxiliary,,,,,,None or Unspecified,,,,Rubber,None or Unspecified,None or Unspecified,None or Unspecified,Yes,Double,,,,,
3449,2311445,15000,315937,136,1.0,2007,365.0,Low,5/1/2009 0:00,301.8C,301.8,C,,,Mini,"Hydraulic Excavator, Track - 0.0 to 2.0 Metric Tons",Nevada,TEX,Track Excavators,,EROPS,,,,,,,,,,,Auxiliary,,,,,,None or Unspecified,,,,Rubber,None or Unspecified,None or Unspecified,None or Unspecified,Yes,Double,,,,,
3449,2311447,15000,311465,136,1.0,2007,410.0,Medium,5/1/2009 0:00,301.8C,301.8,C,,,Mini,"Hydraulic Excavator, Track - 0.0 to 2.0 Metric Tons",Nevada,TEX,Track Excavators,,EROPS,,,,,,,,,,,Auxiliary,,,,,,None or Unspecified,,,,Rubber,None or Unspecified,None or Unspecified,None or Unspecified,Yes,Double,,,,,
3449,2311448,19000,315841,136,1.0,2007,66400.0,High,4/3/2009 0:00,301.8C,301.8,C,,,Mini,"Hydraulic Excavator, Track - 0.0 to 2.0 Metric Tons",Nevada,TEX,Track Excavators,,EROPS,,,,,,,,,,,Auxiliary,,,,,,Manual,,,,Rubber,None or Unspecified,None or Unspecified,None or Unspecified,Yes,Double,,,,,
3449,2311453,17500,239159,136,2.0,2007,303.0,Low,1/31/2010 0:00,301.8C,301.8,C,,,Mini,"Hydraulic Excavator, Track - 0.0 to 2.0 Metric Tons",Florida,TEX,Track Excavators,,EROPS,,,,,,,,,,,Auxiliary,,,,,,Manual,,,,Rubber,16 inch,None or Unspecified,None or Unspecified,Yes,Double,,,,,
3449,2311460,13000,772971,136,1.0,2007,880.0,Medium,2/15/2010 0:00,301.8C,301.8,C,,,Mini,"Hydraulic Excavator, Track - 0.0 to 2.0 Metric Tons",Florida,TEX,Track Excavators,,EROPS,,,,,,,,,,,Auxiliary,,,,,,None or Unspecified,,,,Steel,None or Unspecified,None or Unspecified,None or Unspecified,Yes,Double,,,,,
3449,2311461,12000,772272,136,1.0,2007,895.0,Medium,2/15/2010 0:00,301.8C,301.8,C,,,Mini,"Hydraulic Excavator, Track - 0.0 to 2.0 Metric Tons",Florida,TEX,Track Excavators,,EROPS,,,,,,,,,,,Auxiliary,,,,,,None or Unspecified,,,,Steel,None or Unspecified,None or Unspecified,None or Unspecified,Yes,Double,,,,,
3449,2311462,11500,769107,136,1.0,2007,709.0,Medium,2/16/2009 0:00,301.8C,301.8,C,,,Mini,"Hydraulic Excavator, Track - 0.0 to 2.0 Metric Tons",Florida,TEX,Track Excavators,,EROPS,,,,,,,,,,,Auxiliary,,,,,,None or Unspecified,,,,Steel,None or Unspecified,None or Unspecified,None or Unspecified,Yes,Double,,,,,
3449,2311463,10500,765871,136,2.0,2007,517.0,Medium,8/13/2009 0:00,301.8C,301.8,C,,,Mini,"Hydraulic Excavator, Track - 0.0 to 2.0 Metric Tons",Florida,TEX,Track Excavators,,EROPS,,,,,,,,,,,Auxiliary,,,,,,None or Unspecified,,,,Rubber,None or Unspecified,None or Unspecified,None or Unspecified,Yes,Double,,,,,
3449,2311464,10500,765871,136,8.0,2007,0.0,,11/18/2009 0:00,301.8C,301.8,C,,,Mini,"Hydraulic Excavator, Track - 0.0 to 2.0 Metric Tons",Mississippi,TEX,Track Excavators,,EROPS,,,,,,,,,,,Auxiliary,,,,,,None or Unspecified,,,,Rubber,None or Unspecified,None or Unspecified,None or Unspecified,Yes,Double,,,,,
3449,2311465,9200,765871,136,2.0,2007,517.0,Medium,10/12/2009 0:00,301.8C,301.8,C,,,Mini,"Hydraulic Excavator, Track - 0.0 to 2.0 Metric Tons",Florida,TEX,Track Excavators,,EROPS,,,,,,,,,,,Auxiliary,,,,,,None or Unspecified,,,,Rubber,None or Unspecified,None or Unspecified,None or Unspecified,Yes,Double,,,,,
3449,2597617,10500,378438,149,99.0,2006,1732.0,Medium,6/9/2011 0:00,301.8C,301.8,C,,,Mini,"Hydraulic Excavator, Track - 0.0 to 2.0 Metric Tons",California,TEX,Track Excavators,,EROPS,,,,,,,,,,,Auxiliary,,,,,,Manual,,,,Rubber,None or Unspecified,None or Unspecified,None or Unspecified,Yes,Double,,,,,
3449,4300913,10000,2267935,172,1.0,2006,1776.0,High,9/26/2011 0:00,301.8C,301.8,C,,,Mini,"Hydraulic Excavator, Track - 0.0 to 2.0 Metric Tons",Arizona,TEX,Track Excavators,,EROPS,,,,,,,,,,,Auxiliary,,,,,,None or Unspecified,,,,Rubber,None or Unspecified,None or Unspecified,Hydraulic,None or Unspecified,Double,,,,,
3449,4300915,15000,2267935,172,1.0,2007,1046.0,Medium,6/27/2011 0:00,301.8C,301.8,C,,,Mini,"Hydraulic Excavator, Track - 0.0 to 2.0 Metric Tons",Arizona,TEX,Track Excavators,,EROPS,,,,,,,,,,,Auxiliary,,,,,,None or Unspecified,,,,Rubber,None or Unspecified,None or Unspecified,Hydraulic,None or Unspecified,Double,,,,,
3449,4300917,14000,2267935,172,1.0,2008,914.0,Medium,10/3/2011 0:00,301.8C,301.8,C,,,Mini,"Hydraulic Excavator, Track - 0.0 to 2.0 Metric Tons",Texas,TEX,Track Excavators,,EROPS,,,,,,,,,,,Auxiliary,,,,,,None or Unspecified,,,,Rubber,None or Unspecified,None or Unspecified,Hydraulic,None or Unspecified,Double,,,,,
3449,6277715,10500,1923719,149,1.0,2006,,,10/4/2011 0:00,301.8C,301.8,C,,,Mini,"Hydraulic Excavator, Track - 0.0 to 2.0 Metric Tons",Texas,TEX,Track Excavators,,EROPS,,,,,,,,,,,Standard,,,,,,None or Unspecified,,,,Steel,None or Unspecified,None or Unspecified,None or Unspecified,None or Unspecified,Double,,,,,
3449,6277720,10000,377075,149,1.0,2006,,,9/27/2011 0:00,301.8C,301.8,C,,,Mini,"Hydraulic Excavator, Track - 0.0 to 2.0 Metric Tons",Arizona,TEX,Track Excavators,,EROPS,,,,,,,,,,,Auxiliary,,,,,,Manual,,,,Steel,None or Unspecified,None or Unspecified,None or Unspecified,None or Unspecified,Double,,,,,
3449,6277721,10000,365648,149,1.0,2006,,,9/27/2011 0:00,301.8C,301.8,C,,,Mini,"Hydraulic Excavator, Track - 0.0 to 2.0 Metric Tons",Arizona,TEX,Track Excavators,,EROPS,,,,,,,,,,,Auxiliary,,,,,,Manual,,,,Steel,None or Unspecified,None or Unspecified,None or Unspecified,None or Unspecified,Double,,,,,
3449,6277724,12000,948215,149,1.0,2007,,,10/4/2011 0:00,301.8C,301.8,C,,,Mini,"Hydraulic Excavator, Track - 0.0 to 2.0 Metric Tons",Texas,TEX,Track Excavators,,EROPS,,,,,,,,,,,Standard,,,,,,None or Unspecified,,,,Steel,None or Unspecified,None or Unspecified,None or Unspecified,Yes,Double,,,,,
3449,6277725,15000,315937,149,1.0,2007,,,6/28/2011 0:00,301.8C,301.8,C,,,Mini,"Hydraulic Excavator, Track - 0.0 to 2.0 Metric Tons",Arizona,TEX,Track Excavators,,EROPS,,,,,,,,,,,Auxiliary,,,,,,None or Unspecified,,,,Rubber,None or Unspecified,None or Unspecified,None or Unspecified,Yes,Double,,,,,
3449,6277727,10500,1830232,149,1.0,2007,,,10/4/2011 0:00,301.8C,301.8,C,,,Mini,"Hydraulic Excavator, Track - 0.0 to 2.0 Metric Tons",Texas,TEX,Track Excavators,,EROPS,,,,,,,,,,,Standard,,,,,,None or Unspecified,,,,Steel,None or Unspecified,None or Unspecified,None or Unspecified,Yes,Double,,,,,
3449,6277728,12000,1871504,149,1.0,2008,,,10/4/2011 0:00,301.8C,301.8,C,,,Mini,"Hydraulic Excavator, Track - 0.0 to 2.0 Metric Tons",Texas,TEX,Track Excavators,,EROPS,,,,,,,,,,,Auxiliary,,,,,,None or Unspecified,,,,Steel,None or Unspecified,None or Unspecified,None or Unspecified,Yes,Double,,,,,
3449,6277730,13000,1911036,149,1.0,2008,,,10/4/2011 0:00,301.8C,301.8,C,,,Mini,"Hydraulic Excavator, Track - 0.0 to 2.0 Metric Tons",Texas,TEX,Track Excavators,,EROPS,,,,,,,,,,,Auxiliary,,,,,,None or Unspecified,,,,Steel,None or Unspecified,None or Unspecified,None or Unspecified,Yes,Double,,,,,
3449,6277731,14000,950113,149,1.0,2007,,,10/4/2011 0:00,301.8C,301.8,C,,,Mini,"Hydraulic Excavator, Track - 0.0 to 2.0 Metric Tons",Texas,TEX,Track Excavators,,EROPS,,,,,,,,,,,Standard,,,,,,Manual,,,,Steel,None or Unspecified,None or Unspecified,None or Unspecified,Yes,Double,,,,,
3449,6277733,11000,1934309,149,1.0,2008,,,10/4/2011 0:00,301.8C,301.8,C,,,Mini,"Hydraulic Excavator, Track - 0.0 to 2.0 Metric Tons",Texas,TEX,Track Excavators,,EROPS,,,,,,,,,,,Auxiliary,,,,,,None or Unspecified,,,,Steel,None or Unspecified,None or Unspecified,None or Unspecified,Yes,Double,,,,,
3449,6277735,13000,1874632,149,1.0,2008,,,10/4/2011 0:00,301.8C,301.8,C,,,Mini,"Hydraulic Excavator, Track - 0.0 to 2.0 Metric Tons",Texas,TEX,Track Excavators,,EROPS,,,,,,,,,,,Standard,,,,,,None or Unspecified,,,,Steel,None or Unspecified,None or Unspecified,None or Unspecified,Yes,Double,,,,,
3449,6277736,11000,952835,149,1.0,2008,,,10/4/2011 0:00,301.8C,301.8,C,,,Mini,"Hydraulic Excavator, Track - 0.0 to 2.0 Metric Tons",Texas,TEX,Track Excavators,,EROPS,,,,,,,,,,,Auxiliary,,,,,,Manual,,,,Steel,None or Unspecified,None or Unspecified,None or Unspecified,Yes,Double,,,,,
3449,6277737,14000,776806,149,1.0,2008,,,10/4/2011 0:00,301.8C,301.8,C,,,Mini,"Hydraulic Excavator, Track - 0.0 to 2.0 Metric Tons",Texas,TEX,Track Excavators,,EROPS,,,,,,,,,,,Auxiliary,,,,,,Manual,,,,Steel,None or Unspecified,None or Unspecified,None or Unspecified,Yes,Double,,,,,
3449,6277738,14000,933450,149,1.0,2008,,,10/4/2011 0:00,301.8C,301.8,C,,,Mini,"Hydraulic Excavator, Track - 0.0 to 2.0 Metric Tons",Texas,TEX,Track Excavators,,EROPS,,,,,,,,,,,Auxiliary,,,,,,Manual,,,,Steel,None or Unspecified,None or Unspecified,None or Unspecified,Yes,Double,,,,,
3449,6277739,13000,1878092,149,1.0,2008,,,10/4/2011 0:00,301.8C,301.8,C,,,Mini,"Hydraulic Excavator, Track - 0.0 to 2.0 Metric Tons",Texas,TEX,Track Excavators,,EROPS,,,,,,,,,,,Standard,,,,,,None or Unspecified,,,,Steel,None or Unspecified,None or Unspecified,None or Unspecified,Yes,Double,,,,,
