ModelID,SalesID,SalePrice,MachineID,datasource,auctioneerID,YearMade,MachineHoursCurrentMeter,UsageBand,saledate,fiModelDesc,fiBaseModel,fiSecondaryDesc,fiModelSeries,fiModelDescriptor,ProductSize,fiProductClassDesc,state,ProductGroup,ProductGroupDesc,Drive_System,Enclosure,Forks,Pad_Type,Ride_Control,Stick,Transmission,Turbocharged,Blade_Extension,Blade_Width,Enclosure_Type,Engine_Horsepower,Hydraulics,Pushblock,Ripper,Scarifier,Tip_Control,Tire_Size,Coupler,Coupler_System,Grouser_Tracks,Hydraulics_Flow,Track_Type,Undercarriage_Pad_Width,Stick_Length,Thumb,Pattern_Changer,Grouser_Type,Backhoe_Mounting,Blade_Type,Travel_Controls,Differential_Type,Steering_Controls
3459,1148477,21000,1064619,121,3.0,1999,4238.0,Medium,3/12/2009 0:00,307B,307,B,,,Mini,"Hydraulic Excavator, Track - 6.0 to 8.0 Metric Tons",Michigan,TEX,Track Excavators,,EROPS,,,,,,,,,,,Standard,,,,,,Manual,,,,Steel,None or Unspecified,None or Unspecified,None or Unspecified,None or Unspecified,Triple,,,,,
3459,1165566,33500,47403,121,3.0,1999,651.0,Low,8/25/2005 0:00,307B,307,B,,,Mini,"Hydraulic Excavator, Track - 6.0 to 8.0 Metric Tons",Louisiana,TEX,Track Excavators,,EROPS w AC,,,,,,,,,,,Standard,,,,,,None or Unspecified,,,,Steel,24 inch,None or Unspecified,None or Unspecified,None or Unspecified,Triple,,,,,
3459,1175514,21000,820814,121,3.0,1999,4962.0,High,5/5/2005 0:00,307B,307,B,,,Mini,"Hydraulic Excavator, Track - 6.0 to 8.0 Metric Tons",Massachusetts,TEX,Track Excavators,,EROPS,,,,,,,,,,,Auxiliary,,,,,,None or Unspecified,,,,Steel,16 inch,None or Unspecified,None or Unspecified,None or Unspecified,Triple,,,,,
3459,1175772,39000,54077,121,3.0,2000,1748.0,Medium,6/16/2005 0:00,307B,307,B,,,Mini,"Hydraulic Excavator, Track - 6.0 to 8.0 Metric Tons",Louisiana,TEX,Track Excavators,,EROPS w AC,,,,,,,,,,,Standard,,,,,,None or Unspecified,,,,Steel,24 inch,None or Unspecified,None or Unspecified,None or Unspecified,Triple,,,,,
3459,1177358,15500,306678,121,3.0,1999,7905.0,High,3/12/2008 0:00,307B,307,B,,,Mini,"Hydraulic Excavator, Track - 6.0 to 8.0 Metric Tons",Arizona,TEX,Track Excavators,,EROPS w AC,,,,,,,,,,,Auxiliary,,,,,,None or Unspecified,,,,Steel,18 inch,None or Unspecified,None or Unspecified,None or Unspecified,Double,,,,,
3459,1184251,15000,989840,121,3.0,1999,4234.0,Medium,11/25/2008 0:00,307B,307,B,,,Mini,"Hydraulic Excavator, Track - 6.0 to 8.0 Metric Tons",Utah,TEX,Track Excavators,,EROPS w AC,,,,,,,,,,,Auxiliary,,,,,,Hydraulic,,,,Steel,None or Unspecified,None or Unspecified,None or Unspecified,None or Unspecified,Double,,,,,
3459,1211187,18500,867194,121,3.0,2000,5937.0,Medium,2/24/2011 0:00,307B,307,B,,,Mini,"Hydraulic Excavator, Track - 6.0 to 8.0 Metric Tons",New York,TEX,Track Excavators,,EROPS,,,,,,,,,,,Standard,,,,,,None or Unspecified,,,,Steel,None or Unspecified,None or Unspecified,None or Unspecified,Yes,Double,,,,,
3459,1220337,16000,1060114,121,3.0,1997,5470.0,Medium,11/10/2011 0:00,307B,307,B,,,Mini,"Hydraulic Excavator, Track - 6.0 to 8.0 Metric Tons",New York,TEX,Track Excavators,,EROPS w AC,,,,,,,,,,,Auxiliary,,,,,,None or Unspecified,,,,Steel,18 inch,None or Unspecified,None or Unspecified,None or Unspecified,Double,,,,,
3459,1381370,28500,1223998,132,9.0,1998,,,2/16/2005 0:00,307B,307,B,,,Mini,"Hydraulic Excavator, Track - 6.0 to 8.0 Metric Tons",Florida,TEX,Track Excavators,,EROPS,,,,,,,,,,,Standard,,,,,,None or Unspecified,,,,Steel,24 inch,None or Unspecified,None or Unspecified,None or Unspecified,Triple,,,,,
3459,1381371,25500,1234534,132,2.0,1997,,,12/9/2006 0:00,307B,307,B,,,Mini,"Hydraulic Excavator, Track - 6.0 to 8.0 Metric Tons",Pennsylvania,TEX,Track Excavators,,EROPS w AC,,,,,,,,,,,Standard,,,,,,None or Unspecified,,,,Steel,18 inch,None or Unspecified,None or Unspecified,None or Unspecified,Double,,,,,
3459,1381372,42000,1504838,132,2.0,1997,,,3/18/1999 0:00,307B,307,B,,,Mini,"Hydraulic Excavator, Track - 6.0 to 8.0 Metric Tons",New Jersey,TEX,Track Excavators,,EROPS w AC,,,,,,,,,,,Standard,,,,,,None or Unspecified,,,,Steel,18 inch,None or Unspecified,None or Unspecified,None or Unspecified,Double,,,,,
3459,1381373,24000,1504838,132,1.0,1997,,,10/16/2001 0:00,307B,307,B,,,Mini,"Hydraulic Excavator, Track - 6.0 to 8.0 Metric Tons",South Carolina,TEX,Track Excavators,,EROPS w AC,,,,,,,,,,,Standard,,,,,,None or Unspecified,,,,Steel,18 inch,None or Unspecified,None or Unspecified,None or Unspecified,Double,,,,,
3459,1381374,29500,1504838,132,2.0,1997,,,2/4/2002 0:00,307B,307,B,,,Mini,"Hydraulic Excavator, Track - 6.0 to 8.0 Metric Tons",Florida,TEX,Track Excavators,,EROPS w AC,,,,,,,,,,,Standard,,,,,,None or Unspecified,,,,Steel,18 inch,None or Unspecified,None or Unspecified,None or Unspecified,Double,,,,,
3459,1381375,33000,1504838,132,11.0,1997,900.0,Medium,12/1/1999 0:00,307B,307,B,,,Mini,"Hydraulic Excavator, Track - 6.0 to 8.0 Metric Tons",Mississippi,TEX,Track Excavators,,EROPS w AC,,,,,,,,,,,Standard,,,,,,None or Unspecified,,,,Steel,18 inch,None or Unspecified,None or Unspecified,None or Unspecified,Double,,,,,
3459,1381380,17500,1401438,132,9.0,1998,,,8/29/2002 0:00,307B,307,B,,,Mini,"Hydraulic Excavator, Track - 6.0 to 8.0 Metric Tons",South Carolina,TEX,Track Excavators,,EROPS,,,,,,,,,,,Standard,,,,,,None or Unspecified,,,,Steel,18 inch,None or Unspecified,None or Unspecified,None or Unspecified,Triple,,,,,
3459,1381381,24000,1179395,132,1.0,1997,,,8/25/2005 0:00,307B,307,B,,,Mini,"Hydraulic Excavator, Track - 6.0 to 8.0 Metric Tons",Texas,TEX,Track Excavators,,EROPS,,,,,,,,,,,Standard,,,,,,None or Unspecified,,,,Steel,None or Unspecified,None or Unspecified,None or Unspecified,None or Unspecified,Double,,,,,
3459,1381382,22000,1179395,132,1.0,1997,,,5/8/2003 0:00,307B,307,B,,,Mini,"Hydraulic Excavator, Track - 6.0 to 8.0 Metric Tons",Texas,TEX,Track Excavators,,EROPS,,,,,,,,,,,Standard,,,,,,None or Unspecified,,,,Steel,None or Unspecified,None or Unspecified,None or Unspecified,None or Unspecified,Double,,,,,
3459,1381383,23500,1378354,132,2.0,1997,,,12/5/2003 0:00,307B,307,B,,,Mini,"Hydraulic Excavator, Track - 6.0 to 8.0 Metric Tons",Kentucky,TEX,Track Excavators,,EROPS w AC,,,,,,,,,,,Auxiliary,,,,,,None or Unspecified,,,,Steel,18 inch,None or Unspecified,None or Unspecified,None or Unspecified,Double,,,,,
3459,1381385,29000,1226981,132,2.0,1997,,,2/1/2004 0:00,307B,307,B,,,Mini,"Hydraulic Excavator, Track - 6.0 to 8.0 Metric Tons",Florida,TEX,Track Excavators,,EROPS w AC,,,,,,,,,,,Standard,,,,,,None or Unspecified,,,,Steel,18 inch,None or Unspecified,None or Unspecified,None or Unspecified,Double,,,,,
3459,1381387,25000,1292343,132,2.0,1997,,,2/8/2001 0:00,307B,307,B,,,Mini,"Hydraulic Excavator, Track - 6.0 to 8.0 Metric Tons",Florida,TEX,Track Excavators,,EROPS,,,,,,,,,,,Standard,,,,,,None or Unspecified,,,,Rubber,None or Unspecified,None or Unspecified,None or Unspecified,None or Unspecified,Double,,,,,
3459,1381388,24000,1292343,132,2.0,1997,,,6/8/2002 0:00,307B,307,B,,,Mini,"Hydraulic Excavator, Track - 6.0 to 8.0 Metric Tons",New York,TEX,Track Excavators,,EROPS,,,,,,,,,,,Standard,,,,,,None or Unspecified,,,,Rubber,None or Unspecified,None or Unspecified,None or Unspecified,None or Unspecified,Double,,,,,
3459,1381389,24000,1292343,132,2.0,1997,,,3/31/2001 0:00,307B,307,B,,,Mini,"Hydraulic Excavator, Track - 6.0 to 8.0 Metric Tons",New Jersey,TEX,Track Excavators,,EROPS,,,,,,,,,,,Standard,,,,,,None or Unspecified,,,,Rubber,None or Unspecified,None or Unspecified,None or Unspecified,None or Unspecified,Double,,,,,
3459,1381390,27500,1379209,132,2.0,1997,,,3/31/2005 0:00,307B,307,B,,,Mini,"Hydraulic Excavator, Track - 6.0 to 8.0 Metric Tons",New Jersey,TEX,Track Excavators,,EROPS w AC,,,,,,,,,,,Standard,,,,,,None or Unspecified,,,,Steel,None or Unspecified,None or Unspecified,None or Unspecified,None or Unspecified,Double,,,,,
3459,1381391,29000,1373356,132,4.0,1997,,,2/7/2005 0:00,307B,307,B,,,Mini,"Hydraulic Excavator, Track - 6.0 to 8.0 Metric Tons",Florida,TEX,Track Excavators,,EROPS w AC,,,,,,,,,,,Standard,,,,,,None or Unspecified,,,,Steel,None or Unspecified,None or Unspecified,None or Unspecified,None or Unspecified,Double,,,,,
3459,1381392,29000,1373356,132,2.0,1997,,,5/25/2005 0:00,307B,307,B,,,Mini,"Hydraulic Excavator, Track - 6.0 to 8.0 Metric Tons",Florida,TEX,Track Excavators,,EROPS w AC,,,,,,,,,,,Standard,,,,,,None or Unspecified,,,,Steel,None or Unspecified,None or Unspecified,None or Unspecified,None or Unspecified,Double,,,,,
3459,1381393,20500,1421418,132,5.0,1997,,,7/19/2002 0:00,307B,307,B,,,Mini,"Hydraulic Excavator, Track - 6.0 to 8.0 Metric Tons",Maine,TEX,Track Excavators,,EROPS,,,,,,,,,,,Standard,,,,,,None or Unspecified,,,,Steel,18 inch,None or Unspecified,None or Unspecified,None or Unspecified,Double,,,,,
3459,1381394,20000,1421418,132,5.0,1997,,,6/14/2002 0:00,307B,307,B,,,Mini,"Hydraulic Excavator, Track - 6.0 to 8.0 Metric Tons",New York,TEX,Track Excavators,,EROPS,,,,,,,,,,,Standard,,,,,,None or Unspecified,,,,Steel,18 inch,None or Unspecified,None or Unspecified,None or Unspecified,Double,,,,,
3459,1381396,18000,1498297,132,1.0,1997,,,3/5/2003 0:00,307B,307,B,,,Mini,"Hydraulic Excavator, Track - 6.0 to 8.0 Metric Tons",Minnesota,TEX,Track Excavators,,EROPS w AC,,,,,,,,,,,Standard,,,,,,None or Unspecified,,,,Steel,None or Unspecified,None or Unspecified,None or Unspecified,None or Unspecified,Double,,,,,
3459,1381397,23000,1079108,132,5.0,1997,,,4/26/2002 0:00,307B,307,B,,,Mini,"Hydraulic Excavator, Track - 6.0 to 8.0 Metric Tons",Connecticut,TEX,Track Excavators,,EROPS,,,,,,,,,,,Standard,,,,,,None or Unspecified,,,,Steel,None or Unspecified,None or Unspecified,None or Unspecified,None or Unspecified,Double,,,,,
3459,1381398,26000,1079108,132,4.0,1997,,,5/16/2002 0:00,307B,307,B,,,Mini,"Hydraulic Excavator, Track - 6.0 to 8.0 Metric Tons",New Hampshire,TEX,Track Excavators,,EROPS,,,,,,,,,,,Standard,,,,,,None or Unspecified,,,,Steel,None or Unspecified,None or Unspecified,None or Unspecified,None or Unspecified,Double,,,,,
3459,1381399,20000,1259062,132,2.0,1997,,,1/12/2002 0:00,307B,307,B,,,Mini,"Hydraulic Excavator, Track - 6.0 to 8.0 Metric Tons",New York,TEX,Track Excavators,,EROPS,,,,,,,,,,,Standard,,,,,,None or Unspecified,,,,Steel,None or Unspecified,None or Unspecified,None or Unspecified,None or Unspecified,Double,,,,,
3459,1381401,23500,1405198,132,9.0,1997,,,2/16/2005 0:00,307B,307,B,,,Mini,"Hydraulic Excavator, Track - 6.0 to 8.0 Metric Tons",Florida,TEX,Track Excavators,,EROPS w AC,,,,,,,,,,,Standard,,,,,,None or Unspecified,,,,Steel,18 inch,None or Unspecified,None or Unspecified,None or Unspecified,Triple,,,,,
3459,1381402,20000,1405198,132,4.0,1997,,,2/7/2005 0:00,307B,307,B,,,Mini,"Hydraulic Excavator, Track - 6.0 to 8.0 Metric Tons",Florida,TEX,Track Excavators,,EROPS w AC,,,,,,,,,,,Standard,,,,,,None or Unspecified,,,,Steel,18 inch,None or Unspecified,None or Unspecified,None or Unspecified,Triple,,,,,
3459,1381403,16500,1457924,132,4.0,1997,,,10/9/2003 0:00,307B,307,B,,,Mini,"Hydraulic Excavator, Track - 6.0 to 8.0 Metric Tons",New Hampshire,TEX,Track Excavators,,EROPS,,,,,,,,,,,Standard,,,,,,None or Unspecified,,,,Steel,None or Unspecified,None or Unspecified,None or Unspecified,None or Unspecified,Double,,,,,
3459,1381404,35000,400151,132,4.0,1997,,,2/9/2004 0:00,307B,307,B,,,Mini,"Hydraulic Excavator, Track - 6.0 to 8.0 Metric Tons",Florida,TEX,Track Excavators,,EROPS w AC,,,,,,,,,,,Standard,,,,,,None or Unspecified,,,,Steel,None or Unspecified,None or Unspecified,None or Unspecified,None or Unspecified,Double,,,,,
3459,1381407,20000,1328783,132,1.0,1998,,,11/15/2005 0:00,307B,307,B,,,Mini,"Hydraulic Excavator, Track - 6.0 to 8.0 Metric Tons",Georgia,TEX,Track Excavators,,EROPS w AC,,,,,,,,,,,Auxiliary,,,,,,None or Unspecified,,,,Steel,None or Unspecified,None or Unspecified,None or Unspecified,None or Unspecified,Double,,,,,
3459,1381408,37500,1118426,132,16.0,1998,,,10/28/2004 0:00,307B,307,B,,,Mini,"Hydraulic Excavator, Track - 6.0 to 8.0 Metric Tons",Indiana,TEX,Track Excavators,,EROPS w AC,,,,,,,,,,,Standard,,,,,,None or Unspecified,,,,Steel,None or Unspecified,None or Unspecified,None or Unspecified,None or Unspecified,Double,,,,,
3459,1381411,31500,1548680,132,4.0,1998,,,2/7/2005 0:00,307B,307,B,,,Mini,"Hydraulic Excavator, Track - 6.0 to 8.0 Metric Tons",Florida,TEX,Track Excavators,,EROPS,,,,,,,,,,,Standard,,,,,,None or Unspecified,,,,Steel,None or Unspecified,None or Unspecified,None or Unspecified,None or Unspecified,Double,,,,,
3459,1381412,59000,1007352,132,1.0,1998,,,3/16/1999 0:00,307B,307,B,,,Mini,"Hydraulic Excavator, Track - 6.0 to 8.0 Metric Tons",Texas,TEX,Track Excavators,,EROPS,,,,,,,,,,,Standard,,,,,,None or Unspecified,,,,Steel,None or Unspecified,None or Unspecified,None or Unspecified,None or Unspecified,Double,,,,,
3459,1381428,29000,1081322,132,4.0,1998,,,2/7/2005 0:00,307B,307,B,,,Mini,"Hydraulic Excavator, Track - 6.0 to 8.0 Metric Tons",Florida,TEX,Track Excavators,,EROPS w AC,,,,,,,,,,,Standard,,,,,,None or Unspecified,,,,Steel,None or Unspecified,None or Unspecified,None or Unspecified,None or Unspecified,Double,,,,,
3459,1381429,25000,1160335,132,9.0,1998,,,11/17/2005 0:00,307B,307,B,,,Mini,"Hydraulic Excavator, Track - 6.0 to 8.0 Metric Tons",South Carolina,TEX,Track Excavators,,EROPS,,,,,,,,,,,Standard,,,,,,None or Unspecified,,,,Steel,None or Unspecified,None or Unspecified,None or Unspecified,None or Unspecified,Double,,,,,
3459,1381430,26000,1480778,132,2.0,1998,,,3/27/2003 0:00,307B,307,B,,,Mini,"Hydraulic Excavator, Track - 6.0 to 8.0 Metric Tons",New Jersey,TEX,Track Excavators,,EROPS w AC,,,,,,,,,,,Standard,,,,,,None or Unspecified,,,,Steel,18 inch,None or Unspecified,None or Unspecified,None or Unspecified,Triple,,,,,
3459,1381431,25500,1480778,132,7.0,1998,,,12/7/2001 0:00,307B,307,B,,,Mini,"Hydraulic Excavator, Track - 6.0 to 8.0 Metric Tons",Alabama,TEX,Track Excavators,,EROPS w AC,,,,,,,,,,,Standard,,,,,,None or Unspecified,,,,Steel,18 inch,None or Unspecified,None or Unspecified,None or Unspecified,Triple,,,,,
3459,1381432,28500,1541201,132,9.0,1998,,,2/16/2005 0:00,307B,307,B,,,Mini,"Hydraulic Excavator, Track - 6.0 to 8.0 Metric Tons",Florida,TEX,Track Excavators,,EROPS,,,,,,,,,,,Standard,,,,,,None or Unspecified,,,,Steel,24 inch,None or Unspecified,None or Unspecified,None or Unspecified,Triple,,,,,
3459,1381433,31500,1541201,132,5.0,1998,,,3/29/2005 0:00,307B,307,B,,,Mini,"Hydraulic Excavator, Track - 6.0 to 8.0 Metric Tons",Connecticut,TEX,Track Excavators,,EROPS,,,,,,,,,,,Standard,,,,,,None or Unspecified,,,,Steel,24 inch,None or Unspecified,None or Unspecified,None or Unspecified,Triple,,,,,
3459,1381435,29000,1412807,132,1.0,1999,,,6/16/2005 0:00,307B,307,B,,,Mini,"Hydraulic Excavator, Track - 6.0 to 8.0 Metric Tons",Texas,TEX,Track Excavators,,EROPS w AC,,,,,,,,,,,Standard,,,,,,None or Unspecified,,,,Steel,None or Unspecified,None or Unspecified,None or Unspecified,None or Unspecified,Double,,,,,
3459,1381442,29000,1382310,132,13.0,1999,,,9/13/2003 0:00,307B,307,B,,,Mini,"Hydraulic Excavator, Track - 6.0 to 8.0 Metric Tons",Tennessee,TEX,Track Excavators,,EROPS,,,,,,,,,,,Standard,,,,,,None or Unspecified,,,,Steel,None or Unspecified,None or Unspecified,None or Unspecified,None or Unspecified,Double,,,,,
3459,1381443,32250,1382310,132,13.0,1999,,,9/11/2004 0:00,307B,307,B,,,Mini,"Hydraulic Excavator, Track - 6.0 to 8.0 Metric Tons",Tennessee,TEX,Track Excavators,,EROPS,,,,,,,,,,,Standard,,,,,,None or Unspecified,,,,Steel,None or Unspecified,None or Unspecified,None or Unspecified,None or Unspecified,Double,,,,,
3459,1381459,22000,1294010,132,2.0,1999,,,3/25/2004 0:00,307B,307,B,,,Mini,"Hydraulic Excavator, Track - 6.0 to 8.0 Metric Tons",New Jersey,TEX,Track Excavators,,EROPS,,,,,,,,,,,Standard,,,,,,None or Unspecified,,,,Steel,18 inch,None or Unspecified,None or Unspecified,None or Unspecified,Double,,,,,
3459,1397375,37000,802798,132,1.0,1998,,,2/19/2002 0:00,307B,307,B,,,Mini,"Hydraulic Excavator, Track - 6.0 to 8.0 Metric Tons",Florida,TEX,Track Excavators,,EROPS,,,,,,,,,,,Standard,,,,,,None or Unspecified,,,,Steel,None or Unspecified,None or Unspecified,None or Unspecified,None or Unspecified,Double,,,,,
3459,1397376,37000,786119,132,1.0,1998,,,2/21/2001 0:00,307B,307,B,,,Mini,"Hydraulic Excavator, Track - 6.0 to 8.0 Metric Tons",Florida,TEX,Track Excavators,,EROPS w AC,,,,,,,,,,,Standard,,,,,,None or Unspecified,,,,Rubber,None or Unspecified,None or Unspecified,None or Unspecified,None or Unspecified,Double,,,,,
3459,1397377,24500,271035,132,3.0,1999,,,7/25/2002 0:00,307B,307,B,,,Mini,"Hydraulic Excavator, Track - 6.0 to 8.0 Metric Tons",Unspecified,TEX,Track Excavators,,EROPS,,,,,,,,,,,Standard,,,,,,Manual,,,,Steel,24 inch,None or Unspecified,None or Unspecified,Yes,Triple,,,,,
3459,1397378,36500,875094,132,2.0,1998,,,4/30/2005 0:00,307B,307,B,,,Mini,"Hydraulic Excavator, Track - 6.0 to 8.0 Metric Tons",Maine,TEX,Track Excavators,,EROPS,,,,,,,,,,,Standard,,,,,,Manual,,,,Steel,None or Unspecified,None or Unspecified,None or Unspecified,None or Unspecified,Double,,,,,
3459,1397379,20500,408418,132,5.0,1998,,,5/20/2010 0:00,307B,307,B,,,Mini,"Hydraulic Excavator, Track - 6.0 to 8.0 Metric Tons",New Jersey,TEX,Track Excavators,,EROPS,,,,,,,,,,,Standard,,,,,,None or Unspecified,,,,Steel,None or Unspecified,None or Unspecified,None or Unspecified,None or Unspecified,Triple,,,,,
3459,1397380,32000,770592,132,1.0,1998,,,2/19/2002 0:00,307B,307,B,,,Mini,"Hydraulic Excavator, Track - 6.0 to 8.0 Metric Tons",Florida,TEX,Track Excavators,,EROPS,,,,,,,,,,,Standard,,,,,,None or Unspecified,,,,Steel,None or Unspecified,None or Unspecified,None or Unspecified,None or Unspecified,Double,,,,,
3459,1397381,26000,138773,132,1.0,1998,,,4/9/2002 0:00,307B,307,B,,,Mini,"Hydraulic Excavator, Track - 6.0 to 8.0 Metric Tons",Georgia,TEX,Track Excavators,,EROPS,,,,,,,,,,,Auxiliary,,,,,,None or Unspecified,,,,Steel,None or Unspecified,None or Unspecified,None or Unspecified,Yes,Triple,,,,,
3459,1397382,20500,439328,132,5.0,1998,,,5/14/2005 0:00,307B,307,B,,,Mini,"Hydraulic Excavator, Track - 6.0 to 8.0 Metric Tons",New Jersey,TEX,Track Excavators,,EROPS,,,,,,,,,,,Standard,,,,,,None or Unspecified,,,,Steel,18 inch,None or Unspecified,None or Unspecified,Yes,Triple,,,,,
3459,1397383,22000,1401403,132,1.0,1998,,,5/9/2006 0:00,307B,307,B,,,Mini,"Hydraulic Excavator, Track - 6.0 to 8.0 Metric Tons",Texas,TEX,Track Excavators,,EROPS,,,,,,,,,,,Standard,,,,,,None or Unspecified,,,,Steel,None or Unspecified,None or Unspecified,None or Unspecified,None or Unspecified,Triple,,,,,
3459,1397384,29000,1401403,132,1.0,1998,,,2/28/2003 0:00,307B,307,B,,,Mini,"Hydraulic Excavator, Track - 6.0 to 8.0 Metric Tons",Texas,TEX,Track Excavators,,EROPS,,,,,,,,,,,Standard,,,,,,None or Unspecified,,,,Steel,None or Unspecified,None or Unspecified,None or Unspecified,None or Unspecified,Triple,,,,,
3459,1397386,31000,395225,132,1.0,1999,,,4/27/2007 0:00,307B,307,B,,,Mini,"Hydraulic Excavator, Track - 6.0 to 8.0 Metric Tons",Missouri,TEX,Track Excavators,,EROPS,,,,,,,,,,,Auxiliary,,,,,,None or Unspecified,,,,Steel,None or Unspecified,None or Unspecified,None or Unspecified,None or Unspecified,Double,,,,,
3459,1397387,23000,543215,132,3.0,1998,,,6/27/2002 0:00,307B,307,B,,,Mini,"Hydraulic Excavator, Track - 6.0 to 8.0 Metric Tons",Unspecified,TEX,Track Excavators,,EROPS,,,,,,,,,,,Standard,,,,,,None or Unspecified,,,,Steel,24 inch,None or Unspecified,None or Unspecified,None or Unspecified,Double,,,,,
3459,1397389,15000,498982,132,8.0,1998,,,11/18/2009 0:00,307B,307,B,,,Mini,"Hydraulic Excavator, Track - 6.0 to 8.0 Metric Tons",Mississippi,TEX,Track Excavators,,EROPS,,,,,,,,,,,Standard,,,,,,None or Unspecified,,,,Steel,None or Unspecified,None or Unspecified,None or Unspecified,None or Unspecified,Double,,,,,
3459,1397390,35000,96274,132,1.0,1998,,,4/6/2004 0:00,307B,307,B,,,Mini,"Hydraulic Excavator, Track - 6.0 to 8.0 Metric Tons",Maryland,TEX,Track Excavators,,EROPS,,,,,,,,,,,Auxiliary,,,,,,Manual,,,,Steel,24 inch,None or Unspecified,None or Unspecified,Yes,Triple,,,,,
3459,1397391,18000,727499,132,7.0,1998,,,8/30/2006 0:00,307B,307,B,,,Mini,"Hydraulic Excavator, Track - 6.0 to 8.0 Metric Tons",Alabama,TEX,Track Excavators,,EROPS w AC,,,,,,,,,,,Standard,,,,,,None or Unspecified,,,,Steel,24 inch,None or Unspecified,None or Unspecified,None or Unspecified,Triple,,,,,
3459,1397392,14000,727499,132,7.0,1998,,,10/19/2006 0:00,307B,307,B,,,Mini,"Hydraulic Excavator, Track - 6.0 to 8.0 Metric Tons",South Carolina,TEX,Track Excavators,,EROPS w AC,,,,,,,,,,,Standard,,,,,,None or Unspecified,,,,Steel,24 inch,None or Unspecified,None or Unspecified,None or Unspecified,Triple,,,,,
3459,1397393,25000,143574,132,1.0,1998,,,11/15/2005 0:00,307B,307,B,,,Mini,"Hydraulic Excavator, Track - 6.0 to 8.0 Metric Tons",Georgia,TEX,Track Excavators,,EROPS,,,,,,,,,,,Standard,,,,,,None or Unspecified,,,,Steel,None or Unspecified,None or Unspecified,None or Unspecified,Yes,Triple,,,,,
3459,1397397,41000,767555,132,1.0,1999,,,2/21/2001 0:00,307B,307,B,,,Mini,"Hydraulic Excavator, Track - 6.0 to 8.0 Metric Tons",Florida,TEX,Track Excavators,,EROPS,,,,,,,,,,,Standard,,,,,,None or Unspecified,,,,Steel,None or Unspecified,None or Unspecified,None or Unspecified,None or Unspecified,Double,,,,,
3459,1397398,23000,1299990,132,20.0,1999,,,8/25/2004 0:00,307B,307,B,,,Mini,"Hydraulic Excavator, Track - 6.0 to 8.0 Metric Tons",Arkansas,TEX,Track Excavators,,,,,,,,,,,,,,,,,,,,,,,,,,,,,,,,,
3459,1397399,24000,1263506,132,3.0,1999,,,6/27/2002 0:00,307B,307,B,,,Mini,"Hydraulic Excavator, Track - 6.0 to 8.0 Metric Tons",Unspecified,TEX,Track Excavators,,EROPS w AC,,,,,,,,,,,Standard,,,,,,None or Unspecified,,,,Steel,24 inch,None or Unspecified,None or Unspecified,Yes,Triple,,,,,
3459,1397401,36000,1475962,132,2.0,1999,,,2/2/2003 0:00,307B,307,B,,,Mini,"Hydraulic Excavator, Track - 6.0 to 8.0 Metric Tons",Florida,TEX,Track Excavators,,EROPS w AC,,,,,,,,,,,Standard,,,,,,None or Unspecified,,,,Steel,24 inch,None or Unspecified,None or Unspecified,None or Unspecified,Triple,,,,,
3459,1397402,24000,1475962,132,3.0,1999,,,6/27/2002 0:00,307B,307,B,,,Mini,"Hydraulic Excavator, Track - 6.0 to 8.0 Metric Tons",Unspecified,TEX,Track Excavators,,EROPS w AC,,,,,,,,,,,Standard,,,,,,None or Unspecified,,,,Steel,24 inch,None or Unspecified,None or Unspecified,None or Unspecified,Triple,,,,,
3459,1397403,34000,820167,132,1.0,1999,,,10/3/2002 0:00,307B,307,B,,,Mini,"Hydraulic Excavator, Track - 6.0 to 8.0 Metric Tons",Maryland,TEX,Track Excavators,,EROPS,,,,,,,,,,,Standard,,,,,,None or Unspecified,,,,Steel,None or Unspecified,None or Unspecified,Hydraulic,None or Unspecified,Double,,,,,
3459,1397404,26000,246450,132,7.0,1999,,,12/1/2005 0:00,307B,307,B,,,Mini,"Hydraulic Excavator, Track - 6.0 to 8.0 Metric Tons",Alabama,TEX,Track Excavators,,EROPS,,,,,,,,,,,Standard,,,,,,None or Unspecified,,,,Steel,24 inch,None or Unspecified,Hydraulic,Yes,Triple,,,,,
3459,1397405,25000,254752,132,12.0,1999,,,9/21/2006 0:00,307B,307,B,,,Mini,"Hydraulic Excavator, Track - 6.0 to 8.0 Metric Tons",South Carolina,TEX,Track Excavators,,EROPS w AC,,,,,,,,,,,Standard,,,,,,None or Unspecified,,,,Steel,24 inch,None or Unspecified,Manual,Yes,Triple,,,,,
3459,1397406,38000,254752,132,7.0,1999,,,10/16/2003 0:00,307B,307,B,,,Mini,"Hydraulic Excavator, Track - 6.0 to 8.0 Metric Tons",South Carolina,TEX,Track Excavators,,EROPS w AC,,,,,,,,,,,Standard,,,,,,None or Unspecified,,,,Steel,24 inch,None or Unspecified,Manual,Yes,Triple,,,,,
3459,1397408,25000,1270083,132,1.0,1999,,,10/3/2002 0:00,307B,307,B,,,Mini,"Hydraulic Excavator, Track - 6.0 to 8.0 Metric Tons",Maryland,TEX,Track Excavators,,EROPS,,,,,,,,,,,Auxiliary,,,,,,None or Unspecified,,,,Steel,None or Unspecified,None or Unspecified,Manual,None or Unspecified,Double,,,,,
3459,1397412,22500,820814,132,5.0,1999,,,6/15/2005 0:00,307B,307,B,,,Mini,"Hydraulic Excavator, Track - 6.0 to 8.0 Metric Tons",Connecticut,TEX,Track Excavators,,EROPS,,,,,,,,,,,Auxiliary,,,,,,None or Unspecified,,,,Steel,16 inch,None or Unspecified,None or Unspecified,None or Unspecified,Triple,,,,,
3459,1397413,22500,861542,132,2.0,1999,,,3/31/2005 0:00,307B,307,B,,,Mini,"Hydraulic Excavator, Track - 6.0 to 8.0 Metric Tons",New Jersey,TEX,Track Excavators,,EROPS,,,,,,,,,,,Standard,,,,,,None or Unspecified,,,,Steel,None or Unspecified,None or Unspecified,None or Unspecified,Yes,Double,,,,,
3459,1397415,22000,376199,132,19.0,1999,,,11/8/2001 0:00,307B,307,B,,,Mini,"Hydraulic Excavator, Track - 6.0 to 8.0 Metric Tons",California,TEX,Track Excavators,,EROPS w AC,,,,,,,,,,,Auxiliary,,,,,,Manual,,,,Steel,18 inch,None or Unspecified,None or Unspecified,None or Unspecified,Triple,,,,,
3459,1397416,23000,1399376,132,14.0,1999,,,10/23/2009 0:00,307B,307,B,,,Mini,"Hydraulic Excavator, Track - 6.0 to 8.0 Metric Tons",Ohio,TEX,Track Excavators,,EROPS,,,,,,,,,,,Standard,,,,,,Manual,,,,Steel,None or Unspecified,None or Unspecified,None or Unspecified,Yes,Triple,,,,,
3459,1397417,26000,1178150,132,1.0,1999,,,2/24/2006 0:00,307B,307,B,,,Mini,"Hydraulic Excavator, Track - 6.0 to 8.0 Metric Tons",Florida,TEX,Track Excavators,,EROPS w AC,,,,,,,,,,,Auxiliary,,,,,,Manual,,,,Steel,None or Unspecified,None or Unspecified,Hydraulic,None or Unspecified,Triple,,,,,
3459,1397418,34000,1064619,132,1.0,1999,,,6/22/2001 0:00,307B,307,B,,,Mini,"Hydraulic Excavator, Track - 6.0 to 8.0 Metric Tons",Illinois,TEX,Track Excavators,,EROPS,,,,,,,,,,,Standard,,,,,,Manual,,,,Steel,None or Unspecified,None or Unspecified,None or Unspecified,None or Unspecified,Triple,,,,,
3459,1397420,23000,776385,132,1.0,1999,,,2/15/2005 0:00,307B,307,B,,,Mini,"Hydraulic Excavator, Track - 6.0 to 8.0 Metric Tons",Florida,TEX,Track Excavators,,EROPS,,,,,,,,,,,Standard,,,,,,None or Unspecified,,,,Rubber,None or Unspecified,None or Unspecified,None or Unspecified,None or Unspecified,Double,,,,,
3459,1397422,67000,177696,132,4.0,1999,,,2/11/2002 0:00,307B,307,B,,,Mini,"Hydraulic Excavator, Track - 6.0 to 8.0 Metric Tons",Florida,TEX,Track Excavators,,EROPS,,,,,,,,,,,Auxiliary,,,,,,None or Unspecified,,,,Steel,None or Unspecified,None or Unspecified,None or Unspecified,None or Unspecified,Double,,,,,
3459,1397427,37000,758715,132,1.0,2000,,,2/17/2004 0:00,307B,307,B,,,Mini,"Hydraulic Excavator, Track - 6.0 to 8.0 Metric Tons",Florida,TEX,Track Excavators,,EROPS,,,,,,,,,,,Standard,,,,,,None or Unspecified,,,,Rubber,None or Unspecified,None or Unspecified,None or Unspecified,None or Unspecified,Double,,,,,
3459,1397428,20000,1192307,132,99.0,2000,4470.0,Medium,9/1/2010 0:00,307B,307,B,,,Mini,"Hydraulic Excavator, Track - 6.0 to 8.0 Metric Tons",North Carolina,TEX,Track Excavators,,EROPS,,,,,,,,,,,Standard,,,,,,None or Unspecified,,,,Steel,24 inch,None or Unspecified,None or Unspecified,Yes,Triple,,,,,
3459,1397429,51000,256244,132,1.0,2000,,,2/15/2005 0:00,307B,307,B,,,Mini,"Hydraulic Excavator, Track - 6.0 to 8.0 Metric Tons",Florida,TEX,Track Excavators,,EROPS,,,,,,,,,,,Auxiliary,,,,,,None or Unspecified,,,,Rubber,None or Unspecified,None or Unspecified,None or Unspecified,None or Unspecified,Double,,,,,
3459,1397436,38000,1274847,132,3.0,2000,,,3/14/2002 0:00,307B,307,B,,,Mini,"Hydraulic Excavator, Track - 6.0 to 8.0 Metric Tons",Unspecified,TEX,Track Excavators,,EROPS,,,,,,,,,,,Standard,,,,,,Manual,,,,Steel,24 inch,None or Unspecified,None or Unspecified,None or Unspecified,Double,,,,,
3459,1397437,42000,518805,132,1.0,2000,,,6/22/2001 0:00,307B,307,B,,,Mini,"Hydraulic Excavator, Track - 6.0 to 8.0 Metric Tons",Illinois,TEX,Track Excavators,,EROPS,,,,,,,,,,,Standard,,,,,,Manual,,,,Steel,24 inch,None or Unspecified,None or Unspecified,None or Unspecified,Triple,,,,,
3459,1397441,30000,1211550,132,3.0,2000,,,3/14/2002 0:00,307B,307,B,,,Mini,"Hydraulic Excavator, Track - 6.0 to 8.0 Metric Tons",Unspecified,TEX,Track Excavators,,EROPS,,,,,,,,,,,Standard,,,,,,None or Unspecified,,,,Steel,24 inch,None or Unspecified,None or Unspecified,None or Unspecified,Double,,,,,
3459,1397449,39000,1272291,132,1.0,2000,,,3/29/2001 0:00,307B,307,B,,,Mini,"Hydraulic Excavator, Track - 6.0 to 8.0 Metric Tons",Maryland,TEX,Track Excavators,,EROPS,,,,,,,,,,,Standard,,,,,,Manual,,,,Steel,None or Unspecified,None or Unspecified,None or Unspecified,None or Unspecified,Double,,,,,
3459,1397450,43000,1313646,132,1.0,2000,,,3/29/2001 0:00,307B,307,B,,,Mini,"Hydraulic Excavator, Track - 6.0 to 8.0 Metric Tons",Maryland,TEX,Track Excavators,,EROPS,,,,,,,,,,,Standard,,,,,,Manual,,,,Steel,None or Unspecified,None or Unspecified,None or Unspecified,None or Unspecified,Double,,,,,
3459,1397451,44000,1343906,132,1.0,2000,,,3/14/2001 0:00,307B,307,B,,,Mini,"Hydraulic Excavator, Track - 6.0 to 8.0 Metric Tons",Illinois,TEX,Track Excavators,,EROPS,,,,,,,,,,,Standard,,,,,,Manual,,,,Steel,None or Unspecified,None or Unspecified,None or Unspecified,None or Unspecified,Double,,,,,
3459,1397455,30000,1416973,132,1.0,2000,,,2/24/2006 0:00,307B,307,B,,,Mini,"Hydraulic Excavator, Track - 6.0 to 8.0 Metric Tons",Florida,TEX,Track Excavators,,EROPS,,,,,,,,,,,Standard,,,,,,None or Unspecified,,,,Steel,None or Unspecified,None or Unspecified,None or Unspecified,None or Unspecified,Triple,,,,,
3459,1397459,34000,322726,132,1.0,2000,,,4/19/2006 0:00,307B,307,B,,,Mini,"Hydraulic Excavator, Track - 6.0 to 8.0 Metric Tons",Wyoming,TEX,Track Excavators,,EROPS w AC,,,,,,,,,,,Auxiliary,,,,,,None or Unspecified,,,,Steel,None or Unspecified,None or Unspecified,None or Unspecified,Yes,Double,,,,,
3459,1397461,26000,1084822,132,2.0,2000,,,3/22/2007 0:00,307B,307,B,,,Mini,"Hydraulic Excavator, Track - 6.0 to 8.0 Metric Tons",New Jersey,TEX,Track Excavators,,EROPS w AC,,,,,,,,,,,Standard,,,,,,None or Unspecified,,,,Steel,24 inch,None or Unspecified,None or Unspecified,None or Unspecified,Triple,,,,,
3459,1397462,28000,1506237,132,2.0,2000,,,2/5/2006 0:00,307B,307,B,,,Mini,"Hydraulic Excavator, Track - 6.0 to 8.0 Metric Tons",Florida,TEX,Track Excavators,,EROPS,,,,,,,,,,,Standard,,,,,,None or Unspecified,,,,Steel,None or Unspecified,None or Unspecified,None or Unspecified,None or Unspecified,Double,,,,,
3459,1397465,42000,1419788,132,1.0,2000,,,3/14/2001 0:00,307B,307,B,,,Mini,"Hydraulic Excavator, Track - 6.0 to 8.0 Metric Tons",Illinois,TEX,Track Excavators,,EROPS,,,,,,,,,,,Standard,,,,,,Manual,,,,Steel,None or Unspecified,None or Unspecified,None or Unspecified,None or Unspecified,Double,,,,,
3459,1397467,37000,797642,132,1.0,2000,,,2/18/2003 0:00,307B,307,B,,,Mini,"Hydraulic Excavator, Track - 6.0 to 8.0 Metric Tons",Florida,TEX,Track Excavators,,EROPS,,,,,,,,,,,Standard,,,,,,Manual,,,,Rubber,18 inch,None or Unspecified,None or Unspecified,None or Unspecified,Double,,,,,
3459,1397468,52000,797642,132,1.0,2000,,,3/29/2001 0:00,307B,307,B,,,Mini,"Hydraulic Excavator, Track - 6.0 to 8.0 Metric Tons",Maryland,TEX,Track Excavators,,EROPS,,,,,,,,,,,Standard,,,,,,Manual,,,,Rubber,18 inch,None or Unspecified,None or Unspecified,None or Unspecified,Double,,,,,
3459,1397469,52500,1122879,132,1.0,2000,,,3/14/2001 0:00,307B,307,B,,,Mini,"Hydraulic Excavator, Track - 6.0 to 8.0 Metric Tons",Illinois,TEX,Track Excavators,,EROPS,,,,,,,,,,,Standard,,,,,,Manual,,,,Steel,None or Unspecified,None or Unspecified,None or Unspecified,None or Unspecified,Double,,,,,
3459,1397480,26000,1112216,132,2.0,2000,,,3/22/2007 0:00,307B,307,B,,,Mini,"Hydraulic Excavator, Track - 6.0 to 8.0 Metric Tons",New Jersey,TEX,Track Excavators,,EROPS,,,,,,,,,,,Standard,,,,,,None or Unspecified,,,,Steel,24 inch,None or Unspecified,None or Unspecified,None or Unspecified,Triple,,,,,
3459,1397485,29000,783015,132,1.0,2000,,,10/14/2004 0:00,307B,307,B,,,Mini,"Hydraulic Excavator, Track - 6.0 to 8.0 Metric Tons",Florida,TEX,Track Excavators,,EROPS,,,,,,,,,,,Standard,,,,,,Manual,,,,Steel,None or Unspecified,None or Unspecified,None or Unspecified,None or Unspecified,Triple,,,,,
3459,1397489,57000,825828,132,1.0,2000,,,4/6/2004 0:00,307B,307,B,,,Mini,"Hydraulic Excavator, Track - 6.0 to 8.0 Metric Tons",Maryland,TEX,Track Excavators,,EROPS,,,,,,,,,,,Auxiliary,,,,,,None or Unspecified,,,,Steel,None or Unspecified,None or Unspecified,None or Unspecified,None or Unspecified,Triple,,,,,
3459,1397490,22500,257252,132,7.0,2000,,,4/19/2007 0:00,307B,307,B,,,Mini,"Hydraulic Excavator, Track - 6.0 to 8.0 Metric Tons",South Carolina,TEX,Track Excavators,,EROPS w AC,,,,,,,,,,,Standard,,,,,,None or Unspecified,,,,Rubber,18 inch,None or Unspecified,Manual,None or Unspecified,Double,,,,,
3459,1397491,30000,257252,132,8.0,2000,,,2/16/2007 0:00,307B,307,B,,,Mini,"Hydraulic Excavator, Track - 6.0 to 8.0 Metric Tons",Florida,TEX,Track Excavators,,EROPS w AC,,,,,,,,,,,Standard,,,,,,None or Unspecified,,,,Rubber,18 inch,None or Unspecified,Manual,None or Unspecified,Double,,,,,
3459,1397492,40000,257252,132,1.0,2000,,,2/15/2005 0:00,307B,307,B,,,Mini,"Hydraulic Excavator, Track - 6.0 to 8.0 Metric Tons",Florida,TEX,Track Excavators,,EROPS w AC,,,,,,,,,,,Standard,,,,,,None or Unspecified,,,,Rubber,18 inch,None or Unspecified,Manual,None or Unspecified,Double,,,,,
3459,1397493,40000,257252,132,7.0,2000,,,10/19/2005 0:00,307B,307,B,,,Mini,"Hydraulic Excavator, Track - 6.0 to 8.0 Metric Tons",South Carolina,TEX,Track Excavators,,EROPS w AC,,,,,,,,,,,Standard,,,,,,None or Unspecified,,,,Rubber,18 inch,None or Unspecified,Manual,None or Unspecified,Double,,,,,
3459,1397499,29000,758968,132,1.0,2001,,,10/14/2004 0:00,307B,307,B,,,Mini,"Hydraulic Excavator, Track - 6.0 to 8.0 Metric Tons",Florida,TEX,Track Excavators,,EROPS,,,,,,,,,,,Standard,,,,,,Manual,,,,Steel,None or Unspecified,None or Unspecified,None or Unspecified,None or Unspecified,Triple,,,,,
3459,2240356,11500,1374418,136,1.0,1997,0.0,,8/6/2008 0:00,307B,307,B,,,Mini,"Hydraulic Excavator, Track - 6.0 to 8.0 Metric Tons",California,TEX,Track Excavators,,EROPS,,,,,,,,,,,Standard,,,,,,Manual,,,,Steel,None or Unspecified,None or Unspecified,Hydraulic,None or Unspecified,Double,,,,,
3459,2240357,13000,1374418,136,1.0,1997,0.0,,6/21/2008 0:00,307B,307,B,,,Mini,"Hydraulic Excavator, Track - 6.0 to 8.0 Metric Tons",Oregon,TEX,Track Excavators,,EROPS,,,,,,,,,,,Standard,,,,,,Manual,,,,Steel,None or Unspecified,None or Unspecified,Hydraulic,None or Unspecified,Double,,,,,
3459,2240359,20000,1154247,136,1.0,1000,0.0,,3/30/2010 0:00,307B,307,B,,,Mini,"Hydraulic Excavator, Track - 6.0 to 8.0 Metric Tons",Missouri,TEX,Track Excavators,,EROPS,,,,,,,,,,,Standard,,,,,,None or Unspecified,,,,Steel,None or Unspecified,None or Unspecified,Manual,None or Unspecified,Double,,,,,
3459,2240362,25000,1111724,136,1.0,1000,3320.0,Low,4/22/2010 0:00,307B,307,B,,,Mini,"Hydraulic Excavator, Track - 6.0 to 8.0 Metric Tons",Utah,TEX,Track Excavators,,EROPS w AC,,,,,,,,,,,Auxiliary,,,,,,None or Unspecified,,,,Steel,None or Unspecified,None or Unspecified,None or Unspecified,None or Unspecified,Double,,,,,
3459,2240363,16000,1425113,136,99.0,1998,697800.0,High,3/26/2009 0:00,307B,307,B,,,Mini,"Hydraulic Excavator, Track - 6.0 to 8.0 Metric Tons",Minnesota,TEX,Track Excavators,,EROPS,,,,,,,,,,,Auxiliary,,,,,,None or Unspecified,,,,Steel,None or Unspecified,None or Unspecified,None or Unspecified,None or Unspecified,Double,,,,,
3459,2245065,17500,407732,136,1.0,1998,0.0,,4/2/2008 0:00,307B,307,B,,,Mini,"Hydraulic Excavator, Track - 6.0 to 8.0 Metric Tons",Maryland,TEX,Track Excavators,,EROPS,,,,,,,,,,,Standard,,,,,,None or Unspecified,,,,Steel,24 inch,None or Unspecified,None or Unspecified,None or Unspecified,Triple,,,,,
3459,2245068,25000,198839,136,1.0,1998,0.0,,9/24/2008 0:00,307B,307,B,,,Mini,"Hydraulic Excavator, Track - 6.0 to 8.0 Metric Tons",Texas,TEX,Track Excavators,,EROPS w AC,,,,,,,,,,,Standard,,,,,,None or Unspecified,,,,Steel,None or Unspecified,None or Unspecified,None or Unspecified,Yes,Double,,,,,
3459,2245069,15000,767555,136,1.0,1999,0.0,,2/16/2009 0:00,307B,307,B,,,Mini,"Hydraulic Excavator, Track - 6.0 to 8.0 Metric Tons",Florida,TEX,Track Excavators,,EROPS,,,,,,,,,,,Standard,,,,,,None or Unspecified,,,,Steel,None or Unspecified,None or Unspecified,None or Unspecified,None or Unspecified,Double,,,,,
3459,2245071,22500,1270083,136,1.0,1999,0.0,,6/20/2007 0:00,307B,307,B,,,Mini,"Hydraulic Excavator, Track - 6.0 to 8.0 Metric Tons",Maryland,TEX,Track Excavators,,EROPS,,,,,,,,,,,Auxiliary,,,,,,None or Unspecified,,,,Steel,None or Unspecified,None or Unspecified,Manual,None or Unspecified,Double,,,,,
3459,2245074,19500,507032,136,1.0,1999,0.0,,12/13/2007 0:00,307B,307,B,,,Mini,"Hydraulic Excavator, Track - 6.0 to 8.0 Metric Tons",Texas,TEX,Track Excavators,,EROPS,,,,,,,,,,,Standard,,,,,,Manual,,,,Steel,None or Unspecified,None or Unspecified,None or Unspecified,None or Unspecified,Double,,,,,
3459,2245075,24000,374445,136,1.0,1999,0.0,,2/2/2010 0:00,307B,307,B,,,Mini,"Hydraulic Excavator, Track - 6.0 to 8.0 Metric Tons",Arizona,TEX,Track Excavators,,EROPS w AC,,,,,,,,,,,Auxiliary,,,,,,Manual,,,,Steel,None or Unspecified,None or Unspecified,None or Unspecified,None or Unspecified,Double,,,,,
3459,2245076,19000,130126,136,1.0,2000,0.0,,6/27/2007 0:00,307B,307,B,,,Mini,"Hydraulic Excavator, Track - 6.0 to 8.0 Metric Tons",Georgia,TEX,Track Excavators,,EROPS w AC,,,,,,,,,,,Standard,,,,,,None or Unspecified,,,,Steel,None or Unspecified,None or Unspecified,None or Unspecified,Yes,Triple,,,,,
3459,2245079,22500,1416973,136,1.0,1000,0.0,,3/23/2010 0:00,307B,307,B,,,Mini,"Hydraulic Excavator, Track - 6.0 to 8.0 Metric Tons",North Carolina,TEX,Track Excavators,,EROPS,,,,,,,,,,,Standard,,,,,,None or Unspecified,,,,Steel,None or Unspecified,None or Unspecified,None or Unspecified,None or Unspecified,Triple,,,,,
3459,2245080,20000,1400938,136,2.0,2000,0.0,,2/3/2008 0:00,307B,307,B,,,Mini,"Hydraulic Excavator, Track - 6.0 to 8.0 Metric Tons",Florida,TEX,Track Excavators,,EROPS w AC,,,,,,,,,,,Standard,,,,,,None or Unspecified,,,,Steel,18 inch,None or Unspecified,None or Unspecified,None or Unspecified,Triple,,,,,
3459,2245081,21000,185791,136,2.0,2000,0.0,,9/24/2008 0:00,307B,307,B,,,Mini,"Hydraulic Excavator, Track - 6.0 to 8.0 Metric Tons",Texas,TEX,Track Excavators,,EROPS,,,,,,,,,,,Standard,,,,,,None or Unspecified,,,,Steel,None or Unspecified,None or Unspecified,None or Unspecified,Yes,Triple,,,,,
3459,2245082,26000,1084822,136,2.0,2000,0.0,,5/19/2007 0:00,307B,307,B,,,Mini,"Hydraulic Excavator, Track - 6.0 to 8.0 Metric Tons",Connecticut,TEX,Track Excavators,,EROPS w AC,,,,,,,,,,,Standard,,,,,,None or Unspecified,,,,Steel,24 inch,None or Unspecified,None or Unspecified,None or Unspecified,Triple,,,,,
3459,2245083,25500,1084822,136,2.0,2000,0.0,,8/24/2007 0:00,307B,307,B,,,Mini,"Hydraulic Excavator, Track - 6.0 to 8.0 Metric Tons",Connecticut,TEX,Track Excavators,,EROPS w AC,,,,,,,,,,,Standard,,,,,,None or Unspecified,,,,Steel,24 inch,None or Unspecified,None or Unspecified,None or Unspecified,Triple,,,,,
3459,2245086,24500,1112216,136,2.0,2000,0.0,,1/25/2008 0:00,307B,307,B,,,Mini,"Hydraulic Excavator, Track - 6.0 to 8.0 Metric Tons",Connecticut,TEX,Track Excavators,,EROPS,,,,,,,,,,,Standard,,,,,,None or Unspecified,,,,Steel,24 inch,None or Unspecified,None or Unspecified,None or Unspecified,Triple,,,,,
3459,2245088,17000,982778,136,1.0,2000,0.0,,8/26/2008 0:00,307B,307,B,,,Mini,"Hydraulic Excavator, Track - 6.0 to 8.0 Metric Tons",Utah,TEX,Track Excavators,,EROPS,,,,,,,,,,,Standard,,,,,,None or Unspecified,,,,Steel,None or Unspecified,None or Unspecified,None or Unspecified,None or Unspecified,Double,,,,,
3459,2245089,17500,187994,136,2.0,2000,0.0,,9/24/2008 0:00,307B,307,B,,,Mini,"Hydraulic Excavator, Track - 6.0 to 8.0 Metric Tons",Texas,TEX,Track Excavators,,EROPS w AC,,,,,,,,,,,Standard,,,,,,None or Unspecified,,,,Steel,None or Unspecified,None or Unspecified,None or Unspecified,Yes,Triple,,,,,
3459,2245090,22000,187994,136,2.0,2001,0.0,,10/21/2008 0:00,307B,307,B,,,Mini,"Hydraulic Excavator, Track - 6.0 to 8.0 Metric Tons",Louisiana,TEX,Track Excavators,,EROPS w AC,,,,,,,,,,,Standard,,,,,,None or Unspecified,,,,Steel,None or Unspecified,None or Unspecified,None or Unspecified,Yes,Triple,,,,,
3459,2245091,20000,190442,136,1.0,2000,0.0,,9/24/2008 0:00,307B,307,B,,,Mini,"Hydraulic Excavator, Track - 6.0 to 8.0 Metric Tons",Texas,TEX,Track Excavators,,EROPS,,,,,,,,,,,Standard,,,,,,None or Unspecified,,,,Steel,None or Unspecified,None or Unspecified,None or Unspecified,Yes,Double,,,,,
3459,2245092,21000,805137,136,5.0,2000,0.0,,1/23/2009 0:00,307B,307,B,,,Mini,"Hydraulic Excavator, Track - 6.0 to 8.0 Metric Tons",Connecticut,TEX,Track Excavators,,EROPS,,,,,,,,,,,Auxiliary,,,,,,None or Unspecified,,,,Steel,None or Unspecified,None or Unspecified,Manual,None or Unspecified,Double,,,,,
3459,2245093,19500,210985,136,2.0,2000,0.0,,9/24/2008 0:00,307B,307,B,,,Mini,"Hydraulic Excavator, Track - 6.0 to 8.0 Metric Tons",Texas,TEX,Track Excavators,,EROPS,,,,,,,,,,,Standard,,,,,,None or Unspecified,,,,Steel,None or Unspecified,None or Unspecified,None or Unspecified,Yes,Triple,,,,,
3459,2245094,17000,1343743,136,2.0,2001,0.0,,2/3/2008 0:00,307B,307,B,,,Mini,"Hydraulic Excavator, Track - 6.0 to 8.0 Metric Tons",Florida,TEX,Track Excavators,,EROPS w AC,,,,,,,,,,,Standard,,,,,,None or Unspecified,,,,Steel,18 inch,None or Unspecified,None or Unspecified,None or Unspecified,Triple,,,,,
3459,2245095,22000,152369,136,,2000,0.0,,11/1/2008 0:00,307B,307,B,,,Mini,"Hydraulic Excavator, Track - 6.0 to 8.0 Metric Tons",Tennessee,TEX,Track Excavators,,EROPS w AC,,,,,,,,,,,Auxiliary,,,,,,None or Unspecified,,,,Steel,24 inch,None or Unspecified,Manual,Yes,Triple,,,,,
3459,2245130,24000,1705736,136,,2000,0.0,,8/27/2008 0:00,307B,307,B,,,Mini,"Hydraulic Excavator, Track - 6.0 to 8.0 Metric Tons",Connecticut,TEX,Track Excavators,,EROPS,,,,,,,,,,,Auxiliary,,,,,,Manual,,,,Steel,None or Unspecified,None or Unspecified,None or Unspecified,None or Unspecified,Double,,,,,
3459,2248896,15000,746492,136,8.0,1999,0.0,,11/18/2009 0:00,307B,307,B,,,Mini,"Hydraulic Excavator, Track - 6.0 to 8.0 Metric Tons",Mississippi,TEX,Track Excavators,,EROPS,,,,,,,,,,,Standard,,,,,,None or Unspecified,,,,Steel,None or Unspecified,None or Unspecified,None or Unspecified,None or Unspecified,Double,,,,,
3459,4266017,16000,1378354,172,1.0,1997,3144.0,Low,9/23/2010 0:00,307B,307,B,,,Mini,"Hydraulic Excavator, Track - 6.0 to 8.0 Metric Tons",Illinois,TEX,Track Excavators,,EROPS w AC,,,,,,,,,,,Auxiliary,,,,,,None or Unspecified,,,,Steel,18 inch,None or Unspecified,None or Unspecified,None or Unspecified,Double,,,,,
3459,4266018,22000,1237365,172,1.0,1997,2543.0,Low,3/4/2010 0:00,307B,307,B,,,Mini,"Hydraulic Excavator, Track - 6.0 to 8.0 Metric Tons",Washington,TEX,Track Excavators,,EROPS,,,,,,,,,,,Standard,,,,,,Manual,,,,Steel,None or Unspecified,None or Unspecified,Hydraulic,None or Unspecified,Double,,,,,
3459,4268411,25000,2277821,172,1.0,1998,4253.0,Medium,10/5/2011 0:00,307B,307,B,,,Mini,"Hydraulic Excavator, Track - 6.0 to 8.0 Metric Tons",Connecticut,TEX,Track Excavators,,EROPS w AC,,,,,,,,,,,Auxiliary,,,,,,None or Unspecified,,,,Steel,None or Unspecified,None or Unspecified,Hydraulic,None or Unspecified,Triple,,,,,
3459,4273878,17500,2310181,172,1.0,1998,5645.0,Medium,8/24/2010 0:00,307B,307,B,,,Mini,"Hydraulic Excavator, Track - 6.0 to 8.0 Metric Tons",Maryland,TEX,Track Excavators,,EROPS,,,,,,,,,,,Standard,,,,,,None or Unspecified,,,,Steel,None or Unspecified,None or Unspecified,None or Unspecified,None or Unspecified,Double,,,,,
3459,6265243,25000,824848,149,1.0,1998,,,10/6/2011 0:00,307B,307,B,,,Mini,"Hydraulic Excavator, Track - 6.0 to 8.0 Metric Tons",Connecticut,TEX,Track Excavators,,EROPS w AC,,,,,,,,,,,Auxiliary,,,,,,Manual,,,,Steel,None or Unspecified,None or Unspecified,Manual,None or Unspecified,Double,,,,,
