ModelID,SalesID,SalePrice,MachineID,datasource,auctioneerID,YearMade,MachineHoursCurrentMeter,UsageBand,saledate,fiModelDesc,fiBaseModel,fiSecondaryDesc,fiModelSeries,fiModelDescriptor,ProductSize,fiProductClassDesc,state,ProductGroup,ProductGroupDesc,Drive_System,Enclosure,Forks,Pad_Type,Ride_Control,Stick,Transmission,Turbocharged,Blade_Extension,Blade_Width,Enclosure_Type,Engine_Horsepower,Hydraulics,Pushblock,Ripper,Scarifier,Tip_Control,Tire_Size,Coupler,Coupler_System,Grouser_Tracks,Hydraulics_Flow,Track_Type,Undercarriage_Pad_Width,Stick_Length,Thumb,Pattern_Changer,Grouser_Type,Backhoe_Mounting,Blade_Type,Travel_Controls,Differential_Type,Steering_Controls
3463,1143123,48000,432635,121,3.0,2001,2889.0,High,7/29/2004 0:00,311B,311,B,,,Small,"Hydraulic Excavator, Track - 11.0 to 12.0 Metric Tons",New York,TEX,Track Excavators,,EROPS,,,,,,,,,,,Standard,,,,,,None or Unspecified,,,,Steel,20 inch,None or Unspecified,None or Unspecified,None or Unspecified,Double,,,,,
3463,1143381,37000,863600,121,3.0,2001,11006.0,High,7/14/2005 0:00,311B,311,B,,,Small,"Hydraulic Excavator, Track - 11.0 to 12.0 Metric Tons",New Hampshire,TEX,Track Excavators,,EROPS,,,,,,,,,,,Auxiliary,,,,,,None or Unspecified,,,,Steel,28 inch,None or Unspecified,Hydraulic,None or Unspecified,Triple,,,,,
3463,1145871,41000,861522,121,3.0,1998,2833.0,Medium,4/29/2004 0:00,311B,311,B,,,Small,"Hydraulic Excavator, Track - 11.0 to 12.0 Metric Tons",New York,TEX,Track Excavators,,EROPS,,,,,,,,,,,Standard,,,,,,None or Unspecified,,,,Steel,20 inch,None or Unspecified,Manual,None or Unspecified,Double,,,,,
3463,1155221,36000,530010,121,3.0,1998,3056.0,Medium,7/15/2004 0:00,311B,311,B,,,Small,"Hydraulic Excavator, Track - 11.0 to 12.0 Metric Tons",Florida,TEX,Track Excavators,,EROPS,,,,,,,,,,,Standard,,,,,,None or Unspecified,,,,Steel,24 inch,None or Unspecified,None or Unspecified,None or Unspecified,Triple,,,,,
3463,1158108,35000,1027810,121,3.0,2000,2518.0,Low,9/21/2006 0:00,311B,311,B,,,Small,"Hydraulic Excavator, Track - 11.0 to 12.0 Metric Tons",Pennsylvania,TEX,Track Excavators,,EROPS w AC,,,,,,,,,,,Standard,,,,,,None or Unspecified,,,,Steel,None or Unspecified,None or Unspecified,None or Unspecified,None or Unspecified,Double,,,,,
3463,1162123,23000,318879,121,3.0,1998,5996.0,Medium,1/28/2010 0:00,311B,311,B,,,Small,"Hydraulic Excavator, Track - 11.0 to 12.0 Metric Tons",West Virginia,TEX,Track Excavators,,EROPS,,,,,,,,,,,Standard,,,,,,None or Unspecified,,,,Steel,None or Unspecified,None or Unspecified,Manual,Yes,Triple,,,,,
3463,1175621,38000,135635,121,3.0,1997,7100.0,High,5/20/2005 0:00,311B,311,B,,,Small,"Hydraulic Excavator, Track - 11.0 to 12.0 Metric Tons",Georgia,TEX,Track Excavators,,EROPS w AC,,,,,,,,,,,Standard,,,,,,None or Unspecified,,,,Steel,None or Unspecified,None or Unspecified,None or Unspecified,Yes,Triple,,,,,
3463,1176351,27500,1026311,121,3.0,2000,2380.0,Low,1/10/2008 0:00,311B,311,B,,,Small,"Hydraulic Excavator, Track - 11.0 to 12.0 Metric Tons",New York,TEX,Track Excavators,,EROPS,,,,,,,,,,,Standard,,,,,,None or Unspecified,,,,Steel,None or Unspecified,None or Unspecified,None or Unspecified,None or Unspecified,Triple,,,,,
3463,1184531,19500,1041531,121,3.0,1999,8872.0,High,12/11/2008 0:00,311B,311,B,,,Small,"Hydraulic Excavator, Track - 11.0 to 12.0 Metric Tons",Georgia,TEX,Track Excavators,,EROPS w AC,,,,,,,,,,,Standard,,,,,,None or Unspecified,,,,Steel,28 inch,None or Unspecified,None or Unspecified,None or Unspecified,Double,,,,,
3463,1184532,20000,1035550,121,3.0,1999,8364.0,High,12/11/2008 0:00,311B,311,B,,,Small,"Hydraulic Excavator, Track - 11.0 to 12.0 Metric Tons",Georgia,TEX,Track Excavators,,EROPS w AC,,,,,,,,,,,Standard,,,,,,None or Unspecified,,,,Steel,28 inch,None or Unspecified,None or Unspecified,None or Unspecified,Double,,,,,
3463,1193963,14000,434334,121,3.0,1999,5537.0,Medium,10/15/2009 0:00,311B,311,B,,,Small,"Hydraulic Excavator, Track - 11.0 to 12.0 Metric Tons",New York,TEX,Track Excavators,,EROPS,,,,,,,,,,,Standard,,,,,,None or Unspecified,,,,Steel,None or Unspecified,None or Unspecified,None or Unspecified,None or Unspecified,Triple,,,,,
3463,1199810,30000,1065500,121,3.0,1996,5580.0,Low,4/8/2010 0:00,311B,311,B,,,Small,"Hydraulic Excavator, Track - 11.0 to 12.0 Metric Tons",Texas,TEX,Track Excavators,,EROPS w AC,,,,,,,,,,,Auxiliary,,,,,,None or Unspecified,,,,Steel,None or Unspecified,None or Unspecified,None or Unspecified,None or Unspecified,Double,,,,,
3463,1207765,13000,1045385,121,3.0,1996,8507.0,Medium,10/7/2010 0:00,311B,311,B,,,Small,"Hydraulic Excavator, Track - 11.0 to 12.0 Metric Tons",Georgia,TEX,Track Excavators,,EROPS w AC,,,,,,,,,,,Standard,,,,,,None or Unspecified,,,,Steel,None or Unspecified,None or Unspecified,None or Unspecified,None or Unspecified,Double,,,,,
3463,1212605,15500,1006540,121,3.0,1998,11535.0,High,3/17/2011 0:00,311B,311,B,,,Small,"Hydraulic Excavator, Track - 11.0 to 12.0 Metric Tons",Tennessee,TEX,Track Excavators,,EROPS,,,,,,,,,,,Standard,,,,,,None or Unspecified,,,,Steel,None or Unspecified,None or Unspecified,Manual,None or Unspecified,Double,,,,,
3463,1212606,15500,1048174,121,3.0,1998,11920.0,High,3/17/2011 0:00,311B,311,B,,,Small,"Hydraulic Excavator, Track - 11.0 to 12.0 Metric Tons",Tennessee,TEX,Track Excavators,,EROPS,,,,,,,,,,,Standard,,,,,,None or Unspecified,,,,Steel,None or Unspecified,None or Unspecified,Manual,None or Unspecified,Double,,,,,
3463,1336156,40000,334823,132,5.0,1999,,,6/26/2004 0:00,311B,311,B,,,Small,"Hydraulic Excavator, Track - 11.0 to 12.0 Metric Tons",Connecticut,TEX,Track Excavators,,EROPS,,,,,,,,,,,Standard,,,,,,None or Unspecified,,,,Steel,20 inch,None or Unspecified,None or Unspecified,None or Unspecified,Triple,,,,,
3463,1336157,37000,821662,132,3.0,1999,,,5/1/2003 0:00,311B,311,B,,,Small,"Hydraulic Excavator, Track - 11.0 to 12.0 Metric Tons",Unspecified,TEX,Track Excavators,,EROPS,,,,,,,,,,,Standard,,,,,,None or Unspecified,,,,Steel,28 inch,None or Unspecified,None or Unspecified,None or Unspecified,Triple,,,,,
3463,1336160,38000,841995,132,5.0,1999,,,12/9/2005 0:00,311B,311,B,,,Small,"Hydraulic Excavator, Track - 11.0 to 12.0 Metric Tons",Connecticut,TEX,Track Excavators,,EROPS,,,,,,,,,,,Standard,,,,,,None or Unspecified,,,,Steel,32 inch,None or Unspecified,None or Unspecified,None or Unspecified,Triple,,,,,
3463,1336162,43000,834770,132,4.0,2000,,,2/7/2005 0:00,311B,311,B,,,Small,"Hydraulic Excavator, Track - 11.0 to 12.0 Metric Tons",Florida,TEX,Track Excavators,,EROPS w AC,,,,,,,,,,,Auxiliary,,,,,,None or Unspecified,,,,Steel,24 inch,"14' 1""",None or Unspecified,None or Unspecified,Triple,,,,,
3463,1336163,38000,834770,132,5.0,2000,,,4/2/2004 0:00,311B,311,B,,,Small,"Hydraulic Excavator, Track - 11.0 to 12.0 Metric Tons",Connecticut,TEX,Track Excavators,,EROPS w AC,,,,,,,,,,,Auxiliary,,,,,,None or Unspecified,,,,Steel,24 inch,"14' 1""",None or Unspecified,None or Unspecified,Triple,,,,,
3463,1336409,49000,1317728,132,5.0,1996,,,9/15/2000 0:00,311B,311,B,,,Small,"Hydraulic Excavator, Track - 11.0 to 12.0 Metric Tons",Connecticut,TEX,Track Excavators,,EROPS,,,,,,,,,,,Standard,,,,,,None or Unspecified,,,,Steel,20 inch,None or Unspecified,None or Unspecified,None or Unspecified,Double,,,,,
3463,1488442,40000,1340696,132,1.0,1996,,,10/5/1999 0:00,311B,311,B,,,Small,"Hydraulic Excavator, Track - 11.0 to 12.0 Metric Tons",Tennessee,TEX,Track Excavators,,EROPS w AC,,,,,,,,,,,Standard,,,,,,None or Unspecified,,,,Steel,None or Unspecified,None or Unspecified,None or Unspecified,None or Unspecified,Double,,,,,
3463,1488445,30000,697032,132,1.0,1998,,,12/5/2002 0:00,311B,311,B,,,Small,"Hydraulic Excavator, Track - 11.0 to 12.0 Metric Tons",Illinois,TEX,Track Excavators,,EROPS,,,,,,,,,,,Auxiliary,,,,,,None or Unspecified,,,,Steel,None or Unspecified,None or Unspecified,None or Unspecified,None or Unspecified,Triple,,,,,
3463,1488448,47500,1082425,132,1.0,1999,,,7/13/2000 0:00,311B,311,B,,,Small,"Hydraulic Excavator, Track - 11.0 to 12.0 Metric Tons",North Carolina,TEX,Track Excavators,,EROPS w AC,,,,,,,,,,,Standard,,,,,,None or Unspecified,,,,Steel,None or Unspecified,None or Unspecified,Manual,None or Unspecified,Double,,,,,
3463,1488450,44000,793230,132,1.0,1997,,,2/21/2001 0:00,311B,311,B,,,Small,"Hydraulic Excavator, Track - 11.0 to 12.0 Metric Tons",Florida,TEX,Track Excavators,,EROPS,,,,,,,,,,,Auxiliary,,,,,,None or Unspecified,,,,Steel,None or Unspecified,None or Unspecified,None or Unspecified,None or Unspecified,Double,,,,,
3463,1488453,41000,764429,132,1.0,1997,,,4/5/2001 0:00,311B,311,B,,,Small,"Hydraulic Excavator, Track - 11.0 to 12.0 Metric Tons",Georgia,TEX,Track Excavators,,EROPS,,,,,,,,,,,Standard,,,,,,None or Unspecified,,,,Steel,None or Unspecified,None or Unspecified,None or Unspecified,None or Unspecified,Double,,,,,
3463,1488462,44000,1412334,132,1.0,1997,,,2/16/2000 0:00,311B,311,B,,,Small,"Hydraulic Excavator, Track - 11.0 to 12.0 Metric Tons",Florida,TEX,Track Excavators,,EROPS,,,,,,,,,,,Standard,,,,,,None or Unspecified,,,,Steel,None or Unspecified,None or Unspecified,None or Unspecified,Yes,Triple,,,,,
3463,1488466,27000,1127102,132,1.0,1997,,,9/26/2002 0:00,311B,311,B,,,Small,"Hydraulic Excavator, Track - 11.0 to 12.0 Metric Tons",Illinois,TEX,Track Excavators,,EROPS,,,,,,,,,,,Standard,,,,,,None or Unspecified,,,,Steel,None or Unspecified,None or Unspecified,None or Unspecified,None or Unspecified,Double,,,,,
3463,1488467,30000,832430,132,5.0,1997,,,9/28/2006 0:00,311B,311,B,,,Small,"Hydraulic Excavator, Track - 11.0 to 12.0 Metric Tons",Connecticut,TEX,Track Excavators,,EROPS w AC,,,,,,,,,,,Standard,,,,,,None or Unspecified,,,,Steel,24 inch,None or Unspecified,None or Unspecified,None or Unspecified,Triple,,,,,
3463,1488468,32000,1386717,132,1.0,1997,,,10/13/2005 0:00,311B,311,B,,,Small,"Hydraulic Excavator, Track - 11.0 to 12.0 Metric Tons",Florida,TEX,Track Excavators,,EROPS,,,,,,,,,,,Standard,,,,,,None or Unspecified,,,,Steel,None or Unspecified,None or Unspecified,None or Unspecified,None or Unspecified,Triple,,,,,
3463,1488469,30000,1386717,132,1.0,1997,,,6/24/2003 0:00,311B,311,B,,,Small,"Hydraulic Excavator, Track - 11.0 to 12.0 Metric Tons",Maryland,TEX,Track Excavators,,EROPS,,,,,,,,,,,Standard,,,,,,None or Unspecified,,,,Steel,None or Unspecified,None or Unspecified,None or Unspecified,None or Unspecified,Triple,,,,,
3463,1488470,42000,425399,132,1.0,1997,,,10/12/2000 0:00,311B,311,B,,,Small,"Hydraulic Excavator, Track - 11.0 to 12.0 Metric Tons",North Carolina,TEX,Track Excavators,,EROPS,,,,,,,,,,,Auxiliary,,,,,,None or Unspecified,,,,Steel,None or Unspecified,None or Unspecified,Hydraulic,Yes,Triple,,,,,
3463,1488473,28500,831692,132,2.0,1997,,,11/18/2006 0:00,311B,311,B,,,Small,"Hydraulic Excavator, Track - 11.0 to 12.0 Metric Tons",Connecticut,TEX,Track Excavators,,EROPS,,,,,,,,,,,Standard,,,,,,None or Unspecified,,,,Steel,20 inch,None or Unspecified,None or Unspecified,None or Unspecified,Triple,,,,,
3463,1488476,37000,1156592,132,2.0,1999,,,8/20/2005 0:00,311B,311,B,,,Small,"Hydraulic Excavator, Track - 11.0 to 12.0 Metric Tons",New Jersey,TEX,Track Excavators,,EROPS,,,,,,,,,,,Standard,,,,,,None or Unspecified,,,,Steel,28 inch,None or Unspecified,None or Unspecified,None or Unspecified,Triple,,,,,
3463,1488479,46000,123841,132,1.0,1997,,,12/14/1999 0:00,311B,311,B,,,Small,"Hydraulic Excavator, Track - 11.0 to 12.0 Metric Tons",North Carolina,TEX,Track Excavators,,EROPS,,,,,,,,,,,Standard,,,,,,None or Unspecified,,,,Steel,24 inch,"9' 6""",Manual,None or Unspecified,Triple,,,,,
3463,1488480,24000,1311451,132,15.0,1997,,,4/22/2010 0:00,311B,311,B,,,Small,"Hydraulic Excavator, Track - 11.0 to 12.0 Metric Tons",Ohio,TEX,Track Excavators,,EROPS,,,,,,,,,,,Standard,,,,,,None or Unspecified,,,,Steel,None or Unspecified,None or Unspecified,None or Unspecified,None or Unspecified,Double,,,,,
3463,1488481,38000,870896,132,13.0,1998,,,12/7/2002 0:00,311B,311,B,,,Small,"Hydraulic Excavator, Track - 11.0 to 12.0 Metric Tons",Tennessee,TEX,Track Excavators,,EROPS,,,,,,,,,,,Standard,,,,,,None or Unspecified,,,,Steel,None or Unspecified,None or Unspecified,None or Unspecified,None or Unspecified,Triple,,,,,
3463,1488483,46000,772570,132,1.0,1997,,,2/21/2001 0:00,311B,311,B,,,Small,"Hydraulic Excavator, Track - 11.0 to 12.0 Metric Tons",Florida,TEX,Track Excavators,,EROPS,,,,,,,,,,,Auxiliary,,,,,,None or Unspecified,,,,Steel,None or Unspecified,None or Unspecified,None or Unspecified,None or Unspecified,Double,,,,,
3463,1488484,34000,1162384,132,7.0,1997,,,4/20/2006 0:00,311B,311,B,,,Small,"Hydraulic Excavator, Track - 11.0 to 12.0 Metric Tons",South Carolina,TEX,Track Excavators,,EROPS w AC,,,,,,,,,,,Standard,,,,,,None or Unspecified,,,,Steel,None or Unspecified,None or Unspecified,None or Unspecified,None or Unspecified,Double,,,,,
3463,1488485,25000,1162384,132,13.0,1997,,,2/4/2006 0:00,311B,311,B,,,Small,"Hydraulic Excavator, Track - 11.0 to 12.0 Metric Tons",Georgia,TEX,Track Excavators,,EROPS w AC,,,,,,,,,,,Standard,,,,,,None or Unspecified,,,,Steel,None or Unspecified,None or Unspecified,None or Unspecified,None or Unspecified,Double,,,,,
3463,1488486,31000,1239499,132,1.0,1997,,,11/8/2001 0:00,311B,311,B,,,Small,"Hydraulic Excavator, Track - 11.0 to 12.0 Metric Tons",Florida,TEX,Track Excavators,,EROPS,,,,,,,,,,,Standard,,,,,,None or Unspecified,,,,Steel,None or Unspecified,None or Unspecified,None or Unspecified,None or Unspecified,Double,,,,,
3463,1488489,37000,97179,132,2.0,1998,,,12/13/2003 0:00,311B,311,B,,,Small,"Hydraulic Excavator, Track - 11.0 to 12.0 Metric Tons",Pennsylvania,TEX,Track Excavators,,EROPS,,,,,,,,,,,Standard,,,,,,None or Unspecified,,,,Steel,None or Unspecified,None or Unspecified,None or Unspecified,None or Unspecified,Triple,,,,,
3463,1488490,46000,768869,132,1.0,1998,,,8/28/2003 0:00,311B,311,B,,,Small,"Hydraulic Excavator, Track - 11.0 to 12.0 Metric Tons",Georgia,TEX,Track Excavators,,EROPS,,,,,,,,,,,Standard,,,,,,None or Unspecified,,,,Steel,None or Unspecified,None or Unspecified,None or Unspecified,None or Unspecified,Double,,,,,
3463,1488491,39000,800023,132,11.0,1998,,,4/26/2001 0:00,311B,311,B,,,Small,"Hydraulic Excavator, Track - 11.0 to 12.0 Metric Tons",South Carolina,TEX,Track Excavators,,EROPS,,,,,,,,,,,Auxiliary,,,,,,None or Unspecified,,,,Steel,30 inch,None or Unspecified,None or Unspecified,None or Unspecified,Double,,,,,
3463,1488492,38000,800023,132,1.0,1998,,,4/5/2001 0:00,311B,311,B,,,Small,"Hydraulic Excavator, Track - 11.0 to 12.0 Metric Tons",Georgia,TEX,Track Excavators,,EROPS,,,,,,,,,,,Auxiliary,,,,,,None or Unspecified,,,,Steel,30 inch,None or Unspecified,None or Unspecified,None or Unspecified,Double,,,,,
3463,1488493,42000,803064,132,1.0,1998,,,2/15/2005 0:00,311B,311,B,,,Small,"Hydraulic Excavator, Track - 11.0 to 12.0 Metric Tons",Florida,TEX,Track Excavators,,EROPS,,,,,,,,,,,Auxiliary,,,,,,None or Unspecified,,,,Steel,None or Unspecified,None or Unspecified,None or Unspecified,None or Unspecified,Double,,,,,
3463,1488494,27000,1201007,132,19.0,1998,,,11/8/2001 0:00,311B,311,B,,,Small,"Hydraulic Excavator, Track - 11.0 to 12.0 Metric Tons",California,TEX,Track Excavators,,EROPS,,,,,,,,,,,Standard,,,,,,None or Unspecified,,,,Steel,20 inch,None or Unspecified,None or Unspecified,None or Unspecified,Triple,,,,,
3463,1488496,23000,689164,132,1.0,1998,,,6/27/2005 0:00,311B,311,B,,,Small,"Hydraulic Excavator, Track - 11.0 to 12.0 Metric Tons",Minnesota,TEX,Track Excavators,,EROPS w AC,,,,,,,,,,,Auxiliary,,,,,,None or Unspecified,,,,Steel,None or Unspecified,None or Unspecified,None or Unspecified,None or Unspecified,Triple,,,,,
3463,1488497,29000,1398262,132,1.0,1998,,,9/26/2002 0:00,311B,311,B,,,Small,"Hydraulic Excavator, Track - 11.0 to 12.0 Metric Tons",Illinois,TEX,Track Excavators,,EROPS,,,,,,,,,,,Standard,,,,,,None or Unspecified,,,,Steel,None or Unspecified,None or Unspecified,None or Unspecified,None or Unspecified,Double,,,,,
3463,1488499,49000,1196987,132,1.0,1998,,,11/16/2001 0:00,311B,311,B,,,Small,"Hydraulic Excavator, Track - 11.0 to 12.0 Metric Tons",Ohio,TEX,Track Excavators,,EROPS,,,,,,,,,,,Standard,,,,,,None or Unspecified,,,,Steel,None or Unspecified,None or Unspecified,None or Unspecified,None or Unspecified,Double,,,,,
3463,1488500,35000,675800,132,3.0,1998,,,12/13/2001 0:00,311B,311,B,,,Small,"Hydraulic Excavator, Track - 11.0 to 12.0 Metric Tons",Unspecified,TEX,Track Excavators,,EROPS,,,,,,,,,,,Standard,,,,,,Manual,,,,Steel,27 inch,None or Unspecified,None or Unspecified,None or Unspecified,Double,,,,,
3463,1488501,26000,1175338,132,1.0,1998,,,11/27/2001 0:00,311B,311,B,,,Small,"Hydraulic Excavator, Track - 11.0 to 12.0 Metric Tons",Arizona,TEX,Track Excavators,,EROPS w AC,,,,,,,,,,,Standard,,,,,,None or Unspecified,,,,Steel,None or Unspecified,"9' 6""",None or Unspecified,None or Unspecified,Double,,,,,
3463,1488503,38500,829404,132,5.0,1998,,,5/31/2003 0:00,311B,311,B,,,Small,"Hydraulic Excavator, Track - 11.0 to 12.0 Metric Tons",New York,TEX,Track Excavators,,EROPS,,,,,,,,,,,Standard,,,,,,None or Unspecified,,,,Steel,20 inch,None or Unspecified,None or Unspecified,None or Unspecified,Triple,,,,,
3463,1488504,44000,1372440,132,3.0,1998,,,8/9/2001 0:00,311B,311,B,,,Small,"Hydraulic Excavator, Track - 11.0 to 12.0 Metric Tons",Unspecified,TEX,Track Excavators,,EROPS,,,,,,,,,,,Standard,,,,,,None or Unspecified,,,,Steel,None or Unspecified,None or Unspecified,None or Unspecified,Yes,Triple,,,,,
3463,1488505,35500,431513,132,5.0,1998,,,6/15/2005 0:00,311B,311,B,,,Small,"Hydraulic Excavator, Track - 11.0 to 12.0 Metric Tons",Connecticut,TEX,Track Excavators,,EROPS,,,,,,,,,,,Standard,,,,,,None or Unspecified,,,,Steel,18 inch,None or Unspecified,Manual,Yes,Triple,,,,,
3463,1488506,21000,423190,132,12.0,1998,,,11/18/2009 0:00,311B,311,B,,,Small,"Hydraulic Excavator, Track - 11.0 to 12.0 Metric Tons",North Carolina,TEX,Track Excavators,,EROPS w AC,,,,,,,,,,,Standard,,,,,,None or Unspecified,,,,Steel,None or Unspecified,None or Unspecified,Manual,Yes,Triple,,,,,
3463,1488510,46000,1478983,132,1.0,1998,,,11/16/2001 0:00,311B,311,B,,,Small,"Hydraulic Excavator, Track - 11.0 to 12.0 Metric Tons",Ohio,TEX,Track Excavators,,EROPS,,,,,,,,,,,Auxiliary,,,,,,None or Unspecified,,,,Steel,None or Unspecified,None or Unspecified,None or Unspecified,None or Unspecified,Double,,,,,
3463,1488512,35000,110762,132,1.0,1999,,,10/1/2002 0:00,311B,311,B,,,Small,"Hydraulic Excavator, Track - 11.0 to 12.0 Metric Tons",North Carolina,TEX,Track Excavators,,EROPS,,,,,,,,,,,Standard,,,,,,None or Unspecified,,,,Steel,None or Unspecified,None or Unspecified,None or Unspecified,None or Unspecified,Triple,,,,,
3463,1488513,30000,365057,132,1.0,1999,,,11/27/2001 0:00,311B,311,B,,,Small,"Hydraulic Excavator, Track - 11.0 to 12.0 Metric Tons",Arizona,TEX,Track Excavators,,EROPS w AC,,,,,,,,,,,Standard,,,,,,None or Unspecified,,,,Steel,None or Unspecified,"9' 6""",None or Unspecified,None or Unspecified,Double,,,,,
3463,1488514,31000,424771,132,1.0,1999,,,2/19/2002 0:00,311B,311,B,,,Small,"Hydraulic Excavator, Track - 11.0 to 12.0 Metric Tons",Florida,TEX,Track Excavators,,EROPS,,,,,,,,,,,Standard,,,,,,None or Unspecified,,,,Steel,28 inch,None or Unspecified,None or Unspecified,Yes,Triple,,,,,
3463,1488515,47000,424771,132,4.0,1999,,,2/11/2002 0:00,311B,311,B,,,Small,"Hydraulic Excavator, Track - 11.0 to 12.0 Metric Tons",Florida,TEX,Track Excavators,,EROPS,,,,,,,,,,,Standard,,,,,,None or Unspecified,,,,Steel,28 inch,None or Unspecified,None or Unspecified,Yes,Triple,,,,,
3463,1488516,34500,1090220,132,2.0,1999,,,10/30/2004 0:00,311B,311,B,,,Small,"Hydraulic Excavator, Track - 11.0 to 12.0 Metric Tons",New York,TEX,Track Excavators,,EROPS,,,,,,,,,,,Standard,,,,,,None or Unspecified,,,,Steel,None or Unspecified,None or Unspecified,None or Unspecified,None or Unspecified,Double,,,,,
3463,1488518,39000,786831,132,1.0,1999,,,2/17/2004 0:00,311B,311,B,,,Small,"Hydraulic Excavator, Track - 11.0 to 12.0 Metric Tons",Florida,TEX,Track Excavators,,EROPS w AC,,,,,,,,,,,Standard,,,,,,None or Unspecified,,,,Steel,None or Unspecified,None or Unspecified,None or Unspecified,None or Unspecified,Double,,,,,
3463,1488521,39500,405027,132,5.0,2000,,,6/15/2005 0:00,311B,311,B,,,Small,"Hydraulic Excavator, Track - 11.0 to 12.0 Metric Tons",Connecticut,TEX,Track Excavators,,EROPS w AC,,,,,,,,,,,Auxiliary,,,,,,Manual,,,,Steel,28 inch,"8' 6""",None or Unspecified,None or Unspecified,Triple,,,,,
3463,1488523,49000,1218115,132,1.0,2000,,,3/5/2003 0:00,311B,311,B,,,Small,"Hydraulic Excavator, Track - 11.0 to 12.0 Metric Tons",Minnesota,TEX,Track Excavators,,EROPS,,,,,,,,,,,Standard,,,,,,None or Unspecified,,,,Steel,24 inch,None or Unspecified,Manual,None or Unspecified,Triple,,,,,
3463,1488525,54500,1194323,132,2.0,2001,,,9/15/2001 0:00,311B,311,B,,,Small,"Hydraulic Excavator, Track - 11.0 to 12.0 Metric Tons",New Jersey,TEX,Track Excavators,,EROPS w AC,,,,,,,,,,,Standard,,,,,,None or Unspecified,,,,Steel,None or Unspecified,None or Unspecified,None or Unspecified,None or Unspecified,Triple,,,,,
3463,1488526,56000,1288541,132,4.0,2001,,,2/11/2002 0:00,311B,311,B,,,Small,"Hydraulic Excavator, Track - 11.0 to 12.0 Metric Tons",Florida,TEX,Track Excavators,,EROPS w AC,,,,,,,,,,,Standard,,,,,,None or Unspecified,,,,Steel,None or Unspecified,None or Unspecified,None or Unspecified,None or Unspecified,Triple,,,,,
3463,1488716,32000,1113229,132,2.0,1997,,,10/26/2001 0:00,311B,311,B,,,Small,"Hydraulic Excavator, Track - 11.0 to 12.0 Metric Tons",New York,TEX,Track Excavators,,EROPS w AC,,,,,,,,,,,Standard,,,,,,None or Unspecified,,,,Steel,20 inch,None or Unspecified,None or Unspecified,None or Unspecified,Double,,,,,
3463,1488717,30000,1259458,132,13.0,1996,,,12/9/2006 0:00,311B,311,B,,,Small,"Hydraulic Excavator, Track - 11.0 to 12.0 Metric Tons",Tennessee,TEX,Track Excavators,,EROPS,,,,,,,,,,,Standard,,,,,,None or Unspecified,,,,Steel,None or Unspecified,None or Unspecified,None or Unspecified,None or Unspecified,Double,,,,,
3463,1488718,21000,1259458,132,13.0,1996,,,9/9/2006 0:00,311B,311,B,,,Small,"Hydraulic Excavator, Track - 11.0 to 12.0 Metric Tons",Tennessee,TEX,Track Excavators,,EROPS,,,,,,,,,,,Standard,,,,,,None or Unspecified,,,,Steel,None or Unspecified,None or Unspecified,None or Unspecified,None or Unspecified,Double,,,,,
3463,1488719,33000,1259458,132,4.0,1996,,,2/17/2001 0:00,311B,311,B,,,Small,"Hydraulic Excavator, Track - 11.0 to 12.0 Metric Tons",Florida,TEX,Track Excavators,,EROPS,,,,,,,,,,,Standard,,,,,,None or Unspecified,,,,Steel,None or Unspecified,None or Unspecified,None or Unspecified,None or Unspecified,Double,,,,,
3463,1488720,61000,1347435,132,2.0,1996,,,11/7/1997 0:00,311B,311,B,,,Small,"Hydraulic Excavator, Track - 11.0 to 12.0 Metric Tons",New York,TEX,Track Excavators,,EROPS w AC,,,,,,,,,,,Standard,,,,,,None or Unspecified,,,,Steel,None or Unspecified,None or Unspecified,None or Unspecified,None or Unspecified,Double,,,,,
3463,1488721,41000,1403928,132,2.0,1996,,,2/7/2000 0:00,311B,311,B,,,Small,"Hydraulic Excavator, Track - 11.0 to 12.0 Metric Tons",Florida,TEX,Track Excavators,,EROPS w AC,,,,,,,,,,,Standard,,,,,,None or Unspecified,,,,Steel,None or Unspecified,None or Unspecified,None or Unspecified,None or Unspecified,Double,,,,,
3463,1488722,39000,1504082,132,2.0,1996,,,9/18/1999 0:00,311B,311,B,,,Small,"Hydraulic Excavator, Track - 11.0 to 12.0 Metric Tons",New Jersey,TEX,Track Excavators,,EROPS w AC,,,,,,,,,,,Standard,,,,,,None or Unspecified,,,,Steel,None or Unspecified,None or Unspecified,None or Unspecified,None or Unspecified,Double,,,,,
3463,1488723,33000,1197140,132,2.0,1996,,,8/17/2002 0:00,311B,311,B,,,Small,"Hydraulic Excavator, Track - 11.0 to 12.0 Metric Tons",New York,TEX,Track Excavators,,EROPS w AC,,,,,,,,,,,Standard,,,,,,None or Unspecified,,,,Steel,None or Unspecified,None or Unspecified,None or Unspecified,None or Unspecified,Double,,,,,
3463,1488724,30000,1415935,132,2.0,1996,,,9/20/2002 0:00,311B,311,B,,,Small,"Hydraulic Excavator, Track - 11.0 to 12.0 Metric Tons",Kentucky,TEX,Track Excavators,,EROPS w AC,,,,,,,,,,,Standard,,,,,,None or Unspecified,,,,Steel,20 inch,None or Unspecified,None or Unspecified,None or Unspecified,Double,,,,,
3463,1488725,33000,1109783,132,2.0,1996,,,6/21/2003 0:00,311B,311,B,,,Small,"Hydraulic Excavator, Track - 11.0 to 12.0 Metric Tons",Ohio,TEX,Track Excavators,,EROPS w AC,,,,,,,,,,,Standard,,,,,,None or Unspecified,,,,Steel,24 inch,None or Unspecified,None or Unspecified,None or Unspecified,Double,,,,,
3463,1488727,31500,1280185,132,2.0,1996,,,7/27/2002 0:00,311B,311,B,,,Small,"Hydraulic Excavator, Track - 11.0 to 12.0 Metric Tons",Ohio,TEX,Track Excavators,,EROPS w AC,,,,,,,,,,,Standard,,,,,,None or Unspecified,,,,Steel,24 inch,None or Unspecified,None or Unspecified,None or Unspecified,Double,,,,,
3463,1488728,37000,1250332,132,2.0,1996,,,2/4/2002 0:00,311B,311,B,,,Small,"Hydraulic Excavator, Track - 11.0 to 12.0 Metric Tons",Florida,TEX,Track Excavators,,EROPS w AC,,,,,,,,,,,Standard,,,,,,None or Unspecified,,,,Steel,28 inch,None or Unspecified,None or Unspecified,None or Unspecified,Double,,,,,
3463,1488730,29500,1231497,132,2.0,1996,,,10/5/2002 0:00,311B,311,B,,,Small,"Hydraulic Excavator, Track - 11.0 to 12.0 Metric Tons",Pennsylvania,TEX,Track Excavators,,EROPS w AC,,,,,,,,,,,Standard,,,,,,None or Unspecified,,,,Steel,24 inch,None or Unspecified,None or Unspecified,None or Unspecified,Double,,,,,
3463,1488731,51000,1203043,132,2.0,1996,,,3/18/1999 0:00,311B,311,B,,,Small,"Hydraulic Excavator, Track - 11.0 to 12.0 Metric Tons",New Jersey,TEX,Track Excavators,,EROPS,,,,,,,,,,,Standard,,,,,,None or Unspecified,,,,Steel,None or Unspecified,None or Unspecified,None or Unspecified,None or Unspecified,Double,,,,,
3463,1488732,39500,1203043,132,13.0,1996,,,6/14/2003 0:00,311B,311,B,,,Small,"Hydraulic Excavator, Track - 11.0 to 12.0 Metric Tons",Tennessee,TEX,Track Excavators,,EROPS,,,,,,,,,,,Standard,,,,,,None or Unspecified,,,,Steel,None or Unspecified,None or Unspecified,None or Unspecified,None or Unspecified,Double,,,,,
3463,1488733,32000,1215411,132,2.0,1996,,,6/14/2003 0:00,311B,311,B,,,Small,"Hydraulic Excavator, Track - 11.0 to 12.0 Metric Tons",Pennsylvania,TEX,Track Excavators,,EROPS w AC,,,,,,,,,,,Standard,,,,,,None or Unspecified,,,,Steel,28 inch,None or Unspecified,None or Unspecified,None or Unspecified,Double,,,,,
3463,1488734,28000,1372233,132,2.0,1996,,,2/2/2003 0:00,311B,311,B,,,Small,"Hydraulic Excavator, Track - 11.0 to 12.0 Metric Tons",Florida,TEX,Track Excavators,,EROPS w AC,,,,,,,,,,,Standard,,,,,,None or Unspecified,,,,Steel,20 inch,None or Unspecified,None or Unspecified,None or Unspecified,Double,,,,,
3463,1488735,31000,1090602,132,2.0,1996,,,8/22/2002 0:00,311B,311,B,,,Small,"Hydraulic Excavator, Track - 11.0 to 12.0 Metric Tons",Kentucky,TEX,Track Excavators,,EROPS w AC,,,,,,,,,,,Standard,,,,,,None or Unspecified,,,,Steel,20 inch,None or Unspecified,None or Unspecified,None or Unspecified,Double,,,,,
3463,1488736,37500,1150684,132,2.0,1996,,,2/1/2004 0:00,311B,311,B,,,Small,"Hydraulic Excavator, Track - 11.0 to 12.0 Metric Tons",Florida,TEX,Track Excavators,,EROPS w AC,,,,,,,,,,,Standard,,,,,,None or Unspecified,,,,Steel,24 inch,None or Unspecified,None or Unspecified,None or Unspecified,Double,,,,,
3463,1488737,33500,1549537,132,2.0,1996,,,7/19/2003 0:00,311B,311,B,,,Small,"Hydraulic Excavator, Track - 11.0 to 12.0 Metric Tons",Connecticut,TEX,Track Excavators,,EROPS w AC,,,,,,,,,,,Standard,,,,,,None or Unspecified,,,,Steel,24 inch,None or Unspecified,None or Unspecified,None or Unspecified,Double,,,,,
3463,1488738,34000,1467682,132,2.0,1996,,,11/4/2006 0:00,311B,311,B,,,Small,"Hydraulic Excavator, Track - 11.0 to 12.0 Metric Tons",New York,TEX,Track Excavators,,EROPS w AC,,,,,,,,,,,Standard,,,,,,None or Unspecified,,,,Steel,20 inch,None or Unspecified,None or Unspecified,None or Unspecified,Double,,,,,
3463,1488739,31000,1556989,132,8.0,1996,,,5/29/2002 0:00,311B,311,B,,,Small,"Hydraulic Excavator, Track - 11.0 to 12.0 Metric Tons",Mississippi,TEX,Track Excavators,,EROPS w AC,,,,,,,,,,,Standard,,,,,,None or Unspecified,,,,Steel,36 inch,None or Unspecified,None or Unspecified,None or Unspecified,Double,,,,,
3463,1488740,33000,1556989,132,14.0,1996,,,9/20/2002 0:00,311B,311,B,,,Small,"Hydraulic Excavator, Track - 11.0 to 12.0 Metric Tons",Indiana,TEX,Track Excavators,,EROPS w AC,,,,,,,,,,,Standard,,,,,,None or Unspecified,,,,Steel,36 inch,None or Unspecified,None or Unspecified,None or Unspecified,Double,,,,,
3463,1488741,32000,1472989,132,2.0,1996,,,6/15/2002 0:00,311B,311,B,,,Small,"Hydraulic Excavator, Track - 11.0 to 12.0 Metric Tons",New Hampshire,TEX,Track Excavators,,EROPS,,,,,,,,,,,Standard,,,,,,None or Unspecified,,,,Steel,None or Unspecified,None or Unspecified,None or Unspecified,None or Unspecified,Double,,,,,
3463,1488742,37000,848341,132,2.0,1996,,,4/30/2005 0:00,311B,311,B,,,Small,"Hydraulic Excavator, Track - 11.0 to 12.0 Metric Tons",Maine,TEX,Track Excavators,,EROPS w AC,,,,,,,,,,,Standard,,,,,,None or Unspecified,,,,Steel,24 inch,None or Unspecified,None or Unspecified,None or Unspecified,Double,,,,,
3463,1488744,40500,1491023,132,2.0,1996,,,11/19/1999 0:00,311B,311,B,,,Small,"Hydraulic Excavator, Track - 11.0 to 12.0 Metric Tons",Maine,TEX,Track Excavators,,EROPS w AC,,,,,,,,,,,Standard,,,,,,None or Unspecified,,,,Steel,None or Unspecified,None or Unspecified,None or Unspecified,None or Unspecified,Double,,,,,
3463,1488746,30000,854687,132,3.0,1996,,,2/14/2002 0:00,311B,311,B,,,Small,"Hydraulic Excavator, Track - 11.0 to 12.0 Metric Tons",Unspecified,TEX,Track Excavators,,EROPS w AC,,,,,,,,,,,Standard,,,,,,None or Unspecified,,,,Steel,28 inch,None or Unspecified,None or Unspecified,None or Unspecified,Double,,,,,
3463,1488747,33000,1076921,132,2.0,1996,,,2/1/2004 0:00,311B,311,B,,,Small,"Hydraulic Excavator, Track - 11.0 to 12.0 Metric Tons",Florida,TEX,Track Excavators,,EROPS w AC,,,,,,,,,,,Standard,,,,,,None or Unspecified,,,,Steel,28 inch,None or Unspecified,None or Unspecified,None or Unspecified,Double,,,,,
3463,1488749,29000,1552393,132,1.0,1996,,,12/12/2001 0:00,311B,311,B,,,Small,"Hydraulic Excavator, Track - 11.0 to 12.0 Metric Tons",Texas,TEX,Track Excavators,,EROPS,,,,,,,,,,,Standard,,,,,,None or Unspecified,,,,Steel,None or Unspecified,None or Unspecified,None or Unspecified,None or Unspecified,Double,,,,,
3463,1488750,33000,1113909,132,2.0,1996,,,3/22/2007 0:00,311B,311,B,,,Small,"Hydraulic Excavator, Track - 11.0 to 12.0 Metric Tons",New Jersey,TEX,Track Excavators,,EROPS w AC,,,,,,,,,,,Standard,,,,,,None or Unspecified,,,,Steel,20 inch,None or Unspecified,None or Unspecified,None or Unspecified,Double,,,,,
3463,1488751,40000,1154501,132,2.0,1996,,,10/2/1999 0:00,311B,311,B,,,Small,"Hydraulic Excavator, Track - 11.0 to 12.0 Metric Tons",Pennsylvania,TEX,Track Excavators,,EROPS w AC,,,,,,,,,,,Standard,,,,,,None or Unspecified,,,,Steel,None or Unspecified,None or Unspecified,None or Unspecified,None or Unspecified,Double,,,,,
3463,1488752,31000,1372378,132,2.0,1996,,,8/9/2003 0:00,311B,311,B,,,Small,"Hydraulic Excavator, Track - 11.0 to 12.0 Metric Tons",Ohio,TEX,Track Excavators,,EROPS w AC,,,,,,,,,,,Auxiliary,,,,,,None or Unspecified,,,,Steel,28 inch,None or Unspecified,None or Unspecified,None or Unspecified,Double,,,,,
3463,1488753,35000,1255222,132,2.0,1996,,,9/13/2003 0:00,311B,311,B,,,Small,"Hydraulic Excavator, Track - 11.0 to 12.0 Metric Tons",New Jersey,TEX,Track Excavators,,EROPS w AC,,,,,,,,,,,Auxiliary,,,,,,None or Unspecified,,,,Steel,28 inch,None or Unspecified,None or Unspecified,None or Unspecified,Double,,,,,
3463,1488754,39000,1407444,132,2.0,1996,1971.0,Medium,11/20/1999 0:00,311B,311,B,,,Small,"Hydraulic Excavator, Track - 11.0 to 12.0 Metric Tons",Ohio,TEX,Track Excavators,,EROPS w AC,,,,,,,,,,,Standard,,,,,,None or Unspecified,,,,Steel,None or Unspecified,None or Unspecified,None or Unspecified,None or Unspecified,Double,,,,,
3463,1488755,39500,1348123,132,2.0,1996,,,4/29/2000 0:00,311B,311,B,,,Small,"Hydraulic Excavator, Track - 11.0 to 12.0 Metric Tons",Ohio,TEX,Track Excavators,,EROPS,,,,,,,,,,,Standard,,,,,,None or Unspecified,,,,Steel,None or Unspecified,None or Unspecified,None or Unspecified,None or Unspecified,Double,,,,,
3463,1488756,44000,1550616,132,2.0,1996,,,3/25/2004 0:00,311B,311,B,,,Small,"Hydraulic Excavator, Track - 11.0 to 12.0 Metric Tons",New Jersey,TEX,Track Excavators,,EROPS w AC,,,,,,,,,,,Standard,,,,,,None or Unspecified,,,,Steel,28 inch,None or Unspecified,None or Unspecified,None or Unspecified,Double,,,,,
3463,1488757,42000,367903,132,1.0,1996,,,9/25/1998 0:00,311B,311,B,,,Small,"Hydraulic Excavator, Track - 11.0 to 12.0 Metric Tons",New Mexico,TEX,Track Excavators,,EROPS w AC,,,,,,,,,,,Standard,,,,,,Manual,,,,Steel,28 inch,None or Unspecified,None or Unspecified,None or Unspecified,Double,,,,,
3463,1488759,27000,367903,132,2.0,1996,,,12/8/2003 0:00,311B,311,B,,,Small,"Hydraulic Excavator, Track - 11.0 to 12.0 Metric Tons",California,TEX,Track Excavators,,EROPS w AC,,,,,,,,,,,Standard,,,,,,Manual,,,,Steel,28 inch,None or Unspecified,None or Unspecified,None or Unspecified,Double,,,,,
3463,1488761,33500,1238247,132,9.0,1996,,,2/22/2006 0:00,311B,311,B,,,Small,"Hydraulic Excavator, Track - 11.0 to 12.0 Metric Tons",Florida,TEX,Track Excavators,,EROPS w AC,,,,,,,,,,,Auxiliary,,,,,,None or Unspecified,,,,Steel,20 inch,None or Unspecified,None or Unspecified,None or Unspecified,Triple,,,,,
3463,1488762,35000,1238247,132,8.0,1996,,,2/16/2007 0:00,311B,311,B,,,Small,"Hydraulic Excavator, Track - 11.0 to 12.0 Metric Tons",Florida,TEX,Track Excavators,,EROPS w AC,,,,,,,,,,,Auxiliary,,,,,,None or Unspecified,,,,Steel,20 inch,None or Unspecified,None or Unspecified,None or Unspecified,Triple,,,,,
3463,1488765,37000,1238247,132,4.0,1996,,,2/12/2007 0:00,311B,311,B,,,Small,"Hydraulic Excavator, Track - 11.0 to 12.0 Metric Tons",Florida,TEX,Track Excavators,,EROPS w AC,,,,,,,,,,,Auxiliary,,,,,,None or Unspecified,,,,Steel,20 inch,None or Unspecified,None or Unspecified,None or Unspecified,Triple,,,,,
3463,1488766,32000,1365580,132,2.0,1996,,,2/2/2003 0:00,311B,311,B,,,Small,"Hydraulic Excavator, Track - 11.0 to 12.0 Metric Tons",Florida,TEX,Track Excavators,,EROPS w AC,,,,,,,,,,,Standard,,,,,,None or Unspecified,,,,Steel,24 inch,None or Unspecified,None or Unspecified,None or Unspecified,Double,,,,,
3463,1488768,36000,1185650,132,2.0,1997,,,2/4/2002 0:00,311B,311,B,,,Small,"Hydraulic Excavator, Track - 11.0 to 12.0 Metric Tons",Florida,TEX,Track Excavators,,EROPS w AC,,,,,,,,,,,Standard,,,,,,None or Unspecified,,,,Steel,None or Unspecified,None or Unspecified,None or Unspecified,None or Unspecified,Double,,,,,
3463,1488769,33500,1129551,132,2.0,1997,,,2/8/2001 0:00,311B,311,B,,,Small,"Hydraulic Excavator, Track - 11.0 to 12.0 Metric Tons",Florida,TEX,Track Excavators,,EROPS,,,,,,,,,,,Standard,,,,,,None or Unspecified,,,,Steel,None or Unspecified,None or Unspecified,None or Unspecified,None or Unspecified,Double,,,,,
3463,1488770,44500,1461403,132,2.0,1997,,,5/22/1999 0:00,311B,311,B,,,Small,"Hydraulic Excavator, Track - 11.0 to 12.0 Metric Tons",Connecticut,TEX,Track Excavators,,EROPS,,,,,,,,,,,Standard,,,,,,None or Unspecified,,,,Steel,None or Unspecified,None or Unspecified,None or Unspecified,None or Unspecified,Double,,,,,
3463,1488771,29750,1268273,132,5.0,1997,,,8/15/2001 0:00,311B,311,B,,,Small,"Hydraulic Excavator, Track - 11.0 to 12.0 Metric Tons",Connecticut,TEX,Track Excavators,,EROPS,,,,,,,,,,,Standard,,,,,,None or Unspecified,,,,Steel,None or Unspecified,None or Unspecified,None or Unspecified,None or Unspecified,Triple,,,,,
3463,1488772,49000,1440170,132,11.0,1997,,,9/1/1999 0:00,311B,311,B,,,Small,"Hydraulic Excavator, Track - 11.0 to 12.0 Metric Tons",Mississippi,TEX,Track Excavators,,EROPS w AC,,,,,,,,,,,Standard,,,,,,None or Unspecified,,,,Steel,20 inch,None or Unspecified,None or Unspecified,None or Unspecified,Double,,,,,
3463,1488773,47000,1440170,132,2.0,1997,,,5/22/1999 0:00,311B,311,B,,,Small,"Hydraulic Excavator, Track - 11.0 to 12.0 Metric Tons",Connecticut,TEX,Track Excavators,,EROPS w AC,,,,,,,,,,,Standard,,,,,,None or Unspecified,,,,Steel,20 inch,None or Unspecified,None or Unspecified,None or Unspecified,Double,,,,,
3463,1488774,36500,1246588,132,2.0,1997,,,2/8/2001 0:00,311B,311,B,,,Small,"Hydraulic Excavator, Track - 11.0 to 12.0 Metric Tons",Florida,TEX,Track Excavators,,EROPS w AC,,,,,,,,,,,Standard,,,,,,None or Unspecified,,,,Steel,28 inch,None or Unspecified,None or Unspecified,None or Unspecified,Double,,,,,
3463,1488775,31500,1083237,132,5.0,1997,,,8/26/2004 0:00,311B,311,B,,,Small,"Hydraulic Excavator, Track - 11.0 to 12.0 Metric Tons",Connecticut,TEX,Track Excavators,,EROPS,,,,,,,,,,,Standard,,,,,,None or Unspecified,,,,Steel,18 inch,None or Unspecified,None or Unspecified,None or Unspecified,Triple,,,,,
3463,1488776,33500,1519435,132,2.0,1997,,,11/17/2001 0:00,311B,311,B,,,Small,"Hydraulic Excavator, Track - 11.0 to 12.0 Metric Tons",Ohio,TEX,Track Excavators,,EROPS w AC,,,,,,,,,,,Standard,,,,,,None or Unspecified,,,,Steel,20 inch,None or Unspecified,None or Unspecified,None or Unspecified,Double,,,,,
3463,1488777,38500,1194860,132,5.0,1997,,,3/29/2007 0:00,311B,311,B,,,Small,"Hydraulic Excavator, Track - 11.0 to 12.0 Metric Tons",Connecticut,TEX,Track Excavators,,EROPS w AC,,,,,,,,,,,Standard,,,,,,None or Unspecified,,,,Steel,28 inch,None or Unspecified,Manual,None or Unspecified,Triple,,,,,
3463,1488778,34000,1194860,132,2.0,1997,,,8/24/2002 0:00,311B,311,B,,,Small,"Hydraulic Excavator, Track - 11.0 to 12.0 Metric Tons",Pennsylvania,TEX,Track Excavators,,EROPS w AC,,,,,,,,,,,Standard,,,,,,None or Unspecified,,,,Steel,28 inch,None or Unspecified,Manual,None or Unspecified,Triple,,,,,
3463,1488779,31000,1425275,132,2.0,1997,,,11/16/2002 0:00,311B,311,B,,,Small,"Hydraulic Excavator, Track - 11.0 to 12.0 Metric Tons",Connecticut,TEX,Track Excavators,,EROPS w AC,,,,,,,,,,,Standard,,,,,,None or Unspecified,,,,Steel,20 inch,None or Unspecified,None or Unspecified,None or Unspecified,Double,,,,,
3463,1488780,42000,1211821,132,2.0,1997,,,3/31/2005 0:00,311B,311,B,,,Small,"Hydraulic Excavator, Track - 11.0 to 12.0 Metric Tons",New Jersey,TEX,Track Excavators,,EROPS w AC,,,,,,,,,,,Standard,,,,,,None or Unspecified,,,,Steel,20 inch,None or Unspecified,None or Unspecified,None or Unspecified,Double,,,,,
3463,1488781,34000,1304590,132,2.0,1997,,,9/5/2002 0:00,311B,311,B,,,Small,"Hydraulic Excavator, Track - 11.0 to 12.0 Metric Tons",New Hampshire,TEX,Track Excavators,,EROPS,,,,,,,,,,,Standard,,,,,,None or Unspecified,,,,Steel,24 inch,None or Unspecified,None or Unspecified,None or Unspecified,Double,,,,,
3463,1488782,30000,1284826,132,2.0,1997,,,2/2/2003 0:00,311B,311,B,,,Small,"Hydraulic Excavator, Track - 11.0 to 12.0 Metric Tons",Florida,TEX,Track Excavators,,EROPS w AC,,,,,,,,,,,Standard,,,,,,None or Unspecified,,,,Steel,20 inch,None or Unspecified,None or Unspecified,None or Unspecified,Double,,,,,
3463,1488783,38500,1442651,132,2.0,1997,,,10/19/2000 0:00,311B,311,B,,,Small,"Hydraulic Excavator, Track - 11.0 to 12.0 Metric Tons",New Hampshire,TEX,Track Excavators,,EROPS w AC,,,,,,,,,,,Standard,,,,,,None or Unspecified,,,,Steel,None or Unspecified,None or Unspecified,None or Unspecified,None or Unspecified,Double,,,,,
3463,1488784,33000,1337102,132,2.0,1997,,,1/30/2005 0:00,311B,311,B,,,Small,"Hydraulic Excavator, Track - 11.0 to 12.0 Metric Tons",Florida,TEX,Track Excavators,,EROPS w AC,,,,,,,,,,,Standard,,,,,,None or Unspecified,,,,Steel,20 inch,None or Unspecified,None or Unspecified,None or Unspecified,Double,,,,,
3463,1488785,27000,1290490,132,8.0,1997,,,9/18/2002 0:00,311B,311,B,,,Small,"Hydraulic Excavator, Track - 11.0 to 12.0 Metric Tons",Mississippi,TEX,Track Excavators,,EROPS w AC,,,,,,,,,,,Standard,,,,,,None or Unspecified,,,,Steel,None or Unspecified,None or Unspecified,Manual,None or Unspecified,Double,,,,,
3463,1488786,40500,1108304,132,2.0,1997,,,3/27/2003 0:00,311B,311,B,,,Small,"Hydraulic Excavator, Track - 11.0 to 12.0 Metric Tons",New Jersey,TEX,Track Excavators,,EROPS w AC,,,,,,,,,,,Standard,,,,,,None or Unspecified,,,,Steel,20 inch,None or Unspecified,None or Unspecified,None or Unspecified,Double,,,,,
3463,1488787,35000,1500034,132,20.0,1997,,,10/27/2004 0:00,311B,311,B,,,Small,"Hydraulic Excavator, Track - 11.0 to 12.0 Metric Tons",Arkansas,TEX,Track Excavators,,EROPS w AC,,,,,,,,,,,Standard,,,,,,None or Unspecified,,,,Steel,22 inch,None or Unspecified,None or Unspecified,None or Unspecified,Triple,,,,,
3463,1488788,34000,1445912,132,2.0,1997,,,9/23/2005 0:00,311B,311,B,,,Small,"Hydraulic Excavator, Track - 11.0 to 12.0 Metric Tons",New Jersey,TEX,Track Excavators,,EROPS w AC,,,,,,,,,,,Standard,,,,,,None or Unspecified,,,,Steel,28 inch,None or Unspecified,None or Unspecified,None or Unspecified,Double,,,,,
3463,1488789,39000,1373613,132,2.0,1997,,,2/4/2007 0:00,311B,311,B,,,Small,"Hydraulic Excavator, Track - 11.0 to 12.0 Metric Tons",Florida,TEX,Track Excavators,,EROPS w AC,,,,,,,,,,,Standard,,,,,,None or Unspecified,,,,Steel,20 inch,None or Unspecified,None or Unspecified,None or Unspecified,Double,,,,,
3463,1488790,40000,1078945,132,2.0,1997,,,4/22/2005 0:00,311B,311,B,,,Small,"Hydraulic Excavator, Track - 11.0 to 12.0 Metric Tons",Ohio,TEX,Track Excavators,,EROPS w AC,,,,,,,,,,,Standard,,,,,,None or Unspecified,,,,Steel,20 inch,None or Unspecified,None or Unspecified,None or Unspecified,Double,,,,,
3463,1488792,32500,1148548,132,2.0,1997,,,1/30/2005 0:00,311B,311,B,,,Small,"Hydraulic Excavator, Track - 11.0 to 12.0 Metric Tons",Florida,TEX,Track Excavators,,EROPS w AC,,,,,,,,,,,Standard,,,,,,None or Unspecified,,,,Steel,20 inch,None or Unspecified,None or Unspecified,None or Unspecified,Double,,,,,
3463,1488793,48000,1463536,132,11.0,1997,499.0,Low,5/26/1999 0:00,311B,311,B,,,Small,"Hydraulic Excavator, Track - 11.0 to 12.0 Metric Tons",Mississippi,TEX,Track Excavators,,EROPS w AC,,,,,,,,,,,Standard,,,,,,None or Unspecified,,,,Steel,20 inch,None or Unspecified,None or Unspecified,None or Unspecified,Double,,,,,
3463,1488795,37500,443216,132,2.0,1997,,,3/14/2002 0:00,311B,311,B,,,Small,"Hydraulic Excavator, Track - 11.0 to 12.0 Metric Tons",New Jersey,TEX,Track Excavators,,EROPS,,,,,,,,,,,Standard,,,,,,None or Unspecified,,,,Steel,28 inch,None or Unspecified,None or Unspecified,None or Unspecified,Double,,,,,
3463,1488796,34000,1369605,132,2.0,1997,,,3/31/2007 0:00,311B,311,B,,,Small,"Hydraulic Excavator, Track - 11.0 to 12.0 Metric Tons",Ohio,TEX,Track Excavators,,EROPS w AC,,,,,,,,,,,Standard,,,,,,None or Unspecified,,,,Steel,20 inch,None or Unspecified,None or Unspecified,None or Unspecified,Double,,,,,
3463,1488797,52000,1256614,132,2.0,1997,,,2/2/1999 0:00,311B,311,B,,,Small,"Hydraulic Excavator, Track - 11.0 to 12.0 Metric Tons",Florida,TEX,Track Excavators,,EROPS w AC,,,,,,,,,,,Standard,,,,,,None or Unspecified,,,,Steel,28 inch,None or Unspecified,None or Unspecified,None or Unspecified,Double,,,,,
3463,1488799,38500,407467,132,2.0,1997,,,9/16/2000 0:00,311B,311,B,,,Small,"Hydraulic Excavator, Track - 11.0 to 12.0 Metric Tons",New Jersey,TEX,Track Excavators,,EROPS w AC,,,,,,,,,,,Auxiliary,,,,,,None or Unspecified,,,,Steel,20 inch,None or Unspecified,None or Unspecified,None or Unspecified,Triple,,,,,
3463,1488800,50000,407467,132,2.0,1997,,,3/18/1999 0:00,311B,311,B,,,Small,"Hydraulic Excavator, Track - 11.0 to 12.0 Metric Tons",New Jersey,TEX,Track Excavators,,EROPS w AC,,,,,,,,,,,Auxiliary,,,,,,None or Unspecified,,,,Steel,20 inch,None or Unspecified,None or Unspecified,None or Unspecified,Triple,,,,,
3463,1488801,43000,407467,132,11.0,1997,,,1/25/2001 0:00,311B,311,B,,,Small,"Hydraulic Excavator, Track - 11.0 to 12.0 Metric Tons",South Carolina,TEX,Track Excavators,,EROPS w AC,,,,,,,,,,,Auxiliary,,,,,,None or Unspecified,,,,Steel,20 inch,None or Unspecified,None or Unspecified,None or Unspecified,Triple,,,,,
3463,1488803,34000,407467,132,99.0,1997,,,10/19/2000 0:00,311B,311,B,,,Small,"Hydraulic Excavator, Track - 11.0 to 12.0 Metric Tons",South Carolina,TEX,Track Excavators,,EROPS w AC,,,,,,,,,,,Auxiliary,,,,,,None or Unspecified,,,,Steel,20 inch,None or Unspecified,None or Unspecified,None or Unspecified,Triple,,,,,
3463,1488804,36000,407467,132,7.0,1997,,,12/1/2000 0:00,311B,311,B,,,Small,"Hydraulic Excavator, Track - 11.0 to 12.0 Metric Tons",Alabama,TEX,Track Excavators,,EROPS w AC,,,,,,,,,,,Auxiliary,,,,,,None or Unspecified,,,,Steel,20 inch,None or Unspecified,None or Unspecified,None or Unspecified,Triple,,,,,
3463,1488805,35000,836332,132,2.0,1997,,,2/4/2002 0:00,311B,311,B,,,Small,"Hydraulic Excavator, Track - 11.0 to 12.0 Metric Tons",Florida,TEX,Track Excavators,,EROPS,,,,,,,,,,,Standard,,,,,,None or Unspecified,,,,Steel,None or Unspecified,None or Unspecified,None or Unspecified,None or Unspecified,Double,,,,,
3463,1488806,36000,1333342,132,5.0,1997,,,11/5/2004 0:00,311B,311,B,,,Small,"Hydraulic Excavator, Track - 11.0 to 12.0 Metric Tons",Connecticut,TEX,Track Excavators,,EROPS,,,,,,,,,,,Standard,,,,,,None or Unspecified,,,,Steel,27 inch,"11' 0""",None or Unspecified,None or Unspecified,Double,,,,,
3463,1488807,30000,863319,132,2.0,1997,,,2/2/2003 0:00,311B,311,B,,,Small,"Hydraulic Excavator, Track - 11.0 to 12.0 Metric Tons",Florida,TEX,Track Excavators,,EROPS w AC,,,,,,,,,,,Standard,,,,,,None or Unspecified,,,,Steel,24 inch,None or Unspecified,None or Unspecified,None or Unspecified,Double,,,,,
3463,1488808,32000,1310451,132,4.0,1997,,,2/11/2002 0:00,311B,311,B,,,Small,"Hydraulic Excavator, Track - 11.0 to 12.0 Metric Tons",Florida,TEX,Track Excavators,,EROPS w AC,,,,,,,,,,,Standard,,,,,,None or Unspecified,,,,Steel,None or Unspecified,None or Unspecified,None or Unspecified,None or Unspecified,Double,,,,,
3463,1488809,34000,1407557,132,2.0,1997,,,4/27/2002 0:00,311B,311,B,,,Small,"Hydraulic Excavator, Track - 11.0 to 12.0 Metric Tons",Ohio,TEX,Track Excavators,,EROPS,,,,,,,,,,,Standard,,,,,,None or Unspecified,,,,Steel,28 inch,None or Unspecified,None or Unspecified,None or Unspecified,Double,,,,,
3463,1488810,38000,1491640,132,2.0,1997,,,8/20/2005 0:00,311B,311,B,,,Small,"Hydraulic Excavator, Track - 11.0 to 12.0 Metric Tons",New Jersey,TEX,Track Excavators,,EROPS w AC,,,,,,,,,,,Standard,,,,,,None or Unspecified,,,,Steel,24 inch,"8' 2""",None or Unspecified,None or Unspecified,Triple,,,,,
3463,1488811,38000,1491640,132,2.0,1997,,,9/23/2005 0:00,311B,311,B,,,Small,"Hydraulic Excavator, Track - 11.0 to 12.0 Metric Tons",New Jersey,TEX,Track Excavators,,EROPS w AC,,,,,,,,,,,Standard,,,,,,None or Unspecified,,,,Steel,24 inch,"8' 2""",None or Unspecified,None or Unspecified,Triple,,,,,
3463,1488812,33500,1411844,132,2.0,1997,,,3/31/2005 0:00,311B,311,B,,,Small,"Hydraulic Excavator, Track - 11.0 to 12.0 Metric Tons",New Jersey,TEX,Track Excavators,,EROPS w AC,,,,,,,,,,,Standard,,,,,,None or Unspecified,,,,Steel,28 inch,None or Unspecified,None or Unspecified,None or Unspecified,Double,,,,,
3463,1488813,49500,1526329,132,2.0,1997,,,7/31/1999 0:00,311B,311,B,,,Small,"Hydraulic Excavator, Track - 11.0 to 12.0 Metric Tons",Ohio,TEX,Track Excavators,,EROPS,,,,,,,,,,,Standard,,,,,,None or Unspecified,,,,Steel,None or Unspecified,None or Unspecified,None or Unspecified,None or Unspecified,Double,,,,,
3463,1488814,37000,1521349,132,2.0,1997,,,9/6/2003 0:00,311B,311,B,,,Small,"Hydraulic Excavator, Track - 11.0 to 12.0 Metric Tons",New Hampshire,TEX,Track Excavators,,EROPS w AC,,,,,,,,,,,Standard,,,,,,None or Unspecified,,,,Steel,20 inch,None or Unspecified,None or Unspecified,None or Unspecified,Double,,,,,
3463,1488815,31000,1203215,132,2.0,1997,,,6/29/2002 0:00,311B,311,B,,,Small,"Hydraulic Excavator, Track - 11.0 to 12.0 Metric Tons",Pennsylvania,TEX,Track Excavators,,EROPS w AC,,,,,,,,,,,Standard,,,,,,None or Unspecified,,,,Steel,20 inch,None or Unspecified,None or Unspecified,None or Unspecified,Double,,,,,
3463,1488818,36500,1524813,132,5.0,1997,,,8/26/2004 0:00,311B,311,B,,,Small,"Hydraulic Excavator, Track - 11.0 to 12.0 Metric Tons",Connecticut,TEX,Track Excavators,,EROPS w AC,,,,,,,,,,,Standard,,,,,,None or Unspecified,,,,Steel,36 inch,None or Unspecified,None or Unspecified,None or Unspecified,Triple,,,,,
3463,1488819,30000,1209541,132,2.0,1997,,,2/4/2002 0:00,311B,311,B,,,Small,"Hydraulic Excavator, Track - 11.0 to 12.0 Metric Tons",Florida,TEX,Track Excavators,,EROPS,,,,,,,,,,,Standard,,,,,,None or Unspecified,,,,Steel,20 inch,None or Unspecified,None or Unspecified,None or Unspecified,Double,,,,,
3463,1488820,29000,1411947,132,14.0,1997,,,12/14/2001 0:00,311B,311,B,,,Small,"Hydraulic Excavator, Track - 11.0 to 12.0 Metric Tons",Indiana,TEX,Track Excavators,,EROPS w AC,,,,,,,,,,,Standard,,,,,,None or Unspecified,,,,Steel,None or Unspecified,None or Unspecified,None or Unspecified,None or Unspecified,Double,,,,,
3463,1488821,32000,1523009,132,1.0,1997,,,8/28/2001 0:00,311B,311,B,,,Small,"Hydraulic Excavator, Track - 11.0 to 12.0 Metric Tons",Missouri,TEX,Track Excavators,,EROPS,,,,,,,,,,,Standard,,,,,,None or Unspecified,,,,Steel,None or Unspecified,None or Unspecified,None or Unspecified,None or Unspecified,Double,,,,,
3463,1488822,32500,569894,132,2.0,1997,,,11/3/2001 0:00,311B,311,B,,,Small,"Hydraulic Excavator, Track - 11.0 to 12.0 Metric Tons",New York,TEX,Track Excavators,,EROPS,,,,,,,,,,,Standard,,,,,,None or Unspecified,,,,Steel,20 inch,None or Unspecified,None or Unspecified,None or Unspecified,Double,,,,,
3463,1488823,35000,903151,132,13.0,1997,,,12/6/2003 0:00,311B,311,B,,,Small,"Hydraulic Excavator, Track - 11.0 to 12.0 Metric Tons",Tennessee,TEX,Track Excavators,,EROPS,,,,,,,,,,,Standard,,,,,,None or Unspecified,,,,Steel,None or Unspecified,None or Unspecified,None or Unspecified,None or Unspecified,Double,,,,,
3463,1488825,15000,1172258,132,1.0,1997,,,5/12/2010 0:00,311B,311,B,,,Small,"Hydraulic Excavator, Track - 11.0 to 12.0 Metric Tons",California,TEX,Track Excavators,,EROPS w AC,,,,,,,,,,,Standard,,,,,,None or Unspecified,,,,Steel,None or Unspecified,None or Unspecified,None or Unspecified,None or Unspecified,Double,,,,,
3463,1488827,31000,1543900,132,2.0,1997,,,11/15/2003 0:00,311B,311,B,,,Small,"Hydraulic Excavator, Track - 11.0 to 12.0 Metric Tons",Connecticut,TEX,Track Excavators,,EROPS w AC,,,,,,,,,,,Standard,,,,,,None or Unspecified,,,,Steel,20 inch,None or Unspecified,None or Unspecified,None or Unspecified,Double,,,,,
3463,1488828,45000,1422300,132,1.0,1997,,,3/22/2000 0:00,311B,311,B,,,Small,"Hydraulic Excavator, Track - 11.0 to 12.0 Metric Tons",Washington,TEX,Track Excavators,,EROPS w AC,,,,,,,,,,,Standard,,,,,,None or Unspecified,,,,Steel,None or Unspecified,None or Unspecified,None or Unspecified,None or Unspecified,Double,,,,,
3463,1488829,45000,1284136,132,2.0,1997,,,8/1/1998 0:00,311B,311,B,,,Small,"Hydraulic Excavator, Track - 11.0 to 12.0 Metric Tons",Ohio,TEX,Track Excavators,,EROPS w AC,,,,,,,,,,,Standard,,,,,,None or Unspecified,,,,Steel,18 inch,None or Unspecified,None or Unspecified,None or Unspecified,Triple,,,,,
3463,1488830,47500,1284136,132,11.0,1997,,,5/28/1998 0:00,311B,311,B,,,Small,"Hydraulic Excavator, Track - 11.0 to 12.0 Metric Tons",Mississippi,TEX,Track Excavators,,EROPS w AC,,,,,,,,,,,Standard,,,,,,None or Unspecified,,,,Steel,18 inch,None or Unspecified,None or Unspecified,None or Unspecified,Triple,,,,,
3463,1488831,49000,1284136,132,10.0,1997,,,6/25/1998 0:00,311B,311,B,,,Small,"Hydraulic Excavator, Track - 11.0 to 12.0 Metric Tons",Louisiana,TEX,Track Excavators,,EROPS w AC,,,,,,,,,,,Standard,,,,,,None or Unspecified,,,,Steel,18 inch,None or Unspecified,None or Unspecified,None or Unspecified,Triple,,,,,
3463,1488832,49000,1460597,132,2.0,1997,155.0,Low,11/21/1998 0:00,311B,311,B,,,Small,"Hydraulic Excavator, Track - 11.0 to 12.0 Metric Tons",Ohio,TEX,Track Excavators,,EROPS w AC,,,,,,,,,,,Standard,,,,,,None or Unspecified,,,,Steel,None or Unspecified,None or Unspecified,None or Unspecified,None or Unspecified,Double,,,,,
3463,1488833,32500,1215256,132,2.0,1997,,,7/13/2002 0:00,311B,311,B,,,Small,"Hydraulic Excavator, Track - 11.0 to 12.0 Metric Tons",New York,TEX,Track Excavators,,EROPS w AC,,,,,,,,,,,Standard,,,,,,None or Unspecified,,,,Steel,28 inch,None or Unspecified,None or Unspecified,None or Unspecified,Double,,,,,
3463,1488834,39500,1453363,132,5.0,1997,,,8/26/2004 0:00,311B,311,B,,,Small,"Hydraulic Excavator, Track - 11.0 to 12.0 Metric Tons",Connecticut,TEX,Track Excavators,,EROPS,,,,,,,,,,,Standard,,,,,,None or Unspecified,,,,Steel,16 inch,None or Unspecified,None or Unspecified,None or Unspecified,Triple,,,,,
3463,1488835,36500,1156493,132,2.0,1997,,,6/26/2004 0:00,311B,311,B,,,Small,"Hydraulic Excavator, Track - 11.0 to 12.0 Metric Tons",New Jersey,TEX,Track Excavators,,EROPS w AC,,,,,,,,,,,Standard,,,,,,None or Unspecified,,,,Steel,28 inch,None or Unspecified,None or Unspecified,None or Unspecified,Double,,,,,
3463,1488836,37000,1352082,132,2.0,1997,,,3/31/2005 0:00,311B,311,B,,,Small,"Hydraulic Excavator, Track - 11.0 to 12.0 Metric Tons",New Jersey,TEX,Track Excavators,,EROPS w AC,,,,,,,,,,,Standard,,,,,,None or Unspecified,,,,Steel,20 inch,None or Unspecified,None or Unspecified,None or Unspecified,Double,,,,,
3463,1488838,37000,1188897,132,8.0,1997,,,3/23/2005 0:00,311B,311,B,,,Small,"Hydraulic Excavator, Track - 11.0 to 12.0 Metric Tons",Mississippi,TEX,Track Excavators,,EROPS w AC,,,,,,,,,,,Standard,,,,,,None or Unspecified,,,,Steel,None or Unspecified,None or Unspecified,None or Unspecified,None or Unspecified,Double,,,,,
3463,1488839,32000,1188897,132,8.0,1997,,,11/17/2004 0:00,311B,311,B,,,Small,"Hydraulic Excavator, Track - 11.0 to 12.0 Metric Tons",Mississippi,TEX,Track Excavators,,EROPS w AC,,,,,,,,,,,Standard,,,,,,None or Unspecified,,,,Steel,None or Unspecified,None or Unspecified,None or Unspecified,None or Unspecified,Double,,,,,
3463,1488840,65000,89895,132,2.0,1997,,,12/13/1997 0:00,311B,311,B,,,Small,"Hydraulic Excavator, Track - 11.0 to 12.0 Metric Tons",Pennsylvania,TEX,Track Excavators,,EROPS w AC,,,,,,,,,,,Standard,,,,,,None or Unspecified,,,,Steel,28 inch,None or Unspecified,None or Unspecified,None or Unspecified,Double,,,,,
3463,1488841,39500,1311322,132,2.0,1997,,,1/30/2005 0:00,311B,311,B,,,Small,"Hydraulic Excavator, Track - 11.0 to 12.0 Metric Tons",Florida,TEX,Track Excavators,,EROPS w AC,,,,,,,,,,,Standard,,,,,,None or Unspecified,,,,Steel,20 inch,None or Unspecified,None or Unspecified,None or Unspecified,Double,,,,,
3463,1488842,37000,1410344,132,2.0,1997,,,12/11/2004 0:00,311B,311,B,,,Small,"Hydraulic Excavator, Track - 11.0 to 12.0 Metric Tons",Pennsylvania,TEX,Track Excavators,,EROPS w AC,,,,,,,,,,,Standard,,,,,,None or Unspecified,,,,Steel,20 inch,None or Unspecified,None or Unspecified,None or Unspecified,Double,,,,,
3463,1488844,28000,1506933,132,1.0,1998,,,9/25/2001 0:00,311B,311,B,,,Small,"Hydraulic Excavator, Track - 11.0 to 12.0 Metric Tons",Washington,TEX,Track Excavators,,EROPS w AC,,,,,,,,,,,Standard,,,,,,None or Unspecified,,,,Steel,None or Unspecified,None or Unspecified,None or Unspecified,None or Unspecified,Double,,,,,
3463,1488845,33000,1099884,132,11.0,1998,,,4/26/2001 0:00,311B,311,B,,,Small,"Hydraulic Excavator, Track - 11.0 to 12.0 Metric Tons",South Carolina,TEX,Track Excavators,,EROPS,,,,,,,,,,,Standard,,,,,,None or Unspecified,,,,Steel,20 inch,None or Unspecified,None or Unspecified,None or Unspecified,Double,,,,,
3463,1488846,25000,1164677,132,1.0,1998,,,3/31/2006 0:00,311B,311,B,,,Small,"Hydraulic Excavator, Track - 11.0 to 12.0 Metric Tons",North Carolina,TEX,Track Excavators,,EROPS w AC,,,,,,,,,,,Auxiliary,,,,,,None or Unspecified,,,,Steel,None or Unspecified,None or Unspecified,None or Unspecified,None or Unspecified,Double,,,,,
3463,1488848,37000,1412206,132,9.0,1998,,,8/18/2005 0:00,311B,311,B,,,Small,"Hydraulic Excavator, Track - 11.0 to 12.0 Metric Tons",South Carolina,TEX,Track Excavators,,EROPS,,,,,,,,,,,Standard,,,,,,None or Unspecified,,,,Steel,None or Unspecified,None or Unspecified,None or Unspecified,None or Unspecified,Triple,,,,,
3463,1488849,37000,1412206,132,12.0,1998,,,6/15/2005 0:00,311B,311,B,,,Small,"Hydraulic Excavator, Track - 11.0 to 12.0 Metric Tons",South Carolina,TEX,Track Excavators,,EROPS,,,,,,,,,,,Standard,,,,,,None or Unspecified,,,,Steel,None or Unspecified,None or Unspecified,None or Unspecified,None or Unspecified,Triple,,,,,
3463,1488860,54500,1403554,132,2.0,1998,,,11/21/1998 0:00,311B,311,B,,,Small,"Hydraulic Excavator, Track - 11.0 to 12.0 Metric Tons",Ohio,TEX,Track Excavators,,EROPS,,,,,,,,,,,Standard,,,,,,None or Unspecified,,,,Steel,None or Unspecified,None or Unspecified,None or Unspecified,None or Unspecified,Double,,,,,
3463,1488861,35500,1499827,132,2.0,1998,,,4/26/2003 0:00,311B,311,B,,,Small,"Hydraulic Excavator, Track - 11.0 to 12.0 Metric Tons",Ohio,TEX,Track Excavators,,EROPS w AC,,,,,,,,,,,Standard,,,,,,None or Unspecified,,,,Steel,28 inch,None or Unspecified,None or Unspecified,None or Unspecified,Double,,,,,
3463,1488862,30000,585927,132,2.0,1998,,,8/9/2003 0:00,311B,311,B,,,Small,"Hydraulic Excavator, Track - 11.0 to 12.0 Metric Tons",Ohio,TEX,Track Excavators,,EROPS,,,,,,,,,,,Standard,,,,,,None or Unspecified,,,,Steel,20 inch,None or Unspecified,None or Unspecified,None or Unspecified,Double,,,,,
3463,1488865,61000,579196,132,2.0,1998,10.0,Low,2/4/1998 0:00,311B,311,B,,,Small,"Hydraulic Excavator, Track - 11.0 to 12.0 Metric Tons",Florida,TEX,Track Excavators,,EROPS w AC,,,,,,,,,,,Standard,,,,,,None or Unspecified,,,,Steel,28 inch,None or Unspecified,None or Unspecified,None or Unspecified,Double,,,,,
3463,1488866,68000,1181123,132,2.0,1998,,,3/26/1998 0:00,311B,311,B,,,Small,"Hydraulic Excavator, Track - 11.0 to 12.0 Metric Tons",New Jersey,TEX,Track Excavators,,EROPS w AC,,,,,,,,,,,Standard,,,,,,None or Unspecified,,,,Steel,None or Unspecified,None or Unspecified,None or Unspecified,None or Unspecified,Double,,,,,
3463,1488867,63000,1181123,132,5.0,1998,,,3/13/1999 0:00,311B,311,B,,,Small,"Hydraulic Excavator, Track - 11.0 to 12.0 Metric Tons",New York,TEX,Track Excavators,,EROPS w AC,,,,,,,,,,,Standard,,,,,,None or Unspecified,,,,Steel,None or Unspecified,None or Unspecified,None or Unspecified,None or Unspecified,Double,,,,,
3463,1488868,44000,1521682,132,2.0,1998,,,3/25/2004 0:00,311B,311,B,,,Small,"Hydraulic Excavator, Track - 11.0 to 12.0 Metric Tons",New Jersey,TEX,Track Excavators,,EROPS w AC,,,,,,,,,,,Standard,,,,,,None or Unspecified,,,,Steel,28 inch,None or Unspecified,None or Unspecified,None or Unspecified,Double,,,,,
3463,1488870,34000,1550167,132,9.0,1998,,,8/18/2005 0:00,311B,311,B,,,Small,"Hydraulic Excavator, Track - 11.0 to 12.0 Metric Tons",South Carolina,TEX,Track Excavators,,EROPS,,,,,,,,,,,Standard,,,,,,None or Unspecified,,,,Steel,None or Unspecified,None or Unspecified,None or Unspecified,None or Unspecified,Triple,,,,,
3463,1488871,25000,1550167,132,12.0,1998,,,6/15/2005 0:00,311B,311,B,,,Small,"Hydraulic Excavator, Track - 11.0 to 12.0 Metric Tons",South Carolina,TEX,Track Excavators,,EROPS,,,,,,,,,,,Standard,,,,,,None or Unspecified,,,,Steel,None or Unspecified,None or Unspecified,None or Unspecified,None or Unspecified,Triple,,,,,
3463,1488872,43500,1441847,132,2.0,1998,,,1/30/2005 0:00,311B,311,B,,,Small,"Hydraulic Excavator, Track - 11.0 to 12.0 Metric Tons",Florida,TEX,Track Excavators,,EROPS w AC,,,,,,,,,,,Standard,,,,,,None or Unspecified,,,,Steel,28 inch,None or Unspecified,None or Unspecified,None or Unspecified,Double,,,,,
3463,1488873,66000,1193874,132,10.0,1998,,,4/23/1998 0:00,311B,311,B,,,Small,"Hydraulic Excavator, Track - 11.0 to 12.0 Metric Tons",Louisiana,TEX,Track Excavators,,EROPS w AC,,,,,,,,,,,Standard,,,,,,None or Unspecified,,,,Steel,28 inch,None or Unspecified,None or Unspecified,None or Unspecified,Triple,,,,,
3463,1488875,40000,1449251,132,8.0,1998,,,3/22/2006 0:00,311B,311,B,,,Small,"Hydraulic Excavator, Track - 11.0 to 12.0 Metric Tons",Mississippi,TEX,Track Excavators,,EROPS w AC,,,,,,,,,,,Standard,,,,,,None or Unspecified,,,,Steel,None or Unspecified,None or Unspecified,None or Unspecified,None or Unspecified,Double,,,,,
3463,1488878,25000,1495500,132,20.0,1998,,,2/2/2011 0:00,311B,311,B,,,Small,"Hydraulic Excavator, Track - 11.0 to 12.0 Metric Tons",Arkansas,TEX,Track Excavators,,EROPS,,,,,,,,,,,Standard,,,,,,None or Unspecified,,,,Steel,20 inch,None or Unspecified,Manual,None or Unspecified,Triple,,,,,
3463,1488879,35000,1495500,132,8.0,1998,,,9/22/2005 0:00,311B,311,B,,,Small,"Hydraulic Excavator, Track - 11.0 to 12.0 Metric Tons",Mississippi,TEX,Track Excavators,,EROPS,,,,,,,,,,,Standard,,,,,,None or Unspecified,,,,Steel,20 inch,None or Unspecified,Manual,None or Unspecified,Triple,,,,,
3463,1488880,40000,1493409,132,8.0,1998,,,11/16/2005 0:00,311B,311,B,,,Small,"Hydraulic Excavator, Track - 11.0 to 12.0 Metric Tons",Mississippi,TEX,Track Excavators,,EROPS,,,,,,,,,,,Standard,,,,,,None or Unspecified,,,,Steel,None or Unspecified,None or Unspecified,None or Unspecified,None or Unspecified,Double,,,,,
3463,1488881,33500,1277857,132,8.0,1998,,,3/23/2005 0:00,311B,311,B,,,Small,"Hydraulic Excavator, Track - 11.0 to 12.0 Metric Tons",Mississippi,TEX,Track Excavators,,EROPS,,,,,,,,,,,Standard,,,,,,None or Unspecified,,,,Steel,None or Unspecified,None or Unspecified,None or Unspecified,None or Unspecified,Double,,,,,
3463,1488886,49000,1358768,132,2.0,1999,,,3/25/2004 0:00,311B,311,B,,,Small,"Hydraulic Excavator, Track - 11.0 to 12.0 Metric Tons",New Jersey,TEX,Track Excavators,,EROPS w AC,,,,,,,,,,,Standard,,,,,,None or Unspecified,,,,Steel,20 inch,None or Unspecified,None or Unspecified,None or Unspecified,Double,,,,,
3463,1488887,62500,1340568,132,20.0,1999,,,8/26/2009 0:00,311B,311,B,,,Small,"Hydraulic Excavator, Track - 11.0 to 12.0 Metric Tons",Arkansas,TEX,Track Excavators,,EROPS w AC,,,,,,,,,,,Standard,,,,,,None or Unspecified,,,,Steel,None or Unspecified,None or Unspecified,None or Unspecified,None or Unspecified,Double,,,,,
3463,1488888,60000,1340568,132,10.0,1999,,,9/16/2009 0:00,311B,311,B,,,Small,"Hydraulic Excavator, Track - 11.0 to 12.0 Metric Tons",Louisiana,TEX,Track Excavators,,EROPS w AC,,,,,,,,,,,Standard,,,,,,None or Unspecified,,,,Steel,None or Unspecified,None or Unspecified,None or Unspecified,None or Unspecified,Double,,,,,
3463,1488896,38000,1103002,132,4.0,2000,,,2/13/2006 0:00,311B,311,B,,,Small,"Hydraulic Excavator, Track - 11.0 to 12.0 Metric Tons",Florida,TEX,Track Excavators,,EROPS w AC,,,,,,,,,,,Standard,,,,,,None or Unspecified,,,,Steel,None or Unspecified,None or Unspecified,None or Unspecified,None or Unspecified,Double,,,,,
3463,1488897,43500,1322428,132,2.0,2000,,,5/15/2004 0:00,311B,311,B,,,Small,"Hydraulic Excavator, Track - 11.0 to 12.0 Metric Tons",Connecticut,TEX,Track Excavators,,EROPS w AC,,,,,,,,,,,Standard,,,,,,None or Unspecified,,,,Steel,28 inch,None or Unspecified,None or Unspecified,None or Unspecified,Double,,,,,
3463,1488898,38500,1156024,132,2.0,2000,,,3/27/2003 0:00,311B,311,B,,,Small,"Hydraulic Excavator, Track - 11.0 to 12.0 Metric Tons",New Jersey,TEX,Track Excavators,,EROPS w AC,,,,,,,,,,,Standard,,,,,,None or Unspecified,,,,Steel,None or Unspecified,None or Unspecified,None or Unspecified,None or Unspecified,Double,,,,,
3463,1488899,42500,1118915,132,2.0,2000,,,12/28/2006 0:00,311B,311,B,,,Small,"Hydraulic Excavator, Track - 11.0 to 12.0 Metric Tons",New York,TEX,Track Excavators,,EROPS w AC,,,,,,,,,,,Standard,,,,,,None or Unspecified,,,,Steel,28 inch,None or Unspecified,None or Unspecified,None or Unspecified,Double,,,,,
3463,1488900,38500,1136518,132,2.0,2000,,,2/1/2004 0:00,311B,311,B,,,Small,"Hydraulic Excavator, Track - 11.0 to 12.0 Metric Tons",Florida,TEX,Track Excavators,,EROPS w AC,,,,,,,,,,,Standard,,,,,,None or Unspecified,,,,Steel,20 inch,None or Unspecified,None or Unspecified,None or Unspecified,Double,,,,,
3463,1488901,36000,403138,132,2.0,2000,,,9/23/2005 0:00,311B,311,B,,,Small,"Hydraulic Excavator, Track - 11.0 to 12.0 Metric Tons",New Jersey,TEX,Track Excavators,,EROPS w AC,,,,,,,,,,,Auxiliary,,,,,,None or Unspecified,,,,Steel,20 inch,None or Unspecified,None or Unspecified,None or Unspecified,Double,,,,,
3463,1488902,41500,403138,132,2.0,2000,,,9/18/2004 0:00,311B,311,B,,,Small,"Hydraulic Excavator, Track - 11.0 to 12.0 Metric Tons",New Jersey,TEX,Track Excavators,,EROPS w AC,,,,,,,,,,,Auxiliary,,,,,,None or Unspecified,,,,Steel,20 inch,None or Unspecified,None or Unspecified,None or Unspecified,Double,,,,,
3463,1488903,45000,1372818,132,2.0,2000,,,11/6/2004 0:00,311B,311,B,,,Small,"Hydraulic Excavator, Track - 11.0 to 12.0 Metric Tons",Pennsylvania,TEX,Track Excavators,,EROPS w AC,,,,,,,,,,,Standard,,,,,,None or Unspecified,,,,Steel,20 inch,None or Unspecified,None or Unspecified,None or Unspecified,Double,,,,,
3463,1488906,30000,1072220,132,2.0,2001,,,2/6/2009 0:00,311B,311,B,,,Small,"Hydraulic Excavator, Track - 11.0 to 12.0 Metric Tons",Florida,TEX,Track Excavators,,EROPS w AC,,,,,,,,,,,Standard,,,,,,None or Unspecified,,,,Steel,20 inch,None or Unspecified,None or Unspecified,None or Unspecified,Double,,,,,
3463,1488908,43000,1272622,132,2.0,2000,,,12/29/2005 0:00,311B,311,B,,,Small,"Hydraulic Excavator, Track - 11.0 to 12.0 Metric Tons",New York,TEX,Track Excavators,,EROPS w AC,,,,,,,,,,,Standard,,,,,,None or Unspecified,,,,Steel,20 inch,None or Unspecified,None or Unspecified,None or Unspecified,Double,,,,,
3463,1488909,41500,1305494,132,2.0,2000,,,3/23/2006 0:00,311B,311,B,,,Small,"Hydraulic Excavator, Track - 11.0 to 12.0 Metric Tons",New Jersey,TEX,Track Excavators,,EROPS w AC,,,,,,,,,,,Standard,,,,,,None or Unspecified,,,,Steel,20 inch,None or Unspecified,None or Unspecified,None or Unspecified,Double,,,,,
3463,1488910,40500,818042,132,2.0,2000,,,8/21/2004 0:00,311B,311,B,,,Small,"Hydraulic Excavator, Track - 11.0 to 12.0 Metric Tons",Ohio,TEX,Track Excavators,,EROPS w AC,,,,,,,,,,,Standard,,,,,,None or Unspecified,,,,Steel,20 inch,None or Unspecified,Manual,None or Unspecified,Double,,,,,
3463,1488911,42000,1465735,132,2.0,2000,,,6/26/2004 0:00,311B,311,B,,,Small,"Hydraulic Excavator, Track - 11.0 to 12.0 Metric Tons",Ohio,TEX,Track Excavators,,EROPS w AC,,,,,,,,,,,Standard,,,,,,None or Unspecified,,,,Steel,20 inch,None or Unspecified,None or Unspecified,None or Unspecified,Double,,,,,
3463,1488912,40000,1465735,132,2.0,2000,,,7/30/2004 0:00,311B,311,B,,,Small,"Hydraulic Excavator, Track - 11.0 to 12.0 Metric Tons",Kentucky,TEX,Track Excavators,,EROPS w AC,,,,,,,,,,,Standard,,,,,,None or Unspecified,,,,Steel,20 inch,None or Unspecified,None or Unspecified,None or Unspecified,Double,,,,,
3463,1488913,40000,1219833,132,2.0,2000,,,7/31/2004 0:00,311B,311,B,,,Small,"Hydraulic Excavator, Track - 11.0 to 12.0 Metric Tons",Connecticut,TEX,Track Excavators,,EROPS w AC,,,,,,,,,,,Standard,,,,,,None or Unspecified,,,,Steel,20 inch,None or Unspecified,None or Unspecified,None or Unspecified,Double,,,,,
3463,1488914,49000,1122943,132,2.0,2000,,,7/31/2004 0:00,311B,311,B,,,Small,"Hydraulic Excavator, Track - 11.0 to 12.0 Metric Tons",Connecticut,TEX,Track Excavators,,EROPS w AC,,,,,,,,,,,Standard,,,,,,None or Unspecified,,,,Steel,28 inch,None or Unspecified,None or Unspecified,None or Unspecified,Double,,,,,
3463,1488916,45000,1454962,132,7.0,2001,,,6/3/2004 0:00,311B,311,B,,,Small,"Hydraulic Excavator, Track - 11.0 to 12.0 Metric Tons",Alabama,TEX,Track Excavators,,EROPS w AC,,,,,,,,,,,Standard,,,,,,None or Unspecified,,,,Steel,20 inch,None or Unspecified,None or Unspecified,None or Unspecified,Triple,,,,,
3463,1488917,55000,574324,132,2.0,2001,,,3/14/2002 0:00,311B,311,B,,,Small,"Hydraulic Excavator, Track - 11.0 to 12.0 Metric Tons",New Jersey,TEX,Track Excavators,,EROPS w AC,,,,,,,,,,,Auxiliary,,,,,,None or Unspecified,,,,Steel,None or Unspecified,None or Unspecified,None or Unspecified,None or Unspecified,Double,,,,,
3463,1488918,43000,1475830,132,2.0,2001,,,6/7/2006 0:00,311B,311,B,,,Small,"Hydraulic Excavator, Track - 11.0 to 12.0 Metric Tons",Texas,TEX,Track Excavators,,EROPS w AC,,,,,,,,,,,Standard,,,,,,None or Unspecified,,,,Steel,34 inch,None or Unspecified,None or Unspecified,None or Unspecified,Double,,,,,
3463,1488919,42000,1361677,132,2.0,2001,,,2/5/2006 0:00,311B,311,B,,,Small,"Hydraulic Excavator, Track - 11.0 to 12.0 Metric Tons",Florida,TEX,Track Excavators,,EROPS w AC,,,,,,,,,,,Standard,,,,,,None or Unspecified,,,,Steel,20 inch,None or Unspecified,None or Unspecified,None or Unspecified,Double,,,,,
3463,1488920,49000,1208759,132,2.0,2001,,,2/5/2006 0:00,311B,311,B,,,Small,"Hydraulic Excavator, Track - 11.0 to 12.0 Metric Tons",Florida,TEX,Track Excavators,,EROPS w AC,,,,,,,,,,,Standard,,,,,,None or Unspecified,,,,Steel,20 inch,None or Unspecified,None or Unspecified,None or Unspecified,Double,,,,,
3463,1488921,48000,1205564,132,2.0,2001,,,2/5/2006 0:00,311B,311,B,,,Small,"Hydraulic Excavator, Track - 11.0 to 12.0 Metric Tons",Florida,TEX,Track Excavators,,EROPS w AC,,,,,,,,,,,Standard,,,,,,None or Unspecified,,,,Steel,28 inch,None or Unspecified,None or Unspecified,None or Unspecified,Double,,,,,
3463,1488922,42000,1426501,132,2.0,2001,,,3/23/2006 0:00,311B,311,B,,,Small,"Hydraulic Excavator, Track - 11.0 to 12.0 Metric Tons",New Jersey,TEX,Track Excavators,,EROPS w AC,,,,,,,,,,,Standard,,,,,,None or Unspecified,,,,Steel,28 inch,None or Unspecified,None or Unspecified,None or Unspecified,Double,,,,,
3463,1488923,42000,1244500,132,2.0,2001,,,3/23/2006 0:00,311B,311,B,,,Small,"Hydraulic Excavator, Track - 11.0 to 12.0 Metric Tons",New Jersey,TEX,Track Excavators,,EROPS w AC,,,,,,,,,,,Standard,,,,,,None or Unspecified,,,,Steel,28 inch,None or Unspecified,None or Unspecified,None or Unspecified,Double,,,,,
3463,2226806,26500,810301,136,5.0,1997,0.0,,11/14/2008 0:00,311B,311,B,,,Small,"Hydraulic Excavator, Track - 11.0 to 12.0 Metric Tons",Connecticut,TEX,Track Excavators,,EROPS,,,,,,,,,,,Auxiliary,,,,,,None or Unspecified,,,,Steel,None or Unspecified,None or Unspecified,Hydraulic,None or Unspecified,Triple,,,,,
3463,2226807,40000,862567,136,5.0,1999,0.0,,8/24/2007 0:00,311B,311,B,,,Small,"Hydraulic Excavator, Track - 11.0 to 12.0 Metric Tons",Connecticut,TEX,Track Excavators,,EROPS,,,,,,,,,,,Standard,,,,,,Manual,,,,Steel,None or Unspecified,None or Unspecified,Hydraulic,None or Unspecified,Triple,,,,,
3463,2226890,32500,1070244,136,2.0,1997,0.0,,3/27/2008 0:00,311B,311,B,,,Small,"Hydraulic Excavator, Track - 11.0 to 12.0 Metric Tons",New Jersey,TEX,Track Excavators,,EROPS w AC,,,,,,,,,,,Standard,,,,,,None or Unspecified,,,,Steel,20 inch,None or Unspecified,None or Unspecified,None or Unspecified,Double,,,,,
3463,2270005,20000,1426626,136,1.0,1997,0.0,,3/24/2009 0:00,311B,311,B,,,Small,"Hydraulic Excavator, Track - 11.0 to 12.0 Metric Tons",North Carolina,TEX,Track Excavators,,EROPS w AC,,,,,,,,,,,Standard,,,,,,None or Unspecified,,,,Steel,None or Unspecified,None or Unspecified,None or Unspecified,Yes,Triple,,,,,
3463,2270006,30000,1426626,136,1.0,1997,0.0,,7/1/2008 0:00,311B,311,B,,,Small,"Hydraulic Excavator, Track - 11.0 to 12.0 Metric Tons",North Carolina,TEX,Track Excavators,,EROPS w AC,,,,,,,,,,,Standard,,,,,,None or Unspecified,,,,Steel,None or Unspecified,None or Unspecified,None or Unspecified,Yes,Triple,,,,,
3463,2270007,26000,1082425,136,1.0,1999,0.0,,6/24/2008 0:00,311B,311,B,,,Small,"Hydraulic Excavator, Track - 11.0 to 12.0 Metric Tons",North Carolina,TEX,Track Excavators,,EROPS w AC,,,,,,,,,,,Standard,,,,,,None or Unspecified,,,,Steel,None or Unspecified,None or Unspecified,Manual,None or Unspecified,Double,,,,,
3463,2270008,29000,1524284,136,1.0,1997,0.0,,7/19/2007 0:00,311B,311,B,,,Small,"Hydraulic Excavator, Track - 11.0 to 12.0 Metric Tons",Tennessee,TEX,Track Excavators,,EROPS w AC,,,,,,,,,,,Standard,,,,,,None or Unspecified,,,,Steel,28 inch,"14' 1""",Manual,Yes,Triple,,,,,
3463,2270012,17325,1412334,136,1.0,1997,5930.0,Medium,9/15/2007 0:00,311B,311,B,,,Small,"Hydraulic Excavator, Track - 11.0 to 12.0 Metric Tons",Tennessee,TEX,Track Excavators,,EROPS,,,,,,,,,,,Standard,,,,,,None or Unspecified,,,,Steel,None or Unspecified,None or Unspecified,None or Unspecified,Yes,Triple,,,,,
3463,2270014,23500,399604,136,1.0,1999,0.0,,10/3/2007 0:00,311B,311,B,,,Small,"Hydraulic Excavator, Track - 11.0 to 12.0 Metric Tons",Maryland,TEX,Track Excavators,,EROPS,,,,,,,,,,,Standard,,,,,,None or Unspecified,,,,Steel,None or Unspecified,None or Unspecified,None or Unspecified,None or Unspecified,Double,,,,,
3463,2270015,25000,832430,136,5.0,1997,0.0,,7/14/2007 0:00,311B,311,B,,,Small,"Hydraulic Excavator, Track - 11.0 to 12.0 Metric Tons",New York,TEX,Track Excavators,,EROPS w AC,,,,,,,,,,,Standard,,,,,,None or Unspecified,,,,Steel,24 inch,None or Unspecified,None or Unspecified,None or Unspecified,Triple,,,,,
3463,2270016,16500,1661146,136,,1997,0.0,,8/20/2009 0:00,311B,311,B,,,Small,"Hydraulic Excavator, Track - 11.0 to 12.0 Metric Tons",New Hampshire,TEX,Track Excavators,,EROPS,,,,,,,,,,,Standard,,,,,,Manual,,,,Steel,None or Unspecified,None or Unspecified,None or Unspecified,None or Unspecified,Triple,,,,,
3463,2270017,27500,831692,136,5.0,1997,0.0,,6/15/2007 0:00,311B,311,B,,,Small,"Hydraulic Excavator, Track - 11.0 to 12.0 Metric Tons",Connecticut,TEX,Track Excavators,,EROPS,,,,,,,,,,,Standard,,,,,,None or Unspecified,,,,Steel,20 inch,None or Unspecified,None or Unspecified,None or Unspecified,Triple,,,,,
3463,2270018,23000,831692,136,2.0,1997,0.0,,5/19/2007 0:00,311B,311,B,,,Small,"Hydraulic Excavator, Track - 11.0 to 12.0 Metric Tons",Connecticut,TEX,Track Excavators,,EROPS,,,,,,,,,,,Standard,,,,,,None or Unspecified,,,,Steel,20 inch,None or Unspecified,None or Unspecified,None or Unspecified,Triple,,,,,
3463,2270019,17250,831692,136,5.0,1997,0.0,,11/14/2008 0:00,311B,311,B,,,Small,"Hydraulic Excavator, Track - 11.0 to 12.0 Metric Tons",Connecticut,TEX,Track Excavators,,EROPS,,,,,,,,,,,Standard,,,,,,None or Unspecified,,,,Steel,20 inch,None or Unspecified,None or Unspecified,None or Unspecified,Triple,,,,,
3463,2270021,29000,429291,136,5.0,1999,0.0,,4/8/2010 0:00,311B,311,B,,,Small,"Hydraulic Excavator, Track - 11.0 to 12.0 Metric Tons",Connecticut,TEX,Track Excavators,,EROPS,,,,,,,,,,,Standard,,,,,,None or Unspecified,,,,Steel,28 inch,None or Unspecified,Manual,None or Unspecified,Triple,,,,,
3463,2270022,19500,837798,136,4.0,1998,0.0,,2/8/2010 0:00,311B,311,B,,,Small,"Hydraulic Excavator, Track - 11.0 to 12.0 Metric Tons",Florida,TEX,Track Excavators,,EROPS,,,,,,,,,,,Standard,,,,,,None or Unspecified,,,,Steel,None or Unspecified,None or Unspecified,None or Unspecified,None or Unspecified,Triple,,,,,
3463,2270023,20000,772570,136,1.0,1997,0.0,,3/26/2008 0:00,311B,311,B,,,Small,"Hydraulic Excavator, Track - 11.0 to 12.0 Metric Tons",Georgia,TEX,Track Excavators,,EROPS,,,,,,,,,,,Auxiliary,,,,,,None or Unspecified,,,,Steel,None or Unspecified,None or Unspecified,None or Unspecified,None or Unspecified,Double,,,,,
3463,2270025,27500,398903,136,2.0,1998,0.0,,1/12/2008 0:00,311B,311,B,,,Small,"Hydraulic Excavator, Track - 11.0 to 12.0 Metric Tons",New York,TEX,Track Excavators,,EROPS,,,,,,,,,,,Standard,,,,,,None or Unspecified,,,,Steel,None or Unspecified,None or Unspecified,None or Unspecified,None or Unspecified,Triple,,,,,
3463,2270026,25000,1548280,136,5.0,1998,0.0,,5/16/2008 0:00,311B,311,B,,,Small,"Hydraulic Excavator, Track - 11.0 to 12.0 Metric Tons",Ohio,TEX,Track Excavators,,EROPS,,,,,,,,,,,Standard,,,,,,None or Unspecified,,,,Steel,24 inch,None or Unspecified,None or Unspecified,Yes,Triple,,,,,
3463,2270027,30000,778793,136,1.0,2000,0.0,,10/15/2008 0:00,311B,311,B,,,Small,"Hydraulic Excavator, Track - 11.0 to 12.0 Metric Tons",Florida,TEX,Track Excavators,,EROPS w AC,,,,,,,,,,,Standard,,,,,,None or Unspecified,,,,Steel,None or Unspecified,None or Unspecified,None or Unspecified,Yes,Triple,,,,,
3463,2270028,20000,129251,136,7.0,2000,4867.0,Medium,9/9/2009 0:00,311B,311,B,,,Small,"Hydraulic Excavator, Track - 11.0 to 12.0 Metric Tons",Alabama,TEX,Track Excavators,,EROPS w AC,,,,,,,,,,,Standard,,,,,,None or Unspecified,,,,Steel,28 inch,None or Unspecified,None or Unspecified,Yes,Triple,,,,,
3463,2270029,30000,1184919,136,1.0,2001,0.0,,10/10/2007 0:00,311B,311,B,,,Small,"Hydraulic Excavator, Track - 11.0 to 12.0 Metric Tons",Florida,TEX,Track Excavators,,EROPS w AC,,,,,,,,,,,Standard,,,,,,None or Unspecified,,,,Steel,None or Unspecified,None or Unspecified,None or Unspecified,None or Unspecified,Double,,,,,
3463,2270030,37000,220444,136,1.0,2001,0.0,,10/3/2007 0:00,311B,311,B,,,Small,"Hydraulic Excavator, Track - 11.0 to 12.0 Metric Tons",Maryland,TEX,Track Excavators,,EROPS,,,,,,,,,,,Standard,,,,,,None or Unspecified,,,,Steel,None or Unspecified,None or Unspecified,Manual,Yes,Triple,,,,,
3463,2270052,34500,1641495,136,,1996,0.0,,6/20/2007 0:00,311B,311,B,,,Small,"Hydraulic Excavator, Track - 11.0 to 12.0 Metric Tons",Arkansas,TEX,Track Excavators,,EROPS,,,,,,,,,,,Standard,,,,,,None or Unspecified,,,,Steel,None or Unspecified,None or Unspecified,None or Unspecified,None or Unspecified,Double,,,,,
3463,2270053,19000,1231497,136,2.0,1000,0.0,,6/24/2009 0:00,311B,311,B,,,Small,"Hydraulic Excavator, Track - 11.0 to 12.0 Metric Tons",Maryland,TEX,Track Excavators,,EROPS w AC,,,,,,,,,,,Standard,,,,,,None or Unspecified,,,,Steel,24 inch,None or Unspecified,None or Unspecified,None or Unspecified,Double,,,,,
3463,2270054,22500,804677,136,,1000,0.0,,7/19/2008 0:00,311B,311,B,,,Small,"Hydraulic Excavator, Track - 11.0 to 12.0 Metric Tons",New York,TEX,Track Excavators,,EROPS,,,,,,,,,,,Standard,,,,,,None or Unspecified,,,,Steel,None or Unspecified,None or Unspecified,None or Unspecified,None or Unspecified,Double,,,,,
3463,2270055,24750,1263482,136,5.0,1996,0.0,,4/8/2010 0:00,311B,311,B,,,Small,"Hydraulic Excavator, Track - 11.0 to 12.0 Metric Tons",Connecticut,TEX,Track Excavators,,EROPS,,,,,,,,,,,Standard,,,,,,None or Unspecified,,,,Steel,18 inch,None or Unspecified,None or Unspecified,None or Unspecified,Double,,,,,
3463,2270057,29500,367903,136,2.0,1998,0.0,,3/27/2008 0:00,311B,311,B,,,Small,"Hydraulic Excavator, Track - 11.0 to 12.0 Metric Tons",New Jersey,TEX,Track Excavators,,EROPS w AC,,,,,,,,,,,Standard,,,,,,Manual,,,,Steel,28 inch,None or Unspecified,None or Unspecified,None or Unspecified,Double,,,,,
3463,2270058,24000,367903,136,2.0,1996,0.0,,1/23/2010 0:00,311B,311,B,,,Small,"Hydraulic Excavator, Track - 11.0 to 12.0 Metric Tons",Ohio,TEX,Track Excavators,,EROPS w AC,,,,,,,,,,,Standard,,,,,,Manual,,,,Steel,28 inch,None or Unspecified,None or Unspecified,None or Unspecified,Double,,,,,
3463,2270059,37500,1238247,136,2.0,2000,0.0,,2/3/2008 0:00,311B,311,B,,,Small,"Hydraulic Excavator, Track - 11.0 to 12.0 Metric Tons",Florida,TEX,Track Excavators,,EROPS w AC,,,,,,,,,,,Auxiliary,,,,,,None or Unspecified,,,,Steel,20 inch,None or Unspecified,None or Unspecified,None or Unspecified,Triple,,,,,
3463,2270061,27000,1238247,136,4.0,1996,0.0,,2/9/2009 0:00,311B,311,B,,,Small,"Hydraulic Excavator, Track - 11.0 to 12.0 Metric Tons",Florida,TEX,Track Excavators,,EROPS w AC,,,,,,,,,,,Auxiliary,,,,,,None or Unspecified,,,,Steel,20 inch,None or Unspecified,None or Unspecified,None or Unspecified,Triple,,,,,
3463,2270062,37500,1238247,136,4.0,1999,0.0,,2/11/2008 0:00,311B,311,B,,,Small,"Hydraulic Excavator, Track - 11.0 to 12.0 Metric Tons",Florida,TEX,Track Excavators,,EROPS w AC,,,,,,,,,,,Auxiliary,,,,,,None or Unspecified,,,,Steel,20 inch,None or Unspecified,None or Unspecified,None or Unspecified,Triple,,,,,
3463,2270063,34000,1071919,136,,1997,0.0,,6/7/2007 0:00,311B,311,B,,,Small,"Hydraulic Excavator, Track - 11.0 to 12.0 Metric Tons",New York,TEX,Track Excavators,,EROPS w AC,,,,,,,,,,,Auxiliary,,,,,,None or Unspecified,,,,Steel,None or Unspecified,None or Unspecified,None or Unspecified,None or Unspecified,Double,,,,,
3463,2270065,35000,1222396,136,2.0,1997,0.0,,2/3/2008 0:00,311B,311,B,,,Small,"Hydraulic Excavator, Track - 11.0 to 12.0 Metric Tons",Florida,TEX,Track Excavators,,EROPS w AC,,,,,,,,,,,Standard,,,,,,None or Unspecified,,,,Steel,28 inch,None or Unspecified,None or Unspecified,None or Unspecified,Double,,,,,
3463,2270066,19500,407467,136,13.0,1997,3502.0,Low,12/12/2009 0:00,311B,311,B,,,Small,"Hydraulic Excavator, Track - 11.0 to 12.0 Metric Tons",Tennessee,TEX,Track Excavators,,EROPS w AC,,,,,,,,,,,Auxiliary,,,,,,None or Unspecified,,,,Steel,20 inch,None or Unspecified,None or Unspecified,None or Unspecified,Triple,,,,,
3463,2270068,27500,1203215,136,1.0,1997,0.0,,5/22/2007 0:00,311B,311,B,,,Small,"Hydraulic Excavator, Track - 11.0 to 12.0 Metric Tons",Pennsylvania,TEX,Track Excavators,,EROPS w AC,,,,,,,,,,,Standard,,,,,,None or Unspecified,,,,Steel,20 inch,None or Unspecified,None or Unspecified,None or Unspecified,Double,,,,,
3463,2270069,13500,1319798,136,2.0,2001,0.0,,3/19/2009 0:00,311B,311,B,,,Small,"Hydraulic Excavator, Track - 11.0 to 12.0 Metric Tons",New Jersey,TEX,Track Excavators,,EROPS,,,,,,,,,,,Auxiliary,,,,,,Hydraulic,,,,Steel,None or Unspecified,None or Unspecified,Hydraulic,None or Unspecified,Double,,,,,
3463,2270070,28000,1344636,136,17.0,1997,0.0,,10/9/2007 0:00,311B,311,B,,,Small,"Hydraulic Excavator, Track - 11.0 to 12.0 Metric Tons",Idaho,TEX,Track Excavators,,EROPS,,,,,,,,,,,Standard,,,,,,None or Unspecified,,,,Steel,None or Unspecified,None or Unspecified,None or Unspecified,None or Unspecified,Double,,,,,
3463,2270071,24000,862969,136,5.0,1998,0.0,,3/26/2009 0:00,311B,311,B,,,Small,"Hydraulic Excavator, Track - 11.0 to 12.0 Metric Tons",Connecticut,TEX,Track Excavators,,EROPS,,,,,,,,,,,Standard,,,,,,None or Unspecified,,,,Steel,26 inch,None or Unspecified,None or Unspecified,None or Unspecified,Triple,,,,,
3463,2270074,19000,1463653,136,1.0,1000,0.0,,12/8/2009 0:00,311B,311,B,,,Small,"Hydraulic Excavator, Track - 11.0 to 12.0 Metric Tons",Colorado,TEX,Track Excavators,,EROPS w AC,,,,,,,,,,,Auxiliary,,,,,,None or Unspecified,,,,Steel,None or Unspecified,None or Unspecified,Manual,None or Unspecified,Double,,,,,
3463,2270075,25000,696061,136,,1998,0.0,,12/5/2007 0:00,311B,311,B,,,Small,"Hydraulic Excavator, Track - 11.0 to 12.0 Metric Tons",Illinois,TEX,Track Excavators,,EROPS,,,,,,,,,,,Standard,,,,,,None or Unspecified,,,,Steel,None or Unspecified,None or Unspecified,None or Unspecified,None or Unspecified,Double,,,,,
3463,2270079,27500,1449251,136,8.0,1998,0.0,,5/23/2007 0:00,311B,311,B,,,Small,"Hydraulic Excavator, Track - 11.0 to 12.0 Metric Tons",Mississippi,TEX,Track Excavators,,EROPS w AC,,,,,,,,,,,Standard,,,,,,None or Unspecified,,,,Steel,None or Unspecified,None or Unspecified,None or Unspecified,None or Unspecified,Double,,,,,
3463,2270081,70000,1340568,136,1.0,1999,0.0,,6/17/2009 0:00,311B,311,B,,,Small,"Hydraulic Excavator, Track - 11.0 to 12.0 Metric Tons",Arkansas,TEX,Track Excavators,,EROPS w AC,,,,,,,,,,,Standard,,,,,,None or Unspecified,,,,Steel,None or Unspecified,None or Unspecified,None or Unspecified,None or Unspecified,Double,,,,,
3463,2270082,41000,1340568,136,1.0,1000,0.0,,5/27/2009 0:00,311B,311,B,,,Small,"Hydraulic Excavator, Track - 11.0 to 12.0 Metric Tons",Florida,TEX,Track Excavators,,EROPS w AC,,,,,,,,,,,Standard,,,,,,None or Unspecified,,,,Steel,None or Unspecified,None or Unspecified,None or Unspecified,None or Unspecified,Double,,,,,
3463,2270085,38000,1072220,136,2.0,2000,0.0,,2/3/2008 0:00,311B,311,B,,,Small,"Hydraulic Excavator, Track - 11.0 to 12.0 Metric Tons",Florida,TEX,Track Excavators,,EROPS w AC,,,,,,,,,,,Standard,,,,,,None or Unspecified,,,,Steel,20 inch,None or Unspecified,None or Unspecified,None or Unspecified,Double,,,,,
3463,2270086,21500,1072220,136,2.0,2000,0.0,,7/16/2009 0:00,311B,311,B,,,Small,"Hydraulic Excavator, Track - 11.0 to 12.0 Metric Tons",New York,TEX,Track Excavators,,EROPS w AC,,,,,,,,,,,Standard,,,,,,None or Unspecified,,,,Steel,20 inch,None or Unspecified,None or Unspecified,None or Unspecified,Double,,,,,
3463,2270087,22000,1072220,136,2.0,2000,0.0,,6/27/2009 0:00,311B,311,B,,,Small,"Hydraulic Excavator, Track - 11.0 to 12.0 Metric Tons",New Jersey,TEX,Track Excavators,,EROPS w AC,,,,,,,,,,,Standard,,,,,,None or Unspecified,,,,Steel,20 inch,None or Unspecified,None or Unspecified,None or Unspecified,Double,,,,,
3463,2270088,30000,1072220,136,2.0,2000,0.0,,1/31/2009 0:00,311B,311,B,,,Small,"Hydraulic Excavator, Track - 11.0 to 12.0 Metric Tons",Florida,TEX,Track Excavators,,EROPS w AC,,,,,,,,,,,Standard,,,,,,None or Unspecified,,,,Steel,20 inch,None or Unspecified,None or Unspecified,None or Unspecified,Double,,,,,
3463,2270089,37500,1468740,136,2.0,2000,0.0,,11/17/2007 0:00,311B,311,B,,,Small,"Hydraulic Excavator, Track - 11.0 to 12.0 Metric Tons",Connecticut,TEX,Track Excavators,,EROPS w AC,,,,,,,,,,,Standard,,,,,,None or Unspecified,,,,Steel,20 inch,None or Unspecified,None or Unspecified,None or Unspecified,Double,,,,,
3463,2270090,33500,1468740,136,2.0,2000,0.0,,9/28/2007 0:00,311B,311,B,,,Small,"Hydraulic Excavator, Track - 11.0 to 12.0 Metric Tons",New Jersey,TEX,Track Excavators,,EROPS w AC,,,,,,,,,,,Standard,,,,,,None or Unspecified,,,,Steel,20 inch,None or Unspecified,None or Unspecified,None or Unspecified,Double,,,,,
3463,2270092,32500,1122943,136,2.0,2000,2563.0,Low,9/8/2007 0:00,311B,311,B,,,Small,"Hydraulic Excavator, Track - 11.0 to 12.0 Metric Tons",New York,TEX,Track Excavators,,EROPS w AC,,,,,,,,,,,Standard,,,,,,None or Unspecified,,,,Steel,28 inch,None or Unspecified,None or Unspecified,None or Unspecified,Double,,,,,
3463,2270093,38000,1668063,136,,2000,0.0,,6/17/2007 0:00,311B,311,B,,,Small,"Hydraulic Excavator, Track - 11.0 to 12.0 Metric Tons",New York,TEX,Track Excavators,,EROPS w AC,,,,,,,,,,,Standard,,,,,,None or Unspecified,,,,Steel,None or Unspecified,None or Unspecified,None or Unspecified,None or Unspecified,Double,,,,,
3463,2270095,27500,1743494,136,,1997,4207.0,Medium,10/10/2008 0:00,311B,311,B,,,Small,"Hydraulic Excavator, Track - 11.0 to 12.0 Metric Tons",Virginia,TEX,Track Excavators,,EROPS w AC,,,,,,,,,,,Standard,,,,,,None or Unspecified,,,,Steel,None or Unspecified,None or Unspecified,Manual,None or Unspecified,Double,,,,,
3463,2270096,39000,1656437,136,,2001,0.0,,5/19/2007 0:00,311B,311,B,,,Small,"Hydraulic Excavator, Track - 11.0 to 12.0 Metric Tons",Connecticut,TEX,Track Excavators,,EROPS w AC,,,,,,,,,,,Standard,,,,,,None or Unspecified,,,,Steel,None or Unspecified,None or Unspecified,None or Unspecified,None or Unspecified,Double,,,,,
3463,2270097,34000,1393069,136,2.0,2000,0.0,,3/27/2008 0:00,311B,311,B,,,Small,"Hydraulic Excavator, Track - 11.0 to 12.0 Metric Tons",New Jersey,TEX,Track Excavators,,EROPS w AC,,,,,,,,,,,Standard,,,,,,None or Unspecified,,,,Steel,20 inch,None or Unspecified,None or Unspecified,None or Unspecified,Double,,,,,
3463,2308919,15000,1683869,136,1.0,1000,5474.0,Medium,5/12/2010 0:00,311B,311,B,,,Small,"Hydraulic Excavator, Track - 11.0 to 12.0 Metric Tons",California,TEX,Track Excavators,,EROPS w AC,,,,,,,,,,,Standard,,,,,,None or Unspecified,,,,Steel,None or Unspecified,None or Unspecified,None or Unspecified,None or Unspecified,Double,,,,,
3463,4259477,25000,1474459,172,1.0,1999,6015.0,Medium,11/11/2010 0:00,311B,311,B,,,Small,"Hydraulic Excavator, Track - 11.0 to 12.0 Metric Tons",Pennsylvania,TEX,Track Excavators,,EROPS,,,,,,,,,,,Auxiliary,,,,,,None or Unspecified,,,,Steel,None or Unspecified,None or Unspecified,None or Unspecified,None or Unspecified,Triple,,,,,
3463,4259480,40000,2280433,172,1.0,2000,4092.0,Low,10/5/2011 0:00,311B,311,B,,,Small,"Hydraulic Excavator, Track - 11.0 to 12.0 Metric Tons",Connecticut,TEX,Track Excavators,,EROPS w AC,,,,,,,,,,,Auxiliary,,,,,,None or Unspecified,,,,Steel,None or Unspecified,None or Unspecified,Hydraulic,None or Unspecified,Double,,,,,
3463,4259481,29000,2280433,172,1.0,1999,6443.0,Medium,12/11/2011 0:00,311B,311,B,,,Small,"Hydraulic Excavator, Track - 11.0 to 12.0 Metric Tons",Utah,TEX,Track Excavators,,EROPS w AC,,,,,,,,,,,Auxiliary,,,,,,None or Unspecified,,,,Steel,None or Unspecified,None or Unspecified,Hydraulic,None or Unspecified,Double,,,,,
3463,4280309,20000,700444,172,1.0,1999,6813.0,Medium,12/10/2009 0:00,311B,311,B,,,Small,"Hydraulic Excavator, Track - 11.0 to 12.0 Metric Tons",Illinois,TEX,Track Excavators,,EROPS,,,,,,,,,,,Standard,,,,,,None or Unspecified,,,,Steel,None or Unspecified,None or Unspecified,Manual,None or Unspecified,Triple,,,,,
3463,4280310,14000,2303528,172,1.0,1998,6936.0,Medium,5/13/2009 0:00,311B,311,B,,,Small,"Hydraulic Excavator, Track - 11.0 to 12.0 Metric Tons",Illinois,TEX,Track Excavators,,EROPS,,,,,,,,,,,Standard,,,,,,None or Unspecified,,,,Steel,None or Unspecified,None or Unspecified,Manual,None or Unspecified,Double,,,,,
3463,4280313,25000,1553947,172,1.0,1997,8875.0,Medium,12/9/2010 0:00,311B,311,B,,,Small,"Hydraulic Excavator, Track - 11.0 to 12.0 Metric Tons",Washington,TEX,Track Excavators,,EROPS,,,,,,,,,,,Standard,,,,,,Manual,,,,Steel,24 inch,None or Unspecified,Hydraulic,Yes,Triple,,,,,
3463,4280315,19000,776465,172,1.0,1998,5807.0,Medium,2/15/2011 0:00,311B,311,B,,,Small,"Hydraulic Excavator, Track - 11.0 to 12.0 Metric Tons",Florida,TEX,Track Excavators,,EROPS,,,,,,,,,,,Standard,,,,,,None or Unspecified,,,,Steel,None or Unspecified,None or Unspecified,None or Unspecified,None or Unspecified,Double,,,,,
3463,4280316,21000,140585,172,1.0,1998,7838.0,Medium,9/22/2010 0:00,311B,311,B,,,Small,"Hydraulic Excavator, Track - 11.0 to 12.0 Metric Tons",Georgia,TEX,Track Excavators,,EROPS,,,,,,,,,,,Auxiliary,,,,,,None or Unspecified,,,,Steel,None or Unspecified,None or Unspecified,None or Unspecified,Yes,Triple,,,,,
3463,6262124,29000,982890,149,1.0,1999,,,12/12/2011 0:00,311B,311,B,,,Small,"Hydraulic Excavator, Track - 11.0 to 12.0 Metric Tons",Utah,TEX,Track Excavators,,EROPS w AC,,,,,,,,,,,Auxiliary,,,,,,None or Unspecified,,,,Steel,None or Unspecified,"14' 1""",Hydraulic,None or Unspecified,Double,,,,,
3463,6262125,40000,839198,149,1.0,2000,,,10/6/2011 0:00,311B,311,B,,,Small,"Hydraulic Excavator, Track - 11.0 to 12.0 Metric Tons",Connecticut,TEX,Track Excavators,,EROPS,,,,,,,,,,,Auxiliary,,,,,,None or Unspecified,,,,Steel,None or Unspecified,None or Unspecified,Hydraulic,None or Unspecified,Triple,,,,,
3463,6269653,24500,428688,149,99.0,2003,,,10/1/2011 0:00,311B,311,B,,,Small,"Hydraulic Excavator, Track - 11.0 to 12.0 Metric Tons",Connecticut,TEX,Track Excavators,,EROPS,,,,,,,,,,,Standard,,,,,,None or Unspecified,,,,Steel,None or Unspecified,None or Unspecified,None or Unspecified,None or Unspecified,Triple,,,,,
