SalesID,2301307
SalePrice,49500
MachineID,1784188
datasource,136
auctioneerID,
YearMade,2002
MachineHoursCurrentMeter,0.0
UsageBand,
saledate,2/9/2009 0:00
fiModelDesc,315C
fiBaseModel,315
fiSecondaryDesc,C
fiModelSeries,
fiModelDescriptor,
ProductSize,Small
fiProductClassDesc,"Hydraulic Excavator, Track - 14.0 to 16.0 Metric Tons"
state,Florida
ProductGroup,TEX
ProductGroupDesc,Track Excavators
Drive_System,
Enclosure,EROPS
Forks,
Pad_Type,
Ride_Control,
Stick,
Transmission,
Turbocharged,
Blade_Extension,
Blade_Width,
Enclosure_Type,
Engine_Horsepower,
Hydraulics,Standard
Pushblock,
Ripper,
Scarifier,
Tip_Control,
Tire_Size,
Coupler,None or Unspecified
Coupler_System,
Grouser_Tracks,
Hydraulics_Flow,
Track_Type,Steel
Undercarriage_Pad_Width,None or Unspecified
Stick_Length,None or Unspecified
Thumb,None or Unspecified
Pattern_Changer,None or Unspecified
Grouser_Type,Double
Backhoe_Mounting,
Blade_Type,
Travel_Controls,
Differential_Type,
Steering_Controls,
