ModelID,SalesID,SalePrice,MachineID,datasource,auctioneerID,YearMade,MachineHoursCurrentMeter,UsageBand,saledate,fiModelDesc,fiBaseModel,fiSecondaryDesc,fiModelSeries,fiModelDescriptor,ProductSize,fiProductClassDesc,state,ProductGroup,ProductGroupDesc,Drive_System,Enclosure,Forks,Pad_Type,Ride_Control,Stick,Transmission,Turbocharged,Blade_Extension,Blade_Width,Enclosure_Type,Engine_Horsepower,Hydraulics,Pushblock,Ripper,Scarifier,Tip_Control,Tire_Size,Coupler,Coupler_System,Grouser_Tracks,Hydraulics_Flow,Track_Type,Undercarriage_Pad_Width,Stick_Length,Thumb,Pattern_Changer,Grouser_Type,Backhoe_Mounting,Blade_Type,Travel_Controls,Differential_Type,Steering_Controls
3551,1546967,21500,1044540,132,3.0,2003,,,10/29/2009 0:00,428D,428,D,,,,Backhoe Loader - 15.0 to 16.0 Ft Standard Digging Depth,California,BL,Backhoe Loaders,Four Wheel Drive,EROPS,None or Unspecified,None or Unspecified,No,Extended,Standard,None or Unspecified,,,,,,,,,,,,,,,,,,,,,,,,,
3551,1546968,15500,1003742,132,3.0,2003,,,11/26/2009 0:00,428D,428,D,,,,Backhoe Loader - 15.0 to 16.0 Ft Standard Digging Depth,California,BL,Backhoe Loaders,Four Wheel Drive,EROPS,None or Unspecified,None or Unspecified,No,Extended,Standard,None or Unspecified,,,,,,,,,,,,,,,,,,,,,,,,,
3551,1547540,16500,1011577,132,3.0,2001,,,8/27/2009 0:00,428D,428,D,,,,Backhoe Loader - 15.0 to 16.0 Ft Standard Digging Depth,California,BL,Backhoe Loaders,Four Wheel Drive,EROPS w AC,None or Unspecified,None or Unspecified,No,Standard,Powershuttle,None or Unspecified,,,,,,,,,,,,,,,,,,,,,,,,,
3551,1547784,26500,1032805,132,3.0,2006,,,10/29/2009 0:00,428D,428,D,,,,Backhoe Loader - 15.0 to 16.0 Ft Standard Digging Depth,California,BL,Backhoe Loaders,Four Wheel Drive,EROPS,None or Unspecified,None or Unspecified,No,Extended,Standard,None or Unspecified,,,,,,,,,,,,,,,,,,,,,,,,,
