ModelID,SalesID,SalePrice,MachineID,datasource,auctioneerID,YearMade,MachineHoursCurrentMeter,UsageBand,saledate,fiModelDesc,fiBaseModel,fiSecondaryDesc,fiModelSeries,fiModelDescriptor,ProductSize,fiProductClassDesc,state,ProductGroup,ProductGroupDesc,Drive_System,Enclosure,Forks,Pad_Type,Ride_Control,Stick,Transmission,Turbocharged,Blade_Extension,Blade_Width,Enclosure_Type,Engine_Horsepower,Hydraulics,Pushblock,Ripper,Scarifier,Tip_Control,Tire_Size,Coupler,Coupler_System,Grouser_Tracks,Hydraulics_Flow,Track_Type,Undercarriage_Pad_Width,Stick_Length,Thumb,Pattern_Changer,Grouser_Type,Backhoe_Mounting,Blade_Type,Travel_Controls,Differential_Type,Steering_Controls
36006,1144505,16500,1039410,121,3.0,2005,1158.0,Low,8/27/2009 0:00,435,435,,,,Mini,"Hydraulic Excavator, Track - 4.0 to 5.0 Metric Tons",Texas,TEX,Track Excavators,,EROPS,,,,,,,,,,,Standard,,,,,,Manual,,,,Rubber,16 inch,None or Unspecified,None or Unspecified,None or Unspecified,Double,,,,,
36006,1171169,16500,1044888,121,3.0,2004,1879.0,Medium,8/27/2009 0:00,435,435,,,,Mini,"Hydraulic Excavator, Track - 4.0 to 5.0 Metric Tons",Texas,TEX,Track Excavators,,EROPS w AC,,,,,,,,,,,Auxiliary,,,,,,Manual,,,,Rubber,16 inch,None or Unspecified,None or Unspecified,None or Unspecified,Double,,,,,
36006,1193644,22500,1026064,121,3.0,2007,348.0,Low,10/8/2009 0:00,435,435,,,,Mini,"Hydraulic Excavator, Track - 4.0 to 5.0 Metric Tons",Texas,TEX,Track Excavators,,EROPS,,,,,,,,,,,Standard,,,,,,Manual,,,,Rubber,None or Unspecified,None or Unspecified,None or Unspecified,None or Unspecified,Double,,,,,
36006,1193651,14000,1028639,121,3.0,2003,1763.0,Low,10/8/2009 0:00,435,435,,,,Mini,"Hydraulic Excavator, Track - 4.0 to 5.0 Metric Tons",Texas,TEX,Track Excavators,,EROPS,,,,,,,,,,,Auxiliary,,,,,,None or Unspecified,,,,Rubber,16 inch,None or Unspecified,None or Unspecified,None or Unspecified,Double,,,,,
36006,1213319,12500,1039029,121,3.0,2004,2421.0,Low,7/21/2011 0:00,435,435,,,,Mini,"Hydraulic Excavator, Track - 4.0 to 5.0 Metric Tons",West Virginia,TEX,Track Excavators,,EROPS,,,,,,,,,,,Auxiliary,,,,,,Manual,,,,Rubber,16 inch,None or Unspecified,None or Unspecified,None or Unspecified,Double,,,,,
36006,1790964,25000,1405219,132,8.0,2004,,,7/11/2007 0:00,435,435,,,,Mini,"Hydraulic Excavator, Track - 4.0 to 5.0 Metric Tons",Mississippi,TEX,Track Excavators,,EROPS,,,,,,,,,,,Standard,,,,,,None or Unspecified,,,,Steel,None or Unspecified,None or Unspecified,None or Unspecified,None or Unspecified,Double,,,,,
36006,1814055,18000,1088593,132,1.0,2003,,,2/15/2010 0:00,435,435,,,,Mini,"Hydraulic Excavator, Track - 4.0 to 5.0 Metric Tons",Florida,TEX,Track Excavators,,EROPS,,,,,,,,,,,Standard,,,,,,None or Unspecified,,,,Steel,None or Unspecified,None or Unspecified,None or Unspecified,None or Unspecified,Double,,,,,
36006,1814708,14000,1135031,132,1.0,2003,,,5/26/2011 0:00,435,435,,,,Mini,"Hydraulic Excavator, Track - 4.0 to 5.0 Metric Tons",Illinois,TEX,Track Excavators,,EROPS,,,,,,,,,,,Standard,,,,,,None or Unspecified,,,,Steel,None or Unspecified,None or Unspecified,None or Unspecified,None or Unspecified,Double,,,,,
36006,1814763,22500,1431519,132,1.0,2004,,,10/3/2008 0:00,435,435,,,,Mini,"Hydraulic Excavator, Track - 4.0 to 5.0 Metric Tons",Nevada,TEX,Track Excavators,,EROPS,,,,,,,,,,,Standard,,,,,,None or Unspecified,,,,Steel,None or Unspecified,None or Unspecified,None or Unspecified,None or Unspecified,Double,,,,,
36006,1814765,31000,1234561,132,1.0,1000,,,7/11/2007 0:00,435,435,,,,Mini,"Hydraulic Excavator, Track - 4.0 to 5.0 Metric Tons",Texas,TEX,Track Excavators,,EROPS,,,,,,,,,,,Standard,,,,,,None or Unspecified,,,,Steel,None or Unspecified,None or Unspecified,None or Unspecified,None or Unspecified,Double,,,,,
36006,1814767,17750,1457589,132,4.0,2004,,,2/7/2011 0:00,435,435,,,,Mini,"Hydraulic Excavator, Track - 4.0 to 5.0 Metric Tons",Florida,TEX,Track Excavators,,EROPS,,,,,,,,,,,Standard,,,,,,None or Unspecified,,,,Steel,None or Unspecified,None or Unspecified,None or Unspecified,None or Unspecified,Double,,,,,
36006,1814775,36500,1112887,132,22.0,1000,,,12/8/2007 0:00,435,435,,,,Mini,"Hydraulic Excavator, Track - 4.0 to 5.0 Metric Tons",Minnesota,TEX,Track Excavators,,EROPS,,,,,,,,,,,Standard,,,,,,None or Unspecified,,,,Steel,None or Unspecified,None or Unspecified,None or Unspecified,None or Unspecified,Double,,,,,
36006,1814825,19000,1547890,132,1.0,2005,,,8/26/2008 0:00,435,435,,,,Mini,"Hydraulic Excavator, Track - 4.0 to 5.0 Metric Tons",Utah,TEX,Track Excavators,,EROPS,,,,,,,,,,,Standard,,,,,,None or Unspecified,,,,Steel,None or Unspecified,None or Unspecified,None or Unspecified,None or Unspecified,Double,,,,,
36006,1814826,23000,367016,132,1.0,2006,,,8/21/2008 0:00,435,435,,,,Mini,"Hydraulic Excavator, Track - 4.0 to 5.0 Metric Tons",Arizona,TEX,Track Excavators,,EROPS,,,,,,,,,,,Standard,,,,,,None or Unspecified,,,,Steel,None or Unspecified,None or Unspecified,None or Unspecified,None or Unspecified,Double,,,,,
36006,1814832,26500,1487564,132,2.0,2005,,,2/3/2008 0:00,435,435,,,,Mini,"Hydraulic Excavator, Track - 4.0 to 5.0 Metric Tons",Florida,TEX,Track Excavators,,EROPS,,,,,,,,,,,Standard,,,,,,None or Unspecified,,,,Steel,None or Unspecified,None or Unspecified,None or Unspecified,None or Unspecified,Double,,,,,
36006,1814835,34000,1308444,132,1.0,2005,,,12/6/2006 0:00,435,435,,,,Mini,"Hydraulic Excavator, Track - 4.0 to 5.0 Metric Tons",Washington,TEX,Track Excavators,,EROPS,,,,,,,,,,,Standard,,,,,,None or Unspecified,,,,Steel,None or Unspecified,None or Unspecified,None or Unspecified,None or Unspecified,Double,,,,,
36006,1814848,43500,1201077,132,2.0,2006,,,1/6/2007 0:00,435,435,,,,Mini,"Hydraulic Excavator, Track - 4.0 to 5.0 Metric Tons",New York,TEX,Track Excavators,,EROPS,,,,,,,,,,,Standard,,,,,,None or Unspecified,,,,Steel,None or Unspecified,None or Unspecified,None or Unspecified,None or Unspecified,Double,,,,,
36006,1814853,32000,1153206,132,8.0,2007,,,9/15/2010 0:00,435,435,,,,Mini,"Hydraulic Excavator, Track - 4.0 to 5.0 Metric Tons",Mississippi,TEX,Track Excavators,,EROPS,,,,,,,,,,,Standard,,,,,,None or Unspecified,,,,Steel,None or Unspecified,None or Unspecified,None or Unspecified,None or Unspecified,Double,,,,,
36006,2434550,14000,1697497,136,,2003,2347.0,Low,8/25/2009 0:00,435,435,,,,Mini,"Hydraulic Excavator, Track - 4.0 to 5.0 Metric Tons",Texas,TEX,Track Excavators,,EROPS,,,,,,,,,,,Auxiliary,,,,,,None or Unspecified,,,,Rubber,None or Unspecified,None or Unspecified,Hydraulic,None or Unspecified,Double,,,,,
36006,2434551,14000,1495338,136,1.0,1000,0.0,,3/4/2010 0:00,435,435,,,,Mini,"Hydraulic Excavator, Track - 4.0 to 5.0 Metric Tons",Washington,TEX,Track Excavators,,EROPS,,,,,,,,,,,Standard,,,,,,None or Unspecified,,,,Rubber,None or Unspecified,None or Unspecified,Hydraulic,None or Unspecified,Double,,,,,
36006,2434592,13500,1787256,136,2.0,2004,0.0,,3/6/2010 0:00,435,435,,,,Mini,"Hydraulic Excavator, Track - 4.0 to 5.0 Metric Tons",California,TEX,Track Excavators,,EROPS,,,,,,,,,,,Auxiliary,,,,,,None or Unspecified,,,,Rubber,None or Unspecified,None or Unspecified,None or Unspecified,None or Unspecified,Double,,,,,
36006,2434675,15000,1730792,136,,2005,2730.0,Medium,9/10/2009 0:00,435,435,,,,Mini,"Hydraulic Excavator, Track - 4.0 to 5.0 Metric Tons",Nebraska,TEX,Track Excavators,,EROPS,,,,,,,,,,,Standard,,,,,,Manual,,,,Rubber,None or Unspecified,None or Unspecified,None or Unspecified,None or Unspecified,Double,,,,,
36006,2434689,20500,1725039,136,2.0,2005,0.0,,6/12/2010 0:00,435,435,,,,Mini,"Hydraulic Excavator, Track - 4.0 to 5.0 Metric Tons",Wisconsin,TEX,Track Excavators,,EROPS w AC,,,,,,,,,,,Auxiliary,,,,,,Manual,,,,Steel,None or Unspecified,None or Unspecified,None or Unspecified,None or Unspecified,Double,,,,,
36006,2434696,21000,355661,136,99.0,2005,0.0,,12/1/2009 0:00,435,435,,,,Mini,"Hydraulic Excavator, Track - 4.0 to 5.0 Metric Tons",Missouri,TEX,Track Excavators,,EROPS w AC,,,,,,,,,,,Auxiliary,,,,,,Manual,,,,Steel,None or Unspecified,None or Unspecified,Hydraulic,None or Unspecified,Double,,,,,
36006,2434710,27500,1220652,136,99.0,2006,0.0,,5/6/2010 0:00,435,435,,,,Mini,"Hydraulic Excavator, Track - 4.0 to 5.0 Metric Tons",Minnesota,TEX,Track Excavators,,EROPS w AC,,,,,,,,,,,Auxiliary,,,,,,None or Unspecified,,,,Steel,None or Unspecified,None or Unspecified,None or Unspecified,None or Unspecified,Double,,,,,
36006,4376664,16500,2295436,172,1.0,2005,1825.0,Low,12/19/2011 0:00,435,435,,,,Mini,"Hydraulic Excavator, Track - 4.0 to 5.0 Metric Tons",Washington,TEX,Track Excavators,,EROPS w AC,,,,,,,,,,,Auxiliary,,,,,,None or Unspecified,,,,Rubber,None or Unspecified,None or Unspecified,Hydraulic,None or Unspecified,Double,,,,,
36006,6312495,14000,1793195,149,1.0,2004,,,10/7/2011 0:00,435,435,,,,Mini,"Hydraulic Excavator, Track - 4.0 to 5.0 Metric Tons",Illinois,TEX,Track Excavators,,EROPS,,,,,,,,,,,Standard,,,,,,None or Unspecified,,,,Steel,None or Unspecified,None or Unspecified,None or Unspecified,None or Unspecified,Double,,,,,
36006,6312526,16500,1892587,149,1.0,2005,,,12/20/2011 0:00,435,435,,,,Mini,"Hydraulic Excavator, Track - 4.0 to 5.0 Metric Tons",Washington,TEX,Track Excavators,,EROPS,,,,,,,,,,,Standard,,,,,,None or Unspecified,,,,Rubber,None or Unspecified,None or Unspecified,Hydraulic,None or Unspecified,Double,,,,,
