ModelID,SalesID,SalePrice,MachineID,datasource,auctioneerID,YearMade,MachineHoursCurrentMeter,UsageBand,saledate,fiModelDesc,fiBaseModel,fiSecondaryDesc,fiModelSeries,fiModelDescriptor,ProductSize,fiProductClassDesc,state,ProductGroup,ProductGroupDesc,Drive_System,Enclosure,Forks,Pad_Type,Ride_Control,Stick,Transmission,Turbocharged,Blade_Extension,Blade_Width,Enclosure_Type,Engine_Horsepower,Hydraulics,Pushblock,Ripper,Scarifier,Tip_Control,Tire_Size,Coupler,Coupler_System,Grouser_Tracks,Hydraulics_Flow,Track_Type,Undercarriage_Pad_Width,Stick_Length,Thumb,Pattern_Changer,Grouser_Type,Backhoe_Mounting,Blade_Type,Travel_Controls,Differential_Type,Steering_Controls
36001,1145340,13500,1036051,121,3.0,2004,1261.0,Low,8/27/2009 0:00,430G,430,G,,,Mini,"Hydraulic Excavator, Track - 3.0 to 4.0 Metric Tons",Texas,TEX,Track Excavators,,EROPS,,,,,,,,,,,Standard,,,,,,None or Unspecified,,,,Rubber,None or Unspecified,None or Unspecified,None or Unspecified,None or Unspecified,Double,,,,,
36001,1154631,16000,1059120,121,3.0,2004,2526.0,Medium,8/23/2007 0:00,430G,430,G,,,Mini,"Hydraulic Excavator, Track - 3.0 to 4.0 Metric Tons",Missouri,TEX,Track Excavators,,EROPS w AC,,,,,,,,,,,Auxiliary,,,,,,None or Unspecified,,,,Rubber,None or Unspecified,None or Unspecified,None or Unspecified,None or Unspecified,Double,,,,,
36001,1169284,12250,1054531,121,3.0,2004,1524.0,Low,7/21/2009 0:00,430G,430,G,,,Mini,"Hydraulic Excavator, Track - 3.0 to 4.0 Metric Tons",Colorado,TEX,Track Excavators,,EROPS w AC,,,,,,,,,,,Auxiliary,,,,,,None or Unspecified,,,,Rubber,None or Unspecified,None or Unspecified,None or Unspecified,None or Unspecified,Double,,,,,
36001,1180480,19500,1049252,121,3.0,2004,893.0,Low,6/26/2008 0:00,430G,430,G,,,Mini,"Hydraulic Excavator, Track - 3.0 to 4.0 Metric Tons",California,TEX,Track Excavators,,EROPS,,,,,,,,,,,Auxiliary,,,,,,Manual,,,,Steel,None or Unspecified,None or Unspecified,None or Unspecified,None or Unspecified,Double,,,,,
36001,1190101,16000,1012494,121,3.0,2005,3268.0,Medium,5/14/2009 0:00,430G,430,G,,,Mini,"Hydraulic Excavator, Track - 3.0 to 4.0 Metric Tons",California,TEX,Track Excavators,,EROPS,,,,,,,,,,,Auxiliary,,,,,,Manual,,,,Rubber,None or Unspecified,None or Unspecified,None or Unspecified,None or Unspecified,Double,,,,,
36001,1192263,19000,1051729,121,3.0,2004,1259.0,Low,9/10/2009 0:00,430G,430,G,,,Mini,"Hydraulic Excavator, Track - 3.0 to 4.0 Metric Tons",California,TEX,Track Excavators,,EROPS w AC,,,,,,,,,,,Auxiliary,,,,,,Manual,,,,Rubber,None or Unspecified,None or Unspecified,Hydraulic,None or Unspecified,Double,,,,,
36001,1203389,13500,1023985,121,3.0,2004,2673.0,Medium,6/24/2010 0:00,430G,430,G,,,Mini,"Hydraulic Excavator, Track - 3.0 to 4.0 Metric Tons",Louisiana,TEX,Track Excavators,,EROPS,,,,,,,,,,,Auxiliary,,,,,,Manual,,,,Rubber,None or Unspecified,None or Unspecified,None or Unspecified,None or Unspecified,Double,,,,,
36001,1814719,18500,1384855,132,1.0,2004,,,12/16/2008 0:00,430G,430,G,,,Mini,"Hydraulic Excavator, Track - 3.0 to 4.0 Metric Tons",Maryland,TEX,Track Excavators,,EROPS,,,,,,,,,,,Standard,,,,,,None or Unspecified,,,,Steel,None or Unspecified,None or Unspecified,None or Unspecified,None or Unspecified,Double,,,,,
36001,1814726,16500,1404719,132,1.0,2004,,,10/1/2008 0:00,430G,430,G,,,Mini,"Hydraulic Excavator, Track - 3.0 to 4.0 Metric Tons",Maryland,TEX,Track Excavators,,EROPS,,,,,,,,,,,Standard,,,,,,None or Unspecified,,,,Steel,None or Unspecified,None or Unspecified,None or Unspecified,None or Unspecified,Double,,,,,
36001,1814727,16000,1369355,132,1.0,2004,,,12/16/2008 0:00,430G,430,G,,,Mini,"Hydraulic Excavator, Track - 3.0 to 4.0 Metric Tons",Washington,TEX,Track Excavators,,EROPS,,,,,,,,,,,Standard,,,,,,None or Unspecified,,,,Steel,None or Unspecified,None or Unspecified,None or Unspecified,None or Unspecified,Double,,,,,
36001,1814729,16000,1549452,132,1.0,2004,,,12/16/2008 0:00,430G,430,G,,,Mini,"Hydraulic Excavator, Track - 3.0 to 4.0 Metric Tons",Washington,TEX,Track Excavators,,EROPS,,,,,,,,,,,Standard,,,,,,None or Unspecified,,,,Steel,None or Unspecified,None or Unspecified,None or Unspecified,None or Unspecified,Double,,,,,
36001,1814731,16000,1154615,132,1.0,2004,,,12/16/2008 0:00,430G,430,G,,,Mini,"Hydraulic Excavator, Track - 3.0 to 4.0 Metric Tons",Washington,TEX,Track Excavators,,EROPS,,,,,,,,,,,Standard,,,,,,None or Unspecified,,,,Steel,None or Unspecified,None or Unspecified,None or Unspecified,None or Unspecified,Double,,,,,
36001,1814735,26000,1494660,132,1.0,2004,,,6/12/2007 0:00,430G,430,G,,,Mini,"Hydraulic Excavator, Track - 3.0 to 4.0 Metric Tons",Washington,TEX,Track Excavators,,EROPS,,,,,,,,,,,Standard,,,,,,None or Unspecified,,,,Steel,None or Unspecified,None or Unspecified,None or Unspecified,None or Unspecified,Double,,,,,
36001,1814736,22000,1524801,132,14.0,2004,,,3/21/2008 0:00,430G,430,G,,,Mini,"Hydraulic Excavator, Track - 3.0 to 4.0 Metric Tons",Indiana,TEX,Track Excavators,,EROPS,,,,,,,,,,,Standard,,,,,,None or Unspecified,,,,Steel,None or Unspecified,None or Unspecified,None or Unspecified,None or Unspecified,Double,,,,,
36001,1814747,13500,1362471,132,99.0,2005,,,9/20/2007 0:00,430G,430,G,,,Mini,"Hydraulic Excavator, Track - 3.0 to 4.0 Metric Tons",Georgia,TEX,Track Excavators,,EROPS,,,,,,,,,,,Standard,,,,,,None or Unspecified,,,,Steel,None or Unspecified,None or Unspecified,None or Unspecified,None or Unspecified,Double,,,,,
36001,2434548,8500,1776634,136,,2004,0.0,,2/27/2009 0:00,430G,430,G,,,Mini,"Hydraulic Excavator, Track - 3.0 to 4.0 Metric Tons",California,TEX,Track Excavators,,EROPS,,,,,,,,,,,Auxiliary,,,,,,None or Unspecified,,,,Steel,None or Unspecified,None or Unspecified,None or Unspecified,None or Unspecified,Double,,,,,
36001,2434554,13000,1480586,136,1.0,2004,3783.0,Medium,10/14/2009 0:00,430G,430,G,,,Mini,"Hydraulic Excavator, Track - 3.0 to 4.0 Metric Tons",Florida,TEX,Track Excavators,,EROPS,,,,,,,,,,,Auxiliary,,,,,,None or Unspecified,,,,Steel,None or Unspecified,None or Unspecified,None or Unspecified,None or Unspecified,Double,,,,,
36001,2434556,15000,1225898,136,1.0,2004,3370.0,Medium,8/20/2009 0:00,430G,430,G,,,Mini,"Hydraulic Excavator, Track - 3.0 to 4.0 Metric Tons",Colorado,TEX,Track Excavators,,EROPS w AC,,,,,,,,,,,Auxiliary,,,,,,Manual,,,,Rubber,None or Unspecified,None or Unspecified,None or Unspecified,None or Unspecified,Double,,,,,
36001,2434560,12500,1699194,136,,2004,159800.0,High,3/27/2009 0:00,430G,430,G,,,Mini,"Hydraulic Excavator, Track - 3.0 to 4.0 Metric Tons",California,TEX,Track Excavators,,EROPS,,,,,,,,,,,Standard,,,,,,None or Unspecified,,,,Steel,None or Unspecified,None or Unspecified,None or Unspecified,None or Unspecified,Double,,,,,
36001,2434566,18000,1521835,136,1.0,2004,1665.0,Low,3/18/2009 0:00,430G,430,G,,,Mini,"Hydraulic Excavator, Track - 3.0 to 4.0 Metric Tons",Washington,TEX,Track Excavators,,EROPS,,,,,,,,,,,Standard,,,,,,Manual,,,,Steel,None or Unspecified,None or Unspecified,Hydraulic,None or Unspecified,Double,,,,,
36001,2434568,15000,1248811,136,1.0,2004,1882.0,Low,3/18/2009 0:00,430G,430,G,,,Mini,"Hydraulic Excavator, Track - 3.0 to 4.0 Metric Tons",Washington,TEX,Track Excavators,,EROPS,,,,,,,,,,,Standard,,,,,,None or Unspecified,,,,Steel,None or Unspecified,None or Unspecified,Hydraulic,None or Unspecified,Double,,,,,
36001,2434583,13500,1256378,136,1.0,2004,0.0,,3/30/2010 0:00,430G,430,G,,,Mini,"Hydraulic Excavator, Track - 3.0 to 4.0 Metric Tons",Maryland,TEX,Track Excavators,,EROPS,,,,,,,,,,,Auxiliary,,,,,,Manual,,,,Steel,None or Unspecified,None or Unspecified,None or Unspecified,None or Unspecified,Double,,,,,
36001,2724700,15500,1455678,149,1.0,2004,2650.0,Low,5/24/2011 0:00,430G,430,G,,,Mini,"Hydraulic Excavator, Track - 3.0 to 4.0 Metric Tons",California,TEX,Track Excavators,,EROPS,,,,,,,,,,,Standard,,,,,,Manual,,,,Steel,None or Unspecified,None or Unspecified,None or Unspecified,None or Unspecified,Double,,,,,
36001,2724703,15500,1424017,149,1.0,2004,1701.0,Low,5/24/2011 0:00,430G,430,G,,,Mini,"Hydraulic Excavator, Track - 3.0 to 4.0 Metric Tons",California,TEX,Track Excavators,,EROPS,,,,,,,,,,,Standard,,,,,,Manual,,,,Steel,None or Unspecified,None or Unspecified,None or Unspecified,None or Unspecified,Double,,,,,
36001,2724705,15500,1440815,149,1.0,2004,0.0,,5/24/2011 0:00,430G,430,G,,,Mini,"Hydraulic Excavator, Track - 3.0 to 4.0 Metric Tons",California,TEX,Track Excavators,,EROPS,,,,,,,,,,,Standard,,,,,,None or Unspecified,,,,Steel,None or Unspecified,None or Unspecified,None or Unspecified,None or Unspecified,Double,,,,,
36001,2724729,17000,1166365,149,1.0,2005,1995.0,Low,5/24/2011 0:00,430G,430,G,,,Mini,"Hydraulic Excavator, Track - 3.0 to 4.0 Metric Tons",California,TEX,Track Excavators,,EROPS,,,,,,,,,,,Standard,,,,,,Manual,,,,Steel,None or Unspecified,None or Unspecified,None or Unspecified,None or Unspecified,Double,,,,,
36001,2724730,17000,1262951,149,1.0,2005,1765.0,Low,5/24/2011 0:00,430G,430,G,,,Mini,"Hydraulic Excavator, Track - 3.0 to 4.0 Metric Tons",California,TEX,Track Excavators,,EROPS,,,,,,,,,,,Standard,,,,,,Manual,,,,Steel,None or Unspecified,None or Unspecified,None or Unspecified,None or Unspecified,Double,,,,,
36001,4376566,9000,1322688,172,1.0,2003,,,3/3/2009 0:00,430G,430,G,,,Mini,"Hydraulic Excavator, Track - 3.0 to 4.0 Metric Tons",California,TEX,Track Excavators,,EROPS,,,,,,,,,,,Standard,,,,,,None or Unspecified,,,,Rubber,None or Unspecified,None or Unspecified,None or Unspecified,None or Unspecified,Double,,,,,
36001,4376573,9000,2298957,172,1.0,2004,,,6/18/2009 0:00,430G,430,G,,,Mini,"Hydraulic Excavator, Track - 3.0 to 4.0 Metric Tons",Minnesota,TEX,Track Excavators,,EROPS w AC,,,,,,,,,,,Standard,,,,,,None or Unspecified,,,,Rubber,None or Unspecified,None or Unspecified,None or Unspecified,None or Unspecified,Double,,,,,
36001,4376574,17000,1241518,172,1.0,2005,1308.0,Low,9/3/2009 0:00,430G,430,G,,,Mini,"Hydraulic Excavator, Track - 3.0 to 4.0 Metric Tons",Missouri,TEX,Track Excavators,,EROPS,,,,,,,,,,,Auxiliary,,,,,,None or Unspecified,,,,Rubber,None or Unspecified,None or Unspecified,None or Unspecified,None or Unspecified,Double,,,,,
36001,4376575,14000,424150,172,1.0,2004,,,7/15/2010 0:00,430G,430,G,,,Mini,"Hydraulic Excavator, Track - 3.0 to 4.0 Metric Tons",Texas,TEX,Track Excavators,,EROPS,,,,,,,,,,,Auxiliary,,,,,,None or Unspecified,,,,Rubber,None or Unspecified,None or Unspecified,None or Unspecified,None or Unspecified,Double,,,,,
36001,4376576,17500,1541023,172,1.0,2004,2775.0,Medium,7/14/2010 0:00,430G,430,G,,,Mini,"Hydraulic Excavator, Track - 3.0 to 4.0 Metric Tons",California,TEX,Track Excavators,,EROPS w AC,,,,,,,,,,,Auxiliary,,,,,,None or Unspecified,,,,Rubber,None or Unspecified,None or Unspecified,None or Unspecified,None or Unspecified,Double,,,,,
36001,4376583,21000,2309073,172,1.0,2004,689.0,Low,10/17/2011 0:00,430G,430,G,,,Mini,"Hydraulic Excavator, Track - 3.0 to 4.0 Metric Tons",California,TEX,Track Excavators,,EROPS,,,,,,,,,,,Auxiliary,,,,,,None or Unspecified,,,,Rubber,None or Unspecified,None or Unspecified,None or Unspecified,None or Unspecified,Double,,,,,
36001,6312493,21000,1944613,149,1.0,2004,,,10/18/2011 0:00,430G,430,G,,,Mini,"Hydraulic Excavator, Track - 3.0 to 4.0 Metric Tons",California,TEX,Track Excavators,,EROPS,,,,,,,,,,,Standard,,,,,,Manual,,,,Steel,None or Unspecified,None or Unspecified,None or Unspecified,None or Unspecified,Double,,,,,
