ModelID,SalesID,SalePrice,MachineID,datasource,auctioneerID,YearMade,MachineHoursCurrentMeter,UsageBand,saledate,fiModelDesc,fiBaseModel,fiSecondaryDesc,fiModelSeries,fiModelDescriptor,ProductSize,fiProductClassDesc,state,ProductGroup,ProductGroupDesc,Drive_System,Enclosure,Forks,Pad_Type,Ride_Control,Stick,Transmission,Turbocharged,Blade_Extension,Blade_Width,Enclosure_Type,Engine_Horsepower,Hydraulics,Pushblock,Ripper,Scarifier,Tip_Control,Tire_Size,Coupler,Coupler_System,Grouser_Tracks,Hydraulics_Flow,Track_Type,Undercarriage_Pad_Width,Stick_Length,Thumb,Pattern_Changer,Grouser_Type,Backhoe_Mounting,Blade_Type,Travel_Controls,Differential_Type,Steering_Controls
36008,1220753,32500,1053735,121,3.0,2008,1007.0,Low,11/17/2011 0:00,435G,435,G,,,Mini,"Hydraulic Excavator, Track - 4.0 to 5.0 Metric Tons",Illinois,TEX,Track Excavators,,EROPS,,,,,,,,,,,Auxiliary,,,,,,Hydraulic,,,,Rubber,None or Unspecified,None or Unspecified,None or Unspecified,Yes,Double,,,,,
36008,1814753,13500,1216832,132,1.0,2004,,,12/16/2008 0:00,435G,435,G,,,Mini,"Hydraulic Excavator, Track - 4.0 to 5.0 Metric Tons",Maryland,TEX,Track Excavators,,EROPS,,,,,,,,,,,Standard,,,,,,None or Unspecified,,,,Steel,None or Unspecified,None or Unspecified,None or Unspecified,None or Unspecified,Double,,,,,
36008,1814766,25000,1351987,132,1.0,2004,,,9/12/2006 0:00,435G,435,G,,,Mini,"Hydraulic Excavator, Track - 4.0 to 5.0 Metric Tons",Ohio,TEX,Track Excavators,,EROPS,,,,,,,,,,,Standard,,,,,,None or Unspecified,,,,Steel,None or Unspecified,None or Unspecified,None or Unspecified,None or Unspecified,Double,,,,,
36008,1814770,17500,1486218,132,1.0,2004,,,11/6/2008 0:00,435G,435,G,,,Mini,"Hydraulic Excavator, Track - 4.0 to 5.0 Metric Tons",Tennessee,TEX,Track Excavators,,EROPS,,,,,,,,,,,Standard,,,,,,None or Unspecified,,,,Steel,None or Unspecified,None or Unspecified,None or Unspecified,None or Unspecified,Double,,,,,
36008,1814771,21000,1147783,132,99.0,2004,,,9/20/2007 0:00,435G,435,G,,,Mini,"Hydraulic Excavator, Track - 4.0 to 5.0 Metric Tons",Georgia,TEX,Track Excavators,,EROPS,,,,,,,,,,,Standard,,,,,,None or Unspecified,,,,Steel,None or Unspecified,None or Unspecified,None or Unspecified,None or Unspecified,Double,,,,,
36008,2434584,18000,1361199,136,1.0,2003,0.0,,2/15/2010 0:00,435G,435,G,,,Mini,"Hydraulic Excavator, Track - 4.0 to 5.0 Metric Tons",Florida,TEX,Track Excavators,,EROPS,,,,,,,,,,,Auxiliary,,,,,,None or Unspecified,,,,Steel,None or Unspecified,None or Unspecified,None or Unspecified,None or Unspecified,Double,,,,,
36008,2434589,12500,1423771,136,1.0,2004,4271.0,Medium,7/31/2009 0:00,435G,435,G,,,Mini,"Hydraulic Excavator, Track - 4.0 to 5.0 Metric Tons",Washington,TEX,Track Excavators,,EROPS,,,,,,,,,,,Standard,,,,,,Manual,,,,Rubber,None or Unspecified,None or Unspecified,Hydraulic,None or Unspecified,Double,,,,,
36008,2435069,19000,1156522,136,1.0,2008,0.0,,11/20/2009 0:00,435G,435,G,,,Mini,"Hydraulic Excavator, Track - 4.0 to 5.0 Metric Tons",Arizona,TEX,Track Excavators,,EROPS,,,,,,,,,,,Auxiliary,,,,,,Manual,,,,Rubber,None or Unspecified,None or Unspecified,None or Unspecified,None or Unspecified,Double,,,,,
36008,2435070,28000,1156522,136,2.0,2008,500.0,Low,1/31/2010 0:00,435G,435,G,,,Mini,"Hydraulic Excavator, Track - 4.0 to 5.0 Metric Tons",Florida,TEX,Track Excavators,,EROPS,,,,,,,,,,,Auxiliary,,,,,,Manual,,,,Rubber,None or Unspecified,None or Unspecified,None or Unspecified,None or Unspecified,Double,,,,,
36008,4376585,19500,1527652,172,1.0,2003,980.0,Low,5/28/2009 0:00,435G,435,G,,,Mini,"Hydraulic Excavator, Track - 4.0 to 5.0 Metric Tons",Missouri,TEX,Track Excavators,,EROPS w AC,,,,,,,,,,,Auxiliary,,,,,,None or Unspecified,,,,Steel,None or Unspecified,None or Unspecified,None or Unspecified,None or Unspecified,Double,,,,,
36008,4376592,15000,1104553,172,1.0,2005,3933.0,Medium,8/31/2010 0:00,435G,435,G,,,Mini,"Hydraulic Excavator, Track - 4.0 to 5.0 Metric Tons",Colorado,TEX,Track Excavators,,EROPS,,,,,,,,,,,Auxiliary,,,,,,None or Unspecified,,,,Rubber,None or Unspecified,None or Unspecified,None or Unspecified,None or Unspecified,Double,,,,,
36008,4376597,13000,2310273,172,1.0,2004,3597.0,Medium,12/19/2011 0:00,435G,435,G,,,Mini,"Hydraulic Excavator, Track - 4.0 to 5.0 Metric Tons",Tennessee,TEX,Track Excavators,,EROPS,,,,,,,,,,,Auxiliary,,,,,,None or Unspecified,,,,Rubber,None or Unspecified,None or Unspecified,Hydraulic,None or Unspecified,Double,,,,,
36008,6312494,13000,1831104,149,1.0,2004,,,12/20/2011 0:00,435G,435,G,,,Mini,"Hydraulic Excavator, Track - 4.0 to 5.0 Metric Tons",Tennessee,TEX,Track Excavators,,EROPS,,,,,,,,,,,Standard,,,,,,None or Unspecified,,,,Steel,None or Unspecified,None or Unspecified,None or Unspecified,None or Unspecified,Double,,,,,
