ModelID,SalesID,SalePrice,MachineID,datasource,auctioneerID,YearMade,MachineHoursCurrentMeter,UsageBand,saledate,fiModelDesc,fiBaseModel,fiSecondaryDesc,fiModelSeries,fiModelDescriptor,ProductSize,fiProductClassDesc,state,ProductGroup,ProductGroupDesc,Drive_System,Enclosure,Forks,Pad_Type,Ride_Control,Stick,Transmission,Turbocharged,Blade_Extension,Blade_Width,Enclosure_Type,Engine_Horsepower,Hydraulics,Pushblock,Ripper,Scarifier,Tip_Control,Tire_Size,Coupler,Coupler_System,Grouser_Tracks,Hydraulics_Flow,Track_Type,Undercarriage_Pad_Width,Stick_Length,Thumb,Pattern_Changer,Grouser_Type,Backhoe_Mounting,Blade_Type,Travel_Controls,Differential_Type,Steering_Controls
36007,1164660,17500,1049308,121,3.0,2006,1686.0,Medium,7/23/2009 0:00,435AG,435,AG,,,Mini,"Hydraulic Excavator, Track - 4.0 to 5.0 Metric Tons",Utah,TEX,Track Excavators,,EROPS w AC,,,,,,,,,,,Standard,,,,,,None or Unspecified,,,,Rubber,None or Unspecified,None or Unspecified,Hydraulic,None or Unspecified,Double,,,,,
36007,1213312,14000,1066208,121,3.0,2005,2489.0,Low,7/21/2011 0:00,435AG,435,AG,,,Mini,"Hydraulic Excavator, Track - 4.0 to 5.0 Metric Tons",Oregon,TEX,Track Excavators,,EROPS,,,,,,,,,,,Auxiliary,,,,,,Manual,,,,Rubber,None or Unspecified,None or Unspecified,Hydraulic,Yes,Double,,,,,
36007,2434686,26000,1658669,136,,2008,362.0,Low,10/14/2009 0:00,435AG,435,AG,,,Mini,"Hydraulic Excavator, Track - 4.0 to 5.0 Metric Tons",Florida,TEX,Track Excavators,,EROPS,,,,,,,,,,,Auxiliary,,,,,,None or Unspecified,,,,Steel,None or Unspecified,None or Unspecified,Hydraulic,None or Unspecified,Double,,,,,
36007,2435071,22000,1324693,136,1.0,2005,0.0,,12/2/2009 0:00,435AG,435,AG,,,Mini,"Hydraulic Excavator, Track - 4.0 to 5.0 Metric Tons",Texas,TEX,Track Excavators,,EROPS,,,,,,,,,,,Auxiliary,,,,,,None or Unspecified,,,,Rubber,None or Unspecified,None or Unspecified,None or Unspecified,None or Unspecified,Double,,,,,
36007,2724842,31000,1847278,149,1.0,2007,841.0,Low,6/17/2011 0:00,435AG,435,AG,,,Mini,"Hydraulic Excavator, Track - 4.0 to 5.0 Metric Tons",Minnesota,TEX,Track Excavators,,EROPS,,,,,,,,,,,Standard,,,,,,None or Unspecified,,,,Steel,None or Unspecified,None or Unspecified,None or Unspecified,None or Unspecified,Double,,,,,
36007,4376668,40000,2295436,172,1.0,2007,798.0,Low,8/9/2011 0:00,435AG,435,AG,,,Mini,"Hydraulic Excavator, Track - 4.0 to 5.0 Metric Tons",Colorado,TEX,Track Excavators,,EROPS w AC,,,,,,,,,,,Auxiliary,,,,,,None or Unspecified,,,,Rubber,None or Unspecified,None or Unspecified,Hydraulic,None or Unspecified,Double,,,,,
36007,6312530,40000,1927833,149,1.0,2007,,,8/10/2011 0:00,435AG,435,AG,,,Mini,"Hydraulic Excavator, Track - 4.0 to 5.0 Metric Tons",Colorado,TEX,Track Excavators,,EROPS,,,,,,,,,,,Auxiliary,,,,,,Hydraulic,,,,Steel,None or Unspecified,None or Unspecified,Hydraulic,None or Unspecified,Double,,,,,
