SalesID,4376671
SalePrice,18500
MachineID,1115133
datasource,172
auctioneerID,1.0
YearMade,2005
MachineHoursCurrentMeter,1883.0
UsageBand,Medium
saledate,5/5/2009 0:00
fiModelDesc,435HAGFASTRRACK
fiBaseModel,435
fiSecondaryDesc,HAG
fiModelSeries,FASTRRACK
fiModelDescriptor,
ProductSize,Mini
fiProductClassDesc,"Hydraulic Excavator, Track - 4.0 to 5.0 Metric Tons"
state,Arizona
ProductGroup,TEX
ProductGroupDesc,Track Excavators
Drive_System,
Enclosure,EROPS w AC
Forks,
Pad_Type,
Ride_Control,
Stick,
Transmission,
Turbocharged,
Blade_Extension,
Blade_Width,
Enclosure_Type,
Engine_Horsepower,
Hydraulics,Auxiliary
Pushblock,
Ripper,
Scarifier,
Tip_Control,
Tire_Size,
Coupler,None or Unspecified
Coupler_System,
Grouser_Tracks,
Hydraulics_Flow,
Track_Type,Steel
Undercarriage_Pad_Width,None or Unspecified
Stick_Length,None or Unspecified
Thumb,None or Unspecified
Pattern_Changer,None or Unspecified
Grouser_Type,Double
Backhoe_Mounting,
Blade_Type,
Travel_Controls,
Differential_Type,
Steering_Controls,
