SalesID,6318032
SalePrice,71000
MachineID,1904027
datasource,149
auctioneerID,2.0
YearMade,2008
MachineHoursCurrentMeter,
UsageBand,
saledate,11/19/2011 0:00
fiModelDesc,TL210
fiBaseModel,TL210
fiSecondaryDesc,
fiModelSeries,
fiModelDescriptor,
ProductSize,Medium
fiProductClassDesc,Wheel Loader - 150.0 to 175.0 Horsepower
state,Connecticut
ProductGroup,WL
ProductGroupDesc,Wheel Loader
Drive_System,
Enclosure,EROPS w AC
Forks,None or Unspecified
Pad_Type,
Ride_Control,None or Unspecified
Stick,
Transmission,
Turbocharged,
Blade_Extension,
Blade_Width,
Enclosure_Type,
Engine_Horsepower,
Hydraulics,2 Valve
Pushblock,
Ripper,
Scarifier,
Tip_Control,
Tire_Size,None or Unspecified
Coupler,None or Unspecified
Coupler_System,
Grouser_Tracks,
Hydraulics_Flow,
Track_Type,
Undercarriage_Pad_Width,
Stick_Length,
Thumb,
Pattern_Changer,
Grouser_Type,
Backhoe_Mounting,
Blade_Type,
Travel_Controls,
Differential_Type,Standard
Steering_Controls,Conventional
