SalesID,2676227
SalePrice,41000
MachineID,1926844
datasource,149
auctioneerID,1.0
YearMade,2001
MachineHoursCurrentMeter,6436.0
UsageBand,Medium
saledate,6/7/2011 0:00
fiModelDesc,HL770-3
fiBaseModel,HL770
fiSecondaryDesc,-3
fiModelSeries,
fiModelDescriptor,
ProductSize,Medium
fiProductClassDesc,Wheel Loader - 250.0 to 275.0 Horsepower
state,Colorado
ProductGroup,WL
ProductGroupDesc,Wheel Loader
Drive_System,
Enclosure,EROPS
Forks,None or Unspecified
Pad_Type,
Ride_Control,None or Unspecified
Stick,
Transmission,
Turbocharged,
Blade_Extension,
Blade_Width,
Enclosure_Type,
Engine_Horsepower,
Hydraulics,2 Valve
Pushblock,
Ripper,
Scarifier,
Tip_Control,
Tire_Size,26.5
Coupler,None or Unspecified
Coupler_System,
Grouser_Tracks,
Hydraulics_Flow,
Track_Type,
Undercarriage_Pad_Width,
Stick_Length,
Thumb,
Pattern_Changer,
Grouser_Type,
Backhoe_Mounting,
Blade_Type,
Travel_Controls,
Differential_Type,Standard
Steering_Controls,Conventional
