ModelID,SalesID,SalePrice,MachineID,datasource,auctioneerID,YearMade,MachineHoursCurrentMeter,UsageBand,saledate,fiModelDesc,fiBaseModel,fiSecondaryDesc,fiModelSeries,fiModelDescriptor,ProductSize,fiProductClassDesc,state,ProductGroup,ProductGroupDesc,Drive_System,Enclosure,Forks,Pad_Type,Ride_Control,Stick,Transmission,Turbocharged,Blade_Extension,Blade_Width,Enclosure_Type,Engine_Horsepower,Hydraulics,Pushblock,Ripper,Scarifier,Tip_Control,Tire_Size,Coupler,Coupler_System,Grouser_Tracks,Hydraulics_Flow,Track_Type,Undercarriage_Pad_Width,Stick_Length,Thumb,Pattern_Changer,Grouser_Type,Backhoe_Mounting,Blade_Type,Travel_Controls,Differential_Type,Steering_Controls
36864,4338159,34000,2278761,172,1.0,2000,5636.0,Low,12/7/2011 0:00,HL760-3,HL760,-3,,,Medium,Wheel Loader - 200.0 to 225.0 Horsepower,Connecticut,WL,Wheel Loader,,EROPS w AC,None or Unspecified,,None or Unspecified,,,,,,,,2 Valve,,,,,23.5,None or Unspecified,,,,,,,,,,,,,Standard,Conventional
36864,6294651,34000,1821816,149,1.0,2000,,,12/8/2011 0:00,HL760-3,HL760,-3,,,Medium,Wheel Loader - 200.0 to 225.0 Horsepower,Connecticut,WL,Wheel Loader,,EROPS w AC,None or Unspecified,,None or Unspecified,,,,,,,,2 Valve,,,,,None or Unspecified,None or Unspecified,,,,,,,,,,,,,Standard,Conventional
