ModelID,SalesID,SalePrice,MachineID,datasource,auctioneerID,YearMade,MachineHoursCurrentMeter,UsageBand,saledate,fiModelDesc,fiBaseModel,fiSecondaryDesc,fiModelSeries,fiModelDescriptor,ProductSize,fiProductClassDesc,state,ProductGroup,ProductGroupDesc,Drive_System,Enclosure,Forks,Pad_Type,Ride_Control,Stick,Transmission,Turbocharged,Blade_Extension,Blade_Width,Enclosure_Type,Engine_Horsepower,Hydraulics,Pushblock,Ripper,Scarifier,Tip_Control,Tire_Size,Coupler,Coupler_System,Grouser_Tracks,Hydraulics_Flow,Track_Type,Undercarriage_Pad_Width,Stick_Length,Thumb,Pattern_Changer,Grouser_Type,Backhoe_Mounting,Blade_Type,Travel_Controls,Differential_Type,Steering_Controls
37197,2378519,34000,1667332,136,1.0,2005,332.0,Low,10/1/2008 0:00,WL440,WL440,,,,Compact,Wheel Loader - 60.0 to 80.0 Horsepower,Maryland,WL,Wheel Loader,,EROPS w AC,None or Unspecified,,None or Unspecified,,,,,,,,2 Valve,,,,,None or Unspecified,None or Unspecified,,,,,,,,,,,,,Standard,Conventional
37197,2378547,37500,1771148,136,1.0,2007,115.0,Low,3/25/2008 0:00,WL440,WL440,,,,Compact,Wheel Loader - 60.0 to 80.0 Horsepower,North Carolina,WL,Wheel Loader,,EROPS w AC,None or Unspecified,,None or Unspecified,,,,,,,,2 Valve,,,,,None or Unspecified,Manual,,,,,,,,,,,,,Standard,Conventional
37197,2378548,33000,1674435,136,1.0,2004,423.0,Low,10/1/2008 0:00,WL440,WL440,,,,Compact,Wheel Loader - 60.0 to 80.0 Horsepower,Maryland,WL,Wheel Loader,,EROPS w AC,None or Unspecified,,None or Unspecified,,,,,,,,2 Valve,,,,,None or Unspecified,None or Unspecified,,,,,,,,,,,,,Standard,Conventional
37197,2378549,35000,1717076,136,1.0,2005,914.0,Low,3/11/2008 0:00,WL440,WL440,,,,Compact,Wheel Loader - 60.0 to 80.0 Horsepower,Colorado,WL,Wheel Loader,,EROPS,None or Unspecified,,None or Unspecified,,,,,,,,2 Valve,,,,,None or Unspecified,Manual,,,,,,,,,,,,,Standard,Conventional
37197,2378550,36000,1703219,136,1.0,2005,163.0,Low,8/15/2008 0:00,WL440,WL440,,,,Compact,Wheel Loader - 60.0 to 80.0 Horsepower,Nevada,WL,Wheel Loader,,EROPS w AC,None or Unspecified,,None or Unspecified,,,,,,,,2 Valve,,,,,None or Unspecified,Manual,,,,,,,,,,,,,Standard,Conventional
37197,2378551,41000,1659841,136,1.0,2005,11.0,Low,12/18/2007 0:00,WL440,WL440,,,,Compact,Wheel Loader - 60.0 to 80.0 Horsepower,Ohio,WL,Wheel Loader,,EROPS,None or Unspecified,,Yes,,,,,,,,2 Valve,,,,,None or Unspecified,None or Unspecified,,,,,,,,,,,,,Standard,Conventional
37197,2378552,29000,1668210,136,,2006,0.0,,8/11/2007 0:00,WL440,WL440,,,,Compact,Wheel Loader - 60.0 to 80.0 Horsepower,California,WL,Wheel Loader,,EROPS,None or Unspecified,,None or Unspecified,,,,,,,,2 Valve,,,,,None or Unspecified,None or Unspecified,,,,,,,,,,,,,Standard,Conventional
37197,2378553,37500,1658300,136,1.0,2005,108.0,Low,12/18/2007 0:00,WL440,WL440,,,,Compact,Wheel Loader - 60.0 to 80.0 Horsepower,Ohio,WL,Wheel Loader,,EROPS,None or Unspecified,,Yes,,,,,,,,2 Valve,,,,,None or Unspecified,None or Unspecified,,,,,,,,,,,,,Standard,Conventional
37197,2378554,33500,1705645,136,,2005,279.0,Low,11/14/2007 0:00,WL440,WL440,,,,Compact,Wheel Loader - 60.0 to 80.0 Horsepower,Colorado,WL,Wheel Loader,,EROPS w AC,None or Unspecified,,None or Unspecified,,,,,,,,2 Valve,,,,,None or Unspecified,Manual,,,,,,,,,,,,,Standard,Conventional
37197,2378555,35500,1723034,136,,2005,447.0,Low,5/17/2008 0:00,WL440,WL440,,,,Compact,Wheel Loader - 60.0 to 80.0 Horsepower,Massachusetts,WL,Wheel Loader,,EROPS,None or Unspecified,,None or Unspecified,,,,,,,,2 Valve,,,,,None or Unspecified,None or Unspecified,,,,,,,,,,,,,Standard,Conventional
37197,2378557,32000,1758021,136,1.0,2006,448.0,Low,3/27/2008 0:00,WL440,WL440,,,,Compact,Wheel Loader - 60.0 to 80.0 Horsepower,Texas,WL,Wheel Loader,,EROPS w AC,Yes,,None or Unspecified,,,,,,,,2 Valve,,,,,None or Unspecified,Manual,,,,,,,,,,,,,Standard,Conventional
37197,2378558,27500,1765277,136,1.0,2006,0.0,,9/18/2008 0:00,WL440,WL440,,,,Compact,Wheel Loader - 60.0 to 80.0 Horsepower,Georgia,WL,Wheel Loader,,OROPS,None or Unspecified,,None or Unspecified,,,,,,,,2 Valve,,,,,None or Unspecified,Manual,,,,,,,,,,,,,Standard,Conventional
37197,2378560,27000,1731705,136,1.0,1000,0.0,,12/16/2008 0:00,WL440,WL440,,,,Compact,Wheel Loader - 60.0 to 80.0 Horsepower,Maryland,WL,Wheel Loader,,OROPS,None or Unspecified,,None or Unspecified,,,,,,,,2 Valve,,,,,None or Unspecified,Manual,,,,,,,,,,,,,Standard,Conventional
37197,2378561,34000,1759340,136,,1000,0.0,,11/7/2007 0:00,WL440,WL440,,,,Compact,Wheel Loader - 60.0 to 80.0 Horsepower,Texas,WL,Wheel Loader,,EROPS,None or Unspecified,,None or Unspecified,,,,,,,,2 Valve,,,,,None or Unspecified,None or Unspecified,,,,,,,,,,,,,Standard,Conventional
37197,2378563,40500,1733829,136,,1000,0.0,,12/1/2007 0:00,WL440,WL440,,,,Compact,Wheel Loader - 60.0 to 80.0 Horsepower,New York,WL,Wheel Loader,,EROPS,None or Unspecified,,None or Unspecified,,,,,,,,2 Valve,,,,,None or Unspecified,None or Unspecified,,,,,,,,,,,,,Standard,Conventional
37197,2378565,43500,1768872,136,,1000,0.0,,11/3/2007 0:00,WL440,WL440,,,,Compact,Wheel Loader - 60.0 to 80.0 Horsepower,New York,WL,Wheel Loader,,EROPS,None or Unspecified,,None or Unspecified,,,,,,,,2 Valve,,,,,None or Unspecified,None or Unspecified,,,,,,,,,,,,,Standard,Conventional
37197,2378566,42500,1704303,136,,2006,0.0,,11/17/2007 0:00,WL440,WL440,,,,Compact,Wheel Loader - 60.0 to 80.0 Horsepower,Connecticut,WL,Wheel Loader,,EROPS,None or Unspecified,,None or Unspecified,,,,,,,,2 Valve,,,,,None or Unspecified,None or Unspecified,,,,,,,,,,,,,Standard,Conventional
37197,2378567,35000,1768097,136,1.0,2007,0.0,,11/11/2008 0:00,WL440,WL440,,,,Compact,Wheel Loader - 60.0 to 80.0 Horsepower,Michigan,WL,Wheel Loader,,EROPS,None or Unspecified,,None or Unspecified,,,,,,,,2 Valve,,,,,None or Unspecified,Manual,,,,,,,,,,,,,Standard,Conventional
