ModelID,SalesID,SalePrice,MachineID,datasource,auctioneerID,YearMade,MachineHoursCurrentMeter,UsageBand,saledate,fiModelDesc,fiBaseModel,fiSecondaryDesc,fiModelSeries,fiModelDescriptor,ProductSize,fiProductClassDesc,state,ProductGroup,ProductGroupDesc,Drive_System,Enclosure,Forks,Pad_Type,Ride_Control,Stick,Transmission,Turbocharged,Blade_Extension,Blade_Width,Enclosure_Type,Engine_Horsepower,Hydraulics,Pushblock,Ripper,Scarifier,Tip_Control,Tire_Size,Coupler,Coupler_System,Grouser_Tracks,Hydraulics_Flow,Track_Type,Undercarriage_Pad_Width,Stick_Length,Thumb,Pattern_Changer,Grouser_Type,Backhoe_Mounting,Blade_Type,Travel_Controls,Differential_Type,Steering_Controls
3761,1317395,20000,14710,132,1.0,1990,,,3/30/1999 0:00,910E,910,E,,,Compact,Wheel Loader - 60.0 to 80.0 Horsepower,Maryland,WL,Wheel Loader,,EROPS,None or Unspecified,,None or Unspecified,,,,,,,,2 Valve,,,,,None or Unspecified,None or Unspecified,,,,,,,,,,,,,Standard,Conventional
3761,1317396,22500,131787,132,7.0,1990,,,3/5/1998 0:00,910E,910,E,,,Compact,Wheel Loader - 60.0 to 80.0 Horsepower,Alabama,WL,Wheel Loader,,EROPS,None or Unspecified,,None or Unspecified,,,,,,,,2 Valve,,,,,None or Unspecified,None or Unspecified,,,,,,,,,,,,,Standard,Conventional
3761,1317397,35000,1442304,132,1.0,1990,,,5/21/1991 0:00,910E,910,E,,,Compact,Wheel Loader - 60.0 to 80.0 Horsepower,Oregon,WL,Wheel Loader,,EROPS,None or Unspecified,,None or Unspecified,,,,,,,,2 Valve,,,,,None or Unspecified,None or Unspecified,,,,,,,,,,,,,Standard,Conventional
3761,1317398,11500,1440325,132,1.0,1990,,,10/14/2004 0:00,910E,910,E,,,Compact,Wheel Loader - 60.0 to 80.0 Horsepower,Florida,WL,Wheel Loader,,EROPS w AC,None or Unspecified,,None or Unspecified,,,,,,,,2 Valve,,,,,None or Unspecified,None or Unspecified,,,,,,,,,,,,,Standard,Conventional
3761,1317399,22000,1367119,132,19.0,1990,,,11/8/2001 0:00,910E,910,E,,,Compact,Wheel Loader - 60.0 to 80.0 Horsepower,California,WL,Wheel Loader,,OROPS,None or Unspecified,,None or Unspecified,,,,,,,,2 Valve,,,,,15.5,None or Unspecified,,,,,,,,,,,,,Standard,Conventional
3761,1317400,23000,603918,132,1.0,1990,,,4/11/1996 0:00,910E,910,E,,,Compact,Wheel Loader - 60.0 to 80.0 Horsepower,Texas,WL,Wheel Loader,,OROPS,None or Unspecified,,None or Unspecified,,,,,,,,2 Valve,,,,,None or Unspecified,None or Unspecified,,,,,,,,,,,,,Standard,Conventional
3761,1317401,24000,1484024,132,2.0,1990,,,6/28/1997 0:00,910E,910,E,,,Compact,Wheel Loader - 60.0 to 80.0 Horsepower,New York,WL,Wheel Loader,,EROPS w AC,None or Unspecified,,None or Unspecified,,,,,,,,2 Valve,,,,,None or Unspecified,None or Unspecified,,,,,,,,,,,,,Standard,Conventional
3761,1317403,22000,519877,132,1.0,1990,,,6/22/1999 0:00,910E,910,E,,,Compact,Wheel Loader - 60.0 to 80.0 Horsepower,Florida,WL,Wheel Loader,,OROPS,None or Unspecified,,None or Unspecified,,,,,,,,2 Valve,,,,,None or Unspecified,None or Unspecified,,,,,,,,,,,,,Standard,Conventional
3761,1317404,28500,1138676,132,2.0,1990,,,3/26/1998 0:00,910E,910,E,,,Compact,Wheel Loader - 60.0 to 80.0 Horsepower,New Jersey,WL,Wheel Loader,,EROPS,None or Unspecified,,None or Unspecified,,,,,,,,2 Valve,,,,,None or Unspecified,None or Unspecified,,,,,,,,,,,,,Standard,Conventional
3761,1317405,26000,1138676,132,2.0,1990,,,7/27/1996 0:00,910E,910,E,,,Compact,Wheel Loader - 60.0 to 80.0 Horsepower,Ohio,WL,Wheel Loader,,EROPS,None or Unspecified,,None or Unspecified,,,,,,,,2 Valve,,,,,None or Unspecified,None or Unspecified,,,,,,,,,,,,,Standard,Conventional
3761,1317406,22000,1138676,132,2.0,1990,,,2/7/2000 0:00,910E,910,E,,,Compact,Wheel Loader - 60.0 to 80.0 Horsepower,Florida,WL,Wheel Loader,,EROPS,None or Unspecified,,None or Unspecified,,,,,,,,2 Valve,,,,,None or Unspecified,None or Unspecified,,,,,,,,,,,,,Standard,Conventional
3761,1317407,22000,1138676,132,2.0,1990,122.0,Low,11/20/1999 0:00,910E,910,E,,,Compact,Wheel Loader - 60.0 to 80.0 Horsepower,Ohio,WL,Wheel Loader,,EROPS,None or Unspecified,,None or Unspecified,,,,,,,,2 Valve,,,,,None or Unspecified,None or Unspecified,,,,,,,,,,,,,Standard,Conventional
3761,1317408,27000,1138676,132,2.0,1990,,,8/7/1999 0:00,910E,910,E,,,Compact,Wheel Loader - 60.0 to 80.0 Horsepower,New York,WL,Wheel Loader,,EROPS,None or Unspecified,,None or Unspecified,,,,,,,,2 Valve,,,,,None or Unspecified,None or Unspecified,,,,,,,,,,,,,Standard,Conventional
3761,1317409,24000,1288364,132,1.0,1990,,,9/29/1999 0:00,910E,910,E,,,Compact,Wheel Loader - 60.0 to 80.0 Horsepower,Washington,WL,Wheel Loader,,EROPS,None or Unspecified,,None or Unspecified,,,,,,,,2 Valve,,,,,15.5,None or Unspecified,,,,,,,,,,,,,Standard,Conventional
3761,1317411,19000,1553402,132,1.0,1990,,,9/22/2006 0:00,910E,910,E,,,Compact,Wheel Loader - 60.0 to 80.0 Horsepower,Arizona,WL,Wheel Loader,,EROPS w AC,None or Unspecified,,None or Unspecified,,,,,,,,2 Valve,,,,,15.5,Manual,,,,,,,,,,,,,Standard,Conventional
3761,1317413,39000,1193675,132,2.0,1990,,,11/16/1994 0:00,910E,910,E,,,Compact,Wheel Loader - 60.0 to 80.0 Horsepower,New Hampshire,WL,Wheel Loader,,EROPS,None or Unspecified,,None or Unspecified,,,,,,,,3 Valve,,,,,None or Unspecified,None or Unspecified,,,,,,,,,,,,,Standard,Conventional
3761,1317415,19000,1282907,132,4.0,1990,,,5/17/2001 0:00,910E,910,E,,,Compact,Wheel Loader - 60.0 to 80.0 Horsepower,New Hampshire,WL,Wheel Loader,,EROPS,None or Unspecified,,None or Unspecified,,,,,,,,2 Valve,,,,,None or Unspecified,None or Unspecified,,,,,,,,,,,,,Standard,Conventional
3761,1317416,15500,1162164,132,4.0,1990,,,2/9/2004 0:00,910E,910,E,,,Compact,Wheel Loader - 60.0 to 80.0 Horsepower,Florida,WL,Wheel Loader,,OROPS,None or Unspecified,,None or Unspecified,,,,,,,,2 Valve,,,,,15.5,None or Unspecified,,,,,,,,,,,,,Standard,Conventional
3761,1317418,22000,1210746,132,4.0,1990,,,2/17/2001 0:00,910E,910,E,,,Compact,Wheel Loader - 60.0 to 80.0 Horsepower,Florida,WL,Wheel Loader,,OROPS,None or Unspecified,,None or Unspecified,,,,,,,,2 Valve,,,,,None or Unspecified,None or Unspecified,,,,,,,,,,,,,Standard,Conventional
3761,1317419,15500,1119483,132,1.0,1990,,,6/16/2004 0:00,910E,910,E,,,Compact,Wheel Loader - 60.0 to 80.0 Horsepower,Texas,WL,Wheel Loader,,EROPS,None or Unspecified,,None or Unspecified,,,,,,,,2 Valve,,,,,15.5,None or Unspecified,,,,,,,,,,,,,Standard,Conventional
3761,1317420,24000,1489017,132,1.0,1991,,,6/21/2000 0:00,910E,910,E,,,Compact,Wheel Loader - 60.0 to 80.0 Horsepower,Washington,WL,Wheel Loader,,EROPS,None or Unspecified,,None or Unspecified,,,,,,,,2 Valve,,,,,23.5,None or Unspecified,,,,,,,,,,,,,Standard,Conventional
3761,1317425,26000,1268580,132,6.0,1991,,,2/10/1999 0:00,910E,910,E,,,Compact,Wheel Loader - 60.0 to 80.0 Horsepower,Florida,WL,Wheel Loader,,EROPS,None or Unspecified,,None or Unspecified,,,,,,,,2 Valve,,,,,None or Unspecified,None or Unspecified,,,,,,,,,,,,,Standard,Conventional
3761,1317427,19500,1204036,132,4.0,1991,,,2/4/1999 0:00,910E,910,E,,,Compact,Wheel Loader - 60.0 to 80.0 Horsepower,Florida,WL,Wheel Loader,,EROPS,Yes,,None or Unspecified,,,,,,,,2 Valve,,,,,None or Unspecified,None or Unspecified,,,,,,,,,,,,,Standard,Conventional
3761,1317429,24000,1531693,132,2.0,1991,,,12/28/2000 0:00,910E,910,E,,,Compact,Wheel Loader - 60.0 to 80.0 Horsepower,New York,WL,Wheel Loader,,OROPS,None or Unspecified,,None or Unspecified,,,,,,,,2 Valve,,,,,None or Unspecified,None or Unspecified,,,,,,,,,,,,,Standard,Conventional
3761,1317432,25000,561488,132,22.0,1991,,,3/20/1999 0:00,910E,910,E,,,Compact,Wheel Loader - 60.0 to 80.0 Horsepower,Minnesota,WL,Wheel Loader,,OROPS,None or Unspecified,,None or Unspecified,,,,,,,,3 Valve,,,,,None or Unspecified,None or Unspecified,,,,,,,,,,,,,Standard,Conventional
3761,1317434,60000,1391217,132,4.0,1992,,,2/9/2004 0:00,910E,910,E,,,Compact,Wheel Loader - 60.0 to 80.0 Horsepower,Florida,WL,Wheel Loader,,EROPS w AC,None or Unspecified,,None or Unspecified,,,,,,,,2 Valve,,,,,None or Unspecified,None or Unspecified,,,,,,,,,,,,,Standard,Conventional
3761,1317435,23000,1478008,132,1.0,1992,,,6/11/1998 0:00,910E,910,E,,,Compact,Wheel Loader - 60.0 to 80.0 Horsepower,Florida,WL,Wheel Loader,,OROPS,None or Unspecified,,None or Unspecified,,,,,,,,2 Valve,,,,,None or Unspecified,None or Unspecified,,,,,,,,,,,,,Standard,Conventional
3761,1317439,26000,1348182,132,1.0,1992,,,3/16/1999 0:00,910E,910,E,,,Compact,Wheel Loader - 60.0 to 80.0 Horsepower,Texas,WL,Wheel Loader,,EROPS w AC,None or Unspecified,,None or Unspecified,,,,,,,,2 Valve,,,,,None or Unspecified,None or Unspecified,,,,,,,,,,,,,Standard,Conventional
3761,1317442,19000,1380768,132,1.0,1992,,,6/12/2001 0:00,910E,910,E,,,Compact,Wheel Loader - 60.0 to 80.0 Horsepower,Texas,WL,Wheel Loader,,EROPS,None or Unspecified,,None or Unspecified,,,,,,,,2 Valve,,,,,15.5,None or Unspecified,,,,,,,,,,,,,Standard,Conventional
3761,1317443,31000,1149002,132,1.0,1992,,,3/15/2001 0:00,910E,910,E,,,Compact,Wheel Loader - 60.0 to 80.0 Horsepower,Colorado,WL,Wheel Loader,,EROPS w AC,None or Unspecified,,None or Unspecified,,,,,,,,2 Valve,,,,,15.5,None or Unspecified,,,,,,,,,,,,,Standard,Conventional
3761,1317444,14000,35007,132,1.0,1992,,,12/8/2004 0:00,910E,910,E,,,Compact,Wheel Loader - 60.0 to 80.0 Horsepower,Texas,WL,Wheel Loader,,EROPS,None or Unspecified,,None or Unspecified,,,,,,,,2 Valve,,,,,15.5,None or Unspecified,,,,,,,,,,,,,Standard,Conventional
3761,1317445,13000,35007,132,1.0,1992,,,3/2/2005 0:00,910E,910,E,,,Compact,Wheel Loader - 60.0 to 80.0 Horsepower,Texas,WL,Wheel Loader,,EROPS,None or Unspecified,,None or Unspecified,,,,,,,,2 Valve,,,,,15.5,None or Unspecified,,,,,,,,,,,,,Standard,Conventional
3761,1319816,28000,1320254,132,1.0,1990,,,5/21/1998 0:00,910E,910,E,,,Compact,Wheel Loader - 60.0 to 80.0 Horsepower,California,WL,Wheel Loader,,OROPS,None or Unspecified,,None or Unspecified,,,,,,,,2 Valve,,,,,None or Unspecified,None or Unspecified,,,,,,,,,,,,,Standard,Conventional
3761,1319817,28000,1304667,132,2.0,1990,,,8/1/1998 0:00,910E,910,E,,,Compact,Wheel Loader - 60.0 to 80.0 Horsepower,Ohio,WL,Wheel Loader,,EROPS,None or Unspecified,,None or Unspecified,,,,,,,,2 Valve,,,,,None or Unspecified,None or Unspecified,,,,,,,,,,,,,Standard,Conventional
3761,1319818,25000,1304667,132,2.0,1990,,,7/18/1998 0:00,910E,910,E,,,Compact,Wheel Loader - 60.0 to 80.0 Horsepower,New York,WL,Wheel Loader,,EROPS,None or Unspecified,,None or Unspecified,,,,,,,,2 Valve,,,,,None or Unspecified,None or Unspecified,,,,,,,,,,,,,Standard,Conventional
3761,1319821,23500,1364169,132,9.0,1990,,,12/8/1999 0:00,910E,910,E,,,Compact,Wheel Loader - 60.0 to 80.0 Horsepower,South Carolina,WL,Wheel Loader,,OROPS,None or Unspecified,,None or Unspecified,,,,,,,,2 Valve,,,,,None or Unspecified,None or Unspecified,,,,,,,,,,,,,Standard,Conventional
3761,1319822,22500,1364169,132,9.0,1990,,,2/15/2000 0:00,910E,910,E,,,Compact,Wheel Loader - 60.0 to 80.0 Horsepower,Florida,WL,Wheel Loader,,OROPS,None or Unspecified,,None or Unspecified,,,,,,,,2 Valve,,,,,None or Unspecified,None or Unspecified,,,,,,,,,,,,,Standard,Conventional
3761,1319825,11000,1301661,132,1.0,1990,,,9/19/2002 0:00,910E,910,E,,,Compact,Wheel Loader - 60.0 to 80.0 Horsepower,Georgia,WL,Wheel Loader,,OROPS,None or Unspecified,,None or Unspecified,,,,,,,,2 Valve,,,,,None or Unspecified,None or Unspecified,,,,,,,,,,,,,Standard,Conventional
3761,1319826,21500,1301661,132,4.0,1990,,,2/4/1999 0:00,910E,910,E,,,Compact,Wheel Loader - 60.0 to 80.0 Horsepower,Florida,WL,Wheel Loader,,OROPS,None or Unspecified,,None or Unspecified,,,,,,,,2 Valve,,,,,None or Unspecified,None or Unspecified,,,,,,,,,,,,,Standard,Conventional
3761,1319831,19000,1507158,132,1.0,1990,,,11/17/1998 0:00,910E,910,E,,,Compact,Wheel Loader - 60.0 to 80.0 Horsepower,Texas,WL,Wheel Loader,,OROPS,None or Unspecified,,None or Unspecified,,,,,,,,2 Valve,,,,,None or Unspecified,None or Unspecified,,,,,,,,,,,,,Standard,Conventional
3761,1319832,30000,57901,132,2.0,1990,1700.0,Medium,2/10/1994 0:00,910E,910,E,,,Compact,Wheel Loader - 60.0 to 80.0 Horsepower,Florida,WL,Wheel Loader,,EROPS,None or Unspecified,,None or Unspecified,,,,,,,,2 Valve,,,,,None or Unspecified,None or Unspecified,,,,,,,,,,,,,Standard,Conventional
3761,1319838,16000,1297498,132,1.0,1991,,,10/4/2001 0:00,910E,910,E,,,Compact,Wheel Loader - 60.0 to 80.0 Horsepower,Colorado,WL,Wheel Loader,,OROPS,None or Unspecified,,None or Unspecified,,,,,,,,2 Valve,,,,,None or Unspecified,None or Unspecified,,,,,,,,,,,,,Standard,Conventional
3761,1319839,12500,1297498,132,1.0,1991,,,9/25/2006 0:00,910E,910,E,,,Compact,Wheel Loader - 60.0 to 80.0 Horsepower,Colorado,WL,Wheel Loader,,OROPS,None or Unspecified,,None or Unspecified,,,,,,,,2 Valve,,,,,None or Unspecified,None or Unspecified,,,,,,,,,,,,,Standard,Conventional
3761,1319840,28000,1405494,132,1.0,1992,,,9/17/1998 0:00,910E,910,E,,,Compact,Wheel Loader - 60.0 to 80.0 Horsepower,Washington,WL,Wheel Loader,,EROPS,None or Unspecified,,None or Unspecified,,,,,,,,2 Valve,,,,,None or Unspecified,None or Unspecified,,,,,,,,,,,,,Standard,Conventional
3761,1319843,21000,1081043,132,25.0,1991,,,6/26/1999 0:00,910E,910,E,,,Compact,Wheel Loader - 60.0 to 80.0 Horsepower,California,WL,Wheel Loader,,EROPS w AC,None or Unspecified,,None or Unspecified,,,,,,,,2 Valve,,,,,None or Unspecified,None or Unspecified,,,,,,,,,,,,,Standard,Conventional
3761,1319844,23500,1296820,132,9.0,1992,,,4/6/2000 0:00,910E,910,E,,,Compact,Wheel Loader - 60.0 to 80.0 Horsepower,Texas,WL,Wheel Loader,,OROPS,None or Unspecified,,None or Unspecified,,,,,,,,2 Valve,,,,,None or Unspecified,None or Unspecified,,,,,,,,,,,,,Standard,Conventional
3761,1319845,16000,1445112,132,2.0,1992,,,2/7/2000 0:00,910E,910,E,,,Compact,Wheel Loader - 60.0 to 80.0 Horsepower,Florida,WL,Wheel Loader,,OROPS,None or Unspecified,,None or Unspecified,,,,,,,,2 Valve,,,,,None or Unspecified,None or Unspecified,,,,,,,,,,,,,Standard,Conventional
3761,1319849,39000,1541617,132,4.0,1992,,,2/5/1998 0:00,910E,910,E,,,Compact,Wheel Loader - 60.0 to 80.0 Horsepower,Florida,WL,Wheel Loader,,OROPS,None or Unspecified,,None or Unspecified,,,,,,,,2 Valve,,,,,None or Unspecified,None or Unspecified,,,,,,,,,,,,,Standard,Conventional
3761,1319850,25000,1541617,132,6.0,1992,,,5/5/1998 0:00,910E,910,E,,,Compact,Wheel Loader - 60.0 to 80.0 Horsepower,Florida,WL,Wheel Loader,,OROPS,None or Unspecified,,None or Unspecified,,,,,,,,2 Valve,,,,,None or Unspecified,None or Unspecified,,,,,,,,,,,,,Standard,Conventional
3761,1319851,32000,1541617,132,2.0,1992,,,5/15/1999 0:00,910E,910,E,,,Compact,Wheel Loader - 60.0 to 80.0 Horsepower,New York,WL,Wheel Loader,,OROPS,None or Unspecified,,None or Unspecified,,,,,,,,2 Valve,,,,,None or Unspecified,None or Unspecified,,,,,,,,,,,,,Standard,Conventional
3761,1319853,30000,1380828,132,1.0,1993,,,6/22/1999 0:00,910E,910,E,,,Compact,Wheel Loader - 60.0 to 80.0 Horsepower,Washington,WL,Wheel Loader,,EROPS w AC,None or Unspecified,,None or Unspecified,,,,,,,,2 Valve,,,,,None or Unspecified,None or Unspecified,,,,,,,,,,,,,Standard,Conventional
3761,2220872,18500,1165155,136,1.0,1990,,,9/11/2007 0:00,910E,910,E,,,Compact,Wheel Loader - 60.0 to 80.0 Horsepower,Ohio,WL,Wheel Loader,,EROPS,None or Unspecified,,None or Unspecified,,,,,,,,2 Valve,,,,,15.5,None or Unspecified,,,,,,,,,,,,,Standard,Conventional
3761,2220874,17500,1288364,136,1.0,1000,,,3/4/2010 0:00,910E,910,E,,,Compact,Wheel Loader - 60.0 to 80.0 Horsepower,Washington,WL,Wheel Loader,,EROPS,None or Unspecified,,None or Unspecified,,,,,,,,2 Valve,,,,,15.5,None or Unspecified,,,,,,,,,,,,,Standard,Conventional
3761,2220875,14500,1553402,136,1.0,1990,21802.0,High,11/10/2007 0:00,910E,910,E,,,Compact,Wheel Loader - 60.0 to 80.0 Horsepower,California,WL,Wheel Loader,,EROPS w AC,None or Unspecified,,None or Unspecified,,,,,,,,2 Valve,,,,,15.5,Manual,,,,,,,,,,,,,Standard,Conventional
3761,2220877,16000,53459,136,1.0,1991,,,12/6/2007 0:00,910E,910,E,,,Compact,Wheel Loader - 60.0 to 80.0 Horsepower,Texas,WL,Wheel Loader,,OROPS,None or Unspecified,,None or Unspecified,,,,,,,,2 Valve,,,,,None or Unspecified,None or Unspecified,,,,,,,,,,,,,Standard,Conventional
3761,2220878,20500,1765034,136,,1991,,,4/18/2007 0:00,910E,910,E,,,Compact,Wheel Loader - 60.0 to 80.0 Horsepower,Arkansas,WL,Wheel Loader,,EROPS,None or Unspecified,,None or Unspecified,,,,,,,,2 Valve,,,,,None or Unspecified,None or Unspecified,,,,,,,,,,,,,Standard,Conventional
3761,2221693,16000,1384991,136,2.0,1991,,,3/27/2008 0:00,910E,910,E,,,Compact,Wheel Loader - 60.0 to 80.0 Horsepower,New Jersey,WL,Wheel Loader,,EROPS,None or Unspecified,,None or Unspecified,,,,,,,,2 Valve,,,,,None or Unspecified,None or Unspecified,,,,,,,,,,,,,Standard,Conventional
3761,2221695,10000,1257187,136,1.0,1991,,,6/10/2009 0:00,910E,910,E,,,Compact,Wheel Loader - 60.0 to 80.0 Horsepower,Texas,WL,Wheel Loader,,OROPS,None or Unspecified,,None or Unspecified,,,,,,,,2 Valve,,,,,None or Unspecified,None or Unspecified,,,,,,,,,,,,,Standard,Conventional
3761,2221699,26000,1146034,136,4.0,1992,180000.0,High,4/16/2009 0:00,910E,910,E,,,Compact,Wheel Loader - 60.0 to 80.0 Horsepower,Pennsylvania,WL,Wheel Loader,,EROPS,None or Unspecified,,None or Unspecified,,,,,,,,2 Valve,,,,,None or Unspecified,None or Unspecified,,,,,,,,,,,,,Standard,Conventional
3761,2514646,12500,1845629,149,2.0,1993,0.0,,8/21/2010 0:00,910E,910,E,,,Compact,Wheel Loader - 60.0 to 80.0 Horsepower,Ohio,WL,Wheel Loader,,EROPS,None or Unspecified,,None or Unspecified,,,,,,,,2 Valve,,,,,None or Unspecified,None or Unspecified,,,,,,,,,,,,,Standard,Conventional
3761,2514647,11500,111177,149,1.0,1992,2441.0,Low,3/30/2011 0:00,910E,910,E,,,Compact,Wheel Loader - 60.0 to 80.0 Horsepower,North Carolina,WL,Wheel Loader,,OROPS,None or Unspecified,,None or Unspecified,,,,,,,,2 Valve,,,,,None or Unspecified,None or Unspecified,,,,,,,,,,,,,Standard,Conventional
3761,2514649,11500,111177,149,99.0,1992,2441.0,Low,4/16/2011 0:00,910E,910,E,,,Compact,Wheel Loader - 60.0 to 80.0 Horsepower,Iowa,WL,Wheel Loader,,OROPS,None or Unspecified,,None or Unspecified,,,,,,,,2 Valve,,,,,None or Unspecified,None or Unspecified,,,,,,,,,,,,,Standard,Conventional
3761,4256503,9000,2284349,172,1.0,1990,,,2/15/2010 0:00,910E,910,E,,,Compact,Wheel Loader - 60.0 to 80.0 Horsepower,Florida,WL,Wheel Loader,,OROPS,None or Unspecified,,None or Unspecified,,,,,,,,2 Valve,,,,,None or Unspecified,None or Unspecified,,,,,,,,,,,,,Standard,Conventional
3761,6260885,10000,111177,149,1.0,1992,,,6/30/2011 0:00,910E,910,E,,,Compact,Wheel Loader - 60.0 to 80.0 Horsepower,North Carolina,WL,Wheel Loader,,OROPS,None or Unspecified,,None or Unspecified,,,,,,,,2 Valve,,,,,None or Unspecified,None or Unspecified,,,,,,,,,,,,,Standard,Conventional
