ModelID,SalesID,SalePrice,MachineID,datasource,auctioneerID,YearMade,MachineHoursCurrentMeter,UsageBand,saledate,fiModelDesc,fiBaseModel,fiSecondaryDesc,fiModelSeries,fiModelDescriptor,ProductSize,fiProductClassDesc,state,ProductGroup,ProductGroupDesc,Drive_System,Enclosure,Forks,Pad_Type,Ride_Control,Stick,Transmission,Turbocharged,Blade_Extension,Blade_Width,Enclosure_Type,Engine_Horsepower,Hydraulics,Pushblock,Ripper,Scarifier,Tip_Control,Tire_Size,Coupler,Coupler_System,Grouser_Tracks,Hydraulics_Flow,Track_Type,Undercarriage_Pad_Width,Stick_Length,Thumb,Pattern_Changer,Grouser_Type,Backhoe_Mounting,Blade_Type,Travel_Controls,Differential_Type,Steering_Controls
3771,1394702,10000,1130147,132,6.0,1963,,,2/16/1996 0:00,922B,922,B,,,,Wheel Loader - 90.0 to 100.0 Horsepower,Florida,WL,Wheel Loader,,OROPS,None or Unspecified,,None or Unspecified,,,,,,,,2 Valve,,,,,None or Unspecified,None or Unspecified,,,,,,,,,,,,,Standard,Conventional
3771,1394714,8750,1380383,132,2.0,1963,,,9/6/1997 0:00,922B,922,B,,,,Wheel Loader - 90.0 to 100.0 Horsepower,New York,WL,Wheel Loader,,EROPS,None or Unspecified,,None or Unspecified,,,,,,,,2 Valve,,,,,None or Unspecified,None or Unspecified,,,,,,,,,,,,,Standard,Conventional
3771,1394741,10000,1233642,132,1.0,1965,,,6/29/1994 0:00,922B,922,B,,,,Wheel Loader - 90.0 to 100.0 Horsepower,Illinois,WL,Wheel Loader,,EROPS,None or Unspecified,,None or Unspecified,,,,,,,,2 Valve,,,,,None or Unspecified,None or Unspecified,,,,,,,,,,,,,Standard,Conventional
3771,1483349,12000,1096313,132,2.0,1968,,,11/4/1995 0:00,922B,922,B,,,,Wheel Loader - 90.0 to 100.0 Horsepower,New Hampshire,WL,Wheel Loader,,EROPS,None or Unspecified,,None or Unspecified,,,,,,,,3 Valve,,,,,None or Unspecified,None or Unspecified,,,,,,,,,,,,,Standard,Conventional
3771,1483352,21000,1357267,132,2.0,1968,,,4/9/1994 0:00,922B,922,B,,,,Wheel Loader - 90.0 to 100.0 Horsepower,New York,WL,Wheel Loader,,EROPS,None or Unspecified,,None or Unspecified,,,,,,,,2 Valve,,,,,None or Unspecified,None or Unspecified,,,,,,,,,,,,,Standard,Conventional
3771,1483353,9500,1406971,132,1.0,1968,,,4/12/1990 0:00,922B,922,B,,,,Wheel Loader - 90.0 to 100.0 Horsepower,Texas,WL,Wheel Loader,,OROPS,None or Unspecified,,None or Unspecified,,,,,,,,2 Valve,,,,,None or Unspecified,None or Unspecified,,,,,,,,,,,,,Standard,Conventional
3771,1483355,9000,1387154,132,1.0,1968,,,10/12/1993 0:00,922B,922,B,,,,Wheel Loader - 90.0 to 100.0 Horsepower,Colorado,WL,Wheel Loader,,OROPS,None or Unspecified,,None or Unspecified,,,,,,,,2 Valve,,,,,None or Unspecified,None or Unspecified,,,,,,,,,,,,,Standard,Conventional
3771,1483362,9500,1360621,132,1.0,1969,,,4/12/1990 0:00,922B,922,B,,,,Wheel Loader - 90.0 to 100.0 Horsepower,Texas,WL,Wheel Loader,,OROPS,None or Unspecified,,None or Unspecified,,,,,,,,2 Valve,,,,,None or Unspecified,None or Unspecified,,,,,,,,,,,,,Standard,Conventional
3771,1483363,8500,1373225,132,1.0,1969,,,8/22/1989 0:00,922B,922,B,,,,Wheel Loader - 90.0 to 100.0 Horsepower,Colorado,WL,Wheel Loader,,OROPS,None or Unspecified,,None or Unspecified,,,,,,,,2 Valve,,,,,None or Unspecified,None or Unspecified,,,,,,,,,,,,,Standard,Conventional
3771,1483368,9500,1484648,132,1.0,1968,,,4/12/1990 0:00,922B,922,B,,,,Wheel Loader - 90.0 to 100.0 Horsepower,Texas,WL,Wheel Loader,,OROPS,None or Unspecified,,None or Unspecified,,,,,,,,2 Valve,,,,,None or Unspecified,None or Unspecified,,,,,,,,,,,,,Standard,Conventional
3771,1507906,9250,1544627,132,2.0,1965,,,9/23/1995 0:00,922B,922,B,,,,Wheel Loader - 90.0 to 100.0 Horsepower,New York,WL,Wheel Loader,,OROPS,None or Unspecified,,None or Unspecified,,,,,,,,2 Valve,,,,,None or Unspecified,None or Unspecified,,,,,,,,,,,,,Standard,Conventional
3771,1507914,9100,1215991,132,18.0,1965,,,11/1/1990 0:00,922B,922,B,,,,Wheel Loader - 90.0 to 100.0 Horsepower,New Jersey,WL,Wheel Loader,,EROPS,Yes,,None or Unspecified,,,,,,,,2 Valve,,,,,17.5,None or Unspecified,,,,,,,,,,,,,Standard,Conventional
3771,1507921,9000,1548322,132,1.0,1965,,,6/28/1990 0:00,922B,922,B,,,,Wheel Loader - 90.0 to 100.0 Horsepower,Colorado,WL,Wheel Loader,,EROPS,None or Unspecified,,None or Unspecified,,,,,,,,2 Valve,,,,,None or Unspecified,None or Unspecified,,,,,,,,,,,,,Standard,Conventional
3771,1507922,19500,1410437,132,2.0,1965,,,5/4/1996 0:00,922B,922,B,,,,Wheel Loader - 90.0 to 100.0 Horsepower,New Hampshire,WL,Wheel Loader,,OROPS,None or Unspecified,,None or Unspecified,,,,,,,,2 Valve,,,,,None or Unspecified,None or Unspecified,,,,,,,,,,,,,Standard,Conventional
3771,1507926,10000,1527094,132,4.0,1966,,,10/19/1993 0:00,922B,922,B,,,,Wheel Loader - 90.0 to 100.0 Horsepower,Ohio,WL,Wheel Loader,,EROPS,None or Unspecified,,None or Unspecified,,,,,,,,2 Valve,,,,,None or Unspecified,None or Unspecified,,,,,,,,,,,,,Standard,Conventional
3771,1507928,8500,1429347,132,18.0,1966,,,11/1/1990 0:00,922B,922,B,,,,Wheel Loader - 90.0 to 100.0 Horsepower,New Jersey,WL,Wheel Loader,,EROPS,None or Unspecified,,None or Unspecified,,,,,,,,2 Valve,,,,,None or Unspecified,None or Unspecified,,,,,,,,,,,,,Standard,Conventional
3771,1507944,9500,1445074,132,4.0,1966,,,2/11/1994 0:00,922B,922,B,,,,Wheel Loader - 90.0 to 100.0 Horsepower,Florida,WL,Wheel Loader,,OROPS,None or Unspecified,,None or Unspecified,,,,,,,,2 Valve,,,,,None or Unspecified,None or Unspecified,,,,,,,,,,,,,Standard,Conventional
3771,1507945,8750,1539420,132,23.0,1967,,,6/1/1996 0:00,922B,922,B,,,,Wheel Loader - 90.0 to 100.0 Horsepower,Maine,WL,Wheel Loader,,EROPS,None or Unspecified,,None or Unspecified,,,,,,,,2 Valve,,,,,None or Unspecified,None or Unspecified,,,,,,,,,,,,,Standard,Conventional
3771,1507949,9750,1207366,132,20.0,1967,,,7/13/1995 0:00,922B,922,B,,,,Wheel Loader - 90.0 to 100.0 Horsepower,Oklahoma,WL,Wheel Loader,,OROPS,None or Unspecified,,None or Unspecified,,,,,,,,2 Valve,,,,,None or Unspecified,None or Unspecified,,,,,,,,,,,,,Standard,Conventional
3771,1507954,9000,1142689,132,22.0,1967,,,3/21/1998 0:00,922B,922,B,,,,Wheel Loader - 90.0 to 100.0 Horsepower,Minnesota,WL,Wheel Loader,,OROPS,None or Unspecified,,None or Unspecified,,,,,,,,2 Valve,,,,,None or Unspecified,None or Unspecified,,,,,,,,,,,,,Standard,Conventional
3771,1507959,9000,1091269,132,6.0,1967,,,4/7/1989 0:00,922B,922,B,,,,Wheel Loader - 90.0 to 100.0 Horsepower,Wyoming,WL,Wheel Loader,,OROPS,None or Unspecified,,None or Unspecified,,,,,,,,2 Valve,,,,,None or Unspecified,None or Unspecified,,,,,,,,,,,,,Standard,Conventional
3771,1507961,14000,1467485,132,6.0,1967,,,10/23/1997 0:00,922B,922,B,,,,Wheel Loader - 90.0 to 100.0 Horsepower,Kansas,WL,Wheel Loader,,OROPS,None or Unspecified,,None or Unspecified,,,,,,,,2 Valve,,,,,None or Unspecified,None or Unspecified,,,,,,,,,,,,,Standard,Conventional
3771,1507962,9000,1367161,132,18.0,1967,,,5/25/1993 0:00,922B,922,B,,,,Wheel Loader - 90.0 to 100.0 Horsepower,Pennsylvania,WL,Wheel Loader,,EROPS,None or Unspecified,,None or Unspecified,,,,,,,,2 Valve,,,,,None or Unspecified,None or Unspecified,,,,,,,,,,,,,Standard,Conventional
3771,1507972,13500,1099372,132,1.0,1967,,,3/13/2002 0:00,922B,922,B,,,,Wheel Loader - 90.0 to 100.0 Horsepower,Illinois,WL,Wheel Loader,,EROPS,None or Unspecified,,None or Unspecified,,,,,,,,2 Valve,,,,,17.5,None or Unspecified,,,,,,,,,,,,,Standard,Conventional
3771,2268556,8500,105741,136,10.0,1968,0.0,,9/20/2007 0:00,922B,922,B,,,,Wheel Loader - 90.0 to 100.0 Horsepower,Louisiana,WL,Wheel Loader,,EROPS,None or Unspecified,,None or Unspecified,,,,,,,,2 Valve,,,,,None or Unspecified,None or Unspecified,,,,,,,,,,,,,Standard,Conventional
3771,2274990,10500,1371326,136,1.0,1966,0.0,,2/12/2008 0:00,922B,922,B,,,,Wheel Loader - 90.0 to 100.0 Horsepower,Arizona,WL,Wheel Loader,,EROPS,None or Unspecified,,None or Unspecified,,,,,,,,2 Valve,,,,,None or Unspecified,None or Unspecified,,,,,,,,,,,,,Standard,Conventional
3771,2274991,9000,1521523,136,17.0,1966,0.0,,10/9/2007 0:00,922B,922,B,,,,Wheel Loader - 90.0 to 100.0 Horsepower,Idaho,WL,Wheel Loader,,EROPS,None or Unspecified,,None or Unspecified,,,,,,,,2 Valve,,,,,17.5,None or Unspecified,,,,,,,,,,,,,Standard,Conventional
