ModelID,SalesID,SalePrice,MachineID,datasource,auctioneerID,YearMade,MachineHoursCurrentMeter,UsageBand,saledate,fiModelDesc,fiBaseModel,fiSecondaryDesc,fiModelSeries,fiModelDescriptor,ProductSize,fiProductClassDesc,state,ProductGroup,ProductGroupDesc,Drive_System,Enclosure,Forks,Pad_Type,Ride_Control,Stick,Transmission,Turbocharged,Blade_Extension,Blade_Width,Enclosure_Type,Engine_Horsepower,Hydraulics,Pushblock,Ripper,Scarifier,Tip_Control,Tire_Size,Coupler,Coupler_System,Grouser_Tracks,Hydraulics_Flow,Track_Type,Undercarriage_Pad_Width,Stick_Length,Thumb,Pattern_Changer,Grouser_Type,Backhoe_Mounting,Blade_Type,Travel_Controls,Differential_Type,Steering_Controls
3786,1149068,54000,24383,121,3.0,2005,3714.0,Medium,9/2/2010 0:00,930G,930,G,,,Medium,Wheel Loader - 135.0 to 150.0 Horsepower,Alabama,WL,Wheel Loader,,EROPS w AC,Yes,,None or Unspecified,,,,,,,,3 Valve,,,,,None or Unspecified,Hydraulic,,,,,,,,,,,,,Standard,Conventional
3786,1149627,96000,528746,121,3.0,2006,2155.0,High,4/12/2007 0:00,930G,930,G,,,Medium,Wheel Loader - 135.0 to 150.0 Horsepower,Florida,WL,Wheel Loader,,EROPS w AC,Yes,,None or Unspecified,,,,,,,,3 Valve,,,,,None or Unspecified,Manual,,,,,,,,,,,,,Standard,Conventional
3786,1157086,63000,784994,121,3.0,2006,1559.0,Low,2/25/2010 0:00,930G,930,G,,,Medium,Wheel Loader - 135.0 to 150.0 Horsepower,Florida,WL,Wheel Loader,,OROPS,None or Unspecified,,None or Unspecified,,,,,,,,3 Valve,,,,,20.5,Manual,,,,,,,,,,,,,Standard,Conventional
3786,1160490,61000,362955,121,3.0,2006,1947.0,Medium,6/18/2009 0:00,930G,930,G,,,Medium,Wheel Loader - 135.0 to 150.0 Horsepower,Arizona,WL,Wheel Loader,,EROPS w AC,None or Unspecified,,Yes,,,,,,,,2 Valve,,,,,20.5,None or Unspecified,,,,,,,,,,,,,Standard,Conventional
3786,1168128,97000,531065,121,3.0,2006,1919.0,High,5/17/2007 0:00,930G,930,G,,,Medium,Wheel Loader - 135.0 to 150.0 Horsepower,New York,WL,Wheel Loader,,EROPS w AC,Yes,,None or Unspecified,,,,,,,,3 Valve,,,,,None or Unspecified,Manual,,,,,,,,,,,,,Standard,Conventional
3786,1168296,54000,1015270,121,3.0,2006,5099.0,High,8/20/2009 0:00,930G,930,G,,,Medium,Wheel Loader - 135.0 to 150.0 Horsepower,California,WL,Wheel Loader,,EROPS w AC,Yes,,Yes,,,,,,,,4 Valve,,,,,20.5,Manual,,,,,,,,,,,,,Standard,Conventional
3786,1170792,60000,768315,121,3.0,2005,1804.0,Medium,10/25/2007 0:00,930G,930,G,,,Medium,Wheel Loader - 135.0 to 150.0 Horsepower,Florida,WL,Wheel Loader,,OROPS,None or Unspecified,,None or Unspecified,,,,,,,,2 Valve,,,,,20.5,None or Unspecified,,,,,,,,,,,,,Standard,Conventional
3786,1171562,59000,771160,121,3.0,2005,1548.0,Low,7/2/2009 0:00,930G,930,G,,,Medium,Wheel Loader - 135.0 to 150.0 Horsepower,Georgia,WL,Wheel Loader,,EROPS w AC,None or Unspecified,,None or Unspecified,,,,,,,,3 Valve,,,,,20.5,Hydraulic,,,,,,,,,,,,,Standard,Conventional
3786,1173008,64000,57652,121,3.0,2006,6438.0,High,5/12/2011 0:00,930G,930,G,,,Medium,Wheel Loader - 135.0 to 150.0 Horsepower,Louisiana,WL,Wheel Loader,,EROPS w AC,Yes,,None or Unspecified,,,,,,,,2 Valve,,,,,None or Unspecified,Hydraulic,,,,,,,,,,,,,Standard,Conventional
3786,1176608,69000,785800,121,3.0,2005,1085.0,Low,1/31/2008 0:00,930G,930,G,,,Medium,Wheel Loader - 135.0 to 150.0 Horsepower,Florida,WL,Wheel Loader,,OROPS,None or Unspecified,,None or Unspecified,,,,,,,,2 Valve,,,,,20.5,None or Unspecified,,,,,,,,,,,,,Standard,Conventional
3786,1176614,68000,781630,121,3.0,2005,2065.0,Medium,1/31/2008 0:00,930G,930,G,,,Medium,Wheel Loader - 135.0 to 150.0 Horsepower,Florida,WL,Wheel Loader,,OROPS,Yes,,None or Unspecified,,,,,,,,3 Valve,,,,,20.5,Manual,,,,,,,,,,,,,Limited Slip,Conventional
3786,1183324,79000,1063443,121,3.0,2005,3287.0,Medium,10/16/2008 0:00,930G,930,G,,,Medium,Wheel Loader - 135.0 to 150.0 Horsepower,Colorado,WL,Wheel Loader,,EROPS w AC,None or Unspecified,,Yes,,,,,,,,2 Valve,,,,,20.5,None or Unspecified,,,,,,,,,,,,,Limited Slip,Conventional
3786,1184453,70000,384388,121,3.0,2005,2424.0,Medium,11/6/2008 0:00,930G,930,G,,,Medium,Wheel Loader - 135.0 to 150.0 Horsepower,Arizona,WL,Wheel Loader,,EROPS w AC,None or Unspecified,,None or Unspecified,,,,,,,,2 Valve,,,,,20.5,None or Unspecified,,,,,,,,,,,,,Standard,Conventional
3786,1184606,62000,275478,121,3.0,2005,2920.0,Medium,11/25/2008 0:00,930G,930,G,,,Medium,Wheel Loader - 135.0 to 150.0 Horsepower,Texas,WL,Wheel Loader,,EROPS w AC,Yes,,Yes,,,,,,,,3 Valve,,,,,20.5,Hydraulic,,,,,,,,,,,,,Limited Slip,Conventional
3786,1185618,69000,382307,121,3.0,2005,2740.0,Medium,12/4/2008 0:00,930G,930,G,,,Medium,Wheel Loader - 135.0 to 150.0 Horsepower,Arizona,WL,Wheel Loader,,EROPS w AC,None or Unspecified,,None or Unspecified,,,,,,,,2 Valve,,,,,20.5,Manual,,,,,,,,,,,,,Standard,Conventional
3786,1186236,73000,305933,121,3.0,2005,1151.0,Low,12/18/2008 0:00,930G,930,G,,,Medium,Wheel Loader - 135.0 to 150.0 Horsepower,Nevada,WL,Wheel Loader,,EROPS w AC,None or Unspecified,,Yes,,,,,,,,3 Valve,,,,,20.5,Manual,,,,,,,,,,,,,Standard,Conventional
3786,1187062,45000,795564,121,3.0,2005,3627.0,Medium,1/29/2009 0:00,930G,930,G,,,Medium,Wheel Loader - 135.0 to 150.0 Horsepower,Florida,WL,Wheel Loader,,OROPS,Yes,,None or Unspecified,,,,,,,,3 Valve,,,,,20.5,Hydraulic,,,,,,,,,,,,,Standard,Conventional
3786,1187551,55000,779503,121,3.0,2007,2085.0,Medium,1/29/2009 0:00,930G,930,G,,,Medium,Wheel Loader - 135.0 to 150.0 Horsepower,Florida,WL,Wheel Loader,,OROPS,Yes,,None or Unspecified,,,,,,,,3 Valve,,,,,20.5,Manual,,,,,,,,,,,,,Standard,Conventional
3786,1189425,43000,772463,121,3.0,2005,2633.0,Medium,4/30/2009 0:00,930G,930,G,,,Medium,Wheel Loader - 135.0 to 150.0 Horsepower,Florida,WL,Wheel Loader,,OROPS,Yes,,None or Unspecified,,,,,,,,3 Valve,,,,,20.5,Manual,,,,,,,,,,,,,Standard,Conventional
3786,1191079,53000,799949,121,3.0,2006,2061.0,Medium,6/11/2009 0:00,930G,930,G,,,Medium,Wheel Loader - 135.0 to 150.0 Horsepower,Florida,WL,Wheel Loader,,OROPS,None or Unspecified,,None or Unspecified,,,,,,,,3 Valve,,,,,20.5,Hydraulic,,,,,,,,,,,,,Standard,Conventional
3786,1192078,61000,1052906,121,3.0,2006,1827.0,Medium,9/24/2009 0:00,930G,930,G,,,Medium,Wheel Loader - 135.0 to 150.0 Horsepower,Texas,WL,Wheel Loader,,EROPS w AC,Yes,,None or Unspecified,,,,,,,,2 Valve,,,,,20.5,Hydraulic,,,,,,,,,,,,,Standard,Conventional
3786,1194532,69000,201069,121,3.0,2006,1922.0,Medium,11/5/2009 0:00,930G,930,G,,,Medium,Wheel Loader - 135.0 to 150.0 Horsepower,Colorado,WL,Wheel Loader,,EROPS w AC,None or Unspecified,,Yes,,,,,,,,2 Valve,,,,,None or Unspecified,None or Unspecified,,,,,,,,,,,,,Limited Slip,Conventional
3786,1194533,72000,212761,121,3.0,2006,2428.0,Medium,11/5/2009 0:00,930G,930,G,,,Medium,Wheel Loader - 135.0 to 150.0 Horsepower,Colorado,WL,Wheel Loader,,EROPS w AC,None or Unspecified,,Yes,,,,,,,,2 Valve,,,,,20.5,None or Unspecified,,,,,,,,,,,,,Limited Slip,Conventional
3786,1194548,58000,191441,121,3.0,2006,4529.0,High,11/12/2009 0:00,930G,930,G,,,Medium,Wheel Loader - 135.0 to 150.0 Horsepower,Colorado,WL,Wheel Loader,,EROPS w AC,None or Unspecified,,Yes,,,,,,,,2 Valve,,,,,20.5,None or Unspecified,,,,,,,,,,,,,Limited Slip,Conventional
3786,1194557,66000,195197,121,3.0,2006,2297.0,Medium,11/19/2009 0:00,930G,930,G,,,Medium,Wheel Loader - 135.0 to 150.0 Horsepower,Colorado,WL,Wheel Loader,,EROPS w AC,None or Unspecified,,Yes,,,,,,,,2 Valve,,,,,20.5,None or Unspecified,,,,,,,,,,,,,Limited Slip,Conventional
3786,1204106,47000,352688,121,3.0,2005,10712.0,High,8/12/2010 0:00,930G,930,G,,,Medium,Wheel Loader - 135.0 to 150.0 Horsepower,West Virginia,WL,Wheel Loader,,EROPS w AC,None or Unspecified,,Yes,,,,,,,,3 Valve,,,,,20.5,Manual,,,,,,,,,,,,,Standard,Conventional
3786,1208303,48000,325130,121,3.0,2005,9333.0,High,10/28/2010 0:00,930G,930,G,,,Medium,Wheel Loader - 135.0 to 150.0 Horsepower,West Virginia,WL,Wheel Loader,,EROPS w AC,Yes,,Yes,,,,,,,,3 Valve,,,,,20.5,Hydraulic,,,,,,,,,,,,,Standard,Conventional
3786,1210713,81000,699805,121,3.0,2005,3507.0,Medium,1/27/2011 0:00,930G,930,G,,,Medium,Wheel Loader - 135.0 to 150.0 Horsepower,Illinois,WL,Wheel Loader,,EROPS w AC,Yes,,Yes,,,,,,,,3 Valve,,,,,20.5,Hydraulic,,,,,,,,,,,,,Standard,Conventional
3786,1213586,105000,322315,121,3.0,2007,1842.0,Low,3/31/2011 0:00,930G,930,G,,,Medium,Wheel Loader - 135.0 to 150.0 Horsepower,West Virginia,WL,Wheel Loader,,EROPS w AC,Yes,,Yes,,,,,,,,3 Valve,,,,,20.5,Hydraulic,,,,,,,,,,,,,Standard,Conventional
3786,1213930,86000,645388,121,3.0,2007,3410.0,Medium,4/21/2011 0:00,930G,930,G,,,Medium,Wheel Loader - 135.0 to 150.0 Horsepower,Washington,WL,Wheel Loader,,EROPS w AC,Yes,,Yes,,,,,,,,2 Valve,,,,,20.5,Hydraulic,,,,,,,,,,,,,Standard,Conventional
3786,1213962,73000,334287,121,3.0,2006,7090.0,High,4/28/2011 0:00,930G,930,G,,,Medium,Wheel Loader - 135.0 to 150.0 Horsepower,Pennsylvania,WL,Wheel Loader,,EROPS w AC,None or Unspecified,,Yes,,,,,,,,3 Valve,,,,,20.5,Hydraulic,,,,,,,,,,,,,Standard,Conventional
3786,1214273,72500,372948,121,3.0,2005,3023.0,Medium,4/20/2011 0:00,930G,930,G,,,Medium,Wheel Loader - 135.0 to 150.0 Horsepower,Arizona,WL,Wheel Loader,,EROPS w AC,None or Unspecified,,Yes,,,,,,,,2 Valve,,,,,20.5,None or Unspecified,,,,,,,,,,,,,Standard,Conventional
3786,1216009,70000,1011024,121,3.0,2005,5257.0,Medium,7/28/2011 0:00,930G,930,G,,,Medium,Wheel Loader - 135.0 to 150.0 Horsepower,Texas,WL,Wheel Loader,,EROPS w AC,None or Unspecified,,None or Unspecified,,,,,,,,2 Valve,,,,,None or Unspecified,Hydraulic,,,,,,,,,,,,,Standard,Conventional
3786,1220133,91000,454026,121,3.0,2006,1453.0,Low,11/3/2011 0:00,930G,930,G,,,Medium,Wheel Loader - 135.0 to 150.0 Horsepower,California,WL,Wheel Loader,,EROPS w AC,None or Unspecified,,None or Unspecified,,,,,,,,2 Valve,,,,,None or Unspecified,None or Unspecified,,,,,,,,,,,,,Standard,Conventional
3786,1573518,50000,765837,132,2.0,2004,,,5/26/2009 0:00,930G,930,G,,,Medium,Wheel Loader - 135.0 to 150.0 Horsepower,Florida,WL,Wheel Loader,,EROPS w AC,Yes,,Yes,,,,,,,,3 Valve,,,,,None or Unspecified,Manual,,,,,,,,,,,,,Limited Slip,Conventional
3786,1573537,94000,799948,132,4.0,2005,,,2/12/2007 0:00,930G,930,G,,,Medium,Wheel Loader - 135.0 to 150.0 Horsepower,Florida,WL,Wheel Loader,,EROPS w AC,Yes,,None or Unspecified,,,,,,,,3 Valve,,,,,None or Unspecified,Manual,,,,,,,,,,,,,Standard,Conventional
3786,1573538,100000,760505,132,1.0,2005,,,10/10/2006 0:00,930G,930,G,,,Medium,Wheel Loader - 135.0 to 150.0 Horsepower,Florida,WL,Wheel Loader,,EROPS w AC,Yes,,None or Unspecified,,,,,,,,3 Valve,,,,,20.5,Manual,,,,,,,,,,,,,Standard,Conventional
3786,1573539,102500,760505,132,1.0,2005,,,2/20/2007 0:00,930G,930,G,,,Medium,Wheel Loader - 135.0 to 150.0 Horsepower,Florida,WL,Wheel Loader,,EROPS w AC,Yes,,None or Unspecified,,,,,,,,3 Valve,,,,,20.5,Manual,,,,,,,,,,,,,Standard,Conventional
3786,1573542,100000,531378,132,1.0,2005,,,2/20/2007 0:00,930G,930,G,,,Medium,Wheel Loader - 135.0 to 150.0 Horsepower,Florida,WL,Wheel Loader,,EROPS w AC,Yes,,None or Unspecified,,,,,,,,3 Valve,,,,,20.5,Manual,,,,,,,,,,,,,Standard,Conventional
3786,1573544,105000,52564,132,1.0,2005,,,7/12/2006 0:00,930G,930,G,,,Medium,Wheel Loader - 135.0 to 150.0 Horsepower,Texas,WL,Wheel Loader,,EROPS w AC,Yes,,None or Unspecified,,,,,,,,3 Valve,,,,,None or Unspecified,Manual,,,,,,,,,,,,,Standard,Conventional
3786,1573546,92000,764457,132,4.0,2005,,,2/12/2007 0:00,930G,930,G,,,Medium,Wheel Loader - 135.0 to 150.0 Horsepower,Florida,WL,Wheel Loader,,EROPS w AC,Yes,,None or Unspecified,,,,,,,,3 Valve,,,,,None or Unspecified,Manual,,,,,,,,,,,,,Standard,Conventional
3786,1573569,100000,420109,132,1.0,2005,,,1/24/2007 0:00,930G,930,G,,,Medium,Wheel Loader - 135.0 to 150.0 Horsepower,Mississippi,WL,Wheel Loader,,EROPS w AC,Yes,,None or Unspecified,,,,,,,,3 Valve,,,,,20.5,Manual,,,,,,,,,,,,,Limited Slip,Conventional
3786,1573587,54000,206525,132,2.0,2005,,,1/31/2010 0:00,930G,930,G,,,Medium,Wheel Loader - 135.0 to 150.0 Horsepower,Florida,WL,Wheel Loader,,EROPS w AC,Yes,,Yes,,,,,,,,3 Valve,,,,,20.5,Hydraulic,,,,,,,,,,,,,Limited Slip,Conventional
3786,1573588,54000,206525,132,2.0,2005,,,2/4/2010 0:00,930G,930,G,,,Medium,Wheel Loader - 135.0 to 150.0 Horsepower,Florida,WL,Wheel Loader,,EROPS w AC,Yes,,Yes,,,,,,,,3 Valve,,,,,20.5,Hydraulic,,,,,,,,,,,,,Limited Slip,Conventional
3786,1573598,48500,610841,132,99.0,2005,,,4/22/2010 0:00,930G,930,G,,,Medium,Wheel Loader - 135.0 to 150.0 Horsepower,Texas,WL,Wheel Loader,,EROPS w AC,Yes,,None or Unspecified,,,,,,,,3 Valve,,,,,20.5,Hydraulic,,,,,,,,,,,,,Limited Slip,Conventional
3786,1573615,105000,68133,132,7.0,2006,,,11/30/2006 0:00,930G,930,G,,,Medium,Wheel Loader - 135.0 to 150.0 Horsepower,Alabama,WL,Wheel Loader,,EROPS w AC,Yes,,None or Unspecified,,,,,,,,3 Valve,,,,,20.5,Manual,,,,,,,,,,,,,Standard,Conventional
3786,1573621,69500,728200,132,8.0,2005,,,9/15/2010 0:00,930G,930,G,,,Medium,Wheel Loader - 135.0 to 150.0 Horsepower,Mississippi,WL,Wheel Loader,,EROPS w AC,Yes,,None or Unspecified,,,,,,,,2 Valve,,,,,None or Unspecified,None or Unspecified,,,,,,,,,,,,,Standard,Conventional
3786,1573629,57000,605144,132,99.0,2005,2290.0,Medium,6/2/2009 0:00,930G,930,G,,,Medium,Wheel Loader - 135.0 to 150.0 Horsepower,Texas,WL,Wheel Loader,,EROPS w AC,Yes,,None or Unspecified,,,,,,,,3 Valve,,,,,20.5,Hydraulic,,,,,,,,,,,,,Standard,Conventional
3786,1573643,62500,262601,132,1.0,2005,,,5/18/2011 0:00,930G,930,G,,,Medium,Wheel Loader - 135.0 to 150.0 Horsepower,Florida,WL,Wheel Loader,,EROPS w AC,Yes,,Yes,,,,,,,,3 Valve,,,,,20.5,Manual,,,,,,,,,,,,,Limited Slip,Conventional
3786,1573674,69000,50945,132,99.0,2006,,,6/2/2009 0:00,930G,930,G,,,Medium,Wheel Loader - 135.0 to 150.0 Horsepower,Texas,WL,Wheel Loader,,EROPS w AC,Yes,,None or Unspecified,,,,,,,,2 Valve,,,,,None or Unspecified,Hydraulic,,,,,,,,,,,,,Standard,Conventional
3786,1573678,49000,55020,132,99.0,2006,,,6/2/2009 0:00,930G,930,G,,,Medium,Wheel Loader - 135.0 to 150.0 Horsepower,Texas,WL,Wheel Loader,,EROPS w AC,Yes,,None or Unspecified,,,,,,,,2 Valve,,,,,None or Unspecified,Hydraulic,,,,,,,,,,,,,Standard,Conventional
3786,1573687,56000,534069,132,99.0,2006,,,8/11/2011 0:00,930G,930,G,,,Medium,Wheel Loader - 135.0 to 150.0 Horsepower,Georgia,WL,Wheel Loader,,EROPS w AC,None or Unspecified,,None or Unspecified,,,,,,,,3 Valve,,,,,None or Unspecified,Manual,,,,,,,,,,,,,Standard,Conventional
3786,1573694,63500,136000,132,2.0,2006,2633.0,Medium,2/5/2009 0:00,930G,930,G,,,Medium,Wheel Loader - 135.0 to 150.0 Horsepower,Florida,WL,Wheel Loader,,EROPS w AC,Yes,,None or Unspecified,,,,,,,,3 Valve,,,,,None or Unspecified,Manual,,,,,,,,,,,,,Standard,Conventional
3786,1573709,65500,531942,132,10.0,2006,1460.0,Low,3/18/2009 0:00,930G,930,G,,,Medium,Wheel Loader - 135.0 to 150.0 Horsepower,Louisiana,WL,Wheel Loader,,EROPS w AC,None or Unspecified,,None or Unspecified,,,,,,,,3 Valve,,,,,None or Unspecified,Manual,,,,,,,,,,,,,Standard,Conventional
3786,1573711,68500,531942,132,2.0,2006,1458.0,Low,2/5/2009 0:00,930G,930,G,,,Medium,Wheel Loader - 135.0 to 150.0 Horsepower,Florida,WL,Wheel Loader,,EROPS w AC,None or Unspecified,,None or Unspecified,,,,,,,,3 Valve,,,,,None or Unspecified,Manual,,,,,,,,,,,,,Standard,Conventional
3786,1573718,70000,141770,132,2.0,2006,1796.0,Medium,2/5/2009 0:00,930G,930,G,,,Medium,Wheel Loader - 135.0 to 150.0 Horsepower,Florida,WL,Wheel Loader,,EROPS w AC,Yes,,None or Unspecified,,,,,,,,3 Valve,,,,,None or Unspecified,Manual,,,,,,,,,,,,,Standard,Conventional
3786,1573719,68000,155698,132,2.0,2006,2619.0,Medium,2/5/2009 0:00,930G,930,G,,,Medium,Wheel Loader - 135.0 to 150.0 Horsepower,Florida,WL,Wheel Loader,,EROPS w AC,Yes,,None or Unspecified,,,,,,,,3 Valve,,,,,None or Unspecified,Manual,,,,,,,,,,,,,Standard,Conventional
3786,1573739,74000,390707,132,99.0,2006,,,6/2/2009 0:00,930G,930,G,,,Medium,Wheel Loader - 135.0 to 150.0 Horsepower,Texas,WL,Wheel Loader,,EROPS w AC,Yes,,None or Unspecified,,,,,,,,2 Valve,,,,,20.5,Hydraulic,,,,,,,,,,,,,Standard,Conventional
3786,1573741,57000,815897,132,2.0,2006,,,2/5/2010 0:00,930G,930,G,,,Medium,Wheel Loader - 135.0 to 150.0 Horsepower,Florida,WL,Wheel Loader,,EROPS w AC,Yes,,Yes,,,,,,,,3 Valve,,,,,20.5,Hydraulic,,,,,,,,,,,,,Standard,Conventional
3786,1573765,97000,1522582,132,13.0,2007,1482.0,Medium,3/13/2010 0:00,930G,930,G,,,Medium,Wheel Loader - 135.0 to 150.0 Horsepower,Tennessee,WL,Wheel Loader,,EROPS w AC,Yes,,None or Unspecified,,,,,,,,2 Valve,,,,,None or Unspecified,None or Unspecified,,,,,,,,,,,,,Standard,Conventional
3786,2301311,67500,1660868,136,1.0,2006,0.0,,2/16/2009 0:00,930G,930,G,,,Medium,Wheel Loader - 135.0 to 150.0 Horsepower,Florida,WL,Wheel Loader,,OROPS,None or Unspecified,,None or Unspecified,,,,,,,,2 Valve,,,,,20.5,None or Unspecified,,,,,,,,,,,,,Standard,Conventional
3786,2311545,62000,1714956,136,1.0,2006,5482.0,High,10/7/2009 0:00,930G,930,G,,,Medium,Wheel Loader - 135.0 to 150.0 Horsepower,Idaho,WL,Wheel Loader,,EROPS,None or Unspecified,,None or Unspecified,,,,,,,,2 Valve,,,,,20.5,Hydraulic,,,,,,,,,,,,,Standard,Conventional
3786,2323366,90000,790480,136,1.0,2005,13375.0,High,3/5/2008 0:00,930G,930,G,,,Medium,Wheel Loader - 135.0 to 150.0 Horsepower,Texas,WL,Wheel Loader,,OROPS,Yes,,None or Unspecified,,,,,,,,3 Valve,,,,,20.5,Manual,,,,,,,,,,,,,Standard,Conventional
3786,2323367,60000,790480,136,1.0,2005,0.0,,9/20/2007 0:00,930G,930,G,,,Medium,Wheel Loader - 135.0 to 150.0 Horsepower,Georgia,WL,Wheel Loader,,OROPS,Yes,,None or Unspecified,,,,,,,,3 Valve,,,,,20.5,Manual,,,,,,,,,,,,,Standard,Conventional
3786,2323368,70000,776844,136,1.0,2005,1711.0,Medium,3/5/2008 0:00,930G,930,G,,,Medium,Wheel Loader - 135.0 to 150.0 Horsepower,Texas,WL,Wheel Loader,,OROPS,Yes,,None or Unspecified,,,,,,,,3 Valve,,,,,20.5,Manual,,,,,,,,,,,,,Standard,Conventional
3786,2323369,59000,776844,136,1.0,2005,1680.0,Medium,9/20/2007 0:00,930G,930,G,,,Medium,Wheel Loader - 135.0 to 150.0 Horsepower,Georgia,WL,Wheel Loader,,OROPS,Yes,,None or Unspecified,,,,,,,,3 Valve,,,,,20.5,Manual,,,,,,,,,,,,,Standard,Conventional
3786,2323370,58000,602075,136,99.0,2005,1330.0,Medium,9/20/2007 0:00,930G,930,G,,,Medium,Wheel Loader - 135.0 to 150.0 Horsepower,Georgia,WL,Wheel Loader,,OROPS,Yes,,None or Unspecified,,,,,,,,3 Valve,,,,,None or Unspecified,Manual,,,,,,,,,,,,,Standard,Conventional
3786,2323371,77500,770667,136,4.0,2005,0.0,,5/27/2008 0:00,930G,930,G,,,Medium,Wheel Loader - 135.0 to 150.0 Horsepower,Florida,WL,Wheel Loader,,OROPS,Yes,,None or Unspecified,,,,,,,,3 Valve,,,,,20.5,Hydraulic,,,,,,,,,,,,,Standard,Conventional
3786,2323372,78000,770667,136,4.0,2005,0.0,,2/11/2008 0:00,930G,930,G,,,Medium,Wheel Loader - 135.0 to 150.0 Horsepower,Florida,WL,Wheel Loader,,OROPS,Yes,,None or Unspecified,,,,,,,,3 Valve,,,,,20.5,Hydraulic,,,,,,,,,,,,,Standard,Conventional
3786,2323375,75000,884635,136,1.0,2005,0.0,,11/6/2008 0:00,930G,930,G,,,Medium,Wheel Loader - 135.0 to 150.0 Horsepower,Tennessee,WL,Wheel Loader,,EROPS w AC,Yes,,Yes,,,,,,,,2 Valve,,,,,20.5,Hydraulic,,,,,,,,,,,,,Standard,Conventional
3786,2323378,77500,545132,136,2.0,2005,0.0,,2/3/2008 0:00,930G,930,G,,,Medium,Wheel Loader - 135.0 to 150.0 Horsepower,Florida,WL,Wheel Loader,,EROPS w AC,None or Unspecified,,None or Unspecified,,,,,,,,3 Valve,,,,,None or Unspecified,Hydraulic,,,,,,,,,,,,,Standard,Conventional
3786,2323379,96000,569311,136,2.0,2005,1149.0,Low,2/3/2008 0:00,930G,930,G,,,Medium,Wheel Loader - 135.0 to 150.0 Horsepower,Florida,WL,Wheel Loader,,EROPS w AC,None or Unspecified,,None or Unspecified,,,,,,,,2 Valve,,,,,None or Unspecified,None or Unspecified,,,,,,,,,,,,,Standard,Conventional
3786,2323385,87500,22873,136,1.0,2005,0.0,,6/27/2007 0:00,930G,930,G,,,Medium,Wheel Loader - 135.0 to 150.0 Horsepower,Georgia,WL,Wheel Loader,,EROPS w AC,Yes,,None or Unspecified,,,,,,,,3 Valve,,,,,20.5,Manual,,,,,,,,,,,,,Standard,Conventional
3786,2323390,105000,1445744,136,19.0,2005,0.0,,7/12/2007 0:00,930G,930,G,,,Medium,Wheel Loader - 135.0 to 150.0 Horsepower,Arkansas,WL,Wheel Loader,,EROPS w AC,None or Unspecified,,Yes,,,,,,,,2 Valve,,,,,20.5,Manual,,,,,,,,,,,,,Standard,Conventional
3786,2323391,77500,885088,136,7.0,2005,4269.0,High,6/4/2008 0:00,930G,930,G,,,Medium,Wheel Loader - 135.0 to 150.0 Horsepower,Alabama,WL,Wheel Loader,,EROPS w AC,Yes,,None or Unspecified,,,,,,,,2 Valve,,,,,None or Unspecified,Manual,,,,,,,,,,,,,Standard,Conventional
3786,2323393,65000,334526,136,2.0,2005,0.0,,3/19/2009 0:00,930G,930,G,,,Medium,Wheel Loader - 135.0 to 150.0 Horsepower,New Jersey,WL,Wheel Loader,,EROPS w AC,None or Unspecified,,Yes,,,,,,,,3 Valve,,,,,20.5,Manual,,,,,,,,,,,,,Standard,Conventional
3786,2323396,67000,404164,136,,2005,0.0,,9/27/2008 0:00,930G,930,G,,,Medium,Wheel Loader - 135.0 to 150.0 Horsepower,New Jersey,WL,Wheel Loader,,EROPS w AC,None or Unspecified,,None or Unspecified,,,,,,,,3 Valve,,,,,20.5,Hydraulic,,,,,,,,,,,,,Standard,Conventional
3786,2323397,66000,404164,136,,2005,0.0,,10/18/2008 0:00,930G,930,G,,,Medium,Wheel Loader - 135.0 to 150.0 Horsepower,New York,WL,Wheel Loader,,EROPS w AC,None or Unspecified,,None or Unspecified,,,,,,,,3 Valve,,,,,20.5,Hydraulic,,,,,,,,,,,,,Standard,Conventional
3786,2323399,80000,764697,136,1.0,2005,1858.0,Medium,6/29/2007 0:00,930G,930,G,,,Medium,Wheel Loader - 135.0 to 150.0 Horsepower,North Carolina,WL,Wheel Loader,,EROPS w AC,None or Unspecified,,None or Unspecified,,,,,,,,3 Valve,,,,,20.5,Manual,,,,,,,,,,,,,Standard,Conventional
3786,2323400,61000,787845,136,2.0,2005,1410.0,Medium,10/9/2007 0:00,930G,930,G,,,Medium,Wheel Loader - 135.0 to 150.0 Horsepower,Florida,WL,Wheel Loader,,OROPS,None or Unspecified,,None or Unspecified,,,,,,,,3 Valve,,,,,20.5,None or Unspecified,,,,,,,,,,,,,Standard,Conventional
3786,2323404,77500,559933,136,2.0,2005,0.0,,2/3/2008 0:00,930G,930,G,,,Medium,Wheel Loader - 135.0 to 150.0 Horsepower,Florida,WL,Wheel Loader,,EROPS w AC,None or Unspecified,,Yes,,,,,,,,3 Valve,,,,,None or Unspecified,Hydraulic,,,,,,,,,,,,,Standard,Conventional
3786,2323406,87500,110905,136,1.0,2005,2413.0,Low,3/2/2010 0:00,930G,930,G,,,Medium,Wheel Loader - 135.0 to 150.0 Horsepower,California,WL,Wheel Loader,,EROPS w AC,Yes,,Yes,,,,,,,,3 Valve,,,,,20.5,Manual,,,,,,,,,,,,,Standard,Conventional
3786,2323412,90000,465030,136,1.0,2005,4195.0,High,3/5/2008 0:00,930G,930,G,,,Medium,Wheel Loader - 135.0 to 150.0 Horsepower,Texas,WL,Wheel Loader,,EROPS w AC,Yes,,None or Unspecified,,,,,,,,3 Valve,,,,,20.5,Manual,,,,,,,,,,,,,Standard,Conventional
3786,2323413,60000,485948,136,1.0,2005,4482.0,Medium,2/25/2010 0:00,930G,930,G,,,Medium,Wheel Loader - 135.0 to 150.0 Horsepower,Texas,WL,Wheel Loader,,EROPS w AC,Yes,,None or Unspecified,,,,,,,,3 Valve,,,,,20.5,Manual,,,,,,,,,,,,,Standard,Conventional
3786,2323414,60000,491958,136,1.0,2005,4983.0,High,3/5/2008 0:00,930G,930,G,,,Medium,Wheel Loader - 135.0 to 150.0 Horsepower,Texas,WL,Wheel Loader,,EROPS w AC,Yes,,None or Unspecified,,,,,,,,3 Valve,,,,,20.5,Manual,,,,,,,,,,,,,Standard,Conventional
3786,2323419,75000,177817,136,1.0,2005,2186.0,Medium,6/23/2008 0:00,930G,930,G,,,Medium,Wheel Loader - 135.0 to 150.0 Horsepower,California,WL,Wheel Loader,,OROPS,Yes,,Yes,,,,,,,,4 Valve,,,,,20.5,Manual,,,,,,,,,,,,,Standard,Conventional
3786,2323420,57500,182205,136,1.0,2005,3200.0,Medium,5/20/2010 0:00,930G,930,G,,,Medium,Wheel Loader - 135.0 to 150.0 Horsepower,California,WL,Wheel Loader,,OROPS,Yes,,Yes,,,,,,,,4 Valve,,,,,20.5,Manual,,,,,,,,,,,,,Standard,Conventional
3786,2323421,80000,182205,136,1.0,2005,2328.0,Medium,4/29/2008 0:00,930G,930,G,,,Medium,Wheel Loader - 135.0 to 150.0 Horsepower,California,WL,Wheel Loader,,OROPS,Yes,,Yes,,,,,,,,4 Valve,,,,,20.5,Manual,,,,,,,,,,,,,Standard,Conventional
3786,2323422,75000,169821,136,1.0,2005,1807.0,Medium,6/23/2008 0:00,930G,930,G,,,Medium,Wheel Loader - 135.0 to 150.0 Horsepower,California,WL,Wheel Loader,,OROPS,Yes,,Yes,,,,,,,,4 Valve,,,,,20.5,Manual,,,,,,,,,,,,,Standard,Conventional
3786,2323423,95000,522434,136,1.0,2005,0.0,,5/24/2007 0:00,930G,930,G,,,Medium,Wheel Loader - 135.0 to 150.0 Horsepower,Florida,WL,Wheel Loader,,EROPS w AC,Yes,,None or Unspecified,,,,,,,,3 Valve,,,,,20.5,Manual,,,,,,,,,,,,,Standard,Conventional
3786,2323424,87500,680898,136,,2006,0.0,,12/19/2008 0:00,930G,930,G,,,Medium,Wheel Loader - 135.0 to 150.0 Horsepower,New Jersey,WL,Wheel Loader,,EROPS w AC,None or Unspecified,,Yes,,,,,,,,4 Valve,,,,,None or Unspecified,Hydraulic,,,,,,,,,,,,,Limited Slip,Conventional
3786,2323425,80000,680898,136,,2006,0.0,,12/13/2008 0:00,930G,930,G,,,Medium,Wheel Loader - 135.0 to 150.0 Horsepower,Pennsylvania,WL,Wheel Loader,,EROPS w AC,None or Unspecified,,Yes,,,,,,,,4 Valve,,,,,None or Unspecified,Hydraulic,,,,,,,,,,,,,Limited Slip,Conventional
3786,2323426,47500,207873,136,1.0,2005,12713.0,High,12/16/2009 0:00,930G,930,G,,,Medium,Wheel Loader - 135.0 to 150.0 Horsepower,Maryland,WL,Wheel Loader,,EROPS w AC,Yes,,Yes,,,,,,,,3 Valve,,,,,20.5,Manual,,,,,,,,,,,,,Limited Slip,Conventional
3786,2323429,65000,549596,136,4.0,2005,0.0,,9/10/2008 0:00,930G,930,G,,,Medium,Wheel Loader - 135.0 to 150.0 Horsepower,Alabama,WL,Wheel Loader,,EROPS w AC,None or Unspecified,,None or Unspecified,,,,,,,,3 Valve,,,,,20.5,None or Unspecified,,,,,,,,,,,,,Standard,Conventional
3786,2323430,53000,549596,136,4.0,2005,0.0,,2/9/2009 0:00,930G,930,G,,,Medium,Wheel Loader - 135.0 to 150.0 Horsepower,Florida,WL,Wheel Loader,,EROPS w AC,None or Unspecified,,None or Unspecified,,,,,,,,3 Valve,,,,,20.5,None or Unspecified,,,,,,,,,,,,,Standard,Conventional
3786,2323431,65000,549596,136,4.0,2005,0.0,,9/18/2008 0:00,930G,930,G,,,Medium,Wheel Loader - 135.0 to 150.0 Horsepower,Mississippi,WL,Wheel Loader,,EROPS w AC,None or Unspecified,,None or Unspecified,,,,,,,,3 Valve,,,,,20.5,None or Unspecified,,,,,,,,,,,,,Standard,Conventional
3786,2323432,57500,549596,136,4.0,2005,0.0,,12/3/2008 0:00,930G,930,G,,,Medium,Wheel Loader - 135.0 to 150.0 Horsepower,Alabama,WL,Wheel Loader,,EROPS w AC,None or Unspecified,,None or Unspecified,,,,,,,,3 Valve,,,,,20.5,None or Unspecified,,,,,,,,,,,,,Standard,Conventional
3786,2323433,57000,549596,136,4.0,2005,0.0,,1/28/2009 0:00,930G,930,G,,,Medium,Wheel Loader - 135.0 to 150.0 Horsepower,Alabama,WL,Wheel Loader,,EROPS w AC,None or Unspecified,,None or Unspecified,,,,,,,,3 Valve,,,,,20.5,None or Unspecified,,,,,,,,,,,,,Standard,Conventional
3786,2323439,59000,787988,136,99.0,2005,1261.0,Medium,9/20/2007 0:00,930G,930,G,,,Medium,Wheel Loader - 135.0 to 150.0 Horsepower,Georgia,WL,Wheel Loader,,OROPS,Yes,,None or Unspecified,,,,,,,,3 Valve,,,,,None or Unspecified,Manual,,,,,,,,,,,,,Standard,Conventional
3786,2323441,90000,162505,136,2.0,2005,1854.0,Medium,2/3/2008 0:00,930G,930,G,,,Medium,Wheel Loader - 135.0 to 150.0 Horsepower,Florida,WL,Wheel Loader,,EROPS w AC,Yes,,None or Unspecified,,,,,,,,3 Valve,,,,,20.5,Hydraulic,,,,,,,,,,,,,Standard,Conventional
3786,2323442,49500,1564414,136,2.0,2005,0.0,,3/19/2010 0:00,930G,930,G,,,Medium,Wheel Loader - 135.0 to 150.0 Horsepower,Georgia,WL,Wheel Loader,,EROPS w AC,Yes,,Yes,,,,,,,,3 Valve,,,,,20.5,Manual,,,,,,,,,,,,,Limited Slip,Conventional
3786,2323444,63000,778231,136,2.0,2005,1442.0,Medium,10/9/2007 0:00,930G,930,G,,,Medium,Wheel Loader - 135.0 to 150.0 Horsepower,Florida,WL,Wheel Loader,,OROPS,None or Unspecified,,None or Unspecified,,,,,,,,2 Valve,,,,,20.5,None or Unspecified,,,,,,,,,,,,,Standard,Conventional
3786,2323447,77500,768301,136,2.0,2005,1410.0,Low,2/3/2008 0:00,930G,930,G,,,Medium,Wheel Loader - 135.0 to 150.0 Horsepower,Florida,WL,Wheel Loader,,EROPS,None or Unspecified,,None or Unspecified,,,,,,,,2 Valve,,,,,20.5,None or Unspecified,,,,,,,,,,,,,Standard,Conventional
3786,2323448,65000,768301,136,2.0,2005,1410.0,Medium,10/9/2007 0:00,930G,930,G,,,Medium,Wheel Loader - 135.0 to 150.0 Horsepower,Florida,WL,Wheel Loader,,EROPS,None or Unspecified,,None or Unspecified,,,,,,,,2 Valve,,,,,20.5,None or Unspecified,,,,,,,,,,,,,Standard,Conventional
3786,2323449,95000,526489,136,1.0,2005,0.0,,5/24/2007 0:00,930G,930,G,,,Medium,Wheel Loader - 135.0 to 150.0 Horsepower,Florida,WL,Wheel Loader,,EROPS w AC,Yes,,None or Unspecified,,,,,,,,3 Valve,,,,,20.5,Manual,,,,,,,,,,,,,Standard,Conventional
3786,2323450,97500,1272824,136,1.0,2005,1449.0,Low,9/30/2008 0:00,930G,930,G,,,Medium,Wheel Loader - 135.0 to 150.0 Horsepower,Minnesota,WL,Wheel Loader,,EROPS w AC,None or Unspecified,,Yes,,,,,,,,2 Valve,,,,,20.5,Hydraulic,,,,,,,,,,,,,Standard,Conventional
3786,2323451,93000,807109,136,,2005,0.0,,6/9/2007 0:00,930G,930,G,,,Medium,Wheel Loader - 135.0 to 150.0 Horsepower,New Jersey,WL,Wheel Loader,,EROPS w AC,None or Unspecified,,Yes,,,,,,,,3 Valve,,,,,None or Unspecified,Manual,,,,,,,,,,,,,Standard,Conventional
3786,2323452,76000,821402,136,5.0,2005,0.0,,4/10/2008 0:00,930G,930,G,,,Medium,Wheel Loader - 135.0 to 150.0 Horsepower,Connecticut,WL,Wheel Loader,,EROPS w AC,Yes,,Yes,,,,,,,,3 Valve,,,,,20.5,Manual,,,,,,,,,,,,,Standard,Conventional
3786,2323460,67500,602367,136,1.0,2005,2800.0,Medium,8/20/2008 0:00,930G,930,G,,,Medium,Wheel Loader - 135.0 to 150.0 Horsepower,Texas,WL,Wheel Loader,,EROPS w AC,Yes,,None or Unspecified,,,,,,,,3 Valve,,,,,20.5,Manual,,,,,,,,,,,,,Limited Slip,Conventional
3786,2323461,67500,599355,136,1.0,2005,3086.0,Medium,8/20/2008 0:00,930G,930,G,,,Medium,Wheel Loader - 135.0 to 150.0 Horsepower,Texas,WL,Wheel Loader,,EROPS w AC,Yes,,None or Unspecified,,,,,,,,3 Valve,,,,,20.5,Manual,,,,,,,,,,,,,Limited Slip,Conventional
3786,2323465,92500,1551208,136,19.0,2005,0.0,,7/12/2007 0:00,930G,930,G,,,Medium,Wheel Loader - 135.0 to 150.0 Horsepower,Arkansas,WL,Wheel Loader,,EROPS w AC,None or Unspecified,,Yes,,,,,,,,3 Valve,,,,,20.5,Manual,,,,,,,,,,,,,Standard,Conventional
3786,2323469,57500,610055,136,1.0,2005,2902.0,Medium,3/25/2009 0:00,930G,930,G,,,Medium,Wheel Loader - 135.0 to 150.0 Horsepower,Texas,WL,Wheel Loader,,EROPS w AC,Yes,,None or Unspecified,,,,,,,,3 Valve,,,,,20.5,Hydraulic,,,,,,,,,,,,,Limited Slip,Conventional
3786,2323478,56500,1460599,136,2.0,2005,0.0,,1/31/2010 0:00,930G,930,G,,,Medium,Wheel Loader - 135.0 to 150.0 Horsepower,Florida,WL,Wheel Loader,,EROPS w AC,None or Unspecified,,Yes,,,,,,,,2 Valve,,,,,None or Unspecified,None or Unspecified,,,,,,,,,,,,,Limited Slip,Conventional
3786,2323482,58000,773308,136,1.0,2005,0.0,,5/27/2009 0:00,930G,930,G,,,Medium,Wheel Loader - 135.0 to 150.0 Horsepower,Florida,WL,Wheel Loader,,EROPS w AC,None or Unspecified,,None or Unspecified,,,,,,,,2 Valve,,,,,20.5,None or Unspecified,,,,,,,,,,,,,Standard,Conventional
3786,2323483,57000,972132,136,1.0,2006,4119.0,Medium,10/7/2009 0:00,930G,930,G,,,Medium,Wheel Loader - 135.0 to 150.0 Horsepower,Idaho,WL,Wheel Loader,,EROPS w AC,Yes,,Yes,,,,,,,,3 Valve,,,,,20.5,Hydraulic,,,,,,,,,,,,,Limited Slip,Conventional
3786,2323485,70000,878248,136,1.0,2005,5724.0,High,5/27/2010 0:00,930G,930,G,,,Medium,Wheel Loader - 135.0 to 150.0 Horsepower,Washington,WL,Wheel Loader,,EROPS w AC,Yes,,Yes,,,,,,,,3 Valve,,,,,None or Unspecified,Hydraulic,,,,,,,,,,,,,Limited Slip,Conventional
3786,2323486,47500,154181,136,1.0,2005,0.0,,3/26/2009 0:00,930G,930,G,,,Medium,Wheel Loader - 135.0 to 150.0 Horsepower,Georgia,WL,Wheel Loader,,EROPS w AC,Yes,,None or Unspecified,,,,,,,,3 Valve,,,,,None or Unspecified,Manual,,,,,,,,,,,,,Limited Slip,Conventional
3786,2323487,90000,499214,136,1.0,2005,0.0,,7/9/2008 0:00,930G,930,G,,,Medium,Wheel Loader - 135.0 to 150.0 Horsepower,Texas,WL,Wheel Loader,,EROPS w AC,Yes,,None or Unspecified,,,,,,,,3 Valve,,,,,20.5,Manual,,,,,,,,,,,,,Standard,Conventional
3786,2323490,106000,864922,136,,2005,0.0,,11/17/2007 0:00,930G,930,G,,,Medium,Wheel Loader - 135.0 to 150.0 Horsepower,Connecticut,WL,Wheel Loader,,EROPS w AC,Yes,,Yes,,,,,,,,3 Valve,,,,,None or Unspecified,Manual,,,,,,,,,,,,,Standard,Conventional
3786,2323494,55000,125304,136,2.0,2006,0.0,,12/19/2009 0:00,930G,930,G,,,Medium,Wheel Loader - 135.0 to 150.0 Horsepower,New Jersey,WL,Wheel Loader,,EROPS w AC,None or Unspecified,,Yes,,,,,,,,3 Valve,,,,,None or Unspecified,Manual,,,,,,,,,,,,,Standard,Conventional
3786,2323495,57500,620223,136,1.0,2005,2983.0,Medium,3/25/2009 0:00,930G,930,G,,,Medium,Wheel Loader - 135.0 to 150.0 Horsepower,Texas,WL,Wheel Loader,,EROPS w AC,Yes,,None or Unspecified,,,,,,,,3 Valve,,,,,20.5,Manual,,,,,,,,,,,,,Standard,Conventional
3786,2323497,56000,612677,136,1.0,2005,3614.0,Medium,3/25/2009 0:00,930G,930,G,,,Medium,Wheel Loader - 135.0 to 150.0 Horsepower,Texas,WL,Wheel Loader,,EROPS w AC,Yes,,None or Unspecified,,,,,,,,3 Valve,,,,,20.5,Hydraulic,,,,,,,,,,,,,Standard,Conventional
3786,2323498,60000,259504,136,99.0,2005,0.0,,4/22/2010 0:00,930G,930,G,,,Medium,Wheel Loader - 135.0 to 150.0 Horsepower,South Carolina,WL,Wheel Loader,,EROPS w AC,None or Unspecified,,Yes,,,,,,,,3 Valve,,,,,20.5,Manual,,,,,,,,,,,,,Standard,Conventional
3786,2323500,96000,133293,136,2.0,2005,0.0,,12/8/2007 0:00,930G,930,G,,,Medium,Wheel Loader - 135.0 to 150.0 Horsepower,Pennsylvania,WL,Wheel Loader,,EROPS w AC,Yes,,None or Unspecified,,,,,,,,3 Valve,,,,,20.5,Manual,,,,,,,,,,,,,Standard,Conventional
3786,2323501,92000,144541,136,2.0,2005,1342.0,Low,2/3/2008 0:00,930G,930,G,,,Medium,Wheel Loader - 135.0 to 150.0 Horsepower,Florida,WL,Wheel Loader,,EROPS w AC,Yes,,None or Unspecified,,,,,,,,3 Valve,,,,,None or Unspecified,Hydraulic,,,,,,,,,,,,,Standard,Conventional
3786,2323503,52500,758209,136,1.0,2005,0.0,,5/27/2009 0:00,930G,930,G,,,Medium,Wheel Loader - 135.0 to 150.0 Horsepower,Florida,WL,Wheel Loader,,OROPS,None or Unspecified,,None or Unspecified,,,,,,,,2 Valve,,,,,20.5,None or Unspecified,,,,,,,,,,,,,Standard,Conventional
3786,2323504,52500,769505,136,1.0,2005,0.0,,5/27/2009 0:00,930G,930,G,,,Medium,Wheel Loader - 135.0 to 150.0 Horsepower,Florida,WL,Wheel Loader,,OROPS,None or Unspecified,,None or Unspecified,,,,,,,,2 Valve,,,,,20.5,None or Unspecified,,,,,,,,,,,,,Standard,Conventional
3786,2323509,61000,15437,136,,2005,0.0,,12/3/2008 0:00,930G,930,G,,,Medium,Wheel Loader - 135.0 to 150.0 Horsepower,Alabama,WL,Wheel Loader,,EROPS w AC,Yes,,None or Unspecified,,,,,,,,3 Valve,,,,,20.5,Manual,,,,,,,,,,,,,Standard,Conventional
3786,2323511,62500,287164,136,12.0,2005,2418.0,Low,1/20/2010 0:00,930G,930,G,,,Medium,Wheel Loader - 135.0 to 150.0 Horsepower,South Carolina,WL,Wheel Loader,,EROPS w AC,None or Unspecified,,Yes,,,,,,,,3 Valve,,,,,None or Unspecified,Manual,,,,,,,,,,,,,Standard,Conventional
3786,2323513,57500,208078,136,1.0,2006,0.0,,9/23/2009 0:00,930G,930,G,,,Medium,Wheel Loader - 135.0 to 150.0 Horsepower,Texas,WL,Wheel Loader,,EROPS w AC,Yes,,Yes,,,,,,,,3 Valve,,,,,20.5,Hydraulic,,,,,,,,,,,,,Limited Slip,Conventional
3786,2323515,65000,1054878,136,1.0,2005,2835.0,Medium,12/15/2009 0:00,930G,930,G,,,Medium,Wheel Loader - 135.0 to 150.0 Horsepower,Tennessee,WL,Wheel Loader,,EROPS w AC,Yes,,None or Unspecified,,,,,,,,3 Valve,,,,,20.5,Hydraulic,,,,,,,,,,,,,Standard,Conventional
3786,2323517,100000,1367649,136,19.0,2006,0.0,,7/12/2007 0:00,930G,930,G,,,Medium,Wheel Loader - 135.0 to 150.0 Horsepower,Arkansas,WL,Wheel Loader,,EROPS w AC,None or Unspecified,,Yes,,,,,,,,3 Valve,,,,,20.5,Manual,,,,,,,,,,,,,Standard,Conventional
3786,2323519,48000,184234,136,2.0,2006,0.0,,12/10/2009 0:00,930G,930,G,,,Medium,Wheel Loader - 135.0 to 150.0 Horsepower,Florida,WL,Wheel Loader,,EROPS w AC,Yes,,Yes,,,,,,,,3 Valve,,,,,20.5,Hydraulic,,,,,,,,,,,,,Limited Slip,Conventional
3786,2323521,77500,801707,136,1.0,2006,3098.0,Medium,2/15/2010 0:00,930G,930,G,,,Medium,Wheel Loader - 135.0 to 150.0 Horsepower,Florida,WL,Wheel Loader,,EROPS w AC,Yes,,None or Unspecified,,,,,,,,2 Valve,,,,,20.5,Manual,,,,,,,,,,,,,Limited Slip,Conventional
3786,2323524,67500,788890,136,1.0,2006,0.0,,2/15/2010 0:00,930G,930,G,,,Medium,Wheel Loader - 135.0 to 150.0 Horsepower,Florida,WL,Wheel Loader,,OROPS,None or Unspecified,,None or Unspecified,,,,,,,,2 Valve,,,,,20.5,Manual,,,,,,,,,,,,,Standard,Conventional
3786,2323525,67500,798781,136,1.0,2006,1461.0,Low,2/16/2009 0:00,930G,930,G,,,Medium,Wheel Loader - 135.0 to 150.0 Horsepower,Florida,WL,Wheel Loader,,OROPS,None or Unspecified,,None or Unspecified,,,,,,,,2 Valve,,,,,20.5,None or Unspecified,,,,,,,,,,,,,Standard,Conventional
3786,2323526,67500,821770,136,1.0,2006,0.0,,2/15/2010 0:00,930G,930,G,,,Medium,Wheel Loader - 135.0 to 150.0 Horsepower,Florida,WL,Wheel Loader,,EROPS w AC,None or Unspecified,,Yes,,,,,,,,2 Valve,,,,,None or Unspecified,None or Unspecified,,,,,,,,,,,,,Standard,Conventional
3786,2323528,97500,38263,136,10.0,2006,0.0,,12/11/2007 0:00,930G,930,G,,,Medium,Wheel Loader - 135.0 to 150.0 Horsepower,Louisiana,WL,Wheel Loader,,EROPS w AC,Yes,,Yes,,,,,,,,2 Valve,,,,,None or Unspecified,None or Unspecified,,,,,,,,,,,,,Standard,Conventional
3786,2323541,61000,8018,136,,2006,2648.0,High,12/3/2008 0:00,930G,930,G,,,Medium,Wheel Loader - 135.0 to 150.0 Horsepower,Alabama,WL,Wheel Loader,,EROPS w AC,Yes,,None or Unspecified,,,,,,,,3 Valve,,,,,20.5,Manual,,,,,,,,,,,,,Standard,Conventional
3786,2323544,57000,210583,136,1.0,2006,10639.0,High,2/15/2010 0:00,930G,930,G,,,Medium,Wheel Loader - 135.0 to 150.0 Horsepower,Florida,WL,Wheel Loader,,EROPS w AC,Yes,,Yes,,,,,,,,3 Valve,,,,,20.5,Hydraulic,,,,,,,,,,,,,Limited Slip,Conventional
3786,2323547,90000,536475,136,1.0,2006,0.0,,5/28/2008 0:00,930G,930,G,,,Medium,Wheel Loader - 135.0 to 150.0 Horsepower,Florida,WL,Wheel Loader,,EROPS w AC,None or Unspecified,,Yes,,,,,,,,3 Valve,,,,,None or Unspecified,Manual,,,,,,,,,,,,,Standard,Conventional
3786,2323549,96000,531065,136,3.0,2006,1919.0,High,4/12/2007 0:00,930G,930,G,,,Medium,Wheel Loader - 135.0 to 150.0 Horsepower,Florida,WL,Wheel Loader,,EROPS w AC,Yes,,None or Unspecified,,,,,,,,3 Valve,,,,,None or Unspecified,Manual,,,,,,,,,,,,,Standard,Conventional
3786,2323552,102000,866196,136,1.0,2006,544.0,Medium,10/3/2007 0:00,930G,930,G,,,Medium,Wheel Loader - 135.0 to 150.0 Horsepower,Maryland,WL,Wheel Loader,,EROPS,None or Unspecified,,Yes,,,,,,,,3 Valve,,,,,20.5,Manual,,,,,,,,,,,,,Standard,Conventional
3786,2323554,55000,129294,136,1.0,2006,0.0,,6/18/2009 0:00,930G,930,G,,,Medium,Wheel Loader - 135.0 to 150.0 Horsepower,Georgia,WL,Wheel Loader,,EROPS w AC,Yes,,None or Unspecified,,,,,,,,3 Valve,,,,,None or Unspecified,Manual,,,,,,,,,,,,,Limited Slip,Conventional
3786,2323556,80000,534968,136,1.0,2006,2469.0,Medium,2/16/2009 0:00,930G,930,G,,,Medium,Wheel Loader - 135.0 to 150.0 Horsepower,Florida,WL,Wheel Loader,,EROPS w AC,None or Unspecified,,None or Unspecified,,,,,,,,3 Valve,,,,,None or Unspecified,Manual,,,,,,,,,,,,,Standard,Conventional
3786,2323558,65000,994241,136,1.0,2006,2275.0,Medium,8/20/2009 0:00,930G,930,G,,,Medium,Wheel Loader - 135.0 to 150.0 Horsepower,Colorado,WL,Wheel Loader,,EROPS w AC,None or Unspecified,,Yes,,,,,,,,2 Valve,,,,,None or Unspecified,Manual,,,,,,,,,,,,,Standard,Conventional
3786,2323560,88000,646907,136,1.0,2006,2864.0,High,11/20/2008 0:00,930G,930,G,,,Medium,Wheel Loader - 135.0 to 150.0 Horsepower,Wyoming,WL,Wheel Loader,,EROPS w AC,None or Unspecified,,Yes,,,,,,,,3 Valve,,,,,20.5,Hydraulic,,,,,,,,,,,,,Standard,Conventional
3786,2323561,63500,136000,136,2.0,2006,0.0,,1/31/2009 0:00,930G,930,G,,,Medium,Wheel Loader - 135.0 to 150.0 Horsepower,Florida,WL,Wheel Loader,,EROPS w AC,Yes,,None or Unspecified,,,,,,,,3 Valve,,,,,None or Unspecified,Manual,,,,,,,,,,,,,Standard,Conventional
3786,2323565,65000,996623,136,1.0,2006,2522.0,Medium,8/20/2009 0:00,930G,930,G,,,Medium,Wheel Loader - 135.0 to 150.0 Horsepower,Colorado,WL,Wheel Loader,,EROPS w AC,Yes,,Yes,,,,,,,,2 Valve,,,,,None or Unspecified,Manual,,,,,,,,,,,,,Standard,Conventional
3786,2323566,60000,887760,136,1.0,2006,2825.0,Medium,6/9/2009 0:00,930G,930,G,,,Medium,Wheel Loader - 135.0 to 150.0 Horsepower,Tennessee,WL,Wheel Loader,,EROPS w AC,None or Unspecified,,None or Unspecified,,,,,,,,2 Valve,,,,,20.5,Hydraulic,,,,,,,,,,,,,Standard,Conventional
3786,2323568,58000,895445,136,1.0,2006,3260.0,Medium,6/9/2009 0:00,930G,930,G,,,Medium,Wheel Loader - 135.0 to 150.0 Horsepower,Tennessee,WL,Wheel Loader,,EROPS w AC,None or Unspecified,,None or Unspecified,,,,,,,,2 Valve,,,,,20.5,Hydraulic,,,,,,,,,,,,,Standard,Conventional
3786,2323572,67500,894201,136,2.0,2006,0.0,,4/21/2010 0:00,930G,930,G,,,Medium,Wheel Loader - 135.0 to 150.0 Horsepower,Tennessee,WL,Wheel Loader,,EROPS w AC,None or Unspecified,,None or Unspecified,,,,,,,,3 Valve,,,,,20.5,Manual,,,,,,,,,,,,,Standard,Conventional
3786,2323576,63000,466949,136,20.0,2006,3400.0,High,10/29/2009 0:00,930G,930,G,,,Medium,Wheel Loader - 135.0 to 150.0 Horsepower,Arkansas,WL,Wheel Loader,,EROPS w AC,Yes,,Yes,,,,,,,,2 Valve,,,,,None or Unspecified,None or Unspecified,,,,,,,,,,,,,Standard,Conventional
3786,2323578,65000,917570,136,1.0,2006,5548.0,High,2/25/2010 0:00,930G,930,G,,,Medium,Wheel Loader - 135.0 to 150.0 Horsepower,Texas,WL,Wheel Loader,,EROPS w AC,Yes,,None or Unspecified,,,,,,,,3 Valve,,,,,20.5,Manual,,,,,,,,,,,,,Standard,Conventional
3786,2323579,65000,930356,136,1.0,2006,743.0,Low,2/25/2010 0:00,930G,930,G,,,Medium,Wheel Loader - 135.0 to 150.0 Horsepower,Texas,WL,Wheel Loader,,EROPS w AC,Yes,,None or Unspecified,,,,,,,,3 Valve,,,,,20.5,Manual,,,,,,,,,,,,,Standard,Conventional
3786,2323580,91000,833578,136,4.0,2006,0.0,,2/9/2009 0:00,930G,930,G,,,Medium,Wheel Loader - 135.0 to 150.0 Horsepower,Florida,WL,Wheel Loader,,EROPS w AC,Yes,,Yes,,,,,,,,3 Valve,,,,,None or Unspecified,Manual,,,,,,,,,,,,,Standard,Conventional
3786,2323581,80000,824384,136,4.0,2006,0.0,,2/9/2009 0:00,930G,930,G,,,Medium,Wheel Loader - 135.0 to 150.0 Horsepower,Florida,WL,Wheel Loader,,EROPS w AC,Yes,,Yes,,,,,,,,3 Valve,,,,,None or Unspecified,Manual,,,,,,,,,,,,,Standard,Conventional
3786,2323582,80000,528278,136,1.0,2006,0.0,,2/16/2009 0:00,930G,930,G,,,Medium,Wheel Loader - 135.0 to 150.0 Horsepower,Florida,WL,Wheel Loader,,EROPS w AC,None or Unspecified,,None or Unspecified,,,,,,,,3 Valve,,,,,20.5,Manual,,,,,,,,,,,,,Standard,Conventional
3786,2323583,68500,531942,136,2.0,2006,0.0,,1/31/2009 0:00,930G,930,G,,,Medium,Wheel Loader - 135.0 to 150.0 Horsepower,Florida,WL,Wheel Loader,,EROPS w AC,None or Unspecified,,None or Unspecified,,,,,,,,3 Valve,,,,,None or Unspecified,Manual,,,,,,,,,,,,,Standard,Conventional
3786,2323584,72000,341559,136,2.0,2006,0.0,,3/19/2009 0:00,930G,930,G,,,Medium,Wheel Loader - 135.0 to 150.0 Horsepower,New Jersey,WL,Wheel Loader,,EROPS w AC,None or Unspecified,,Yes,,,,,,,,3 Valve,,,,,None or Unspecified,Hydraulic,,,,,,,,,,,,,Standard,Conventional
3786,2323587,73500,333588,136,2.0,2006,0.0,,3/19/2009 0:00,930G,930,G,,,Medium,Wheel Loader - 135.0 to 150.0 Horsepower,New Jersey,WL,Wheel Loader,,EROPS w AC,None or Unspecified,,Yes,,,,,,,,3 Valve,,,,,None or Unspecified,Manual,,,,,,,,,,,,,Standard,Conventional
3786,2323588,76000,487399,136,20.0,2006,405000.0,High,4/15/2009 0:00,930G,930,G,,,Medium,Wheel Loader - 135.0 to 150.0 Horsepower,Arkansas,WL,Wheel Loader,,EROPS w AC,Yes,,None or Unspecified,,,,,,,,3 Valve,,,,,None or Unspecified,Manual,,,,,,,,,,,,,Standard,Conventional
3786,2323590,82500,124355,136,1.0,2006,0.0,,6/30/2009 0:00,930G,930,G,,,Medium,Wheel Loader - 135.0 to 150.0 Horsepower,North Carolina,WL,Wheel Loader,,EROPS w AC,Yes,,Yes,,,,,,,,2 Valve,,,,,20.5,Manual,,,,,,,,,,,,,Standard,Conventional
3786,2323591,64000,830063,136,,2006,0.0,,7/18/2009 0:00,930G,930,G,,,Medium,Wheel Loader - 135.0 to 150.0 Horsepower,New York,WL,Wheel Loader,,EROPS w AC,Yes,,Yes,,,,,,,,3 Valve,,,,,None or Unspecified,Manual,,,,,,,,,,,,,Standard,Conventional
3786,2323593,70000,141770,136,2.0,2006,0.0,,1/31/2009 0:00,930G,930,G,,,Medium,Wheel Loader - 135.0 to 150.0 Horsepower,Florida,WL,Wheel Loader,,EROPS w AC,Yes,,None or Unspecified,,,,,,,,3 Valve,,,,,None or Unspecified,Manual,,,,,,,,,,,,,Standard,Conventional
3786,2323594,67000,155698,136,2.0,2006,0.0,,1/31/2009 0:00,930G,930,G,,,Medium,Wheel Loader - 135.0 to 150.0 Horsepower,Florida,WL,Wheel Loader,,EROPS w AC,Yes,,None or Unspecified,,,,,,,,3 Valve,,,,,None or Unspecified,Manual,,,,,,,,,,,,,Standard,Conventional
3786,2323597,70000,314007,136,1.0,2006,5298.0,High,6/4/2010 0:00,930G,930,G,,,Medium,Wheel Loader - 135.0 to 150.0 Horsepower,Nevada,WL,Wheel Loader,,EROPS w AC,None or Unspecified,,Yes,,,,,,,,3 Valve,,,,,20.5,Hydraulic,,,,,,,,,,,,,Standard,Conventional
3786,2323598,84000,1607279,136,,2006,0.0,,11/19/2008 0:00,930G,930,G,,,Medium,Wheel Loader - 135.0 to 150.0 Horsepower,South Carolina,WL,Wheel Loader,,EROPS w AC,Yes,,Yes,,,,,,,,3 Valve,,,,,None or Unspecified,Manual,,,,,,,,,,,,,Standard,Conventional
3786,2323599,74000,1607279,136,,2006,0.0,,10/29/2008 0:00,930G,930,G,,,Medium,Wheel Loader - 135.0 to 150.0 Horsepower,North Carolina,WL,Wheel Loader,,EROPS w AC,Yes,,Yes,,,,,,,,3 Valve,,,,,None or Unspecified,Manual,,,,,,,,,,,,,Standard,Conventional
3786,2323604,86000,526002,136,1.0,2006,0.0,,10/15/2008 0:00,930G,930,G,,,Medium,Wheel Loader - 135.0 to 150.0 Horsepower,Florida,WL,Wheel Loader,,EROPS w AC,None or Unspecified,,None or Unspecified,,,,,,,,3 Valve,,,,,20.5,Manual,,,,,,,,,,,,,Standard,Conventional
3786,2323607,86000,532275,136,1.0,2006,2333.0,High,10/15/2008 0:00,930G,930,G,,,Medium,Wheel Loader - 135.0 to 150.0 Horsepower,Florida,WL,Wheel Loader,,EROPS w AC,None or Unspecified,,None or Unspecified,,,,,,,,3 Valve,,,,,None or Unspecified,Manual,,,,,,,,,,,,,Standard,Conventional
3786,2323610,63000,618965,136,1.0,2006,0.0,,8/26/2009 0:00,930G,930,G,,,Medium,Wheel Loader - 135.0 to 150.0 Horsepower,Texas,WL,Wheel Loader,,EROPS w AC,Yes,,None or Unspecified,,,,,,,,2 Valve,,,,,20.5,Manual,,,,,,,,,,,,,Standard,Conventional
3786,2323611,61000,590134,136,1.0,2006,2556.0,Medium,8/26/2009 0:00,930G,930,G,,,Medium,Wheel Loader - 135.0 to 150.0 Horsepower,Texas,WL,Wheel Loader,,EROPS w AC,Yes,,None or Unspecified,,,,,,,,2 Valve,,,,,20.5,Manual,,,,,,,,,,,,,Standard,Conventional
3786,2323612,61000,600933,136,1.0,2006,2844.0,Medium,8/26/2009 0:00,930G,930,G,,,Medium,Wheel Loader - 135.0 to 150.0 Horsepower,Texas,WL,Wheel Loader,,EROPS w AC,Yes,,None or Unspecified,,,,,,,,2 Valve,,,,,20.5,Manual,,,,,,,,,,,,,Standard,Conventional
3786,2323613,72000,594322,136,99.0,2006,2231.0,Medium,6/2/2009 0:00,930G,930,G,,,Medium,Wheel Loader - 135.0 to 150.0 Horsepower,Texas,WL,Wheel Loader,,EROPS w AC,Yes,,None or Unspecified,,,,,,,,2 Valve,,,,,20.5,Hydraulic,,,,,,,,,,,,,Standard,Conventional
3786,2323614,67500,815897,136,2.0,2006,0.0,,1/31/2010 0:00,930G,930,G,,,Medium,Wheel Loader - 135.0 to 150.0 Horsepower,Florida,WL,Wheel Loader,,EROPS w AC,Yes,,Yes,,,,,,,,3 Valve,,,,,20.5,Hydraulic,,,,,,,,,,,,,Standard,Conventional
3786,2323616,85000,891013,136,,2006,0.0,,9/10/2008 0:00,930G,930,G,,,Medium,Wheel Loader - 135.0 to 150.0 Horsepower,Alabama,WL,Wheel Loader,,EROPS w AC,Yes,,None or Unspecified,,,,,,,,2 Valve,,,,,None or Unspecified,None or Unspecified,,,,,,,,,,,,,Standard,Conventional
3786,2323621,57000,824043,136,4.0,2006,0.0,,7/18/2009 0:00,930G,930,G,,,Medium,Wheel Loader - 135.0 to 150.0 Horsepower,New York,WL,Wheel Loader,,EROPS w AC,None or Unspecified,,Yes,,,,,,,,3 Valve,,,,,None or Unspecified,Manual,,,,,,,,,,,,,Standard,Conventional
3786,2323622,73000,824043,136,4.0,2006,0.0,,3/19/2009 0:00,930G,930,G,,,Medium,Wheel Loader - 135.0 to 150.0 Horsepower,New Jersey,WL,Wheel Loader,,EROPS w AC,None or Unspecified,,Yes,,,,,,,,3 Valve,,,,,None or Unspecified,Manual,,,,,,,,,,,,,Standard,Conventional
3786,2323623,70000,824043,136,4.0,2006,0.0,,2/9/2009 0:00,930G,930,G,,,Medium,Wheel Loader - 135.0 to 150.0 Horsepower,Florida,WL,Wheel Loader,,EROPS w AC,None or Unspecified,,Yes,,,,,,,,3 Valve,,,,,None or Unspecified,Manual,,,,,,,,,,,,,Standard,Conventional
3786,2323625,96000,254714,136,7.0,2006,1153.0,Medium,6/4/2008 0:00,930G,930,G,,,Medium,Wheel Loader - 135.0 to 150.0 Horsepower,Alabama,WL,Wheel Loader,,EROPS w AC,Yes,,Yes,,,,,,,,3 Valve,,,,,20.5,Manual,,,,,,,,,,,,,Limited Slip,Conventional
3786,2323628,75000,337993,136,2.0,2006,0.0,,3/19/2009 0:00,930G,930,G,,,Medium,Wheel Loader - 135.0 to 150.0 Horsepower,New Jersey,WL,Wheel Loader,,EROPS w AC,Yes,,Yes,,,,,,,,3 Valve,,,,,None or Unspecified,Manual,,,,,,,,,,,,,Standard,Conventional
3786,2323630,54000,786721,136,1.0,2006,0.0,,5/27/2009 0:00,930G,930,G,,,Medium,Wheel Loader - 135.0 to 150.0 Horsepower,Florida,WL,Wheel Loader,,OROPS,Yes,,None or Unspecified,,,,,,,,3 Valve,,,,,20.5,Manual,,,,,,,,,,,,,Standard,Conventional
3786,2323642,56000,784163,136,1.0,2006,0.0,,5/27/2009 0:00,930G,930,G,,,Medium,Wheel Loader - 135.0 to 150.0 Horsepower,Florida,WL,Wheel Loader,,OROPS,Yes,,None or Unspecified,,,,,,,,3 Valve,,,,,20.5,Manual,,,,,,,,,,,,,Standard,Conventional
3786,2323644,74500,347846,136,2.0,2006,0.0,,3/19/2009 0:00,930G,930,G,,,Medium,Wheel Loader - 135.0 to 150.0 Horsepower,New Jersey,WL,Wheel Loader,,EROPS w AC,Yes,,Yes,,,,,,,,3 Valve,,,,,None or Unspecified,Manual,,,,,,,,,,,,,Standard,Conventional
3786,2323647,88000,996999,136,1.0,2006,1552.0,Medium,11/20/2008 0:00,930G,930,G,,,Medium,Wheel Loader - 135.0 to 150.0 Horsepower,Wyoming,WL,Wheel Loader,,EROPS w AC,Yes,,Yes,,,,,,,,3 Valve,,,,,20.5,Manual,,,,,,,,,,,,,Limited Slip,Conventional
3786,2323648,70000,937527,136,,2006,315800.0,High,3/19/2009 0:00,930G,930,G,,,Medium,Wheel Loader - 135.0 to 150.0 Horsepower,Oklahoma,WL,Wheel Loader,,EROPS w AC,Yes,,None or Unspecified,,,,,,,,3 Valve,,,,,None or Unspecified,Manual,,,,,,,,,,,,,Standard,Conventional
3786,2323656,97500,351406,136,1.0,2006,1274.0,Medium,4/2/2008 0:00,930G,930,G,,,Medium,Wheel Loader - 135.0 to 150.0 Horsepower,Maryland,WL,Wheel Loader,,EROPS w AC,None or Unspecified,,Yes,,,,,,,,3 Valve,,,,,20.5,Manual,,,,,,,,,,,,,Standard,Conventional
3786,2323657,75000,847292,136,2.0,2006,0.0,,6/26/2010 0:00,930G,930,G,,,Medium,Wheel Loader - 135.0 to 150.0 Horsepower,Massachusetts,WL,Wheel Loader,,EROPS w AC,None or Unspecified,,Yes,,,,,,,,3 Valve,,,,,20.5,Manual,,,,,,,,,,,,,Limited Slip,Conventional
3786,2323661,65000,786529,136,1.0,2007,1900.0,Medium,10/14/2009 0:00,930G,930,G,,,Medium,Wheel Loader - 135.0 to 150.0 Horsepower,Florida,WL,Wheel Loader,,OROPS,Yes,,None or Unspecified,,,,,,,,3 Valve,,,,,20.5,Manual,,,,,,,,,,,,,Standard,Conventional
3786,2323676,72500,528248,136,1.0,2007,0.0,,5/27/2009 0:00,930G,930,G,,,Medium,Wheel Loader - 135.0 to 150.0 Horsepower,Florida,WL,Wheel Loader,,EROPS w AC,Yes,,Yes,,,,,,,,2 Valve,,,,,20.5,Manual,,,,,,,,,,,,,Standard,Conventional
3786,2323685,80000,834302,136,2.0,2007,2000.0,Medium,1/31/2010 0:00,930G,930,G,,,Medium,Wheel Loader - 135.0 to 150.0 Horsepower,Florida,WL,Wheel Loader,,EROPS w AC,Yes,,Yes,,,,,,,,2 Valve,,,,,20.5,Hydraulic,,,,,,,,,,,,,Standard,Conventional
3786,2323688,85000,776908,136,1.0,2007,1716.0,Medium,2/15/2010 0:00,930G,930,G,,,Medium,Wheel Loader - 135.0 to 150.0 Horsepower,Florida,WL,Wheel Loader,,OROPS,Yes,,None or Unspecified,,,,,,,,3 Valve,,,,,20.5,Manual,,,,,,,,,,,,,Standard,Conventional
3786,2323693,57500,760176,136,1.0,2007,0.0,,5/27/2009 0:00,930G,930,G,,,Medium,Wheel Loader - 135.0 to 150.0 Horsepower,Florida,WL,Wheel Loader,,OROPS,Yes,,None or Unspecified,,,,,,,,3 Valve,,,,,20.5,Manual,,,,,,,,,,,,,Standard,Conventional
3786,2323694,57500,788836,136,1.0,2007,0.0,,5/27/2009 0:00,930G,930,G,,,Medium,Wheel Loader - 135.0 to 150.0 Horsepower,Florida,WL,Wheel Loader,,OROPS,Yes,,None or Unspecified,,,,,,,,3 Valve,,,,,20.5,Manual,,,,,,,,,,,,,Standard,Conventional
3786,2614920,97500,1792420,149,2.0,2007,1943.0,Low,3/31/2011 0:00,930G,930,G,,,Medium,Wheel Loader - 135.0 to 150.0 Horsepower,New Jersey,WL,Wheel Loader,,EROPS w AC,None or Unspecified,,None or Unspecified,,,,,,,,2 Valve,,,,,None or Unspecified,None or Unspecified,,,,,,,,,,,,,Standard,Conventional
3786,2614933,65000,560784,149,1.0,2005,5259.0,Medium,3/16/2011 0:00,930G,930,G,,,Medium,Wheel Loader - 135.0 to 150.0 Horsepower,Illinois,WL,Wheel Loader,,EROPS w AC,Yes,,None or Unspecified,,,,,,,,3 Valve,,,,,20.5,Manual,,,,,,,,,,,,,Standard,Conventional
3786,2614951,80000,692705,149,1.0,2007,1626.0,Low,7/13/2010 0:00,930G,930,G,,,Medium,Wheel Loader - 135.0 to 150.0 Horsepower,Illinois,WL,Wheel Loader,,EROPS w AC,None or Unspecified,,Yes,,,,,,,,3 Valve,,,,,20.5,Manual,,,,,,,,,,,,,Standard,Conventional
3786,2614952,65000,298645,149,15.0,2005,0.0,,9/22/2010 0:00,930G,930,G,,,Medium,Wheel Loader - 135.0 to 150.0 Horsepower,Pennsylvania,WL,Wheel Loader,,EROPS w AC,None or Unspecified,,Yes,,,,,,,,3 Valve,,,,,None or Unspecified,Manual,,,,,,,,,,,,,Standard,Conventional
3786,2614954,57500,177817,149,1.0,2005,3347.0,Medium,9/28/2010 0:00,930G,930,G,,,Medium,Wheel Loader - 135.0 to 150.0 Horsepower,California,WL,Wheel Loader,,OROPS,Yes,,Yes,,,,,,,,4 Valve,,,,,20.5,Manual,,,,,,,,,,,,,Standard,Conventional
3786,2614958,65000,989385,149,1.0,2005,5017.0,Medium,12/3/2010 0:00,930G,930,G,,,Medium,Wheel Loader - 135.0 to 150.0 Horsepower,Utah,WL,Wheel Loader,,EROPS w AC,Yes,,Yes,,,,,,,,3 Valve,,,,,20.5,Hydraulic,,,,,,,,,,,,,Limited Slip,Conventional
3786,2614970,66000,1329069,149,1.0,2005,4700.0,Medium,12/7/2010 0:00,930G,930,G,,,Medium,Wheel Loader - 135.0 to 150.0 Horsepower,North Carolina,WL,Wheel Loader,,EROPS w AC,Yes,,None or Unspecified,,,,,,,,3 Valve,,,,,20.5,Hydraulic,,,,,,,,,,,,,Standard,Conventional
3786,2614976,56500,871043,149,5.0,2005,7222.0,High,4/7/2011 0:00,930G,930,G,,,Medium,Wheel Loader - 135.0 to 150.0 Horsepower,Connecticut,WL,Wheel Loader,,EROPS w AC,None or Unspecified,,Yes,,,,,,,,3 Valve,,,,,20.5,Manual,,,,,,,,,,,,,Standard,Conventional
3786,2614982,59000,603009,149,1.0,2005,6845.0,High,11/3/2010 0:00,930G,930,G,,,Medium,Wheel Loader - 135.0 to 150.0 Horsepower,Texas,WL,Wheel Loader,,EROPS w AC,Yes,,None or Unspecified,,,,,,,,3 Valve,,,,,None or Unspecified,Hydraulic,,,,,,,,,,,,,Limited Slip,Conventional
3786,2614983,51000,588394,149,1.0,2005,10269.0,High,8/26/2010 0:00,930G,930,G,,,Medium,Wheel Loader - 135.0 to 150.0 Horsepower,Texas,WL,Wheel Loader,,EROPS w AC,Yes,,None or Unspecified,,,,,,,,3 Valve,,,,,20.5,Manual,,,,,,,,,,,,,Limited Slip,Conventional
3786,2614987,45000,483374,149,0.0,2005,0.0,,10/27/2010 0:00,930G,930,G,,,Medium,Wheel Loader - 135.0 to 150.0 Horsepower,Texas,WL,Wheel Loader,,EROPS w AC,Yes,,None or Unspecified,,,,,,,,3 Valve,,,,,20.5,Hydraulic,,,,,,,,,,,,,Standard,Conventional
3786,2615000,65000,751519,149,1.0,2005,0.0,,9/14/2010 0:00,930G,930,G,,,Medium,Wheel Loader - 135.0 to 150.0 Horsepower,California,WL,Wheel Loader,,EROPS w AC,None or Unspecified,,Yes,,,,,,,,4 Valve,,,,,20.5,Hydraulic,,,,,,,,,,,,,Standard,Conventional
3786,2615004,62500,499787,149,1.0,2005,5335.0,Medium,9/22/2010 0:00,930G,930,G,,,Medium,Wheel Loader - 135.0 to 150.0 Horsepower,Georgia,WL,Wheel Loader,,EROPS w AC,Yes,,None or Unspecified,,,,,,,,3 Valve,,,,,20.5,Hydraulic,,,,,,,,,,,,,Limited Slip,Conventional
3786,2615013,62500,52280,149,1.0,2005,4717.0,Medium,11/3/2010 0:00,930G,930,G,,,Medium,Wheel Loader - 135.0 to 150.0 Horsepower,Texas,WL,Wheel Loader,,EROPS w AC,Yes,,Yes,,,,,,,,3 Valve,,,,,20.5,Manual,,,,,,,,,,,,,Standard,Conventional
3786,2615014,77500,986837,149,1.0,2005,2525.0,Medium,10/14/2010 0:00,930G,930,G,,,Medium,Wheel Loader - 135.0 to 150.0 Horsepower,Colorado,WL,Wheel Loader,,EROPS w AC,Yes,,Yes,,,,,,,,3 Valve,,,,,20.5,Manual,,,,,,,,,,,,,Limited Slip,Conventional
3786,2615020,59000,21290,149,1.0,2005,8780.0,High,10/27/2010 0:00,930G,930,G,,,Medium,Wheel Loader - 135.0 to 150.0 Horsepower,Florida,WL,Wheel Loader,,EROPS w AC,Yes,,None or Unspecified,,,,,,,,3 Valve,,,,,20.5,Manual,,,,,,,,,,,,,Standard,Conventional
3786,2615023,62000,262601,149,1.0,2005,4726.0,Medium,3/31/2011 0:00,930G,930,G,,,Medium,Wheel Loader - 135.0 to 150.0 Horsepower,Georgia,WL,Wheel Loader,,EROPS w AC,Yes,,Yes,,,,,,,,3 Valve,,,,,20.5,Manual,,,,,,,,,,,,,Limited Slip,Conventional
3786,2615032,70000,31552,149,1.0,2005,6082.0,High,12/9/2010 0:00,930G,930,G,,,Medium,Wheel Loader - 135.0 to 150.0 Horsepower,Georgia,WL,Wheel Loader,,EROPS w AC,Yes,,None or Unspecified,,,,,,,,3 Valve,,,,,20.5,Manual,,,,,,,,,,,,,Standard,Conventional
3786,2615052,67500,1335623,149,1.0,2006,3525.0,Medium,10/27/2010 0:00,930G,930,G,,,Medium,Wheel Loader - 135.0 to 150.0 Horsepower,Florida,WL,Wheel Loader,,EROPS w AC,None or Unspecified,,None or Unspecified,,,,,,,,2 Valve,,,,,20.5,Manual,,,,,,,,,,,,,Standard,Conventional
3786,2615056,64000,21674,149,1.0,2003,0.0,,12/9/2010 0:00,930G,930,G,,,Medium,Wheel Loader - 135.0 to 150.0 Horsepower,Georgia,WL,Wheel Loader,,EROPS w AC,Yes,,None or Unspecified,,,,,,,,2 Valve,,,,,20.5,Manual,,,,,,,,,,,,,Standard,Conventional
3786,2615057,72500,116362,149,1.0,2006,4045.0,Medium,12/16/2010 0:00,930G,930,G,,,Medium,Wheel Loader - 135.0 to 150.0 Horsepower,Tennessee,WL,Wheel Loader,,EROPS w AC,Yes,,Yes,,,,,,,,3 Valve,,,,,20.5,Hydraulic,,,,,,,,,,,,,Limited Slip,Conventional
3786,2615086,58500,155231,149,2.0,2005,0.0,,10/7/2010 0:00,930G,930,G,,,Medium,Wheel Loader - 135.0 to 150.0 Horsepower,Georgia,WL,Wheel Loader,,EROPS w AC,None or Unspecified,,None or Unspecified,,,,,,,,3 Valve,,,,,None or Unspecified,Manual,,,,,,,,,,,,,Limited Slip,Conventional
3786,2615087,72500,463422,149,1.0,2006,3465.0,Medium,6/9/2010 0:00,930G,930,G,,,Medium,Wheel Loader - 135.0 to 150.0 Horsepower,Texas,WL,Wheel Loader,,EROPS w AC,Yes,,None or Unspecified,,,,,,,,3 Valve,,,,,20.5,Manual,,,,,,,,,,,,,Standard,Conventional
3786,2615093,80000,646907,149,1.0,1000,4991.0,Medium,3/15/2011 0:00,930G,930,G,,,Medium,Wheel Loader - 135.0 to 150.0 Horsepower,Colorado,WL,Wheel Loader,,EROPS w AC,None or Unspecified,,Yes,,,,,,,,3 Valve,,,,,20.5,Hydraulic,,,,,,,,,,,,,Standard,Conventional
3786,2615095,75000,966765,149,1.0,2006,5164.0,High,11/16/2010 0:00,930G,930,G,,,Medium,Wheel Loader - 135.0 to 150.0 Horsepower,Washington,WL,Wheel Loader,,EROPS w AC,Yes,,Yes,,,,,,,,2 Valve,,,,,None or Unspecified,Hydraulic,,,,,,,,,,,,,Limited Slip,Conventional
3786,2615106,72500,501361,149,1.0,2006,3890.0,Medium,11/3/2010 0:00,930G,930,G,,,Medium,Wheel Loader - 135.0 to 150.0 Horsepower,Texas,WL,Wheel Loader,,EROPS w AC,Yes,,None or Unspecified,,,,,,,,3 Valve,,,,,20.5,Hydraulic,,,,,,,,,,,,,Standard,Conventional
3786,2615122,70000,681552,149,1.0,2006,5495.0,Medium,3/17/2011 0:00,930G,930,G,,,Medium,Wheel Loader - 135.0 to 150.0 Horsepower,Ohio,WL,Wheel Loader,,EROPS w AC,None or Unspecified,,None or Unspecified,,,,,,,,3 Valve,,,,,20.5,Manual,,,,,,,,,,,,,Standard,Conventional
3786,2615125,92000,143897,149,1.0,2006,4192.0,Medium,2/15/2011 0:00,930G,930,G,,,Medium,Wheel Loader - 135.0 to 150.0 Horsepower,Florida,WL,Wheel Loader,,EROPS w AC,Yes,,Yes,,,,,,,,3 Valve,,,,,20.5,Manual,,,,,,,,,,,,,Standard,Conventional
3786,2615133,74000,235210,149,1.0,2006,2780.0,Medium,10/6/2010 0:00,930G,930,G,,,Medium,Wheel Loader - 135.0 to 150.0 Horsepower,Missouri,WL,Wheel Loader,,EROPS w AC,Yes,,Yes,,,,,,,,3 Valve,,,,,20.5,Manual,,,,,,,,,,,,,Standard,Conventional
3786,2615134,72500,237730,149,1.0,2006,2600.0,Medium,10/6/2010 0:00,930G,930,G,,,Medium,Wheel Loader - 135.0 to 150.0 Horsepower,Missouri,WL,Wheel Loader,,EROPS w AC,None or Unspecified,,Yes,,,,,,,,2 Valve,,,,,20.5,None or Unspecified,,,,,,,,,,,,,Standard,Conventional
3786,2615149,72500,808396,149,1.0,2006,6450.0,High,4/14/2011 0:00,930G,930,G,,,Medium,Wheel Loader - 135.0 to 150.0 Horsepower,Connecticut,WL,Wheel Loader,,EROPS w AC,None or Unspecified,,Yes,,,,,,,,2 Valve,,,,,20.5,Manual,,,,,,,,,,,,,Standard,Conventional
3786,2615176,87500,214438,149,1.0,2006,3329.0,Medium,3/4/2011 0:00,930G,930,G,,,Medium,Wheel Loader - 135.0 to 150.0 Horsepower,California,WL,Wheel Loader,,EROPS w AC,Yes,,Yes,,,,,,,,4 Valve,,,,,20.5,Hydraulic,,,,,,,,,,,,,Standard,Conventional
3786,2615178,75000,887166,149,13.0,2006,2848.0,Medium,12/18/2010 0:00,930G,930,G,,,Medium,Wheel Loader - 135.0 to 150.0 Horsepower,Tennessee,WL,Wheel Loader,,EROPS w AC,Yes,,Yes,,,,,,,,3 Valve,,,,,None or Unspecified,Manual,,,,,,,,,,,,,Standard,Conventional
3786,2615221,80000,7153,149,1.0,2007,0.0,,3/31/2010 0:00,930G,930,G,,,Medium,Wheel Loader - 135.0 to 150.0 Horsepower,Mississippi,WL,Wheel Loader,,EROPS w AC,Yes,,None or Unspecified,,,,,,,,3 Valve,,,,,None or Unspecified,Manual,,,,,,,,,,,,,Standard,Conventional
3786,2615267,80000,909303,149,1.0,2007,4273.0,High,10/12/2010 0:00,930G,930,G,,,Medium,Wheel Loader - 135.0 to 150.0 Horsepower,Kentucky,WL,Wheel Loader,,EROPS w AC,None or Unspecified,,Yes,,,,,,,,2 Valve,,,,,20.5,Hydraulic,,,,,,,,,,,,,Standard,Conventional
3786,2615286,90000,702334,149,1.0,2007,2160.0,Medium,12/14/2010 0:00,930G,930,G,,,Medium,Wheel Loader - 135.0 to 150.0 Horsepower,California,WL,Wheel Loader,,EROPS w AC,None or Unspecified,,Yes,,,,,,,,2 Valve,,,,,None or Unspecified,Hydraulic,,,,,,,,,,,,,Limited Slip,Conventional
3786,2615301,92500,795323,149,1.0,2007,3795.0,Medium,2/15/2011 0:00,930G,930,G,,,Medium,Wheel Loader - 135.0 to 150.0 Horsepower,Florida,WL,Wheel Loader,,OROPS,Yes,,None or Unspecified,,,,,,,,3 Valve,,,,,20.5,Manual,,,,,,,,,,,,,Standard,Conventional
3786,4306649,57000,473029,172,1.0,2006,6396.0,High,5/19/2009 0:00,930G,930,G,,,Medium,Wheel Loader - 135.0 to 150.0 Horsepower,Oklahoma,WL,Wheel Loader,,EROPS w AC,None or Unspecified,,None or Unspecified,,,,,,,,3 Valve,,,,,20.5,Manual,,,,,,,,,,,,,Standard,Conventional
3786,4306676,67500,788890,172,1.0,2006,1460.0,Low,2/16/2009 0:00,930G,930,G,,,Medium,Wheel Loader - 135.0 to 150.0 Horsepower,Florida,WL,Wheel Loader,,OROPS,None or Unspecified,,None or Unspecified,,,,,,,,2 Valve,,,,,20.5,Manual,,,,,,,,,,,,,Standard,Conventional
3786,4306678,67500,798781,172,1.0,2006,2023.0,Medium,2/15/2010 0:00,930G,930,G,,,Medium,Wheel Loader - 135.0 to 150.0 Horsepower,Florida,WL,Wheel Loader,,OROPS,None or Unspecified,,None or Unspecified,,,,,,,,2 Valve,,,,,20.5,None or Unspecified,,,,,,,,,,,,,Standard,Conventional
3786,4306749,75000,2287612,172,1.0,2006,5047.0,Medium,10/10/2011 0:00,930G,930,G,,,Medium,Wheel Loader - 135.0 to 150.0 Horsepower,Colorado,WL,Wheel Loader,,EROPS w AC,Yes,,Yes,,,,,,,,2 Valve,,,,,20.5,None or Unspecified,,,,,,,,,,,,,Standard,Conventional
3786,4306763,43000,2287612,172,1.0,2006,11430.0,High,12/14/2011 0:00,930G,930,G,,,Medium,Wheel Loader - 135.0 to 150.0 Horsepower,California,WL,Wheel Loader,,EROPS w AC,Yes,,Yes,,,,,,,,2 Valve,,,,,20.5,None or Unspecified,,,,,,,,,,,,,Standard,Conventional
3786,4306773,91000,2287612,172,1.0,2007,3071.0,Medium,11/15/2011 0:00,930G,930,G,,,Medium,Wheel Loader - 135.0 to 150.0 Horsepower,Texas,WL,Wheel Loader,,EROPS w AC,Yes,,Yes,,,,,,,,2 Valve,,,,,20.5,None or Unspecified,,,,,,,,,,,,,Standard,Conventional
3786,4306774,70000,2287612,172,1.0,2006,5290.0,Medium,12/15/2011 0:00,930G,930,G,,,Medium,Wheel Loader - 135.0 to 150.0 Horsepower,California,WL,Wheel Loader,,EROPS w AC,Yes,,Yes,,,,,,,,2 Valve,,,,,20.5,None or Unspecified,,,,,,,,,,,,,Standard,Conventional
3786,4306784,77000,2287612,172,1.0,2005,3705.0,Medium,9/13/2011 0:00,930G,930,G,,,Medium,Wheel Loader - 135.0 to 150.0 Horsepower,Georgia,WL,Wheel Loader,,EROPS w AC,Yes,,Yes,,,,,,,,2 Valve,,,,,20.5,None or Unspecified,,,,,,,,,,,,,Standard,Conventional
3786,4306785,75000,2287612,172,1.0,2005,4212.0,Medium,9/27/2011 0:00,930G,930,G,,,Medium,Wheel Loader - 135.0 to 150.0 Horsepower,North Carolina,WL,Wheel Loader,,EROPS w AC,Yes,,Yes,,,,,,,,2 Valve,,,,,20.5,None or Unspecified,,,,,,,,,,,,,Standard,Conventional
3786,6280603,75000,119735,149,1.0,2005,,,9/28/2011 0:00,930G,930,G,,,Medium,Wheel Loader - 135.0 to 150.0 Horsepower,North Carolina,WL,Wheel Loader,,EROPS w AC,Yes,,Yes,,,,,,,,3 Valve,,,,,None or Unspecified,Manual,,,,,,,,,,,,,Standard,Conventional
3786,6280604,80000,614183,149,1.0,2005,,,11/16/2011 0:00,930G,930,G,,,Medium,Wheel Loader - 135.0 to 150.0 Horsepower,Texas,WL,Wheel Loader,,EROPS w AC,Yes,,None or Unspecified,,,,,,,,3 Valve,,,,,None or Unspecified,Manual,,,,,,,,,,,,,Limited Slip,Conventional
3786,6280607,76000,616265,149,1.0,2005,,,11/16/2011 0:00,930G,930,G,,,Medium,Wheel Loader - 135.0 to 150.0 Horsepower,Texas,WL,Wheel Loader,,EROPS w AC,Yes,,None or Unspecified,,,,,,,,3 Valve,,,,,20.5,Manual,,,,,,,,,,,,,Limited Slip,Conventional
3786,6280608,46000,613467,149,2.0,2005,,,8/16/2011 0:00,930G,930,G,,,Medium,Wheel Loader - 135.0 to 150.0 Horsepower,Florida,WL,Wheel Loader,,EROPS w AC,None or Unspecified,,None or Unspecified,,,,,,,,2 Valve,,,,,None or Unspecified,None or Unspecified,,,,,,,,,,,,,Limited Slip,Conventional
3786,6280612,65000,31395,149,2.0,2005,,,8/18/2011 0:00,930G,930,G,,,Medium,Wheel Loader - 135.0 to 150.0 Horsepower,Alabama,WL,Wheel Loader,,EROPS w AC,None or Unspecified,,Yes,,,,,,,,3 Valve,,,,,None or Unspecified,Manual,,,,,,,,,,,,,Standard,Conventional
3786,6280614,84000,597102,149,1.0,2007,,,11/16/2011 0:00,930G,930,G,,,Medium,Wheel Loader - 135.0 to 150.0 Horsepower,Texas,WL,Wheel Loader,,EROPS w AC,Yes,,None or Unspecified,,,,,,,,3 Valve,,,,,20.5,Manual,,,,,,,,,,,,,Limited Slip,Conventional
3786,6280615,77000,4331,149,1.0,2005,,,9/14/2011 0:00,930G,930,G,,,Medium,Wheel Loader - 135.0 to 150.0 Horsepower,Georgia,WL,Wheel Loader,,EROPS w AC,Yes,,None or Unspecified,,,,,,,,3 Valve,,,,,None or Unspecified,Manual,,,,,,,,,,,,,Standard,Conventional
3786,6280616,74500,15215,149,2.0,2005,,,8/18/2011 0:00,930G,930,G,,,Medium,Wheel Loader - 135.0 to 150.0 Horsepower,Alabama,WL,Wheel Loader,,EROPS w AC,Yes,,Yes,,,,,,,,3 Valve,,,,,20.5,Manual,,,,,,,,,,,,,Standard,Conventional
3786,6280617,62500,707524,149,1.0,2005,,,12/16/2011 0:00,930G,930,G,,,Medium,Wheel Loader - 135.0 to 150.0 Horsepower,California,WL,Wheel Loader,,OROPS,Yes,,None or Unspecified,,,,,,,,4 Valve,,,,,20.5,Manual,,,,,,,,,,,,,Limited Slip,Conventional
3786,6280620,80000,600750,149,1.0,2005,,,11/16/2011 0:00,930G,930,G,,,Medium,Wheel Loader - 135.0 to 150.0 Horsepower,Texas,WL,Wheel Loader,,EROPS w AC,Yes,,None or Unspecified,,,,,,,,3 Valve,,,,,20.5,Manual,,,,,,,,,,,,,Limited Slip,Conventional
3786,6280633,84000,395409,149,2.0,2006,,,6/29/2011 0:00,930G,930,G,,,Medium,Wheel Loader - 135.0 to 150.0 Horsepower,Missouri,WL,Wheel Loader,,EROPS w AC,None or Unspecified,,Yes,,,,,,,,3 Valve,,,,,None or Unspecified,Manual,,,,,,,,,,,,,Standard,Conventional
3786,6280640,75000,802727,149,1.0,2006,,,10/26/2011 0:00,930G,930,G,,,Medium,Wheel Loader - 135.0 to 150.0 Horsepower,Florida,WL,Wheel Loader,,EROPS w AC,Yes,,None or Unspecified,,,,,,,,3 Valve,,,,,20.5,Hydraulic,,,,,,,,,,,,,Standard,Conventional
3786,6280641,43000,747324,149,1.0,2006,,,12/15/2011 0:00,930G,930,G,,,Medium,Wheel Loader - 135.0 to 150.0 Horsepower,California,WL,Wheel Loader,,EROPS w AC,None or Unspecified,,Yes,,,,,,,,4 Valve,,,,,20.5,Manual,,,,,,,,,,,,,Standard,Conventional
3786,6280642,75000,646907,149,1.0,2006,,,10/11/2011 0:00,930G,930,G,,,Medium,Wheel Loader - 135.0 to 150.0 Horsepower,Colorado,WL,Wheel Loader,,EROPS w AC,None or Unspecified,,Yes,,,,,,,,3 Valve,,,,,20.5,Hydraulic,,,,,,,,,,,,,Standard,Conventional
3786,6280644,64000,356113,149,1.0,2006,,,9/8/2011 0:00,930G,930,G,,,Medium,Wheel Loader - 135.0 to 150.0 Horsepower,Nebraska,WL,Wheel Loader,,EROPS w AC,Yes,,Yes,,,,,,,,2 Valve,,,,,None or Unspecified,Manual,,,,,,,,,,,,,Standard,Conventional
3786,6280645,70000,710981,149,1.0,2006,,,12/16/2011 0:00,930G,930,G,,,Medium,Wheel Loader - 135.0 to 150.0 Horsepower,California,WL,Wheel Loader,,EROPS w AC,None or Unspecified,,Yes,,,,,,,,2 Valve,,,,,None or Unspecified,Manual,,,,,,,,,,,,,Standard,Conventional
3786,6280652,86000,123668,149,4.0,2008,,,9/27/2011 0:00,930G,930,G,,,Medium,Wheel Loader - 135.0 to 150.0 Horsepower,North Carolina,WL,Wheel Loader,,EROPS w AC,Yes,,Yes,,,,,,,,2 Valve,,,,,None or Unspecified,Manual,,,,,,,,,,,,,Standard,Conventional
3786,6280661,69000,1648102,149,1.0,2006,,,10/26/2011 0:00,930G,930,G,,,Medium,Wheel Loader - 135.0 to 150.0 Horsepower,Florida,WL,Wheel Loader,,OROPS,None or Unspecified,,None or Unspecified,,,,,,,,2 Valve,,,,,None or Unspecified,Manual,,,,,,,,,,,,,Standard,Conventional
3786,6280668,91000,591442,149,1.0,2007,,,11/16/2011 0:00,930G,930,G,,,Medium,Wheel Loader - 135.0 to 150.0 Horsepower,Texas,WL,Wheel Loader,,EROPS w AC,Yes,,None or Unspecified,,,,,,,,2 Valve,,,,,20.5,Manual,,,,,,,,,,,,,Limited Slip,Conventional
3786,6280675,79000,789422,149,1.0,2007,,,10/26/2011 0:00,930G,930,G,,,Medium,Wheel Loader - 135.0 to 150.0 Horsepower,Florida,WL,Wheel Loader,,EROPS w AC,Yes,,Yes,,,,,,,,2 Valve,,,,,20.5,Manual,,,,,,,,,,,,,Standard,Conventional
