ModelID,SalesID,SalePrice,MachineID,datasource,auctioneerID,YearMade,MachineHoursCurrentMeter,UsageBand,saledate,fiModelDesc,fiBaseModel,fiSecondaryDesc,fiModelSeries,fiModelDescriptor,ProductSize,fiProductClassDesc,state,ProductGroup,ProductGroupDesc,Drive_System,Enclosure,Forks,Pad_Type,Ride_Control,Stick,Transmission,Turbocharged,Blade_Extension,Blade_Width,Enclosure_Type,Engine_Horsepower,Hydraulics,Pushblock,Ripper,Scarifier,Tip_Control,Tire_Size,Coupler,Coupler_System,Grouser_Tracks,Hydraulics_Flow,Track_Type,Undercarriage_Pad_Width,Stick_Length,Thumb,Pattern_Changer,Grouser_Type,Backhoe_Mounting,Blade_Type,Travel_Controls,Differential_Type,Steering_Controls
4135,1308263,8500,1168992,132,1.0,1956,,,4/11/1996 0:00,D7C,D7,C,,,Large,"Track Type Tractor, Dozer - 190.0 to 260.0 Horsepower",Texas,TTT,Track Type Tractors,,OROPS,,,,,Standard,,,,,,2 Valve,,None or Unspecified,,,,,,,,,,,,,,None or Unspecified,None or Unspecified,None or Unspecified,,
4135,1308280,11500,1469078,132,1.0,1956,,,9/23/1998 0:00,D7C,D7,C,,,Large,"Track Type Tractor, Dozer - 190.0 to 260.0 Horsepower",Texas,TTT,Track Type Tractors,,OROPS,,,,,Standard,,,,,,2 Valve,,None or Unspecified,,,,,,,,,,,,,,None or Unspecified,None or Unspecified,None or Unspecified,,
4135,1308284,13000,1370710,132,6.0,1956,,,11/8/1995 0:00,D7C,D7,C,,,Large,"Track Type Tractor, Dozer - 190.0 to 260.0 Horsepower",New Mexico,TTT,Track Type Tractors,,OROPS,,,,,Standard,,,,,,2 Valve,,None or Unspecified,,,,,,,,,,,,,,None or Unspecified,None or Unspecified,None or Unspecified,,
4135,1308294,14500,1100754,132,1.0,1956,,,10/3/1995 0:00,D7C,D7,C,,,Large,"Track Type Tractor, Dozer - 190.0 to 260.0 Horsepower",Texas,TTT,Track Type Tractors,,OROPS,,,,,Standard,,,,,,2 Valve,,None or Unspecified,,,,,,,,,,,,,,None or Unspecified,None or Unspecified,None or Unspecified,,
4135,1308295,10000,1413077,132,1.0,1956,,,8/19/1997 0:00,D7C,D7,C,,,Large,"Track Type Tractor, Dozer - 190.0 to 260.0 Horsepower",Arkansas,TTT,Track Type Tractors,,OROPS,,,,,Standard,,,,,,2 Valve,,None or Unspecified,,,,,,,,,,,,,,None or Unspecified,None or Unspecified,None or Unspecified,,
4135,1308308,11000,1366337,132,18.0,1956,,,10/18/1995 0:00,D7C,D7,C,,,Large,"Track Type Tractor, Dozer - 190.0 to 260.0 Horsepower",Ohio,TTT,Track Type Tractors,,EROPS,,,,,Direct Drive,,,,,,2 Valve,,None or Unspecified,,,,,,,,,,,,,,None or Unspecified,None or Unspecified,None or Unspecified,,
4135,1308334,16000,1322446,132,6.0,1957,,,8/31/1995 0:00,D7C,D7,C,,,Large,"Track Type Tractor, Dozer - 190.0 to 260.0 Horsepower",Utah,TTT,Track Type Tractors,,OROPS,,,,,Standard,,,,,,2 Valve,,None or Unspecified,,,,,,,,,,,,,,None or Unspecified,None or Unspecified,None or Unspecified,,
4135,1308335,11000,1256191,132,1.0,1957,,,9/12/2000 0:00,D7C,D7,C,,,Large,"Track Type Tractor, Dozer - 190.0 to 260.0 Horsepower",California,TTT,Track Type Tractors,,OROPS,,,,,Standard,,,,,,2 Valve,,None or Unspecified,,,,,,,,,,,,,,None or Unspecified,None or Unspecified,None or Unspecified,,
4135,1308338,12000,1272618,132,1.0,1957,,,9/12/2000 0:00,D7C,D7,C,,,Large,"Track Type Tractor, Dozer - 190.0 to 260.0 Horsepower",California,TTT,Track Type Tractors,,OROPS,,,,,Standard,,,,,,2 Valve,,None or Unspecified,,,,,,,,,,,,,,None or Unspecified,None or Unspecified,None or Unspecified,,
4135,1308339,9000,1227820,132,6.0,1957,,,8/27/1996 0:00,D7C,D7,C,,,Large,"Track Type Tractor, Dozer - 190.0 to 260.0 Horsepower",Indiana,TTT,Track Type Tractors,,OROPS,,,,,Direct Drive,,,,,,2 Valve,,None or Unspecified,,,,,,,,,,,,,,None or Unspecified,None or Unspecified,None or Unspecified,,
4135,1308340,13000,1240364,132,6.0,1957,,,11/8/1995 0:00,D7C,D7,C,,,Large,"Track Type Tractor, Dozer - 190.0 to 260.0 Horsepower",New Mexico,TTT,Track Type Tractors,,OROPS,,,,,Standard,,,,,,2 Valve,,None or Unspecified,,,,,,,,,,,,,,None or Unspecified,None or Unspecified,None or Unspecified,,
4135,1308343,8500,1489398,132,6.0,1957,,,6/18/1996 0:00,D7C,D7,C,,,Large,"Track Type Tractor, Dozer - 190.0 to 260.0 Horsepower",Texas,TTT,Track Type Tractors,,OROPS,,,,,Direct Drive,,,,,,2 Valve,,None or Unspecified,,,,,,,,,,,,,,None or Unspecified,Straight,None or Unspecified,,
4135,1308351,8500,1536808,132,21.0,1958,,,3/28/1996 0:00,D7C,D7,C,,,Large,"Track Type Tractor, Dozer - 190.0 to 260.0 Horsepower",Maine,TTT,Track Type Tractors,,OROPS,,,,,Standard,,,,,,2 Valve,,None or Unspecified,,,,,,,,,,,,,,None or Unspecified,Straight,None or Unspecified,,
4135,1308354,9000,1253847,132,19.0,1958,,,9/23/2004 0:00,D7C,D7,C,,,Large,"Track Type Tractor, Dozer - 190.0 to 260.0 Horsepower",Wyoming,TTT,Track Type Tractors,,OROPS,,,,,Direct Drive,,,,,,2 Valve,,None or Unspecified,,,,,,,,,,,,,,None or Unspecified,None or Unspecified,None or Unspecified,,
4135,1308362,25000,1195264,132,1.0,1958,34.0,Low,4/23/1996 0:00,D7C,D7,C,,,Large,"Track Type Tractor, Dozer - 190.0 to 260.0 Horsepower",Virginia,TTT,Track Type Tractors,,OROPS,,,,,Standard,,,,,,2 Valve,,None or Unspecified,,,,,,,,,,,,,,None or Unspecified,Straight,None or Unspecified,,
4135,1308363,9500,1393393,132,1.0,1958,,,12/8/2004 0:00,D7C,D7,C,,,Large,"Track Type Tractor, Dozer - 190.0 to 260.0 Horsepower",Texas,TTT,Track Type Tractors,,OROPS,,,,,Standard,,,,,,2 Valve,,None or Unspecified,,,,,,,,,,,,,,None or Unspecified,None or Unspecified,None or Unspecified,,
4135,1308364,8500,1393393,132,1.0,1958,,,12/8/2005 0:00,D7C,D7,C,,,Large,"Track Type Tractor, Dozer - 190.0 to 260.0 Horsepower",Texas,TTT,Track Type Tractors,,OROPS,,,,,Standard,,,,,,2 Valve,,None or Unspecified,,,,,,,,,,,,,,None or Unspecified,None or Unspecified,None or Unspecified,,
4135,1308365,13000,1312434,132,6.0,1958,,,11/8/1995 0:00,D7C,D7,C,,,Large,"Track Type Tractor, Dozer - 190.0 to 260.0 Horsepower",New Mexico,TTT,Track Type Tractors,,OROPS,,,,,Standard,,,,,,2 Valve,,None or Unspecified,,,,,,,,,,,,,,None or Unspecified,None or Unspecified,None or Unspecified,,
4135,1308368,14500,1232960,132,1.0,1958,,,12/8/2005 0:00,D7C,D7,C,,,Large,"Track Type Tractor, Dozer - 190.0 to 260.0 Horsepower",Texas,TTT,Track Type Tractors,,OROPS,,,,,Standard,,,,,,2 Valve,,None or Unspecified,,,,,,,,,,,,,,None or Unspecified,None or Unspecified,None or Unspecified,,
4135,1308371,14500,1376532,132,1.0,1958,,,12/8/2005 0:00,D7C,D7,C,,,Large,"Track Type Tractor, Dozer - 190.0 to 260.0 Horsepower",Texas,TTT,Track Type Tractors,,OROPS,,,,,Standard,,,,,,2 Valve,,None or Unspecified,,,,,,,,,,,,,,None or Unspecified,None or Unspecified,None or Unspecified,,
4135,1308372,16000,1184675,132,6.0,1959,,,8/31/1995 0:00,D7C,D7,C,,,Large,"Track Type Tractor, Dozer - 190.0 to 260.0 Horsepower",Utah,TTT,Track Type Tractors,,OROPS,,,,,Standard,,,,,,2 Valve,,None or Unspecified,,,,,,,,,,,,,,None or Unspecified,None or Unspecified,None or Unspecified,,
4135,1308377,21000,1189197,132,1.0,1958,,,8/5/1999 0:00,D7C,D7,C,,,Large,"Track Type Tractor, Dozer - 190.0 to 260.0 Horsepower",Pennsylvania,TTT,Track Type Tractors,,OROPS,,,,,Standard,,,,,,2 Valve,,None or Unspecified,,,,,,,,,,,,,,None or Unspecified,None or Unspecified,None or Unspecified,,
4135,1372204,15000,1143707,132,1.0,1964,,,7/21/2005 0:00,D7C,D7,C,,,Large,"Track Type Tractor, Dozer - 190.0 to 260.0 Horsepower",Texas,TTT,Track Type Tractors,,OROPS,,,,,Standard,,,,,,2 Valve,,None or Unspecified,,,,,,,,,,,,,,None or Unspecified,Straight,None or Unspecified,,
4135,2217669,21000,1691990,136,,1000,,,5/9/2007 0:00,D7C,D7,C,,,Large,"Track Type Tractor, Dozer - 190.0 to 260.0 Horsepower",Texas,TTT,Track Type Tractors,,OROPS,,,,,Standard,,,,,,2 Valve,,None or Unspecified,,,,,,,,,,,,,,None or Unspecified,None or Unspecified,None or Unspecified,,
4135,2217676,29000,1271391,136,1.0,1956,,,8/27/2008 0:00,D7C,D7,C,,,Large,"Track Type Tractor, Dozer - 190.0 to 260.0 Horsepower",Arkansas,TTT,Track Type Tractors,,OROPS,,,,,Standard,,,,,,2 Valve,,None or Unspecified,,,,,,,,,,,,,,None or Unspecified,None or Unspecified,None or Unspecified,,
4135,2217682,11000,1108131,136,1.0,1957,,,9/24/2008 0:00,D7C,D7,C,,,Large,"Track Type Tractor, Dozer - 190.0 to 260.0 Horsepower",Texas,TTT,Track Type Tractors,,OROPS,,,,,Standard,,,,,,2 Valve,,None or Unspecified,,,,,,,,,,,,,,None or Unspecified,None or Unspecified,None or Unspecified,,
