ModelID,SalesID,SalePrice,MachineID,datasource,auctioneerID,YearMade,MachineHoursCurrentMeter,UsageBand,saledate,fiModelDesc,fiBaseModel,fiSecondaryDesc,fiModelSeries,fiModelDescriptor,ProductSize,fiProductClassDesc,state,ProductGroup,ProductGroupDesc,Drive_System,Enclosure,Forks,Pad_Type,Ride_Control,Stick,Transmission,Turbocharged,Blade_Extension,Blade_Width,Enclosure_Type,Engine_Horsepower,Hydraulics,Pushblock,Ripper,Scarifier,Tip_Control,Tire_Size,Coupler,Coupler_System,Grouser_Tracks,Hydraulics_Flow,Track_Type,Undercarriage_Pad_Width,Stick_Length,Thumb,Pattern_Changer,Grouser_Type,Backhoe_Mounting,Blade_Type,Travel_Controls,Differential_Type,Steering_Controls
4503,1141400,32000,1030389,121,3.0,1991,2285.0,Low,5/21/2007 0:00,710A,710,A,,,,Motorgrader - 130.0 to 145.0 Horsepower,Texas,MG,Motor Graders,No,EROPS w AC,,,,,Powershift,,None or Unspecified,None or Unspecified,None or Unspecified,No,Base + 1 Function,None or Unspecified,None or Unspecified,Yes,None or Unspecified,"14""",,,,,,,,,,,,,,,
4503,1142380,33000,1021820,121,3.0,1000,9156.0,Low,6/16/2011 0:00,710A,710,A,,,,Motorgrader - 130.0 to 145.0 Horsepower,Texas,MG,Motor Graders,No,EROPS,,,,,Powershift,,None or Unspecified,14',None or Unspecified,No,Base + 1 Function,None or Unspecified,Yes,None or Unspecified,None or Unspecified,"17.5""",,,,,,,,,,,,,,,
4503,1143003,55000,999782,121,3.0,1999,1772.0,Low,9/8/2005 0:00,710A,710,A,,,,Motorgrader - 130.0 to 145.0 Horsepower,Kansas,MG,Motor Graders,No,EROPS w AC,,,,,None or Unspecified,,None or Unspecified,None or Unspecified,None or Unspecified,No,Base + 1 Function,None or Unspecified,None or Unspecified,None or Unspecified,None or Unspecified,None or Unspecified,,,,,,,,,,,,,,,
4503,1143457,47500,1011558,121,3.0,1996,2552.0,Low,9/20/2007 0:00,710A,710,A,,,,Motorgrader - 130.0 to 145.0 Horsepower,Connecticut,MG,Motor Graders,No,EROPS,,,,,Powershift,,None or Unspecified,None or Unspecified,None or Unspecified,No,Base + 1 Function,None or Unspecified,None or Unspecified,None or Unspecified,None or Unspecified,"14""",,,,,,,,,,,,,,,
4503,1148546,37000,1047678,121,3.0,1000,0.0,,2/25/2010 0:00,710A,710,A,,,,Motorgrader - 130.0 to 145.0 Horsepower,Florida,MG,Motor Graders,No,EROPS w AC,,,,,Powershift,,None or Unspecified,14',None or Unspecified,No,Base + 1 Function,None or Unspecified,None or Unspecified,Yes,None or Unspecified,None or Unspecified,,,,,,,,,,,,,,,
4503,1179883,35000,1010940,121,3.0,1996,759.0,Low,6/12/2008 0:00,710A,710,A,,,,Motorgrader - 130.0 to 145.0 Horsepower,New Jersey,MG,Motor Graders,No,EROPS,,,,,Powershift,,None or Unspecified,None or Unspecified,None or Unspecified,No,Base + 1 Function,None or Unspecified,None or Unspecified,Yes,None or Unspecified,"14""",,,,,,,,,,,,,,,
4503,1182221,48000,1043899,121,3.0,1998,5084.0,Low,9/4/2008 0:00,710A,710,A,,,,Motorgrader - 130.0 to 145.0 Horsepower,Georgia,MG,Motor Graders,No,EROPS w AC,,,,,Powershift,,None or Unspecified,None or Unspecified,None or Unspecified,No,Base + 1 Function,None or Unspecified,Yes,Yes,None or Unspecified,"17.5""",,,,,,,,,,,,,,,
4503,1189724,17000,1003581,121,3.0,1000,5322.0,Low,4/30/2009 0:00,710A,710,A,,,,Motorgrader - 130.0 to 145.0 Horsepower,Pennsylvania,MG,Motor Graders,No,EROPS,,,,,Powershift,,None or Unspecified,None or Unspecified,None or Unspecified,No,Base + 1 Function,None or Unspecified,None or Unspecified,Yes,None or Unspecified,"17.5""",,,,,,,,,,,,,,,
4503,1191015,29000,1017058,121,3.0,1998,8622.0,Medium,5/28/2009 0:00,710A,710,A,,,,Motorgrader - 130.0 to 145.0 Horsepower,Alabama,MG,Motor Graders,No,EROPS w AC,,,,,Powershift,,None or Unspecified,None or Unspecified,None or Unspecified,No,Base + 1 Function,None or Unspecified,None or Unspecified,None or Unspecified,None or Unspecified,"14""",,,,,,,,,,,,,,,
4503,1195580,20500,1066742,121,3.0,1000,6912.0,Low,11/19/2009 0:00,710A,710,A,,,,Motorgrader - 130.0 to 145.0 Horsepower,California,MG,Motor Graders,No,EROPS,,,,,Powershift,,None or Unspecified,None or Unspecified,None or Unspecified,No,Base + 1 Function,None or Unspecified,None or Unspecified,Yes,None or Unspecified,"14""",,,,,,,,,,,,,,,
4503,1214697,36500,1055297,121,3.0,1000,4422.0,Low,6/23/2011 0:00,710A,710,A,,,,Motorgrader - 130.0 to 145.0 Horsepower,Kentucky,MG,Motor Graders,No,EROPS,,,,,None or Unspecified,,None or Unspecified,12',None or Unspecified,No,Base + 1 Function,None or Unspecified,None or Unspecified,None or Unspecified,None or Unspecified,"13""",,,,,,,,,,,,,,,
4503,1222204,15000,1029963,121,3.0,1000,4630.0,Low,12/15/2011 0:00,710A,710,A,,,,Motorgrader - 130.0 to 145.0 Horsepower,New York,MG,Motor Graders,No,EROPS,,,,,None or Unspecified,,None or Unspecified,13',None or Unspecified,No,Base + 1 Function,None or Unspecified,None or Unspecified,Yes,None or Unspecified,"13""",,,,,,,,,,,,,,,
4503,2325260,40000,1721240,136,1.0,1995,0.0,,2/15/2010 0:00,710A,710,A,,,,Motorgrader - 130.0 to 145.0 Horsepower,Florida,MG,Motor Graders,No,EROPS,,,,,None or Unspecified,,None or Unspecified,12',Low Profile,No,Base + 1 Function,None or Unspecified,None or Unspecified,None or Unspecified,None or Unspecified,"14""",,,,,,,,,,,,,,,
4503,2325261,27000,1721240,136,,1995,0.0,,8/20/2009 0:00,710A,710,A,,,,Motorgrader - 130.0 to 145.0 Horsepower,South Carolina,MG,Motor Graders,No,EROPS,,,,,None or Unspecified,,None or Unspecified,12',Low Profile,No,Base + 1 Function,None or Unspecified,None or Unspecified,None or Unspecified,None or Unspecified,"14""",,,,,,,,,,,,,,,
4503,2325280,31000,1763196,136,,1995,0.0,,2/9/2009 0:00,710A,710,A,,,,Motorgrader - 130.0 to 145.0 Horsepower,Florida,MG,Motor Graders,No,EROPS w AC,,,,,None or Unspecified,,None or Unspecified,14',None or Unspecified,No,Base + 1 Function,None or Unspecified,None or Unspecified,Yes,Tip,None or Unspecified,,,,,,,,,,,,,,,
4503,2325301,26000,1731577,136,,1995,0.0,,5/10/2008 0:00,710A,710,A,,,,Motorgrader - 130.0 to 145.0 Horsepower,Vermont,MG,Motor Graders,No,OROPS,,,,,None or Unspecified,,None or Unspecified,None or Unspecified,None or Unspecified,No,Base + 1 Function,None or Unspecified,None or Unspecified,None or Unspecified,None or Unspecified,None or Unspecified,,,,,,,,,,,,,,,
4503,2325370,55000,1644485,136,1.0,1998,0.0,,2/19/2008 0:00,710A,710,A,,,,Motorgrader - 130.0 to 145.0 Horsepower,Florida,MG,Motor Graders,No,EROPS w AC,,,,,None or Unspecified,,None or Unspecified,12',None or Unspecified,No,Base + 1 Function,None or Unspecified,None or Unspecified,None or Unspecified,None or Unspecified,None or Unspecified,,,,,,,,,,,,,,,
4503,2325450,36000,1787595,136,,1000,0.0,,8/21/2008 0:00,710A,710,A,,,,Motorgrader - 130.0 to 145.0 Horsepower,South Carolina,MG,Motor Graders,No,OROPS,,,,,None or Unspecified,,None or Unspecified,None or Unspecified,None or Unspecified,No,Base + 1 Function,None or Unspecified,None or Unspecified,None or Unspecified,None or Unspecified,None or Unspecified,,,,,,,,,,,,,,,
4503,2325501,10500,1700919,136,8.0,1000,0.0,,11/14/2007 0:00,710A,710,A,,,,Motorgrader - 130.0 to 145.0 Horsepower,Mississippi,MG,Motor Graders,No,OROPS,,,,,None or Unspecified,,None or Unspecified,None or Unspecified,None or Unspecified,No,Base + 1 Function,None or Unspecified,None or Unspecified,None or Unspecified,None or Unspecified,None or Unspecified,,,,,,,,,,,,,,,
4503,2325502,28500,1691991,136,,1979,0.0,,1/31/2009 0:00,710A,710,A,,,,Motorgrader - 130.0 to 145.0 Horsepower,Florida,MG,Motor Graders,No,OROPS,,,,,None or Unspecified,,None or Unspecified,None or Unspecified,None or Unspecified,No,Base + 1 Function,None or Unspecified,None or Unspecified,None or Unspecified,None or Unspecified,None or Unspecified,,,,,,,,,,,,,,,
4503,2325503,30000,1687759,136,,1991,0.0,,8/20/2009 0:00,710A,710,A,,,,Motorgrader - 130.0 to 145.0 Horsepower,South Carolina,MG,Motor Graders,No,EROPS,,,,,None or Unspecified,,None or Unspecified,None or Unspecified,None or Unspecified,No,Base + 1 Function,None or Unspecified,None or Unspecified,Yes,None or Unspecified,None or Unspecified,,,,,,,,,,,,,,,
4503,2325504,27000,1687759,136,,1000,0.0,,2/13/2009 0:00,710A,710,A,,,,Motorgrader - 130.0 to 145.0 Horsepower,Florida,MG,Motor Graders,No,EROPS,,,,,None or Unspecified,,None or Unspecified,None or Unspecified,None or Unspecified,No,Base + 1 Function,None or Unspecified,None or Unspecified,Yes,None or Unspecified,None or Unspecified,,,,,,,,,,,,,,,
4503,2325505,26500,1740614,136,4.0,1000,0.0,,2/8/2010 0:00,710A,710,A,,,,Motorgrader - 130.0 to 145.0 Horsepower,Florida,MG,Motor Graders,All Wheel Drive,EROPS,,,,,None or Unspecified,,None or Unspecified,None or Unspecified,Low Profile,No,Base + 1 Function,None or Unspecified,None or Unspecified,Yes,None or Unspecified,None or Unspecified,,,,,,,,,,,,,,,
4503,2325506,25000,1740929,136,,1000,0.0,,2/13/2009 0:00,710A,710,A,,,,Motorgrader - 130.0 to 145.0 Horsepower,Florida,MG,Motor Graders,No,EROPS,,,,,None or Unspecified,,None or Unspecified,None or Unspecified,None or Unspecified,No,Base + 1 Function,None or Unspecified,None or Unspecified,Yes,None or Unspecified,None or Unspecified,,,,,,,,,,,,,,,
4503,2325507,27000,1740929,136,,1000,0.0,,8/20/2009 0:00,710A,710,A,,,,Motorgrader - 130.0 to 145.0 Horsepower,South Carolina,MG,Motor Graders,No,EROPS,,,,,None or Unspecified,,None or Unspecified,None or Unspecified,None or Unspecified,No,Base + 1 Function,None or Unspecified,None or Unspecified,Yes,None or Unspecified,None or Unspecified,,,,,,,,,,,,,,,
4503,2325508,24500,1740929,136,4.0,1000,0.0,,2/8/2010 0:00,710A,710,A,,,,Motorgrader - 130.0 to 145.0 Horsepower,Florida,MG,Motor Graders,No,EROPS,,,,,None or Unspecified,,None or Unspecified,None or Unspecified,None or Unspecified,No,Base + 1 Function,None or Unspecified,None or Unspecified,Yes,None or Unspecified,None or Unspecified,,,,,,,,,,,,,,,
4503,2325509,27000,1721188,136,,1000,0.0,,12/11/2007 0:00,710A,710,A,,,,Motorgrader - 130.0 to 145.0 Horsepower,Louisiana,MG,Motor Graders,No,EROPS,,,,,None or Unspecified,,None or Unspecified,None or Unspecified,None or Unspecified,No,Base + 1 Function,None or Unspecified,None or Unspecified,None or Unspecified,None or Unspecified,None or Unspecified,,,,,,,,,,,,,,,
4503,2325513,14000,1695893,136,2.0,1000,0.0,,4/15/2010 0:00,710A,710,A,,,,Motorgrader - 130.0 to 145.0 Horsepower,North Carolina,MG,Motor Graders,No,OROPS,,,,,None or Unspecified,,None or Unspecified,12',None or Unspecified,No,Base + 1 Function,None or Unspecified,Yes,Yes,Sideshift & Tip,"14""",,,,,,,,,,,,,,,
4503,2325514,18000,1689848,136,,1986,0.0,,8/10/2007 0:00,710A,710,A,,,,Motorgrader - 130.0 to 145.0 Horsepower,South Carolina,MG,Motor Graders,No,OROPS,,,,,None or Unspecified,,None or Unspecified,None or Unspecified,None or Unspecified,No,Base + 1 Function,None or Unspecified,None or Unspecified,None or Unspecified,None or Unspecified,None or Unspecified,,,,,,,,,,,,,,,
4503,2325515,20000,1772198,136,4.0,1000,0.0,,2/9/2009 0:00,710A,710,A,,,,Motorgrader - 130.0 to 145.0 Horsepower,Florida,MG,Motor Graders,No,EROPS,,,,,None or Unspecified,,None or Unspecified,None or Unspecified,None or Unspecified,No,Base + 1 Function,None or Unspecified,None or Unspecified,Yes,Tip,None or Unspecified,,,,,,,,,,,,,,,
4503,2325516,21000,1702161,136,1.0,1000,0.0,,11/12/2008 0:00,710A,710,A,,,,Motorgrader - 130.0 to 145.0 Horsepower,Arizona,MG,Motor Graders,No,EROPS,,,,,None or Unspecified,,None or Unspecified,12',None or Unspecified,No,Base + 1 Function,Yes,Yes,Yes,None or Unspecified,None or Unspecified,,,,,,,,,,,,,,,
4503,2325518,8500,1786083,136,1.0,1000,0.0,,3/16/2010 0:00,710A,710,A,,,,Motorgrader - 130.0 to 145.0 Horsepower,Tennessee,MG,Motor Graders,No,EROPS,,,,,None or Unspecified,,None or Unspecified,12',None or Unspecified,No,Base + 1 Function,None or Unspecified,None or Unspecified,None or Unspecified,None or Unspecified,"14""",,,,,,,,,,,,,,,
4503,2325520,18000,1759458,136,1.0,1000,0.0,,2/16/2009 0:00,710A,710,A,,,,Motorgrader - 130.0 to 145.0 Horsepower,Florida,MG,Motor Graders,No,EROPS,,,,,None or Unspecified,,None or Unspecified,12',None or Unspecified,No,Base + 1 Function,None or Unspecified,None or Unspecified,None or Unspecified,None or Unspecified,"14""",,,,,,,,,,,,,,,
4503,2325653,26500,1703338,136,9.0,1000,0.0,,5/7/2009 0:00,710A,710,A,,,,Motorgrader - 130.0 to 145.0 Horsepower,South Carolina,MG,Motor Graders,No,EROPS,,,,,None or Unspecified,,None or Unspecified,None or Unspecified,None or Unspecified,No,Base + 1 Function,None or Unspecified,None or Unspecified,None or Unspecified,None or Unspecified,None or Unspecified,,,,,,,,,,,,,,,
4503,2325654,17000,1768634,136,2.0,1000,0.0,,3/24/2009 0:00,710A,710,A,,,,Motorgrader - 130.0 to 145.0 Horsepower,Texas,MG,Motor Graders,No,EROPS,,,,,None or Unspecified,,None or Unspecified,None or Unspecified,None or Unspecified,No,Base + 1 Function,None or Unspecified,Yes,None or Unspecified,None or Unspecified,None or Unspecified,,,,,,,,,,,,,,,
4503,2325658,23500,1787833,136,9.0,1000,0.0,,5/7/2009 0:00,710A,710,A,,,,Motorgrader - 130.0 to 145.0 Horsepower,South Carolina,MG,Motor Graders,No,EROPS,,,,,None or Unspecified,,None or Unspecified,None or Unspecified,None or Unspecified,No,Base + 1 Function,None or Unspecified,None or Unspecified,None or Unspecified,None or Unspecified,None or Unspecified,,,,,,,,,,,,,,,
4503,2325669,21000,1690968,136,,1992,0.0,,9/17/2009 0:00,710A,710,A,,,,Motorgrader - 130.0 to 145.0 Horsepower,Mississippi,MG,Motor Graders,No,OROPS,,,,,None or Unspecified,,None or Unspecified,None or Unspecified,None or Unspecified,No,Base + 1 Function,None or Unspecified,None or Unspecified,Yes,Tip,None or Unspecified,,,,,,,,,,,,,,,
4503,2325693,17750,1716322,136,7.0,1000,0.0,,4/24/2008 0:00,710A,710,A,,,,Motorgrader - 130.0 to 145.0 Horsepower,South Carolina,MG,Motor Graders,No,EROPS,,,,,None or Unspecified,,None or Unspecified,None or Unspecified,None or Unspecified,No,Base + 1 Function,None or Unspecified,None or Unspecified,Yes,Tip,None or Unspecified,,,,,,,,,,,,,,,
4503,2325699,25500,1691171,136,9.0,1995,0.0,,5/7/2009 0:00,710A,710,A,,,,Motorgrader - 130.0 to 145.0 Horsepower,South Carolina,MG,Motor Graders,No,EROPS,,,,,None or Unspecified,,None or Unspecified,None or Unspecified,None or Unspecified,No,Base + 1 Function,None or Unspecified,None or Unspecified,None or Unspecified,None or Unspecified,None or Unspecified,,,,,,,,,,,,,,,
4503,2325878,8500,1695440,136,7.0,1000,0.0,,10/22/2008 0:00,710A,710,A,,,,Motorgrader - 130.0 to 145.0 Horsepower,South Carolina,MG,Motor Graders,No,EROPS,,,,,None or Unspecified,,None or Unspecified,None or Unspecified,None or Unspecified,No,Base + 1 Function,None or Unspecified,None or Unspecified,None or Unspecified,Tip,None or Unspecified,,,,,,,,,,,,,,,
4503,2325883,17000,1663722,136,,1000,0.0,,8/13/2009 0:00,710A,710,A,,,,Motorgrader - 130.0 to 145.0 Horsepower,Florida,MG,Motor Graders,No,EROPS,,,,,None or Unspecified,,None or Unspecified,None or Unspecified,None or Unspecified,No,Base + 1 Function,None or Unspecified,Yes,None or Unspecified,None or Unspecified,None or Unspecified,,,,,,,,,,,,,,,
4503,2325885,11500,1648455,136,2.0,1000,0.0,,10/12/2009 0:00,710A,710,A,,,,Motorgrader - 130.0 to 145.0 Horsepower,Florida,MG,Motor Graders,No,EROPS,,,,,None or Unspecified,,None or Unspecified,None or Unspecified,None or Unspecified,No,Base + 1 Function,None or Unspecified,Yes,Yes,None or Unspecified,None or Unspecified,,,,,,,,,,,,,,,
4503,2325886,13500,1648455,136,2.0,1000,0.0,,1/31/2010 0:00,710A,710,A,,,,Motorgrader - 130.0 to 145.0 Horsepower,Florida,MG,Motor Graders,No,EROPS,,,,,None or Unspecified,,None or Unspecified,None or Unspecified,None or Unspecified,No,Base + 1 Function,None or Unspecified,Yes,Yes,None or Unspecified,None or Unspecified,,,,,,,,,,,,,,,
4503,2325887,15500,1648455,136,2.0,1000,0.0,,5/6/2009 0:00,710A,710,A,,,,Motorgrader - 130.0 to 145.0 Horsepower,Texas,MG,Motor Graders,No,EROPS,,,,,None or Unspecified,,None or Unspecified,None or Unspecified,None or Unspecified,No,Base + 1 Function,None or Unspecified,Yes,Yes,None or Unspecified,None or Unspecified,,,,,,,,,,,,,,,
4503,2325888,25500,1648455,136,2.0,1000,0.0,,12/10/2009 0:00,710A,710,A,,,,Motorgrader - 130.0 to 145.0 Horsepower,Florida,MG,Motor Graders,No,EROPS,,,,,None or Unspecified,,None or Unspecified,None or Unspecified,None or Unspecified,No,Base + 1 Function,None or Unspecified,Yes,Yes,None or Unspecified,None or Unspecified,,,,,,,,,,,,,,,
4503,2325893,34000,1760890,136,,1000,0.0,,2/11/2008 0:00,710A,710,A,,,,Motorgrader - 130.0 to 145.0 Horsepower,Florida,MG,Motor Graders,No,EROPS,,,,,None or Unspecified,,None or Unspecified,14',None or Unspecified,No,Base + 1 Function,None or Unspecified,None or Unspecified,None or Unspecified,None or Unspecified,"14""",,,,,,,,,,,,,,,
4503,2325896,19000,1658501,136,1.0,1000,0.0,,8/21/2008 0:00,710A,710,A,,,,Motorgrader - 130.0 to 145.0 Horsepower,Arizona,MG,Motor Graders,No,EROPS,,,,,None or Unspecified,,None or Unspecified,12',None or Unspecified,No,Base + 1 Function,None or Unspecified,None or Unspecified,None or Unspecified,None or Unspecified,None or Unspecified,,,,,,,,,,,,,,,
4503,2325897,25000,1689009,136,,1000,0.0,,12/30/2008 0:00,710A,710,A,,,,Motorgrader - 130.0 to 145.0 Horsepower,North Carolina,MG,Motor Graders,No,EROPS,,,,,None or Unspecified,,None or Unspecified,12',None or Unspecified,No,Base + 1 Function,None or Unspecified,Yes,None or Unspecified,None or Unspecified,None or Unspecified,,,,,,,,,,,,,,,
4503,2325900,29000,1681895,136,1.0,1000,0.0,,12/13/2007 0:00,710A,710,A,,,,Motorgrader - 130.0 to 145.0 Horsepower,Colorado,MG,Motor Graders,No,EROPS,,,,,None or Unspecified,,None or Unspecified,None or Unspecified,None or Unspecified,No,Base + 1 Function,None or Unspecified,None or Unspecified,Yes,None or Unspecified,None or Unspecified,,,,,,,,,,,,,,,
4503,2325902,12700,1709896,136,20.0,1000,0.0,,12/9/2009 0:00,710A,710,A,,,,Motorgrader - 130.0 to 145.0 Horsepower,Arkansas,MG,Motor Graders,No,OROPS,,,,,None or Unspecified,,None or Unspecified,None or Unspecified,None or Unspecified,No,Base + 1 Function,None or Unspecified,None or Unspecified,None or Unspecified,None or Unspecified,None or Unspecified,,,,,,,,,,,,,,,
4503,2325905,28000,1778007,136,4.0,1000,0.0,,2/8/2010 0:00,710A,710,A,,,,Motorgrader - 130.0 to 145.0 Horsepower,Florida,MG,Motor Graders,No,OROPS,,,,,None or Unspecified,,None or Unspecified,None or Unspecified,None or Unspecified,No,Base + 1 Function,None or Unspecified,None or Unspecified,None or Unspecified,None or Unspecified,None or Unspecified,,,,,,,,,,,,,,,
4503,2325906,29000,1742843,136,4.0,1000,0.0,,2/8/2010 0:00,710A,710,A,,,,Motorgrader - 130.0 to 145.0 Horsepower,Florida,MG,Motor Graders,No,EROPS,,,,,None or Unspecified,,None or Unspecified,None or Unspecified,None or Unspecified,No,Base + 1 Function,None or Unspecified,None or Unspecified,Yes,None or Unspecified,None or Unspecified,,,,,,,,,,,,,,,
4503,2325907,11000,1648179,136,,1000,0.0,,9/11/2009 0:00,710A,710,A,,,,Motorgrader - 130.0 to 145.0 Horsepower,Arizona,MG,Motor Graders,No,EROPS,,,,,None or Unspecified,,None or Unspecified,12',None or Unspecified,No,Base + 1 Function,None or Unspecified,Yes,Yes,None or Unspecified,None or Unspecified,,,,,,,,,,,,,,,
4503,2325909,18000,1672207,136,,1000,0.0,,8/10/2007 0:00,710A,710,A,,,,Motorgrader - 130.0 to 145.0 Horsepower,South Carolina,MG,Motor Graders,No,OROPS,,,,,None or Unspecified,,None or Unspecified,None or Unspecified,None or Unspecified,No,Base + 1 Function,None or Unspecified,None or Unspecified,None or Unspecified,None or Unspecified,None or Unspecified,,,,,,,,,,,,,,,
4503,2325910,16200,1758321,136,,1986,0.0,,6/20/2008 0:00,710A,710,A,,,,Motorgrader - 130.0 to 145.0 Horsepower,Texas,MG,Motor Graders,No,OROPS,,,,,None or Unspecified,,None or Unspecified,None or Unspecified,None or Unspecified,No,Base + 1 Function,None or Unspecified,None or Unspecified,None or Unspecified,None or Unspecified,None or Unspecified,,,,,,,,,,,,,,,
4503,2325913,22000,1785458,136,1.0,1000,0.0,,3/30/2007 0:00,710A,710,A,,,,Motorgrader - 130.0 to 145.0 Horsepower,Nevada,MG,Motor Graders,No,EROPS,,,,,None or Unspecified,,None or Unspecified,12',None or Unspecified,No,Base + 1 Function,None or Unspecified,None or Unspecified,Yes,None or Unspecified,None or Unspecified,,,,,,,,,,,,,,,
4503,2325914,20000,1785458,136,1.0,1000,0.0,,9/13/2007 0:00,710A,710,A,,,,Motorgrader - 130.0 to 145.0 Horsepower,Arizona,MG,Motor Graders,No,EROPS,,,,,None or Unspecified,,None or Unspecified,12',None or Unspecified,No,Base + 1 Function,None or Unspecified,None or Unspecified,Yes,None or Unspecified,None or Unspecified,,,,,,,,,,,,,,,
4503,2325915,17000,1686578,136,,1985,5161.0,Low,2/20/2009 0:00,710A,710,A,,,,Motorgrader - 130.0 to 145.0 Horsepower,California,MG,Motor Graders,No,OROPS,,,,,None or Unspecified,,None or Unspecified,None or Unspecified,None or Unspecified,No,Base + 1 Function,None or Unspecified,None or Unspecified,None or Unspecified,None or Unspecified,None or Unspecified,,,,,,,,,,,,,,,
4503,2325916,15000,1669966,136,,1985,6905.0,Low,2/20/2009 0:00,710A,710,A,,,,Motorgrader - 130.0 to 145.0 Horsepower,California,MG,Motor Graders,No,EROPS,,,,,None or Unspecified,,None or Unspecified,14',None or Unspecified,No,Base + 1 Function,None or Unspecified,None or Unspecified,Yes,None or Unspecified,"14""",,,,,,,,,,,,,,,
4503,2325917,21000,1708573,136,,1989,0.0,,4/4/2008 0:00,710A,710,A,,,,Motorgrader - 130.0 to 145.0 Horsepower,North Carolina,MG,Motor Graders,No,EROPS,,,,,Powershift,,None or Unspecified,12',None or Unspecified,No,Base + 1 Function,None or Unspecified,None or Unspecified,Yes,None or Unspecified,"14""",,,,,,,,,,,,,,,
4503,2325920,22000,1699403,136,1.0,1000,0.0,,10/1/2008 0:00,710A,710,A,,,,Motorgrader - 130.0 to 145.0 Horsepower,Maryland,MG,Motor Graders,No,EROPS,,,,,None or Unspecified,,None or Unspecified,12',None or Unspecified,No,Base + 1 Function,None or Unspecified,None or Unspecified,None or Unspecified,None or Unspecified,None or Unspecified,,,,,,,,,,,,,,,
4503,2325921,13000,1676808,136,,1986,283200.0,High,4/24/2009 0:00,710A,710,A,,,,Motorgrader - 130.0 to 145.0 Horsepower,California,MG,Motor Graders,No,EROPS,,,,,None or Unspecified,,None or Unspecified,14',None or Unspecified,No,Base + 1 Function,None or Unspecified,None or Unspecified,Yes,None or Unspecified,"14""",,,,,,,,,,,,,,,
4503,2325922,21000,1671956,136,1.0,1000,0.0,,3/5/2008 0:00,710A,710,A,,,,Motorgrader - 130.0 to 145.0 Horsepower,Texas,MG,Motor Graders,No,EROPS,,,,,None or Unspecified,,None or Unspecified,None or Unspecified,None or Unspecified,No,Base + 1 Function,None or Unspecified,None or Unspecified,Yes,None or Unspecified,None or Unspecified,,,,,,,,,,,,,,,
4503,2325923,33000,1746739,136,1.0,1000,0.0,,3/5/2008 0:00,710A,710,A,,,,Motorgrader - 130.0 to 145.0 Horsepower,Texas,MG,Motor Graders,No,EROPS,,,,,None or Unspecified,,None or Unspecified,14',None or Unspecified,No,Base + 1 Function,None or Unspecified,None or Unspecified,Yes,None or Unspecified,"14""",,,,,,,,,,,,,,,
4503,2325925,11000,1676111,136,,1000,0.0,,4/24/2009 0:00,710A,710,A,,,,Motorgrader - 130.0 to 145.0 Horsepower,California,MG,Motor Graders,No,EROPS,,,,,None or Unspecified,,None or Unspecified,14',None or Unspecified,No,Base + 1 Function,None or Unspecified,None or Unspecified,Yes,None or Unspecified,None or Unspecified,,,,,,,,,,,,,,,
4503,2325926,19000,1730306,136,,1000,2620.0,Low,8/18/2009 0:00,710A,710,A,,,,Motorgrader - 130.0 to 145.0 Horsepower,California,MG,Motor Graders,No,EROPS,,,,,None or Unspecified,,None or Unspecified,14',None or Unspecified,No,Base + 1 Function,None or Unspecified,None or Unspecified,Yes,None or Unspecified,"14""",,,,,,,,,,,,,,,
4503,2325927,55500,1730306,136,,1983,2620.0,Low,10/27/2009 0:00,710A,710,A,,,,Motorgrader - 130.0 to 145.0 Horsepower,California,MG,Motor Graders,No,EROPS,,,,,None or Unspecified,,None or Unspecified,14',None or Unspecified,No,Base + 1 Function,None or Unspecified,None or Unspecified,Yes,None or Unspecified,"14""",,,,,,,,,,,,,,,
4503,2325928,10000,1739945,136,,1000,606200.0,Medium,4/24/2009 0:00,710A,710,A,,,,Motorgrader - 130.0 to 145.0 Horsepower,California,MG,Motor Graders,No,OROPS,,,,,None or Unspecified,,None or Unspecified,12',None or Unspecified,No,Base + 1 Function,None or Unspecified,None or Unspecified,Yes,None or Unspecified,"14""",,,,,,,,,,,,,,,
4503,2325929,14800,1659141,136,,1983,0.0,,6/20/2008 0:00,710A,710,A,,,,Motorgrader - 130.0 to 145.0 Horsepower,Texas,MG,Motor Graders,No,OROPS,,,,,None or Unspecified,,None or Unspecified,None or Unspecified,None or Unspecified,No,Base + 1 Function,None or Unspecified,None or Unspecified,None or Unspecified,None or Unspecified,None or Unspecified,,,,,,,,,,,,,,,
4503,2325930,11500,1677951,136,1.0,1984,0.0,,10/11/2008 0:00,710A,710,A,,,,Motorgrader - 130.0 to 145.0 Horsepower,California,MG,Motor Graders,No,EROPS w AC,,,,,None or Unspecified,,None or Unspecified,16',None or Unspecified,No,Base + 1 Function,None or Unspecified,None or Unspecified,None or Unspecified,None or Unspecified,"14""",,,,,,,,,,,,,,,
4503,2325931,14000,1677951,136,1.0,1000,0.0,,10/1/2008 0:00,710A,710,A,,,,Motorgrader - 130.0 to 145.0 Horsepower,California,MG,Motor Graders,No,EROPS w AC,,,,,None or Unspecified,,None or Unspecified,16',None or Unspecified,No,Base + 1 Function,None or Unspecified,None or Unspecified,None or Unspecified,None or Unspecified,"14""",,,,,,,,,,,,,,,
4503,2325932,28000,1693276,136,,1000,0.0,,2/11/2008 0:00,710A,710,A,,,,Motorgrader - 130.0 to 145.0 Horsepower,Florida,MG,Motor Graders,No,EROPS,,,,,None or Unspecified,,None or Unspecified,None or Unspecified,None or Unspecified,No,Base + 1 Function,None or Unspecified,None or Unspecified,Yes,None or Unspecified,"14""",,,,,,,,,,,,,,,
4503,2326306,12500,1782902,136,,1000,0.0,,2/28/2009 0:00,710A,710,A,,,,Motorgrader - 130.0 to 145.0 Horsepower,Georgia,MG,Motor Graders,No,EROPS,,,,,None or Unspecified,,None or Unspecified,None or Unspecified,None or Unspecified,No,Base + 1 Function,None or Unspecified,Yes,None or Unspecified,None or Unspecified,None or Unspecified,,,,,,,,,,,,,,,
4503,2326307,68500,1688074,136,2.0,1000,0.0,,2/3/2008 0:00,710A,710,A,,,,Motorgrader - 130.0 to 145.0 Horsepower,Florida,MG,Motor Graders,No,EROPS,,,,,None or Unspecified,,None or Unspecified,None or Unspecified,None or Unspecified,No,Base + 1 Function,None or Unspecified,None or Unspecified,Yes,Sideshift & Tip,None or Unspecified,,,,,,,,,,,,,,,
4503,2326320,42000,1665551,136,1.0,1000,0.0,,3/29/2007 0:00,710A,710,A,,,,Motorgrader - 130.0 to 145.0 Horsepower,Texas,MG,Motor Graders,No,EROPS w AC,,,,,None or Unspecified,,Yes,12',None or Unspecified,No,Base + 1 Function,Yes,None or Unspecified,Yes,None or Unspecified,"14""",,,,,,,,,,,,,,,
4503,2326324,29000,1646026,136,4.0,1000,0.0,,2/8/2010 0:00,710A,710,A,,,,Motorgrader - 130.0 to 145.0 Horsepower,Florida,MG,Motor Graders,No,OROPS,,,,,None or Unspecified,,None or Unspecified,None or Unspecified,None or Unspecified,No,Base + 1 Function,None or Unspecified,None or Unspecified,None or Unspecified,None or Unspecified,None or Unspecified,,,,,,,,,,,,,,,
4503,2326329,57500,1659074,136,2.0,1000,0.0,,8/7/2008 0:00,710A,710,A,,,,Motorgrader - 130.0 to 145.0 Horsepower,Florida,MG,Motor Graders,No,EROPS w AC,,,,,None or Unspecified,,None or Unspecified,None or Unspecified,None or Unspecified,No,Base + 1 Function,None or Unspecified,None or Unspecified,None or Unspecified,Sideshift & Tip,None or Unspecified,,,,,,,,,,,,,,,
4503,2326336,36000,1785594,136,4.0,1000,0.0,,2/8/2010 0:00,710A,710,A,,,,Motorgrader - 130.0 to 145.0 Horsepower,Florida,MG,Motor Graders,No,OROPS,,,,,None or Unspecified,,None or Unspecified,None or Unspecified,None or Unspecified,No,Base + 1 Function,None or Unspecified,None or Unspecified,None or Unspecified,None or Unspecified,None or Unspecified,,,,,,,,,,,,,,,
4503,2326343,45000,1668615,136,1.0,1000,0.0,,3/29/2007 0:00,710A,710,A,,,,Motorgrader - 130.0 to 145.0 Horsepower,Texas,MG,Motor Graders,No,EROPS w AC,,,,,None or Unspecified,,None or Unspecified,12',None or Unspecified,No,Base + 1 Function,None or Unspecified,None or Unspecified,Yes,None or Unspecified,"14""",,,,,,,,,,,,,,,
4503,2326349,42500,1689219,136,,1998,0.0,,5/9/2007 0:00,710A,710,A,,,,Motorgrader - 130.0 to 145.0 Horsepower,Texas,MG,Motor Graders,No,EROPS,,,,,None or Unspecified,,None or Unspecified,12',None or Unspecified,No,Base + 1 Function,None or Unspecified,None or Unspecified,Yes,None or Unspecified,None or Unspecified,,,,,,,,,,,,,,,
4503,2618164,25500,1918636,149,26.0,1994,0.0,,12/2/2010 0:00,710A,710,A,,,,Motorgrader - 130.0 to 145.0 Horsepower,Alabama,MG,Motor Graders,No,EROPS,,,,,None or Unspecified,,None or Unspecified,14',None or Unspecified,No,Base + 1 Function,None or Unspecified,None or Unspecified,Yes,None or Unspecified,None or Unspecified,,,,,,,,,,,,,,,
4503,2618193,33000,1941727,149,1.0,1996,0.0,,8/26/2010 0:00,710A,710,A,,,,Motorgrader - 130.0 to 145.0 Horsepower,Texas,MG,Motor Graders,No,EROPS w AC,,,,,None or Unspecified,,None or Unspecified,14',Low Profile,No,Base + 1 Function,None or Unspecified,None or Unspecified,Yes,None or Unspecified,"14""",,,,,,,,,,,,,,,
4503,2618197,25000,1847705,149,26.0,1995,0.0,,12/2/2010 0:00,710A,710,A,,,,Motorgrader - 130.0 to 145.0 Horsepower,Alabama,MG,Motor Graders,No,OROPS,,,,,None or Unspecified,,None or Unspecified,None or Unspecified,None or Unspecified,No,Base + 1 Function,None or Unspecified,None or Unspecified,None or Unspecified,None or Unspecified,None or Unspecified,,,,,,,,,,,,,,,
4503,2618198,25500,1857752,149,26.0,1995,0.0,,12/2/2010 0:00,710A,710,A,,,,Motorgrader - 130.0 to 145.0 Horsepower,Alabama,MG,Motor Graders,No,EROPS,,,,,None or Unspecified,,None or Unspecified,14',None or Unspecified,No,Base + 1 Function,None or Unspecified,None or Unspecified,Yes,None or Unspecified,"14""",,,,,,,,,,,,,,,
4503,2618199,30000,1857752,149,1.0,1996,9367.0,Medium,2/15/2011 0:00,710A,710,A,,,,Motorgrader - 130.0 to 145.0 Horsepower,Florida,MG,Motor Graders,No,EROPS,,,,,None or Unspecified,,None or Unspecified,14',None or Unspecified,No,Base + 1 Function,None or Unspecified,None or Unspecified,Yes,None or Unspecified,"14""",,,,,,,,,,,,,,,
4503,2618203,25000,1818970,149,26.0,1995,0.0,,12/2/2010 0:00,710A,710,A,,,,Motorgrader - 130.0 to 145.0 Horsepower,Alabama,MG,Motor Graders,No,OROPS,,,,,None or Unspecified,,None or Unspecified,None or Unspecified,None or Unspecified,No,Base + 1 Function,None or Unspecified,None or Unspecified,None or Unspecified,None or Unspecified,None or Unspecified,,,,,,,,,,,,,,,
4503,2618230,25000,1890541,149,26.0,1997,0.0,,12/2/2010 0:00,710A,710,A,,,,Motorgrader - 130.0 to 145.0 Horsepower,Alabama,MG,Motor Graders,No,OROPS,,,,,None or Unspecified,,None or Unspecified,None or Unspecified,None or Unspecified,No,Base + 1 Function,None or Unspecified,None or Unspecified,None or Unspecified,None or Unspecified,None or Unspecified,,,,,,,,,,,,,,,
4503,2618231,25000,1841361,149,26.0,1997,0.0,,12/2/2010 0:00,710A,710,A,,,,Motorgrader - 130.0 to 145.0 Horsepower,Alabama,MG,Motor Graders,No,OROPS,,,,,None or Unspecified,,None or Unspecified,None or Unspecified,None or Unspecified,No,Base + 1 Function,None or Unspecified,None or Unspecified,None or Unspecified,None or Unspecified,None or Unspecified,,,,,,,,,,,,,,,
4503,2618379,22000,1804990,149,1.0,1992,7163.0,Low,2/15/2011 0:00,710A,710,A,,,,Motorgrader - 130.0 to 145.0 Horsepower,Florida,MG,Motor Graders,No,EROPS,,,,,None or Unspecified,,None or Unspecified,12',None or Unspecified,No,Base + 1 Function,None or Unspecified,Yes,None or Unspecified,None or Unspecified,"14""",,,,,,,,,,,,,,,
4503,2618380,24000,1890822,149,1.0,1000,0.0,,3/16/2010 0:00,710A,710,A,,,,Motorgrader - 130.0 to 145.0 Horsepower,Colorado,MG,Motor Graders,No,EROPS w AC,,,,,None or Unspecified,,Yes,None or Unspecified,None or Unspecified,No,Base + 1 Function,None or Unspecified,None or Unspecified,Yes,None or Unspecified,"14""",,,,,,,,,,,,,,,
4503,2618388,20000,1820967,149,1.0,1989,9160.0,Low,3/15/2011 0:00,710A,710,A,,,,Motorgrader - 130.0 to 145.0 Horsepower,Colorado,MG,Motor Graders,No,EROPS,,,,,None or Unspecified,,None or Unspecified,12',None or Unspecified,No,Base + 1 Function,None or Unspecified,Yes,None or Unspecified,None or Unspecified,None or Unspecified,,,,,,,,,,,,,,,
4503,2618398,21000,1940504,149,99.0,1986,0.0,,4/16/2010 0:00,710A,710,A,,,,Motorgrader - 130.0 to 145.0 Horsepower,California,MG,Motor Graders,No,OROPS,,,,,None or Unspecified,,None or Unspecified,12',None or Unspecified,No,Base + 1 Function,None or Unspecified,Yes,Yes,Sideshift & Tip,None or Unspecified,,,,,,,,,,,,,,,
4503,2618465,10000,1799501,149,1.0,1988,0.0,,12/1/2010 0:00,710A,710,A,,,,Motorgrader - 130.0 to 145.0 Horsepower,Texas,MG,Motor Graders,No,EROPS,,,,,None or Unspecified,,None or Unspecified,14',None or Unspecified,No,Base + 1 Function,None or Unspecified,None or Unspecified,Yes,None or Unspecified,None or Unspecified,,,,,,,,,,,,,,,
4503,2618520,23000,1703338,149,9.0,1991,0.0,,12/3/2009 0:00,710A,710,A,,,,Motorgrader - 130.0 to 145.0 Horsepower,South Carolina,MG,Motor Graders,No,EROPS,,,,,None or Unspecified,,None or Unspecified,None or Unspecified,None or Unspecified,No,Base + 1 Function,None or Unspecified,None or Unspecified,None or Unspecified,None or Unspecified,None or Unspecified,,,,,,,,,,,,,,,
4503,2618559,22500,1691171,149,9.0,1995,0.0,,12/3/2009 0:00,710A,710,A,,,,Motorgrader - 130.0 to 145.0 Horsepower,South Carolina,MG,Motor Graders,No,EROPS,,,,,None or Unspecified,,None or Unspecified,None or Unspecified,None or Unspecified,No,Base + 1 Function,None or Unspecified,None or Unspecified,None or Unspecified,None or Unspecified,None or Unspecified,,,,,,,,,,,,,,,
4503,2618572,27000,1917253,149,99.0,1000,0.0,,4/14/2011 0:00,710A,710,A,,,,Motorgrader - 130.0 to 145.0 Horsepower,California,MG,Motor Graders,No,OROPS,,,,,None or Unspecified,,None or Unspecified,None or Unspecified,None or Unspecified,No,Base + 1 Function,None or Unspecified,None or Unspecified,None or Unspecified,None or Unspecified,None or Unspecified,,,,,,,,,,,,,,,
4503,2618583,15500,1832808,149,2.0,1000,0.0,,11/17/2010 0:00,710A,710,A,,,,Motorgrader - 130.0 to 145.0 Horsepower,Mississippi,MG,Motor Graders,No,OROPS,,,,,None or Unspecified,,None or Unspecified,None or Unspecified,None or Unspecified,No,Base + 1 Function,None or Unspecified,None or Unspecified,None or Unspecified,None or Unspecified,None or Unspecified,,,,,,,,,,,,,,,
4503,2618743,12500,1915769,149,4.0,1000,0.0,,2/7/2011 0:00,710A,710,A,,,,Motorgrader - 130.0 to 145.0 Horsepower,Florida,MG,Motor Graders,No,OROPS,,,,,None or Unspecified,,None or Unspecified,None or Unspecified,None or Unspecified,No,Base + 1 Function,None or Unspecified,None or Unspecified,None or Unspecified,None or Unspecified,None or Unspecified,,,,,,,,,,,,,,,
4503,2618746,8000,1935817,149,2.0,1000,0.0,,5/6/2011 0:00,710A,710,A,,,,Motorgrader - 130.0 to 145.0 Horsepower,Kentucky,MG,Motor Graders,No,EROPS,,,,,None or Unspecified,,None or Unspecified,None or Unspecified,None or Unspecified,No,Base + 1 Function,None or Unspecified,None or Unspecified,None or Unspecified,None or Unspecified,None or Unspecified,,,,,,,,,,,,,,,
4503,2618747,14000,1927201,149,2.0,1992,0.0,,4/15/2010 0:00,710A,710,A,,,,Motorgrader - 130.0 to 145.0 Horsepower,North Carolina,MG,Motor Graders,No,OROPS,,,,,None or Unspecified,,None or Unspecified,12',None or Unspecified,No,Base + 1 Function,None or Unspecified,Yes,None or Unspecified,Sideshift & Tip,None or Unspecified,,,,,,,,,,,,,,,
4503,2618750,29000,1863487,149,4.0,1000,0.0,,2/7/2011 0:00,710A,710,A,,,,Motorgrader - 130.0 to 145.0 Horsepower,Florida,MG,Motor Graders,No,EROPS,,,,,None or Unspecified,,None or Unspecified,None or Unspecified,None or Unspecified,No,Base + 1 Function,None or Unspecified,None or Unspecified,Yes,None or Unspecified,None or Unspecified,,,,,,,,,,,,,,,
4503,2618760,19000,1875781,149,2.0,1000,0.0,,3/31/2010 0:00,710A,710,A,,,,Motorgrader - 130.0 to 145.0 Horsepower,Mississippi,MG,Motor Graders,No,OROPS,,,,,None or Unspecified,,None or Unspecified,None or Unspecified,None or Unspecified,No,Base + 1 Function,None or Unspecified,None or Unspecified,None or Unspecified,None or Unspecified,None or Unspecified,,,,,,,,,,,,,,,
4503,2618762,9000,1832727,149,4.0,1000,0.0,,2/7/2011 0:00,710A,710,A,,,,Motorgrader - 130.0 to 145.0 Horsepower,Florida,MG,Motor Graders,No,EROPS,,,,,None or Unspecified,,None or Unspecified,None or Unspecified,None or Unspecified,No,Base + 1 Function,None or Unspecified,None or Unspecified,None or Unspecified,Sideshift & Tip,None or Unspecified,,,,,,,,,,,,,,,
4503,2618763,9000,1811683,149,12.0,1000,0.0,,6/15/2011 0:00,710A,710,A,,,,Motorgrader - 130.0 to 145.0 Horsepower,South Carolina,MG,Motor Graders,No,EROPS,,,,,None or Unspecified,,None or Unspecified,None or Unspecified,None or Unspecified,No,Base + 1 Function,None or Unspecified,None or Unspecified,Yes,None or Unspecified,None or Unspecified,,,,,,,,,,,,,,,
4503,2619124,35000,1860155,149,1.0,1996,4378.0,Low,3/15/2011 0:00,710A,710,A,,,,Motorgrader - 130.0 to 145.0 Horsepower,Tennessee,MG,Motor Graders,No,EROPS w AC,,,,,None or Unspecified,,None or Unspecified,14',None or Unspecified,No,Base + 1 Function,None or Unspecified,None or Unspecified,Yes,None or Unspecified,None or Unspecified,,,,,,,,,,,,,,,
4503,2619147,32000,1926211,149,2.0,1000,0.0,,6/21/2011 0:00,710A,710,A,,,,Motorgrader - 130.0 to 145.0 Horsepower,Texas,MG,Motor Graders,No,EROPS,,,,,None or Unspecified,,None or Unspecified,None or Unspecified,None or Unspecified,No,Base + 1 Function,None or Unspecified,None or Unspecified,None or Unspecified,Sideshift & Tip,None or Unspecified,,,,,,,,,,,,,,,
4503,4307875,10000,2304585,172,1.0,1988,,,12/1/2010 0:00,710A,710,A,,,,Motorgrader - 130.0 to 145.0 Horsepower,Texas,MG,Motor Graders,No,EROPS,,,,,None or Unspecified,,None or Unspecified,14',None or Unspecified,No,Base + 1 Function,Yes,None or Unspecified,Yes,None or Unspecified,"14""",,,,,,,,,,,,,,,
4503,4307879,15500,2311018,172,1.0,1984,96.0,Low,9/16/2009 0:00,710A,710,A,,,,Motorgrader - 130.0 to 145.0 Horsepower,Washington,MG,Motor Graders,No,OROPS,,,,,None or Unspecified,,None or Unspecified,12',None or Unspecified,No,Base + 1 Function,None or Unspecified,None or Unspecified,Yes,None or Unspecified,"14""",,,,,,,,,,,,,,,
4503,4307880,12000,1891118,172,1.0,1000,1182.0,Low,3/30/2011 0:00,710A,710,A,,,,Motorgrader - 130.0 to 145.0 Horsepower,North Carolina,MG,Motor Graders,No,EROPS,,,,,None or Unspecified,,None or Unspecified,13',None or Unspecified,No,Base + 1 Function,None or Unspecified,None or Unspecified,Yes,None or Unspecified,"14""",,,,,,,,,,,,,,,
4503,6281235,16000,1910839,149,1.0,1991,,,6/23/2011 0:00,710A,710,A,,,,Motorgrader - 130.0 to 145.0 Horsepower,Ohio,MG,Motor Graders,No,EROPS,,,,,None or Unspecified,,None or Unspecified,12',None or Unspecified,No,Base + 1 Function,None or Unspecified,Yes,None or Unspecified,None or Unspecified,None or Unspecified,,,,,,,,,,,,,,,
4503,6281238,20000,1796484,149,12.0,1990,,,8/17/2011 0:00,710A,710,A,,,,Motorgrader - 130.0 to 145.0 Horsepower,South Carolina,MG,Motor Graders,No,EROPS,,,,,None or Unspecified,,None or Unspecified,12',None or Unspecified,No,Base + 1 Function,None or Unspecified,None or Unspecified,None or Unspecified,None or Unspecified,None or Unspecified,,,,,,,,,,,,,,,
4503,6281311,11500,1917085,149,99.0,1985,,,7/20/2011 0:00,710A,710,A,,,,Motorgrader - 130.0 to 145.0 Horsepower,Colorado,MG,Motor Graders,No,OROPS,,,,,None or Unspecified,,None or Unspecified,12',None or Unspecified,No,Base + 1 Function,None or Unspecified,None or Unspecified,None or Unspecified,None or Unspecified,"14""",,,,,,,,,,,,,,,
4503,6281312,20000,1869509,149,99.0,1988,,,12/7/2011 0:00,710A,710,A,,,,Motorgrader - 130.0 to 145.0 Horsepower,Nebraska,MG,Motor Graders,No,EROPS,,,,,None or Unspecified,,None or Unspecified,12',None or Unspecified,No,Base + 1 Function,None or Unspecified,Yes,None or Unspecified,None or Unspecified,None or Unspecified,,,,,,,,,,,,,,,
