ModelID,SalesID,SalePrice,MachineID,datasource,auctioneerID,YearMade,MachineHoursCurrentMeter,UsageBand,saledate,fiModelDesc,fiBaseModel,fiSecondaryDesc,fiModelSeries,fiModelDescriptor,ProductSize,fiProductClassDesc,state,ProductGroup,ProductGroupDesc,Drive_System,Enclosure,Forks,Pad_Type,Ride_Control,Stick,Transmission,Turbocharged,Blade_Extension,Blade_Width,Enclosure_Type,Engine_Horsepower,Hydraulics,Pushblock,Ripper,Scarifier,Tip_Control,Tire_Size,Coupler,Coupler_System,Grouser_Tracks,Hydraulics_Flow,Track_Type,Undercarriage_Pad_Width,Stick_Length,Thumb,Pattern_Changer,Grouser_Type,Backhoe_Mounting,Blade_Type,Travel_Controls,Differential_Type,Steering_Controls
4504,1161290,13000,1060046,121,3.0,1979,0.0,,9/22/2005 0:00,715A,715,A,,,,Motorgrader - 145.0 to 170.0 Horsepower,Florida,MG,Motor Graders,No,EROPS,,,,,Powershift,,None or Unspecified,None or Unspecified,None or Unspecified,No,Base + 1 Function,None or Unspecified,None or Unspecified,None or Unspecified,None or Unspecified,None or Unspecified,,,,,,,,,,,,,,,
4504,2325407,15000,1691744,136,1.0,1981,0.0,,10/27/2009 0:00,715A,715,A,,,,Motorgrader - 145.0 to 170.0 Horsepower,Idaho,MG,Motor Graders,No,EROPS,,,,,None or Unspecified,,None or Unspecified,14',None or Unspecified,No,Base + 1 Function,None or Unspecified,None or Unspecified,Yes,None or Unspecified,"14""",,,,,,,,,,,,,,,
4504,2325471,9000,1784145,136,1.0,1000,0.0,,5/25/2010 0:00,715A,715,A,,,,Motorgrader - 145.0 to 170.0 Horsepower,Florida,MG,Motor Graders,No,EROPS,,,,,None or Unspecified,,None or Unspecified,12',None or Unspecified,No,Base + 1 Function,None or Unspecified,None or Unspecified,None or Unspecified,None or Unspecified,"14""",,,,,,,,,,,,,,,
4504,2325472,9250,1774517,136,,1000,0.0,,4/26/2007 0:00,715A,715,A,,,,Motorgrader - 145.0 to 170.0 Horsepower,Kentucky,MG,Motor Graders,No,EROPS,,,,,None or Unspecified,,None or Unspecified,None or Unspecified,None or Unspecified,No,Base + 1 Function,None or Unspecified,None or Unspecified,None or Unspecified,None or Unspecified,None or Unspecified,,,,,,,,,,,,,,,
4504,2325818,18500,1655882,136,1.0,1000,0.0,,5/7/2008 0:00,715A,715,A,,,,Motorgrader - 145.0 to 170.0 Horsepower,Texas,MG,Motor Graders,No,EROPS w AC,,,,,None or Unspecified,,None or Unspecified,None or Unspecified,None or Unspecified,No,Base + 1 Function,None or Unspecified,None or Unspecified,Yes,Tip,None or Unspecified,,,,,,,,,,,,,,,
4504,2325946,12500,1741061,136,,1000,0.0,,12/12/2007 0:00,715A,715,A,,,,Motorgrader - 145.0 to 170.0 Horsepower,Maryland,MG,Motor Graders,No,EROPS,,,,,None or Unspecified,,None or Unspecified,13',None or Unspecified,No,Base + 1 Function,None or Unspecified,None or Unspecified,Yes,None or Unspecified,None or Unspecified,,,,,,,,,,,,,,,
4504,2325972,18000,1776097,136,,1000,0.0,,12/1/2007 0:00,715A,715,A,,,,Motorgrader - 145.0 to 170.0 Horsepower,New York,MG,Motor Graders,No,EROPS,,,,,None or Unspecified,,None or Unspecified,None or Unspecified,None or Unspecified,No,Base + 1 Function,None or Unspecified,None or Unspecified,Yes,Tip,None or Unspecified,,,,,,,,,,,,,,,
4504,2325974,8000,1770692,136,1.0,1000,0.0,,7/28/2009 0:00,715A,715,A,,,,Motorgrader - 145.0 to 170.0 Horsepower,California,MG,Motor Graders,No,EROPS,,,,,None or Unspecified,,None or Unspecified,12',None or Unspecified,No,Base + 1 Function,None or Unspecified,Yes,None or Unspecified,None or Unspecified,"14""",,,,,,,,,,,,,,,
4504,2618793,9000,1789366,149,1.0,1000,0.0,,9/21/2010 0:00,715A,715,A,,,,Motorgrader - 145.0 to 170.0 Horsepower,Washington,MG,Motor Graders,No,EROPS,,,,,None or Unspecified,,None or Unspecified,14',None or Unspecified,No,Base + 1 Function,None or Unspecified,None or Unspecified,Yes,None or Unspecified,None or Unspecified,,,,,,,,,,,,,,,
4504,4307898,11500,2268524,172,1.0,1978,,,8/23/2011 0:00,715A,715,A,,,,Motorgrader - 145.0 to 170.0 Horsepower,Texas,MG,Motor Graders,No,EROPS,,,,,None or Unspecified,,None or Unspecified,14',None or Unspecified,No,Base + 1 Function,None or Unspecified,None or Unspecified,None or Unspecified,None or Unspecified,"14""",,,,,,,,,,,,,,,
4504,6281319,11500,1857153,149,1.0,1978,,,8/24/2011 0:00,715A,715,A,,,,Motorgrader - 145.0 to 170.0 Horsepower,Texas,MG,Motor Graders,No,OROPS,,,,,None or Unspecified,,None or Unspecified,14',None or Unspecified,No,Base + 1 Function,None or Unspecified,None or Unspecified,Yes,None or Unspecified,None or Unspecified,,,,,,,,,,,,,,,
4504,6281321,19500,1820119,149,2.0,1000,,,11/19/2011 0:00,715A,715,A,,,,Motorgrader - 145.0 to 170.0 Horsepower,Connecticut,MG,Motor Graders,No,EROPS,,,,,None or Unspecified,,None or Unspecified,None or Unspecified,None or Unspecified,No,Base + 1 Function,None or Unspecified,None or Unspecified,None or Unspecified,None or Unspecified,None or Unspecified,,,,,,,,,,,,,,,
