ModelID,SalesID,SalePrice,MachineID,datasource,auctioneerID,YearMade,MachineHoursCurrentMeter,UsageBand,saledate,fiModelDesc,fiBaseModel,fiSecondaryDesc,fiModelSeries,fiModelDescriptor,ProductSize,fiProductClassDesc,state,ProductGroup,ProductGroupDesc,Drive_System,Enclosure,Forks,Pad_Type,Ride_Control,Stick,Transmission,Turbocharged,Blade_Extension,Blade_Width,Enclosure_Type,Engine_Horsepower,Hydraulics,Pushblock,Ripper,Scarifier,Tip_Control,Tire_Size,Coupler,Coupler_System,Grouser_Tracks,Hydraulics_Flow,Track_Type,Undercarriage_Pad_Width,Stick_Length,Thumb,Pattern_Changer,Grouser_Type,Backhoe_Mounting,Blade_Type,Travel_Controls,Differential_Type,Steering_Controls
4575,1165408,54000,1019401,121,3.0,2005,4440.0,High,10/30/2008 0:00,200C,200,C,,,Large / Medium,"Hydraulic Excavator, Track - 19.0 to 21.0 Metric Tons",Georgia,TEX,Track Excavators,,EROPS w AC,,,,,,,,,,,Standard,,,,,,None or Unspecified,,,,Steel,None or Unspecified,None or Unspecified,None or Unspecified,None or Unspecified,Double,,,,,
4575,2343356,77000,1772084,136,,2002,0.0,,9/13/2007 0:00,200C,200,C,,,Large / Medium,"Hydraulic Excavator, Track - 19.0 to 21.0 Metric Tons",Arizona,TEX,Track Excavators,,EROPS w AC,,,,,,,,,,,Standard,,,,,,None or Unspecified,,,,Steel,None or Unspecified,None or Unspecified,None or Unspecified,None or Unspecified,Double,,,,,
4575,2343368,36000,1726225,136,,2002,0.0,,7/19/2008 0:00,200C,200,C,,,Large / Medium,"Hydraulic Excavator, Track - 19.0 to 21.0 Metric Tons",Illinois,TEX,Track Excavators,,EROPS,,,,,,,,,,,Standard,,,,,,None or Unspecified,,,,Steel,None or Unspecified,None or Unspecified,None or Unspecified,None or Unspecified,Double,,,,,
4575,2343392,38000,1676951,136,1.0,2003,0.0,,6/9/2010 0:00,200C,200,C,,,Large / Medium,"Hydraulic Excavator, Track - 19.0 to 21.0 Metric Tons",Texas,TEX,Track Excavators,,EROPS w AC,,,,,,,,,,,Standard,,,,,,None or Unspecified,,,,Steel,None or Unspecified,None or Unspecified,None or Unspecified,None or Unspecified,Double,,,,,
4575,2343421,35000,1767455,136,,2003,0.0,,3/5/2009 0:00,200C,200,C,,,Large / Medium,"Hydraulic Excavator, Track - 19.0 to 21.0 Metric Tons",Virginia,TEX,Track Excavators,,EROPS w AC,,,,,,,,,,,Auxiliary,,,,,,None or Unspecified,,,,Steel,None or Unspecified,None or Unspecified,None or Unspecified,None or Unspecified,Double,,,,,
4575,2343441,41000,1747034,136,,2003,3995.0,Medium,12/11/2008 0:00,200C,200,C,,,Large / Medium,"Hydraulic Excavator, Track - 19.0 to 21.0 Metric Tons",Ohio,TEX,Track Excavators,,EROPS,,,,,,,,,,,Standard,,,,,,None or Unspecified,,,,Steel,None or Unspecified,None or Unspecified,None or Unspecified,None or Unspecified,Double,,,,,
4575,2343442,35000,1675756,136,,2003,0.0,,3/30/2009 0:00,200C,200,C,,,Large / Medium,"Hydraulic Excavator, Track - 19.0 to 21.0 Metric Tons",Ohio,TEX,Track Excavators,,EROPS,,,,,,,,,,,Auxiliary,,,,,,None or Unspecified,,,,Steel,None or Unspecified,None or Unspecified,None or Unspecified,None or Unspecified,Double,,,,,
4575,2343480,41000,1681469,136,,2004,0.0,,4/1/2009 0:00,200C,200,C,,,Large / Medium,"Hydraulic Excavator, Track - 19.0 to 21.0 Metric Tons",Maryland,TEX,Track Excavators,,EROPS w AC,,,,,,,,,,,Auxiliary,,,,,,None or Unspecified,,,,Steel,None or Unspecified,None or Unspecified,None or Unspecified,None or Unspecified,Double,,,,,
4575,2343690,45000,1738997,136,,2006,0.0,,9/16/2009 0:00,200C,200,C,,,Large / Medium,"Hydraulic Excavator, Track - 19.0 to 21.0 Metric Tons",Louisiana,TEX,Track Excavators,,EROPS w AC,,,,,,,,,,,Standard,,,,,,None or Unspecified,,,,Steel,None or Unspecified,None or Unspecified,Manual,None or Unspecified,Double,,,,,
4575,2343728,50000,1660785,136,,2006,0.0,,9/23/2009 0:00,200C,200,C,,,Large / Medium,"Hydraulic Excavator, Track - 19.0 to 21.0 Metric Tons",Texas,TEX,Track Excavators,,EROPS w AC,,,,,,,,,,,Standard,,,,,,None or Unspecified,,,,Steel,None or Unspecified,None or Unspecified,None or Unspecified,None or Unspecified,Double,,,,,
4575,2636824,35000,1822551,149,1.0,2000,12152.0,High,6/3/2011 0:00,200C,200,C,,,Large / Medium,"Hydraulic Excavator, Track - 19.0 to 21.0 Metric Tons",Arkansas,TEX,Track Excavators,,EROPS w AC,,,,,,,,,,,Auxiliary,,,,,,None or Unspecified,,,,Steel,None or Unspecified,"9' 6""",None or Unspecified,None or Unspecified,Double,,,,,
4575,2638158,54000,1732022,149,1.0,2003,5429.0,Medium,6/3/2011 0:00,200C,200,C,,,Large / Medium,"Hydraulic Excavator, Track - 19.0 to 21.0 Metric Tons",Arkansas,TEX,Track Excavators,,EROPS w AC,,,,,,,,,,,Auxiliary,,,,,,None or Unspecified,,,,Steel,None or Unspecified,"9' 6""",None or Unspecified,None or Unspecified,Double,,,,,
4575,2638193,42500,1851375,149,1.0,2004,6307.0,Medium,5/11/2011 0:00,200C,200,C,,,Large / Medium,"Hydraulic Excavator, Track - 19.0 to 21.0 Metric Tons",Texas,TEX,Track Excavators,,EROPS w AC,,,,,,,,,,,Standard,,,,,,None or Unspecified,,,,Steel,None or Unspecified,None or Unspecified,Manual,None or Unspecified,Double,,,,,
4575,2638283,52500,1830409,149,1.0,2005,5319.0,Medium,5/11/2011 0:00,200C,200,C,,,Large / Medium,"Hydraulic Excavator, Track - 19.0 to 21.0 Metric Tons",Texas,TEX,Track Excavators,,EROPS w AC,,,,,,,,,,,Auxiliary,,,,,,Manual,,,,Steel,None or Unspecified,None or Unspecified,None or Unspecified,None or Unspecified,Double,,,,,
4575,2638437,52000,1924860,149,1.0,2005,4202.0,Medium,4/1/2011 0:00,200C,200,C,,,Large / Medium,"Hydraulic Excavator, Track - 19.0 to 21.0 Metric Tons",Texas,TEX,Track Excavators,,EROPS,,,,,,,,,,,Standard,,,,,,None or Unspecified,,,,Steel,None or Unspecified,None or Unspecified,None or Unspecified,None or Unspecified,Double,,,,,
4575,4314961,54000,2302836,172,1.0,2004,5724.0,Medium,2/15/2011 0:00,200C,200,C,,,Large / Medium,"Hydraulic Excavator, Track - 19.0 to 21.0 Metric Tons",Florida,TEX,Track Excavators,,EROPS w AC,,,,,,,,,,,Standard,,,,,,None or Unspecified,,,,Steel,None or Unspecified,None or Unspecified,None or Unspecified,None or Unspecified,Double,,,,,
4575,4315068,52000,2283971,172,1.0,2005,4202.0,Medium,4/1/2011 0:00,200C,200,C,,,Large / Medium,"Hydraulic Excavator, Track - 19.0 to 21.0 Metric Tons",Texas,TEX,Track Excavators,,EROPS w AC,,,,,,,,,,,Auxiliary,,,,,,None or Unspecified,,,,Steel,None or Unspecified,None or Unspecified,None or Unspecified,None or Unspecified,Double,,,,,
4575,6284808,39000,1887186,149,1.0,2005,,,6/29/2011 0:00,200C,200,C,,,Large / Medium,"Hydraulic Excavator, Track - 19.0 to 21.0 Metric Tons",Mississippi,TEX,Track Excavators,,EROPS w AC,,,,,,,,,,,Auxiliary,,,,,,None or Unspecified,,,,Steel,None or Unspecified,None or Unspecified,None or Unspecified,None or Unspecified,Double,,,,,
4575,6284836,60000,1929657,149,1.0,2006,,,7/27/2011 0:00,200C,200,C,,,Large / Medium,"Hydraulic Excavator, Track - 19.0 to 21.0 Metric Tons",Texas,TEX,Track Excavators,,EROPS,,,,,,,,,,,Standard,,,,,,None or Unspecified,,,,Steel,None or Unspecified,None or Unspecified,None or Unspecified,None or Unspecified,Double,,,,,
