ModelID,SalesID,SalePrice,MachineID,datasource,auctioneerID,YearMade,MachineHoursCurrentMeter,UsageBand,saledate,fiModelDesc,fiBaseModel,fiSecondaryDesc,fiModelSeries,fiModelDescriptor,ProductSize,fiProductClassDesc,state,ProductGroup,ProductGroupDesc,Drive_System,Enclosure,Forks,Pad_Type,Ride_Control,Stick,Transmission,Turbocharged,Blade_Extension,Blade_Width,Enclosure_Type,Engine_Horsepower,Hydraulics,Pushblock,Ripper,Scarifier,Tip_Control,Tire_Size,Coupler,Coupler_System,Grouser_Tracks,Hydraulics_Flow,Track_Type,Undercarriage_Pad_Width,Stick_Length,Thumb,Pattern_Changer,Grouser_Type,Backhoe_Mounting,Blade_Type,Travel_Controls,Differential_Type,Steering_Controls
4600,1583885,8500,1264642,132,25.0,1000,,,10/29/1994 0:00,310A,310,A,,,,Backhoe Loader - 14.0 to 15.0 Ft Standard Digging Depth,California,BL,Backhoe Loaders,Two Wheel Drive,OROPS,None or Unspecified,None or Unspecified,No,Standard,Standard,None or Unspecified,,,,,,,,,,,,,,,,,,,,,,,,,
4600,1584121,7500,1345604,132,99.0,1000,,,3/18/2000 0:00,310A,310,A,,,,Backhoe Loader - 14.0 to 15.0 Ft Standard Digging Depth,Washington,BL,Backhoe Loaders,Two Wheel Drive,OROPS,None or Unspecified,None or Unspecified,No,Standard,Standard,None or Unspecified,,,,,,,,,,,,,,,,,,,,,,,,,
4600,1588632,9000,1155150,132,2.0,1000,,,7/27/1996 0:00,310A,310,A,,,,Backhoe Loader - 14.0 to 15.0 Ft Standard Digging Depth,Ohio,BL,Backhoe Loaders,Two Wheel Drive,OROPS,None or Unspecified,None or Unspecified,No,Standard,Standard,None or Unspecified,,,,,,,,,,,,,,,,,,,,,,,,,
4600,1593180,9750,1296319,132,2.0,1975,,,2/10/1994 0:00,310A,310,A,,,,Backhoe Loader - 14.0 to 15.0 Ft Standard Digging Depth,Florida,BL,Backhoe Loaders,Two Wheel Drive,OROPS,None or Unspecified,None or Unspecified,No,Standard,Standard,None or Unspecified,,,,,,,,,,,,,,,,,,,,,,,,,
4600,1594285,12000,1115601,132,10.0,1976,,,4/27/1995 0:00,310A,310,A,,,,Backhoe Loader - 14.0 to 15.0 Ft Standard Digging Depth,Louisiana,BL,Backhoe Loaders,Two Wheel Drive,OROPS,None or Unspecified,None or Unspecified,No,Standard,Standard,None or Unspecified,,,,,,,,,,,,,,,,,,,,,,,,,
4600,1594406,9000,1244314,132,2.0,1976,,,3/24/1995 0:00,310A,310,A,,,,Backhoe Loader - 14.0 to 15.0 Ft Standard Digging Depth,New Jersey,BL,Backhoe Loaders,Two Wheel Drive,OROPS,None or Unspecified,None or Unspecified,No,Standard,Standard,None or Unspecified,,,,,,,,,,,,,,,,,,,,,,,,,
4600,1594430,8500,1313918,132,20.0,1976,,,4/3/1997 0:00,310A,310,A,,,,Backhoe Loader - 14.0 to 15.0 Ft Standard Digging Depth,Texas,BL,Backhoe Loaders,Two Wheel Drive,OROPS,None or Unspecified,None or Unspecified,No,Standard,Standard,None or Unspecified,,,,,,,,,,,,,,,,,,,,,,,,,
4600,1594878,8000,1515943,132,25.0,1977,1700.0,Low,8/5/1995 0:00,310A,310,A,,,,Backhoe Loader - 14.0 to 15.0 Ft Standard Digging Depth,California,BL,Backhoe Loaders,Two Wheel Drive,OROPS,None or Unspecified,None or Unspecified,No,Extended,Standard,None or Unspecified,,,,,,,,,,,,,,,,,,,,,,,,,
4600,1594937,8000,1331327,132,1.0,1977,,,2/23/1996 0:00,310A,310,A,,,,Backhoe Loader - 14.0 to 15.0 Ft Standard Digging Depth,Arizona,BL,Backhoe Loaders,Two Wheel Drive,OROPS,None or Unspecified,None or Unspecified,No,Standard,Standard,None or Unspecified,,,,,,,,,,,,,,,,,,,,,,,,,
4600,1595005,13500,1197783,132,22.0,1977,,,9/21/1996 0:00,310A,310,A,,,,Backhoe Loader - 14.0 to 15.0 Ft Standard Digging Depth,Minnesota,BL,Backhoe Loaders,Two Wheel Drive,EROPS,None or Unspecified,None or Unspecified,No,Standard,Standard,None or Unspecified,,,,,,,,,,,,,,,,,,,,,,,,,
4600,1595226,8500,1133999,132,8.0,1977,,,11/14/2007 0:00,310A,310,A,,,,Backhoe Loader - 14.0 to 15.0 Ft Standard Digging Depth,Mississippi,BL,Backhoe Loaders,Two Wheel Drive,OROPS,None or Unspecified,None or Unspecified,No,Extended,Standard,None or Unspecified,,,,,,,,,,,,,,,,,,,,,,,,,
4600,1595284,8000,1260460,132,1.0,1977,,,3/21/2001 0:00,310A,310,A,,,,Backhoe Loader - 14.0 to 15.0 Ft Standard Digging Depth,Texas,BL,Backhoe Loaders,Two Wheel Drive,OROPS,None or Unspecified,None or Unspecified,No,Standard,Standard,None or Unspecified,,,,,,,,,,,,,,,,,,,,,,,,,
4600,1595319,9000,1293837,132,1.0,1977,,,3/30/1995 0:00,310A,310,A,,,,Backhoe Loader - 14.0 to 15.0 Ft Standard Digging Depth,Washington,BL,Backhoe Loaders,Two Wheel Drive,OROPS,None or Unspecified,None or Unspecified,No,Standard,Standard,None or Unspecified,,,,,,,,,,,,,,,,,,,,,,,,,
4600,1595324,9250,1087780,132,4.0,1977,,,2/11/1994 0:00,310A,310,A,,,,Backhoe Loader - 14.0 to 15.0 Ft Standard Digging Depth,Florida,BL,Backhoe Loaders,Two Wheel Drive,OROPS,None or Unspecified,None or Unspecified,No,Standard,Standard,None or Unspecified,,,,,,,,,,,,,,,,,,,,,,,,,
4600,1595343,9000,1427875,132,23.0,1977,,,6/22/1996 0:00,310A,310,A,,,,Backhoe Loader - 14.0 to 15.0 Ft Standard Digging Depth,Pennsylvania,BL,Backhoe Loaders,Two Wheel Drive,OROPS,None or Unspecified,None or Unspecified,No,Standard,Powershuttle,None or Unspecified,,,,,,,,,,,,,,,,,,,,,,,,,
4600,1595384,7500,1438427,132,2.0,1977,,,6/15/1996 0:00,310A,310,A,,,,Backhoe Loader - 14.0 to 15.0 Ft Standard Digging Depth,New Jersey,BL,Backhoe Loaders,Two Wheel Drive,EROPS,None or Unspecified,None or Unspecified,No,Standard,Standard,None or Unspecified,,,,,,,,,,,,,,,,,,,,,,,,,
4600,1595436,12000,1537764,132,18.0,1977,,,10/7/1995 0:00,310A,310,A,,,,Backhoe Loader - 14.0 to 15.0 Ft Standard Digging Depth,Delaware,BL,Backhoe Loaders,Two Wheel Drive,OROPS,None or Unspecified,None or Unspecified,No,Standard,Powershuttle,None or Unspecified,,,,,,,,,,,,,,,,,,,,,,,,,
4600,1595437,8000,1139100,132,1.0,1977,,,6/20/1995 0:00,310A,310,A,,,,Backhoe Loader - 14.0 to 15.0 Ft Standard Digging Depth,Minnesota,BL,Backhoe Loaders,Two Wheel Drive,OROPS,None or Unspecified,None or Unspecified,No,Standard,Standard,None or Unspecified,,,,,,,,,,,,,,,,,,,,,,,,,
4600,1595438,8750,1524902,132,22.0,1977,,,6/15/1996 0:00,310A,310,A,,,,Backhoe Loader - 14.0 to 15.0 Ft Standard Digging Depth,Minnesota,BL,Backhoe Loaders,Two Wheel Drive,OROPS,None or Unspecified,None or Unspecified,No,Standard,Standard,None or Unspecified,,,,,,,,,,,,,,,,,,,,,,,,,
4600,1595447,8500,1321763,132,1.0,1977,,,9/25/2001 0:00,310A,310,A,,,,Backhoe Loader - 14.0 to 15.0 Ft Standard Digging Depth,Illinois,BL,Backhoe Loaders,Two Wheel Drive,EROPS,None or Unspecified,None or Unspecified,No,Standard,Standard,None or Unspecified,,,,,,,,,,,,,,,,,,,,,,,,,
4600,1595448,8000,1326477,132,21.0,1977,,,3/15/1997 0:00,310A,310,A,,,,Backhoe Loader - 14.0 to 15.0 Ft Standard Digging Depth,Maine,BL,Backhoe Loaders,Two Wheel Drive,EROPS,None or Unspecified,None or Unspecified,No,Standard,Standard,None or Unspecified,,,,,,,,,,,,,,,,,,,,,,,,,
4600,1595451,10500,1431997,132,99.0,1977,,,10/28/1994 0:00,310A,310,A,,,,Backhoe Loader - 14.0 to 15.0 Ft Standard Digging Depth,Maryland,BL,Backhoe Loaders,Two Wheel Drive,OROPS,None or Unspecified,None or Unspecified,No,Standard,Standard,None or Unspecified,,,,,,,,,,,,,,,,,,,,,,,,,
4600,1595452,8000,1454555,132,1.0,1977,,,11/20/1997 0:00,310A,310,A,,,,Backhoe Loader - 14.0 to 15.0 Ft Standard Digging Depth,Georgia,BL,Backhoe Loaders,Two Wheel Drive,OROPS,None or Unspecified,None or Unspecified,No,Standard,Standard,None or Unspecified,,,,,,,,,,,,,,,,,,,,,,,,,
4600,1595475,8000,1359433,132,1.0,1978,,,12/2/1998 0:00,310A,310,A,,,,Backhoe Loader - 14.0 to 15.0 Ft Standard Digging Depth,Texas,BL,Backhoe Loaders,Two Wheel Drive,OROPS,None or Unspecified,None or Unspecified,No,Standard,Standard,None or Unspecified,,,,,,,,,,,,,,,,,,,,,,,,,
4600,1595516,9500,1476271,132,1.0,1978,,,6/15/1995 0:00,310A,310,A,,,,Backhoe Loader - 14.0 to 15.0 Ft Standard Digging Depth,Washington,BL,Backhoe Loaders,Two Wheel Drive,OROPS,None or Unspecified,None or Unspecified,No,Standard,Standard,None or Unspecified,,,,,,,,,,,,,,,,,,,,,,,,,
4600,1595524,10000,1487638,132,1.0,1978,,,6/26/1997 0:00,310A,310,A,,,,Backhoe Loader - 14.0 to 15.0 Ft Standard Digging Depth,Colorado,BL,Backhoe Loaders,Two Wheel Drive,EROPS,None or Unspecified,None or Unspecified,No,Standard,Standard,None or Unspecified,,,,,,,,,,,,,,,,,,,,,,,,,
4600,1595526,7500,1105001,132,6.0,1978,,,2/4/1997 0:00,310A,310,A,,,,Backhoe Loader - 14.0 to 15.0 Ft Standard Digging Depth,Arkansas,BL,Backhoe Loaders,Two Wheel Drive,OROPS,None or Unspecified,None or Unspecified,No,Standard,Standard,None or Unspecified,,,,,,,,,,,,,,,,,,,,,,,,,
4600,1595571,9000,1240027,132,6.0,1976,,,12/15/1997 0:00,310A,310,A,,,,Backhoe Loader - 14.0 to 15.0 Ft Standard Digging Depth,Kentucky,BL,Backhoe Loaders,Two Wheel Drive,EROPS,None or Unspecified,None or Unspecified,No,Standard,Standard,None or Unspecified,,,,,,,,,,,,,,,,,,,,,,,,,
4600,1595575,9500,1348379,132,1.0,1978,,,7/15/1997 0:00,310A,310,A,,,,Backhoe Loader - 14.0 to 15.0 Ft Standard Digging Depth,Minnesota,BL,Backhoe Loaders,Two Wheel Drive,EROPS,None or Unspecified,None or Unspecified,No,Standard,Standard,None or Unspecified,,,,,,,,,,,,,,,,,,,,,,,,,
4600,1595614,8000,1205875,132,1.0,1978,,,12/19/2001 0:00,310A,310,A,,,,Backhoe Loader - 14.0 to 15.0 Ft Standard Digging Depth,Maryland,BL,Backhoe Loaders,Two Wheel Drive,EROPS,None or Unspecified,None or Unspecified,No,Standard,Standard,None or Unspecified,,,,,,,,,,,,,,,,,,,,,,,,,
4600,1595634,7500,1167355,132,11.0,1978,,,3/21/2000 0:00,310A,310,A,,,,Backhoe Loader - 14.0 to 15.0 Ft Standard Digging Depth,Mississippi,BL,Backhoe Loaders,Two Wheel Drive,OROPS,None or Unspecified,None or Unspecified,No,Standard,Standard,None or Unspecified,,,,,,,,,,,,,,,,,,,,,,,,,
4600,1595656,8700,1300442,132,14.0,1978,,,2/17/1995 0:00,310A,310,A,,,,Backhoe Loader - 14.0 to 15.0 Ft Standard Digging Depth,Ohio,BL,Backhoe Loaders,Two Wheel Drive,EROPS,None or Unspecified,None or Unspecified,No,Standard,Powershuttle,None or Unspecified,,,,,,,,,,,,,,,,,,,,,,,,,
4600,1595659,7750,1427040,132,21.0,1978,,,5/6/1999 0:00,310A,310,A,,,,Backhoe Loader - 14.0 to 15.0 Ft Standard Digging Depth,Maine,BL,Backhoe Loaders,Two Wheel Drive,OROPS,None or Unspecified,None or Unspecified,No,Standard,Standard,None or Unspecified,,,,,,,,,,,,,,,,,,,,,,,,,
4600,1595722,10500,1478919,132,99.0,1978,,,2/10/1994 0:00,310A,310,A,,,,Backhoe Loader - 14.0 to 15.0 Ft Standard Digging Depth,Texas,BL,Backhoe Loaders,Two Wheel Drive,OROPS,None or Unspecified,None or Unspecified,No,Standard,Standard,None or Unspecified,,,,,,,,,,,,,,,,,,,,,,,,,
4600,1595723,11250,1115071,132,11.0,1978,,,1/21/1995 0:00,310A,310,A,,,,Backhoe Loader - 14.0 to 15.0 Ft Standard Digging Depth,Mississippi,BL,Backhoe Loaders,Two Wheel Drive,OROPS,None or Unspecified,None or Unspecified,No,Standard,Standard,None or Unspecified,,,,,,,,,,,,,,,,,,,,,,,,,
4600,1595738,10500,1305595,132,6.0,1978,,,4/11/1995 0:00,310A,310,A,,,,Backhoe Loader - 14.0 to 15.0 Ft Standard Digging Depth,Maryland,BL,Backhoe Loaders,Two Wheel Drive,OROPS,None or Unspecified,None or Unspecified,No,Standard,Standard,None or Unspecified,,,,,,,,,,,,,,,,,,,,,,,,,
4600,1595881,8250,1555497,132,18.0,1978,,,9/30/1995 0:00,310A,310,A,,,,Backhoe Loader - 14.0 to 15.0 Ft Standard Digging Depth,Pennsylvania,BL,Backhoe Loaders,Two Wheel Drive,OROPS,None or Unspecified,None or Unspecified,No,Standard,Powershuttle,None or Unspecified,,,,,,,,,,,,,,,,,,,,,,,,,
4600,1595903,9750,1214769,132,4.0,1978,,,2/4/1999 0:00,310A,310,A,,,,Backhoe Loader - 14.0 to 15.0 Ft Standard Digging Depth,Florida,BL,Backhoe Loaders,Two Wheel Drive,EROPS,None or Unspecified,None or Unspecified,No,Extended,Standard,None or Unspecified,,,,,,,,,,,,,,,,,,,,,,,,,
4600,1595943,10000,1444391,132,6.0,1978,,,4/11/1995 0:00,310A,310,A,,,,Backhoe Loader - 14.0 to 15.0 Ft Standard Digging Depth,Maryland,BL,Backhoe Loaders,Two Wheel Drive,OROPS,None or Unspecified,None or Unspecified,No,Standard,Standard,None or Unspecified,,,,,,,,,,,,,,,,,,,,,,,,,
4600,1595958,11750,1332716,132,7.0,1978,,,3/18/1994 0:00,310A,310,A,,,,Backhoe Loader - 14.0 to 15.0 Ft Standard Digging Depth,Alabama,BL,Backhoe Loaders,Two Wheel Drive,OROPS,None or Unspecified,None or Unspecified,No,Standard,Standard,None or Unspecified,,,,,,,,,,,,,,,,,,,,,,,,,
4600,1596069,7500,1195132,132,22.0,1978,,,6/27/2003 0:00,310A,310,A,,,,Backhoe Loader - 14.0 to 15.0 Ft Standard Digging Depth,Minnesota,BL,Backhoe Loaders,Two Wheel Drive,OROPS,None or Unspecified,None or Unspecified,No,Standard,Standard,None or Unspecified,,,,,,,,,,,,,,,,,,,,,,,,,
4600,1596110,8000,1199081,132,1.0,1978,,,12/17/1998 0:00,310A,310,A,,,,Backhoe Loader - 14.0 to 15.0 Ft Standard Digging Depth,Maryland,BL,Backhoe Loaders,Two Wheel Drive,EROPS,None or Unspecified,None or Unspecified,No,Standard,Standard,None or Unspecified,,,,,,,,,,,,,,,,,,,,,,,,,
4600,1596111,7500,1257551,132,2.0,1978,,,3/28/1996 0:00,310A,310,A,,,,Backhoe Loader - 14.0 to 15.0 Ft Standard Digging Depth,New Jersey,BL,Backhoe Loaders,Two Wheel Drive,OROPS,None or Unspecified,None or Unspecified,No,Standard,Standard,None or Unspecified,,,,,,,,,,,,,,,,,,,,,,,,,
4600,1596118,10750,1542474,132,2.0,1978,,,2/8/1995 0:00,310A,310,A,,,,Backhoe Loader - 14.0 to 15.0 Ft Standard Digging Depth,Florida,BL,Backhoe Loaders,Two Wheel Drive,OROPS,None or Unspecified,None or Unspecified,No,Standard,Standard,None or Unspecified,,,,,,,,,,,,,,,,,,,,,,,,,
4600,1596121,14000,1450709,132,10.0,1978,,,4/27/1995 0:00,310A,310,A,,,,Backhoe Loader - 14.0 to 15.0 Ft Standard Digging Depth,Louisiana,BL,Backhoe Loaders,Two Wheel Drive,OROPS,None or Unspecified,None or Unspecified,No,Standard,Standard,None or Unspecified,,,,,,,,,,,,,,,,,,,,,,,,,
4600,1596177,14500,1458661,132,99.0,1000,,,5/10/1995 0:00,310A,310,A,,,,Backhoe Loader - 14.0 to 15.0 Ft Standard Digging Depth,Mississippi,BL,Backhoe Loaders,Two Wheel Drive,EROPS,None or Unspecified,None or Unspecified,No,Standard,Standard,None or Unspecified,,,,,,,,,,,,,,,,,,,,,,,,,
4600,1596210,7750,1076995,132,2.0,1978,,,11/7/1997 0:00,310A,310,A,,,,Backhoe Loader - 14.0 to 15.0 Ft Standard Digging Depth,New York,BL,Backhoe Loaders,Two Wheel Drive,OROPS,None or Unspecified,None or Unspecified,No,Standard,Standard,None or Unspecified,,,,,,,,,,,,,,,,,,,,,,,,,
4600,1596244,8700,1385998,132,99.0,1978,,,2/24/1996 0:00,310A,310,A,,,,Backhoe Loader - 14.0 to 15.0 Ft Standard Digging Depth,Virginia,BL,Backhoe Loaders,Two Wheel Drive,OROPS,None or Unspecified,None or Unspecified,No,Standard,Standard,None or Unspecified,,,,,,,,,,,,,,,,,,,,,,,,,
4600,1596249,9000,1443958,132,2.0,1978,,,10/17/1998 0:00,310A,310,A,,,,Backhoe Loader - 14.0 to 15.0 Ft Standard Digging Depth,Maine,BL,Backhoe Loaders,Two Wheel Drive,EROPS,None or Unspecified,None or Unspecified,No,Standard,Standard,None or Unspecified,,,,,,,,,,,,,,,,,,,,,,,,,
4600,1596416,8750,1090971,132,9.0,1978,,,2/9/1999 0:00,310A,310,A,,,,Backhoe Loader - 14.0 to 15.0 Ft Standard Digging Depth,Florida,BL,Backhoe Loaders,Two Wheel Drive,OROPS,None or Unspecified,None or Unspecified,No,Extended,Standard,None or Unspecified,,,,,,,,,,,,,,,,,,,,,,,,,
4600,1596520,9750,1270749,132,2.0,1977,,,2/10/1994 0:00,310A,310,A,,,,Backhoe Loader - 14.0 to 15.0 Ft Standard Digging Depth,Florida,BL,Backhoe Loaders,Two Wheel Drive,OROPS,None or Unspecified,None or Unspecified,No,Standard,Standard,None or Unspecified,,,,,,,,,,,,,,,,,,,,,,,,,
4600,1596521,9500,1418369,132,1.0,1978,,,7/17/1997 0:00,310A,310,A,,,,Backhoe Loader - 14.0 to 15.0 Ft Standard Digging Depth,Georgia,BL,Backhoe Loaders,Two Wheel Drive,OROPS,None or Unspecified,None or Unspecified,No,Standard,Standard,None or Unspecified,,,,,,,,,,,,,,,,,,,,,,,,,
4600,1596523,7500,1205490,132,5.0,1978,,,9/15/2000 0:00,310A,310,A,,,,Backhoe Loader - 14.0 to 15.0 Ft Standard Digging Depth,Connecticut,BL,Backhoe Loaders,Two Wheel Drive,OROPS,None or Unspecified,None or Unspecified,No,Standard,Standard,None or Unspecified,,,,,,,,,,,,,,,,,,,,,,,,,
4600,1596666,11750,1553558,132,11.0,1978,,,3/29/1995 0:00,310A,310,A,,,,Backhoe Loader - 14.0 to 15.0 Ft Standard Digging Depth,Mississippi,BL,Backhoe Loaders,Two Wheel Drive,OROPS,None or Unspecified,None or Unspecified,No,Standard,Standard,None or Unspecified,,,,,,,,,,,,,,,,,,,,,,,,,
4600,1596782,9250,1356347,132,12.0,1979,,,1/11/1995 0:00,310A,310,A,,,,Backhoe Loader - 14.0 to 15.0 Ft Standard Digging Depth,South Carolina,BL,Backhoe Loaders,Two Wheel Drive,OROPS,None or Unspecified,None or Unspecified,No,Standard,Standard,None or Unspecified,,,,,,,,,,,,,,,,,,,,,,,,,
4600,1596888,10750,1298551,132,2.0,1979,,,2/10/1994 0:00,310A,310,A,,,,Backhoe Loader - 14.0 to 15.0 Ft Standard Digging Depth,Florida,BL,Backhoe Loaders,Two Wheel Drive,OROPS,None or Unspecified,None or Unspecified,No,Standard,Standard,None or Unspecified,,,,,,,,,,,,,,,,,,,,,,,,,
4600,1596890,7500,1390171,132,1.0,1979,,,9/17/2008 0:00,310A,310,A,,,,Backhoe Loader - 14.0 to 15.0 Ft Standard Digging Depth,Illinois,BL,Backhoe Loaders,Two Wheel Drive,EROPS,None or Unspecified,None or Unspecified,No,Standard,Standard,None or Unspecified,,,,,,,,,,,,,,,,,,,,,,,,,
4600,1596895,9600,1424600,132,28.0,1979,,,4/27/1996 0:00,310A,310,A,,,,Backhoe Loader - 14.0 to 15.0 Ft Standard Digging Depth,Mississippi,BL,Backhoe Loaders,Two Wheel Drive,OROPS,None or Unspecified,None or Unspecified,No,Standard,Standard,None or Unspecified,,,,,,,,,,,,,,,,,,,,,,,,,
4600,1596900,8500,1246327,132,99.0,1979,,,10/9/1997 0:00,310A,310,A,,,,Backhoe Loader - 14.0 to 15.0 Ft Standard Digging Depth,Louisiana,BL,Backhoe Loaders,Two Wheel Drive,EROPS,None or Unspecified,None or Unspecified,No,Standard,Standard,None or Unspecified,,,,,,,,,,,,,,,,,,,,,,,,,
4600,1596902,7500,1143216,132,14.0,1979,,,12/11/1998 0:00,310A,310,A,,,,Backhoe Loader - 14.0 to 15.0 Ft Standard Digging Depth,Indiana,BL,Backhoe Loaders,Two Wheel Drive,OROPS,None or Unspecified,None or Unspecified,No,Standard,Standard,None or Unspecified,,,,,,,,,,,,,,,,,,,,,,,,,
4600,1596973,7500,1300122,132,22.0,1979,,,6/11/2005 0:00,310A,310,A,,,,Backhoe Loader - 14.0 to 15.0 Ft Standard Digging Depth,Minnesota,BL,Backhoe Loaders,Two Wheel Drive,OROPS,None or Unspecified,None or Unspecified,No,Standard,Standard,None or Unspecified,,,,,,,,,,,,,,,,,,,,,,,,,
4600,1596978,9500,1310112,132,1.0,1979,,,4/30/1996 0:00,310A,310,A,,,,Backhoe Loader - 14.0 to 15.0 Ft Standard Digging Depth,Montana,BL,Backhoe Loaders,Two Wheel Drive,OROPS,None or Unspecified,None or Unspecified,No,Standard,Standard,None or Unspecified,,,,,,,,,,,,,,,,,,,,,,,,,
4600,1596981,9750,1491510,132,4.0,1979,,,4/16/2005 0:00,310A,310,A,,,,Backhoe Loader - 14.0 to 15.0 Ft Standard Digging Depth,Pennsylvania,BL,Backhoe Loaders,Two Wheel Drive,OROPS,None or Unspecified,None or Unspecified,No,Standard,Standard,None or Unspecified,,,,,,,,,,,,,,,,,,,,,,,,,
4600,1596985,7500,1509887,132,1.0,1979,,,6/19/2007 0:00,310A,310,A,,,,Backhoe Loader - 14.0 to 15.0 Ft Standard Digging Depth,Missouri,BL,Backhoe Loaders,Two Wheel Drive,OROPS,None or Unspecified,None or Unspecified,No,Standard,Standard,None or Unspecified,,,,,,,,,,,,,,,,,,,,,,,,,
4600,1596986,11000,1213336,132,99.0,1979,,,6/28/1994 0:00,310A,310,A,,,,Backhoe Loader - 14.0 to 15.0 Ft Standard Digging Depth,Texas,BL,Backhoe Loaders,Two Wheel Drive,OROPS,None or Unspecified,None or Unspecified,No,Standard,Standard,None or Unspecified,,,,,,,,,,,,,,,,,,,,,,,,,
4600,1597024,8750,1176486,132,2.0,1979,,,4/27/1996 0:00,310A,310,A,,,,Backhoe Loader - 14.0 to 15.0 Ft Standard Digging Depth,Ohio,BL,Backhoe Loaders,Two Wheel Drive,OROPS,None or Unspecified,None or Unspecified,No,Standard,Standard,None or Unspecified,,,,,,,,,,,,,,,,,,,,,,,,,
4600,1597025,9750,1080655,132,12.0,1979,,,1/11/1995 0:00,310A,310,A,,,,Backhoe Loader - 14.0 to 15.0 Ft Standard Digging Depth,South Carolina,BL,Backhoe Loaders,Two Wheel Drive,OROPS,None or Unspecified,None or Unspecified,No,Standard,Standard,None or Unspecified,,,,,,,,,,,,,,,,,,,,,,,,,
4600,1597089,7500,1473270,132,10.0,1979,,,12/13/2006 0:00,310A,310,A,,,,Backhoe Loader - 14.0 to 15.0 Ft Standard Digging Depth,Louisiana,BL,Backhoe Loaders,Two Wheel Drive,OROPS,None or Unspecified,None or Unspecified,No,Standard,Standard,None or Unspecified,,,,,,,,,,,,,,,,,,,,,,,,,
4600,1597094,9750,1191344,132,6.0,1979,,,5/5/1998 0:00,310A,310,A,,,,Backhoe Loader - 14.0 to 15.0 Ft Standard Digging Depth,Florida,BL,Backhoe Loaders,Two Wheel Drive,OROPS,None or Unspecified,None or Unspecified,No,Standard,Standard,None or Unspecified,,,,,,,,,,,,,,,,,,,,,,,,,
4600,1597098,7500,1448197,132,1.0,1979,,,4/16/1996 0:00,310A,310,A,,,,Backhoe Loader - 14.0 to 15.0 Ft Standard Digging Depth,Missouri,BL,Backhoe Loaders,Two Wheel Drive,OROPS,None or Unspecified,None or Unspecified,No,Standard,Standard,None or Unspecified,,,,,,,,,,,,,,,,,,,,,,,,,
4600,1597150,8750,1538560,132,18.0,1979,,,4/8/1999 0:00,310A,310,A,,,,Backhoe Loader - 14.0 to 15.0 Ft Standard Digging Depth,New Jersey,BL,Backhoe Loaders,Two Wheel Drive,OROPS,None or Unspecified,None or Unspecified,No,Standard,Standard,None or Unspecified,,,,,,,,,,,,,,,,,,,,,,,,,
4600,1597155,7500,1334181,132,2.0,1979,,,10/5/1996 0:00,310A,310,A,,,,Backhoe Loader - 14.0 to 15.0 Ft Standard Digging Depth,Pennsylvania,BL,Backhoe Loaders,Two Wheel Drive,OROPS,None or Unspecified,None or Unspecified,No,Extended,Standard,None or Unspecified,,,,,,,,,,,,,,,,,,,,,,,,,
4600,1597175,10000,1446548,132,12.0,1979,,,12/8/2005 0:00,310A,310,A,,,,Backhoe Loader - 14.0 to 15.0 Ft Standard Digging Depth,South Carolina,BL,Backhoe Loaders,Two Wheel Drive,OROPS,None or Unspecified,None or Unspecified,No,Standard,Standard,None or Unspecified,,,,,,,,,,,,,,,,,,,,,,,,,
4600,1597251,7500,1445295,132,99.0,1989,,,5/18/1995 0:00,310A,310,A,,,,Backhoe Loader - 14.0 to 15.0 Ft Standard Digging Depth,Maine,BL,Backhoe Loaders,Two Wheel Drive,OROPS,None or Unspecified,None or Unspecified,No,Standard,Standard,None or Unspecified,,,,,,,,,,,,,,,,,,,,,,,,,
4600,1597254,7750,1417015,132,4.0,1979,,,2/8/1996 0:00,310A,310,A,,,,Backhoe Loader - 14.0 to 15.0 Ft Standard Digging Depth,Florida,BL,Backhoe Loaders,Two Wheel Drive,OROPS,None or Unspecified,None or Unspecified,No,Standard,Standard,None or Unspecified,,,,,,,,,,,,,,,,,,,,,,,,,
4600,1597256,9000,1291412,132,4.0,1979,,,2/9/1995 0:00,310A,310,A,,,,Backhoe Loader - 14.0 to 15.0 Ft Standard Digging Depth,Florida,BL,Backhoe Loaders,Two Wheel Drive,OROPS,None or Unspecified,None or Unspecified,No,Standard,Standard,None or Unspecified,,,,,,,,,,,,,,,,,,,,,,,,,
4600,1597327,7500,1308296,132,3.0,1979,,,9/2/2010 0:00,310A,310,A,,,,Backhoe Loader - 14.0 to 15.0 Ft Standard Digging Depth,California,BL,Backhoe Loaders,Two Wheel Drive,EROPS,None or Unspecified,None or Unspecified,No,Standard,Standard,None or Unspecified,,,,,,,,,,,,,,,,,,,,,,,,,
4600,1597338,8000,1097777,132,6.0,1979,,,6/20/1996 0:00,310A,310,A,,,,Backhoe Loader - 14.0 to 15.0 Ft Standard Digging Depth,Texas,BL,Backhoe Loaders,Two Wheel Drive,EROPS,None or Unspecified,None or Unspecified,No,Standard,Standard,None or Unspecified,,,,,,,,,,,,,,,,,,,,,,,,,
4600,1597341,8000,1488986,132,1.0,1979,,,10/17/1996 0:00,310A,310,A,,,,Backhoe Loader - 14.0 to 15.0 Ft Standard Digging Depth,Illinois,BL,Backhoe Loaders,Two Wheel Drive,EROPS,None or Unspecified,None or Unspecified,No,Standard,Standard,None or Unspecified,,,,,,,,,,,,,,,,,,,,,,,,,
4600,1597343,13000,1459294,132,18.0,1979,,,4/21/1994 0:00,310A,310,A,,,,Backhoe Loader - 14.0 to 15.0 Ft Standard Digging Depth,Pennsylvania,BL,Backhoe Loaders,Two Wheel Drive,EROPS,None or Unspecified,None or Unspecified,No,Standard,Standard,None or Unspecified,,,,,,,,,,,,,,,,,,,,,,,,,
4600,1597349,7500,1333707,132,1.0,1979,,,4/16/1996 0:00,310A,310,A,,,,Backhoe Loader - 14.0 to 15.0 Ft Standard Digging Depth,Missouri,BL,Backhoe Loaders,Two Wheel Drive,OROPS,None or Unspecified,None or Unspecified,No,Standard,Standard,None or Unspecified,,,,,,,,,,,,,,,,,,,,,,,,,
4600,1597375,8500,1532122,132,2.0,1979,,,9/23/1995 0:00,310A,310,A,,,,Backhoe Loader - 14.0 to 15.0 Ft Standard Digging Depth,New York,BL,Backhoe Loaders,Two Wheel Drive,OROPS,None or Unspecified,None or Unspecified,No,Standard,Standard,None or Unspecified,,,,,,,,,,,,,,,,,,,,,,,,,
4600,1597612,10750,1281685,132,18.0,1979,,,4/21/1994 0:00,310A,310,A,,,,Backhoe Loader - 14.0 to 15.0 Ft Standard Digging Depth,Pennsylvania,BL,Backhoe Loaders,Two Wheel Drive,OROPS,None or Unspecified,None or Unspecified,No,Standard,Standard,None or Unspecified,,,,,,,,,,,,,,,,,,,,,,,,,
4600,1597613,7500,1281685,132,1.0,1979,,,9/21/2004 0:00,310A,310,A,,,,Backhoe Loader - 14.0 to 15.0 Ft Standard Digging Depth,North Carolina,BL,Backhoe Loaders,Two Wheel Drive,OROPS,None or Unspecified,None or Unspecified,No,Standard,Standard,None or Unspecified,,,,,,,,,,,,,,,,,,,,,,,,,
4600,1597617,10500,1542768,132,1.0,1979,,,3/13/2002 0:00,310A,310,A,,,,Backhoe Loader - 14.0 to 15.0 Ft Standard Digging Depth,Illinois,BL,Backhoe Loaders,Two Wheel Drive,EROPS,None or Unspecified,None or Unspecified,No,Standard,Standard,None or Unspecified,,,,,,,,,,,,,,,,,,,,,,,,,
4600,1597691,10000,1204623,132,18.0,1979,,,4/21/1994 0:00,310A,310,A,,,,Backhoe Loader - 14.0 to 15.0 Ft Standard Digging Depth,Pennsylvania,BL,Backhoe Loaders,Two Wheel Drive,OROPS,None or Unspecified,None or Unspecified,No,Standard,Standard,None or Unspecified,,,,,,,,,,,,,,,,,,,,,,,,,
4600,1597694,9000,1496687,132,2.0,1979,,,11/11/1995 0:00,310A,310,A,,,,Backhoe Loader - 14.0 to 15.0 Ft Standard Digging Depth,Ohio,BL,Backhoe Loaders,Two Wheel Drive,OROPS,None or Unspecified,None or Unspecified,No,Standard,Standard,None or Unspecified,,,,,,,,,,,,,,,,,,,,,,,,,
4600,1597740,7750,1187665,132,11.0,1979,,,9/30/1998 0:00,310A,310,A,,,,Backhoe Loader - 14.0 to 15.0 Ft Standard Digging Depth,Mississippi,BL,Backhoe Loaders,Two Wheel Drive,OROPS,None or Unspecified,None or Unspecified,No,Standard,Standard,None or Unspecified,,,,,,,,,,,,,,,,,,,,,,,,,
4600,1597745,8500,1360701,132,1.0,1979,,,9/25/2001 0:00,310A,310,A,,,,Backhoe Loader - 14.0 to 15.0 Ft Standard Digging Depth,Illinois,BL,Backhoe Loaders,Two Wheel Drive,EROPS,None or Unspecified,None or Unspecified,No,Standard,Standard,None or Unspecified,,,,,,,,,,,,,,,,,,,,,,,,,
4600,1597747,8000,1316861,132,2.0,1979,,,4/9/1994 0:00,310A,310,A,,,,Backhoe Loader - 14.0 to 15.0 Ft Standard Digging Depth,New York,BL,Backhoe Loaders,Two Wheel Drive,OROPS,None or Unspecified,None or Unspecified,No,Standard,Powershuttle,None or Unspecified,,,,,,,,,,,,,,,,,,,,,,,,,
4600,1597750,9750,1539534,132,18.0,1979,,,5/1/1996 0:00,310A,310,A,,,,Backhoe Loader - 14.0 to 15.0 Ft Standard Digging Depth,Pennsylvania,BL,Backhoe Loaders,Two Wheel Drive,OROPS,None or Unspecified,None or Unspecified,No,Standard,Powershuttle,None or Unspecified,,,,,,,,,,,,,,,,,,,,,,,,,
4600,1597807,10500,1112455,132,99.0,1979,,,1/19/2006 0:00,310A,310,A,,,,Backhoe Loader - 14.0 to 15.0 Ft Standard Digging Depth,Kansas,BL,Backhoe Loaders,Two Wheel Drive,OROPS,None or Unspecified,None or Unspecified,No,Extended,Standard,None or Unspecified,,,,,,,,,,,,,,,,,,,,,,,,,
4600,1597810,8750,1268469,132,4.0,1979,,,2/11/1994 0:00,310A,310,A,,,,Backhoe Loader - 14.0 to 15.0 Ft Standard Digging Depth,Florida,BL,Backhoe Loaders,Two Wheel Drive,OROPS,None or Unspecified,None or Unspecified,No,Standard,Standard,None or Unspecified,,,,,,,,,,,,,,,,,,,,,,,,,
4600,1597814,10500,1521790,132,18.0,1979,,,4/21/1994 0:00,310A,310,A,,,,Backhoe Loader - 14.0 to 15.0 Ft Standard Digging Depth,Pennsylvania,BL,Backhoe Loaders,Two Wheel Drive,OROPS,None or Unspecified,None or Unspecified,No,Standard,Standard,None or Unspecified,,,,,,,,,,,,,,,,,,,,,,,,,
4600,1597816,8000,1369567,132,6.0,1979,,,8/10/1995 0:00,310A,310,A,,,,Backhoe Loader - 14.0 to 15.0 Ft Standard Digging Depth,Virginia,BL,Backhoe Loaders,Two Wheel Drive,OROPS,None or Unspecified,None or Unspecified,No,Standard,Standard,None or Unspecified,,,,,,,,,,,,,,,,,,,,,,,,,
4600,1597818,8600,1381107,132,14.0,1979,,,4/28/1995 0:00,310A,310,A,,,,Backhoe Loader - 14.0 to 15.0 Ft Standard Digging Depth,Ohio,BL,Backhoe Loaders,Two Wheel Drive,OROPS,None or Unspecified,None or Unspecified,No,Standard,Standard,None or Unspecified,,,,,,,,,,,,,,,,,,,,,,,,,
4600,1598123,9750,1429629,132,18.0,1980,,,5/1/1996 0:00,310A,310,A,,,,Backhoe Loader - 14.0 to 15.0 Ft Standard Digging Depth,Pennsylvania,BL,Backhoe Loaders,Two Wheel Drive,OROPS,None or Unspecified,None or Unspecified,No,Standard,Powershuttle,None or Unspecified,,,,,,,,,,,,,,,,,,,,,,,,,
4600,1598127,10000,1221393,132,1.0,1980,,,6/14/2000 0:00,310A,310,A,,,,Backhoe Loader - 14.0 to 15.0 Ft Standard Digging Depth,Texas,BL,Backhoe Loaders,Two Wheel Drive,OROPS,None or Unspecified,None or Unspecified,No,Standard,Standard,None or Unspecified,,,,,,,,,,,,,,,,,,,,,,,,,
4600,1598131,10750,1407367,132,18.0,1980,,,4/21/1994 0:00,310A,310,A,,,,Backhoe Loader - 14.0 to 15.0 Ft Standard Digging Depth,Pennsylvania,BL,Backhoe Loaders,Two Wheel Drive,OROPS,None or Unspecified,None or Unspecified,No,Standard,Standard,None or Unspecified,,,,,,,,,,,,,,,,,,,,,,,,,
4600,1598140,9750,1102288,132,6.0,1980,,,4/15/1997 0:00,310A,310,A,,,,Backhoe Loader - 14.0 to 15.0 Ft Standard Digging Depth,Kentucky,BL,Backhoe Loaders,Two Wheel Drive,OROPS,None or Unspecified,None or Unspecified,No,Standard,Standard,None or Unspecified,,,,,,,,,,,,,,,,,,,,,,,,,
4600,1598165,8000,1227652,132,6.0,1980,,,8/10/1995 0:00,310A,310,A,,,,Backhoe Loader - 14.0 to 15.0 Ft Standard Digging Depth,Virginia,BL,Backhoe Loaders,Two Wheel Drive,OROPS,None or Unspecified,None or Unspecified,No,Standard,Standard,None or Unspecified,,,,,,,,,,,,,,,,,,,,,,,,,
4600,1598173,9000,1239415,132,2.0,1980,,,10/14/1995 0:00,310A,310,A,,,,Backhoe Loader - 14.0 to 15.0 Ft Standard Digging Depth,Pennsylvania,BL,Backhoe Loaders,Two Wheel Drive,EROPS,None or Unspecified,None or Unspecified,No,Standard,Standard,None or Unspecified,,,,,,,,,,,,,,,,,,,,,,,,,
4600,1598226,15500,1491878,132,1.0,1980,,,4/27/1999 0:00,310A,310,A,,,,Backhoe Loader - 14.0 to 15.0 Ft Standard Digging Depth,Florida,BL,Backhoe Loaders,Two Wheel Drive,OROPS,None or Unspecified,None or Unspecified,No,Standard,Standard,None or Unspecified,,,,,,,,,,,,,,,,,,,,,,,,,
4600,1598227,13500,1554563,132,18.0,1980,,,4/21/1994 0:00,310A,310,A,,,,Backhoe Loader - 14.0 to 15.0 Ft Standard Digging Depth,Pennsylvania,BL,Backhoe Loaders,Two Wheel Drive,EROPS,None or Unspecified,None or Unspecified,No,Standard,Standard,None or Unspecified,,,,,,,,,,,,,,,,,,,,,,,,,
4600,1598300,8300,1496905,132,99.0,1980,,,1/23/1997 0:00,310A,310,A,,,,Backhoe Loader - 14.0 to 15.0 Ft Standard Digging Depth,Louisiana,BL,Backhoe Loaders,Two Wheel Drive,OROPS,None or Unspecified,None or Unspecified,No,Standard,Standard,None or Unspecified,,,,,,,,,,,,,,,,,,,,,,,,,
4600,1598306,12500,1266988,132,6.0,1980,,,4/25/1995 0:00,310A,310,A,,,,Backhoe Loader - 14.0 to 15.0 Ft Standard Digging Depth,New Mexico,BL,Backhoe Loaders,Two Wheel Drive,OROPS,None or Unspecified,None or Unspecified,No,Standard,Standard,None or Unspecified,,,,,,,,,,,,,,,,,,,,,,,,,
4600,1598310,10250,1263290,132,4.0,1980,,,10/27/1994 0:00,310A,310,A,,,,Backhoe Loader - 14.0 to 15.0 Ft Standard Digging Depth,Pennsylvania,BL,Backhoe Loaders,Two Wheel Drive,EROPS,None or Unspecified,None or Unspecified,No,Standard,Standard,None or Unspecified,,,,,,,,,,,,,,,,,,,,,,,,,
4600,1598529,10000,1322201,132,7.0,1980,,,3/7/1997 0:00,310A,310,A,,,,Backhoe Loader - 14.0 to 15.0 Ft Standard Digging Depth,Alabama,BL,Backhoe Loaders,Two Wheel Drive,OROPS,None or Unspecified,None or Unspecified,No,Standard,Standard,None or Unspecified,,,,,,,,,,,,,,,,,,,,,,,,,
4600,1598548,7500,1497862,132,1.0,1980,,,2/19/2008 0:00,310A,310,A,,,,Backhoe Loader - 14.0 to 15.0 Ft Standard Digging Depth,Florida,BL,Backhoe Loaders,Two Wheel Drive,OROPS,None or Unspecified,None or Unspecified,No,Standard,Standard,None or Unspecified,,,,,,,,,,,,,,,,,,,,,,,,,
4600,1598553,8800,1544618,132,4.0,1980,,,5/19/1995 0:00,310A,310,A,,,,Backhoe Loader - 14.0 to 15.0 Ft Standard Digging Depth,Texas,BL,Backhoe Loaders,Two Wheel Drive,OROPS,None or Unspecified,None or Unspecified,No,Standard,Standard,None or Unspecified,,,,,,,,,,,,,,,,,,,,,,,,,
4600,1598564,9500,1371620,132,1.0,1980,,,9/30/1997 0:00,310A,310,A,,,,Backhoe Loader - 14.0 to 15.0 Ft Standard Digging Depth,Ohio,BL,Backhoe Loaders,Two Wheel Drive,OROPS,None or Unspecified,None or Unspecified,No,Standard,Standard,None or Unspecified,,,,,,,,,,,,,,,,,,,,,,,,,
4600,1598629,10750,1330625,132,2.0,1980,,,3/18/1999 0:00,310A,310,A,,,,Backhoe Loader - 14.0 to 15.0 Ft Standard Digging Depth,New Jersey,BL,Backhoe Loaders,Two Wheel Drive,OROPS,None or Unspecified,None or Unspecified,No,Standard,Standard,None or Unspecified,,,,,,,,,,,,,,,,,,,,,,,,,
4600,1598631,10500,1084324,132,1.0,1980,,,9/22/1994 0:00,310A,310,A,,,,Backhoe Loader - 14.0 to 15.0 Ft Standard Digging Depth,Colorado,BL,Backhoe Loaders,Two Wheel Drive,EROPS,None or Unspecified,None or Unspecified,No,Standard,Standard,None or Unspecified,,,,,,,,,,,,,,,,,,,,,,,,,
4600,1598632,11000,1084324,132,1.0,1980,,,6/23/1994 0:00,310A,310,A,,,,Backhoe Loader - 14.0 to 15.0 Ft Standard Digging Depth,Colorado,BL,Backhoe Loaders,Two Wheel Drive,EROPS,None or Unspecified,None or Unspecified,No,Standard,Standard,None or Unspecified,,,,,,,,,,,,,,,,,,,,,,,,,
4600,1598676,9500,1342825,132,1.0,1980,,,7/21/1994 0:00,310A,310,A,,,,Backhoe Loader - 14.0 to 15.0 Ft Standard Digging Depth,Wisconsin,BL,Backhoe Loaders,Two Wheel Drive,OROPS,None or Unspecified,None or Unspecified,No,Standard,Standard,None or Unspecified,,,,,,,,,,,,,,,,,,,,,,,,,
4600,1598712,11250,1443117,132,4.0,1980,,,2/9/1995 0:00,310A,310,A,,,,Backhoe Loader - 14.0 to 15.0 Ft Standard Digging Depth,Florida,BL,Backhoe Loaders,Two Wheel Drive,OROPS,None or Unspecified,None or Unspecified,No,Standard,Standard,None or Unspecified,,,,,,,,,,,,,,,,,,,,,,,,,
4600,1598717,13500,1097505,132,23.0,1980,,,5/14/1994 0:00,310A,310,A,,,,Backhoe Loader - 14.0 to 15.0 Ft Standard Digging Depth,Maine,BL,Backhoe Loaders,Two Wheel Drive,OROPS,None or Unspecified,None or Unspecified,No,Standard,Standard,None or Unspecified,,,,,,,,,,,,,,,,,,,,,,,,,
4600,1598769,8000,1345091,132,28.0,1980,,,9/15/2001 0:00,310A,310,A,,,,Backhoe Loader - 14.0 to 15.0 Ft Standard Digging Depth,Mississippi,BL,Backhoe Loaders,Two Wheel Drive,OROPS,None or Unspecified,None or Unspecified,No,Standard,Standard,None or Unspecified,,,,,,,,,,,,,,,,,,,,,,,,,
4600,1598782,7500,1297932,132,9.0,1980,,,2/17/2003 0:00,310A,310,A,,,,Backhoe Loader - 14.0 to 15.0 Ft Standard Digging Depth,Florida,BL,Backhoe Loaders,Two Wheel Drive,EROPS,None or Unspecified,None or Unspecified,No,Standard,Standard,None or Unspecified,,,,,,,,,,,,,,,,,,,,,,,,,
4600,1598942,8000,1171772,132,16.0,1981,,,11/5/1998 0:00,310A,310,A,,,,Backhoe Loader - 14.0 to 15.0 Ft Standard Digging Depth,Ohio,BL,Backhoe Loaders,Two Wheel Drive,EROPS,None or Unspecified,None or Unspecified,No,Standard,Standard,None or Unspecified,,,,,,,,,,,,,,,,,,,,,,,,,
4600,1598949,11500,1434628,132,18.0,1980,,,4/21/1994 0:00,310A,310,A,,,,Backhoe Loader - 14.0 to 15.0 Ft Standard Digging Depth,Pennsylvania,BL,Backhoe Loaders,Two Wheel Drive,EROPS,None or Unspecified,None or Unspecified,No,Standard,Standard,None or Unspecified,,,,,,,,,,,,,,,,,,,,,,,,,
4600,1598976,9750,1197955,132,18.0,1980,,,4/21/1994 0:00,310A,310,A,,,,Backhoe Loader - 14.0 to 15.0 Ft Standard Digging Depth,Pennsylvania,BL,Backhoe Loaders,Two Wheel Drive,OROPS,None or Unspecified,None or Unspecified,No,Standard,Standard,None or Unspecified,,,,,,,,,,,,,,,,,,,,,,,,,
4600,1599028,9500,1448674,132,99.0,1980,,,3/10/1994 0:00,310A,310,A,,,,Backhoe Loader - 14.0 to 15.0 Ft Standard Digging Depth,New Mexico,BL,Backhoe Loaders,Two Wheel Drive,OROPS,None or Unspecified,None or Unspecified,No,Standard,Standard,None or Unspecified,,,,,,,,,,,,,,,,,,,,,,,,,
4600,1599159,9500,1104716,132,1.0,1981,,,5/20/2004 0:00,310A,310,A,,,,Backhoe Loader - 14.0 to 15.0 Ft Standard Digging Depth,Texas,BL,Backhoe Loaders,Two Wheel Drive,OROPS,None or Unspecified,None or Unspecified,No,Standard,Standard,None or Unspecified,,,,,,,,,,,,,,,,,,,,,,,,,
4600,1599164,12000,1100658,132,1.0,1981,,,9/26/1996 0:00,310A,310,A,,,,Backhoe Loader - 14.0 to 15.0 Ft Standard Digging Depth,Colorado,BL,Backhoe Loaders,Two Wheel Drive,EROPS,None or Unspecified,None or Unspecified,No,Standard,Standard,None or Unspecified,,,,,,,,,,,,,,,,,,,,,,,,,
4600,1599167,10500,1493464,132,1.0,1981,,,9/22/1994 0:00,310A,310,A,,,,Backhoe Loader - 14.0 to 15.0 Ft Standard Digging Depth,Colorado,BL,Backhoe Loaders,Two Wheel Drive,EROPS,None or Unspecified,None or Unspecified,No,Standard,Standard,None or Unspecified,,,,,,,,,,,,,,,,,,,,,,,,,
4600,1599171,8250,1475093,132,2.0,1981,,,6/16/2001 0:00,310A,310,A,,,,Backhoe Loader - 14.0 to 15.0 Ft Standard Digging Depth,Pennsylvania,BL,Backhoe Loaders,Two Wheel Drive,OROPS,None or Unspecified,None or Unspecified,No,Standard,Standard,None or Unspecified,,,,,,,,,,,,,,,,,,,,,,,,,
4600,1599246,9000,1529645,132,25.0,1981,,,10/29/1994 0:00,310A,310,A,,,,Backhoe Loader - 14.0 to 15.0 Ft Standard Digging Depth,California,BL,Backhoe Loaders,Two Wheel Drive,OROPS,None or Unspecified,None or Unspecified,No,Extended,Standard,None or Unspecified,,,,,,,,,,,,,,,,,,,,,,,,,
4600,1599289,9750,1301306,132,18.0,1981,,,2/23/1994 0:00,310A,310,A,,,,Backhoe Loader - 14.0 to 15.0 Ft Standard Digging Depth,Pennsylvania,BL,Backhoe Loaders,Two Wheel Drive,EROPS,None or Unspecified,None or Unspecified,No,Standard,Powershuttle,None or Unspecified,,,,,,,,,,,,,,,,,,,,,,,,,
4600,1599290,10500,1210530,132,18.0,1981,,,2/23/1994 0:00,310A,310,A,,,,Backhoe Loader - 14.0 to 15.0 Ft Standard Digging Depth,Pennsylvania,BL,Backhoe Loaders,Two Wheel Drive,EROPS,None or Unspecified,None or Unspecified,No,Standard,Powershuttle,None or Unspecified,,,,,,,,,,,,,,,,,,,,,,,,,
4600,1599296,11500,1127968,132,5.0,1981,,,8/19/1995 0:00,310A,310,A,,,,Backhoe Loader - 14.0 to 15.0 Ft Standard Digging Depth,Connecticut,BL,Backhoe Loaders,Two Wheel Drive,OROPS,None or Unspecified,None or Unspecified,No,Standard,Standard,None or Unspecified,,,,,,,,,,,,,,,,,,,,,,,,,
4600,1599382,8000,1098329,132,1.0,1981,,,6/18/2001 0:00,310A,310,A,,,,Backhoe Loader - 14.0 to 15.0 Ft Standard Digging Depth,Maryland,BL,Backhoe Loaders,Two Wheel Drive,EROPS,None or Unspecified,None or Unspecified,No,Standard,Standard,None or Unspecified,,,,,,,,,,,,,,,,,,,,,,,,,
4600,1599384,10000,1135157,132,22.0,1981,,,5/23/1998 0:00,310A,310,A,,,,Backhoe Loader - 14.0 to 15.0 Ft Standard Digging Depth,Minnesota,BL,Backhoe Loaders,Two Wheel Drive,OROPS,None or Unspecified,None or Unspecified,No,Standard,Standard,None or Unspecified,,,,,,,,,,,,,,,,,,,,,,,,,
4600,1599410,11000,1281668,132,18.0,1981,,,2/23/1994 0:00,310A,310,A,,,,Backhoe Loader - 14.0 to 15.0 Ft Standard Digging Depth,Pennsylvania,BL,Backhoe Loaders,Two Wheel Drive,EROPS,None or Unspecified,None or Unspecified,No,Standard,Powershuttle,None or Unspecified,,,,,,,,,,,,,,,,,,,,,,,,,
4600,1599417,9500,1155276,132,1.0,1982,,,6/22/2001 0:00,310A,310,A,,,,Backhoe Loader - 14.0 to 15.0 Ft Standard Digging Depth,Illinois,BL,Backhoe Loaders,Two Wheel Drive,EROPS,None or Unspecified,None or Unspecified,No,Standard,Standard,None or Unspecified,,,,,,,,,,,,,,,,,,,,,,,,,
4600,1599440,8000,1488961,132,1.0,1982,,,3/21/2001 0:00,310A,310,A,,,,Backhoe Loader - 14.0 to 15.0 Ft Standard Digging Depth,Texas,BL,Backhoe Loaders,Two Wheel Drive,OROPS,None or Unspecified,None or Unspecified,No,Standard,Standard,None or Unspecified,,,,,,,,,,,,,,,,,,,,,,,,,
4600,1599447,10000,1362373,132,1.0,1982,,,6/17/1998 0:00,310A,310,A,,,,Backhoe Loader - 14.0 to 15.0 Ft Standard Digging Depth,Texas,BL,Backhoe Loaders,Two Wheel Drive,OROPS,None or Unspecified,None or Unspecified,No,Extended,Standard,None or Unspecified,,,,,,,,,,,,,,,,,,,,,,,,,
4600,1599448,10750,1333382,132,9.0,1982,,,2/22/2006 0:00,310A,310,A,,,,Backhoe Loader - 14.0 to 15.0 Ft Standard Digging Depth,Florida,BL,Backhoe Loaders,Two Wheel Drive,OROPS,None or Unspecified,None or Unspecified,No,Standard,Standard,None or Unspecified,,,,,,,,,,,,,,,,,,,,,,,,,
4600,1599449,10750,1547414,132,9.0,1000,,,2/23/2006 0:00,310A,310,A,,,,Backhoe Loader - 14.0 to 15.0 Ft Standard Digging Depth,Florida,BL,Backhoe Loaders,Two Wheel Drive,OROPS,None or Unspecified,None or Unspecified,No,Standard,Standard,None or Unspecified,,,,,,,,,,,,,,,,,,,,,,,,,
4600,1599469,9200,1284850,132,10.0,1982,,,12/7/1995 0:00,310A,310,A,,,,Backhoe Loader - 14.0 to 15.0 Ft Standard Digging Depth,Louisiana,BL,Backhoe Loaders,Two Wheel Drive,OROPS,None or Unspecified,None or Unspecified,No,Extended,Standard,None or Unspecified,,,,,,,,,,,,,,,,,,,,,,,,,
4600,1599471,9500,1160469,132,99.0,1982,,,4/26/1996 0:00,310A,310,A,,,,Backhoe Loader - 14.0 to 15.0 Ft Standard Digging Depth,Mississippi,BL,Backhoe Loaders,Two Wheel Drive,OROPS,None or Unspecified,None or Unspecified,No,Standard,Standard,None or Unspecified,,,,,,,,,,,,,,,,,,,,,,,,,
4600,1599513,10500,1453017,132,6.0,1982,,,4/11/1995 0:00,310A,310,A,,,,Backhoe Loader - 14.0 to 15.0 Ft Standard Digging Depth,Maryland,BL,Backhoe Loaders,Two Wheel Drive,EROPS,None or Unspecified,None or Unspecified,No,Standard,Standard,None or Unspecified,,,,,,,,,,,,,,,,,,,,,,,,,
4600,1599518,9500,1523207,132,18.0,1982,,,5/1/1996 0:00,310A,310,A,,,,Backhoe Loader - 14.0 to 15.0 Ft Standard Digging Depth,Pennsylvania,BL,Backhoe Loaders,Two Wheel Drive,OROPS,None or Unspecified,None or Unspecified,No,Standard,Powershuttle,None or Unspecified,,,,,,,,,,,,,,,,,,,,,,,,,
4600,1599519,10500,1465306,132,1.0,1982,,,8/11/1998 0:00,310A,310,A,,,,Backhoe Loader - 14.0 to 15.0 Ft Standard Digging Depth,California,BL,Backhoe Loaders,Two Wheel Drive,OROPS,None or Unspecified,None or Unspecified,No,Extended,Standard,None or Unspecified,,,,,,,,,,,,,,,,,,,,,,,,,
4600,1599524,10500,1462856,132,6.0,1982,,,4/11/1995 0:00,310A,310,A,,,,Backhoe Loader - 14.0 to 15.0 Ft Standard Digging Depth,Maryland,BL,Backhoe Loaders,Two Wheel Drive,EROPS,None or Unspecified,None or Unspecified,No,Standard,Standard,None or Unspecified,,,,,,,,,,,,,,,,,,,,,,,,,
4600,1599543,10000,1124388,132,1.0,1982,,,9/21/1999 0:00,310A,310,A,,,,Backhoe Loader - 14.0 to 15.0 Ft Standard Digging Depth,Texas,BL,Backhoe Loaders,Two Wheel Drive,OROPS,None or Unspecified,None or Unspecified,No,Standard,Standard,None or Unspecified,,,,,,,,,,,,,,,,,,,,,,,,,
4600,1599545,9000,1463119,132,21.0,1982,,,9/9/1999 0:00,310A,310,A,,,,Backhoe Loader - 14.0 to 15.0 Ft Standard Digging Depth,Maine,BL,Backhoe Loaders,Two Wheel Drive,OROPS,None or Unspecified,None or Unspecified,No,Standard,Standard,None or Unspecified,,,,,,,,,,,,,,,,,,,,,,,,,
4600,1599579,9000,1193576,132,1.0,1982,,,4/1/1999 0:00,310A,310,A,,,,Backhoe Loader - 14.0 to 15.0 Ft Standard Digging Depth,Colorado,BL,Backhoe Loaders,Two Wheel Drive,OROPS,None or Unspecified,None or Unspecified,No,Standard,Standard,None or Unspecified,,,,,,,,,,,,,,,,,,,,,,,,,
4600,1599590,8000,1360082,132,1.0,1982,,,4/9/2003 0:00,310A,310,A,,,,Backhoe Loader - 14.0 to 15.0 Ft Standard Digging Depth,Missouri,BL,Backhoe Loaders,Two Wheel Drive,OROPS,None or Unspecified,None or Unspecified,No,Standard,Standard,None or Unspecified,,,,,,,,,,,,,,,,,,,,,,,,,
4600,1599592,8500,1267782,132,6.0,1982,,,6/29/1998 0:00,310A,310,A,,,,Backhoe Loader - 14.0 to 15.0 Ft Standard Digging Depth,Wyoming,BL,Backhoe Loaders,Two Wheel Drive,OROPS,None or Unspecified,None or Unspecified,No,Standard,Standard,None or Unspecified,,,,,,,,,,,,,,,,,,,,,,,,,
4600,1599614,8000,1439706,132,1.0,1982,,,6/16/1998 0:00,310A,310,A,,,,Backhoe Loader - 14.0 to 15.0 Ft Standard Digging Depth,Washington,BL,Backhoe Loaders,Two Wheel Drive,OROPS,None or Unspecified,None or Unspecified,No,Standard,Standard,None or Unspecified,,,,,,,,,,,,,,,,,,,,,,,,,
4600,1599616,10000,1136426,132,1.0,1982,,,4/5/2007 0:00,310A,310,A,,,,Backhoe Loader - 14.0 to 15.0 Ft Standard Digging Depth,Colorado,BL,Backhoe Loaders,Two Wheel Drive,OROPS,None or Unspecified,None or Unspecified,No,Standard,Standard,None or Unspecified,,,,,,,,,,,,,,,,,,,,,,,,,
4600,1599619,10500,1091270,132,99.0,1982,,,11/13/1996 0:00,310A,310,A,,,,Backhoe Loader - 14.0 to 15.0 Ft Standard Digging Depth,Wyoming,BL,Backhoe Loaders,Two Wheel Drive,OROPS,None or Unspecified,None or Unspecified,No,Extended,Standard,None or Unspecified,,,,,,,,,,,,,,,,,,,,,,,,,
4600,1599649,9000,1258811,132,1.0,1982,,,7/23/1998 0:00,310A,310,A,,,,Backhoe Loader - 14.0 to 15.0 Ft Standard Digging Depth,Georgia,BL,Backhoe Loaders,Two Wheel Drive,OROPS,None or Unspecified,None or Unspecified,No,Standard,Standard,None or Unspecified,,,,,,,,,,,,,,,,,,,,,,,,,
4600,1599760,9000,1378137,132,2.0,1000,,,1/29/1994 0:00,310A,310,A,,,,Backhoe Loader - 14.0 to 15.0 Ft Standard Digging Depth,New Hampshire,BL,Backhoe Loaders,Two Wheel Drive,EROPS,None or Unspecified,None or Unspecified,No,Standard,Standard,None or Unspecified,,,,,,,,,,,,,,,,,,,,,,,,,
4600,1599767,8100,1100114,132,20.0,1000,,,11/6/1996 0:00,310A,310,A,,,,Backhoe Loader - 14.0 to 15.0 Ft Standard Digging Depth,Arkansas,BL,Backhoe Loaders,Two Wheel Drive,OROPS,None or Unspecified,None or Unspecified,No,Standard,Standard,None or Unspecified,,,,,,,,,,,,,,,,,,,,,,,,,
4600,1601762,10000,1469571,132,18.0,1981,,,2/23/1994 0:00,310A,310,A,,,,Backhoe Loader - 14.0 to 15.0 Ft Standard Digging Depth,Pennsylvania,BL,Backhoe Loaders,Two Wheel Drive,EROPS,None or Unspecified,None or Unspecified,No,Standard,Powershuttle,None or Unspecified,,,,,,,,,,,,,,,,,,,,,,,,,
4600,1613898,9200,1554708,132,21.0,1000,,,7/27/1996 0:00,310A,310,A,,,,Backhoe Loader - 14.0 to 15.0 Ft Standard Digging Depth,Maine,BL,Backhoe Loaders,Two Wheel Drive,OROPS,None or Unspecified,None or Unspecified,No,Standard,Standard,None or Unspecified,,,,,,,,,,,,,,,,,,,,,,,,,
4600,1615015,9000,1236337,132,21.0,1979,,,5/4/1995 0:00,310A,310,A,,,,Backhoe Loader - 14.0 to 15.0 Ft Standard Digging Depth,Maine,BL,Backhoe Loaders,Two Wheel Drive,OROPS,None or Unspecified,None or Unspecified,No,Standard,Standard,None or Unspecified,,,,,,,,,,,,,,,,,,,,,,,,,
4600,1632922,7750,1312285,132,6.0,1978,,,4/10/1997 0:00,310A,310,A,,,,Backhoe Loader - 14.0 to 15.0 Ft Standard Digging Depth,Utah,BL,Backhoe Loaders,Two Wheel Drive,OROPS,None or Unspecified,None or Unspecified,No,Standard,Standard,None or Unspecified,,,,,,,,,,,,,,,,,,,,,,,,,
4600,1633890,8500,1318579,132,1.0,1000,,,3/25/2009 0:00,310A,310,A,,,,Backhoe Loader - 14.0 to 15.0 Ft Standard Digging Depth,Texas,BL,Backhoe Loaders,Two Wheel Drive,OROPS,None or Unspecified,None or Unspecified,No,Standard,Standard,None or Unspecified,,,,,,,,,,,,,,,,,,,,,,,,,
4600,1633929,18250,1169605,132,4.0,1999,,,11/12/2005 0:00,310A,310,A,,,,Backhoe Loader - 14.0 to 15.0 Ft Standard Digging Depth,Alabama,BL,Backhoe Loaders,Four Wheel Drive,OROPS,None or Unspecified,None or Unspecified,No,Standard,Standard,None or Unspecified,,,,,,,,,,,,,,,,,,,,,,,,,
4600,1645596,7500,1145712,132,1.0,1982,,,9/21/1995 0:00,310A,310,A,,,,Backhoe Loader - 14.0 to 15.0 Ft Standard Digging Depth,Illinois,BL,Backhoe Loaders,Two Wheel Drive,OROPS,None or Unspecified,None or Unspecified,No,Standard,Standard,None or Unspecified,,,,,,,,,,,,,,,,,,,,,,,,,
4600,2330318,8500,1641927,136,,1977,0.0,,11/14/2007 0:00,310A,310,A,,,,Backhoe Loader - 14.0 to 15.0 Ft Standard Digging Depth,Mississippi,BL,Backhoe Loaders,Two Wheel Drive,OROPS,None or Unspecified,None or Unspecified,No,Extended,Standard,None or Unspecified,,,,,,,,,,,,,,,,,,,,,,,,,
4600,2330534,7500,1714874,136,1.0,1980,0.0,,2/19/2008 0:00,310A,310,A,,,,Backhoe Loader - 14.0 to 15.0 Ft Standard Digging Depth,Florida,BL,Backhoe Loaders,Two Wheel Drive,OROPS,None or Unspecified,None or Unspecified,No,Standard,Standard,None or Unspecified,,,,,,,,,,,,,,,,,,,,,,,,,
4600,2330598,7500,1734780,136,1.0,1979,0.0,,9/17/2008 0:00,310A,310,A,,,,Backhoe Loader - 14.0 to 15.0 Ft Standard Digging Depth,Illinois,BL,Backhoe Loaders,Two Wheel Drive,EROPS,None or Unspecified,None or Unspecified,No,Standard,Standard,None or Unspecified,,,,,,,,,,,,,,,,,,,,,,,,,
4600,2330610,7500,1696917,136,,1000,0.0,,6/19/2007 0:00,310A,310,A,,,,Backhoe Loader - 14.0 to 15.0 Ft Standard Digging Depth,Missouri,BL,Backhoe Loaders,Two Wheel Drive,OROPS,None or Unspecified,None or Unspecified,No,Standard,Standard,None or Unspecified,,,,,,,,,,,,,,,,,,,,,,,,,
4600,2330847,7500,1707812,136,,1000,0.0,,7/11/2007 0:00,310A,310,A,,,,Backhoe Loader - 14.0 to 15.0 Ft Standard Digging Depth,Texas,BL,Backhoe Loaders,Two Wheel Drive,EROPS,None or Unspecified,None or Unspecified,No,Extended,Standard,None or Unspecified,,,,,,,,,,,,,,,,,,,,,,,,,
4600,2330886,7500,1104338,136,1.0,1000,0.0,,3/4/2009 0:00,310A,310,A,,,,Backhoe Loader - 14.0 to 15.0 Ft Standard Digging Depth,Texas,BL,Backhoe Loaders,Two Wheel Drive,OROPS,None or Unspecified,None or Unspecified,No,Standard,Standard,None or Unspecified,,,,,,,,,,,,,,,,,,,,,,,,,
4600,2331026,7500,1705665,136,1.0,1000,0.0,,5/6/2009 0:00,310A,310,A,,,,Backhoe Loader - 14.0 to 15.0 Ft Standard Digging Depth,Texas,BL,Backhoe Loaders,Two Wheel Drive,OROPS,None or Unspecified,None or Unspecified,No,Standard,Standard,None or Unspecified,,,,,,,,,,,,,,,,,,,,,,,,,
4600,2335033,8500,1708253,136,1.0,1000,0.0,,3/25/2009 0:00,310A,310,A,,,,Backhoe Loader - 14.0 to 15.0 Ft Standard Digging Depth,Texas,BL,Backhoe Loaders,Two Wheel Drive,OROPS,None or Unspecified,None or Unspecified,No,Standard,Standard,None or Unspecified,,,,,,,,,,,,,,,,,,,,,,,,,
4600,4309929,7500,2297049,172,1.0,1980,1458.0,Low,3/4/2009 0:00,310A,310,A,,,,Backhoe Loader - 14.0 to 15.0 Ft Standard Digging Depth,Texas,BL,Backhoe Loaders,Two Wheel Drive,OROPS,None or Unspecified,None or Unspecified,No,Standard,Standard,None or Unspecified,,,,,,,,,,,,,,,,,,,,,,,,,
