ModelID,SalesID,SalePrice,MachineID,datasource,auctioneerID,YearMade,MachineHoursCurrentMeter,UsageBand,saledate,fiModelDesc,fiBaseModel,fiSecondaryDesc,fiModelSeries,fiModelDescriptor,ProductSize,fiProductClassDesc,state,ProductGroup,ProductGroupDesc,Drive_System,Enclosure,Forks,Pad_Type,Ride_Control,Stick,Transmission,Turbocharged,Blade_Extension,Blade_Width,Enclosure_Type,Engine_Horsepower,Hydraulics,Pushblock,Ripper,Scarifier,Tip_Control,Tire_Size,Coupler,Coupler_System,Grouser_Tracks,Hydraulics_Flow,Track_Type,Undercarriage_Pad_Width,Stick_Length,Thumb,Pattern_Changer,Grouser_Type,Backhoe_Mounting,Blade_Type,Travel_Controls,Differential_Type,Steering_Controls
4619,1578557,16000,1333683,132,1.0,1989,,,9/13/2005 0:00,344E,344,E,,,Compact,Wheel Loader - 60.0 to 80.0 Horsepower,California,WL,Wheel Loader,,OROPS,None or Unspecified,,None or Unspecified,,,,,,,,2 Valve,,,,,None or Unspecified,None or Unspecified,,,,,,,,,,,,,Standard,Conventional
4619,1578567,20000,1314955,132,99.0,1989,,,10/9/1997 0:00,344E,344,E,,,Compact,Wheel Loader - 60.0 to 80.0 Horsepower,Louisiana,WL,Wheel Loader,,EROPS,None or Unspecified,,None or Unspecified,,,,,,,,2 Valve,,,,,None or Unspecified,None or Unspecified,,,,,,,,,,,,,Standard,Conventional
4619,1578571,8200,1471968,132,8.0,1989,,,2/15/2008 0:00,344E,344,E,,,Compact,Wheel Loader - 60.0 to 80.0 Horsepower,Florida,WL,Wheel Loader,,EROPS,None or Unspecified,,None or Unspecified,,,,,,,,2 Valve,,,,,None or Unspecified,None or Unspecified,,,,,,,,,,,,,Standard,Conventional
4619,1578574,21000,1429506,132,1.0,1989,,,10/11/2002 0:00,344E,344,E,,,Compact,Wheel Loader - 60.0 to 80.0 Horsepower,Minnesota,WL,Wheel Loader,,EROPS w AC,None or Unspecified,,None or Unspecified,,,,,,,,2 Valve,,,,,15.5,None or Unspecified,,,,,,,,,,,,,Standard,Conventional
4619,1578591,15000,1274239,132,2.0,1989,,,8/21/1999 0:00,344E,344,E,,,Compact,Wheel Loader - 60.0 to 80.0 Horsepower,Wisconsin,WL,Wheel Loader,,EROPS,None or Unspecified,,None or Unspecified,,,,,,,,2 Valve,,,,,None or Unspecified,None or Unspecified,,,,,,,,,,,,,Standard,Conventional
4619,1578592,16000,1274239,132,2.0,1989,,,9/18/1999 0:00,344E,344,E,,,Compact,Wheel Loader - 60.0 to 80.0 Horsepower,New Jersey,WL,Wheel Loader,,EROPS,None or Unspecified,,None or Unspecified,,,,,,,,2 Valve,,,,,None or Unspecified,None or Unspecified,,,,,,,,,,,,,Standard,Conventional
4619,1578601,18500,1279324,132,2.0,1000,,,4/18/2000 0:00,344E,344,E,,,Compact,Wheel Loader - 60.0 to 80.0 Horsepower,Texas,WL,Wheel Loader,,EROPS,None or Unspecified,,None or Unspecified,,,,,,,,2 Valve,,,,,None or Unspecified,None or Unspecified,,,,,,,,,,,,,Standard,Conventional
4619,1578608,8500,1115023,132,1.0,1989,,,6/2/2010 0:00,344E,344,E,,,Compact,Wheel Loader - 60.0 to 80.0 Horsepower,Maryland,WL,Wheel Loader,,EROPS,None or Unspecified,,None or Unspecified,,,,,,,,2 Valve,,,,,None or Unspecified,None or Unspecified,,,,,,,,,,,,,Standard,Conventional
4619,1578609,15750,1224739,132,13.0,1989,,,3/18/2006 0:00,344E,344,E,,,Compact,Wheel Loader - 60.0 to 80.0 Horsepower,Tennessee,WL,Wheel Loader,,OROPS,None or Unspecified,,None or Unspecified,,,,,,,,2 Valve,,,,,None or Unspecified,None or Unspecified,,,,,,,,,,,,,Standard,Conventional
4619,1578614,18000,1516514,132,2.0,1989,,,9/5/2002 0:00,344E,344,E,,,Compact,Wheel Loader - 60.0 to 80.0 Horsepower,New Hampshire,WL,Wheel Loader,,EROPS,None or Unspecified,,None or Unspecified,,,,,,,,2 Valve,,,,,None or Unspecified,None or Unspecified,,,,,,,,,,,,,Standard,Conventional
4619,1578616,23000,1362335,132,1.0,1989,,,12/2/1998 0:00,344E,344,E,,,Compact,Wheel Loader - 60.0 to 80.0 Horsepower,Texas,WL,Wheel Loader,,EROPS,None or Unspecified,,None or Unspecified,,,,,,,,2 Valve,,,,,None or Unspecified,None or Unspecified,,,,,,,,,,,,,Standard,Conventional
4619,1578619,21500,1100513,132,1.0,1989,,,2/29/2000 0:00,344E,344,E,,,Compact,Wheel Loader - 60.0 to 80.0 Horsepower,Arizona,WL,Wheel Loader,,OROPS,None or Unspecified,,None or Unspecified,,,,,,,,2 Valve,,,,,None or Unspecified,None or Unspecified,,,,,,,,,,,,,Standard,Conventional
4619,1578639,19000,1231707,132,1.0,1989,,,12/4/2001 0:00,344E,344,E,,,Compact,Wheel Loader - 60.0 to 80.0 Horsepower,California,WL,Wheel Loader,,EROPS w AC,None or Unspecified,,None or Unspecified,,,,,,,,2 Valve,,,,,15.5,Manual,,,,,,,,,,,,,Standard,Conventional
4619,1578660,23000,1486500,132,1.0,1989,,,6/17/1998 0:00,344E,344,E,,,Compact,Wheel Loader - 60.0 to 80.0 Horsepower,Texas,WL,Wheel Loader,,EROPS,None or Unspecified,,None or Unspecified,,,,,,,,3 Valve,,,,,None or Unspecified,Manual,,,,,,,,,,,,,Standard,Conventional
4619,1578710,9000,1451515,132,20.0,1989,,,10/27/2004 0:00,344E,344,E,,,Compact,Wheel Loader - 60.0 to 80.0 Horsepower,Arkansas,WL,Wheel Loader,,EROPS,Yes,,None or Unspecified,,,,,,,,2 Valve,,,,,15.5,None or Unspecified,,,,,,,,,,,,,Standard,Conventional
4619,1578718,13500,1135037,132,2.0,1989,,,11/16/2004 0:00,344E,344,E,,,Compact,Wheel Loader - 60.0 to 80.0 Horsepower,Texas,WL,Wheel Loader,,EROPS,None or Unspecified,,None or Unspecified,,,,,,,,2 Valve,,,,,15.5,Manual,,,,,,,,,,,,,Standard,Conventional
4619,1578734,19000,1259609,132,25.0,1990,,,12/12/1998 0:00,344E,344,E,,,Compact,Wheel Loader - 60.0 to 80.0 Horsepower,California,WL,Wheel Loader,,OROPS,None or Unspecified,,None or Unspecified,,,,,,,,2 Valve,,,,,None or Unspecified,None or Unspecified,,,,,,,,,,,,,Standard,Conventional
4619,1578784,30000,1547715,132,2.0,1992,,,4/4/1998 0:00,344E,344,E,,,Compact,Wheel Loader - 60.0 to 80.0 Horsepower,Ohio,WL,Wheel Loader,,OROPS,None or Unspecified,,None or Unspecified,,,,,,,,2 Valve,,,,,None or Unspecified,None or Unspecified,,,,,,,,,,,,,Standard,Conventional
4619,1578808,26500,1252829,132,18.0,1992,,,6/23/1999 0:00,344E,344,E,,,Compact,Wheel Loader - 60.0 to 80.0 Horsepower,Pennsylvania,WL,Wheel Loader,,OROPS,Yes,,None or Unspecified,,,,,,,,2 Valve,,,,,None or Unspecified,None or Unspecified,,,,,,,,,,,,,Standard,Conventional
4619,1578829,17000,1153706,132,8.0,1993,,,3/24/2004 0:00,344E,344,E,,,Compact,Wheel Loader - 60.0 to 80.0 Horsepower,Mississippi,WL,Wheel Loader,,EROPS,Yes,,None or Unspecified,,,,,,,,2 Valve,,,,,17.5,None or Unspecified,,,,,,,,,,,,,Standard,Conventional
4619,1578837,31000,1470859,132,99.0,1994,,,4/27/2000 0:00,344E,344,E,,,Compact,Wheel Loader - 60.0 to 80.0 Horsepower,South Carolina,WL,Wheel Loader,,EROPS,,,,,,,,,,,Base + 1 Function,,,,,None or Unspecified,,,,,,,,,,,,,,Standard,
4619,1579611,14000,1509857,132,1.0,1989,,,5/12/2010 0:00,344E,344,E,,,Compact,Wheel Loader - 60.0 to 80.0 Horsepower,Illinois,WL,Wheel Loader,,EROPS,None or Unspecified,,None or Unspecified,,,,,,,,2 Valve,,,,,17.5,Manual,,,,,,,,,,,,,Standard,Conventional
4619,1580518,14000,1487662,132,1.0,1990,,,9/11/2007 0:00,344E,344,E,,,Compact,Wheel Loader - 60.0 to 80.0 Horsepower,Washington,WL,Wheel Loader,,EROPS,None or Unspecified,,None or Unspecified,,,,,,,,2 Valve,,,,,15.5,None or Unspecified,,,,,,,,,,,,,Standard,Conventional
4619,1580820,22750,1446362,132,20.0,1993,,,2/1/2001 0:00,344E,344,E,,,Compact,Wheel Loader - 60.0 to 80.0 Horsepower,Arkansas,WL,Wheel Loader,,EROPS w AC,None or Unspecified,,None or Unspecified,,,,,,,,2 Valve,,,,,None or Unspecified,None or Unspecified,,,,,,,,,,,,,Standard,Conventional
4619,1590347,18000,1098698,132,1.0,1989,5936.0,Low,6/16/2011 0:00,344E,344,E,,,Compact,Wheel Loader - 60.0 to 80.0 Horsepower,Washington,WL,Wheel Loader,,EROPS w AC,None or Unspecified,,None or Unspecified,,,,,,,,2 Valve,,,,,26.5,None or Unspecified,,,,,,,,,,,,,Standard,Conventional
4619,1590382,23000,1275064,132,4.0,1989,,,10/29/1998 0:00,344E,344,E,,,Compact,Wheel Loader - 60.0 to 80.0 Horsepower,South Carolina,WL,Wheel Loader,,EROPS,None or Unspecified,,None or Unspecified,,,,,,,,2 Valve,,,,,None or Unspecified,None or Unspecified,,,,,,,,,,,,,Standard,Conventional
4619,1590716,12000,1313545,132,13.0,1989,,,6/3/2006 0:00,344E,344,E,,,Compact,Wheel Loader - 60.0 to 80.0 Horsepower,Tennessee,WL,Wheel Loader,,OROPS,None or Unspecified,,None or Unspecified,,,,,,,,2 Valve,,,,,None or Unspecified,None or Unspecified,,,,,,,,,,,,,Standard,Conventional
4619,1590929,14000,1314467,132,1.0,1989,13031.0,Medium,5/12/2010 0:00,344E,344,E,,,Compact,Wheel Loader - 60.0 to 80.0 Horsepower,Illinois,WL,Wheel Loader,,EROPS,,,,,,,,,,,2 Valve,,,,,,,,,,,,,,,,,,,,
4619,1592685,20000,1180179,132,4.0,1989,,,2/17/2001 0:00,344E,344,E,,,Compact,Wheel Loader - 60.0 to 80.0 Horsepower,Florida,WL,Wheel Loader,,EROPS,None or Unspecified,,None or Unspecified,,,,,,,,2 Valve,,,,,None or Unspecified,None or Unspecified,,,,,,,,,,,,,Standard,Conventional
4619,1594540,23000,1285311,132,2.0,1989,,,11/11/2006 0:00,344E,344,E,,,Compact,Wheel Loader - 60.0 to 80.0 Horsepower,New York,WL,Wheel Loader,,EROPS,None or Unspecified,,None or Unspecified,,,,,,,,2 Valve,,,,,None or Unspecified,Manual,,,,,,,,,,,,,Standard,Conventional
4619,1598318,8000,1166753,132,7.0,1989,,,3/11/2009 0:00,344E,344,E,,,Compact,Wheel Loader - 60.0 to 80.0 Horsepower,Alabama,WL,Wheel Loader,,EROPS,Yes,,None or Unspecified,,,,,,,,2 Valve,,,,,None or Unspecified,None or Unspecified,,,,,,,,,,,,,Standard,Conventional
4619,1598319,16000,1166753,132,7.0,1989,,,6/9/2010 0:00,344E,344,E,,,Compact,Wheel Loader - 60.0 to 80.0 Horsepower,Alabama,WL,Wheel Loader,,EROPS,Yes,,None or Unspecified,,,,,,,,2 Valve,,,,,None or Unspecified,None or Unspecified,,,,,,,,,,,,,Standard,Conventional
4619,1601772,14500,1470463,132,99.0,1993,4072.0,Low,11/18/2008 0:00,344E,344,E,,,Compact,Wheel Loader - 60.0 to 80.0 Horsepower,Missouri,WL,Wheel Loader,,EROPS w AC,None or Unspecified,,None or Unspecified,,,,,,,,2 Valve,,,,,None or Unspecified,None or Unspecified,,,,,,,,,,,,,Standard,Conventional
4619,1605545,12000,1405994,132,13.0,1994,21001.0,Medium,6/18/2011 0:00,344E,344,E,,,Compact,Wheel Loader - 60.0 to 80.0 Horsepower,Kentucky,WL,Wheel Loader,,EROPS,None or Unspecified,,None or Unspecified,,,,,,,,2 Valve,,,,,None or Unspecified,None or Unspecified,,,,,,,,,,,,,Standard,Conventional
4619,1644563,27000,1292025,132,4.0,1989,,,2/6/1997 0:00,344E,344,E,,,Compact,Wheel Loader - 60.0 to 80.0 Horsepower,Florida,WL,Wheel Loader,,OROPS,None or Unspecified,,None or Unspecified,,,,,,,,2 Valve,,,,,None or Unspecified,None or Unspecified,,,,,,,,,,,,,Standard,Conventional
4619,1644564,18000,1488758,132,1.0,1989,,,7/13/1995 0:00,344E,344,E,,,Compact,Wheel Loader - 60.0 to 80.0 Horsepower,California,WL,Wheel Loader,,OROPS,None or Unspecified,,None or Unspecified,,,,,,,,2 Valve,,,,,None or Unspecified,None or Unspecified,,,,,,,,,,,,,Standard,Conventional
4619,1644565,17500,1488758,132,2.0,1989,,,9/19/2000 0:00,344E,344,E,,,Compact,Wheel Loader - 60.0 to 80.0 Horsepower,Texas,WL,Wheel Loader,,OROPS,None or Unspecified,,None or Unspecified,,,,,,,,2 Valve,,,,,None or Unspecified,None or Unspecified,,,,,,,,,,,,,Standard,Conventional
4619,1644567,17500,1266702,132,1.0,1000,,,9/26/2000 0:00,344E,344,E,,,Compact,Wheel Loader - 60.0 to 80.0 Horsepower,Washington,WL,Wheel Loader,,EROPS,None or Unspecified,,None or Unspecified,,,,,,,,2 Valve,,,,,None or Unspecified,None or Unspecified,,,,,,,,,,,,,Standard,Conventional
4619,1644727,38000,1371938,132,1.0,1994,,,3/14/1996 0:00,344E,344,E,,,Compact,Wheel Loader - 60.0 to 80.0 Horsepower,Florida,WL,Wheel Loader,,OROPS,None or Unspecified,,None or Unspecified,,,,,,,,2 Valve,,,,,None or Unspecified,None or Unspecified,,,,,,,,,,,,,Standard,Conventional
4619,1644729,22500,1517215,132,2.0,1990,,,7/15/2000 0:00,344E,344,E,,,Compact,Wheel Loader - 60.0 to 80.0 Horsepower,New York,WL,Wheel Loader,,EROPS,None or Unspecified,,None or Unspecified,,,,,,,,2 Valve,,,,,None or Unspecified,Hydraulic,,,,,,,,,,,,,Standard,Conventional
4619,1644816,15000,1077584,132,99.0,1989,,,8/21/2004 0:00,344E,344,E,,,Compact,Wheel Loader - 60.0 to 80.0 Horsepower,California,WL,Wheel Loader,,OROPS,None or Unspecified,,None or Unspecified,,,,,,,,2 Valve,,,,,15.5,None or Unspecified,,,,,,,,,,,,,Standard,Conventional
4619,1644820,17500,1076050,132,1.0,1990,,,9/26/2000 0:00,344E,344,E,,,Compact,Wheel Loader - 60.0 to 80.0 Horsepower,Washington,WL,Wheel Loader,,EROPS,None or Unspecified,,None or Unspecified,,,,,,,,2 Valve,,,,,None or Unspecified,None or Unspecified,,,,,,,,,,,,,Standard,Conventional
4619,2327753,9000,1737869,136,99.0,1992,0.0,,10/23/2009 0:00,344E,344,E,,,Compact,Wheel Loader - 60.0 to 80.0 Horsepower,Wisconsin,WL,Wheel Loader,,OROPS,None or Unspecified,,None or Unspecified,,,,,,,,2 Valve,,,,,None or Unspecified,None or Unspecified,,,,,,,,,,,,,Standard,Conventional
4619,2336823,8000,1658606,136,,1989,0.0,,3/11/2009 0:00,344E,344,E,,,Compact,Wheel Loader - 60.0 to 80.0 Horsepower,Alabama,WL,Wheel Loader,,EROPS,Yes,,None or Unspecified,,,,,,,,2 Valve,,,,,None or Unspecified,None or Unspecified,,,,,,,,,,,,,Standard,Conventional
4619,2336824,11000,1764675,136,,1992,0.0,,6/12/2009 0:00,344E,344,E,,,Compact,Wheel Loader - 60.0 to 80.0 Horsepower,Ohio,WL,Wheel Loader,,OROPS,None or Unspecified,,None or Unspecified,,,,,,,,2 Valve,,,,,None or Unspecified,None or Unspecified,,,,,,,,,,,,,Standard,Conventional
4619,2337309,8250,1691097,136,,1989,0.0,,2/15/2008 0:00,344E,344,E,,,Compact,Wheel Loader - 60.0 to 80.0 Horsepower,Florida,WL,Wheel Loader,,EROPS,None or Unspecified,,None or Unspecified,,,,,,,,2 Valve,,,,,None or Unspecified,None or Unspecified,,,,,,,,,,,,,Standard,Conventional
4619,2337310,16000,1688735,136,,1989,0.0,,7/14/2007 0:00,344E,344,E,,,Compact,Wheel Loader - 60.0 to 80.0 Horsepower,New York,WL,Wheel Loader,,EROPS,None or Unspecified,,None or Unspecified,,,,,,,,2 Valve,,,,,None or Unspecified,None or Unspecified,,,,,,,,,,,,,Standard,Conventional
4619,2337315,14000,1719094,136,,1990,0.0,,9/11/2007 0:00,344E,344,E,,,Compact,Wheel Loader - 60.0 to 80.0 Horsepower,Washington,WL,Wheel Loader,,EROPS,None or Unspecified,,None or Unspecified,,,,,,,,2 Valve,,,,,None or Unspecified,None or Unspecified,,,,,,,,,,,,,Standard,Conventional
4619,2621045,16000,1137620,149,26.0,1989,0.0,,6/9/2010 0:00,344E,344,E,,,Compact,Wheel Loader - 60.0 to 80.0 Horsepower,Alabama,WL,Wheel Loader,,EROPS,Yes,,None or Unspecified,,,,,,,,2 Valve,,,,,15.5,None or Unspecified,,,,,,,,,,,,,Standard,Conventional
4619,2632588,18000,1852590,149,1.0,1989,5936.0,Low,6/16/2011 0:00,344E,344,E,,,Compact,Wheel Loader - 60.0 to 80.0 Horsepower,Washington,WL,Wheel Loader,,EROPS,None or Unspecified,,None or Unspecified,,,,,,,,2 Valve,,,,,None or Unspecified,None or Unspecified,,,,,,,,,,,,,Standard,Conventional
4619,2632589,8500,1891730,149,1.0,1989,0.0,,6/2/2010 0:00,344E,344,E,,,Compact,Wheel Loader - 60.0 to 80.0 Horsepower,Maryland,WL,Wheel Loader,,EROPS,None or Unspecified,,None or Unspecified,,,,,,,,2 Valve,,,,,None or Unspecified,None or Unspecified,,,,,,,,,,,,,Standard,Conventional
4619,4311002,14000,2285493,172,1.0,1989,13031.0,Medium,5/12/2010 0:00,344E,344,E,,,Compact,Wheel Loader - 60.0 to 80.0 Horsepower,Illinois,WL,Wheel Loader,,EROPS,None or Unspecified,,None or Unspecified,,,,,,,,2 Valve,,,,,None or Unspecified,None or Unspecified,,,,,,,,,,,,,Standard,Conventional
4619,6282158,9000,1937877,149,2.0,1000,,,12/13/2011 0:00,344E,344,E,,,Compact,Wheel Loader - 60.0 to 80.0 Horsepower,Illinois,WL,Wheel Loader,,EROPS,None or Unspecified,,None or Unspecified,,,,,,,,2 Valve,,,,,None or Unspecified,None or Unspecified,,,,,,,,,,,,,Standard,Conventional
