ModelID,SalesID,SalePrice,MachineID,datasource,auctioneerID,YearMade,MachineHoursCurrentMeter,UsageBand,saledate,fiModelDesc,fiBaseModel,fiSecondaryDesc,fiModelSeries,fiModelDescriptor,ProductSize,fiProductClassDesc,state,ProductGroup,ProductGroupDesc,Drive_System,Enclosure,Forks,Pad_Type,Ride_Control,Stick,Transmission,Turbocharged,Blade_Extension,Blade_Width,Enclosure_Type,Engine_Horsepower,Hydraulics,Pushblock,Ripper,Scarifier,Tip_Control,Tire_Size,Coupler,Coupler_System,Grouser_Tracks,Hydraulics_Flow,Track_Type,Undercarriage_Pad_Width,Stick_Length,Thumb,Pattern_Changer,Grouser_Type,Backhoe_Mounting,Blade_Type,Travel_Controls,Differential_Type,Steering_Controls
4621,1150672,17000,1002509,121,3.0,1999,0.0,,6/16/2011 0:00,344H,344,H,,,Compact,Wheel Loader - 80.0 to 90.0 Horsepower,New York,WL,Wheel Loader,,EROPS,None or Unspecified,,None or Unspecified,,,,,,,,2 Valve,,,,,None or Unspecified,Manual,,,,,,,,,,,,,Standard,Conventional
4621,1215621,22500,1038447,121,3.0,1999,3949.0,Low,7/21/2011 0:00,344H,344,H,,,Compact,Wheel Loader - 80.0 to 90.0 Horsepower,Florida,WL,Wheel Loader,,EROPS,Yes,,None or Unspecified,,,,,,,,2 Valve,,,,,17.5,None or Unspecified,,,,,,,,,,,,,Standard,Conventional
4621,2328977,57500,1676412,136,,2006,342.0,Low,3/29/2007 0:00,344H,344,H,,,Compact,Wheel Loader - 80.0 to 90.0 Horsepower,Connecticut,WL,Wheel Loader,,EROPS w AC,None or Unspecified,,None or Unspecified,,,,,,,,2 Valve,,,,,None or Unspecified,None or Unspecified,,,,,,,,,,,,,Standard,Conventional
4621,2328982,48000,1714095,136,,2005,4000.0,High,12/5/2007 0:00,344H,344,H,,,Compact,Wheel Loader - 80.0 to 90.0 Horsepower,Alabama,WL,Wheel Loader,,EROPS w AC,None or Unspecified,,None or Unspecified,,,,,,,,2 Valve,,,,,None or Unspecified,None or Unspecified,,,,,,,,,,,,,Standard,Conventional
4621,2330734,33500,1693917,136,1.0,1999,0.0,,10/10/2008 0:00,344H,344,H,,,Compact,Wheel Loader - 80.0 to 90.0 Horsepower,Connecticut,WL,Wheel Loader,,EROPS,None or Unspecified,,None or Unspecified,,,,,,,,2 Valve,,,,,None or Unspecified,None or Unspecified,,,,,,,,,,,,,Standard,Conventional
4621,2333407,21000,1701735,136,,1998,0.0,,3/12/2008 0:00,344H,344,H,,,Compact,Wheel Loader - 80.0 to 90.0 Horsepower,Alabama,WL,Wheel Loader,,EROPS,None or Unspecified,,None or Unspecified,,,,,,,,2 Valve,,,,,None or Unspecified,None or Unspecified,,,,,,,,,,,,,Standard,Conventional
4621,2333408,23000,1701735,136,,1998,0.0,,4/16/2008 0:00,344H,344,H,,,Compact,Wheel Loader - 80.0 to 90.0 Horsepower,Arkansas,WL,Wheel Loader,,EROPS,None or Unspecified,,None or Unspecified,,,,,,,,2 Valve,,,,,None or Unspecified,None or Unspecified,,,,,,,,,,,,,Standard,Conventional
4621,2333409,18000,1728495,136,,1998,0.0,,4/13/2007 0:00,344H,344,H,,,Compact,Wheel Loader - 80.0 to 90.0 Horsepower,Ohio,WL,Wheel Loader,,EROPS,None or Unspecified,,None or Unspecified,,,,,,,,2 Valve,,,,,None or Unspecified,None or Unspecified,,,,,,,,,,,,,Standard,Conventional
4621,2333410,25000,1716350,136,,1999,3840.0,Low,3/26/2008 0:00,344H,344,H,,,Compact,Wheel Loader - 80.0 to 90.0 Horsepower,Mississippi,WL,Wheel Loader,,OROPS,None or Unspecified,,None or Unspecified,,,,,,,,2 Valve,,,,,None or Unspecified,None or Unspecified,,,,,,,,,,,,,Standard,Conventional
4621,2333411,25000,1716539,136,1.0,1999,0.0,,12/5/2007 0:00,344H,344,H,,,Compact,Wheel Loader - 80.0 to 90.0 Horsepower,Alabama,WL,Wheel Loader,,OROPS,None or Unspecified,,None or Unspecified,,,,,,,,3 Valve,,,,,None or Unspecified,None or Unspecified,,,,,,,,,,,,,Standard,Conventional
4621,2333413,27500,728306,136,,1999,3764.0,Low,3/26/2008 0:00,344H,344,H,,,Compact,Wheel Loader - 80.0 to 90.0 Horsepower,Mississippi,WL,Wheel Loader,,EROPS,None or Unspecified,,None or Unspecified,,,,,,,,2 Valve,,,,,None or Unspecified,None or Unspecified,,,,,,,,,,,,,Standard,Conventional
4621,2333414,16000,728306,136,,1999,0.0,,9/10/2008 0:00,344H,344,H,,,Compact,Wheel Loader - 80.0 to 90.0 Horsepower,Alabama,WL,Wheel Loader,,EROPS,None or Unspecified,,None or Unspecified,,,,,,,,2 Valve,,,,,None or Unspecified,None or Unspecified,,,,,,,,,,,,,Standard,Conventional
4621,2333416,41500,835267,136,,2002,3154.0,Low,11/6/2008 0:00,344H,344,H,,,Compact,Wheel Loader - 80.0 to 90.0 Horsepower,Maine,WL,Wheel Loader,,EROPS w AC,Yes,,None or Unspecified,,,,,,,,2 Valve,,,,,None or Unspecified,Manual,,,,,,,,,,,,,Standard,Conventional
4621,2333467,31500,427163,136,,2002,0.0,,12/30/2008 0:00,344H,344,H,,,Compact,Wheel Loader - 80.0 to 90.0 Horsepower,North Carolina,WL,Wheel Loader,,EROPS,None or Unspecified,,None or Unspecified,,,,,,,,2 Valve,,,,,None or Unspecified,None or Unspecified,,,,,,,,,,,,,Standard,Conventional
4621,2346023,51000,1765503,136,1.0,2006,896.0,Low,3/12/2009 0:00,344H,344,H,,,Compact,Wheel Loader - 80.0 to 90.0 Horsepower,Illinois,WL,Wheel Loader,,EROPS,None or Unspecified,,Yes,,,,,,,,2 Valve,,,,,None or Unspecified,Manual,,,,,,,,,,,,,Standard,Conventional
4621,2346024,29000,1738170,136,,1998,0.0,,2/11/2008 0:00,344H,344,H,,,Compact,Wheel Loader - 80.0 to 90.0 Horsepower,Florida,WL,Wheel Loader,,EROPS,None or Unspecified,,None or Unspecified,,,,,,,,2 Valve,,,,,None or Unspecified,None or Unspecified,,,,,,,,,,,,,Standard,Conventional
4621,2346025,22000,1780800,136,,1998,0.0,,8/7/2008 0:00,344H,344,H,,,Compact,Wheel Loader - 80.0 to 90.0 Horsepower,Ohio,WL,Wheel Loader,,OROPS,None or Unspecified,,None or Unspecified,,,,,,,,2 Valve,,,,,None or Unspecified,None or Unspecified,,,,,,,,,,,,,Standard,Conventional
4621,2346026,27000,1780800,136,,2000,3800.0,Low,10/23/2008 0:00,344H,344,H,,,Compact,Wheel Loader - 80.0 to 90.0 Horsepower,Pennsylvania,WL,Wheel Loader,,OROPS,None or Unspecified,,None or Unspecified,,,,,,,,2 Valve,,,,,None or Unspecified,None or Unspecified,,,,,,,,,,,,,Standard,Conventional
4621,2346029,30000,1751192,136,,1999,0.0,,11/3/2007 0:00,344H,344,H,,,Compact,Wheel Loader - 80.0 to 90.0 Horsepower,New York,WL,Wheel Loader,,EROPS,None or Unspecified,,None or Unspecified,,,,,,,,2 Valve,,,,,None or Unspecified,None or Unspecified,,,,,,,,,,,,,Standard,Conventional
4621,2346030,34000,1784119,136,,2000,0.0,,4/24/2007 0:00,344H,344,H,,,Compact,Wheel Loader - 80.0 to 90.0 Horsepower,Idaho,WL,Wheel Loader,,EROPS,None or Unspecified,,None or Unspecified,,,,,,,,2 Valve,,,,,None or Unspecified,None or Unspecified,,,,,,,,,,,,,Standard,Conventional
4621,2346031,28000,1682988,136,,1999,0.0,,11/3/2007 0:00,344H,344,H,,,Compact,Wheel Loader - 80.0 to 90.0 Horsepower,New York,WL,Wheel Loader,,EROPS,None or Unspecified,,None or Unspecified,,,,,,,,2 Valve,,,,,None or Unspecified,None or Unspecified,,,,,,,,,,,,,Standard,Conventional
4621,2346032,31500,1682988,136,,1999,0.0,,2/3/2008 0:00,344H,344,H,,,Compact,Wheel Loader - 80.0 to 90.0 Horsepower,Florida,WL,Wheel Loader,,EROPS,None or Unspecified,,None or Unspecified,,,,,,,,2 Valve,,,,,None or Unspecified,None or Unspecified,,,,,,,,,,,,,Standard,Conventional
4621,2641007,33000,1881839,149,99.0,1998,0.0,,3/19/2011 0:00,344H,344,H,,,Compact,Wheel Loader - 80.0 to 90.0 Horsepower,California,WL,Wheel Loader,,OROPS,None or Unspecified,,None or Unspecified,,,,,,,,2 Valve,,,,,None or Unspecified,None or Unspecified,,,,,,,,,,,,,Standard,Conventional
