ModelID,SalesID,SalePrice,MachineID,datasource,auctioneerID,YearMade,MachineHoursCurrentMeter,UsageBand,saledate,fiModelDesc,fiBaseModel,fiSecondaryDesc,fiModelSeries,fiModelDescriptor,ProductSize,fiProductClassDesc,state,ProductGroup,ProductGroupDesc,Drive_System,Enclosure,Forks,Pad_Type,Ride_Control,Stick,Transmission,Turbocharged,Blade_Extension,Blade_Width,Enclosure_Type,Engine_Horsepower,Hydraulics,Pushblock,Ripper,Scarifier,Tip_Control,Tire_Size,Coupler,Coupler_System,Grouser_Tracks,Hydraulics_Flow,Track_Type,Undercarriage_Pad_Width,Stick_Length,Thumb,Pattern_Changer,Grouser_Type,Backhoe_Mounting,Blade_Type,Travel_Controls,Differential_Type,Steering_Controls
4658,1151195,16500,1012257,121,3.0,1000,4549.0,Low,8/6/2009 0:00,444E,444,E,,,,Wheel Loader - 90.0 to 100.0 Horsepower,Illinois,WL,Wheel Loader,,EROPS,None or Unspecified,,None or Unspecified,,,,,,,,2 Valve,,,,,15.5,None or Unspecified,,,,,,,,,,,,,Standard,Conventional
4658,1578559,20000,1305587,132,1.0,1988,,,6/13/2006 0:00,444E,444,E,,,,Wheel Loader - 90.0 to 100.0 Horsepower,California,WL,Wheel Loader,,OROPS,None or Unspecified,,None or Unspecified,,,,,,,,2 Valve,,,,,17.5,None or Unspecified,,,,,,,,,,,,,Standard,Conventional
4658,1578566,40500,1357167,132,4.0,1988,,,6/9/1994 0:00,444E,444,E,,,,Wheel Loader - 90.0 to 100.0 Horsepower,Texas,WL,Wheel Loader,,OROPS,None or Unspecified,,None or Unspecified,,,,,,,,2 Valve,,,,,None or Unspecified,None or Unspecified,,,,,,,,,,,,,Standard,Conventional
4658,1578603,18500,1174749,132,1.0,1988,,,5/7/2008 0:00,444E,444,E,,,,Wheel Loader - 90.0 to 100.0 Horsepower,Texas,WL,Wheel Loader,,EROPS,None or Unspecified,,None or Unspecified,,,,,,,,2 Valve,,,,,15.5,Manual,,,,,,,,,,,,,Standard,Conventional
4658,1578623,14000,1478429,132,2.0,1988,,,4/3/2004 0:00,444E,444,E,,,,Wheel Loader - 90.0 to 100.0 Horsepower,New York,WL,Wheel Loader,,EROPS,Yes,,None or Unspecified,,,,,,,,2 Valve,,,,,None or Unspecified,None or Unspecified,,,,,,,,,,,,,Standard,Conventional
4658,1578625,13500,1468521,132,9.0,1988,,,11/21/2002 0:00,444E,444,E,,,,Wheel Loader - 90.0 to 100.0 Horsepower,South Carolina,WL,Wheel Loader,,EROPS,None or Unspecified,,None or Unspecified,,,,,,,,2 Valve,,,,,17.5,None or Unspecified,,,,,,,,,,,,,Standard,Conventional
4658,1578626,11500,1468521,132,9.0,1988,,,2/17/2003 0:00,444E,444,E,,,,Wheel Loader - 90.0 to 100.0 Horsepower,Florida,WL,Wheel Loader,,EROPS,None or Unspecified,,None or Unspecified,,,,,,,,2 Valve,,,,,17.5,None or Unspecified,,,,,,,,,,,,,Standard,Conventional
4658,1578628,19000,1468521,132,2.0,1988,,,3/27/2003 0:00,444E,444,E,,,,Wheel Loader - 90.0 to 100.0 Horsepower,New Jersey,WL,Wheel Loader,,EROPS,None or Unspecified,,None or Unspecified,,,,,,,,2 Valve,,,,,17.5,None or Unspecified,,,,,,,,,,,,,Standard,Conventional
4658,1578629,21000,1263325,132,22.0,1988,,,10/14/2004 0:00,444E,444,E,,,,Wheel Loader - 90.0 to 100.0 Horsepower,Wisconsin,WL,Wheel Loader,,OROPS,None or Unspecified,,None or Unspecified,,,,,,,,2 Valve,,,,,None or Unspecified,None or Unspecified,,,,,,,,,,,,,Standard,Conventional
4658,1578662,31000,1142421,132,2.0,1988,,,12/18/1998 0:00,444E,444,E,,,,Wheel Loader - 90.0 to 100.0 Horsepower,Illinois,WL,Wheel Loader,,EROPS,None or Unspecified,,None or Unspecified,,,,,,,,2 Valve,,,,,26.5,None or Unspecified,,,,,,,,,,,,,Standard,Conventional
4658,1578665,15000,1376841,132,1.0,1988,,,3/26/2008 0:00,444E,444,E,,,,Wheel Loader - 90.0 to 100.0 Horsepower,Georgia,WL,Wheel Loader,,EROPS,None or Unspecified,,None or Unspecified,,,,,,,,2 Valve,,,,,17.5,None or Unspecified,,,,,,,,,,,,,Standard,Conventional
4658,1578682,17500,1403330,132,1.0,1988,,,5/3/2007 0:00,444E,444,E,,,,Wheel Loader - 90.0 to 100.0 Horsepower,Arizona,WL,Wheel Loader,,OROPS,None or Unspecified,,None or Unspecified,,,,,,,,2 Valve,,,,,17.5,None or Unspecified,,,,,,,,,,,,,Standard,Conventional
4658,1578691,24000,1220891,132,13.0,1988,,,11/22/1997 0:00,444E,444,E,,,,Wheel Loader - 90.0 to 100.0 Horsepower,Tennessee,WL,Wheel Loader,,EROPS,None or Unspecified,,None or Unspecified,,,,,,,,2 Valve,,,,,None or Unspecified,None or Unspecified,,,,,,,,,,,,,Standard,Conventional
4658,1578699,17500,1483592,132,1.0,1988,,,6/18/2009 0:00,444E,444,E,,,,Wheel Loader - 90.0 to 100.0 Horsepower,Minnesota,WL,Wheel Loader,,EROPS,None or Unspecified,,None or Unspecified,,,,,,,,2 Valve,,,,,15.5,None or Unspecified,,,,,,,,,,,,,Standard,Conventional
4658,1578704,21000,1469695,132,19.0,1989,,,12/3/1999 0:00,444E,444,E,,,,Wheel Loader - 90.0 to 100.0 Horsepower,Nevada,WL,Wheel Loader,,EROPS,None or Unspecified,,None or Unspecified,,,,,,,,2 Valve,,,,,26.5,None or Unspecified,,,,,,,,,,,,,Standard,Conventional
4658,1578725,21500,1555322,132,1.0,1988,,,5/27/2004 0:00,444E,444,E,,,,Wheel Loader - 90.0 to 100.0 Horsepower,Florida,WL,Wheel Loader,,EROPS,None or Unspecified,,None or Unspecified,,,,,,,,2 Valve,,,,,15.5,None or Unspecified,,,,,,,,,,,,,Standard,Conventional
4658,1578739,8900,1489031,132,13.0,1989,,,3/16/2002 0:00,444E,444,E,,,,Wheel Loader - 90.0 to 100.0 Horsepower,Tennessee,WL,Wheel Loader,,EROPS,Yes,,None or Unspecified,,,,,,,,2 Valve,,,,,None or Unspecified,None or Unspecified,,,,,,,,,,,,,Standard,Conventional
4658,1578740,11000,1489031,132,13.0,1989,,,12/1/2001 0:00,444E,444,E,,,,Wheel Loader - 90.0 to 100.0 Horsepower,Tennessee,WL,Wheel Loader,,EROPS,Yes,,None or Unspecified,,,,,,,,2 Valve,,,,,None or Unspecified,None or Unspecified,,,,,,,,,,,,,Standard,Conventional
4658,1578768,20000,1172969,132,22.0,1989,,,3/19/2005 0:00,444E,444,E,,,,Wheel Loader - 90.0 to 100.0 Horsepower,Minnesota,WL,Wheel Loader,,OROPS,None or Unspecified,,None or Unspecified,,,,,,,,2 Valve,,,,,None or Unspecified,Manual,,,,,,,,,,,,,Standard,Conventional
4658,1578777,11500,1149455,132,1.0,1989,,,12/8/2008 0:00,444E,444,E,,,,Wheel Loader - 90.0 to 100.0 Horsepower,Illinois,WL,Wheel Loader,,EROPS,None or Unspecified,,None or Unspecified,,,,,,,,2 Valve,,,,,17.5,Manual,,,,,,,,,,,,,Standard,Conventional
4658,1578782,27000,1258077,132,4.0,1989,,,2/6/1997 0:00,444E,444,E,,,,Wheel Loader - 90.0 to 100.0 Horsepower,Florida,WL,Wheel Loader,,OROPS,None or Unspecified,,None or Unspecified,,,,,,,,2 Valve,,,,,None or Unspecified,None or Unspecified,,,,,,,,,,,,,Standard,Conventional
4658,1578783,32000,1258077,132,2.0,1988,,,3/24/1995 0:00,444E,444,E,,,,Wheel Loader - 90.0 to 100.0 Horsepower,New Jersey,WL,Wheel Loader,,OROPS,None or Unspecified,,None or Unspecified,,,,,,,,2 Valve,,,,,None or Unspecified,None or Unspecified,,,,,,,,,,,,,Standard,Conventional
4658,1578791,20000,1199995,132,1.0,1989,,,8/7/2009 0:00,444E,444,E,,,,Wheel Loader - 90.0 to 100.0 Horsepower,Nevada,WL,Wheel Loader,,EROPS,None or Unspecified,,None or Unspecified,,,,,,,,2 Valve,,,,,17.5,None or Unspecified,,,,,,,,,,,,,Standard,Conventional
4658,1578792,16000,1291556,132,1.0,1989,,,6/9/2010 0:00,444E,444,E,,,,Wheel Loader - 90.0 to 100.0 Horsepower,Maine,WL,Wheel Loader,,EROPS,None or Unspecified,,None or Unspecified,,,,,,,,2 Valve,,,,,17.5,None or Unspecified,,,,,,,,,,,,,Standard,Conventional
4658,1578794,15000,1498054,132,1.0,1989,,,4/29/1999 0:00,444E,444,E,,,,Wheel Loader - 90.0 to 100.0 Horsepower,Pennsylvania,WL,Wheel Loader,,EROPS,None or Unspecified,,None or Unspecified,,,,,,,,2 Valve,,,,,None or Unspecified,None or Unspecified,,,,,,,,,,,,,Standard,Conventional
4658,1578795,21000,1498054,132,1.0,1989,,,12/5/1997 0:00,444E,444,E,,,,Wheel Loader - 90.0 to 100.0 Horsepower,Wyoming,WL,Wheel Loader,,EROPS,None or Unspecified,,None or Unspecified,,,,,,,,2 Valve,,,,,None or Unspecified,None or Unspecified,,,,,,,,,,,,,Standard,Conventional
4658,1578798,12000,1283339,132,1.0,1989,,,7/24/2008 0:00,444E,444,E,,,,Wheel Loader - 90.0 to 100.0 Horsepower,Tennessee,WL,Wheel Loader,,OROPS,None or Unspecified,,None or Unspecified,,,,,,,,2 Valve,,,,,17.5,None or Unspecified,,,,,,,,,,,,,Standard,Conventional
4658,1578801,14500,1276622,132,10.0,1989,,,12/11/2001 0:00,444E,444,E,,,,Wheel Loader - 90.0 to 100.0 Horsepower,Louisiana,WL,Wheel Loader,,EROPS,None or Unspecified,,None or Unspecified,,,,,,,,2 Valve,,,,,15.5,None or Unspecified,,,,,,,,,,,,,Standard,Conventional
4658,1578803,19500,1501637,132,7.0,1989,,,6/6/2007 0:00,444E,444,E,,,,Wheel Loader - 90.0 to 100.0 Horsepower,Alabama,WL,Wheel Loader,,EROPS w AC,None or Unspecified,,None or Unspecified,,,,,,,,2 Valve,,,,,17.5,None or Unspecified,,,,,,,,,,,,,Standard,Conventional
4658,1578843,14000,1133031,132,1.0,1989,,,12/15/2009 0:00,444E,444,E,,,,Wheel Loader - 90.0 to 100.0 Horsepower,Tennessee,WL,Wheel Loader,,EROPS,Yes,,None or Unspecified,,,,,,,,2 Valve,,,,,17.5,None or Unspecified,,,,,,,,,,,,,Standard,Conventional
4658,1578844,14500,1133031,132,1.0,1989,,,6/16/2009 0:00,444E,444,E,,,,Wheel Loader - 90.0 to 100.0 Horsepower,Ohio,WL,Wheel Loader,,EROPS,Yes,,None or Unspecified,,,,,,,,2 Valve,,,,,17.5,None or Unspecified,,,,,,,,,,,,,Standard,Conventional
4658,1578850,21000,1487102,132,99.0,1989,,,4/27/2000 0:00,444E,444,E,,,,Wheel Loader - 90.0 to 100.0 Horsepower,South Carolina,WL,Wheel Loader,,OROPS,None or Unspecified,,None or Unspecified,,,,,,,,2 Valve,,,,,None or Unspecified,None or Unspecified,,,,,,,,,,,,,Standard,Conventional
4658,1578851,20000,1487102,132,4.0,1989,,,2/9/2000 0:00,444E,444,E,,,,Wheel Loader - 90.0 to 100.0 Horsepower,Florida,WL,Wheel Loader,,OROPS,None or Unspecified,,None or Unspecified,,,,,,,,2 Valve,,,,,None or Unspecified,None or Unspecified,,,,,,,,,,,,,Standard,Conventional
4658,1578857,25500,1434179,132,99.0,1989,,,2/21/2004 0:00,444E,444,E,,,,Wheel Loader - 90.0 to 100.0 Horsepower,California,WL,Wheel Loader,,EROPS w AC,None or Unspecified,,None or Unspecified,,,,,,,,2 Valve,,,,,None or Unspecified,None or Unspecified,,,,,,,,,,,,,Standard,Conventional
4658,1578864,15000,1362171,132,1.0,1989,,,9/21/2010 0:00,444E,444,E,,,,Wheel Loader - 90.0 to 100.0 Horsepower,Washington,WL,Wheel Loader,,EROPS w AC,None or Unspecified,,None or Unspecified,,,,,,,,2 Valve,,,,,23.5,Hydraulic,,,,,,,,,,,,,Standard,Conventional
4658,1578881,29000,1087371,132,1.0,1989,,,4/17/1997 0:00,444E,444,E,,,,Wheel Loader - 90.0 to 100.0 Horsepower,Minnesota,WL,Wheel Loader,,EROPS,None or Unspecified,,,,,,,,,,Standard,,,,,"7.0""",None or Unspecified,,,,,,,,,,,,,,
4658,1578886,18500,1238242,132,1.0,1989,,,12/5/2002 0:00,444E,444,E,,,,Wheel Loader - 90.0 to 100.0 Horsepower,Illinois,WL,Wheel Loader,,EROPS,None or Unspecified,,None or Unspecified,,,,,,,,2 Valve,,,,,17.5,None or Unspecified,,,,,,,,,,,,,Standard,Conventional
4658,1578887,22500,1084087,132,2.0,1989,,,1/11/2003 0:00,444E,444,E,,,,Wheel Loader - 90.0 to 100.0 Horsepower,New York,WL,Wheel Loader,,EROPS,None or Unspecified,,None or Unspecified,,,,,,,,2 Valve,,,,,None or Unspecified,None or Unspecified,,,,,,,,,,,,,Standard,Conventional
4658,1578888,18000,1084087,132,2.0,1989,,,1/16/2009 0:00,444E,444,E,,,,Wheel Loader - 90.0 to 100.0 Horsepower,New York,WL,Wheel Loader,,EROPS,None or Unspecified,,None or Unspecified,,,,,,,,2 Valve,,,,,None or Unspecified,None or Unspecified,,,,,,,,,,,,,Standard,Conventional
4658,1578900,18000,1351064,132,4.0,1989,,,2/10/2003 0:00,444E,444,E,,,,Wheel Loader - 90.0 to 100.0 Horsepower,Florida,WL,Wheel Loader,,OROPS,None or Unspecified,,None or Unspecified,,,,,,,,2 Valve,,,,,None or Unspecified,Manual,,,,,,,,,,,,,Standard,Conventional
4658,1578904,19500,1413399,132,5.0,1989,,,9/28/2006 0:00,444E,444,E,,,,Wheel Loader - 90.0 to 100.0 Horsepower,Connecticut,WL,Wheel Loader,,EROPS,None or Unspecified,,None or Unspecified,,,,,,,,2 Valve,,,,,17.5,None or Unspecified,,,,,,,,,,,,,Standard,Conventional
4658,1578905,16000,1187941,132,8.0,1989,,,3/24/2004 0:00,444E,444,E,,,,Wheel Loader - 90.0 to 100.0 Horsepower,Mississippi,WL,Wheel Loader,,EROPS w AC,None or Unspecified,,None or Unspecified,,,,,,,,2 Valve,,,,,None or Unspecified,None or Unspecified,,,,,,,,,,,,,Standard,Conventional
4658,1578912,26000,1439330,132,1.0,1990,,,3/22/2006 0:00,444E,444,E,,,,Wheel Loader - 90.0 to 100.0 Horsepower,California,WL,Wheel Loader,,OROPS,None or Unspecified,,None or Unspecified,,,,,,,,2 Valve,,,,,17.5,None or Unspecified,,,,,,,,,,,,,Standard,Conventional
4658,1578915,27000,1089849,132,11.0,1990,,,12/9/1998 0:00,444E,444,E,,,,Wheel Loader - 90.0 to 100.0 Horsepower,Mississippi,WL,Wheel Loader,,EROPS,Yes,,None or Unspecified,,,,,,,,2 Valve,,,,,None or Unspecified,None or Unspecified,,,,,,,,,,,,,Standard,Conventional
4658,1578925,22500,1364450,132,1.0,1990,,,6/14/2007 0:00,444E,444,E,,,,Wheel Loader - 90.0 to 100.0 Horsepower,Colorado,WL,Wheel Loader,,EROPS,None or Unspecified,,None or Unspecified,,,,,,,,2 Valve,,,,,17.5,Manual,,,,,,,,,,,,,Standard,Conventional
4658,1578931,27000,1304209,132,1.0,1990,,,12/11/2002 0:00,444E,444,E,,,,Wheel Loader - 90.0 to 100.0 Horsepower,Texas,WL,Wheel Loader,,EROPS,None or Unspecified,,None or Unspecified,,,,,,,,2 Valve,,,,,17.5,None or Unspecified,,,,,,,,,,,,,Standard,Conventional
4658,1578933,28500,1363678,132,10.0,1000,,,6/26/1997 0:00,444E,444,E,,,,Wheel Loader - 90.0 to 100.0 Horsepower,Louisiana,WL,Wheel Loader,,OROPS,Yes,,None or Unspecified,,,,,,,,2 Valve,,,,,None or Unspecified,None or Unspecified,,,,,,,,,,,,,Standard,Conventional
4658,1578934,34000,1363678,132,2.0,1991,,,7/26/1997 0:00,444E,444,E,,,,Wheel Loader - 90.0 to 100.0 Horsepower,Ohio,WL,Wheel Loader,,OROPS,Yes,,None or Unspecified,,,,,,,,2 Valve,,,,,None or Unspecified,None or Unspecified,,,,,,,,,,,,,Standard,Conventional
4658,1578942,28000,1490605,132,10.0,1991,,,6/26/1997 0:00,444E,444,E,,,,Wheel Loader - 90.0 to 100.0 Horsepower,Louisiana,WL,Wheel Loader,,OROPS,None or Unspecified,,None or Unspecified,,,,,,,,2 Valve,,,,,None or Unspecified,None or Unspecified,,,,,,,,,,,,,Standard,Conventional
4658,1578947,31000,1516572,132,2.0,1990,,,3/26/1998 0:00,444E,444,E,,,,Wheel Loader - 90.0 to 100.0 Horsepower,New Jersey,WL,Wheel Loader,,EROPS,None or Unspecified,,None or Unspecified,,,,,,,,2 Valve,,,,,None or Unspecified,None or Unspecified,,,,,,,,,,,,,Standard,Conventional
4658,1578948,32000,1516572,132,99.0,1990,,,9/18/1998 0:00,444E,444,E,,,,Wheel Loader - 90.0 to 100.0 Horsepower,Pennsylvania,WL,Wheel Loader,,EROPS,None or Unspecified,,None or Unspecified,,,,,,,,2 Valve,,,,,None or Unspecified,None or Unspecified,,,,,,,,,,,,,Standard,Conventional
4658,1578951,36500,1088045,132,5.0,1990,,,9/28/1996 0:00,444E,444,E,,,,Wheel Loader - 90.0 to 100.0 Horsepower,Maine,WL,Wheel Loader,,OROPS,None or Unspecified,,None or Unspecified,,,,,,,,2 Valve,,,,,None or Unspecified,None or Unspecified,,,,,,,,,,,,,Standard,Conventional
4658,1578952,13000,1250750,132,1.0,1990,,,6/2/2010 0:00,444E,444,E,,,,Wheel Loader - 90.0 to 100.0 Horsepower,Maryland,WL,Wheel Loader,,EROPS,None or Unspecified,,None or Unspecified,,,,,,,,2 Valve,,,,,17.5,None or Unspecified,,,,,,,,,,,,,Standard,Conventional
4658,1578954,13500,1118777,132,2.0,1990,,,12/27/2008 0:00,444E,444,E,,,,Wheel Loader - 90.0 to 100.0 Horsepower,New York,WL,Wheel Loader,,EROPS,None or Unspecified,,None or Unspecified,,,,,,,,2 Valve,,,,,17.5,None or Unspecified,,,,,,,,,,,,,Standard,Conventional
4658,1579009,14500,1395663,132,8.0,1991,,,3/24/2004 0:00,444E,444,E,,,,Wheel Loader - 90.0 to 100.0 Horsepower,Mississippi,WL,Wheel Loader,,EROPS,None or Unspecified,,None or Unspecified,,,,,,,,2 Valve,,,,,None or Unspecified,None or Unspecified,,,,,,,,,,,,,Standard,Conventional
4658,1579100,18500,1436303,132,22.0,1992,,,6/8/2002 0:00,444E,444,E,,,,Wheel Loader - 90.0 to 100.0 Horsepower,Minnesota,WL,Wheel Loader,,OROPS,None or Unspecified,,None or Unspecified,,,,,,,,2 Valve,,,,,None or Unspecified,None or Unspecified,,,,,,,,,,,,,Standard,Conventional
4658,1579108,21000,810082,132,1.0,1991,,,3/16/2006 0:00,444E,444,E,,,,Wheel Loader - 90.0 to 100.0 Horsepower,Colorado,WL,Wheel Loader,,EROPS,None or Unspecified,,None or Unspecified,,,,,,,,2 Valve,,,,,17.5,Manual,,,,,,,,,,,,,Standard,Conventional
4658,1579109,29000,810082,132,1.0,1991,,,3/11/2003 0:00,444E,444,E,,,,Wheel Loader - 90.0 to 100.0 Horsepower,Colorado,WL,Wheel Loader,,EROPS,None or Unspecified,,None or Unspecified,,,,,,,,2 Valve,,,,,17.5,Manual,,,,,,,,,,,,,Standard,Conventional
4658,1579132,19000,1455058,132,1.0,1992,,,3/6/2002 0:00,444E,444,E,,,,Wheel Loader - 90.0 to 100.0 Horsepower,New Mexico,WL,Wheel Loader,,EROPS AC,,,,,,,,,,,,,,,,None or Unspecified,,,,,,,,,,,,,,Standard,
4658,1579141,16500,1557488,132,10.0,1992,,,1/31/2002 0:00,444E,444,E,,,,Wheel Loader - 90.0 to 100.0 Horsepower,Louisiana,WL,Wheel Loader,,EROPS w AC,,,,,,,,,,,,,,,,None or Unspecified,,,,,,,,,,,,,,,
4658,1579143,13000,1557488,132,1.0,1992,,,8/23/2007 0:00,444E,444,E,,,,Wheel Loader - 90.0 to 100.0 Horsepower,Texas,WL,Wheel Loader,,EROPS w AC,,,,,,,,,,,,,,,,None or Unspecified,,,,,,,,,,,,,,,
4658,1579145,36000,1175639,132,11.0,1991,,,9/17/1997 0:00,444E,444,E,,,,Wheel Loader - 90.0 to 100.0 Horsepower,Mississippi,WL,Wheel Loader,,EROPS,None or Unspecified,,None or Unspecified,,,,,,,,2 Valve,,,,,15.5,None or Unspecified,,,,,,,,,,,,,Standard,Conventional
4658,1579218,21500,1305104,132,1.0,1992,,,9/14/2004 0:00,444E,444,E,,,,Wheel Loader - 90.0 to 100.0 Horsepower,Ohio,WL,Wheel Loader,,EROPS,None or Unspecified,,None or Unspecified,,,,,,,,2 Valve,,,,,17.5,None or Unspecified,,,,,,,,,,,,,Standard,Conventional
4658,1579227,26000,1078940,132,1.0,1992,,,12/15/1998 0:00,444E,444,E,,,,Wheel Loader - 90.0 to 100.0 Horsepower,Washington,WL,Wheel Loader,,EROPS,,,,,,,,,,,,,,,,None or Unspecified,,,,,,,,,,,,,,,
4658,1579253,23000,833806,132,4.0,1992,,,2/9/2004 0:00,444E,444,E,,,,Wheel Loader - 90.0 to 100.0 Horsepower,Florida,WL,Wheel Loader,,OROPS,None or Unspecified,,None or Unspecified,,,,,,,,2 Valve,,,,,17.5,None or Unspecified,,,,,,,,,,,,,Standard,Conventional
4658,1579254,29000,1075791,132,1.0,1992,,,9/14/2000 0:00,444E,444,E,,,,Wheel Loader - 90.0 to 100.0 Horsepower,Ohio,WL,Wheel Loader,,EROPS,None or Unspecified,,None or Unspecified,,,,,,,,2 Valve,,,,,None or Unspecified,None or Unspecified,,,,,,,,,,,,,Standard,Conventional
4658,1579281,14000,1283264,132,1.0,1993,,,11/6/2002 0:00,444E,444,E,,,,Wheel Loader - 90.0 to 100.0 Horsepower,Texas,WL,Wheel Loader,,EROPS,None or Unspecified,,None or Unspecified,,,,,,,,2 Valve,,,,,17.5,None or Unspecified,,,,,,,,,,,,,Standard,Conventional
4658,1579282,26000,1283264,132,1.0,1993,,,8/16/2000 0:00,444E,444,E,,,,Wheel Loader - 90.0 to 100.0 Horsepower,Texas,WL,Wheel Loader,,EROPS,None or Unspecified,,None or Unspecified,,,,,,,,2 Valve,,,,,17.5,None or Unspecified,,,,,,,,,,,,,Standard,Conventional
4658,1579320,37000,1097673,132,2.0,1993,,,9/6/1997 0:00,444E,444,E,,,,Wheel Loader - 90.0 to 100.0 Horsepower,New York,WL,Wheel Loader,,EROPS,,,,,,,,,,,Standard,,,,,,None or Unspecified,,,,,,,,,,,,,,
4658,1579321,33000,1097673,132,2.0,1993,,,4/26/1997 0:00,444E,444,E,,,,Wheel Loader - 90.0 to 100.0 Horsepower,Ohio,WL,Wheel Loader,,EROPS,,,,,,,,,,,Standard,,,,,,None or Unspecified,,,,,,,,,,,,,,
4658,1579322,31500,1097673,132,2.0,1993,,,8/2/1997 0:00,444E,444,E,,,,Wheel Loader - 90.0 to 100.0 Horsepower,Pennsylvania,WL,Wheel Loader,,EROPS,,,,,,,,,,,Standard,,,,,,None or Unspecified,,,,,,,,,,,,,,
4658,1579328,43500,1468783,132,2.0,1993,,,9/10/1998 0:00,444E,444,E,,,,Wheel Loader - 90.0 to 100.0 Horsepower,Texas,WL,Wheel Loader,,OROPS,,,,,,,,,,,,,,,,None or Unspecified,,,,,,,,,,,,,,,
4658,1579338,23500,336662,132,4.0,1993,,,2/13/2006 0:00,444E,444,E,,,,Wheel Loader - 90.0 to 100.0 Horsepower,Florida,WL,Wheel Loader,,EROPS,,,,,,,,,,,Standard,,,,,,Manual,,,,,,,,,,,,,,
4658,1579373,24000,1359324,132,1.0,1993,,,9/19/2001 0:00,444E,444,E,,,,Wheel Loader - 90.0 to 100.0 Horsepower,Texas,WL,Wheel Loader,,EROPS,,,,,,,,,,,,,,,,None or Unspecified,,,,,,,,,,,,,,,
4658,1579384,29000,1223273,132,2.0,1993,,,10/29/1999 0:00,444E,444,E,,,,Wheel Loader - 90.0 to 100.0 Horsepower,Ohio,WL,Wheel Loader,,EROPS,,,,,,,,,,,Standard,,,,,,Manual,,,,,,,,,,,,,,
4658,1579410,31000,1160306,132,4.0,1994,,,2/13/2006 0:00,444E,444,E,,,,Wheel Loader - 90.0 to 100.0 Horsepower,Florida,WL,Wheel Loader,,EROPS,None or Unspecified,,None or Unspecified,,,,,,,,2 Valve,,,,,15.5,None or Unspecified,,,,,,,,,,,,,Standard,Conventional
4658,1579415,17500,1119236,132,1.0,1993,,,10/27/2009 0:00,444E,444,E,,,,Wheel Loader - 90.0 to 100.0 Horsepower,New Mexico,WL,Wheel Loader,,EROPS,None or Unspecified,,None or Unspecified,,,,,,,,2 Valve,,,,,17.5,Manual,,,,,,,,,,,,,Standard,Conventional
4658,1579416,15500,1119236,132,1.0,1993,,,6/30/2008 0:00,444E,444,E,,,,Wheel Loader - 90.0 to 100.0 Horsepower,New Mexico,WL,Wheel Loader,,EROPS,None or Unspecified,,None or Unspecified,,,,,,,,2 Valve,,,,,17.5,Manual,,,,,,,,,,,,,Standard,Conventional
4658,1579425,20000,1239992,132,1.0,1993,,,11/28/2001 0:00,444E,444,E,,,,Wheel Loader - 90.0 to 100.0 Horsepower,Texas,WL,Wheel Loader,,EROPS,Yes,,None or Unspecified,,,,,,,,2 Valve,,,,,17.5,None or Unspecified,,,,,,,,,,,,,Standard,Conventional
4658,1579447,17500,1229237,132,1.0,1994,,,3/2/2005 0:00,444E,444,E,,,,Wheel Loader - 90.0 to 100.0 Horsepower,Texas,WL,Wheel Loader,,OROPS,None or Unspecified,,None or Unspecified,,,,,,,,2 Valve,,,,,17.5,None or Unspecified,,,,,,,,,,,,,Standard,Conventional
4658,1579448,23000,1229237,132,1.0,1994,,,5/20/2004 0:00,444E,444,E,,,,Wheel Loader - 90.0 to 100.0 Horsepower,Texas,WL,Wheel Loader,,OROPS,None or Unspecified,,None or Unspecified,,,,,,,,2 Valve,,,,,17.5,None or Unspecified,,,,,,,,,,,,,Standard,Conventional
4658,1579461,12500,1085528,132,1.0,1994,,,2/16/2009 0:00,444E,444,E,,,,Wheel Loader - 90.0 to 100.0 Horsepower,Florida,WL,Wheel Loader,,OROPS,None or Unspecified,,None or Unspecified,,,,,,,,2 Valve,,,,,17.5,None or Unspecified,,,,,,,,,,,,,Standard,Conventional
4658,1579469,18000,1186518,132,9.0,1994,,,8/18/2005 0:00,444E,444,E,,,,Wheel Loader - 90.0 to 100.0 Horsepower,South Carolina,WL,Wheel Loader,,EROPS,None or Unspecified,,None or Unspecified,,,,,,,,2 Valve,,,,,None or Unspecified,None or Unspecified,,,,,,,,,,,,,Standard,Conventional
4658,1580878,27500,1317084,132,14.0,1989,,,9/20/2000 0:00,444E,444,E,,,,Wheel Loader - 90.0 to 100.0 Horsepower,Indiana,WL,Wheel Loader,,EROPS,None or Unspecified,,None or Unspecified,,,,,,,,2 Valve,,,,,None or Unspecified,None or Unspecified,,,,,,,,,,,,,Standard,Conventional
4658,1581288,19500,1281924,132,2.0,1989,,,9/14/2002 0:00,444E,444,E,,,,Wheel Loader - 90.0 to 100.0 Horsepower,New Jersey,WL,Wheel Loader,,EROPS,None or Unspecified,,None or Unspecified,,,,,,,,2 Valve,,,,,None or Unspecified,None or Unspecified,,,,,,,,,,,,,Standard,Conventional
4658,1582367,20000,1293491,132,1.0,1992,,,10/5/1999 0:00,444E,444,E,,,,Wheel Loader - 90.0 to 100.0 Horsepower,Tennessee,WL,Wheel Loader,,OROPS,None or Unspecified,,None or Unspecified,,,,,,,,2 Valve,,,,,None or Unspecified,None or Unspecified,,,,,,,,,,,,,Standard,Conventional
4658,1582405,30500,1182283,132,2.0,1992,,,7/31/1999 0:00,444E,444,E,,,,Wheel Loader - 90.0 to 100.0 Horsepower,Ohio,WL,Wheel Loader,,EROPS,None or Unspecified,,None or Unspecified,,,,,,,,2 Valve,,,,,None or Unspecified,None or Unspecified,,,,,,,,,,,,,Standard,Conventional
4658,1582850,23500,1280422,132,4.0,1988,,,2/5/1998 0:00,444E,444,E,,,,Wheel Loader - 90.0 to 100.0 Horsepower,Florida,WL,Wheel Loader,,EROPS,None or Unspecified,,None or Unspecified,,,,,,,,2 Valve,,,,,None or Unspecified,None or Unspecified,,,,,,,,,,,,,Standard,Conventional
4658,1584573,14000,1279591,132,2.0,1000,,,12/29/2005 0:00,444E,444,E,,,,Wheel Loader - 90.0 to 100.0 Horsepower,New York,WL,Wheel Loader,,OROPS,None or Unspecified,,None or Unspecified,,,,,,,,2 Valve,,,,,None or Unspecified,None or Unspecified,,,,,,,,,,,,,Standard,Conventional
4658,1586168,10500,1426675,132,4.0,1991,,,2/8/2011 0:00,444E,444,E,,,,Wheel Loader - 90.0 to 100.0 Horsepower,Florida,WL,Wheel Loader,,EROPS w AC,Yes,,None or Unspecified,,,,,,,,2 Valve,,,,,None or Unspecified,None or Unspecified,,,,,,,,,,,,,Standard,Conventional
4658,1587499,24000,1088261,132,4.0,1992,,,2/17/2001 0:00,444E,444,E,,,,Wheel Loader - 90.0 to 100.0 Horsepower,Florida,WL,Wheel Loader,,EROPS,None or Unspecified,,None or Unspecified,,,,,,,,2 Valve,,,,,None or Unspecified,None or Unspecified,,,,,,,,,,,,,Standard,Conventional
4658,1587519,17000,1175848,132,20.0,1988,,,4/16/2008 0:00,444E,444,E,,,,Wheel Loader - 90.0 to 100.0 Horsepower,Arkansas,WL,Wheel Loader,,EROPS,Yes,,None or Unspecified,,,,,,,,2 Valve,,,,,None or Unspecified,None or Unspecified,,,,,,,,,,,,,Standard,Conventional
4658,1587544,19000,1384889,132,1.0,1992,,,5/9/2006 0:00,444E,444,E,,,,Wheel Loader - 90.0 to 100.0 Horsepower,Texas,WL,Wheel Loader,,EROPS,,,,,,,,,,,,,,,,,,,,,,,,,,,,,,,
4658,1587607,36000,1516598,132,1.0,1992,,,6/26/1997 0:00,444E,444,E,,,,Wheel Loader - 90.0 to 100.0 Horsepower,Colorado,WL,Wheel Loader,,EROPS,None or Unspecified,,None or Unspecified,,,,,,,,2 Valve,,,,,None or Unspecified,None or Unspecified,,,,,,,,,,,,,Standard,Conventional
4658,1587700,8500,1081611,132,8.0,1992,,,5/25/2011 0:00,444E,444,E,,,,Wheel Loader - 90.0 to 100.0 Horsepower,Mississippi,WL,Wheel Loader,,OROPS,None or Unspecified,,None or Unspecified,,,,,,,,2 Valve,,,,,None or Unspecified,None or Unspecified,,,,,,,,,,,,,Standard,Conventional
4658,1587999,19500,1150281,132,12.0,1992,,,9/20/2000 0:00,444E,444,E,,,,Wheel Loader - 90.0 to 100.0 Horsepower,South Carolina,WL,Wheel Loader,,EROPS,None or Unspecified,,None or Unspecified,,,,,,,,2 Valve,,,,,None or Unspecified,None or Unspecified,,,,,,,,,,,,,Standard,Conventional
4658,1588719,23500,1098460,132,4.0,1993,,,2/14/2006 0:00,444E,444,E,,,,Wheel Loader - 90.0 to 100.0 Horsepower,Florida,WL,Wheel Loader,,OROPS,None or Unspecified,,None or Unspecified,,,,,,,,2 Valve,,,,,None or Unspecified,None or Unspecified,,,,,,,,,,,,,Standard,Conventional
4658,1588720,21500,1098460,132,99.0,1993,,,3/6/2010 0:00,444E,444,E,,,,Wheel Loader - 90.0 to 100.0 Horsepower,Tennessee,WL,Wheel Loader,,OROPS,None or Unspecified,,None or Unspecified,,,,,,,,2 Valve,,,,,None or Unspecified,None or Unspecified,,,,,,,,,,,,,Standard,Conventional
4658,1588937,20600,1502642,132,99.0,1993,,,10/5/2004 0:00,444E,444,E,,,,Wheel Loader - 90.0 to 100.0 Horsepower,Texas,WL,Wheel Loader,,OROPS,,,,,,,,,,,,,,,,None or Unspecified,,,,,,,,,,,,,,,
4658,1589319,36500,1535546,132,2.0,1993,,,2/5/1997 0:00,444E,444,E,,,,Wheel Loader - 90.0 to 100.0 Horsepower,Florida,WL,Wheel Loader,,EROPS w AC,None or Unspecified,,None or Unspecified,,,,,,,,2 Valve,,,,,None or Unspecified,None or Unspecified,,,,,,,,,,,,,Standard,Conventional
4658,1589421,27500,1400885,132,6.0,1993,,,5/5/1998 0:00,444E,444,E,,,,Wheel Loader - 90.0 to 100.0 Horsepower,Florida,WL,Wheel Loader,,EROPS,,,,,,,,,,,,,,,,None or Unspecified,,,,,,,,,,,,,,,
4658,1589422,27500,1400885,132,4.0,1993,,,2/4/1999 0:00,444E,444,E,,,,Wheel Loader - 90.0 to 100.0 Horsepower,Florida,WL,Wheel Loader,,EROPS,,,,,,,,,,,,,,,,None or Unspecified,,,,,,,,,,,,,,,
4658,1589461,31000,1450645,132,4.0,1994,,,2/14/2006 0:00,444E,444,E,,,,Wheel Loader - 90.0 to 100.0 Horsepower,Florida,WL,Wheel Loader,,EROPS,,,,,,,,,,,Standard,,,,,None or Unspecified,None or Unspecified,,,,,,,,,,,,,,Wheel
4658,1589475,17500,1191792,132,1.0,1993,,,10/27/2009 0:00,444E,444,E,,,,Wheel Loader - 90.0 to 100.0 Horsepower,New Mexico,WL,Wheel Loader,,EROPS,None or Unspecified,,None or Unspecified,,,,,,,,2 Valve,,,,,17.5,None or Unspecified,,,,,,,,,,,,,Standard,Conventional
4658,1589476,16000,1191792,132,1.0,1993,16580.0,Medium,6/7/2011 0:00,444E,444,E,,,,Wheel Loader - 90.0 to 100.0 Horsepower,Colorado,WL,Wheel Loader,,EROPS,None or Unspecified,,None or Unspecified,,,,,,,,2 Valve,,,,,17.5,None or Unspecified,,,,,,,,,,,,,Standard,Conventional
4658,1589489,22500,1381460,132,2.0,1994,,,2/8/2001 0:00,444E,444,E,,,,Wheel Loader - 90.0 to 100.0 Horsepower,Florida,WL,Wheel Loader,,OROPS,None or Unspecified,,None or Unspecified,,,,,,,,2 Valve,,,,,None or Unspecified,None or Unspecified,,,,,,,,,,,,,Standard,Conventional
4658,1589584,38500,1180320,132,21.0,1994,,,9/9/1999 0:00,444E,444,E,,,,Wheel Loader - 90.0 to 100.0 Horsepower,Maine,WL,Wheel Loader,,EROPS,None or Unspecified,,None or Unspecified,,,,,,,,2 Valve,,,,,None or Unspecified,None or Unspecified,,,,,,,,,,,,,Standard,Conventional
4658,1589751,12500,1244071,132,1.0,1994,,,2/17/2009 0:00,444E,444,E,,,,Wheel Loader - 90.0 to 100.0 Horsepower,Florida,WL,Wheel Loader,,OROPS,None or Unspecified,,None or Unspecified,,,,,,,,2 Valve,,,,,17.5,None or Unspecified,,,,,,,,,,,,,Standard,Conventional
4658,1589752,10000,1244071,132,99.0,1994,,,7/16/2009 0:00,444E,444,E,,,,Wheel Loader - 90.0 to 100.0 Horsepower,Georgia,WL,Wheel Loader,,OROPS,None or Unspecified,,None or Unspecified,,,,,,,,2 Valve,,,,,17.5,None or Unspecified,,,,,,,,,,,,,Standard,Conventional
4658,1589954,38000,284266,132,13.0,1994,,,4/9/1998 0:00,444E,444,E,,,,Wheel Loader - 90.0 to 100.0 Horsepower,Kentucky,WL,Wheel Loader,,EROPS,None or Unspecified,,None or Unspecified,,,,,,,,2 Valve,,,,,None or Unspecified,None or Unspecified,,,,,,,,,,,,,Standard,Conventional
4658,1590742,13000,1423476,132,20.0,1000,,,4/18/2001 0:00,444E,444,E,,,,Wheel Loader - 90.0 to 100.0 Horsepower,Arkansas,WL,Wheel Loader,,OROPS,None or Unspecified,,None or Unspecified,,,,,,,,2 Valve,,,,,None or Unspecified,None or Unspecified,,,,,,,,,,,,,Standard,Conventional
4658,1591622,26500,1168480,132,2.0,1988,,,11/18/2006 0:00,444E,444,E,,,,Wheel Loader - 90.0 to 100.0 Horsepower,Connecticut,WL,Wheel Loader,,EROPS,None or Unspecified,,None or Unspecified,,,,,,,,2 Valve,,,,,17.5,None or Unspecified,,,,,,,,,,,,,Standard,Conventional
4658,1594925,12000,1308835,132,8.0,1988,,,2/14/2009 0:00,444E,444,E,,,,Wheel Loader - 90.0 to 100.0 Horsepower,Florida,WL,Wheel Loader,,OROPS,None or Unspecified,,None or Unspecified,,,,,,,,2 Valve,,,,,None or Unspecified,None or Unspecified,,,,,,,,,,,,,Standard,Conventional
4658,1594926,9500,1308835,132,4.0,1988,9964.0,Low,2/10/2009 0:00,444E,444,E,,,,Wheel Loader - 90.0 to 100.0 Horsepower,Florida,WL,Wheel Loader,,OROPS,None or Unspecified,,None or Unspecified,,,,,,,,2 Valve,,,,,None or Unspecified,None or Unspecified,,,,,,,,,,,,,Standard,Conventional
4658,1595291,22500,1446430,132,2.0,1988,,,11/4/2006 0:00,444E,444,E,,,,Wheel Loader - 90.0 to 100.0 Horsepower,New York,WL,Wheel Loader,,EROPS,None or Unspecified,,None or Unspecified,,,,,,,,2 Valve,,,,,17.5,None or Unspecified,,,,,,,,,,,,,Standard,Conventional
4658,1596795,17500,1157252,132,1.0,1988,,,6/18/2009 0:00,444E,444,E,,,,Wheel Loader - 90.0 to 100.0 Horsepower,Minnesota,WL,Wheel Loader,,EROPS,None or Unspecified,,None or Unspecified,,,,,,,,2 Valve,,,,,None or Unspecified,None or Unspecified,,,,,,,,,,,,,Standard,Conventional
4658,1597780,21500,1077513,132,8.0,1988,,,3/22/2006 0:00,444E,444,E,,,,Wheel Loader - 90.0 to 100.0 Horsepower,Mississippi,WL,Wheel Loader,,EROPS w AC,None or Unspecified,,None or Unspecified,,,,,,,,2 Valve,,,,,None or Unspecified,None or Unspecified,,,,,,,,,,,,,Standard,Conventional
4658,1598669,22500,1499297,132,8.0,1988,,,3/22/2006 0:00,444E,444,E,,,,Wheel Loader - 90.0 to 100.0 Horsepower,Mississippi,WL,Wheel Loader,,EROPS w AC,None or Unspecified,,None or Unspecified,,,,,,,,2 Valve,,,,,None or Unspecified,None or Unspecified,,,,,,,,,,,,,Standard,Conventional
4658,1599416,9000,1103271,132,99.0,1000,,,7/14/2011 0:00,444E,444,E,,,,Wheel Loader - 90.0 to 100.0 Horsepower,Georgia,WL,Wheel Loader,,EROPS,None or Unspecified,,None or Unspecified,,,,,,,,2 Valve,,,,,17.5,None or Unspecified,,,,,,,,,,,,,Standard,Conventional
4658,1599530,24000,1183930,132,6.0,1988,,,4/20/1999 0:00,444E,444,E,,,,Wheel Loader - 90.0 to 100.0 Horsepower,Kentucky,WL,Wheel Loader,,EROPS,None or Unspecified,,None or Unspecified,,,,,,,,2 Valve,,,,,15.5,None or Unspecified,,,,,,,,,,,,,Standard,Conventional
4658,1601032,24500,1400870,132,1.0,1989,,,6/28/2001 0:00,444E,444,E,,,,Wheel Loader - 90.0 to 100.0 Horsepower,Colorado,WL,Wheel Loader,,EROPS,None or Unspecified,,None or Unspecified,,,,,,,,2 Valve,,,,,15.5,None or Unspecified,,,,,,,,,,,,,Standard,Conventional
4658,1601033,24000,1400870,132,6.0,1989,,,4/20/1999 0:00,444E,444,E,,,,Wheel Loader - 90.0 to 100.0 Horsepower,Kentucky,WL,Wheel Loader,,EROPS,None or Unspecified,,None or Unspecified,,,,,,,,2 Valve,,,,,15.5,None or Unspecified,,,,,,,,,,,,,Standard,Conventional
4658,1601382,27500,1145191,132,1.0,1992,,,3/24/1999 0:00,444E,444,E,,,,Wheel Loader - 90.0 to 100.0 Horsepower,Washington,WL,Wheel Loader,,EROPS,None or Unspecified,,None or Unspecified,,,,,,,,2 Valve,,,,,None or Unspecified,None or Unspecified,,,,,,,,,,,,,Standard,Conventional
4658,1601415,33000,1343986,132,6.0,1989,,,5/10/1996 0:00,444E,444,E,,,,Wheel Loader - 90.0 to 100.0 Horsepower,Tennessee,WL,Wheel Loader,,EROPS,None or Unspecified,,None or Unspecified,,,,,,,,2 Valve,,,,,None or Unspecified,None or Unspecified,,,,,,,,,,,,,Standard,Conventional
4658,1601665,20000,1206926,132,1.0,1989,,,8/7/2009 0:00,444E,444,E,,,,Wheel Loader - 90.0 to 100.0 Horsepower,Nevada,WL,Wheel Loader,,EROPS,None or Unspecified,,None or Unspecified,,,,,,,,2 Valve,,,,,17.5,None or Unspecified,,,,,,,,,,,,,Standard,Conventional
4658,1601763,19500,1275525,132,8.0,1989,,,3/22/2006 0:00,444E,444,E,,,,Wheel Loader - 90.0 to 100.0 Horsepower,Mississippi,WL,Wheel Loader,,EROPS w AC,,,,,,,,,,,2 Valve,,,,,,,,,,,,,,,,,,,,
4658,1602150,16000,1222312,132,5.0,1989,,,11/12/2010 0:00,444E,444,E,,,,Wheel Loader - 90.0 to 100.0 Horsepower,New York,WL,Wheel Loader,,EROPS,None or Unspecified,,None or Unspecified,,,,,,,,2 Valve,,,,,17.5,None or Unspecified,,,,,,,,,,,,,Standard,Conventional
4658,1602151,18500,1222312,132,5.0,1989,6276.0,Low,4/7/2011 0:00,444E,444,E,,,,Wheel Loader - 90.0 to 100.0 Horsepower,Connecticut,WL,Wheel Loader,,EROPS,None or Unspecified,,None or Unspecified,,,,,,,,2 Valve,,,,,17.5,None or Unspecified,,,,,,,,,,,,,Standard,Conventional
4658,1606851,17500,1170931,132,99.0,1989,,,3/5/2010 0:00,444E,444,E,,,,Wheel Loader - 90.0 to 100.0 Horsepower,Minnesota,WL,Wheel Loader,,EROPS,Yes,,None or Unspecified,,,,,,,,2 Valve,,,,,None or Unspecified,None or Unspecified,,,,,,,,,,,,,Standard,Conventional
4658,1611319,15000,1469161,132,1.0,1989,13937.0,Medium,9/21/2010 0:00,444E,444,E,,,,Wheel Loader - 90.0 to 100.0 Horsepower,Washington,WL,Wheel Loader,,EROPS,None or Unspecified,,None or Unspecified,,,,,,,,2 Valve,,,,,None or Unspecified,None or Unspecified,,,,,,,,,,,,,Standard,Conventional
4658,1614446,16000,1209201,132,1.0,1989,,,9/22/2005 0:00,444E,444,E,,,,Wheel Loader - 90.0 to 100.0 Horsepower,Washington,WL,Wheel Loader,,EROPS,None or Unspecified,,None or Unspecified,,,,,,,,2 Valve,,,,,17.5,None or Unspecified,,,,,,,,,,,,,Standard,Conventional
4658,1614687,8750,1459803,132,20.0,1989,,,12/8/2010 0:00,444E,444,E,,,,Wheel Loader - 90.0 to 100.0 Horsepower,Arkansas,WL,Wheel Loader,,EROPS w AC,Yes,,None or Unspecified,,,,,,,,2 Valve,,,,,None or Unspecified,None or Unspecified,,,,,,,,,,,,,Standard,Conventional
4658,1616400,21000,1189338,132,5.0,1989,,,5/16/2008 0:00,444E,444,E,,,,Wheel Loader - 90.0 to 100.0 Horsepower,Ohio,WL,Wheel Loader,,EROPS,None or Unspecified,,None or Unspecified,,,,,,,,2 Valve,,,,,17.5,None or Unspecified,,,,,,,,,,,,,Standard,Conventional
4658,1620641,22000,1233719,132,1.0,1990,,,6/26/2007 0:00,444E,444,E,,,,Wheel Loader - 90.0 to 100.0 Horsepower,New Mexico,WL,Wheel Loader,,EROPS,None or Unspecified,,None or Unspecified,,,,,,,,2 Valve,,,,,17.5,None or Unspecified,,,,,,,,,,,,,Standard,Conventional
4658,1620951,18000,1121285,132,1.0,1990,,,6/5/2007 0:00,444E,444,E,,,,Wheel Loader - 90.0 to 100.0 Horsepower,California,WL,Wheel Loader,,OROPS,None or Unspecified,,None or Unspecified,,,,,,,,2 Valve,,,,,17.5,None or Unspecified,,,,,,,,,,,,,Standard,Conventional
4658,1621349,19950,1428501,132,13.0,1990,873.0,Low,9/15/2007 0:00,444E,444,E,,,,Wheel Loader - 90.0 to 100.0 Horsepower,Tennessee,WL,Wheel Loader,,EROPS,None or Unspecified,,None or Unspecified,,,,,,,,2 Valve,,,,,None or Unspecified,None or Unspecified,,,,,,,,,,,,,Standard,Conventional
4658,1640594,9000,1393876,132,15.0,1990,,,4/23/1998 0:00,444E,444,E,,,,Wheel Loader - 90.0 to 100.0 Horsepower,Pennsylvania,WL,Wheel Loader,,EROPS,None or Unspecified,,None or Unspecified,,,,,,,,2 Valve,,,,,None or Unspecified,None or Unspecified,,,,,,,,,,,,,Standard,Conventional
4658,1643705,34000,1141721,132,2.0,1990,,,11/14/1998 0:00,444E,444,E,,,,Wheel Loader - 90.0 to 100.0 Horsepower,New York,WL,Wheel Loader,,EROPS,None or Unspecified,,None or Unspecified,,,,,,,,2 Valve,,,,,None or Unspecified,None or Unspecified,,,,,,,,,,,,,Standard,Conventional
4658,1644566,9000,1268086,132,20.0,1988,,,12/18/2003 0:00,444E,444,E,,,,Wheel Loader - 90.0 to 100.0 Horsepower,Arkansas,WL,Wheel Loader,,EROPS,None or Unspecified,,None or Unspecified,,,,,,,,2 Valve,,,,,None or Unspecified,None or Unspecified,,,,,,,,,,,,,Standard,Conventional
4658,1644568,18000,1202963,132,4.0,1000,,,4/18/2000 0:00,444E,444,E,,,,Wheel Loader - 90.0 to 100.0 Horsepower,Georgia,WL,Wheel Loader,,OROPS,None or Unspecified,,None or Unspecified,,,,,,,,2 Valve,,,,,None or Unspecified,None or Unspecified,,,,,,,,,,,,,Standard,Conventional
4658,1644569,36500,1209518,132,99.0,1989,,,3/18/1995 0:00,444E,444,E,,,,Wheel Loader - 90.0 to 100.0 Horsepower,Washington,WL,Wheel Loader,,OROPS,None or Unspecified,,None or Unspecified,,,,,,,,2 Valve,,,,,None or Unspecified,None or Unspecified,,,,,,,,,,,,,Standard,Conventional
4658,1644570,23000,1114643,132,2.0,1990,,,4/24/1999 0:00,444E,444,E,,,,Wheel Loader - 90.0 to 100.0 Horsepower,Ohio,WL,Wheel Loader,,EROPS,None or Unspecified,,None or Unspecified,,,,,,,,2 Valve,,,,,None or Unspecified,None or Unspecified,,,,,,,,,,,,,Standard,Conventional
4658,1644571,27500,1458469,132,5.0,1990,6500.0,Medium,1/24/1998 0:00,444E,444,E,,,,Wheel Loader - 90.0 to 100.0 Horsepower,Connecticut,WL,Wheel Loader,,EROPS,None or Unspecified,,None or Unspecified,,,,,,,,2 Valve,,,,,None or Unspecified,None or Unspecified,,,,,,,,,,,,,Standard,Conventional
4658,1644573,20000,1125136,132,5.0,1991,,,1/27/2006 0:00,444E,444,E,,,,Wheel Loader - 90.0 to 100.0 Horsepower,Connecticut,WL,Wheel Loader,,EROPS,None or Unspecified,,None or Unspecified,,,,,,,,2 Valve,,,,,17.5,None or Unspecified,,,,,,,,,,,,,Standard,Conventional
4658,1644574,25000,1374620,132,1.0,1992,,,6/14/2000 0:00,444E,444,E,,,,Wheel Loader - 90.0 to 100.0 Horsepower,Texas,WL,Wheel Loader,,EROPS,None or Unspecified,,None or Unspecified,,,,,,,,2 Valve,,,,,None or Unspecified,None or Unspecified,,,,,,,,,,,,,Standard,Conventional
4658,1644575,21500,1388624,132,1.0,1988,,,9/25/2001 0:00,444E,444,E,,,,Wheel Loader - 90.0 to 100.0 Horsepower,Illinois,WL,Wheel Loader,,EROPS,None or Unspecified,,None or Unspecified,,,,,,,,2 Valve,,,,,15.5,Manual,,,,,,,,,,,,,Standard,Conventional
4658,1644577,17500,1206715,132,10.0,1000,,,1/27/2000 0:00,444E,444,E,,,,Wheel Loader - 90.0 to 100.0 Horsepower,Louisiana,WL,Wheel Loader,,OROPS,Yes,,None or Unspecified,,,,,,,,2 Valve,,,,,None or Unspecified,None or Unspecified,,,,,,,,,,,,,Standard,Conventional
4658,1644578,20000,1126038,132,10.0,1000,,,8/18/1999 0:00,444E,444,E,,,,Wheel Loader - 90.0 to 100.0 Horsepower,Louisiana,WL,Wheel Loader,,OROPS,None or Unspecified,,None or Unspecified,,,,,,,,2 Valve,,,,,None or Unspecified,None or Unspecified,,,,,,,,,,,,,Standard,Conventional
4658,1644736,29000,1131139,132,1.0,1990,,,9/10/1996 0:00,444E,444,E,,,,Wheel Loader - 90.0 to 100.0 Horsepower,Florida,WL,Wheel Loader,,OROPS,None or Unspecified,,None or Unspecified,,,,,,,,2 Valve,,,,,None or Unspecified,None or Unspecified,,,,,,,,,,,,,Standard,Conventional
4658,1644738,27000,1381234,132,1.0,1990,,,12/13/2000 0:00,444E,444,E,,,,Wheel Loader - 90.0 to 100.0 Horsepower,Texas,WL,Wheel Loader,,EROPS,None or Unspecified,,None or Unspecified,,,,,,,,2 Valve,,,,,None or Unspecified,None or Unspecified,,,,,,,,,,,,,Standard,Conventional
4658,1644739,30000,1542575,132,1.0,1990,,,9/10/1996 0:00,444E,444,E,,,,Wheel Loader - 90.0 to 100.0 Horsepower,Florida,WL,Wheel Loader,,OROPS,None or Unspecified,,None or Unspecified,,,,,,,,2 Valve,,,,,None or Unspecified,None or Unspecified,,,,,,,,,,,,,Standard,Conventional
4658,1644740,30000,1318030,132,1.0,1992,,,12/13/2000 0:00,444E,444,E,,,,Wheel Loader - 90.0 to 100.0 Horsepower,Texas,WL,Wheel Loader,,EROPS,None or Unspecified,,None or Unspecified,,,,,,,,2 Valve,,,,,None or Unspecified,None or Unspecified,,,,,,,,,,,,,Standard,Conventional
4658,1644741,31000,1392190,132,1.0,1993,,,6/14/2000 0:00,444E,444,E,,,,Wheel Loader - 90.0 to 100.0 Horsepower,Texas,WL,Wheel Loader,,EROPS,None or Unspecified,,None or Unspecified,,,,,,,,2 Valve,,,,,None or Unspecified,None or Unspecified,,,,,,,,,,,,,Standard,Conventional
4658,1644742,30000,1456029,132,1.0,1990,,,9/10/1996 0:00,444E,444,E,,,,Wheel Loader - 90.0 to 100.0 Horsepower,Florida,WL,Wheel Loader,,OROPS,None or Unspecified,,None or Unspecified,,,,,,,,2 Valve,,,,,None or Unspecified,None or Unspecified,,,,,,,,,,,,,Standard,Conventional
4658,1644744,39500,1118553,132,2.0,1989,,,11/19/1994 0:00,444E,444,E,,,,Wheel Loader - 90.0 to 100.0 Horsepower,Ohio,WL,Wheel Loader,,OROPS,None or Unspecified,,None or Unspecified,,,,,,,,2 Valve,,,,,None or Unspecified,None or Unspecified,,,,,,,,,,,,,Standard,Conventional
4658,1644745,28500,1134823,132,12.0,1990,,,11/19/1997 0:00,444E,444,E,,,,Wheel Loader - 90.0 to 100.0 Horsepower,Florida,WL,Wheel Loader,,OROPS,None or Unspecified,,None or Unspecified,,,,,,,,2 Valve,,,,,None or Unspecified,None or Unspecified,,,,,,,,,,,,,Standard,Conventional
4658,1644747,34000,1315371,132,1.0,1992,,,9/10/1996 0:00,444E,444,E,,,,Wheel Loader - 90.0 to 100.0 Horsepower,Florida,WL,Wheel Loader,,OROPS,None or Unspecified,,None or Unspecified,,,,,,,,2 Valve,,,,,None or Unspecified,None or Unspecified,,,,,,,,,,,,,Standard,Conventional
4658,1644748,35000,1484453,132,1.0,1992,,,9/10/1996 0:00,444E,444,E,,,,Wheel Loader - 90.0 to 100.0 Horsepower,Florida,WL,Wheel Loader,,OROPS,None or Unspecified,,None or Unspecified,,,,,,,,2 Valve,,,,,None or Unspecified,None or Unspecified,,,,,,,,,,,,,Standard,Conventional
4658,1644749,23000,1436498,132,1.0,1994,,,2/28/2001 0:00,444E,444,E,,,,Wheel Loader - 90.0 to 100.0 Horsepower,Texas,WL,Wheel Loader,,OROPS,None or Unspecified,,None or Unspecified,,,,,,,,2 Valve,,,,,17.5,None or Unspecified,,,,,,,,,,,,,Standard,Conventional
4658,1644757,27000,1196797,132,1.0,1989,,,9/10/1996 0:00,444E,444,E,,,,Wheel Loader - 90.0 to 100.0 Horsepower,Florida,WL,Wheel Loader,,OROPS,None or Unspecified,,None or Unspecified,,,,,,,,2 Valve,,,,,None or Unspecified,None or Unspecified,,,,,,,,,,,,,Standard,Conventional
4658,1644823,12000,1262557,132,8.0,1000,,,2/13/2009 0:00,444E,444,E,,,,Wheel Loader - 90.0 to 100.0 Horsepower,Florida,WL,Wheel Loader,,OROPS,None or Unspecified,,None or Unspecified,,,,,,,,2 Valve,,,,,None or Unspecified,None or Unspecified,,,,,,,,,,,,,Standard,Conventional
4658,1644870,39000,1360955,132,1.0,1993,,,12/4/1997 0:00,444E,444,E,,,,Wheel Loader - 90.0 to 100.0 Horsepower,Texas,WL,Wheel Loader,,EROPS,None or Unspecified,,None or Unspecified,,,,,,,,2 Valve,,,,,None or Unspecified,None or Unspecified,,,,,,,,,,,,,Standard,Conventional
4658,1646561,31000,1484801,132,4.0,1989,6200.0,Medium,2/5/1998 0:00,444E,444,E,,,,Wheel Loader - 90.0 to 100.0 Horsepower,Florida,WL,Wheel Loader,,EROPS w AC,Yes,,None or Unspecified,,,,,,,,2 Valve,,,,,None or Unspecified,None or Unspecified,,,,,,,,,,,,,Standard,Conventional
4658,1646562,31000,1293787,132,5.0,1988,,,9/28/1996 0:00,444E,444,E,,,,Wheel Loader - 90.0 to 100.0 Horsepower,Maine,WL,Wheel Loader,,OROPS,None or Unspecified,,None or Unspecified,,,,,,,,2 Valve,,,,,None or Unspecified,None or Unspecified,,,,,,,,,,,,,Standard,Conventional
4658,2327726,17000,1785609,136,,1988,0.0,,4/16/2008 0:00,444E,444,E,,,,Wheel Loader - 90.0 to 100.0 Horsepower,Arkansas,WL,Wheel Loader,,EROPS,Yes,,None or Unspecified,,,,,,,,2 Valve,,,,,None or Unspecified,None or Unspecified,,,,,,,,,,,,,Standard,Conventional
4658,2327737,9500,1376841,136,4.0,1988,9964.0,Low,2/9/2009 0:00,444E,444,E,,,,Wheel Loader - 90.0 to 100.0 Horsepower,Florida,WL,Wheel Loader,,EROPS,None or Unspecified,,None or Unspecified,,,,,,,,2 Valve,,,,,17.5,None or Unspecified,,,,,,,,,,,,,Standard,Conventional
4658,2327809,26000,1444544,136,15.0,1994,0.0,,10/24/2008 0:00,444E,444,E,,,,Wheel Loader - 90.0 to 100.0 Horsepower,Wisconsin,WL,Wheel Loader,,EROPS,None or Unspecified,,None or Unspecified,,,,,,,,2 Valve,,,,,None or Unspecified,None or Unspecified,,,,,,,,,,,,,Standard,Conventional
4658,2328774,18000,1482012,136,2.0,1000,0.0,,6/10/2010 0:00,444E,444,E,,,,Wheel Loader - 90.0 to 100.0 Horsepower,Virginia,WL,Wheel Loader,,EROPS,None or Unspecified,,None or Unspecified,,,,,,,,2 Valve,,,,,None or Unspecified,None or Unspecified,,,,,,,,,,,,,Standard,Conventional
4658,2336820,11000,1681853,136,,1988,0.0,,9/15/2007 0:00,444E,444,E,,,,Wheel Loader - 90.0 to 100.0 Horsepower,California,WL,Wheel Loader,,OROPS,Yes,,None or Unspecified,,,,,,,,2 Valve,,,,,None or Unspecified,None or Unspecified,,,,,,,,,,,,,Standard,Conventional
4658,2336821,15225,1691448,136,,1988,11181.0,Medium,1/31/2009 0:00,444E,444,E,,,,Wheel Loader - 90.0 to 100.0 Horsepower,Tennessee,WL,Wheel Loader,,EROPS,None or Unspecified,,None or Unspecified,,,,,,,,2 Valve,,,,,17.5,None or Unspecified,,,,,,,,,,,,,Standard,Conventional
4658,2336826,19500,1677515,136,,1989,0.0,,6/6/2007 0:00,444E,444,E,,,,Wheel Loader - 90.0 to 100.0 Horsepower,Alabama,WL,Wheel Loader,,EROPS w AC,None or Unspecified,,None or Unspecified,,,,,,,,2 Valve,,,,,17.5,None or Unspecified,,,,,,,,,,,,,Standard,Conventional
4658,2337329,18500,1753624,136,1.0,1988,0.0,,5/7/2008 0:00,444E,444,E,,,,Wheel Loader - 90.0 to 100.0 Horsepower,Texas,WL,Wheel Loader,,EROPS,None or Unspecified,,None or Unspecified,,,,,,,,2 Valve,,,,,None or Unspecified,None or Unspecified,,,,,,,,,,,,,Standard,Conventional
4658,2337330,17500,1778081,136,,1988,0.0,,5/3/2007 0:00,444E,444,E,,,,Wheel Loader - 90.0 to 100.0 Horsepower,Arizona,WL,Wheel Loader,,OROPS,None or Unspecified,,None or Unspecified,,,,,,,,2 Valve,,,,,None or Unspecified,None or Unspecified,,,,,,,,,,,,,Standard,Conventional
4658,2337331,11500,1522492,136,1.0,1989,0.0,,12/8/2008 0:00,444E,444,E,,,,Wheel Loader - 90.0 to 100.0 Horsepower,Illinois,WL,Wheel Loader,,EROPS,None or Unspecified,,None or Unspecified,,,,,,,,2 Valve,,,,,17.5,Manual,,,,,,,,,,,,,Standard,Conventional
4658,2337332,20000,1459682,136,1.0,1989,0.0,,8/7/2009 0:00,444E,444,E,,,,Wheel Loader - 90.0 to 100.0 Horsepower,Nevada,WL,Wheel Loader,,EROPS,None or Unspecified,,None or Unspecified,,,,,,,,2 Valve,,,,,None or Unspecified,None or Unspecified,,,,,,,,,,,,,Standard,Conventional
4658,2337333,16000,1721984,136,1.0,1000,0.0,,6/9/2010 0:00,444E,444,E,,,,Wheel Loader - 90.0 to 100.0 Horsepower,Michigan,WL,Wheel Loader,,EROPS,None or Unspecified,,None or Unspecified,,,,,,,,2 Valve,,,,,17.5,None or Unspecified,,,,,,,,,,,,,Standard,Conventional
4658,2337334,9750,1764106,136,,1989,0.0,,12/11/2008 0:00,444E,444,E,,,,Wheel Loader - 90.0 to 100.0 Horsepower,Kentucky,WL,Wheel Loader,,OROPS,None or Unspecified,,None or Unspecified,,,,,,,,2 Valve,,,,,None or Unspecified,None or Unspecified,,,,,,,,,,,,,Standard,Conventional
4658,2337335,12000,1764106,136,1.0,1989,0.0,,7/24/2008 0:00,444E,444,E,,,,Wheel Loader - 90.0 to 100.0 Horsepower,Tennessee,WL,Wheel Loader,,OROPS,None or Unspecified,,None or Unspecified,,,,,,,,2 Valve,,,,,None or Unspecified,None or Unspecified,,,,,,,,,,,,,Standard,Conventional
4658,2337336,14000,1786910,136,1.0,1989,0.0,,12/15/2009 0:00,444E,444,E,,,,Wheel Loader - 90.0 to 100.0 Horsepower,Tennessee,WL,Wheel Loader,,EROPS,Yes,,None or Unspecified,,,,,,,,2 Valve,,,,,None or Unspecified,None or Unspecified,,,,,,,,,,,,,Standard,Conventional
4658,2337337,12500,1786910,136,,1989,0.0,,4/25/2009 0:00,444E,444,E,,,,Wheel Loader - 90.0 to 100.0 Horsepower,Ohio,WL,Wheel Loader,,EROPS,Yes,,None or Unspecified,,,,,,,,2 Valve,,,,,None or Unspecified,None or Unspecified,,,,,,,,,,,,,Standard,Conventional
4658,2337338,14500,1786910,136,1.0,1989,0.0,,6/16/2009 0:00,444E,444,E,,,,Wheel Loader - 90.0 to 100.0 Horsepower,Ohio,WL,Wheel Loader,,EROPS,Yes,,None or Unspecified,,,,,,,,2 Valve,,,,,None or Unspecified,None or Unspecified,,,,,,,,,,,,,Standard,Conventional
4658,2337340,21000,1648731,136,,1990,0.0,,5/16/2008 0:00,444E,444,E,,,,Wheel Loader - 90.0 to 100.0 Horsepower,Ohio,WL,Wheel Loader,,EROPS,None or Unspecified,,None or Unspecified,,,,,,,,2 Valve,,,,,17.5,None or Unspecified,,,,,,,,,,,,,Standard,Conventional
4658,2337342,22000,1675762,136,,1990,0.0,,6/26/2007 0:00,444E,444,E,,,,Wheel Loader - 90.0 to 100.0 Horsepower,New Mexico,WL,Wheel Loader,,EROPS,None or Unspecified,,None or Unspecified,,,,,,,,2 Valve,,,,,17.5,None or Unspecified,,,,,,,,,,,,,Standard,Conventional
4658,2337343,18000,1706680,136,,1990,0.0,,6/5/2007 0:00,444E,444,E,,,,Wheel Loader - 90.0 to 100.0 Horsepower,California,WL,Wheel Loader,,OROPS,None or Unspecified,,None or Unspecified,,,,,,,,2 Valve,,,,,None or Unspecified,None or Unspecified,,,,,,,,,,,,,Standard,Conventional
4658,2337345,14000,1685193,136,,1990,3771.0,Low,8/15/2009 0:00,444E,444,E,,,,Wheel Loader - 90.0 to 100.0 Horsepower,California,WL,Wheel Loader,,EROPS,None or Unspecified,,None or Unspecified,,,,,,,,2 Valve,,,,,None or Unspecified,None or Unspecified,,,,,,,,,,,,,Standard,Conventional
4658,2337346,22500,1650857,136,,1990,0.0,,6/14/2007 0:00,444E,444,E,,,,Wheel Loader - 90.0 to 100.0 Horsepower,Colorado,WL,Wheel Loader,,EROPS,None or Unspecified,,None or Unspecified,,,,,,,,2 Valve,,,,,None or Unspecified,Manual,,,,,,,,,,,,,Standard,Conventional
4658,2337348,15500,1779590,136,1.0,1993,0.0,,6/30/2008 0:00,444E,444,E,,,,Wheel Loader - 90.0 to 100.0 Horsepower,New Mexico,WL,Wheel Loader,,EROPS,None or Unspecified,,None or Unspecified,,,,,,,,2 Valve,,,,,None or Unspecified,None or Unspecified,,,,,,,,,,,,,Standard,Conventional
4658,2337349,17500,1779590,136,1.0,1993,0.0,,10/27/2009 0:00,444E,444,E,,,,Wheel Loader - 90.0 to 100.0 Horsepower,New Mexico,WL,Wheel Loader,,EROPS,None or Unspecified,,None or Unspecified,,,,,,,,2 Valve,,,,,None or Unspecified,None or Unspecified,,,,,,,,,,,,,Standard,Conventional
4658,2337350,12500,1709383,136,1.0,1994,0.0,,2/16/2009 0:00,444E,444,E,,,,Wheel Loader - 90.0 to 100.0 Horsepower,Florida,WL,Wheel Loader,,OROPS,None or Unspecified,,None or Unspecified,,,,,,,,2 Valve,,,,,None or Unspecified,None or Unspecified,,,,,,,,,,,,,Standard,Conventional
4658,2337351,22000,1786523,136,,1988,0.0,,6/25/2008 0:00,444E,444,E,,,,Wheel Loader - 90.0 to 100.0 Horsepower,Georgia,WL,Wheel Loader,,OROPS,None or Unspecified,,None or Unspecified,,,,,,,,2 Valve,,,,,None or Unspecified,None or Unspecified,,,,,,,,,,,,,Standard,Conventional
4658,2337352,12000,1786523,136,,1988,0.0,,2/13/2009 0:00,444E,444,E,,,,Wheel Loader - 90.0 to 100.0 Horsepower,Florida,WL,Wheel Loader,,OROPS,None or Unspecified,,None or Unspecified,,,,,,,,2 Valve,,,,,None or Unspecified,None or Unspecified,,,,,,,,,,,,,Standard,Conventional
4658,2337353,15000,1786523,136,1.0,1988,0.0,,3/26/2008 0:00,444E,444,E,,,,Wheel Loader - 90.0 to 100.0 Horsepower,Georgia,WL,Wheel Loader,,OROPS,None or Unspecified,,None or Unspecified,,,,,,,,2 Valve,,,,,None or Unspecified,None or Unspecified,,,,,,,,,,,,,Standard,Conventional
4658,2337354,17000,1692404,136,,1990,0.0,,5/9/2007 0:00,444E,444,E,,,,Wheel Loader - 90.0 to 100.0 Horsepower,Texas,WL,Wheel Loader,,OROPS,None or Unspecified,,None or Unspecified,,,,,,,,2 Valve,,,,,None or Unspecified,None or Unspecified,,,,,,,,,,,,,Standard,Conventional
4658,2337358,13500,1680526,136,,1990,0.0,,12/27/2008 0:00,444E,444,E,,,,Wheel Loader - 90.0 to 100.0 Horsepower,New York,WL,Wheel Loader,,EROPS,None or Unspecified,,None or Unspecified,,,,,,,,2 Valve,,,,,None or Unspecified,None or Unspecified,,,,,,,,,,,,,Standard,Conventional
4658,2337373,19950,1710481,136,,1990,873.0,Low,9/15/2007 0:00,444E,444,E,,,,Wheel Loader - 90.0 to 100.0 Horsepower,Tennessee,WL,Wheel Loader,,EROPS,None or Unspecified,,None or Unspecified,,,,,,,,2 Valve,,,,,None or Unspecified,None or Unspecified,,,,,,,,,,,,,Standard,Conventional
4658,2337514,18000,1746071,136,,1989,0.0,,1/16/2009 0:00,444E,444,E,,,,Wheel Loader - 90.0 to 100.0 Horsepower,New York,WL,Wheel Loader,,EROPS,None or Unspecified,,None or Unspecified,,,,,,,,2 Valve,,,,,None or Unspecified,None or Unspecified,,,,,,,,,,,,,Standard,Conventional
4658,2621054,18500,1852049,149,5.0,1989,6276.0,Low,4/7/2011 0:00,444E,444,E,,,,Wheel Loader - 90.0 to 100.0 Horsepower,Connecticut,WL,Wheel Loader,,EROPS,None or Unspecified,,None or Unspecified,,,,,,,,2 Valve,,,,,17.5,Manual,,,,,,,,,,,,,Standard,Conventional
4658,2621055,16000,1852049,149,5.0,1989,0.0,,11/12/2010 0:00,444E,444,E,,,,Wheel Loader - 90.0 to 100.0 Horsepower,New York,WL,Wheel Loader,,EROPS,None or Unspecified,,None or Unspecified,,,,,,,,2 Valve,,,,,17.5,Manual,,,,,,,,,,,,,Standard,Conventional
4658,2621112,8500,1124793,149,1.0,1992,0.0,,5/25/2011 0:00,444E,444,E,,,,Wheel Loader - 90.0 to 100.0 Horsepower,Mississippi,WL,Wheel Loader,,EROPS,None or Unspecified,,None or Unspecified,,,,,,,,3 Valve,,,,,None or Unspecified,Manual,,,,,,,,,,,,,Standard,Conventional
4658,2632126,15500,1289719,149,4.0,1991,0.0,,2/7/2011 0:00,444E,444,E,,,,Wheel Loader - 90.0 to 100.0 Horsepower,Florida,WL,Wheel Loader,,OROPS,Yes,,None or Unspecified,,,,,,,,2 Valve,,,,,None or Unspecified,None or Unspecified,,,,,,,,,,,,,Standard,Conventional
4658,2632601,15000,1838108,149,1.0,1989,8337.0,Low,9/21/2010 0:00,444E,444,E,,,,Wheel Loader - 90.0 to 100.0 Horsepower,Washington,WL,Wheel Loader,,EROPS,None or Unspecified,,None or Unspecified,,,,,,,,2 Valve,,,,,None or Unspecified,Manual,,,,,,,,,,,,,Standard,Conventional
4658,2632611,13000,1131139,149,99.0,1990,0.0,,3/19/2011 0:00,444E,444,E,,,,Wheel Loader - 90.0 to 100.0 Horsepower,California,WL,Wheel Loader,,OROPS,None or Unspecified,,None or Unspecified,,,,,,,,2 Valve,,,,,None or Unspecified,None or Unspecified,,,,,,,,,,,,,Standard,Conventional
4658,2632614,18000,1925922,149,2.0,1991,0.0,,6/10/2010 0:00,444E,444,E,,,,Wheel Loader - 90.0 to 100.0 Horsepower,Virginia,WL,Wheel Loader,,EROPS,None or Unspecified,,None or Unspecified,,,,,,,,2 Valve,,,,,None or Unspecified,None or Unspecified,,,,,,,,,,,,,Standard,Conventional
4658,2632618,13750,1790634,149,12.0,1992,10857.0,Medium,11/17/2010 0:00,444E,444,E,,,,Wheel Loader - 90.0 to 100.0 Horsepower,South Carolina,WL,Wheel Loader,,OROPS,None or Unspecified,,None or Unspecified,,,,,,,,2 Valve,,,,,None or Unspecified,None or Unspecified,,,,,,,,,,,,,Standard,Conventional
4658,2632620,16000,1779590,149,1.0,1993,16580.0,Medium,6/7/2011 0:00,444E,444,E,,,,Wheel Loader - 90.0 to 100.0 Horsepower,Colorado,WL,Wheel Loader,,EROPS,None or Unspecified,,None or Unspecified,,,,,,,,2 Valve,,,,,None or Unspecified,None or Unspecified,,,,,,,,,,,,,Standard,Conventional
4658,2632624,11000,1789135,149,2.0,1989,0.0,,7/17/2010 0:00,444E,444,E,,,,Wheel Loader - 90.0 to 100.0 Horsepower,New York,WL,Wheel Loader,,EROPS,None or Unspecified,,None or Unspecified,,,,,,,,2 Valve,,,,,None or Unspecified,None or Unspecified,,,,,,,,,,,,,Standard,Conventional
4658,2632625,13000,1888170,149,1.0,1990,0.0,,6/2/2010 0:00,444E,444,E,,,,Wheel Loader - 90.0 to 100.0 Horsepower,Maryland,WL,Wheel Loader,,EROPS,None or Unspecified,,None or Unspecified,,,,,,,,2 Valve,,,,,None or Unspecified,None or Unspecified,,,,,,,,,,,,,Standard,Conventional
4658,4311022,20000,2279002,172,1.0,1990,12825.0,Medium,12/1/2011 0:00,444E,444,E,,,,Wheel Loader - 90.0 to 100.0 Horsepower,Minnesota,WL,Wheel Loader,,EROPS w AC,Yes,,None or Unspecified,,,,,,,,2 Valve,,,,,None or Unspecified,None or Unspecified,,,,,,,,,,,,,Standard,Conventional
4658,4311043,17500,2276848,172,1.0,1988,2441.0,Low,6/18/2009 0:00,444E,444,E,,,,Wheel Loader - 90.0 to 100.0 Horsepower,Minnesota,WL,Wheel Loader,,EROPS,None or Unspecified,,None or Unspecified,,,,,,,,2 Valve,,,,,None or Unspecified,None or Unspecified,,,,,,,,,,,,,Standard,Conventional
4658,6282159,9000,1416602,149,8.0,1000,,,11/16/2011 0:00,444E,444,E,,,,Wheel Loader - 90.0 to 100.0 Horsepower,Mississippi,WL,Wheel Loader,,EROPS,None or Unspecified,,None or Unspecified,,,,,,,,2 Valve,,,,,None or Unspecified,None or Unspecified,,,,,,,,,,,,,Standard,Conventional
4658,6283437,20000,1910584,149,1.0,1990,,,12/2/2011 0:00,444E,444,E,,,,Wheel Loader - 90.0 to 100.0 Horsepower,Minnesota,WL,Wheel Loader,,EROPS,None or Unspecified,,None or Unspecified,,,,,,,,2 Valve,,,,,None or Unspecified,None or Unspecified,,,,,,,,,,,,,Standard,Conventional
