ModelID,SalesID,SalePrice,MachineID,datasource,auctioneerID,YearMade,MachineHoursCurrentMeter,UsageBand,saledate,fiModelDesc,fiBaseModel,fiSecondaryDesc,fiModelSeries,fiModelDescriptor,ProductSize,fiProductClassDesc,state,ProductGroup,ProductGroupDesc,Drive_System,Enclosure,Forks,Pad_Type,Ride_Control,Stick,Transmission,Turbocharged,Blade_Extension,Blade_Width,Enclosure_Type,Engine_Horsepower,Hydraulics,Pushblock,Ripper,Scarifier,Tip_Control,Tire_Size,Coupler,Coupler_System,Grouser_Tracks,Hydraulics_Flow,Track_Type,Undercarriage_Pad_Width,Stick_Length,Thumb,Pattern_Changer,Grouser_Type,Backhoe_Mounting,Blade_Type,Travel_Controls,Differential_Type,Steering_Controls
4778,1149291,28000,1043735,121,3.0,1989,0.0,,12/16/2004 0:00,672B,672,B,,,,Motorgrader - 130.0 to 145.0 Horsepower,Illinois,MG,Motor Graders,All Wheel Drive,EROPS w AC,,,,,Powershift,,None or Unspecified,None or Unspecified,None or Unspecified,No,Base + 1 Function,None or Unspecified,None or Unspecified,None or Unspecified,None or Unspecified,None or Unspecified,,,,,,,,,,,,,,,
4778,1166897,34000,1024376,121,3.0,1994,15890.0,High,12/12/2008 0:00,672B,672,B,,,,Motorgrader - 130.0 to 145.0 Horsepower,Florida,MG,Motor Graders,All Wheel Drive,EROPS,,,,,Powershift,,None or Unspecified,None or Unspecified,None or Unspecified,No,Base + 1 Function,None or Unspecified,None or Unspecified,Yes,None or Unspecified,"17.5""",,,,,,,,,,,,,,,
4778,1201052,23000,1006582,121,3.0,1000,4983.0,Low,4/29/2010 0:00,672B,672,B,,,,Motorgrader - 130.0 to 145.0 Horsepower,Illinois,MG,Motor Graders,All Wheel Drive,EROPS,,,,,Powershift,,None or Unspecified,12',None or Unspecified,No,Base + 1 Function,None or Unspecified,None or Unspecified,Yes,None or Unspecified,"14""",,,,,,,,,,,,,,,
4778,1209061,28500,1065261,121,3.0,1000,8149.0,Low,12/9/2010 0:00,672B,672,B,,,,Motorgrader - 130.0 to 145.0 Horsepower,Georgia,MG,Motor Graders,All Wheel Drive,EROPS w AC,,,,,None or Unspecified,,None or Unspecified,14',None or Unspecified,No,Base + 1 Function,None or Unspecified,None or Unspecified,Yes,None or Unspecified,None or Unspecified,,,,,,,,,,,,,,,
4778,1585694,17000,1240501,132,6.0,1980,,,7/17/1997 0:00,672B,672,B,,,,Motorgrader - 130.0 to 145.0 Horsepower,New Mexico,MG,Motor Graders,No,OROPS,,,,,None or Unspecified,,None or Unspecified,None or Unspecified,None or Unspecified,No,Base + 1 Function,None or Unspecified,None or Unspecified,Yes,Sideshift & Tip,None or Unspecified,,,,,,,,,,,,,,,
4778,1604042,27000,1300722,132,1.0,1986,,,12/5/2000 0:00,672B,672,B,,,,Motorgrader - 130.0 to 145.0 Horsepower,Illinois,MG,Motor Graders,All Wheel Drive,EROPS,,,,,None or Unspecified,,None or Unspecified,12',None or Unspecified,No,Base + 1 Function,None or Unspecified,None or Unspecified,Yes,None or Unspecified,"14""",,,,,,,,,,,,,,,
4778,1604154,28000,1276969,132,1.0,1986,,,9/9/2003 0:00,672B,672,B,,,,Motorgrader - 130.0 to 145.0 Horsepower,Illinois,MG,Motor Graders,No,EROPS,,,,,None or Unspecified,,None or Unspecified,13',None or Unspecified,No,Base + 1 Function,None or Unspecified,None or Unspecified,None or Unspecified,None or Unspecified,"17.5""",,,,,,,,,,,,,,,
4778,1604180,18000,1138148,132,1.0,1986,,,9/16/2002 0:00,672B,672,B,,,,Motorgrader - 130.0 to 145.0 Horsepower,California,MG,Motor Graders,All Wheel Drive,EROPS,,,,,None or Unspecified,,None or Unspecified,14',None or Unspecified,No,Base + 1 Function,None or Unspecified,None or Unspecified,Yes,None or Unspecified,"14""",,,,,,,,,,,,,,,
4778,1604181,29000,1180757,132,1.0,1986,,,3/12/2002 0:00,672B,672,B,,,,Motorgrader - 130.0 to 145.0 Horsepower,California,MG,Motor Graders,No,EROPS,,,,,None or Unspecified,,None or Unspecified,14',None or Unspecified,No,Base + 1 Function,None or Unspecified,None or Unspecified,Yes,None or Unspecified,"14""",,,,,,,,,,,,,,,
4778,1604204,32750,1550724,132,9.0,1986,,,2/15/2000 0:00,672B,672,B,,,,Motorgrader - 130.0 to 145.0 Horsepower,Florida,MG,Motor Graders,All Wheel Drive,EROPS,,,,,Powershift,,None or Unspecified,None or Unspecified,None or Unspecified,No,Base + 1 Function,None or Unspecified,None or Unspecified,Yes,Sideshift & Tip,None or Unspecified,,,,,,,,,,,,,,,
4778,1604205,34000,1550724,132,9.0,1986,,,4/6/2000 0:00,672B,672,B,,,,Motorgrader - 130.0 to 145.0 Horsepower,Texas,MG,Motor Graders,All Wheel Drive,EROPS,,,,,Powershift,,None or Unspecified,None or Unspecified,None or Unspecified,No,Base + 1 Function,None or Unspecified,None or Unspecified,Yes,Sideshift & Tip,None or Unspecified,,,,,,,,,,,,,,,
4778,1604215,38000,1194000,132,10.0,1000,,,10/16/1998 0:00,672B,672,B,,,,Motorgrader - 130.0 to 145.0 Horsepower,Louisiana,MG,Motor Graders,No,EROPS,,,,,None or Unspecified,,None or Unspecified,12',None or Unspecified,No,Base + 1 Function,None or Unspecified,Yes,None or Unspecified,None or Unspecified,None or Unspecified,,,,,,,,,,,,,,,
4778,1604317,22000,1478312,132,1.0,1987,,,8/24/2010 0:00,672B,672,B,,,,Motorgrader - 130.0 to 145.0 Horsepower,Maryland,MG,Motor Graders,No,OROPS,,,,,None or Unspecified,,None or Unspecified,12',None or Unspecified,No,Base + 1 Function,None or Unspecified,Yes,None or Unspecified,None or Unspecified,"14""",,,,,,,,,,,,,,,
4778,1604356,31500,1286383,132,2.0,1987,,,3/31/2001 0:00,672B,672,B,,,,Motorgrader - 130.0 to 145.0 Horsepower,New Jersey,MG,Motor Graders,No,EROPS,,,,,None or Unspecified,,None or Unspecified,13',None or Unspecified,No,Base + 1 Function,None or Unspecified,None or Unspecified,None or Unspecified,None or Unspecified,"17.5""",,,,,,,,,,,,,,,
4778,1604422,36000,1272331,132,4.0,1987,,,2/11/2008 0:00,672B,672,B,,,,Motorgrader - 130.0 to 145.0 Horsepower,Florida,MG,Motor Graders,No,EROPS w AC,,,,,None or Unspecified,,None or Unspecified,None or Unspecified,None or Unspecified,No,Base + 1 Function,None or Unspecified,None or Unspecified,Yes,None or Unspecified,"17.5""",,,,,,,,,,,,,,,
4778,1604623,26000,1274688,132,1.0,1988,,,5/13/2009 0:00,672B,672,B,,,,Motorgrader - 130.0 to 145.0 Horsepower,Illinois,MG,Motor Graders,All Wheel Drive,EROPS,,,,,None or Unspecified,,None or Unspecified,12',None or Unspecified,No,Base + 1 Function,None or Unspecified,None or Unspecified,Yes,None or Unspecified,None or Unspecified,,,,,,,,,,,,,,,
4778,1604669,20000,1188530,132,4.0,1988,,,2/8/2010 0:00,672B,672,B,,,,Motorgrader - 130.0 to 145.0 Horsepower,Florida,MG,Motor Graders,All Wheel Drive,EROPS w AC,,,,,None or Unspecified,,None or Unspecified,None or Unspecified,None or Unspecified,No,Base + 1 Function,None or Unspecified,None or Unspecified,None or Unspecified,None or Unspecified,None or Unspecified,,,,,,,,,,,,,,,
4778,1604883,26500,1487335,132,10.0,1988,,,6/27/2002 0:00,672B,672,B,,,,Motorgrader - 130.0 to 145.0 Horsepower,Louisiana,MG,Motor Graders,No,OROPS,,,,,None or Unspecified,,None or Unspecified,None or Unspecified,None or Unspecified,No,Base + 1 Function,None or Unspecified,None or Unspecified,None or Unspecified,None or Unspecified,None or Unspecified,,,,,,,,,,,,,,,
4778,1605007,32000,1329137,132,2.0,1988,,,2/9/2007 0:00,672B,672,B,,,,Motorgrader - 130.0 to 145.0 Horsepower,Florida,MG,Motor Graders,No,EROPS,,,,,Powershift,,None or Unspecified,14',None or Unspecified,No,Base + 1 Function,None or Unspecified,None or Unspecified,Yes,None or Unspecified,None or Unspecified,,,,,,,,,,,,,,,
4778,1605008,31000,1329137,132,2.0,1988,,,2/8/2007 0:00,672B,672,B,,,,Motorgrader - 130.0 to 145.0 Horsepower,Florida,MG,Motor Graders,No,EROPS,,,,,Powershift,,None or Unspecified,14',None or Unspecified,No,Base + 1 Function,None or Unspecified,None or Unspecified,Yes,None or Unspecified,None or Unspecified,,,,,,,,,,,,,,,
4778,1605009,32000,1329137,132,2.0,1988,,,2/4/2007 0:00,672B,672,B,,,,Motorgrader - 130.0 to 145.0 Horsepower,Florida,MG,Motor Graders,No,EROPS,,,,,Powershift,,None or Unspecified,14',None or Unspecified,No,Base + 1 Function,None or Unspecified,None or Unspecified,Yes,None or Unspecified,None or Unspecified,,,,,,,,,,,,,,,
4778,1605010,19000,1223039,132,1.0,1988,,,6/27/2007 0:00,672B,672,B,,,,Motorgrader - 130.0 to 145.0 Horsepower,Georgia,MG,Motor Graders,No,OROPS,,,,,None or Unspecified,,None or Unspecified,None or Unspecified,None or Unspecified,No,Base + 1 Function,None or Unspecified,None or Unspecified,Yes,None or Unspecified,"17.5""",,,,,,,,,,,,,,,
4778,1605050,29000,1083867,132,1.0,1988,,,12/1/2005 0:00,672B,672,B,,,,Motorgrader - 130.0 to 145.0 Horsepower,Illinois,MG,Motor Graders,All Wheel Drive,EROPS,,,,,None or Unspecified,,None or Unspecified,12',None or Unspecified,No,Base + 1 Function,None or Unspecified,None or Unspecified,Yes,None or Unspecified,None or Unspecified,,,,,,,,,,,,,,,
4778,1605151,30000,1323231,132,1.0,1988,,,10/27/2009 0:00,672B,672,B,,,,Motorgrader - 130.0 to 145.0 Horsepower,New Mexico,MG,Motor Graders,No,EROPS w AC,,,,,None or Unspecified,,None or Unspecified,14',None or Unspecified,No,Base + 1 Function,None or Unspecified,None or Unspecified,Yes,None or Unspecified,"17.5""",,,,,,,,,,,,,,,
4778,1605244,33000,1185285,132,1.0,1989,,,6/3/2003 0:00,672B,672,B,,,,Motorgrader - 130.0 to 145.0 Horsepower,California,MG,Motor Graders,No,EROPS w AC,,,,,None or Unspecified,,None or Unspecified,14',None or Unspecified,No,Base + 1 Function,Yes,Yes,None or Unspecified,None or Unspecified,"14""",,,,,,,,,,,,,,,
4778,1605299,34000,1438163,132,1.0,1989,,,9/29/2003 0:00,672B,672,B,,,,Motorgrader - 130.0 to 145.0 Horsepower,Minnesota,MG,Motor Graders,All Wheel Drive,EROPS,,,,,None or Unspecified,,None or Unspecified,14',None or Unspecified,No,Base + 1 Function,None or Unspecified,None or Unspecified,None or Unspecified,None or Unspecified,"14""",,,,,,,,,,,,,,,
4778,1605325,25000,1118414,132,1.0,1989,,,6/17/2008 0:00,672B,672,B,,,,Motorgrader - 130.0 to 145.0 Horsepower,Ohio,MG,Motor Graders,No,EROPS,,,,,None or Unspecified,,None or Unspecified,12',None or Unspecified,No,Base + 1 Function,None or Unspecified,None or Unspecified,None or Unspecified,None or Unspecified,"17.5""",,,,,,,,,,,,,,,
4778,1605326,36000,1413709,132,2.0,1989,,,3/18/2005 0:00,672B,672,B,,,,Motorgrader - 130.0 to 145.0 Horsepower,Nevada,MG,Motor Graders,No,EROPS w AC,,,,,None or Unspecified,,None or Unspecified,None or Unspecified,None or Unspecified,No,Base + 1 Function,Yes,Yes,None or Unspecified,None or Unspecified,"14""",,,,,,,,,,,,,,,
4778,1605327,36000,1413709,132,1.0,1989,,,3/19/2005 0:00,672B,672,B,,,,Motorgrader - 130.0 to 145.0 Horsepower,Nevada,MG,Motor Graders,No,EROPS w AC,,,,,None or Unspecified,,None or Unspecified,None or Unspecified,None or Unspecified,No,Base + 1 Function,Yes,Yes,None or Unspecified,None or Unspecified,"14""",,,,,,,,,,,,,,,
4778,1605342,25000,1413128,132,1.0,1989,,,9/29/2005 0:00,672B,672,B,,,,Motorgrader - 130.0 to 145.0 Horsepower,Texas,MG,Motor Graders,No,OROPS,,,,,None or Unspecified,,None or Unspecified,14',None or Unspecified,No,Base + 1 Function,None or Unspecified,None or Unspecified,Yes,None or Unspecified,"17.5""",,,,,,,,,,,,,,,
4778,1605343,29000,1216040,132,1.0,1989,,,4/8/2004 0:00,672B,672,B,,,,Motorgrader - 130.0 to 145.0 Horsepower,Georgia,MG,Motor Graders,No,EROPS,,,,,None or Unspecified,,None or Unspecified,14',None or Unspecified,No,Base + 1 Function,None or Unspecified,None or Unspecified,Yes,None or Unspecified,"17.5""",,,,,,,,,,,,,,,
4778,1605377,52000,1240048,132,25.0,1989,,,4/13/1996 0:00,672B,672,B,,,,Motorgrader - 130.0 to 145.0 Horsepower,California,MG,Motor Graders,All Wheel Drive,OROPS,,,,,None or Unspecified,,None or Unspecified,None or Unspecified,None or Unspecified,No,Base + 1 Function,None or Unspecified,Yes,None or Unspecified,Sideshift & Tip,None or Unspecified,,,,,,,,,,,,,,,
4778,1605385,52500,1215374,132,25.0,1989,,,2/24/1996 0:00,672B,672,B,,,,Motorgrader - 130.0 to 145.0 Horsepower,California,MG,Motor Graders,All Wheel Drive,OROPS,,,,,None or Unspecified,,None or Unspecified,None or Unspecified,None or Unspecified,No,Base + 1 Function,None or Unspecified,Yes,None or Unspecified,Sideshift & Tip,None or Unspecified,,,,,,,,,,,,,,,
4778,1605414,26000,1246251,132,1.0,1989,,,6/2/2009 0:00,672B,672,B,,,,Motorgrader - 130.0 to 145.0 Horsepower,Idaho,MG,Motor Graders,All Wheel Drive,EROPS,,,,,None or Unspecified,,None or Unspecified,12',None or Unspecified,No,Base + 1 Function,None or Unspecified,Yes,Yes,None or Unspecified,"14""",,,,,,,,,,,,,,,
4778,1605531,27500,1208996,132,22.0,1989,,,9/18/2010 0:00,672B,672,B,,,,Motorgrader - 130.0 to 145.0 Horsepower,Minnesota,MG,Motor Graders,No,OROPS,,,,,None or Unspecified,,None or Unspecified,None or Unspecified,None or Unspecified,No,Base + 1 Function,None or Unspecified,None or Unspecified,None or Unspecified,None or Unspecified,None or Unspecified,,,,,,,,,,,,,,,
4778,1605880,41000,1446672,132,1.0,1990,,,9/27/2005 0:00,672B,672,B,,,,Motorgrader - 130.0 to 145.0 Horsepower,Colorado,MG,Motor Graders,All Wheel Drive,EROPS,,,,,None or Unspecified,,None or Unspecified,14',None or Unspecified,No,Base + 1 Function,Yes,Yes,None or Unspecified,None or Unspecified,"14""",,,,,,,,,,,,,,,
4778,1606113,38000,1222407,132,4.0,1990,,,2/17/2001 0:00,672B,672,B,,,,Motorgrader - 130.0 to 145.0 Horsepower,Florida,MG,Motor Graders,No,EROPS,,,,,None or Unspecified,,None or Unspecified,None or Unspecified,None or Unspecified,No,Base + 1 Function,None or Unspecified,None or Unspecified,Yes,None or Unspecified,None or Unspecified,,,,,,,,,,,,,,,
4778,1606261,64000,1190250,132,1.0,1991,,,3/11/1998 0:00,672B,672,B,,,,Motorgrader - 130.0 to 145.0 Horsepower,Texas,MG,Motor Graders,All Wheel Drive,EROPS,,,,,None or Unspecified,,None or Unspecified,14',None or Unspecified,No,Base + 1 Function,None or Unspecified,None or Unspecified,None or Unspecified,Sideshift & Tip,"14""",,,,,,,,,,,,,,,
4778,1606262,20000,1190250,132,1.0,1991,,,5/27/2009 0:00,672B,672,B,,,,Motorgrader - 130.0 to 145.0 Horsepower,Florida,MG,Motor Graders,All Wheel Drive,EROPS,,,,,None or Unspecified,,None or Unspecified,14',None or Unspecified,No,Base + 1 Function,None or Unspecified,None or Unspecified,None or Unspecified,Sideshift & Tip,"14""",,,,,,,,,,,,,,,
4778,1606355,64000,1308246,132,1.0,1991,,,3/11/1998 0:00,672B,672,B,,,,Motorgrader - 130.0 to 145.0 Horsepower,Texas,MG,Motor Graders,All Wheel Drive,EROPS w AC,,,,,None or Unspecified,,None or Unspecified,None or Unspecified,None or Unspecified,No,Base + 1 Function,None or Unspecified,None or Unspecified,None or Unspecified,Sideshift & Tip,None or Unspecified,,,,,,,,,,,,,,,
4778,1606356,48000,1314087,132,99.0,1991,,,3/9/2002 0:00,672B,672,B,,,,Motorgrader - 130.0 to 145.0 Horsepower,Oklahoma,MG,Motor Graders,No,EROPS w AC,,,,,Powershift,,None or Unspecified,14',None or Unspecified,No,Base + 1 Function,None or Unspecified,None or Unspecified,Yes,Sideshift & Tip,"14""",,,,,,,,,,,,,,,
4778,1606438,35000,1146779,132,1.0,1992,,,6/20/2002 0:00,672B,672,B,,,,Motorgrader - 130.0 to 145.0 Horsepower,Illinois,MG,Motor Graders,All Wheel Drive,EROPS,,,,,None or Unspecified,,None or Unspecified,14',None or Unspecified,No,Base + 1 Function,None or Unspecified,None or Unspecified,Yes,None or Unspecified,"17.5""",,,,,,,,,,,,,,,
4778,1606439,44000,1146779,132,2.0,1992,,,10/10/1998 0:00,672B,672,B,,,,Motorgrader - 130.0 to 145.0 Horsepower,Florida,MG,Motor Graders,All Wheel Drive,EROPS,,,,,None or Unspecified,,None or Unspecified,14',None or Unspecified,No,Base + 1 Function,None or Unspecified,None or Unspecified,Yes,None or Unspecified,"17.5""",,,,,,,,,,,,,,,
4778,1606505,28000,1218595,132,1.0,1992,,,3/12/2009 0:00,672B,672,B,,,,Motorgrader - 130.0 to 145.0 Horsepower,Illinois,MG,Motor Graders,No,EROPS,,,,,None or Unspecified,,None or Unspecified,None or Unspecified,None or Unspecified,No,Base + 1 Function,None or Unspecified,None or Unspecified,Yes,None or Unspecified,None or Unspecified,,,,,,,,,,,,,,,
4778,1606648,36000,1378238,132,2.0,1992,,,9/26/2007 0:00,672B,672,B,,,,Motorgrader - 130.0 to 145.0 Horsepower,Texas,MG,Motor Graders,All Wheel Drive,EROPS,,,,,None or Unspecified,,None or Unspecified,12',None or Unspecified,No,Base + 1 Function,None or Unspecified,Yes,None or Unspecified,None or Unspecified,None or Unspecified,,,,,,,,,,,,,,,
4778,1606649,38000,1378238,132,99.0,1992,,,10/4/2007 0:00,672B,672,B,,,,Motorgrader - 130.0 to 145.0 Horsepower,Texas,MG,Motor Graders,All Wheel Drive,EROPS,,,,,None or Unspecified,,None or Unspecified,12',None or Unspecified,No,Base + 1 Function,None or Unspecified,Yes,None or Unspecified,None or Unspecified,None or Unspecified,,,,,,,,,,,,,,,
4778,1606650,48000,1378238,132,99.0,1992,,,10/19/2000 0:00,672B,672,B,,,,Motorgrader - 130.0 to 145.0 Horsepower,South Carolina,MG,Motor Graders,All Wheel Drive,EROPS,,,,,None or Unspecified,,None or Unspecified,12',None or Unspecified,No,Base + 1 Function,None or Unspecified,Yes,None or Unspecified,None or Unspecified,None or Unspecified,,,,,,,,,,,,,,,
4778,1606731,51000,1274105,132,1.0,1992,,,9/12/2006 0:00,672B,672,B,,,,Motorgrader - 130.0 to 145.0 Horsepower,California,MG,Motor Graders,No,EROPS,,,,,None or Unspecified,,None or Unspecified,14',None or Unspecified,No,Base + 1 Function,None or Unspecified,Yes,Yes,None or Unspecified,"17.5""",,,,,,,,,,,,,,,
4778,1606778,27000,1112277,132,1.0,1992,,,6/16/2005 0:00,672B,672,B,,,,Motorgrader - 130.0 to 145.0 Horsepower,Texas,MG,Motor Graders,No,EROPS w AC,,,,,None or Unspecified,,None or Unspecified,None or Unspecified,None or Unspecified,No,Base + 1 Function,Yes,Yes,None or Unspecified,None or Unspecified,None or Unspecified,,,,,,,,,,,,,,,
4778,1606925,37000,1328671,132,8.0,1993,,,5/25/2005 0:00,672B,672,B,,,,Motorgrader - 130.0 to 145.0 Horsepower,Mississippi,MG,Motor Graders,No,EROPS,,,,,None or Unspecified,,None or Unspecified,None or Unspecified,None or Unspecified,No,Base + 1 Function,None or Unspecified,Yes,None or Unspecified,None or Unspecified,None or Unspecified,,,,,,,,,,,,,,,
4778,1606962,28000,1120644,132,1.0,1993,,,11/21/2002 0:00,672B,672,B,,,,Motorgrader - 130.0 to 145.0 Horsepower,Arizona,MG,Motor Graders,No,EROPS,,,,,None or Unspecified,,None or Unspecified,14',None or Unspecified,No,Base + 1 Function,None or Unspecified,None or Unspecified,None or Unspecified,None or Unspecified,"14""",,,,,,,,,,,,,,,
4778,1606975,30000,1468697,132,1.0,1993,,,10/13/2005 0:00,672B,672,B,,,,Motorgrader - 130.0 to 145.0 Horsepower,Florida,MG,Motor Graders,No,EROPS,,,,,None or Unspecified,,None or Unspecified,12',None or Unspecified,No,Base + 1 Function,None or Unspecified,None or Unspecified,Yes,None or Unspecified,"17.5""",,,,,,,,,,,,,,,
4778,1607164,21000,1506285,132,1.0,1993,,,5/12/2010 0:00,672B,672,B,,,,Motorgrader - 130.0 to 145.0 Horsepower,Illinois,MG,Motor Graders,No,EROPS,,,,,None or Unspecified,,None or Unspecified,13',None or Unspecified,No,Base + 1 Function,None or Unspecified,None or Unspecified,None or Unspecified,None or Unspecified,"14""",,,,,,,,,,,,,,,
4778,1607287,27000,1390393,132,1.0,1993,,,6/24/2009 0:00,672B,672,B,,,,Motorgrader - 130.0 to 145.0 Horsepower,Maryland,MG,Motor Graders,All Wheel Drive,EROPS w AC,,,,,None or Unspecified,,None or Unspecified,14',None or Unspecified,No,Base + 1 Function,None or Unspecified,Yes,Yes,Sideshift & Tip,"17.5""",,,,,,,,,,,,,,,
4778,1607288,77500,1390393,132,1.0,1993,,,3/14/1996 0:00,672B,672,B,,,,Motorgrader - 130.0 to 145.0 Horsepower,Florida,MG,Motor Graders,All Wheel Drive,EROPS w AC,,,,,None or Unspecified,,None or Unspecified,14',None or Unspecified,No,Base + 1 Function,None or Unspecified,Yes,Yes,Sideshift & Tip,"17.5""",,,,,,,,,,,,,,,
4778,1607305,20000,1174795,132,5.0,1993,,,5/20/2011 0:00,672B,672,B,,,,Motorgrader - 130.0 to 145.0 Horsepower,Ohio,MG,Motor Graders,No,EROPS,,,,,None or Unspecified,,None or Unspecified,None or Unspecified,None or Unspecified,No,Base + 1 Function,None or Unspecified,None or Unspecified,Yes,None or Unspecified,"17.5""",,,,,,,,,,,,,,,
4778,1607608,22500,1268850,132,20.0,1994,,,12/8/2010 0:00,672B,672,B,,,,Motorgrader - 130.0 to 145.0 Horsepower,Arkansas,MG,Motor Graders,All Wheel Drive,EROPS,,,,,Powershift,,None or Unspecified,None or Unspecified,None or Unspecified,No,Base + 1 Function,None or Unspecified,None or Unspecified,None or Unspecified,Sideshift & Tip,None or Unspecified,,,,,,,,,,,,,,,
4778,1607727,43000,1378485,132,1.0,1994,,,12/11/2001 0:00,672B,672,B,,,,Motorgrader - 130.0 to 145.0 Horsepower,North Carolina,MG,Motor Graders,No,EROPS,,,,,None or Unspecified,,None or Unspecified,14',None or Unspecified,No,Base + 1 Function,None or Unspecified,None or Unspecified,Yes,None or Unspecified,"17.5""",,,,,,,,,,,,,,,
4778,1607820,41000,1418168,132,1.0,1994,,,3/13/2002 0:00,672B,672,B,,,,Motorgrader - 130.0 to 145.0 Horsepower,Illinois,MG,Motor Graders,No,EROPS w AC,,,,,None or Unspecified,,None or Unspecified,14',None or Unspecified,No,Base + 1 Function,None or Unspecified,None or Unspecified,Yes,None or Unspecified,None or Unspecified,,,,,,,,,,,,,,,
4778,1607915,20000,1357620,132,1.0,1994,,,6/9/2010 0:00,672B,672,B,,,,Motorgrader - 130.0 to 145.0 Horsepower,Maine,MG,Motor Graders,No,EROPS,,,,,None or Unspecified,,None or Unspecified,14',None or Unspecified,No,Base + 1 Function,None or Unspecified,None or Unspecified,None or Unspecified,None or Unspecified,"14""",,,,,,,,,,,,,,,
4778,1609241,50000,1529514,132,1.0,1996,,,7/12/2006 0:00,672B,672,B,,,,Motorgrader - 130.0 to 145.0 Horsepower,Texas,MG,Motor Graders,No,EROPS w AC,,,,,None or Unspecified,,None or Unspecified,14',None or Unspecified,No,Base + 1 Function,Yes,Yes,None or Unspecified,None or Unspecified,"14""",,,,,,,,,,,,,,,
4778,1637480,16250,1364661,132,4.0,1000,,,2/8/2010 0:00,672B,672,B,,,,Motorgrader - 130.0 to 145.0 Horsepower,Florida,MG,Motor Graders,No,OROPS,,,,,None or Unspecified,,None or Unspecified,None or Unspecified,None or Unspecified,No,Base + 1 Function,None or Unspecified,None or Unspecified,None or Unspecified,None or Unspecified,None or Unspecified,,,,,,,,,,,,,,,
4778,1645265,62500,1507249,132,1.0,1988,,,4/28/1995 0:00,672B,672,B,,,,Motorgrader - 130.0 to 145.0 Horsepower,Wisconsin,MG,Motor Graders,No,EROPS,,,,,None or Unspecified,,None or Unspecified,None or Unspecified,None or Unspecified,No,Base + 1 Function,None or Unspecified,None or Unspecified,None or Unspecified,Sideshift & Tip,None or Unspecified,,,,,,,,,,,,,,,
4778,1645266,37000,1211386,132,1.0,1989,,,6/11/1999 0:00,672B,672,B,,,,Motorgrader - 130.0 to 145.0 Horsepower,California,MG,Motor Graders,All Wheel Drive,EROPS,,,,,None or Unspecified,,None or Unspecified,14',None or Unspecified,No,Base + 1 Function,None or Unspecified,Yes,Yes,None or Unspecified,"14""",,,,,,,,,,,,,,,
4778,2328867,11500,1646803,136,,1000,0.0,,4/2/2009 0:00,672B,672,B,,,,Motorgrader - 130.0 to 145.0 Horsepower,Mississippi,MG,Motor Graders,No,OROPS,,,,,None or Unspecified,,None or Unspecified,None or Unspecified,None or Unspecified,No,Base + 1 Function,None or Unspecified,None or Unspecified,None or Unspecified,None or Unspecified,None or Unspecified,,,,,,,,,,,,,,,
4778,2330724,34500,1312141,136,1.0,1000,0.0,,7/11/2007 0:00,672B,672,B,,,,Motorgrader - 130.0 to 145.0 Horsepower,Mississippi,MG,Motor Graders,No,EROPS,,,,,None or Unspecified,,None or Unspecified,None or Unspecified,None or Unspecified,No,Base + 1 Function,None or Unspecified,None or Unspecified,None or Unspecified,None or Unspecified,None or Unspecified,,,,,,,,,,,,,,,
4778,2331667,23000,1078425,136,5.0,1987,0.0,,11/9/2007 0:00,672B,672,B,,,,Motorgrader - 130.0 to 145.0 Horsepower,Connecticut,MG,Motor Graders,No,EROPS,,,,,None or Unspecified,,None or Unspecified,12',None or Unspecified,No,Base + 1 Function,None or Unspecified,None or Unspecified,Yes,None or Unspecified,None or Unspecified,,,,,,,,,,,,,,,
4778,2331744,24500,1469427,136,8.0,1989,0.0,,9/18/2008 0:00,672B,672,B,,,,Motorgrader - 130.0 to 145.0 Horsepower,Mississippi,MG,Motor Graders,All Wheel Drive,EROPS,,,,,None or Unspecified,,None or Unspecified,None or Unspecified,None or Unspecified,No,Base + 1 Function,None or Unspecified,None or Unspecified,None or Unspecified,Tip,"14""",,,,,,,,,,,,,,,
4778,2331771,45000,1673654,136,,1989,0.0,,3/7/2008 0:00,672B,672,B,,,,Motorgrader - 130.0 to 145.0 Horsepower,Oklahoma,MG,Motor Graders,All Wheel Drive,EROPS w AC,,,,,None or Unspecified,,None or Unspecified,14',None or Unspecified,No,Base + 1 Function,None or Unspecified,None or Unspecified,Yes,Sideshift & Tip,None or Unspecified,,,,,,,,,,,,,,,
4778,2331787,27500,1316449,136,5.0,1990,0.0,,5/16/2008 0:00,672B,672,B,,,,Motorgrader - 130.0 to 145.0 Horsepower,Ohio,MG,Motor Graders,No,EROPS,,,,,None or Unspecified,,None or Unspecified,12',None or Unspecified,No,Base + 1 Function,None or Unspecified,None or Unspecified,Yes,Sideshift & Tip,"14""",,,,,,,,,,,,,,,
4778,2331788,34500,1316449,136,2.0,1990,0.0,,6/4/2008 0:00,672B,672,B,,,,Motorgrader - 130.0 to 145.0 Horsepower,Texas,MG,Motor Graders,No,EROPS,,,,,None or Unspecified,,None or Unspecified,12',None or Unspecified,No,Base + 1 Function,None or Unspecified,None or Unspecified,Yes,Sideshift & Tip,"14""",,,,,,,,,,,,,,,
4778,2333281,26500,1694645,136,,1991,0.0,,11/12/2008 0:00,672B,672,B,,,,Motorgrader - 130.0 to 145.0 Horsepower,Texas,MG,Motor Graders,No,OROPS,,,,,None or Unspecified,,None or Unspecified,None or Unspecified,None or Unspecified,No,Base + 1 Function,None or Unspecified,None or Unspecified,None or Unspecified,None or Unspecified,None or Unspecified,,,,,,,,,,,,,,,
4778,2340306,28000,1766969,136,,1986,435300.0,High,3/27/2009 0:00,672B,672,B,,,,Motorgrader - 130.0 to 145.0 Horsepower,California,MG,Motor Graders,No,OROPS,,,,,None or Unspecified,,None or Unspecified,None or Unspecified,None or Unspecified,No,Base + 1 Function,None or Unspecified,None or Unspecified,None or Unspecified,None or Unspecified,None or Unspecified,,,,,,,,,,,,,,,
4778,2340307,36000,1647385,136,,1987,0.0,,2/11/2008 0:00,672B,672,B,,,,Motorgrader - 130.0 to 145.0 Horsepower,Florida,MG,Motor Graders,All Wheel Drive,EROPS w AC,,,,,None or Unspecified,,None or Unspecified,14',None or Unspecified,No,Base + 1 Function,None or Unspecified,None or Unspecified,Yes,None or Unspecified,None or Unspecified,,,,,,,,,,,,,,,
4778,2340308,26000,1652053,136,1.0,1988,0.0,,5/13/2009 0:00,672B,672,B,,,,Motorgrader - 130.0 to 145.0 Horsepower,Illinois,MG,Motor Graders,All Wheel Drive,EROPS,,,,,None or Unspecified,,None or Unspecified,12',None or Unspecified,No,Base + 1 Function,None or Unspecified,None or Unspecified,Yes,None or Unspecified,None or Unspecified,,,,,,,,,,,,,,,
4778,2340309,20000,1753182,136,4.0,1988,0.0,,2/8/2010 0:00,672B,672,B,,,,Motorgrader - 130.0 to 145.0 Horsepower,Florida,MG,Motor Graders,No,EROPS w AC,,,,,None or Unspecified,,None or Unspecified,None or Unspecified,None or Unspecified,No,Base + 1 Function,None or Unspecified,None or Unspecified,None or Unspecified,None or Unspecified,None or Unspecified,,,,,,,,,,,,,,,
4778,2340312,19000,1717488,136,,1988,0.0,,6/27/2007 0:00,672B,672,B,,,,Motorgrader - 130.0 to 145.0 Horsepower,Georgia,MG,Motor Graders,No,OROPS,,,,,None or Unspecified,,None or Unspecified,14',None or Unspecified,No,Base + 1 Function,None or Unspecified,None or Unspecified,Yes,None or Unspecified,None or Unspecified,,,,,,,,,,,,,,,
4778,2340313,30000,1645994,136,,1000,0.0,,10/27/2009 0:00,672B,672,B,,,,Motorgrader - 130.0 to 145.0 Horsepower,New Mexico,MG,Motor Graders,All Wheel Drive,EROPS w AC,,,,,None or Unspecified,,None or Unspecified,14',None or Unspecified,No,Base + 1 Function,None or Unspecified,None or Unspecified,Yes,None or Unspecified,None or Unspecified,,,,,,,,,,,,,,,
4778,2340314,25000,1777574,136,1.0,1989,0.0,,6/17/2008 0:00,672B,672,B,,,,Motorgrader - 130.0 to 145.0 Horsepower,Ohio,MG,Motor Graders,No,OROPS,,,,,None or Unspecified,,None or Unspecified,None or Unspecified,None or Unspecified,No,Base + 1 Function,None or Unspecified,None or Unspecified,None or Unspecified,None or Unspecified,None or Unspecified,,,,,,,,,,,,,,,
4778,2340315,34500,1672268,136,,1990,0.0,,6/4/2008 0:00,672B,672,B,,,,Motorgrader - 130.0 to 145.0 Horsepower,Texas,MG,Motor Graders,No,EROPS,,,,,None or Unspecified,,None or Unspecified,14',None or Unspecified,No,Base + 1 Function,None or Unspecified,None or Unspecified,Yes,Sideshift & Tip,None or Unspecified,,,,,,,,,,,,,,,
4778,2340316,28000,1745944,136,1.0,1992,0.0,,3/12/2009 0:00,672B,672,B,,,,Motorgrader - 130.0 to 145.0 Horsepower,Illinois,MG,Motor Graders,All Wheel Drive,EROPS,,,,,None or Unspecified,,None or Unspecified,12',None or Unspecified,No,Base + 1 Function,None or Unspecified,None or Unspecified,Yes,None or Unspecified,None or Unspecified,,,,,,,,,,,,,,,
4778,2340318,36000,1702380,136,,1992,0.0,,9/26/2007 0:00,672B,672,B,,,,Motorgrader - 130.0 to 145.0 Horsepower,Texas,MG,Motor Graders,All Wheel Drive,EROPS,,,,,None or Unspecified,,None or Unspecified,12',None or Unspecified,No,Base + 1 Function,None or Unspecified,Yes,None or Unspecified,None or Unspecified,None or Unspecified,,,,,,,,,,,,,,,
4778,2340319,38000,1702380,136,,1992,4456.0,Low,10/4/2007 0:00,672B,672,B,,,,Motorgrader - 130.0 to 145.0 Horsepower,Texas,MG,Motor Graders,All Wheel Drive,EROPS,,,,,None or Unspecified,,None or Unspecified,12',None or Unspecified,No,Base + 1 Function,None or Unspecified,Yes,None or Unspecified,None or Unspecified,None or Unspecified,,,,,,,,,,,,,,,
4778,2340320,27000,1670850,136,1.0,1000,0.0,,6/24/2009 0:00,672B,672,B,,,,Motorgrader - 130.0 to 145.0 Horsepower,Maryland,MG,Motor Graders,No,EROPS,,,,,None or Unspecified,,None or Unspecified,14',None or Unspecified,No,Base + 1 Function,None or Unspecified,Yes,Yes,None or Unspecified,None or Unspecified,,,,,,,,,,,,,,,
4778,2340322,34000,1024376,136,,1994,0.0,,12/18/2008 0:00,672B,672,B,,,,Motorgrader - 130.0 to 145.0 Horsepower,California,MG,Motor Graders,All Wheel Drive,EROPS,,,,,Powershift,,None or Unspecified,None or Unspecified,None or Unspecified,No,Base + 1 Function,None or Unspecified,None or Unspecified,Yes,None or Unspecified,"17.5""",,,,,,,,,,,,,,,
4778,2340323,20000,1675120,136,1.0,1000,0.0,,6/9/2010 0:00,672B,672,B,,,,Motorgrader - 130.0 to 145.0 Horsepower,Michigan,MG,Motor Graders,All Wheel Drive,EROPS,,,,,None or Unspecified,,None or Unspecified,14',None or Unspecified,No,Base + 1 Function,None or Unspecified,None or Unspecified,None or Unspecified,None or Unspecified,"14""",,,,,,,,,,,,,,,
4778,2346445,20000,1683297,136,1.0,1000,0.0,,5/27/2009 0:00,672B,672,B,,,,Motorgrader - 130.0 to 145.0 Horsepower,Florida,MG,Motor Graders,No,EROPS,,,,,None or Unspecified,,None or Unspecified,14',None or Unspecified,No,Base + 1 Function,None or Unspecified,None or Unspecified,None or Unspecified,None or Unspecified,"14""",,,,,,,,,,,,,,,
4778,2635521,22000,1879711,149,1.0,1987,0.0,,8/24/2010 0:00,672B,672,B,,,,Motorgrader - 130.0 to 145.0 Horsepower,Maryland,MG,Motor Graders,No,OROPS,,,,,None or Unspecified,,None or Unspecified,12',None or Unspecified,No,Base + 1 Function,None or Unspecified,Yes,None or Unspecified,None or Unspecified,"14""",,,,,,,,,,,,,,,
4778,2635522,22000,1927820,149,99.0,1987,0.0,,12/17/2010 0:00,672B,672,B,,,,Motorgrader - 130.0 to 145.0 Horsepower,California,MG,Motor Graders,No,EROPS,,,,,None or Unspecified,,None or Unspecified,12',None or Unspecified,No,Base + 1 Function,None or Unspecified,None or Unspecified,None or Unspecified,None or Unspecified,None or Unspecified,,,,,,,,,,,,,,,
4778,2635526,23500,1802982,149,99.0,1990,0.0,,9/18/2010 0:00,672B,672,B,,,,Motorgrader - 130.0 to 145.0 Horsepower,California,MG,Motor Graders,No,OROPS,,,,,None or Unspecified,,None or Unspecified,None or Unspecified,None or Unspecified,No,Base + 1 Function,None or Unspecified,Yes,None or Unspecified,None or Unspecified,None or Unspecified,,,,,,,,,,,,,,,
4778,2635527,21000,1912703,149,1.0,1993,16077.0,Medium,5/12/2010 0:00,672B,672,B,,,,Motorgrader - 130.0 to 145.0 Horsepower,Illinois,MG,Motor Graders,All Wheel Drive,EROPS,,,,,None or Unspecified,,None or Unspecified,13',None or Unspecified,No,Base + 1 Function,None or Unspecified,None or Unspecified,None or Unspecified,None or Unspecified,"14""",,,,,,,,,,,,,,,
4778,2635529,20000,1941111,149,5.0,1993,8477.0,Low,5/20/2011 0:00,672B,672,B,,,,Motorgrader - 130.0 to 145.0 Horsepower,Ohio,MG,Motor Graders,No,EROPS,,,,,None or Unspecified,,None or Unspecified,13',None or Unspecified,No,Base + 1 Function,None or Unspecified,None or Unspecified,Yes,None or Unspecified,"17.5""",,,,,,,,,,,,,,,
4778,4312887,26000,2297103,172,1.0,1989,7377.0,Low,6/2/2009 0:00,672B,672,B,,,,Motorgrader - 130.0 to 145.0 Horsepower,Idaho,MG,Motor Graders,No,EROPS,,,,,None or Unspecified,,None or Unspecified,12',None or Unspecified,No,Base + 1 Function,None or Unspecified,Yes,Yes,None or Unspecified,"14""",,,,,,,,,,,,,,,
4778,4312892,35000,2304986,172,1.0,1993,10392.0,Medium,10/17/2011 0:00,672B,672,B,,,,Motorgrader - 130.0 to 145.0 Horsepower,Maryland,MG,Motor Graders,No,EROPS w AC,,,,,None or Unspecified,,None or Unspecified,13',None or Unspecified,No,Base + 1 Function,None or Unspecified,None or Unspecified,Yes,None or Unspecified,"14""",,,,,,,,,,,,,,,
4778,6284082,35000,1849514,149,1.0,1993,,,10/18/2011 0:00,672B,672,B,,,,Motorgrader - 130.0 to 145.0 Horsepower,Maryland,MG,Motor Graders,No,EROPS w AC,,,,,None or Unspecified,,None or Unspecified,13',None or Unspecified,No,Base + 1 Function,None or Unspecified,None or Unspecified,Yes,None or Unspecified,"14""",,,,,,,,,,,,,,,
