ModelID,SalesID,SalePrice,MachineID,datasource,auctioneerID,YearMade,MachineHoursCurrentMeter,UsageBand,saledate,fiModelDesc,fiBaseModel,fiSecondaryDesc,fiModelSeries,fiModelDescriptor,ProductSize,fiProductClassDesc,state,ProductGroup,ProductGroupDesc,Drive_System,Enclosure,Forks,Pad_Type,Ride_Control,Stick,Transmission,Turbocharged,Blade_Extension,Blade_Width,Enclosure_Type,Engine_Horsepower,Hydraulics,Pushblock,Ripper,Scarifier,Tip_Control,Tire_Size,Coupler,Coupler_System,Grouser_Tracks,Hydraulics_Flow,Track_Type,Undercarriage_Pad_Width,Stick_Length,Thumb,Pattern_Changer,Grouser_Type,Backhoe_Mounting,Blade_Type,Travel_Controls,Differential_Type,Steering_Controls
4784,1141635,24500,1069096,121,3.0,1996,5537.0,Medium,12/18/2008 0:00,690E,690,E,,,Large / Medium,"Hydraulic Excavator, Track - 24.0 to 28.0 Metric Tons",Illinois,TEX,Track Excavators,,EROPS,,,,,,,,,,,Standard,,,,,,None or Unspecified,,,,Steel,None or Unspecified,None or Unspecified,None or Unspecified,None or Unspecified,Double,,,,,
4784,1155641,38500,1047310,121,3.0,1997,5389.0,Medium,5/3/2007 0:00,690E,690,E,,,Large / Medium,"Hydraulic Excavator, Track - 24.0 to 28.0 Metric Tons",Arizona,TEX,Track Excavators,,EROPS,,,,,,,,,,,Standard,,,,,,Manual,,,,Steel,None or Unspecified,None or Unspecified,Hydraulic,None or Unspecified,Double,,,,,
4784,1163457,28500,1029382,121,3.0,1995,11918.0,Medium,1/31/2008 0:00,690E,690,E,,,Large / Medium,"Hydraulic Excavator, Track - 24.0 to 28.0 Metric Tons",Idaho,TEX,Track Excavators,,EROPS,,,,,,,,,,,Standard,,,,,,Manual,,,,Steel,None or Unspecified,None or Unspecified,Hydraulic,None or Unspecified,Double,,,,,
4784,1165794,13000,1054725,121,3.0,1996,8341.0,Medium,7/24/2008 0:00,690E,690,E,,,Large / Medium,"Hydraulic Excavator, Track - 24.0 to 28.0 Metric Tons",North Carolina,TEX,Track Excavators,,EROPS,,,,,,,,,,,Standard,,,,,,None or Unspecified,,,,Steel,None or Unspecified,None or Unspecified,Manual,None or Unspecified,Double,,,,,
4784,1214701,15500,1041175,121,3.0,1000,9378.0,Low,6/23/2011 0:00,690E,690,E,,,Large / Medium,"Hydraulic Excavator, Track - 24.0 to 28.0 Metric Tons",Kentucky,TEX,Track Excavators,,EROPS,,,,,,,,,,,Auxiliary,,,,,,None or Unspecified,,,,Steel,26 inch,"9' 6""",None or Unspecified,None or Unspecified,Double,,,,,
4784,1606480,32000,1079986,132,1.0,1992,,,3/1/2006 0:00,690E,690,E,,,Large / Medium,"Hydraulic Excavator, Track - 24.0 to 28.0 Metric Tons",Texas,TEX,Track Excavators,,EROPS,,,,,,,,,,,Auxiliary,,,,,,None or Unspecified,,,,Steel,None or Unspecified,None or Unspecified,None or Unspecified,None or Unspecified,Double,,,,,
4784,1606619,18000,1354601,132,2.0,1992,,,2/6/2009 0:00,690E,690,E,,,Large / Medium,"Hydraulic Excavator, Track - 24.0 to 28.0 Metric Tons",Florida,TEX,Track Excavators,,EROPS,,,,,,,,,,,Standard,,,,,,None or Unspecified,,,,Steel,32 inch,"9' 6""",Manual,None or Unspecified,Double,,,,,
4784,1606627,37000,1091899,132,1.0,1992,,,6/6/2006 0:00,690E,690,E,,,Large / Medium,"Hydraulic Excavator, Track - 24.0 to 28.0 Metric Tons",Missouri,TEX,Track Excavators,,EROPS,,,,,,,,,,,Standard,,,,,,None or Unspecified,,,,Steel,None or Unspecified,"9' 6""",None or Unspecified,None or Unspecified,Double,,,,,
4784,1606647,15000,1302113,132,1.0,1992,,,12/6/2007 0:00,690E,690,E,,,Large / Medium,"Hydraulic Excavator, Track - 24.0 to 28.0 Metric Tons",Texas,TEX,Track Excavators,,EROPS,,,,,,,,,,,Standard,,,,,,None or Unspecified,,,,Steel,None or Unspecified,"9' 6""",None or Unspecified,None or Unspecified,Double,,,,,
4784,1606769,27000,1170375,132,1.0,1992,,,8/30/2006 0:00,690E,690,E,,,Large / Medium,"Hydraulic Excavator, Track - 24.0 to 28.0 Metric Tons",Georgia,TEX,Track Excavators,,EROPS,,,,,,,,,,,Standard,,,,,,None or Unspecified,,,,Steel,None or Unspecified,"9' 6""",None or Unspecified,None or Unspecified,Double,,,,,
4784,1606804,29000,1270872,132,2.0,1992,,,9/15/2004 0:00,690E,690,E,,,Large / Medium,"Hydraulic Excavator, Track - 24.0 to 28.0 Metric Tons",Texas,TEX,Track Excavators,,EROPS,,,,,,,,,,,Standard,,,,,,None or Unspecified,,,,Steel,None or Unspecified,None or Unspecified,None or Unspecified,None or Unspecified,Double,,,,,
4784,1606822,19500,1387879,132,22.0,1992,,,10/14/2004 0:00,690E,690,E,,,Large / Medium,"Hydraulic Excavator, Track - 24.0 to 28.0 Metric Tons",Wisconsin,TEX,Track Excavators,,EROPS,,,,,,,,,,,Standard,,,,,,None or Unspecified,,,,Steel,None or Unspecified,None or Unspecified,Manual,None or Unspecified,Double,,,,,
4784,1606896,29000,1471230,132,1.0,1993,,,6/21/2006 0:00,690E,690,E,,,Large / Medium,"Hydraulic Excavator, Track - 24.0 to 28.0 Metric Tons",Maryland,TEX,Track Excavators,,EROPS,,,,,,,,,,,Auxiliary,,,,,,None or Unspecified,,,,Steel,None or Unspecified,None or Unspecified,None or Unspecified,None or Unspecified,Double,,,,,
4784,1606985,35000,1430512,132,1.0,1993,,,8/24/2006 0:00,690E,690,E,,,Large / Medium,"Hydraulic Excavator, Track - 24.0 to 28.0 Metric Tons",Texas,TEX,Track Excavators,,EROPS,,,,,,,,,,,Standard,,,,,,None or Unspecified,,,,Steel,None or Unspecified,None or Unspecified,None or Unspecified,None or Unspecified,Double,,,,,
4784,1607046,64000,1349457,132,1.0,1993,,,4/3/1997 0:00,690E,690,E,,,Large / Medium,"Hydraulic Excavator, Track - 24.0 to 28.0 Metric Tons",Georgia,TEX,Track Excavators,,EROPS,,,,,,,,,,,Standard,,,,,,None or Unspecified,,,,Steel,None or Unspecified,None or Unspecified,None or Unspecified,None or Unspecified,Double,,,,,
4784,1607208,22500,1338663,132,1.0,1993,,,5/20/2005 0:00,690E,690,E,,,Large / Medium,"Hydraulic Excavator, Track - 24.0 to 28.0 Metric Tons",Missouri,TEX,Track Excavators,,EROPS,,,,,,,,,,,Standard,,,,,,None or Unspecified,,,,Steel,None or Unspecified,"9' 6""",None or Unspecified,None or Unspecified,Double,,,,,
4784,1607234,76000,1539072,132,2.0,1993,,,10/21/1995 0:00,690E,690,E,,,Large / Medium,"Hydraulic Excavator, Track - 24.0 to 28.0 Metric Tons",New York,TEX,Track Excavators,,EROPS,,,,,,,,,,,Standard,,,,,,None or Unspecified,,,,Steel,None or Unspecified,None or Unspecified,None or Unspecified,None or Unspecified,Double,,,,,
4784,1607293,33000,1284296,132,1.0,1993,,,9/25/2001 0:00,690E,690,E,,,Large / Medium,"Hydraulic Excavator, Track - 24.0 to 28.0 Metric Tons",Washington,TEX,Track Excavators,,EROPS,,,,,,,,,,,Standard,,,,,,None or Unspecified,,,,Steel,None or Unspecified,None or Unspecified,None or Unspecified,None or Unspecified,Double,,,,,
4784,1607384,43000,1435454,132,1.0,1993,,,3/17/2005 0:00,690E,690,E,,,Large / Medium,"Hydraulic Excavator, Track - 24.0 to 28.0 Metric Tons",Colorado,TEX,Track Excavators,,EROPS,,,,,,,,,,,Auxiliary,,,,,,None or Unspecified,,,,Steel,None or Unspecified,"9' 8""",None or Unspecified,None or Unspecified,Double,,,,,
4784,1607460,45000,1394939,132,1.0,1994,,,3/21/2007 0:00,690E,690,E,,,Large / Medium,"Hydraulic Excavator, Track - 24.0 to 28.0 Metric Tons",Washington,TEX,Track Excavators,,EROPS,,,,,,,,,,,Standard,,,,,,None or Unspecified,,,,Steel,None or Unspecified,"9' 6""",Hydraulic,None or Unspecified,Double,,,,,
4784,1607600,20000,1192560,132,99.0,1994,6772.0,Medium,3/26/2009 0:00,690E,690,E,,,Large / Medium,"Hydraulic Excavator, Track - 24.0 to 28.0 Metric Tons",Minnesota,TEX,Track Excavators,,EROPS,,,,,,,,,,,Standard,,,,,,None or Unspecified,,,,Steel,30 inch,"9' 6""",None or Unspecified,None or Unspecified,Double,,,,,
4784,1607786,21500,1191968,132,4.0,1994,,,2/10/2011 0:00,690E,690,E,,,Large / Medium,"Hydraulic Excavator, Track - 24.0 to 28.0 Metric Tons",Florida,TEX,Track Excavators,,EROPS,,,,,,,,,,,Standard,,,,,,None or Unspecified,,,,Steel,None or Unspecified,None or Unspecified,None or Unspecified,None or Unspecified,Double,,,,,
4784,1607829,25500,1126159,132,2.0,1994,,,6/16/2004 0:00,690E,690,E,,,Large / Medium,"Hydraulic Excavator, Track - 24.0 to 28.0 Metric Tons",Texas,TEX,Track Excavators,,EROPS,,,,,,,,,,,Standard,,,,,,None or Unspecified,,,,Steel,None or Unspecified,None or Unspecified,Manual,None or Unspecified,Double,,,,,
4784,1607972,20000,1486774,132,1.0,1994,,,5/9/2006 0:00,690E,690,E,,,Large / Medium,"Hydraulic Excavator, Track - 24.0 to 28.0 Metric Tons",Texas,TEX,Track Excavators,,EROPS,,,,,,,,,,,Standard,,,,,,None or Unspecified,,,,Steel,None or Unspecified,"9' 6""",None or Unspecified,None or Unspecified,Double,,,,,
4784,1608165,28000,1095618,132,1.0,1995,,,12/15/2004 0:00,690E,690,E,,,Large / Medium,"Hydraulic Excavator, Track - 24.0 to 28.0 Metric Tons",Maryland,TEX,Track Excavators,,EROPS,,,,,,,,,,,Standard,,,,,,None or Unspecified,,,,Steel,None or Unspecified,"9' 6""",Manual,None or Unspecified,Double,,,,,
4784,1608285,38000,1272922,132,1.0,1995,,,3/25/2004 0:00,690E,690,E,,,Large / Medium,"Hydraulic Excavator, Track - 24.0 to 28.0 Metric Tons",Colorado,TEX,Track Excavators,,EROPS,,,,,,,,,,,Standard,,,,,,None or Unspecified,,,,Steel,None or Unspecified,"9' 6""",None or Unspecified,None or Unspecified,Double,,,,,
4784,1608336,28000,1385902,132,1.0,1995,,,5/9/2006 0:00,690E,690,E,,,Large / Medium,"Hydraulic Excavator, Track - 24.0 to 28.0 Metric Tons",Texas,TEX,Track Excavators,,EROPS,,,,,,,,,,,Standard,,,,,,None or Unspecified,,,,Steel,None or Unspecified,"9' 6""",None or Unspecified,None or Unspecified,Double,,,,,
4784,1608400,15000,1135044,132,1.0,1995,,,9/23/2008 0:00,690E,690,E,,,Large / Medium,"Hydraulic Excavator, Track - 24.0 to 28.0 Metric Tons",Ohio,TEX,Track Excavators,,EROPS,,,,,,,,,,,Standard,,,,,,None or Unspecified,,,,Steel,None or Unspecified,"9' 7""",None or Unspecified,None or Unspecified,Double,,,,,
4784,1608545,38000,1558006,132,1.0,1996,,,5/19/2004 0:00,690E,690,E,,,Large / Medium,"Hydraulic Excavator, Track - 24.0 to 28.0 Metric Tons",Missouri,TEX,Track Excavators,,EROPS,,,,,,,,,,,Standard,,,,,,None or Unspecified,,,,Steel,None or Unspecified,"9' 6""",None or Unspecified,None or Unspecified,Double,,,,,
4784,1608582,17000,1327516,132,1.0,1995,,,5/28/2009 0:00,690E,690,E,,,Large / Medium,"Hydraulic Excavator, Track - 24.0 to 28.0 Metric Tons",Missouri,TEX,Track Excavators,,EROPS,,,,,,,,,,,Auxiliary,,,,,,None or Unspecified,,,,Steel,None or Unspecified,None or Unspecified,None or Unspecified,None or Unspecified,Double,,,,,
4784,1608590,15500,1514526,132,3.0,1995,,,6/23/2011 0:00,690E,690,E,,,Large / Medium,"Hydraulic Excavator, Track - 24.0 to 28.0 Metric Tons",California,TEX,Track Excavators,,EROPS,,,,,,,,,,,Auxiliary,,,,,,None or Unspecified,,,,Steel,None or Unspecified,"9' 6""",None or Unspecified,None or Unspecified,Double,,,,,
4784,1608596,14000,1079460,132,1.0,1995,,,6/17/2008 0:00,690E,690,E,,,Large / Medium,"Hydraulic Excavator, Track - 24.0 to 28.0 Metric Tons",Washington,TEX,Track Excavators,,EROPS,,,,,,,,,,,Standard,,,,,,None or Unspecified,,,,Steel,None or Unspecified,"9' 6""",None or Unspecified,None or Unspecified,Double,,,,,
4784,1608609,40000,1429306,132,12.0,1995,,,3/20/2001 0:00,690E,690,E,,,Large / Medium,"Hydraulic Excavator, Track - 24.0 to 28.0 Metric Tons",South Carolina,TEX,Track Excavators,,EROPS,,,,,,,,,,,Standard,,,,,,None or Unspecified,,,,Steel,None or Unspecified,None or Unspecified,None or Unspecified,None or Unspecified,Double,,,,,
4784,1608624,36000,1259964,132,1.0,1995,,,9/24/2008 0:00,690E,690,E,,,Large / Medium,"Hydraulic Excavator, Track - 24.0 to 28.0 Metric Tons",Texas,TEX,Track Excavators,,EROPS,,,,,,,,,,,Standard,,,,,,None or Unspecified,,,,Steel,None or Unspecified,"9' 6""",None or Unspecified,None or Unspecified,Double,,,,,
4784,1608708,33500,1137800,132,2.0,1995,,,3/31/2005 0:00,690E,690,E,,,Large / Medium,"Hydraulic Excavator, Track - 24.0 to 28.0 Metric Tons",New Jersey,TEX,Track Excavators,,EROPS,,,,,,,,,,,Auxiliary,,,,,,None or Unspecified,,,,Steel,None or Unspecified,None or Unspecified,None or Unspecified,None or Unspecified,Double,,,,,
4784,1608713,18000,1193692,132,2.0,1995,,,2/6/2009 0:00,690E,690,E,,,Large / Medium,"Hydraulic Excavator, Track - 24.0 to 28.0 Metric Tons",Florida,TEX,Track Excavators,,EROPS,,,,,,,,,,,Standard,,,,,,None or Unspecified,,,,Steel,32 inch,"9' 6""",Manual,None or Unspecified,Double,,,,,
4784,1608862,14500,1447551,132,1.0,1996,,,3/27/2009 0:00,690E,690,E,,,Large / Medium,"Hydraulic Excavator, Track - 24.0 to 28.0 Metric Tons",California,TEX,Track Excavators,,EROPS w AC,,,,,,,,,,,Standard,,,,,,None or Unspecified,,,,Steel,None or Unspecified,"9' 6""",None or Unspecified,None or Unspecified,Double,,,,,
4784,1608866,48000,1182067,132,1.0,1996,,,3/11/2008 0:00,690E,690,E,,,Large / Medium,"Hydraulic Excavator, Track - 24.0 to 28.0 Metric Tons",Colorado,TEX,Track Excavators,,EROPS,,,,,,,,,,,Standard,,,,,,Manual,,,,Steel,None or Unspecified,"9' 8""",None or Unspecified,None or Unspecified,Double,,,,,
4784,1609001,14000,1101237,132,1.0,1000,,,3/4/2010 0:00,690E,690,E,,,Large / Medium,"Hydraulic Excavator, Track - 24.0 to 28.0 Metric Tons",Washington,TEX,Track Excavators,,EROPS,,,,,,,,,,,Standard,,,,,,None or Unspecified,,,,Steel,None or Unspecified,None or Unspecified,None or Unspecified,None or Unspecified,Double,,,,,
4784,1609012,32000,1457244,132,7.0,1996,,,10/21/2004 0:00,690E,690,E,,,Large / Medium,"Hydraulic Excavator, Track - 24.0 to 28.0 Metric Tons",South Carolina,TEX,Track Excavators,,EROPS w AC,,,,,,,,,,,Standard,,,,,,None or Unspecified,,,,Steel,32 inch,"9' 6""",Manual,None or Unspecified,Triple,,,,,
4784,1609044,12500,1288519,132,1.0,1996,,,3/24/2010 0:00,690E,690,E,,,Large / Medium,"Hydraulic Excavator, Track - 24.0 to 28.0 Metric Tons",Texas,TEX,Track Excavators,,EROPS,,,,,,,,,,,Standard,,,,,,None or Unspecified,,,,Steel,None or Unspecified,"9' 6""",None or Unspecified,None or Unspecified,Double,,,,,
4784,1609200,39000,1176090,132,1.0,1996,,,5/27/2004 0:00,690E,690,E,,,Large / Medium,"Hydraulic Excavator, Track - 24.0 to 28.0 Metric Tons",Florida,TEX,Track Excavators,,EROPS,,,,,,,,,,,Auxiliary,,,,,,None or Unspecified,,,,Steel,None or Unspecified,None or Unspecified,None or Unspecified,None or Unspecified,Double,,,,,
4784,1609215,45000,1283134,132,1.0,1996,,,3/21/2007 0:00,690E,690,E,,,Large / Medium,"Hydraulic Excavator, Track - 24.0 to 28.0 Metric Tons",Washington,TEX,Track Excavators,,EROPS,,,,,,,,,,,Standard,,,,,,None or Unspecified,,,,Steel,None or Unspecified,"9' 8""",Hydraulic,None or Unspecified,Double,,,,,
4784,1609315,25000,1410298,132,1.0,1996,10589.0,Medium,5/11/2011 0:00,690E,690,E,,,Large / Medium,"Hydraulic Excavator, Track - 24.0 to 28.0 Metric Tons",Texas,TEX,Track Excavators,,EROPS w AC,,,,,,,,,,,Auxiliary,,,,,,None or Unspecified,,,,Steel,None or Unspecified,"9' 6""",None or Unspecified,None or Unspecified,Double,,,,,
4784,1609658,25000,1158514,132,1.0,1997,,,6/23/2004 0:00,690E,690,E,,,Large / Medium,"Hydraulic Excavator, Track - 24.0 to 28.0 Metric Tons",Washington,TEX,Track Excavators,,EROPS,,,,,,,,,,,Standard,,,,,,None or Unspecified,,,,Steel,None or Unspecified,None or Unspecified,None or Unspecified,None or Unspecified,Double,,,,,
4784,1609882,37000,1520110,132,1.0,1997,,,12/8/2005 0:00,690E,690,E,,,Large / Medium,"Hydraulic Excavator, Track - 24.0 to 28.0 Metric Tons",Texas,TEX,Track Excavators,,EROPS,,,,,,,,,,,Standard,,,,,,None or Unspecified,,,,Steel,None or Unspecified,"9' 6""",None or Unspecified,None or Unspecified,Double,,,,,
4784,1609919,38500,1102443,132,3.0,1997,,,5/3/2007 0:00,690E,690,E,,,Large / Medium,"Hydraulic Excavator, Track - 24.0 to 28.0 Metric Tons",California,TEX,Track Excavators,,EROPS,,,,,,,,,,,Standard,,,,,,None or Unspecified,,,,Steel,None or Unspecified,None or Unspecified,Hydraulic,None or Unspecified,Double,,,,,
4784,1610042,18500,1524377,132,1.0,1997,,,3/29/2011 0:00,690E,690,E,,,Large / Medium,"Hydraulic Excavator, Track - 24.0 to 28.0 Metric Tons",Maryland,TEX,Track Excavators,,EROPS w AC,,,,,,,,,,,Standard,,,,,,None or Unspecified,,,,Steel,None or Unspecified,None or Unspecified,None or Unspecified,None or Unspecified,Double,,,,,
4784,1610043,16500,1524377,132,1.0,1997,,,9/29/2010 0:00,690E,690,E,,,Large / Medium,"Hydraulic Excavator, Track - 24.0 to 28.0 Metric Tons",Texas,TEX,Track Excavators,,EROPS w AC,,,,,,,,,,,Standard,,,,,,None or Unspecified,,,,Steel,None or Unspecified,None or Unspecified,None or Unspecified,None or Unspecified,Double,,,,,
4784,1610136,28000,1218134,132,2.0,1997,,,2/1/2004 0:00,690E,690,E,,,Large / Medium,"Hydraulic Excavator, Track - 24.0 to 28.0 Metric Tons",Florida,TEX,Track Excavators,,EROPS,,,,,,,,,,,Standard,,,,,,None or Unspecified,,,,Steel,None or Unspecified,None or Unspecified,None or Unspecified,None or Unspecified,Double,,,,,
4784,1610154,14000,1122922,132,1.0,1998,,,5/27/2010 0:00,690E,690,E,,,Large / Medium,"Hydraulic Excavator, Track - 24.0 to 28.0 Metric Tons",Washington,TEX,Track Excavators,,EROPS,,,,,,,,,,,Standard,,,,,,None or Unspecified,,,,Steel,None or Unspecified,None or Unspecified,None or Unspecified,None or Unspecified,Double,,,,,
4784,1610240,23500,1329627,132,8.0,1000,,,7/16/2009 0:00,690E,690,E,,,Large / Medium,"Hydraulic Excavator, Track - 24.0 to 28.0 Metric Tons",Mississippi,TEX,Track Excavators,,EROPS,,,,,,,,,,,Standard,,,,,,None or Unspecified,,,,Steel,None or Unspecified,None or Unspecified,None or Unspecified,None or Unspecified,Double,,,,,
4784,1610309,65000,1162548,132,17.0,1998,,,5/7/2002 0:00,690E,690,E,,,Large / Medium,"Hydraulic Excavator, Track - 24.0 to 28.0 Metric Tons",Idaho,TEX,Track Excavators,,EROPS,,,,,,,,,,,Standard,,,,,,None or Unspecified,,,,Steel,None or Unspecified,None or Unspecified,None or Unspecified,None or Unspecified,Double,,,,,
4784,2332071,21000,1411543,136,1.0,1995,0.0,,3/12/2009 0:00,690E,690,E,,,Large / Medium,"Hydraulic Excavator, Track - 24.0 to 28.0 Metric Tons",Illinois,TEX,Track Excavators,,EROPS,,,,,,,,,,,Auxiliary,,,,,,None or Unspecified,,,,Steel,None or Unspecified,"9' 6""",None or Unspecified,None or Unspecified,Double,,,,,
4784,2332110,11000,1472896,136,2.0,1995,0.0,,3/19/2009 0:00,690E,690,E,,,Large / Medium,"Hydraulic Excavator, Track - 24.0 to 28.0 Metric Tons",New Jersey,TEX,Track Excavators,,EROPS w AC,,,,,,,,,,,Standard,,,,,,None or Unspecified,,,,Steel,30 inch,"9' 6""",None or Unspecified,None or Unspecified,Double,,,,,
4784,2332119,21000,1698121,136,,1996,9456.0,Medium,9/13/2008 0:00,690E,690,E,,,Large / Medium,"Hydraulic Excavator, Track - 24.0 to 28.0 Metric Tons",Tennessee,TEX,Track Excavators,,EROPS,,,,,,,,,,,Standard,,,,,,None or Unspecified,,,,Steel,None or Unspecified,None or Unspecified,Manual,None or Unspecified,Double,,,,,
4784,2332156,19000,1771809,136,,1996,0.0,,6/5/2007 0:00,690E,690,E,,,Large / Medium,"Hydraulic Excavator, Track - 24.0 to 28.0 Metric Tons",Indiana,TEX,Track Excavators,,EROPS,,,,,,,,,,,Standard,,,,,,None or Unspecified,,,,Steel,None or Unspecified,None or Unspecified,None or Unspecified,None or Unspecified,Double,,,,,
4784,2332297,22500,1329627,136,8.0,1998,0.0,,7/16/2008 0:00,690E,690,E,,,Large / Medium,"Hydraulic Excavator, Track - 24.0 to 28.0 Metric Tons",Mississippi,TEX,Track Excavators,,EROPS,,,,,,,,,,,Standard,,,,,,None or Unspecified,,,,Steel,None or Unspecified,None or Unspecified,None or Unspecified,None or Unspecified,Double,,,,,
4784,2332706,15500,1746371,136,1.0,1000,0.0,,8/20/2008 0:00,690E,690,E,,,Large / Medium,"Hydraulic Excavator, Track - 24.0 to 28.0 Metric Tons",Arkansas,TEX,Track Excavators,,EROPS,,,,,,,,,,,Standard,,,,,,None or Unspecified,,,,Steel,None or Unspecified,None or Unspecified,None or Unspecified,None or Unspecified,Triple,,,,,
4784,2337485,20500,1679132,136,,1995,0.0,,5/1/2009 0:00,690E,690,E,,,Large / Medium,"Hydraulic Excavator, Track - 24.0 to 28.0 Metric Tons",Wisconsin,TEX,Track Excavators,,EROPS,,,,,,,,,,,Standard,,,,,,None or Unspecified,,,,Steel,None or Unspecified,None or Unspecified,None or Unspecified,None or Unspecified,Double,,,,,
4784,2340440,18000,1723224,136,,1000,0.0,,1/31/2009 0:00,690E,690,E,,,Large / Medium,"Hydraulic Excavator, Track - 24.0 to 28.0 Metric Tons",Florida,TEX,Track Excavators,,EROPS,,,,,,,,,,,Standard,,,,,,None or Unspecified,,,,Steel,None or Unspecified,None or Unspecified,Manual,None or Unspecified,Double,,,,,
4784,2340446,15000,1691281,136,,1992,0.0,,12/6/2007 0:00,690E,690,E,,,Large / Medium,"Hydraulic Excavator, Track - 24.0 to 28.0 Metric Tons",Texas,TEX,Track Excavators,,EROPS,,,,,,,,,,,Standard,,,,,,None or Unspecified,,,,Steel,None or Unspecified,None or Unspecified,None or Unspecified,None or Unspecified,Double,,,,,
4784,2340453,27500,1781187,136,,1000,0.0,,9/24/2008 0:00,690E,690,E,,,Large / Medium,"Hydraulic Excavator, Track - 24.0 to 28.0 Metric Tons",Texas,TEX,Track Excavators,,EROPS,,,,,,,,,,,Standard,,,,,,None or Unspecified,,,,Steel,None or Unspecified,None or Unspecified,None or Unspecified,None or Unspecified,Double,,,,,
4784,2340477,20000,1660998,136,,1994,0.0,,3/26/2009 0:00,690E,690,E,,,Large / Medium,"Hydraulic Excavator, Track - 24.0 to 28.0 Metric Tons",Minnesota,TEX,Track Excavators,,EROPS,,,,,,,,,,,Standard,,,,,,None or Unspecified,,,,Steel,None or Unspecified,None or Unspecified,None or Unspecified,None or Unspecified,Double,,,,,
4784,2340480,10500,1690964,136,,1994,0.0,,10/1/2008 0:00,690E,690,E,,,Large / Medium,"Hydraulic Excavator, Track - 24.0 to 28.0 Metric Tons",California,TEX,Track Excavators,,EROPS,,,,,,,,,,,Standard,,,,,,None or Unspecified,,,,Steel,None or Unspecified,None or Unspecified,None or Unspecified,None or Unspecified,Double,,,,,
4784,2340500,37000,1698858,136,,1995,0.0,,5/28/2008 0:00,690E,690,E,,,Large / Medium,"Hydraulic Excavator, Track - 24.0 to 28.0 Metric Tons",Florida,TEX,Track Excavators,,EROPS,,,,,,,,,,,Standard,,,,,,None or Unspecified,,,,Steel,None or Unspecified,None or Unspecified,None or Unspecified,None or Unspecified,Double,,,,,
4784,2340512,14000,1688840,136,,1995,0.0,,6/17/2008 0:00,690E,690,E,,,Large / Medium,"Hydraulic Excavator, Track - 24.0 to 28.0 Metric Tons",Washington,TEX,Track Excavators,,EROPS,,,,,,,,,,,Standard,,,,,,None or Unspecified,,,,Steel,None or Unspecified,None or Unspecified,None or Unspecified,None or Unspecified,Double,,,,,
4784,2340517,36000,1711859,136,,1995,0.0,,9/24/2008 0:00,690E,690,E,,,Large / Medium,"Hydraulic Excavator, Track - 24.0 to 28.0 Metric Tons",Texas,TEX,Track Excavators,,EROPS,,,,,,,,,,,Standard,,,,,,None or Unspecified,,,,Steel,None or Unspecified,None or Unspecified,None or Unspecified,None or Unspecified,Double,,,,,
4784,2340521,18000,1780426,136,,1995,0.0,,1/31/2009 0:00,690E,690,E,,,Large / Medium,"Hydraulic Excavator, Track - 24.0 to 28.0 Metric Tons",Florida,TEX,Track Excavators,,EROPS,,,,,,,,,,,Standard,,,,,,None or Unspecified,,,,Steel,None or Unspecified,None or Unspecified,Manual,None or Unspecified,Double,,,,,
4784,2340524,20500,1754890,136,,1996,0.0,,5/29/2008 0:00,690E,690,E,,,Large / Medium,"Hydraulic Excavator, Track - 24.0 to 28.0 Metric Tons",Utah,TEX,Track Excavators,,EROPS,,,,,,,,,,,Auxiliary,,,,,,None or Unspecified,,,,Steel,None or Unspecified,None or Unspecified,None or Unspecified,None or Unspecified,Double,,,,,
4784,2340528,14500,1783347,136,,1996,0.0,,3/27/2009 0:00,690E,690,E,,,Large / Medium,"Hydraulic Excavator, Track - 24.0 to 28.0 Metric Tons",California,TEX,Track Excavators,,EROPS w AC,,,,,,,,,,,Auxiliary,,,,,,None or Unspecified,,,,Steel,None or Unspecified,None or Unspecified,None or Unspecified,None or Unspecified,Double,,,,,
4784,2340531,48000,1653618,136,,1996,0.0,,3/11/2008 0:00,690E,690,E,,,Large / Medium,"Hydraulic Excavator, Track - 24.0 to 28.0 Metric Tons",Colorado,TEX,Track Excavators,,EROPS,,,,,,,,,,,Standard,,,,,,Manual,,,,Steel,None or Unspecified,None or Unspecified,None or Unspecified,None or Unspecified,Double,,,,,
4784,2340536,8000,1679273,136,,1996,0.0,,12/4/2007 0:00,690E,690,E,,,Large / Medium,"Hydraulic Excavator, Track - 24.0 to 28.0 Metric Tons",California,TEX,Track Excavators,,EROPS,,,,,,,,,,,Standard,,,,,,None or Unspecified,,,,Steel,None or Unspecified,None or Unspecified,None or Unspecified,None or Unspecified,Double,,,,,
4784,2340540,14000,1737965,136,1.0,1996,0.0,,3/4/2010 0:00,690E,690,E,,,Large / Medium,"Hydraulic Excavator, Track - 24.0 to 28.0 Metric Tons",Washington,TEX,Track Excavators,,EROPS,,,,,,,,,,,Standard,,,,,,None or Unspecified,,,,Steel,None or Unspecified,None or Unspecified,None or Unspecified,None or Unspecified,Double,,,,,
4784,2340566,14000,1692201,136,1.0,1998,0.0,,5/27/2010 0:00,690E,690,E,,,Large / Medium,"Hydraulic Excavator, Track - 24.0 to 28.0 Metric Tons",Washington,TEX,Track Excavators,,EROPS,,,,,,,,,,,Standard,,,,,,None or Unspecified,,,,Steel,None or Unspecified,None or Unspecified,Hydraulic,None or Unspecified,Double,,,,,
4784,2635693,25000,1792350,149,1.0,1996,10589.0,Medium,5/11/2011 0:00,690E,690,E,,,Large / Medium,"Hydraulic Excavator, Track - 24.0 to 28.0 Metric Tons",Texas,TEX,Track Excavators,,EROPS w AC,,,,,,,,,,,Auxiliary,,,,,,None or Unspecified,,,,Steel,None or Unspecified,"9' 6""",None or Unspecified,None or Unspecified,Double,,,,,
4784,4312995,17000,2284698,172,1.0,1997,9991.0,Medium,5/28/2009 0:00,690E,690,E,,,Large / Medium,"Hydraulic Excavator, Track - 24.0 to 28.0 Metric Tons",Missouri,TEX,Track Excavators,,EROPS,,,,,,,,,,,Auxiliary,,,,,,None or Unspecified,,,,Steel,None or Unspecified,None or Unspecified,None or Unspecified,None or Unspecified,Double,,,,,
4784,4313007,12500,2287907,172,1.0,1996,,,3/24/2010 0:00,690E,690,E,,,Large / Medium,"Hydraulic Excavator, Track - 24.0 to 28.0 Metric Tons",Texas,TEX,Track Excavators,,EROPS,,,,,,,,,,,Standard,,,,,,None or Unspecified,,,,Steel,None or Unspecified,None or Unspecified,None or Unspecified,None or Unspecified,Double,,,,,
4784,4313029,16500,1854216,172,1.0,1997,8432.0,Medium,9/29/2010 0:00,690E,690,E,,,Large / Medium,"Hydraulic Excavator, Track - 24.0 to 28.0 Metric Tons",Texas,TEX,Track Excavators,,EROPS w AC,,,,,,,,,,,Standard,,,,,,None or Unspecified,,,,Steel,None or Unspecified,None or Unspecified,None or Unspecified,None or Unspecified,Double,,,,,
4784,4313030,18500,1854216,172,1.0,1997,,,3/29/2011 0:00,690E,690,E,,,Large / Medium,"Hydraulic Excavator, Track - 24.0 to 28.0 Metric Tons",Maryland,TEX,Track Excavators,,EROPS w AC,,,,,,,,,,,Standard,,,,,,None or Unspecified,,,,Steel,None or Unspecified,None or Unspecified,None or Unspecified,None or Unspecified,Double,,,,,
4784,6284105,20000,1910438,149,1.0,1993,,,9/22/2011 0:00,690E,690,E,,,Large / Medium,"Hydraulic Excavator, Track - 24.0 to 28.0 Metric Tons",Ohio,TEX,Track Excavators,,EROPS,,,,,,,,,,,Standard,,,,,,None or Unspecified,,,,Steel,None or Unspecified,"9' 6""",None or Unspecified,None or Unspecified,Double,,,,,
4784,6284112,27500,1891559,149,1.0,1994,,,10/11/2011 0:00,690E,690,E,,,Large / Medium,"Hydraulic Excavator, Track - 24.0 to 28.0 Metric Tons",Colorado,TEX,Track Excavators,,EROPS,,,,,,,,,,,Auxiliary,,,,,,None or Unspecified,,,,Steel,None or Unspecified,None or Unspecified,None or Unspecified,None or Unspecified,Double,,,,,
