ModelID,SalesID,SalePrice,MachineID,datasource,auctioneerID,YearMade,MachineHoursCurrentMeter,UsageBand,saledate,fiModelDesc,fiBaseModel,fiSecondaryDesc,fiModelSeries,fiModelDescriptor,ProductSize,fiProductClassDesc,state,ProductGroup,ProductGroupDesc,Drive_System,Enclosure,Forks,Pad_Type,Ride_Control,Stick,Transmission,Turbocharged,Blade_Extension,Blade_Width,Enclosure_Type,Engine_Horsepower,Hydraulics,Pushblock,Ripper,Scarifier,Tip_Control,Tire_Size,Coupler,Coupler_System,Grouser_Tracks,Hydraulics_Flow,Track_Type,Undercarriage_Pad_Width,Stick_Length,Thumb,Pattern_Changer,Grouser_Type,Backhoe_Mounting,Blade_Type,Travel_Controls,Differential_Type,Steering_Controls
4822,1144748,14000,1029831,121,3.0,1996,11094.0,Medium,5/28/2009 0:00,790E,790,E,,,Large / Medium,"Hydraulic Excavator, Track - 21.0 to 24.0 Metric Tons",Georgia,TEX,Track Excavators,,EROPS,,,,,,,,,,,Standard,,,,,,None or Unspecified,,,,Steel,32 inch,None or Unspecified,None or Unspecified,None or Unspecified,Double,,,,,
4822,1582110,17500,1394241,132,1.0,1993,,,6/10/2010 0:00,790E,790,E,,,Large / Medium,"Hydraulic Excavator, Track - 21.0 to 24.0 Metric Tons",Colorado,TEX,Track Excavators,,EROPS,,,,,,,,,,,Standard,,,,,,None or Unspecified,,,,Steel,None or Unspecified,None or Unspecified,None or Unspecified,None or Unspecified,Double,,,,,
4822,1582169,11000,1323837,132,1.0,1981,,,12/15/2009 0:00,790E,790,E,,,Large / Medium,"Hydraulic Excavator, Track - 21.0 to 24.0 Metric Tons",Tennessee,TEX,Track Excavators,,EROPS w AC,,,,,,,,,,,Standard,,,,,,None or Unspecified,,,,Steel,None or Unspecified,None or Unspecified,None or Unspecified,None or Unspecified,Double,,,,,
4822,1582554,16000,966389,132,1.0,1994,,,5/30/2003 0:00,790E,790,E,,,Large / Medium,"Hydraulic Excavator, Track - 21.0 to 24.0 Metric Tons",Montana,TEX,Track Excavators,,EROPS,,,,,,,,,,,Standard,,,,,,None or Unspecified,,,,Steel,None or Unspecified,None or Unspecified,None or Unspecified,None or Unspecified,Double,,,,,
4822,1582583,17000,1271122,132,1.0,1995,,,5/27/2010 0:00,790E,790,E,,,Large / Medium,"Hydraulic Excavator, Track - 21.0 to 24.0 Metric Tons",Washington,TEX,Track Excavators,,EROPS,,,,,,,,,,,Standard,,,,,,None or Unspecified,,,,Steel,None or Unspecified,"11' 10""",None or Unspecified,None or Unspecified,Double,,,,,
4822,1582713,28000,1389197,132,1.0,1996,,,2/19/2008 0:00,790E,790,E,,,Large / Medium,"Hydraulic Excavator, Track - 21.0 to 24.0 Metric Tons",Florida,TEX,Track Excavators,,EROPS,,,,,,,,,,,Auxiliary,,,,,,None or Unspecified,,,,Steel,None or Unspecified,"11' 10""",None or Unspecified,None or Unspecified,Double,,,,,
4822,1582756,43000,1470555,132,1.0,1996,,,12/15/2004 0:00,790E,790,E,,,Large / Medium,"Hydraulic Excavator, Track - 21.0 to 24.0 Metric Tons",Maryland,TEX,Track Excavators,,EROPS,,,,,,,,,,,Standard,,,,,,None or Unspecified,,,,Steel,None or Unspecified,None or Unspecified,None or Unspecified,None or Unspecified,Double,,,,,
4822,1582765,16000,1474148,132,1.0,1996,,,3/2/2010 0:00,790E,790,E,,,Large / Medium,"Hydraulic Excavator, Track - 21.0 to 24.0 Metric Tons",California,TEX,Track Excavators,,EROPS w AC,,,,,,,,,,,Standard,,,,,,None or Unspecified,,,,Steel,None or Unspecified,"9' 8""",None or Unspecified,None or Unspecified,Double,,,,,
4822,1582767,22000,1499699,132,1.0,1996,,,2/25/2010 0:00,790E,790,E,,,Large / Medium,"Hydraulic Excavator, Track - 21.0 to 24.0 Metric Tons",Texas,TEX,Track Excavators,,EROPS,,,,,,,,,,,Standard,,,,,,None or Unspecified,,,,Steel,None or Unspecified,"12' 4""",None or Unspecified,None or Unspecified,Double,,,,,
4822,1582803,17000,1267629,132,1.0,1997,,,9/16/2010 0:00,790E,790,E,,,Large / Medium,"Hydraulic Excavator, Track - 21.0 to 24.0 Metric Tons",California,TEX,Track Excavators,,EROPS w AC,,,,,,,,,,,Standard,,,,,,Manual,,,,Steel,None or Unspecified,None or Unspecified,None or Unspecified,None or Unspecified,Double,,,,,
4822,1585722,31000,1330898,132,1.0,1992,,,3/2/2005 0:00,790E,790,E,,,Large / Medium,"Hydraulic Excavator, Track - 21.0 to 24.0 Metric Tons",Texas,TEX,Track Excavators,,EROPS,,,,,,,,,,,Auxiliary,,,,,,None or Unspecified,,,,Steel,None or Unspecified,"10' 6""",None or Unspecified,None or Unspecified,Double,,,,,
4822,1585730,17000,1237572,132,1.0,1992,,,6/27/2005 0:00,790E,790,E,,,Large / Medium,"Hydraulic Excavator, Track - 21.0 to 24.0 Metric Tons",Minnesota,TEX,Track Excavators,,EROPS w AC,,,,,,,,,,,Standard,,,,,,None or Unspecified,,,,Steel,32 inch,"10' 2""",None or Unspecified,None or Unspecified,Double,,,,,
4822,1585736,80000,1129525,132,1.0,1992,,,4/4/1996 0:00,790E,790,E,,,Large / Medium,"Hydraulic Excavator, Track - 21.0 to 24.0 Metric Tons",Georgia,TEX,Track Excavators,,EROPS,,,,,,,,,,,Standard,,,,,,None or Unspecified,,,,Steel,None or Unspecified,"11' 10""",None or Unspecified,None or Unspecified,Double,,,,,
4822,1585768,16000,1504076,132,1.0,1992,,,6/7/2010 0:00,790E,790,E,,,Large / Medium,"Hydraulic Excavator, Track - 21.0 to 24.0 Metric Tons",Texas,TEX,Track Excavators,,EROPS,,,,,,,,,,,Standard,,,,,,None or Unspecified,,,,Steel,None or Unspecified,None or Unspecified,None or Unspecified,None or Unspecified,Double,,,,,
4822,1585891,38000,1489696,132,1.0,1993,,,9/15/2004 0:00,790E,790,E,,,Large / Medium,"Hydraulic Excavator, Track - 21.0 to 24.0 Metric Tons",Texas,TEX,Track Excavators,,EROPS,,,,,,,,,,,Standard,,,,,,None or Unspecified,,,,Steel,None or Unspecified,None or Unspecified,None or Unspecified,None or Unspecified,Double,,,,,
4822,1585951,24000,1412576,132,10.0,1993,,,9/6/2006 0:00,790E,790,E,,,Large / Medium,"Hydraulic Excavator, Track - 21.0 to 24.0 Metric Tons",Louisiana,TEX,Track Excavators,,EROPS w AC,,,,,,,,,,,Standard,,,,,,None or Unspecified,,,,Steel,24 inch,None or Unspecified,Manual,None or Unspecified,Triple,,,,,
4822,1585952,32000,1473655,132,1.0,1993,,,3/1/2006 0:00,790E,790,E,,,Large / Medium,"Hydraulic Excavator, Track - 21.0 to 24.0 Metric Tons",Texas,TEX,Track Excavators,,EROPS,,,,,,,,,,,Standard,,,,,,None or Unspecified,,,,Steel,None or Unspecified,None or Unspecified,Manual,None or Unspecified,Double,,,,,
4822,1586088,25000,1406349,132,1.0,1993,,,12/13/2006 0:00,790E,790,E,,,Large / Medium,"Hydraulic Excavator, Track - 21.0 to 24.0 Metric Tons",Maryland,TEX,Track Excavators,,EROPS,,,,,,,,,,,Standard,,,,,,None or Unspecified,,,,Steel,None or Unspecified,None or Unspecified,None or Unspecified,None or Unspecified,Double,,,,,
4822,1586099,16000,1536759,132,1.0,1993,,,12/15/2004 0:00,790E,790,E,,,Large / Medium,"Hydraulic Excavator, Track - 21.0 to 24.0 Metric Tons",Maryland,TEX,Track Excavators,,EROPS,,,,,,,,,,,Standard,,,,,,None or Unspecified,,,,Steel,30 inch,None or Unspecified,Manual,None or Unspecified,Double,,,,,
4822,1586246,54000,1361466,132,2.0,1993,,,6/5/1999 0:00,790E,790,E,,,Large / Medium,"Hydraulic Excavator, Track - 21.0 to 24.0 Metric Tons",Florida,TEX,Track Excavators,,EROPS,,,,,,,,,,,Standard,,,,,,None or Unspecified,,,,Steel,None or Unspecified,None or Unspecified,None or Unspecified,None or Unspecified,Double,,,,,
4822,1586366,17000,1231784,132,99.0,1994,,,3/2/2007 0:00,790E,790,E,,,Large / Medium,"Hydraulic Excavator, Track - 21.0 to 24.0 Metric Tons",Alabama,TEX,Track Excavators,,EROPS,,,,,,,,,,,Standard,,,,,,None or Unspecified,,,,Steel,None or Unspecified,None or Unspecified,None or Unspecified,None or Unspecified,Double,,,,,
4822,1589693,15000,1096454,132,5.0,1994,,,6/28/2008 0:00,790E,790,E,,,Large / Medium,"Hydraulic Excavator, Track - 21.0 to 24.0 Metric Tons",New Jersey,TEX,Track Excavators,,EROPS,,,,,,,,,,,Auxiliary,,,,,,None or Unspecified,,,,Steel,32 inch,None or Unspecified,None or Unspecified,None or Unspecified,Triple,,,,,
4822,1589728,34500,1429807,132,27.0,1995,,,9/16/2005 0:00,790E,790,E,,,Large / Medium,"Hydraulic Excavator, Track - 21.0 to 24.0 Metric Tons",North Carolina,TEX,Track Excavators,,EROPS,,,,,,,,,,,Standard,,,,,,None or Unspecified,,,,Steel,None or Unspecified,None or Unspecified,None or Unspecified,None or Unspecified,Double,,,,,
4822,1589755,13000,1341766,132,12.0,1995,,,12/9/2008 0:00,790E,790,E,,,Large / Medium,"Hydraulic Excavator, Track - 21.0 to 24.0 Metric Tons",South Carolina,TEX,Track Excavators,,EROPS,,,,,,,,,,,Standard,,,,,,None or Unspecified,,,,Steel,None or Unspecified,None or Unspecified,None or Unspecified,None or Unspecified,Double,,,,,
4822,1589799,23500,1352271,132,1.0,1995,,,9/20/2006 0:00,790E,790,E,,,Large / Medium,"Hydraulic Excavator, Track - 21.0 to 24.0 Metric Tons",Washington,TEX,Track Excavators,,EROPS,,,,,,,,,,,Standard,,,,,,None or Unspecified,,,,Steel,None or Unspecified,None or Unspecified,None or Unspecified,None or Unspecified,Double,,,,,
4822,1589803,46000,1285140,132,1.0,1995,,,12/7/2006 0:00,790E,790,E,,,Large / Medium,"Hydraulic Excavator, Track - 21.0 to 24.0 Metric Tons",Texas,TEX,Track Excavators,,EROPS,,,,,,,,,,,Standard,,,,,,None or Unspecified,,,,Steel,None or Unspecified,None or Unspecified,None or Unspecified,None or Unspecified,Double,,,,,
4822,1589822,35000,1387218,132,1.0,1995,,,8/6/2008 0:00,790E,790,E,,,Large / Medium,"Hydraulic Excavator, Track - 21.0 to 24.0 Metric Tons",California,TEX,Track Excavators,,EROPS,,,,,,,,,,,Standard,,,,,,None or Unspecified,,,,Steel,None or Unspecified,None or Unspecified,None or Unspecified,None or Unspecified,Double,,,,,
4822,1589890,25000,1420858,132,1.0,1995,9010.0,Medium,2/24/2011 0:00,790E,790,E,,,Large / Medium,"Hydraulic Excavator, Track - 21.0 to 24.0 Metric Tons",Arizona,TEX,Track Excavators,,EROPS,,,,,,,,,,,Standard,,,,,,None or Unspecified,,,,Steel,None or Unspecified,None or Unspecified,Hydraulic,None or Unspecified,Double,,,,,
4822,1590014,20000,1174147,132,1.0,1995,,,12/6/2007 0:00,790E,790,E,,,Large / Medium,"Hydraulic Excavator, Track - 21.0 to 24.0 Metric Tons",Texas,TEX,Track Excavators,,EROPS,,,,,,,,,,,Standard,,,,,,None or Unspecified,,,,Steel,None or Unspecified,None or Unspecified,None or Unspecified,None or Unspecified,Double,,,,,
4822,1590034,41000,1548355,132,1.0,1996,,,8/12/2004 0:00,790E,790,E,,,Large / Medium,"Hydraulic Excavator, Track - 21.0 to 24.0 Metric Tons",Texas,TEX,Track Excavators,,EROPS,,,,,,,,,,,Auxiliary,,,,,,None or Unspecified,,,,Steel,None or Unspecified,"9' 8""",None or Unspecified,None or Unspecified,Double,,,,,
4822,1590042,30000,1313979,132,1.0,1996,,,2/15/2005 0:00,790E,790,E,,,Large / Medium,"Hydraulic Excavator, Track - 21.0 to 24.0 Metric Tons",Florida,TEX,Track Excavators,,EROPS,,,,,,,,,,,Standard,,,,,,None or Unspecified,,,,Steel,None or Unspecified,None or Unspecified,None or Unspecified,None or Unspecified,Double,,,,,
4822,1590052,47000,1482644,132,1.0,1996,,,2/24/2006 0:00,790E,790,E,,,Large / Medium,"Hydraulic Excavator, Track - 21.0 to 24.0 Metric Tons",Florida,TEX,Track Excavators,,EROPS,,,,,,,,,,,Standard,,,,,,None or Unspecified,,,,Steel,None or Unspecified,None or Unspecified,None or Unspecified,None or Unspecified,Double,,,,,
4822,1590086,28000,1184852,132,1.0,1996,,,2/22/2008 0:00,790E,790,E,,,Large / Medium,"Hydraulic Excavator, Track - 21.0 to 24.0 Metric Tons",Florida,TEX,Track Excavators,,EROPS,,,,,,,,,,,Auxiliary,,,,,,None or Unspecified,,,,Steel,None or Unspecified,"11' 10""",None or Unspecified,None or Unspecified,Double,,,,,
4822,1590109,26000,1449746,132,1.0,1996,,,9/24/2008 0:00,790E,790,E,,,Large / Medium,"Hydraulic Excavator, Track - 21.0 to 24.0 Metric Tons",Texas,TEX,Track Excavators,,EROPS,,,,,,,,,,,Standard,,,,,,None or Unspecified,,,,Steel,None or Unspecified,None or Unspecified,None or Unspecified,None or Unspecified,Double,,,,,
4822,1590125,26000,1486103,132,1.0,1996,,,9/24/2008 0:00,790E,790,E,,,Large / Medium,"Hydraulic Excavator, Track - 21.0 to 24.0 Metric Tons",Texas,TEX,Track Excavators,,EROPS,,,,,,,,,,,Standard,,,,,,None or Unspecified,,,,Steel,None or Unspecified,None or Unspecified,None or Unspecified,None or Unspecified,Double,,,,,
4822,1590151,21000,1135718,132,1.0,1996,,,10/15/2008 0:00,790E,790,E,,,Large / Medium,"Hydraulic Excavator, Track - 21.0 to 24.0 Metric Tons",Florida,TEX,Track Excavators,,EROPS,,,,,,,,,,,Standard,,,,,,None or Unspecified,,,,Steel,None or Unspecified,"11' 10""",None or Unspecified,None or Unspecified,Double,,,,,
4822,1590160,16000,1181720,132,1.0,1996,,,3/2/2010 0:00,790E,790,E,,,Large / Medium,"Hydraulic Excavator, Track - 21.0 to 24.0 Metric Tons",California,TEX,Track Excavators,,EROPS w AC,,,,,,,,,,,Standard,,,,,,None or Unspecified,,,,Steel,None or Unspecified,"9' 8""",None or Unspecified,None or Unspecified,Double,,,,,
4822,1590162,18000,1181720,132,1.0,1996,6653.0,Medium,5/12/2010 0:00,790E,790,E,,,Large / Medium,"Hydraulic Excavator, Track - 21.0 to 24.0 Metric Tons",California,TEX,Track Excavators,,EROPS w AC,,,,,,,,,,,Standard,,,,,,None or Unspecified,,,,Steel,None or Unspecified,"9' 8""",None or Unspecified,None or Unspecified,Double,,,,,
4822,1590169,22000,1440827,132,1.0,1996,,,2/25/2010 0:00,790E,790,E,,,Large / Medium,"Hydraulic Excavator, Track - 21.0 to 24.0 Metric Tons",Texas,TEX,Track Excavators,,EROPS,,,,,,,,,,,Standard,,,,,,None or Unspecified,,,,Steel,None or Unspecified,"12' 4""",None or Unspecified,None or Unspecified,Double,,,,,
4822,1590173,26000,1221398,132,1.0,1997,,,4/5/2007 0:00,790E,790,E,,,Large / Medium,"Hydraulic Excavator, Track - 21.0 to 24.0 Metric Tons",Maryland,TEX,Track Excavators,,EROPS,,,,,,,,,,,Auxiliary,,,,,,None or Unspecified,,,,Steel,None or Unspecified,"9' 10""",None or Unspecified,None or Unspecified,Double,,,,,
4822,1590178,30000,1338024,132,1.0,1996,,,6/23/2005 0:00,790E,790,E,,,Large / Medium,"Hydraulic Excavator, Track - 21.0 to 24.0 Metric Tons",Washington,TEX,Track Excavators,,EROPS,,,,,,,,,,,Standard,,,,,,Manual,,,,Steel,None or Unspecified,None or Unspecified,Manual,None or Unspecified,Double,,,,,
4822,1590199,30000,1137844,132,1.0,1997,,,3/30/2010 0:00,790E,790,E,,,Large / Medium,"Hydraulic Excavator, Track - 21.0 to 24.0 Metric Tons",Missouri,TEX,Track Excavators,,EROPS w AC,,,,,,,,,,,Auxiliary,,,,,,None or Unspecified,,,,Steel,None or Unspecified,None or Unspecified,None or Unspecified,None or Unspecified,Double,,,,,
4822,1590213,17000,1247710,132,1.0,1997,,,3/18/2009 0:00,790E,790,E,,,Large / Medium,"Hydraulic Excavator, Track - 21.0 to 24.0 Metric Tons",Washington,TEX,Track Excavators,,EROPS,,,,,,,,,,,Standard,,,,,,None or Unspecified,,,,Steel,None or Unspecified,None or Unspecified,None or Unspecified,None or Unspecified,Double,,,,,
4822,2328201,27000,1496917,136,7.0,1994,0.0,,3/12/2008 0:00,790E,790,E,,,Large / Medium,"Hydraulic Excavator, Track - 21.0 to 24.0 Metric Tons",Alabama,TEX,Track Excavators,,EROPS,,,,,,,,,,,Standard,,,,,,None or Unspecified,,,,Steel,None or Unspecified,None or Unspecified,None or Unspecified,None or Unspecified,Double,,,,,
4822,2344962,15000,1646345,136,1.0,1000,3420.0,Low,4/22/2010 0:00,790E,790,E,,,Large / Medium,"Hydraulic Excavator, Track - 21.0 to 24.0 Metric Tons",Utah,TEX,Track Excavators,,EROPS,,,,,,,,,,,Auxiliary,,,,,,None or Unspecified,,,,Steel,None or Unspecified,None or Unspecified,None or Unspecified,None or Unspecified,Double,,,,,
4822,2344969,8900,1487266,136,20.0,1993,0.0,,8/20/2008 0:00,790E,790,E,,,Large / Medium,"Hydraulic Excavator, Track - 21.0 to 24.0 Metric Tons",Arkansas,TEX,Track Excavators,,EROPS,,,,,,,,,,,Standard,,,,,,None or Unspecified,,,,Steel,32 inch,None or Unspecified,Manual,None or Unspecified,Triple,,,,,
4822,2344988,17500,1763168,136,1.0,1000,0.0,,6/10/2010 0:00,790E,790,E,,,Large / Medium,"Hydraulic Excavator, Track - 21.0 to 24.0 Metric Tons",Colorado,TEX,Track Excavators,,EROPS,,,,,,,,,,,Standard,,,,,,None or Unspecified,,,,Steel,None or Unspecified,None or Unspecified,None or Unspecified,None or Unspecified,Double,,,,,
4822,2344995,11000,1771048,136,1.0,1000,0.0,,12/15/2009 0:00,790E,790,E,,,Large / Medium,"Hydraulic Excavator, Track - 21.0 to 24.0 Metric Tons",Tennessee,TEX,Track Excavators,,EROPS w AC,,,,,,,,,,,Standard,,,,,,None or Unspecified,,,,Steel,None or Unspecified,None or Unspecified,None or Unspecified,None or Unspecified,Double,,,,,
4822,2345000,13000,1747262,136,,1995,0.0,,12/9/2008 0:00,790E,790,E,,,Large / Medium,"Hydraulic Excavator, Track - 21.0 to 24.0 Metric Tons",South Carolina,TEX,Track Excavators,,EROPS,,,,,,,,,,,Standard,,,,,,None or Unspecified,,,,Steel,None or Unspecified,None or Unspecified,None or Unspecified,None or Unspecified,Double,,,,,
4822,2345006,35000,1746347,136,,1995,0.0,,8/6/2008 0:00,790E,790,E,,,Large / Medium,"Hydraulic Excavator, Track - 21.0 to 24.0 Metric Tons",California,TEX,Track Excavators,,EROPS,,,,,,,,,,,Standard,,,,,,None or Unspecified,,,,Steel,None or Unspecified,None or Unspecified,None or Unspecified,None or Unspecified,Double,,,,,
4822,2345020,28000,1761950,136,,1996,0.0,,2/19/2008 0:00,790E,790,E,,,Large / Medium,"Hydraulic Excavator, Track - 21.0 to 24.0 Metric Tons",Florida,TEX,Track Excavators,,EROPS,,,,,,,,,,,Auxiliary,,,,,,None or Unspecified,,,,Steel,None or Unspecified,None or Unspecified,None or Unspecified,None or Unspecified,Double,,,,,
4822,2345023,26000,1743960,136,,1996,0.0,,9/24/2008 0:00,790E,790,E,,,Large / Medium,"Hydraulic Excavator, Track - 21.0 to 24.0 Metric Tons",Texas,TEX,Track Excavators,,EROPS,,,,,,,,,,,Standard,,,,,,None or Unspecified,,,,Steel,None or Unspecified,None or Unspecified,None or Unspecified,None or Unspecified,Double,,,,,
4822,2345024,26000,1742503,136,,1996,0.0,,9/24/2008 0:00,790E,790,E,,,Large / Medium,"Hydraulic Excavator, Track - 21.0 to 24.0 Metric Tons",Texas,TEX,Track Excavators,,EROPS,,,,,,,,,,,Standard,,,,,,None or Unspecified,,,,Steel,None or Unspecified,None or Unspecified,None or Unspecified,None or Unspecified,Double,,,,,
4822,2345026,21000,1769130,136,,1996,0.0,,10/15/2008 0:00,790E,790,E,,,Large / Medium,"Hydraulic Excavator, Track - 21.0 to 24.0 Metric Tons",Florida,TEX,Track Excavators,,EROPS,,,,,,,,,,,Standard,,,,,,None or Unspecified,,,,Steel,None or Unspecified,None or Unspecified,None or Unspecified,None or Unspecified,Double,,,,,
4822,2345029,24000,1750619,136,,1996,0.0,,6/20/2007 0:00,790E,790,E,,,Large / Medium,"Hydraulic Excavator, Track - 21.0 to 24.0 Metric Tons",Maryland,TEX,Track Excavators,,EROPS,,,,,,,,,,,Standard,,,,,,None or Unspecified,,,,Steel,None or Unspecified,None or Unspecified,None or Unspecified,None or Unspecified,Double,,,,,
4822,2345030,18000,1774838,136,1.0,1000,6653.0,Medium,5/12/2010 0:00,790E,790,E,,,Large / Medium,"Hydraulic Excavator, Track - 21.0 to 24.0 Metric Tons",California,TEX,Track Excavators,,EROPS w AC,,,,,,,,,,,Standard,,,,,,None or Unspecified,,,,Steel,None or Unspecified,None or Unspecified,None or Unspecified,None or Unspecified,Double,,,,,
4822,2345031,22000,1640388,136,1.0,1000,0.0,,2/25/2010 0:00,790E,790,E,,,Large / Medium,"Hydraulic Excavator, Track - 21.0 to 24.0 Metric Tons",Texas,TEX,Track Excavators,,EROPS,,,,,,,,,,,Standard,,,,,,None or Unspecified,,,,Steel,None or Unspecified,None or Unspecified,None or Unspecified,None or Unspecified,Double,,,,,
4822,2345035,15000,1751900,136,1.0,1000,13463.0,Medium,4/22/2010 0:00,790E,790,E,,,Large / Medium,"Hydraulic Excavator, Track - 21.0 to 24.0 Metric Tons",Utah,TEX,Track Excavators,,EROPS,,,,,,,,,,,Standard,,,,,,None or Unspecified,,,,Steel,None or Unspecified,None or Unspecified,None or Unspecified,None or Unspecified,Double,,,,,
4822,2345039,17000,1743268,136,,1997,0.0,,3/18/2009 0:00,790E,790,E,,,Large / Medium,"Hydraulic Excavator, Track - 21.0 to 24.0 Metric Tons",Washington,TEX,Track Excavators,,EROPS,,,,,,,,,,,Standard,,,,,,Hydraulic,,,,Steel,None or Unspecified,None or Unspecified,None or Unspecified,None or Unspecified,Double,,,,,
4822,2346441,15000,1134149,136,5.0,1995,0.0,,6/28/2008 0:00,790E,790,E,,,Large / Medium,"Hydraulic Excavator, Track - 21.0 to 24.0 Metric Tons",New Jersey,TEX,Track Excavators,,EROPS,,,,,,,,,,,Auxiliary,,,,,,None or Unspecified,,,,Steel,32 inch,None or Unspecified,None or Unspecified,None or Unspecified,Triple,,,,,
4822,4316422,16000,1097371,172,1.0,1992,9486.0,Medium,6/7/2010 0:00,790E,790,E,,,Large / Medium,"Hydraulic Excavator, Track - 21.0 to 24.0 Metric Tons",Texas,TEX,Track Excavators,,EROPS,,,,,,,,,,,Standard,,,,,,None or Unspecified,,,,Steel,None or Unspecified,None or Unspecified,None or Unspecified,None or Unspecified,Double,,,,,
4822,4316449,25000,1835551,172,1.0,1995,9010.0,Medium,2/24/2011 0:00,790E,790,E,,,Large / Medium,"Hydraulic Excavator, Track - 21.0 to 24.0 Metric Tons",Arizona,TEX,Track Excavators,,EROPS,,,,,,,,,,,Standard,,,,,,None or Unspecified,,,,Steel,None or Unspecified,None or Unspecified,Hydraulic,None or Unspecified,Double,,,,,
4822,4316458,16000,1774838,172,1.0,1996,6652.0,Medium,3/2/2010 0:00,790E,790,E,,,Large / Medium,"Hydraulic Excavator, Track - 21.0 to 24.0 Metric Tons",California,TEX,Track Excavators,,EROPS w AC,,,,,,,,,,,Standard,,,,,,None or Unspecified,,,,Steel,None or Unspecified,None or Unspecified,None or Unspecified,None or Unspecified,Double,,,,,
4822,6285264,21500,1804615,149,2.0,1000,,,8/16/2011 0:00,790E,790,E,,,Large / Medium,"Hydraulic Excavator, Track - 21.0 to 24.0 Metric Tons",Florida,TEX,Track Excavators,,EROPS,,,,,,,,,,,Standard,,,,,,None or Unspecified,,,,Steel,None or Unspecified,None or Unspecified,None or Unspecified,None or Unspecified,Double,,,,,
