ModelID,SalesID,SalePrice,MachineID,datasource,auctioneerID,YearMade,MachineHoursCurrentMeter,UsageBand,saledate,fiModelDesc,fiBaseModel,fiSecondaryDesc,fiModelSeries,fiModelDescriptor,ProductSize,fiProductClassDesc,state,ProductGroup,ProductGroupDesc,Drive_System,Enclosure,Forks,Pad_Type,Ride_Control,Stick,Transmission,Turbocharged,Blade_Extension,Blade_Width,Enclosure_Type,Engine_Horsepower,Hydraulics,Pushblock,Ripper,Scarifier,Tip_Control,Tire_Size,Coupler,Coupler_System,Grouser_Tracks,Hydraulics_Flow,Track_Type,Undercarriage_Pad_Width,Stick_Length,Thumb,Pattern_Changer,Grouser_Type,Backhoe_Mounting,Blade_Type,Travel_Controls,Differential_Type,Steering_Controls
4860,1580926,13000,1495193,132,1.0,1989,,,9/21/2010 0:00,992D,992,D,,,Large / Medium,"Hydraulic Excavator, Track - 33.0 to 40.0 Metric Tons",Washington,TEX,Track Excavators,,EROPS,,,,,,,,,,,Standard,,,,,,None or Unspecified,,,,Steel,None or Unspecified,None or Unspecified,Hydraulic,None or Unspecified,Double,,,,,
4860,1580936,80000,1163307,132,1.0,1990,,,2/23/1996 0:00,992D,992,D,,,Large / Medium,"Hydraulic Excavator, Track - 33.0 to 40.0 Metric Tons",Arizona,TEX,Track Excavators,,EROPS,,,,,,,,,,,Standard,,,,,,None or Unspecified,,,,Steel,None or Unspecified,None or Unspecified,None or Unspecified,None or Unspecified,Double,,,,,
4860,1581000,16000,1119908,132,1.0,1993,,,9/13/2007 0:00,992D,992,D,,,Large / Medium,"Hydraulic Excavator, Track - 33.0 to 40.0 Metric Tons",Arizona,TEX,Track Excavators,,EROPS,,,,,,,,,,,Standard,,,,,,None or Unspecified,,,,Steel,None or Unspecified,"11' 0""",None or Unspecified,None or Unspecified,Double,,,,,
4860,1604124,38000,1446299,132,1.0,1990,,,2/24/2011 0:00,992D,992,D,,,Large / Medium,"Hydraulic Excavator, Track - 33.0 to 40.0 Metric Tons",Arizona,TEX,Track Excavators,,EROPS w AC,,,,,,,,,,,Standard,,,,,,None or Unspecified,,,,Steel,None or Unspecified,None or Unspecified,Hydraulic,None or Unspecified,Double,,,,,
4860,1605251,70000,849157,132,19.0,1990,,,6/9/2005 0:00,992D,992,D,,,Large / Medium,"Hydraulic Excavator, Track - 33.0 to 40.0 Metric Tons",New Mexico,TEX,Track Excavators,,EROPS,,,,,,,,,,,Standard,,,,,,None or Unspecified,,,,Steel,36 inch,None or Unspecified,None or Unspecified,None or Unspecified,Triple,,,,,
4860,1605552,13000,1462096,132,1.0,1991,,,5/27/2004 0:00,992D,992,D,,,Large / Medium,"Hydraulic Excavator, Track - 33.0 to 40.0 Metric Tons",Florida,TEX,Track Excavators,,EROPS,,,,,,,,,,,Standard,,,,,,None or Unspecified,,,,Steel,None or Unspecified,None or Unspecified,None or Unspecified,None or Unspecified,Double,,,,,
4860,1605685,27000,1269495,132,1.0,1991,,,3/1/2005 0:00,992D,992,D,,,Large / Medium,"Hydraulic Excavator, Track - 33.0 to 40.0 Metric Tons",Illinois,TEX,Track Excavators,,EROPS,,,,,,,,,,,Standard,,,,,,Manual,,,,Steel,None or Unspecified,None or Unspecified,None or Unspecified,None or Unspecified,Double,,,,,
4860,1605876,27500,1089259,132,1.0,1991,,,11/13/2007 0:00,992D,992,D,,,Large / Medium,"Hydraulic Excavator, Track - 33.0 to 40.0 Metric Tons",California,TEX,Track Excavators,,EROPS,,,,,,,,,,,Standard,,,,,,None or Unspecified,,,,Steel,None or Unspecified,"12' 8""",None or Unspecified,None or Unspecified,Double,,,,,
4860,2328085,12000,1745128,136,,1000,0.0,,5/20/2009 0:00,992D,992,D,,,Large / Medium,"Hydraulic Excavator, Track - 33.0 to 40.0 Metric Tons",Ohio,TEX,Track Excavators,,EROPS,,,,,,,,,,,Standard,,,,,,None or Unspecified,,,,Steel,None or Unspecified,None or Unspecified,None or Unspecified,None or Unspecified,Double,,,,,
4860,2331694,12000,1698039,136,6.0,1000,0.0,,5/20/2009 0:00,992D,992,D,,,Large / Medium,"Hydraulic Excavator, Track - 33.0 to 40.0 Metric Tons",Ohio,TEX,Track Excavators,,EROPS,,,,,,,,,,,Standard,,,,,,None or Unspecified,,,,Steel,None or Unspecified,None or Unspecified,None or Unspecified,None or Unspecified,Double,,,,,
4860,2345234,16000,1788032,136,,1993,0.0,,9/13/2007 0:00,992D,992,D,,,Large / Medium,"Hydraulic Excavator, Track - 33.0 to 40.0 Metric Tons",Arizona,TEX,Track Excavators,,EROPS,,,,,,,,,,,Standard,,,,,,None or Unspecified,,,,Steel,None or Unspecified,None or Unspecified,None or Unspecified,None or Unspecified,Double,,,,,
4860,2345239,13000,1680455,136,,1990,0.0,,6/11/2008 0:00,992D,992,D,,,Large / Medium,"Hydraulic Excavator, Track - 33.0 to 40.0 Metric Tons",Texas,TEX,Track Excavators,,EROPS,,,,,,,,,,,Standard,,,,,,None or Unspecified,,,,Steel,None or Unspecified,None or Unspecified,None or Unspecified,None or Unspecified,Double,,,,,
4860,2345251,15000,1039659,136,1.0,1000,0.0,,6/11/2010 0:00,992D,992,D,,,Large / Medium,"Hydraulic Excavator, Track - 33.0 to 40.0 Metric Tons",Missouri,TEX,Track Excavators,,EROPS w AC,,,,,,,,,,,Standard,,,,,,None or Unspecified,,,,Steel,36 inch,None or Unspecified,Manual,None or Unspecified,Double,,,,,
4860,4311127,13000,2277128,172,1.0,1989,,,9/21/2010 0:00,992D,992,D,,,Large / Medium,"Hydraulic Excavator, Track - 33.0 to 40.0 Metric Tons",Washington,TEX,Track Excavators,,EROPS,,,,,,,,,,,Standard,,,,,,None or Unspecified,,,,Steel,None or Unspecified,None or Unspecified,Hydraulic,None or Unspecified,Double,,,,,
4860,4316654,38000,1795061,172,1.0,1990,2176.0,Low,2/24/2011 0:00,992D,992,D,,,Large / Medium,"Hydraulic Excavator, Track - 33.0 to 40.0 Metric Tons",Arizona,TEX,Track Excavators,,EROPS w AC,,,,,,,,,,,Standard,,,,,,None or Unspecified,,,,Steel,None or Unspecified,None or Unspecified,Hydraulic,None or Unspecified,Double,,,,,
