ModelID,SalesID,SalePrice,MachineID,datasource,auctioneerID,YearMade,MachineHoursCurrentMeter,UsageBand,saledate,fiModelDesc,fiBaseModel,fiSecondaryDesc,fiModelSeries,fiModelDescriptor,ProductSize,fiProductClassDesc,state,ProductGroup,ProductGroupDesc,Drive_System,Enclosure,Forks,Pad_Type,Ride_Control,Stick,Transmission,Turbocharged,Blade_Extension,Blade_Width,Enclosure_Type,Engine_Horsepower,Hydraulics,Pushblock,Ripper,Scarifier,Tip_Control,Tire_Size,Coupler,Coupler_System,Grouser_Tracks,Hydraulics_Flow,Track_Type,Undercarriage_Pad_Width,Stick_Length,Thumb,Pattern_Changer,Grouser_Type,Backhoe_Mounting,Blade_Type,Travel_Controls,Differential_Type,Steering_Controls
4862,1150184,27500,1039670,121,3.0,2000,12122.0,Medium,1/28/2010 0:00,TC44H,TC44,H,,,,Wheel Loader - 100.0 to 110.0 Horsepower,North Carolina,WL,Wheel Loader,,EROPS w AC,Yes,,None or Unspecified,,,,,,,,2 Valve,,,,,17.5,Hydraulic,,,,,,,,,,,,,Standard,Conventional
4862,1151066,42000,1008957,121,3.0,1998,8115.0,Medium,12/7/2006 0:00,TC44H,TC44,H,,,,Wheel Loader - 100.0 to 110.0 Horsepower,Washington,WL,Wheel Loader,,EROPS w AC,None or Unspecified,,None or Unspecified,,,,,,,,2 Valve,,,,,17.5,Manual,,,,,,,,,,,,,Standard,Conventional
4862,1164848,52000,1024315,121,3.0,1000,3113.0,Low,9/25/2008 0:00,TC44H,TC44,H,,,,Wheel Loader - 100.0 to 110.0 Horsepower,Georgia,WL,Wheel Loader,,EROPS w AC,Yes,,None or Unspecified,,,,,,,,2 Valve,,,,,20.5,None or Unspecified,,,,,,,,,,,,,Standard,Conventional
4862,1609686,31000,1262139,132,2.0,1997,,,5/23/2007 0:00,TC44H,TC44,H,,,,Wheel Loader - 100.0 to 110.0 Horsepower,Florida,WL,Wheel Loader,,EROPS,None or Unspecified,,None or Unspecified,,,,,,,,2 Valve,,,,,None or Unspecified,None or Unspecified,,,,,,,,,,,,,Standard,Conventional
4862,1609750,30000,1477326,132,1.0,1997,,,3/27/2008 0:00,TC44H,TC44,H,,,,Wheel Loader - 100.0 to 110.0 Horsepower,Texas,WL,Wheel Loader,,OROPS,Yes,,None or Unspecified,,,,,,,,2 Valve,,,,,17.5,None or Unspecified,,,,,,,,,,,,,Standard,Conventional
4862,1609769,55000,997830,132,1.0,1997,,,12/18/2000 0:00,TC44H,TC44,H,,,,Wheel Loader - 100.0 to 110.0 Horsepower,Maryland,WL,Wheel Loader,,EROPS,None or Unspecified,,None or Unspecified,,,,,,,,2 Valve,,,,,None or Unspecified,None or Unspecified,,,,,,,,,,,,,Standard,Conventional
4862,1609874,28000,1305299,132,1.0,1000,,,9/23/2009 0:00,TC44H,TC44,H,,,,Wheel Loader - 100.0 to 110.0 Horsepower,Texas,WL,Wheel Loader,,EROPS w AC,None or Unspecified,,None or Unspecified,,,,,,,,2 Valve,,,,,None or Unspecified,None or Unspecified,,,,,,,,,,,,,Standard,Conventional
4862,1609923,26000,1526402,132,1.0,1997,,,4/13/2011 0:00,TC44H,TC44,H,,,,Wheel Loader - 100.0 to 110.0 Horsepower,Texas,WL,Wheel Loader,,EROPS w AC,Yes,,None or Unspecified,,,,,,,,2 Valve,,,,,17.5,None or Unspecified,,,,,,,,,,,,,Standard,Conventional
4862,1609924,26000,1526402,132,1.0,1997,,,6/22/2011 0:00,TC44H,TC44,H,,,,Wheel Loader - 100.0 to 110.0 Horsepower,Texas,WL,Wheel Loader,,EROPS w AC,Yes,,None or Unspecified,,,,,,,,2 Valve,,,,,17.5,None or Unspecified,,,,,,,,,,,,,Standard,Conventional
4862,1609927,34000,1229484,132,1.0,1997,,,9/24/2004 0:00,TC44H,TC44,H,,,,Wheel Loader - 100.0 to 110.0 Horsepower,Texas,WL,Wheel Loader,,EROPS,None or Unspecified,,None or Unspecified,,,,,,,,2 Valve,,,,,17.5,None or Unspecified,,,,,,,,,,,,,Standard,Conventional
4862,1609929,48000,1383800,132,7.0,1997,,,9/1/2004 0:00,TC44H,TC44,H,,,,Wheel Loader - 100.0 to 110.0 Horsepower,Alabama,WL,Wheel Loader,,EROPS,Yes,,None or Unspecified,,,,,,,,2 Valve,,,,,None or Unspecified,Manual,,,,,,,,,,,,,Standard,Conventional
4862,1610028,52500,1227508,132,2.0,1997,,,10/12/2005 0:00,TC44H,TC44,H,,,,Wheel Loader - 100.0 to 110.0 Horsepower,Florida,WL,Wheel Loader,,EROPS,None or Unspecified,,None or Unspecified,,,,,,,,3 Valve,,,,,None or Unspecified,Manual,,,,,,,,,,,,,Standard,Conventional
4862,1610035,66000,997393,132,1.0,1997,,,9/26/2000 0:00,TC44H,TC44,H,,,,Wheel Loader - 100.0 to 110.0 Horsepower,Illinois,WL,Wheel Loader,,EROPS,None or Unspecified,,Yes,,,,,,,,2 Valve,,,,,None or Unspecified,None or Unspecified,,,,,,,,,,,,,Standard,Conventional
4862,1610046,39000,1106331,132,1.0,1997,,,2/22/2006 0:00,TC44H,TC44,H,,,,Wheel Loader - 100.0 to 110.0 Horsepower,Florida,WL,Wheel Loader,,EROPS w AC,None or Unspecified,,None or Unspecified,,,,,,,,2 Valve,,,,,17.5,Manual,,,,,,,,,,,,,Standard,Conventional
4862,1610412,49000,1130403,132,1.0,1998,,,12/14/2001 0:00,TC44H,TC44,H,,,,Wheel Loader - 100.0 to 110.0 Horsepower,Missouri,WL,Wheel Loader,,EROPS w AC,None or Unspecified,,None or Unspecified,,,,,,,,2 Valve,,,,,17.5,Manual,,,,,,,,,,,,,Standard,Conventional
4862,1610465,60000,1351637,132,1.0,1998,,,4/26/2002 0:00,TC44H,TC44,H,,,,Wheel Loader - 100.0 to 110.0 Horsepower,Iowa,WL,Wheel Loader,,EROPS w AC,Yes,,None or Unspecified,,,,,,,,2 Valve,,,,,17.5,None or Unspecified,,,,,,,,,,,,,Standard,Conventional
4862,1610476,44500,1184517,132,4.0,1998,,,6/30/2004 0:00,TC44H,TC44,H,,,,Wheel Loader - 100.0 to 110.0 Horsepower,Ohio,WL,Wheel Loader,,EROPS,Yes,,None or Unspecified,,,,,,,,2 Valve,,,,,17.5,None or Unspecified,,,,,,,,,,,,,Standard,Conventional
4862,1610477,49000,1184517,132,4.0,1998,,,2/7/2005 0:00,TC44H,TC44,H,,,,Wheel Loader - 100.0 to 110.0 Horsepower,Florida,WL,Wheel Loader,,EROPS,Yes,,None or Unspecified,,,,,,,,2 Valve,,,,,17.5,None or Unspecified,,,,,,,,,,,,,Standard,Conventional
4862,1610478,49000,1184517,132,4.0,1000,,,2/8/2005 0:00,TC44H,TC44,H,,,,Wheel Loader - 100.0 to 110.0 Horsepower,Florida,WL,Wheel Loader,,EROPS,Yes,,None or Unspecified,,,,,,,,2 Valve,,,,,17.5,None or Unspecified,,,,,,,,,,,,,Standard,Conventional
4862,1610496,26000,1151831,132,1.0,1998,,,3/25/2009 0:00,TC44H,TC44,H,,,,Wheel Loader - 100.0 to 110.0 Horsepower,Texas,WL,Wheel Loader,,OROPS,None or Unspecified,,None or Unspecified,,,,,,,,2 Valve,,,,,20.5,None or Unspecified,,,,,,,,,,,,,Standard,Conventional
4862,1610562,25000,1310214,132,9.0,1998,,,12/2/2010 0:00,TC44H,TC44,H,,,,Wheel Loader - 100.0 to 110.0 Horsepower,South Carolina,WL,Wheel Loader,,EROPS,None or Unspecified,,None or Unspecified,,,,,,,,2 Valve,,,,,17.5,None or Unspecified,,,,,,,,,,,,,Standard,Conventional
4862,1610700,40500,1420960,132,2.0,1998,,,9/6/2003 0:00,TC44H,TC44,H,,,,Wheel Loader - 100.0 to 110.0 Horsepower,New Hampshire,WL,Wheel Loader,,EROPS,None or Unspecified,,None or Unspecified,,,,,,,,3 Valve,,,,,None or Unspecified,Manual,,,,,,,,,,,,,Standard,Conventional
4862,1610707,30000,1263751,132,1.0,1998,,,12/6/2007 0:00,TC44H,TC44,H,,,,Wheel Loader - 100.0 to 110.0 Horsepower,Texas,WL,Wheel Loader,,EROPS,None or Unspecified,,None or Unspecified,,,,,,,,2 Valve,,,,,None or Unspecified,None or Unspecified,,,,,,,,,,,,,Standard,Conventional
4862,1610708,29000,1330953,132,1.0,1998,17284.0,Medium,3/15/2011 0:00,TC44H,TC44,H,,,,Wheel Loader - 100.0 to 110.0 Horsepower,Tennessee,WL,Wheel Loader,,EROPS w AC,Yes,,None or Unspecified,,,,,,,,2 Valve,,,,,17.5,None or Unspecified,,,,,,,,,,,,,Standard,Conventional
4862,1610738,52500,1091480,132,1.0,1998,,,6/18/2002 0:00,TC44H,TC44,H,,,,Wheel Loader - 100.0 to 110.0 Horsepower,Washington,WL,Wheel Loader,,EROPS,Yes,,None or Unspecified,,,,,,,,2 Valve,,,,,17.5,Manual,,,,,,,,,,,,,Standard,Conventional
4862,1610761,42000,1233421,132,3.0,1998,,,12/7/2006 0:00,TC44H,TC44,H,,,,Wheel Loader - 100.0 to 110.0 Horsepower,California,WL,Wheel Loader,,EROPS,None or Unspecified,,None or Unspecified,,,,,,,,2 Valve,,,,,None or Unspecified,None or Unspecified,,,,,,,,,,,,,Standard,Conventional
4862,1611044,29500,1366371,132,8.0,1999,,,2/14/2009 0:00,TC44H,TC44,H,,,,Wheel Loader - 100.0 to 110.0 Horsepower,Florida,WL,Wheel Loader,,EROPS,Yes,,None or Unspecified,,,,,,,,2 Valve,,,,,20.5,None or Unspecified,,,,,,,,,,,,,Standard,Conventional
4862,1611046,29500,1366371,132,8.0,1999,,,2/13/2009 0:00,TC44H,TC44,H,,,,Wheel Loader - 100.0 to 110.0 Horsepower,Florida,WL,Wheel Loader,,EROPS,Yes,,None or Unspecified,,,,,,,,2 Valve,,,,,20.5,None or Unspecified,,,,,,,,,,,,,Standard,Conventional
4862,1611047,25000,1366371,132,4.0,1999,,,2/9/2010 0:00,TC44H,TC44,H,,,,Wheel Loader - 100.0 to 110.0 Horsepower,Florida,WL,Wheel Loader,,EROPS,Yes,,None or Unspecified,,,,,,,,2 Valve,,,,,20.5,None or Unspecified,,,,,,,,,,,,,Standard,Conventional
4862,1611048,25000,1366371,132,4.0,1999,,,2/8/2010 0:00,TC44H,TC44,H,,,,Wheel Loader - 100.0 to 110.0 Horsepower,Florida,WL,Wheel Loader,,EROPS,Yes,,None or Unspecified,,,,,,,,2 Valve,,,,,20.5,None or Unspecified,,,,,,,,,,,,,Standard,Conventional
4862,1611123,46000,1439354,132,1.0,1999,,,6/16/2004 0:00,TC44H,TC44,H,,,,Wheel Loader - 100.0 to 110.0 Horsepower,Texas,WL,Wheel Loader,,EROPS w AC,Yes,,None or Unspecified,,,,,,,,2 Valve,,,,,17.5,None or Unspecified,,,,,,,,,,,,,Standard,Conventional
4862,1611161,55000,1273205,132,2.0,1999,,,3/14/2002 0:00,TC44H,TC44,H,,,,Wheel Loader - 100.0 to 110.0 Horsepower,New Jersey,WL,Wheel Loader,,EROPS w AC,None or Unspecified,,None or Unspecified,,,,,,,,3 Valve,,,,,17.5,Manual,,,,,,,,,,,,,Standard,Conventional
4862,1611237,39000,1384914,132,27.0,1999,,,12/28/2010 0:00,TC44H,TC44,H,,,,Wheel Loader - 100.0 to 110.0 Horsepower,North Carolina,WL,Wheel Loader,,EROPS w AC,Yes,,None or Unspecified,,,,,,,,2 Valve,,,,,None or Unspecified,None or Unspecified,,,,,,,,,,,,,Standard,Conventional
4862,1611332,54500,1342711,132,2.0,1999,,,3/14/2002 0:00,TC44H,TC44,H,,,,Wheel Loader - 100.0 to 110.0 Horsepower,New Jersey,WL,Wheel Loader,,EROPS w AC,None or Unspecified,,None or Unspecified,,,,,,,,2 Valve,,,,,17.5,Manual,,,,,,,,,,,,,Standard,Conventional
4862,1611592,57000,1391477,132,1.0,2000,,,3/24/2006 0:00,TC44H,TC44,H,,,,Wheel Loader - 100.0 to 110.0 Horsepower,Missouri,WL,Wheel Loader,,EROPS w AC,Yes,,None or Unspecified,,,,,,,,2 Valve,,,,,17.5,Manual,,,,,,,,,,,,,No Spin,Conventional
4862,1611936,69500,1131431,132,2.0,2000,,,9/7/2001 0:00,TC44H,TC44,H,,,,Wheel Loader - 100.0 to 110.0 Horsepower,New Hampshire,WL,Wheel Loader,,OROPS,None or Unspecified,,None or Unspecified,,,,,,,,2 Valve,,,,,None or Unspecified,None or Unspecified,,,,,,,,,,,,,Standard,Conventional
4862,1611966,47500,1537041,132,17.0,2000,,,10/24/2006 0:00,TC44H,TC44,H,,,,Wheel Loader - 100.0 to 110.0 Horsepower,Idaho,WL,Wheel Loader,,EROPS w AC,None or Unspecified,,None or Unspecified,,,,,,,,2 Valve,,,,,None or Unspecified,None or Unspecified,,,,,,,,,,,,,Standard,Conventional
4862,1612368,57000,1199024,132,1.0,2002,,,9/11/2008 0:00,TC44H,TC44,H,,,,Wheel Loader - 100.0 to 110.0 Horsepower,Missouri,WL,Wheel Loader,,EROPS,Yes,,None or Unspecified,,,,,,,,2 Valve,,,,,None or Unspecified,Manual,,,,,,,,,,,,,Standard,Conventional
4862,1612507,22000,1261430,132,1.0,2003,,,8/20/2008 0:00,TC44H,TC44,H,,,,Wheel Loader - 100.0 to 110.0 Horsepower,Texas,WL,Wheel Loader,,EROPS,Yes,,None or Unspecified,,,,,,,,2 Valve,,,,,None or Unspecified,Manual,,,,,,,,,,,,,Standard,Conventional
4862,1612509,22000,1447893,132,1.0,2003,,,8/20/2008 0:00,TC44H,TC44,H,,,,Wheel Loader - 100.0 to 110.0 Horsepower,Texas,WL,Wheel Loader,,EROPS,None or Unspecified,,None or Unspecified,,,,,,,,2 Valve,,,,,None or Unspecified,Manual,,,,,,,,,,,,,Standard,Conventional
4862,1612723,73000,1453161,132,2.0,2003,,,2/5/2006 0:00,TC44H,TC44,H,,,,Wheel Loader - 100.0 to 110.0 Horsepower,Florida,WL,Wheel Loader,,OROPS,Yes,,None or Unspecified,,,,,,,,2 Valve,,,,,None or Unspecified,None or Unspecified,,,,,,,,,,,,,Standard,Conventional
4862,1612724,69000,1453161,132,2.0,2003,,,2/9/2006 0:00,TC44H,TC44,H,,,,Wheel Loader - 100.0 to 110.0 Horsepower,Florida,WL,Wheel Loader,,OROPS,Yes,,None or Unspecified,,,,,,,,2 Valve,,,,,None or Unspecified,None or Unspecified,,,,,,,,,,,,,Standard,Conventional
4862,1645360,41000,1210737,132,1.0,1998,,,6/11/2003 0:00,TC44H,TC44,H,,,,Wheel Loader - 100.0 to 110.0 Horsepower,Texas,WL,Wheel Loader,,EROPS,None or Unspecified,,None or Unspecified,,,,,,,,2 Valve,,,,,17.5,Manual,,,,,,,,,,,,,Standard,Conventional
4862,1646387,65000,1483150,132,2.0,2000,,,9/18/2004 0:00,TC44H,TC44,H,,,,Wheel Loader - 100.0 to 110.0 Horsepower,New Jersey,WL,Wheel Loader,,OROPS,None or Unspecified,,None or Unspecified,,,,,,,,2 Valve,,,,,None or Unspecified,Manual,,,,,,,,,,,,,Standard,Conventional
4862,2332259,37000,1227508,136,2.0,1997,0.0,,8/24/2008 0:00,TC44H,TC44,H,,,,Wheel Loader - 100.0 to 110.0 Horsepower,New York,WL,Wheel Loader,,EROPS,None or Unspecified,,None or Unspecified,,,,,,,,3 Valve,,,,,None or Unspecified,Manual,,,,,,,,,,,,,Standard,Conventional
4862,2332400,37000,1366371,136,9.0,1000,0.0,,5/15/2008 0:00,TC44H,TC44,H,,,,Wheel Loader - 100.0 to 110.0 Horsepower,South Carolina,WL,Wheel Loader,,EROPS,Yes,,None or Unspecified,,,,,,,,2 Valve,,,,,20.5,None or Unspecified,,,,,,,,,,,,,Standard,Conventional
4862,2332401,32000,1366371,136,8.0,1999,0.0,,8/21/2008 0:00,TC44H,TC44,H,,,,Wheel Loader - 100.0 to 110.0 Horsepower,South Carolina,WL,Wheel Loader,,EROPS,Yes,,None or Unspecified,,,,,,,,2 Valve,,,,,20.5,None or Unspecified,,,,,,,,,,,,,Standard,Conventional
4862,2332580,46000,1750181,136,,2002,0.0,,12/3/2008 0:00,TC44H,TC44,H,,,,Wheel Loader - 100.0 to 110.0 Horsepower,Alabama,WL,Wheel Loader,,EROPS,Yes,,None or Unspecified,,,,,,,,2 Valve,,,,,None or Unspecified,Manual,,,,,,,,,,,,,Standard,Conventional
4862,2341555,31000,1507244,136,1.0,1000,0.0,,5/23/2007 0:00,TC44H,TC44,H,,,,Wheel Loader - 100.0 to 110.0 Horsepower,Florida,WL,Wheel Loader,,EROPS,None or Unspecified,,None or Unspecified,,,,,,,,2 Valve,,,,,17.5,Manual,,,,,,,,,,,,,Standard,Conventional
4862,2341556,31500,1507244,136,1.0,1000,0.0,,5/9/2007 0:00,TC44H,TC44,H,,,,Wheel Loader - 100.0 to 110.0 Horsepower,Texas,WL,Wheel Loader,,EROPS,None or Unspecified,,None or Unspecified,,,,,,,,2 Valve,,,,,17.5,Manual,,,,,,,,,,,,,Standard,Conventional
4862,2341557,30000,1507244,136,1.0,1000,0.0,,10/10/2007 0:00,TC44H,TC44,H,,,,Wheel Loader - 100.0 to 110.0 Horsepower,Florida,WL,Wheel Loader,,EROPS,None or Unspecified,,None or Unspecified,,,,,,,,2 Valve,,,,,17.5,Manual,,,,,,,,,,,,,Standard,Conventional
4862,2341558,30000,1680726,136,1.0,1000,0.0,,3/27/2008 0:00,TC44H,TC44,H,,,,Wheel Loader - 100.0 to 110.0 Horsepower,Texas,WL,Wheel Loader,,OROPS,Yes,,None or Unspecified,,,,,,,,2 Valve,,,,,None or Unspecified,None or Unspecified,,,,,,,,,,,,,Standard,Conventional
4862,2341559,28000,1766521,136,1.0,1000,0.0,,9/23/2009 0:00,TC44H,TC44,H,,,,Wheel Loader - 100.0 to 110.0 Horsepower,Texas,WL,Wheel Loader,,EROPS w AC,None or Unspecified,,None or Unspecified,,,,,,,,2 Valve,,,,,None or Unspecified,Manual,,,,,,,,,,,,,Standard,Conventional
4862,2341562,26000,1713209,136,1.0,1000,0.0,,3/25/2009 0:00,TC44H,TC44,H,,,,Wheel Loader - 100.0 to 110.0 Horsepower,Texas,WL,Wheel Loader,,OROPS,None or Unspecified,,None or Unspecified,,,,,,,,2 Valve,,,,,20.5,None or Unspecified,,,,,,,,,,,,,Standard,Conventional
4862,2341566,25000,1727964,136,4.0,1999,0.0,,2/8/2010 0:00,TC44H,TC44,H,,,,Wheel Loader - 100.0 to 110.0 Horsepower,Florida,WL,Wheel Loader,,EROPS,Yes,,None or Unspecified,,,,,,,,2 Valve,,,,,20.5,None or Unspecified,,,,,,,,,,,,,Standard,Conventional
4862,2341567,29500,1727964,136,,1999,0.0,,2/13/2009 0:00,TC44H,TC44,H,,,,Wheel Loader - 100.0 to 110.0 Horsepower,Florida,WL,Wheel Loader,,EROPS,Yes,,None or Unspecified,,,,,,,,2 Valve,,,,,20.5,None or Unspecified,,,,,,,,,,,,,Standard,Conventional
4862,2341569,33000,1691433,136,1.0,1999,0.0,,9/24/2008 0:00,TC44H,TC44,H,,,,Wheel Loader - 100.0 to 110.0 Horsepower,Texas,WL,Wheel Loader,,EROPS w AC,None or Unspecified,,None or Unspecified,,,,,,,,2 Valve,,,,,None or Unspecified,Manual,,,,,,,,,,,,,Standard,Conventional
4862,2341571,29000,1778995,136,1.0,2000,0.0,,5/7/2008 0:00,TC44H,TC44,H,,,,Wheel Loader - 100.0 to 110.0 Horsepower,Texas,WL,Wheel Loader,,OROPS,Yes,,None or Unspecified,,,,,,,,2 Valve,,,,,None or Unspecified,None or Unspecified,,,,,,,,,,,,,Standard,Conventional
4862,2341572,34000,1717167,136,1.0,2000,0.0,,5/7/2008 0:00,TC44H,TC44,H,,,,Wheel Loader - 100.0 to 110.0 Horsepower,Texas,WL,Wheel Loader,,OROPS,Yes,,None or Unspecified,,,,,,,,2 Valve,,,,,None or Unspecified,None or Unspecified,,,,,,,,,,,,,Standard,Conventional
4862,2341573,34000,1698831,136,1.0,2000,0.0,,5/7/2008 0:00,TC44H,TC44,H,,,,Wheel Loader - 100.0 to 110.0 Horsepower,Texas,WL,Wheel Loader,,OROPS,Yes,,None or Unspecified,,,,,,,,2 Valve,,,,,None or Unspecified,None or Unspecified,,,,,,,,,,,,,Standard,Conventional
4862,2341577,57000,1738215,136,1.0,2002,0.0,,9/11/2008 0:00,TC44H,TC44,H,,,,Wheel Loader - 100.0 to 110.0 Horsepower,Missouri,WL,Wheel Loader,,EROPS,Yes,,None or Unspecified,,,,,,,,2 Valve,,,,,None or Unspecified,None or Unspecified,,,,,,,,,,,,,Standard,Conventional
4862,2341580,22000,1768237,136,1.0,2003,0.0,,8/20/2008 0:00,TC44H,TC44,H,,,,Wheel Loader - 100.0 to 110.0 Horsepower,Texas,WL,Wheel Loader,,OROPS,None or Unspecified,,None or Unspecified,,,,,,,,2 Valve,,,,,None or Unspecified,None or Unspecified,,,,,,,,,,,,,Standard,Conventional
4862,2341581,22000,1662982,136,1.0,2003,0.0,,8/20/2008 0:00,TC44H,TC44,H,,,,Wheel Loader - 100.0 to 110.0 Horsepower,Texas,WL,Wheel Loader,,OROPS,None or Unspecified,,None or Unspecified,,,,,,,,2 Valve,,,,,None or Unspecified,None or Unspecified,,,,,,,,,,,,,Standard,Conventional
4862,2341635,56000,1767153,136,1.0,2002,0.0,,6/26/2008 0:00,TC44H,TC44,H,,,,Wheel Loader - 100.0 to 110.0 Horsepower,Georgia,WL,Wheel Loader,,EROPS w AC,Yes,,None or Unspecified,,,,,,,,2 Valve,,,,,20.5,None or Unspecified,,,,,,,,,,,,,Standard,Conventional
4862,2636558,26000,1834414,149,1.0,1997,0.0,,4/13/2011 0:00,TC44H,TC44,H,,,,Wheel Loader - 100.0 to 110.0 Horsepower,Texas,WL,Wheel Loader,,EROPS w AC,Yes,,None or Unspecified,,,,,,,,2 Valve,,,,,None or Unspecified,Manual,,,,,,,,,,,,,Standard,Conventional
4862,2636560,25000,1804187,149,2.0,1000,0.0,,4/12/2011 0:00,TC44H,TC44,H,,,,Wheel Loader - 100.0 to 110.0 Horsepower,Texas,WL,Wheel Loader,,EROPS,None or Unspecified,,None or Unspecified,,,,,,,,2 Valve,,,,,None or Unspecified,None or Unspecified,,,,,,,,,,,,,Standard,Conventional
4862,2636561,29000,1904497,149,1.0,1998,17284.0,Medium,3/15/2011 0:00,TC44H,TC44,H,,,,Wheel Loader - 100.0 to 110.0 Horsepower,Tennessee,WL,Wheel Loader,,EROPS w AC,Yes,,None or Unspecified,,,,,,,,2 Valve,,,,,17.5,Manual,,,,,,,,,,,,,Standard,Conventional
4862,2636563,39000,1920561,149,27.0,1999,4224.0,Low,12/28/2010 0:00,TC44H,TC44,H,,,,Wheel Loader - 100.0 to 110.0 Horsepower,North Carolina,WL,Wheel Loader,,EROPS w AC,None or Unspecified,,None or Unspecified,,,,,,,,2 Valve,,,,,None or Unspecified,None or Unspecified,,,,,,,,,,,,,Standard,Conventional
4862,4313699,26000,2271016,172,1.0,1997,,,6/21/2011 0:00,TC44H,TC44,H,,,,Wheel Loader - 100.0 to 110.0 Horsepower,Texas,WL,Wheel Loader,,EROPS w AC,Yes,,Yes,,,,,,,,2 Valve,,,,,None or Unspecified,None or Unspecified,,,,,,,,,,,,,Standard,Conventional
4862,6282876,36000,825192,149,1.0,1998,,,12/13/2011 0:00,TC44H,TC44,H,,,,Wheel Loader - 100.0 to 110.0 Horsepower,Maryland,WL,Wheel Loader,,EROPS,None or Unspecified,,None or Unspecified,,,,,,,,2 Valve,,,,,None or Unspecified,None or Unspecified,,,,,,,,,,,,,Standard,Conventional
4862,6284348,41000,1834414,149,2.0,1000,,,9/24/2011 0:00,TC44H,TC44,H,,,,Wheel Loader - 100.0 to 110.0 Horsepower,New Jersey,WL,Wheel Loader,,EROPS w AC,Yes,,None or Unspecified,,,,,,,,2 Valve,,,,,None or Unspecified,Manual,,,,,,,,,,,,,Standard,Conventional
4862,6284349,26000,1834414,149,1.0,1997,,,6/22/2011 0:00,TC44H,TC44,H,,,,Wheel Loader - 100.0 to 110.0 Horsepower,Texas,WL,Wheel Loader,,EROPS w AC,Yes,,None or Unspecified,,,,,,,,2 Valve,,,,,None or Unspecified,Manual,,,,,,,,,,,,,Standard,Conventional
