ModelID,SalesID,SalePrice,MachineID,datasource,auctioneerID,YearMade,MachineHoursCurrentMeter,UsageBand,saledate,fiModelDesc,fiBaseModel,fiSecondaryDesc,fiModelSeries,fiModelDescriptor,ProductSize,fiProductClassDesc,state,ProductGroup,ProductGroupDesc,Drive_System,Enclosure,Forks,Pad_Type,Ride_Control,Stick,Transmission,Turbocharged,Blade_Extension,Blade_Width,Enclosure_Type,Engine_Horsepower,Hydraulics,Pushblock,Ripper,Scarifier,Tip_Control,Tire_Size,Coupler,Coupler_System,Grouser_Tracks,Hydraulics_Flow,Track_Type,Undercarriage_Pad_Width,Stick_Length,Thumb,Pattern_Changer,Grouser_Type,Backhoe_Mounting,Blade_Type,Travel_Controls,Differential_Type,Steering_Controls
4889,1174993,9000,1000807,121,3.0,1981,5508.0,Low,2/24/2005 0:00,TD25E,TD25,E,,,Large,"Track Type Tractor, Dozer - 260.0 + Horsepower",Georgia,TTT,Track Type Tractors,,OROPS,,,,,Standard,,,,,,2 Valve,,None or Unspecified,,,,,,,,,,,,,,None or Unspecified,None or Unspecified,None or Unspecified,,
4889,2359330,13000,1665696,136,4.0,1981,0.0,,11/8/2007 0:00,TD25E,TD25,E,,,Large,"Track Type Tractor, Dozer - 260.0 + Horsepower",New Hampshire,TTT,Track Type Tractors,,OROPS,,,,,Standard,,,,,,2 Valve,,None or Unspecified,,,,,,,,,,,,,,None or Unspecified,None or Unspecified,None or Unspecified,,
4889,2359336,28000,1733241,136,1.0,1981,0.0,,11/6/2007 0:00,TD25E,TD25,E,,,Large,"Track Type Tractor, Dozer - 260.0 + Horsepower",Tennessee,TTT,Track Type Tractors,,OROPS,,,,,Standard,,,,,,2 Valve,,None or Unspecified,,,,,,,,,,,,,,None or Unspecified,Straight,None or Unspecified,,
4889,2359828,13000,1746866,136,1.0,1000,0.0,,9/25/2007 0:00,TD25E,TD25,E,,,Large,"Track Type Tractor, Dozer - 260.0 + Horsepower",Colorado,TTT,Track Type Tractors,,EROPS,,,,,Standard,,,,,,2 Valve,,Single Shank,,,,,,,,,,,,,,None or Unspecified,Semi U,None or Unspecified,,
4889,2359829,10500,1667702,136,22.0,1000,0.0,,12/8/2007 0:00,TD25E,TD25,E,,,Large,"Track Type Tractor, Dozer - 260.0 + Horsepower",Minnesota,TTT,Track Type Tractors,,OROPS,,,,,Standard,,,,,,2 Valve,,None or Unspecified,,,,,,,,,,,,,,None or Unspecified,None or Unspecified,None or Unspecified,,
4889,2359832,12500,1761985,136,1.0,1000,0.0,,9/29/2009 0:00,TD25E,TD25,E,,,Large,"Track Type Tractor, Dozer - 260.0 + Horsepower",California,TTT,Track Type Tractors,,OROPS,,,,,Standard,,,,,,2 Valve,,None or Unspecified,,,,,,,,,,,,,,None or Unspecified,Semi U,None or Unspecified,,
4889,2359833,24000,1759512,136,1.0,1000,0.0,,3/26/2007 0:00,TD25E,TD25,E,,,Large,"Track Type Tractor, Dozer - 260.0 + Horsepower",Connecticut,TTT,Track Type Tractors,,EROPS,,,,,Standard,,,,,,2 Valve,,None or Unspecified,,,,,,,,,,,,,,None or Unspecified,Semi U,None or Unspecified,,
4889,2359834,12500,1691624,136,1.0,1000,0.0,,9/29/2009 0:00,TD25E,TD25,E,,,Large,"Track Type Tractor, Dozer - 260.0 + Horsepower",California,TTT,Track Type Tractors,,OROPS,,,,,Standard,,,,,,2 Valve,,None or Unspecified,,,,,,,,,,,,,,None or Unspecified,Semi U,None or Unspecified,,
4889,2359852,12500,1644360,136,1.0,1983,0.0,,6/14/2007 0:00,TD25E,TD25,E,,,Large,"Track Type Tractor, Dozer - 260.0 + Horsepower",Colorado,TTT,Track Type Tractors,,OROPS,,,,,Standard,,,,,,2 Valve,,Single Shank,,,,,,,,,,,,,,None or Unspecified,None or Unspecified,None or Unspecified,,
4889,2360290,12000,1696797,136,13.0,1000,3241.0,Low,6/20/2009 0:00,TD25E,TD25,E,,,Large,"Track Type Tractor, Dozer - 260.0 + Horsepower",Tennessee,TTT,Track Type Tractors,,OROPS,,,,,Standard,,,,,,2 Valve,,Multi Shank,,,,,,,,,,,,,,None or Unspecified,Semi U,None or Unspecified,,
4889,2655222,9000,1794599,149,26.0,1000,0.0,,9/8/2010 0:00,TD25E,TD25,E,,,Large,"Track Type Tractor, Dozer - 260.0 + Horsepower",Alabama,TTT,Track Type Tractors,,EROPS,,,,,Standard,,,,,,2 Valve,,None or Unspecified,,,,,,,,,,,,,,None or Unspecified,Straight,None or Unspecified,,
4889,2655223,9500,1794599,149,26.0,1000,0.0,,6/9/2010 0:00,TD25E,TD25,E,,,Large,"Track Type Tractor, Dozer - 260.0 + Horsepower",Alabama,TTT,Track Type Tractors,,EROPS,,,,,Standard,,,,,,2 Valve,,None or Unspecified,,,,,,,,,,,,,,None or Unspecified,Straight,None or Unspecified,,
4889,4326506,16000,2298646,172,1.0,1979,1285.0,Low,9/14/2011 0:00,TD25E,TD25,E,,,Large,"Track Type Tractor, Dozer - 260.0 + Horsepower",Missouri,TTT,Track Type Tractors,,EROPS,,,,,Standard,,,,,,2 Valve,,Multi Shank,,,,,,,,,,,,,,None or Unspecified,Semi U,None or Unspecified,,
4889,6288520,16000,1805949,149,1.0,1979,,,9/15/2011 0:00,TD25E,TD25,E,,,Large,"Track Type Tractor, Dozer - 260.0 + Horsepower",Missouri,TTT,Track Type Tractors,,EROPS,,,,,Standard,,,,,,2 Valve,,Multi Shank,,,,,,,,,,,,,,None or Unspecified,Semi U,None or Unspecified,,
