ModelID,SalesID,SalePrice,MachineID,datasource,auctioneerID,YearMade,MachineHoursCurrentMeter,UsageBand,saledate,fiModelDesc,fiBaseModel,fiSecondaryDesc,fiModelSeries,fiModelDescriptor,ProductSize,fiProductClassDesc,state,ProductGroup,ProductGroupDesc,Drive_System,Enclosure,Forks,Pad_Type,Ride_Control,Stick,Transmission,Turbocharged,Blade_Extension,Blade_Width,Enclosure_Type,Engine_Horsepower,Hydraulics,Pushblock,Ripper,Scarifier,Tip_Control,Tire_Size,Coupler,Coupler_System,Grouser_Tracks,Hydraulics_Flow,Track_Type,Undercarriage_Pad_Width,Stick_Length,Thumb,Pattern_Changer,Grouser_Type,Backhoe_Mounting,Blade_Type,Travel_Controls,Differential_Type,Steering_Controls
491,1139568,32000,1042687,121,3.0,1996,13582.0,High,12/14/2006 0:00,PC400HD-5,PC400,HD,-5,,Large / Medium,"Hydraulic Excavator, Track - 40.0 to 50.0 Metric Tons",Maine,TEX,Track Excavators,,EROPS w AC,,,,,,,,,,,Standard,,,,,,None or Unspecified,,,,Steel,None or Unspecified,None or Unspecified,None or Unspecified,None or Unspecified,Double,,,,,
491,1150654,32000,1045508,121,3.0,1000,7092.0,Low,6/9/2011 0:00,PC400HD-5,PC400,HD,-5,,Large / Medium,"Hydraulic Excavator, Track - 40.0 to 50.0 Metric Tons",Alabama,TEX,Track Excavators,,EROPS w AC,,,,,,,,,,,Standard,,,,,,None or Unspecified,,,,Steel,None or Unspecified,None or Unspecified,Manual,None or Unspecified,Double,,,,,
491,2401888,17000,1670155,136,,1993,0.0,,6/25/2008 0:00,PC400HD-5,PC400,HD,-5,,Large / Medium,"Hydraulic Excavator, Track - 40.0 to 50.0 Metric Tons",Maryland,TEX,Track Excavators,,EROPS,,,,,,,,,,,Auxiliary,,,,,,None or Unspecified,,,,Steel,None or Unspecified,None or Unspecified,None or Unspecified,None or Unspecified,Double,,,,,
491,2401954,35000,1100773,136,1.0,1994,0.0,,6/6/2007 0:00,PC400HD-5,PC400,HD,-5,,Large / Medium,"Hydraulic Excavator, Track - 40.0 to 50.0 Metric Tons",Alabama,TEX,Track Excavators,,EROPS,,,,,,,,,,,Standard,,,,,,None or Unspecified,,,,Steel,None or Unspecified,None or Unspecified,None or Unspecified,None or Unspecified,Triple,,,,,
491,2401993,9500,584968,136,1.0,1994,0.0,,8/4/2009 0:00,PC400HD-5,PC400,HD,-5,,Large / Medium,"Hydraulic Excavator, Track - 40.0 to 50.0 Metric Tons",Idaho,TEX,Track Excavators,,EROPS,,,,,,,,,,,Standard,,,,,,None or Unspecified,,,,Steel,None or Unspecified,None or Unspecified,Hydraulic,None or Unspecified,Double,,,,,
491,4356265,20000,1843946,172,1.0,1992,9104.0,Medium,12/13/2011 0:00,PC400HD-5,PC400,HD,-5,,Large / Medium,"Hydraulic Excavator, Track - 40.0 to 50.0 Metric Tons",North Carolina,TEX,Track Excavators,,EROPS w AC,,,,,,,,,,,Auxiliary,,,,,,None or Unspecified,,,,Rubber,None or Unspecified,None or Unspecified,Hydraulic,None or Unspecified,Triple,,,,,
491,6302024,20000,1686574,149,1.0,1992,,,12/14/2011 0:00,PC400HD-5,PC400,HD,-5,,Large / Medium,"Hydraulic Excavator, Track - 40.0 to 50.0 Metric Tons",North Carolina,TEX,Track Excavators,,EROPS,,,,,,,,,,,Standard,,,,,,Manual,,,,Steel,None or Unspecified,None or Unspecified,Hydraulic,None or Unspecified,Double,,,,,
