ModelID,SalesID,SalePrice,MachineID,datasource,auctioneerID,YearMade,MachineHoursCurrentMeter,UsageBand,saledate,fiModelDesc,fiBaseModel,fiSecondaryDesc,fiModelSeries,fiModelDescriptor,ProductSize,fiProductClassDesc,state,ProductGroup,ProductGroupDesc,Drive_System,Enclosure,Forks,Pad_Type,Ride_Control,Stick,Transmission,Turbocharged,Blade_Extension,Blade_Width,Enclosure_Type,Engine_Horsepower,Hydraulics,Pushblock,Ripper,Scarifier,Tip_Control,Tire_Size,Coupler,Coupler_System,Grouser_Tracks,Hydraulics_Flow,Track_Type,Undercarriage_Pad_Width,Stick_Length,Thumb,Pattern_Changer,Grouser_Type,Backhoe_Mounting,Blade_Type,Travel_Controls,Differential_Type,Steering_Controls
4946,1191431,10500,1019766,121,3.0,1000,13232.0,Low,6/11/2009 0:00,10C,10,C,,,Medium,"Track Type Tractor, Dozer - 105.0 to 130.0 Horsepower",Kentucky,TTT,Track Type Tractors,,OROPS,,,,,Powershift,,,,,,2 Valve,,None or Unspecified,,,,,,,,,,,,,,None or Unspecified,None or Unspecified,None or Unspecified,,
4946,1653615,11000,1224409,132,11.0,1980,,,9/6/2000 0:00,10C,10,C,,,Medium,"Track Type Tractor, Dozer - 105.0 to 130.0 Horsepower",Mississippi,TTT,Track Type Tractors,,OROPS,,,,,Standard,,,,,,2 Valve,,None or Unspecified,,,,,,,,,,,,,,None or Unspecified,None or Unspecified,None or Unspecified,,
4946,1653626,10500,1467121,132,1.0,1981,,,6/16/2004 0:00,10C,10,C,,,Medium,"Track Type Tractor, Dozer - 105.0 to 130.0 Horsepower",Texas,TTT,Track Type Tractors,,OROPS,,,,,Standard,,,,,,2 Valve,,None or Unspecified,,,,,,,,,,,,,,None or Unspecified,Straight,None or Unspecified,,
4946,1653627,11250,1521031,132,13.0,1982,,,11/23/1996 0:00,10C,10,C,,,Medium,"Track Type Tractor, Dozer - 105.0 to 130.0 Horsepower",Tennessee,TTT,Track Type Tractors,,OROPS,,,,,Standard,,,,,,2 Valve,,None or Unspecified,,,,,,,,,,,,,,None or Unspecified,None or Unspecified,None or Unspecified,,
4946,1653634,8500,1401834,132,1.0,1000,,,10/26/1999 0:00,10C,10,C,,,Medium,"Track Type Tractor, Dozer - 105.0 to 130.0 Horsepower",Idaho,TTT,Track Type Tractors,,OROPS,,,,,Standard,,,,,,2 Valve,,Multi Shank,,,,,,,,,,,,,,None or Unspecified,None or Unspecified,None or Unspecified,,
4946,1653636,10000,1489811,132,1.0,1982,,,9/15/2006 0:00,10C,10,C,,,Medium,"Track Type Tractor, Dozer - 105.0 to 130.0 Horsepower",Missouri,TTT,Track Type Tractors,,EROPS,,,,,Standard,,,,,,2 Valve,,None or Unspecified,,,,,,,,,,,,,,None or Unspecified,None or Unspecified,None or Unspecified,,
4946,1653704,26500,1118729,132,11.0,1980,,,5/29/1997 0:00,10C,10,C,,,Medium,"Track Type Tractor, Dozer - 105.0 to 130.0 Horsepower",Mississippi,TTT,Track Type Tractors,,OROPS,,,,,Powershift,,,,,,2 Valve,,None or Unspecified,,,,,,,,,,,,,,None or Unspecified,None or Unspecified,None or Unspecified,,
4946,1653705,17000,1196203,132,20.0,1980,,,7/20/1995 0:00,10C,10,C,,,Medium,"Track Type Tractor, Dozer - 105.0 to 130.0 Horsepower",Missouri,TTT,Track Type Tractors,,OROPS,,,,,Powershift,,,,,,2 Valve,,Multi Shank,,,,,,,,,,,,,,None or Unspecified,Straight,None or Unspecified,,
4946,1653715,8250,1120788,132,6.0,1980,,,5/21/1994 0:00,10C,10,C,,,Medium,"Track Type Tractor, Dozer - 105.0 to 130.0 Horsepower",Pennsylvania,TTT,Track Type Tractors,,OROPS,,,,,Standard,,,,,,2 Valve,,None or Unspecified,,,,,,,,,,,,,,None or Unspecified,None or Unspecified,None or Unspecified,,
4946,1653724,11500,1348764,132,1.0,1980,,,9/21/1999 0:00,10C,10,C,,,Medium,"Track Type Tractor, Dozer - 105.0 to 130.0 Horsepower",Texas,TTT,Track Type Tractors,,EROPS,,,,,Standard,,,,,,2 Valve,,None or Unspecified,,,,,,,,,,,,,,None or Unspecified,Semi U,None or Unspecified,,
4946,1653728,11000,1227838,132,10.0,1980,,,4/10/1997 0:00,10C,10,C,,,Medium,"Track Type Tractor, Dozer - 105.0 to 130.0 Horsepower",Louisiana,TTT,Track Type Tractors,,OROPS,,,,,Powershift,,,,,,2 Valve,,None or Unspecified,,,,,,,,,,,,,,None or Unspecified,Straight,None or Unspecified,,
4946,1653734,12000,1524573,132,8.0,1000,,,11/17/2004 0:00,10C,10,C,,,Medium,"Track Type Tractor, Dozer - 105.0 to 130.0 Horsepower",Mississippi,TTT,Track Type Tractors,,OROPS,,,,,Standard,,,,,,2 Valve,,None or Unspecified,,,,,,,,,,,,,,None or Unspecified,Semi U,None or Unspecified,,
4946,1653737,14000,1371039,132,1.0,1000,,,9/30/1997 0:00,10C,10,C,,,Medium,"Track Type Tractor, Dozer - 105.0 to 130.0 Horsepower",Ohio,TTT,Track Type Tractors,,OROPS,,,,,Standard,,,,,,2 Valve,,None or Unspecified,,,,,,,,,,,,,,None or Unspecified,None or Unspecified,None or Unspecified,,
4946,1653740,8000,1300449,132,10.0,1981,,,3/14/2007 0:00,10C,10,C,,,Medium,"Track Type Tractor, Dozer - 105.0 to 130.0 Horsepower",Louisiana,TTT,Track Type Tractors,,OROPS,,,,,Standard,,,,,,2 Valve,,None or Unspecified,,,,,,,,,,,,,,None or Unspecified,Straight,None or Unspecified,,
4946,1653741,17000,1551256,132,1.0,1000,,,6/12/2003 0:00,10C,10,C,,,Medium,"Track Type Tractor, Dozer - 105.0 to 130.0 Horsepower",Texas,TTT,Track Type Tractors,,EROPS,,,,,Standard,,,,,,2 Valve,,None or Unspecified,,,,,,,,,,,,,,None or Unspecified,Straight,None or Unspecified,,
4946,1653747,11500,1197772,132,1.0,1981,,,2/28/2002 0:00,10C,10,C,,,Medium,"Track Type Tractor, Dozer - 105.0 to 130.0 Horsepower",Texas,TTT,Track Type Tractors,,OROPS,,,,,Standard,,,,,,2 Valve,,None or Unspecified,,,,,,,,,,,,,,None or Unspecified,Semi U,None or Unspecified,,
4946,1653748,14000,1227945,132,7.0,1982,,,6/20/1997 0:00,10C,10,C,,,Medium,"Track Type Tractor, Dozer - 105.0 to 130.0 Horsepower",Alabama,TTT,Track Type Tractors,,OROPS,,,,,Standard,,,,,,2 Valve,,None or Unspecified,,,,,,,,,,,,,,None or Unspecified,Straight,None or Unspecified,,
4946,1653749,12000,1227945,132,14.0,1982,,,10/31/1997 0:00,10C,10,C,,,Medium,"Track Type Tractor, Dozer - 105.0 to 130.0 Horsepower",Ohio,TTT,Track Type Tractors,,OROPS,,,,,Standard,,,,,,2 Valve,,None or Unspecified,,,,,,,,,,,,,,None or Unspecified,Straight,None or Unspecified,,
4946,1653756,16000,1484751,132,2.0,1982,,,5/15/1999 0:00,10C,10,C,,,Medium,"Track Type Tractor, Dozer - 105.0 to 130.0 Horsepower",New York,TTT,Track Type Tractors,,OROPS,,,,,Standard,,,,,,2 Valve,,None or Unspecified,,,,,,,,,,,,,,None or Unspecified,PAT,None or Unspecified,,
4946,1653759,15500,1402277,132,1.0,1982,3619.0,Low,12/15/2010 0:00,10C,10,C,,,Medium,"Track Type Tractor, Dozer - 105.0 to 130.0 Horsepower",Missouri,TTT,Track Type Tractors,,EROPS,,,,,Standard,,,,,,2 Valve,,None or Unspecified,,,,,,,,,,,,,,None or Unspecified,Straight,None or Unspecified,,
4946,1653760,14500,1391493,132,2.0,1982,,,8/20/1994 0:00,10C,10,C,,,Medium,"Track Type Tractor, Dozer - 105.0 to 130.0 Horsepower",New York,TTT,Track Type Tractors,,OROPS,,,,,Standard,,,,,,2 Valve,,None or Unspecified,,,,,,,,,,,,,,None or Unspecified,Straight,None or Unspecified,,
4946,1653765,8000,1517218,132,1.0,1983,,,5/6/2010 0:00,10C,10,C,,,Medium,"Track Type Tractor, Dozer - 105.0 to 130.0 Horsepower",Texas,TTT,Track Type Tractors,,OROPS,,,,,Standard,,,,,,2 Valve,,None or Unspecified,,,,,,,,,,,,,,None or Unspecified,Straight,None or Unspecified,,
4946,1653770,14500,1431238,132,99.0,1983,,,5/10/1995 0:00,10C,10,C,,,Medium,"Track Type Tractor, Dozer - 105.0 to 130.0 Horsepower",Mississippi,TTT,Track Type Tractors,,EROPS,,,,,Standard,,,,,,2 Valve,,None or Unspecified,,,,,,,,,,,,,,None or Unspecified,Straight,None or Unspecified,,
4946,1653772,16500,1097404,132,99.0,1983,,,4/16/1998 0:00,10C,10,C,,,Medium,"Track Type Tractor, Dozer - 105.0 to 130.0 Horsepower",Maine,TTT,Track Type Tractors,,OROPS,,,,,Standard,,,,,,2 Valve,,None or Unspecified,,,,,,,,,,,,,,None or Unspecified,None or Unspecified,None or Unspecified,,
4946,1653773,15000,1097404,132,2.0,1986,,,3/24/2000 0:00,10C,10,C,,,Medium,"Track Type Tractor, Dozer - 105.0 to 130.0 Horsepower",Indiana,TTT,Track Type Tractors,,OROPS,,,,,Standard,,,,,,2 Valve,,None or Unspecified,,,,,,,,,,,,,,None or Unspecified,None or Unspecified,None or Unspecified,,
4946,1653774,9750,1125772,132,28.0,1983,,,6/9/2000 0:00,10C,10,C,,,Medium,"Track Type Tractor, Dozer - 105.0 to 130.0 Horsepower",Mississippi,TTT,Track Type Tractors,,OROPS,,,,,Standard,,,,,,2 Valve,,None or Unspecified,,,,,,,,,,,,,,None or Unspecified,Straight,None or Unspecified,,
4946,1653775,15500,1208753,132,10.0,1983,,,12/7/1995 0:00,10C,10,C,,,Medium,"Track Type Tractor, Dozer - 105.0 to 130.0 Horsepower",Louisiana,TTT,Track Type Tractors,,OROPS,,,,,Powershift,,,,,,2 Valve,,None or Unspecified,,,,,,,,,,,,,,None or Unspecified,Straight,None or Unspecified,,
4946,1653780,15000,1387723,132,2.0,1983,,,1/29/1994 0:00,10C,10,C,,,Medium,"Track Type Tractor, Dozer - 105.0 to 130.0 Horsepower",New Hampshire,TTT,Track Type Tractors,,OROPS,,,,,Standard,,,,,,2 Valve,,None or Unspecified,,,,,,,,,,,,,,None or Unspecified,Straight,None or Unspecified,,
4946,1653782,13500,1418967,132,27.0,1984,,,9/16/2005 0:00,10C,10,C,,,Medium,"Track Type Tractor, Dozer - 105.0 to 130.0 Horsepower",North Carolina,TTT,Track Type Tractors,,OROPS,,,,,Powershift,,,,,,2 Valve,,None or Unspecified,,,,,,,,,,,,,,None or Unspecified,Angle,None or Unspecified,,
4946,1653789,10000,1086166,132,18.0,1984,,,6/24/1995 0:00,10C,10,C,,,Medium,"Track Type Tractor, Dozer - 105.0 to 130.0 Horsepower",Pennsylvania,TTT,Track Type Tractors,,OROPS,,,,,Powershift,,,,,,2 Valve,,None or Unspecified,,,,,,,,,,,,,,None or Unspecified,Straight,None or Unspecified,,
4946,1653792,18500,735973,132,10.0,1984,,,6/26/1997 0:00,10C,10,C,,,Medium,"Track Type Tractor, Dozer - 105.0 to 130.0 Horsepower",Louisiana,TTT,Track Type Tractors,,OROPS,,,,,Standard,,,,,,2 Valve,,None or Unspecified,,,,,,,,,,,,,,None or Unspecified,Straight,None or Unspecified,,
4946,1653793,21500,735973,132,10.0,1984,,,8/28/1997 0:00,10C,10,C,,,Medium,"Track Type Tractor, Dozer - 105.0 to 130.0 Horsepower",Louisiana,TTT,Track Type Tractors,,OROPS,,,,,Standard,,,,,,2 Valve,,None or Unspecified,,,,,,,,,,,,,,None or Unspecified,Straight,None or Unspecified,,
4946,1653795,15000,1270759,132,1.0,1985,,,10/3/1995 0:00,10C,10,C,,,Medium,"Track Type Tractor, Dozer - 105.0 to 130.0 Horsepower",Texas,TTT,Track Type Tractors,,OROPS,,,,,Standard,,,,,,2 Valve,,None or Unspecified,,,,,,,,,,,,,,None or Unspecified,None or Unspecified,None or Unspecified,,
4946,1653799,9000,1284537,132,12.0,1986,,,5/28/1997 0:00,10C,10,C,,,Medium,"Track Type Tractor, Dozer - 105.0 to 130.0 Horsepower",South Carolina,TTT,Track Type Tractors,,OROPS,,,,,Powershift,,,,,,2 Valve,,None or Unspecified,,,,,,,,,,,,,,None or Unspecified,Straight,None or Unspecified,,
4946,1653800,9500,1466333,132,7.0,1000,,,6/2/2005 0:00,10C,10,C,,,Medium,"Track Type Tractor, Dozer - 105.0 to 130.0 Horsepower",Alabama,TTT,Track Type Tractors,,OROPS,,,,,Standard,,,,,,2 Valve,,None or Unspecified,,,,,,,,,,,,,,None or Unspecified,Straight,None or Unspecified,,
4946,1653801,14000,1424754,132,7.0,1986,,,3/2/2000 0:00,10C,10,C,,,Medium,"Track Type Tractor, Dozer - 105.0 to 130.0 Horsepower",Alabama,TTT,Track Type Tractors,,OROPS,,,,,Standard,,,,,,2 Valve,,None or Unspecified,,,,,,,,,,,,,,None or Unspecified,Straight,None or Unspecified,,
4946,1653802,11000,1463442,132,8.0,1986,,,3/26/2003 0:00,10C,10,C,,,Medium,"Track Type Tractor, Dozer - 105.0 to 130.0 Horsepower",Mississippi,TTT,Track Type Tractors,,OROPS,,,,,Standard,,,,,,2 Valve,,None or Unspecified,,,,,,,,,,,,,,None or Unspecified,Straight,None or Unspecified,,
4946,1653805,17500,1311367,132,11.0,1986,,,4/28/1994 0:00,10C,10,C,,,Medium,"Track Type Tractor, Dozer - 105.0 to 130.0 Horsepower",Mississippi,TTT,Track Type Tractors,,OROPS,,,,,Standard,,,,,,2 Valve,,None or Unspecified,,,,,,,,,,,,,,None or Unspecified,Straight,None or Unspecified,,
4946,1653806,8500,1504580,132,99.0,1986,,,11/17/1994 0:00,10C,10,C,,,Medium,"Track Type Tractor, Dozer - 105.0 to 130.0 Horsepower",Texas,TTT,Track Type Tractors,,OROPS,,,,,Standard,,,,,,2 Valve,,None or Unspecified,,,,,,,,,,,,,,None or Unspecified,None or Unspecified,None or Unspecified,,
4946,1653825,15500,1117880,132,2.0,1986,,,5/13/1995 0:00,10C,10,C,,,Medium,"Track Type Tractor, Dozer - 105.0 to 130.0 Horsepower",New York,TTT,Track Type Tractors,,OROPS,,,,,Standard,,,,,,2 Valve,,None or Unspecified,,,,,,,,,,,,,,None or Unspecified,None or Unspecified,None or Unspecified,,
4946,1653832,17000,1319169,132,2.0,1987,,,5/15/1999 0:00,10C,10,C,,,Medium,"Track Type Tractor, Dozer - 105.0 to 130.0 Horsepower",New York,TTT,Track Type Tractors,,OROPS,,,,,Standard,,,,,,2 Valve,,None or Unspecified,,,,,,,,,,,,,,None or Unspecified,PAT,None or Unspecified,,
4946,1653845,13000,1232102,132,11.0,1000,,,3/21/2000 0:00,10C,10,C,,,Medium,"Track Type Tractor, Dozer - 105.0 to 130.0 Horsepower",Mississippi,TTT,Track Type Tractors,,OROPS,,,,,Standard,,,,,,2 Valve,,None or Unspecified,,,,,,,,,,,,,,None or Unspecified,Straight,None or Unspecified,,
4946,1653848,9750,1523301,132,7.0,1988,,,9/6/2001 0:00,10C,10,C,,,Medium,"Track Type Tractor, Dozer - 105.0 to 130.0 Horsepower",Alabama,TTT,Track Type Tractors,,EROPS w AC,,,,,Standard,,,,,,2 Valve,,None or Unspecified,,,,,,,,,,,,,,None or Unspecified,Straight,None or Unspecified,,
4946,1653854,8000,1512246,132,2.0,1988,,,2/10/2006 0:00,10C,10,C,,,Medium,"Track Type Tractor, Dozer - 105.0 to 130.0 Horsepower",Florida,TTT,Track Type Tractors,,OROPS,,,,,Standard,,,,,,2 Valve,,None or Unspecified,,,,,,,,,,,,,,None or Unspecified,Straight,None or Unspecified,,
4946,1653855,8000,1512246,132,2.0,1000,,,2/5/2006 0:00,10C,10,C,,,Medium,"Track Type Tractor, Dozer - 105.0 to 130.0 Horsepower",Florida,TTT,Track Type Tractors,,OROPS,,,,,Standard,,,,,,2 Valve,,None or Unspecified,,,,,,,,,,,,,,None or Unspecified,Straight,None or Unspecified,,
4946,1653856,10000,1512246,132,4.0,1988,,,2/13/2006 0:00,10C,10,C,,,Medium,"Track Type Tractor, Dozer - 105.0 to 130.0 Horsepower",Florida,TTT,Track Type Tractors,,OROPS,,,,,Standard,,,,,,2 Valve,,None or Unspecified,,,,,,,,,,,,,,None or Unspecified,Straight,None or Unspecified,,
4946,1653857,10000,1512246,132,4.0,1988,,,2/15/2006 0:00,10C,10,C,,,Medium,"Track Type Tractor, Dozer - 105.0 to 130.0 Horsepower",Florida,TTT,Track Type Tractors,,OROPS,,,,,Standard,,,,,,2 Valve,,None or Unspecified,,,,,,,,,,,,,,None or Unspecified,Straight,None or Unspecified,,
4946,1653858,14500,1512246,132,13.0,1988,,,9/10/2005 0:00,10C,10,C,,,Medium,"Track Type Tractor, Dozer - 105.0 to 130.0 Horsepower",Tennessee,TTT,Track Type Tractors,,OROPS,,,,,Standard,,,,,,2 Valve,,None or Unspecified,,,,,,,,,,,,,,None or Unspecified,Straight,None or Unspecified,,
4946,1653859,8000,1211230,132,27.0,1000,,,7/21/2006 0:00,10C,10,C,,,Medium,"Track Type Tractor, Dozer - 105.0 to 130.0 Horsepower",North Carolina,TTT,Track Type Tractors,,OROPS,,,,,Standard,,,,,,2 Valve,,None or Unspecified,,,,,,,,,,,,,,None or Unspecified,Straight,None or Unspecified,,
4946,1653862,17500,1115788,132,10.0,1990,,,1/27/2000 0:00,10C,10,C,,,Medium,"Track Type Tractor, Dozer - 105.0 to 130.0 Horsepower",Louisiana,TTT,Track Type Tractors,,OROPS,,,,,Standard,,,,,,2 Valve,,None or Unspecified,,,,,,,,,,,,,,None or Unspecified,Straight,None or Unspecified,,
4946,1653863,24000,1114919,132,2.0,1990,,,2/10/1994 0:00,10C,10,C,,,Medium,"Track Type Tractor, Dozer - 105.0 to 130.0 Horsepower",Florida,TTT,Track Type Tractors,,OROPS,,,,,Standard,,,,,,2 Valve,,None or Unspecified,,,,,,,,,,,,,,None or Unspecified,None or Unspecified,None or Unspecified,,
4946,1653866,19000,1139787,132,1.0,1991,,,7/17/1997 0:00,10C,10,C,,,Medium,"Track Type Tractor, Dozer - 105.0 to 130.0 Horsepower",Georgia,TTT,Track Type Tractors,,OROPS,,,,,Standard,,,,,,2 Valve,,None or Unspecified,,,,,,,,,,,,,,None or Unspecified,Straight,None or Unspecified,,
4946,1653869,15000,1430448,132,7.0,1992,,,6/7/2001 0:00,10C,10,C,,,Medium,"Track Type Tractor, Dozer - 105.0 to 130.0 Horsepower",Alabama,TTT,Track Type Tractors,,EROPS,,,,,Standard,,,,,,2 Valve,,None or Unspecified,,,,,,,,,,,,,,None or Unspecified,Straight,None or Unspecified,,
4946,1653871,24000,1227498,132,4.0,1000,,,2/7/2005 0:00,10C,10,C,,,Medium,"Track Type Tractor, Dozer - 105.0 to 130.0 Horsepower",Florida,TTT,Track Type Tractors,,OROPS,,,,,Standard,,,,,,2 Valve,,Single Shank,,,,,,,,,,,,,,None or Unspecified,Angle,None or Unspecified,,
4946,1653872,24000,1227498,132,4.0,1992,,,2/9/2005 0:00,10C,10,C,,,Medium,"Track Type Tractor, Dozer - 105.0 to 130.0 Horsepower",Florida,TTT,Track Type Tractors,,OROPS,,,,,Standard,,,,,,2 Valve,,Single Shank,,,,,,,,,,,,,,None or Unspecified,Angle,None or Unspecified,,
4946,1654138,18000,1339647,132,4.0,1000,,,2/9/1995 0:00,10C,10,C,,,Medium,"Track Type Tractor, Dozer - 105.0 to 130.0 Horsepower",Florida,TTT,Track Type Tractors,,OROPS,,,,,Standard,,,,,,2 Valve,,None or Unspecified,,,,,,,,,,,,,,None or Unspecified,Straight,None or Unspecified,,
4946,1658010,8600,1386443,132,99.0,1000,,,7/15/2010 0:00,10C,10,C,,,Medium,"Track Type Tractor, Dozer - 105.0 to 130.0 Horsepower",Georgia,TTT,Track Type Tractors,,OROPS,,,,,Standard,,,,,,2 Valve,,None or Unspecified,,,,,,,,,,,,,,None or Unspecified,Straight,None or Unspecified,,
4946,1658295,13500,1157761,132,11.0,1000,,,3/29/2001 0:00,10C,10,C,,,Medium,"Track Type Tractor, Dozer - 105.0 to 130.0 Horsepower",Mississippi,TTT,Track Type Tractors,,OROPS,,,,,Standard,,,,,,2 Valve,,None or Unspecified,,,,,,,,,,,,,,None or Unspecified,Straight,None or Unspecified,,
4946,1658522,8000,1373941,132,10.0,1000,,,3/13/2007 0:00,10C,10,C,,,Medium,"Track Type Tractor, Dozer - 105.0 to 130.0 Horsepower",Louisiana,TTT,Track Type Tractors,,OROPS,,,,,Standard,,,,,,2 Valve,,None or Unspecified,,,,,,,,,,,,,,None or Unspecified,Straight,None or Unspecified,,
4946,2364686,13500,1656299,136,1.0,1000,0.0,,12/12/2008 0:00,10C,10,C,,,Medium,"Track Type Tractor, Dozer - 105.0 to 130.0 Horsepower",Missouri,TTT,Track Type Tractors,,EROPS,,,,,Standard,,,,,,2 Valve,,Multi Shank,,,,,,,,,,,,,,None or Unspecified,Semi U,None or Unspecified,,
4946,2364706,8750,1446314,136,20.0,1982,0.0,,4/16/2008 0:00,10C,10,C,,,Medium,"Track Type Tractor, Dozer - 105.0 to 130.0 Horsepower",Arkansas,TTT,Track Type Tractors,,OROPS,,,,,Powershift,,,,,,2 Valve,,None or Unspecified,,,,,,,,,,,,,,None or Unspecified,Angle,None or Unspecified,,
4946,2364711,9500,1685943,136,,1988,0.0,,4/18/2007 0:00,10C,10,C,,,Medium,"Track Type Tractor, Dozer - 105.0 to 130.0 Horsepower",Arkansas,TTT,Track Type Tractors,,OROPS,,,,,Powershift,,,,,,2 Valve,,None or Unspecified,,,,,,,,,,,,,,None or Unspecified,Angle,None or Unspecified,,
4946,2364715,10000,1694020,136,1.0,1000,0.0,,6/20/2007 0:00,10C,10,C,,,Medium,"Track Type Tractor, Dozer - 105.0 to 130.0 Horsepower",Louisiana,TTT,Track Type Tractors,,OROPS,,,,,Standard,,,,,,2 Valve,,None or Unspecified,,,,,,,,,,,,,,None or Unspecified,Straight,None or Unspecified,,
4946,2365817,8000,1490458,136,1.0,1000,0.0,,5/6/2010 0:00,10C,10,C,,,Medium,"Track Type Tractor, Dozer - 105.0 to 130.0 Horsepower",Texas,TTT,Track Type Tractors,,OROPS,,,,,Standard,,,,,,2 Valve,,None or Unspecified,,,,,,,,,,,,,,None or Unspecified,Straight,None or Unspecified,,
4946,2659654,15500,1366772,149,1.0,1982,3619.0,Low,12/15/2010 0:00,10C,10,C,,,Medium,"Track Type Tractor, Dozer - 105.0 to 130.0 Horsepower",Missouri,TTT,Track Type Tractors,,EROPS,,,,,Standard,,,,,,2 Valve,,None or Unspecified,,,,,,,,,,,,,,None or Unspecified,Straight,None or Unspecified,,
