ModelID,SalesID,SalePrice,MachineID,datasource,auctioneerID,YearMade,MachineHoursCurrentMeter,UsageBand,saledate,fiModelDesc,fiBaseModel,fiSecondaryDesc,fiModelSeries,fiModelDescriptor,ProductSize,fiProductClassDesc,state,ProductGroup,ProductGroupDesc,Drive_System,Enclosure,Forks,Pad_Type,Ride_Control,Stick,Transmission,Turbocharged,Blade_Extension,Blade_Width,Enclosure_Type,Engine_Horsepower,Hydraulics,Pushblock,Ripper,Scarifier,Tip_Control,Tire_Size,Coupler,Coupler_System,Grouser_Tracks,Hydraulics_Flow,Track_Type,Undercarriage_Pad_Width,Stick_Length,Thumb,Pattern_Changer,Grouser_Type,Backhoe_Mounting,Blade_Type,Travel_Controls,Differential_Type,Steering_Controls
4961,1653349,9500,1202454,132,99.0,1000,,,3/16/1995 0:00,8B,8,B,,,,"Track Type Tractor, Dozer - 85.0 to 105.0 Horsepower",Texas,TTT,Track Type Tractors,,OROPS,,,,,Standard,,,,,,2 Valve,,None or Unspecified,,,,,,,,,,,,,,None or Unspecified,None or Unspecified,None or Unspecified,,
4961,1653352,10000,1244424,132,1.0,1000,,,9/17/1998 0:00,8B,8,B,,,,"Track Type Tractor, Dozer - 85.0 to 105.0 Horsepower",Washington,TTT,Track Type Tractors,,OROPS,,,,,Standard,,,,,,2 Valve,,None or Unspecified,,,,,,,,,,,,,,None or Unspecified,Straight,None or Unspecified,,
4961,1653370,12500,1157701,132,2.0,1000,,,2/2/2003 0:00,8B,8,B,,,,"Track Type Tractor, Dozer - 85.0 to 105.0 Horsepower",Florida,TTT,Track Type Tractors,,OROPS,,,,,Standard,,,,,,2 Valve,,None or Unspecified,,,,,,,,,,,,,,None or Unspecified,None or Unspecified,None or Unspecified,,
4961,1653437,10000,1500020,132,2.0,1979,,,7/10/2004 0:00,8B,8,B,,,,"Track Type Tractor, Dozer - 85.0 to 105.0 Horsepower",New York,TTT,Track Type Tractors,,OROPS,,,,,Standard,,,,,,2 Valve,,None or Unspecified,,,,,,,,,,,,,,None or Unspecified,None or Unspecified,None or Unspecified,,
4961,1653443,11000,1390182,132,23.0,1980,,,12/8/1995 0:00,8B,8,B,,,,"Track Type Tractor, Dozer - 85.0 to 105.0 Horsepower",Pennsylvania,TTT,Track Type Tractors,,OROPS,,,,,Powershift,,,,,,2 Valve,,None or Unspecified,,,,,,,,,,,,,,None or Unspecified,PAT,None or Unspecified,,
4961,1654499,14000,1049428,132,1.0,1978,,,7/13/1989 0:00,8B,8,B,,,,"Track Type Tractor, Dozer - 85.0 to 105.0 Horsepower",Oklahoma,TTT,Track Type Tractors,,OROPS,,,,,Powershift,,,,,,2 Valve,,None or Unspecified,,,,,,,,,,,,,,None or Unspecified,PAT,None or Unspecified,,
4961,1655077,8000,1235906,132,6.0,1979,,,4/28/1989 0:00,8B,8,B,,,,"Track Type Tractor, Dozer - 85.0 to 105.0 Horsepower",Missouri,TTT,Track Type Tractors,,OROPS,,,,,Standard,,,,,,2 Valve,,None or Unspecified,,,,,,,,,,,,,,None or Unspecified,Straight,None or Unspecified,,
4961,1655095,11000,1322977,132,4.0,1979,,,2/1/1989 0:00,8B,8,B,,,,"Track Type Tractor, Dozer - 85.0 to 105.0 Horsepower",Florida,TTT,Track Type Tractors,,OROPS,,,,,Standard,,,,,,2 Valve,,None or Unspecified,,,,,,,,,,,,,,None or Unspecified,Straight,None or Unspecified,,
4961,1655256,9250,1545331,132,4.0,1979,,,2/1/1993 0:00,8B,8,B,,,,"Track Type Tractor, Dozer - 85.0 to 105.0 Horsepower",Florida,TTT,Track Type Tractors,,OROPS,,,,,None or Unspecified,,,,,,Base + 1 Function,,None or Unspecified,,,,,,,,,,,,,,,,,,
4961,1655649,12000,1261082,132,23.0,1980,,,7/29/1995 0:00,8B,8,B,,,,"Track Type Tractor, Dozer - 85.0 to 105.0 Horsepower",Pennsylvania,TTT,Track Type Tractors,,OROPS,,,,,Standard,,,,,,2 Valve,,None or Unspecified,,,,,,,,,,,,,,None or Unspecified,PAT,None or Unspecified,,
4961,1655802,11500,259808,132,11.0,1981,,,5/26/1999 0:00,8B,8,B,,,,"Track Type Tractor, Dozer - 85.0 to 105.0 Horsepower",Mississippi,TTT,Track Type Tractors,,OROPS,,,,,Standard,,,,,,2 Valve,,None or Unspecified,,,,,,,,,,,,,,None or Unspecified,Straight,None or Unspecified,,
4961,1655813,18000,1194654,132,6.0,1981,,,4/18/1989 0:00,8B,8,B,,,,"Track Type Tractor, Dozer - 85.0 to 105.0 Horsepower",Kentucky,TTT,Track Type Tractors,,EROPS,,,,,Standard,,,,,,2 Valve,,None or Unspecified,,,,,,,,,,,,,,None or Unspecified,Straight,None or Unspecified,,
4961,1655860,8500,1178011,132,1.0,1981,,,6/27/1994 0:00,8B,8,B,,,,"Track Type Tractor, Dozer - 85.0 to 105.0 Horsepower",South Carolina,TTT,Track Type Tractors,,EROPS,,,,,None or Unspecified,,,,,,Base + 1 Function,,None or Unspecified,,,,,,,,,,,,,,,,,,
4961,1655992,11000,1451952,132,22.0,1000,,,6/29/2004 0:00,8B,8,B,,,,"Track Type Tractor, Dozer - 85.0 to 105.0 Horsepower",Minnesota,TTT,Track Type Tractors,,OROPS,,,,,Standard,,,,,,2 Valve,,None or Unspecified,,,,,,,,,,,,,,None or Unspecified,None or Unspecified,None or Unspecified,,
4961,1656060,12000,1135371,132,6.0,1985,,,9/14/1995 0:00,8B,8,B,,,,"Track Type Tractor, Dozer - 85.0 to 105.0 Horsepower",Wyoming,TTT,Track Type Tractors,,OROPS,,,,,Standard,,,,,,2 Valve,,None or Unspecified,,,,,,,,,,,,,,None or Unspecified,None or Unspecified,None or Unspecified,,
4961,1656065,10750,1400486,132,6.0,1985,,,4/19/1993 0:00,8B,8,B,,,,"Track Type Tractor, Dozer - 85.0 to 105.0 Horsepower",Kentucky,TTT,Track Type Tractors,,EROPS,,,,,Standard,,,,,,2 Valve,,None or Unspecified,,,,,,,,,,,,,,None or Unspecified,Angle,None or Unspecified,,
4961,1656317,12000,1448532,132,1.0,1980,,,4/19/1990 0:00,8B,8,B,,,,"Track Type Tractor, Dozer - 85.0 to 105.0 Horsepower",Maryland,TTT,Track Type Tractors,,OROPS,,,,,Standard,,,,,,2 Valve,,None or Unspecified,,,,,,,,,,,,,,None or Unspecified,Straight,None or Unspecified,,
4961,1657787,10250,1082037,132,6.0,1975,,,12/15/1992 0:00,8B,8,B,,,,"Track Type Tractor, Dozer - 85.0 to 105.0 Horsepower",Kentucky,TTT,Track Type Tractors,,OROPS,,,,,Standard,,,,,,2 Valve,,None or Unspecified,,,,,,,,,,,,,,None or Unspecified,Straight,None or Unspecified,,
4961,1658269,12000,1136090,132,99.0,1979,,,11/5/2003 0:00,8B,8,B,,,,"Track Type Tractor, Dozer - 85.0 to 105.0 Horsepower",Wyoming,TTT,Track Type Tractors,,OROPS,,,,,Powershift,,,,,,2 Valve,,None or Unspecified,,,,,,,,,,,,,,None or Unspecified,None or Unspecified,None or Unspecified,,
4961,1658270,9000,1181959,132,1.0,1981,,,11/16/1989 0:00,8B,8,B,,,,"Track Type Tractor, Dozer - 85.0 to 105.0 Horsepower",Texas,TTT,Track Type Tractors,,OROPS,,,,,Standard,,,,,,2 Valve,,Single Shank,,,,,,,,,,,,,,None or Unspecified,Semi U,None or Unspecified,,
4961,1658277,17000,1427356,132,99.0,1982,,,4/17/1996 0:00,8B,8,B,,,,"Track Type Tractor, Dozer - 85.0 to 105.0 Horsepower",Wyoming,TTT,Track Type Tractors,,OROPS,,,,,Standard,,,,,,2 Valve,,None or Unspecified,,,,,,,,,,,,,,None or Unspecified,None or Unspecified,None or Unspecified,,
4961,1658278,13000,1272286,132,17.0,1979,,,4/30/1998 0:00,8B,8,B,,,,"Track Type Tractor, Dozer - 85.0 to 105.0 Horsepower",Idaho,TTT,Track Type Tractors,,OROPS,,,,,Standard,,,,,,2 Valve,,None or Unspecified,,,,,,,,,,,,,,None or Unspecified,PAT,None or Unspecified,,
4961,1658279,8500,1494946,132,7.0,1991,,,9/15/2000 0:00,8B,8,B,,,,"Track Type Tractor, Dozer - 85.0 to 105.0 Horsepower",Alabama,TTT,Track Type Tractors,,OROPS,,,,,Standard,,,,,,2 Valve,,None or Unspecified,,,,,,,,,,,,,,None or Unspecified,Straight,None or Unspecified,,
4961,1658280,13000,1153276,132,1.0,1000,,,11/3/2005 0:00,8B,8,B,,,,"Track Type Tractor, Dozer - 85.0 to 105.0 Horsepower",New Mexico,TTT,Track Type Tractors,,OROPS,,,,,Standard,,,,,,2 Valve,,None or Unspecified,,,,,,,,,,,,,,None or Unspecified,None or Unspecified,None or Unspecified,,
4961,1658281,10000,1212526,132,1.0,1000,,,9/13/2005 0:00,8B,8,B,,,,"Track Type Tractor, Dozer - 85.0 to 105.0 Horsepower",Ohio,TTT,Track Type Tractors,,OROPS,,,,,Standard,,,,,,2 Valve,,None or Unspecified,,,,,,,,,,,,,,None or Unspecified,None or Unspecified,None or Unspecified,,
