ModelID,SalesID,SalePrice,MachineID,datasource,auctioneerID,YearMade,MachineHoursCurrentMeter,UsageBand,saledate,fiModelDesc,fiBaseModel,fiSecondaryDesc,fiModelSeries,fiModelDescriptor,ProductSize,fiProductClassDesc,state,ProductGroup,ProductGroupDesc,Drive_System,Enclosure,Forks,Pad_Type,Ride_Control,Stick,Transmission,Turbocharged,Blade_Extension,Blade_Width,Enclosure_Type,Engine_Horsepower,Hydraulics,Pushblock,Ripper,Scarifier,Tip_Control,Tire_Size,Coupler,Coupler_System,Grouser_Tracks,Hydraulics_Flow,Track_Type,Undercarriage_Pad_Width,Stick_Length,Thumb,Pattern_Changer,Grouser_Type,Backhoe_Mounting,Blade_Type,Travel_Controls,Differential_Type,Steering_Controls
4971,1190271,15500,1066084,121,3.0,1000,9294.0,Low,5/14/2009 0:00,FG85A,FG85,A,,,,Motorgrader - 145.0 to 170.0 Horsepower,Illinois,MG,Motor Graders,No,EROPS w AC,,,,,Powershift,,None or Unspecified,None or Unspecified,None or Unspecified,No,Base + 1 Function,None or Unspecified,None or Unspecified,None or Unspecified,None or Unspecified,"14""",,,,,,,,,,,,,,,
4971,1193774,15500,1062397,121,3.0,1000,6674.0,Low,9/24/2009 0:00,FG85A,FG85,A,,,,Motorgrader - 145.0 to 170.0 Horsepower,Wisconsin,MG,Motor Graders,No,EROPS w AC,,,,,Powershift,,None or Unspecified,None or Unspecified,None or Unspecified,No,Base + 1 Function,None or Unspecified,None or Unspecified,None or Unspecified,None or Unspecified,"14""",,,,,,,,,,,,,,,
4971,1653398,27500,1105071,132,2.0,1995,,,11/17/2001 0:00,FG85A,FG85,A,,,,Motorgrader - 145.0 to 170.0 Horsepower,Ohio,MG,Motor Graders,No,EROPS w AC,,,,,None or Unspecified,,None or Unspecified,None or Unspecified,None or Unspecified,No,Base + 1 Function,None or Unspecified,Yes,None or Unspecified,Sideshift & Tip,"14""",,,,,,,,,,,,,,,
4971,1654363,15500,1239235,132,11.0,1986,,,3/18/1998 0:00,FG85A,FG85,A,,,,Motorgrader - 145.0 to 170.0 Horsepower,Mississippi,MG,Motor Graders,No,EROPS,,,,,None or Unspecified,,None or Unspecified,None or Unspecified,None or Unspecified,No,Base + 1 Function,None or Unspecified,None or Unspecified,Yes,Tip,None or Unspecified,,,,,,,,,,,,,,,
4971,1656167,14000,1363210,132,1.0,1985,,,9/23/1998 0:00,FG85A,FG85,A,,,,Motorgrader - 145.0 to 170.0 Horsepower,Texas,MG,Motor Graders,No,EROPS,,,,,None or Unspecified,,None or Unspecified,13',None or Unspecified,No,Base + 1 Function,None or Unspecified,None or Unspecified,Yes,None or Unspecified,None or Unspecified,,,,,,,,,,,,,,,
4971,1656174,9000,1522828,132,7.0,1000,,,6/2/2005 0:00,FG85A,FG85,A,,,,Motorgrader - 145.0 to 170.0 Horsepower,Alabama,MG,Motor Graders,No,EROPS,,,,,None or Unspecified,,None or Unspecified,None or Unspecified,None or Unspecified,No,Base + 1 Function,None or Unspecified,None or Unspecified,Yes,Tip,None or Unspecified,,,,,,,,,,,,,,,
4971,1656179,14000,1344316,132,1.0,1986,,,10/22/2003 0:00,FG85A,FG85,A,,,,Motorgrader - 145.0 to 170.0 Horsepower,Maine,MG,Motor Graders,No,EROPS,,,,,None or Unspecified,,None or Unspecified,13',None or Unspecified,No,Base + 1 Function,None or Unspecified,None or Unspecified,None or Unspecified,None or Unspecified,"17.5""",,,,,,,,,,,,,,,
4971,1656181,11500,1410470,132,2.0,1986,,,3/30/2000 0:00,FG85A,FG85,A,,,,Motorgrader - 145.0 to 170.0 Horsepower,New Jersey,MG,Motor Graders,No,OROPS,,,,,None or Unspecified,,None or Unspecified,None or Unspecified,None or Unspecified,No,Base + 1 Function,None or Unspecified,None or Unspecified,None or Unspecified,None or Unspecified,None or Unspecified,,,,,,,,,,,,,,,
4971,1656182,19000,1241288,132,1.0,1986,,,9/20/1994 0:00,FG85A,FG85,A,,,,Motorgrader - 145.0 to 170.0 Horsepower,Texas,MG,Motor Graders,No,EROPS,,,,,None or Unspecified,,None or Unspecified,None or Unspecified,None or Unspecified,No,Base + 1 Function,None or Unspecified,None or Unspecified,None or Unspecified,Sideshift & Tip,None or Unspecified,,,,,,,,,,,,,,,
4971,1656192,15500,1367998,132,10.0,1989,,,6/26/1997 0:00,FG85A,FG85,A,,,,Motorgrader - 145.0 to 170.0 Horsepower,Louisiana,MG,Motor Graders,No,EROPS,,,,,None or Unspecified,,None or Unspecified,None or Unspecified,None or Unspecified,No,Base + 1 Function,None or Unspecified,None or Unspecified,Yes,Sideshift & Tip,None or Unspecified,,,,,,,,,,,,,,,
4971,1656195,14000,1302597,132,1.0,1985,,,9/23/1998 0:00,FG85A,FG85,A,,,,Motorgrader - 145.0 to 170.0 Horsepower,Texas,MG,Motor Graders,No,EROPS,,,,,None or Unspecified,,None or Unspecified,14',None or Unspecified,No,Base + 1 Function,None or Unspecified,None or Unspecified,None or Unspecified,None or Unspecified,None or Unspecified,,,,,,,,,,,,,,,
4971,1656197,20000,1538481,132,1.0,1986,,,10/24/1997 0:00,FG85A,FG85,A,,,,Motorgrader - 145.0 to 170.0 Horsepower,Maryland,MG,Motor Graders,No,EROPS,,,,,Powershift,,Yes,13',None or Unspecified,No,Base + 1 Function,None or Unspecified,None or Unspecified,None or Unspecified,Sideshift & Tip,None or Unspecified,,,,,,,,,,,,,,,
4971,1656198,18500,1538481,132,2.0,1986,,,4/19/1997 0:00,FG85A,FG85,A,,,,Motorgrader - 145.0 to 170.0 Horsepower,Indiana,MG,Motor Graders,No,EROPS,,,,,Powershift,,Yes,13',None or Unspecified,No,Base + 1 Function,None or Unspecified,None or Unspecified,None or Unspecified,Sideshift & Tip,None or Unspecified,,,,,,,,,,,,,,,
4971,1656199,31500,1552386,132,99.0,1985,,,5/11/1994 0:00,FG85A,FG85,A,,,,Motorgrader - 145.0 to 170.0 Horsepower,Maine,MG,Motor Graders,No,OROPS,,,,,None or Unspecified,,None or Unspecified,None or Unspecified,None or Unspecified,No,Base + 1 Function,None or Unspecified,None or Unspecified,None or Unspecified,None or Unspecified,None or Unspecified,,,,,,,,,,,,,,,
4971,1656200,14000,1251874,132,3.0,1986,3930.0,Low,12/2/2010 0:00,FG85A,FG85,A,,,,Motorgrader - 145.0 to 170.0 Horsepower,California,MG,Motor Graders,No,EROPS,,,,,None or Unspecified,,None or Unspecified,13',None or Unspecified,No,Base + 1 Function,None or Unspecified,None or Unspecified,None or Unspecified,None or Unspecified,"14""",,,,,,,,,,,,,,,
4971,1656201,18500,1251651,132,20.0,1986,,,11/4/1998 0:00,FG85A,FG85,A,,,,Motorgrader - 145.0 to 170.0 Horsepower,Arkansas,MG,Motor Graders,No,EROPS,,,,,None or Unspecified,,None or Unspecified,None or Unspecified,None or Unspecified,No,Base + 1 Function,None or Unspecified,None or Unspecified,None or Unspecified,Sideshift & Tip,None or Unspecified,,,,,,,,,,,,,,,
4971,1656205,18500,1245044,132,1.0,1986,,,3/8/2006 0:00,FG85A,FG85,A,,,,Motorgrader - 145.0 to 170.0 Horsepower,Illinois,MG,Motor Graders,No,EROPS,,,,,None or Unspecified,,None or Unspecified,None or Unspecified,None or Unspecified,No,Base + 1 Function,None or Unspecified,None or Unspecified,Yes,None or Unspecified,"14""",,,,,,,,,,,,,,,
4971,1656206,17000,1262240,132,99.0,1986,,,9/18/1998 0:00,FG85A,FG85,A,,,,Motorgrader - 145.0 to 170.0 Horsepower,Pennsylvania,MG,Motor Graders,No,EROPS,,,,,None or Unspecified,,None or Unspecified,None or Unspecified,None or Unspecified,No,Base + 1 Function,None or Unspecified,None or Unspecified,Yes,None or Unspecified,None or Unspecified,,,,,,,,,,,,,,,
4971,1656207,13500,1262240,132,12.0,1986,,,9/24/2008 0:00,FG85A,FG85,A,,,,Motorgrader - 145.0 to 170.0 Horsepower,South Carolina,MG,Motor Graders,No,EROPS,,,,,None or Unspecified,,None or Unspecified,None or Unspecified,None or Unspecified,No,Base + 1 Function,None or Unspecified,None or Unspecified,Yes,None or Unspecified,None or Unspecified,,,,,,,,,,,,,,,
4971,1656208,21000,560578,132,14.0,1987,,,3/20/1998 0:00,FG85A,FG85,A,,,,Motorgrader - 145.0 to 170.0 Horsepower,Indiana,MG,Motor Graders,No,EROPS w AC,,,,,Powershift,,None or Unspecified,None or Unspecified,None or Unspecified,No,Base + 1 Function,None or Unspecified,None or Unspecified,Yes,Sideshift & Tip,None or Unspecified,,,,,,,,,,,,,,,
4971,1656210,21000,1192475,132,4.0,1988,,,2/5/1998 0:00,FG85A,FG85,A,,,,Motorgrader - 145.0 to 170.0 Horsepower,Florida,MG,Motor Graders,No,OROPS,,,,,None or Unspecified,,None or Unspecified,None or Unspecified,None or Unspecified,No,Base + 1 Function,None or Unspecified,None or Unspecified,Yes,Sideshift & Tip,None or Unspecified,,,,,,,,,,,,,,,
4971,1656214,15000,1289923,132,1.0,1988,,,2/6/2009 0:00,FG85A,FG85,A,,,,Motorgrader - 145.0 to 170.0 Horsepower,Nevada,MG,Motor Graders,No,EROPS,,,,,None or Unspecified,,None or Unspecified,None or Unspecified,None or Unspecified,No,Base + 1 Function,Yes,Yes,None or Unspecified,None or Unspecified,"14""",,,,,,,,,,,,,,,
4971,1656215,15500,1261622,132,3.0,1988,,,9/24/2009 0:00,FG85A,FG85,A,,,,Motorgrader - 145.0 to 170.0 Horsepower,California,MG,Motor Graders,No,EROPS w AC,,,,,None or Unspecified,,None or Unspecified,None or Unspecified,None or Unspecified,No,Base + 1 Function,None or Unspecified,None or Unspecified,None or Unspecified,None or Unspecified,None or Unspecified,,,,,,,,,,,,,,,
4971,1656936,25000,1107083,132,4.0,1996,,,5/15/2003 0:00,FG85A,FG85,A,,,,Motorgrader - 145.0 to 170.0 Horsepower,New Hampshire,MG,Motor Graders,No,OROPS,,,,,None or Unspecified,,None or Unspecified,None or Unspecified,None or Unspecified,No,Base + 1 Function,None or Unspecified,None or Unspecified,None or Unspecified,None or Unspecified,None or Unspecified,,,,,,,,,,,,,,,
4971,1657480,20500,1536666,132,2.0,1995,,,12/12/2001 0:00,FG85A,FG85,A,,,,Motorgrader - 145.0 to 170.0 Horsepower,Texas,MG,Motor Graders,No,EROPS w AC,,,,,None or Unspecified,,None or Unspecified,None or Unspecified,None or Unspecified,No,Base + 1 Function,None or Unspecified,Yes,None or Unspecified,Sideshift & Tip,"14""",,,,,,,,,,,,,,,
4971,1657550,29000,1204109,132,4.0,1996,,,2/11/2002 0:00,FG85A,FG85,A,,,,Motorgrader - 145.0 to 170.0 Horsepower,Florida,MG,Motor Graders,No,EROPS w AC,,,,,None or Unspecified,,None or Unspecified,14',Low Profile,No,Base + 1 Function,None or Unspecified,Yes,None or Unspecified,None or Unspecified,"14""",,,,,,,,,,,,,,,
4971,1657551,27500,1256439,132,2.0,1995,,,2/2/2003 0:00,FG85A,FG85,A,,,,Motorgrader - 145.0 to 170.0 Horsepower,Florida,MG,Motor Graders,No,EROPS w AC,,,,,None or Unspecified,,None or Unspecified,14',None or Unspecified,No,Base + 1 Function,None or Unspecified,Yes,Yes,None or Unspecified,None or Unspecified,,,,,,,,,,,,,,,
4971,1657553,23000,1310648,132,8.0,1993,,,7/16/2009 0:00,FG85A,FG85,A,,,,Motorgrader - 145.0 to 170.0 Horsepower,Mississippi,MG,Motor Graders,No,EROPS w AC,,,,,None or Unspecified,,None or Unspecified,None or Unspecified,None or Unspecified,No,Base + 1 Function,None or Unspecified,Yes,None or Unspecified,Sideshift & Tip,None or Unspecified,,,,,,,,,,,,,,,
4971,1657554,14500,1318936,132,19.0,1993,,,7/19/2006 0:00,FG85A,FG85,A,,,,Motorgrader - 145.0 to 170.0 Horsepower,New Mexico,MG,Motor Graders,No,EROPS,,,,,None or Unspecified,,None or Unspecified,14',None or Unspecified,No,Base + 1 Function,None or Unspecified,None or Unspecified,None or Unspecified,Sideshift & Tip,None or Unspecified,,,,,,,,,,,,,,,
4971,1657802,19500,1306103,132,1.0,1990,,,9/27/2006 0:00,FG85A,FG85,A,,,,Motorgrader - 145.0 to 170.0 Horsepower,Texas,MG,Motor Graders,No,EROPS,,,,,None or Unspecified,,None or Unspecified,14',None or Unspecified,No,Base + 1 Function,None or Unspecified,None or Unspecified,Yes,None or Unspecified,"14""",,,,,,,,,,,,,,,
4971,1657803,19500,1488733,132,1.0,1990,,,9/27/2006 0:00,FG85A,FG85,A,,,,Motorgrader - 145.0 to 170.0 Horsepower,Texas,MG,Motor Graders,No,EROPS,,,,,None or Unspecified,,None or Unspecified,14',None or Unspecified,No,Base + 1 Function,None or Unspecified,None or Unspecified,Yes,None or Unspecified,"14""",,,,,,,,,,,,,,,
4971,1657804,13500,1364181,132,4.0,1989,,,2/7/2011 0:00,FG85A,FG85,A,,,,Motorgrader - 145.0 to 170.0 Horsepower,Florida,MG,Motor Graders,No,EROPS,,,,,Powershift,,None or Unspecified,13',None or Unspecified,No,Base + 1 Function,None or Unspecified,None or Unspecified,None or Unspecified,None or Unspecified,"14""",,,,,,,,,,,,,,,
4971,1657805,12000,1364181,132,9.0,1989,,,5/20/2010 0:00,FG85A,FG85,A,,,,Motorgrader - 145.0 to 170.0 Horsepower,South Carolina,MG,Motor Graders,No,EROPS,,,,,Powershift,,None or Unspecified,13',None or Unspecified,No,Base + 1 Function,None or Unspecified,None or Unspecified,None or Unspecified,None or Unspecified,"14""",,,,,,,,,,,,,,,
4971,1657806,17000,1523966,132,4.0,1989,,,2/8/2010 0:00,FG85A,FG85,A,,,,Motorgrader - 145.0 to 170.0 Horsepower,Florida,MG,Motor Graders,No,EROPS,,,,,None or Unspecified,,None or Unspecified,None or Unspecified,None or Unspecified,No,Base + 1 Function,None or Unspecified,None or Unspecified,Yes,None or Unspecified,None or Unspecified,,,,,,,,,,,,,,,
4971,1657807,11000,1333955,132,9.0,1989,,,5/20/2010 0:00,FG85A,FG85,A,,,,Motorgrader - 145.0 to 170.0 Horsepower,South Carolina,MG,Motor Graders,No,EROPS,,,,,None or Unspecified,,None or Unspecified,None or Unspecified,None or Unspecified,No,Base + 1 Function,None or Unspecified,None or Unspecified,None or Unspecified,None or Unspecified,"14""",,,,,,,,,,,,,,,
4971,1657808,12000,1333955,132,28.0,1000,,,5/22/1999 0:00,FG85A,FG85,A,,,,Motorgrader - 145.0 to 170.0 Horsepower,Mississippi,MG,Motor Graders,No,EROPS,,,,,None or Unspecified,,None or Unspecified,None or Unspecified,None or Unspecified,No,Base + 1 Function,None or Unspecified,None or Unspecified,None or Unspecified,None or Unspecified,"14""",,,,,,,,,,,,,,,
4971,1657810,21000,1223608,132,1.0,1990,,,3/7/1997 0:00,FG85A,FG85,A,,,,Motorgrader - 145.0 to 170.0 Horsepower,Illinois,MG,Motor Graders,No,EROPS,,,,,None or Unspecified,,Yes,None or Unspecified,None or Unspecified,No,Base + 1 Function,None or Unspecified,None or Unspecified,None or Unspecified,Sideshift & Tip,None or Unspecified,,,,,,,,,,,,,,,
4971,2365207,11000,1767317,136,,1000,2507.0,Low,5/11/2007 0:00,FG85A,FG85,A,,,,Motorgrader - 145.0 to 170.0 Horsepower,Virginia,MG,Motor Graders,No,EROPS,,,,,None or Unspecified,,None or Unspecified,None or Unspecified,None or Unspecified,No,Base + 1 Function,None or Unspecified,None or Unspecified,Yes,None or Unspecified,None or Unspecified,,,,,,,,,,,,,,,
4971,2365210,16000,1453954,136,1.0,1985,0.0,,3/18/2008 0:00,FG85A,FG85,A,,,,Motorgrader - 145.0 to 170.0 Horsepower,Illinois,MG,Motor Graders,No,EROPS,,,,,None or Unspecified,,None or Unspecified,12',None or Unspecified,No,Base + 1 Function,None or Unspecified,None or Unspecified,Yes,None or Unspecified,"14""",,,,,,,,,,,,,,,
4971,2365213,15000,1511616,136,1.0,1986,0.0,,4/2/2008 0:00,FG85A,FG85,A,,,,Motorgrader - 145.0 to 170.0 Horsepower,Maryland,MG,Motor Graders,No,EROPS,,,,,None or Unspecified,,None or Unspecified,12',None or Unspecified,No,Base + 1 Function,None or Unspecified,None or Unspecified,Yes,None or Unspecified,None or Unspecified,,,,,,,,,,,,,,,
4971,2365214,12000,1652074,136,,1000,0.0,,11/19/2008 0:00,FG85A,FG85,A,,,,Motorgrader - 145.0 to 170.0 Horsepower,South Carolina,MG,Motor Graders,No,EROPS,,,,,None or Unspecified,,None or Unspecified,None or Unspecified,None or Unspecified,No,Base + 1 Function,None or Unspecified,None or Unspecified,Yes,None or Unspecified,None or Unspecified,,,,,,,,,,,,,,,
4971,2365215,13500,1652074,136,,1000,0.0,,9/24/2008 0:00,FG85A,FG85,A,,,,Motorgrader - 145.0 to 170.0 Horsepower,South Carolina,MG,Motor Graders,No,EROPS,,,,,None or Unspecified,,None or Unspecified,None or Unspecified,None or Unspecified,No,Base + 1 Function,None or Unspecified,None or Unspecified,Yes,None or Unspecified,None or Unspecified,,,,,,,,,,,,,,,
4971,2365218,15000,1299175,136,1.0,1000,0.0,,2/6/2009 0:00,FG85A,FG85,A,,,,Motorgrader - 145.0 to 170.0 Horsepower,Nevada,MG,Motor Graders,No,EROPS,,,,,None or Unspecified,,None or Unspecified,13',None or Unspecified,No,Base + 1 Function,Yes,Yes,None or Unspecified,None or Unspecified,"14""",,,,,,,,,,,,,,,
4971,2365542,23000,1729594,136,,1995,0.0,,7/16/2009 0:00,FG85A,FG85,A,,,,Motorgrader - 145.0 to 170.0 Horsepower,Mississippi,MG,Motor Graders,No,OROPS,,,,,None or Unspecified,,None or Unspecified,None or Unspecified,None or Unspecified,No,Base + 1 Function,None or Unspecified,Yes,Yes,Sideshift & Tip,None or Unspecified,,,,,,,,,,,,,,,
4971,2365551,13000,1474107,136,1.0,1000,0.0,,9/22/2009 0:00,FG85A,FG85,A,,,,Motorgrader - 145.0 to 170.0 Horsepower,North Carolina,MG,Motor Graders,No,EROPS,,,,,None or Unspecified,,None or Unspecified,12',None or Unspecified,No,Base + 1 Function,None or Unspecified,None or Unspecified,Yes,None or Unspecified,"14""",,,,,,,,,,,,,,,
4971,2365585,17000,1523711,136,4.0,1989,0.0,,2/8/2010 0:00,FG85A,FG85,A,,,,Motorgrader - 145.0 to 170.0 Horsepower,Florida,MG,Motor Graders,No,EROPS,,,,,None or Unspecified,,None or Unspecified,None or Unspecified,None or Unspecified,No,Base + 1 Function,None or Unspecified,None or Unspecified,Yes,None or Unspecified,None or Unspecified,,,,,,,,,,,,,,,
4971,2660143,8500,1295869,149,1.0,1988,4013.0,Low,9/22/2010 0:00,FG85A,FG85,A,,,,Motorgrader - 145.0 to 170.0 Horsepower,Georgia,MG,Motor Graders,No,EROPS,,,,,None or Unspecified,,None or Unspecified,12',None or Unspecified,No,Base + 1 Function,None or Unspecified,None or Unspecified,Yes,None or Unspecified,"14""",,,,,,,,,,,,,,,
4971,2660480,24500,1868046,149,99.0,1998,3012.0,Low,7/14/2010 0:00,FG85A,FG85,A,,,,Motorgrader - 145.0 to 170.0 Horsepower,Colorado,MG,Motor Graders,No,OROPS,,,,,None or Unspecified,,None or Unspecified,None or Unspecified,None or Unspecified,No,Base + 1 Function,None or Unspecified,None or Unspecified,None or Unspecified,None or Unspecified,"14""",,,,,,,,,,,,,,,
4971,6289768,17000,1942342,149,99.0,1000,,,10/27/2011 0:00,FG85A,FG85,A,,,,Motorgrader - 145.0 to 170.0 Horsepower,Texas,MG,Motor Graders,No,EROPS,,,,,None or Unspecified,,None or Unspecified,None or Unspecified,None or Unspecified,No,Base + 1 Function,None or Unspecified,None or Unspecified,Yes,None or Unspecified,None or Unspecified,,,,,,,,,,,,,,,
