ModelID,SalesID,SalePrice,MachineID,datasource,auctioneerID,YearMade,MachineHoursCurrentMeter,UsageBand,saledate,fiModelDesc,fiBaseModel,fiSecondaryDesc,fiModelSeries,fiModelDescriptor,ProductSize,fiProductClassDesc,state,ProductGroup,ProductGroupDesc,Drive_System,Enclosure,Forks,Pad_Type,Ride_Control,Stick,Transmission,Turbocharged,Blade_Extension,Blade_Width,Enclosure_Type,Engine_Horsepower,Hydraulics,Pushblock,Ripper,Scarifier,Tip_Control,Tire_Size,Coupler,Coupler_System,Grouser_Tracks,Hydraulics_Flow,Track_Type,Undercarriage_Pad_Width,Stick_Length,Thumb,Pattern_Changer,Grouser_Type,Backhoe_Mounting,Blade_Type,Travel_Controls,Differential_Type,Steering_Controls
4975,1193261,9000,1024103,121,3.0,1000,0.0,,10/1/2009 0:00,FR10B,FR10,B,,,,Wheel Loader - 100.0 to 110.0 Horsepower,Texas,WL,Wheel Loader,,OROPS,None or Unspecified,,None or Unspecified,,,,,,,,2 Valve,,,,,None or Unspecified,None or Unspecified,,,,,,,,,,,,,Standard,Conventional
4975,1653350,22500,1391701,132,99.0,1990,,,10/28/1995 0:00,FR10B,FR10,B,,,,Wheel Loader - 100.0 to 110.0 Horsepower,Connecticut,WL,Wheel Loader,,OROPS,None or Unspecified,,None or Unspecified,,,,,,,,2 Valve,,,,,None or Unspecified,None or Unspecified,,,,,,,,,,,,,Standard,Conventional
4975,1653531,16000,1221612,132,12.0,1000,,,11/19/1997 0:00,FR10B,FR10,B,,,,Wheel Loader - 100.0 to 110.0 Horsepower,Florida,WL,Wheel Loader,,EROPS,None or Unspecified,,None or Unspecified,,,,,,,,2 Valve,,,,,None or Unspecified,None or Unspecified,,,,,,,,,,,,,Standard,Conventional
4975,1653876,9000,1517475,132,3.0,1982,,,10/1/2009 0:00,FR10B,FR10,B,,,,Wheel Loader - 100.0 to 110.0 Horsepower,California,WL,Wheel Loader,,OROPS,None or Unspecified,,None or Unspecified,,,,,,,,2 Valve,,,,,None or Unspecified,None or Unspecified,,,,,,,,,,,,,Standard,Conventional
4975,1655814,11000,1100472,132,1.0,1000,,,2/22/2006 0:00,FR10B,FR10,B,,,,Wheel Loader - 100.0 to 110.0 Horsepower,Florida,WL,Wheel Loader,,OROPS,None or Unspecified,,None or Unspecified,,,,,,,,2 Valve,,,,,17.5,None or Unspecified,,,,,,,,,,,,,Standard,Conventional
4975,1655815,14000,1100472,132,27.0,1000,,,4/21/2006 0:00,FR10B,FR10,B,,,,Wheel Loader - 100.0 to 110.0 Horsepower,North Carolina,WL,Wheel Loader,,OROPS,None or Unspecified,,None or Unspecified,,,,,,,,2 Valve,,,,,17.5,None or Unspecified,,,,,,,,,,,,,Standard,Conventional
4975,1655816,9750,1100472,132,27.0,1000,,,7/21/2006 0:00,FR10B,FR10,B,,,,Wheel Loader - 100.0 to 110.0 Horsepower,North Carolina,WL,Wheel Loader,,OROPS,None or Unspecified,,None or Unspecified,,,,,,,,2 Valve,,,,,17.5,None or Unspecified,,,,,,,,,,,,,Standard,Conventional
4975,1655874,15500,1364018,132,5.0,1000,,,12/17/2005 0:00,FR10B,FR10,B,,,,Wheel Loader - 100.0 to 110.0 Horsepower,New York,WL,Wheel Loader,,EROPS,None or Unspecified,,None or Unspecified,,,,,,,,2 Valve,,,,,17.5,None or Unspecified,,,,,,,,,,,,,Standard,Conventional
4975,1656036,10000,1322006,132,12.0,1000,,,4/23/2008 0:00,FR10B,FR10,B,,,,Wheel Loader - 100.0 to 110.0 Horsepower,Tennessee,WL,Wheel Loader,,EROPS,None or Unspecified,,None or Unspecified,,,,,,,,2 Valve,,,,,None or Unspecified,None or Unspecified,,,,,,,,,,,,,Standard,Conventional
4975,1656520,10500,1169138,132,7.0,1990,,,9/15/2000 0:00,FR10B,FR10,B,,,,Wheel Loader - 100.0 to 110.0 Horsepower,Alabama,WL,Wheel Loader,,EROPS,None or Unspecified,,None or Unspecified,,,,,,,,2 Valve,,,,,None or Unspecified,None or Unspecified,,,,,,,,,,,,,Standard,Conventional
4975,1656957,15000,1455009,132,15.0,1986,,,11/18/2004 0:00,FR10B,FR10,B,,,,Wheel Loader - 100.0 to 110.0 Horsepower,Pennsylvania,WL,Wheel Loader,,EROPS,None or Unspecified,,None or Unspecified,,,,,,,,2 Valve,,,,,None or Unspecified,None or Unspecified,,,,,,,,,,,,,Standard,Conventional
4975,1656958,9500,1494440,132,12.0,1000,,,9/20/2000 0:00,FR10B,FR10,B,,,,Wheel Loader - 100.0 to 110.0 Horsepower,South Carolina,WL,Wheel Loader,,EROPS,None or Unspecified,,None or Unspecified,,,,,,,,2 Valve,,,,,None or Unspecified,None or Unspecified,,,,,,,,,,,,,Standard,Conventional
4975,1656959,19000,1547470,132,18.0,1987,,,4/19/1997 0:00,FR10B,FR10,B,,,,Wheel Loader - 100.0 to 110.0 Horsepower,Maryland,WL,Wheel Loader,,EROPS,Yes,,None or Unspecified,,,,,,,,2 Valve,,,,,None or Unspecified,None or Unspecified,,,,,,,,,,,,,Standard,Conventional
4975,1656960,15000,1547470,132,18.0,1987,,,3/6/1999 0:00,FR10B,FR10,B,,,,Wheel Loader - 100.0 to 110.0 Horsepower,Pennsylvania,WL,Wheel Loader,,EROPS,Yes,,None or Unspecified,,,,,,,,2 Valve,,,,,None or Unspecified,None or Unspecified,,,,,,,,,,,,,Standard,Conventional
4975,1656963,18500,1182823,132,1.0,1987,,,4/29/1996 0:00,FR10B,FR10,B,,,,Wheel Loader - 100.0 to 110.0 Horsepower,Minnesota,WL,Wheel Loader,,EROPS,None or Unspecified,,None or Unspecified,,,,,,,,2 Valve,,,,,None or Unspecified,None or Unspecified,,,,,,,,,,,,,Standard,Conventional
4975,1656966,14000,1176271,132,12.0,1987,,,9/26/2001 0:00,FR10B,FR10,B,,,,Wheel Loader - 100.0 to 110.0 Horsepower,South Carolina,WL,Wheel Loader,,EROPS,None or Unspecified,,None or Unspecified,,,,,,,,2 Valve,,,,,None or Unspecified,None or Unspecified,,,,,,,,,,,,,Standard,Conventional
4975,1656967,24000,1367404,132,7.0,1987,,,8/27/1994 0:00,FR10B,FR10,B,,,,Wheel Loader - 100.0 to 110.0 Horsepower,Georgia,WL,Wheel Loader,,EROPS,Yes,,None or Unspecified,,,,,,,,2 Valve,,,,,17.5,Manual,,,,,,,,,,,,,Standard,Conventional
4975,1656970,26000,1487375,132,4.0,1000,,,2/9/1995 0:00,FR10B,FR10,B,,,,Wheel Loader - 100.0 to 110.0 Horsepower,Florida,WL,Wheel Loader,,OROPS,None or Unspecified,,None or Unspecified,,,,,,,,2 Valve,,,,,None or Unspecified,None or Unspecified,,,,,,,,,,,,,Standard,Conventional
4975,1656979,27000,825158,132,2.0,1988,,,1/18/1997 0:00,FR10B,FR10,B,,,,Wheel Loader - 100.0 to 110.0 Horsepower,New York,WL,Wheel Loader,,EROPS,None or Unspecified,,None or Unspecified,,,,,,,,2 Valve,,,,,None or Unspecified,None or Unspecified,,,,,,,,,,,,,Standard,Conventional
4975,1656981,13000,1286806,132,1.0,1988,,,3/4/2010 0:00,FR10B,FR10,B,,,,Wheel Loader - 100.0 to 110.0 Horsepower,Washington,WL,Wheel Loader,,EROPS,None or Unspecified,,None or Unspecified,,,,,,,,2 Valve,,,,,17.5,None or Unspecified,,,,,,,,,,,,,Standard,Conventional
4975,1656982,28000,1341239,132,1.0,1989,,,9/29/1994 0:00,FR10B,FR10,B,,,,Wheel Loader - 100.0 to 110.0 Horsepower,Arizona,WL,Wheel Loader,,EROPS,None or Unspecified,,None or Unspecified,,,,,,,,3 Valve,,,,,None or Unspecified,None or Unspecified,,,,,,,,,,,,,Standard,Conventional
4975,1656987,9000,1090024,132,4.0,1990,,,2/17/2001 0:00,FR10B,FR10,B,,,,Wheel Loader - 100.0 to 110.0 Horsepower,Florida,WL,Wheel Loader,,EROPS,None or Unspecified,,None or Unspecified,,,,,,,,2 Valve,,,,,None or Unspecified,None or Unspecified,,,,,,,,,,,,,Standard,Conventional
4975,1656992,17000,1249466,132,1.0,1000,,,12/13/2006 0:00,FR10B,FR10,B,,,,Wheel Loader - 100.0 to 110.0 Horsepower,Maryland,WL,Wheel Loader,,EROPS,None or Unspecified,,None or Unspecified,,,,,,,,2 Valve,,,,,None or Unspecified,Manual,,,,,,,,,,,,,Standard,Conventional
4975,1656993,13500,1249466,132,8.0,1990,,,2/16/2007 0:00,FR10B,FR10,B,,,,Wheel Loader - 100.0 to 110.0 Horsepower,Florida,WL,Wheel Loader,,EROPS,None or Unspecified,,None or Unspecified,,,,,,,,2 Valve,,,,,None or Unspecified,Manual,,,,,,,,,,,,,Standard,Conventional
4975,1656994,18750,1270404,132,4.0,1989,2500.0,Low,2/9/1995 0:00,FR10B,FR10,B,,,,Wheel Loader - 100.0 to 110.0 Horsepower,Florida,WL,Wheel Loader,,OROPS,None or Unspecified,,None or Unspecified,,,,,,,,2 Valve,,,,,None or Unspecified,None or Unspecified,,,,,,,,,,,,,Standard,Conventional
4975,1656995,22500,1379705,132,4.0,1989,,,2/9/1995 0:00,FR10B,FR10,B,,,,Wheel Loader - 100.0 to 110.0 Horsepower,Florida,WL,Wheel Loader,,OROPS,None or Unspecified,,None or Unspecified,,,,,,,,2 Valve,,,,,None or Unspecified,None or Unspecified,,,,,,,,,,,,,Standard,Conventional
4975,1656996,29000,1377606,132,6.0,1990,,,12/15/1998 0:00,FR10B,FR10,B,,,,Wheel Loader - 100.0 to 110.0 Horsepower,Kentucky,WL,Wheel Loader,,OROPS,None or Unspecified,,None or Unspecified,,,,,,,,2 Valve,,,,,None or Unspecified,None or Unspecified,,,,,,,,,,,,,Standard,Conventional
4975,1657000,13500,1163894,132,1.0,1987,,,3/31/2006 0:00,FR10B,FR10,B,,,,Wheel Loader - 100.0 to 110.0 Horsepower,North Carolina,WL,Wheel Loader,,EROPS,None or Unspecified,,None or Unspecified,,,,,,,,2 Valve,,,,,None or Unspecified,None or Unspecified,,,,,,,,,,,,,Standard,Conventional
4975,1657001,20000,1380165,132,4.0,1990,3500.0,Medium,2/9/1995 0:00,FR10B,FR10,B,,,,Wheel Loader - 100.0 to 110.0 Horsepower,Florida,WL,Wheel Loader,,OROPS,None or Unspecified,,None or Unspecified,,,,,,,,2 Valve,,,,,None or Unspecified,None or Unspecified,,,,,,,,,,,,,Standard,Conventional
4975,1657002,18000,1355484,132,1.0,1990,,,3/1/2006 0:00,FR10B,FR10,B,,,,Wheel Loader - 100.0 to 110.0 Horsepower,Texas,WL,Wheel Loader,,EROPS,None or Unspecified,,None or Unspecified,,,,,,,,2 Valve,,,,,17.5,None or Unspecified,,,,,,,,,,,,,Standard,Conventional
4975,1657003,16000,1440883,132,1.0,1991,,,9/23/1998 0:00,FR10B,FR10,B,,,,Wheel Loader - 100.0 to 110.0 Horsepower,Texas,WL,Wheel Loader,,EROPS,Yes,,None or Unspecified,,,,,,,,2 Valve,,,,,None or Unspecified,None or Unspecified,,,,,,,,,,,,,Standard,Conventional
4975,1657004,21000,1221197,132,2.0,1989,,,7/23/1994 0:00,FR10B,FR10,B,,,,Wheel Loader - 100.0 to 110.0 Horsepower,Ohio,WL,Wheel Loader,,OROPS,None or Unspecified,,None or Unspecified,,,,,,,,2 Valve,,,,,None or Unspecified,None or Unspecified,,,,,,,,,,,,,Standard,Conventional
4975,1657007,12750,1138707,132,7.0,1990,,,9/15/2000 0:00,FR10B,FR10,B,,,,Wheel Loader - 100.0 to 110.0 Horsepower,Alabama,WL,Wheel Loader,,EROPS,None or Unspecified,,None or Unspecified,,,,,,,,2 Valve,,,,,None or Unspecified,None or Unspecified,,,,,,,,,,,,,Standard,Conventional
4975,1657008,13000,1170556,132,1.0,1991,,,9/19/2001 0:00,FR10B,FR10,B,,,,Wheel Loader - 100.0 to 110.0 Horsepower,Texas,WL,Wheel Loader,,EROPS,None or Unspecified,,None or Unspecified,,,,,,,,2 Valve,,,,,17.5,None or Unspecified,,,,,,,,,,,,,Standard,Conventional
4975,1657009,31000,1210129,132,21.0,1992,,,9/19/1998 0:00,FR10B,FR10,B,,,,Wheel Loader - 100.0 to 110.0 Horsepower,Maine,WL,Wheel Loader,,OROPS,None or Unspecified,,None or Unspecified,,,,,,,,2 Valve,,,,,None or Unspecified,None or Unspecified,,,,,,,,,,,,,Standard,Conventional
4975,1657010,15000,227106,132,4.0,1992,,,4/20/2006 0:00,FR10B,FR10,B,,,,Wheel Loader - 100.0 to 110.0 Horsepower,Ohio,WL,Wheel Loader,,EROPS,Yes,,None or Unspecified,,,,,,,,2 Valve,,,,,None or Unspecified,Manual,,,,,,,,,,,,,Standard,Conventional
4975,1657011,15000,1324681,132,1.0,1000,,,5/12/2005 0:00,FR10B,FR10,B,,,,Wheel Loader - 100.0 to 110.0 Horsepower,Texas,WL,Wheel Loader,,EROPS,None or Unspecified,,None or Unspecified,,,,,,,,2 Valve,,,,,17.5,None or Unspecified,,,,,,,,,,,,,Standard,Conventional
4975,1657012,17000,1289550,132,1.0,1992,,,9/14/2000 0:00,FR10B,FR10,B,,,,Wheel Loader - 100.0 to 110.0 Horsepower,Arizona,WL,Wheel Loader,,OROPS,None or Unspecified,,None or Unspecified,,,,,,,,2 Valve,,,,,17.5,None or Unspecified,,,,,,,,,,,,,Standard,Conventional
4975,1657013,17000,1289550,132,1.0,1992,,,6/11/2001 0:00,FR10B,FR10,B,,,,Wheel Loader - 100.0 to 110.0 Horsepower,California,WL,Wheel Loader,,OROPS,None or Unspecified,,None or Unspecified,,,,,,,,2 Valve,,,,,17.5,None or Unspecified,,,,,,,,,,,,,Standard,Conventional
4975,1657014,17500,1289550,132,1.0,1992,,,3/1/2001 0:00,FR10B,FR10,B,,,,Wheel Loader - 100.0 to 110.0 Horsepower,Arizona,WL,Wheel Loader,,OROPS,None or Unspecified,,None or Unspecified,,,,,,,,2 Valve,,,,,17.5,None or Unspecified,,,,,,,,,,,,,Standard,Conventional
4975,1657017,25500,1459508,132,4.0,1992,,,2/4/1999 0:00,FR10B,FR10,B,,,,Wheel Loader - 100.0 to 110.0 Horsepower,Florida,WL,Wheel Loader,,EROPS,None or Unspecified,,None or Unspecified,,,,,,,,2 Valve,,,,,None or Unspecified,None or Unspecified,,,,,,,,,,,,,Standard,Conventional
4975,1657830,17000,1179998,132,2.0,1000,,,10/14/1995 0:00,FR10B,FR10,B,,,,Wheel Loader - 100.0 to 110.0 Horsepower,Pennsylvania,WL,Wheel Loader,,EROPS,Yes,,None or Unspecified,,,,,,,,2 Valve,,,,,None or Unspecified,None or Unspecified,,,,,,,,,,,,,Standard,Conventional
4975,1658324,13000,1267324,132,2.0,1992,,,10/2/1999 0:00,FR10B,FR10,B,,,,Wheel Loader - 100.0 to 110.0 Horsepower,Pennsylvania,WL,Wheel Loader,,OROPS,None or Unspecified,,None or Unspecified,,,,,,,,2 Valve,,,,,None or Unspecified,None or Unspecified,,,,,,,,,,,,,Standard,Conventional
4975,1658414,29000,1557137,132,1.0,1989,,,3/27/1996 0:00,FR10B,FR10,B,,,,Wheel Loader - 100.0 to 110.0 Horsepower,Illinois,WL,Wheel Loader,,EROPS,None or Unspecified,,None or Unspecified,,,,,,,,2 Valve,,,,,None or Unspecified,Manual,,,,,,,,,,,,,Standard,Conventional
4975,1658549,27000,1542876,132,1.0,1987,,,5/2/1995 0:00,FR10B,FR10,B,,,,Wheel Loader - 100.0 to 110.0 Horsepower,Delaware,WL,Wheel Loader,,EROPS,None or Unspecified,,None or Unspecified,,,,,,,,2 Valve,,,,,None or Unspecified,None or Unspecified,,,,,,,,,,,,,Standard,Conventional
4975,2365408,15000,1367404,136,7.0,1987,0.0,,4/19/2007 0:00,FR10B,FR10,B,,,,Wheel Loader - 100.0 to 110.0 Horsepower,South Carolina,WL,Wheel Loader,,EROPS,Yes,,None or Unspecified,,,,,,,,2 Valve,,,,,17.5,Manual,,,,,,,,,,,,,Standard,Conventional
4975,2365409,17000,1308271,136,1.0,1000,0.0,,3/19/2010 0:00,FR10B,FR10,B,,,,Wheel Loader - 100.0 to 110.0 Horsepower,Minnesota,WL,Wheel Loader,,EROPS,Yes,,None or Unspecified,,,,,,,,2 Valve,,,,,17.5,None or Unspecified,,,,,,,,,,,,,Standard,Conventional
4975,2365414,17000,1116002,136,1.0,1989,0.0,,9/16/2009 0:00,FR10B,FR10,B,,,,Wheel Loader - 100.0 to 110.0 Horsepower,Washington,WL,Wheel Loader,,EROPS,None or Unspecified,,None or Unspecified,,,,,,,,2 Valve,,,,,20.5,None or Unspecified,,,,,,,,,,,,,Standard,Conventional
4975,2365423,11000,1150858,136,8.0,1000,8000.0,Low,1/28/2010 0:00,FR10B,FR10,B,,,,Wheel Loader - 100.0 to 110.0 Horsepower,Alabama,WL,Wheel Loader,,EROPS w AC,None or Unspecified,,None or Unspecified,,,,,,,,2 Valve,,,,,None or Unspecified,None or Unspecified,,,,,,,,,,,,,Standard,Conventional
4975,2365620,12000,1674001,136,,1000,536200.0,Medium,4/24/2009 0:00,FR10B,FR10,B,,,,Wheel Loader - 100.0 to 110.0 Horsepower,California,WL,Wheel Loader,,EROPS w AC,None or Unspecified,,None or Unspecified,,,,,,,,2 Valve,,,,,20.5,None or Unspecified,,,,,,,,,,,,,Standard,Conventional
4975,2365835,13000,1517047,136,1.0,1000,0.0,,3/4/2010 0:00,FR10B,FR10,B,,,,Wheel Loader - 100.0 to 110.0 Horsepower,Washington,WL,Wheel Loader,,EROPS,None or Unspecified,,None or Unspecified,,,,,,,,2 Valve,,,,,17.5,None or Unspecified,,,,,,,,,,,,,Standard,Conventional
4975,2365836,10500,1674369,136,99.0,1989,3649.0,Low,10/27/2009 0:00,FR10B,FR10,B,,,,Wheel Loader - 100.0 to 110.0 Horsepower,California,WL,Wheel Loader,,EROPS,None or Unspecified,,None or Unspecified,,,,,,,,2 Valve,,,,,None or Unspecified,None or Unspecified,,,,,,,,,,,,,Standard,Conventional
4975,2365837,13000,1464066,136,1.0,1989,0.0,,4/2/2008 0:00,FR10B,FR10,B,,,,Wheel Loader - 100.0 to 110.0 Horsepower,Maryland,WL,Wheel Loader,,EROPS,None or Unspecified,,None or Unspecified,,,,,,,,2 Valve,,,,,17.5,None or Unspecified,,,,,,,,,,,,,Standard,Conventional
4975,2660346,12000,1428106,149,1.0,1987,0.0,,9/28/2010 0:00,FR10B,FR10,B,,,,Wheel Loader - 100.0 to 110.0 Horsepower,Minnesota,WL,Wheel Loader,,EROPS,None or Unspecified,,None or Unspecified,,,,,,,,2 Valve,,,,,17.5,None or Unspecified,,,,,,,,,,,,,Standard,Conventional
4975,2660355,12500,1539174,149,1.0,1990,0.0,,7/29/2010 0:00,FR10B,FR10,B,,,,Wheel Loader - 100.0 to 110.0 Horsepower,Washington,WL,Wheel Loader,,EROPS,None or Unspecified,,None or Unspecified,,,,,,,,2 Valve,,,,,17.5,None or Unspecified,,,,,,,,,,,,,Standard,Conventional
4975,4330035,17000,1480809,172,1.0,1988,5365.0,Low,9/16/2009 0:00,FR10B,FR10,B,,,,Wheel Loader - 100.0 to 110.0 Horsepower,Washington,WL,Wheel Loader,,EROPS,None or Unspecified,,None or Unspecified,,,,,,,,2 Valve,,,,,20.5,None or Unspecified,,,,,,,,,,,,,Standard,Conventional
4975,6289747,19000,1903641,149,1.0,1990,,,12/16/2011 0:00,FR10B,FR10,B,,,,Wheel Loader - 100.0 to 110.0 Horsepower,California,WL,Wheel Loader,,EROPS w AC,None or Unspecified,,None or Unspecified,,,,,,,,2 Valve,,,,,None or Unspecified,None or Unspecified,,,,,,,,,,,,,Standard,Conventional
