SalesID,2405870
SalePrice,8000
MachineID,1167104
datasource,136
auctioneerID,1.0
YearMade,1000
MachineHoursCurrentMeter,0.0
UsageBand,
saledate,6/12/2007 0:00
fiModelDesc,PC40-2
fiBaseModel,PC40
fiSecondaryDesc,
fiModelSeries,-2
fiModelDescriptor,
ProductSize,Mini
fiProductClassDesc,"Hydraulic Excavator, Track - 4.0 to 5.0 Metric Tons"
state,Washington
ProductGroup,TEX
ProductGroupDesc,Track Excavators
Drive_System,
Enclosure,EROPS
Forks,
Pad_Type,
Ride_Control,
Stick,
Transmission,
Turbocharged,
Blade_Extension,
Blade_Width,
Enclosure_Type,
Engine_Horsepower,
Hydraulics,Standard
Pushblock,
Ripper,
Scarifier,
Tip_Control,
Tire_Size,
Coupler,None or Unspecified
Coupler_System,
Grouser_Tracks,
Hydraulics_Flow,
Track_Type,Steel
Undercarriage_Pad_Width,None or Unspecified
Stick_Length,None or Unspecified
Thumb,None or Unspecified
Pattern_Changer,None or Unspecified
Grouser_Type,Double
Backhoe_Mounting,
Blade_Type,
Travel_Controls,
Differential_Type,
Steering_Controls,
