ModelID,SalesID,SalePrice,MachineID,datasource,auctioneerID,YearMade,MachineHoursCurrentMeter,UsageBand,saledate,fiModelDesc,fiBaseModel,fiSecondaryDesc,fiModelSeries,fiModelDescriptor,ProductSize,fiProductClassDesc,state,ProductGroup,ProductGroupDesc,Drive_System,Enclosure,Forks,Pad_Type,Ride_Control,Stick,Transmission,Turbocharged,Blade_Extension,Blade_Width,Enclosure_Type,Engine_Horsepower,Hydraulics,Pushblock,Ripper,Scarifier,Tip_Control,Tire_Size,Coupler,Coupler_System,Grouser_Tracks,Hydraulics_Flow,Track_Type,Undercarriage_Pad_Width,Stick_Length,Thumb,Pattern_Changer,Grouser_Type,Backhoe_Mounting,Blade_Type,Travel_Controls,Differential_Type,Steering_Controls
4996,1660212,12000,1386479,132,1.0,1000,,,3/26/2004 0:00,755B,755,B,,,,Backhoe Loader - 16.0 + Ft Standard Digging Depth,California,BL,Backhoe Loaders,Two Wheel Drive,OROPS,None or Unspecified,None or Unspecified,No,Standard,Standard,None or Unspecified,,,,,,,,,,,,,,,,,,,,,,,,,
4996,1660274,8000,1212340,132,4.0,1998,,,2/10/2003 0:00,755B,755,B,,,,Backhoe Loader - 16.0 + Ft Standard Digging Depth,Florida,BL,Backhoe Loaders,Two Wheel Drive,OROPS,None or Unspecified,None or Unspecified,No,Standard,Standard,None or Unspecified,,,,,,,,,,,,,,,,,,,,,,,,,
4996,1660298,11000,1204430,132,1.0,1000,,,5/25/2004 0:00,755B,755,B,,,,Backhoe Loader - 16.0 + Ft Standard Digging Depth,Ohio,BL,Backhoe Loaders,Two Wheel Drive,EROPS,None or Unspecified,None or Unspecified,No,Standard,Standard,None or Unspecified,,,,,,,,,,,,,,,,,,,,,,,,,
4996,1660391,8500,1131981,132,21.0,1000,,,7/8/2000 0:00,755B,755,B,,,,Backhoe Loader - 16.0 + Ft Standard Digging Depth,Maine,BL,Backhoe Loaders,Two Wheel Drive,EROPS,None or Unspecified,None or Unspecified,No,Standard,Standard,None or Unspecified,,,,,,,,,,,,,,,,,,,,,,,,,
4996,1664777,9500,1444822,132,12.0,1000,,,9/20/2000 0:00,755B,755,B,,,,Backhoe Loader - 16.0 + Ft Standard Digging Depth,South Carolina,BL,Backhoe Loaders,Two Wheel Drive,EROPS,None or Unspecified,None or Unspecified,No,Standard,Standard,None or Unspecified,,,,,,,,,,,,,,,,,,,,,,,,,
4996,1665580,9000,1268653,132,6.0,1983,,,7/29/1997 0:00,755B,755,B,,,,Backhoe Loader - 16.0 + Ft Standard Digging Depth,Texas,BL,Backhoe Loaders,Two Wheel Drive,OROPS,None or Unspecified,None or Unspecified,No,Standard,Standard,None or Unspecified,,,,,,,,,,,,,,,,,,,,,,,,,
4996,1666129,10000,1510720,132,2.0,1987,,,3/26/1998 0:00,755B,755,B,,,,Backhoe Loader - 16.0 + Ft Standard Digging Depth,New Jersey,BL,Backhoe Loaders,Two Wheel Drive,EROPS,None or Unspecified,None or Unspecified,No,Standard,Standard,None or Unspecified,,,,,,,,,,,,,,,,,,,,,,,,,
4996,1666132,9500,1198882,132,6.0,1989,,,7/29/1997 0:00,755B,755,B,,,,Backhoe Loader - 16.0 + Ft Standard Digging Depth,Texas,BL,Backhoe Loaders,Two Wheel Drive,EROPS,None or Unspecified,None or Unspecified,No,Standard,Standard,None or Unspecified,,,,,,,,,,,,,,,,,,,,,,,,,
4996,1666180,9000,1353598,132,10.0,1000,,,10/24/2001 0:00,755B,755,B,,,,Backhoe Loader - 16.0 + Ft Standard Digging Depth,Pennsylvania,BL,Backhoe Loaders,Two Wheel Drive,OROPS,None or Unspecified,None or Unspecified,No,Standard,Standard,None or Unspecified,,,,,,,,,,,,,,,,,,,,,,,,,
4996,1666182,13500,1185030,132,25.0,1988,,,2/11/1995 0:00,755B,755,B,,,,Backhoe Loader - 16.0 + Ft Standard Digging Depth,California,BL,Backhoe Loaders,Two Wheel Drive,OROPS,None or Unspecified,None or Unspecified,No,Extended,Standard,None or Unspecified,,,,,,,,,,,,,,,,,,,,,,,,,
4996,1666194,13500,1284020,132,25.0,1988,,,4/1/1995 0:00,755B,755,B,,,,Backhoe Loader - 16.0 + Ft Standard Digging Depth,California,BL,Backhoe Loaders,Two Wheel Drive,OROPS,None or Unspecified,None or Unspecified,No,Extended,Standard,None or Unspecified,,,,,,,,,,,,,,,,,,,,,,,,,
4996,1666195,15000,1284020,132,25.0,1988,,,2/11/1995 0:00,755B,755,B,,,,Backhoe Loader - 16.0 + Ft Standard Digging Depth,California,BL,Backhoe Loaders,Two Wheel Drive,OROPS,None or Unspecified,None or Unspecified,No,Extended,Standard,None or Unspecified,,,,,,,,,,,,,,,,,,,,,,,,,
4996,1667535,21000,1217984,132,4.0,1988,,,2/11/1994 0:00,755B,755,B,,,,Backhoe Loader - 16.0 + Ft Standard Digging Depth,Florida,BL,Backhoe Loaders,Two Wheel Drive,OROPS,None or Unspecified,None or Unspecified,No,Standard,Standard,None or Unspecified,,,,,,,,,,,,,,,,,,,,,,,,,
4996,1670365,7500,1176741,132,1.0,1993,,,10/10/2006 0:00,755B,755,B,,,,Backhoe Loader - 16.0 + Ft Standard Digging Depth,Florida,BL,Backhoe Loaders,Two Wheel Drive,OROPS,None or Unspecified,None or Unspecified,No,Standard,Standard,None or Unspecified,,,,,,,,,,,,,,,,,,,,,,,,,
4996,1670465,11000,1485193,132,8.0,1000,,,9/22/2004 0:00,755B,755,B,,,,Backhoe Loader - 16.0 + Ft Standard Digging Depth,Mississippi,BL,Backhoe Loaders,Two Wheel Drive,OROPS,None or Unspecified,None or Unspecified,No,Standard,Standard,None or Unspecified,,,,,,,,,,,,,,,,,,,,,,,,,
4996,1670774,15000,1389476,132,4.0,1000,,,2/9/1995 0:00,755B,755,B,,,,Backhoe Loader - 16.0 + Ft Standard Digging Depth,Florida,BL,Backhoe Loaders,Two Wheel Drive,OROPS,None or Unspecified,None or Unspecified,No,Standard,Standard,None or Unspecified,,,,,,,,,,,,,,,,,,,,,,,,,
4996,1671579,9900,1248076,132,8.0,1984,,,3/27/2002 0:00,755B,755,B,,,,Backhoe Loader - 16.0 + Ft Standard Digging Depth,Mississippi,BL,Backhoe Loaders,Two Wheel Drive,OROPS,None or Unspecified,None or Unspecified,No,Standard,Standard,None or Unspecified,,,,,,,,,,,,,,,,,,,,,,,,,
4996,1671807,11000,1353692,132,1.0,1985,,,6/17/1998 0:00,755B,755,B,,,,Backhoe Loader - 16.0 + Ft Standard Digging Depth,Texas,BL,Backhoe Loaders,Two Wheel Drive,EROPS,None or Unspecified,None or Unspecified,No,Standard,Standard,None or Unspecified,,,,,,,,,,,,,,,,,,,,,,,,,
4996,1671874,15000,1152732,132,25.0,1985,,,9/30/1995 0:00,755B,755,B,,,,Backhoe Loader - 16.0 + Ft Standard Digging Depth,California,BL,Backhoe Loaders,Two Wheel Drive,OROPS,None or Unspecified,None or Unspecified,No,Extended,Standard,None or Unspecified,,,,,,,,,,,,,,,,,,,,,,,,,
4996,1671934,14000,1144106,132,25.0,1985,,,2/24/1996 0:00,755B,755,B,,,,Backhoe Loader - 16.0 + Ft Standard Digging Depth,California,BL,Backhoe Loaders,Two Wheel Drive,OROPS,None or Unspecified,None or Unspecified,No,Extended,Standard,None or Unspecified,,,,,,,,,,,,,,,,,,,,,,,,,
4996,1672250,9500,1462190,132,99.0,1987,,,10/10/1998 0:00,755B,755,B,,,,Backhoe Loader - 16.0 + Ft Standard Digging Depth,Illinois,BL,Backhoe Loaders,Two Wheel Drive,OROPS,None or Unspecified,None or Unspecified,No,Standard,Standard,None or Unspecified,,,,,,,,,,,,,,,,,,,,,,,,,
4996,1672251,7500,1212303,132,1.0,1987,,,4/25/2001 0:00,755B,755,B,,,,Backhoe Loader - 16.0 + Ft Standard Digging Depth,New York,BL,Backhoe Loaders,Two Wheel Drive,EROPS,None or Unspecified,None or Unspecified,No,Standard,Standard,None or Unspecified,,,,,,,,,,,,,,,,,,,,,,,,,
4996,1672252,9000,1106523,132,21.0,1986,,,4/26/1996 0:00,755B,755,B,,,,Backhoe Loader - 16.0 + Ft Standard Digging Depth,Maine,BL,Backhoe Loaders,Two Wheel Drive,OROPS,None or Unspecified,None or Unspecified,No,Standard,Standard,None or Unspecified,,,,,,,,,,,,,,,,,,,,,,,,,
4996,1672256,12500,819086,132,2.0,1987,,,5/6/1995 0:00,755B,755,B,,,,Backhoe Loader - 16.0 + Ft Standard Digging Depth,Ohio,BL,Backhoe Loaders,Two Wheel Drive,OROPS,None or Unspecified,None or Unspecified,No,Standard,Standard,None or Unspecified,,,,,,,,,,,,,,,,,,,,,,,,,
4996,1672312,12500,1261770,132,25.0,1987,,,8/5/1995 0:00,755B,755,B,,,,Backhoe Loader - 16.0 + Ft Standard Digging Depth,California,BL,Backhoe Loaders,Two Wheel Drive,OROPS,None or Unspecified,None or Unspecified,No,Extended,Standard,None or Unspecified,,,,,,,,,,,,,,,,,,,,,,,,,
4996,1672316,8500,1247056,132,1.0,1987,,,8/29/2006 0:00,755B,755,B,,,,Backhoe Loader - 16.0 + Ft Standard Digging Depth,California,BL,Backhoe Loaders,Two Wheel Drive,OROPS,None or Unspecified,None or Unspecified,No,Extended,Standard,None or Unspecified,,,,,,,,,,,,,,,,,,,,,,,,,
4996,1672344,15500,1303052,132,6.0,1987,,,10/10/1995 0:00,755B,755,B,,,,Backhoe Loader - 16.0 + Ft Standard Digging Depth,North Carolina,BL,Backhoe Loaders,Two Wheel Drive,OROPS,None or Unspecified,None or Unspecified,No,Standard,Standard,None or Unspecified,,,,,,,,,,,,,,,,,,,,,,,,,
4996,1672347,8000,1140342,132,1.0,1000,,,5/31/2006 0:00,755B,755,B,,,,Backhoe Loader - 16.0 + Ft Standard Digging Depth,Illinois,BL,Backhoe Loaders,Two Wheel Drive,EROPS,Yes,None or Unspecified,No,Extended,Standard,None or Unspecified,,,,,,,,,,,,,,,,,,,,,,,,,
4996,1672362,8000,1276633,132,1.0,1987,,,8/31/1999 0:00,755B,755,B,,,,Backhoe Loader - 16.0 + Ft Standard Digging Depth,California,BL,Backhoe Loaders,Two Wheel Drive,OROPS,None or Unspecified,None or Unspecified,No,Standard,Standard,None or Unspecified,,,,,,,,,,,,,,,,,,,,,,,,,
4996,1672367,11000,1285051,132,1.0,1987,,,8/31/1999 0:00,755B,755,B,,,,Backhoe Loader - 16.0 + Ft Standard Digging Depth,California,BL,Backhoe Loaders,Two Wheel Drive,OROPS,None or Unspecified,None or Unspecified,No,Extended,Standard,None or Unspecified,,,,,,,,,,,,,,,,,,,,,,,,,
4996,1672374,8500,1097183,132,99.0,1000,,,11/20/2004 0:00,755B,755,B,,,,Backhoe Loader - 16.0 + Ft Standard Digging Depth,California,BL,Backhoe Loaders,Two Wheel Drive,OROPS,None or Unspecified,None or Unspecified,No,Standard,Standard,None or Unspecified,,,,,,,,,,,,,,,,,,,,,,,,,
4996,1672385,9500,1178854,132,1.0,1987,,,8/31/1999 0:00,755B,755,B,,,,Backhoe Loader - 16.0 + Ft Standard Digging Depth,California,BL,Backhoe Loaders,Two Wheel Drive,OROPS,None or Unspecified,None or Unspecified,No,Standard,Standard,None or Unspecified,,,,,,,,,,,,,,,,,,,,,,,,,
4996,1672410,11250,1190280,132,2.0,1987,,,12/5/1998 0:00,755B,755,B,,,,Backhoe Loader - 16.0 + Ft Standard Digging Depth,North Carolina,BL,Backhoe Loaders,Two Wheel Drive,EROPS,None or Unspecified,None or Unspecified,No,Standard,Standard,None or Unspecified,,,,,,,,,,,,,,,,,,,,,,,,,
4996,1672412,12000,1223493,132,2.0,1987,,,9/12/1998 0:00,755B,755,B,,,,Backhoe Loader - 16.0 + Ft Standard Digging Depth,North Carolina,BL,Backhoe Loaders,Two Wheel Drive,OROPS,None or Unspecified,None or Unspecified,No,Standard,Standard,None or Unspecified,,,,,,,,,,,,,,,,,,,,,,,,,
4996,1672413,12500,1093072,132,25.0,1988,,,4/13/1996 0:00,755B,755,B,,,,Backhoe Loader - 16.0 + Ft Standard Digging Depth,California,BL,Backhoe Loaders,Two Wheel Drive,OROPS,None or Unspecified,None or Unspecified,No,Extended,Standard,None or Unspecified,,,,,,,,,,,,,,,,,,,,,,,,,
4996,1672415,14000,1450839,132,25.0,1987,,,7/19/1996 0:00,755B,755,B,,,,Backhoe Loader - 16.0 + Ft Standard Digging Depth,California,BL,Backhoe Loaders,Two Wheel Drive,OROPS,None or Unspecified,None or Unspecified,No,Extended,Standard,None or Unspecified,,,,,,,,,,,,,,,,,,,,,,,,,
4996,1672416,10500,1194797,132,1.0,1987,,,2/25/1999 0:00,755B,755,B,,,,Backhoe Loader - 16.0 + Ft Standard Digging Depth,California,BL,Backhoe Loaders,Two Wheel Drive,OROPS,None or Unspecified,None or Unspecified,No,Standard,Standard,None or Unspecified,,,,,,,,,,,,,,,,,,,,,,,,,
4996,1672436,10200,1508312,132,9.0,1988,,,5/15/2003 0:00,755B,755,B,,,,Backhoe Loader - 16.0 + Ft Standard Digging Depth,South Carolina,BL,Backhoe Loaders,Two Wheel Drive,OROPS,None or Unspecified,None or Unspecified,No,Standard,Standard,None or Unspecified,,,,,,,,,,,,,,,,,,,,,,,,,
4996,1672449,22000,1319241,132,13.0,1987,,,9/6/1997 0:00,755B,755,B,,,,Backhoe Loader - 16.0 + Ft Standard Digging Depth,Tennessee,BL,Backhoe Loaders,Two Wheel Drive,OROPS,None or Unspecified,None or Unspecified,No,Standard,Standard,None or Unspecified,,,,,,,,,,,,,,,,,,,,,,,,,
4996,1672487,15000,1220802,132,1.0,1987,,,6/8/2004 0:00,755B,755,B,,,,Backhoe Loader - 16.0 + Ft Standard Digging Depth,California,BL,Backhoe Loaders,Two Wheel Drive,OROPS,None or Unspecified,None or Unspecified,No,Extended,Standard,None or Unspecified,,,,,,,,,,,,,,,,,,,,,,,,,
4996,1672488,18250,1220802,132,25.0,1987,,,12/10/1994 0:00,755B,755,B,,,,Backhoe Loader - 16.0 + Ft Standard Digging Depth,California,BL,Backhoe Loaders,Two Wheel Drive,OROPS,None or Unspecified,None or Unspecified,No,Extended,Standard,None or Unspecified,,,,,,,,,,,,,,,,,,,,,,,,,
4996,1672490,13500,1532607,132,25.0,1987,,,9/17/1994 0:00,755B,755,B,,,,Backhoe Loader - 16.0 + Ft Standard Digging Depth,California,BL,Backhoe Loaders,Two Wheel Drive,OROPS,None or Unspecified,None or Unspecified,No,Extended,Standard,None or Unspecified,,,,,,,,,,,,,,,,,,,,,,,,,
4996,1672521,17500,1092178,132,4.0,1987,,,2/11/1994 0:00,755B,755,B,,,,Backhoe Loader - 16.0 + Ft Standard Digging Depth,Florida,BL,Backhoe Loaders,Two Wheel Drive,EROPS,None or Unspecified,None or Unspecified,No,Standard,Standard,None or Unspecified,,,,,,,,,,,,,,,,,,,,,,,,,
4996,1672532,14000,1511752,132,25.0,1988,,,2/24/1996 0:00,755B,755,B,,,,Backhoe Loader - 16.0 + Ft Standard Digging Depth,California,BL,Backhoe Loaders,Two Wheel Drive,OROPS,None or Unspecified,None or Unspecified,No,Standard,Standard,None or Unspecified,,,,,,,,,,,,,,,,,,,,,,,,,
4996,1672533,16500,1182051,132,6.0,1988,,,10/10/1995 0:00,755B,755,B,,,,Backhoe Loader - 16.0 + Ft Standard Digging Depth,North Carolina,BL,Backhoe Loaders,Two Wheel Drive,OROPS,None or Unspecified,None or Unspecified,No,Standard,Standard,None or Unspecified,,,,,,,,,,,,,,,,,,,,,,,,,
4996,1672534,12500,1182051,132,1.0,1988,,,4/3/1997 0:00,755B,755,B,,,,Backhoe Loader - 16.0 + Ft Standard Digging Depth,Georgia,BL,Backhoe Loaders,Two Wheel Drive,OROPS,None or Unspecified,None or Unspecified,No,Standard,Standard,None or Unspecified,,,,,,,,,,,,,,,,,,,,,,,,,
4996,1672541,17000,1396154,132,6.0,1988,,,10/10/1995 0:00,755B,755,B,,,,Backhoe Loader - 16.0 + Ft Standard Digging Depth,North Carolina,BL,Backhoe Loaders,Two Wheel Drive,OROPS,None or Unspecified,None or Unspecified,No,Standard,Standard,None or Unspecified,,,,,,,,,,,,,,,,,,,,,,,,,
4996,1672548,11000,1451317,132,21.0,1000,,,5/11/2000 0:00,755B,755,B,,,,Backhoe Loader - 16.0 + Ft Standard Digging Depth,Maine,BL,Backhoe Loaders,Two Wheel Drive,EROPS,None or Unspecified,None or Unspecified,No,Standard,Standard,None or Unspecified,,,,,,,,,,,,,,,,,,,,,,,,,
4996,1672549,17000,1274753,132,25.0,1988,,,2/24/1996 0:00,755B,755,B,,,,Backhoe Loader - 16.0 + Ft Standard Digging Depth,California,BL,Backhoe Loaders,Two Wheel Drive,OROPS,None or Unspecified,None or Unspecified,No,Extended,Standard,None or Unspecified,,,,,,,,,,,,,,,,,,,,,,,,,
4996,1672567,8500,1354235,132,1.0,1000,,,5/25/2004 0:00,755B,755,B,,,,Backhoe Loader - 16.0 + Ft Standard Digging Depth,Ohio,BL,Backhoe Loaders,Two Wheel Drive,EROPS,None or Unspecified,None or Unspecified,No,Standard,Standard,None or Unspecified,,,,,,,,,,,,,,,,,,,,,,,,,
4996,1672581,11000,1407577,132,25.0,1989,,,6/3/1995 0:00,755B,755,B,,,,Backhoe Loader - 16.0 + Ft Standard Digging Depth,California,BL,Backhoe Loaders,Two Wheel Drive,OROPS,None or Unspecified,None or Unspecified,No,Extended,Standard,None or Unspecified,,,,,,,,,,,,,,,,,,,,,,,,,
4996,1672583,10500,1349673,132,1.0,1000,,,12/5/2000 0:00,755B,755,B,,,,Backhoe Loader - 16.0 + Ft Standard Digging Depth,California,BL,Backhoe Loaders,Two Wheel Drive,OROPS,None or Unspecified,None or Unspecified,No,Standard,Standard,None or Unspecified,,,,,,,,,,,,,,,,,,,,,,,,,
4996,1672584,9000,1293275,132,1.0,1988,,,12/4/2002 0:00,755B,755,B,,,,Backhoe Loader - 16.0 + Ft Standard Digging Depth,North Carolina,BL,Backhoe Loaders,Two Wheel Drive,OROPS,None or Unspecified,None or Unspecified,No,Standard,Standard,None or Unspecified,,,,,,,,,,,,,,,,,,,,,,,,,
4996,1672588,10500,1414777,132,25.0,1988,,,10/24/1998 0:00,755B,755,B,,,,Backhoe Loader - 16.0 + Ft Standard Digging Depth,California,BL,Backhoe Loaders,Four Wheel Drive,OROPS,None or Unspecified,None or Unspecified,No,Standard,Standard,None or Unspecified,,,,,,,,,,,,,,,,,,,,,,,,,
4996,1672599,9000,1362397,132,19.0,1000,,,12/5/2003 0:00,755B,755,B,,,,Backhoe Loader - 16.0 + Ft Standard Digging Depth,California,BL,Backhoe Loaders,Two Wheel Drive,OROPS,None or Unspecified,None or Unspecified,No,Extended,Standard,None or Unspecified,,,,,,,,,,,,,,,,,,,,,,,,,
4996,1672607,12500,1343491,132,2.0,1988,,,9/12/1998 0:00,755B,755,B,,,,Backhoe Loader - 16.0 + Ft Standard Digging Depth,North Carolina,BL,Backhoe Loaders,Two Wheel Drive,OROPS,None or Unspecified,None or Unspecified,No,Standard,Standard,None or Unspecified,,,,,,,,,,,,,,,,,,,,,,,,,
4996,1672618,9000,1423578,132,13.0,1000,,,9/16/2000 0:00,755B,755,B,,,,Backhoe Loader - 16.0 + Ft Standard Digging Depth,Tennessee,BL,Backhoe Loaders,Two Wheel Drive,OROPS,None or Unspecified,None or Unspecified,No,Standard,Standard,None or Unspecified,,,,,,,,,,,,,,,,,,,,,,,,,
4996,1672642,12500,1483286,132,1.0,1989,,,3/10/2004 0:00,755B,755,B,,,,Backhoe Loader - 16.0 + Ft Standard Digging Depth,California,BL,Backhoe Loaders,Two Wheel Drive,OROPS,None or Unspecified,None or Unspecified,No,Extended,Standard,None or Unspecified,,,,,,,,,,,,,,,,,,,,,,,,,
4996,1672725,22000,1388271,132,2.0,1000,,,4/15/2000 0:00,755B,755,B,,,,Backhoe Loader - 16.0 + Ft Standard Digging Depth,New York,BL,Backhoe Loaders,Two Wheel Drive,OROPS,None or Unspecified,None or Unspecified,No,Standard,Standard,None or Unspecified,,,,,,,,,,,,,,,,,,,,,,,,,
4996,1672727,9500,1204106,132,1.0,1000,,,8/27/2008 0:00,755B,755,B,,,,Backhoe Loader - 16.0 + Ft Standard Digging Depth,California,BL,Backhoe Loaders,Two Wheel Drive,OROPS,None or Unspecified,None or Unspecified,No,Standard,Standard,None or Unspecified,,,,,,,,,,,,,,,,,,,,,,,,,
4996,1672729,9500,1089028,132,2.0,1990,,,11/17/2001 0:00,755B,755,B,,,,Backhoe Loader - 16.0 + Ft Standard Digging Depth,Ohio,BL,Backhoe Loaders,Two Wheel Drive,EROPS,None or Unspecified,None or Unspecified,No,Standard,Standard,None or Unspecified,,,,,,,,,,,,,,,,,,,,,,,,,
4996,1672730,11000,1132831,132,4.0,1989,,,2/14/2006 0:00,755B,755,B,,,,Backhoe Loader - 16.0 + Ft Standard Digging Depth,Florida,BL,Backhoe Loaders,Two Wheel Drive,OROPS,None or Unspecified,None or Unspecified,No,Standard,Standard,None or Unspecified,,,,,,,,,,,,,,,,,,,,,,,,,
4996,1672731,11000,1132831,132,7.0,1989,,,12/5/2007 0:00,755B,755,B,,,,Backhoe Loader - 16.0 + Ft Standard Digging Depth,Alabama,BL,Backhoe Loaders,Two Wheel Drive,OROPS,None or Unspecified,None or Unspecified,No,Standard,Standard,None or Unspecified,,,,,,,,,,,,,,,,,,,,,,,,,
4996,1672732,11000,1132831,132,4.0,1989,,,2/13/2006 0:00,755B,755,B,,,,Backhoe Loader - 16.0 + Ft Standard Digging Depth,Florida,BL,Backhoe Loaders,Two Wheel Drive,OROPS,None or Unspecified,None or Unspecified,No,Standard,Standard,None or Unspecified,,,,,,,,,,,,,,,,,,,,,,,,,
4996,1672734,10000,1455138,132,1.0,1000,,,5/25/2004 0:00,755B,755,B,,,,Backhoe Loader - 16.0 + Ft Standard Digging Depth,Ohio,BL,Backhoe Loaders,Two Wheel Drive,EROPS,None or Unspecified,None or Unspecified,No,Standard,Standard,None or Unspecified,,,,,,,,,,,,,,,,,,,,,,,,,
4996,1672735,11000,1171839,132,1.0,1000,,,5/25/2004 0:00,755B,755,B,,,,Backhoe Loader - 16.0 + Ft Standard Digging Depth,Ohio,BL,Backhoe Loaders,Two Wheel Drive,EROPS,None or Unspecified,None or Unspecified,No,Standard,Standard,None or Unspecified,,,,,,,,,,,,,,,,,,,,,,,,,
4996,1672737,13500,1329754,132,19.0,1989,,,8/19/2004 0:00,755B,755,B,,,,Backhoe Loader - 16.0 + Ft Standard Digging Depth,California,BL,Backhoe Loaders,Four Wheel Drive,OROPS,None or Unspecified,None or Unspecified,No,Extended,Standard,None or Unspecified,,,,,,,,,,,,,,,,,,,,,,,,,
4996,1672738,8500,738939,132,1.0,1000,,,9/13/2005 0:00,755B,755,B,,,,Backhoe Loader - 16.0 + Ft Standard Digging Depth,California,BL,Backhoe Loaders,Two Wheel Drive,OROPS,None or Unspecified,None or Unspecified,No,Standard,Standard,None or Unspecified,,,,,,,,,,,,,,,,,,,,,,,,,
4996,1672740,13500,1078679,132,25.0,1000,,,8/12/2000 0:00,755B,755,B,,,,Backhoe Loader - 16.0 + Ft Standard Digging Depth,California,BL,Backhoe Loaders,Four Wheel Drive,OROPS,None or Unspecified,None or Unspecified,No,Extended,Standard,None or Unspecified,,,,,,,,,,,,,,,,,,,,,,,,,
4996,1672741,18500,1383985,132,6.0,1989,,,10/10/1995 0:00,755B,755,B,,,,Backhoe Loader - 16.0 + Ft Standard Digging Depth,North Carolina,BL,Backhoe Loaders,Two Wheel Drive,OROPS,None or Unspecified,None or Unspecified,No,Standard,Standard,None or Unspecified,,,,,,,,,,,,,,,,,,,,,,,,,
4996,1672742,10500,1498231,132,18.0,1989,,,8/13/1997 0:00,755B,755,B,,,,Backhoe Loader - 16.0 + Ft Standard Digging Depth,Illinois,BL,Backhoe Loaders,Two Wheel Drive,OROPS,None or Unspecified,None or Unspecified,No,Standard,Powershift,None or Unspecified,,,,,,,,,,,,,,,,,,,,,,,,,
4996,1672743,10000,1465342,132,2.0,1989,,,2/4/2002 0:00,755B,755,B,,,,Backhoe Loader - 16.0 + Ft Standard Digging Depth,Florida,BL,Backhoe Loaders,Two Wheel Drive,EROPS,None or Unspecified,None or Unspecified,No,Standard,Standard,None or Unspecified,,,,,,,,,,,,,,,,,,,,,,,,,
4996,1672744,12000,1465342,132,9.0,1989,,,2/18/2002 0:00,755B,755,B,,,,Backhoe Loader - 16.0 + Ft Standard Digging Depth,Florida,BL,Backhoe Loaders,Two Wheel Drive,EROPS,None or Unspecified,None or Unspecified,No,Standard,Standard,None or Unspecified,,,,,,,,,,,,,,,,,,,,,,,,,
4996,1672745,7750,1227507,132,99.0,1990,,,3/6/2009 0:00,755B,755,B,,,,Backhoe Loader - 16.0 + Ft Standard Digging Depth,Minnesota,BL,Backhoe Loaders,Two Wheel Drive,EROPS,None or Unspecified,None or Unspecified,No,Standard,Standard,None or Unspecified,,,,,,,,,,,,,,,,,,,,,,,,,
4996,1672748,16000,1290879,132,1.0,1991,,,3/11/1998 0:00,755B,755,B,,,,Backhoe Loader - 16.0 + Ft Standard Digging Depth,Texas,BL,Backhoe Loaders,Two Wheel Drive,EROPS,None or Unspecified,None or Unspecified,No,Standard,Standard,None or Unspecified,,,,,,,,,,,,,,,,,,,,,,,,,
4996,1672752,17500,1204654,132,25.0,1989,,,2/24/1996 0:00,755B,755,B,,,,Backhoe Loader - 16.0 + Ft Standard Digging Depth,California,BL,Backhoe Loaders,Four Wheel Drive,OROPS,None or Unspecified,None or Unspecified,No,Extended,Standard,None or Unspecified,,,,,,,,,,,,,,,,,,,,,,,,,
4996,1672753,10750,1409848,132,21.0,1989,,,9/27/2001 0:00,755B,755,B,,,,Backhoe Loader - 16.0 + Ft Standard Digging Depth,Maine,BL,Backhoe Loaders,Two Wheel Drive,EROPS,None or Unspecified,None or Unspecified,No,Standard,Standard,None or Unspecified,,,,,,,,,,,,,,,,,,,,,,,,,
4996,1672754,25000,1120131,132,16.0,1991,,,5/2/1995 0:00,755B,755,B,,,,Backhoe Loader - 16.0 + Ft Standard Digging Depth,Ohio,BL,Backhoe Loaders,Two Wheel Drive,EROPS,None or Unspecified,None or Unspecified,No,Standard,Standard,None or Unspecified,,,,,,,,,,,,,,,,,,,,,,,,,
4996,1672755,10000,1121805,132,1.0,1000,,,9/11/2003 0:00,755B,755,B,,,,Backhoe Loader - 16.0 + Ft Standard Digging Depth,California,BL,Backhoe Loaders,Two Wheel Drive,OROPS,None or Unspecified,None or Unspecified,No,Extended,Standard,None or Unspecified,,,,,,,,,,,,,,,,,,,,,,,,,
4996,1672756,10000,1105473,132,1.0,1000,,,9/11/2003 0:00,755B,755,B,,,,Backhoe Loader - 16.0 + Ft Standard Digging Depth,California,BL,Backhoe Loaders,Two Wheel Drive,OROPS,None or Unspecified,None or Unspecified,No,Extended,Standard,None or Unspecified,,,,,,,,,,,,,,,,,,,,,,,,,
4996,1672759,8500,1273665,132,1.0,1990,,,6/23/2008 0:00,755B,755,B,,,,Backhoe Loader - 16.0 + Ft Standard Digging Depth,California,BL,Backhoe Loaders,Two Wheel Drive,OROPS,None or Unspecified,None or Unspecified,No,Standard,Standard,None or Unspecified,,,,,,,,,,,,,,,,,,,,,,,,,
4996,1672760,17000,1362278,132,25.0,1991,100.0,Low,12/12/1998 0:00,755B,755,B,,,,Backhoe Loader - 16.0 + Ft Standard Digging Depth,California,BL,Backhoe Loaders,Two Wheel Drive,OROPS,None or Unspecified,None or Unspecified,No,Extended,Standard,None or Unspecified,,,,,,,,,,,,,,,,,,,,,,,,,
4996,1672761,14250,1230900,132,25.0,1990,,,10/24/1998 0:00,755B,755,B,,,,Backhoe Loader - 16.0 + Ft Standard Digging Depth,California,BL,Backhoe Loaders,Two Wheel Drive,OROPS,None or Unspecified,None or Unspecified,No,Extended,Standard,None or Unspecified,,,,,,,,,,,,,,,,,,,,,,,,,
4996,1672762,15000,1112171,132,25.0,1991,,,7/19/1996 0:00,755B,755,B,,,,Backhoe Loader - 16.0 + Ft Standard Digging Depth,California,BL,Backhoe Loaders,Two Wheel Drive,OROPS,None or Unspecified,None or Unspecified,No,Extended,Standard,None or Unspecified,,,,,,,,,,,,,,,,,,,,,,,,,
4996,1672763,23000,1443779,132,1.0,1991,,,2/21/1996 0:00,755B,755,B,,,,Backhoe Loader - 16.0 + Ft Standard Digging Depth,California,BL,Backhoe Loaders,Two Wheel Drive,OROPS,None or Unspecified,None or Unspecified,No,Standard,Standard,None or Unspecified,,,,,,,,,,,,,,,,,,,,,,,,,
4996,1672765,18500,1470340,132,7.0,1990,,,6/1/2000 0:00,755B,755,B,,,,Backhoe Loader - 16.0 + Ft Standard Digging Depth,Alabama,BL,Backhoe Loaders,Two Wheel Drive,OROPS,None or Unspecified,None or Unspecified,No,Standard,Standard,None or Unspecified,,,,,,,,,,,,,,,,,,,,,,,,,
4996,1672766,20000,1135514,132,10.0,1991,,,8/9/2000 0:00,755B,755,B,,,,Backhoe Loader - 16.0 + Ft Standard Digging Depth,Louisiana,BL,Backhoe Loaders,Two Wheel Drive,OROPS,None or Unspecified,None or Unspecified,No,Standard,Standard,None or Unspecified,,,,,,,,,,,,,,,,,,,,,,,,,
4996,1672767,13000,1271345,132,1.0,1000,,,9/17/2003 0:00,755B,755,B,,,,Backhoe Loader - 16.0 + Ft Standard Digging Depth,Texas,BL,Backhoe Loaders,Two Wheel Drive,EROPS,None or Unspecified,None or Unspecified,No,Standard,Standard,None or Unspecified,,,,,,,,,,,,,,,,,,,,,,,,,
4996,1672769,9000,1133704,132,4.0,1991,,,10/5/2001 0:00,755B,755,B,,,,Backhoe Loader - 16.0 + Ft Standard Digging Depth,Ohio,BL,Backhoe Loaders,Two Wheel Drive,EROPS,None or Unspecified,None or Unspecified,No,Extended,Standard,None or Unspecified,,,,,,,,,,,,,,,,,,,,,,,,,
4996,1672771,13500,1161853,132,1.0,1000,,,12/13/2005 0:00,755B,755,B,,,,Backhoe Loader - 16.0 + Ft Standard Digging Depth,California,BL,Backhoe Loaders,Two Wheel Drive,OROPS,None or Unspecified,None or Unspecified,No,Extended,Standard,None or Unspecified,,,,,,,,,,,,,,,,,,,,,,,,,
4996,1672773,10000,1358195,132,1.0,1991,,,10/16/2004 0:00,755B,755,B,,,,Backhoe Loader - 16.0 + Ft Standard Digging Depth,Nevada,BL,Backhoe Loaders,Two Wheel Drive,OROPS,None or Unspecified,None or Unspecified,No,Standard,Standard,None or Unspecified,,,,,,,,,,,,,,,,,,,,,,,,,
4996,1672774,23000,1358195,132,1.0,1992,,,2/21/1996 0:00,755B,755,B,,,,Backhoe Loader - 16.0 + Ft Standard Digging Depth,California,BL,Backhoe Loaders,Two Wheel Drive,OROPS,None or Unspecified,None or Unspecified,No,Standard,Standard,None or Unspecified,,,,,,,,,,,,,,,,,,,,,,,,,
4996,1672775,9000,1251708,132,1.0,1000,,,9/28/2004 0:00,755B,755,B,,,,Backhoe Loader - 16.0 + Ft Standard Digging Depth,Illinois,BL,Backhoe Loaders,Two Wheel Drive,EROPS,None or Unspecified,None or Unspecified,No,Standard,Standard,None or Unspecified,,,,,,,,,,,,,,,,,,,,,,,,,
4996,1672776,16000,1409748,132,25.0,1991,,,5/1/1999 0:00,755B,755,B,,,,Backhoe Loader - 16.0 + Ft Standard Digging Depth,California,BL,Backhoe Loaders,Two Wheel Drive,OROPS,None or Unspecified,None or Unspecified,No,Extended,Standard,None or Unspecified,,,,,,,,,,,,,,,,,,,,,,,,,
4996,1672777,16000,1557822,132,25.0,1991,,,5/1/1999 0:00,755B,755,B,,,,Backhoe Loader - 16.0 + Ft Standard Digging Depth,California,BL,Backhoe Loaders,Two Wheel Drive,OROPS,None or Unspecified,None or Unspecified,No,Extended,Standard,None or Unspecified,,,,,,,,,,,,,,,,,,,,,,,,,
4996,1672778,16000,1292266,132,25.0,1991,,,5/1/1999 0:00,755B,755,B,,,,Backhoe Loader - 16.0 + Ft Standard Digging Depth,California,BL,Backhoe Loaders,Two Wheel Drive,OROPS,None or Unspecified,None or Unspecified,No,Extended,Standard,None or Unspecified,,,,,,,,,,,,,,,,,,,,,,,,,
4996,1672779,9000,1234442,132,1.0,1991,,,6/17/2008 0:00,755B,755,B,,,,Backhoe Loader - 16.0 + Ft Standard Digging Depth,Washington,BL,Backhoe Loaders,Two Wheel Drive,OROPS,None or Unspecified,None or Unspecified,No,Extended,Standard,None or Unspecified,,,,,,,,,,,,,,,,,,,,,,,,,
4996,1672782,9500,1277597,132,4.0,1991,,,10/5/2001 0:00,755B,755,B,,,,Backhoe Loader - 16.0 + Ft Standard Digging Depth,Ohio,BL,Backhoe Loaders,Two Wheel Drive,EROPS,None or Unspecified,None or Unspecified,No,Extended,Standard,None or Unspecified,,,,,,,,,,,,,,,,,,,,,,,,,
4996,1672784,15000,1293441,132,25.0,1991,,,5/1/1999 0:00,755B,755,B,,,,Backhoe Loader - 16.0 + Ft Standard Digging Depth,California,BL,Backhoe Loaders,Two Wheel Drive,OROPS,None or Unspecified,None or Unspecified,No,Extended,Standard,None or Unspecified,,,,,,,,,,,,,,,,,,,,,,,,,
4996,1673165,11000,1509716,132,1.0,1000,,,9/25/2001 0:00,755B,755,B,,,,Backhoe Loader - 16.0 + Ft Standard Digging Depth,Illinois,BL,Backhoe Loaders,Two Wheel Drive,OROPS,None or Unspecified,None or Unspecified,No,Standard,Standard,None or Unspecified,,,,,,,,,,,,,,,,,,,,,,,,,
4996,2366255,8500,1166152,136,1.0,1000,0.0,,7/28/2009 0:00,755B,755,B,,,,Backhoe Loader - 16.0 + Ft Standard Digging Depth,California,BL,Backhoe Loaders,Two Wheel Drive,OROPS,None or Unspecified,None or Unspecified,No,Standard,Standard,None or Unspecified,,,,,,,,,,,,,,,,,,,,,,,,,
4996,2661676,8500,1400512,149,1.0,1991,0.0,,9/16/2010 0:00,755B,755,B,,,,Backhoe Loader - 16.0 + Ft Standard Digging Depth,Ohio,BL,Backhoe Loaders,Two Wheel Drive,EROPS,None or Unspecified,None or Unspecified,No,Standard,Standard,None or Unspecified,,,,,,,,,,,,,,,,,,,,,,,,,
4996,2661716,10000,1818083,149,99.0,1000,0.0,,5/21/2011 0:00,755B,755,B,,,,Backhoe Loader - 16.0 + Ft Standard Digging Depth,California,BL,Backhoe Loaders,Two Wheel Drive,OROPS,None or Unspecified,None or Unspecified,No,Extended,Standard,None or Unspecified,,,,,,,,,,,,,,,,,,,,,,,,,
4996,2661717,8500,753343,149,1.0,1991,4187.0,Low,12/14/2010 0:00,755B,755,B,,,,Backhoe Loader - 16.0 + Ft Standard Digging Depth,California,BL,Backhoe Loaders,Two Wheel Drive,OROPS,None or Unspecified,None or Unspecified,No,Extended,Standard,None or Unspecified,,,,,,,,,,,,,,,,,,,,,,,,,
