ModelID,SalesID,SalePrice,MachineID,datasource,auctioneerID,YearMade,MachineHoursCurrentMeter,UsageBand,saledate,fiModelDesc,fiBaseModel,fiSecondaryDesc,fiModelSeries,fiModelDescriptor,ProductSize,fiProductClassDesc,state,ProductGroup,ProductGroupDesc,Drive_System,Enclosure,Forks,Pad_Type,Ride_Control,Stick,Transmission,Turbocharged,Blade_Extension,Blade_Width,Enclosure_Type,Engine_Horsepower,Hydraulics,Pushblock,Ripper,Scarifier,Tip_Control,Tire_Size,Coupler,Coupler_System,Grouser_Tracks,Hydraulics_Flow,Track_Type,Undercarriage_Pad_Width,Stick_Length,Thumb,Pattern_Changer,Grouser_Type,Backhoe_Mounting,Blade_Type,Travel_Controls,Differential_Type,Steering_Controls
5049,1676280,36000,1264872,132,8.0,1999,,,7/20/2011 0:00,830C,830,C,,,,Motorgrader - 130.0 to 145.0 Horsepower,Mississippi,MG,Motor Graders,No,EROPS w AC,,,,,None or Unspecified,,None or Unspecified,None or Unspecified,None or Unspecified,No,Base + 1 Function,None or Unspecified,None or Unspecified,Yes,None or Unspecified,"14""",,,,,,,,,,,,,,,
5049,1678184,24000,1084850,132,12.0,1997,,,12/8/2005 0:00,830C,830,C,,,,Motorgrader - 130.0 to 145.0 Horsepower,South Carolina,MG,Motor Graders,No,EROPS,,,,,None or Unspecified,,None or Unspecified,None or Unspecified,None or Unspecified,No,Base + 1 Function,Yes,None or Unspecified,Yes,None or Unspecified,None or Unspecified,,,,,,,,,,,,,,,
