ModelID,SalesID,SalePrice,MachineID,datasource,auctioneerID,YearMade,MachineHoursCurrentMeter,UsageBand,saledate,fiModelDesc,fiBaseModel,fiSecondaryDesc,fiModelSeries,fiModelDescriptor,ProductSize,fiProductClassDesc,state,ProductGroup,ProductGroupDesc,Drive_System,Enclosure,Forks,Pad_Type,Ride_Control,Stick,Transmission,Turbocharged,Blade_Extension,Blade_Width,Enclosure_Type,Engine_Horsepower,Hydraulics,Pushblock,Ripper,Scarifier,Tip_Control,Tire_Size,Coupler,Coupler_System,Grouser_Tracks,Hydraulics_Flow,Track_Type,Undercarriage_Pad_Width,Stick_Length,Thumb,Pattern_Changer,Grouser_Type,Backhoe_Mounting,Blade_Type,Travel_Controls,Differential_Type,Steering_Controls
5144,1705415,9500,1380328,132,14.0,1975,,,3/22/1996 0:00,H1500C,H1500,C,,,Large / Medium,"Hydraulic Excavator, Track - 33.0 to 40.0 Metric Tons",Indiana,TEX,Track Excavators,,EROPS,,,,,,,,,,,Standard,,,,,,None or Unspecified,,,,Steel,None or Unspecified,None or Unspecified,None or Unspecified,None or Unspecified,Triple,,,,,
5144,1705572,9500,1337403,132,99.0,1978,,,10/17/1996 0:00,H1500C,H1500,C,,,Large / Medium,"Hydraulic Excavator, Track - 33.0 to 40.0 Metric Tons",Maine,TEX,Track Excavators,,EROPS,,,,,,,,,,,Standard,,,,,,None or Unspecified,,,,Steel,None or Unspecified,None or Unspecified,None or Unspecified,None or Unspecified,Double,,,,,
5144,1705573,18000,1297354,132,1.0,1978,,,8/8/1996 0:00,H1500C,H1500,C,,,Large / Medium,"Hydraulic Excavator, Track - 33.0 to 40.0 Metric Tons",California,TEX,Track Excavators,,EROPS,,,,,,,,,,,Standard,,,,,,None or Unspecified,,,,Steel,None or Unspecified,None or Unspecified,None or Unspecified,None or Unspecified,Double,,,,,
5144,1705576,12500,1547423,132,1.0,1981,,,4/25/1996 0:00,H1500C,H1500,C,,,Large / Medium,"Hydraulic Excavator, Track - 33.0 to 40.0 Metric Tons",Indiana,TEX,Track Excavators,,EROPS,,,,,,,,,,,Standard,,,,,,None or Unspecified,,,,Steel,None or Unspecified,None or Unspecified,None or Unspecified,None or Unspecified,Double,,,,,
5144,1705578,16000,1502141,132,1.0,1979,,,4/9/1996 0:00,H1500C,H1500,C,,,Large / Medium,"Hydraulic Excavator, Track - 33.0 to 40.0 Metric Tons",Washington,TEX,Track Excavators,,EROPS,,,,,,,,,,,Standard,,,,,,Manual,,,,Steel,None or Unspecified,None or Unspecified,None or Unspecified,None or Unspecified,Double,,,,,
5144,1705582,11000,1465201,132,1.0,1000,,,3/5/1996 0:00,H1500C,H1500,C,,,Large / Medium,"Hydraulic Excavator, Track - 33.0 to 40.0 Metric Tons",Texas,TEX,Track Excavators,,EROPS,,,,,,,,,,,Standard,,,,,,None or Unspecified,,,,Steel,None or Unspecified,None or Unspecified,None or Unspecified,None or Unspecified,Double,,,,,
5144,1705583,11000,1210895,132,1.0,1981,,,10/3/1995 0:00,H1500C,H1500,C,,,Large / Medium,"Hydraulic Excavator, Track - 33.0 to 40.0 Metric Tons",Texas,TEX,Track Excavators,,EROPS,,,,,,,,,,,Standard,,,,,,None or Unspecified,,,,Steel,None or Unspecified,None or Unspecified,None or Unspecified,None or Unspecified,Double,,,,,
5144,1705584,17000,1315404,132,16.0,1982,,,8/6/1998 0:00,H1500C,H1500,C,,,Large / Medium,"Hydraulic Excavator, Track - 33.0 to 40.0 Metric Tons",Illinois,TEX,Track Excavators,,EROPS,,,,,,,,,,,Auxiliary,,,,,,None or Unspecified,,,,Steel,36 inch,None or Unspecified,None or Unspecified,None or Unspecified,Double,,,,,
5144,1705586,11000,1531855,132,1.0,1986,,,5/2/1995 0:00,H1500C,H1500,C,,,Large / Medium,"Hydraulic Excavator, Track - 33.0 to 40.0 Metric Tons",Delaware,TEX,Track Excavators,,EROPS,,,,,,,,,,,Standard,,,,,,None or Unspecified,,,,Steel,None or Unspecified,None or Unspecified,None or Unspecified,None or Unspecified,Triple,,,,,
