ModelID,SalesID,SalePrice,MachineID,datasource,auctioneerID,YearMade,MachineHoursCurrentMeter,UsageBand,saledate,fiModelDesc,fiBaseModel,fiSecondaryDesc,fiModelSeries,fiModelDescriptor,ProductSize,fiProductClassDesc,state,ProductGroup,ProductGroupDesc,Drive_System,Enclosure,Forks,Pad_Type,Ride_Control,Stick,Transmission,Turbocharged,Blade_Extension,Blade_Width,Enclosure_Type,Engine_Horsepower,Hydraulics,Pushblock,Ripper,Scarifier,Tip_Control,Tire_Size,Coupler,Coupler_System,Grouser_Tracks,Hydraulics_Flow,Track_Type,Undercarriage_Pad_Width,Stick_Length,Thumb,Pattern_Changer,Grouser_Type,Backhoe_Mounting,Blade_Type,Travel_Controls,Differential_Type,Steering_Controls
5145,1705431,12000,1259090,132,5.0,1000,,,7/27/2001 0:00,H1500D,H1500,D,,,Large / Medium,"Hydraulic Excavator, Track - 33.0 to 40.0 Metric Tons",Maine,TEX,Track Excavators,,EROPS,,,,,,,,,,,Auxiliary,,,,,,None or Unspecified,,,,Steel,36 inch,"11' 0""",None or Unspecified,None or Unspecified,Triple,,,,,
5145,1705588,29000,1394805,132,18.0,1990,,,10/26/1996 0:00,H1500D,H1500,D,,,Large / Medium,"Hydraulic Excavator, Track - 33.0 to 40.0 Metric Tons",Pennsylvania,TEX,Track Excavators,,EROPS,,,,,,,,,,,Standard,,,,,,None or Unspecified,,,,Steel,36 inch,None or Unspecified,None or Unspecified,None or Unspecified,Triple,,,,,
