ModelID,SalesID,SalePrice,MachineID,datasource,auctioneerID,YearMade,MachineHoursCurrentMeter,UsageBand,saledate,fiModelDesc,fiBaseModel,fiSecondaryDesc,fiModelSeries,fiModelDescriptor,ProductSize,fiProductClassDesc,state,ProductGroup,ProductGroupDesc,Drive_System,Enclosure,Forks,Pad_Type,Ride_Control,Stick,Transmission,Turbocharged,Blade_Extension,Blade_Width,Enclosure_Type,Engine_Horsepower,Hydraulics,Pushblock,Ripper,Scarifier,Tip_Control,Tire_Size,Coupler,Coupler_System,Grouser_Tracks,Hydraulics_Flow,Track_Type,Undercarriage_Pad_Width,Stick_Length,Thumb,Pattern_Changer,Grouser_Type,Backhoe_Mounting,Blade_Type,Travel_Controls,Differential_Type,Steering_Controls
5161,1175401,25500,1022094,121,3.0,2001,77.0,Low,4/7/2005 0:00,208S,208,S,,,,Backhoe Loader - 0.0 to 14.0 Ft Standard Digging Depth,North Carolina,BL,Backhoe Loaders,Two Wheel Drive,OROPS,None or Unspecified,None or Unspecified,No,Standard,Standard,None or Unspecified,,,,,,,,,,,,,,,,,,,,,,,,,
5161,1182995,10700,1000448,121,3.0,1997,2541.0,Low,9/30/2008 0:00,208S,208,S,,,,Backhoe Loader - 0.0 to 14.0 Ft Standard Digging Depth,Pennsylvania,BL,Backhoe Loaders,Four Wheel Drive,EROPS,None or Unspecified,None or Unspecified,No,Standard,Standard,None or Unspecified,,,,,,,,,,,,,,,,,,,,,,,,,
5161,1217204,10250,1004667,121,3.0,1000,,,9/8/2011 0:00,208S,208,S,,,,Backhoe Loader - 0.0 to 14.0 Ft Standard Digging Depth,California,BL,Backhoe Loaders,Two Wheel Drive,OROPS,None or Unspecified,None or Unspecified,No,Standard,Hydrostatic,None or Unspecified,,,,,,,,,,,,,,,,,,,,,,,,,
5161,1706109,15500,1453812,132,1.0,1999,,,12/14/2005 0:00,208S,208,S,,,,Backhoe Loader - 0.0 to 14.0 Ft Standard Digging Depth,Maryland,BL,Backhoe Loaders,Four Wheel Drive,OROPS,None or Unspecified,None or Unspecified,No,Standard,Standard,None or Unspecified,,,,,,,,,,,,,,,,,,,,,,,,,
5161,1706524,16000,1105926,132,2.0,1000,,,3/22/2007 0:00,208S,208,S,,,,Backhoe Loader - 0.0 to 14.0 Ft Standard Digging Depth,New Jersey,BL,Backhoe Loaders,Two Wheel Drive,EROPS,None or Unspecified,None or Unspecified,No,Standard,Standard,None or Unspecified,,,,,,,,,,,,,,,,,,,,,,,,,
5161,1706525,13000,1392989,132,2.0,1000,,,3/22/2007 0:00,208S,208,S,,,,Backhoe Loader - 0.0 to 14.0 Ft Standard Digging Depth,New Jersey,BL,Backhoe Loaders,Two Wheel Drive,OROPS,None or Unspecified,None or Unspecified,No,Standard,Standard,None or Unspecified,,,,,,,,,,,,,,,,,,,,,,,,,
5161,1706526,15000,1263665,132,2.0,2003,,,3/22/2007 0:00,208S,208,S,,,,Backhoe Loader - 0.0 to 14.0 Ft Standard Digging Depth,New Jersey,BL,Backhoe Loaders,Two Wheel Drive,OROPS,None or Unspecified,None or Unspecified,No,Standard,Standard,None or Unspecified,,,,,,,,,,,,,,,,,,,,,,,,,
5161,1706527,16500,1510066,132,2.0,2003,,,3/22/2007 0:00,208S,208,S,,,,Backhoe Loader - 0.0 to 14.0 Ft Standard Digging Depth,New Jersey,BL,Backhoe Loaders,Two Wheel Drive,OROPS,None or Unspecified,None or Unspecified,No,Standard,Standard,None or Unspecified,,,,,,,,,,,,,,,,,,,,,,,,,
5161,1706528,17000,1074528,132,2.0,2003,,,3/22/2007 0:00,208S,208,S,,,,Backhoe Loader - 0.0 to 14.0 Ft Standard Digging Depth,New Jersey,BL,Backhoe Loaders,Two Wheel Drive,OROPS,None or Unspecified,None or Unspecified,No,Standard,Hydrostatic,None or Unspecified,,,,,,,,,,,,,,,,,,,,,,,,,
5161,1706529,14000,1397158,132,2.0,2003,,,3/22/2007 0:00,208S,208,S,,,,Backhoe Loader - 0.0 to 14.0 Ft Standard Digging Depth,New Jersey,BL,Backhoe Loaders,Two Wheel Drive,OROPS,None or Unspecified,None or Unspecified,No,Standard,Standard,None or Unspecified,,,,,,,,,,,,,,,,,,,,,,,,,
5161,1706530,15000,1416144,132,2.0,2004,,,3/22/2007 0:00,208S,208,S,,,,Backhoe Loader - 0.0 to 14.0 Ft Standard Digging Depth,New Jersey,BL,Backhoe Loaders,Two Wheel Drive,OROPS,None or Unspecified,None or Unspecified,No,Standard,Standard,None or Unspecified,,,,,,,,,,,,,,,,,,,,,,,,,
5161,1706531,18000,1295511,132,2.0,2004,,,3/22/2007 0:00,208S,208,S,,,,Backhoe Loader - 0.0 to 14.0 Ft Standard Digging Depth,New Jersey,BL,Backhoe Loaders,Two Wheel Drive,OROPS,None or Unspecified,None or Unspecified,No,Standard,Hydrostatic,None or Unspecified,,,,,,,,,,,,,,,,,,,,,,,,,
5161,1706532,17000,1100652,132,2.0,2004,,,3/22/2007 0:00,208S,208,S,,,,Backhoe Loader - 0.0 to 14.0 Ft Standard Digging Depth,New Jersey,BL,Backhoe Loaders,Two Wheel Drive,OROPS,None or Unspecified,None or Unspecified,No,Standard,Hydrostatic,None or Unspecified,,,,,,,,,,,,,,,,,,,,,,,,,
5161,1706533,13500,1247771,132,2.0,2004,,,3/22/2007 0:00,208S,208,S,,,,Backhoe Loader - 0.0 to 14.0 Ft Standard Digging Depth,New Jersey,BL,Backhoe Loaders,Two Wheel Drive,OROPS,None or Unspecified,None or Unspecified,No,Standard,Standard,None or Unspecified,,,,,,,,,,,,,,,,,,,,,,,,,
5161,1706534,16000,1516945,132,2.0,2004,,,3/22/2007 0:00,208S,208,S,,,,Backhoe Loader - 0.0 to 14.0 Ft Standard Digging Depth,New Jersey,BL,Backhoe Loaders,Two Wheel Drive,OROPS,None or Unspecified,None or Unspecified,No,Standard,Hydrostatic,None or Unspecified,,,,,,,,,,,,,,,,,,,,,,,,,
5161,1706535,15000,1276002,132,2.0,2005,,,3/22/2007 0:00,208S,208,S,,,,Backhoe Loader - 0.0 to 14.0 Ft Standard Digging Depth,New Jersey,BL,Backhoe Loaders,Two Wheel Drive,OROPS,None or Unspecified,None or Unspecified,No,Standard,Standard,None or Unspecified,,,,,,,,,,,,,,,,,,,,,,,,,
5161,1709132,15000,1303132,132,13.0,1997,,,3/20/1999 0:00,208S,208,S,,,,Backhoe Loader - 0.0 to 14.0 Ft Standard Digging Depth,Tennessee,BL,Backhoe Loaders,Two Wheel Drive,OROPS,None or Unspecified,None or Unspecified,No,Standard,Standard,None or Unspecified,,,,,,,,,,,,,,,,,,,,,,,,,
5161,1712275,12500,1309421,132,2.0,1995,,,11/13/1998 0:00,208S,208,S,,,,Backhoe Loader - 0.0 to 14.0 Ft Standard Digging Depth,New York,BL,Backhoe Loaders,Two Wheel Drive,OROPS,None or Unspecified,None or Unspecified,No,Standard,Standard,None or Unspecified,,,,,,,,,,,,,,,,,,,,,,,,,
5161,1712276,18000,1151171,132,2.0,1997,,,6/26/1999 0:00,208S,208,S,,,,Backhoe Loader - 0.0 to 14.0 Ft Standard Digging Depth,California,BL,Backhoe Loaders,Two Wheel Drive,OROPS,None or Unspecified,None or Unspecified,No,Standard,Standard,None or Unspecified,,,,,,,,,,,,,,,,,,,,,,,,,
5161,1712277,7500,1367790,132,9.0,1995,,,2/21/2001 0:00,208S,208,S,,,,Backhoe Loader - 0.0 to 14.0 Ft Standard Digging Depth,Florida,BL,Backhoe Loaders,Two Wheel Drive,OROPS,None or Unspecified,None or Unspecified,No,Standard,Standard,None or Unspecified,,,,,,,,,,,,,,,,,,,,,,,,,
5161,1712350,9000,1235196,132,1.0,1996,,,3/1/2006 0:00,208S,208,S,,,,Backhoe Loader - 0.0 to 14.0 Ft Standard Digging Depth,Texas,BL,Backhoe Loaders,Four Wheel Drive,OROPS,None or Unspecified,None or Unspecified,No,Standard,Standard,None or Unspecified,,,,,,,,,,,,,,,,,,,,,,,,,
5161,1712351,8000,1235196,132,2.0,1000,,,5/9/2006 0:00,208S,208,S,,,,Backhoe Loader - 0.0 to 14.0 Ft Standard Digging Depth,Texas,BL,Backhoe Loaders,Four Wheel Drive,OROPS,None or Unspecified,None or Unspecified,No,Standard,Standard,None or Unspecified,,,,,,,,,,,,,,,,,,,,,,,,,
5161,1712352,12000,1215921,132,2.0,1000,,,9/22/2000 0:00,208S,208,S,,,,Backhoe Loader - 0.0 to 14.0 Ft Standard Digging Depth,Tennessee,BL,Backhoe Loaders,Two Wheel Drive,OROPS,None or Unspecified,None or Unspecified,No,Standard,Standard,None or Unspecified,,,,,,,,,,,,,,,,,,,,,,,,,
5161,1712353,10000,1215921,132,2.0,1996,,,7/29/2000 0:00,208S,208,S,,,,Backhoe Loader - 0.0 to 14.0 Ft Standard Digging Depth,Ohio,BL,Backhoe Loaders,Two Wheel Drive,OROPS,None or Unspecified,None or Unspecified,No,Standard,Standard,None or Unspecified,,,,,,,,,,,,,,,,,,,,,,,,,
5161,1712354,10500,1360396,132,2.0,1997,,,3/10/2001 0:00,208S,208,S,,,,Backhoe Loader - 0.0 to 14.0 Ft Standard Digging Depth,Pennsylvania,BL,Backhoe Loaders,Four Wheel Drive,OROPS,None or Unspecified,None or Unspecified,No,Standard,Standard,None or Unspecified,,,,,,,,,,,,,,,,,,,,,,,,,
5161,1712355,13000,1455415,132,2.0,1997,,,2/8/2001 0:00,208S,208,S,,,,Backhoe Loader - 0.0 to 14.0 Ft Standard Digging Depth,Florida,BL,Backhoe Loaders,Four Wheel Drive,OROPS,None or Unspecified,None or Unspecified,No,Standard,Standard,None or Unspecified,,,,,,,,,,,,,,,,,,,,,,,,,
5161,1712356,10000,1455415,132,9.0,1997,,,2/21/2001 0:00,208S,208,S,,,,Backhoe Loader - 0.0 to 14.0 Ft Standard Digging Depth,Florida,BL,Backhoe Loaders,Four Wheel Drive,OROPS,None or Unspecified,None or Unspecified,No,Standard,Standard,None or Unspecified,,,,,,,,,,,,,,,,,,,,,,,,,
5161,1712357,10700,1177946,132,3.0,1997,,,10/2/2008 0:00,208S,208,S,,,,Backhoe Loader - 0.0 to 14.0 Ft Standard Digging Depth,California,BL,Backhoe Loaders,Four Wheel Drive,EROPS,None or Unspecified,None or Unspecified,No,Standard,Standard,None or Unspecified,,,,,,,,,,,,,,,,,,,,,,,,,
5161,1712358,12000,1116426,132,2.0,1997,,,12/13/2001 0:00,208S,208,S,,,,Backhoe Loader - 0.0 to 14.0 Ft Standard Digging Depth,California,BL,Backhoe Loaders,Two Wheel Drive,OROPS,None or Unspecified,None or Unspecified,No,Standard,Standard,None or Unspecified,,,,,,,,,,,,,,,,,,,,,,,,,
5161,1712359,11500,1426998,132,1.0,1998,,,3/8/2006 0:00,208S,208,S,,,,Backhoe Loader - 0.0 to 14.0 Ft Standard Digging Depth,Illinois,BL,Backhoe Loaders,Two Wheel Drive,OROPS,None or Unspecified,None or Unspecified,No,Standard,Standard,None or Unspecified,,,,,,,,,,,,,,,,,,,,,,,,,
5161,1712361,9000,1102735,132,1.0,1998,,,6/16/2011 0:00,208S,208,S,,,,Backhoe Loader - 0.0 to 14.0 Ft Standard Digging Depth,Washington,BL,Backhoe Loaders,Four Wheel Drive,OROPS,None or Unspecified,None or Unspecified,No,Standard,Standard,None or Unspecified,,,,,,,,,,,,,,,,,,,,,,,,,
5161,1712362,9975,84294,132,13.0,1998,,,3/17/2007 0:00,208S,208,S,,,,Backhoe Loader - 0.0 to 14.0 Ft Standard Digging Depth,Tennessee,BL,Backhoe Loaders,Two Wheel Drive,OROPS,None or Unspecified,None or Unspecified,No,Standard,Standard,None or Unspecified,,,,,,,,,,,,,,,,,,,,,,,,,
5161,1712363,18000,1251301,132,2.0,1998,,,3/27/2003 0:00,208S,208,S,,,,Backhoe Loader - 0.0 to 14.0 Ft Standard Digging Depth,New Jersey,BL,Backhoe Loaders,Two Wheel Drive,EROPS,None or Unspecified,None or Unspecified,No,Standard,Standard,None or Unspecified,,,,,,,,,,,,,,,,,,,,,,,,,
5161,1712364,19500,1251301,132,2.0,1998,,,10/7/2000 0:00,208S,208,S,,,,Backhoe Loader - 0.0 to 14.0 Ft Standard Digging Depth,Pennsylvania,BL,Backhoe Loaders,Two Wheel Drive,EROPS,None or Unspecified,None or Unspecified,No,Standard,Standard,None or Unspecified,,,,,,,,,,,,,,,,,,,,,,,,,
5161,1712365,16000,1295942,132,3.0,1998,,,12/4/2003 0:00,208S,208,S,,,,Backhoe Loader - 0.0 to 14.0 Ft Standard Digging Depth,Unspecified,BL,Backhoe Loaders,Two Wheel Drive,OROPS,None or Unspecified,None or Unspecified,No,Standard,Hydrostatic,None or Unspecified,,,,,,,,,,,,,,,,,,,,,,,,,
5161,1712366,14000,1303002,132,2.0,1999,,,10/9/2001 0:00,208S,208,S,,,,Backhoe Loader - 0.0 to 14.0 Ft Standard Digging Depth,Texas,BL,Backhoe Loaders,Two Wheel Drive,OROPS,None or Unspecified,None or Unspecified,No,Standard,Standard,None or Unspecified,,,,,,,,,,,,,,,,,,,,,,,,,
5161,1713122,14000,1321850,132,1.0,2000,,,7/31/2007 0:00,208S,208,S,,,,Backhoe Loader - 0.0 to 14.0 Ft Standard Digging Depth,Connecticut,BL,Backhoe Loaders,Two Wheel Drive,OROPS,None or Unspecified,None or Unspecified,No,Standard,Standard,None or Unspecified,,,,,,,,,,,,,,,,,,,,,,,,,
5161,1713123,12000,1413563,132,2.0,2001,,,4/25/2008 0:00,208S,208,S,,,,Backhoe Loader - 0.0 to 14.0 Ft Standard Digging Depth,Maine,BL,Backhoe Loaders,Two Wheel Drive,OROPS,None or Unspecified,None or Unspecified,No,Standard,Standard,None or Unspecified,,,,,,,,,,,,,,,,,,,,,,,,,
5161,1713125,25500,1518486,132,2.0,2002,,,10/9/2004 0:00,208S,208,S,,,,Backhoe Loader - 0.0 to 14.0 Ft Standard Digging Depth,Georgia,BL,Backhoe Loaders,Two Wheel Drive,EROPS,None or Unspecified,None or Unspecified,No,Standard,Standard,None or Unspecified,,,,,,,,,,,,,,,,,,,,,,,,,
5161,1713126,17000,1124412,132,2.0,2003,,,3/22/2007 0:00,208S,208,S,,,,Backhoe Loader - 0.0 to 14.0 Ft Standard Digging Depth,New Jersey,BL,Backhoe Loaders,Two Wheel Drive,EROPS,None or Unspecified,None or Unspecified,No,Standard,Standard,None or Unspecified,,,,,,,,,,,,,,,,,,,,,,,,,
5161,1713127,17500,1145639,132,2.0,2003,,,3/22/2007 0:00,208S,208,S,,,,Backhoe Loader - 0.0 to 14.0 Ft Standard Digging Depth,New Jersey,BL,Backhoe Loaders,Two Wheel Drive,OROPS,None or Unspecified,None or Unspecified,No,Standard,Hydrostatic,None or Unspecified,,,,,,,,,,,,,,,,,,,,,,,,,
5161,1714096,7500,1084063,132,99.0,1000,,,7/14/2011 0:00,208S,208,S,,,,Backhoe Loader - 0.0 to 14.0 Ft Standard Digging Depth,Georgia,BL,Backhoe Loaders,Four Wheel Drive,OROPS,None or Unspecified,None or Unspecified,No,Standard,Standard,None or Unspecified,,,,,,,,,,,,,,,,,,,,,,,,,
5161,1714810,17000,1168612,132,1.0,1999,,,6/14/2005 0:00,208S,208,S,,,,Backhoe Loader - 0.0 to 14.0 Ft Standard Digging Depth,California,BL,Backhoe Loaders,Four Wheel Drive,OROPS,None or Unspecified,None or Unspecified,No,Standard,Standard,None or Unspecified,,,,,,,,,,,,,,,,,,,,,,,,,
5161,1714812,18000,1406740,132,1.0,2000,,,3/28/2002 0:00,208S,208,S,,,,Backhoe Loader - 0.0 to 14.0 Ft Standard Digging Depth,Florida,BL,Backhoe Loaders,Two Wheel Drive,OROPS,None or Unspecified,None or Unspecified,No,Standard,Standard,None or Unspecified,,,,,,,,,,,,,,,,,,,,,,,,,
5161,1714813,27000,1304193,132,1.0,2005,,,4/29/2008 0:00,208S,208,S,,,,Backhoe Loader - 0.0 to 14.0 Ft Standard Digging Depth,California,BL,Backhoe Loaders,Four Wheel Drive,OROPS,None or Unspecified,None or Unspecified,No,Standard,Standard,None or Unspecified,,,,,,,,,,,,,,,,,,,,,,,,,
5161,1714815,9000,1260916,132,1.0,1995,,,9/20/2000 0:00,208S,208,S,,,,Backhoe Loader - 0.0 to 14.0 Ft Standard Digging Depth,Texas,BL,Backhoe Loaders,Two Wheel Drive,OROPS,None or Unspecified,None or Unspecified,No,Standard,Standard,None or Unspecified,,,,,,,,,,,,,,,,,,,,,,,,,
5161,1714816,11000,1369489,132,1.0,1995,,,6/21/2006 0:00,208S,208,S,,,,Backhoe Loader - 0.0 to 14.0 Ft Standard Digging Depth,Maryland,BL,Backhoe Loaders,Four Wheel Drive,OROPS,None or Unspecified,None or Unspecified,No,Standard,Standard,None or Unspecified,,,,,,,,,,,,,,,,,,,,,,,,,
5161,1714817,9000,1477857,132,1.0,1995,,,9/20/2000 0:00,208S,208,S,,,,Backhoe Loader - 0.0 to 14.0 Ft Standard Digging Depth,Texas,BL,Backhoe Loaders,Two Wheel Drive,OROPS,None or Unspecified,None or Unspecified,No,Standard,Standard,None or Unspecified,,,,,,,,,,,,,,,,,,,,,,,,,
5161,1714819,9000,1396227,132,1.0,1996,,,9/20/2000 0:00,208S,208,S,,,,Backhoe Loader - 0.0 to 14.0 Ft Standard Digging Depth,Texas,BL,Backhoe Loaders,Two Wheel Drive,OROPS,None or Unspecified,None or Unspecified,No,Standard,Standard,None or Unspecified,,,,,,,,,,,,,,,,,,,,,,,,,
5161,1714820,11500,1473768,132,1.0,1997,,,10/19/2004 0:00,208S,208,S,,,,Backhoe Loader - 0.0 to 14.0 Ft Standard Digging Depth,New Mexico,BL,Backhoe Loaders,Two Wheel Drive,OROPS,None or Unspecified,None or Unspecified,No,Standard,Standard,None or Unspecified,,,,,,,,,,,,,,,,,,,,,,,,,
5161,1714821,7500,1417140,132,1.0,1000,,,12/3/2008 0:00,208S,208,S,,,,Backhoe Loader - 0.0 to 14.0 Ft Standard Digging Depth,Texas,BL,Backhoe Loaders,Two Wheel Drive,OROPS,None or Unspecified,None or Unspecified,No,Standard,Standard,None or Unspecified,,,,,,,,,,,,,,,,,,,,,,,,,
5161,1714823,11500,1500468,132,1.0,1998,,,3/8/2007 0:00,208S,208,S,,,,Backhoe Loader - 0.0 to 14.0 Ft Standard Digging Depth,Illinois,BL,Backhoe Loaders,Two Wheel Drive,EROPS,None or Unspecified,None or Unspecified,No,Standard,Standard,None or Unspecified,,,,,,,,,,,,,,,,,,,,,,,,,
5161,1714824,13000,1545174,132,1.0,1999,,,12/1/2005 0:00,208S,208,S,,,,Backhoe Loader - 0.0 to 14.0 Ft Standard Digging Depth,Illinois,BL,Backhoe Loaders,Four Wheel Drive,EROPS,None or Unspecified,None or Unspecified,No,Standard,Standard,None or Unspecified,,,,,,,,,,,,,,,,,,,,,,,,,
5161,1714825,9000,1139690,132,16.0,1000,,,11/27/2007 0:00,208S,208,S,,,,Backhoe Loader - 0.0 to 14.0 Ft Standard Digging Depth,Illinois,BL,Backhoe Loaders,Two Wheel Drive,OROPS,None or Unspecified,None or Unspecified,No,Standard,Standard,None or Unspecified,,,,,,,,,,,,,,,,,,,,,,,,,
5161,1716906,13000,1447166,132,3.0,1999,,,12/4/2003 0:00,208S,208,S,,,,Backhoe Loader - 0.0 to 14.0 Ft Standard Digging Depth,Unspecified,BL,Backhoe Loaders,Two Wheel Drive,OROPS,None or Unspecified,None or Unspecified,No,Standard,Hydrostatic,None or Unspecified,,,,,,,,,,,,,,,,,,,,,,,,,
5161,2390512,8000,1665643,136,,1997,0.0,,7/18/2009 0:00,208S,208,S,,,,Backhoe Loader - 0.0 to 14.0 Ft Standard Digging Depth,Illinois,BL,Backhoe Loaders,Two Wheel Drive,OROPS,None or Unspecified,None or Unspecified,No,Standard,Standard,None or Unspecified,,,,,,,,,,,,,,,,,,,,,,,,,
5161,2391272,9500,1647166,136,,1998,0.0,,3/21/2009 0:00,208S,208,S,,,,Backhoe Loader - 0.0 to 14.0 Ft Standard Digging Depth,Washington,BL,Backhoe Loaders,Two Wheel Drive,OROPS,None or Unspecified,None or Unspecified,No,Standard,Standard,None or Unspecified,,,,,,,,,,,,,,,,,,,,,,,,,
5161,2684201,9000,1647166,149,1.0,1998,0.0,,6/16/2011 0:00,208S,208,S,,,,Backhoe Loader - 0.0 to 14.0 Ft Standard Digging Depth,Washington,BL,Backhoe Loaders,Two Wheel Drive,OROPS,None or Unspecified,None or Unspecified,No,Standard,Standard,None or Unspecified,,,,,,,,,,,,,,,,,,,,,,,,,
5161,6298270,14000,1893509,149,99.0,2002,,,11/18/2011 0:00,208S,208,S,,,,Backhoe Loader - 0.0 to 14.0 Ft Standard Digging Depth,California,BL,Backhoe Loaders,Two Wheel Drive,OROPS,None or Unspecified,None or Unspecified,No,Standard,Standard,None or Unspecified,,,,,,,,,,,,,,,,,,,,,,,,,
