ModelID,SalesID,SalePrice,MachineID,datasource,auctioneerID,YearMade,MachineHoursCurrentMeter,UsageBand,saledate,fiModelDesc,fiBaseModel,fiSecondaryDesc,fiModelSeries,fiModelDescriptor,ProductSize,fiProductClassDesc,state,ProductGroup,ProductGroupDesc,Drive_System,Enclosure,Forks,Pad_Type,Ride_Control,Stick,Transmission,Turbocharged,Blade_Extension,Blade_Width,Enclosure_Type,Engine_Horsepower,Hydraulics,Pushblock,Ripper,Scarifier,Tip_Control,Tire_Size,Coupler,Coupler_System,Grouser_Tracks,Hydraulics_Flow,Track_Type,Undercarriage_Pad_Width,Stick_Length,Thumb,Pattern_Changer,Grouser_Type,Backhoe_Mounting,Blade_Type,Travel_Controls,Differential_Type,Steering_Controls
5178,1149196,27500,1067114,121,3.0,1998,6796.0,Medium,10/22/2010 0:00,65Z,65,Z,,,,Wheel Loader - 120.0 to 135.0 Horsepower,Oregon,WL,Wheel Loader,,EROPS,None or Unspecified,,None or Unspecified,,,,,,,,2 Valve,,,,,20.5,Hydraulic,,,,,,,,,,,,,Standard,Conventional
5178,1165344,29500,15681,121,3.0,1000,5578.0,Medium,12/7/2006 0:00,65Z,65,Z,,,,Wheel Loader - 120.0 to 135.0 Horsepower,Alabama,WL,Wheel Loader,,EROPS w AC,Yes,,None or Unspecified,,,,,,,,2 Valve,,,,,None or Unspecified,Manual,,,,,,,,,,,,,Standard,Conventional
5178,1173064,24500,1065650,121,3.0,1998,5436.0,Medium,11/1/2007 0:00,65Z,65,Z,,,,Wheel Loader - 120.0 to 135.0 Horsepower,Georgia,WL,Wheel Loader,,OROPS,Yes,,None or Unspecified,,,,,,,,2 Valve,,,,,20.5,None or Unspecified,,,,,,,,,,,,,Standard,Conventional
5178,1180276,12500,1008479,121,3.0,1000,4864.0,Low,6/26/2008 0:00,65Z,65,Z,,,,Wheel Loader - 120.0 to 135.0 Horsepower,Pennsylvania,WL,Wheel Loader,,EROPS,None or Unspecified,,None or Unspecified,,,,,,,,2 Valve,,,,,17.5,None or Unspecified,,,,,,,,,,,,,Standard,Conventional
5178,1180378,17000,1038096,121,3.0,1997,13891.0,Medium,6/26/2008 0:00,65Z,65,Z,,,,Wheel Loader - 120.0 to 135.0 Horsepower,Florida,WL,Wheel Loader,,OROPS,None or Unspecified,,None or Unspecified,,,,,,,,2 Valve,,,,,20.5,None or Unspecified,,,,,,,,,,,,,Standard,Conventional
5178,1207188,10000,1045288,121,3.0,1000,22050.0,Low,9/23/2010 0:00,65Z,65,Z,,,,Wheel Loader - 120.0 to 135.0 Horsepower,Arkansas,WL,Wheel Loader,,EROPS,None or Unspecified,,None or Unspecified,,,,,,,,2 Valve,,,,,17.5,None or Unspecified,,,,,,,,,,,,,Standard,Conventional
5178,1215215,28500,1019549,121,3.0,1998,7472.0,Medium,7/14/2011 0:00,65Z,65,Z,,,,Wheel Loader - 120.0 to 135.0 Horsepower,Alabama,WL,Wheel Loader,,OROPS,Yes,,None or Unspecified,,,,,,,,2 Valve,,,,,20.5,Hydraulic,,,,,,,,,,,,,Standard,Conventional
5178,1717434,10000,1516332,132,3.0,1000,,,9/23/2010 0:00,65Z,65,Z,,,,Wheel Loader - 120.0 to 135.0 Horsepower,California,WL,Wheel Loader,,EROPS,None or Unspecified,,None or Unspecified,,,,,,,,2 Valve,,,,,17.5,None or Unspecified,,,,,,,,,,,,,Standard,Conventional
5178,1717596,50000,1110593,132,2.0,1000,,,6/3/2000 0:00,65Z,65,Z,,,,Wheel Loader - 120.0 to 135.0 Horsepower,Florida,WL,Wheel Loader,,EROPS,None or Unspecified,,None or Unspecified,,,,,,,,2 Valve,,,,,None or Unspecified,None or Unspecified,,,,,,,,,,,,,Standard,Conventional
5178,1717599,30000,1092960,132,8.0,1999,,,11/16/2005 0:00,65Z,65,Z,,,,Wheel Loader - 120.0 to 135.0 Horsepower,Mississippi,WL,Wheel Loader,,OROPS,None or Unspecified,,None or Unspecified,,,,,,,,2 Valve,,,,,None or Unspecified,None or Unspecified,,,,,,,,,,,,,Standard,Conventional
5178,1717602,25000,1547305,132,2.0,1000,,,12/7/1996 0:00,65Z,65,Z,,,,Wheel Loader - 120.0 to 135.0 Horsepower,Pennsylvania,WL,Wheel Loader,,OROPS,Yes,,None or Unspecified,,,,,,,,3 Valve,,,,,None or Unspecified,None or Unspecified,,,,,,,,,,,,,Standard,Conventional
5178,1717603,20000,1140347,132,4.0,1999,,,2/11/2008 0:00,65Z,65,Z,,,,Wheel Loader - 120.0 to 135.0 Horsepower,Florida,WL,Wheel Loader,,OROPS,None or Unspecified,,None or Unspecified,,,,,,,,2 Valve,,,,,None or Unspecified,Manual,,,,,,,,,,,,,Standard,Conventional
5178,1717606,20000,1353313,132,8.0,1000,,,10/12/2006 0:00,65Z,65,Z,,,,Wheel Loader - 120.0 to 135.0 Horsepower,Florida,WL,Wheel Loader,,OROPS,None or Unspecified,,None or Unspecified,,,,,,,,2 Valve,,,,,None or Unspecified,Manual,,,,,,,,,,,,,Standard,Conventional
5178,1717625,45000,1389870,132,1.0,2006,,,2/16/2009 0:00,65Z,65,Z,,,,Wheel Loader - 120.0 to 135.0 Horsepower,Florida,WL,Wheel Loader,,OROPS,None or Unspecified,,None or Unspecified,,,,,,,,2 Valve,,,,,20.5,Manual,,,,,,,,,,,,,Standard,Conventional
5178,1717630,40000,1249538,132,4.0,2002,,,2/9/2009 0:00,65Z,65,Z,,,,Wheel Loader - 120.0 to 135.0 Horsepower,Florida,WL,Wheel Loader,,EROPS w AC,None or Unspecified,,None or Unspecified,,,,,,,,2 Valve,,,,,20.5,None or Unspecified,,,,,,,,,,,,,Standard,Conventional
5178,1717679,15500,1368630,132,6.0,1000,,,6/29/1998 0:00,65Z,65,Z,,,,Wheel Loader - 120.0 to 135.0 Horsepower,Wyoming,WL,Wheel Loader,,EROPS,Yes,,None or Unspecified,,,,,,,,2 Valve,,,,,None or Unspecified,None or Unspecified,,,,,,,,,,,,,Standard,Conventional
5178,1717680,20000,1524320,132,7.0,1988,,,3/2/2000 0:00,65Z,65,Z,,,,Wheel Loader - 120.0 to 135.0 Horsepower,Alabama,WL,Wheel Loader,,EROPS w AC,None or Unspecified,,None or Unspecified,,,,,,,,2 Valve,,,,,20.5,None or Unspecified,,,,,,,,,,,,,Standard,Conventional
5178,1717690,16000,1477657,132,8.0,1000,,,10/12/2006 0:00,65Z,65,Z,,,,Wheel Loader - 120.0 to 135.0 Horsepower,Florida,WL,Wheel Loader,,OROPS,None or Unspecified,,None or Unspecified,,,,,,,,2 Valve,,,,,None or Unspecified,None or Unspecified,,,,,,,,,,,,,Standard,Conventional
5178,1717700,16500,1366048,132,5.0,1990,,,5/3/2007 0:00,65Z,65,Z,,,,Wheel Loader - 120.0 to 135.0 Horsepower,Delaware,WL,Wheel Loader,,EROPS,None or Unspecified,,None or Unspecified,,,,,,,,2 Valve,,,,,17.5,None or Unspecified,,,,,,,,,,,,,Standard,Conventional
5178,1717701,19000,1107191,132,1.0,1000,,,2/20/2007 0:00,65Z,65,Z,,,,Wheel Loader - 120.0 to 135.0 Horsepower,Florida,WL,Wheel Loader,,OROPS,None or Unspecified,,None or Unspecified,,,,,,,,2 Valve,,,,,20.5,Manual,,,,,,,,,,,,,Standard,Conventional
5178,1717705,20000,1211223,132,2.0,1000,,,3/24/1995 0:00,65Z,65,Z,,,,Wheel Loader - 120.0 to 135.0 Horsepower,New Jersey,WL,Wheel Loader,,OROPS,None or Unspecified,,None or Unspecified,,,,,,,,2 Valve,,,,,None or Unspecified,None or Unspecified,,,,,,,,,,,,,Standard,Conventional
5178,1717711,15000,1175497,132,1.0,1000,,,10/3/1996 0:00,65Z,65,Z,,,,Wheel Loader - 120.0 to 135.0 Horsepower,Iowa,WL,Wheel Loader,,OROPS,None or Unspecified,,None or Unspecified,,,,,,,,2 Valve,,,,,None or Unspecified,None or Unspecified,,,,,,,,,,,,,Standard,Conventional
5178,1717714,9500,1246283,132,1.0,1987,,,4/29/1997 0:00,65Z,65,Z,,,,Wheel Loader - 120.0 to 135.0 Horsepower,Tennessee,WL,Wheel Loader,,EROPS,None or Unspecified,,None or Unspecified,,,,,,,,2 Valve,,,,,None or Unspecified,None or Unspecified,,,,,,,,,,,,,Standard,Conventional
5178,1718139,28500,1392240,132,3.0,1998,,,7/14/2011 0:00,65Z,65,Z,,,,Wheel Loader - 120.0 to 135.0 Horsepower,California,WL,Wheel Loader,,OROPS,Yes,,None or Unspecified,,,,,,,,2 Valve,,,,,None or Unspecified,Hydraulic,,,,,,,,,,,,,Standard,Conventional
5178,1718161,36000,1371868,132,5.0,2001,,,4/7/2011 0:00,65Z,65,Z,,,,Wheel Loader - 120.0 to 135.0 Horsepower,Connecticut,WL,Wheel Loader,,EROPS,None or Unspecified,,None or Unspecified,,,,,,,,2 Valve,,,,,17.5,None or Unspecified,,,,,,,,,,,,,Standard,Conventional
5178,1718176,38000,1542542,132,1.0,2004,,,2/16/2011 0:00,65Z,65,Z,,,,Wheel Loader - 120.0 to 135.0 Horsepower,Florida,WL,Wheel Loader,,OROPS,None or Unspecified,,None or Unspecified,,,,,,,,2 Valve,,,,,20.5,None or Unspecified,,,,,,,,,,,,,Standard,Conventional
5178,2393705,40000,1658150,136,1.0,2002,0.0,,2/9/2009 0:00,65Z,65,Z,,,,Wheel Loader - 120.0 to 135.0 Horsepower,Florida,WL,Wheel Loader,,EROPS w AC,None or Unspecified,,None or Unspecified,,,,,,,,2 Valve,,,,,20.5,None or Unspecified,,,,,,,,,,,,,Standard,Conventional
5178,2393720,9500,1243979,136,8.0,1000,0.0,,1/31/2008 0:00,65Z,65,Z,,,,Wheel Loader - 120.0 to 135.0 Horsepower,Alabama,WL,Wheel Loader,,OROPS,None or Unspecified,,None or Unspecified,,,,,,,,2 Valve,,,,,None or Unspecified,None or Unspecified,,,,,,,,,,,,,Standard,Conventional
5178,2393861,24500,1727215,136,,1998,5436.0,Medium,11/1/2007 0:00,65Z,65,Z,,,,Wheel Loader - 120.0 to 135.0 Horsepower,Georgia,WL,Wheel Loader,,OROPS,None or Unspecified,,None or Unspecified,,,,,,,,2 Valve,,,,,None or Unspecified,None or Unspecified,,,,,,,,,,,,,Standard,Conventional
5178,2393868,20000,1661442,136,,1999,0.0,,2/11/2008 0:00,65Z,65,Z,,,,Wheel Loader - 120.0 to 135.0 Horsepower,Florida,WL,Wheel Loader,,OROPS,None or Unspecified,,None or Unspecified,,,,,,,,2 Valve,,,,,None or Unspecified,Manual,,,,,,,,,,,,,Standard,Conventional
5178,2393869,21000,1661442,136,,1999,0.0,,9/5/2007 0:00,65Z,65,Z,,,,Wheel Loader - 120.0 to 135.0 Horsepower,Alabama,WL,Wheel Loader,,OROPS,None or Unspecified,,None or Unspecified,,,,,,,,2 Valve,,,,,None or Unspecified,Manual,,,,,,,,,,,,,Standard,Conventional
5178,2393874,22000,1721806,136,,1000,0.0,,7/12/2008 0:00,65Z,65,Z,,,,Wheel Loader - 120.0 to 135.0 Horsepower,Florida,WL,Wheel Loader,,OROPS,None or Unspecified,,None or Unspecified,,,,,,,,2 Valve,,,,,None or Unspecified,None or Unspecified,,,,,,,,,,,,,Standard,Conventional
5178,2393880,30000,1692072,136,,2000,0.0,,7/14/2007 0:00,65Z,65,Z,,,,Wheel Loader - 120.0 to 135.0 Horsepower,Florida,WL,Wheel Loader,,OROPS,None or Unspecified,,None or Unspecified,,,,,,,,2 Valve,,,,,None or Unspecified,None or Unspecified,,,,,,,,,,,,,Standard,Conventional
5178,2393881,26500,1642896,136,,1000,0.0,,4/14/2007 0:00,65Z,65,Z,,,,Wheel Loader - 120.0 to 135.0 Horsepower,Florida,WL,Wheel Loader,,OROPS,None or Unspecified,,None or Unspecified,,,,,,,,2 Valve,,,,,None or Unspecified,None or Unspecified,,,,,,,,,,,,,Standard,Conventional
5178,2393961,25000,1201051,136,4.0,2004,0.0,,2/8/2010 0:00,65Z,65,Z,,,,Wheel Loader - 120.0 to 135.0 Horsepower,Florida,WL,Wheel Loader,,OROPS,None or Unspecified,,None or Unspecified,,,,,,,,2 Valve,,,,,None or Unspecified,None or Unspecified,,,,,,,,,,,,,Standard,Conventional
5178,2393981,30500,1658896,136,4.0,2006,0.0,,2/8/2010 0:00,65Z,65,Z,,,,Wheel Loader - 120.0 to 135.0 Horsepower,Florida,WL,Wheel Loader,,OROPS,None or Unspecified,,None or Unspecified,,,,,,,,2 Valve,,,,,None or Unspecified,None or Unspecified,,,,,,,,,,,,,Standard,Conventional
5178,2393995,30500,1353926,136,4.0,2007,0.0,,2/8/2010 0:00,65Z,65,Z,,,,Wheel Loader - 120.0 to 135.0 Horsepower,Florida,WL,Wheel Loader,,OROPS,None or Unspecified,,None or Unspecified,,,,,,,,2 Valve,,,,,None or Unspecified,None or Unspecified,,,,,,,,,,,,,Standard,Conventional
5178,2394011,12500,1233358,136,3.0,1000,4864.0,Low,6/26/2008 0:00,65Z,65,Z,,,,Wheel Loader - 120.0 to 135.0 Horsepower,Pennsylvania,WL,Wheel Loader,,EROPS,None or Unspecified,,None or Unspecified,,,,,,,,2 Valve,,,,,17.5,None or Unspecified,,,,,,,,,,,,,Standard,Conventional
5178,2394019,18000,1777082,136,,1000,0.0,,3/12/2008 0:00,65Z,65,Z,,,,Wheel Loader - 120.0 to 135.0 Horsepower,Alabama,WL,Wheel Loader,,OROPS,None or Unspecified,,None or Unspecified,,,,,,,,2 Valve,,,,,None or Unspecified,None or Unspecified,,,,,,,,,,,,,Standard,Conventional
5178,2394021,27000,1302390,136,1.0,1000,0.0,,11/6/2009 0:00,65Z,65,Z,,,,Wheel Loader - 120.0 to 135.0 Horsepower,Nevada,WL,Wheel Loader,,OROPS,None or Unspecified,,None or Unspecified,,,,,,,,2 Valve,,,,,20.5,None or Unspecified,,,,,,,,,,,,,Standard,Conventional
5178,2394032,15000,1718171,136,,1996,0.0,,1/24/2009 0:00,65Z,65,Z,,,,Wheel Loader - 120.0 to 135.0 Horsepower,Tennessee,WL,Wheel Loader,,EROPS w AC,None or Unspecified,,None or Unspecified,,,,,,,,2 Valve,,,,,20.5,None or Unspecified,,,,,,,,,,,,,Standard,Conventional
5178,2394039,16500,1788581,136,,1990,0.0,,5/3/2007 0:00,65Z,65,Z,,,,Wheel Loader - 120.0 to 135.0 Horsepower,Delaware,WL,Wheel Loader,,EROPS,None or Unspecified,,None or Unspecified,,,,,,,,2 Valve,,,,,17.5,None or Unspecified,,,,,,,,,,,,,Standard,Conventional
5178,2394047,16000,1276401,136,1.0,1000,0.0,,3/26/2009 0:00,65Z,65,Z,,,,Wheel Loader - 120.0 to 135.0 Horsepower,Georgia,WL,Wheel Loader,,EROPS,None or Unspecified,,None or Unspecified,,,,,,,,2 Valve,,,,,20.5,None or Unspecified,,,,,,,,,,,,,Standard,Conventional
5178,2686208,36000,1172046,149,5.0,2001,13092.0,Medium,4/7/2011 0:00,65Z,65,Z,,,,Wheel Loader - 120.0 to 135.0 Horsepower,Connecticut,WL,Wheel Loader,,EROPS,None or Unspecified,,None or Unspecified,,,,,,,,2 Valve,,,,,None or Unspecified,Manual,,,,,,,,,,,,,Standard,Conventional
5178,2686235,38000,1857726,149,1.0,2004,5956.0,Medium,2/15/2011 0:00,65Z,65,Z,,,,Wheel Loader - 120.0 to 135.0 Horsepower,Florida,WL,Wheel Loader,,OROPS,None or Unspecified,,None or Unspecified,,,,,,,,2 Valve,,,,,20.5,None or Unspecified,,,,,,,,,,,,,Standard,Conventional
5178,4352439,28000,1080494,172,1.0,1998,9138.0,Medium,5/27/2009 0:00,65Z,65,Z,,,,Wheel Loader - 120.0 to 135.0 Horsepower,Florida,WL,Wheel Loader,,EROPS w AC,Yes,,None or Unspecified,,,,,,,,2 Valve,,,,,20.5,Hydraulic,,,,,,,,,,,,,Standard,Conventional
5178,4352490,26000,1880896,172,1.0,1999,,,4/13/2011 0:00,65Z,65,Z,,,,Wheel Loader - 120.0 to 135.0 Horsepower,Texas,WL,Wheel Loader,,OROPS,Yes,,None or Unspecified,,,,,,,,2 Valve,,,,,20.5,None or Unspecified,,,,,,,,,,,,,Standard,Conventional
5178,6299248,15250,1916186,149,5.0,1000,,,12/16/2011 0:00,65Z,65,Z,,,,Wheel Loader - 120.0 to 135.0 Horsepower,Connecticut,WL,Wheel Loader,,OROPS,None or Unspecified,,None or Unspecified,,,,,,,,2 Valve,,,,,None or Unspecified,None or Unspecified,,,,,,,,,,,,,Standard,Conventional
5178,6299258,55000,1838289,149,2.0,1000,,,9/24/2011 0:00,65Z,65,Z,,,,Wheel Loader - 120.0 to 135.0 Horsepower,New Jersey,WL,Wheel Loader,,EROPS,None or Unspecified,,None or Unspecified,,,,,,,,2 Valve,,,,,None or Unspecified,None or Unspecified,,,,,,,,,,,,,Standard,Conventional
