ModelID,SalesID,SalePrice,MachineID,datasource,auctioneerID,YearMade,MachineHoursCurrentMeter,UsageBand,saledate,fiModelDesc,fiBaseModel,fiSecondaryDesc,fiModelSeries,fiModelDescriptor,ProductSize,fiProductClassDesc,state,ProductGroup,ProductGroupDesc,Drive_System,Enclosure,Forks,Pad_Type,Ride_Control,Stick,Transmission,Turbocharged,Blade_Extension,Blade_Width,Enclosure_Type,Engine_Horsepower,Hydraulics,Pushblock,Ripper,Scarifier,Tip_Control,Tire_Size,Coupler,Coupler_System,Grouser_Tracks,Hydraulics_Flow,Track_Type,Undercarriage_Pad_Width,Stick_Length,Thumb,Pattern_Changer,Grouser_Type,Backhoe_Mounting,Blade_Type,Travel_Controls,Differential_Type,Steering_Controls
5185,1717163,17000,1286002,132,10.0,1998,,,3/18/2009 0:00,KSS60Z,KSS60,Z,,,,Wheel Loader - 100.0 to 110.0 Horsepower,Louisiana,WL,Wheel Loader,,OROPS,None or Unspecified,,None or Unspecified,,,,,,,,2 Valve,,,,,None or Unspecified,None or Unspecified,,,,,,,,,,,,,Standard,Conventional
5185,1717177,21000,1167850,132,6.0,1995,,,10/30/1998 0:00,KSS60Z,KSS60,Z,,,,Wheel Loader - 100.0 to 110.0 Horsepower,Mississippi,WL,Wheel Loader,,OROPS,None or Unspecified,,None or Unspecified,,,,,,,,2 Valve,,,,,None or Unspecified,None or Unspecified,,,,,,,,,,,,,Standard,Conventional
5185,1717181,24500,1521327,132,18.0,1989,,,10/26/1996 0:00,KSS60Z,KSS60,Z,,,,Wheel Loader - 100.0 to 110.0 Horsepower,Pennsylvania,WL,Wheel Loader,,EROPS,None or Unspecified,,None or Unspecified,,,,,,,,2 Valve,,,,,None or Unspecified,None or Unspecified,,,,,,,,,,,,,Standard,Conventional
5185,1717182,18500,1183296,132,10.0,1999,,,3/18/2009 0:00,KSS60Z,KSS60,Z,,,,Wheel Loader - 100.0 to 110.0 Horsepower,Louisiana,WL,Wheel Loader,,OROPS,None or Unspecified,,None or Unspecified,,,,,,,,2 Valve,,,,,None or Unspecified,None or Unspecified,,,,,,,,,,,,,Standard,Conventional
5185,1717187,10500,1194060,132,4.0,1000,,,2/10/2009 0:00,KSS60Z,KSS60,Z,,,,Wheel Loader - 100.0 to 110.0 Horsepower,Florida,WL,Wheel Loader,,EROPS,None or Unspecified,,None or Unspecified,,,,,,,,2 Valve,,,,,None or Unspecified,None or Unspecified,,,,,,,,,,,,,Standard,Conventional
5185,1717205,10000,1104769,132,4.0,1000,,,2/9/2000 0:00,KSS60Z,KSS60,Z,,,,Wheel Loader - 100.0 to 110.0 Horsepower,Florida,WL,Wheel Loader,,EROPS w AC,None or Unspecified,,None or Unspecified,,,,,,,,2 Valve,,,,,23.5,None or Unspecified,,,,,,,,,,,,,Standard,Conventional
5185,1717207,9500,1514514,132,4.0,1000,,,2/9/2000 0:00,KSS60Z,KSS60,Z,,,,Wheel Loader - 100.0 to 110.0 Horsepower,Florida,WL,Wheel Loader,,OROPS,None or Unspecified,,None or Unspecified,,,,,,,,2 Valve,,,,,None or Unspecified,None or Unspecified,,,,,,,,,,,,,Standard,Conventional
5185,1717283,23000,1257299,132,9.0,2001,,,11/17/2005 0:00,KSS60Z,KSS60,Z,,,,Wheel Loader - 100.0 to 110.0 Horsepower,South Carolina,WL,Wheel Loader,,EROPS,None or Unspecified,,None or Unspecified,,,,,,,,2 Valve,,,,,None or Unspecified,None or Unspecified,,,,,,,,,,,,,Standard,Conventional
5185,1717284,36000,1368012,132,8.0,1000,,,3/23/2005 0:00,KSS60Z,KSS60,Z,,,,Wheel Loader - 100.0 to 110.0 Horsepower,Mississippi,WL,Wheel Loader,,OROPS,None or Unspecified,,None or Unspecified,,,,,,,,2 Valve,,,,,None or Unspecified,None or Unspecified,,,,,,,,,,,,,Standard,Conventional
5185,1717307,13250,1196845,132,11.0,1986,,,11/11/1993 0:00,KSS60Z,KSS60,Z,,,,Wheel Loader - 100.0 to 110.0 Horsepower,Mississippi,WL,Wheel Loader,,OROPS,None or Unspecified,,None or Unspecified,,,,,,,,2 Valve,,,,,None or Unspecified,None or Unspecified,,,,,,,,,,,,,Standard,Conventional
5185,1717313,18250,1392364,132,18.0,1988,,,6/5/1993 0:00,KSS60Z,KSS60,Z,,,,Wheel Loader - 100.0 to 110.0 Horsepower,Delaware,WL,Wheel Loader,,EROPS,None or Unspecified,,None or Unspecified,,,,,,,,2 Valve,,,,,None or Unspecified,None or Unspecified,,,,,,,,,,,,,Standard,Conventional
5185,1717338,14500,1124559,132,7.0,1000,,,10/18/2007 0:00,KSS60Z,KSS60,Z,,,,Wheel Loader - 100.0 to 110.0 Horsepower,South Carolina,WL,Wheel Loader,,EROPS,None or Unspecified,,None or Unspecified,,,,,,,,2 Valve,,,,,17.5,None or Unspecified,,,,,,,,,,,,,Standard,Conventional
5185,1717365,16000,1477557,132,4.0,1986,,,2/4/1992 0:00,KSS60Z,KSS60,Z,,,,Wheel Loader - 100.0 to 110.0 Horsepower,Florida,WL,Wheel Loader,,OROPS,None or Unspecified,,None or Unspecified,,,,,,,,2 Valve,,,,,None or Unspecified,None or Unspecified,,,,,,,,,,,,,Standard,Conventional
5185,1717437,17000,1109882,132,4.0,1000,,,4/22/2006 0:00,KSS60Z,KSS60,Z,,,,Wheel Loader - 100.0 to 110.0 Horsepower,Pennsylvania,WL,Wheel Loader,,EROPS,None or Unspecified,,None or Unspecified,,,,,,,,2 Valve,,,,,None or Unspecified,None or Unspecified,,,,,,,,,,,,,Standard,Conventional
5185,1717491,16000,1402422,132,4.0,1990,,,2/9/2000 0:00,KSS60Z,KSS60,Z,,,,Wheel Loader - 100.0 to 110.0 Horsepower,Florida,WL,Wheel Loader,,OROPS,None or Unspecified,,None or Unspecified,,,,,,,,2 Valve,,,,,None or Unspecified,None or Unspecified,,,,,,,,,,,,,Standard,Conventional
5185,1717495,35500,1421574,132,6.0,1990,3600.0,Medium,10/8/1993 0:00,KSS60Z,KSS60,Z,,,,Wheel Loader - 100.0 to 110.0 Horsepower,Pennsylvania,WL,Wheel Loader,,EROPS,None or Unspecified,,None or Unspecified,,,,,,,,2 Valve,,,,,17.5,None or Unspecified,,,,,,,,,,,,,Standard,Conventional
5185,1717523,14000,1083016,132,1.0,1986,,,9/12/1989 0:00,KSS60Z,KSS60,Z,,,,Wheel Loader - 100.0 to 110.0 Horsepower,Texas,WL,Wheel Loader,,OROPS,None or Unspecified,,None or Unspecified,,,,,,,,2 Valve,,,,,None or Unspecified,None or Unspecified,,,,,,,,,,,,,Standard,Conventional
5185,1717548,43000,1307951,132,1.0,1998,,,2/15/2005 0:00,KSS60Z,KSS60,Z,,,,Wheel Loader - 100.0 to 110.0 Horsepower,Florida,WL,Wheel Loader,,OROPS,Yes,,None or Unspecified,,,,,,,,2 Valve,,,,,17.5,Manual,,,,,,,,,,,,,Standard,Conventional
5185,1717549,18250,1475694,132,10.0,1999,,,3/17/2010 0:00,KSS60Z,KSS60,Z,,,,Wheel Loader - 100.0 to 110.0 Horsepower,Louisiana,WL,Wheel Loader,,OROPS,None or Unspecified,,None or Unspecified,,,,,,,,2 Valve,,,,,None or Unspecified,None or Unspecified,,,,,,,,,,,,,Standard,Conventional
5185,1717553,22500,1103036,132,9.0,2001,,,2/23/2006 0:00,KSS60Z,KSS60,Z,,,,Wheel Loader - 100.0 to 110.0 Horsepower,Florida,WL,Wheel Loader,,EROPS,None or Unspecified,,None or Unspecified,,,,,,,,2 Valve,,,,,None or Unspecified,None or Unspecified,,,,,,,,,,,,,Standard,Conventional
5185,1717561,29000,1316110,132,1.0,1996,,,9/23/1998 0:00,KSS60Z,KSS60,Z,,,,Wheel Loader - 100.0 to 110.0 Horsepower,Texas,WL,Wheel Loader,,OROPS,None or Unspecified,,None or Unspecified,,,,,,,,2 Valve,,,,,None or Unspecified,None or Unspecified,,,,,,,,,,,,,Standard,Conventional
5185,1717577,9000,1217943,132,1.0,1000,,,6/11/1999 0:00,KSS60Z,KSS60,Z,,,,Wheel Loader - 100.0 to 110.0 Horsepower,California,WL,Wheel Loader,,EROPS,None or Unspecified,,None or Unspecified,,,,,,,,2 Valve,,,,,None or Unspecified,None or Unspecified,,,,,,,,,,,,,Standard,Conventional
5185,1717580,16500,1166975,132,1.0,1987,,,10/6/1992 0:00,KSS60Z,KSS60,Z,,,,Wheel Loader - 100.0 to 110.0 Horsepower,Georgia,WL,Wheel Loader,,EROPS,None or Unspecified,,None or Unspecified,,,,,,,,2 Valve,,,,,None or Unspecified,None or Unspecified,,,,,,,,,,,,,Standard,Conventional
5185,1717581,13000,1552024,132,1.0,1000,,,3/29/2001 0:00,KSS60Z,KSS60,Z,,,,Wheel Loader - 100.0 to 110.0 Horsepower,Maryland,WL,Wheel Loader,,EROPS,None or Unspecified,,None or Unspecified,,,,,,,,2 Valve,,,,,15.5,None or Unspecified,,,,,,,,,,,,,Standard,Conventional
5185,1717583,11000,1366016,132,1.0,1000,,,6/24/1999 0:00,KSS60Z,KSS60,Z,,,,Wheel Loader - 100.0 to 110.0 Horsepower,Colorado,WL,Wheel Loader,,OROPS,None or Unspecified,,None or Unspecified,,,,,,,,2 Valve,,,,,None or Unspecified,None or Unspecified,,,,,,,,,,,,,Standard,Conventional
5185,1717584,9500,1099273,132,1.0,1000,,,3/29/1999 0:00,KSS60Z,KSS60,Z,,,,Wheel Loader - 100.0 to 110.0 Horsepower,Nevada,WL,Wheel Loader,,OROPS,None or Unspecified,,None or Unspecified,,,,,,,,2 Valve,,,,,None or Unspecified,None or Unspecified,,,,,,,,,,,,,Standard,Conventional
5185,1717585,15000,1140813,132,2.0,1988,,,3/18/2000 0:00,KSS60Z,KSS60,Z,,,,Wheel Loader - 100.0 to 110.0 Horsepower,Pennsylvania,WL,Wheel Loader,,EROPS,None or Unspecified,,None or Unspecified,,,,,,,,2 Valve,,,,,None or Unspecified,None or Unspecified,,,,,,,,,,,,,Standard,Conventional
5185,1717587,20000,1269811,132,6.0,1000,,,10/30/1998 0:00,KSS60Z,KSS60,Z,,,,Wheel Loader - 100.0 to 110.0 Horsepower,Mississippi,WL,Wheel Loader,,OROPS,None or Unspecified,,None or Unspecified,,,,,,,,2 Valve,,,,,None or Unspecified,None or Unspecified,,,,,,,,,,,,,Standard,Conventional
5185,1717588,16000,1289924,132,1.0,1996,,,12/7/2001 0:00,KSS60Z,KSS60,Z,,,,Wheel Loader - 100.0 to 110.0 Horsepower,Georgia,WL,Wheel Loader,,OROPS,Yes,,None or Unspecified,,,,,,,,2 Valve,,,,,17.5,None or Unspecified,,,,,,,,,,,,,Standard,Conventional
5185,1717590,20500,1220543,132,1.0,1000,,,9/6/2006 0:00,KSS60Z,KSS60,Z,,,,Wheel Loader - 100.0 to 110.0 Horsepower,Ohio,WL,Wheel Loader,,EROPS,None or Unspecified,,None or Unspecified,,,,,,,,2 Valve,,,,,17.5,Manual,,,,,,,,,,,,,Standard,Conventional
5185,1717994,19000,1170782,132,4.0,1986,,,2/6/1990 0:00,KSS60Z,KSS60,Z,,,,Wheel Loader - 100.0 to 110.0 Horsepower,Florida,WL,Wheel Loader,,OROPS,None or Unspecified,,None or Unspecified,,,,,,,,2 Valve,,,,,None or Unspecified,None or Unspecified,,,,,,,,,,,,,Standard,Conventional
5185,1718217,14000,1420226,132,4.0,1000,,,2/10/2003 0:00,KSS60Z,KSS60,Z,,,,Wheel Loader - 100.0 to 110.0 Horsepower,Florida,WL,Wheel Loader,,EROPS,None or Unspecified,,None or Unspecified,,,,,,,,2 Valve,,,,,17.5,None or Unspecified,,,,,,,,,,,,,Standard,Conventional
5185,1718219,9500,1374104,132,1.0,1000,,,6/14/2000 0:00,KSS60Z,KSS60,Z,,,,Wheel Loader - 100.0 to 110.0 Horsepower,Texas,WL,Wheel Loader,,EROPS,None or Unspecified,,None or Unspecified,,,,,,,,2 Valve,,,,,15.5,None or Unspecified,,,,,,,,,,,,,Standard,Conventional
5185,1718221,25000,1395858,132,1.0,1986,,,3/16/1989 0:00,KSS60Z,KSS60,Z,,,,Wheel Loader - 100.0 to 110.0 Horsepower,Florida,WL,Wheel Loader,,OROPS,None or Unspecified,,None or Unspecified,,,,,,,,2 Valve,,,,,17.5,None or Unspecified,,,,,,,,,,,,,Standard,Conventional
5185,1718223,14000,1227654,132,2.0,1000,,,3/23/2006 0:00,KSS60Z,KSS60,Z,,,,Wheel Loader - 100.0 to 110.0 Horsepower,New Jersey,WL,Wheel Loader,,EROPS,None or Unspecified,,None or Unspecified,,,,,,,,2 Valve,,,,,17.5,None or Unspecified,,,,,,,,,,,,,Standard,Conventional
5185,1718224,11000,1227654,132,1.0,1000,,,5/16/2006 0:00,KSS60Z,KSS60,Z,,,,Wheel Loader - 100.0 to 110.0 Horsepower,Pennsylvania,WL,Wheel Loader,,EROPS,None or Unspecified,,None or Unspecified,,,,,,,,2 Valve,,,,,17.5,None or Unspecified,,,,,,,,,,,,,Standard,Conventional
5185,1718225,12500,1338410,132,18.0,1000,,,9/24/1994 0:00,KSS60Z,KSS60,Z,,,,Wheel Loader - 100.0 to 110.0 Horsepower,Pennsylvania,WL,Wheel Loader,,OROPS,None or Unspecified,,None or Unspecified,,,,,,,,2 Valve,,,,,None or Unspecified,None or Unspecified,,,,,,,,,,,,,Standard,Conventional
5185,1718282,16000,1414117,132,99.0,1000,3857.0,Low,3/18/2010 0:00,KSS60Z,KSS60,Z,,,,Wheel Loader - 100.0 to 110.0 Horsepower,Tennessee,WL,Wheel Loader,,OROPS,Yes,,None or Unspecified,,,,,,,,2 Valve,,,,,None or Unspecified,None or Unspecified,,,,,,,,,,,,,Standard,Conventional
5185,2393776,25000,1267423,136,1.0,2002,0.0,,2/19/2008 0:00,KSS60Z,KSS60,Z,,,,Wheel Loader - 100.0 to 110.0 Horsepower,Florida,WL,Wheel Loader,,OROPS,None or Unspecified,,None or Unspecified,,,,,,,,2 Valve,,,,,17.5,None or Unspecified,,,,,,,,,,,,,Standard,Conventional
5185,2393780,25000,1217077,136,1.0,2003,2437.0,Low,2/19/2008 0:00,KSS60Z,KSS60,Z,,,,Wheel Loader - 100.0 to 110.0 Horsepower,Florida,WL,Wheel Loader,,OROPS,None or Unspecified,,None or Unspecified,,,,,,,,2 Valve,,,,,17.5,None or Unspecified,,,,,,,,,,,,,Standard,Conventional
5185,2393798,25000,1442544,136,1.0,2004,0.0,,2/15/2010 0:00,KSS60Z,KSS60,Z,,,,Wheel Loader - 100.0 to 110.0 Horsepower,Florida,WL,Wheel Loader,,OROPS,None or Unspecified,,None or Unspecified,,,,,,,,2 Valve,,,,,17.5,Manual,,,,,,,,,,,,,Standard,Conventional
5185,2393809,26000,1258315,136,1.0,2004,0.0,,2/15/2010 0:00,KSS60Z,KSS60,Z,,,,Wheel Loader - 100.0 to 110.0 Horsepower,Florida,WL,Wheel Loader,,OROPS,None or Unspecified,,None or Unspecified,,,,,,,,2 Valve,,,,,17.5,Manual,,,,,,,,,,,,,Standard,Conventional
5185,2393821,12000,1078165,136,1.0,1000,0.0,,3/22/2007 0:00,KSS60Z,KSS60,Z,,,,Wheel Loader - 100.0 to 110.0 Horsepower,Tennessee,WL,Wheel Loader,,EROPS,None or Unspecified,,None or Unspecified,,,,,,,,2 Valve,,,,,15.5,None or Unspecified,,,,,,,,,,,,,Standard,Conventional
5185,2394659,8100,1297802,136,4.0,1000,0.0,,2/9/2009 0:00,KSS60Z,KSS60,Z,,,,Wheel Loader - 100.0 to 110.0 Horsepower,Florida,WL,Wheel Loader,,EROPS,None or Unspecified,,None or Unspecified,,,,,,,,2 Valve,,,,,None or Unspecified,None or Unspecified,,,,,,,,,,,,,Standard,Conventional
