ModelID,SalesID,SalePrice,MachineID,datasource,auctioneerID,YearMade,MachineHoursCurrentMeter,UsageBand,saledate,fiModelDesc,fiBaseModel,fiSecondaryDesc,fiModelSeries,fiModelDescriptor,ProductSize,fiProductClassDesc,state,ProductGroup,ProductGroupDesc,Drive_System,Enclosure,Forks,Pad_Type,Ride_Control,Stick,Transmission,Turbocharged,Blade_Extension,Blade_Width,Enclosure_Type,Engine_Horsepower,Hydraulics,Pushblock,Ripper,Scarifier,Tip_Control,Tire_Size,Coupler,Coupler_System,Grouser_Tracks,Hydraulics_Flow,Track_Type,Undercarriage_Pad_Width,Stick_Length,Thumb,Pattern_Changer,Grouser_Type,Backhoe_Mounting,Blade_Type,Travel_Controls,Differential_Type,Steering_Controls
5191,1717174,37500,1426106,132,1.0,1000,,,2/22/2006 0:00,KSS95Z,KSS95,Z,,,Medium,Wheel Loader - 275.0 to 350.0 Horsepower,Florida,WL,Wheel Loader,,EROPS w AC,None or Unspecified,,None or Unspecified,,,,,,,,2 Valve,,,,,29.5,None or Unspecified,,,,,,,,,,,,,Standard,Conventional
5191,1717255,36000,1105806,132,1.0,1000,,,5/9/2007 0:00,KSS95Z,KSS95,Z,,,Medium,Wheel Loader - 275.0 to 350.0 Horsepower,Texas,WL,Wheel Loader,,EROPS w AC,None or Unspecified,,None or Unspecified,,,,,,,,2 Valve,,,,,29.5,None or Unspecified,,,,,,,,,,,,,Standard,Conventional
5191,1717373,26500,1475917,132,2.0,1987,,,9/16/1995 0:00,KSS95Z,KSS95,Z,,,Medium,Wheel Loader - 275.0 to 350.0 Horsepower,Indiana,WL,Wheel Loader,,EROPS,None or Unspecified,,None or Unspecified,,,,,,,,2 Valve,,,,,None or Unspecified,None or Unspecified,,,,,,,,,,,,,Standard,Conventional
5191,1717401,15000,145294,132,7.0,1000,,,8/31/2005 0:00,KSS95Z,KSS95,Z,,,Medium,Wheel Loader - 275.0 to 350.0 Horsepower,Alabama,WL,Wheel Loader,,EROPS,None or Unspecified,,None or Unspecified,,,,,,,,2 Valve,,,,,29.5,None or Unspecified,,,,,,,,,,,,,Standard,Conventional
5191,1717421,42500,1285010,132,1.0,2000,,,10/4/2006 0:00,KSS95Z,KSS95,Z,,,Medium,Wheel Loader - 275.0 to 350.0 Horsepower,Maryland,WL,Wheel Loader,,EROPS w AC,None or Unspecified,,None or Unspecified,,,,,,,,2 Valve,,,,,29.5,None or Unspecified,,,,,,,,,,,,,Standard,Conventional
5191,1717429,14500,1408802,132,7.0,1988,,,4/20/2006 0:00,KSS95Z,KSS95,Z,,,Medium,Wheel Loader - 275.0 to 350.0 Horsepower,South Carolina,WL,Wheel Loader,,EROPS,None or Unspecified,,None or Unspecified,,,,,,,,2 Valve,,,,,29.5,None or Unspecified,,,,,,,,,,,,,Standard,Conventional
5191,1717499,27500,1152968,132,8.0,1989,,,2/16/2007 0:00,KSS95Z,KSS95,Z,,,Medium,Wheel Loader - 275.0 to 350.0 Horsepower,Florida,WL,Wheel Loader,,EROPS,None or Unspecified,,None or Unspecified,,,,,,,,2 Valve,,,,,None or Unspecified,None or Unspecified,,,,,,,,,,,,,Standard,Conventional
5191,1717525,25000,1250314,132,14.0,1000,,,9/14/1994 0:00,KSS95Z,KSS95,Z,,,Medium,Wheel Loader - 275.0 to 350.0 Horsepower,Indiana,WL,Wheel Loader,,EROPS,None or Unspecified,,None or Unspecified,,,,,,,,2 Valve,,,,,None or Unspecified,None or Unspecified,,,,,,,,,,,,,Standard,Conventional
5191,1717528,16750,1525663,132,99.0,1983,,,8/18/1994 0:00,KSS95Z,KSS95,Z,,,Medium,Wheel Loader - 275.0 to 350.0 Horsepower,Georgia,WL,Wheel Loader,,EROPS w AC,None or Unspecified,,None or Unspecified,,,,,,,,2 Valve,,,,,None or Unspecified,None or Unspecified,,,,,,,,,,,,,Standard,Conventional
5191,1717530,18000,1093706,132,99.0,1984,,,8/18/1994 0:00,KSS95Z,KSS95,Z,,,Medium,Wheel Loader - 275.0 to 350.0 Horsepower,Georgia,WL,Wheel Loader,,EROPS w AC,None or Unspecified,,None or Unspecified,,,,,,,,2 Valve,,,,,None or Unspecified,None or Unspecified,,,,,,,,,,,,,Standard,Conventional
5191,1717533,18500,1159320,132,99.0,1983,,,8/18/1994 0:00,KSS95Z,KSS95,Z,,,Medium,Wheel Loader - 275.0 to 350.0 Horsepower,Georgia,WL,Wheel Loader,,EROPS w AC,None or Unspecified,,None or Unspecified,,,,,,,,2 Valve,,,,,None or Unspecified,None or Unspecified,,,,,,,,,,,,,Standard,Conventional
5191,1717537,36000,1245847,132,99.0,1985,,,8/18/1994 0:00,KSS95Z,KSS95,Z,,,Medium,Wheel Loader - 275.0 to 350.0 Horsepower,Georgia,WL,Wheel Loader,,EROPS w AC,None or Unspecified,,None or Unspecified,,,,,,,,2 Valve,,,,,None or Unspecified,None or Unspecified,,,,,,,,,,,,,Standard,Conventional
5191,1717539,23000,344510,132,4.0,1985,,,2/9/2004 0:00,KSS95Z,KSS95,Z,,,Medium,Wheel Loader - 275.0 to 350.0 Horsepower,Florida,WL,Wheel Loader,,OROPS,None or Unspecified,,None or Unspecified,,,,,,,,2 Valve,,,,,None or Unspecified,None or Unspecified,,,,,,,,,,,,,Standard,Conventional
5191,1717874,22000,1103928,132,4.0,1000,,,2/9/2000 0:00,KSS95Z,KSS95,Z,,,Medium,Wheel Loader - 275.0 to 350.0 Horsepower,Florida,WL,Wheel Loader,,EROPS w AC,None or Unspecified,,None or Unspecified,,,,,,,,2 Valve,,,,,None or Unspecified,None or Unspecified,,,,,,,,,,,,,Standard,Conventional
5191,1718064,35000,1526930,132,1.0,1000,,,6/23/2004 0:00,KSS95Z,KSS95,Z,,,Medium,Wheel Loader - 275.0 to 350.0 Horsepower,Washington,WL,Wheel Loader,,EROPS,None or Unspecified,,None or Unspecified,,,,,,,,2 Valve,,,,,29.5,None or Unspecified,,,,,,,,,,,,,Standard,Conventional
5191,1718069,20500,1495543,132,5.0,1990,,,6/26/2004 0:00,KSS95Z,KSS95,Z,,,Medium,Wheel Loader - 275.0 to 350.0 Horsepower,Connecticut,WL,Wheel Loader,,EROPS,None or Unspecified,,None or Unspecified,,,,,,,,2 Valve,,,,,29.5,None or Unspecified,,,,,,,,,,,,,Standard,Conventional
5191,2394531,14175,1733389,136,,1000,0.0,,12/6/2008 0:00,KSS95Z,KSS95,Z,,,Medium,Wheel Loader - 275.0 to 350.0 Horsepower,Tennessee,WL,Wheel Loader,,EROPS,None or Unspecified,,None or Unspecified,,,,,,,,2 Valve,,,,,None or Unspecified,None or Unspecified,,,,,,,,,,,,,Standard,Conventional
