ModelID,SalesID,SalePrice,MachineID,datasource,auctioneerID,YearMade,MachineHoursCurrentMeter,UsageBand,saledate,fiModelDesc,fiBaseModel,fiSecondaryDesc,fiModelSeries,fiModelDescriptor,ProductSize,fiProductClassDesc,state,ProductGroup,ProductGroupDesc,Drive_System,Enclosure,Forks,Pad_Type,Ride_Control,Stick,Transmission,Turbocharged,Blade_Extension,Blade_Width,Enclosure_Type,Engine_Horsepower,Hydraulics,Pushblock,Ripper,Scarifier,Tip_Control,Tire_Size,Coupler,Coupler_System,Grouser_Tracks,Hydraulics_Flow,Track_Type,Undercarriage_Pad_Width,Stick_Length,Thumb,Pattern_Changer,Grouser_Type,Backhoe_Mounting,Blade_Type,Travel_Controls,Differential_Type,Steering_Controls
5237,1726236,13000,1146524,132,2.0,1000,,,8/9/2003 0:00,510C,510,C,,,,Wheel Loader - 100.0 to 110.0 Horsepower,Ohio,WL,Wheel Loader,,EROPS,None or Unspecified,,None or Unspecified,,,,,,,,2 Valve,,,,,None or Unspecified,Manual,,,,,,,,,,,,,Standard,Conventional
5237,1741297,8500,1358324,132,27.0,1990,,,7/21/2006 0:00,510C,510,C,,,,Wheel Loader - 100.0 to 110.0 Horsepower,North Carolina,WL,Wheel Loader,,OROPS,None or Unspecified,,None or Unspecified,,,,,,,,2 Valve,,,,,None or Unspecified,None or Unspecified,,,,,,,,,,,,,Standard,Conventional
5237,1741545,10000,1267486,132,1.0,1990,,,7/27/2011 0:00,510C,510,C,,,,Wheel Loader - 100.0 to 110.0 Horsepower,Texas,WL,Wheel Loader,,EROPS,None or Unspecified,,None or Unspecified,,,,,,,,2 Valve,,,,,None or Unspecified,None or Unspecified,,,,,,,,,,,,,Standard,Conventional
5237,1741639,24500,1183001,132,18.0,1990,,,6/8/1996 0:00,510C,510,C,,,,Wheel Loader - 100.0 to 110.0 Horsepower,Pennsylvania,WL,Wheel Loader,,EROPS,,,,,,,,,,,Standard,,,,,,None or Unspecified,,,,,,,,,,,,,,
5237,1741889,8500,1192605,132,5.0,1991,4208.0,Low,9/24/2010 0:00,510C,510,C,,,,Wheel Loader - 100.0 to 110.0 Horsepower,Connecticut,WL,Wheel Loader,,EROPS,None or Unspecified,,None or Unspecified,,,,,,,,2 Valve,,,,,None or Unspecified,None or Unspecified,,,,,,,,,,,,,Standard,Conventional
5237,1741984,15500,1429273,132,16.0,1991,,,9/16/2004 0:00,510C,510,C,,,,Wheel Loader - 100.0 to 110.0 Horsepower,Indiana,WL,Wheel Loader,,EROPS,,,,,,,,,,,Standard,,,,,,Hydraulic,,,,,,,,,,,,,,
5237,1742173,12500,1280748,132,2.0,1991,,,10/10/1998 0:00,510C,510,C,,,,Wheel Loader - 100.0 to 110.0 Horsepower,Florida,WL,Wheel Loader,,OROPS,None or Unspecified,,None or Unspecified,,,,,,,,2 Valve,,,,,None or Unspecified,None or Unspecified,,,,,,,,,,,,,Standard,Conventional
5237,1743517,11000,1492656,132,3.0,1000,,,9/22/2005 0:00,510C,510,C,,,,Wheel Loader - 100.0 to 110.0 Horsepower,Unspecified,WL,Wheel Loader,,EROPS,None or Unspecified,,None or Unspecified,,,,,,,,2 Valve,,,,,None or Unspecified,None or Unspecified,,,,,,,,,,,,,Standard,Conventional
5237,1743523,10000,1338933,132,1.0,1000,,,7/27/2011 0:00,510C,510,C,,,,Wheel Loader - 100.0 to 110.0 Horsepower,Texas,WL,Wheel Loader,,EROPS,None or Unspecified,,None or Unspecified,,,,,,,,2 Valve,,,,,None or Unspecified,None or Unspecified,,,,,,,,,,,,,Standard,Conventional
5237,1743528,19000,1341247,132,1.0,1990,,,12/14/1994 0:00,510C,510,C,,,,Wheel Loader - 100.0 to 110.0 Horsepower,Texas,WL,Wheel Loader,,OROPS,None or Unspecified,,None or Unspecified,,,,,,,,2 Valve,,,,,None or Unspecified,None or Unspecified,,,,,,,,,,,,,Standard,Conventional
5237,1743529,19000,1258251,132,1.0,1000,,,10/7/2005 0:00,510C,510,C,,,,Wheel Loader - 100.0 to 110.0 Horsepower,Minnesota,WL,Wheel Loader,,EROPS,None or Unspecified,,None or Unspecified,,,,,,,,2 Valve,,,,,15.5,Manual,,,,,,,,,,,,,Standard,Conventional
5237,1743530,17500,1514988,132,1.0,1000,,,12/16/2005 0:00,510C,510,C,,,,Wheel Loader - 100.0 to 110.0 Horsepower,Minnesota,WL,Wheel Loader,,EROPS,None or Unspecified,,None or Unspecified,,,,,,,,2 Valve,,,,,15.5,Manual,,,,,,,,,,,,,Standard,Conventional
5237,1743532,11000,1126451,132,1.0,1000,,,3/27/2007 0:00,510C,510,C,,,,Wheel Loader - 100.0 to 110.0 Horsepower,Georgia,WL,Wheel Loader,,OROPS,Yes,,None or Unspecified,,,,,,,,2 Valve,,,,,None or Unspecified,Manual,,,,,,,,,,,,,Standard,Conventional
5237,1743533,22000,1247178,132,1.0,1994,,,6/16/1999 0:00,510C,510,C,,,,Wheel Loader - 100.0 to 110.0 Horsepower,Texas,WL,Wheel Loader,,OROPS,None or Unspecified,,None or Unspecified,,,,,,,,2 Valve,,,,,None or Unspecified,None or Unspecified,,,,,,,,,,,,,Standard,Conventional
5237,1743534,24000,1102553,132,22.0,1994,,,9/16/2000 0:00,510C,510,C,,,,Wheel Loader - 100.0 to 110.0 Horsepower,Minnesota,WL,Wheel Loader,,EROPS,None or Unspecified,,None or Unspecified,,,,,,,,2 Valve,,,,,None or Unspecified,None or Unspecified,,,,,,,,,,,,,Standard,Conventional
5237,1743535,26000,1102553,132,2.0,1000,,,11/13/1999 0:00,510C,510,C,,,,Wheel Loader - 100.0 to 110.0 Horsepower,Wisconsin,WL,Wheel Loader,,EROPS,None or Unspecified,,None or Unspecified,,,,,,,,2 Valve,,,,,None or Unspecified,None or Unspecified,,,,,,,,,,,,,Standard,Conventional
5237,1743536,9000,1309103,132,1.0,1995,,,10/9/2001 0:00,510C,510,C,,,,Wheel Loader - 100.0 to 110.0 Horsepower,Texas,WL,Wheel Loader,,OROPS,Yes,,None or Unspecified,,,,,,,,2 Valve,,,,,None or Unspecified,Manual,,,,,,,,,,,,,Standard,Conventional
5237,1743537,14000,1468106,132,1.0,1996,,,8/31/2005 0:00,510C,510,C,,,,Wheel Loader - 100.0 to 110.0 Horsepower,Georgia,WL,Wheel Loader,,OROPS,None or Unspecified,,None or Unspecified,,,,,,,,2 Valve,,,,,None or Unspecified,Manual,,,,,,,,,,,,,Standard,Conventional
5237,1743674,22000,1400626,132,2.0,1000,,,9/7/2001 0:00,510C,510,C,,,,Wheel Loader - 100.0 to 110.0 Horsepower,New Hampshire,WL,Wheel Loader,,OROPS,None or Unspecified,,None or Unspecified,,,,,,,,2 Valve,,,,,None or Unspecified,None or Unspecified,,,,,,,,,,,,,Standard,Conventional
5237,1746446,9500,1031390,132,4.0,1000,,,2/11/2002 0:00,510C,510,C,,,,Wheel Loader - 100.0 to 110.0 Horsepower,Florida,WL,Wheel Loader,,EROPS w AC,None or Unspecified,,None or Unspecified,,,,,,,,2 Valve,,,,,None or Unspecified,None or Unspecified,,,,,,,,,,,,,Standard,Conventional
5237,1748611,18250,1193211,132,5.0,1000,,,4/2/2004 0:00,510C,510,C,,,,Wheel Loader - 100.0 to 110.0 Horsepower,Connecticut,WL,Wheel Loader,,EROPS,None or Unspecified,,None or Unspecified,,,,,,,,2 Valve,,,,,None or Unspecified,None or Unspecified,,,,,,,,,,,,,Standard,Conventional
5237,1749401,47000,1257349,132,6.0,1995,25.0,Low,10/15/1996 0:00,510C,510,C,,,,Wheel Loader - 100.0 to 110.0 Horsepower,Maine,WL,Wheel Loader,,EROPS,,,,,,,,,,,Auxiliary,,,,,,None or Unspecified,,,,,,,,,,,,,,
5237,1749456,20500,1154104,132,6.0,1995,,,7/31/1997 0:00,510C,510,C,,,,Wheel Loader - 100.0 to 110.0 Horsepower,Alabama,WL,Wheel Loader,,EROPS,None or Unspecified,,None or Unspecified,,,,,,,,2 Valve,,,,,None or Unspecified,None or Unspecified,,,,,,,,,,,,,Standard,Conventional
5237,1750056,11500,1093858,132,14.0,1998,,,9/18/2009 0:00,510C,510,C,,,,Wheel Loader - 100.0 to 110.0 Horsepower,Indiana,WL,Wheel Loader,,EROPS,Yes,,None or Unspecified,,,,,,,,2 Valve,,,,,None or Unspecified,None or Unspecified,,,,,,,,,,,,,Standard,Conventional
5237,1750061,14500,1278166,132,7.0,1998,3107.0,Low,9/9/2009 0:00,510C,510,C,,,,Wheel Loader - 100.0 to 110.0 Horsepower,Alabama,WL,Wheel Loader,,EROPS,None or Unspecified,,None or Unspecified,,,,,,,,2 Valve,,,,,None or Unspecified,None or Unspecified,,,,,,,,,,,,,Standard,Conventional
5237,1778123,14000,1539543,132,7.0,1996,,,3/12/2008 0:00,510C,510,C,,,,Wheel Loader - 100.0 to 110.0 Horsepower,Alabama,WL,Wheel Loader,,OROPS,Yes,,None or Unspecified,,,,,,,,2 Valve,,,,,None or Unspecified,Manual,,,,,,,,,,,,,Standard,Conventional
5237,1778167,12000,1099655,132,1.0,1994,,,9/23/1998 0:00,510C,510,C,,,,Wheel Loader - 100.0 to 110.0 Horsepower,Texas,WL,Wheel Loader,,EROPS,None or Unspecified,,None or Unspecified,,,,,,,,2 Valve,,,,,None or Unspecified,None or Unspecified,,,,,,,,,,,,,Standard,Conventional
5237,1778364,13500,1286270,132,8.0,1995,,,5/23/2007 0:00,510C,510,C,,,,Wheel Loader - 100.0 to 110.0 Horsepower,Mississippi,WL,Wheel Loader,,OROPS,None or Unspecified,,None or Unspecified,,,,,,,,2 Valve,,,,,None or Unspecified,None or Unspecified,,,,,,,,,,,,,Standard,Conventional
5237,1778365,15000,1217756,132,13.0,1996,401.0,Low,3/19/2011 0:00,510C,510,C,,,,Wheel Loader - 100.0 to 110.0 Horsepower,Tennessee,WL,Wheel Loader,,EROPS,None or Unspecified,,None or Unspecified,,,,,,,,2 Valve,,,,,None or Unspecified,None or Unspecified,,,,,,,,,,,,,Standard,Conventional
5237,2396661,11000,1541636,136,5.0,1994,0.0,,12/4/2008 0:00,510C,510,C,,,,Wheel Loader - 100.0 to 110.0 Horsepower,South Carolina,WL,Wheel Loader,,EROPS,None or Unspecified,,None or Unspecified,,,,,,,,2 Valve,,,,,None or Unspecified,None or Unspecified,,,,,,,,,,,,,Standard,Conventional
