ModelID,SalesID,SalePrice,MachineID,datasource,auctioneerID,YearMade,MachineHoursCurrentMeter,UsageBand,saledate,fiModelDesc,fiBaseModel,fiSecondaryDesc,fiModelSeries,fiModelDescriptor,ProductSize,fiProductClassDesc,state,ProductGroup,ProductGroupDesc,Drive_System,Enclosure,Forks,Pad_Type,Ride_Control,Stick,Transmission,Turbocharged,Blade_Extension,Blade_Width,Enclosure_Type,Engine_Horsepower,Hydraulics,Pushblock,Ripper,Scarifier,Tip_Control,Tire_Size,Coupler,Coupler_System,Grouser_Tracks,Hydraulics_Flow,Track_Type,Undercarriage_Pad_Width,Stick_Length,Thumb,Pattern_Changer,Grouser_Type,Backhoe_Mounting,Blade_Type,Travel_Controls,Differential_Type,Steering_Controls
5250,1153910,13000,1064063,121,3.0,2000,1337.0,Low,12/15/2005 0:00,D21A,D21,A,,,,"Track Type Tractor, Dozer - 20.0 to 75.0 Horsepower",Alaska,TTT,Track Type Tractors,,OROPS,,,,,Standard,,,,,,2 Valve,,None or Unspecified,,,,,,,,,,,,,,None or Unspecified,None or Unspecified,None or Unspecified,,
5250,1748939,8750,1293814,132,2.0,1000,,,9/10/1998 0:00,D21A,D21,A,,,,"Track Type Tractor, Dozer - 20.0 to 75.0 Horsepower",Texas,TTT,Track Type Tractors,,OROPS,,,,,Standard,,,,,,2 Valve,,None or Unspecified,,,,,,,,,,,,,,None or Unspecified,None or Unspecified,None or Unspecified,,
5250,1750285,9000,1146269,132,9.0,1000,,,11/17/2005 0:00,D21A,D21,A,,,,"Track Type Tractor, Dozer - 20.0 to 75.0 Horsepower",South Carolina,TTT,Track Type Tractors,,OROPS,,,,,Standard,,,,,,2 Valve,,None or Unspecified,,,,,,,,,,,,,,None or Unspecified,PAT,None or Unspecified,,
5250,1752607,9000,1303215,132,9.0,1000,,,11/7/2001 0:00,D21A,D21,A,,,,"Track Type Tractor, Dozer - 20.0 to 75.0 Horsepower",South Carolina,TTT,Track Type Tractors,,OROPS,,,,,Powershift,,,,,,2 Valve,,None or Unspecified,,,,,,,,,,,,,,None or Unspecified,PAT,None or Unspecified,,
5250,1752778,9600,1478736,132,99.0,1000,,,5/10/1995 0:00,D21A,D21,A,,,,"Track Type Tractor, Dozer - 20.0 to 75.0 Horsepower",Mississippi,TTT,Track Type Tractors,,OROPS,,,,,Standard,,,,,,2 Valve,,None or Unspecified,,,,,,,,,,,,,,None or Unspecified,PAT,None or Unspecified,,
5250,1753385,10750,1098375,132,5.0,1000,,,4/2/2004 0:00,D21A,D21,A,,,,"Track Type Tractor, Dozer - 20.0 to 75.0 Horsepower",Connecticut,TTT,Track Type Tractors,,OROPS,,,,,Powershift,,,,,,2 Valve,,None or Unspecified,,,,,,,,,,,,,,None or Unspecified,PAT,None or Unspecified,,
5250,1753387,11000,1098375,132,5.0,1000,,,6/26/2004 0:00,D21A,D21,A,,,,"Track Type Tractor, Dozer - 20.0 to 75.0 Horsepower",Connecticut,TTT,Track Type Tractors,,OROPS,,,,,Powershift,,,,,,2 Valve,,None or Unspecified,,,,,,,,,,,,,,None or Unspecified,PAT,None or Unspecified,,
5250,1753424,8750,1286709,132,4.0,1000,,,2/13/2006 0:00,D21A,D21,A,,,,"Track Type Tractor, Dozer - 20.0 to 75.0 Horsepower",Florida,TTT,Track Type Tractors,,OROPS,,,,,Standard,,,,,,2 Valve,,None or Unspecified,,,,,,,,,,,,,,None or Unspecified,PAT,None or Unspecified,,
5250,1753425,8750,1286709,132,4.0,1000,,,2/15/2006 0:00,D21A,D21,A,,,,"Track Type Tractor, Dozer - 20.0 to 75.0 Horsepower",Florida,TTT,Track Type Tractors,,OROPS,,,,,Standard,,,,,,2 Valve,,None or Unspecified,,,,,,,,,,,,,,None or Unspecified,PAT,None or Unspecified,,
5250,1754690,10250,1329834,132,8.0,1000,,,8/25/2005 0:00,D21A,D21,A,,,,"Track Type Tractor, Dozer - 20.0 to 75.0 Horsepower",Georgia,TTT,Track Type Tractors,,EROPS,,,,,Standard,,,,,,2 Valve,,None or Unspecified,,,,,,,,,,,,,,None or Unspecified,PAT,None or Unspecified,,
5250,1755166,12000,1402441,132,2.0,1000,,,5/22/1999 0:00,D21A,D21,A,,,,"Track Type Tractor, Dozer - 20.0 to 75.0 Horsepower",Connecticut,TTT,Track Type Tractors,,OROPS,,,,,Standard,,,,,,2 Valve,,None or Unspecified,,,,,,,,,,,,,,None or Unspecified,None or Unspecified,None or Unspecified,,
5250,1755609,14000,1548939,132,2.0,1000,,,3/18/1999 0:00,D21A,D21,A,,,,"Track Type Tractor, Dozer - 20.0 to 75.0 Horsepower",New Jersey,TTT,Track Type Tractors,,EROPS,,,,,,,,,,,Standard,,,,,,,,,,,,,,,,,No,2 Pedal,,
5250,1755691,9000,1417546,132,2.0,1000,,,10/27/2001 0:00,D21A,D21,A,,,,"Track Type Tractor, Dozer - 20.0 to 75.0 Horsepower",Florida,TTT,Track Type Tractors,,OROPS,,,,,Standard,,,,,,2 Valve,,None or Unspecified,,,,,,,,,,,,,,None or Unspecified,None or Unspecified,None or Unspecified,,
5250,1757164,10000,1320587,132,10.0,1000,,,4/7/1999 0:00,D21A,D21,A,,,,"Track Type Tractor, Dozer - 20.0 to 75.0 Horsepower",Louisiana,TTT,Track Type Tractors,,OROPS,,,,,Standard,,,,,,2 Valve,,None or Unspecified,,,,,,,,,,,,,,None or Unspecified,PAT,None or Unspecified,,
5250,1757324,14250,1128124,132,13.0,1992,,,9/6/1997 0:00,D21A,D21,A,,,,"Track Type Tractor, Dozer - 20.0 to 75.0 Horsepower",Tennessee,TTT,Track Type Tractors,,OROPS,,,,,Standard,,,,,,2 Valve,,None or Unspecified,,,,,,,,,,,,,,None or Unspecified,None or Unspecified,None or Unspecified,,
5250,1757388,9000,1275201,132,2.0,1000,1731.0,Low,7/10/1999 0:00,D21A,D21,A,,,,"Track Type Tractor, Dozer - 20.0 to 75.0 Horsepower",New Hampshire,TTT,Track Type Tractors,,OROPS,,,,,Powershift,,,,,,2 Valve,,None or Unspecified,,,,,,,,,,,,,,None or Unspecified,PAT,None or Unspecified,,
5250,1757697,10500,1485620,132,2.0,1000,,,4/25/1998 0:00,D21A,D21,A,,,,"Track Type Tractor, Dozer - 20.0 to 75.0 Horsepower",Ohio,TTT,Track Type Tractors,,OROPS,,,,,Standard,,,,,,2 Valve,,None or Unspecified,,,,,,,,,,,,,,None or Unspecified,None or Unspecified,None or Unspecified,,
5250,1758081,13750,1373862,132,2.0,1000,,,5/30/1998 0:00,D21A,D21,A,,,,"Track Type Tractor, Dozer - 20.0 to 75.0 Horsepower",Alabama,TTT,Track Type Tractors,,OROPS,,,,,Standard,,,,,,2 Valve,,None or Unspecified,,,,,,,,,,,,,,None or Unspecified,None or Unspecified,None or Unspecified,,
5250,1758092,9600,1250885,132,5.0,1992,,,6/16/2000 0:00,D21A,D21,A,,,,"Track Type Tractor, Dozer - 20.0 to 75.0 Horsepower",Connecticut,TTT,Track Type Tractors,,OROPS,,,,,Powershift,,,,,,2 Valve,,None or Unspecified,,,,,,,,,,,,,,None or Unspecified,PAT,None or Unspecified,,
5250,1758491,11000,1258202,132,2.0,1991,,,7/10/1999 0:00,D21A,D21,A,,,,"Track Type Tractor, Dozer - 20.0 to 75.0 Horsepower",New Hampshire,TTT,Track Type Tractors,,OROPS,,,,,Standard,,,,,,2 Valve,,None or Unspecified,,,,,,,,,,,,,,None or Unspecified,PAT,None or Unspecified,,
5250,1758759,14000,1411757,132,8.0,1000,,,2/16/2007 0:00,D21A,D21,A,,,,"Track Type Tractor, Dozer - 20.0 to 75.0 Horsepower",Florida,TTT,Track Type Tractors,,EROPS,,,,,,,,,,,Standard,,,,,,,,,,,,,,,,,No,2 Pedal,,
5250,1759306,13500,1363956,132,7.0,1000,,,6/20/1997 0:00,D21A,D21,A,,,,"Track Type Tractor, Dozer - 20.0 to 75.0 Horsepower",Alabama,TTT,Track Type Tractors,,OROPS,,,,,Standard,,,,,,2 Valve,,None or Unspecified,,,,,,,,,,,,,,None or Unspecified,PAT,None or Unspecified,,
5250,1759348,14000,1152284,132,9.0,1000,,,2/15/2000 0:00,D21A,D21,A,,,,"Track Type Tractor, Dozer - 20.0 to 75.0 Horsepower",Florida,TTT,Track Type Tractors,,OROPS,,,,,Powershift,,,,,,2 Valve,,None or Unspecified,,,,,,,,,,,,,,None or Unspecified,PAT,None or Unspecified,,
5250,1759414,16000,1503213,132,6.0,1000,,,4/20/1999 0:00,D21A,D21,A,,,,"Track Type Tractor, Dozer - 20.0 to 75.0 Horsepower",Kentucky,TTT,Track Type Tractors,,OROPS,,,,,Standard,,,,,,2 Valve,,None or Unspecified,,,,,,,,,,,,,,None or Unspecified,PAT,None or Unspecified,,
5250,1759638,16500,1326539,132,5.0,1996,,,6/26/2004 0:00,D21A,D21,A,,,,"Track Type Tractor, Dozer - 20.0 to 75.0 Horsepower",Connecticut,TTT,Track Type Tractors,,OROPS,,,,,Standard,,,,,,2 Valve,,None or Unspecified,,,,,,,,,,,,,,None or Unspecified,PAT,None or Unspecified,,
5250,2408427,9000,1458270,136,4.0,1000,0.0,,4/18/2007 0:00,D21A,D21,A,,,,"Track Type Tractor, Dozer - 20.0 to 75.0 Horsepower",Arkansas,TTT,Track Type Tractors,,OROPS,,,,,Powershift,,,,,,2 Valve,,None or Unspecified,,,,,,,,,,,,,,None or Unspecified,PAT,None or Unspecified,,
5250,2409226,9000,1530254,136,8.0,1988,0.0,,11/18/2009 0:00,D21A,D21,A,,,,"Track Type Tractor, Dozer - 20.0 to 75.0 Horsepower",Mississippi,TTT,Track Type Tractors,,OROPS,,,,,Standard,,,,,,2 Valve,,None or Unspecified,,,,,,,,,,,,,,None or Unspecified,None or Unspecified,None or Unspecified,,
