ModelID,SalesID,SalePrice,MachineID,datasource,auctioneerID,YearMade,MachineHoursCurrentMeter,UsageBand,saledate,fiModelDesc,fiBaseModel,fiSecondaryDesc,fiModelSeries,fiModelDescriptor,ProductSize,fiProductClassDesc,state,ProductGroup,ProductGroupDesc,Drive_System,Enclosure,Forks,Pad_Type,Ride_Control,Stick,Transmission,Turbocharged,Blade_Extension,Blade_Width,Enclosure_Type,Engine_Horsepower,Hydraulics,Pushblock,Ripper,Scarifier,Tip_Control,Tire_Size,Coupler,Coupler_System,Grouser_Tracks,Hydraulics_Flow,Track_Type,Undercarriage_Pad_Width,Stick_Length,Thumb,Pattern_Changer,Grouser_Type,Backhoe_Mounting,Blade_Type,Travel_Controls,Differential_Type,Steering_Controls
5270,1727264,67000,1270797,132,1.0,2005,675.0,Low,4/5/2007 0:00,D39PX,D39,PX,,,,"Track Type Tractor, Dozer - 85.0 to 105.0 Horsepower",Maryland,TTT,Track Type Tractors,,EROPS w AC,,,,,Standard,,,,,,2 Valve,,None or Unspecified,,,,,,,,,,,,,,None or Unspecified,PAT,None or Unspecified,,
5270,1731304,22000,1087360,132,10.0,2002,,,6/23/2010 0:00,D39PX,D39,PX,,,,"Track Type Tractor, Dozer - 85.0 to 105.0 Horsepower",Louisiana,TTT,Track Type Tractors,,EROPS,,,,,Standard,,,,,,2 Valve,,Multi Shank,,,,,,,,,,,,,,None or Unspecified,PAT,None or Unspecified,,
5270,1731306,25500,1087360,132,10.0,2002,,,3/18/2009 0:00,D39PX,D39,PX,,,,"Track Type Tractor, Dozer - 85.0 to 105.0 Horsepower",Louisiana,TTT,Track Type Tractors,,EROPS,,,,,Standard,,,,,,2 Valve,,Multi Shank,,,,,,,,,,,,,,None or Unspecified,PAT,None or Unspecified,,
5270,1731492,54500,1169699,132,2.0,2002,,,2/4/2005 0:00,D39PX,D39,PX,,,,"Track Type Tractor, Dozer - 85.0 to 105.0 Horsepower",Florida,TTT,Track Type Tractors,,EROPS w AC,,,,,,,,,,,,,,,,,,,,,,,,,,,,,,,
5270,1732634,39500,1556756,132,7.0,2003,,,12/5/2007 0:00,D39PX,D39,PX,,,,"Track Type Tractor, Dozer - 85.0 to 105.0 Horsepower",Alabama,TTT,Track Type Tractors,,EROPS w AC,,,,,Standard,,,,,,2 Valve,,Single Shank,,,,,,,,,,,,,,None or Unspecified,PAT,None or Unspecified,,
5270,1735020,49000,1295279,132,28.0,2005,,,9/8/2006 0:00,D39PX,D39,PX,,,,"Track Type Tractor, Dozer - 85.0 to 105.0 Horsepower",Mississippi,TTT,Track Type Tractors,,OROPS,,,,,Standard,,,,,,2 Valve,,None or Unspecified,,,,,,,,,,,,,,None or Unspecified,PAT,Lever,,
5270,1735022,49000,1295279,132,10.0,2005,,,12/13/2006 0:00,D39PX,D39,PX,,,,"Track Type Tractor, Dozer - 85.0 to 105.0 Horsepower",Louisiana,TTT,Track Type Tractors,,OROPS,,,,,Standard,,,,,,2 Valve,,None or Unspecified,,,,,,,,,,,,,,None or Unspecified,PAT,Lever,,
5270,1735677,47000,1332705,132,99.0,2006,1730.0,Medium,1/20/2009 0:00,D39PX,D39,PX,,,,"Track Type Tractor, Dozer - 85.0 to 105.0 Horsepower",South Carolina,TTT,Track Type Tractors,,OROPS,,,,,Standard,,,,,,2 Valve,,None or Unspecified,,,,,,,,,,,,,,None or Unspecified,Straight,None or Unspecified,,
5270,2396664,39500,1668359,136,1.0,1000,0.0,,12/5/2007 0:00,D39PX,D39,PX,,,,"Track Type Tractor, Dozer - 85.0 to 105.0 Horsepower",Alabama,TTT,Track Type Tractors,,EROPS w AC,,,,,Standard,,,,,,2 Valve,,Single Shank,,,,,,,,,,,,,,None or Unspecified,PAT,None or Unspecified,,
5270,2396772,47000,1673477,136,,2006,1730.0,Medium,1/20/2009 0:00,D39PX,D39,PX,,,,"Track Type Tractor, Dozer - 85.0 to 105.0 Horsepower",Georgia,TTT,Track Type Tractors,,OROPS,,,,,Standard,,,,,,2 Valve,,None or Unspecified,,,,,,,,,,,,,,None or Unspecified,None or Unspecified,None or Unspecified,,
5270,2398652,27500,1538200,136,99.0,2002,2347.0,Low,11/14/2009 0:00,D39PX,D39,PX,,,,"Track Type Tractor, Dozer - 85.0 to 105.0 Horsepower",Alabama,TTT,Track Type Tractors,,EROPS w AC,,,,,Standard,,,,,,2 Valve,,None or Unspecified,,,,,,,,,,,,,,None or Unspecified,PAT,None or Unspecified,,
5270,2399026,37000,1389127,136,1.0,1000,0.0,,1/31/2008 0:00,D39PX,D39,PX,,,,"Track Type Tractor, Dozer - 85.0 to 105.0 Horsepower",Alabama,TTT,Track Type Tractors,,EROPS,,,,,Hydrostatic,,,,,,2 Valve,,None or Unspecified,,,,,,,,,,,,,,None or Unspecified,PAT,None or Unspecified,,
5270,2401063,53500,1557665,136,1.0,2006,2090.0,Medium,4/29/2008 0:00,D39PX,D39,PX,,,,"Track Type Tractor, Dozer - 85.0 to 105.0 Horsepower",Georgia,TTT,Track Type Tractors,,OROPS,,,,,Standard,,,,,,2 Valve,,None or Unspecified,,,,,,,,,,,,,,None or Unspecified,PAT,None or Unspecified,,
5270,2401546,44000,1086451,136,1.0,2006,710.0,Low,9/10/2008 0:00,D39PX,D39,PX,,,,"Track Type Tractor, Dozer - 85.0 to 105.0 Horsepower",Alabama,TTT,Track Type Tractors,,EROPS,,,,,,,,,,,Standard,,,,,,,,,,,,,,,,,Straight,2 Pedal,,
5270,2406552,24000,1430445,136,7.0,2003,3360.0,Medium,3/11/2009 0:00,D39PX,D39,PX,,,,"Track Type Tractor, Dozer - 85.0 to 105.0 Horsepower",Alabama,TTT,Track Type Tractors,,OROPS,,,,,Standard,,,,,,2 Valve,,None or Unspecified,,,,,,,,,,,,,,None or Unspecified,PAT,None or Unspecified,,
5270,2420367,41000,1673302,136,,2005,0.0,,5/30/2008 0:00,D39PX,D39,PX,,,,"Track Type Tractor, Dozer - 85.0 to 105.0 Horsepower",Mississippi,TTT,Track Type Tractors,,OROPS,,,,,Standard,,,,,,2 Valve,,None or Unspecified,,,,,,,,,,,,,,None or Unspecified,None or Unspecified,None or Unspecified,,
5270,2691723,43000,1085610,149,26.0,1000,719.0,Low,6/8/2011 0:00,D39PX,D39,PX,,,,"Track Type Tractor, Dozer - 85.0 to 105.0 Horsepower",Alabama,TTT,Track Type Tractors,,OROPS,,,,,Standard,,,,,,2 Valve,,None or Unspecified,,,,,,,,,,,,,,None or Unspecified,PAT,None or Unspecified,,
5270,6301398,26000,222419,149,1.0,2006,,,6/22/2011 0:00,D39PX,D39,PX,,,,"Track Type Tractor, Dozer - 85.0 to 105.0 Horsepower",Texas,TTT,Track Type Tractors,,EROPS w AC,,,,,Powershift,,,,,,2 Valve,,None or Unspecified,,,,,,,,,,,,,,None or Unspecified,PAT,None or Unspecified,,
