ModelID,SalesID,SalePrice,MachineID,datasource,auctioneerID,YearMade,MachineHoursCurrentMeter,UsageBand,saledate,fiModelDesc,fiBaseModel,fiSecondaryDesc,fiModelSeries,fiModelDescriptor,ProductSize,fiProductClassDesc,state,ProductGroup,ProductGroupDesc,Drive_System,Enclosure,Forks,Pad_Type,Ride_Control,Stick,Transmission,Turbocharged,Blade_Extension,Blade_Width,Enclosure_Type,Engine_Horsepower,Hydraulics,Pushblock,Ripper,Scarifier,Tip_Control,Tire_Size,Coupler,Coupler_System,Grouser_Tracks,Hydraulics_Flow,Track_Type,Undercarriage_Pad_Width,Stick_Length,Thumb,Pattern_Changer,Grouser_Type,Backhoe_Mounting,Blade_Type,Travel_Controls,Differential_Type,Steering_Controls
530,1161135,14000,1050051,121,3.0,1000,0.0,,2/10/2011 0:00,PC60-6,PC60,,-6,,Mini,"Hydraulic Excavator, Track - 6.0 to 8.0 Metric Tons",South Carolina,TEX,Track Excavators,,EROPS,,,,,,,,,,,Standard,,,,,,None or Unspecified,,,,Rubber,18 inch,None or Unspecified,None or Unspecified,None or Unspecified,Double,,,,,
530,1726719,21000,1076876,132,1.0,1000,,,10/22/2003 0:00,PC60-6,PC60,,-6,,Mini,"Hydraulic Excavator, Track - 6.0 to 8.0 Metric Tons",Maine,TEX,Track Excavators,,EROPS,,,,,,,,,,,Auxiliary,,,,,,None or Unspecified,,,,Rubber,None or Unspecified,None or Unspecified,None or Unspecified,None or Unspecified,Double,,,,,
530,1735008,9250,1419047,132,9.0,1000,,,11/16/2000 0:00,PC60-6,PC60,,-6,,Mini,"Hydraulic Excavator, Track - 6.0 to 8.0 Metric Tons",South Carolina,TEX,Track Excavators,,EROPS,,,,,,,,,,,Standard,,,,,,None or Unspecified,,,,Steel,None or Unspecified,None or Unspecified,None or Unspecified,None or Unspecified,Triple,,,,,
530,1738017,9000,1395805,132,9.0,1000,,,2/18/2002 0:00,PC60-6,PC60,,-6,,Mini,"Hydraulic Excavator, Track - 6.0 to 8.0 Metric Tons",Florida,TEX,Track Excavators,,EROPS,,,,,,,,,,,Standard,,,,,,None or Unspecified,,,,Steel,None or Unspecified,None or Unspecified,None or Unspecified,None or Unspecified,Double,,,,,
530,1740720,17500,1500159,132,11.0,1989,,,5/29/1997 0:00,PC60-6,PC60,,-6,,Mini,"Hydraulic Excavator, Track - 6.0 to 8.0 Metric Tons",Mississippi,TEX,Track Excavators,,EROPS,,,,,,,,,,,Standard,,,,,,None or Unspecified,,,,Rubber,None or Unspecified,None or Unspecified,None or Unspecified,None or Unspecified,Double,,,,,
530,1740752,13000,1356814,132,9.0,1990,,,12/8/1999 0:00,PC60-6,PC60,,-6,,Mini,"Hydraulic Excavator, Track - 6.0 to 8.0 Metric Tons",South Carolina,TEX,Track Excavators,,EROPS,,,,,,,,,,,Standard,,,,,,None or Unspecified,,,,Steel,18 inch,None or Unspecified,None or Unspecified,None or Unspecified,Triple,,,,,
530,1740753,12000,1356814,132,9.0,1990,,,2/21/2001 0:00,PC60-6,PC60,,-6,,Mini,"Hydraulic Excavator, Track - 6.0 to 8.0 Metric Tons",Florida,TEX,Track Excavators,,EROPS,,,,,,,,,,,Standard,,,,,,None or Unspecified,,,,Steel,18 inch,None or Unspecified,None or Unspecified,None or Unspecified,Triple,,,,,
530,1740754,13000,1356814,132,9.0,1000,,,5/17/2001 0:00,PC60-6,PC60,,-6,,Mini,"Hydraulic Excavator, Track - 6.0 to 8.0 Metric Tons",South Carolina,TEX,Track Excavators,,EROPS,,,,,,,,,,,Standard,,,,,,None or Unspecified,,,,Steel,18 inch,None or Unspecified,None or Unspecified,None or Unspecified,Triple,,,,,
530,1740755,12500,1356814,132,9.0,1000,,,11/16/2000 0:00,PC60-6,PC60,,-6,,Mini,"Hydraulic Excavator, Track - 6.0 to 8.0 Metric Tons",South Carolina,TEX,Track Excavators,,EROPS,,,,,,,,,,,Standard,,,,,,None or Unspecified,,,,Steel,18 inch,None or Unspecified,None or Unspecified,None or Unspecified,Triple,,,,,
530,1740757,13500,1356814,132,9.0,1990,,,4/6/2000 0:00,PC60-6,PC60,,-6,,Mini,"Hydraulic Excavator, Track - 6.0 to 8.0 Metric Tons",Texas,TEX,Track Excavators,,EROPS,,,,,,,,,,,Standard,,,,,,None or Unspecified,,,,Steel,18 inch,None or Unspecified,None or Unspecified,None or Unspecified,Triple,,,,,
530,1740758,11000,1356814,132,9.0,1991,,,11/7/2001 0:00,PC60-6,PC60,,-6,,Mini,"Hydraulic Excavator, Track - 6.0 to 8.0 Metric Tons",South Carolina,TEX,Track Excavators,,EROPS,,,,,,,,,,,Standard,,,,,,None or Unspecified,,,,Steel,18 inch,None or Unspecified,None or Unspecified,None or Unspecified,Triple,,,,,
530,1740792,18000,1249709,132,4.0,1989,,,2/5/1998 0:00,PC60-6,PC60,,-6,,Mini,"Hydraulic Excavator, Track - 6.0 to 8.0 Metric Tons",Florida,TEX,Track Excavators,,EROPS,,,,,,,,,,,Standard,,,,,,None or Unspecified,,,,Steel,None or Unspecified,None or Unspecified,None or Unspecified,None or Unspecified,Double,,,,,
530,1740943,12250,1550638,132,5.0,1990,,,7/12/2003 0:00,PC60-6,PC60,,-6,,Mini,"Hydraulic Excavator, Track - 6.0 to 8.0 Metric Tons",Connecticut,TEX,Track Excavators,,EROPS,,,,,,,,,,,Standard,,,,,,None or Unspecified,,,,Rubber,None or Unspecified,None or Unspecified,None or Unspecified,None or Unspecified,Double,,,,,
530,1740973,22000,1471468,132,6.0,1991,,,10/15/1996 0:00,PC60-6,PC60,,-6,,Mini,"Hydraulic Excavator, Track - 6.0 to 8.0 Metric Tons",Maine,TEX,Track Excavators,,EROPS,,,,,,,,,,,Standard,,,,,,None or Unspecified,,,,Steel,18 inch,None or Unspecified,Manual,None or Unspecified,Triple,,,,,
530,1740974,29000,1471468,132,1.0,1991,,,9/13/1995 0:00,PC60-6,PC60,,-6,,Mini,"Hydraulic Excavator, Track - 6.0 to 8.0 Metric Tons",Washington,TEX,Track Excavators,,EROPS,,,,,,,,,,,Standard,,,,,,None or Unspecified,,,,Steel,18 inch,None or Unspecified,Manual,None or Unspecified,Triple,,,,,
530,1741011,8250,1234175,132,9.0,1000,,,2/18/2002 0:00,PC60-6,PC60,,-6,,Mini,"Hydraulic Excavator, Track - 6.0 to 8.0 Metric Tons",Florida,TEX,Track Excavators,,EROPS,,,,,,,,,,,Auxiliary,,,,,,None or Unspecified,,,,Steel,18 inch,None or Unspecified,None or Unspecified,None or Unspecified,Triple,,,,,
530,1741023,13000,1486600,132,1.0,1989,,,9/23/1998 0:00,PC60-6,PC60,,-6,,Mini,"Hydraulic Excavator, Track - 6.0 to 8.0 Metric Tons",Texas,TEX,Track Excavators,,EROPS,,,,,,,,,,,Standard,,,,,,None or Unspecified,,,,Steel,None or Unspecified,None or Unspecified,None or Unspecified,None or Unspecified,Double,,,,,
530,1741025,12500,1486600,132,1.0,1000,,,3/21/2001 0:00,PC60-6,PC60,,-6,,Mini,"Hydraulic Excavator, Track - 6.0 to 8.0 Metric Tons",Texas,TEX,Track Excavators,,EROPS,,,,,,,,,,,Standard,,,,,,None or Unspecified,,,,Steel,None or Unspecified,None or Unspecified,None or Unspecified,None or Unspecified,Double,,,,,
530,1741037,15200,1338990,132,9.0,1990,,,2/15/2000 0:00,PC60-6,PC60,,-6,,Mini,"Hydraulic Excavator, Track - 6.0 to 8.0 Metric Tons",Florida,TEX,Track Excavators,,EROPS,,,,,,,,,,,Standard,,,,,,None or Unspecified,,,,Steel,None or Unspecified,None or Unspecified,None or Unspecified,None or Unspecified,Double,,,,,
530,1741038,15500,1338990,132,9.0,1990,,,12/8/1999 0:00,PC60-6,PC60,,-6,,Mini,"Hydraulic Excavator, Track - 6.0 to 8.0 Metric Tons",South Carolina,TEX,Track Excavators,,EROPS,,,,,,,,,,,Standard,,,,,,None or Unspecified,,,,Steel,None or Unspecified,None or Unspecified,None or Unspecified,None or Unspecified,Double,,,,,
530,1741073,14500,1520335,132,1.0,1989,,,9/23/1998 0:00,PC60-6,PC60,,-6,,Mini,"Hydraulic Excavator, Track - 6.0 to 8.0 Metric Tons",Texas,TEX,Track Excavators,,EROPS,,,,,,,,,,,Standard,,,,,,None or Unspecified,,,,Steel,None or Unspecified,None or Unspecified,None or Unspecified,None or Unspecified,Double,,,,,
530,1741142,22500,1133621,132,2.0,1000,1922.0,Low,11/5/1994 0:00,PC60-6,PC60,,-6,,Mini,"Hydraulic Excavator, Track - 6.0 to 8.0 Metric Tons",Wisconsin,TEX,Track Excavators,,EROPS,,,,,,,,,,,Standard,,,,,,None or Unspecified,,,,Steel,None or Unspecified,None or Unspecified,None or Unspecified,None or Unspecified,Double,,,,,
530,1741161,13500,1175491,132,1.0,1994,,,3/22/2000 0:00,PC60-6,PC60,,-6,,Mini,"Hydraulic Excavator, Track - 6.0 to 8.0 Metric Tons",Washington,TEX,Track Excavators,,EROPS,,,,,,,,,,,Standard,,,,,,None or Unspecified,,,,Steel,None or Unspecified,None or Unspecified,None or Unspecified,None or Unspecified,Double,,,,,
530,1741164,14000,1216333,132,1.0,1990,,,9/23/1997 0:00,PC60-6,PC60,,-6,,Mini,"Hydraulic Excavator, Track - 6.0 to 8.0 Metric Tons",Texas,TEX,Track Excavators,,EROPS,,,,,,,,,,,Standard,,,,,,None or Unspecified,,,,Steel,None or Unspecified,None or Unspecified,None or Unspecified,None or Unspecified,Double,,,,,
530,1741348,10000,1457839,132,9.0,1989,,,5/15/2003 0:00,PC60-6,PC60,,-6,,Mini,"Hydraulic Excavator, Track - 6.0 to 8.0 Metric Tons",South Carolina,TEX,Track Excavators,,EROPS,,,,,,,,,,,Standard,,,,,,None or Unspecified,,,,Steel,18 inch,None or Unspecified,None or Unspecified,None or Unspecified,Triple,,,,,
530,1741350,10500,1457839,132,9.0,1990,,,2/17/2003 0:00,PC60-6,PC60,,-6,,Mini,"Hydraulic Excavator, Track - 6.0 to 8.0 Metric Tons",Florida,TEX,Track Excavators,,EROPS,,,,,,,,,,,Standard,,,,,,None or Unspecified,,,,Steel,18 inch,None or Unspecified,None or Unspecified,None or Unspecified,Triple,,,,,
530,1741479,12500,1372465,132,10.0,1990,,,8/9/2000 0:00,PC60-6,PC60,,-6,,Mini,"Hydraulic Excavator, Track - 6.0 to 8.0 Metric Tons",Louisiana,TEX,Track Excavators,,EROPS,,,,,,,,,,,Standard,,,,,,None or Unspecified,,,,Steel,24 inch,None or Unspecified,None or Unspecified,None or Unspecified,Triple,,,,,
530,1741480,13000,1372465,132,2.0,1000,,,2/8/2001 0:00,PC60-6,PC60,,-6,,Mini,"Hydraulic Excavator, Track - 6.0 to 8.0 Metric Tons",Florida,TEX,Track Excavators,,EROPS,,,,,,,,,,,Standard,,,,,,None or Unspecified,,,,Steel,24 inch,None or Unspecified,None or Unspecified,None or Unspecified,Triple,,,,,
530,1741481,17500,1372465,132,2.0,1990,,,2/4/1998 0:00,PC60-6,PC60,,-6,,Mini,"Hydraulic Excavator, Track - 6.0 to 8.0 Metric Tons",Florida,TEX,Track Excavators,,EROPS,,,,,,,,,,,Standard,,,,,,None or Unspecified,,,,Steel,24 inch,None or Unspecified,None or Unspecified,None or Unspecified,Triple,,,,,
530,1741498,12250,1500174,132,15.0,1991,,,7/24/2003 0:00,PC60-6,PC60,,-6,,Mini,"Hydraulic Excavator, Track - 6.0 to 8.0 Metric Tons",Pennsylvania,TEX,Track Excavators,,EROPS,,,,,,,,,,,Standard,,,,,,None or Unspecified,,,,Steel,18 inch,None or Unspecified,None or Unspecified,None or Unspecified,Triple,,,,,
530,1741618,19000,1542369,132,1.0,1991,,,6/21/2000 0:00,PC60-6,PC60,,-6,,Mini,"Hydraulic Excavator, Track - 6.0 to 8.0 Metric Tons",Washington,TEX,Track Excavators,,EROPS,,,,,,,,,,,Auxiliary,,,,,,None or Unspecified,,,,Steel,26 inch,None or Unspecified,None or Unspecified,None or Unspecified,Double,,,,,
530,1741677,16000,1001921,132,1.0,1990,,,9/23/1997 0:00,PC60-6,PC60,,-6,,Mini,"Hydraulic Excavator, Track - 6.0 to 8.0 Metric Tons",Texas,TEX,Track Excavators,,EROPS w AC,,,,,,,,,,,2 Valve,,,,,,,,,,,32 inch,,,,,,,,,
530,1741703,9700,1234078,132,9.0,1000,,,11/7/2001 0:00,PC60-6,PC60,,-6,,Mini,"Hydraulic Excavator, Track - 6.0 to 8.0 Metric Tons",South Carolina,TEX,Track Excavators,,EROPS,,,,,,,,,,,Standard,,,,,,None or Unspecified,,,,Steel,18 inch,None or Unspecified,None or Unspecified,None or Unspecified,Double,,,,,
530,1741704,10000,1234078,132,9.0,1000,,,2/18/2002 0:00,PC60-6,PC60,,-6,,Mini,"Hydraulic Excavator, Track - 6.0 to 8.0 Metric Tons",Florida,TEX,Track Excavators,,EROPS,,,,,,,,,,,Standard,,,,,,None or Unspecified,,,,Steel,18 inch,None or Unspecified,None or Unspecified,None or Unspecified,Double,,,,,
530,1741898,11500,1299691,132,2.0,1000,,,12/3/2005 0:00,PC60-6,PC60,,-6,,Mini,"Hydraulic Excavator, Track - 6.0 to 8.0 Metric Tons",New Jersey,TEX,Track Excavators,,EROPS,,,,,,,,,,,Standard,,,,,,None or Unspecified,,,,Rubber,None or Unspecified,None or Unspecified,None or Unspecified,None or Unspecified,Double,,,,,
530,1741900,14000,1299691,132,2.0,1000,,,12/29/2005 0:00,PC60-6,PC60,,-6,,Mini,"Hydraulic Excavator, Track - 6.0 to 8.0 Metric Tons",New York,TEX,Track Excavators,,EROPS,,,,,,,,,,,Standard,,,,,,None or Unspecified,,,,Rubber,None or Unspecified,None or Unspecified,None or Unspecified,None or Unspecified,Double,,,,,
530,1741992,14000,1283615,132,1.0,1990,,,9/29/2004 0:00,PC60-6,PC60,,-6,,Mini,"Hydraulic Excavator, Track - 6.0 to 8.0 Metric Tons",Washington,TEX,Track Excavators,,EROPS,,,,,,,,,,,Standard,,,,,,None or Unspecified,,,,Steel,None or Unspecified,None or Unspecified,Manual,None or Unspecified,Double,,,,,
530,1741993,19000,1283615,132,1.0,1990,,,6/21/2000 0:00,PC60-6,PC60,,-6,,Mini,"Hydraulic Excavator, Track - 6.0 to 8.0 Metric Tons",Washington,TEX,Track Excavators,,EROPS,,,,,,,,,,,Standard,,,,,,None or Unspecified,,,,Steel,None or Unspecified,None or Unspecified,Manual,None or Unspecified,Double,,,,,
530,1742122,17750,1489225,132,2.0,1000,,,12/18/1998 0:00,PC60-6,PC60,,-6,,Mini,"Hydraulic Excavator, Track - 6.0 to 8.0 Metric Tons",Illinois,TEX,Track Excavators,,EROPS,,,,,,,,,,,2 Valve,,,,,,Manual,,,,,,,,,,,,,,
530,1742172,12000,1466552,132,9.0,1000,,,11/16/2000 0:00,PC60-6,PC60,,-6,,Mini,"Hydraulic Excavator, Track - 6.0 to 8.0 Metric Tons",South Carolina,TEX,Track Excavators,,EROPS,,,,,,,,,,,Standard,,,,,,None or Unspecified,,,,Steel,18 inch,None or Unspecified,None or Unspecified,None or Unspecified,Triple,,,,,
530,1742308,13500,1477110,132,1.0,1991,,,9/18/1997 0:00,PC60-6,PC60,,-6,,Mini,"Hydraulic Excavator, Track - 6.0 to 8.0 Metric Tons",Washington,TEX,Track Excavators,,EROPS,,,,,,,,,,,Standard,,,,,,None or Unspecified,,,,Steel,None or Unspecified,None or Unspecified,None or Unspecified,None or Unspecified,Double,,,,,
530,1742951,13500,1499606,132,17.0,1000,,,12/10/2002 0:00,PC60-6,PC60,,-6,,Mini,"Hydraulic Excavator, Track - 6.0 to 8.0 Metric Tons",Washington,TEX,Track Excavators,,EROPS,,,,,,,,,,,Standard,,,,,,None or Unspecified,,,,Steel,None or Unspecified,None or Unspecified,None or Unspecified,None or Unspecified,Double,,,,,
530,1742956,14500,1339956,132,2.0,1990,,,3/30/2000 0:00,PC60-6,PC60,,-6,,Mini,"Hydraulic Excavator, Track - 6.0 to 8.0 Metric Tons",New Jersey,TEX,Track Excavators,,EROPS,,,,,,,,,,,Standard,,,,,,None or Unspecified,,,,Steel,None or Unspecified,None or Unspecified,None or Unspecified,None or Unspecified,Double,,,,,
530,1743044,10000,1493392,132,9.0,1000,,,2/18/2002 0:00,PC60-6,PC60,,-6,,Mini,"Hydraulic Excavator, Track - 6.0 to 8.0 Metric Tons",Florida,TEX,Track Excavators,,EROPS,,,,,,,,,,,2 Valve,,,,,,,,,,,18 inch,,,,,,,,,
530,1743100,8800,1478135,132,9.0,1000,,,8/29/2002 0:00,PC60-6,PC60,,-6,,Mini,"Hydraulic Excavator, Track - 6.0 to 8.0 Metric Tons",South Carolina,TEX,Track Excavators,,EROPS w AC,,,,,,,,,,,Auxiliary,,,,,,Manual,,,,Steel,18 inch,None or Unspecified,None or Unspecified,None or Unspecified,Triple,,,,,
530,1743127,17000,1472569,132,9.0,1000,,,2/18/2004 0:00,PC60-6,PC60,,-6,,Mini,"Hydraulic Excavator, Track - 6.0 to 8.0 Metric Tons",Florida,TEX,Track Excavators,,EROPS,,,,,,,,,,,Standard,,,,,,None or Unspecified,,,,Steel,None or Unspecified,None or Unspecified,None or Unspecified,None or Unspecified,Triple,,,,,
530,1743280,9500,1388438,132,1.0,1000,,,3/28/2001 0:00,PC60-6,PC60,,-6,,Mini,"Hydraulic Excavator, Track - 6.0 to 8.0 Metric Tons",Washington,TEX,Track Excavators,,EROPS,,,,,,,,,,,Standard,,,,,,None or Unspecified,,,,Steel,None or Unspecified,None or Unspecified,None or Unspecified,None or Unspecified,Double,,,,,
530,1743286,17500,1168739,132,11.0,1991,,,9/17/1997 0:00,PC60-6,PC60,,-6,,Mini,"Hydraulic Excavator, Track - 6.0 to 8.0 Metric Tons",Mississippi,TEX,Track Excavators,,EROPS w AC,,,,,,,,,,,2 Valve,,,,,,,,,,,18 inch,,,,,,,,,
530,1743334,19000,1316139,132,4.0,1991,,,2/9/1995 0:00,PC60-6,PC60,,-6,,Mini,"Hydraulic Excavator, Track - 6.0 to 8.0 Metric Tons",Florida,TEX,Track Excavators,,EROPS w AC,,,,,,,,,,,Standard,,,,,,None or Unspecified,,,,Steel,None or Unspecified,None or Unspecified,None or Unspecified,None or Unspecified,Double,,,,,
530,1743335,20000,1316139,132,15.0,1991,4730.0,High,10/5/1995 0:00,PC60-6,PC60,,-6,,Mini,"Hydraulic Excavator, Track - 6.0 to 8.0 Metric Tons",Pennsylvania,TEX,Track Excavators,,EROPS w AC,,,,,,,,,,,Standard,,,,,,None or Unspecified,,,,Steel,None or Unspecified,None or Unspecified,None or Unspecified,None or Unspecified,Double,,,,,
530,1743489,14900,1271796,132,9.0,1991,,,12/8/1999 0:00,PC60-6,PC60,,-6,,Mini,"Hydraulic Excavator, Track - 6.0 to 8.0 Metric Tons",South Carolina,TEX,Track Excavators,,EROPS,,,,,,,,,,,Auxiliary,,,,,,Manual,,,,Steel,None or Unspecified,None or Unspecified,None or Unspecified,None or Unspecified,Double,,,,,
530,1743544,10000,1372402,132,17.0,1000,,,12/8/2005 0:00,PC60-6,PC60,,-6,,Mini,"Hydraulic Excavator, Track - 6.0 to 8.0 Metric Tons",Washington,TEX,Track Excavators,,EROPS,,,,,,,,,,,Standard,,,,,,None or Unspecified,,,,Steel,None or Unspecified,None or Unspecified,None or Unspecified,None or Unspecified,Double,,,,,
530,1743669,17500,1179728,132,2.0,1990,,,7/31/1999 0:00,PC60-6,PC60,,-6,,Mini,"Hydraulic Excavator, Track - 6.0 to 8.0 Metric Tons",Ohio,TEX,Track Excavators,,EROPS,,,,,,,,,,,Standard,,,,,,None or Unspecified,,,,Steel,18 inch,None or Unspecified,None or Unspecified,None or Unspecified,Double,,,,,
530,1743682,14500,1480370,132,2.0,1000,,,2/6/2006 0:00,PC60-6,PC60,,-6,,Mini,"Hydraulic Excavator, Track - 6.0 to 8.0 Metric Tons",Florida,TEX,Track Excavators,,EROPS,,,,,,,,,,,Standard,,,,,,None or Unspecified,,,,Rubber,None or Unspecified,None or Unspecified,None or Unspecified,None or Unspecified,Double,,,,,
530,1743683,14500,1480370,132,2.0,1000,,,2/5/2006 0:00,PC60-6,PC60,,-6,,Mini,"Hydraulic Excavator, Track - 6.0 to 8.0 Metric Tons",Florida,TEX,Track Excavators,,EROPS,,,,,,,,,,,Standard,,,,,,None or Unspecified,,,,Rubber,None or Unspecified,None or Unspecified,None or Unspecified,None or Unspecified,Double,,,,,
530,1743686,11500,1546314,132,1.0,1000,,,12/12/2001 0:00,PC60-6,PC60,,-6,,Mini,"Hydraulic Excavator, Track - 6.0 to 8.0 Metric Tons",Texas,TEX,Track Excavators,,EROPS,,,,,,,,,,,Standard,,,,,,None or Unspecified,,,,Rubber,None or Unspecified,None or Unspecified,None or Unspecified,None or Unspecified,Double,,,,,
530,1743695,16500,1471060,132,2.0,1000,,,2/8/2001 0:00,PC60-6,PC60,,-6,,Mini,"Hydraulic Excavator, Track - 6.0 to 8.0 Metric Tons",Florida,TEX,Track Excavators,,EROPS,,,,,,,,,,,Standard,,,,,,None or Unspecified,,,,Steel,None or Unspecified,None or Unspecified,None or Unspecified,None or Unspecified,Double,,,,,
530,1743696,11000,1277843,132,1.0,1990,,,11/15/2000 0:00,PC60-6,PC60,,-6,,Mini,"Hydraulic Excavator, Track - 6.0 to 8.0 Metric Tons",Texas,TEX,Track Excavators,,EROPS,,,,,,,,,,,Standard,,,,,,None or Unspecified,,,,Steel,None or Unspecified,None or Unspecified,None or Unspecified,None or Unspecified,Double,,,,,
530,1743726,9500,1387370,132,1.0,1991,,,3/28/2001 0:00,PC60-6,PC60,,-6,,Mini,"Hydraulic Excavator, Track - 6.0 to 8.0 Metric Tons",Washington,TEX,Track Excavators,,EROPS,,,,,,,,,,,Standard,,,,,,None or Unspecified,,,,Steel,None or Unspecified,None or Unspecified,None or Unspecified,None or Unspecified,Double,,,,,
530,1743757,15500,1379918,132,1.0,1000,,,11/17/2005 0:00,PC60-6,PC60,,-6,,Mini,"Hydraulic Excavator, Track - 6.0 to 8.0 Metric Tons",Texas,TEX,Track Excavators,,EROPS,,,,,,,,,,,Auxiliary,,,,,,None or Unspecified,,,,Steel,None or Unspecified,None or Unspecified,None or Unspecified,None or Unspecified,Double,,,,,
530,1743778,13500,1308763,132,2.0,1000,,,2/5/2005 0:00,PC60-6,PC60,,-6,,Mini,"Hydraulic Excavator, Track - 6.0 to 8.0 Metric Tons",Florida,TEX,Track Excavators,,EROPS,,,,,,,,,,,Standard,,,,,,None or Unspecified,,,,Rubber,None or Unspecified,None or Unspecified,None or Unspecified,None or Unspecified,Double,,,,,
530,1743779,13500,1308763,132,2.0,1000,,,1/30/2005 0:00,PC60-6,PC60,,-6,,Mini,"Hydraulic Excavator, Track - 6.0 to 8.0 Metric Tons",Florida,TEX,Track Excavators,,EROPS,,,,,,,,,,,Standard,,,,,,None or Unspecified,,,,Rubber,None or Unspecified,None or Unspecified,None or Unspecified,None or Unspecified,Double,,,,,
530,1743780,14500,1308763,132,4.0,1000,,,2/7/2005 0:00,PC60-6,PC60,,-6,,Mini,"Hydraulic Excavator, Track - 6.0 to 8.0 Metric Tons",Florida,TEX,Track Excavators,,EROPS,,,,,,,,,,,Standard,,,,,,None or Unspecified,,,,Rubber,None or Unspecified,None or Unspecified,None or Unspecified,None or Unspecified,Double,,,,,
530,1743788,10000,1282809,132,2.0,1000,,,6/5/2002 0:00,PC60-6,PC60,,-6,,Mini,"Hydraulic Excavator, Track - 6.0 to 8.0 Metric Tons",Kentucky,TEX,Track Excavators,,EROPS,,,,,,,,,,,Standard,,,,,,None or Unspecified,,,,Steel,24 inch,None or Unspecified,None or Unspecified,None or Unspecified,Double,,,,,
530,1743789,14000,1508522,132,2.0,1000,,,8/17/2002 0:00,PC60-6,PC60,,-6,,Mini,"Hydraulic Excavator, Track - 6.0 to 8.0 Metric Tons",New York,TEX,Track Excavators,,EROPS,,,,,,,,,,,Auxiliary,,,,,,None or Unspecified,,,,Steel,None or Unspecified,None or Unspecified,None or Unspecified,None or Unspecified,Double,,,,,
530,1743820,16000,1430807,132,2.0,1000,,,8/8/1998 0:00,PC60-6,PC60,,-6,,Mini,"Hydraulic Excavator, Track - 6.0 to 8.0 Metric Tons",Pennsylvania,TEX,Track Excavators,,EROPS,,,,,,,,,,,Auxiliary,,,,,,None or Unspecified,,,,Rubber,None or Unspecified,None or Unspecified,None or Unspecified,None or Unspecified,Double,,,,,
530,1743821,14750,1430807,132,2.0,1000,,,7/18/1998 0:00,PC60-6,PC60,,-6,,Mini,"Hydraulic Excavator, Track - 6.0 to 8.0 Metric Tons",New York,TEX,Track Excavators,,EROPS,,,,,,,,,,,Auxiliary,,,,,,None or Unspecified,,,,Rubber,None or Unspecified,None or Unspecified,None or Unspecified,None or Unspecified,Double,,,,,
530,1743862,11500,1233070,132,9.0,1990,,,5/15/2003 0:00,PC60-6,PC60,,-6,,Mini,"Hydraulic Excavator, Track - 6.0 to 8.0 Metric Tons",South Carolina,TEX,Track Excavators,,EROPS,,,,,,,,,,,Auxiliary,,,,,,None or Unspecified,,,,Steel,18 inch,None or Unspecified,None or Unspecified,None or Unspecified,Triple,,,,,
530,1743863,9750,1233070,132,9.0,1990,,,11/21/2002 0:00,PC60-6,PC60,,-6,,Mini,"Hydraulic Excavator, Track - 6.0 to 8.0 Metric Tons",South Carolina,TEX,Track Excavators,,EROPS,,,,,,,,,,,Auxiliary,,,,,,None or Unspecified,,,,Steel,18 inch,None or Unspecified,None or Unspecified,None or Unspecified,Triple,,,,,
530,1743864,9250,1233070,132,9.0,1990,,,2/17/2003 0:00,PC60-6,PC60,,-6,,Mini,"Hydraulic Excavator, Track - 6.0 to 8.0 Metric Tons",Florida,TEX,Track Excavators,,EROPS,,,,,,,,,,,Auxiliary,,,,,,None or Unspecified,,,,Steel,18 inch,None or Unspecified,None or Unspecified,None or Unspecified,Triple,,,,,
530,1743865,12250,1233070,132,9.0,1990,,,8/29/2002 0:00,PC60-6,PC60,,-6,,Mini,"Hydraulic Excavator, Track - 6.0 to 8.0 Metric Tons",South Carolina,TEX,Track Excavators,,EROPS,,,,,,,,,,,Auxiliary,,,,,,None or Unspecified,,,,Steel,18 inch,None or Unspecified,None or Unspecified,None or Unspecified,Triple,,,,,
530,1743913,10000,1345264,132,1.0,1000,,,9/25/1998 0:00,PC60-6,PC60,,-6,,Mini,"Hydraulic Excavator, Track - 6.0 to 8.0 Metric Tons",New Mexico,TEX,Track Excavators,,EROPS,,,,,,,,,,,Standard,,,,,,None or Unspecified,,,,Rubber,None or Unspecified,None or Unspecified,None or Unspecified,None or Unspecified,Double,,,,,
530,1744023,30500,1327794,132,10.0,1000,,,6/26/1997 0:00,PC60-6,PC60,,-6,,Mini,"Hydraulic Excavator, Track - 6.0 to 8.0 Metric Tons",Louisiana,TEX,Track Excavators,,EROPS,,,,,,,,,,,Standard,,,,,,None or Unspecified,,,,Steel,18 inch,None or Unspecified,None or Unspecified,None or Unspecified,Triple,,,,,
530,1744024,26000,1327794,132,11.0,1991,,,5/29/1997 0:00,PC60-6,PC60,,-6,,Mini,"Hydraulic Excavator, Track - 6.0 to 8.0 Metric Tons",Mississippi,TEX,Track Excavators,,EROPS,,,,,,,,,,,Standard,,,,,,None or Unspecified,,,,Steel,18 inch,None or Unspecified,None or Unspecified,None or Unspecified,Triple,,,,,
530,1744083,14500,1515356,132,1.0,1991,,,9/23/1998 0:00,PC60-6,PC60,,-6,,Mini,"Hydraulic Excavator, Track - 6.0 to 8.0 Metric Tons",Texas,TEX,Track Excavators,,EROPS,,,,,,,,,,,Standard,,,,,,None or Unspecified,,,,Steel,None or Unspecified,None or Unspecified,None or Unspecified,None or Unspecified,Double,,,,,
530,1744119,18500,1536854,132,2.0,1992,,,6/21/1997 0:00,PC60-6,PC60,,-6,,Mini,"Hydraulic Excavator, Track - 6.0 to 8.0 Metric Tons",Maine,TEX,Track Excavators,,OROPS,,,,,,,,,,,2 Valve,,,,,,,,,,,None or Unspecified,,,,,,,,,
530,1744142,11500,1452524,132,2.0,1991,,,11/22/2003 0:00,PC60-6,PC60,,-6,,Mini,"Hydraulic Excavator, Track - 6.0 to 8.0 Metric Tons",New Jersey,TEX,Track Excavators,,EROPS,,,,,,,,,,,Standard,,,,,,None or Unspecified,,,,Rubber,None or Unspecified,None or Unspecified,None or Unspecified,None or Unspecified,Double,,,,,
530,1744143,12000,1452524,132,4.0,1000,,,10/30/2003 0:00,PC60-6,PC60,,-6,,Mini,"Hydraulic Excavator, Track - 6.0 to 8.0 Metric Tons",Pennsylvania,TEX,Track Excavators,,EROPS,,,,,,,,,,,Standard,,,,,,None or Unspecified,,,,Rubber,None or Unspecified,None or Unspecified,None or Unspecified,None or Unspecified,Double,,,,,
530,1744152,11000,1087954,132,2.0,1991,,,10/3/1998 0:00,PC60-6,PC60,,-6,,Mini,"Hydraulic Excavator, Track - 6.0 to 8.0 Metric Tons",Pennsylvania,TEX,Track Excavators,,EROPS,,,,,,,,,,,Standard,,,,,,None or Unspecified,,,,Steel,None or Unspecified,"9' 6""",None or Unspecified,None or Unspecified,Double,,,,,
530,1744263,9250,1334403,132,2.0,1991,,,9/19/1998 0:00,PC60-6,PC60,,-6,,Mini,"Hydraulic Excavator, Track - 6.0 to 8.0 Metric Tons",Ohio,TEX,Track Excavators,,EROPS,,,,,,,,,,,Auxiliary,,,,,,None or Unspecified,,,,Steel,None or Unspecified,None or Unspecified,None or Unspecified,None or Unspecified,Double,,,,,
530,1744264,16000,1334403,132,2.0,1991,,,11/14/1998 0:00,PC60-6,PC60,,-6,,Mini,"Hydraulic Excavator, Track - 6.0 to 8.0 Metric Tons",New York,TEX,Track Excavators,,EROPS,,,,,,,,,,,Auxiliary,,,,,,None or Unspecified,,,,Steel,None or Unspecified,None or Unspecified,None or Unspecified,None or Unspecified,Double,,,,,
530,1744326,12650,1400960,132,9.0,1991,,,2/15/2000 0:00,PC60-6,PC60,,-6,,Mini,"Hydraulic Excavator, Track - 6.0 to 8.0 Metric Tons",Florida,TEX,Track Excavators,,EROPS,,,,,,,,,,,Standard,,,,,,None or Unspecified,,,,Rubber,None or Unspecified,None or Unspecified,None or Unspecified,None or Unspecified,Double,,,,,
530,1744385,13000,1554409,132,2.0,1991,,,10/3/1998 0:00,PC60-6,PC60,,-6,,Mini,"Hydraulic Excavator, Track - 6.0 to 8.0 Metric Tons",Pennsylvania,TEX,Track Excavators,,EROPS,,,,,,,,,,,Standard,,,,,,Manual,,,,Steel,None or Unspecified,None or Unspecified,Hydraulic,None or Unspecified,Double,,,,,
530,1744403,9250,1135242,132,2.0,1991,,,9/19/1998 0:00,PC60-6,PC60,,-6,,Mini,"Hydraulic Excavator, Track - 6.0 to 8.0 Metric Tons",Ohio,TEX,Track Excavators,,EROPS,,,,,,,,,,,2 Valve,,,,,,,,,,,None or Unspecified,,,,,,,,,
530,1744460,13500,1151167,132,4.0,1000,,,10/30/2003 0:00,PC60-6,PC60,,-6,,Mini,"Hydraulic Excavator, Track - 6.0 to 8.0 Metric Tons",Pennsylvania,TEX,Track Excavators,,EROPS,,,,,,,,,,,Standard,,,,,,None or Unspecified,,,,Rubber,None or Unspecified,None or Unspecified,None or Unspecified,None or Unspecified,Double,,,,,
530,1744576,12000,1274078,132,1.0,1991,,,3/25/2003 0:00,PC60-6,PC60,,-6,,Mini,"Hydraulic Excavator, Track - 6.0 to 8.0 Metric Tons",Washington,TEX,Track Excavators,,EROPS,,,,,,,,,,,Standard,,,,,,None or Unspecified,,,,Steel,None or Unspecified,None or Unspecified,None or Unspecified,None or Unspecified,Double,,,,,
530,1744609,9500,1430166,132,9.0,1000,,,11/21/2002 0:00,PC60-6,PC60,,-6,,Mini,"Hydraulic Excavator, Track - 6.0 to 8.0 Metric Tons",South Carolina,TEX,Track Excavators,,EROPS,,,,,,,,,,,Standard,,,,,,None or Unspecified,,,,Steel,None or Unspecified,None or Unspecified,None or Unspecified,None or Unspecified,Double,,,,,
530,1744763,24500,1357605,132,2.0,1991,,,11/15/1997 0:00,PC60-6,PC60,,-6,,Mini,"Hydraulic Excavator, Track - 6.0 to 8.0 Metric Tons",Ohio,TEX,Track Excavators,,EROPS,,,,,,,,,,,Standard,,,,,,None or Unspecified,,,,Steel,18 inch,None or Unspecified,None or Unspecified,None or Unspecified,Double,,,,,
530,1744793,14500,1241822,132,1.0,1000,,,9/20/2005 0:00,PC60-6,PC60,,-6,,Mini,"Hydraulic Excavator, Track - 6.0 to 8.0 Metric Tons",Illinois,TEX,Track Excavators,,EROPS,,,,,,,,,,,Standard,,,,,,None or Unspecified,,,,Rubber,None or Unspecified,None or Unspecified,None or Unspecified,None or Unspecified,Double,,,,,
530,1744952,13750,1328240,132,4.0,1991,,,10/3/2002 0:00,PC60-6,PC60,,-6,,Mini,"Hydraulic Excavator, Track - 6.0 to 8.0 Metric Tons",New Hampshire,TEX,Track Excavators,,EROPS,,,,,,,,,,,Standard,,,,,,None or Unspecified,,,,Rubber,None or Unspecified,None or Unspecified,None or Unspecified,None or Unspecified,Double,,,,,
530,1744960,15500,1427556,132,1.0,1000,,,11/17/2005 0:00,PC60-6,PC60,,-6,,Mini,"Hydraulic Excavator, Track - 6.0 to 8.0 Metric Tons",Texas,TEX,Track Excavators,,EROPS,,,,,,,,,,,Standard,,,,,,None or Unspecified,,,,Rubber,None or Unspecified,None or Unspecified,None or Unspecified,None or Unspecified,Double,,,,,
530,1744979,16000,1490364,132,6.0,1991,,,10/20/1998 0:00,PC60-6,PC60,,-6,,Mini,"Hydraulic Excavator, Track - 6.0 to 8.0 Metric Tons",Maine,TEX,Track Excavators,,EROPS,,,,,,,,,,,Standard,,,,,,Manual,,,,Steel,18 inch,None or Unspecified,None or Unspecified,None or Unspecified,Triple,,,,,
530,1744980,14500,1490364,132,15.0,1991,,,6/23/2005 0:00,PC60-6,PC60,,-6,,Mini,"Hydraulic Excavator, Track - 6.0 to 8.0 Metric Tons",Pennsylvania,TEX,Track Excavators,,EROPS,,,,,,,,,,,Standard,,,,,,Manual,,,,Steel,18 inch,None or Unspecified,None or Unspecified,None or Unspecified,Triple,,,,,
530,1744999,17500,1431011,132,2.0,1991,,,3/31/2001 0:00,PC60-6,PC60,,-6,,Mini,"Hydraulic Excavator, Track - 6.0 to 8.0 Metric Tons",New Jersey,TEX,Track Excavators,,EROPS,,,,,,,,,,,Standard,,,,,,None or Unspecified,,,,Steel,24 inch,None or Unspecified,None or Unspecified,None or Unspecified,Triple,,,,,
530,1745008,9500,1391698,132,1.0,1991,,,10/26/1999 0:00,PC60-6,PC60,,-6,,Mini,"Hydraulic Excavator, Track - 6.0 to 8.0 Metric Tons",Idaho,TEX,Track Excavators,,EROPS w AC,,,,,,,,,,,Standard,,,,,,None or Unspecified,,,,Steel,None or Unspecified,None or Unspecified,None or Unspecified,None or Unspecified,Double,,,,,
530,1745074,12500,1197807,132,1.0,1000,,,9/15/2005 0:00,PC60-6,PC60,,-6,,Mini,"Hydraulic Excavator, Track - 6.0 to 8.0 Metric Tons",Ohio,TEX,Track Excavators,,EROPS,,,,,,,,,,,Standard,,,,,,None or Unspecified,,,,Steel,None or Unspecified,None or Unspecified,Manual,None or Unspecified,Double,,,,,
530,1745150,9500,1526372,132,9.0,1000,,,5/17/2001 0:00,PC60-6,PC60,,-6,,Mini,"Hydraulic Excavator, Track - 6.0 to 8.0 Metric Tons",South Carolina,TEX,Track Excavators,,EROPS,,,,,,,,,,,Standard,,,,,,None or Unspecified,,,,Steel,18 inch,None or Unspecified,None or Unspecified,None or Unspecified,Double,,,,,
530,1745152,11000,1418627,132,1.0,1000,,,9/25/1998 0:00,PC60-6,PC60,,-6,,Mini,"Hydraulic Excavator, Track - 6.0 to 8.0 Metric Tons",New Mexico,TEX,Track Excavators,,EROPS,,,,,,,,,,,Standard,,,,,,None or Unspecified,,,,Steel,None or Unspecified,None or Unspecified,None or Unspecified,None or Unspecified,Double,,,,,
530,1745156,15000,1463871,132,28.0,1000,,,12/11/1999 0:00,PC60-6,PC60,,-6,,Mini,"Hydraulic Excavator, Track - 6.0 to 8.0 Metric Tons",Mississippi,TEX,Track Excavators,,EROPS,,,,,,,,,,,Standard,,,,,,None or Unspecified,,,,Steel,None or Unspecified,None or Unspecified,None or Unspecified,None or Unspecified,Double,,,,,
530,1745171,11500,1231217,132,9.0,1000,,,5/15/2003 0:00,PC60-6,PC60,,-6,,Mini,"Hydraulic Excavator, Track - 6.0 to 8.0 Metric Tons",South Carolina,TEX,Track Excavators,,EROPS,,,,,,,,,,,Standard,,,,,,None or Unspecified,,,,Rubber,None or Unspecified,None or Unspecified,None or Unspecified,None or Unspecified,Double,,,,,
530,1745177,16000,1369708,132,2.0,1991,,,8/22/1998 0:00,PC60-6,PC60,,-6,,Mini,"Hydraulic Excavator, Track - 6.0 to 8.0 Metric Tons",New Jersey,TEX,Track Excavators,,EROPS,,,,,,,,,,,Standard,,,,,,None or Unspecified,,,,Steel,None or Unspecified,None or Unspecified,None or Unspecified,None or Unspecified,Double,,,,,
530,1745253,14000,1234638,132,1.0,1000,,,3/21/2007 0:00,PC60-6,PC60,,-6,,Mini,"Hydraulic Excavator, Track - 6.0 to 8.0 Metric Tons",Washington,TEX,Track Excavators,,EROPS,,,,,,,,,,,Standard,,,,,,None or Unspecified,,,,Steel,None or Unspecified,None or Unspecified,None or Unspecified,None or Unspecified,Double,,,,,
530,1745270,16750,1365329,132,9.0,1991,,,2/18/2004 0:00,PC60-6,PC60,,-6,,Mini,"Hydraulic Excavator, Track - 6.0 to 8.0 Metric Tons",Florida,TEX,Track Excavators,,EROPS w AC,,,,,,,,,,,Standard,,,,,,None or Unspecified,,,,Rubber,None or Unspecified,None or Unspecified,None or Unspecified,None or Unspecified,Double,,,,,
530,1745293,16000,1437613,132,1.0,1991,,,2/28/2001 0:00,PC60-6,PC60,,-6,,Mini,"Hydraulic Excavator, Track - 6.0 to 8.0 Metric Tons",Texas,TEX,Track Excavators,,EROPS,,,,,,,,,,,Standard,,,,,,None or Unspecified,,,,Steel,18 inch,None or Unspecified,None or Unspecified,None or Unspecified,Triple,,,,,
530,1745327,11500,1453031,132,1.0,1000,,,6/12/2002 0:00,PC60-6,PC60,,-6,,Mini,"Hydraulic Excavator, Track - 6.0 to 8.0 Metric Tons",Texas,TEX,Track Excavators,,EROPS,,,,,,,,,,,Standard,,,,,,None or Unspecified,,,,Steel,None or Unspecified,None or Unspecified,None or Unspecified,None or Unspecified,Double,,,,,
530,1745385,14750,1272886,132,9.0,1992,,,12/8/1999 0:00,PC60-6,PC60,,-6,,Mini,"Hydraulic Excavator, Track - 6.0 to 8.0 Metric Tons",South Carolina,TEX,Track Excavators,,EROPS,,,,,,,,,,,Standard,,,,,,None or Unspecified,,,,Steel,24 inch,None or Unspecified,None or Unspecified,None or Unspecified,Double,,,,,
530,1745423,8500,1091147,132,2.0,1000,,,9/19/1998 0:00,PC60-6,PC60,,-6,,Mini,"Hydraulic Excavator, Track - 6.0 to 8.0 Metric Tons",Ohio,TEX,Track Excavators,,EROPS,,,,,,,,,,,Standard,,,,,,None or Unspecified,,,,Rubber,None or Unspecified,None or Unspecified,None or Unspecified,None or Unspecified,Double,,,,,
530,1745436,13500,1389004,132,2.0,1000,,,2/4/2002 0:00,PC60-6,PC60,,-6,,Mini,"Hydraulic Excavator, Track - 6.0 to 8.0 Metric Tons",Florida,TEX,Track Excavators,,EROPS,,,,,,,,,,,Standard,,,,,,None or Unspecified,,,,Steel,None or Unspecified,None or Unspecified,None or Unspecified,None or Unspecified,Double,,,,,
530,1745473,26000,1108731,132,25.0,1991,,,7/30/1994 0:00,PC60-6,PC60,,-6,,Mini,"Hydraulic Excavator, Track - 6.0 to 8.0 Metric Tons",California,TEX,Track Excavators,,EROPS,,,,,,,,,,,Standard,,,,,,None or Unspecified,,,,Steel,None or Unspecified,None or Unspecified,None or Unspecified,None or Unspecified,Double,,,,,
530,1745479,21000,1459257,132,1.0,1000,,,10/22/2003 0:00,PC60-6,PC60,,-6,,Mini,"Hydraulic Excavator, Track - 6.0 to 8.0 Metric Tons",Maine,TEX,Track Excavators,,EROPS,,,,,,,,,,,Auxiliary,,,,,,None or Unspecified,,,,Rubber,None or Unspecified,None or Unspecified,None or Unspecified,None or Unspecified,Double,,,,,
530,1745509,13250,1506679,132,9.0,1992,,,12/8/1999 0:00,PC60-6,PC60,,-6,,Mini,"Hydraulic Excavator, Track - 6.0 to 8.0 Metric Tons",South Carolina,TEX,Track Excavators,,EROPS,,,,,,,,,,,Standard,,,,,,None or Unspecified,,,,Rubber,None or Unspecified,None or Unspecified,None or Unspecified,None or Unspecified,Double,,,,,
530,1745510,13600,1506679,132,9.0,1992,,,2/15/2000 0:00,PC60-6,PC60,,-6,,Mini,"Hydraulic Excavator, Track - 6.0 to 8.0 Metric Tons",Florida,TEX,Track Excavators,,EROPS,,,,,,,,,,,Standard,,,,,,None or Unspecified,,,,Rubber,None or Unspecified,None or Unspecified,None or Unspecified,None or Unspecified,Double,,,,,
530,1745517,16500,567022,132,21.0,1000,,,6/11/1998 0:00,PC60-6,PC60,,-6,,Mini,"Hydraulic Excavator, Track - 6.0 to 8.0 Metric Tons",Maine,TEX,Track Excavators,,EROPS,,,,,,,,,,,Standard,,,,,,None or Unspecified,,,,Rubber,None or Unspecified,None or Unspecified,Manual,None or Unspecified,Double,,,,,
530,1745518,22500,567022,132,21.0,1000,,,4/2/1998 0:00,PC60-6,PC60,,-6,,Mini,"Hydraulic Excavator, Track - 6.0 to 8.0 Metric Tons",Maine,TEX,Track Excavators,,EROPS,,,,,,,,,,,Standard,,,,,,None or Unspecified,,,,Rubber,None or Unspecified,None or Unspecified,Manual,None or Unspecified,Double,,,,,
530,1745527,32000,1409059,132,4.0,1992,,,2/9/1995 0:00,PC60-6,PC60,,-6,,Mini,"Hydraulic Excavator, Track - 6.0 to 8.0 Metric Tons",Florida,TEX,Track Excavators,,EROPS w AC,,,,,,,,,,,Standard,,,,,,None or Unspecified,,,,Rubber,None or Unspecified,None or Unspecified,None or Unspecified,None or Unspecified,Double,,,,,
530,1745560,12000,1458011,132,5.0,1992,,,1/28/2003 0:00,PC60-6,PC60,,-6,,Mini,"Hydraulic Excavator, Track - 6.0 to 8.0 Metric Tons",Connecticut,TEX,Track Excavators,,EROPS,,,,,,,,,,,Standard,,,,,,None or Unspecified,,,,Rubber,18 inch,None or Unspecified,None or Unspecified,None or Unspecified,Double,,,,,
530,1745561,14000,1458011,132,2.0,1000,,,6/14/2003 0:00,PC60-6,PC60,,-6,,Mini,"Hydraulic Excavator, Track - 6.0 to 8.0 Metric Tons",Pennsylvania,TEX,Track Excavators,,EROPS,,,,,,,,,,,Standard,,,,,,None or Unspecified,,,,Rubber,18 inch,None or Unspecified,None or Unspecified,None or Unspecified,Double,,,,,
530,1745571,11500,1405668,132,12.0,1000,,,9/26/2001 0:00,PC60-6,PC60,,-6,,Mini,"Hydraulic Excavator, Track - 6.0 to 8.0 Metric Tons",South Carolina,TEX,Track Excavators,,EROPS,,,,,,,,,,,Standard,,,,,,None or Unspecified,,,,Steel,None or Unspecified,None or Unspecified,None or Unspecified,None or Unspecified,Double,,,,,
530,1745594,12000,1405762,132,1.0,1995,,,3/28/2002 0:00,PC60-6,PC60,,-6,,Mini,"Hydraulic Excavator, Track - 6.0 to 8.0 Metric Tons",Florida,TEX,Track Excavators,,EROPS,,,,,,,,,,,Auxiliary,,,,,,None or Unspecified,,,,Steel,18 inch,None or Unspecified,None or Unspecified,None or Unspecified,Triple,,,,,
530,1745595,8750,1405762,132,9.0,1000,,,2/18/2002 0:00,PC60-6,PC60,,-6,,Mini,"Hydraulic Excavator, Track - 6.0 to 8.0 Metric Tons",Florida,TEX,Track Excavators,,EROPS,,,,,,,,,,,Auxiliary,,,,,,None or Unspecified,,,,Steel,18 inch,None or Unspecified,None or Unspecified,None or Unspecified,Triple,,,,,
530,1745602,13250,1291653,132,11.0,1992,,,5/28/1998 0:00,PC60-6,PC60,,-6,,Mini,"Hydraulic Excavator, Track - 6.0 to 8.0 Metric Tons",Mississippi,TEX,Track Excavators,,EROPS w AC,,,,,,,,,,,Standard,,,,,,None or Unspecified,,,,Steel,None or Unspecified,None or Unspecified,None or Unspecified,None or Unspecified,Double,,,,,
530,1745603,16000,1291653,132,11.0,1992,,,9/17/1997 0:00,PC60-6,PC60,,-6,,Mini,"Hydraulic Excavator, Track - 6.0 to 8.0 Metric Tons",Mississippi,TEX,Track Excavators,,EROPS w AC,,,,,,,,,,,Standard,,,,,,None or Unspecified,,,,Steel,None or Unspecified,None or Unspecified,None or Unspecified,None or Unspecified,Double,,,,,
530,1745616,16500,1176802,132,2.0,1000,,,6/6/1998 0:00,PC60-6,PC60,,-6,,Mini,"Hydraulic Excavator, Track - 6.0 to 8.0 Metric Tons",Connecticut,TEX,Track Excavators,,EROPS,,,,,,,,,,,Standard,,,,,,None or Unspecified,,,,Steel,18 inch,None or Unspecified,None or Unspecified,None or Unspecified,Double,,,,,
530,1745622,16500,1490816,132,1.0,1000,,,2/24/2006 0:00,PC60-6,PC60,,-6,,Mini,"Hydraulic Excavator, Track - 6.0 to 8.0 Metric Tons",Florida,TEX,Track Excavators,,EROPS,,,,,,,,,,,Standard,,,,,,None or Unspecified,,,,Steel,20 inch,None or Unspecified,None or Unspecified,None or Unspecified,Double,,,,,
530,1745623,18500,1490816,132,5.0,1992,,,4/6/2006 0:00,PC60-6,PC60,,-6,,Mini,"Hydraulic Excavator, Track - 6.0 to 8.0 Metric Tons",Connecticut,TEX,Track Excavators,,EROPS,,,,,,,,,,,Standard,,,,,,None or Unspecified,,,,Steel,20 inch,None or Unspecified,None or Unspecified,None or Unspecified,Double,,,,,
530,1745624,47500,1352268,132,2.0,1993,,,2/2/2003 0:00,PC60-6,PC60,,-6,,Mini,"Hydraulic Excavator, Track - 6.0 to 8.0 Metric Tons",Florida,TEX,Track Excavators,,EROPS w AC,,,,,,,,,,,Standard,,,,,,None or Unspecified,,,,Rubber,20 inch,None or Unspecified,None or Unspecified,None or Unspecified,Double,,,,,
530,1745641,9500,1358158,132,1.0,1992,,,9/25/2001 0:00,PC60-6,PC60,,-6,,Mini,"Hydraulic Excavator, Track - 6.0 to 8.0 Metric Tons",Washington,TEX,Track Excavators,,EROPS,,,,,,,,,,,Standard,,,,,,None or Unspecified,,,,Steel,None or Unspecified,None or Unspecified,None or Unspecified,None or Unspecified,Double,,,,,
530,1745648,11000,1142138,132,1.0,1000,,,6/1/2005 0:00,PC60-6,PC60,,-6,,Mini,"Hydraulic Excavator, Track - 6.0 to 8.0 Metric Tons",Illinois,TEX,Track Excavators,,EROPS,,,,,,,,,,,Standard,,,,,,None or Unspecified,,,,Steel,None or Unspecified,None or Unspecified,None or Unspecified,None or Unspecified,Double,,,,,
530,1745663,14000,1050051,132,9.0,1000,,,2/16/2005 0:00,PC60-6,PC60,,-6,,Mini,"Hydraulic Excavator, Track - 6.0 to 8.0 Metric Tons",Florida,TEX,Track Excavators,,EROPS,,,,,,,,,,,Standard,,,,,,None or Unspecified,,,,Rubber,18 inch,None or Unspecified,None or Unspecified,None or Unspecified,Double,,,,,
530,1745664,15000,1050051,132,12.0,1000,,,3/30/2005 0:00,PC60-6,PC60,,-6,,Mini,"Hydraulic Excavator, Track - 6.0 to 8.0 Metric Tons",South Carolina,TEX,Track Excavators,,EROPS,,,,,,,,,,,Standard,,,,,,None or Unspecified,,,,Rubber,18 inch,None or Unspecified,None or Unspecified,None or Unspecified,Double,,,,,
530,1745668,13000,1342282,132,2.0,1000,,,3/22/2007 0:00,PC60-6,PC60,,-6,,Mini,"Hydraulic Excavator, Track - 6.0 to 8.0 Metric Tons",New Jersey,TEX,Track Excavators,,EROPS,,,,,,,,,,,Auxiliary,,,,,,None or Unspecified,,,,Steel,None or Unspecified,None or Unspecified,Manual,None or Unspecified,Double,,,,,
530,1745669,19000,1342282,132,2.0,1000,,,2/4/1998 0:00,PC60-6,PC60,,-6,,Mini,"Hydraulic Excavator, Track - 6.0 to 8.0 Metric Tons",Florida,TEX,Track Excavators,,EROPS,,,,,,,,,,,Auxiliary,,,,,,None or Unspecified,,,,Steel,None or Unspecified,None or Unspecified,Manual,None or Unspecified,Double,,,,,
530,1745876,17250,1331539,132,5.0,1991,,,7/17/1999 0:00,PC60-6,PC60,,-6,,Mini,"Hydraulic Excavator, Track - 6.0 to 8.0 Metric Tons",Maine,TEX,Track Excavators,,EROPS,,,,,,,,,,,Standard,,,,,,None or Unspecified,,,,Steel,None or Unspecified,None or Unspecified,None or Unspecified,None or Unspecified,Double,,,,,
530,1746038,14000,1485857,132,9.0,1993,,,2/15/2000 0:00,PC60-6,PC60,,-6,,Mini,"Hydraulic Excavator, Track - 6.0 to 8.0 Metric Tons",Florida,TEX,Track Excavators,,EROPS,,,,,,,,,,,2 Valve,,,,,,,,,,,30 inch,,,,,,,,,
530,1746040,14250,1485857,132,9.0,1993,,,12/8/1999 0:00,PC60-6,PC60,,-6,,Mini,"Hydraulic Excavator, Track - 6.0 to 8.0 Metric Tons",South Carolina,TEX,Track Excavators,,EROPS,,,,,,,,,,,2 Valve,,,,,,,,,,,30 inch,,,,,,,,,
530,1746235,11250,1469115,132,4.0,1992,,,2/11/2002 0:00,PC60-6,PC60,,-6,,Mini,"Hydraulic Excavator, Track - 6.0 to 8.0 Metric Tons",Florida,TEX,Track Excavators,,EROPS,,,,,,,,,,,Standard,,,,,,None or Unspecified,,,,Steel,None or Unspecified,None or Unspecified,None or Unspecified,None or Unspecified,Double,,,,,
530,1746306,14000,1230898,132,5.0,1000,,,7/10/2003 0:00,PC60-6,PC60,,-6,,Mini,"Hydraulic Excavator, Track - 6.0 to 8.0 Metric Tons",Connecticut,TEX,Track Excavators,,EROPS,,,,,,,,,,,Standard,,,,,,None or Unspecified,,,,Rubber,None or Unspecified,None or Unspecified,None or Unspecified,None or Unspecified,Double,,,,,
530,1746309,13800,1191893,132,9.0,1993,,,2/21/2001 0:00,PC60-6,PC60,,-6,,Mini,"Hydraulic Excavator, Track - 6.0 to 8.0 Metric Tons",Florida,TEX,Track Excavators,,EROPS,,,,,,,,,,,Standard,,,,,,None or Unspecified,,,,Steel,None or Unspecified,None or Unspecified,None or Unspecified,None or Unspecified,Triple,,,,,
530,1746337,16250,1077605,132,9.0,1000,,,2/9/1999 0:00,PC60-6,PC60,,-6,,Mini,"Hydraulic Excavator, Track - 6.0 to 8.0 Metric Tons",Florida,TEX,Track Excavators,,EROPS,,,,,,,,,,,Standard,,,,,,None or Unspecified,,,,Steel,18 inch,None or Unspecified,None or Unspecified,None or Unspecified,Double,,,,,
530,1746378,10500,1121207,132,1.0,1993,,,9/29/2004 0:00,PC60-6,PC60,,-6,,Mini,"Hydraulic Excavator, Track - 6.0 to 8.0 Metric Tons",Washington,TEX,Track Excavators,,EROPS,,,,,,,,,,,Standard,,,,,,None or Unspecified,,,,Steel,None or Unspecified,None or Unspecified,None or Unspecified,None or Unspecified,Double,,,,,
530,1746409,10500,1210714,132,1.0,1993,,,12/4/2002 0:00,PC60-6,PC60,,-6,,Mini,"Hydraulic Excavator, Track - 6.0 to 8.0 Metric Tons",North Carolina,TEX,Track Excavators,,EROPS,,,,,,,,,,,Standard,,,,,,None or Unspecified,,,,Steel,None or Unspecified,None or Unspecified,None or Unspecified,None or Unspecified,Double,,,,,
530,1746454,18500,1303130,132,2.0,1000,,,1/30/2005 0:00,PC60-6,PC60,,-6,,Mini,"Hydraulic Excavator, Track - 6.0 to 8.0 Metric Tons",Florida,TEX,Track Excavators,,EROPS w AC,,,,,,,,,,,Standard,,,,,,None or Unspecified,,,,Rubber,None or Unspecified,None or Unspecified,None or Unspecified,None or Unspecified,Double,,,,,
530,1746455,18500,1303130,132,2.0,1000,,,2/4/2005 0:00,PC60-6,PC60,,-6,,Mini,"Hydraulic Excavator, Track - 6.0 to 8.0 Metric Tons",Florida,TEX,Track Excavators,,EROPS w AC,,,,,,,,,,,Standard,,,,,,None or Unspecified,,,,Rubber,None or Unspecified,None or Unspecified,None or Unspecified,None or Unspecified,Double,,,,,
530,1746477,14500,1330856,132,1.0,1000,,,6/1/2005 0:00,PC60-6,PC60,,-6,,Mini,"Hydraulic Excavator, Track - 6.0 to 8.0 Metric Tons",Illinois,TEX,Track Excavators,,EROPS,,,,,,,,,,,Standard,,,,,,None or Unspecified,,,,Rubber,None or Unspecified,None or Unspecified,None or Unspecified,None or Unspecified,Triple,,,,,
530,1746609,15000,1463496,132,2.0,1993,,,2/8/2001 0:00,PC60-6,PC60,,-6,,Mini,"Hydraulic Excavator, Track - 6.0 to 8.0 Metric Tons",Florida,TEX,Track Excavators,,EROPS,,,,,,,,,,,Standard,,,,,,None or Unspecified,,,,Rubber,None or Unspecified,None or Unspecified,None or Unspecified,None or Unspecified,Double,,,,,
530,1746633,18750,1507300,132,5.0,1993,,,4/21/2001 0:00,PC60-6,PC60,,-6,,Mini,"Hydraulic Excavator, Track - 6.0 to 8.0 Metric Tons",Connecticut,TEX,Track Excavators,,EROPS,,,,,,,,,,,Standard,,,,,,None or Unspecified,,,,Steel,None or Unspecified,None or Unspecified,None or Unspecified,None or Unspecified,Double,,,,,
530,1746674,9500,1360305,132,1.0,1993,,,5/15/2001 0:00,PC60-6,PC60,,-6,,Mini,"Hydraulic Excavator, Track - 6.0 to 8.0 Metric Tons",Texas,TEX,Track Excavators,,EROPS,,,,,,,,,,,Standard,,,,,,None or Unspecified,,,,Steel,None or Unspecified,None or Unspecified,None or Unspecified,None or Unspecified,Double,,,,,
530,1746689,12250,1423953,132,5.0,1993,,,1/28/2003 0:00,PC60-6,PC60,,-6,,Mini,"Hydraulic Excavator, Track - 6.0 to 8.0 Metric Tons",Connecticut,TEX,Track Excavators,,EROPS,,,,,,,,,,,Standard,,,,,,None or Unspecified,,,,Steel,18 inch,None or Unspecified,None or Unspecified,None or Unspecified,Double,,,,,
530,1746702,16500,1296095,132,1.0,1000,,,10/5/2005 0:00,PC60-6,PC60,,-6,,Mini,"Hydraulic Excavator, Track - 6.0 to 8.0 Metric Tons",Maryland,TEX,Track Excavators,,EROPS w AC,,,,,,,,,,,Standard,,,,,,None or Unspecified,,,,Rubber,None or Unspecified,None or Unspecified,None or Unspecified,None or Unspecified,Double,,,,,
530,1746741,11500,1431231,132,2.0,1995,,,9/29/2001 0:00,PC60-6,PC60,,-6,,Mini,"Hydraulic Excavator, Track - 6.0 to 8.0 Metric Tons",California,TEX,Track Excavators,,EROPS,,,,,,,,,,,Standard,,,,,,None or Unspecified,,,,Rubber,None or Unspecified,None or Unspecified,None or Unspecified,None or Unspecified,Double,,,,,
530,1748722,19200,1378336,132,99.0,1993,,,10/9/1997 0:00,PC60-6,PC60,,-6,,Mini,"Hydraulic Excavator, Track - 6.0 to 8.0 Metric Tons",Louisiana,TEX,Track Excavators,,OROPS,,,,,,,,,,,2 Valve,,,,,,,,,,,None or Unspecified,,,,,,,,,
530,1749331,20000,1074867,132,20.0,1000,,,4/15/1998 0:00,PC60-6,PC60,,-6,,Mini,"Hydraulic Excavator, Track - 6.0 to 8.0 Metric Tons",Arkansas,TEX,Track Excavators,,EROPS,,,,,,,,,,,Standard,,,,,,None or Unspecified,,,,Steel,14 inch,None or Unspecified,None or Unspecified,None or Unspecified,Triple,,,,,
530,1749368,20000,1496154,132,20.0,1000,,,4/15/1998 0:00,PC60-6,PC60,,-6,,Mini,"Hydraulic Excavator, Track - 6.0 to 8.0 Metric Tons",Arkansas,TEX,Track Excavators,,EROPS,,,,,,,,,,,Standard,,,,,,None or Unspecified,,,,Steel,24 inch,None or Unspecified,None or Unspecified,None or Unspecified,Triple,,,,,
530,1749650,26000,1220650,132,4.0,1993,,,2/6/1997 0:00,PC60-6,PC60,,-6,,Mini,"Hydraulic Excavator, Track - 6.0 to 8.0 Metric Tons",Florida,TEX,Track Excavators,,OROPS,,,,,,,,,,,2 Valve,,,,,,None or Unspecified,,,,,18 inch,,,,,,,,,
530,1749652,25000,1220650,132,23.0,1993,2786.0,Medium,7/13/1996 0:00,PC60-6,PC60,,-6,,Mini,"Hydraulic Excavator, Track - 6.0 to 8.0 Metric Tons",Florida,TEX,Track Excavators,,OROPS,,,,,,,,,,,2 Valve,,,,,,None or Unspecified,,,,,18 inch,,,,,,,,,
530,1750303,25500,1315930,132,2.0,1000,,,11/13/1998 0:00,PC60-6,PC60,,-6,,Mini,"Hydraulic Excavator, Track - 6.0 to 8.0 Metric Tons",New York,TEX,Track Excavators,,EROPS,,,,,,,,,,,Standard,,,,,,None or Unspecified,,,,Steel,None or Unspecified,None or Unspecified,None or Unspecified,None or Unspecified,Double,,,,,
530,1750313,9250,1171113,132,9.0,1000,,,11/16/2000 0:00,PC60-6,PC60,,-6,,Mini,"Hydraulic Excavator, Track - 6.0 to 8.0 Metric Tons",South Carolina,TEX,Track Excavators,,EROPS w AC,,,,,,,,,,,Auxiliary,,,,,,None or Unspecified,,,,Steel,16 inch,None or Unspecified,None or Unspecified,None or Unspecified,Triple,,,,,
530,1750314,8500,1171113,132,9.0,1000,,,6/21/2002 0:00,PC60-6,PC60,,-6,,Mini,"Hydraulic Excavator, Track - 6.0 to 8.0 Metric Tons",Tennessee,TEX,Track Excavators,,EROPS w AC,,,,,,,,,,,Auxiliary,,,,,,None or Unspecified,,,,Steel,16 inch,None or Unspecified,None or Unspecified,None or Unspecified,Triple,,,,,
530,1750574,14000,1096693,132,17.0,1996,,,12/7/2004 0:00,PC60-6,PC60,,-6,,Mini,"Hydraulic Excavator, Track - 6.0 to 8.0 Metric Tons",Oregon,TEX,Track Excavators,,EROPS,,,,,,,,,,,Standard,,,,,,None or Unspecified,,,,Steel,None or Unspecified,None or Unspecified,None or Unspecified,None or Unspecified,Double,,,,,
530,1750956,22500,1318922,132,4.0,1000,,,2/12/2007 0:00,PC60-6,PC60,,-6,,Mini,"Hydraulic Excavator, Track - 6.0 to 8.0 Metric Tons",Florida,TEX,Track Excavators,,EROPS w AC,,,,,,,,,,,Standard,,,,,,None or Unspecified,,,,Steel,None or Unspecified,None or Unspecified,None or Unspecified,None or Unspecified,Double,,,,,
530,1750957,22500,1318922,132,4.0,1000,,,2/15/2007 0:00,PC60-6,PC60,,-6,,Mini,"Hydraulic Excavator, Track - 6.0 to 8.0 Metric Tons",Florida,TEX,Track Excavators,,EROPS w AC,,,,,,,,,,,Standard,,,,,,None or Unspecified,,,,Steel,None or Unspecified,None or Unspecified,None or Unspecified,None or Unspecified,Double,,,,,
530,2403455,15000,651667,136,8.0,1000,0.0,,9/12/2007 0:00,PC60-6,PC60,,-6,,Mini,"Hydraulic Excavator, Track - 6.0 to 8.0 Metric Tons",Mississippi,TEX,Track Excavators,,EROPS,,,,,,,,,,,Standard,,,,,,None or Unspecified,,,,Steel,None or Unspecified,None or Unspecified,None or Unspecified,None or Unspecified,Double,,,,,
530,2404063,9500,288182,136,13.0,1000,5522.0,Low,6/20/2009 0:00,PC60-6,PC60,,-6,,Mini,"Hydraulic Excavator, Track - 6.0 to 8.0 Metric Tons",Tennessee,TEX,Track Excavators,,EROPS,,,,,,,,,,,Standard,,,,,,None or Unspecified,,,,Steel,None or Unspecified,None or Unspecified,Manual,None or Unspecified,Double,,,,,
530,2404655,12000,1163355,136,1.0,1991,0.0,,9/11/2007 0:00,PC60-6,PC60,,-6,,Mini,"Hydraulic Excavator, Track - 6.0 to 8.0 Metric Tons",Washington,TEX,Track Excavators,,EROPS,,,,,,,,,,,Standard,,,,,,Manual,,,,Rubber,None or Unspecified,None or Unspecified,Hydraulic,None or Unspecified,Double,,,,,
530,2405229,11000,1114613,136,1.0,1000,0.0,,5/13/2009 0:00,PC60-6,PC60,,-6,,Mini,"Hydraulic Excavator, Track - 6.0 to 8.0 Metric Tons",Illinois,TEX,Track Excavators,,EROPS,,,,,,,,,,,Standard,,,,,,None or Unspecified,,,,Steel,None or Unspecified,None or Unspecified,None or Unspecified,None or Unspecified,Double,,,,,
