ModelID,SalesID,SalePrice,MachineID,datasource,auctioneerID,YearMade,MachineHoursCurrentMeter,UsageBand,saledate,fiModelDesc,fiBaseModel,fiSecondaryDesc,fiModelSeries,fiModelDescriptor,ProductSize,fiProductClassDesc,state,ProductGroup,ProductGroupDesc,Drive_System,Enclosure,Forks,Pad_Type,Ride_Control,Stick,Transmission,Turbocharged,Blade_Extension,Blade_Width,Enclosure_Type,Engine_Horsepower,Hydraulics,Pushblock,Ripper,Scarifier,Tip_Control,Tire_Size,Coupler,Coupler_System,Grouser_Tracks,Hydraulics_Flow,Track_Type,Undercarriage_Pad_Width,Stick_Length,Thumb,Pattern_Changer,Grouser_Type,Backhoe_Mounting,Blade_Type,Travel_Controls,Differential_Type,Steering_Controls
5305,1726321,44000,1460047,132,14.0,1988,,,9/22/1995 0:00,D83P,D83,P,,,Large,"Track Type Tractor, Dozer - 190.0 to 260.0 Horsepower",Indiana,TTT,Track Type Tractors,,EROPS,,,,,Standard,,,,,,2 Valve,,None or Unspecified,,,,,,,,,,,,,,None or Unspecified,Straight,None or Unspecified,,
5305,1727501,45000,519418,132,23.0,1990,,,9/17/1994 0:00,D83P,D83,P,,,Large,"Track Type Tractor, Dozer - 190.0 to 260.0 Horsepower",New Jersey,TTT,Track Type Tractors,,EROPS w AC,,,,,,,,,,,Auxiliary,,,,,,,,,,,,,,,,,Straight,2 Pedal,,
5305,1727505,35000,519418,132,18.0,1988,,,10/23/1997 0:00,D83P,D83,P,,,Large,"Track Type Tractor, Dozer - 190.0 to 260.0 Horsepower",New Jersey,TTT,Track Type Tractors,,EROPS w AC,,,,,,,,,,,Auxiliary,,,,,,,,,,,,,,,,,Straight,2 Pedal,,
5305,1727612,19000,1477779,132,1.0,1988,,,4/5/2007 0:00,D83P,D83,P,,,Large,"Track Type Tractor, Dozer - 190.0 to 260.0 Horsepower",Maryland,TTT,Track Type Tractors,,EROPS w AC,,,,,Standard,,,,,,2 Valve,,None or Unspecified,,,,,,,,,,,,,,None or Unspecified,PAT,None or Unspecified,,
5305,1727913,51000,1383269,132,2.0,1988,,,11/5/1994 0:00,D83P,D83,P,,,Large,"Track Type Tractor, Dozer - 190.0 to 260.0 Horsepower",Wisconsin,TTT,Track Type Tractors,,EROPS,,,,,Powershift,,,,,,2 Valve,,None or Unspecified,,,,,,,,,,,,,,None or Unspecified,PAT,Differential Steer,,
5305,1727915,38000,1383269,132,7.0,1988,,,3/7/1997 0:00,D83P,D83,P,,,Large,"Track Type Tractor, Dozer - 190.0 to 260.0 Horsepower",Alabama,TTT,Track Type Tractors,,EROPS,,,,,Powershift,,,,,,2 Valve,,None or Unspecified,,,,,,,,,,,,,,None or Unspecified,PAT,Differential Steer,,
5305,1728007,52000,1258331,132,6.0,1000,,,12/12/1994 0:00,D83P,D83,P,,,Large,"Track Type Tractor, Dozer - 190.0 to 260.0 Horsepower",Kentucky,TTT,Track Type Tractors,,EROPS,,,,,Standard,,,,,,2 Valve,,None or Unspecified,,,,,,,,,,,,,,None or Unspecified,PAT,None or Unspecified,,
5305,1728229,48500,1413642,132,2.0,1987,,,2/8/1995 0:00,D83P,D83,P,,,Large,"Track Type Tractor, Dozer - 190.0 to 260.0 Horsepower",Florida,TTT,Track Type Tractors,,,,,,,,,,,,,,,,,,,,,,,,,,,,,,,,,
5305,2396694,19000,1460047,136,14.0,1988,0.0,,4/4/2007 0:00,D83P,D83,P,,,Large,"Track Type Tractor, Dozer - 190.0 to 260.0 Horsepower",Maryland,TTT,Track Type Tractors,,EROPS,,,,,Standard,,,,,,2 Valve,,None or Unspecified,,,,,,,,,,,,,,None or Unspecified,Straight,None or Unspecified,,
