ModelID,SalesID,SalePrice,MachineID,datasource,auctioneerID,YearMade,MachineHoursCurrentMeter,UsageBand,saledate,fiModelDesc,fiBaseModel,fiSecondaryDesc,fiModelSeries,fiModelDescriptor,ProductSize,fiProductClassDesc,state,ProductGroup,ProductGroupDesc,Drive_System,Enclosure,Forks,Pad_Type,Ride_Control,Stick,Transmission,Turbocharged,Blade_Extension,Blade_Width,Enclosure_Type,Engine_Horsepower,Hydraulics,Pushblock,Ripper,Scarifier,Tip_Control,Tire_Size,Coupler,Coupler_System,Grouser_Tracks,Hydraulics_Flow,Track_Type,Undercarriage_Pad_Width,Stick_Length,Thumb,Pattern_Changer,Grouser_Type,Backhoe_Mounting,Blade_Type,Travel_Controls,Differential_Type,Steering_Controls
532,1140914,23000,1036904,121,3.0,2002,1723.0,Low,10/20/2010 0:00,PC60-7,PC60,,-7,,Large / Medium,"Hydraulic Excavator, Track - 50.0 to 66.0 Metric Tons",Illinois,TEX,Track Excavators,,EROPS,,,,,,,,,,,Auxiliary,,,,,,Hydraulic,,,,Steel,None or Unspecified,None or Unspecified,None or Unspecified,None or Unspecified,Double,,,,,
532,1144564,17000,1041891,121,3.0,1995,5001.0,Medium,3/23/2006 0:00,PC60-7,PC60,,-7,,Large / Medium,"Hydraulic Excavator, Track - 50.0 to 66.0 Metric Tons",Alabama,TEX,Track Excavators,,EROPS,,,,,,,,,,,Standard,,,,,,None or Unspecified,,,,Steel,18 inch,None or Unspecified,None or Unspecified,None or Unspecified,Double,,,,,
532,1146802,24500,1039193,121,3.0,1999,3280.0,Medium,12/15/2005 0:00,PC60-7,PC60,,-7,,Large / Medium,"Hydraulic Excavator, Track - 50.0 to 66.0 Metric Tons",Texas,TEX,Track Excavators,,EROPS,,,,,,,,,,,Standard,,,,,,None or Unspecified,,,,Steel,None or Unspecified,None or Unspecified,None or Unspecified,None or Unspecified,Double,,,,,
532,1155394,27000,1030377,121,3.0,2001,4405.0,Medium,5/26/2011 0:00,PC60-7,PC60,,-7,,Large / Medium,"Hydraulic Excavator, Track - 50.0 to 66.0 Metric Tons",Alabama,TEX,Track Excavators,,EROPS,,,,,,,,,,,Standard,,,,,,None or Unspecified,,,,Steel,None or Unspecified,None or Unspecified,None or Unspecified,None or Unspecified,Double,,,,,
532,1163858,19500,1064252,121,3.0,1999,3664.0,Medium,12/7/2006 0:00,PC60-7,PC60,,-7,,Large / Medium,"Hydraulic Excavator, Track - 50.0 to 66.0 Metric Tons",Oklahoma,TEX,Track Excavators,,EROPS,,,,,,,,,,,Standard,,,,,,None or Unspecified,,,,Steel,None or Unspecified,None or Unspecified,Manual,None or Unspecified,Double,,,,,
532,1170690,23000,1037030,121,3.0,1999,5590.0,Medium,5/18/2006 0:00,PC60-7,PC60,,-7,,Large / Medium,"Hydraulic Excavator, Track - 50.0 to 66.0 Metric Tons",Colorado,TEX,Track Excavators,,EROPS,,,,,,,,,,,Auxiliary,,,,,,None or Unspecified,,,,Rubber,None or Unspecified,None or Unspecified,None or Unspecified,None or Unspecified,Double,,,,,
532,1206977,24000,1064704,121,3.0,1999,4796.0,Medium,10/28/2010 0:00,PC60-7,PC60,,-7,,Large / Medium,"Hydraulic Excavator, Track - 50.0 to 66.0 Metric Tons",New Hampshire,TEX,Track Excavators,,EROPS,,,,,,,,,,,Standard,,,,,,Manual,,,,Steel,None or Unspecified,None or Unspecified,None or Unspecified,None or Unspecified,Double,,,,,
532,1220123,21000,1004268,121,3.0,2001,2687.0,Low,11/3/2011 0:00,PC60-7,PC60,,-7,,Large / Medium,"Hydraulic Excavator, Track - 50.0 to 66.0 Metric Tons",New York,TEX,Track Excavators,,EROPS,,,,,,,,,,,Auxiliary,,,,,,None or Unspecified,,,,Steel,None or Unspecified,None or Unspecified,None or Unspecified,None or Unspecified,Double,,,,,
532,1726783,30000,1182589,132,1.0,2000,,,10/22/2003 0:00,PC60-7,PC60,,-7,,Large / Medium,"Hydraulic Excavator, Track - 50.0 to 66.0 Metric Tons",Maine,TEX,Track Excavators,,EROPS,,,,,,,,,,,Standard,,,,,,None or Unspecified,,,,Steel,None or Unspecified,None or Unspecified,None or Unspecified,None or Unspecified,Double,,,,,
532,1737602,12500,1434047,132,2.0,1000,,,11/15/2001 0:00,PC60-7,PC60,,-7,,Large / Medium,"Hydraulic Excavator, Track - 50.0 to 66.0 Metric Tons",Ohio,TEX,Track Excavators,,EROPS,,,,,,,,,,,Standard,,,,,,None or Unspecified,,,,Rubber,None or Unspecified,None or Unspecified,None or Unspecified,None or Unspecified,Double,,,,,
532,1746632,26000,1314476,132,10.0,1997,,,12/2/1998 0:00,PC60-7,PC60,,-7,,Large / Medium,"Hydraulic Excavator, Track - 50.0 to 66.0 Metric Tons",Louisiana,TEX,Track Excavators,,EROPS w AC,,,,,,,,,,,Standard,,,,,,None or Unspecified,,,,Steel,24 inch,None or Unspecified,None or Unspecified,None or Unspecified,Triple,,,,,
532,1748148,22500,1161502,132,4.0,1996,,,2/9/2000 0:00,PC60-7,PC60,,-7,,Large / Medium,"Hydraulic Excavator, Track - 50.0 to 66.0 Metric Tons",Florida,TEX,Track Excavators,,OROPS,,,,,,,,,,,3 Valve,,,,,,,,,,,None or Unspecified,,,,,,,,,
532,1748150,15000,1161502,132,2.0,1996,,,2/7/2000 0:00,PC60-7,PC60,,-7,,Large / Medium,"Hydraulic Excavator, Track - 50.0 to 66.0 Metric Tons",Florida,TEX,Track Excavators,,OROPS,,,,,,,,,,,3 Valve,,,,,,,,,,,None or Unspecified,,,,,,,,,
532,1748228,25000,1546072,132,6.0,1993,,,10/20/1998 0:00,PC60-7,PC60,,-7,,Large / Medium,"Hydraulic Excavator, Track - 50.0 to 66.0 Metric Tons",Maine,TEX,Track Excavators,,EROPS,,,,,,,,,,,Standard,,,,,,None or Unspecified,,,,Steel,18 inch,None or Unspecified,None or Unspecified,None or Unspecified,Double,,,,,
532,1748316,11000,1464805,132,9.0,1993,,,5/15/2003 0:00,PC60-7,PC60,,-7,,Large / Medium,"Hydraulic Excavator, Track - 50.0 to 66.0 Metric Tons",South Carolina,TEX,Track Excavators,,EROPS,,,,,,,,,,,Standard,,,,,,None or Unspecified,,,,Rubber,18 inch,None or Unspecified,None or Unspecified,None or Unspecified,Triple,,,,,
532,1748318,14000,1464805,132,2.0,1000,,,10/4/2003 0:00,PC60-7,PC60,,-7,,Large / Medium,"Hydraulic Excavator, Track - 50.0 to 66.0 Metric Tons",Pennsylvania,TEX,Track Excavators,,EROPS,,,,,,,,,,,Standard,,,,,,None or Unspecified,,,,Rubber,18 inch,None or Unspecified,None or Unspecified,None or Unspecified,Triple,,,,,
532,1748319,9500,1464805,132,9.0,1993,,,2/17/2003 0:00,PC60-7,PC60,,-7,,Large / Medium,"Hydraulic Excavator, Track - 50.0 to 66.0 Metric Tons",Florida,TEX,Track Excavators,,EROPS,,,,,,,,,,,Standard,,,,,,None or Unspecified,,,,Rubber,18 inch,None or Unspecified,None or Unspecified,None or Unspecified,Triple,,,,,
532,1748320,15500,1464805,132,12.0,1995,,,10/20/2004 0:00,PC60-7,PC60,,-7,,Large / Medium,"Hydraulic Excavator, Track - 50.0 to 66.0 Metric Tons",South Carolina,TEX,Track Excavators,,EROPS,,,,,,,,,,,Standard,,,,,,None or Unspecified,,,,Rubber,18 inch,None or Unspecified,None or Unspecified,None or Unspecified,Triple,,,,,
532,1748409,22500,1216763,132,2.0,1994,,,4/22/2005 0:00,PC60-7,PC60,,-7,,Large / Medium,"Hydraulic Excavator, Track - 50.0 to 66.0 Metric Tons",Ohio,TEX,Track Excavators,,EROPS,,,,,,,,,,,Standard,,,,,,None or Unspecified,,,,Rubber,None or Unspecified,None or Unspecified,None or Unspecified,None or Unspecified,Double,,,,,
532,1748437,23000,1420130,132,2.0,1000,,,2/1/2004 0:00,PC60-7,PC60,,-7,,Large / Medium,"Hydraulic Excavator, Track - 50.0 to 66.0 Metric Tons",Florida,TEX,Track Excavators,,EROPS,,,,,,,,,,,Standard,,,,,,None or Unspecified,,,,Steel,18 inch,None or Unspecified,None or Unspecified,None or Unspecified,Double,,,,,
532,1748522,17000,1350470,132,2.0,1995,,,6/27/1998 0:00,PC60-7,PC60,,-7,,Large / Medium,"Hydraulic Excavator, Track - 50.0 to 66.0 Metric Tons",New York,TEX,Track Excavators,,EROPS w AC,,,,,,,,,,,Standard,,,,,,None or Unspecified,,,,Steel,None or Unspecified,None or Unspecified,None or Unspecified,None or Unspecified,Double,,,,,
532,1748570,25000,1217679,132,2.0,1000,,,12/3/2005 0:00,PC60-7,PC60,,-7,,Large / Medium,"Hydraulic Excavator, Track - 50.0 to 66.0 Metric Tons",New Jersey,TEX,Track Excavators,,EROPS w AC,,,,,,,,,,,Standard,,,,,,None or Unspecified,,,,Rubber,None or Unspecified,None or Unspecified,None or Unspecified,None or Unspecified,Double,,,,,
532,1748582,21500,1529962,132,2.0,1000,,,10/10/1998 0:00,PC60-7,PC60,,-7,,Large / Medium,"Hydraulic Excavator, Track - 50.0 to 66.0 Metric Tons",Florida,TEX,Track Excavators,,EROPS w AC,,,,,,,,,,,Standard,,,,,,None or Unspecified,,,,Steel,None or Unspecified,None or Unspecified,None or Unspecified,None or Unspecified,Double,,,,,
532,1748586,21000,1356577,132,2.0,1996,,,2/8/2001 0:00,PC60-7,PC60,,-7,,Large / Medium,"Hydraulic Excavator, Track - 50.0 to 66.0 Metric Tons",Florida,TEX,Track Excavators,,OROPS,,,,,,,,,,,2 Valve,,,,,,,,,,,None or Unspecified,,,,,,,,,
532,1748612,17000,1535029,132,1.0,1993,,,3/19/2003 0:00,PC60-7,PC60,,-7,,Large / Medium,"Hydraulic Excavator, Track - 50.0 to 66.0 Metric Tons",Texas,TEX,Track Excavators,,EROPS,,,,,,,,,,,2 Valve,,,,,,,,,,,None or Unspecified,,,,,,,,,
532,1748756,17000,1341226,132,2.0,1000,,,11/8/2003 0:00,PC60-7,PC60,,-7,,Large / Medium,"Hydraulic Excavator, Track - 50.0 to 66.0 Metric Tons",Wisconsin,TEX,Track Excavators,,OROPS,,,,,,,,,,,2 Valve,,,,,,,,,,,None or Unspecified,,,,,,,,,
532,1748790,25000,1203663,132,2.0,1000,,,3/25/2004 0:00,PC60-7,PC60,,-7,,Large / Medium,"Hydraulic Excavator, Track - 50.0 to 66.0 Metric Tons",New Jersey,TEX,Track Excavators,,EROPS,,,,,,,,,,,Standard,,,,,,None or Unspecified,,,,Rubber,None or Unspecified,None or Unspecified,None or Unspecified,None or Unspecified,Double,,,,,
532,1748807,21000,1111697,132,2.0,1000,,,6/14/2003 0:00,PC60-7,PC60,,-7,,Large / Medium,"Hydraulic Excavator, Track - 50.0 to 66.0 Metric Tons",Pennsylvania,TEX,Track Excavators,,EROPS,,,,,,,,,,,Standard,,,,,,None or Unspecified,,,,Rubber,None or Unspecified,None or Unspecified,None or Unspecified,None or Unspecified,Double,,,,,
532,1748838,19500,1420871,132,2.0,1000,,,10/26/2002 0:00,PC60-7,PC60,,-7,,Large / Medium,"Hydraulic Excavator, Track - 50.0 to 66.0 Metric Tons",Pennsylvania,TEX,Track Excavators,,EROPS w AC,,,,,,,,,,,Standard,,,,,,None or Unspecified,,,,Rubber,20 inch,None or Unspecified,Manual,None or Unspecified,Triple,,,,,
532,1748871,19000,1199060,132,4.0,1000,,,2/10/2003 0:00,PC60-7,PC60,,-7,,Large / Medium,"Hydraulic Excavator, Track - 50.0 to 66.0 Metric Tons",Florida,TEX,Track Excavators,,EROPS w AC,,,,,,,,,,,Standard,,,,,,None or Unspecified,,,,Steel,20 inch,None or Unspecified,None or Unspecified,None or Unspecified,Double,,,,,
532,1748940,24500,1334282,132,10.0,1000,,,5/20/1999 0:00,PC60-7,PC60,,-7,,Large / Medium,"Hydraulic Excavator, Track - 50.0 to 66.0 Metric Tons",Louisiana,TEX,Track Excavators,,EROPS w AC,,,,,,,,,,,Standard,,,,,,None or Unspecified,,,,Steel,None or Unspecified,None or Unspecified,None or Unspecified,None or Unspecified,Double,,,,,
532,1748976,23000,1107764,132,1.0,1993,,,9/28/2000 0:00,PC60-7,PC60,,-7,,Large / Medium,"Hydraulic Excavator, Track - 50.0 to 66.0 Metric Tons",Maryland,TEX,Track Excavators,,EROPS,,,,,,,,,,,2 Valve,,,,,,,,,,,None or Unspecified,,,,,,,,,
532,1749030,16500,1287666,132,2.0,1995,,,1/15/2000 0:00,PC60-7,PC60,,-7,,Large / Medium,"Hydraulic Excavator, Track - 50.0 to 66.0 Metric Tons",New York,TEX,Track Excavators,,EROPS,,,,,,,,,,,Standard,,,,,,None or Unspecified,,,,Rubber,None or Unspecified,None or Unspecified,None or Unspecified,None or Unspecified,Double,,,,,
532,1749031,18000,1287666,132,2.0,1000,,,3/30/2000 0:00,PC60-7,PC60,,-7,,Large / Medium,"Hydraulic Excavator, Track - 50.0 to 66.0 Metric Tons",New Jersey,TEX,Track Excavators,,EROPS,,,,,,,,,,,Standard,,,,,,None or Unspecified,,,,Rubber,None or Unspecified,None or Unspecified,None or Unspecified,None or Unspecified,Double,,,,,
532,1749033,18500,1432714,132,2.0,1000,,,12/18/1999 0:00,PC60-7,PC60,,-7,,Large / Medium,"Hydraulic Excavator, Track - 50.0 to 66.0 Metric Tons",Tennessee,TEX,Track Excavators,,EROPS,,,,,,,,,,,Standard,,,,,,None or Unspecified,,,,Rubber,None or Unspecified,None or Unspecified,None or Unspecified,None or Unspecified,Double,,,,,
532,1749034,20000,1432714,132,2.0,1995,,,2/7/2000 0:00,PC60-7,PC60,,-7,,Large / Medium,"Hydraulic Excavator, Track - 50.0 to 66.0 Metric Tons",Florida,TEX,Track Excavators,,EROPS,,,,,,,,,,,Standard,,,,,,None or Unspecified,,,,Rubber,None or Unspecified,None or Unspecified,None or Unspecified,None or Unspecified,Double,,,,,
532,1749085,19500,1284991,132,2.0,1994,,,11/6/1999 0:00,PC60-7,PC60,,-7,,Large / Medium,"Hydraulic Excavator, Track - 50.0 to 66.0 Metric Tons",New York,TEX,Track Excavators,,EROPS w AC,,,,,,,,,,,Standard,,,,,,None or Unspecified,,,,Steel,24 inch,None or Unspecified,None or Unspecified,None or Unspecified,Double,,,,,
532,1749086,17000,1284991,132,1.0,1000,,,10/10/2006 0:00,PC60-7,PC60,,-7,,Large / Medium,"Hydraulic Excavator, Track - 50.0 to 66.0 Metric Tons",Florida,TEX,Track Excavators,,EROPS w AC,,,,,,,,,,,Standard,,,,,,None or Unspecified,,,,Steel,24 inch,None or Unspecified,None or Unspecified,None or Unspecified,Double,,,,,
532,1749125,22500,1447957,132,4.0,1000,,,2/11/2008 0:00,PC60-7,PC60,,-7,,Large / Medium,"Hydraulic Excavator, Track - 50.0 to 66.0 Metric Tons",Florida,TEX,Track Excavators,,EROPS,,,,,,,,,,,Auxiliary,,,,,,None or Unspecified,,,,Steel,None or Unspecified,None or Unspecified,None or Unspecified,None or Unspecified,Double,,,,,
532,1749138,17500,1312417,132,1.0,1994,,,10/17/2000 0:00,PC60-7,PC60,,-7,,Large / Medium,"Hydraulic Excavator, Track - 50.0 to 66.0 Metric Tons",Florida,TEX,Track Excavators,,EROPS,,,,,,,,,,,Standard,,,,,,None or Unspecified,,,,Steel,24 inch,None or Unspecified,None or Unspecified,None or Unspecified,Double,,,,,
532,1749141,21500,1449935,132,9.0,1000,,,11/16/2000 0:00,PC60-7,PC60,,-7,,Large / Medium,"Hydraulic Excavator, Track - 50.0 to 66.0 Metric Tons",South Carolina,TEX,Track Excavators,,EROPS,,,,,,,,,,,Standard,,,,,,None or Unspecified,,,,Steel,18 inch,None or Unspecified,None or Unspecified,None or Unspecified,Triple,,,,,
532,1749182,26000,1382430,132,10.0,1996,,,6/25/1998 0:00,PC60-7,PC60,,-7,,Large / Medium,"Hydraulic Excavator, Track - 50.0 to 66.0 Metric Tons",Louisiana,TEX,Track Excavators,,EROPS,,,,,,,,,,,Standard,,,,,,None or Unspecified,,,,Steel,24 inch,None or Unspecified,None or Unspecified,None or Unspecified,Double,,,,,
532,1749183,27500,1382430,132,2.0,1994,,,3/26/1998 0:00,PC60-7,PC60,,-7,,Large / Medium,"Hydraulic Excavator, Track - 50.0 to 66.0 Metric Tons",New Jersey,TEX,Track Excavators,,EROPS,,,,,,,,,,,Standard,,,,,,None or Unspecified,,,,Steel,24 inch,None or Unspecified,None or Unspecified,None or Unspecified,Double,,,,,
532,1749198,15000,1146699,132,4.0,1994,,,10/10/2002 0:00,PC60-7,PC60,,-7,,Large / Medium,"Hydraulic Excavator, Track - 50.0 to 66.0 Metric Tons",Ohio,TEX,Track Excavators,,EROPS,,,,,,,,,,,Standard,,,,,,None or Unspecified,,,,Rubber,None or Unspecified,None or Unspecified,Manual,None or Unspecified,Double,,,,,
532,1749199,15000,1146699,132,2.0,1996,,,10/26/2002 0:00,PC60-7,PC60,,-7,,Large / Medium,"Hydraulic Excavator, Track - 50.0 to 66.0 Metric Tons",Pennsylvania,TEX,Track Excavators,,EROPS,,,,,,,,,,,Standard,,,,,,None or Unspecified,,,,Rubber,None or Unspecified,None or Unspecified,Manual,None or Unspecified,Double,,,,,
532,1749200,17000,1146699,132,9.0,1994,,,5/16/2002 0:00,PC60-7,PC60,,-7,,Large / Medium,"Hydraulic Excavator, Track - 50.0 to 66.0 Metric Tons",South Carolina,TEX,Track Excavators,,EROPS,,,,,,,,,,,Standard,,,,,,None or Unspecified,,,,Rubber,None or Unspecified,None or Unspecified,Manual,None or Unspecified,Double,,,,,
532,1749259,26000,1525490,132,11.0,1997,,,9/1/1999 0:00,PC60-7,PC60,,-7,,Large / Medium,"Hydraulic Excavator, Track - 50.0 to 66.0 Metric Tons",Mississippi,TEX,Track Excavators,,EROPS,,,,,,,,,,,Standard,,,,,,None or Unspecified,,,,Steel,18 inch,None or Unspecified,None or Unspecified,None or Unspecified,Double,,,,,
532,1749267,28500,1257289,132,10.0,1994,,,11/19/1997 0:00,PC60-7,PC60,,-7,,Large / Medium,"Hydraulic Excavator, Track - 50.0 to 66.0 Metric Tons",Louisiana,TEX,Track Excavators,,EROPS,,,,,,,,,,,Standard,,,,,,None or Unspecified,,,,Steel,None or Unspecified,None or Unspecified,None or Unspecified,None or Unspecified,Double,,,,,
532,1749272,17700,1219013,132,11.0,1995,,,12/1/1999 0:00,PC60-7,PC60,,-7,,Large / Medium,"Hydraulic Excavator, Track - 50.0 to 66.0 Metric Tons",Mississippi,TEX,Track Excavators,,EROPS w AC,,,,,,,,,,,Standard,,,,,,None or Unspecified,,,,Steel,18 inch,None or Unspecified,None or Unspecified,None or Unspecified,Triple,,,,,
532,1749279,23000,1273766,132,11.0,1995,,,5/26/1999 0:00,PC60-7,PC60,,-7,,Large / Medium,"Hydraulic Excavator, Track - 50.0 to 66.0 Metric Tons",Mississippi,TEX,Track Excavators,,EROPS,,,,,,,,,,,Standard,,,,,,None or Unspecified,,,,Steel,18 inch,None or Unspecified,None or Unspecified,None or Unspecified,Triple,,,,,
532,1749280,18500,1341515,132,1.0,1994,,,11/15/2000 0:00,PC60-7,PC60,,-7,,Large / Medium,"Hydraulic Excavator, Track - 50.0 to 66.0 Metric Tons",Texas,TEX,Track Excavators,,EROPS,,,,,,,,,,,Standard,,,,,,None or Unspecified,,,,Steel,None or Unspecified,None or Unspecified,None or Unspecified,None or Unspecified,Double,,,,,
532,1749292,21000,1468028,132,2.0,1994,,,7/19/2003 0:00,PC60-7,PC60,,-7,,Large / Medium,"Hydraulic Excavator, Track - 50.0 to 66.0 Metric Tons",Connecticut,TEX,Track Excavators,,EROPS,,,,,,,,,,,Standard,,,,,,None or Unspecified,,,,Steel,None or Unspecified,None or Unspecified,None or Unspecified,None or Unspecified,Double,,,,,
532,1749310,22500,1439678,132,2.0,1994,,,11/16/2002 0:00,PC60-7,PC60,,-7,,Large / Medium,"Hydraulic Excavator, Track - 50.0 to 66.0 Metric Tons",Connecticut,TEX,Track Excavators,,EROPS,,,,,,,,,,,Standard,,,,,,None or Unspecified,,,,Steel,None or Unspecified,None or Unspecified,None or Unspecified,None or Unspecified,Double,,,,,
532,1749313,19000,1115063,132,5.0,1997,,,3/25/2003 0:00,PC60-7,PC60,,-7,,Large / Medium,"Hydraulic Excavator, Track - 50.0 to 66.0 Metric Tons",Connecticut,TEX,Track Excavators,,EROPS,,,,,,,,,,,Standard,,,,,,None or Unspecified,,,,Steel,20 inch,None or Unspecified,None or Unspecified,None or Unspecified,Triple,,,,,
532,1749356,22000,1151318,132,2.0,1994,1733.0,Low,11/20/1999 0:00,PC60-7,PC60,,-7,,Large / Medium,"Hydraulic Excavator, Track - 50.0 to 66.0 Metric Tons",Ohio,TEX,Track Excavators,,EROPS,,,,,,,,,,,Standard,,,,,,None or Unspecified,,,,Steel,None or Unspecified,None or Unspecified,None or Unspecified,None or Unspecified,Double,,,,,
532,1749358,13500,1309123,132,4.0,1000,,,2/10/2003 0:00,PC60-7,PC60,,-7,,Large / Medium,"Hydraulic Excavator, Track - 50.0 to 66.0 Metric Tons",Florida,TEX,Track Excavators,,EROPS,,,,,,,,,,,Standard,,,,,,None or Unspecified,,,,Rubber,None or Unspecified,None or Unspecified,None or Unspecified,None or Unspecified,Double,,,,,
532,1749369,19000,1236057,132,99.0,1996,,,4/27/2000 0:00,PC60-7,PC60,,-7,,Large / Medium,"Hydraulic Excavator, Track - 50.0 to 66.0 Metric Tons",South Carolina,TEX,Track Excavators,,EROPS,,,,,,,,,,,Standard,,,,,,None or Unspecified,,,,Steel,24 inch,None or Unspecified,None or Unspecified,None or Unspecified,Double,,,,,
532,1749391,27500,1373167,132,9.0,1993,,,2/11/1998 0:00,PC60-7,PC60,,-7,,Large / Medium,"Hydraulic Excavator, Track - 50.0 to 66.0 Metric Tons",Florida,TEX,Track Excavators,,EROPS,,,,,,,,,,,Standard,,,,,,None or Unspecified,,,,Steel,24 inch,None or Unspecified,None or Unspecified,None or Unspecified,Triple,,,,,
532,1749395,17250,1508539,132,5.0,1000,,,9/10/2005 0:00,PC60-7,PC60,,-7,,Large / Medium,"Hydraulic Excavator, Track - 50.0 to 66.0 Metric Tons",New Jersey,TEX,Track Excavators,,EROPS w AC,,,,,,,,,,,Auxiliary,,,,,,None or Unspecified,,,,Rubber,26 inch,None or Unspecified,None or Unspecified,None or Unspecified,Double,,,,,
532,1749396,20000,1508539,132,2.0,1998,,,3/27/2003 0:00,PC60-7,PC60,,-7,,Large / Medium,"Hydraulic Excavator, Track - 50.0 to 66.0 Metric Tons",New Jersey,TEX,Track Excavators,,EROPS w AC,,,,,,,,,,,Auxiliary,,,,,,None or Unspecified,,,,Rubber,26 inch,None or Unspecified,None or Unspecified,None or Unspecified,Double,,,,,
532,1749400,23000,1457400,132,9.0,1000,,,2/9/1999 0:00,PC60-7,PC60,,-7,,Large / Medium,"Hydraulic Excavator, Track - 50.0 to 66.0 Metric Tons",Florida,TEX,Track Excavators,,EROPS,,,,,,,,,,,Standard,,,,,,None or Unspecified,,,,Steel,None or Unspecified,None or Unspecified,None or Unspecified,None or Unspecified,Double,,,,,
532,1749408,18000,1118086,132,2.0,1995,,,9/25/1999 0:00,PC60-7,PC60,,-7,,Large / Medium,"Hydraulic Excavator, Track - 50.0 to 66.0 Metric Tons",Connecticut,TEX,Track Excavators,,EROPS w AC,,,,,,,,,,,Standard,,,,,,None or Unspecified,,,,Steel,None or Unspecified,None or Unspecified,None or Unspecified,None or Unspecified,Double,,,,,
532,1749422,27500,689806,132,9.0,1984,,,2/11/1998 0:00,PC60-7,PC60,,-7,,Large / Medium,"Hydraulic Excavator, Track - 50.0 to 66.0 Metric Tons",Florida,TEX,Track Excavators,,OROPS,,,,,,,,,,,2 Valve,,,,,,,,,,,24 inch,,,,,,,,,
532,1749444,21500,791025,132,2.0,1000,,,12/10/1999 0:00,PC60-7,PC60,,-7,,Large / Medium,"Hydraulic Excavator, Track - 50.0 to 66.0 Metric Tons",Georgia,TEX,Track Excavators,,OROPS,,,,,,,,,,,2 Valve,,,,,,,,,,,None or Unspecified,,,,,,,,,
532,1749470,18500,1433407,132,2.0,1994,,,3/27/2003 0:00,PC60-7,PC60,,-7,,Large / Medium,"Hydraulic Excavator, Track - 50.0 to 66.0 Metric Tons",New Jersey,TEX,Track Excavators,,EROPS,,,,,,,,,,,Standard,,,,,,None or Unspecified,,,,Rubber,None or Unspecified,None or Unspecified,None or Unspecified,None or Unspecified,Double,,,,,
532,1749481,19000,1130568,132,2.0,1994,,,10/5/2002 0:00,PC60-7,PC60,,-7,,Large / Medium,"Hydraulic Excavator, Track - 50.0 to 66.0 Metric Tons",Pennsylvania,TEX,Track Excavators,,EROPS,,,,,,,,,,,Standard,,,,,,None or Unspecified,,,,Steel,None or Unspecified,None or Unspecified,None or Unspecified,None or Unspecified,Double,,,,,
532,1749483,22500,1168967,132,1.0,1993,,,6/22/1999 0:00,PC60-7,PC60,,-7,,Large / Medium,"Hydraulic Excavator, Track - 50.0 to 66.0 Metric Tons",Washington,TEX,Track Excavators,,OROPS,,,,,,,,,,,2 Valve,,,,,,,,,,,None or Unspecified,,,,,,,,,
532,1749493,20000,1333420,132,1.0,1994,,,10/22/2003 0:00,PC60-7,PC60,,-7,,Large / Medium,"Hydraulic Excavator, Track - 50.0 to 66.0 Metric Tons",Maine,TEX,Track Excavators,,EROPS,,,,,,,,,,,Standard,,,,,,None or Unspecified,,,,Steel,None or Unspecified,None or Unspecified,None or Unspecified,None or Unspecified,Double,,,,,
532,1749506,21000,1106957,132,2.0,1998,,,10/27/2001 0:00,PC60-7,PC60,,-7,,Large / Medium,"Hydraulic Excavator, Track - 50.0 to 66.0 Metric Tons",Florida,TEX,Track Excavators,,EROPS w AC,,,,,,,,,,,Standard,,,,,,None or Unspecified,,,,Rubber,None or Unspecified,None or Unspecified,None or Unspecified,None or Unspecified,Double,,,,,
532,1749507,13000,1106957,132,10.0,1998,,,10/24/2001 0:00,PC60-7,PC60,,-7,,Large / Medium,"Hydraulic Excavator, Track - 50.0 to 66.0 Metric Tons",Pennsylvania,TEX,Track Excavators,,EROPS w AC,,,,,,,,,,,Standard,,,,,,None or Unspecified,,,,Rubber,None or Unspecified,None or Unspecified,None or Unspecified,None or Unspecified,Double,,,,,
532,1749572,17000,1381928,132,1.0,1994,,,10/17/2000 0:00,PC60-7,PC60,,-7,,Large / Medium,"Hydraulic Excavator, Track - 50.0 to 66.0 Metric Tons",Florida,TEX,Track Excavators,,EROPS,,,,,,,,,,,Standard,,,,,,None or Unspecified,,,,Rubber,None or Unspecified,None or Unspecified,None or Unspecified,None or Unspecified,Double,,,,,
532,1749588,23000,1470306,132,5.0,1995,,,7/19/2002 0:00,PC60-7,PC60,,-7,,Large / Medium,"Hydraulic Excavator, Track - 50.0 to 66.0 Metric Tons",Maine,TEX,Track Excavators,,EROPS,,,,,,,,,,,Standard,,,,,,None or Unspecified,,,,Steel,18 inch,None or Unspecified,None or Unspecified,None or Unspecified,Double,,,,,
532,1749635,29000,1532993,132,10.0,1000,,,5/6/1998 0:00,PC60-7,PC60,,-7,,Large / Medium,"Hydraulic Excavator, Track - 50.0 to 66.0 Metric Tons",South Carolina,TEX,Track Excavators,,OROPS,,,,,,,,,,,2 Valve,,,,,,,,,,,None or Unspecified,,,,,,,,,
532,1749640,21000,1474272,132,2.0,1994,,,3/14/2002 0:00,PC60-7,PC60,,-7,,Large / Medium,"Hydraulic Excavator, Track - 50.0 to 66.0 Metric Tons",New Jersey,TEX,Track Excavators,,EROPS w AC,,,,,,,,,,,Standard,,,,,,None or Unspecified,,,,Steel,18 inch,None or Unspecified,None or Unspecified,None or Unspecified,Double,,,,,
532,1749649,19500,1411587,132,1.0,1994,,,9/23/2003 0:00,PC60-7,PC60,,-7,,Large / Medium,"Hydraulic Excavator, Track - 50.0 to 66.0 Metric Tons",Washington,TEX,Track Excavators,,EROPS,,,,,,,,,,,Standard,,,,,,None or Unspecified,,,,Rubber,None or Unspecified,None or Unspecified,None or Unspecified,None or Unspecified,Double,,,,,
532,1749717,16000,1074707,132,1.0,1994,,,6/17/2003 0:00,PC60-7,PC60,,-7,,Large / Medium,"Hydraulic Excavator, Track - 50.0 to 66.0 Metric Tons",Washington,TEX,Track Excavators,,EROPS,,,,,,,,,,,Standard,,,,,,None or Unspecified,,,,Steel,None or Unspecified,None or Unspecified,Manual,None or Unspecified,Double,,,,,
532,1749718,19000,1074707,132,1.0,1000,,,3/30/2005 0:00,PC60-7,PC60,,-7,,Large / Medium,"Hydraulic Excavator, Track - 50.0 to 66.0 Metric Tons",Washington,TEX,Track Excavators,,EROPS,,,,,,,,,,,Standard,,,,,,None or Unspecified,,,,Steel,None or Unspecified,None or Unspecified,Manual,None or Unspecified,Double,,,,,
532,1749720,16750,1277304,132,20.0,1000,2260.0,Low,11/4/1998 0:00,PC60-7,PC60,,-7,,Large / Medium,"Hydraulic Excavator, Track - 50.0 to 66.0 Metric Tons",Arkansas,TEX,Track Excavators,,EROPS,,,,,,,,,,,Standard,,,,,,None or Unspecified,,,,Rubber,None or Unspecified,None or Unspecified,None or Unspecified,None or Unspecified,Double,,,,,
532,1749738,20000,1170665,132,4.0,1000,,,2/16/2006 0:00,PC60-7,PC60,,-7,,Large / Medium,"Hydraulic Excavator, Track - 50.0 to 66.0 Metric Tons",Florida,TEX,Track Excavators,,EROPS w AC,,,,,,,,,,,Auxiliary,,,,,,None or Unspecified,,,,Steel,None or Unspecified,None or Unspecified,None or Unspecified,None or Unspecified,Double,,,,,
532,1749739,20000,1170665,132,4.0,1000,,,2/13/2006 0:00,PC60-7,PC60,,-7,,Large / Medium,"Hydraulic Excavator, Track - 50.0 to 66.0 Metric Tons",Florida,TEX,Track Excavators,,EROPS w AC,,,,,,,,,,,Auxiliary,,,,,,None or Unspecified,,,,Steel,None or Unspecified,None or Unspecified,None or Unspecified,None or Unspecified,Double,,,,,
532,1749764,22500,1383944,132,4.0,1995,,,2/7/2005 0:00,PC60-7,PC60,,-7,,Large / Medium,"Hydraulic Excavator, Track - 50.0 to 66.0 Metric Tons",Florida,TEX,Track Excavators,,EROPS w AC,,,,,,,,,,,Standard,,,,,,None or Unspecified,,,,Steel,18 inch,None or Unspecified,None or Unspecified,None or Unspecified,Double,,,,,
532,1749765,22500,1383944,132,4.0,1995,,,2/10/2005 0:00,PC60-7,PC60,,-7,,Large / Medium,"Hydraulic Excavator, Track - 50.0 to 66.0 Metric Tons",Florida,TEX,Track Excavators,,EROPS w AC,,,,,,,,,,,Standard,,,,,,None or Unspecified,,,,Steel,18 inch,None or Unspecified,None or Unspecified,None or Unspecified,Double,,,,,
532,1749767,17500,1281288,132,2.0,1994,,,7/10/1999 0:00,PC60-7,PC60,,-7,,Large / Medium,"Hydraulic Excavator, Track - 50.0 to 66.0 Metric Tons",New Hampshire,TEX,Track Excavators,,EROPS,,,,,,,,,,,Standard,,,,,,None or Unspecified,,,,Steel,24 inch,None or Unspecified,None or Unspecified,None or Unspecified,Double,,,,,
532,1749832,25000,1370384,132,2.0,1994,,,7/31/1999 0:00,PC60-7,PC60,,-7,,Large / Medium,"Hydraulic Excavator, Track - 50.0 to 66.0 Metric Tons",Ohio,TEX,Track Excavators,,EROPS w AC,,,,,,,,,,,Standard,,,,,,None or Unspecified,,,,Rubber,None or Unspecified,None or Unspecified,Manual,None or Unspecified,Double,,,,,
532,1749835,22000,1301396,132,1.0,1996,,,12/18/2000 0:00,PC60-7,PC60,,-7,,Large / Medium,"Hydraulic Excavator, Track - 50.0 to 66.0 Metric Tons",Maryland,TEX,Track Excavators,,EROPS,,,,,,,,,,,Standard,,,,,,None or Unspecified,,,,Rubber,None or Unspecified,None or Unspecified,None or Unspecified,None or Unspecified,Double,,,,,
532,1749840,20000,1263581,132,1.0,1994,,,11/18/1999 0:00,PC60-7,PC60,,-7,,Large / Medium,"Hydraulic Excavator, Track - 50.0 to 66.0 Metric Tons",Texas,TEX,Track Excavators,,EROPS w AC,,,,,,,,,,,Auxiliary,,,,,,None or Unspecified,,,,Steel,None or Unspecified,None or Unspecified,Manual,None or Unspecified,Double,,,,,
532,1749841,10000,1263581,132,1.0,1000,,,9/27/2006 0:00,PC60-7,PC60,,-7,,Large / Medium,"Hydraulic Excavator, Track - 50.0 to 66.0 Metric Tons",Texas,TEX,Track Excavators,,EROPS w AC,,,,,,,,,,,Auxiliary,,,,,,None or Unspecified,,,,Steel,None or Unspecified,None or Unspecified,Manual,None or Unspecified,Double,,,,,
532,1749843,24000,1248029,132,2.0,1994,,,11/21/1998 0:00,PC60-7,PC60,,-7,,Large / Medium,"Hydraulic Excavator, Track - 50.0 to 66.0 Metric Tons",Ohio,TEX,Track Excavators,,EROPS,,,,,,,,,,,Standard,,,,,,None or Unspecified,,,,Rubber,None or Unspecified,None or Unspecified,None or Unspecified,None or Unspecified,Double,,,,,
532,1749844,17000,1248029,132,8.0,1000,,,3/23/2005 0:00,PC60-7,PC60,,-7,,Large / Medium,"Hydraulic Excavator, Track - 50.0 to 66.0 Metric Tons",Mississippi,TEX,Track Excavators,,EROPS,,,,,,,,,,,Standard,,,,,,None or Unspecified,,,,Rubber,None or Unspecified,None or Unspecified,None or Unspecified,None or Unspecified,Double,,,,,
532,1749893,22500,1345311,132,2.0,1994,,,6/15/2002 0:00,PC60-7,PC60,,-7,,Large / Medium,"Hydraulic Excavator, Track - 50.0 to 66.0 Metric Tons",New Hampshire,TEX,Track Excavators,,EROPS,,,,,,,,,,,Standard,,,,,,None or Unspecified,,,,Rubber,None or Unspecified,None or Unspecified,None or Unspecified,None or Unspecified,Double,,,,,
532,1749908,17500,1547761,132,2.0,1997,,,2/8/2001 0:00,PC60-7,PC60,,-7,,Large / Medium,"Hydraulic Excavator, Track - 50.0 to 66.0 Metric Tons",Florida,TEX,Track Excavators,,EROPS,,,,,,,,,,,Standard,,,,,,None or Unspecified,,,,Steel,None or Unspecified,None or Unspecified,None or Unspecified,None or Unspecified,Triple,,,,,
532,1749910,19000,1547761,132,10.0,1997,,,5/18/2000 0:00,PC60-7,PC60,,-7,,Large / Medium,"Hydraulic Excavator, Track - 50.0 to 66.0 Metric Tons",Louisiana,TEX,Track Excavators,,EROPS,,,,,,,,,,,Standard,,,,,,None or Unspecified,,,,Steel,None or Unspecified,None or Unspecified,None or Unspecified,None or Unspecified,Triple,,,,,
532,1750053,20000,1531448,132,2.0,1994,,,9/6/2003 0:00,PC60-7,PC60,,-7,,Large / Medium,"Hydraulic Excavator, Track - 50.0 to 66.0 Metric Tons",New Hampshire,TEX,Track Excavators,,EROPS,,,,,,,,,,,Standard,,,,,,None or Unspecified,,,,Rubber,None or Unspecified,None or Unspecified,None or Unspecified,None or Unspecified,Double,,,,,
532,1750063,22000,1355661,132,8.0,1000,,,3/21/2007 0:00,PC60-7,PC60,,-7,,Large / Medium,"Hydraulic Excavator, Track - 50.0 to 66.0 Metric Tons",Mississippi,TEX,Track Excavators,,EROPS,,,,,,,,,,,Standard,,,,,,None or Unspecified,,,,Steel,None or Unspecified,None or Unspecified,None or Unspecified,None or Unspecified,Double,,,,,
532,1750070,30000,1236053,132,10.0,1000,,,8/26/1998 0:00,PC60-7,PC60,,-7,,Large / Medium,"Hydraulic Excavator, Track - 50.0 to 66.0 Metric Tons",Louisiana,TEX,Track Excavators,,EROPS,,,,,,,,,,,Standard,,,,,,None or Unspecified,,,,Rubber,None or Unspecified,None or Unspecified,None or Unspecified,None or Unspecified,Double,,,,,
532,1750071,27500,1236053,132,9.0,1000,,,2/11/1998 0:00,PC60-7,PC60,,-7,,Large / Medium,"Hydraulic Excavator, Track - 50.0 to 66.0 Metric Tons",Florida,TEX,Track Excavators,,EROPS,,,,,,,,,,,Standard,,,,,,None or Unspecified,,,,Rubber,None or Unspecified,None or Unspecified,None or Unspecified,None or Unspecified,Double,,,,,
532,1750073,18000,1299903,132,1.0,1994,,,10/17/2000 0:00,PC60-7,PC60,,-7,,Large / Medium,"Hydraulic Excavator, Track - 50.0 to 66.0 Metric Tons",Florida,TEX,Track Excavators,,EROPS,,,,,,,,,,,Standard,,,,,,None or Unspecified,,,,Steel,None or Unspecified,None or Unspecified,None or Unspecified,None or Unspecified,Double,,,,,
532,1750082,15250,1302198,132,9.0,1994,,,2/17/2003 0:00,PC60-7,PC60,,-7,,Large / Medium,"Hydraulic Excavator, Track - 50.0 to 66.0 Metric Tons",Florida,TEX,Track Excavators,,EROPS,,,,,,,,,,,Auxiliary,,,,,,None or Unspecified,,,,Steel,None or Unspecified,None or Unspecified,Manual,None or Unspecified,Double,,,,,
532,1750084,21000,1375741,132,4.0,1000,,,2/9/2000 0:00,PC60-7,PC60,,-7,,Large / Medium,"Hydraulic Excavator, Track - 50.0 to 66.0 Metric Tons",Florida,TEX,Track Excavators,,EROPS,,,,,,,,,,,Standard,,,,,,None or Unspecified,,,,Steel,None or Unspecified,None or Unspecified,None or Unspecified,None or Unspecified,Double,,,,,
532,1750091,16500,1328310,132,2.0,1000,,,9/14/2002 0:00,PC60-7,PC60,,-7,,Large / Medium,"Hydraulic Excavator, Track - 50.0 to 66.0 Metric Tons",New Jersey,TEX,Track Excavators,,EROPS,,,,,,,,,,,Standard,,,,,,None or Unspecified,,,,Steel,None or Unspecified,None or Unspecified,None or Unspecified,None or Unspecified,Double,,,,,
532,1750139,16500,1104964,132,1.0,1994,,,12/17/2002 0:00,PC60-7,PC60,,-7,,Large / Medium,"Hydraulic Excavator, Track - 50.0 to 66.0 Metric Tons",Maryland,TEX,Track Excavators,,EROPS,,,,,,,,,,,Auxiliary,,,,,,Manual,,,,Steel,None or Unspecified,None or Unspecified,None or Unspecified,None or Unspecified,Double,,,,,
532,1750152,16000,1527535,132,4.0,1000,,,2/10/2003 0:00,PC60-7,PC60,,-7,,Large / Medium,"Hydraulic Excavator, Track - 50.0 to 66.0 Metric Tons",Florida,TEX,Track Excavators,,EROPS,,,,,,,,,,,2 Valve,,,,,,,,,,,None or Unspecified,,,,,,,,,
532,1750164,21000,1469244,132,11.0,1996,,,3/29/2001 0:00,PC60-7,PC60,,-7,,Large / Medium,"Hydraulic Excavator, Track - 50.0 to 66.0 Metric Tons",Mississippi,TEX,Track Excavators,,EROPS w AC,,,,,,,,,,,Auxiliary,,,,,,Manual,,,,Steel,None or Unspecified,None or Unspecified,None or Unspecified,None or Unspecified,Double,,,,,
532,1750167,22000,1396233,132,6.0,1994,,,12/9/1998 0:00,PC60-7,PC60,,-7,,Large / Medium,"Hydraulic Excavator, Track - 50.0 to 66.0 Metric Tons",Texas,TEX,Track Excavators,,EROPS,,,,,,,,,,,Standard,,,,,,None or Unspecified,,,,Rubber,None or Unspecified,None or Unspecified,None or Unspecified,None or Unspecified,Double,,,,,
532,1750176,18000,1080347,132,2.0,1994,,,8/17/2002 0:00,PC60-7,PC60,,-7,,Large / Medium,"Hydraulic Excavator, Track - 50.0 to 66.0 Metric Tons",New York,TEX,Track Excavators,,EROPS,,,,,,,,,,,Auxiliary,,,,,,None or Unspecified,,,,Rubber,28 inch,"9' 6""",None or Unspecified,None or Unspecified,Triple,,,,,
532,1750177,19000,1080347,132,5.0,1000,,,11/9/2002 0:00,PC60-7,PC60,,-7,,Large / Medium,"Hydraulic Excavator, Track - 50.0 to 66.0 Metric Tons",Connecticut,TEX,Track Excavators,,EROPS,,,,,,,,,,,Auxiliary,,,,,,None or Unspecified,,,,Rubber,28 inch,"9' 6""",None or Unspecified,None or Unspecified,Triple,,,,,
532,1750195,19000,1427528,132,2.0,1994,,,1/11/2003 0:00,PC60-7,PC60,,-7,,Large / Medium,"Hydraulic Excavator, Track - 50.0 to 66.0 Metric Tons",New York,TEX,Track Excavators,,EROPS,,,,,,,,,,,Standard,,,,,,None or Unspecified,,,,Steel,None or Unspecified,None or Unspecified,None or Unspecified,None or Unspecified,Double,,,,,
532,1750197,19000,1425014,132,2.0,1995,,,7/27/2002 0:00,PC60-7,PC60,,-7,,Large / Medium,"Hydraulic Excavator, Track - 50.0 to 66.0 Metric Tons",Ohio,TEX,Track Excavators,,EROPS,,,,,,,,,,,Standard,,,,,,None or Unspecified,,,,Rubber,None or Unspecified,None or Unspecified,Manual,None or Unspecified,Double,,,,,
532,1750198,20000,1425014,132,2.0,1997,,,9/6/2003 0:00,PC60-7,PC60,,-7,,Large / Medium,"Hydraulic Excavator, Track - 50.0 to 66.0 Metric Tons",New Hampshire,TEX,Track Excavators,,EROPS,,,,,,,,,,,Standard,,,,,,None or Unspecified,,,,Rubber,None or Unspecified,None or Unspecified,Manual,None or Unspecified,Double,,,,,
532,1750200,19500,1311419,132,2.0,1994,,,2/2/2003 0:00,PC60-7,PC60,,-7,,Large / Medium,"Hydraulic Excavator, Track - 50.0 to 66.0 Metric Tons",Florida,TEX,Track Excavators,,EROPS,,,,,,,,,,,Standard,,,,,,None or Unspecified,,,,Steel,None or Unspecified,None or Unspecified,None or Unspecified,None or Unspecified,Double,,,,,
532,1750211,20500,1254789,132,4.0,1995,,,2/10/2005 0:00,PC60-7,PC60,,-7,,Large / Medium,"Hydraulic Excavator, Track - 50.0 to 66.0 Metric Tons",Florida,TEX,Track Excavators,,EROPS,,,,,,,,,,,Standard,,,,,,None or Unspecified,,,,Rubber,None or Unspecified,None or Unspecified,None or Unspecified,None or Unspecified,Double,,,,,
532,1750212,20500,1254789,132,4.0,1995,,,2/7/2005 0:00,PC60-7,PC60,,-7,,Large / Medium,"Hydraulic Excavator, Track - 50.0 to 66.0 Metric Tons",Florida,TEX,Track Excavators,,EROPS,,,,,,,,,,,Standard,,,,,,None or Unspecified,,,,Rubber,None or Unspecified,None or Unspecified,None or Unspecified,None or Unspecified,Double,,,,,
532,1750213,22000,1254789,132,2.0,1996,,,5/25/2005 0:00,PC60-7,PC60,,-7,,Large / Medium,"Hydraulic Excavator, Track - 50.0 to 66.0 Metric Tons",Florida,TEX,Track Excavators,,EROPS,,,,,,,,,,,Standard,,,,,,None or Unspecified,,,,Rubber,None or Unspecified,None or Unspecified,None or Unspecified,None or Unspecified,Double,,,,,
532,1750243,19250,1094619,132,5.0,1000,,,8/15/2001 0:00,PC60-7,PC60,,-7,,Large / Medium,"Hydraulic Excavator, Track - 50.0 to 66.0 Metric Tons",Connecticut,TEX,Track Excavators,,EROPS,,,,,,,,,,,Standard,,,,,,None or Unspecified,,,,Steel,16 inch,None or Unspecified,None or Unspecified,None or Unspecified,Double,,,,,
532,1750246,19500,1446727,132,2.0,1998,,,3/27/2003 0:00,PC60-7,PC60,,-7,,Large / Medium,"Hydraulic Excavator, Track - 50.0 to 66.0 Metric Tons",New Jersey,TEX,Track Excavators,,EROPS w AC,,,,,,,,,,,Standard,,,,,,None or Unspecified,,,,Rubber,28 inch,None or Unspecified,None or Unspecified,None or Unspecified,Double,,,,,
532,1750281,24000,1177437,132,11.0,1995,,,9/1/1999 0:00,PC60-7,PC60,,-7,,Large / Medium,"Hydraulic Excavator, Track - 50.0 to 66.0 Metric Tons",Mississippi,TEX,Track Excavators,,EROPS,,,,,,,,,,,Standard,,,,,,None or Unspecified,,,,Steel,18 inch,None or Unspecified,Manual,None or Unspecified,Double,,,,,
532,1750283,25750,1177437,132,10.0,1000,,,1/27/2000 0:00,PC60-7,PC60,,-7,,Large / Medium,"Hydraulic Excavator, Track - 50.0 to 66.0 Metric Tons",Louisiana,TEX,Track Excavators,,EROPS,,,,,,,,,,,Standard,,,,,,None or Unspecified,,,,Steel,18 inch,None or Unspecified,Manual,None or Unspecified,Double,,,,,
532,1750301,21500,1335347,132,2.0,1995,,,7/13/2002 0:00,PC60-7,PC60,,-7,,Large / Medium,"Hydraulic Excavator, Track - 50.0 to 66.0 Metric Tons",New York,TEX,Track Excavators,,EROPS,,,,,,,,,,,Standard,,,,,,None or Unspecified,,,,Steel,None or Unspecified,None or Unspecified,None or Unspecified,None or Unspecified,Double,,,,,
532,1750333,16500,1402586,132,4.0,1996,2508.0,High,2/9/2000 0:00,PC60-7,PC60,,-7,,Large / Medium,"Hydraulic Excavator, Track - 50.0 to 66.0 Metric Tons",Florida,TEX,Track Excavators,,OROPS,,,,,,,,,,,2 Valve,,,,,,,,,,,None or Unspecified,,,,,,,,,
532,1750338,18000,1341384,132,2.0,1997,,,2/2/2003 0:00,PC60-7,PC60,,-7,,Large / Medium,"Hydraulic Excavator, Track - 50.0 to 66.0 Metric Tons",Florida,TEX,Track Excavators,,EROPS w AC,,,,,,,,,,,2 Valve,,,,,,,,,,,None or Unspecified,,,,,,,,,
532,1750342,18000,1465809,132,2.0,1000,,,9/16/2006 0:00,PC60-7,PC60,,-7,,Large / Medium,"Hydraulic Excavator, Track - 50.0 to 66.0 Metric Tons",New Jersey,TEX,Track Excavators,,EROPS w AC,,,,,,,,,,,Standard,,,,,,None or Unspecified,,,,Steel,None or Unspecified,None or Unspecified,None or Unspecified,None or Unspecified,Double,,,,,
532,1750380,29000,1417911,132,2.0,1995,,,8/1/1998 0:00,PC60-7,PC60,,-7,,Large / Medium,"Hydraulic Excavator, Track - 50.0 to 66.0 Metric Tons",Ohio,TEX,Track Excavators,,EROPS,,,,,,,,,,,Standard,,,,,,None or Unspecified,,,,Steel,None or Unspecified,None or Unspecified,None or Unspecified,None or Unspecified,Double,,,,,
532,1750417,16000,1388646,132,2.0,1995,,,9/19/1998 0:00,PC60-7,PC60,,-7,,Large / Medium,"Hydraulic Excavator, Track - 50.0 to 66.0 Metric Tons",Ohio,TEX,Track Excavators,,EROPS,,,,,,,,,,,Standard,,,,,,None or Unspecified,,,,Steel,None or Unspecified,None or Unspecified,None or Unspecified,None or Unspecified,Double,,,,,
532,1750420,20000,1199237,132,11.0,1995,,,5/28/1998 0:00,PC60-7,PC60,,-7,,Large / Medium,"Hydraulic Excavator, Track - 50.0 to 66.0 Metric Tons",Mississippi,TEX,Track Excavators,,EROPS w AC,,,,,,,,,,,Standard,,,,,,None or Unspecified,,,,Steel,None or Unspecified,None or Unspecified,None or Unspecified,None or Unspecified,Double,,,,,
532,1750427,16000,1348589,132,1.0,1996,,,3/20/2002 0:00,PC60-7,PC60,,-7,,Large / Medium,"Hydraulic Excavator, Track - 50.0 to 66.0 Metric Tons",Texas,TEX,Track Excavators,,EROPS,,,,,,,,,,,Standard,,,,,,None or Unspecified,,,,Steel,None or Unspecified,None or Unspecified,None or Unspecified,None or Unspecified,Double,,,,,
532,1750434,22000,1153058,132,2.0,1995,,,10/2/2004 0:00,PC60-7,PC60,,-7,,Large / Medium,"Hydraulic Excavator, Track - 50.0 to 66.0 Metric Tons",Pennsylvania,TEX,Track Excavators,,EROPS,,,,,,,,,,,Standard,,,,,,None or Unspecified,,,,Rubber,None or Unspecified,None or Unspecified,None or Unspecified,None or Unspecified,Double,,,,,
532,1750435,23000,1279968,132,5.0,1999,,,4/26/2002 0:00,PC60-7,PC60,,-7,,Large / Medium,"Hydraulic Excavator, Track - 50.0 to 66.0 Metric Tons",Connecticut,TEX,Track Excavators,,EROPS,,,,,,,,,,,Standard,,,,,,None or Unspecified,,,,Steel,18 inch,None or Unspecified,None or Unspecified,None or Unspecified,Triple,,,,,
532,1750450,21500,1257954,132,2.0,1995,,,8/25/2001 0:00,PC60-7,PC60,,-7,,Large / Medium,"Hydraulic Excavator, Track - 50.0 to 66.0 Metric Tons",Pennsylvania,TEX,Track Excavators,,EROPS,,,,,,,,,,,2 Valve,,,,,,None or Unspecified,,,,,18 inch,,,,,,,,,
532,1750466,33500,1412813,132,11.0,1996,,,3/18/1998 0:00,PC60-7,PC60,,-7,,Large / Medium,"Hydraulic Excavator, Track - 50.0 to 66.0 Metric Tons",Mississippi,TEX,Track Excavators,,EROPS w AC,,,,,,,,,,,Standard,,,,,,None or Unspecified,,,,Steel,18 inch,None or Unspecified,None or Unspecified,None or Unspecified,Triple,,,,,
532,1750482,21000,1355021,132,2.0,1999,,,3/25/2004 0:00,PC60-7,PC60,,-7,,Large / Medium,"Hydraulic Excavator, Track - 50.0 to 66.0 Metric Tons",New Jersey,TEX,Track Excavators,,EROPS,,,,,,,,,,,Standard,,,,,,None or Unspecified,,,,Steel,None or Unspecified,None or Unspecified,None or Unspecified,None or Unspecified,Double,,,,,
532,1750502,21500,1114454,132,2.0,1995,,,2/8/2001 0:00,PC60-7,PC60,,-7,,Large / Medium,"Hydraulic Excavator, Track - 50.0 to 66.0 Metric Tons",Florida,TEX,Track Excavators,,EROPS,,,,,,,,,,,Standard,,,,,,None or Unspecified,,,,Rubber,None or Unspecified,None or Unspecified,None or Unspecified,None or Unspecified,Double,,,,,
532,1750504,23000,1083117,132,2.0,1995,,,11/12/2004 0:00,PC60-7,PC60,,-7,,Large / Medium,"Hydraulic Excavator, Track - 50.0 to 66.0 Metric Tons",New Hampshire,TEX,Track Excavators,,EROPS,,,,,,,,,,,Standard,,,,,,None or Unspecified,,,,Steel,18 inch,None or Unspecified,None or Unspecified,None or Unspecified,Double,,,,,
532,1750520,22500,1367274,132,2.0,1995,,,4/13/2002 0:00,PC60-7,PC60,,-7,,Large / Medium,"Hydraulic Excavator, Track - 50.0 to 66.0 Metric Tons",Kentucky,TEX,Track Excavators,,EROPS w AC,,,,,,,,,,,Standard,,,,,,None or Unspecified,,,,Steel,None or Unspecified,None or Unspecified,None or Unspecified,None or Unspecified,Double,,,,,
532,1750534,18750,1300973,132,4.0,1995,,,2/10/2003 0:00,PC60-7,PC60,,-7,,Large / Medium,"Hydraulic Excavator, Track - 50.0 to 66.0 Metric Tons",Florida,TEX,Track Excavators,,EROPS,,,,,,,,,,,Standard,,,,,,None or Unspecified,,,,Steel,None or Unspecified,None or Unspecified,None or Unspecified,None or Unspecified,Double,,,,,
532,1750543,20000,1143644,132,2.0,1995,,,3/31/2001 0:00,PC60-7,PC60,,-7,,Large / Medium,"Hydraulic Excavator, Track - 50.0 to 66.0 Metric Tons",New Jersey,TEX,Track Excavators,,EROPS,,,,,,,,,,,Standard,,,,,,None or Unspecified,,,,Steel,18 inch,None or Unspecified,None or Unspecified,None or Unspecified,Double,,,,,
532,1750548,22500,1512719,132,2.0,1995,,,1/30/2005 0:00,PC60-7,PC60,,-7,,Large / Medium,"Hydraulic Excavator, Track - 50.0 to 66.0 Metric Tons",Florida,TEX,Track Excavators,,EROPS w AC,,,,,,,,,,,Standard,,,,,,None or Unspecified,,,,Rubber,None or Unspecified,None or Unspecified,None or Unspecified,None or Unspecified,Double,,,,,
532,1750549,22500,1512719,132,2.0,1995,,,2/4/2005 0:00,PC60-7,PC60,,-7,,Large / Medium,"Hydraulic Excavator, Track - 50.0 to 66.0 Metric Tons",Florida,TEX,Track Excavators,,EROPS w AC,,,,,,,,,,,Standard,,,,,,None or Unspecified,,,,Rubber,None or Unspecified,None or Unspecified,None or Unspecified,None or Unspecified,Double,,,,,
532,1750556,12000,1317382,132,1.0,1000,,,3/30/2005 0:00,PC60-7,PC60,,-7,,Large / Medium,"Hydraulic Excavator, Track - 50.0 to 66.0 Metric Tons",Washington,TEX,Track Excavators,,EROPS,,,,,,,,,,,Auxiliary,,,,,,Manual,,,,Steel,None or Unspecified,None or Unspecified,None or Unspecified,None or Unspecified,Double,,,,,
532,1750558,19500,1274796,132,2.0,1995,,,5/11/2002 0:00,PC60-7,PC60,,-7,,Large / Medium,"Hydraulic Excavator, Track - 50.0 to 66.0 Metric Tons",Connecticut,TEX,Track Excavators,,EROPS,,,,,,,,,,,Standard,,,,,,None or Unspecified,,,,Rubber,None or Unspecified,None or Unspecified,None or Unspecified,None or Unspecified,Double,,,,,
532,1750670,12500,1127784,132,1.0,1995,,,3/26/2002 0:00,PC60-7,PC60,,-7,,Large / Medium,"Hydraulic Excavator, Track - 50.0 to 66.0 Metric Tons",Washington,TEX,Track Excavators,,EROPS,,,,,,,,,,,Base + 1 Function,,,,,,,,,,,,,,,,,,,,
532,1750789,18500,1325661,132,7.0,1994,,,10/18/2002 0:00,PC60-7,PC60,,-7,,Large / Medium,"Hydraulic Excavator, Track - 50.0 to 66.0 Metric Tons",South Carolina,TEX,Track Excavators,,EROPS w AC,,,,,,,,,,,2 Valve,,,,,,None or Unspecified,,,,,None or Unspecified,,,,,,,,,
532,1750872,19750,1038157,132,5.0,1000,,,10/19/2002 0:00,PC60-7,PC60,,-7,,Large / Medium,"Hydraulic Excavator, Track - 50.0 to 66.0 Metric Tons",Connecticut,TEX,Track Excavators,,EROPS w AC,,,,,,,,,,,2 Valve,,,,,,,,,,,None or Unspecified,,,,,,,,,
532,1750879,22000,1273336,132,2.0,1995,,,12/11/2004 0:00,PC60-7,PC60,,-7,,Large / Medium,"Hydraulic Excavator, Track - 50.0 to 66.0 Metric Tons",Pennsylvania,TEX,Track Excavators,,EROPS,,,,,,,,,,,Standard,,,,,,None or Unspecified,,,,Steel,18 inch,None or Unspecified,None or Unspecified,None or Unspecified,Double,,,,,
532,1750969,30000,580319,132,4.0,1996,,,2/4/1999 0:00,PC60-7,PC60,,-7,,Large / Medium,"Hydraulic Excavator, Track - 50.0 to 66.0 Metric Tons",Florida,TEX,Track Excavators,,EROPS w AC,,,,,,,,,,,2 Valve,,,,,,None or Unspecified,,,,,,,,,,,,,,
532,1751001,18500,1420607,132,2.0,1996,,,10/11/2002 0:00,PC60-7,PC60,,-7,,Large / Medium,"Hydraulic Excavator, Track - 50.0 to 66.0 Metric Tons",Florida,TEX,Track Excavators,,EROPS,,,,,,,,,,,Standard,,,,,,None or Unspecified,,,,Steel,None or Unspecified,None or Unspecified,None or Unspecified,None or Unspecified,Double,,,,,
532,1751060,20000,1401714,132,2.0,1995,,,2/4/2002 0:00,PC60-7,PC60,,-7,,Large / Medium,"Hydraulic Excavator, Track - 50.0 to 66.0 Metric Tons",Florida,TEX,Track Excavators,,EROPS w AC,,,,,,,,,,,Auxiliary,,,,,,None or Unspecified,,,,Rubber,None or Unspecified,None or Unspecified,None or Unspecified,None or Unspecified,Double,,,,,
532,1751142,20500,1547134,132,16.0,1995,,,5/17/2000 0:00,PC60-7,PC60,,-7,,Large / Medium,"Hydraulic Excavator, Track - 50.0 to 66.0 Metric Tons",Ohio,TEX,Track Excavators,,EROPS w AC,,,,,,,,,,,Standard,,,,,,None or Unspecified,,,,Steel,None or Unspecified,None or Unspecified,None or Unspecified,None or Unspecified,Double,,,,,
532,1751189,19500,1131256,132,10.0,1996,,,5/18/2000 0:00,PC60-7,PC60,,-7,,Large / Medium,"Hydraulic Excavator, Track - 50.0 to 66.0 Metric Tons",Louisiana,TEX,Track Excavators,,OROPS,,,,,,,,,,,2 Valve,,,,,,,,,,,None or Unspecified,,,,,,,,,
532,1751233,29000,1321322,132,10.0,1000,,,2/1/2001 0:00,PC60-7,PC60,,-7,,Large / Medium,"Hydraulic Excavator, Track - 50.0 to 66.0 Metric Tons",Louisiana,TEX,Track Excavators,,EROPS w AC,,,,,,,,,,,2 Valve,,,,,,,,,,,None or Unspecified,,,,,,,,,
532,1751345,20500,1442872,132,2.0,1995,,,11/17/2001 0:00,PC60-7,PC60,,-7,,Large / Medium,"Hydraulic Excavator, Track - 50.0 to 66.0 Metric Tons",Ohio,TEX,Track Excavators,,EROPS,,,,,,,,,,,Standard,,,,,,None or Unspecified,,,,Steel,18 inch,None or Unspecified,None or Unspecified,None or Unspecified,Double,,,,,
532,1751371,20500,1542246,132,4.0,1997,,,2/11/2002 0:00,PC60-7,PC60,,-7,,Large / Medium,"Hydraulic Excavator, Track - 50.0 to 66.0 Metric Tons",Florida,TEX,Track Excavators,,EROPS w AC,,,,,,,,,,,2 Valve,,,,,,None or Unspecified,,,,,18 inch,,,,,,,,,
532,1751421,20500,1486950,132,2.0,1998,,,2/1/2004 0:00,PC60-7,PC60,,-7,,Large / Medium,"Hydraulic Excavator, Track - 50.0 to 66.0 Metric Tons",Florida,TEX,Track Excavators,,EROPS w AC,,,,,,,,,,,Standard,,,,,,None or Unspecified,,,,Steel,None or Unspecified,None or Unspecified,None or Unspecified,None or Unspecified,Double,,,,,
532,1751448,17250,1326876,132,5.0,1996,,,1/28/2003 0:00,PC60-7,PC60,,-7,,Large / Medium,"Hydraulic Excavator, Track - 50.0 to 66.0 Metric Tons",Connecticut,TEX,Track Excavators,,EROPS w AC,,,,,,,,,,,2 Valve,,,,,,Manual,,,,,,,,,,,,,,
532,1751449,16500,1535304,132,2.0,1996,,,10/25/2002 0:00,PC60-7,PC60,,-7,,Large / Medium,"Hydraulic Excavator, Track - 50.0 to 66.0 Metric Tons",Pennsylvania,TEX,Track Excavators,,EROPS w AC,,,,,,,,,,,Base + 1 Function,,,,,,,,,,,,,,,,,,,,
532,1751473,25000,1525110,132,2.0,1996,,,2/2/2003 0:00,PC60-7,PC60,,-7,,Large / Medium,"Hydraulic Excavator, Track - 50.0 to 66.0 Metric Tons",Florida,TEX,Track Excavators,,EROPS w AC,,,,,,,,,,,Auxiliary,,,,,,None or Unspecified,,,,Steel,18 inch,None or Unspecified,Manual,None or Unspecified,Double,,,,,
532,1751477,19000,1275677,132,2.0,1996,,,8/24/2002 0:00,PC60-7,PC60,,-7,,Large / Medium,"Hydraulic Excavator, Track - 50.0 to 66.0 Metric Tons",Pennsylvania,TEX,Track Excavators,,EROPS,,,,,,,,,,,Standard,,,,,,None or Unspecified,,,,Steel,None or Unspecified,None or Unspecified,None or Unspecified,None or Unspecified,Double,,,,,
532,1751511,17000,1368466,132,1.0,1996,,,3/13/2002 0:00,PC60-7,PC60,,-7,,Large / Medium,"Hydraulic Excavator, Track - 50.0 to 66.0 Metric Tons",Illinois,TEX,Track Excavators,,EROPS,,,,,,,,,,,Standard,,,,,,None or Unspecified,,,,Steel,None or Unspecified,None or Unspecified,None or Unspecified,None or Unspecified,Double,,,,,
532,1751537,16000,1409234,132,4.0,1000,,,2/10/2003 0:00,PC60-7,PC60,,-7,,Large / Medium,"Hydraulic Excavator, Track - 50.0 to 66.0 Metric Tons",Florida,TEX,Track Excavators,,EROPS,,,,,,,,,,,Standard,,,,,,None or Unspecified,,,,Steel,20 inch,None or Unspecified,None or Unspecified,None or Unspecified,Double,,,,,
532,1751543,21000,1250620,132,8.0,1996,,,3/26/2003 0:00,PC60-7,PC60,,-7,,Large / Medium,"Hydraulic Excavator, Track - 50.0 to 66.0 Metric Tons",Mississippi,TEX,Track Excavators,,EROPS,,,,,,,,,,,Standard,,,,,,None or Unspecified,,,,Steel,None or Unspecified,None or Unspecified,None or Unspecified,None or Unspecified,Double,,,,,
532,1751545,34000,1008654,132,2.0,1996,,,2/7/2000 0:00,PC60-7,PC60,,-7,,Large / Medium,"Hydraulic Excavator, Track - 50.0 to 66.0 Metric Tons",Florida,TEX,Track Excavators,,EROPS w AC,,,,,,,,,,,Base + 1 Function,,,,,,,,,,,,,,,,,,,,
532,1751605,17500,1207535,132,2.0,1996,,,3/14/2002 0:00,PC60-7,PC60,,-7,,Large / Medium,"Hydraulic Excavator, Track - 50.0 to 66.0 Metric Tons",New Jersey,TEX,Track Excavators,,EROPS,,,,,,,,,,,Standard,,,,,,None or Unspecified,,,,Rubber,None or Unspecified,None or Unspecified,None or Unspecified,None or Unspecified,Double,,,,,
532,1751615,20000,1408845,132,2.0,1996,,,12/15/2001 0:00,PC60-7,PC60,,-7,,Large / Medium,"Hydraulic Excavator, Track - 50.0 to 66.0 Metric Tons",Pennsylvania,TEX,Track Excavators,,EROPS,,,,,,,,,,,Standard,,,,,,None or Unspecified,,,,Steel,None or Unspecified,None or Unspecified,None or Unspecified,None or Unspecified,Double,,,,,
532,1751616,16000,1408845,132,2.0,1996,,,11/15/2001 0:00,PC60-7,PC60,,-7,,Large / Medium,"Hydraulic Excavator, Track - 50.0 to 66.0 Metric Tons",Ohio,TEX,Track Excavators,,EROPS,,,,,,,,,,,Standard,,,,,,None or Unspecified,,,,Steel,None or Unspecified,None or Unspecified,None or Unspecified,None or Unspecified,Double,,,,,
532,1751637,26000,1361641,132,11.0,1997,,,3/21/2000 0:00,PC60-7,PC60,,-7,,Large / Medium,"Hydraulic Excavator, Track - 50.0 to 66.0 Metric Tons",Mississippi,TEX,Track Excavators,,EROPS,,,,,,,,,,,Standard,,,,,,None or Unspecified,,,,Steel,None or Unspecified,None or Unspecified,None or Unspecified,None or Unspecified,Double,,,,,
532,1751659,20500,1535705,132,2.0,1996,,,8/9/2003 0:00,PC60-7,PC60,,-7,,Large / Medium,"Hydraulic Excavator, Track - 50.0 to 66.0 Metric Tons",Ohio,TEX,Track Excavators,,EROPS,,,,,,,,,,,Standard,,,,,,None or Unspecified,,,,Steel,18 inch,None or Unspecified,None or Unspecified,None or Unspecified,Double,,,,,
532,1751674,22500,1411912,132,1.0,1996,,,9/22/2005 0:00,PC60-7,PC60,,-7,,Large / Medium,"Hydraulic Excavator, Track - 50.0 to 66.0 Metric Tons",Washington,TEX,Track Excavators,,EROPS,,,,,,,,,,,Standard,,,,,,Manual,,,,Steel,None or Unspecified,None or Unspecified,None or Unspecified,None or Unspecified,Double,,,,,
532,1751675,14500,1411912,132,1.0,1997,,,6/23/2005 0:00,PC60-7,PC60,,-7,,Large / Medium,"Hydraulic Excavator, Track - 50.0 to 66.0 Metric Tons",Washington,TEX,Track Excavators,,EROPS,,,,,,,,,,,Standard,,,,,,Manual,,,,Steel,None or Unspecified,None or Unspecified,None or Unspecified,None or Unspecified,Double,,,,,
532,1751685,23500,1335006,132,2.0,1996,,,7/31/2004 0:00,PC60-7,PC60,,-7,,Large / Medium,"Hydraulic Excavator, Track - 50.0 to 66.0 Metric Tons",Connecticut,TEX,Track Excavators,,EROPS,,,,,,,,,,,Standard,,,,,,None or Unspecified,,,,Steel,None or Unspecified,None or Unspecified,None or Unspecified,None or Unspecified,Double,,,,,
532,1751744,27000,1524690,132,2.0,1996,,,9/11/2004 0:00,PC60-7,PC60,,-7,,Large / Medium,"Hydraulic Excavator, Track - 50.0 to 66.0 Metric Tons",New Hampshire,TEX,Track Excavators,,EROPS,,,,,,,,,,,Standard,,,,,,None or Unspecified,,,,Steel,18 inch,None or Unspecified,None or Unspecified,None or Unspecified,Double,,,,,
532,1751869,20500,1474762,132,10.0,1000,,,1/27/2000 0:00,PC60-7,PC60,,-7,,Large / Medium,"Hydraulic Excavator, Track - 50.0 to 66.0 Metric Tons",Louisiana,TEX,Track Excavators,,EROPS,,,,,,,,,,,Standard,,,,,,None or Unspecified,,,,Steel,None or Unspecified,None or Unspecified,None or Unspecified,None or Unspecified,Double,,,,,
532,1751923,23500,1251584,132,5.0,1995,,,11/9/2002 0:00,PC60-7,PC60,,-7,,Large / Medium,"Hydraulic Excavator, Track - 50.0 to 66.0 Metric Tons",Connecticut,TEX,Track Excavators,,EROPS,,,,,,,,,,,Standard,,,,,,None or Unspecified,,,,Steel,18 inch,None or Unspecified,None or Unspecified,None or Unspecified,Double,,,,,
532,1751974,19500,1322237,132,1.0,1996,,,10/5/2005 0:00,PC60-7,PC60,,-7,,Large / Medium,"Hydraulic Excavator, Track - 50.0 to 66.0 Metric Tons",Maryland,TEX,Track Excavators,,EROPS,,,,,,,,,,,Standard,,,,,,None or Unspecified,,,,Steel,None or Unspecified,None or Unspecified,None or Unspecified,None or Unspecified,Double,,,,,
532,1751982,16000,1433581,132,4.0,1000,,,2/10/2003 0:00,PC60-7,PC60,,-7,,Large / Medium,"Hydraulic Excavator, Track - 50.0 to 66.0 Metric Tons",Florida,TEX,Track Excavators,,EROPS,,,,,,,,,,,Standard,,,,,,None or Unspecified,,,,Steel,24 inch,None or Unspecified,None or Unspecified,None or Unspecified,Double,,,,,
532,1752039,18500,1489217,132,1.0,1996,,,7/19/2001 0:00,PC60-7,PC60,,-7,,Large / Medium,"Hydraulic Excavator, Track - 50.0 to 66.0 Metric Tons",North Carolina,TEX,Track Excavators,,EROPS,,,,,,,,,,,Standard,,,,,,None or Unspecified,,,,Steel,None or Unspecified,None or Unspecified,None or Unspecified,None or Unspecified,Double,,,,,
532,1752044,18000,1397195,132,1.0,1996,,,12/2/2003 0:00,PC60-7,PC60,,-7,,Large / Medium,"Hydraulic Excavator, Track - 50.0 to 66.0 Metric Tons",Washington,TEX,Track Excavators,,EROPS,,,,,,,,,,,Standard,,,,,,None or Unspecified,,,,Rubber,None or Unspecified,None or Unspecified,None or Unspecified,None or Unspecified,Double,,,,,
532,1752048,17000,1103850,132,1.0,1996,,,6/26/2002 0:00,PC60-7,PC60,,-7,,Large / Medium,"Hydraulic Excavator, Track - 50.0 to 66.0 Metric Tons",Maryland,TEX,Track Excavators,,EROPS,,,,,,,,,,,2 Valve,,,,,,,,,,,None or Unspecified,,,,,,,,,
532,1752049,26000,1383435,132,2.0,1996,,,1/30/2005 0:00,PC60-7,PC60,,-7,,Large / Medium,"Hydraulic Excavator, Track - 50.0 to 66.0 Metric Tons",Florida,TEX,Track Excavators,,EROPS,,,,,,,,,,,Standard,,,,,,None or Unspecified,,,,Rubber,None or Unspecified,None or Unspecified,None or Unspecified,None or Unspecified,Double,,,,,
532,1752050,26000,1383435,132,2.0,1996,,,2/3/2005 0:00,PC60-7,PC60,,-7,,Large / Medium,"Hydraulic Excavator, Track - 50.0 to 66.0 Metric Tons",Florida,TEX,Track Excavators,,EROPS,,,,,,,,,,,Standard,,,,,,None or Unspecified,,,,Rubber,None or Unspecified,None or Unspecified,None or Unspecified,None or Unspecified,Double,,,,,
532,1752081,23000,1326844,132,12.0,1000,,,9/20/2000 0:00,PC60-7,PC60,,-7,,Large / Medium,"Hydraulic Excavator, Track - 50.0 to 66.0 Metric Tons",South Carolina,TEX,Track Excavators,,EROPS,,,,,,,,,,,Standard,,,,,,None or Unspecified,,,,Steel,None or Unspecified,None or Unspecified,None or Unspecified,None or Unspecified,Double,,,,,
532,1752086,21500,1552070,132,2.0,1996,,,7/28/2001 0:00,PC60-7,PC60,,-7,,Large / Medium,"Hydraulic Excavator, Track - 50.0 to 66.0 Metric Tons",Ohio,TEX,Track Excavators,,EROPS,,,,,,,,,,,Standard,,,,,,None or Unspecified,,,,Steel,None or Unspecified,None or Unspecified,None or Unspecified,None or Unspecified,Double,,,,,
532,1752087,19500,1379810,132,8.0,1996,,,3/26/2003 0:00,PC60-7,PC60,,-7,,Large / Medium,"Hydraulic Excavator, Track - 50.0 to 66.0 Metric Tons",Mississippi,TEX,Track Excavators,,EROPS,,,,,,,,,,,Standard,,,,,,None or Unspecified,,,,Steel,None or Unspecified,None or Unspecified,None or Unspecified,None or Unspecified,Double,,,,,
532,1752092,25500,1306914,132,5.0,1996,,,1/23/2004 0:00,PC60-7,PC60,,-7,,Large / Medium,"Hydraulic Excavator, Track - 50.0 to 66.0 Metric Tons",Connecticut,TEX,Track Excavators,,EROPS,,,,,,,,,,,Standard,,,,,,None or Unspecified,,,,Steel,None or Unspecified,None or Unspecified,Manual,None or Unspecified,Double,,,,,
532,1752095,23500,1264659,132,2.0,1996,,,3/27/2003 0:00,PC60-7,PC60,,-7,,Large / Medium,"Hydraulic Excavator, Track - 50.0 to 66.0 Metric Tons",New Jersey,TEX,Track Excavators,,EROPS,,,,,,,,,,,Standard,,,,,,None or Unspecified,,,,Rubber,None or Unspecified,None or Unspecified,None or Unspecified,None or Unspecified,Double,,,,,
532,1752125,25500,1197062,132,8.0,1000,,,3/24/2004 0:00,PC60-7,PC60,,-7,,Large / Medium,"Hydraulic Excavator, Track - 50.0 to 66.0 Metric Tons",Mississippi,TEX,Track Excavators,,EROPS w AC,,,,,,,,,,,Standard,,,,,,None or Unspecified,,,,Steel,None or Unspecified,None or Unspecified,None or Unspecified,None or Unspecified,Double,,,,,
532,1752240,27500,1423587,132,2.0,1997,,,2/1/2004 0:00,PC60-7,PC60,,-7,,Large / Medium,"Hydraulic Excavator, Track - 50.0 to 66.0 Metric Tons",Florida,TEX,Track Excavators,,EROPS w AC,,,,,,,,,,,Standard,,,,,,None or Unspecified,,,,Rubber,None or Unspecified,None or Unspecified,None or Unspecified,None or Unspecified,Triple,,,,,
532,1752259,17700,1144488,132,9.0,1997,,,11/7/2001 0:00,PC60-7,PC60,,-7,,Large / Medium,"Hydraulic Excavator, Track - 50.0 to 66.0 Metric Tons",South Carolina,TEX,Track Excavators,,EROPS w AC,,,,,,,,,,,Standard,,,,,,None or Unspecified,,,,Steel,18 inch,None or Unspecified,None or Unspecified,None or Unspecified,Double,,,,,
532,1752276,11000,1313680,132,1.0,1996,,,6/20/2002 0:00,PC60-7,PC60,,-7,,Large / Medium,"Hydraulic Excavator, Track - 50.0 to 66.0 Metric Tons",Illinois,TEX,Track Excavators,,EROPS,,,,,,,,,,,2 Valve,,,,,,None or Unspecified,,,,,,,,,,,,,,
532,1752299,24500,1018822,132,2.0,1997,,,11/14/2003 0:00,PC60-7,PC60,,-7,,Large / Medium,"Hydraulic Excavator, Track - 50.0 to 66.0 Metric Tons",New Hampshire,TEX,Track Excavators,,EROPS w AC,,,,,,,,,,,2 Valve,,,,,,Manual,,,,,,,,,,,,,,
532,1752469,22750,1465242,132,9.0,1997,,,2/17/2003 0:00,PC60-7,PC60,,-7,,Large / Medium,"Hydraulic Excavator, Track - 50.0 to 66.0 Metric Tons",Florida,TEX,Track Excavators,,EROPS,,,,,,,,,,,Standard,,,,,,None or Unspecified,,,,Steel,None or Unspecified,None or Unspecified,None or Unspecified,None or Unspecified,Double,,,,,
532,1752612,20500,1369946,132,5.0,1000,,,6/29/2002 0:00,PC60-7,PC60,,-7,,Large / Medium,"Hydraulic Excavator, Track - 50.0 to 66.0 Metric Tons",Connecticut,TEX,Track Excavators,,EROPS w AC,,,,,,,,,,,Standard,,,,,,None or Unspecified,,,,Steel,None or Unspecified,None or Unspecified,None or Unspecified,None or Unspecified,Double,,,,,
532,1752626,38500,1388025,132,2.0,1997,,,2/2/1999 0:00,PC60-7,PC60,,-7,,Large / Medium,"Hydraulic Excavator, Track - 50.0 to 66.0 Metric Tons",Florida,TEX,Track Excavators,,EROPS w AC,,,,,,,,,,,Standard,,,,,,None or Unspecified,,,,Steel,28 inch,None or Unspecified,None or Unspecified,None or Unspecified,Double,,,,,
532,1752674,27500,1101388,132,2.0,1998,,,11/16/2002 0:00,PC60-7,PC60,,-7,,Large / Medium,"Hydraulic Excavator, Track - 50.0 to 66.0 Metric Tons",Connecticut,TEX,Track Excavators,,EROPS,,,,,,,,,,,Standard,,,,,,None or Unspecified,,,,Steel,None or Unspecified,None or Unspecified,None or Unspecified,None or Unspecified,Double,,,,,
532,1752675,34500,1187644,132,2.0,1000,,,10/3/1998 0:00,PC60-7,PC60,,-7,,Large / Medium,"Hydraulic Excavator, Track - 50.0 to 66.0 Metric Tons",Pennsylvania,TEX,Track Excavators,,EROPS,,,,,,,,,,,Standard,,,,,,None or Unspecified,,,,Steel,None or Unspecified,None or Unspecified,None or Unspecified,None or Unspecified,Double,,,,,
532,1752727,23000,1365877,132,1.0,1998,,,3/20/2002 0:00,PC60-7,PC60,,-7,,Large / Medium,"Hydraulic Excavator, Track - 50.0 to 66.0 Metric Tons",Texas,TEX,Track Excavators,,EROPS,,,,,,,,,,,Standard,,,,,,None or Unspecified,,,,Steel,None or Unspecified,None or Unspecified,None or Unspecified,None or Unspecified,Double,,,,,
532,1752728,18500,1253769,132,1.0,1998,,,3/29/2005 0:00,PC60-7,PC60,,-7,,Large / Medium,"Hydraulic Excavator, Track - 50.0 to 66.0 Metric Tons",Texas,TEX,Track Excavators,,EROPS,,,,,,,,,,,Standard,,,,,,None or Unspecified,,,,Steel,None or Unspecified,None or Unspecified,None or Unspecified,None or Unspecified,Double,,,,,
532,1752787,36000,1553532,132,2.0,1998,,,10/29/1999 0:00,PC60-7,PC60,,-7,,Large / Medium,"Hydraulic Excavator, Track - 50.0 to 66.0 Metric Tons",Ohio,TEX,Track Excavators,,EROPS,,,,,,,,,,,Standard,,,,,,Hydraulic,,,,Steel,None or Unspecified,None or Unspecified,None or Unspecified,None or Unspecified,Double,,,,,
532,1752813,26000,1121580,132,1.0,1998,,,4/6/2004 0:00,PC60-7,PC60,,-7,,Large / Medium,"Hydraulic Excavator, Track - 50.0 to 66.0 Metric Tons",Maryland,TEX,Track Excavators,,EROPS,,,,,,,,,,,Standard,,,,,,Manual,,,,Steel,None or Unspecified,None or Unspecified,None or Unspecified,None or Unspecified,Double,,,,,
532,1752818,27500,1414521,132,1.0,1999,,,10/12/2004 0:00,PC60-7,PC60,,-7,,Large / Medium,"Hydraulic Excavator, Track - 50.0 to 66.0 Metric Tons",Kentucky,TEX,Track Excavators,,EROPS,,,,,,,,,,,Standard,,,,,,None or Unspecified,,,,Steel,None or Unspecified,None or Unspecified,None or Unspecified,None or Unspecified,Double,,,,,
532,1752820,23000,1482985,132,1.0,1998,,,2/17/2004 0:00,PC60-7,PC60,,-7,,Large / Medium,"Hydraulic Excavator, Track - 50.0 to 66.0 Metric Tons",Florida,TEX,Track Excavators,,EROPS,,,,,,,,,,,Standard,,,,,,None or Unspecified,,,,Steel,None or Unspecified,None or Unspecified,None or Unspecified,None or Unspecified,Double,,,,,
532,1752839,20000,1316728,132,1.0,1998,,,3/29/2005 0:00,PC60-7,PC60,,-7,,Large / Medium,"Hydraulic Excavator, Track - 50.0 to 66.0 Metric Tons",Texas,TEX,Track Excavators,,EROPS,,,,,,,,,,,Standard,,,,,,None or Unspecified,,,,Steel,None or Unspecified,None or Unspecified,None or Unspecified,None or Unspecified,Double,,,,,
532,1752842,35000,1127668,132,2.0,1998,,,10/29/1999 0:00,PC60-7,PC60,,-7,,Large / Medium,"Hydraulic Excavator, Track - 50.0 to 66.0 Metric Tons",Ohio,TEX,Track Excavators,,EROPS,,,,,,,,,,,Standard,,,,,,Hydraulic,,,,Steel,None or Unspecified,None or Unspecified,None or Unspecified,None or Unspecified,Double,,,,,
532,1752884,26000,1220513,132,4.0,1998,,,2/16/2006 0:00,PC60-7,PC60,,-7,,Large / Medium,"Hydraulic Excavator, Track - 50.0 to 66.0 Metric Tons",Florida,TEX,Track Excavators,,EROPS,,,,,,,,,,,Auxiliary,,,,,,Manual,,,,Steel,None or Unspecified,None or Unspecified,Manual,None or Unspecified,Double,,,,,
532,1752885,26000,1220513,132,4.0,1998,,,2/13/2006 0:00,PC60-7,PC60,,-7,,Large / Medium,"Hydraulic Excavator, Track - 50.0 to 66.0 Metric Tons",Florida,TEX,Track Excavators,,EROPS,,,,,,,,,,,Auxiliary,,,,,,Manual,,,,Steel,None or Unspecified,None or Unspecified,Manual,None or Unspecified,Double,,,,,
532,1752933,32000,1456060,132,1.0,1999,,,3/29/2002 0:00,PC60-7,PC60,,-7,,Large / Medium,"Hydraulic Excavator, Track - 50.0 to 66.0 Metric Tons",North Carolina,TEX,Track Excavators,,EROPS,,,,,,,,,,,Auxiliary,,,,,,None or Unspecified,,,,Steel,None or Unspecified,None or Unspecified,None or Unspecified,None or Unspecified,Double,,,,,
532,1752946,25000,1117178,132,2.0,2001,,,5/9/2006 0:00,PC60-7,PC60,,-7,,Large / Medium,"Hydraulic Excavator, Track - 50.0 to 66.0 Metric Tons",Texas,TEX,Track Excavators,,EROPS,,,,,,,,,,,Standard,,,,,,None or Unspecified,,,,Steel,None or Unspecified,None or Unspecified,None or Unspecified,None or Unspecified,Double,,,,,
532,1752947,22500,1220424,132,2.0,1000,,,3/28/2006 0:00,PC60-7,PC60,,-7,,Large / Medium,"Hydraulic Excavator, Track - 50.0 to 66.0 Metric Tons",Texas,TEX,Track Excavators,,EROPS,,,,,,,,,,,Standard,,,,,,None or Unspecified,,,,Steel,None or Unspecified,None or Unspecified,None or Unspecified,None or Unspecified,Double,,,,,
532,1752948,21500,1443863,132,2.0,2000,,,12/7/2005 0:00,PC60-7,PC60,,-7,,Large / Medium,"Hydraulic Excavator, Track - 50.0 to 66.0 Metric Tons",Texas,TEX,Track Excavators,,EROPS,,,,,,,,,,,Standard,,,,,,None or Unspecified,,,,Steel,None or Unspecified,None or Unspecified,None or Unspecified,None or Unspecified,Double,,,,,
532,1752955,14500,1100736,132,1.0,1999,,,3/29/2007 0:00,PC60-7,PC60,,-7,,Large / Medium,"Hydraulic Excavator, Track - 50.0 to 66.0 Metric Tons",Texas,TEX,Track Excavators,,EROPS,,,,,,,,,,,Standard,,,,,,None or Unspecified,,,,Steel,None or Unspecified,None or Unspecified,None or Unspecified,None or Unspecified,Double,,,,,
532,1752956,17000,1097458,132,1.0,1999,,,3/29/2007 0:00,PC60-7,PC60,,-7,,Large / Medium,"Hydraulic Excavator, Track - 50.0 to 66.0 Metric Tons",Texas,TEX,Track Excavators,,EROPS,,,,,,,,,,,Standard,,,,,,None or Unspecified,,,,Steel,None or Unspecified,None or Unspecified,None or Unspecified,None or Unspecified,Double,,,,,
532,1753021,26000,1277011,132,1.0,1999,,,4/7/2005 0:00,PC60-7,PC60,,-7,,Large / Medium,"Hydraulic Excavator, Track - 50.0 to 66.0 Metric Tons",Ohio,TEX,Track Excavators,,EROPS,,,,,,,,,,,Auxiliary,,,,,,None or Unspecified,,,,Rubber,None or Unspecified,None or Unspecified,None or Unspecified,None or Unspecified,Double,,,,,
532,1753331,25000,1186811,132,1.0,1999,,,12/19/2002 0:00,PC60-7,PC60,,-7,,Large / Medium,"Hydraulic Excavator, Track - 50.0 to 66.0 Metric Tons",Missouri,TEX,Track Excavators,,EROPS,,,,,,,,,,,Auxiliary,,,,,,None or Unspecified,,,,Steel,None or Unspecified,None or Unspecified,None or Unspecified,None or Unspecified,Double,,,,,
532,1753340,19500,1207705,132,1.0,1999,,,12/17/2002 0:00,PC60-7,PC60,,-7,,Large / Medium,"Hydraulic Excavator, Track - 50.0 to 66.0 Metric Tons",Maryland,TEX,Track Excavators,,EROPS,,,,,,,,,,,Standard,,,,,,None or Unspecified,,,,Steel,None or Unspecified,None or Unspecified,None or Unspecified,None or Unspecified,Double,,,,,
532,1753342,19500,1399696,132,1.0,1999,,,12/17/2002 0:00,PC60-7,PC60,,-7,,Large / Medium,"Hydraulic Excavator, Track - 50.0 to 66.0 Metric Tons",Maryland,TEX,Track Excavators,,EROPS,,,,,,,,,,,Standard,,,,,,None or Unspecified,,,,Steel,None or Unspecified,None or Unspecified,Manual,None or Unspecified,Triple,,,,,
532,1753345,25500,1150171,132,3.0,1999,,,7/21/2003 0:00,PC60-7,PC60,,-7,,Large / Medium,"Hydraulic Excavator, Track - 50.0 to 66.0 Metric Tons",Unspecified,TEX,Track Excavators,,EROPS,,,,,,,,,,,Standard,,,,,,None or Unspecified,,,,Steel,18 inch,None or Unspecified,None or Unspecified,None or Unspecified,Double,,,,,
532,1753348,25500,1445014,132,2.0,2000,,,3/25/2004 0:00,PC60-7,PC60,,-7,,Large / Medium,"Hydraulic Excavator, Track - 50.0 to 66.0 Metric Tons",New Jersey,TEX,Track Excavators,,EROPS w AC,,,,,,,,,,,Standard,,,,,,None or Unspecified,,,,Steel,18 inch,"8' 2""",None or Unspecified,None or Unspecified,Double,,,,,
532,1753359,20500,1463550,132,1.0,2000,,,3/27/2007 0:00,PC60-7,PC60,,-7,,Large / Medium,"Hydraulic Excavator, Track - 50.0 to 66.0 Metric Tons",Georgia,TEX,Track Excavators,,EROPS w AC,,,,,,,,,,,Standard,,,,,,None or Unspecified,,,,Steel,None or Unspecified,None or Unspecified,None or Unspecified,None or Unspecified,Double,,,,,
532,1753360,28500,1198240,132,2.0,1000,,,1/28/2006 0:00,PC60-7,PC60,,-7,,Large / Medium,"Hydraulic Excavator, Track - 50.0 to 66.0 Metric Tons",New Hampshire,TEX,Track Excavators,,EROPS,,,,,,,,,,,Standard,,,,,,None or Unspecified,,,,Steel,None or Unspecified,None or Unspecified,None or Unspecified,None or Unspecified,Double,,,,,
532,1753511,35000,1361952,132,2.0,2000,,,3/31/2005 0:00,PC60-7,PC60,,-7,,Large / Medium,"Hydraulic Excavator, Track - 50.0 to 66.0 Metric Tons",New Jersey,TEX,Track Excavators,,EROPS w AC,,,,,,,,,,,Standard,,,,,,None or Unspecified,,,,Steel,None or Unspecified,None or Unspecified,None or Unspecified,None or Unspecified,Double,,,,,
532,1753526,29500,1387284,132,2.0,2000,,,2/4/2007 0:00,PC60-7,PC60,,-7,,Large / Medium,"Hydraulic Excavator, Track - 50.0 to 66.0 Metric Tons",Florida,TEX,Track Excavators,,EROPS w AC,,,,,,,,,,,Standard,,,,,,None or Unspecified,,,,Steel,18 inch,None or Unspecified,None or Unspecified,None or Unspecified,Double,,,,,
532,1753554,27500,1100254,132,2.0,2001,,,3/25/2004 0:00,PC60-7,PC60,,-7,,Large / Medium,"Hydraulic Excavator, Track - 50.0 to 66.0 Metric Tons",New Jersey,TEX,Track Excavators,,EROPS w AC,,,,,,,,,,,Standard,,,,,,None or Unspecified,,,,Rubber,None or Unspecified,None or Unspecified,None or Unspecified,None or Unspecified,Double,,,,,
532,1753572,31500,1292775,132,5.0,2001,,,3/29/2005 0:00,PC60-7,PC60,,-7,,Large / Medium,"Hydraulic Excavator, Track - 50.0 to 66.0 Metric Tons",Connecticut,TEX,Track Excavators,,EROPS,,,,,,,,,,,Standard,,,,,,None or Unspecified,,,,Steel,None or Unspecified,None or Unspecified,None or Unspecified,None or Unspecified,Double,,,,,
532,1753580,30500,1197927,132,4.0,2002,,,2/12/2007 0:00,PC60-7,PC60,,-7,,Large / Medium,"Hydraulic Excavator, Track - 50.0 to 66.0 Metric Tons",Florida,TEX,Track Excavators,,EROPS w AC,,,,,,,,,,,Standard,,,,,,None or Unspecified,,,,Steel,None or Unspecified,None or Unspecified,None or Unspecified,None or Unspecified,Double,,,,,
532,1753581,30500,1197927,132,4.0,2002,,,2/15/2007 0:00,PC60-7,PC60,,-7,,Large / Medium,"Hydraulic Excavator, Track - 50.0 to 66.0 Metric Tons",Florida,TEX,Track Excavators,,EROPS w AC,,,,,,,,,,,Standard,,,,,,None or Unspecified,,,,Steel,None or Unspecified,None or Unspecified,None or Unspecified,None or Unspecified,Double,,,,,
532,1753582,32000,1366999,132,1.0,2002,,,11/15/2005 0:00,PC60-7,PC60,,-7,,Large / Medium,"Hydraulic Excavator, Track - 50.0 to 66.0 Metric Tons",Georgia,TEX,Track Excavators,,EROPS,,,,,,,,,,,Standard,,,,,,None or Unspecified,,,,Steel,None or Unspecified,None or Unspecified,None or Unspecified,None or Unspecified,Double,,,,,
532,1759653,12500,1481156,132,1.0,1995,,,12/5/2000 0:00,PC60-7,PC60,,-7,,Large / Medium,"Hydraulic Excavator, Track - 50.0 to 66.0 Metric Tons",California,TEX,Track Excavators,,EROPS,,,,,,,,,,,Standard,,,,,,None or Unspecified,,,,Steel,None or Unspecified,None or Unspecified,None or Unspecified,None or Unspecified,Double,,,,,
532,2405639,22500,1431106,136,4.0,1994,2191.0,Low,2/11/2008 0:00,PC60-7,PC60,,-7,,Large / Medium,"Hydraulic Excavator, Track - 50.0 to 66.0 Metric Tons",Florida,TEX,Track Excavators,,EROPS,,,,,,,,,,,Auxiliary,,,,,,None or Unspecified,,,,Steel,None or Unspecified,None or Unspecified,None or Unspecified,None or Unspecified,Double,,,,,
532,2405661,14500,1284991,136,1.0,1994,0.0,,11/19/2008 0:00,PC60-7,PC60,,-7,,Large / Medium,"Hydraulic Excavator, Track - 50.0 to 66.0 Metric Tons",South Carolina,TEX,Track Excavators,,EROPS w AC,,,,,,,,,,,Standard,,,,,,None or Unspecified,,,,Steel,24 inch,None or Unspecified,None or Unspecified,None or Unspecified,Double,,,,,
532,2406013,13500,1302198,136,27.0,1994,5426.0,Low,4/4/2008 0:00,PC60-7,PC60,,-7,,Large / Medium,"Hydraulic Excavator, Track - 50.0 to 66.0 Metric Tons",North Carolina,TEX,Track Excavators,,EROPS,,,,,,,,,,,Auxiliary,,,,,,None or Unspecified,,,,Steel,None or Unspecified,None or Unspecified,Manual,None or Unspecified,Double,,,,,
532,2406039,20000,1104964,136,1.0,1000,0.0,,5/14/2009 0:00,PC60-7,PC60,,-7,,Large / Medium,"Hydraulic Excavator, Track - 50.0 to 66.0 Metric Tons",Pennsylvania,TEX,Track Excavators,,EROPS,,,,,,,,,,,Auxiliary,,,,,,Manual,,,,Steel,None or Unspecified,None or Unspecified,None or Unspecified,None or Unspecified,Double,,,,,
532,2406047,8000,1396233,136,1.0,2000,0.0,,3/4/2009 0:00,PC60-7,PC60,,-7,,Large / Medium,"Hydraulic Excavator, Track - 50.0 to 66.0 Metric Tons",Texas,TEX,Track Excavators,,EROPS,,,,,,,,,,,Standard,,,,,,None or Unspecified,,,,Rubber,None or Unspecified,None or Unspecified,None or Unspecified,None or Unspecified,Double,,,,,
532,2406123,9000,1447964,136,1.0,1000,0.0,,5/25/2010 0:00,PC60-7,PC60,,-7,,Large / Medium,"Hydraulic Excavator, Track - 50.0 to 66.0 Metric Tons",Florida,TEX,Track Excavators,,EROPS,,,,,,,,,,,Standard,,,,,,None or Unspecified,,,,Steel,None or Unspecified,None or Unspecified,None or Unspecified,None or Unspecified,Double,,,,,
532,2406124,24000,1675720,136,,2000,0.0,,6/16/2007 0:00,PC60-7,PC60,,-7,,Large / Medium,"Hydraulic Excavator, Track - 50.0 to 66.0 Metric Tons",New Hampshire,TEX,Track Excavators,,EROPS w AC,,,,,,,,,,,Standard,,,,,,None or Unspecified,,,,Steel,None or Unspecified,None or Unspecified,None or Unspecified,None or Unspecified,Double,,,,,
532,2406405,10500,1334014,136,1.0,1995,0.0,,12/16/2008 0:00,PC60-7,PC60,,-7,,Large / Medium,"Hydraulic Excavator, Track - 50.0 to 66.0 Metric Tons",Washington,TEX,Track Excavators,,EROPS,,,,,,,,,,,Standard,,,,,,Manual,,,,Steel,None or Unspecified,None or Unspecified,None or Unspecified,None or Unspecified,Double,,,,,
532,2406683,17500,1108442,136,2.0,1996,0.0,,1/12/2008 0:00,PC60-7,PC60,,-7,,Large / Medium,"Hydraulic Excavator, Track - 50.0 to 66.0 Metric Tons",New York,TEX,Track Excavators,,EROPS,,,,,,,,,,,Standard,,,,,,None or Unspecified,,,,Steel,None or Unspecified,None or Unspecified,None or Unspecified,None or Unspecified,Double,,,,,
532,2406700,19500,1525110,136,2.0,1000,0.0,,5/3/2009 0:00,PC60-7,PC60,,-7,,Large / Medium,"Hydraulic Excavator, Track - 50.0 to 66.0 Metric Tons",New York,TEX,Track Excavators,,EROPS w AC,,,,,,,,,,,Auxiliary,,,,,,None or Unspecified,,,,Steel,18 inch,None or Unspecified,Manual,None or Unspecified,Double,,,,,
532,2406754,13500,1672836,136,99.0,1000,0.0,,3/20/2010 0:00,PC60-7,PC60,,-7,,Large / Medium,"Hydraulic Excavator, Track - 50.0 to 66.0 Metric Tons",Washington,TEX,Track Excavators,,EROPS,,,,,,,,,,,Standard,,,,,,None or Unspecified,,,,Steel,None or Unspecified,None or Unspecified,None or Unspecified,None or Unspecified,Double,,,,,
532,2406941,18500,1106004,136,2.0,1996,0.0,,2/3/2008 0:00,PC60-7,PC60,,-7,,Large / Medium,"Hydraulic Excavator, Track - 50.0 to 66.0 Metric Tons",Florida,TEX,Track Excavators,,EROPS,,,,,,,,,,,Standard,,,,,,None or Unspecified,,,,Steel,None or Unspecified,None or Unspecified,Manual,None or Unspecified,Double,,,,,
532,2407028,15000,221553,136,1.0,1000,0.0,,2/15/2010 0:00,PC60-7,PC60,,-7,,Large / Medium,"Hydraulic Excavator, Track - 50.0 to 66.0 Metric Tons",Florida,TEX,Track Excavators,,EROPS w AC,,,,,,,,,,,Auxiliary,,,,,,None or Unspecified,,,,Steel,None or Unspecified,None or Unspecified,None or Unspecified,None or Unspecified,Double,,,,,
532,2407170,15000,1373949,136,1.0,1000,0.0,,12/12/2008 0:00,PC60-7,PC60,,-7,,Large / Medium,"Hydraulic Excavator, Track - 50.0 to 66.0 Metric Tons",Colorado,TEX,Track Excavators,,EROPS,,,,,,,,,,,Auxiliary,,,,,,None or Unspecified,,,,Steel,None or Unspecified,None or Unspecified,None or Unspecified,None or Unspecified,Double,,,,,
532,2407229,9000,1468574,136,1.0,2000,0.0,,12/14/2009 0:00,PC60-7,PC60,,-7,,Large / Medium,"Hydraulic Excavator, Track - 50.0 to 66.0 Metric Tons",New Mexico,TEX,Track Excavators,,EROPS,,,,,,,,,,,Standard,,,,,,None or Unspecified,,,,Rubber,28 inch,None or Unspecified,None or Unspecified,None or Unspecified,Double,,,,,
532,2407230,17000,1468574,136,1.0,1000,0.0,,6/19/2008 0:00,PC60-7,PC60,,-7,,Large / Medium,"Hydraulic Excavator, Track - 50.0 to 66.0 Metric Tons",Arizona,TEX,Track Excavators,,EROPS,,,,,,,,,,,Standard,,,,,,None or Unspecified,,,,Rubber,28 inch,None or Unspecified,None or Unspecified,None or Unspecified,Double,,,,,
532,2407319,11500,1154088,136,1.0,1000,5291.0,Medium,5/6/2010 0:00,PC60-7,PC60,,-7,,Large / Medium,"Hydraulic Excavator, Track - 50.0 to 66.0 Metric Tons",Texas,TEX,Track Excavators,,EROPS,,,,,,,,,,,Auxiliary,,,,,,None or Unspecified,,,,Steel,None or Unspecified,None or Unspecified,None or Unspecified,None or Unspecified,Double,,,,,
532,2407371,19000,1767286,136,,1997,0.0,,9/12/2007 0:00,PC60-7,PC60,,-7,,Large / Medium,"Hydraulic Excavator, Track - 50.0 to 66.0 Metric Tons",Missouri,TEX,Track Excavators,,EROPS w AC,,,,,,,,,,,Standard,,,,,,Manual,,,,Rubber,None or Unspecified,None or Unspecified,None or Unspecified,None or Unspecified,Double,,,,,
532,2407481,16000,1645049,136,,1998,0.0,,10/1/2008 0:00,PC60-7,PC60,,-7,,Large / Medium,"Hydraulic Excavator, Track - 50.0 to 66.0 Metric Tons",Maryland,TEX,Track Excavators,,EROPS,,,,,,,,,,,Auxiliary,,,,,,None or Unspecified,,,,Steel,None or Unspecified,None or Unspecified,None or Unspecified,None or Unspecified,Double,,,,,
532,2407483,11000,1248003,136,1.0,1999,0.0,,12/3/2008 0:00,PC60-7,PC60,,-7,,Large / Medium,"Hydraulic Excavator, Track - 50.0 to 66.0 Metric Tons",Texas,TEX,Track Excavators,,EROPS w AC,,,,,,,,,,,Standard,,,,,,None or Unspecified,,,,Steel,None or Unspecified,None or Unspecified,None or Unspecified,None or Unspecified,Double,,,,,
532,2407542,11500,1316728,136,1.0,1000,0.0,,11/17/2009 0:00,PC60-7,PC60,,-7,,Large / Medium,"Hydraulic Excavator, Track - 50.0 to 66.0 Metric Tons",Texas,TEX,Track Excavators,,EROPS,,,,,,,,,,,Standard,,,,,,None or Unspecified,,,,Steel,None or Unspecified,None or Unspecified,None or Unspecified,None or Unspecified,Double,,,,,
532,2407612,17500,1446291,136,5.0,1998,0.0,,8/24/2007 0:00,PC60-7,PC60,,-7,,Large / Medium,"Hydraulic Excavator, Track - 50.0 to 66.0 Metric Tons",Connecticut,TEX,Track Excavators,,EROPS,,,,,,,,,,,Standard,,,,,,None or Unspecified,,,,Steel,None or Unspecified,None or Unspecified,None or Unspecified,None or Unspecified,Double,,,,,
532,2407656,10000,1285498,136,1.0,1998,0.0,,2/16/2009 0:00,PC60-7,PC60,,-7,,Large / Medium,"Hydraulic Excavator, Track - 50.0 to 66.0 Metric Tons",Florida,TEX,Track Excavators,,EROPS,,,,,,,,,,,Standard,,,,,,None or Unspecified,,,,Steel,None or Unspecified,None or Unspecified,None or Unspecified,None or Unspecified,Double,,,,,
532,2407659,11500,1097458,136,1.0,1000,0.0,,11/17/2009 0:00,PC60-7,PC60,,-7,,Large / Medium,"Hydraulic Excavator, Track - 50.0 to 66.0 Metric Tons",Texas,TEX,Track Excavators,,EROPS,,,,,,,,,,,Standard,,,,,,None or Unspecified,,,,Steel,None or Unspecified,None or Unspecified,None or Unspecified,None or Unspecified,Double,,,,,
532,2407703,15000,1434920,136,1.0,1999,0.0,,6/10/2010 0:00,PC60-7,PC60,,-7,,Large / Medium,"Hydraulic Excavator, Track - 50.0 to 66.0 Metric Tons",Colorado,TEX,Track Excavators,,EROPS w AC,,,,,,,,,,,Standard,,,,,,None or Unspecified,,,,Rubber,None or Unspecified,None or Unspecified,None or Unspecified,None or Unspecified,Double,,,,,
532,2407856,30500,1641907,136,,2000,0.0,,7/19/2008 0:00,PC60-7,PC60,,-7,,Large / Medium,"Hydraulic Excavator, Track - 50.0 to 66.0 Metric Tons",New York,TEX,Track Excavators,,EROPS w AC,,,,,,,,,,,Standard,,,,,,None or Unspecified,,,,Steel,None or Unspecified,None or Unspecified,None or Unspecified,None or Unspecified,Double,,,,,
532,2407883,22500,1738284,136,,2000,0.0,,3/19/2009 0:00,PC60-7,PC60,,-7,,Large / Medium,"Hydraulic Excavator, Track - 50.0 to 66.0 Metric Tons",New Jersey,TEX,Track Excavators,,EROPS w AC,,,,,,,,,,,Standard,,,,,,None or Unspecified,,,,Steel,None or Unspecified,None or Unspecified,None or Unspecified,None or Unspecified,Double,,,,,
532,2407884,25000,1738284,136,,2000,0.0,,2/3/2008 0:00,PC60-7,PC60,,-7,,Large / Medium,"Hydraulic Excavator, Track - 50.0 to 66.0 Metric Tons",Florida,TEX,Track Excavators,,EROPS w AC,,,,,,,,,,,Standard,,,,,,None or Unspecified,,,,Steel,None or Unspecified,None or Unspecified,None or Unspecified,None or Unspecified,Double,,,,,
532,2407888,13000,1788369,136,,1999,0.0,,9/24/2008 0:00,PC60-7,PC60,,-7,,Large / Medium,"Hydraulic Excavator, Track - 50.0 to 66.0 Metric Tons",Texas,TEX,Track Excavators,,EROPS,,,,,,,,,,,Auxiliary,,,,,,None or Unspecified,,,,Rubber,None or Unspecified,None or Unspecified,None or Unspecified,None or Unspecified,Double,,,,,
532,2407904,15000,1660311,136,,2000,2533.0,Low,9/20/2007 0:00,PC60-7,PC60,,-7,,Large / Medium,"Hydraulic Excavator, Track - 50.0 to 66.0 Metric Tons",Georgia,TEX,Track Excavators,,EROPS,,,,,,,,,,,Standard,,,,,,None or Unspecified,,,,Steel,None or Unspecified,None or Unspecified,None or Unspecified,None or Unspecified,Double,,,,,
532,2407906,15500,1649130,136,,1999,0.0,,5/9/2009 0:00,PC60-7,PC60,,-7,,Large / Medium,"Hydraulic Excavator, Track - 50.0 to 66.0 Metric Tons",Maine,TEX,Track Excavators,,EROPS,,,,,,,,,,,Auxiliary,,,,,,None or Unspecified,,,,Steel,None or Unspecified,None or Unspecified,None or Unspecified,None or Unspecified,Double,,,,,
532,2407907,12500,1727861,136,,1999,0.0,,9/25/2009 0:00,PC60-7,PC60,,-7,,Large / Medium,"Hydraulic Excavator, Track - 50.0 to 66.0 Metric Tons",Wisconsin,TEX,Track Excavators,,EROPS,,,,,,,,,,,Standard,,,,,,None or Unspecified,,,,Steel,None or Unspecified,None or Unspecified,Hydraulic,None or Unspecified,Double,,,,,
532,2407940,16500,90949,136,2.0,2000,0.0,,12/27/2008 0:00,PC60-7,PC60,,-7,,Large / Medium,"Hydraulic Excavator, Track - 50.0 to 66.0 Metric Tons",New York,TEX,Track Excavators,,EROPS w AC,,,,,,,,,,,Auxiliary,,,,,,Manual,,,,Steel,None or Unspecified,None or Unspecified,None or Unspecified,None or Unspecified,Double,,,,,
532,2407977,15000,1781526,136,,2000,385700.0,High,4/2/2009 0:00,PC60-7,PC60,,-7,,Large / Medium,"Hydraulic Excavator, Track - 50.0 to 66.0 Metric Tons",Mississippi,TEX,Track Excavators,,EROPS,,,,,,,,,,,Auxiliary,,,,,,None or Unspecified,,,,Steel,None or Unspecified,None or Unspecified,None or Unspecified,None or Unspecified,Double,,,,,
532,2407986,25500,1668013,136,,2000,0.0,,6/7/2008 0:00,PC60-7,PC60,,-7,,Large / Medium,"Hydraulic Excavator, Track - 50.0 to 66.0 Metric Tons",Connecticut,TEX,Track Excavators,,EROPS w AC,,,,,,,,,,,Standard,,,,,,None or Unspecified,,,,Steel,None or Unspecified,None or Unspecified,None or Unspecified,None or Unspecified,Double,,,,,
532,2408016,29000,1130587,136,1.0,2000,0.0,,3/27/2008 0:00,PC60-7,PC60,,-7,,Large / Medium,"Hydraulic Excavator, Track - 50.0 to 66.0 Metric Tons",New Jersey,TEX,Track Excavators,,EROPS w AC,,,,,,,,,,,Auxiliary,,,,,,None or Unspecified,,,,Steel,18 inch,None or Unspecified,None or Unspecified,None or Unspecified,Double,,,,,
532,2408017,22000,1130587,136,2.0,2000,0.0,,1/31/2009 0:00,PC60-7,PC60,,-7,,Large / Medium,"Hydraulic Excavator, Track - 50.0 to 66.0 Metric Tons",Florida,TEX,Track Excavators,,EROPS w AC,,,,,,,,,,,Auxiliary,,,,,,None or Unspecified,,,,Steel,18 inch,None or Unspecified,None or Unspecified,None or Unspecified,Double,,,,,
532,2408053,22000,1668427,136,,2000,131000.0,High,3/11/2009 0:00,PC60-7,PC60,,-7,,Large / Medium,"Hydraulic Excavator, Track - 50.0 to 66.0 Metric Tons",Alabama,TEX,Track Excavators,,EROPS,,,,,,,,,,,Standard,,,,,,Manual,,,,Steel,24 inch,None or Unspecified,None or Unspecified,None or Unspecified,Triple,,,,,
532,2408063,9000,1720114,136,,2000,3846.0,Low,2/27/2009 0:00,PC60-7,PC60,,-7,,Large / Medium,"Hydraulic Excavator, Track - 50.0 to 66.0 Metric Tons",Virginia,TEX,Track Excavators,,EROPS,,,,,,,,,,,Standard,,,,,,None or Unspecified,,,,Steel,None or Unspecified,None or Unspecified,None or Unspecified,None or Unspecified,Double,,,,,
532,2408064,9000,1720114,136,,2001,0.0,,6/26/2008 0:00,PC60-7,PC60,,-7,,Large / Medium,"Hydraulic Excavator, Track - 50.0 to 66.0 Metric Tons",Georgia,TEX,Track Excavators,,EROPS,,,,,,,,,,,Standard,,,,,,None or Unspecified,,,,Steel,None or Unspecified,None or Unspecified,None or Unspecified,None or Unspecified,Double,,,,,
532,2408075,21000,1385625,136,1.0,2001,0.0,,9/17/2008 0:00,PC60-7,PC60,,-7,,Large / Medium,"Hydraulic Excavator, Track - 50.0 to 66.0 Metric Tons",Illinois,TEX,Track Excavators,,EROPS,,,,,,,,,,,Auxiliary,,,,,,Manual,,,,Rubber,None or Unspecified,None or Unspecified,None or Unspecified,None or Unspecified,Double,,,,,
532,2408117,29500,1120050,136,2.0,2001,0.0,,3/27/2008 0:00,PC60-7,PC60,,-7,,Large / Medium,"Hydraulic Excavator, Track - 50.0 to 66.0 Metric Tons",New Jersey,TEX,Track Excavators,,EROPS w AC,,,,,,,,,,,Standard,,,,,,None or Unspecified,,,,Steel,18 inch,None or Unspecified,None or Unspecified,None or Unspecified,Double,,,,,
532,2408186,17000,1334798,136,1.0,2002,0.0,,12/16/2009 0:00,PC60-7,PC60,,-7,,Large / Medium,"Hydraulic Excavator, Track - 50.0 to 66.0 Metric Tons",Maryland,TEX,Track Excavators,,EROPS,,,,,,,,,,,Standard,,,,,,None or Unspecified,,,,Steel,None or Unspecified,None or Unspecified,None or Unspecified,None or Unspecified,Double,,,,,
532,2408193,34500,1303377,136,2.0,2002,0.0,,7/28/2007 0:00,PC60-7,PC60,,-7,,Large / Medium,"Hydraulic Excavator, Track - 50.0 to 66.0 Metric Tons",New York,TEX,Track Excavators,,EROPS w AC,,,,,,,,,,,Standard,,,,,,None or Unspecified,,,,Steel,None or Unspecified,None or Unspecified,None or Unspecified,None or Unspecified,Double,,,,,
532,2408200,30000,1085298,136,2.0,2002,0.0,,10/9/2007 0:00,PC60-7,PC60,,-7,,Large / Medium,"Hydraulic Excavator, Track - 50.0 to 66.0 Metric Tons",Florida,TEX,Track Excavators,,EROPS w AC,,,,,,,,,,,Standard,,,,,,None or Unspecified,,,,Steel,None or Unspecified,None or Unspecified,None or Unspecified,None or Unspecified,Double,,,,,
532,2408201,27000,1085298,136,2.0,2002,0.0,,12/11/2007 0:00,PC60-7,PC60,,-7,,Large / Medium,"Hydraulic Excavator, Track - 50.0 to 66.0 Metric Tons",Florida,TEX,Track Excavators,,EROPS w AC,,,,,,,,,,,Standard,,,,,,None or Unspecified,,,,Steel,None or Unspecified,None or Unspecified,None or Unspecified,None or Unspecified,Double,,,,,
532,2408202,25000,1085298,136,2.0,2002,0.0,,2/3/2008 0:00,PC60-7,PC60,,-7,,Large / Medium,"Hydraulic Excavator, Track - 50.0 to 66.0 Metric Tons",Florida,TEX,Track Excavators,,EROPS w AC,,,,,,,,,,,Standard,,,,,,None or Unspecified,,,,Steel,None or Unspecified,None or Unspecified,None or Unspecified,None or Unspecified,Double,,,,,
532,2408204,29500,1678391,136,,2002,0.0,,9/28/2007 0:00,PC60-7,PC60,,-7,,Large / Medium,"Hydraulic Excavator, Track - 50.0 to 66.0 Metric Tons",New Jersey,TEX,Track Excavators,,EROPS w AC,,,,,,,,,,,Standard,,,,,,None or Unspecified,,,,Steel,None or Unspecified,None or Unspecified,None or Unspecified,None or Unspecified,Double,,,,,
532,2408205,26000,1678391,136,,2002,0.0,,2/3/2008 0:00,PC60-7,PC60,,-7,,Large / Medium,"Hydraulic Excavator, Track - 50.0 to 66.0 Metric Tons",Florida,TEX,Track Excavators,,EROPS w AC,,,,,,,,,,,Standard,,,,,,None or Unspecified,,,,Steel,None or Unspecified,None or Unspecified,None or Unspecified,None or Unspecified,Double,,,,,
532,2423209,7750,1754595,136,2.0,1000,0.0,,5/5/2010 0:00,PC60-7,PC60,,-7,,Large / Medium,"Hydraulic Excavator, Track - 50.0 to 66.0 Metric Tons",Texas,TEX,Track Excavators,,EROPS w AC,,,,,,,,,,,Auxiliary,,,,,,None or Unspecified,,,,Rubber,None or Unspecified,None or Unspecified,None or Unspecified,None or Unspecified,Double,,,,,
532,2695334,18000,1164628,149,1.0,1995,3742.0,Low,4/19/2011 0:00,PC60-7,PC60,,-7,,Large / Medium,"Hydraulic Excavator, Track - 50.0 to 66.0 Metric Tons",Utah,TEX,Track Excavators,,EROPS,,,,,,,,,,,Standard,,,,,,None or Unspecified,,,,Steel,None or Unspecified,None or Unspecified,None or Unspecified,None or Unspecified,Double,,,,,
532,2695942,21000,1251866,149,1.0,2002,4263.0,Medium,4/19/2011 0:00,PC60-7,PC60,,-7,,Large / Medium,"Hydraulic Excavator, Track - 50.0 to 66.0 Metric Tons",Utah,TEX,Track Excavators,,EROPS,,,,,,,,,,,Standard,,,,,,None or Unspecified,,,,Steel,None or Unspecified,None or Unspecified,Hydraulic,None or Unspecified,Double,,,,,
532,4356960,15500,2267366,172,1.0,1996,5310.0,Low,5/5/2010 0:00,PC60-7,PC60,,-7,,Large / Medium,"Hydraulic Excavator, Track - 50.0 to 66.0 Metric Tons",Washington,TEX,Track Excavators,,EROPS,,,,,,,,,,,Standard,,,,,,None or Unspecified,,,,Steel,None or Unspecified,None or Unspecified,Hydraulic,None or Unspecified,Double,,,,,
532,4357247,17000,1823848,172,1.0,1996,6589.0,High,8/9/2011 0:00,PC60-7,PC60,,-7,,Large / Medium,"Hydraulic Excavator, Track - 50.0 to 66.0 Metric Tons",Colorado,TEX,Track Excavators,,EROPS w AC,,,,,,,,,,,Base + 1 Function,,,,,,,,,,,,,,,,,,,,
532,4357250,17000,1823848,172,1.0,1996,6589.0,High,8/10/2011 0:00,PC60-7,PC60,,-7,,Large / Medium,"Hydraulic Excavator, Track - 50.0 to 66.0 Metric Tons",Colorado,TEX,Track Excavators,,EROPS w AC,,,,,,,,,,,Base + 1 Function,,,,,,,,,,,,,,,,,,,,
532,4358764,19000,2274670,172,1.0,2000,6443.0,Medium,9/29/2011 0:00,PC60-7,PC60,,-7,,Large / Medium,"Hydraulic Excavator, Track - 50.0 to 66.0 Metric Tons",Missouri,TEX,Track Excavators,,EROPS w AC,,,,,,,,,,,2 Valve,,,,,,None or Unspecified,,,,,,,,,,,,,,
532,6303081,17500,1885744,149,15.0,2000,,,12/7/2011 0:00,PC60-7,PC60,,-7,,Large / Medium,"Hydraulic Excavator, Track - 50.0 to 66.0 Metric Tons",New Jersey,TEX,Track Excavators,,EROPS,,,,,,,,,,,Standard,,,,,,None or Unspecified,,,,Steel,None or Unspecified,None or Unspecified,None or Unspecified,None or Unspecified,Double,,,,,
532,6303336,12000,1821854,149,1.0,2000,,,12/8/2011 0:00,PC60-7,PC60,,-7,,Large / Medium,"Hydraulic Excavator, Track - 50.0 to 66.0 Metric Tons",Texas,TEX,Track Excavators,,EROPS,,,,,,,,,,,Standard,,,,,,None or Unspecified,,,,Steel,None or Unspecified,None or Unspecified,None or Unspecified,None or Unspecified,Double,,,,,
532,6304214,19000,1835668,149,1.0,2000,,,9/30/2011 0:00,PC60-7,PC60,,-7,,Large / Medium,"Hydraulic Excavator, Track - 50.0 to 66.0 Metric Tons",Missouri,TEX,Track Excavators,,EROPS,,,,,,,,,,,Auxiliary,,,,,,Manual,,,,Steel,None or Unspecified,None or Unspecified,None or Unspecified,None or Unspecified,Double,,,,,
