ModelID,SalesID,SalePrice,MachineID,datasource,auctioneerID,YearMade,MachineHoursCurrentMeter,UsageBand,saledate,fiModelDesc,fiBaseModel,fiSecondaryDesc,fiModelSeries,fiModelDescriptor,ProductSize,fiProductClassDesc,state,ProductGroup,ProductGroupDesc,Drive_System,Enclosure,Forks,Pad_Type,Ride_Control,Stick,Transmission,Turbocharged,Blade_Extension,Blade_Width,Enclosure_Type,Engine_Horsepower,Hydraulics,Pushblock,Ripper,Scarifier,Tip_Control,Tire_Size,Coupler,Coupler_System,Grouser_Tracks,Hydraulics_Flow,Track_Type,Undercarriage_Pad_Width,Stick_Length,Thumb,Pattern_Changer,Grouser_Type,Backhoe_Mounting,Blade_Type,Travel_Controls,Differential_Type,Steering_Controls
5328,1753161,45000,1104875,132,1.0,1987,,,8/29/2006 0:00,GD505A,GD505,A,,,,Motorgrader - 45.0 to 130.0 Horsepower,California,MG,Motor Graders,No,OROPS,,,,,None or Unspecified,,None or Unspecified,None or Unspecified,None or Unspecified,No,Base + 1 Function,Yes,Yes,None or Unspecified,None or Unspecified,"17.5""",,,,,,,,,,,,,,,
5328,1753646,34000,1283176,132,8.0,1984,,,5/25/2005 0:00,GD505A,GD505,A,,,,Motorgrader - 45.0 to 130.0 Horsepower,Mississippi,MG,Motor Graders,No,EROPS,,,,,None or Unspecified,,None or Unspecified,12',None or Unspecified,No,Base + 1 Function,None or Unspecified,None or Unspecified,Yes,Sideshift & Tip,"15.5""",,,,,,,,,,,,,,,
5328,1753716,25000,1519999,132,4.0,1984,,,2/12/2007 0:00,GD505A,GD505,A,,,,Motorgrader - 45.0 to 130.0 Horsepower,Florida,MG,Motor Graders,No,EROPS,,,,,None or Unspecified,,None or Unspecified,14',None or Unspecified,No,Base + 1 Function,None or Unspecified,None or Unspecified,Yes,Sideshift & Tip,None or Unspecified,,,,,,,,,,,,,,,
5328,1753825,27000,1503614,132,4.0,1991,,,2/5/1998 0:00,GD505A,GD505,A,,,,Motorgrader - 45.0 to 130.0 Horsepower,Florida,MG,Motor Graders,,EROPS w AC,,,,,,,,,,,Auxiliary,,,,,,,,,,,,,,,,,,,,
5328,2696273,27000,1353070,149,26.0,1000,0.0,,10/21/2010 0:00,GD505A,GD505,A,,,,Motorgrader - 45.0 to 130.0 Horsepower,South Carolina,MG,Motor Graders,No,EROPS,,,,,None or Unspecified,,None or Unspecified,None or Unspecified,None or Unspecified,No,Base + 1 Function,None or Unspecified,None or Unspecified,None or Unspecified,Tip,None or Unspecified,,,,,,,,,,,,,,,
