ModelID,SalesID,SalePrice,MachineID,datasource,auctioneerID,YearMade,MachineHoursCurrentMeter,UsageBand,saledate,fiModelDesc,fiBaseModel,fiSecondaryDesc,fiModelSeries,fiModelDescriptor,ProductSize,fiProductClassDesc,state,ProductGroup,ProductGroupDesc,Drive_System,Enclosure,Forks,Pad_Type,Ride_Control,Stick,Transmission,Turbocharged,Blade_Extension,Blade_Width,Enclosure_Type,Engine_Horsepower,Hydraulics,Pushblock,Ripper,Scarifier,Tip_Control,Tire_Size,Coupler,Coupler_System,Grouser_Tracks,Hydraulics_Flow,Track_Type,Undercarriage_Pad_Width,Stick_Length,Thumb,Pattern_Changer,Grouser_Type,Backhoe_Mounting,Blade_Type,Travel_Controls,Differential_Type,Steering_Controls
5329,2406250,32500,1460351,136,1.0,1000,0.0,,2/15/2010 0:00,GD515A,GD515,A,,,,Motorgrader - 45.0 to 130.0 Horsepower,Florida,MG,Motor Graders,,EROPS,,,,,Standard,,,,,,2 Valve,,None or Unspecified,,,,,,,,,,,,,,,,,,
5329,2695403,32500,204358,149,1.0,1000,0.0,,2/15/2010 0:00,GD515A,GD515,A,,,,Motorgrader - 45.0 to 130.0 Horsepower,Florida,MG,Motor Graders,No,EROPS w AC,,,,,None or Unspecified,,None or Unspecified,14',None or Unspecified,No,Base + 1 Function,None or Unspecified,None or Unspecified,None or Unspecified,Tip,None or Unspecified,,,,,,,,,,,,,,,
