ModelID,SalesID,SalePrice,MachineID,datasource,auctioneerID,YearMade,MachineHoursCurrentMeter,UsageBand,saledate,fiModelDesc,fiBaseModel,fiSecondaryDesc,fiModelSeries,fiModelDescriptor,ProductSize,fiProductClassDesc,state,ProductGroup,ProductGroupDesc,Drive_System,Enclosure,Forks,Pad_Type,Ride_Control,Stick,Transmission,Turbocharged,Blade_Extension,Blade_Width,Enclosure_Type,Engine_Horsepower,Hydraulics,Pushblock,Ripper,Scarifier,Tip_Control,Tire_Size,Coupler,Coupler_System,Grouser_Tracks,Hydraulics_Flow,Track_Type,Undercarriage_Pad_Width,Stick_Length,Thumb,Pattern_Changer,Grouser_Type,Backhoe_Mounting,Blade_Type,Travel_Controls,Differential_Type,Steering_Controls
5335,1195025,34250,1024067,121,3.0,1000,16588.0,High,11/19/2009 0:00,GD625A,GD625,A,,,,Motorgrader - 145.0 to 170.0 Horsepower,Pennsylvania,MG,Motor Graders,,EROPS w AC,,,,,,,,,,,2 Valve,,,,,None or Unspecified,,,,,,,,,,,,,,,
5335,1750595,28500,891875,132,10.0,1987,,,10/24/2001 0:00,GD625A,GD625,A,,,,Motorgrader - 145.0 to 170.0 Horsepower,Pennsylvania,MG,Motor Graders,,EROPS w AC,,,,,,,,,,,Standard,,,,,,,,,,,,,,,,,,,,
5335,1750631,41000,1103207,132,19.0,1987,,,2/17/1993 0:00,GD625A,GD625,A,,,,Motorgrader - 145.0 to 170.0 Horsepower,Arizona,MG,Motor Graders,,EROPS w AC,,,,,,,,,,,2 Valve,,,,,23.5,,,,,,,,,,,,,,,
5335,1750634,33000,1277491,132,1.0,1986,,,6/3/1993 0:00,GD625A,GD625,A,,,,Motorgrader - 145.0 to 170.0 Horsepower,California,MG,Motor Graders,No,OROPS,,,,,None or Unspecified,,None or Unspecified,14',None or Unspecified,No,Base + 1 Function,None or Unspecified,Yes,Yes,None or Unspecified,"17.5""",,,,,,,,,,,,,,,
5335,1750639,44000,1491946,132,19.0,1987,,,2/17/1993 0:00,GD625A,GD625,A,,,,Motorgrader - 145.0 to 170.0 Horsepower,Arizona,MG,Motor Graders,,EROPS,,,,,,,,,,,Standard,,,,,,,,,,,,,,,,,,,,
5335,1750689,32000,1549200,132,1.0,1987,,,4/27/2000 0:00,GD625A,GD625,A,,,,Motorgrader - 145.0 to 170.0 Horsepower,Florida,MG,Motor Graders,No,OROPS,,,,,None or Unspecified,,None or Unspecified,14',None or Unspecified,No,Base + 1 Function,None or Unspecified,None or Unspecified,Yes,None or Unspecified,None or Unspecified,,,,,,,,,,,,,,,
5335,1750690,22500,1549200,132,8.0,1987,,,7/20/2011 0:00,GD625A,GD625,A,,,,Motorgrader - 145.0 to 170.0 Horsepower,Mississippi,MG,Motor Graders,No,OROPS,,,,,None or Unspecified,,None or Unspecified,14',None or Unspecified,No,Base + 1 Function,None or Unspecified,None or Unspecified,Yes,None or Unspecified,None or Unspecified,,,,,,,,,,,,,,,
5335,1750704,34500,1490546,132,4.0,1987,,,2/1/1993 0:00,GD625A,GD625,A,,,,Motorgrader - 145.0 to 170.0 Horsepower,Florida,MG,Motor Graders,,EROPS w AC,,,,,Standard,,,,,,2 Valve,,Single Shank,,,,,,,,,,,,,,,,,,
5335,1750732,35000,92492,132,2.0,1000,,,7/15/2000 0:00,GD625A,GD625,A,,,,Motorgrader - 145.0 to 170.0 Horsepower,New York,MG,Motor Graders,,EROPS w AC,,,,,Standard,,,,,,2 Valve,,None or Unspecified,,,,,,,,,,,,,,,,,,
5335,1750753,37500,1268561,132,99.0,1987,,,7/22/1993 0:00,GD625A,GD625,A,,,,Motorgrader - 145.0 to 170.0 Horsepower,California,MG,Motor Graders,,EROPS,,,,,,,,,,,Auxiliary,,,,,,,,,,,,,,,,,,,,
5335,1753697,41000,1122754,132,6.0,1988,,,2/19/1993 0:00,GD625A,GD625,A,,,,Motorgrader - 145.0 to 170.0 Horsepower,Florida,MG,Motor Graders,,EROPS,,,,,,,,,,,2 Valve,,None or Unspecified,Yes,,,,,,,,,,,,,,,,,
5335,1753726,50000,1427170,132,4.0,1989,,,2/1/1993 0:00,GD625A,GD625,A,,,,Motorgrader - 145.0 to 170.0 Horsepower,Florida,MG,Motor Graders,,EROPS w AC,,,,,,,,,,,2 Valve,,,,,20.5,,,,,,,,,,,,,,,
