ModelID,SalesID,SalePrice,MachineID,datasource,auctioneerID,YearMade,MachineHoursCurrentMeter,UsageBand,saledate,fiModelDesc,fiBaseModel,fiSecondaryDesc,fiModelSeries,fiModelDescriptor,ProductSize,fiProductClassDesc,state,ProductGroup,ProductGroupDesc,Drive_System,Enclosure,Forks,Pad_Type,Ride_Control,Stick,Transmission,Turbocharged,Blade_Extension,Blade_Width,Enclosure_Type,Engine_Horsepower,Hydraulics,Pushblock,Ripper,Scarifier,Tip_Control,Tire_Size,Coupler,Coupler_System,Grouser_Tracks,Hydraulics_Flow,Track_Type,Undercarriage_Pad_Width,Stick_Length,Thumb,Pattern_Changer,Grouser_Type,Backhoe_Mounting,Blade_Type,Travel_Controls,Differential_Type,Steering_Controls
5336,1207821,44000,1038997,121,3.0,1000,,,10/7/2010 0:00,GD625A-1,GD625,A,-1,,,Motorgrader - 145.0 to 170.0 Horsepower,Virginia,MG,Motor Graders,,EROPS,,,,,Standard,,,,,,2 Valve,,None or Unspecified,,,,,,,,,,,,,,,,,,
5336,1750715,29500,1460351,132,2.0,1000,,,6/5/1999 0:00,GD625A-1,GD625,A,-1,,,Motorgrader - 145.0 to 170.0 Horsepower,Florida,MG,Motor Graders,,EROPS,,,,,Standard,,,,,,2 Valve,,None or Unspecified,,,,,,,,,,,,,,,,,,
5336,2696246,26000,1349579,149,1.0,1989,0.0,,11/11/2010 0:00,GD625A-1,GD625,A,-1,,,Motorgrader - 145.0 to 170.0 Horsepower,Pennsylvania,MG,Motor Graders,No,EROPS w AC,,,,,None or Unspecified,,None or Unspecified,14',None or Unspecified,No,Base + 1 Function,None or Unspecified,None or Unspecified,Yes,Tip,"17.5""",,,,,,,,,,,,,,,
