ModelID,SalesID,SalePrice,MachineID,datasource,auctioneerID,YearMade,MachineHoursCurrentMeter,UsageBand,saledate,fiModelDesc,fiBaseModel,fiSecondaryDesc,fiModelSeries,fiModelDescriptor,ProductSize,fiProductClassDesc,state,ProductGroup,ProductGroupDesc,Drive_System,Enclosure,Forks,Pad_Type,Ride_Control,Stick,Transmission,Turbocharged,Blade_Extension,Blade_Width,Enclosure_Type,Engine_Horsepower,Hydraulics,Pushblock,Ripper,Scarifier,Tip_Control,Tire_Size,Coupler,Coupler_System,Grouser_Tracks,Hydraulics_Flow,Track_Type,Undercarriage_Pad_Width,Stick_Length,Thumb,Pattern_Changer,Grouser_Type,Backhoe_Mounting,Blade_Type,Travel_Controls,Differential_Type,Steering_Controls
5337,1162890,46000,1067630,121,3.0,1997,2655.0,Low,2/12/2004 0:00,GD650A,GD650,A,,,,Motorgrader - 145.0 to 170.0 Horsepower,West Virginia,MG,Motor Graders,No,EROPS,,,,,Powershift,,None or Unspecified,None or Unspecified,None or Unspecified,No,Base + 1 Function,None or Unspecified,None or Unspecified,None or Unspecified,None or Unspecified,None or Unspecified,,,,,,,,,,,,,,,
5337,1171343,54000,1054400,121,3.0,2001,5870.0,High,4/6/2006 0:00,GD650A,GD650,A,,,,Motorgrader - 145.0 to 170.0 Horsepower,Oklahoma,MG,Motor Graders,No,EROPS w AC,,,,,None or Unspecified,,None or Unspecified,None or Unspecified,None or Unspecified,No,Base + 1 Function,Yes,Yes,None or Unspecified,None or Unspecified,None or Unspecified,,,,,,,,,,,,,,,
5337,1219811,50000,1015305,121,3.0,1998,5619.0,Low,10/27/2011 0:00,GD650A,GD650,A,,,,Motorgrader - 145.0 to 170.0 Horsepower,Missouri,MG,Motor Graders,No,EROPS w AC,,,,,None or Unspecified,,None or Unspecified,14',None or Unspecified,No,Base + 1 Function,Yes,Yes,None or Unspecified,None or Unspecified,"14""",,,,,,,,,,,,,,,
5337,1221567,46000,358050,121,3.0,2000,11779.0,Medium,12/8/2011 0:00,GD650A,GD650,A,,,,Motorgrader - 145.0 to 170.0 Horsepower,Missouri,MG,Motor Graders,No,EROPS w AC,,,,,None or Unspecified,,None or Unspecified,14',None or Unspecified,No,Base + 1 Function,None or Unspecified,None or Unspecified,Yes,None or Unspecified,"14""",,,,,,,,,,,,,,,
5337,1736481,50000,1137154,132,8.0,1996,,,9/14/2005 0:00,GD650A,GD650,A,,,,Motorgrader - 145.0 to 170.0 Horsepower,Mississippi,MG,Motor Graders,No,EROPS,,,,,None or Unspecified,,None or Unspecified,None or Unspecified,Low Profile,No,Base + 1 Function,None or Unspecified,Yes,None or Unspecified,Tip,None or Unspecified,,,,,,,,,,,,,,,
5337,1736482,50000,1137154,132,8.0,1996,,,9/22/2005 0:00,GD650A,GD650,A,,,,Motorgrader - 145.0 to 170.0 Horsepower,Mississippi,MG,Motor Graders,No,EROPS,,,,,None or Unspecified,,None or Unspecified,None or Unspecified,Low Profile,No,Base + 1 Function,None or Unspecified,Yes,None or Unspecified,Tip,None or Unspecified,,,,,,,,,,,,,,,
5337,1736516,47000,1189632,132,10.0,1996,,,9/20/2007 0:00,GD650A,GD650,A,,,,Motorgrader - 145.0 to 170.0 Horsepower,Louisiana,MG,Motor Graders,No,EROPS,,,,,None or Unspecified,,None or Unspecified,None or Unspecified,None or Unspecified,No,Base + 1 Function,None or Unspecified,None or Unspecified,Yes,Sideshift & Tip,None or Unspecified,,,,,,,,,,,,,,,
5337,1736565,51000,1103196,132,2.0,1998,,,1/30/2005 0:00,GD650A,GD650,A,,,,Motorgrader - 145.0 to 170.0 Horsepower,Florida,MG,Motor Graders,No,EROPS w AC,,,,,None or Unspecified,,None or Unspecified,12',None or Unspecified,No,Base + 1 Function,None or Unspecified,None or Unspecified,Yes,None or Unspecified,"14""",,,,,,,,,,,,,,,
5337,1736566,42000,1103196,132,1.0,1996,,,4/8/2004 0:00,GD650A,GD650,A,,,,Motorgrader - 145.0 to 170.0 Horsepower,Georgia,MG,Motor Graders,No,EROPS w AC,,,,,None or Unspecified,,None or Unspecified,12',None or Unspecified,No,Base + 1 Function,None or Unspecified,None or Unspecified,Yes,None or Unspecified,"14""",,,,,,,,,,,,,,,
5337,1736567,51000,1103196,132,2.0,1998,,,2/3/2005 0:00,GD650A,GD650,A,,,,Motorgrader - 145.0 to 170.0 Horsepower,Florida,MG,Motor Graders,No,EROPS w AC,,,,,None or Unspecified,,None or Unspecified,12',None or Unspecified,No,Base + 1 Function,None or Unspecified,None or Unspecified,Yes,None or Unspecified,"14""",,,,,,,,,,,,,,,
5337,1736569,50000,1334814,132,1.0,1998,,,11/17/2005 0:00,GD650A,GD650,A,,,,Motorgrader - 145.0 to 170.0 Horsepower,Texas,MG,Motor Graders,No,EROPS w AC,,,,,None or Unspecified,,None or Unspecified,14',None or Unspecified,No,Base + 1 Function,Yes,Yes,None or Unspecified,None or Unspecified,"17.5""",,,,,,,,,,,,,,,
5337,1736644,53000,1440755,132,10.0,1000,,,3/16/2006 0:00,GD650A,GD650,A,,,,Motorgrader - 145.0 to 170.0 Horsepower,Louisiana,MG,Motor Graders,No,EROPS,,,,,None or Unspecified,,None or Unspecified,None or Unspecified,None or Unspecified,No,Base + 1 Function,None or Unspecified,None or Unspecified,Yes,None or Unspecified,"14""",,,,,,,,,,,,,,,
5337,1736771,50000,1226322,132,7.0,1999,,,9/1/2004 0:00,GD650A,GD650,A,,,,Motorgrader - 145.0 to 170.0 Horsepower,Alabama,MG,Motor Graders,No,EROPS w AC,,,,,None or Unspecified,,None or Unspecified,None or Unspecified,None or Unspecified,No,Base + 1 Function,None or Unspecified,None or Unspecified,Yes,Tip,None or Unspecified,,,,,,,,,,,,,,,
5337,1736782,55000,1460268,132,1.0,1999,,,3/8/2007 0:00,GD650A,GD650,A,,,,Motorgrader - 145.0 to 170.0 Horsepower,Illinois,MG,Motor Graders,No,EROPS,,,,,None or Unspecified,,None or Unspecified,12',None or Unspecified,No,Base + 1 Function,None or Unspecified,None or Unspecified,Yes,None or Unspecified,"14""",,,,,,,,,,,,,,,
5337,1736783,52000,1212357,132,7.0,1999,,,9/1/2004 0:00,GD650A,GD650,A,,,,Motorgrader - 145.0 to 170.0 Horsepower,Alabama,MG,Motor Graders,No,EROPS w AC,,,,,None or Unspecified,,None or Unspecified,None or Unspecified,None or Unspecified,No,Base + 1 Function,None or Unspecified,None or Unspecified,Yes,Tip,None or Unspecified,,,,,,,,,,,,,,,
5337,1736784,51000,1242073,132,7.0,1999,,,9/1/2004 0:00,GD650A,GD650,A,,,,Motorgrader - 145.0 to 170.0 Horsepower,Alabama,MG,Motor Graders,No,EROPS w AC,,,,,None or Unspecified,,None or Unspecified,None or Unspecified,None or Unspecified,No,Base + 1 Function,None or Unspecified,None or Unspecified,Yes,Tip,None or Unspecified,,,,,,,,,,,,,,,
5337,1737480,60000,1337019,132,1.0,1999,,,6/26/2007 0:00,GD650A,GD650,A,,,,Motorgrader - 145.0 to 170.0 Horsepower,Minnesota,MG,Motor Graders,No,EROPS,,,,,None or Unspecified,,None or Unspecified,None or Unspecified,None or Unspecified,No,Base + 1 Function,Yes,Yes,None or Unspecified,None or Unspecified,None or Unspecified,,,,,,,,,,,,,,,
5337,1737485,75000,1388784,132,1.0,1999,,,7/21/2005 0:00,GD650A,GD650,A,,,,Motorgrader - 145.0 to 170.0 Horsepower,Texas,MG,Motor Graders,No,EROPS w AC,,,,,None or Unspecified,,None or Unspecified,12',None or Unspecified,No,Base + 1 Function,None or Unspecified,None or Unspecified,Yes,None or Unspecified,"14""",,,,,,,,,,,,,,,
5337,1737488,50000,1494854,132,7.0,1999,,,9/1/2004 0:00,GD650A,GD650,A,,,,Motorgrader - 145.0 to 170.0 Horsepower,Alabama,MG,Motor Graders,No,EROPS w AC,,,,,None or Unspecified,,None or Unspecified,None or Unspecified,None or Unspecified,No,Base + 1 Function,None or Unspecified,None or Unspecified,Yes,Tip,None or Unspecified,,,,,,,,,,,,,,,
5337,1737489,55000,1494854,132,8.0,1999,,,9/22/2004 0:00,GD650A,GD650,A,,,,Motorgrader - 145.0 to 170.0 Horsepower,Mississippi,MG,Motor Graders,No,EROPS w AC,,,,,None or Unspecified,,None or Unspecified,None or Unspecified,None or Unspecified,No,Base + 1 Function,None or Unspecified,None or Unspecified,Yes,Tip,None or Unspecified,,,,,,,,,,,,,,,
5337,1737490,54000,1137244,132,8.0,1999,,,9/22/2004 0:00,GD650A,GD650,A,,,,Motorgrader - 145.0 to 170.0 Horsepower,Mississippi,MG,Motor Graders,No,EROPS w AC,,,,,None or Unspecified,,None or Unspecified,None or Unspecified,None or Unspecified,No,Base + 1 Function,None or Unspecified,None or Unspecified,Yes,Tip,None or Unspecified,,,,,,,,,,,,,,,
5337,1737491,50000,1137244,132,7.0,1999,,,9/1/2004 0:00,GD650A,GD650,A,,,,Motorgrader - 145.0 to 170.0 Horsepower,Alabama,MG,Motor Graders,No,EROPS w AC,,,,,None or Unspecified,,None or Unspecified,None or Unspecified,None or Unspecified,No,Base + 1 Function,None or Unspecified,None or Unspecified,Yes,Tip,None or Unspecified,,,,,,,,,,,,,,,
5337,1737493,57000,1523132,132,8.0,1999,,,9/22/2004 0:00,GD650A,GD650,A,,,,Motorgrader - 145.0 to 170.0 Horsepower,Mississippi,MG,Motor Graders,No,EROPS w AC,,,,,None or Unspecified,,None or Unspecified,12',None or Unspecified,No,Base + 1 Function,None or Unspecified,None or Unspecified,Yes,Tip,"14""",,,,,,,,,,,,,,,
5337,1737495,50000,1192328,132,7.0,1999,,,9/1/2004 0:00,GD650A,GD650,A,,,,Motorgrader - 145.0 to 170.0 Horsepower,Alabama,MG,Motor Graders,No,EROPS w AC,,,,,None or Unspecified,,None or Unspecified,None or Unspecified,None or Unspecified,No,Base + 1 Function,None or Unspecified,None or Unspecified,Yes,Tip,None or Unspecified,,,,,,,,,,,,,,,
5337,2401382,40000,1288581,136,1.0,2000,0.0,,6/17/2008 0:00,GD650A,GD650,A,,,,Motorgrader - 145.0 to 170.0 Horsepower,Ohio,MG,Motor Graders,No,EROPS,,,,,None or Unspecified,,None or Unspecified,12',None or Unspecified,No,Base + 1 Function,Yes,None or Unspecified,None or Unspecified,None or Unspecified,"17.5""",,,,,,,,,,,,,,,
5337,2401389,34500,1198594,136,7.0,1997,0.0,,10/22/2008 0:00,GD650A,GD650,A,,,,Motorgrader - 145.0 to 170.0 Horsepower,South Carolina,MG,Motor Graders,No,EROPS w AC,,,,,None or Unspecified,,None or Unspecified,14',None or Unspecified,No,Base + 1 Function,None or Unspecified,None or Unspecified,None or Unspecified,Tip,"14""",,,,,,,,,,,,,,,
5337,2401725,60000,1647247,136,,1999,0.0,,6/26/2007 0:00,GD650A,GD650,A,,,,Motorgrader - 145.0 to 170.0 Horsepower,Minnesota,MG,Motor Graders,No,EROPS,,,,,None or Unspecified,,None or Unspecified,14',None or Unspecified,No,Base + 1 Function,Yes,Yes,None or Unspecified,None or Unspecified,None or Unspecified,,,,,,,,,,,,,,,
5337,2401753,60000,1197369,136,1.0,1999,0.0,,6/14/2007 0:00,GD650A,GD650,A,,,,Motorgrader - 145.0 to 170.0 Horsepower,Colorado,MG,Motor Graders,No,EROPS,,,,,None or Unspecified,,None or Unspecified,14',None or Unspecified,No,Base + 1 Function,Yes,Yes,None or Unspecified,None or Unspecified,"14""",,,,,,,,,,,,,,,
5337,2401787,52500,1372551,136,1.0,2001,0.0,,11/12/2008 0:00,GD650A,GD650,A,,,,Motorgrader - 145.0 to 170.0 Horsepower,Arizona,MG,Motor Graders,No,EROPS w AC,,,,,None or Unspecified,,None or Unspecified,14',None or Unspecified,No,Base + 1 Function,Yes,Yes,None or Unspecified,None or Unspecified,"17.5""",,,,,,,,,,,,,,,
5337,2692784,24000,1516315,149,1.0,1000,6668.0,Low,4/1/2011 0:00,GD650A,GD650,A,,,,Motorgrader - 145.0 to 170.0 Horsepower,Texas,MG,Motor Graders,No,EROPS,,,,,None or Unspecified,,None or Unspecified,14',None or Unspecified,No,Base + 1 Function,None or Unspecified,Yes,None or Unspecified,None or Unspecified,"17.5""",,,,,,,,,,,,,,,
5337,2692821,70000,1399008,149,1.0,1997,4116.0,Low,4/29/2011 0:00,GD650A,GD650,A,,,,Motorgrader - 145.0 to 170.0 Horsepower,Arizona,MG,Motor Graders,No,EROPS w AC,,,,,None or Unspecified,,None or Unspecified,14',None or Unspecified,No,Base + 1 Function,Yes,Yes,None or Unspecified,None or Unspecified,"17.5""",,,,,,,,,,,,,,,
5337,2692847,50000,1381621,149,1.0,1998,8114.0,Medium,3/24/2011 0:00,GD650A,GD650,A,,,,Motorgrader - 145.0 to 170.0 Horsepower,Nevada,MG,Motor Graders,No,EROPS w AC,,,,,None or Unspecified,,None or Unspecified,14',None or Unspecified,No,Base + 1 Function,Yes,Yes,None or Unspecified,None or Unspecified,None or Unspecified,,,,,,,,,,,,,,,
