ModelID,SalesID,SalePrice,MachineID,datasource,auctioneerID,YearMade,MachineHoursCurrentMeter,UsageBand,saledate,fiModelDesc,fiBaseModel,fiSecondaryDesc,fiModelSeries,fiModelDescriptor,ProductSize,fiProductClassDesc,state,ProductGroup,ProductGroupDesc,Drive_System,Enclosure,Forks,Pad_Type,Ride_Control,Stick,Transmission,Turbocharged,Blade_Extension,Blade_Width,Enclosure_Type,Engine_Horsepower,Hydraulics,Pushblock,Ripper,Scarifier,Tip_Control,Tire_Size,Coupler,Coupler_System,Grouser_Tracks,Hydraulics_Flow,Track_Type,Undercarriage_Pad_Width,Stick_Length,Thumb,Pattern_Changer,Grouser_Type,Backhoe_Mounting,Blade_Type,Travel_Controls,Differential_Type,Steering_Controls
5342,1177426,69500,1017193,121,3.0,1000,0.0,,3/6/2008 0:00,GD705A,GD705,A,,,,Motorgrader - 200.0 + Horsepower,West Virginia,MG,Motor Graders,No,EROPS,,,,,None or Unspecified,,None or Unspecified,14',None or Unspecified,No,Base + 1 Function,None or Unspecified,Yes,None or Unspecified,None or Unspecified,"20.5""",,,,,,,,,,,,,,,
5342,1758555,11000,1114211,132,4.0,1000,,,2/9/2004 0:00,GD705A,GD705,A,,,,Motorgrader - 200.0 + Horsepower,Florida,MG,Motor Graders,No,OROPS,,,,,None or Unspecified,,None or Unspecified,14',None or Unspecified,No,Base + 1 Function,None or Unspecified,None or Unspecified,Yes,None or Unspecified,"14""",,,,,,,,,,,,,,,
5342,2410221,45000,987834,136,1.0,1000,0.0,,3/10/2009 0:00,GD705A,GD705,A,,,,Motorgrader - 200.0 + Horsepower,Colorado,MG,Motor Graders,,EROPS w AC,,,,,,,,,,,Standard,,,,,,,,,,,,,,,,,,,,
