ModelID,SalesID,SalePrice,MachineID,datasource,auctioneerID,YearMade,MachineHoursCurrentMeter,UsageBand,saledate,fiModelDesc,fiBaseModel,fiSecondaryDesc,fiModelSeries,fiModelDescriptor,ProductSize,fiProductClassDesc,state,ProductGroup,ProductGroupDesc,Drive_System,Enclosure,Forks,Pad_Type,Ride_Control,Stick,Transmission,Turbocharged,Blade_Extension,Blade_Width,Enclosure_Type,Engine_Horsepower,Hydraulics,Pushblock,Ripper,Scarifier,Tip_Control,Tire_Size,Coupler,Coupler_System,Grouser_Tracks,Hydraulics_Flow,Track_Type,Undercarriage_Pad_Width,Stick_Length,Thumb,Pattern_Changer,Grouser_Type,Backhoe_Mounting,Blade_Type,Travel_Controls,Differential_Type,Steering_Controls
5352,1153472,32000,1064123,121,3.0,1000,3510.0,Low,8/24/2006 0:00,PC128UU,PC128,UU,,,Small,"Hydraulic Excavator, Track - 12.0 to 14.0 Metric Tons",Michigan,TEX,Track Excavators,,EROPS w AC,,,,,,,,,,,2 Valve,,,,,,,,,,,None or Unspecified,,,,,,,,,
5352,1176036,25500,1006286,121,3.0,1997,4899.0,Medium,12/13/2007 0:00,PC128UU,PC128,UU,,,Small,"Hydraulic Excavator, Track - 12.0 to 14.0 Metric Tons",California,TEX,Track Excavators,,EROPS,,,,,,,,,,,Standard,,,,,,None or Unspecified,,,,Steel,20 inch,None or Unspecified,None or Unspecified,None or Unspecified,Double,,,,,
5352,1727616,23000,1477779,132,4.0,1000,,,2/15/2007 0:00,PC128UU,PC128,UU,,,Small,"Hydraulic Excavator, Track - 12.0 to 14.0 Metric Tons",Florida,TEX,Track Excavators,,EROPS w AC,,,,,,,,,,,2 Valve,,,,,,,,,,,None or Unspecified,,,,,,,,,
5352,1732541,26000,1272625,132,5.0,1996,,,3/25/2003 0:00,PC128UU,PC128,UU,,,Small,"Hydraulic Excavator, Track - 12.0 to 14.0 Metric Tons",Connecticut,TEX,Track Excavators,,,,,,,,,,,,,,,,,,,,,,,,,,,,,,,,,
5352,1733271,33000,1196100,132,4.0,1995,,,2/10/2005 0:00,PC128UU,PC128,UU,,,Small,"Hydraulic Excavator, Track - 12.0 to 14.0 Metric Tons",Florida,TEX,Track Excavators,,,,,,,,,,,,,,,,,,,,,,,,,,,,,,,,,
5352,1733619,19500,1049109,132,1.0,1000,,,9/13/2005 0:00,PC128UU,PC128,UU,,,Small,"Hydraulic Excavator, Track - 12.0 to 14.0 Metric Tons",Ohio,TEX,Track Excavators,,EROPS w AC,,,,,,,,,,,Auxiliary,,,,,,Manual,,,,Rubber,20 inch,"8' 2""",Hydraulic,None or Unspecified,Double,,,,,
5352,1734060,12500,1258758,132,1.0,1000,,,5/27/2010 0:00,PC128UU,PC128,UU,,,Small,"Hydraulic Excavator, Track - 12.0 to 14.0 Metric Tons",Washington,TEX,Track Excavators,,EROPS,,,,,,,,,,,Standard,,,,,,None or Unspecified,,,,Steel,None or Unspecified,None or Unspecified,None or Unspecified,None or Unspecified,Double,,,,,
5352,1735332,28000,1552828,132,2.0,1995,,,7/31/2004 0:00,PC128UU,PC128,UU,,,Small,"Hydraulic Excavator, Track - 12.0 to 14.0 Metric Tons",Connecticut,TEX,Track Excavators,,EROPS,,,,,,,,,,,2 Valve,,,,,,,,,,,20 inch,,,,,,,,,
5352,1735512,24500,1296362,132,99.0,1000,,,10/26/2006 0:00,PC128UU,PC128,UU,,,Small,"Hydraulic Excavator, Track - 12.0 to 14.0 Metric Tons",Texas,TEX,Track Excavators,,EROPS,,,,,,,,,,,Standard,,,,,,None or Unspecified,,,,Rubber,None or Unspecified,None or Unspecified,None or Unspecified,None or Unspecified,Double,,,,,
5352,1735687,25500,1232926,132,4.0,1000,,,2/7/2005 0:00,PC128UU,PC128,UU,,,Small,"Hydraulic Excavator, Track - 12.0 to 14.0 Metric Tons",Florida,TEX,Track Excavators,,EROPS w AC,,,,,,,,,,,Standard,,,,,,None or Unspecified,,,,Steel,None or Unspecified,None or Unspecified,None or Unspecified,None or Unspecified,Double,,,,,
5352,1735688,25500,1232926,132,4.0,1000,,,2/10/2005 0:00,PC128UU,PC128,UU,,,Small,"Hydraulic Excavator, Track - 12.0 to 14.0 Metric Tons",Florida,TEX,Track Excavators,,EROPS w AC,,,,,,,,,,,Standard,,,,,,None or Unspecified,,,,Steel,None or Unspecified,None or Unspecified,None or Unspecified,None or Unspecified,Double,,,,,
5352,1737810,24500,1012231,132,15.0,1997,,,11/18/2004 0:00,PC128UU,PC128,UU,,,Small,"Hydraulic Excavator, Track - 12.0 to 14.0 Metric Tons",Pennsylvania,TEX,Track Excavators,,EROPS w AC,,,,,,,,,,,Standard,,,,,,None or Unspecified,,,,Steel,20 inch,None or Unspecified,None or Unspecified,None or Unspecified,Triple,,,,,
5352,1738523,27500,1510416,132,2.0,1996,,,6/26/2004 0:00,PC128UU,PC128,UU,,,Small,"Hydraulic Excavator, Track - 12.0 to 14.0 Metric Tons",Ohio,TEX,Track Excavators,,EROPS,,,,,,,,,,,Standard,,,,,,None or Unspecified,,,,Rubber,None or Unspecified,None or Unspecified,None or Unspecified,None or Unspecified,Double,,,,,
5352,1738651,28500,1411540,132,5.0,1998,,,6/16/2006 0:00,PC128UU,PC128,UU,,,Small,"Hydraulic Excavator, Track - 12.0 to 14.0 Metric Tons",Connecticut,TEX,Track Excavators,,EROPS,,,,,,,,,,,Standard,,,,,,None or Unspecified,,,,Steel,20 inch,None or Unspecified,None or Unspecified,None or Unspecified,Double,,,,,
5352,1738652,28500,1411540,132,5.0,1998,,,6/20/2006 0:00,PC128UU,PC128,UU,,,Small,"Hydraulic Excavator, Track - 12.0 to 14.0 Metric Tons",Connecticut,TEX,Track Excavators,,EROPS,,,,,,,,,,,Standard,,,,,,None or Unspecified,,,,Steel,20 inch,None or Unspecified,None or Unspecified,None or Unspecified,Double,,,,,
5352,1738782,22500,1531316,132,2.0,1996,,,1/20/2007 0:00,PC128UU,PC128,UU,,,Small,"Hydraulic Excavator, Track - 12.0 to 14.0 Metric Tons",New York,TEX,Track Excavators,,,,,,,,,,,,,,,,,,,,,,,,,,,,,,,,,
5352,1740395,25500,1105085,132,7.0,1000,,,4/19/2007 0:00,PC128UU,PC128,UU,,,Small,"Hydraulic Excavator, Track - 12.0 to 14.0 Metric Tons",South Carolina,TEX,Track Excavators,,EROPS w AC,,,,,,,,,,,Auxiliary,,,,,,None or Unspecified,,,,Rubber,None or Unspecified,None or Unspecified,None or Unspecified,None or Unspecified,Double,,,,,
5352,1743393,26000,1504433,132,8.0,1000,,,2/16/2007 0:00,PC128UU,PC128,UU,,,Small,"Hydraulic Excavator, Track - 12.0 to 14.0 Metric Tons",Florida,TEX,Track Excavators,,EROPS w AC,,,,,,,,,,,Standard,,,,,,None or Unspecified,,,,Steel,None or Unspecified,None or Unspecified,None or Unspecified,None or Unspecified,Double,,,,,
5352,1743394,28500,1504433,132,2.0,1998,,,2/8/2008 0:00,PC128UU,PC128,UU,,,Small,"Hydraulic Excavator, Track - 12.0 to 14.0 Metric Tons",Florida,TEX,Track Excavators,,EROPS w AC,,,,,,,,,,,Standard,,,,,,None or Unspecified,,,,Steel,None or Unspecified,None or Unspecified,None or Unspecified,None or Unspecified,Double,,,,,
5352,1744062,24500,1532776,132,4.0,1000,,,2/15/2007 0:00,PC128UU,PC128,UU,,,Small,"Hydraulic Excavator, Track - 12.0 to 14.0 Metric Tons",Florida,TEX,Track Excavators,,EROPS,,,,,,,,,,,Standard,,,,,,None or Unspecified,,,,Steel,None or Unspecified,None or Unspecified,None or Unspecified,None or Unspecified,Double,,,,,
5352,1744199,29000,1451902,132,1.0,1998,,,5/9/2006 0:00,PC128UU,PC128,UU,,,Small,"Hydraulic Excavator, Track - 12.0 to 14.0 Metric Tons",Texas,TEX,Track Excavators,,EROPS,,,,,,,,,,,Auxiliary,,,,,,None or Unspecified,,,,Steel,None or Unspecified,None or Unspecified,None or Unspecified,None or Unspecified,Triple,,,,,
5352,2400203,19000,1094202,136,1.0,1000,0.0,,6/5/2007 0:00,PC128UU,PC128,UU,,,Small,"Hydraulic Excavator, Track - 12.0 to 14.0 Metric Tons",California,TEX,Track Excavators,,EROPS,,,,,,,,,,,Auxiliary,,,,,,None or Unspecified,,,,Steel,None or Unspecified,None or Unspecified,None or Unspecified,None or Unspecified,Double,,,,,
5352,2400482,25000,1488116,136,17.0,1000,0.0,,10/9/2007 0:00,PC128UU,PC128,UU,,,Small,"Hydraulic Excavator, Track - 12.0 to 14.0 Metric Tons",Idaho,TEX,Track Excavators,,EROPS,,,,,,,,,,,Standard,,,,,,None or Unspecified,,,,Steel,None or Unspecified,None or Unspecified,None or Unspecified,None or Unspecified,Double,,,,,
5352,2400867,15000,1127427,136,1.0,1000,0.0,,9/30/2009 0:00,PC128UU,PC128,UU,,,Small,"Hydraulic Excavator, Track - 12.0 to 14.0 Metric Tons",Maryland,TEX,Track Excavators,,EROPS w AC,,,,,,,,,,,2 Valve,,,,,,,,,,,None or Unspecified,,,,,,,,,
5352,2404211,33000,1504433,136,4.0,1000,0.0,,2/11/2008 0:00,PC128UU,PC128,UU,,,Small,"Hydraulic Excavator, Track - 12.0 to 14.0 Metric Tons",Florida,TEX,Track Excavators,,EROPS w AC,,,,,,,,,,,Standard,,,,,,None or Unspecified,,,,Steel,None or Unspecified,None or Unspecified,None or Unspecified,None or Unspecified,Double,,,,,
5352,2695737,23000,1845886,149,2.0,2000,0.0,,3/31/2011 0:00,PC128UU,PC128,UU,,,Small,"Hydraulic Excavator, Track - 12.0 to 14.0 Metric Tons",New Jersey,TEX,Track Excavators,,EROPS w AC,,,,,,,,,,,Auxiliary,,,,,,None or Unspecified,,,,Steel,None or Unspecified,None or Unspecified,None or Unspecified,None or Unspecified,Double,,,,,
5352,4355410,11000,1204960,172,1.0,1996,281.0,Low,9/16/2010 0:00,PC128UU,PC128,UU,,,Small,"Hydraulic Excavator, Track - 12.0 to 14.0 Metric Tons",California,TEX,Track Excavators,,EROPS w AC,,,,,,,,,,,Auxiliary,,,,,,None or Unspecified,,,,Steel,None or Unspecified,None or Unspecified,None or Unspecified,None or Unspecified,Double,,,,,
5352,4364134,12500,1078334,172,1.0,1997,7747.0,Medium,5/27/2010 0:00,PC128UU,PC128,UU,,,Small,"Hydraulic Excavator, Track - 12.0 to 14.0 Metric Tons",Washington,TEX,Track Excavators,,EROPS,,,,,,,,,,,Standard,,,,,,None or Unspecified,,,,Steel,None or Unspecified,None or Unspecified,None or Unspecified,None or Unspecified,Double,,,,,
