ModelID,SalesID,SalePrice,MachineID,datasource,auctioneerID,YearMade,MachineHoursCurrentMeter,UsageBand,saledate,fiModelDesc,fiBaseModel,fiSecondaryDesc,fiModelSeries,fiModelDescriptor,ProductSize,fiProductClassDesc,state,ProductGroup,ProductGroupDesc,Drive_System,Enclosure,Forks,Pad_Type,Ride_Control,Stick,Transmission,Turbocharged,Blade_Extension,Blade_Width,Enclosure_Type,Engine_Horsepower,Hydraulics,Pushblock,Ripper,Scarifier,Tip_Control,Tire_Size,Coupler,Coupler_System,Grouser_Tracks,Hydraulics_Flow,Track_Type,Undercarriage_Pad_Width,Stick_Length,Thumb,Pattern_Changer,Grouser_Type,Backhoe_Mounting,Blade_Type,Travel_Controls,Differential_Type,Steering_Controls
5370,1729709,8750,1123583,132,7.0,1000,,,10/19/2006 0:00,PC50UU,PC50,UU,,,Mini,"Hydraulic Excavator, Track - 5.0 to 6.0 Metric Tons",South Carolina,TEX,Track Excavators,,EROPS,,,,,,,,,,,Standard,,,,,,None or Unspecified,,,,Rubber,None or Unspecified,None or Unspecified,None or Unspecified,None or Unspecified,Double,,,,,
5370,1731254,13500,1065853,132,5.0,1000,,,4/6/2006 0:00,PC50UU,PC50,UU,,,Mini,"Hydraulic Excavator, Track - 5.0 to 6.0 Metric Tons",Connecticut,TEX,Track Excavators,,EROPS w AC,,,,,,,,,,,Auxiliary,,,,,,None or Unspecified,,,,Rubber,None or Unspecified,None or Unspecified,None or Unspecified,None or Unspecified,Double,,,,,
5370,1731718,20500,1451620,132,8.0,1000,,,2/16/2007 0:00,PC50UU,PC50,UU,,,Mini,"Hydraulic Excavator, Track - 5.0 to 6.0 Metric Tons",Florida,TEX,Track Excavators,,EROPS w AC,,,,,,,,,,,Standard,,,,,,None or Unspecified,,,,Rubber,None or Unspecified,None or Unspecified,None or Unspecified,None or Unspecified,Double,,,,,
5370,1731929,9000,336319,132,22.0,1989,,,9/18/1999 0:00,PC50UU,PC50,UU,,,Mini,"Hydraulic Excavator, Track - 5.0 to 6.0 Metric Tons",Minnesota,TEX,Track Excavators,,EROPS,,,,,,,,,,,Standard,,,,,,None or Unspecified,,,,Rubber,20 inch,None or Unspecified,None or Unspecified,None or Unspecified,Triple,,,,,
5370,1732088,15500,1516003,132,2.0,1994,,,6/6/1998 0:00,PC50UU,PC50,UU,,,Mini,"Hydraulic Excavator, Track - 5.0 to 6.0 Metric Tons",Connecticut,TEX,Track Excavators,,EROPS,,,,,,,,,,,Auxiliary,,,,,,None or Unspecified,,,,Steel,32 inch,None or Unspecified,None or Unspecified,None or Unspecified,Double,,,,,
5370,1732422,8000,1205754,132,10.0,1000,,,1/19/2011 0:00,PC50UU,PC50,UU,,,Mini,"Hydraulic Excavator, Track - 5.0 to 6.0 Metric Tons",Louisiana,TEX,Track Excavators,,EROPS,,,,,,,,,,,Auxiliary,,,,,,None or Unspecified,,,,Rubber,None or Unspecified,"11' 0""",None or Unspecified,None or Unspecified,Double,,,,,
5370,1732428,14500,1205754,132,10.0,1000,,,9/6/2006 0:00,PC50UU,PC50,UU,,,Mini,"Hydraulic Excavator, Track - 5.0 to 6.0 Metric Tons",Louisiana,TEX,Track Excavators,,EROPS,,,,,,,,,,,Auxiliary,,,,,,None or Unspecified,,,,Rubber,None or Unspecified,"11' 0""",None or Unspecified,None or Unspecified,Double,,,,,
5370,1732490,13750,1187734,132,4.0,1996,,,2/11/2002 0:00,PC50UU,PC50,UU,,,Mini,"Hydraulic Excavator, Track - 5.0 to 6.0 Metric Tons",Florida,TEX,Track Excavators,,EROPS,,,,,,,,,,,Standard,,,,,,None or Unspecified,,,,Steel,None or Unspecified,None or Unspecified,None or Unspecified,None or Unspecified,Double,,,,,
5370,1732952,9000,1187639,132,2.0,1000,,,6/19/1999 0:00,PC50UU,PC50,UU,,,Mini,"Hydraulic Excavator, Track - 5.0 to 6.0 Metric Tons",North Carolina,TEX,Track Excavators,,EROPS,,,,,,,,,,,Standard,,,,,,None or Unspecified,,,,Steel,None or Unspecified,None or Unspecified,None or Unspecified,None or Unspecified,Double,,,,,
5370,1733510,14000,1501188,132,4.0,1996,,,2/11/2002 0:00,PC50UU,PC50,UU,,,Mini,"Hydraulic Excavator, Track - 5.0 to 6.0 Metric Tons",Florida,TEX,Track Excavators,,EROPS,,,,,,,,,,,2 Valve,,,,,,,,,,,None or Unspecified,,,,,,,,,
5370,1734400,14250,1506709,132,10.0,1000,,,12/13/2006 0:00,PC50UU,PC50,UU,,,Mini,"Hydraulic Excavator, Track - 5.0 to 6.0 Metric Tons",Louisiana,TEX,Track Excavators,,EROPS,,,,,,,,,,,Standard,,,,,,None or Unspecified,,,,Rubber,None or Unspecified,None or Unspecified,None or Unspecified,None or Unspecified,Double,,,,,
5370,1734587,11500,1299533,132,1.0,1997,,,10/4/2006 0:00,PC50UU,PC50,UU,,,Mini,"Hydraulic Excavator, Track - 5.0 to 6.0 Metric Tons",Maryland,TEX,Track Excavators,,EROPS w AC,,,,,,,,,,,Standard,,,,,,None or Unspecified,,,,Steel,None or Unspecified,None or Unspecified,None or Unspecified,None or Unspecified,Double,,,,,
5370,1734752,7500,772036,132,2.0,1990,,,9/10/1998 0:00,PC50UU,PC50,UU,,,Mini,"Hydraulic Excavator, Track - 5.0 to 6.0 Metric Tons",Texas,TEX,Track Excavators,,EROPS,,,,,,,,,,,Standard,,,,,,None or Unspecified,,,,Steel,None or Unspecified,None or Unspecified,None or Unspecified,None or Unspecified,Double,,,,,
5370,1734813,13500,1133588,132,10.0,1000,,,9/6/2006 0:00,PC50UU,PC50,UU,,,Mini,"Hydraulic Excavator, Track - 5.0 to 6.0 Metric Tons",Louisiana,TEX,Track Excavators,,EROPS,,,,,,,,,,,Standard,,,,,,None or Unspecified,,,,Steel,16 inch,None or Unspecified,None or Unspecified,None or Unspecified,Triple,,,,,
5370,1735323,8750,1404161,132,2.0,1000,,,2/1/2004 0:00,PC50UU,PC50,UU,,,Mini,"Hydraulic Excavator, Track - 5.0 to 6.0 Metric Tons",Florida,TEX,Track Excavators,,EROPS,,,,,,,,,,,2 Valve,,,,,,,,,,,None or Unspecified,,,,,,,,,
5370,1735793,9000,735417,132,2.0,1993,,,6/2/2001 0:00,PC50UU,PC50,UU,,,Mini,"Hydraulic Excavator, Track - 5.0 to 6.0 Metric Tons",Florida,TEX,Track Excavators,,EROPS w AC,,,,,,,,,,,2 Valve,,,,,,,,,,,None or Unspecified,,,,,,,,,
5370,1736240,7500,1379363,132,2.0,1000,,,8/26/2006 0:00,PC50UU,PC50,UU,,,Mini,"Hydraulic Excavator, Track - 5.0 to 6.0 Metric Tons",Ohio,TEX,Track Excavators,,EROPS,,,,,,,,,,,Standard,,,,,,None or Unspecified,,,,Rubber,16 inch,None or Unspecified,None or Unspecified,None or Unspecified,Double,,,,,
5370,1737094,10000,1322114,132,2.0,1000,,,4/29/2000 0:00,PC50UU,PC50,UU,,,Mini,"Hydraulic Excavator, Track - 5.0 to 6.0 Metric Tons",Ohio,TEX,Track Excavators,,EROPS,,,,,,,,,,,Standard,,,,,,None or Unspecified,,,,Rubber,16 inch,None or Unspecified,None or Unspecified,None or Unspecified,Double,,,,,
5370,1738517,9000,1505239,132,12.0,1000,,,3/30/2005 0:00,PC50UU,PC50,UU,,,Mini,"Hydraulic Excavator, Track - 5.0 to 6.0 Metric Tons",South Carolina,TEX,Track Excavators,,EROPS,,,,,,,,,,,Standard,,,,,,None or Unspecified,,,,Rubber,None or Unspecified,None or Unspecified,None or Unspecified,None or Unspecified,Double,,,,,
5370,1738877,9250,1138282,132,2.0,1000,,,8/24/2002 0:00,PC50UU,PC50,UU,,,Mini,"Hydraulic Excavator, Track - 5.0 to 6.0 Metric Tons",Pennsylvania,TEX,Track Excavators,,EROPS,,,,,,,,,,,2 Valve,,,,,,,,,,,None or Unspecified,,,,,,,,,
5370,1739354,11500,1428017,132,10.0,1000,,,3/14/2007 0:00,PC50UU,PC50,UU,,,Mini,"Hydraulic Excavator, Track - 5.0 to 6.0 Metric Tons",Louisiana,TEX,Track Excavators,,EROPS,,,,,,,,,,,2 Valve,,,,,,,,,,,None or Unspecified,,,,,,,,,
5370,1739370,8700,1094072,132,9.0,1000,,,5/19/2005 0:00,PC50UU,PC50,UU,,,Mini,"Hydraulic Excavator, Track - 5.0 to 6.0 Metric Tons",South Carolina,TEX,Track Excavators,,EROPS,,,,,,,,,,,Standard,,,,,,None or Unspecified,,,,Rubber,None or Unspecified,None or Unspecified,None or Unspecified,None or Unspecified,Double,,,,,
5370,1740068,7500,1485211,132,2.0,1991,,,11/17/1998 0:00,PC50UU,PC50,UU,,,Mini,"Hydraulic Excavator, Track - 5.0 to 6.0 Metric Tons",Texas,TEX,Track Excavators,,EROPS,,,,,,,,,,,Standard,,,,,,None or Unspecified,,,,Steel,None or Unspecified,None or Unspecified,None or Unspecified,None or Unspecified,Double,,,,,
5370,1740088,11000,1075889,132,2.0,1000,,,8/23/1997 0:00,PC50UU,PC50,UU,,,Mini,"Hydraulic Excavator, Track - 5.0 to 6.0 Metric Tons",Illinois,TEX,Track Excavators,,EROPS,,,,,,,,,,,2 Valve,,,,,,None or Unspecified,,,,,,,,,,,,,,
5370,1740198,9750,1250426,132,2.0,1000,,,7/21/2001 0:00,PC50UU,PC50,UU,,,Mini,"Hydraulic Excavator, Track - 5.0 to 6.0 Metric Tons",New York,TEX,Track Excavators,,EROPS,,,,,,,,,,,Standard,,,,,,None or Unspecified,,,,Rubber,None or Unspecified,None or Unspecified,None or Unspecified,None or Unspecified,Double,,,,,
5370,1740199,10500,1250426,132,2.0,1000,,,6/16/2001 0:00,PC50UU,PC50,UU,,,Mini,"Hydraulic Excavator, Track - 5.0 to 6.0 Metric Tons",Pennsylvania,TEX,Track Excavators,,EROPS,,,,,,,,,,,Standard,,,,,,None or Unspecified,,,,Rubber,None or Unspecified,None or Unspecified,None or Unspecified,None or Unspecified,Double,,,,,
5370,1740348,9000,1532824,132,2.0,1990,,,2/2/1999 0:00,PC50UU,PC50,UU,,,Mini,"Hydraulic Excavator, Track - 5.0 to 6.0 Metric Tons",Florida,TEX,Track Excavators,,EROPS,,,,,,,,,,,Standard,,,,,,None or Unspecified,,,,Rubber,None or Unspecified,None or Unspecified,None or Unspecified,None or Unspecified,Double,,,,,
5370,1740555,9000,1373208,132,8.0,1000,,,3/22/2006 0:00,PC50UU,PC50,UU,,,Mini,"Hydraulic Excavator, Track - 5.0 to 6.0 Metric Tons",Mississippi,TEX,Track Excavators,,EROPS,,,,,,,,,,,Standard,,,,,,None or Unspecified,,,,Rubber,None or Unspecified,None or Unspecified,None or Unspecified,None or Unspecified,Double,,,,,
5370,1740762,8600,1443148,132,2.0,1990,,,11/5/1999 0:00,PC50UU,PC50,UU,,,Mini,"Hydraulic Excavator, Track - 5.0 to 6.0 Metric Tons",New York,TEX,Track Excavators,,EROPS,,,,,,,,,,,Standard,,,,,,None or Unspecified,,,,Rubber,None or Unspecified,None or Unspecified,None or Unspecified,None or Unspecified,Double,,,,,
5370,1740886,8500,1429234,132,2.0,1990,,,7/15/2000 0:00,PC50UU,PC50,UU,,,Mini,"Hydraulic Excavator, Track - 5.0 to 6.0 Metric Tons",New York,TEX,Track Excavators,,EROPS,,,,,,,,,,,Standard,,,,,,None or Unspecified,,,,Rubber,None or Unspecified,None or Unspecified,None or Unspecified,None or Unspecified,Double,,,,,
5370,1740909,10000,1345920,132,2.0,1990,,,7/18/1998 0:00,PC50UU,PC50,UU,,,Mini,"Hydraulic Excavator, Track - 5.0 to 6.0 Metric Tons",New York,TEX,Track Excavators,,EROPS,,,,,,,,,,,Standard,,,,,,None or Unspecified,,,,Steel,None or Unspecified,None or Unspecified,None or Unspecified,None or Unspecified,Double,,,,,
5370,1741629,12500,353993,132,2.0,1000,,,4/25/1998 0:00,PC50UU,PC50,UU,,,Mini,"Hydraulic Excavator, Track - 5.0 to 6.0 Metric Tons",Ohio,TEX,Track Excavators,,EROPS,,,,,,,,,,,2 Valve,,,,,,,,,,,None or Unspecified,,,,,,,,,
5370,1741766,13000,1449297,132,2.0,1990,,,8/1/1998 0:00,PC50UU,PC50,UU,,,Mini,"Hydraulic Excavator, Track - 5.0 to 6.0 Metric Tons",Ohio,TEX,Track Excavators,,OROPS,,,,,,,,,,,2 Valve,,,,,,,,,,,None or Unspecified,,,,,,,,,
5370,1741806,10500,1374189,132,2.0,1000,,,5/10/1997 0:00,PC50UU,PC50,UU,,,Mini,"Hydraulic Excavator, Track - 5.0 to 6.0 Metric Tons",Maine,TEX,Track Excavators,,EROPS,,,,,,,,,,,Standard,,,,,,None or Unspecified,,,,Steel,None or Unspecified,None or Unspecified,None or Unspecified,None or Unspecified,Double,,,,,
5370,1741937,8250,1170956,132,9.0,1000,,,8/18/2005 0:00,PC50UU,PC50,UU,,,Mini,"Hydraulic Excavator, Track - 5.0 to 6.0 Metric Tons",South Carolina,TEX,Track Excavators,,EROPS,,,,,,,,,,,Standard,,,,,,None or Unspecified,,,,Rubber,None or Unspecified,None or Unspecified,None or Unspecified,None or Unspecified,Double,,,,,
5370,1741982,14000,1429273,132,1.0,1990,,,3/27/1997 0:00,PC50UU,PC50,UU,,,Mini,"Hydraulic Excavator, Track - 5.0 to 6.0 Metric Tons",California,TEX,Track Excavators,,EROPS,,,,,,,,,,,Standard,,,,,,Hydraulic,,,,Rubber,None or Unspecified,"6' 3""",Hydraulic,None or Unspecified,Double,,,,,
5370,1742298,9000,1081055,132,2.0,1000,,,6/12/1999 0:00,PC50UU,PC50,UU,,,Mini,"Hydraulic Excavator, Track - 5.0 to 6.0 Metric Tons",Maine,TEX,Track Excavators,,EROPS,,,,,,,,,,,Auxiliary,,,,,,Manual,,,,Steel,None or Unspecified,None or Unspecified,Manual,None or Unspecified,Double,,,,,
5370,1742327,12000,1304169,132,1.0,1990,,,4/17/1997 0:00,PC50UU,PC50,UU,,,Mini,"Hydraulic Excavator, Track - 5.0 to 6.0 Metric Tons",Minnesota,TEX,Track Excavators,,OROPS,,,,,,,,,,,2 Valve,,,,,,,,,,,None or Unspecified,,,,,,,,,
5370,1743765,7500,1247103,132,2.0,1000,,,11/15/2002 0:00,PC50UU,PC50,UU,,,Mini,"Hydraulic Excavator, Track - 5.0 to 6.0 Metric Tons",Georgia,TEX,Track Excavators,,EROPS,,,,,,,,,,,Standard,,,,,,None or Unspecified,,,,Rubber,None or Unspecified,None or Unspecified,None or Unspecified,None or Unspecified,Double,,,,,
5370,1744538,9000,1330023,132,9.0,1000,,,2/18/2004 0:00,PC50UU,PC50,UU,,,Mini,"Hydraulic Excavator, Track - 5.0 to 6.0 Metric Tons",Florida,TEX,Track Excavators,,EROPS,,,,,,,,,,,Standard,,,,,,None or Unspecified,,,,Rubber,None or Unspecified,None or Unspecified,None or Unspecified,None or Unspecified,Double,,,,,
5370,1744592,8000,1368531,132,2.0,1000,,,6/9/2000 0:00,PC50UU,PC50,UU,,,Mini,"Hydraulic Excavator, Track - 5.0 to 6.0 Metric Tons",New Jersey,TEX,Track Excavators,,OROPS,,,,,,,,,,,2 Valve,,,,,,,,,,,None or Unspecified,,,,,,,,,
5370,1744633,7500,1114146,132,10.0,1000,,,5/20/1999 0:00,PC50UU,PC50,UU,,,Mini,"Hydraulic Excavator, Track - 5.0 to 6.0 Metric Tons",Louisiana,TEX,Track Excavators,,EROPS,,,,,,,,,,,Standard,,,,,,None or Unspecified,,,,Steel,None or Unspecified,None or Unspecified,None or Unspecified,None or Unspecified,Double,,,,,
5370,1744780,9500,1367391,132,12.0,1000,,,3/21/2000 0:00,PC50UU,PC50,UU,,,Mini,"Hydraulic Excavator, Track - 5.0 to 6.0 Metric Tons",South Carolina,TEX,Track Excavators,,EROPS,,,,,,,,,,,Standard,,,,,,None or Unspecified,,,,Rubber,None or Unspecified,None or Unspecified,None or Unspecified,None or Unspecified,Double,,,,,
5370,1744837,10000,1089593,132,2.0,1000,,,12/13/1997 0:00,PC50UU,PC50,UU,,,Mini,"Hydraulic Excavator, Track - 5.0 to 6.0 Metric Tons",Pennsylvania,TEX,Track Excavators,,EROPS,,,,,,,,,,,Standard,,,,,,None or Unspecified,,,,Steel,None or Unspecified,None or Unspecified,Manual,None or Unspecified,Double,,,,,
5370,1745320,9300,1190474,132,9.0,1000,,,5/20/2004 0:00,PC50UU,PC50,UU,,,Mini,"Hydraulic Excavator, Track - 5.0 to 6.0 Metric Tons",South Carolina,TEX,Track Excavators,,EROPS,,,,,,,,,,,Standard,,,,,,None or Unspecified,,,,Rubber,24 inch,None or Unspecified,None or Unspecified,None or Unspecified,Double,,,,,
5370,1745443,11250,1209474,132,2.0,1991,,,2/4/1998 0:00,PC50UU,PC50,UU,,,Mini,"Hydraulic Excavator, Track - 5.0 to 6.0 Metric Tons",Florida,TEX,Track Excavators,,EROPS,,,,,,,,,,,Standard,,,,,,None or Unspecified,,,,Rubber,None or Unspecified,None or Unspecified,None or Unspecified,None or Unspecified,Double,,,,,
5370,1745477,9100,1353855,132,9.0,1990,,,2/21/2001 0:00,PC50UU,PC50,UU,,,Mini,"Hydraulic Excavator, Track - 5.0 to 6.0 Metric Tons",Florida,TEX,Track Excavators,,EROPS,,,,,,,,,,,Standard,,,,,,None or Unspecified,,,,Rubber,None or Unspecified,None or Unspecified,None or Unspecified,None or Unspecified,Double,,,,,
5370,1745520,8500,1146917,132,2.0,1990,,,6/6/1998 0:00,PC50UU,PC50,UU,,,Mini,"Hydraulic Excavator, Track - 5.0 to 6.0 Metric Tons",Connecticut,TEX,Track Excavators,,EROPS,,,,,,,,,,,Standard,,,,,,None or Unspecified,,,,Rubber,None or Unspecified,None or Unspecified,None or Unspecified,None or Unspecified,Double,,,,,
5370,1745667,8000,1142325,132,1.0,1990,,,3/11/1998 0:00,PC50UU,PC50,UU,,,Mini,"Hydraulic Excavator, Track - 5.0 to 6.0 Metric Tons",Texas,TEX,Track Excavators,,EROPS,,,,,,,,,,,Standard,,,,,,None or Unspecified,,,,Steel,None or Unspecified,None or Unspecified,None or Unspecified,None or Unspecified,Double,,,,,
5370,1745678,10500,1118799,132,1.0,1990,,,9/10/1997 0:00,PC50UU,PC50,UU,,,Mini,"Hydraulic Excavator, Track - 5.0 to 6.0 Metric Tons",New York,TEX,Track Excavators,,EROPS,,,,,,,,,,,Standard,,,,,,None or Unspecified,,,,Steel,None or Unspecified,None or Unspecified,None or Unspecified,None or Unspecified,Double,,,,,
5370,1746566,12000,1466735,132,1.0,1990,,,4/17/1997 0:00,PC50UU,PC50,UU,,,Mini,"Hydraulic Excavator, Track - 5.0 to 6.0 Metric Tons",Minnesota,TEX,Track Excavators,,EROPS,,,,,,,,,,,Standard,,,,,,None or Unspecified,,,,Steel,None or Unspecified,None or Unspecified,None or Unspecified,None or Unspecified,Double,,,,,
5370,1746605,9300,1324604,132,9.0,1990,,,8/19/2004 0:00,PC50UU,PC50,UU,,,Mini,"Hydraulic Excavator, Track - 5.0 to 6.0 Metric Tons",South Carolina,TEX,Track Excavators,,EROPS w AC,,,,,,,,,,,,,,,,,,,,,,,,,,,,,,,
5370,1746612,10500,1376973,132,1.0,1000,,,12/19/2001 0:00,PC50UU,PC50,UU,,,Mini,"Hydraulic Excavator, Track - 5.0 to 6.0 Metric Tons",Maryland,TEX,Track Excavators,,EROPS w AC,,,,,,,,,,,Standard,,,,,,None or Unspecified,,,,Rubber,None or Unspecified,None or Unspecified,None or Unspecified,None or Unspecified,Double,,,,,
5370,1746613,8750,1376973,132,2.0,1000,,,9/15/2001 0:00,PC50UU,PC50,UU,,,Mini,"Hydraulic Excavator, Track - 5.0 to 6.0 Metric Tons",New Jersey,TEX,Track Excavators,,EROPS w AC,,,,,,,,,,,Standard,,,,,,None or Unspecified,,,,Rubber,None or Unspecified,None or Unspecified,None or Unspecified,None or Unspecified,Double,,,,,
5370,1746709,9500,1309150,132,2.0,1991,,,10/19/2000 0:00,PC50UU,PC50,UU,,,Mini,"Hydraulic Excavator, Track - 5.0 to 6.0 Metric Tons",New Hampshire,TEX,Track Excavators,,EROPS,,,,,,,,,,,Standard,,,,,,None or Unspecified,,,,Rubber,None or Unspecified,None or Unspecified,None or Unspecified,None or Unspecified,Double,,,,,
5370,1746794,8500,1087062,132,7.0,1000,,,9/4/2003 0:00,PC50UU,PC50,UU,,,Mini,"Hydraulic Excavator, Track - 5.0 to 6.0 Metric Tons",Alabama,TEX,Track Excavators,,EROPS,,,,,,,,,,,Standard,,,,,,Manual,,,,Steel,None or Unspecified,None or Unspecified,Hydraulic,None or Unspecified,Double,,,,,
5370,1747177,8000,1268450,132,5.0,1000,,,6/26/1999 0:00,PC50UU,PC50,UU,,,Mini,"Hydraulic Excavator, Track - 5.0 to 6.0 Metric Tons",Connecticut,TEX,Track Excavators,,EROPS,,,,,,,,,,,Standard,,,,,,None or Unspecified,,,,Steel,None or Unspecified,None or Unspecified,None or Unspecified,None or Unspecified,Double,,,,,
5370,1749295,12000,1412111,132,1.0,1990,,,4/17/1997 0:00,PC50UU,PC50,UU,,,Mini,"Hydraulic Excavator, Track - 5.0 to 6.0 Metric Tons",Minnesota,TEX,Track Excavators,,EROPS,,,,,,,,,,,Standard,,,,,,None or Unspecified,,,,Steel,None or Unspecified,None or Unspecified,None or Unspecified,None or Unspecified,Double,,,,,
5370,1749670,10000,1392695,132,2.0,1000,,,3/14/2002 0:00,PC50UU,PC50,UU,,,Mini,"Hydraulic Excavator, Track - 5.0 to 6.0 Metric Tons",New Jersey,TEX,Track Excavators,,EROPS,,,,,,,,,,,Standard,,,,,,None or Unspecified,,,,Steel,None or Unspecified,None or Unspecified,None or Unspecified,None or Unspecified,Double,,,,,
5370,1750141,9000,1421437,132,10.0,1000,,,9/6/2006 0:00,PC50UU,PC50,UU,,,Mini,"Hydraulic Excavator, Track - 5.0 to 6.0 Metric Tons",Louisiana,TEX,Track Excavators,,EROPS,,,,,,,,,,,Standard,,,,,,None or Unspecified,,,,Rubber,None or Unspecified,None or Unspecified,None or Unspecified,None or Unspecified,Double,,,,,
5370,1750531,11000,1080948,132,2.0,1000,,,4/24/1999 0:00,PC50UU,PC50,UU,,,Mini,"Hydraulic Excavator, Track - 5.0 to 6.0 Metric Tons",Ohio,TEX,Track Excavators,,EROPS,,,,,,,,,,,Standard,,,,,,None or Unspecified,,,,Steel,None or Unspecified,None or Unspecified,None or Unspecified,None or Unspecified,Double,,,,,
5370,1751317,9750,1296771,132,2.0,1993,,,1/26/2002 0:00,PC50UU,PC50,UU,,,Mini,"Hydraulic Excavator, Track - 5.0 to 6.0 Metric Tons",New York,TEX,Track Excavators,,EROPS w AC,,,,,,,,,,,Base + 1 Function,,,,,,,,,,,,,,,,,,,,
5370,1751395,7500,1533063,132,1.0,1000,,,9/17/1998 0:00,PC50UU,PC50,UU,,,Mini,"Hydraulic Excavator, Track - 5.0 to 6.0 Metric Tons",Washington,TEX,Track Excavators,,OROPS,,,,,,,,,,,2 Valve,,,,,,,,,,,None or Unspecified,,,,,,,,,
5370,1751492,12000,1281617,132,2.0,1990,,,8/23/1997 0:00,PC50UU,PC50,UU,,,Mini,"Hydraulic Excavator, Track - 5.0 to 6.0 Metric Tons",Illinois,TEX,Track Excavators,,EROPS,,,,,,,,,,,Standard,,,,,,None or Unspecified,,,,Rubber,None or Unspecified,None or Unspecified,None or Unspecified,None or Unspecified,Double,,,,,
5370,1751823,8250,1199032,132,2.0,1000,,,9/20/2002 0:00,PC50UU,PC50,UU,,,Mini,"Hydraulic Excavator, Track - 5.0 to 6.0 Metric Tons",Kentucky,TEX,Track Excavators,,EROPS,,,,,,,,,,,Standard,,,,,,None or Unspecified,,,,Rubber,16 inch,None or Unspecified,None or Unspecified,None or Unspecified,Double,,,,,
5370,1752474,10000,1288153,132,2.0,1000,,,6/6/1998 0:00,PC50UU,PC50,UU,,,Mini,"Hydraulic Excavator, Track - 5.0 to 6.0 Metric Tons",Connecticut,TEX,Track Excavators,,EROPS,,,,,,,,,,,Standard,,,,,,None or Unspecified,,,,Rubber,None or Unspecified,None or Unspecified,None or Unspecified,None or Unspecified,Double,,,,,
5370,1752611,13500,259178,132,13.0,1000,,,6/3/2006 0:00,PC50UU,PC50,UU,,,Mini,"Hydraulic Excavator, Track - 5.0 to 6.0 Metric Tons",Tennessee,TEX,Track Excavators,,EROPS,,,,,,,,,,,Auxiliary,,,,,,None or Unspecified,,,,Rubber,None or Unspecified,None or Unspecified,None or Unspecified,None or Unspecified,Double,,,,,
5370,1753480,8000,1522440,132,10.0,1000,,,6/25/1998 0:00,PC50UU,PC50,UU,,,Mini,"Hydraulic Excavator, Track - 5.0 to 6.0 Metric Tons",Louisiana,TEX,Track Excavators,,EROPS,,,,,,,,,,,Standard,,,,,,None or Unspecified,,,,Rubber,None or Unspecified,None or Unspecified,None or Unspecified,None or Unspecified,Double,,,,,
5370,1753499,10500,1367077,132,2.0,1000,,,4/27/2002 0:00,PC50UU,PC50,UU,,,Mini,"Hydraulic Excavator, Track - 5.0 to 6.0 Metric Tons",Ohio,TEX,Track Excavators,,EROPS,,,,,,,,,,,Auxiliary,,,,,,None or Unspecified,,,,Rubber,None or Unspecified,None or Unspecified,None or Unspecified,None or Unspecified,Double,,,,,
5370,1753573,9750,1253497,132,4.0,1000,,,10/9/2003 0:00,PC50UU,PC50,UU,,,Mini,"Hydraulic Excavator, Track - 5.0 to 6.0 Metric Tons",New Hampshire,TEX,Track Excavators,,EROPS,,,,,,,,,,,Standard,,,,,,None or Unspecified,,,,Steel,None or Unspecified,None or Unspecified,None or Unspecified,None or Unspecified,Double,,,,,
5370,1753619,7500,1501581,132,10.0,1000,,,4/23/1998 0:00,PC50UU,PC50,UU,,,Mini,"Hydraulic Excavator, Track - 5.0 to 6.0 Metric Tons",Louisiana,TEX,Track Excavators,,EROPS,,,,,,,,,,,Standard,,,,,,None or Unspecified,,,,Rubber,None or Unspecified,None or Unspecified,None or Unspecified,None or Unspecified,Double,,,,,
5370,1753620,8500,1099265,132,8.0,1000,,,11/15/2006 0:00,PC50UU,PC50,UU,,,Mini,"Hydraulic Excavator, Track - 5.0 to 6.0 Metric Tons",Mississippi,TEX,Track Excavators,,EROPS,,,,,,,,,,,Standard,,,,,,None or Unspecified,,,,Rubber,None or Unspecified,None or Unspecified,None or Unspecified,None or Unspecified,Double,,,,,
5370,1755201,10500,1479771,132,21.0,1000,,,10/1/2004 0:00,PC50UU,PC50,UU,,,Mini,"Hydraulic Excavator, Track - 5.0 to 6.0 Metric Tons",Maine,TEX,Track Excavators,,EROPS w AC,,,,,,,,,,,2 Valve,,,,,,,,,,,None or Unspecified,,,,,,,,,
5370,1756641,8500,1533179,132,6.0,1990,,,6/25/1998 0:00,PC50UU,PC50,UU,,,Mini,"Hydraulic Excavator, Track - 5.0 to 6.0 Metric Tons",New Mexico,TEX,Track Excavators,,EROPS w AC,,,,,,,,,,,Standard,,,,,,Hydraulic,,,,Steel,20 inch,"8' 2""",None or Unspecified,None or Unspecified,Double,,,,,
5370,1756771,9600,1170346,132,8.0,1000,,,9/22/2004 0:00,PC50UU,PC50,UU,,,Mini,"Hydraulic Excavator, Track - 5.0 to 6.0 Metric Tons",Mississippi,TEX,Track Excavators,,EROPS,,,,,,,,,,,Standard,,,,,,None or Unspecified,,,,Steel,None or Unspecified,None or Unspecified,None or Unspecified,None or Unspecified,Double,,,,,
5370,1756942,7500,1543052,132,4.0,1000,,,2/10/2003 0:00,PC50UU,PC50,UU,,,Mini,"Hydraulic Excavator, Track - 5.0 to 6.0 Metric Tons",Florida,TEX,Track Excavators,,EROPS w AC,,,,,,,,,,,Standard,,,,,,Manual,,,,Rubber,None or Unspecified,"8' 2""",None or Unspecified,None or Unspecified,Double,,,,,
5370,1757090,10500,1128651,132,1.0,1991,,,5/13/2006 0:00,PC50UU,PC50,UU,,,Mini,"Hydraulic Excavator, Track - 5.0 to 6.0 Metric Tons",Oregon,TEX,Track Excavators,,EROPS,,,,,,,,,,,Standard,,,,,,None or Unspecified,,,,Steel,None or Unspecified,None or Unspecified,None or Unspecified,None or Unspecified,Double,,,,,
5370,1761252,8000,1148795,132,7.0,1000,,,10/21/2004 0:00,PC50UU,PC50,UU,,,Mini,"Hydraulic Excavator, Track - 5.0 to 6.0 Metric Tons",South Carolina,TEX,Track Excavators,,EROPS,,,,,,,,,,,Standard,,,,,,None or Unspecified,,,,Rubber,None or Unspecified,None or Unspecified,None or Unspecified,None or Unspecified,Double,,,,,
5370,1761371,12000,1116721,132,4.0,1000,,,5/18/2005 0:00,PC50UU,PC50,UU,,,Mini,"Hydraulic Excavator, Track - 5.0 to 6.0 Metric Tons",New Hampshire,TEX,Track Excavators,,EROPS,,,,,,,,,,,Standard,,,,,,None or Unspecified,,,,Rubber,None or Unspecified,None or Unspecified,None or Unspecified,None or Unspecified,Double,,,,,
5370,1761460,13500,1397278,132,2.0,1993,,,4/29/2001 0:00,PC50UU,PC50,UU,,,Mini,"Hydraulic Excavator, Track - 5.0 to 6.0 Metric Tons",New York,TEX,Track Excavators,,EROPS,,,,,,,,,,,Standard,,,,,,None or Unspecified,,,,Rubber,None or Unspecified,None or Unspecified,None or Unspecified,None or Unspecified,Double,,,,,
5370,1761531,10000,1117928,132,2.0,1000,,,9/6/2003 0:00,PC50UU,PC50,UU,,,Mini,"Hydraulic Excavator, Track - 5.0 to 6.0 Metric Tons",New Hampshire,TEX,Track Excavators,,EROPS,,,,,,,,,,,Standard,,,,,,None or Unspecified,,,,Rubber,None or Unspecified,None or Unspecified,None or Unspecified,None or Unspecified,Double,,,,,
5370,1761980,14000,1285034,132,12.0,1993,,,3/30/2005 0:00,PC50UU,PC50,UU,,,Mini,"Hydraulic Excavator, Track - 5.0 to 6.0 Metric Tons",South Carolina,TEX,Track Excavators,,EROPS,,,,,,,,,,,Standard,,,,,,None or Unspecified,,,,Rubber,None or Unspecified,None or Unspecified,None or Unspecified,None or Unspecified,Double,,,,,
5370,1762001,12500,1264728,132,99.0,1000,,,6/9/2006 0:00,PC50UU,PC50,UU,,,Mini,"Hydraulic Excavator, Track - 5.0 to 6.0 Metric Tons",Minnesota,TEX,Track Excavators,,EROPS,,,,,,,,,,,Standard,,,,,,None or Unspecified,,,,Steel,None or Unspecified,None or Unspecified,None or Unspecified,None or Unspecified,Double,,,,,
5370,1778521,12000,1411368,132,1.0,1991,,,2/29/2000 0:00,PC50UU,PC50,UU,,,Mini,"Hydraulic Excavator, Track - 5.0 to 6.0 Metric Tons",Arizona,TEX,Track Excavators,,EROPS,,,,,,,,,,,Standard,,,,,,None or Unspecified,,,,Steel,None or Unspecified,None or Unspecified,None or Unspecified,None or Unspecified,Double,,,,,
5370,2397276,14000,846513,136,7.0,1000,2943.0,Low,6/4/2008 0:00,PC50UU,PC50,UU,,,Mini,"Hydraulic Excavator, Track - 5.0 to 6.0 Metric Tons",Alabama,TEX,Track Excavators,,EROPS w AC,,,,,,,,,,,Standard,,,,,,Manual,,,,Rubber,36 inch,None or Unspecified,Hydraulic,None or Unspecified,Double,,,,,
5370,2398799,7500,113233,136,1.0,1000,0.0,,6/12/2007 0:00,PC50UU,PC50,UU,,,Mini,"Hydraulic Excavator, Track - 5.0 to 6.0 Metric Tons",Washington,TEX,Track Excavators,,EROPS,,,,,,,,,,,Auxiliary,,,,,,Hydraulic,,,,Rubber,None or Unspecified,None or Unspecified,None or Unspecified,None or Unspecified,Double,,,,,
5370,2399060,9000,1519378,136,,1994,0.0,,5/15/2008 0:00,PC50UU,PC50,UU,,,Mini,"Hydraulic Excavator, Track - 5.0 to 6.0 Metric Tons",South Carolina,TEX,Track Excavators,,EROPS,,,,,,,,,,,Standard,,,,,,None or Unspecified,,,,Rubber,None or Unspecified,None or Unspecified,None or Unspecified,None or Unspecified,Double,,,,,
5370,2399396,12500,1776426,136,1.0,1000,3045.0,High,6/1/2007 0:00,PC50UU,PC50,UU,,,Mini,"Hydraulic Excavator, Track - 5.0 to 6.0 Metric Tons",Mississippi,TEX,Track Excavators,,,,,,,,,,,,,,,,,,,,,,,,,,,,,,,,,
5370,2399398,13000,1776426,136,1.0,1000,0.0,,9/7/2007 0:00,PC50UU,PC50,UU,,,Mini,"Hydraulic Excavator, Track - 5.0 to 6.0 Metric Tons",Mississippi,TEX,Track Excavators,,,,,,,,,,,,,,,,,,,,,,,,,,,,,,,,,
5370,2399743,9250,1188331,136,2.0,1987,0.0,,10/23/2008 0:00,PC50UU,PC50,UU,,,Mini,"Hydraulic Excavator, Track - 5.0 to 6.0 Metric Tons",Pennsylvania,TEX,Track Excavators,,EROPS,,,,,,,,,,,Standard,,,,,,None or Unspecified,,,,Steel,None or Unspecified,None or Unspecified,None or Unspecified,None or Unspecified,Double,,,,,
5370,2399841,7500,1052002,136,2.0,1987,0.0,,10/9/2007 0:00,PC50UU,PC50,UU,,,Mini,"Hydraulic Excavator, Track - 5.0 to 6.0 Metric Tons",Idaho,TEX,Track Excavators,,EROPS w AC,,,,,,,,,,,Standard,,,,,,None or Unspecified,,,,Steel,None or Unspecified,None or Unspecified,None or Unspecified,None or Unspecified,Double,,,,,
5370,2400090,10000,1733815,136,1.0,1000,0.0,,7/11/2007 0:00,PC50UU,PC50,UU,,,Mini,"Hydraulic Excavator, Track - 5.0 to 6.0 Metric Tons",Texas,TEX,Track Excavators,,EROPS,,,,,,,,,,,Standard,,,,,,None or Unspecified,,,,Rubber,None or Unspecified,None or Unspecified,None or Unspecified,None or Unspecified,Double,,,,,
5370,2400238,7750,1173086,136,1.0,1000,0.0,,7/19/2008 0:00,PC50UU,PC50,UU,,,Mini,"Hydraulic Excavator, Track - 5.0 to 6.0 Metric Tons",New York,TEX,Track Excavators,,OROPS,,,,,,,,,,,2 Valve,,,,,,,,,,,20 inch,,,,,,,,,
5370,2401306,12000,1659107,136,1.0,1988,0.0,,2/19/2008 0:00,PC50UU,PC50,UU,,,Mini,"Hydraulic Excavator, Track - 5.0 to 6.0 Metric Tons",Florida,TEX,Track Excavators,,EROPS w AC,,,,,,,,,,,2 Valve,,,,,,,,,,,None or Unspecified,,,,,,,,,
5370,2401883,11000,1226077,136,10.0,1988,0.0,,10/21/2008 0:00,PC50UU,PC50,UU,,,Mini,"Hydraulic Excavator, Track - 5.0 to 6.0 Metric Tons",Louisiana,TEX,Track Excavators,,EROPS w AC,,,,,,,,,,,2 Valve,,,,,,,,,,,None or Unspecified,,,,,,,,,
5370,2401884,11000,1226077,136,10.0,1988,0.0,,10/23/2008 0:00,PC50UU,PC50,UU,,,Mini,"Hydraulic Excavator, Track - 5.0 to 6.0 Metric Tons",Texas,TEX,Track Excavators,,EROPS w AC,,,,,,,,,,,2 Valve,,,,,,,,,,,None or Unspecified,,,,,,,,,
5370,2401885,8500,1226077,136,14.0,1988,0.0,,9/20/2007 0:00,PC50UU,PC50,UU,,,Mini,"Hydraulic Excavator, Track - 5.0 to 6.0 Metric Tons",Louisiana,TEX,Track Excavators,,EROPS w AC,,,,,,,,,,,2 Valve,,,,,,,,,,,None or Unspecified,,,,,,,,,
5370,2401886,12000,1226077,136,14.0,1988,0.0,,12/11/2007 0:00,PC50UU,PC50,UU,,,Mini,"Hydraulic Excavator, Track - 5.0 to 6.0 Metric Tons",Louisiana,TEX,Track Excavators,,EROPS w AC,,,,,,,,,,,2 Valve,,,,,,,,,,,None or Unspecified,,,,,,,,,
5370,2402680,8500,1075436,136,1.0,1000,0.0,,6/27/2007 0:00,PC50UU,PC50,UU,,,Mini,"Hydraulic Excavator, Track - 5.0 to 6.0 Metric Tons",Georgia,TEX,Track Excavators,,,,,,,,,,,,,,,,,,,,,,,,,,,,,,,,,
5370,2402915,9000,1776813,136,2.0,1000,0.0,,10/18/2007 0:00,PC50UU,PC50,UU,,,Mini,"Hydraulic Excavator, Track - 5.0 to 6.0 Metric Tons",Pennsylvania,TEX,Track Excavators,,EROPS,,,,,,,,,,,Standard,,,,,,None or Unspecified,,,,Rubber,None or Unspecified,None or Unspecified,None or Unspecified,None or Unspecified,Double,,,,,
5370,2403350,7750,1777073,136,1.0,1989,0.0,,2/11/2008 0:00,PC50UU,PC50,UU,,,Mini,"Hydraulic Excavator, Track - 5.0 to 6.0 Metric Tons",Florida,TEX,Track Excavators,,EROPS,,,,,,,,,,,Standard,,,,,,None or Unspecified,,,,Rubber,None or Unspecified,None or Unspecified,None or Unspecified,None or Unspecified,Double,,,,,
5370,2403751,12000,1750645,136,,1989,0.0,,2/19/2008 0:00,PC50UU,PC50,UU,,,Mini,"Hydraulic Excavator, Track - 5.0 to 6.0 Metric Tons",Florida,TEX,Track Excavators,,EROPS,,,,,,,,,,,Standard,,,,,,None or Unspecified,,,,Steel,None or Unspecified,None or Unspecified,Manual,None or Unspecified,Double,,,,,
5370,2404191,9000,1142052,136,1.0,1000,0.0,,6/17/2008 0:00,PC50UU,PC50,UU,,,Mini,"Hydraulic Excavator, Track - 5.0 to 6.0 Metric Tons",Washington,TEX,Track Excavators,,EROPS,,,,,,,,,,,Standard,,,,,,None or Unspecified,,,,Rubber,None or Unspecified,None or Unspecified,None or Unspecified,None or Unspecified,Double,,,,,
5370,2404854,8500,1681005,136,,1000,2400.0,Low,6/19/2008 0:00,PC50UU,PC50,UU,,,Mini,"Hydraulic Excavator, Track - 5.0 to 6.0 Metric Tons",Pennsylvania,TEX,Track Excavators,,EROPS,,,,,,,,,,,Standard,,,,,,None or Unspecified,,,,Rubber,None or Unspecified,None or Unspecified,None or Unspecified,None or Unspecified,Double,,,,,
5370,2404856,10500,1681005,136,,1989,2340.0,Low,8/7/2008 0:00,PC50UU,PC50,UU,,,Mini,"Hydraulic Excavator, Track - 5.0 to 6.0 Metric Tons",New York,TEX,Track Excavators,,EROPS,,,,,,,,,,,Standard,,,,,,None or Unspecified,,,,Rubber,None or Unspecified,None or Unspecified,None or Unspecified,None or Unspecified,Double,,,,,
5370,2404860,10000,1174889,136,2.0,1989,0.0,,2/19/2008 0:00,PC50UU,PC50,UU,,,Mini,"Hydraulic Excavator, Track - 5.0 to 6.0 Metric Tons",Florida,TEX,Track Excavators,,EROPS,,,,,,,,,,,Standard,,,,,,None or Unspecified,,,,Steel,None or Unspecified,None or Unspecified,None or Unspecified,None or Unspecified,Double,,,,,
5370,2404878,7900,1679754,136,99.0,1989,0.0,,2/11/2008 0:00,PC50UU,PC50,UU,,,Mini,"Hydraulic Excavator, Track - 5.0 to 6.0 Metric Tons",Florida,TEX,Track Excavators,,EROPS,,,,,,,,,,,Standard,,,,,,None or Unspecified,,,,Steel,None or Unspecified,None or Unspecified,None or Unspecified,None or Unspecified,Double,,,,,
5370,2404953,14500,1174626,136,12.0,1989,0.0,,1/20/2010 0:00,PC50UU,PC50,UU,,,Mini,"Hydraulic Excavator, Track - 5.0 to 6.0 Metric Tons",South Carolina,TEX,Track Excavators,,EROPS,,,,,,,,,,,Standard,,,,,,None or Unspecified,,,,Rubber,None or Unspecified,None or Unspecified,None or Unspecified,None or Unspecified,Triple,,,,,
5370,2405399,11250,1668054,136,99.0,1990,3800.0,Low,4/17/2008 0:00,PC50UU,PC50,UU,,,Mini,"Hydraulic Excavator, Track - 5.0 to 6.0 Metric Tons",Pennsylvania,TEX,Track Excavators,,EROPS,,,,,,,,,,,Standard,,,,,,None or Unspecified,,,,Steel,None or Unspecified,None or Unspecified,None or Unspecified,None or Unspecified,Double,,,,,
5370,2405415,11500,1656714,136,11.0,1000,0.0,,6/24/2008 0:00,PC50UU,PC50,UU,,,Mini,"Hydraulic Excavator, Track - 5.0 to 6.0 Metric Tons",North Carolina,TEX,Track Excavators,,EROPS,,,,,,,,,,,Standard,,,,,,None or Unspecified,,,,Rubber,None or Unspecified,None or Unspecified,None or Unspecified,None or Unspecified,Double,,,,,
5370,2405481,8000,1640331,136,,1000,3000.0,Low,6/19/2008 0:00,PC50UU,PC50,UU,,,Mini,"Hydraulic Excavator, Track - 5.0 to 6.0 Metric Tons",Pennsylvania,TEX,Track Excavators,,OROPS,,,,,,,,,,,2 Valve,,,,,,,,,,,None or Unspecified,,,,,,,,,
5370,2406024,9100,1706470,136,,1000,0.0,,6/14/2007 0:00,PC50UU,PC50,UU,,,Mini,"Hydraulic Excavator, Track - 5.0 to 6.0 Metric Tons",Pennsylvania,TEX,Track Excavators,,EROPS,,,,,,,,,,,Standard,,,,,,None or Unspecified,,,,Steel,None or Unspecified,None or Unspecified,None or Unspecified,None or Unspecified,Double,,,,,
5370,2406177,8500,1305858,136,,1990,3400.0,Medium,4/17/2008 0:00,PC50UU,PC50,UU,,,Mini,"Hydraulic Excavator, Track - 5.0 to 6.0 Metric Tons",Pennsylvania,TEX,Track Excavators,,EROPS,,,,,,,,,,,Standard,,,,,,None or Unspecified,,,,Steel,None or Unspecified,None or Unspecified,None or Unspecified,None or Unspecified,Double,,,,,
5370,2406183,10000,1472136,136,1.0,1000,0.0,,6/20/2007 0:00,PC50UU,PC50,UU,,,Mini,"Hydraulic Excavator, Track - 5.0 to 6.0 Metric Tons",Maryland,TEX,Track Excavators,,EROPS,,,,,,,,,,,Auxiliary,,,,,,None or Unspecified,,,,Steel,None or Unspecified,None or Unspecified,None or Unspecified,None or Unspecified,Double,,,,,
5370,2406191,8500,803524,136,6.0,1990,0.0,,6/20/2007 0:00,PC50UU,PC50,UU,,,Mini,"Hydraulic Excavator, Track - 5.0 to 6.0 Metric Tons",Arkansas,TEX,Track Excavators,,EROPS,,,,,,,,,,,Standard,,,,,,None or Unspecified,,,,Rubber,None or Unspecified,None or Unspecified,None or Unspecified,None or Unspecified,Double,,,,,
5370,2406192,7500,803524,136,6.0,1000,0.0,,7/19/2007 0:00,PC50UU,PC50,UU,,,Mini,"Hydraulic Excavator, Track - 5.0 to 6.0 Metric Tons",Tennessee,TEX,Track Excavators,,EROPS,,,,,,,,,,,Standard,,,,,,None or Unspecified,,,,Rubber,None or Unspecified,None or Unspecified,None or Unspecified,None or Unspecified,Double,,,,,
5370,2407151,8000,1120449,136,4.0,1000,0.0,,7/9/2008 0:00,PC50UU,PC50,UU,,,Mini,"Hydraulic Excavator, Track - 5.0 to 6.0 Metric Tons",Texas,TEX,Track Excavators,,EROPS,,,,,,,,,,,Standard,,,,,,None or Unspecified,,,,Rubber,None or Unspecified,None or Unspecified,None or Unspecified,None or Unspecified,Double,,,,,
5370,2407263,8700,1194923,136,1.0,1990,4600.0,Low,10/23/2008 0:00,PC50UU,PC50,UU,,,Mini,"Hydraulic Excavator, Track - 5.0 to 6.0 Metric Tons",Pennsylvania,TEX,Track Excavators,,EROPS,,,,,,,,,,,Standard,,,,,,None or Unspecified,,,,Rubber,None or Unspecified,None or Unspecified,None or Unspecified,None or Unspecified,Double,,,,,
5370,2407886,9000,1021791,136,,1000,2600.0,High,6/19/2008 0:00,PC50UU,PC50,UU,,,Mini,"Hydraulic Excavator, Track - 5.0 to 6.0 Metric Tons",Pennsylvania,TEX,Track Excavators,,OROPS,,,,,,,,,,,2 Valve,,,,,,,,,,,None or Unspecified,,,,,,,,,
5370,2408041,9000,1589052,136,4.0,1991,0.0,,6/17/2010 0:00,PC50UU,PC50,UU,,,Mini,"Hydraulic Excavator, Track - 5.0 to 6.0 Metric Tons",Pennsylvania,TEX,Track Excavators,,EROPS,,,,,,,,,,,Standard,,,,,,None or Unspecified,,,,Rubber,None or Unspecified,None or Unspecified,None or Unspecified,None or Unspecified,Double,,,,,
5370,2408065,8000,1641117,136,16.0,1991,0.0,,3/18/2008 0:00,PC50UU,PC50,UU,,,Mini,"Hydraulic Excavator, Track - 5.0 to 6.0 Metric Tons",Washington,TEX,Track Excavators,,EROPS,,,,,,,,,,,Standard,,,,,,None or Unspecified,,,,Rubber,None or Unspecified,None or Unspecified,None or Unspecified,None or Unspecified,Double,,,,,
5370,2408176,9750,1409698,136,4.0,1991,0.0,,6/17/2010 0:00,PC50UU,PC50,UU,,,Mini,"Hydraulic Excavator, Track - 5.0 to 6.0 Metric Tons",Pennsylvania,TEX,Track Excavators,,EROPS,,,,,,,,,,,Auxiliary,,,,,,None or Unspecified,,,,Rubber,None or Unspecified,"8' 2""",None or Unspecified,None or Unspecified,Double,,,,,
5370,2409223,7900,1399224,136,1.0,1991,3700.0,Low,5/15/2008 0:00,PC50UU,PC50,UU,,,Mini,"Hydraulic Excavator, Track - 5.0 to 6.0 Metric Tons",South Carolina,TEX,Track Excavators,,OROPS,,,,,,,,,,,2 Valve,,,,,,None or Unspecified,,,,,,,,,,,,,,
5370,2409395,8500,1172684,136,7.0,1991,0.0,,9/21/2007 0:00,PC50UU,PC50,UU,,,Mini,"Hydraulic Excavator, Track - 5.0 to 6.0 Metric Tons",Minnesota,TEX,Track Excavators,,EROPS,,,,,,,,,,,Standard,,,,,,None or Unspecified,,,,Rubber,None or Unspecified,"11' 0""",None or Unspecified,None or Unspecified,Double,,,,,
5370,2409558,8000,1180174,136,,1000,0.0,,6/19/2007 0:00,PC50UU,PC50,UU,,,Mini,"Hydraulic Excavator, Track - 5.0 to 6.0 Metric Tons",Oregon,TEX,Track Excavators,,EROPS w AC,,,,,,,,,,,Auxiliary,,,,,,None or Unspecified,,,,Rubber,None or Unspecified,None or Unspecified,None or Unspecified,None or Unspecified,Double,,,,,
5370,2409622,8500,1296879,136,1.0,1992,0.0,,8/21/2007 0:00,PC50UU,PC50,UU,,,Mini,"Hydraulic Excavator, Track - 5.0 to 6.0 Metric Tons",Ohio,TEX,Track Excavators,,EROPS,,,,,,,,,,,Auxiliary,,,,,,None or Unspecified,,,,Rubber,None or Unspecified,None or Unspecified,None or Unspecified,None or Unspecified,Double,,,,,
5370,2411347,9000,1269559,136,12.0,1000,0.0,,6/17/2009 0:00,PC50UU,PC50,UU,,,Mini,"Hydraulic Excavator, Track - 5.0 to 6.0 Metric Tons",South Carolina,TEX,Track Excavators,,EROPS,,,,,,,,,,,Standard,,,,,,None or Unspecified,,,,Rubber,None or Unspecified,None or Unspecified,None or Unspecified,None or Unspecified,Double,,,,,
5370,2411758,9000,1740486,136,28.0,1000,0.0,,4/4/2009 0:00,PC50UU,PC50,UU,,,Mini,"Hydraulic Excavator, Track - 5.0 to 6.0 Metric Tons",Massachusetts,TEX,Track Excavators,,EROPS,,,,,,,,,,,Standard,,,,,,None or Unspecified,,,,Rubber,None or Unspecified,None or Unspecified,None or Unspecified,None or Unspecified,Double,,,,,
5370,2693702,8000,1800506,149,10.0,1000,0.0,,6/15/2011 0:00,PC50UU,PC50,UU,,,Mini,"Hydraulic Excavator, Track - 5.0 to 6.0 Metric Tons",Louisiana,TEX,Track Excavators,,EROPS,,,,,,,,,,,Standard,,,,,,None or Unspecified,,,,Rubber,None or Unspecified,None or Unspecified,None or Unspecified,None or Unspecified,Double,,,,,
