ModelID,SalesID,SalePrice,MachineID,datasource,auctioneerID,YearMade,MachineHoursCurrentMeter,UsageBand,saledate,fiModelDesc,fiBaseModel,fiSecondaryDesc,fiModelSeries,fiModelDescriptor,ProductSize,fiProductClassDesc,state,ProductGroup,ProductGroupDesc,Drive_System,Enclosure,Forks,Pad_Type,Ride_Control,Stick,Transmission,Turbocharged,Blade_Extension,Blade_Width,Enclosure_Type,Engine_Horsepower,Hydraulics,Pushblock,Ripper,Scarifier,Tip_Control,Tire_Size,Coupler,Coupler_System,Grouser_Tracks,Hydraulics_Flow,Track_Type,Undercarriage_Pad_Width,Stick_Length,Thumb,Pattern_Changer,Grouser_Type,Backhoe_Mounting,Blade_Type,Travel_Controls,Differential_Type,Steering_Controls
5446,1213861,14000,1032641,121,3.0,1000,1080.0,Low,4/21/2011 0:00,LS2650C,LS2650,C,,,Small,"Hydraulic Excavator, Track - 8.0 to 11.0 Metric Tons",New York,TEX,Track Excavators,,EROPS,,,,,,,,,,,Standard,,,,,,None or Unspecified,,,,Steel,None or Unspecified,"8' 2""",None or Unspecified,None or Unspecified,Double,,,,,
5446,1783416,10000,1344627,132,1.0,1000,,,9/17/2008 0:00,LS2650C,LS2650,C,,,Small,"Hydraulic Excavator, Track - 8.0 to 11.0 Metric Tons",Illinois,TEX,Track Excavators,,EROPS,,,,,,,,,,,Standard,,,,,,None or Unspecified,,,,Steel,None or Unspecified,"9' 8""",None or Unspecified,None or Unspecified,Double,,,,,
5446,1783743,12500,1202082,132,2.0,1000,,,1/20/2006 0:00,LS2650C,LS2650,C,,,Small,"Hydraulic Excavator, Track - 8.0 to 11.0 Metric Tons",Pennsylvania,TEX,Track Excavators,,EROPS,,,,,,,,,,,Auxiliary,,,,,,None or Unspecified,,,,Steel,None or Unspecified,None or Unspecified,Manual,None or Unspecified,Double,,,,,
5446,2425679,14000,1699257,136,,1000,0.0,,3/11/2009 0:00,LS2650C,LS2650,C,,,Small,"Hydraulic Excavator, Track - 8.0 to 11.0 Metric Tons",Alabama,TEX,Track Excavators,,EROPS,,,,,,,,,,,Standard,,,,,,None or Unspecified,,,,Steel,24 inch,None or Unspecified,Manual,None or Unspecified,Triple,,,,,
