ModelID,SalesID,SalePrice,MachineID,datasource,auctioneerID,YearMade,MachineHoursCurrentMeter,UsageBand,saledate,fiModelDesc,fiBaseModel,fiSecondaryDesc,fiModelSeries,fiModelDescriptor,ProductSize,fiProductClassDesc,state,ProductGroup,ProductGroupDesc,Drive_System,Enclosure,Forks,Pad_Type,Ride_Control,Stick,Transmission,Turbocharged,Blade_Extension,Blade_Width,Enclosure_Type,Engine_Horsepower,Hydraulics,Pushblock,Ripper,Scarifier,Tip_Control,Tire_Size,Coupler,Coupler_System,Grouser_Tracks,Hydraulics_Flow,Track_Type,Undercarriage_Pad_Width,Stick_Length,Thumb,Pattern_Changer,Grouser_Type,Backhoe_Mounting,Blade_Type,Travel_Controls,Differential_Type,Steering_Controls
5530,1140045,10500,275311,121,3.0,2000,0.0,,4/12/2007 0:00,864G,864,G,,,,Skid Steer Loader - 1751.0 to 2201.0 Lb Operating Capacity,North Dakota,SSL,Skid Steer Loaders,,OROPS,None or Unspecified,,,,,,,,,,Auxiliary,,,,,,None or Unspecified,None or Unspecified,Yes,Standard,,,,,,,,,,,
5530,1162121,17500,1020726,121,3.0,2000,1670.0,Medium,3/27/2006 0:00,864G,864,G,,,,Skid Steer Loader - 1751.0 to 2201.0 Lb Operating Capacity,Kansas,SSL,Skid Steer Loaders,,EROPS w AC,None or Unspecified,,,,,,,,,,Auxiliary,,,,,,None or Unspecified,None or Unspecified,Yes,Standard,,,,,,,,,,,
5530,1168048,18500,1027687,121,3.0,2000,2471.0,High,6/30/2005 0:00,864G,864,G,,,,Skid Steer Loader - 1751.0 to 2201.0 Lb Operating Capacity,Missouri,SSL,Skid Steer Loaders,,EROPS w AC,None or Unspecified,,,,,,,,,,Auxiliary,,,,,,None or Unspecified,None or Unspecified,Yes,Standard,,,,,,,,,,,
5530,2430827,10000,1723409,136,5.0,2000,0.0,,4/8/2010 0:00,864G,864,G,,,,Skid Steer Loader - 1751.0 to 2201.0 Lb Operating Capacity,Connecticut,SSL,Skid Steer Loaders,,OROPS,None or Unspecified,,,,,,,,,,Standard,,,,,,None or Unspecified,None or Unspecified,Yes,Standard,,,,,,,,,,,
5530,2430844,10000,1677420,136,,2000,0.0,,10/14/2009 0:00,864G,864,G,,,,Skid Steer Loader - 1751.0 to 2201.0 Lb Operating Capacity,Florida,SSL,Skid Steer Loaders,,OROPS,None or Unspecified,,,,,,,,,,Auxiliary,,,,,,None or Unspecified,None or Unspecified,None or Unspecified,Standard,,,,,,,,,,,
5530,2430847,9000,1684623,136,1.0,1000,0.0,,5/13/2010 0:00,864G,864,G,,,,Skid Steer Loader - 1751.0 to 2201.0 Lb Operating Capacity,Illinois,SSL,Skid Steer Loaders,,OROPS,Yes,,,,,,,,,,Standard,,,,,,None or Unspecified,None or Unspecified,None or Unspecified,Standard,,,,,,,,,,,
5530,2717269,9500,1851762,149,1.0,2001,2400.0,Medium,12/14/2010 0:00,864G,864,G,,,,Skid Steer Loader - 1751.0 to 2201.0 Lb Operating Capacity,Maryland,SSL,Skid Steer Loaders,,OROPS,None or Unspecified,,,,,,,,,,Auxiliary,,,,,,None or Unspecified,None or Unspecified,None or Unspecified,Standard,,,,,,,,,,,
