SalesID,1816555
SalePrice,39000
MachineID,1448236
datasource,132
auctioneerID,3.0
YearMade,1997
MachineHoursCurrentMeter,
UsageBand,
saledate,8/26/2004 0:00
fiModelDesc,L180C
fiBaseModel,L180
fiSecondaryDesc,C
fiModelSeries,
fiModelDescriptor,
ProductSize,Medium
fiProductClassDesc,Wheel Loader - 250.0 to 275.0 Horsepower
state,California
ProductGroup,WL
ProductGroupDesc,Wheel Loader
Drive_System,
Enclosure,OROPS
Forks,None or Unspecified
Pad_Type,
Ride_Control,None or Unspecified
Stick,
Transmission,
Turbocharged,
Blade_Extension,
Blade_Width,
Enclosure_Type,
Engine_Horsepower,
Hydraulics,2 Valve
Pushblock,
Ripper,
Scarifier,
Tip_Control,
Tire_Size,None or Unspecified
Coupler,None or Unspecified
Coupler_System,
Grouser_Tracks,
Hydraulics_Flow,
Track_Type,
Undercarriage_Pad_Width,
Stick_Length,
Thumb,
Pattern_Changer,
Grouser_Type,
Backhoe_Mounting,
Blade_Type,
Travel_Controls,
Differential_Type,Standard
Steering_Controls,Conventional
