SalesID,6318775
SalePrice,46000
MachineID,1934378
datasource,149
auctioneerID,1.0
YearMade,1998
MachineHoursCurrentMeter,
UsageBand,
saledate,11/16/2011 0:00
fiModelDesc,720A
fiBaseModel,720
fiSecondaryDesc,A
fiModelSeries,
fiModelDescriptor,
ProductSize,
fiProductClassDesc,Motorgrader - 145.0 to 170.0 Horsepower
state,Texas
ProductGroup,MG
ProductGroupDesc,Motor Graders
Drive_System,No
Enclosure,EROPS w AC
Forks,
Pad_Type,
Ride_Control,
Stick,
Transmission,None or Unspecified
Turbocharged,
Blade_Extension,None or Unspecified
Blade_Width,14'
Enclosure_Type,None or Unspecified
Engine_Horsepower,No
Hydraulics,Base + 1 Function
Pushblock,None or Unspecified
Ripper,None or Unspecified
Scarifier,Yes
Tip_Control,None or Unspecified
Tire_Size,None or Unspecified
Coupler,
Coupler_System,
Grouser_Tracks,
Hydraulics_Flow,
Track_Type,
Undercarriage_Pad_Width,
Stick_Length,
Thumb,
Pattern_Changer,
Grouser_Type,
Backhoe_Mounting,
Blade_Type,
Travel_Controls,
Differential_Type,
Steering_Controls,
