ModelID,SalesID,SalePrice,MachineID,datasource,auctioneerID,YearMade,MachineHoursCurrentMeter,UsageBand,saledate,fiModelDesc,fiBaseModel,fiSecondaryDesc,fiModelSeries,fiModelDescriptor,ProductSize,fiProductClassDesc,state,ProductGroup,ProductGroupDesc,Drive_System,Enclosure,Forks,Pad_Type,Ride_Control,Stick,Transmission,Turbocharged,Blade_Extension,Blade_Width,Enclosure_Type,Engine_Horsepower,Hydraulics,Pushblock,Ripper,Scarifier,Tip_Control,Tire_Size,Coupler,Coupler_System,Grouser_Tracks,Hydraulics_Flow,Track_Type,Undercarriage_Pad_Width,Stick_Length,Thumb,Pattern_Changer,Grouser_Type,Backhoe_Mounting,Blade_Type,Travel_Controls,Differential_Type,Steering_Controls
5847,1844780,8250,1092913,132,7.0,1977,,,3/18/1994 0:00,C14B,C14,B,,,Small,"Hydraulic Excavator, Track - 16.0 to 19.0 Metric Tons",Alabama,TEX,Track Excavators,,EROPS,,,,,,,,,,,Standard,,,,,,None or Unspecified,,,,Steel,None or Unspecified,None or Unspecified,None or Unspecified,None or Unspecified,Double,,,,,
5847,1844781,8500,1155636,132,2.0,1977,,,6/24/1995 0:00,C14B,C14,B,,,Small,"Hydraulic Excavator, Track - 16.0 to 19.0 Metric Tons",New York,TEX,Track Excavators,,EROPS,,,,,,,,,,,Standard,,,,,,None or Unspecified,,,,Steel,None or Unspecified,None or Unspecified,None or Unspecified,None or Unspecified,Double,,,,,
5847,1844784,11000,1328119,132,99.0,1979,,,5/17/1994 0:00,C14B,C14,B,,,Small,"Hydraulic Excavator, Track - 16.0 to 19.0 Metric Tons",Oregon,TEX,Track Excavators,,EROPS,,,,,,,,,,,Standard,,,,,,None or Unspecified,,,,Steel,30 inch,"11' 0""",Manual,None or Unspecified,Triple,,,,,
5847,1844787,7750,1083328,132,6.0,1978,,,6/26/1995 0:00,C14B,C14,B,,,Small,"Hydraulic Excavator, Track - 16.0 to 19.0 Metric Tons",Illinois,TEX,Track Excavators,,EROPS,,,,,,,,,,,Standard,,,,,,None or Unspecified,,,,Steel,30 inch,None or Unspecified,None or Unspecified,None or Unspecified,Double,,,,,
5847,1844788,9750,1097442,132,9.0,1978,,,5/22/1997 0:00,C14B,C14,B,,,Small,"Hydraulic Excavator, Track - 16.0 to 19.0 Metric Tons",South Carolina,TEX,Track Excavators,,EROPS,,,,,,,,,,,Standard,,,,,,None or Unspecified,,,,Steel,None or Unspecified,None or Unspecified,None or Unspecified,None or Unspecified,Double,,,,,
5847,1844791,9000,1479368,132,6.0,1000,,,5/4/1999 0:00,C14B,C14,B,,,Small,"Hydraulic Excavator, Track - 16.0 to 19.0 Metric Tons",Wisconsin,TEX,Track Excavators,,EROPS,,,,,,,,,,,Standard,,,,,,None or Unspecified,,,,Steel,30 inch,None or Unspecified,None or Unspecified,None or Unspecified,Double,,,,,
5847,1844793,8000,1469511,132,21.0,1000,,,6/23/1995 0:00,C14B,C14,B,,,Small,"Hydraulic Excavator, Track - 16.0 to 19.0 Metric Tons",Maine,TEX,Track Excavators,,EROPS,,,,,,,,,,,Standard,,,,,,None or Unspecified,,,,Steel,None or Unspecified,None or Unspecified,None or Unspecified,None or Unspecified,Double,,,,,
