ModelID,SalesID,SalePrice,MachineID,datasource,auctioneerID,YearMade,MachineHoursCurrentMeter,UsageBand,saledate,fiModelDesc,fiBaseModel,fiSecondaryDesc,fiModelSeries,fiModelDescriptor,ProductSize,fiProductClassDesc,state,ProductGroup,ProductGroupDesc,Drive_System,Enclosure,Forks,Pad_Type,Ride_Control,Stick,Transmission,Turbocharged,Blade_Extension,Blade_Width,Enclosure_Type,Engine_Horsepower,Hydraulics,Pushblock,Ripper,Scarifier,Tip_Control,Tire_Size,Coupler,Coupler_System,Grouser_Tracks,Hydraulics_Flow,Track_Type,Undercarriage_Pad_Width,Stick_Length,Thumb,Pattern_Changer,Grouser_Type,Backhoe_Mounting,Blade_Type,Travel_Controls,Differential_Type,Steering_Controls
5853,1139413,58000,1045512,121,3.0,2001,2425.0,Low,2/25/2010 0:00,EC210LC,EC210,,,LC,Large / Medium,"Hydraulic Excavator, Track - 21.0 to 24.0 Metric Tons",Florida,TEX,Track Excavators,,EROPS w AC,,,,,,,,,,,Standard,,,,,,None or Unspecified,,,,Steel,32 inch,None or Unspecified,None or Unspecified,None or Unspecified,Double,,,,,
5853,1141394,44000,1048057,121,3.0,2000,5443.0,High,9/22/2005 0:00,EC210LC,EC210,,,LC,Large / Medium,"Hydraulic Excavator, Track - 21.0 to 24.0 Metric Tons",Texas,TEX,Track Excavators,,EROPS w AC,,,,,,,,,,,Standard,,,,,,None or Unspecified,,,,Steel,None or Unspecified,None or Unspecified,None or Unspecified,None or Unspecified,Double,,,,,
5853,1149243,44000,1035054,121,3.0,2001,2205.0,Low,2/25/2010 0:00,EC210LC,EC210,,,LC,Large / Medium,"Hydraulic Excavator, Track - 21.0 to 24.0 Metric Tons",Florida,TEX,Track Excavators,,EROPS w AC,,,,,,,,,,,Standard,,,,,,None or Unspecified,,,,Steel,32 inch,None or Unspecified,None or Unspecified,None or Unspecified,Double,,,,,
5853,1156377,53000,1033456,121,3.0,2001,3578.0,Medium,8/9/2007 0:00,EC210LC,EC210,,,LC,Large / Medium,"Hydraulic Excavator, Track - 21.0 to 24.0 Metric Tons",Wisconsin,TEX,Track Excavators,,EROPS w AC,,,,,,,,,,,Auxiliary,,,,,,None or Unspecified,,,,Steel,None or Unspecified,None or Unspecified,None or Unspecified,None or Unspecified,Double,,,,,
5853,1164951,33000,1014225,121,3.0,2000,5156.0,Medium,12/16/2010 0:00,EC210LC,EC210,,,LC,Large / Medium,"Hydraulic Excavator, Track - 21.0 to 24.0 Metric Tons",California,TEX,Track Excavators,,EROPS w AC,,,,,,,,,,,Auxiliary,,,,,,Hydraulic,,,,Steel,None or Unspecified,"9' 5""",None or Unspecified,None or Unspecified,Double,,,,,
5853,1167224,36000,1027235,121,3.0,2002,5664.0,Medium,2/25/2010 0:00,EC210LC,EC210,,,LC,Large / Medium,"Hydraulic Excavator, Track - 21.0 to 24.0 Metric Tons",Florida,TEX,Track Excavators,,EROPS w AC,,,,,,,,,,,Standard,,,,,,None or Unspecified,,,,Steel,32 inch,None or Unspecified,None or Unspecified,None or Unspecified,Double,,,,,
5853,1174203,49000,1049656,121,3.0,2000,4078.0,Medium,3/10/2005 0:00,EC210LC,EC210,,,LC,Large / Medium,"Hydraulic Excavator, Track - 21.0 to 24.0 Metric Tons",Florida,TEX,Track Excavators,,EROPS w AC,,,,,,,,,,,Auxiliary,,,,,,None or Unspecified,,,,Steel,None or Unspecified,None or Unspecified,None or Unspecified,None or Unspecified,Double,,,,,
5853,1174204,58000,1056131,121,3.0,2000,4603.0,Medium,3/10/2005 0:00,EC210LC,EC210,,,LC,Large / Medium,"Hydraulic Excavator, Track - 21.0 to 24.0 Metric Tons",Florida,TEX,Track Excavators,,EROPS w AC,,,,,,,,,,,Standard,,,,,,None or Unspecified,,,,Steel,None or Unspecified,None or Unspecified,None or Unspecified,None or Unspecified,Double,,,,,
5853,1174205,56000,1024486,121,3.0,2000,4289.0,Medium,2/24/2005 0:00,EC210LC,EC210,,,LC,Large / Medium,"Hydraulic Excavator, Track - 21.0 to 24.0 Metric Tons",Florida,TEX,Track Excavators,,EROPS,,,,,,,,,,,Auxiliary,,,,,,None or Unspecified,,,,Steel,32 inch,None or Unspecified,None or Unspecified,None or Unspecified,Double,,,,,
5853,1174206,51000,1066701,121,3.0,2000,5835.0,High,2/10/2005 0:00,EC210LC,EC210,,,LC,Large / Medium,"Hydraulic Excavator, Track - 21.0 to 24.0 Metric Tons",Florida,TEX,Track Excavators,,EROPS w AC,,,,,,,,,,,Auxiliary,,,,,,None or Unspecified,,,,Steel,None or Unspecified,None or Unspecified,None or Unspecified,None or Unspecified,Double,,,,,
5853,1174207,53000,1016959,121,3.0,2000,4992.0,Medium,2/24/2005 0:00,EC210LC,EC210,,,LC,Large / Medium,"Hydraulic Excavator, Track - 21.0 to 24.0 Metric Tons",Florida,TEX,Track Excavators,,EROPS w AC,,,,,,,,,,,Auxiliary,,,,,,None or Unspecified,,,,Steel,None or Unspecified,None or Unspecified,None or Unspecified,None or Unspecified,Double,,,,,
5853,1174208,53000,1041008,121,3.0,2000,3883.0,Medium,2/10/2005 0:00,EC210LC,EC210,,,LC,Large / Medium,"Hydraulic Excavator, Track - 21.0 to 24.0 Metric Tons",Florida,TEX,Track Excavators,,EROPS w AC,,,,,,,,,,,Auxiliary,,,,,,None or Unspecified,,,,Steel,None or Unspecified,None or Unspecified,None or Unspecified,None or Unspecified,Double,,,,,
5853,1174209,50000,1023988,121,3.0,2000,4790.0,Medium,2/24/2005 0:00,EC210LC,EC210,,,LC,Large / Medium,"Hydraulic Excavator, Track - 21.0 to 24.0 Metric Tons",Florida,TEX,Track Excavators,,EROPS w AC,,,,,,,,,,,Standard,,,,,,None or Unspecified,,,,Steel,None or Unspecified,None or Unspecified,None or Unspecified,None or Unspecified,Double,,,,,
5853,1174210,55000,1039913,121,3.0,2000,3655.0,Medium,2/10/2005 0:00,EC210LC,EC210,,,LC,Large / Medium,"Hydraulic Excavator, Track - 21.0 to 24.0 Metric Tons",Florida,TEX,Track Excavators,,EROPS w AC,,,,,,,,,,,Auxiliary,,,,,,None or Unspecified,,,,Steel,None or Unspecified,None or Unspecified,None or Unspecified,None or Unspecified,Double,,,,,
5853,1178968,105000,1009559,121,3.0,2007,319.0,Low,4/17/2008 0:00,EC210LC,EC210,,,LC,Large / Medium,"Hydraulic Excavator, Track - 21.0 to 24.0 Metric Tons",South Carolina,TEX,Track Excavators,,EROPS w AC,,,,,,,,,,,Auxiliary,,,,,,Manual,,,,Steel,None or Unspecified,None or Unspecified,Manual,None or Unspecified,Double,,,,,
5853,1179027,34000,1054086,121,3.0,2001,6302.0,Medium,4/17/2008 0:00,EC210LC,EC210,,,LC,Large / Medium,"Hydraulic Excavator, Track - 21.0 to 24.0 Metric Tons",Kentucky,TEX,Track Excavators,,EROPS w AC,,,,,,,,,,,Standard,,,,,,Manual,,,,Steel,None or Unspecified,None or Unspecified,None or Unspecified,None or Unspecified,Double,,,,,
5853,1186478,31000,1010719,121,3.0,2001,5108.0,Medium,12/18/2008 0:00,EC210LC,EC210,,,LC,Large / Medium,"Hydraulic Excavator, Track - 21.0 to 24.0 Metric Tons",Montana,TEX,Track Excavators,,EROPS w AC,,,,,,,,,,,Auxiliary,,,,,,None or Unspecified,,,,Steel,None or Unspecified,None or Unspecified,Manual,None or Unspecified,Double,,,,,
5853,1187137,26000,1059299,121,3.0,2001,0.0,,1/15/2009 0:00,EC210LC,EC210,,,LC,Large / Medium,"Hydraulic Excavator, Track - 21.0 to 24.0 Metric Tons",Utah,TEX,Track Excavators,,EROPS w AC,,,,,,,,,,,Auxiliary,,,,,,None or Unspecified,,,,Steel,None or Unspecified,None or Unspecified,None or Unspecified,None or Unspecified,Double,,,,,
5853,1218546,24500,1045772,121,3.0,2000,7800.0,Medium,9/29/2011 0:00,EC210LC,EC210,,,LC,Large / Medium,"Hydraulic Excavator, Track - 21.0 to 24.0 Metric Tons",Kentucky,TEX,Track Excavators,,EROPS w AC,,,,,,,,,,,Standard,,,,,,None or Unspecified,,,,Steel,32 inch,None or Unspecified,None or Unspecified,None or Unspecified,Double,,,,,
5853,1222233,35000,1012103,121,3.0,2002,7357.0,Medium,12/15/2011 0:00,EC210LC,EC210,,,LC,Large / Medium,"Hydraulic Excavator, Track - 21.0 to 24.0 Metric Tons",Wisconsin,TEX,Track Excavators,,EROPS w AC,,,,,,,,,,,Standard,,,,,,Hydraulic,,,,Steel,None or Unspecified,"9' 6""",None or Unspecified,None or Unspecified,Double,,,,,
5853,2454377,29000,1644884,136,99.0,2000,0.0,,2/12/2010 0:00,EC210LC,EC210,,,LC,Large / Medium,"Hydraulic Excavator, Track - 21.0 to 24.0 Metric Tons",California,TEX,Track Excavators,,EROPS w AC,,,,,,,,,,,Standard,,,,,,Manual,,,,Steel,None or Unspecified,None or Unspecified,Hydraulic,None or Unspecified,Double,,,,,
5853,2454503,26000,1640474,136,1.0,1000,0.0,,6/23/2010 0:00,EC210LC,EC210,,,LC,Large / Medium,"Hydraulic Excavator, Track - 21.0 to 24.0 Metric Tons",Wyoming,TEX,Track Excavators,,EROPS w AC,,,,,,,,,,,Standard,,,,,,None or Unspecified,,,,Steel,None or Unspecified,None or Unspecified,Hydraulic,None or Unspecified,Double,,,,,
5853,2454504,27500,1744089,136,1.0,1000,0.0,,6/23/2010 0:00,EC210LC,EC210,,,LC,Large / Medium,"Hydraulic Excavator, Track - 21.0 to 24.0 Metric Tons",Wyoming,TEX,Track Excavators,,EROPS w AC,,,,,,,,,,,Auxiliary,,,,,,Manual,,,,Steel,None or Unspecified,None or Unspecified,None or Unspecified,None or Unspecified,Double,,,,,
5853,2454508,25000,1765068,136,1.0,2000,0.0,,10/13/2009 0:00,EC210LC,EC210,,,LC,Large / Medium,"Hydraulic Excavator, Track - 21.0 to 24.0 Metric Tons",California,TEX,Track Excavators,,EROPS w AC,,,,,,,,,,,Auxiliary,,,,,,None or Unspecified,,,,Steel,None or Unspecified,None or Unspecified,None or Unspecified,None or Unspecified,Double,,,,,
5853,2752719,46000,1864259,149,1.0,2005,,,5/11/2011 0:00,EC210LC,EC210,,,LC,Large / Medium,"Hydraulic Excavator, Track - 21.0 to 24.0 Metric Tons",Texas,TEX,Track Excavators,,EROPS w AC,,,,,,,,,,,Standard,,,,,,None or Unspecified,,,,Steel,None or Unspecified,None or Unspecified,None or Unspecified,None or Unspecified,Double,,,,,
5853,4392757,25000,2313603,172,1.0,2000,7397.0,Medium,9/14/2010 0:00,EC210LC,EC210,,,LC,Large / Medium,"Hydraulic Excavator, Track - 21.0 to 24.0 Metric Tons",California,TEX,Track Excavators,,EROPS w AC,,,,,,,,,,,Auxiliary,,,,,,None or Unspecified,,,,Steel,None or Unspecified,None or Unspecified,None or Unspecified,None or Unspecified,Double,,,,,
5853,4392761,30000,2300397,172,1.0,2001,9876.0,High,8/24/2010 0:00,EC210LC,EC210,,,LC,Large / Medium,"Hydraulic Excavator, Track - 21.0 to 24.0 Metric Tons",Maryland,TEX,Track Excavators,,EROPS w AC,,,,,,,,,,,Auxiliary,,,,,,None or Unspecified,,,,Steel,None or Unspecified,None or Unspecified,None or Unspecified,None or Unspecified,Double,,,,,
5853,4395646,60000,2053156,172,1.0,2007,2158.0,Medium,3/24/2010 0:00,EC210LC,EC210,,,LC,Large / Medium,"Hydraulic Excavator, Track - 21.0 to 24.0 Metric Tons",Texas,TEX,Track Excavators,,EROPS w AC,,,,,,,,,,,Auxiliary,,,,,,None or Unspecified,,,,Steel,None or Unspecified,None or Unspecified,None or Unspecified,None or Unspecified,Double,,,,,
5853,4395931,67500,2306773,172,1.0,2008,2191.0,High,5/6/2009 0:00,EC210LC,EC210,,,LC,Large / Medium,"Hydraulic Excavator, Track - 21.0 to 24.0 Metric Tons",Texas,TEX,Track Excavators,,EROPS w AC,,,,,,,,,,,Auxiliary,,,,,,None or Unspecified,,,,Steel,None or Unspecified,None or Unspecified,None or Unspecified,None or Unspecified,Double,,,,,
