ModelID,SalesID,SalePrice,MachineID,datasource,auctioneerID,YearMade,MachineHoursCurrentMeter,UsageBand,saledate,fiModelDesc,fiBaseModel,fiSecondaryDesc,fiModelSeries,fiModelDescriptor,ProductSize,fiProductClassDesc,state,ProductGroup,ProductGroupDesc,Drive_System,Enclosure,Forks,Pad_Type,Ride_Control,Stick,Transmission,Turbocharged,Blade_Extension,Blade_Width,Enclosure_Type,Engine_Horsepower,Hydraulics,Pushblock,Ripper,Scarifier,Tip_Control,Tire_Size,Coupler,Coupler_System,Grouser_Tracks,Hydraulics_Flow,Track_Type,Undercarriage_Pad_Width,Stick_Length,Thumb,Pattern_Changer,Grouser_Type,Backhoe_Mounting,Blade_Type,Travel_Controls,Differential_Type,Steering_Controls
5866,1156244,73000,999135,121,3.0,2003,0.0,,10/21/2010 0:00,L120E,L120,E,,,Medium,Wheel Loader - 200.0 to 225.0 Horsepower,Michigan,WL,Wheel Loader,,EROPS w AC,None or Unspecified,,None or Unspecified,,,,,,,,2 Valve,,,,,23.5,Hydraulic,,,,,,,,,,,,,Standard,Conventional
5866,1163976,69000,1047362,121,3.0,2003,10599.0,Medium,5/12/2011 0:00,L120E,L120,E,,,Medium,Wheel Loader - 200.0 to 225.0 Horsepower,New Mexico,WL,Wheel Loader,,EROPS w AC,None or Unspecified,,None or Unspecified,,,,,,,,2 Valve,,,,,23.5,Hydraulic,,,,,,,,,,,,,Standard,Conventional
5866,1167600,75000,1026602,121,3.0,2002,9241.0,Medium,5/4/2011 0:00,L120E,L120,E,,,Medium,Wheel Loader - 200.0 to 225.0 Horsepower,New Mexico,WL,Wheel Loader,,EROPS,None or Unspecified,,None or Unspecified,,,,,,,,2 Valve,,,,,23.5,Hydraulic,,,,,,,,,,,,,Standard,Conventional
5866,1172164,63000,1058152,121,3.0,2003,10739.0,High,1/28/2010 0:00,L120E,L120,E,,,Medium,Wheel Loader - 200.0 to 225.0 Horsepower,North Carolina,WL,Wheel Loader,,EROPS w AC,None or Unspecified,,None or Unspecified,,,,,,,,2 Valve,,,,,23.5,None or Unspecified,,,,,,,,,,,,,Standard,Conventional
5866,1196409,44000,1039110,121,3.0,2004,9274.0,High,12/17/2009 0:00,L120E,L120,E,,,Medium,Wheel Loader - 200.0 to 225.0 Horsepower,North Carolina,WL,Wheel Loader,,EROPS w AC,None or Unspecified,,None or Unspecified,,,,,,,,2 Valve,,,,,23.5,None or Unspecified,,,,,,,,,,,,,Standard,Conventional
5866,1201657,81000,1069352,121,3.0,2004,9167.0,High,5/27/2010 0:00,L120E,L120,E,,,Medium,Wheel Loader - 200.0 to 225.0 Horsepower,Ohio,WL,Wheel Loader,,EROPS w AC,Yes,,None or Unspecified,,,,,,,,2 Valve,,,,,23.5,Hydraulic,,,,,,,,,,,,,Standard,Conventional
5866,1204852,107000,1045990,121,3.0,2007,4753.0,High,8/12/2010 0:00,L120E,L120,E,,,Medium,Wheel Loader - 200.0 to 225.0 Horsepower,Colorado,WL,Wheel Loader,,EROPS w AC,Yes,,None or Unspecified,,,,,,,,2 Valve,,,,,23.5,Hydraulic,,,,,,,,,,,,,Standard,Conventional
5866,1205618,59000,1040162,121,3.0,2002,11120.0,Medium,8/19/2010 0:00,L120E,L120,E,,,Medium,Wheel Loader - 200.0 to 225.0 Horsepower,Georgia,WL,Wheel Loader,,EROPS w AC,None or Unspecified,,None or Unspecified,,,,,,,,2 Valve,,,,,23.5,None or Unspecified,,,,,,,,,,,,,Standard,Conventional
5866,1206152,88000,1037822,121,3.0,2006,6655.0,High,8/26/2010 0:00,L120E,L120,E,,,Medium,Wheel Loader - 200.0 to 225.0 Horsepower,Colorado,WL,Wheel Loader,,EROPS w AC,None or Unspecified,,None or Unspecified,,,,,,,,2 Valve,,,,,23.5,Hydraulic,,,,,,,,,,,,,Standard,Conventional
5866,1206153,103000,1007780,121,3.0,2006,5223.0,Medium,8/26/2010 0:00,L120E,L120,E,,,Medium,Wheel Loader - 200.0 to 225.0 Horsepower,Colorado,WL,Wheel Loader,,EROPS w AC,None or Unspecified,,None or Unspecified,,,,,,,,2 Valve,,,,,23.5,Hydraulic,,,,,,,,,,,,,Standard,Conventional
5866,1206154,95000,1038686,121,3.0,2006,6011.0,High,8/26/2010 0:00,L120E,L120,E,,,Medium,Wheel Loader - 200.0 to 225.0 Horsepower,Colorado,WL,Wheel Loader,,EROPS w AC,None or Unspecified,,None or Unspecified,,,,,,,,2 Valve,,,,,23.5,Hydraulic,,,,,,,,,,,,,Standard,Conventional
5866,2449903,72500,1646313,136,1.0,2004,0.0,,6/30/2008 0:00,L120E,L120,E,,,Medium,Wheel Loader - 200.0 to 225.0 Horsepower,New Mexico,WL,Wheel Loader,,EROPS w AC,None or Unspecified,,Yes,,,,,,,,2 Valve,,,,,23.5,None or Unspecified,,,,,,,,,,,,,Standard,Conventional
5866,2452260,54000,1774477,136,1.0,2003,0.0,,9/24/2008 0:00,L120E,L120,E,,,Medium,Wheel Loader - 200.0 to 225.0 Horsepower,Texas,WL,Wheel Loader,,OROPS,None or Unspecified,,None or Unspecified,,,,,,,,2 Valve,,,,,None or Unspecified,None or Unspecified,,,,,,,,,,,,,Standard,Conventional
5866,2452263,72500,1657025,136,1.0,2004,0.0,,5/13/2010 0:00,L120E,L120,E,,,Medium,Wheel Loader - 200.0 to 225.0 Horsepower,Illinois,WL,Wheel Loader,,OROPS,None or Unspecified,,None or Unspecified,,,,,,,,2 Valve,,,,,None or Unspecified,None or Unspecified,,,,,,,,,,,,,Standard,Conventional
5866,2455098,67500,1672289,136,1.0,2002,0.0,,9/17/2008 0:00,L120E,L120,E,,,Medium,Wheel Loader - 200.0 to 225.0 Horsepower,Illinois,WL,Wheel Loader,,EROPS,None or Unspecified,,None or Unspecified,,,,,,,,2 Valve,,,,,23.5,Manual,,,,,,,,,,,,,Standard,Conventional
5866,2455099,85000,1699183,136,,2003,0.0,,6/6/2007 0:00,L120E,L120,E,,,Medium,Wheel Loader - 200.0 to 225.0 Horsepower,Illinois,WL,Wheel Loader,,EROPS,None or Unspecified,,None or Unspecified,,,,,,,,2 Valve,,,,,23.5,None or Unspecified,,,,,,,,,,,,,Standard,Conventional
5866,2455100,75000,1756723,136,1.0,2002,0.0,,6/26/2008 0:00,L120E,L120,E,,,Medium,Wheel Loader - 200.0 to 225.0 Horsepower,Colorado,WL,Wheel Loader,,EROPS,None or Unspecified,,Yes,,,,,,,,2 Valve,,,,,23.5,None or Unspecified,,,,,,,,,,,,,Standard,Conventional
5866,2455120,57000,1684171,136,1.0,2002,0.0,,2/5/2010 0:00,L120E,L120,E,,,Medium,Wheel Loader - 200.0 to 225.0 Horsepower,Nevada,WL,Wheel Loader,,EROPS w AC,None or Unspecified,,Yes,,,,,,,,2 Valve,,,,,23.5,None or Unspecified,,,,,,,,,,,,,Standard,Conventional
5866,2455121,67500,1719159,136,1.0,2002,0.0,,9/17/2008 0:00,L120E,L120,E,,,Medium,Wheel Loader - 200.0 to 225.0 Horsepower,Illinois,WL,Wheel Loader,,EROPS,None or Unspecified,,None or Unspecified,,,,,,,,2 Valve,,,,,23.5,Manual,,,,,,,,,,,,,Standard,Conventional
5866,2455123,67500,1774737,136,1.0,2002,0.0,,11/18/2008 0:00,L120E,L120,E,,,Medium,Wheel Loader - 200.0 to 225.0 Horsepower,California,WL,Wheel Loader,,OROPS,None or Unspecified,,None or Unspecified,,,,,,,,2 Valve,,,,,None or Unspecified,None or Unspecified,,,,,,,,,,,,,Standard,Conventional
5866,2455125,56000,1643588,136,1.0,2003,0.0,,6/30/2008 0:00,L120E,L120,E,,,Medium,Wheel Loader - 200.0 to 225.0 Horsepower,New Mexico,WL,Wheel Loader,,EROPS w AC,None or Unspecified,,Yes,,,,,,,,2 Valve,,,,,23.5,None or Unspecified,,,,,,,,,,,,,Standard,Conventional
5866,2455126,87500,1688823,136,1.0,2003,8742.0,High,3/11/2008 0:00,L120E,L120,E,,,Medium,Wheel Loader - 200.0 to 225.0 Horsepower,Colorado,WL,Wheel Loader,,EROPS,None or Unspecified,,Yes,,,,,,,,2 Valve,,,,,23.5,None or Unspecified,,,,,,,,,,,,,Standard,Conventional
5866,2455127,90000,1717664,136,1.0,2003,13230.0,High,2/19/2008 0:00,L120E,L120,E,,,Medium,Wheel Loader - 200.0 to 225.0 Horsepower,Florida,WL,Wheel Loader,,EROPS w AC,Yes,,Yes,,,,,,,,2 Valve,,,,,23.5,None or Unspecified,,,,,,,,,,,,,Standard,Conventional
5866,2455128,67000,1709083,136,2.0,2004,0.0,,1/16/2010 0:00,L120E,L120,E,,,Medium,Wheel Loader - 200.0 to 225.0 Horsepower,Illinois,WL,Wheel Loader,,EROPS w AC,None or Unspecified,,None or Unspecified,,,,,,,,2 Valve,,,,,23.5,Manual,,,,,,,,,,,,,Standard,Conventional
5866,2455130,77500,1695328,136,1.0,2004,0.0,,4/11/2007 0:00,L120E,L120,E,,,Medium,Wheel Loader - 200.0 to 225.0 Horsepower,Ohio,WL,Wheel Loader,,EROPS,None or Unspecified,,Yes,,,,,,,,2 Valve,,,,,None or Unspecified,None or Unspecified,,,,,,,,,,,,,Standard,Conventional
5866,2455133,85000,1679118,136,1.0,2004,5387.0,Medium,6/26/2008 0:00,L120E,L120,E,,,Medium,Wheel Loader - 200.0 to 225.0 Horsepower,Georgia,WL,Wheel Loader,,EROPS w AC,None or Unspecified,,None or Unspecified,,,,,,,,2 Valve,,,,,23.5,None or Unspecified,,,,,,,,,,,,,Standard,Conventional
5866,2455134,54000,1674942,136,1.0,2004,0.0,,6/26/2009 0:00,L120E,L120,E,,,Medium,Wheel Loader - 200.0 to 225.0 Horsepower,New Mexico,WL,Wheel Loader,,EROPS w AC,None or Unspecified,,Yes,,,,,,,,2 Valve,,,,,23.5,Manual,,,,,,,,,,,,,Standard,Conventional
5866,2455136,92500,1685972,136,1.0,2004,7262.0,High,3/11/2008 0:00,L120E,L120,E,,,Medium,Wheel Loader - 200.0 to 225.0 Horsepower,Colorado,WL,Wheel Loader,,EROPS,None or Unspecified,,None or Unspecified,,,,,,,,2 Valve,,,,,23.5,None or Unspecified,,,,,,,,,,,,,Standard,Conventional
5866,2455137,105000,1694313,136,1.0,2004,5163.0,Medium,11/18/2008 0:00,L120E,L120,E,,,Medium,Wheel Loader - 200.0 to 225.0 Horsepower,California,WL,Wheel Loader,,EROPS w AC,None or Unspecified,,Yes,,,,,,,,2 Valve,,,,,23.5,Manual,,,,,,,,,,,,,Standard,Conventional
5866,2455141,90000,1728788,136,1.0,2005,0.0,,9/24/2008 0:00,L120E,L120,E,,,Medium,Wheel Loader - 200.0 to 225.0 Horsepower,Texas,WL,Wheel Loader,,EROPS w AC,Yes,,None or Unspecified,,,,,,,,2 Valve,,,,,23.5,None or Unspecified,,,,,,,,,,,,,Standard,Conventional
5866,2455146,87500,1726329,136,1.0,2006,0.0,,2/15/2010 0:00,L120E,L120,E,,,Medium,Wheel Loader - 200.0 to 225.0 Horsepower,Florida,WL,Wheel Loader,,EROPS w AC,Yes,,None or Unspecified,,,,,,,,2 Valve,,,,,23.5,Manual,,,,,,,,,,,,,Standard,Conventional
5866,2455193,67500,1657252,136,1.0,2002,0.0,,9/17/2008 0:00,L120E,L120,E,,,Medium,Wheel Loader - 200.0 to 225.0 Horsepower,Illinois,WL,Wheel Loader,,EROPS,None or Unspecified,,None or Unspecified,,,,,,,,2 Valve,,,,,23.5,Manual,,,,,,,,,,,,,Standard,Conventional
5866,2455194,71000,1664389,136,,2003,13516.0,High,6/26/2007 0:00,L120E,L120,E,,,Medium,Wheel Loader - 200.0 to 225.0 Horsepower,New Mexico,WL,Wheel Loader,,EROPS w AC,None or Unspecified,,Yes,,,,,,,,2 Valve,,,,,23.5,None or Unspecified,,,,,,,,,,,,,Standard,Conventional
5866,2455195,80000,1744002,136,1.0,2004,0.0,,5/24/2007 0:00,L120E,L120,E,,,Medium,Wheel Loader - 200.0 to 225.0 Horsepower,Florida,WL,Wheel Loader,,EROPS w AC,None or Unspecified,,None or Unspecified,,,,,,,,2 Valve,,,,,23.5,Manual,,,,,,,,,,,,,Standard,Conventional
5866,2750144,72500,1869303,149,1.0,2002,10001.0,Medium,2/24/2011 0:00,L120E,L120,E,,,Medium,Wheel Loader - 200.0 to 225.0 Horsepower,Arizona,WL,Wheel Loader,,EROPS w AC,None or Unspecified,,None or Unspecified,,,,,,,,2 Valve,,,,,23.5,None or Unspecified,,,,,,,,,,,,,Standard,Conventional
5866,2750156,65000,78044,149,2.0,2004,,,3/31/2011 0:00,L120E,L120,E,,,Medium,Wheel Loader - 200.0 to 225.0 Horsepower,New Jersey,WL,Wheel Loader,,EROPS w AC,None or Unspecified,,None or Unspecified,,,,,,,,3 Valve,,,,,None or Unspecified,Manual,,,,,,,,,,,,,Standard,Conventional
5866,2753401,70000,1804586,149,1.0,2002,8726.0,Medium,12/7/2010 0:00,L120E,L120,E,,,Medium,Wheel Loader - 200.0 to 225.0 Horsepower,California,WL,Wheel Loader,,EROPS w AC,None or Unspecified,,None or Unspecified,,,,,,,,2 Valve,,,,,None or Unspecified,Hydraulic,,,,,,,,,,,,,Standard,Conventional
5866,2753403,61000,1795667,149,2.0,2004,,,9/28/2010 0:00,L120E,L120,E,,,Medium,Wheel Loader - 200.0 to 225.0 Horsepower,Texas,WL,Wheel Loader,,EROPS w AC,None or Unspecified,,None or Unspecified,,,,,,,,2 Valve,,,,,None or Unspecified,None or Unspecified,,,,,,,,,,,,,Standard,Conventional
5866,2753406,62500,1643588,149,1.0,2003,7392.0,Medium,3/18/2011 0:00,L120E,L120,E,,,Medium,Wheel Loader - 200.0 to 225.0 Horsepower,New Mexico,WL,Wheel Loader,,EROPS w AC,None or Unspecified,,Yes,,,,,,,,2 Valve,,,,,23.5,None or Unspecified,,,,,,,,,,,,,Standard,Conventional
5866,2753408,55000,1880382,149,1.0,2003,12795.0,High,5/11/2011 0:00,L120E,L120,E,,,Medium,Wheel Loader - 200.0 to 225.0 Horsepower,Texas,WL,Wheel Loader,,EROPS,None or Unspecified,,Yes,,,,,,,,2 Valve,,,,,None or Unspecified,None or Unspecified,,,,,,,,,,,,,Standard,Conventional
5866,2753412,67000,1791235,149,1.0,2004,10641.0,High,9/29/2010 0:00,L120E,L120,E,,,Medium,Wheel Loader - 200.0 to 225.0 Horsepower,Texas,WL,Wheel Loader,,OROPS,Yes,,None or Unspecified,,,,,,,,2 Valve,,,,,23.5,None or Unspecified,,,,,,,,,,,,,Standard,Conventional
5866,2753413,67500,1943624,149,1.0,2004,10295.0,High,11/18/2010 0:00,L120E,L120,E,,,Medium,Wheel Loader - 200.0 to 225.0 Horsepower,Arizona,WL,Wheel Loader,,EROPS w AC,Yes,,None or Unspecified,,,,,,,,2 Valve,,,,,23.5,None or Unspecified,,,,,,,,,,,,,Standard,Conventional
5866,2753414,70000,1842439,149,1.0,2004,,,5/26/2011 0:00,L120E,L120,E,,,Medium,Wheel Loader - 200.0 to 225.0 Horsepower,Illinois,WL,Wheel Loader,,EROPS,None or Unspecified,,None or Unspecified,,,,,,,,2 Valve,,,,,23.5,None or Unspecified,,,,,,,,,,,,,Standard,Conventional
5866,2753415,58000,1924589,149,1.0,2004,12546.0,High,9/23/2010 0:00,L120E,L120,E,,,Medium,Wheel Loader - 200.0 to 225.0 Horsepower,Illinois,WL,Wheel Loader,,EROPS,None or Unspecified,,None or Unspecified,,,,,,,,2 Valve,,,,,23.5,Manual,,,,,,,,,,,,,Standard,Conventional
5866,2753419,65000,1889737,149,1.0,2004,,,9/2/2010 0:00,L120E,L120,E,,,Medium,Wheel Loader - 200.0 to 225.0 Horsepower,Arizona,WL,Wheel Loader,,EROPS w AC,None or Unspecified,,Yes,,,,,,,,2 Valve,,,,,23.5,None or Unspecified,,,,,,,,,,,,,Standard,Conventional
5866,2753421,91000,1845049,149,1.0,2004,5602.0,Medium,12/7/2010 0:00,L120E,L120,E,,,Medium,Wheel Loader - 200.0 to 225.0 Horsepower,California,WL,Wheel Loader,,EROPS w AC,None or Unspecified,,None or Unspecified,,,,,,,,2 Valve,,,,,23.5,Hydraulic,,,,,,,,,,,,,Standard,Conventional
5866,2753424,90000,1799689,149,1.0,2005,5157.0,Medium,12/7/2010 0:00,L120E,L120,E,,,Medium,Wheel Loader - 200.0 to 225.0 Horsepower,California,WL,Wheel Loader,,EROPS w AC,None or Unspecified,,None or Unspecified,,,,,,,,2 Valve,,,,,23.5,Hydraulic,,,,,,,,,,,,,Standard,Conventional
5866,2753426,72500,1852048,149,1.0,2005,13107.0,High,9/23/2010 0:00,L120E,L120,E,,,Medium,Wheel Loader - 200.0 to 225.0 Horsepower,Illinois,WL,Wheel Loader,,EROPS,None or Unspecified,,None or Unspecified,,,,,,,,2 Valve,,,,,23.5,Manual,,,,,,,,,,,,,Standard,Conventional
5866,2753428,95000,1870320,149,1.0,2006,10352.0,High,5/26/2011 0:00,L120E,L120,E,,,Medium,Wheel Loader - 200.0 to 225.0 Horsepower,Illinois,WL,Wheel Loader,,EROPS,None or Unspecified,,None or Unspecified,,,,,,,,2 Valve,,,,,23.5,None or Unspecified,,,,,,,,,,,,,Standard,Conventional
5866,2753429,72500,1846529,149,1.0,2006,13798.0,High,9/23/2010 0:00,L120E,L120,E,,,Medium,Wheel Loader - 200.0 to 225.0 Horsepower,Illinois,WL,Wheel Loader,,EROPS,None or Unspecified,,None or Unspecified,,,,,,,,2 Valve,,,,,23.5,Manual,,,,,,,,,,,,,Standard,Conventional
5866,2753431,69000,1797361,149,1.0,2006,13257.0,High,5/26/2011 0:00,L120E,L120,E,,,Medium,Wheel Loader - 200.0 to 225.0 Horsepower,Illinois,WL,Wheel Loader,,EROPS w AC,None or Unspecified,,None or Unspecified,,,,,,,,2 Valve,,,,,23.5,None or Unspecified,,,,,,,,,,,,,Standard,Conventional
5866,2753434,70000,1888566,149,1.0,2006,7000.0,Medium,2/15/2011 0:00,L120E,L120,E,,,Medium,Wheel Loader - 200.0 to 225.0 Horsepower,Florida,WL,Wheel Loader,,EROPS w AC,None or Unspecified,,None or Unspecified,,,,,,,,2 Valve,,,,,23.5,None or Unspecified,,,,,,,,,,,,,Standard,Conventional
5866,2754623,58500,1799250,149,2.0,2003,,,5/10/2011 0:00,L120E,L120,E,,,Medium,Wheel Loader - 200.0 to 225.0 Horsepower,Texas,WL,Wheel Loader,,OROPS,None or Unspecified,,None or Unspecified,,,,,,,,2 Valve,,,,,None or Unspecified,None or Unspecified,,,,,,,,,,,,,Standard,Conventional
5866,4393869,72500,2299564,172,1.0,2005,9737.0,High,8/2/2011 0:00,L120E,L120,E,,,Medium,Wheel Loader - 200.0 to 225.0 Horsepower,Illinois,WL,Wheel Loader,,EROPS w AC,None or Unspecified,,Yes,,,,,,,,2 Valve,,,,,23.5,None or Unspecified,,,,,,,,,,,,,Standard,Conventional
5866,4393873,72500,2299564,172,1.0,2005,9737.0,High,8/1/2011 0:00,L120E,L120,E,,,Medium,Wheel Loader - 200.0 to 225.0 Horsepower,Illinois,WL,Wheel Loader,,EROPS w AC,None or Unspecified,,Yes,,,,,,,,2 Valve,,,,,23.5,None or Unspecified,,,,,,,,,,,,,Standard,Conventional
5866,4393883,72500,2266861,172,1.0,2002,10001.0,Medium,2/24/2011 0:00,L120E,L120,E,,,Medium,Wheel Loader - 200.0 to 225.0 Horsepower,Arizona,WL,Wheel Loader,,EROPS w AC,None or Unspecified,,None or Unspecified,,,,,,,,2 Valve,,,,,23.5,None or Unspecified,,,,,,,,,,,,,Standard,Conventional
5866,4393885,67500,2286493,172,1.0,2002,,,5/13/2009 0:00,L120E,L120,E,,,Medium,Wheel Loader - 200.0 to 225.0 Horsepower,Illinois,WL,Wheel Loader,,EROPS,None or Unspecified,,None or Unspecified,,,,,,,,2 Valve,,,,,23.5,None or Unspecified,,,,,,,,,,,,,Standard,Conventional
5866,4393888,70000,2267583,172,1.0,2002,8726.0,Medium,12/7/2010 0:00,L120E,L120,E,,,Medium,Wheel Loader - 200.0 to 225.0 Horsepower,California,WL,Wheel Loader,,EROPS w AC,None or Unspecified,,None or Unspecified,,,,,,,,2 Valve,,,,,23.5,None or Unspecified,,,,,,,,,,,,,Standard,Conventional
5866,4393890,57500,2298341,172,1.0,2003,8934.0,Medium,7/9/2009 0:00,L120E,L120,E,,,Medium,Wheel Loader - 200.0 to 225.0 Horsepower,Texas,WL,Wheel Loader,,EROPS w AC,Yes,,None or Unspecified,,,,,,,,2 Valve,,,,,23.5,None or Unspecified,,,,,,,,,,,,,Standard,Conventional
5866,4393894,72500,2273461,172,1.0,2004,9300.0,High,5/13/2010 0:00,L120E,L120,E,,,Medium,Wheel Loader - 200.0 to 225.0 Horsepower,Illinois,WL,Wheel Loader,,EROPS,None or Unspecified,,None or Unspecified,,,,,,,,2 Valve,,,,,23.5,None or Unspecified,,,,,,,,,,,,,Standard,Conventional
5866,4393901,67500,2279539,172,1.0,2005,9573.0,High,9/22/2010 0:00,L120E,L120,E,,,Medium,Wheel Loader - 200.0 to 225.0 Horsepower,Georgia,WL,Wheel Loader,,EROPS w AC,None or Unspecified,,None or Unspecified,,,,,,,,2 Valve,,,,,23.5,None or Unspecified,,,,,,,,,,,,,Standard,Conventional
5866,4393917,67000,2303769,172,1.0,2002,13069.0,High,12/5/2011 0:00,L120E,L120,E,,,Medium,Wheel Loader - 200.0 to 225.0 Horsepower,Ohio,WL,Wheel Loader,,EROPS w AC,Yes,,Yes,,,,,,,,2 Valve,,,,,23.5,None or Unspecified,,,,,,,,,,,,,Standard,Conventional
5866,4393921,65000,2303769,172,1.0,2004,12810.0,High,10/3/2011 0:00,L120E,L120,E,,,Medium,Wheel Loader - 200.0 to 225.0 Horsepower,Texas,WL,Wheel Loader,,EROPS w AC,Yes,,Yes,,,,,,,,2 Valve,,,,,23.5,None or Unspecified,,,,,,,,,,,,,Standard,Conventional
5866,4393922,80000,2303769,172,1.0,2005,12059.0,High,12/13/2011 0:00,L120E,L120,E,,,Medium,Wheel Loader - 200.0 to 225.0 Horsepower,Illinois,WL,Wheel Loader,,EROPS w AC,Yes,,Yes,,,,,,,,2 Valve,,,,,23.5,None or Unspecified,,,,,,,,,,,,,Standard,Conventional
5866,4393923,100000,2303769,172,1.0,2006,10410.0,Medium,10/27/2011 0:00,L120E,L120,E,,,Medium,Wheel Loader - 200.0 to 225.0 Horsepower,Florida,WL,Wheel Loader,,EROPS w AC,Yes,,Yes,,,,,,,,2 Valve,,,,,23.5,None or Unspecified,,,,,,,,,,,,,Standard,Conventional
5866,4393933,87500,2303769,172,1.0,2005,6187.0,Medium,9/22/2011 0:00,L120E,L120,E,,,Medium,Wheel Loader - 200.0 to 225.0 Horsepower,California,WL,Wheel Loader,,EROPS w AC,Yes,,Yes,,,,,,,,2 Valve,,,,,23.5,None or Unspecified,,,,,,,,,,,,,Standard,Conventional
5866,6318569,14000,1876896,149,1.0,2005,,,8/2/2011 0:00,L120E,L120,E,,,Medium,Wheel Loader - 200.0 to 225.0 Horsepower,Illinois,WL,Wheel Loader,,OROPS,None or Unspecified,,None or Unspecified,,,,,,,,2 Valve,,,,,None or Unspecified,None or Unspecified,,,,,,,,,,,,,Standard,Conventional
5866,6320012,67000,1794012,149,1.0,2002,,,12/6/2011 0:00,L120E,L120,E,,,Medium,Wheel Loader - 200.0 to 225.0 Horsepower,Ohio,WL,Wheel Loader,,EROPS w AC,Yes,,Yes,,,,,,,,2 Valve,,,,,23.5,None or Unspecified,,,,,,,,,,,,,Standard,Conventional
5866,6320017,65000,1933003,149,1.0,2004,,,10/4/2011 0:00,L120E,L120,E,,,Medium,Wheel Loader - 200.0 to 225.0 Horsepower,Texas,WL,Wheel Loader,,OROPS,None or Unspecified,,None or Unspecified,,,,,,,,2 Valve,,,,,None or Unspecified,None or Unspecified,,,,,,,,,,,,,Standard,Conventional
5866,6320018,77500,1847650,149,1.0,2004,,,12/14/2011 0:00,L120E,L120,E,,,Medium,Wheel Loader - 200.0 to 225.0 Horsepower,Illinois,WL,Wheel Loader,,EROPS w AC,None or Unspecified,,None or Unspecified,,,,,,,,2 Valve,,,,,23.5,None or Unspecified,,,,,,,,,,,,,Standard,Conventional
5866,6320022,87500,1899948,149,1.0,2005,,,9/23/2011 0:00,L120E,L120,E,,,Medium,Wheel Loader - 200.0 to 225.0 Horsepower,California,WL,Wheel Loader,,EROPS w AC,None or Unspecified,,Yes,,,,,,,,2 Valve,,,,,None or Unspecified,Hydraulic,,,,,,,,,,,,,Standard,Conventional
5866,6320023,80000,1894875,149,1.0,2005,,,12/14/2011 0:00,L120E,L120,E,,,Medium,Wheel Loader - 200.0 to 225.0 Horsepower,Illinois,WL,Wheel Loader,,OROPS,None or Unspecified,,None or Unspecified,,,,,,,,2 Valve,,,,,None or Unspecified,None or Unspecified,,,,,,,,,,,,,Standard,Conventional
5866,6320025,100000,1855359,149,1.0,2006,,,10/28/2011 0:00,L120E,L120,E,,,Medium,Wheel Loader - 200.0 to 225.0 Horsepower,Florida,WL,Wheel Loader,,EROPS w AC,None or Unspecified,,None or Unspecified,,,,,,,,2 Valve,,,,,None or Unspecified,None or Unspecified,,,,,,,,,,,,,Standard,Conventional
5866,6320032,100000,1904798,149,1.0,2005,,,10/28/2011 0:00,L120E,L120,E,,,Medium,Wheel Loader - 200.0 to 225.0 Horsepower,Florida,WL,Wheel Loader,,EROPS w AC,None or Unspecified,,None or Unspecified,,,,,,,,2 Valve,,,,,None or Unspecified,None or Unspecified,,,,,,,,,,,,,Standard,Conventional
