ModelID,SalesID,SalePrice,MachineID,datasource,auctioneerID,YearMade,MachineHoursCurrentMeter,UsageBand,saledate,fiModelDesc,fiBaseModel,fiSecondaryDesc,fiModelSeries,fiModelDescriptor,ProductSize,fiProductClassDesc,state,ProductGroup,ProductGroupDesc,Drive_System,Enclosure,Forks,Pad_Type,Ride_Control,Stick,Transmission,Turbocharged,Blade_Extension,Blade_Width,Enclosure_Type,Engine_Horsepower,Hydraulics,Pushblock,Ripper,Scarifier,Tip_Control,Tire_Size,Coupler,Coupler_System,Grouser_Tracks,Hydraulics_Flow,Track_Type,Undercarriage_Pad_Width,Stick_Length,Thumb,Pattern_Changer,Grouser_Type,Backhoe_Mounting,Blade_Type,Travel_Controls,Differential_Type,Steering_Controls
5869,1139833,62000,1003469,121,3.0,2000,0.0,,6/11/2009 0:00,L150D,L150,D,,,Medium,Wheel Loader - 225.0 to 250.0 Horsepower,Louisiana,WL,Wheel Loader,,EROPS w AC,None or Unspecified,,None or Unspecified,,,,,,,,2 Valve,,,,,26.5,None or Unspecified,,,,,,,,,,,,,Standard,Conventional
5869,1160219,42000,1005556,121,3.0,2001,12486.0,High,11/15/2007 0:00,L150D,L150,D,,,Medium,Wheel Loader - 225.0 to 250.0 Horsepower,Alabama,WL,Wheel Loader,,EROPS,None or Unspecified,,None or Unspecified,,,,,,,,2 Valve,,,,,26.5,None or Unspecified,,,,,,,,,,,,,Standard,Conventional
5869,1180291,73000,1040548,121,3.0,2000,5078.0,Medium,6/26/2008 0:00,L150D,L150,D,,,Medium,Wheel Loader - 225.0 to 250.0 Horsepower,Florida,WL,Wheel Loader,,EROPS w AC,None or Unspecified,,None or Unspecified,,,,,,,,2 Valve,,,,,26.5,None or Unspecified,,,,,,,,,,,,,Standard,Conventional
5869,1186044,77000,1065761,121,3.0,2001,8628.0,Medium,12/18/2008 0:00,L150D,L150,D,,,Medium,Wheel Loader - 225.0 to 250.0 Horsepower,Wisconsin,WL,Wheel Loader,,EROPS w AC,Yes,,None or Unspecified,,,,,,,,2 Valve,,,,,26.5,Hydraulic,,,,,,,,,,,,,Standard,Conventional
5869,1189578,64000,1016075,121,3.0,2000,7430.0,Medium,4/30/2009 0:00,L150D,L150,D,,,Medium,Wheel Loader - 225.0 to 250.0 Horsepower,Ohio,WL,Wheel Loader,,EROPS w AC,Yes,,None or Unspecified,,,,,,,,2 Valve,,,,,26.5,Manual,,,,,,,,,,,,,Standard,Conventional
5869,2455247,49000,1704113,136,1.0,2000,0.0,,3/21/2007 0:00,L150D,L150,D,,,Medium,Wheel Loader - 225.0 to 250.0 Horsepower,Washington,WL,Wheel Loader,,EROPS,None or Unspecified,,None or Unspecified,,,,,,,,3 Valve,,,,,26.5,None or Unspecified,,,,,,,,,,,,,Standard,Conventional
5869,2455248,55000,1729481,136,1.0,1000,0.0,,3/19/2010 0:00,L150D,L150,D,,,Medium,Wheel Loader - 225.0 to 250.0 Horsepower,Minnesota,WL,Wheel Loader,,EROPS,None or Unspecified,,None or Unspecified,,,,,,,,2 Valve,,,,,26.5,None or Unspecified,,,,,,,,,,,,,Standard,Conventional
5869,2455251,80000,1645416,136,1.0,2001,0.0,,4/11/2007 0:00,L150D,L150,D,,,Medium,Wheel Loader - 225.0 to 250.0 Horsepower,Ohio,WL,Wheel Loader,,EROPS w AC,None or Unspecified,,Yes,,,,,,,,2 Valve,,,,,26.5,None or Unspecified,,,,,,,,,,,,,Standard,Conventional
5869,2455252,60000,1786032,136,1.0,2001,0.0,,6/30/2008 0:00,L150D,L150,D,,,Medium,Wheel Loader - 225.0 to 250.0 Horsepower,New Mexico,WL,Wheel Loader,,EROPS w AC,None or Unspecified,,None or Unspecified,,,,,,,,2 Valve,,,,,26.5,None or Unspecified,,,,,,,,,,,,,Standard,Conventional
5869,2455254,34000,1679148,136,1.0,2001,0.0,,3/4/2009 0:00,L150D,L150,D,,,Medium,Wheel Loader - 225.0 to 250.0 Horsepower,Texas,WL,Wheel Loader,,EROPS w AC,None or Unspecified,,None or Unspecified,,,,,,,,2 Valve,,,,,26.5,None or Unspecified,,,,,,,,,,,,,Standard,Conventional
5869,2455255,92500,1753003,136,1.0,1999,0.0,,9/19/2007 0:00,L150D,L150,D,,,Medium,Wheel Loader - 225.0 to 250.0 Horsepower,Illinois,WL,Wheel Loader,,EROPS,None or Unspecified,,Yes,,,,,,,,2 Valve,,,,,26.5,None or Unspecified,,,,,,,,,,,,,Standard,Conventional
5869,2455257,92500,1643274,136,1.0,2001,0.0,,6/14/2007 0:00,L150D,L150,D,,,Medium,Wheel Loader - 225.0 to 250.0 Horsepower,Colorado,WL,Wheel Loader,,EROPS,None or Unspecified,,None or Unspecified,,,,,,,,2 Valve,,,,,26.5,None or Unspecified,,,,,,,,,,,,,Standard,Conventional
5869,2455258,55000,1777635,136,1.0,2001,0.0,,11/7/2008 0:00,L150D,L150,D,,,Medium,Wheel Loader - 225.0 to 250.0 Horsepower,Nevada,WL,Wheel Loader,,EROPS w AC,Yes,,Yes,,,,,,,,2 Valve,,,,,26.5,Manual,,,,,,,,,,,,,Standard,Conventional
5869,2455259,90000,1780281,136,1.0,2001,0.0,,5/28/2008 0:00,L150D,L150,D,,,Medium,Wheel Loader - 225.0 to 250.0 Horsepower,Florida,WL,Wheel Loader,,EROPS w AC,None or Unspecified,,None or Unspecified,,,,,,,,2 Valve,,,,,26.5,None or Unspecified,,,,,,,,,,,,,Standard,Conventional
5869,2753527,40000,1845604,149,1.0,2000,,,6/8/2010 0:00,L150D,L150,D,,,Medium,Wheel Loader - 225.0 to 250.0 Horsepower,California,WL,Wheel Loader,,EROPS,None or Unspecified,,None or Unspecified,,,,,,,,2 Valve,,,,,26.5,None or Unspecified,,,,,,,,,,,,,Standard,Conventional
5869,2753532,85000,1812927,149,1.0,2001,5470.0,Medium,3/16/2011 0:00,L150D,L150,D,,,Medium,Wheel Loader - 225.0 to 250.0 Horsepower,Illinois,WL,Wheel Loader,,EROPS w AC,None or Unspecified,,Yes,,,,,,,,2 Valve,,,,,26.5,None or Unspecified,,,,,,,,,,,,,Standard,Conventional
5869,4394015,72500,1836363,172,1.0,2001,11129.0,Medium,11/17/2011 0:00,L150D,L150,D,,,Medium,Wheel Loader - 225.0 to 250.0 Horsepower,Nevada,WL,Wheel Loader,,EROPS w AC,None or Unspecified,,Yes,,,,,,,,2 Valve,,,,,26.5,None or Unspecified,,,,,,,,,,,,,Standard,Conventional
5869,6320069,72000,1836363,149,1.0,2001,,,11/18/2011 0:00,L150D,L150,D,,,Medium,Wheel Loader - 225.0 to 250.0 Horsepower,Nevada,WL,Wheel Loader,,EROPS w AC,None or Unspecified,,Yes,,,,,,,,2 Valve,,,,,26.5,None or Unspecified,,,,,,,,,,,,,Standard,Conventional
