ModelID,SalesID,SalePrice,MachineID,datasource,auctioneerID,YearMade,MachineHoursCurrentMeter,UsageBand,saledate,fiModelDesc,fiBaseModel,fiSecondaryDesc,fiModelSeries,fiModelDescriptor,ProductSize,fiProductClassDesc,state,ProductGroup,ProductGroupDesc,Drive_System,Enclosure,Forks,Pad_Type,Ride_Control,Stick,Transmission,Turbocharged,Blade_Extension,Blade_Width,Enclosure_Type,Engine_Horsepower,Hydraulics,Pushblock,Ripper,Scarifier,Tip_Control,Tire_Size,Coupler,Coupler_System,Grouser_Tracks,Hydraulics_Flow,Track_Type,Undercarriage_Pad_Width,Stick_Length,Thumb,Pattern_Changer,Grouser_Type,Backhoe_Mounting,Blade_Type,Travel_Controls,Differential_Type,Steering_Controls
5878,1170309,17500,1023693,121,3.0,1999,0.0,,12/15/2005 0:00,L30Z,L30,Z,,,Compact,Wheel Loader - 60.0 to 80.0 Horsepower,Indiana,WL,Wheel Loader,,EROPS,None or Unspecified,,None or Unspecified,,,,,,,,2 Valve,,,,,None or Unspecified,None or Unspecified,,,,,,,,,,,,,Standard,Conventional
5878,1209159,16000,1002668,121,3.0,1998,,,3/10/2011 0:00,L30Z,L30,Z,,,Compact,Wheel Loader - 60.0 to 80.0 Horsepower,South Dakota,WL,Wheel Loader,,EROPS,Yes,,None or Unspecified,,,,,,,,2 Valve,,,,,None or Unspecified,Hydraulic,,,,,,,,,,,,,Standard,Conventional
5878,2452547,16000,1778684,136,,2000,0.0,,4/26/2007 0:00,L30Z,L30,Z,,,Compact,Wheel Loader - 60.0 to 80.0 Horsepower,Georgia,WL,Wheel Loader,,EROPS w AC,None or Unspecified,,None or Unspecified,,,,,,,,2 Valve,,,,,None or Unspecified,None or Unspecified,,,,,,,,,,,,,Standard,Conventional
5878,2452551,17500,1704108,136,,2000,0.0,,4/26/2007 0:00,L30Z,L30,Z,,,Compact,Wheel Loader - 60.0 to 80.0 Horsepower,Georgia,WL,Wheel Loader,,EROPS w AC,None or Unspecified,,None or Unspecified,,,,,,,,2 Valve,,,,,None or Unspecified,None or Unspecified,,,,,,,,,,,,,Standard,Conventional
5878,2455730,24000,1699096,136,1.0,1998,0.0,,5/3/2007 0:00,L30Z,L30,Z,,,Compact,Wheel Loader - 60.0 to 80.0 Horsepower,Arizona,WL,Wheel Loader,,EROPS w AC,None or Unspecified,,None or Unspecified,,,,,,,,2 Valve,,,,,None or Unspecified,Manual,,,,,,,,,,,,,Standard,Conventional
5878,2455748,17000,1661700,136,1.0,1999,0.0,,12/10/2008 0:00,L30Z,L30,Z,,,Compact,Wheel Loader - 60.0 to 80.0 Horsepower,Minnesota,WL,Wheel Loader,,EROPS w AC,Yes,,None or Unspecified,,,,,,,,2 Valve,,,,,None or Unspecified,Manual,,,,,,,,,,,,,Standard,Conventional
5878,2455752,18000,1787345,136,,1999,4000.0,Low,11/28/2007 0:00,L30Z,L30,Z,,,Compact,Wheel Loader - 60.0 to 80.0 Horsepower,Nebraska,WL,Wheel Loader,,EROPS w AC,Yes,,None or Unspecified,,,,,,,,2 Valve,,,,,None or Unspecified,Manual,,,,,,,,,,,,,Standard,Conventional
5878,2753874,24000,1699096,149,1.0,1998,2604.0,Low,2/24/2011 0:00,L30Z,L30,Z,,,Compact,Wheel Loader - 60.0 to 80.0 Horsepower,Arizona,WL,Wheel Loader,,EROPS w AC,None or Unspecified,,None or Unspecified,,,,,,,,2 Valve,,,,,None or Unspecified,Manual,,,,,,,,,,,,,Standard,Conventional
