ModelID,SalesID,SalePrice,MachineID,datasource,auctioneerID,YearMade,MachineHoursCurrentMeter,UsageBand,saledate,fiModelDesc,fiBaseModel,fiSecondaryDesc,fiModelSeries,fiModelDescriptor,ProductSize,fiProductClassDesc,state,ProductGroup,ProductGroupDesc,Drive_System,Enclosure,Forks,Pad_Type,Ride_Control,Stick,Transmission,Turbocharged,Blade_Extension,Blade_Width,Enclosure_Type,Engine_Horsepower,Hydraulics,Pushblock,Ripper,Scarifier,Tip_Control,Tire_Size,Coupler,Coupler_System,Grouser_Tracks,Hydraulics_Flow,Track_Type,Undercarriage_Pad_Width,Stick_Length,Thumb,Pattern_Changer,Grouser_Type,Backhoe_Mounting,Blade_Type,Travel_Controls,Differential_Type,Steering_Controls
5879,1140376,18500,1051384,121,3.0,1997,28112.0,High,2/25/2010 0:00,L330C,L330,C,,,Large,Wheel Loader - 350.0 to 500.0 Horsepower,Indiana,WL,Wheel Loader,,EROPS w AC,None or Unspecified,,None or Unspecified,,,,,,,,2 Valve,,,,,None or Unspecified,None or Unspecified,,,,,,,,,,,,,Standard,Conventional
5879,1168751,47000,1039546,121,3.0,1998,17910.0,High,5/18/2006 0:00,L330C,L330,C,,,Large,Wheel Loader - 350.0 to 500.0 Horsepower,Nevada,WL,Wheel Loader,,EROPS w AC,None or Unspecified,,None or Unspecified,,,,,,,,2 Valve,,,,,None or Unspecified,None or Unspecified,,,,,,,,,,,,,Standard,Conventional
5879,1176897,32000,1058155,121,3.0,1995,22187.0,High,1/31/2008 0:00,L330C,L330,C,,,Large,Wheel Loader - 350.0 to 500.0 Horsepower,Utah,WL,Wheel Loader,,,,,,,,,,,,,,,,,,,,,,,,,,,,,,,,,
5879,1176898,49000,1017603,121,3.0,1998,14068.0,Medium,1/31/2008 0:00,L330C,L330,C,,,Large,Wheel Loader - 350.0 to 500.0 Horsepower,Utah,WL,Wheel Loader,,EROPS w AC,None or Unspecified,,None or Unspecified,,,,,,,,2 Valve,,,,,None or Unspecified,None or Unspecified,,,,,,,,,,,,,Standard,Conventional
5879,1177675,53000,1067543,121,3.0,1998,18054.0,High,3/20/2008 0:00,L330C,L330,C,,,Large,Wheel Loader - 350.0 to 500.0 Horsepower,Illinois,WL,Wheel Loader,,EROPS w AC,None or Unspecified,,None or Unspecified,,,,,,,,2 Valve,,,,,None or Unspecified,None or Unspecified,,,,,,,,,,,,,Standard,Conventional
5879,1189923,21000,1050975,121,3.0,1996,27797.0,High,5/14/2009 0:00,L330C,L330,C,,,Large,Wheel Loader - 350.0 to 500.0 Horsepower,Pennsylvania,WL,Wheel Loader,,EROPS w AC,None or Unspecified,,None or Unspecified,,,,,,,,2 Valve,,,,,None or Unspecified,None or Unspecified,,,,,,,,,,,,,Standard,Conventional
5879,1194522,33000,1025685,121,3.0,1997,18455.0,High,10/29/2009 0:00,L330C,L330,C,,,Large,Wheel Loader - 350.0 to 500.0 Horsepower,Wisconsin,WL,Wheel Loader,,EROPS w AC,None or Unspecified,,None or Unspecified,,,,,,,,2 Valve,,,,,None or Unspecified,None or Unspecified,,,,,,,,,,,,,Standard,Conventional
5879,1198788,9000,1046649,121,3.0,1996,18264.0,Medium,3/11/2010 0:00,L330C,L330,C,,,Large,Wheel Loader - 350.0 to 500.0 Horsepower,North Carolina,WL,Wheel Loader,,EROPS w AC,None or Unspecified,,None or Unspecified,,,,,,,,2 Valve,,,,,None or Unspecified,None or Unspecified,,,,,,,,,,,,,Standard,Conventional
5879,1201526,40000,1004162,121,3.0,1997,12481.0,Medium,5/18/2010 0:00,L330C,L330,C,,,Large,Wheel Loader - 350.0 to 500.0 Horsepower,Utah,WL,Wheel Loader,,EROPS w AC,None or Unspecified,,None or Unspecified,,,,,,,,2 Valve,,,,,None or Unspecified,None or Unspecified,,,,,,,,,,,,,Standard,Conventional
5879,1208006,29000,1016789,121,3.0,1999,,,10/14/2010 0:00,L330C,L330,C,,,Large,Wheel Loader - 350.0 to 500.0 Horsepower,Kansas,WL,Wheel Loader,,EROPS w AC,None or Unspecified,,None or Unspecified,,,,,,,,2 Valve,,,,,None or Unspecified,None or Unspecified,,,,,,,,,,,,,Standard,Conventional
5879,1211284,15000,1043495,121,3.0,1998,32032.0,High,2/25/2011 0:00,L330C,L330,C,,,Large,Wheel Loader - 350.0 to 500.0 Horsepower,Idaho,WL,Wheel Loader,,EROPS w AC,None or Unspecified,,None or Unspecified,,,,,,,,2 Valve,,,,,None or Unspecified,None or Unspecified,,,,,,,,,,,,,Standard,Conventional
5879,1218319,12500,1020338,121,3.0,1000,,,9/29/2011 0:00,L330C,L330,C,,,Large,Wheel Loader - 350.0 to 500.0 Horsepower,West Virginia,WL,Wheel Loader,,EROPS,None or Unspecified,,None or Unspecified,,,,,,,,2 Valve,,,,,None or Unspecified,None or Unspecified,,,,,,,,,,,,,Standard,Conventional
5879,2455782,34000,1667209,136,1.0,1000,0.0,,12/12/2007 0:00,L330C,L330,C,,,Large,Wheel Loader - 350.0 to 500.0 Horsepower,Maryland,WL,Wheel Loader,,EROPS,None or Unspecified,,None or Unspecified,,,,,,,,2 Valve,,,,,None or Unspecified,None or Unspecified,,,,,,,,,,,,,Standard,Conventional
5879,2455783,45000,1757252,136,1.0,1000,0.0,,12/4/2007 0:00,L330C,L330,C,,,Large,Wheel Loader - 350.0 to 500.0 Horsepower,California,WL,Wheel Loader,,EROPS w AC,None or Unspecified,,None or Unspecified,,,,,,,,2 Valve,,,,,None or Unspecified,None or Unspecified,,,,,,,,,,,,,Standard,Conventional
5879,2455784,30000,1686384,136,1.0,1000,0.0,,3/2/2010 0:00,L330C,L330,C,,,Large,Wheel Loader - 350.0 to 500.0 Horsepower,California,WL,Wheel Loader,,EROPS w AC,None or Unspecified,,None or Unspecified,,,,,,,,2 Valve,,,,,None or Unspecified,None or Unspecified,,,,,,,,,,,,,Standard,Conventional
5879,2455785,39000,1775613,136,1.0,1996,0.0,,10/3/2008 0:00,L330C,L330,C,,,Large,Wheel Loader - 350.0 to 500.0 Horsepower,Nevada,WL,Wheel Loader,,EROPS w AC,None or Unspecified,,None or Unspecified,,,,,,,,2 Valve,,,,,None or Unspecified,None or Unspecified,,,,,,,,,,,,,Standard,Conventional
5879,2455786,36000,1773930,136,1.0,1996,0.0,,9/30/2008 0:00,L330C,L330,C,,,Large,Wheel Loader - 350.0 to 500.0 Horsepower,Minnesota,WL,Wheel Loader,,EROPS w AC,None or Unspecified,,None or Unspecified,,,,,,,,2 Valve,,,,,None or Unspecified,None or Unspecified,,,,,,,,,,,,,Standard,Conventional
5879,2455787,27500,1763266,136,1.0,1995,0.0,,4/15/2010 0:00,L330C,L330,C,,,Large,Wheel Loader - 350.0 to 500.0 Horsepower,Arizona,WL,Wheel Loader,,EROPS w AC,None or Unspecified,,None or Unspecified,,,,,,,,2 Valve,,,,,None or Unspecified,None or Unspecified,,,,,,,,,,,,,Standard,Conventional
5879,2455789,16000,1684474,136,1.0,1996,0.0,,6/9/2009 0:00,L330C,L330,C,,,Large,Wheel Loader - 350.0 to 500.0 Horsepower,Tennessee,WL,Wheel Loader,,EROPS w AC,None or Unspecified,,None or Unspecified,,,,,,,,2 Valve,,,,,None or Unspecified,None or Unspecified,,,,,,,,,,,,,Standard,Conventional
5879,2455794,35000,1723272,136,1.0,1997,0.0,,6/30/2008 0:00,L330C,L330,C,,,Large,Wheel Loader - 350.0 to 500.0 Horsepower,New Mexico,WL,Wheel Loader,,EROPS w AC,None or Unspecified,,None or Unspecified,,,,,,,,2 Valve,,,,,None or Unspecified,None or Unspecified,,,,,,,,,,,,,Standard,Conventional
5879,2455795,46000,1758614,136,1.0,1998,0.0,,4/1/2008 0:00,L330C,L330,C,,,Large,Wheel Loader - 350.0 to 500.0 Horsepower,Missouri,WL,Wheel Loader,,EROPS,None or Unspecified,,None or Unspecified,,,,,,,,2 Valve,,,,,None or Unspecified,None or Unspecified,,,,,,,,,,,,,Standard,Conventional
5879,2455798,23000,1711121,136,1.0,1000,0.0,,6/24/2009 0:00,L330C,L330,C,,,Large,Wheel Loader - 350.0 to 500.0 Horsepower,Maryland,WL,Wheel Loader,,EROPS w AC,None or Unspecified,,None or Unspecified,,,,,,,,2 Valve,,,,,None or Unspecified,None or Unspecified,,,,,,,,,,,,,Standard,Conventional
5879,2455800,32000,1017603,136,1.0,1998,0.0,,3/13/2008 0:00,L330C,L330,C,,,Large,Wheel Loader - 350.0 to 500.0 Horsepower,Nevada,WL,Wheel Loader,,EROPS w AC,None or Unspecified,,None or Unspecified,,,,,,,,2 Valve,,,,,None or Unspecified,None or Unspecified,,,,,,,,,,,,,Standard,Conventional
5879,2455804,41000,1642578,136,1.0,1998,0.0,,8/20/2009 0:00,L330C,L330,C,,,Large,Wheel Loader - 350.0 to 500.0 Horsepower,Colorado,WL,Wheel Loader,,EROPS w AC,None or Unspecified,,Yes,,,,,,,,2 Valve,,,,,None or Unspecified,None or Unspecified,,,,,,,,,,,,,Standard,Conventional
5879,2455805,37500,1756258,136,1.0,1000,0.0,,3/4/2009 0:00,L330C,L330,C,,,Large,Wheel Loader - 350.0 to 500.0 Horsepower,Texas,WL,Wheel Loader,,EROPS w AC,None or Unspecified,,None or Unspecified,,,,,,,,2 Valve,,,,,None or Unspecified,None or Unspecified,,,,,,,,,,,,,Standard,Conventional
5879,2455807,40000,1787611,136,1.0,1000,0.0,,3/21/2007 0:00,L330C,L330,C,,,Large,Wheel Loader - 350.0 to 500.0 Horsepower,Washington,WL,Wheel Loader,,EROPS,Yes,,None or Unspecified,,,,,,,,3 Valve,,,,,None or Unspecified,None or Unspecified,,,,,,,,,,,,,Standard,Conventional
5879,2753896,33000,1855622,149,1.0,1995,18143.0,Medium,12/7/2010 0:00,L330C,L330,C,,,Large,Wheel Loader - 350.0 to 500.0 Horsepower,California,WL,Wheel Loader,,EROPS w AC,None or Unspecified,,None or Unspecified,,,,,,,,2 Valve,,,,,None or Unspecified,None or Unspecified,,,,,,,,,,,,,Standard,Conventional
5879,2753897,72500,1861747,149,1.0,1996,12140.0,Medium,4/6/2011 0:00,L330C,L330,C,,,Large,Wheel Loader - 350.0 to 500.0 Horsepower,Oregon,WL,Wheel Loader,,EROPS,None or Unspecified,,None or Unspecified,,,,,,,,2 Valve,,,,,None or Unspecified,None or Unspecified,,,,,,,,,,,,,Standard,Conventional
5879,2753898,25000,1879125,149,1.0,1996,21270.0,Medium,4/6/2011 0:00,L330C,L330,C,,,Large,Wheel Loader - 350.0 to 500.0 Horsepower,Oregon,WL,Wheel Loader,,EROPS,None or Unspecified,,Yes,,,,,,,,2 Valve,,,,,None or Unspecified,None or Unspecified,,,,,,,,,,,,,Standard,Conventional
5879,4394531,27500,2294882,172,1.0,1000,,,5/27/2010 0:00,L330C,L330,C,,,Large,Wheel Loader - 350.0 to 500.0 Horsepower,New York,WL,Wheel Loader,,EROPS,None or Unspecified,,None or Unspecified,,,,,,,,2 Valve,,,,,None or Unspecified,None or Unspecified,,,,,,,,,,,,,Standard,Conventional
5879,4394535,24000,2295947,172,1.0,1997,,,5/12/2010 0:00,L330C,L330,C,,,Large,Wheel Loader - 350.0 to 500.0 Horsepower,Illinois,WL,Wheel Loader,,EROPS,None or Unspecified,,None or Unspecified,,,,,,,,2 Valve,,,,,None or Unspecified,None or Unspecified,,,,,,,,,,,,,Standard,Conventional
5879,4395296,23000,879056,172,1.0,1996,21004.0,High,3/18/2009 0:00,L330C,L330,C,,,Large,Wheel Loader - 350.0 to 500.0 Horsepower,Washington,WL,Wheel Loader,,EROPS w AC,None or Unspecified,,None or Unspecified,,,,,,,,2 Valve,,,,,None or Unspecified,None or Unspecified,,,,,,,,,,,,,Standard,Conventional
5879,6320229,20000,1570894,149,1.0,1995,,,10/4/2011 0:00,L330C,L330,C,,,Large,Wheel Loader - 350.0 to 500.0 Horsepower,Texas,WL,Wheel Loader,,EROPS w AC,None or Unspecified,,None or Unspecified,,,,,,,,2 Valve,,,,,None or Unspecified,None or Unspecified,,,,,,,,,,,,,Standard,Conventional
