ModelID,SalesID,SalePrice,MachineID,datasource,auctioneerID,YearMade,MachineHoursCurrentMeter,UsageBand,saledate,fiModelDesc,fiBaseModel,fiSecondaryDesc,fiModelSeries,fiModelDescriptor,ProductSize,fiProductClassDesc,state,ProductGroup,ProductGroupDesc,Drive_System,Enclosure,Forks,Pad_Type,Ride_Control,Stick,Transmission,Turbocharged,Blade_Extension,Blade_Width,Enclosure_Type,Engine_Horsepower,Hydraulics,Pushblock,Ripper,Scarifier,Tip_Control,Tire_Size,Coupler,Coupler_System,Grouser_Tracks,Hydraulics_Flow,Track_Type,Undercarriage_Pad_Width,Stick_Length,Thumb,Pattern_Changer,Grouser_Type,Backhoe_Mounting,Blade_Type,Travel_Controls,Differential_Type,Steering_Controls
5887,1139732,49000,1052453,121,3.0,1999,8690.0,Medium,7/28/2006 0:00,L70C,L70,C,,,,Wheel Loader - 120.0 to 135.0 Horsepower,Oklahoma,WL,Wheel Loader,,EROPS w AC,Yes,,None or Unspecified,,,,,,,,2 Valve,,,,,20.5,Hydraulic,,,,,,,,,,,,,Standard,Conventional
5887,1140808,29000,1009149,121,3.0,1998,11709.0,High,9/9/2005 0:00,L70C,L70,C,,,,Wheel Loader - 120.0 to 135.0 Horsepower,Florida,WL,Wheel Loader,,OROPS,Yes,,None or Unspecified,,,,,,,,2 Valve,,,,,None or Unspecified,Manual,,,,,,,,,,,,,Standard,Conventional
5887,1142369,46000,1036648,121,3.0,1999,8725.0,Medium,7/28/2006 0:00,L70C,L70,C,,,,Wheel Loader - 120.0 to 135.0 Horsepower,Oklahoma,WL,Wheel Loader,,EROPS w AC,Yes,,None or Unspecified,,,,,,,,2 Valve,,,,,None or Unspecified,Manual,,,,,,,,,,,,,Standard,Conventional
5887,1142705,26000,1047278,121,3.0,1997,5848.0,Low,4/22/2010 0:00,L70C,L70,C,,,,Wheel Loader - 120.0 to 135.0 Horsepower,Texas,WL,Wheel Loader,,EROPS w AC,Yes,,None or Unspecified,,,,,,,,2 Valve,,,,,20.5,Hydraulic,,,,,,,,,,,,,Standard,Conventional
5887,1143023,43000,1060849,121,3.0,1998,9039.0,Medium,4/6/2006 0:00,L70C,L70,C,,,,Wheel Loader - 120.0 to 135.0 Horsepower,Georgia,WL,Wheel Loader,,EROPS w AC,Yes,,None or Unspecified,,,,,,,,2 Valve,,,,,None or Unspecified,None or Unspecified,,,,,,,,,,,,,Standard,Conventional
5887,1145906,22000,1062512,121,3.0,1998,8827.0,Medium,4/20/2006 0:00,L70C,L70,C,,,,Wheel Loader - 120.0 to 135.0 Horsepower,Texas,WL,Wheel Loader,,OROPS,Yes,,None or Unspecified,,,,,,,,2 Valve,,,,,None or Unspecified,Manual,,,,,,,,,,,,,Standard,Conventional
5887,1146822,23000,1051123,121,3.0,1998,11244.0,Medium,12/16/2010 0:00,L70C,L70,C,,,,Wheel Loader - 120.0 to 135.0 Horsepower,Florida,WL,Wheel Loader,,OROPS,Yes,,None or Unspecified,,,,,,,,2 Valve,,,,,20.5,Hydraulic,,,,,,,,,,,,,Standard,Conventional
5887,1152330,40000,999266,121,3.0,1996,16483.0,High,9/9/2005 0:00,L70C,L70,C,,,,Wheel Loader - 120.0 to 135.0 Horsepower,Florida,WL,Wheel Loader,,EROPS w AC,Yes,,None or Unspecified,,,,,,,,2 Valve,,,,,None or Unspecified,Hydraulic,,,,,,,,,,,,,Standard,Conventional
5887,1157707,38000,1061287,121,3.0,1998,10293.0,Medium,7/28/2006 0:00,L70C,L70,C,,,,Wheel Loader - 120.0 to 135.0 Horsepower,Oklahoma,WL,Wheel Loader,,EROPS,Yes,,None or Unspecified,,,,,,,,2 Valve,,,,,20.5,Manual,,,,,,,,,,,,,Standard,Conventional
5887,1159128,40000,1009355,121,3.0,1997,13330.0,High,9/9/2005 0:00,L70C,L70,C,,,,Wheel Loader - 120.0 to 135.0 Horsepower,Florida,WL,Wheel Loader,,EROPS w AC,Yes,,None or Unspecified,,,,,,,,2 Valve,,,,,None or Unspecified,Manual,,,,,,,,,,,,,Standard,Conventional
5887,1163525,22500,1052747,121,3.0,1998,9545.0,Medium,2/7/2011 0:00,L70C,L70,C,,,,Wheel Loader - 120.0 to 135.0 Horsepower,Florida,WL,Wheel Loader,,OROPS,None or Unspecified,,None or Unspecified,,,,,,,,2 Valve,,,,,20.5,None or Unspecified,,,,,,,,,,,,,Standard,Conventional
5887,1173696,53000,1033763,121,3.0,1999,5350.0,Medium,8/26/2004 0:00,L70C,L70,C,,,,Wheel Loader - 120.0 to 135.0 Horsepower,Georgia,WL,Wheel Loader,,EROPS w AC,Yes,,None or Unspecified,,,,,,,,2 Valve,,,,,None or Unspecified,Manual,,,,,,,,,,,,,Standard,Conventional
5887,1173697,50000,1000017,121,3.0,1999,6091.0,Medium,8/26/2004 0:00,L70C,L70,C,,,,Wheel Loader - 120.0 to 135.0 Horsepower,Georgia,WL,Wheel Loader,,EROPS w AC,Yes,,None or Unspecified,,,,,,,,2 Valve,,,,,None or Unspecified,Manual,,,,,,,,,,,,,Standard,Conventional
5887,1173698,50000,1025166,121,3.0,1999,6348.0,Medium,8/26/2004 0:00,L70C,L70,C,,,,Wheel Loader - 120.0 to 135.0 Horsepower,Georgia,WL,Wheel Loader,,EROPS w AC,Yes,,None or Unspecified,,,,,,,,2 Valve,,,,,None or Unspecified,Manual,,,,,,,,,,,,,Standard,Conventional
5887,1179887,34000,1027297,121,3.0,1997,15376.0,Medium,6/12/2008 0:00,L70C,L70,C,,,,Wheel Loader - 120.0 to 135.0 Horsepower,Arkansas,WL,Wheel Loader,,EROPS w AC,Yes,,None or Unspecified,,,,,,,,2 Valve,,,,,20.5,Manual,,,,,,,,,,,,,Standard,Conventional
5887,1180855,25000,1061769,121,3.0,1995,17833.0,Medium,7/10/2008 0:00,L70C,L70,C,,,,Wheel Loader - 120.0 to 135.0 Horsepower,Florida,WL,Wheel Loader,,EROPS w AC,Yes,,None or Unspecified,,,,,,,,2 Valve,,,,,20.5,None or Unspecified,,,,,,,,,,,,,Standard,Conventional
5887,1185101,34500,1063779,121,3.0,1000,4928.0,Low,12/4/2008 0:00,L70C,L70,C,,,,Wheel Loader - 120.0 to 135.0 Horsepower,Pennsylvania,WL,Wheel Loader,,EROPS w AC,None or Unspecified,,None or Unspecified,,,,,,,,2 Valve,,,,,None or Unspecified,None or Unspecified,,,,,,,,,,,,,Standard,Conventional
5887,1192010,20000,1052453,121,3.0,1999,9214.0,Medium,9/17/2009 0:00,L70C,L70,C,,,,Wheel Loader - 120.0 to 135.0 Horsepower,Louisiana,WL,Wheel Loader,,EROPS w AC,Yes,,None or Unspecified,,,,,,,,2 Valve,,,,,20.5,Hydraulic,,,,,,,,,,,,,Standard,Conventional
5887,1197293,16500,1022028,121,3.0,1996,19400.0,High,12/17/2009 0:00,L70C,L70,C,,,,Wheel Loader - 120.0 to 135.0 Horsepower,Pennsylvania,WL,Wheel Loader,,EROPS w AC,None or Unspecified,,None or Unspecified,,,,,,,,2 Valve,,,,,20.5,None or Unspecified,,,,,,,,,,,,,Standard,Conventional
5887,1201405,22000,1048216,121,3.0,1997,,,5/20/2010 0:00,L70C,L70,C,,,,Wheel Loader - 120.0 to 135.0 Horsepower,Florida,WL,Wheel Loader,,EROPS w AC,Yes,,None or Unspecified,,,,,,,,2 Valve,,,,,None or Unspecified,Manual,,,,,,,,,,,,,Standard,Conventional
5887,1209907,39000,1067274,121,3.0,1999,7610.0,Medium,1/6/2011 0:00,L70C,L70,C,,,,Wheel Loader - 120.0 to 135.0 Horsepower,Utah,WL,Wheel Loader,,EROPS,Yes,,None or Unspecified,,,,,,,,2 Valve,,,,,20.5,Hydraulic,,,,,,,,,,,,,Standard,Conventional
5887,1212321,29500,1041841,121,3.0,1000,23802.0,Low,3/17/2011 0:00,L70C,L70,C,,,,Wheel Loader - 120.0 to 135.0 Horsepower,Texas,WL,Wheel Loader,,EROPS w AC,None or Unspecified,,None or Unspecified,,,,,,,,2 Valve,,,,,20.5,Hydraulic,,,,,,,,,,,,,Standard,Conventional
5887,1217983,24000,1027107,121,3.0,1000,16456.0,Low,9/22/2011 0:00,L70C,L70,C,,,,Wheel Loader - 120.0 to 135.0 Horsepower,Michigan,WL,Wheel Loader,,EROPS,None or Unspecified,,None or Unspecified,,,,,,,,2 Valve,,,,,20.5,Hydraulic,,,,,,,,,,,,,Standard,Conventional
5887,1220011,32000,1064433,121,3.0,1997,20126.0,Medium,10/27/2011 0:00,L70C,L70,C,,,,Wheel Loader - 120.0 to 135.0 Horsepower,New Mexico,WL,Wheel Loader,,EROPS w AC,None or Unspecified,,None or Unspecified,,,,,,,,2 Valve,,,,,20.5,Hydraulic,,,,,,,,,,,,,Standard,Conventional
5887,2449484,23000,1746374,136,6.0,1000,0.0,,8/21/2008 0:00,L70C,L70,C,,,,Wheel Loader - 120.0 to 135.0 Horsepower,South Carolina,WL,Wheel Loader,,EROPS w AC,None or Unspecified,,None or Unspecified,,,,,,,,2 Valve,,,,,20.5,None or Unspecified,,,,,,,,,,,,,Standard,Conventional
5887,2449485,25500,1746374,136,4.0,1000,0.0,,2/9/2009 0:00,L70C,L70,C,,,,Wheel Loader - 120.0 to 135.0 Horsepower,Florida,WL,Wheel Loader,,EROPS w AC,None or Unspecified,,None or Unspecified,,,,,,,,2 Valve,,,,,20.5,None or Unspecified,,,,,,,,,,,,,Standard,Conventional
5887,2449748,19000,1688945,136,13.0,1000,0.0,,6/20/2009 0:00,L70C,L70,C,,,,Wheel Loader - 120.0 to 135.0 Horsepower,Tennessee,WL,Wheel Loader,,EROPS w AC,None or Unspecified,,None or Unspecified,,,,,,,,2 Valve,,,,,None or Unspecified,None or Unspecified,,,,,,,,,,,,,Standard,Conventional
5887,2449783,34000,1732734,136,7.0,1995,0.0,,4/18/2007 0:00,L70C,L70,C,,,,Wheel Loader - 120.0 to 135.0 Horsepower,Arkansas,WL,Wheel Loader,,EROPS w AC,Yes,,None or Unspecified,,,,,,,,2 Valve,,,,,None or Unspecified,None or Unspecified,,,,,,,,,,,,,Standard,Conventional
5887,2449979,19000,1709020,136,20.0,1996,0.0,,4/15/2009 0:00,L70C,L70,C,,,,Wheel Loader - 120.0 to 135.0 Horsepower,Arkansas,WL,Wheel Loader,,EROPS,None or Unspecified,,None or Unspecified,,,,,,,,2 Valve,,,,,None or Unspecified,None or Unspecified,,,,,,,,,,,,,Standard,Conventional
5887,2450083,36000,1706905,136,1.0,1998,0.0,,9/19/2007 0:00,L70C,L70,C,,,,Wheel Loader - 120.0 to 135.0 Horsepower,Illinois,WL,Wheel Loader,,OROPS,None or Unspecified,,None or Unspecified,,,,,,,,2 Valve,,,,,None or Unspecified,None or Unspecified,,,,,,,,,,,,,Standard,Conventional
5887,2450086,30000,1747869,136,1.0,1997,0.0,,11/20/2009 0:00,L70C,L70,C,,,,Wheel Loader - 120.0 to 135.0 Horsepower,Arizona,WL,Wheel Loader,,,,,,,,,,,,,,,,,,,,,,,,,,,,,,,,,
5887,2450128,18375,1724890,136,,1997,15905.0,High,12/6/2008 0:00,L70C,L70,C,,,,Wheel Loader - 120.0 to 135.0 Horsepower,Tennessee,WL,Wheel Loader,,,,,,,,,,,,,,,,,,,,,,,,,,,,,,,,,
5887,2450147,13000,1762552,136,13.0,1998,9956.0,Medium,9/19/2009 0:00,L70C,L70,C,,,,Wheel Loader - 120.0 to 135.0 Horsepower,Tennessee,WL,Wheel Loader,,EROPS w AC,Yes,,None or Unspecified,,,,,,,,2 Valve,,,,,None or Unspecified,Manual,,,,,,,,,,,,,Standard,Conventional
5887,2450150,42000,1691873,136,1.0,1998,0.0,,6/20/2007 0:00,L70C,L70,C,,,,Wheel Loader - 120.0 to 135.0 Horsepower,Maryland,WL,Wheel Loader,,EROPS,None or Unspecified,,None or Unspecified,,,,,,,,2 Valve,,,,,20.5,None or Unspecified,,,,,,,,,,,,,Standard,Conventional
5887,2450159,25000,1776605,136,2.0,1998,0.0,,5/23/2007 0:00,L70C,L70,C,,,,Wheel Loader - 120.0 to 135.0 Horsepower,Florida,WL,Wheel Loader,,OROPS,None or Unspecified,,None or Unspecified,,,,,,,,3 Valve,,,,,None or Unspecified,None or Unspecified,,,,,,,,,,,,,Standard,Conventional
5887,2450165,18500,1758657,136,4.0,1998,0.0,,2/9/2009 0:00,L70C,L70,C,,,,Wheel Loader - 120.0 to 135.0 Horsepower,Florida,WL,Wheel Loader,,OROPS,None or Unspecified,,None or Unspecified,,,,,,,,2 Valve,,,,,None or Unspecified,None or Unspecified,,,,,,,,,,,,,Standard,Conventional
5887,2450174,26000,1669467,136,2.0,1998,0.0,,5/23/2007 0:00,L70C,L70,C,,,,Wheel Loader - 120.0 to 135.0 Horsepower,Florida,WL,Wheel Loader,,EROPS,None or Unspecified,,None or Unspecified,,,,,,,,3 Valve,,,,,None or Unspecified,Hydraulic,,,,,,,,,,,,,Standard,Conventional
5887,2450181,40000,1658205,136,1.0,1999,0.0,,8/15/2007 0:00,L70C,L70,C,,,,Wheel Loader - 120.0 to 135.0 Horsepower,Arkansas,WL,Wheel Loader,,EROPS w AC,None or Unspecified,,None or Unspecified,,,,,,,,2 Valve,,,,,None or Unspecified,None or Unspecified,,,,,,,,,,,,,Standard,Conventional
5887,2450215,55000,1717843,136,,1000,4605.0,Low,9/12/2007 0:00,L70C,L70,C,,,,Wheel Loader - 120.0 to 135.0 Horsepower,Michigan,WL,Wheel Loader,,EROPS w AC,None or Unspecified,,None or Unspecified,,,,,,,,2 Valve,,,,,None or Unspecified,None or Unspecified,,,,,,,,,,,,,Standard,Conventional
5887,2450237,39000,1747984,136,1.0,1000,0.0,,5/12/2010 0:00,L70C,L70,C,,,,Wheel Loader - 120.0 to 135.0 Horsepower,California,WL,Wheel Loader,,OROPS,Yes,,None or Unspecified,,,,,,,,2 Valve,,,,,20.5,None or Unspecified,,,,,,,,,,,,,Standard,Conventional
5887,2450661,30000,1751141,136,1.0,1996,0.0,,1/19/2008 0:00,L70C,L70,C,,,,Wheel Loader - 120.0 to 135.0 Horsepower,Ohio,WL,Wheel Loader,,EROPS,None or Unspecified,,None or Unspecified,,,,,,,,2 Valve,,,,,None or Unspecified,Manual,,,,,,,,,,,,,Standard,Conventional
5887,2452383,23000,1756034,136,,1995,0.0,,12/5/2007 0:00,L70C,L70,C,,,,Wheel Loader - 120.0 to 135.0 Horsepower,Alabama,WL,Wheel Loader,,EROPS,Yes,,None or Unspecified,,,,,,,,2 Valve,,,,,20.5,Manual,,,,,,,,,,,,,Standard,Conventional
5887,2454384,20000,1783592,136,,1996,0.0,,10/9/2007 0:00,L70C,L70,C,,,,Wheel Loader - 120.0 to 135.0 Horsepower,Florida,WL,Wheel Loader,,EROPS w AC,None or Unspecified,,None or Unspecified,,,,,,,,2 Valve,,,,,None or Unspecified,Manual,,,,,,,,,,,,,Standard,Conventional
5887,2454387,29500,1653355,136,,1996,0.0,,9/21/2007 0:00,L70C,L70,C,,,,Wheel Loader - 120.0 to 135.0 Horsepower,Indiana,WL,Wheel Loader,,EROPS,Yes,,None or Unspecified,,,,,,,,2 Valve,,,,,20.5,Manual,,,,,,,,,,,,,Standard,Conventional
5887,2456008,33000,1681580,136,1.0,1996,0.0,,6/19/2008 0:00,L70C,L70,C,,,,Wheel Loader - 120.0 to 135.0 Horsepower,Illinois,WL,Wheel Loader,,EROPS,None or Unspecified,,None or Unspecified,,,,,,,,2 Valve,,,,,None or Unspecified,None or Unspecified,,,,,,,,,,,,,Standard,Conventional
5887,2456011,22000,1720683,136,1.0,1995,17819.0,Medium,3/12/2009 0:00,L70C,L70,C,,,,Wheel Loader - 120.0 to 135.0 Horsepower,Illinois,WL,Wheel Loader,,EROPS,None or Unspecified,,None or Unspecified,,,,,,,,2 Valve,,,,,20.5,None or Unspecified,,,,,,,,,,,,,Standard,Conventional
5887,2456012,24000,1695635,136,1.0,1995,0.0,,5/9/2007 0:00,L70C,L70,C,,,,Wheel Loader - 120.0 to 135.0 Horsepower,Texas,WL,Wheel Loader,,EROPS w AC,None or Unspecified,,None or Unspecified,,,,,,,,2 Valve,,,,,20.5,None or Unspecified,,,,,,,,,,,,,Standard,Conventional
5887,2456013,24000,1668295,136,1.0,1000,0.0,,4/1/2009 0:00,L70C,L70,C,,,,Wheel Loader - 120.0 to 135.0 Horsepower,Maryland,WL,Wheel Loader,,EROPS,None or Unspecified,,None or Unspecified,,,,,,,,2 Valve,,,,,20.5,None or Unspecified,,,,,,,,,,,,,Standard,Conventional
5887,2456014,23000,1774251,136,1.0,1000,0.0,,5/14/2009 0:00,L70C,L70,C,,,,Wheel Loader - 120.0 to 135.0 Horsepower,California,WL,Wheel Loader,,EROPS w AC,None or Unspecified,,None or Unspecified,,,,,,,,2 Valve,,,,,20.5,Manual,,,,,,,,,,,,,Standard,Conventional
5887,2456018,27500,1781639,136,1.0,1995,0.0,,11/14/2007 0:00,L70C,L70,C,,,,Wheel Loader - 120.0 to 135.0 Horsepower,Georgia,WL,Wheel Loader,,EROPS w AC,None or Unspecified,,None or Unspecified,,,,,,,,2 Valve,,,,,20.5,Manual,,,,,,,,,,,,,Standard,Conventional
5887,2456019,27000,1781639,136,7.0,1995,0.0,,4/19/2007 0:00,L70C,L70,C,,,,Wheel Loader - 120.0 to 135.0 Horsepower,South Carolina,WL,Wheel Loader,,EROPS w AC,None or Unspecified,,None or Unspecified,,,,,,,,2 Valve,,,,,20.5,Manual,,,,,,,,,,,,,Standard,Conventional
5887,2456021,22500,1734847,136,1.0,1000,0.0,,10/14/2009 0:00,L70C,L70,C,,,,Wheel Loader - 120.0 to 135.0 Horsepower,Florida,WL,Wheel Loader,,OROPS,Yes,,None or Unspecified,,,,,,,,2 Valve,,,,,20.5,None or Unspecified,,,,,,,,,,,,,Standard,Conventional
5887,2456023,32000,1759785,136,1.0,1996,0.0,,12/13/2007 0:00,L70C,L70,C,,,,Wheel Loader - 120.0 to 135.0 Horsepower,Colorado,WL,Wheel Loader,,EROPS,None or Unspecified,,None or Unspecified,,,,,,,,2 Valve,,,,,20.5,None or Unspecified,,,,,,,,,,,,,Standard,Conventional
5887,2456024,20000,1709217,136,1.0,1000,0.0,,6/23/2010 0:00,L70C,L70,C,,,,Wheel Loader - 120.0 to 135.0 Horsepower,Ohio,WL,Wheel Loader,,EROPS,None or Unspecified,,None or Unspecified,,,,,,,,2 Valve,,,,,20.5,None or Unspecified,,,,,,,,,,,,,Standard,Conventional
5887,2456025,25000,1778061,136,1.0,1996,0.0,,3/21/2007 0:00,L70C,L70,C,,,,Wheel Loader - 120.0 to 135.0 Horsepower,Washington,WL,Wheel Loader,,EROPS,Yes,,None or Unspecified,,,,,,,,2 Valve,,,,,20.5,Manual,,,,,,,,,,,,,Standard,Conventional
5887,2456026,16500,1778061,136,1.0,1000,0.0,,6/17/2009 0:00,L70C,L70,C,,,,Wheel Loader - 120.0 to 135.0 Horsepower,Washington,WL,Wheel Loader,,EROPS,Yes,,None or Unspecified,,,,,,,,2 Valve,,,,,20.5,Manual,,,,,,,,,,,,,Standard,Conventional
5887,2456029,39000,1733202,136,1.0,1996,0.0,,3/22/2007 0:00,L70C,L70,C,,,,Wheel Loader - 120.0 to 135.0 Horsepower,Tennessee,WL,Wheel Loader,,EROPS,Yes,,None or Unspecified,,,,,,,,2 Valve,,,,,20.5,Manual,,,,,,,,,,,,,Standard,Conventional
5887,2456030,28000,1727460,136,1.0,1996,0.0,,5/28/2008 0:00,L70C,L70,C,,,,Wheel Loader - 120.0 to 135.0 Horsepower,Florida,WL,Wheel Loader,,EROPS w AC,None or Unspecified,,None or Unspecified,,,,,,,,2 Valve,,,,,20.5,Manual,,,,,,,,,,,,,Standard,Conventional
5887,2456031,42500,1743800,136,1.0,1000,0.0,,6/14/2007 0:00,L70C,L70,C,,,,Wheel Loader - 120.0 to 135.0 Horsepower,Colorado,WL,Wheel Loader,,EROPS,None or Unspecified,,None or Unspecified,,,,,,,,2 Valve,,,,,None or Unspecified,None or Unspecified,,,,,,,,,,,,,Standard,Conventional
5887,2456032,26000,1740444,136,1.0,1996,0.0,,9/30/2009 0:00,L70C,L70,C,,,,Wheel Loader - 120.0 to 135.0 Horsepower,Maryland,WL,Wheel Loader,,EROPS,None or Unspecified,,None or Unspecified,,,,,,,,2 Valve,,,,,20.5,None or Unspecified,,,,,,,,,,,,,Standard,Conventional
5887,2456033,26000,1765896,136,1.0,1996,0.0,,3/29/2007 0:00,L70C,L70,C,,,,Wheel Loader - 120.0 to 135.0 Horsepower,Texas,WL,Wheel Loader,,EROPS,None or Unspecified,,None or Unspecified,,,,,,,,2 Valve,,,,,20.5,Manual,,,,,,,,,,,,,Standard,Conventional
5887,2456035,38000,1696028,136,1.0,1996,0.0,,2/19/2008 0:00,L70C,L70,C,,,,Wheel Loader - 120.0 to 135.0 Horsepower,Florida,WL,Wheel Loader,,EROPS w AC,None or Unspecified,,Yes,,,,,,,,2 Valve,,,,,20.5,Manual,,,,,,,,,,,,,Standard,Conventional
5887,2456036,20000,1696028,136,1.0,1000,0.0,,2/16/2009 0:00,L70C,L70,C,,,,Wheel Loader - 120.0 to 135.0 Horsepower,Florida,WL,Wheel Loader,,EROPS w AC,None or Unspecified,,Yes,,,,,,,,2 Valve,,,,,20.5,Manual,,,,,,,,,,,,,Standard,Conventional
5887,2456037,47500,1696028,136,1.0,1996,0.0,,9/23/2009 0:00,L70C,L70,C,,,,Wheel Loader - 120.0 to 135.0 Horsepower,Texas,WL,Wheel Loader,,EROPS w AC,None or Unspecified,,Yes,,,,,,,,2 Valve,,,,,20.5,Manual,,,,,,,,,,,,,Standard,Conventional
5887,2456038,20000,1696028,136,1.0,1995,0.0,,4/2/2009 0:00,L70C,L70,C,,,,Wheel Loader - 120.0 to 135.0 Horsepower,Mississippi,WL,Wheel Loader,,EROPS w AC,None or Unspecified,,Yes,,,,,,,,2 Valve,,,,,20.5,Manual,,,,,,,,,,,,,Standard,Conventional
5887,2456039,25000,1643177,136,1.0,2000,0.0,,9/23/2008 0:00,L70C,L70,C,,,,Wheel Loader - 120.0 to 135.0 Horsepower,Ohio,WL,Wheel Loader,,EROPS w AC,Yes,,None or Unspecified,,,,,,,,2 Valve,,,,,20.5,Manual,,,,,,,,,,,,,Standard,Conventional
5887,2456040,30000,1643177,136,1.0,1996,0.0,,6/27/2007 0:00,L70C,L70,C,,,,Wheel Loader - 120.0 to 135.0 Horsepower,Georgia,WL,Wheel Loader,,EROPS w AC,Yes,,None or Unspecified,,,,,,,,2 Valve,,,,,20.5,Manual,,,,,,,,,,,,,Standard,Conventional
5887,2456041,26000,1661275,136,1.0,1997,0.0,,9/30/2009 0:00,L70C,L70,C,,,,Wheel Loader - 120.0 to 135.0 Horsepower,Maryland,WL,Wheel Loader,,EROPS,None or Unspecified,,None or Unspecified,,,,,,,,2 Valve,,,,,None or Unspecified,None or Unspecified,,,,,,,,,,,,,Standard,Conventional
5887,2456042,36000,1761465,136,1.0,1997,0.0,,3/19/2009 0:00,L70C,L70,C,,,,Wheel Loader - 120.0 to 135.0 Horsepower,Minnesota,WL,Wheel Loader,,EROPS,None or Unspecified,,None or Unspecified,,,,,,,,2 Valve,,,,,20.5,None or Unspecified,,,,,,,,,,,,,Standard,Conventional
5887,2456043,24000,1657649,136,1.0,1997,0.0,,9/24/2008 0:00,L70C,L70,C,,,,Wheel Loader - 120.0 to 135.0 Horsepower,Texas,WL,Wheel Loader,,EROPS,None or Unspecified,,None or Unspecified,,,,,,,,2 Valve,,,,,20.5,None or Unspecified,,,,,,,,,,,,,Standard,Conventional
5887,2456045,22500,1783271,136,1.0,1997,0.0,,5/20/2008 0:00,L70C,L70,C,,,,Wheel Loader - 120.0 to 135.0 Horsepower,California,WL,Wheel Loader,,EROPS,None or Unspecified,,None or Unspecified,,,,,,,,2 Valve,,,,,20.5,Hydraulic,,,,,,,,,,,,,Standard,Conventional
5887,2456046,32500,1728820,136,1.0,1997,0.0,,5/9/2007 0:00,L70C,L70,C,,,,Wheel Loader - 120.0 to 135.0 Horsepower,Texas,WL,Wheel Loader,,EROPS w AC,None or Unspecified,,None or Unspecified,,,,,,,,2 Valve,,,,,20.5,None or Unspecified,,,,,,,,,,,,,Standard,Conventional
5887,2456048,30000,1771206,136,1.0,1997,0.0,,11/20/2009 0:00,L70C,L70,C,,,,Wheel Loader - 120.0 to 135.0 Horsepower,Arizona,WL,Wheel Loader,,EROPS w AC,None or Unspecified,,Yes,,,,,,,,2 Valve,,,,,20.5,None or Unspecified,,,,,,,,,,,,,Standard,Conventional
5887,2456054,30000,1725959,136,1.0,1997,0.0,,2/15/2010 0:00,L70C,L70,C,,,,Wheel Loader - 120.0 to 135.0 Horsepower,Florida,WL,Wheel Loader,,EROPS w AC,None or Unspecified,,None or Unspecified,,,,,,,,2 Valve,,,,,None or Unspecified,None or Unspecified,,,,,,,,,,,,,Standard,Conventional
5887,2456055,27000,1749977,136,,1000,0.0,,6/27/2009 0:00,L70C,L70,C,,,,Wheel Loader - 120.0 to 135.0 Horsepower,New Jersey,WL,Wheel Loader,,EROPS,None or Unspecified,,None or Unspecified,,,,,,,,2 Valve,,,,,None or Unspecified,None or Unspecified,,,,,,,,,,,,,Standard,Conventional
5887,2456057,18000,1048216,136,2.0,1997,0.0,,1/31/2009 0:00,L70C,L70,C,,,,Wheel Loader - 120.0 to 135.0 Horsepower,Florida,WL,Wheel Loader,,EROPS w AC,Yes,,None or Unspecified,,,,,,,,2 Valve,,,,,None or Unspecified,Manual,,,,,,,,,,,,,Standard,Conventional
5887,2456058,24000,1663735,136,1.0,1997,0.0,,5/7/2008 0:00,L70C,L70,C,,,,Wheel Loader - 120.0 to 135.0 Horsepower,Texas,WL,Wheel Loader,,EROPS w AC,Yes,,None or Unspecified,,,,,,,,2 Valve,,,,,20.5,None or Unspecified,,,,,,,,,,,,,Standard,Conventional
5887,2456060,40000,1690577,136,1.0,1997,0.0,,4/5/2007 0:00,L70C,L70,C,,,,Wheel Loader - 120.0 to 135.0 Horsepower,Colorado,WL,Wheel Loader,,EROPS,Yes,,None or Unspecified,,,,,,,,2 Valve,,,,,None or Unspecified,Manual,,,,,,,,,,,,,Standard,Conventional
5887,2456062,35000,1751137,136,1.0,1999,0.0,,6/23/2008 0:00,L70C,L70,C,,,,Wheel Loader - 120.0 to 135.0 Horsepower,California,WL,Wheel Loader,,OROPS,Yes,,None or Unspecified,,,,,,,,2 Valve,,,,,20.5,None or Unspecified,,,,,,,,,,,,,Standard,Conventional
5887,2456063,27000,1645755,136,1.0,1000,0.0,,5/14/2009 0:00,L70C,L70,C,,,,Wheel Loader - 120.0 to 135.0 Horsepower,California,WL,Wheel Loader,,EROPS w AC,None or Unspecified,,Yes,,,,,,,,2 Valve,,,,,20.5,Hydraulic,,,,,,,,,,,,,Standard,Conventional
5887,2456064,18000,1671429,136,1.0,1000,0.0,,6/17/2009 0:00,L70C,L70,C,,,,Wheel Loader - 120.0 to 135.0 Horsepower,Washington,WL,Wheel Loader,,EROPS,None or Unspecified,,None or Unspecified,,,,,,,,2 Valve,,,,,None or Unspecified,Hydraulic,,,,,,,,,,,,,Standard,Conventional
5887,2456065,42000,1692108,136,,1998,0.0,,6/26/2007 0:00,L70C,L70,C,,,,Wheel Loader - 120.0 to 135.0 Horsepower,New Mexico,WL,Wheel Loader,,EROPS w AC,Yes,,None or Unspecified,,,,,,,,2 Valve,,,,,20.5,None or Unspecified,,,,,,,,,,,,,Standard,Conventional
5887,2456066,33000,1774860,136,1.0,1998,0.0,,6/26/2008 0:00,L70C,L70,C,,,,Wheel Loader - 120.0 to 135.0 Horsepower,Georgia,WL,Wheel Loader,,EROPS w AC,None or Unspecified,,None or Unspecified,,,,,,,,2 Valve,,,,,None or Unspecified,None or Unspecified,,,,,,,,,,,,,Standard,Conventional
5887,2456067,30000,1782187,136,1.0,1998,0.0,,12/2/2009 0:00,L70C,L70,C,,,,Wheel Loader - 120.0 to 135.0 Horsepower,Texas,WL,Wheel Loader,,EROPS w AC,None or Unspecified,,None or Unspecified,,,,,,,,2 Valve,,,,,None or Unspecified,Manual,,,,,,,,,,,,,Standard,Conventional
5887,2456069,37000,1642218,136,1.0,1998,0.0,,2/12/2010 0:00,L70C,L70,C,,,,Wheel Loader - 120.0 to 135.0 Horsepower,California,WL,Wheel Loader,,EROPS w AC,None or Unspecified,,Yes,,,,,,,,2 Valve,,,,,20.5,Manual,,,,,,,,,,,,,Standard,Conventional
5887,2456071,28000,1726058,136,,1998,0.0,,8/7/2008 0:00,L70C,L70,C,,,,Wheel Loader - 120.0 to 135.0 Horsepower,Florida,WL,Wheel Loader,,OROPS,None or Unspecified,,None or Unspecified,,,,,,,,2 Valve,,,,,None or Unspecified,Hydraulic,,,,,,,,,,,,,Standard,Conventional
5887,2456072,31000,1747651,136,1.0,1998,0.0,,3/26/2009 0:00,L70C,L70,C,,,,Wheel Loader - 120.0 to 135.0 Horsepower,Georgia,WL,Wheel Loader,,EROPS w AC,Yes,,None or Unspecified,,,,,,,,2 Valve,,,,,None or Unspecified,Manual,,,,,,,,,,,,,Standard,Conventional
5887,2456073,37500,1678528,136,1.0,1997,0.0,,9/11/2007 0:00,L70C,L70,C,,,,Wheel Loader - 120.0 to 135.0 Horsepower,Washington,WL,Wheel Loader,,EROPS,None or Unspecified,,None or Unspecified,,,,,,,,2 Valve,,,,,None or Unspecified,Manual,,,,,,,,,,,,,Standard,Conventional
5887,2456074,27500,1708242,136,,1998,0.0,,8/8/2007 0:00,L70C,L70,C,,,,Wheel Loader - 120.0 to 135.0 Horsepower,Florida,WL,Wheel Loader,,EROPS w AC,None or Unspecified,,None or Unspecified,,,,,,,,2 Valve,,,,,None or Unspecified,None or Unspecified,,,,,,,,,,,,,Standard,Conventional
5887,2456075,18500,1719214,136,4.0,1000,0.0,,2/9/2009 0:00,L70C,L70,C,,,,Wheel Loader - 120.0 to 135.0 Horsepower,Florida,WL,Wheel Loader,,OROPS,None or Unspecified,,None or Unspecified,,,,,,,,2 Valve,,,,,None or Unspecified,Manual,,,,,,,,,,,,,Standard,Conventional
5887,2456076,32000,1723513,136,1.0,1000,0.0,,12/16/2008 0:00,L70C,L70,C,,,,Wheel Loader - 120.0 to 135.0 Horsepower,Maryland,WL,Wheel Loader,,EROPS w AC,Yes,,None or Unspecified,,,,,,,,2 Valve,,,,,20.5,Manual,,,,,,,,,,,,,Standard,Conventional
5887,2456078,22000,1755515,136,1.0,1998,0.0,,11/10/2009 0:00,L70C,L70,C,,,,Wheel Loader - 120.0 to 135.0 Horsepower,Michigan,WL,Wheel Loader,,EROPS w AC,None or Unspecified,,None or Unspecified,,,,,,,,2 Valve,,,,,20.5,None or Unspecified,,,,,,,,,,,,,Standard,Conventional
5887,2456079,22000,1750700,136,1.0,1000,0.0,,4/2/2009 0:00,L70C,L70,C,,,,Wheel Loader - 120.0 to 135.0 Horsepower,New Mexico,WL,Wheel Loader,,EROPS w AC,None or Unspecified,,Yes,,,,,,,,2 Valve,,,,,20.5,None or Unspecified,,,,,,,,,,,,,Standard,Conventional
5887,2456081,35000,1667659,136,1.0,1998,0.0,,9/13/2007 0:00,L70C,L70,C,,,,Wheel Loader - 120.0 to 135.0 Horsepower,Arizona,WL,Wheel Loader,,EROPS w AC,None or Unspecified,,None or Unspecified,,,,,,,,2 Valve,,,,,20.5,None or Unspecified,,,,,,,,,,,,,Standard,Conventional
5887,2456082,31000,1640196,136,1.0,1998,0.0,,2/19/2008 0:00,L70C,L70,C,,,,Wheel Loader - 120.0 to 135.0 Horsepower,Florida,WL,Wheel Loader,,OROPS,None or Unspecified,,None or Unspecified,,,,,,,,2 Valve,,,,,20.5,None or Unspecified,,,,,,,,,,,,,Standard,Conventional
5887,2456083,14000,1767972,136,1.0,1998,0.0,,11/13/2008 0:00,L70C,L70,C,,,,Wheel Loader - 120.0 to 135.0 Horsepower,Texas,WL,Wheel Loader,,OROPS,None or Unspecified,,None or Unspecified,,,,,,,,2 Valve,,,,,20.5,None or Unspecified,,,,,,,,,,,,,Standard,Conventional
5887,2456087,21000,1686964,136,1.0,1000,0.0,,8/26/2009 0:00,L70C,L70,C,,,,Wheel Loader - 120.0 to 135.0 Horsepower,Texas,WL,Wheel Loader,,OROPS,Yes,,None or Unspecified,,,,,,,,2 Valve,,,,,20.5,None or Unspecified,,,,,,,,,,,,,Standard,Conventional
5887,2456091,27500,1749804,136,1.0,1999,0.0,,5/8/2009 0:00,L70C,L70,C,,,,Wheel Loader - 120.0 to 135.0 Horsepower,Utah,WL,Wheel Loader,,EROPS w AC,None or Unspecified,,None or Unspecified,,,,,,,,2 Valve,,,,,20.5,None or Unspecified,,,,,,,,,,,,,Standard,Conventional
5887,2456092,50000,1774248,136,1.0,1999,0.0,,4/11/2007 0:00,L70C,L70,C,,,,Wheel Loader - 120.0 to 135.0 Horsepower,Ohio,WL,Wheel Loader,,EROPS,None or Unspecified,,None or Unspecified,,,,,,,,2 Valve,,,,,20.5,Manual,,,,,,,,,,,,,Standard,Conventional
5887,2456094,21000,1656617,136,1.0,1000,0.0,,8/26/2009 0:00,L70C,L70,C,,,,Wheel Loader - 120.0 to 135.0 Horsepower,Texas,WL,Wheel Loader,,OROPS,None or Unspecified,,None or Unspecified,,,,,,,,2 Valve,,,,,20.5,None or Unspecified,,,,,,,,,,,,,Standard,Conventional
5887,2456095,32000,1688837,136,1.0,1999,0.0,,2/19/2008 0:00,L70C,L70,C,,,,Wheel Loader - 120.0 to 135.0 Horsepower,Florida,WL,Wheel Loader,,OROPS,Yes,,None or Unspecified,,,,,,,,2 Valve,,,,,20.5,None or Unspecified,,,,,,,,,,,,,Standard,Conventional
5887,2456097,30000,1706106,136,1.0,1999,0.0,,3/29/2007 0:00,L70C,L70,C,,,,Wheel Loader - 120.0 to 135.0 Horsepower,Texas,WL,Wheel Loader,,OROPS,None or Unspecified,,None or Unspecified,,,,,,,,2 Valve,,,,,None or Unspecified,None or Unspecified,,,,,,,,,,,,,Standard,Conventional
5887,2456098,26000,1778189,136,1.0,1999,0.0,,9/23/2008 0:00,L70C,L70,C,,,,Wheel Loader - 120.0 to 135.0 Horsepower,Ohio,WL,Wheel Loader,,EROPS,Yes,,None or Unspecified,,,,,,,,2 Valve,,,,,None or Unspecified,Hydraulic,,,,,,,,,,,,,Standard,Conventional
5887,2456100,31000,1705708,136,1.0,1000,0.0,,5/14/2009 0:00,L70C,L70,C,,,,Wheel Loader - 120.0 to 135.0 Horsepower,California,WL,Wheel Loader,,EROPS w AC,None or Unspecified,,None or Unspecified,,,,,,,,2 Valve,,,,,20.5,Manual,,,,,,,,,,,,,Standard,Conventional
5887,2456102,27000,1749304,136,,1999,0.0,,10/24/2008 0:00,L70C,L70,C,,,,Wheel Loader - 120.0 to 135.0 Horsepower,Ohio,WL,Wheel Loader,,EROPS,None or Unspecified,,None or Unspecified,,,,,,,,2 Valve,,,,,None or Unspecified,None or Unspecified,,,,,,,,,,,,,Standard,Conventional
5887,2456103,22000,1642377,136,1.0,1998,0.0,,12/17/2009 0:00,L70C,L70,C,,,,Wheel Loader - 120.0 to 135.0 Horsepower,California,WL,Wheel Loader,,OROPS,None or Unspecified,,None or Unspecified,,,,,,,,2 Valve,,,,,None or Unspecified,Manual,,,,,,,,,,,,,Standard,Conventional
5887,2456104,22500,1652780,136,1.0,1999,0.0,,6/29/2010 0:00,L70C,L70,C,,,,Wheel Loader - 120.0 to 135.0 Horsepower,Missouri,WL,Wheel Loader,,EROPS,None or Unspecified,,Yes,,,,,,,,2 Valve,,,,,20.5,None or Unspecified,,,,,,,,,,,,,Standard,Conventional
5887,2456598,45000,1755700,136,,1999,0.0,,5/9/2007 0:00,L70C,L70,C,,,,Wheel Loader - 120.0 to 135.0 Horsepower,Texas,WL,Wheel Loader,,EROPS,None or Unspecified,,None or Unspecified,,,,,,,,2 Valve,,,,,None or Unspecified,None or Unspecified,,,,,,,,,,,,,Standard,Conventional
5887,2456737,25000,1727646,136,,1995,0.0,,9/18/2009 0:00,L70C,L70,C,,,,Wheel Loader - 120.0 to 135.0 Horsepower,Indiana,WL,Wheel Loader,,EROPS,Yes,,None or Unspecified,,,,,,,,2 Valve,,,,,None or Unspecified,Manual,,,,,,,,,,,,,Standard,Conventional
5887,2456792,20000,1683663,136,,1000,0.0,,10/23/2008 0:00,L70C,L70,C,,,,Wheel Loader - 120.0 to 135.0 Horsepower,Texas,WL,Wheel Loader,,OROPS,None or Unspecified,,None or Unspecified,,,,,,,,2 Valve,,,,,None or Unspecified,None or Unspecified,,,,,,,,,,,,,Standard,Conventional
5887,2456807,27000,1643770,136,,1999,0.0,,5/23/2007 0:00,L70C,L70,C,,,,Wheel Loader - 120.0 to 135.0 Horsepower,Florida,WL,Wheel Loader,,OROPS,Yes,,None or Unspecified,,,,,,,,2 Valve,,,,,None or Unspecified,None or Unspecified,,,,,,,,,,,,,Standard,Conventional
5887,2456810,25500,1767315,136,7.0,1000,0.0,,6/6/2007 0:00,L70C,L70,C,,,,Wheel Loader - 120.0 to 135.0 Horsepower,Alabama,WL,Wheel Loader,,EROPS w AC,None or Unspecified,,None or Unspecified,,,,,,,,2 Valve,,,,,20.5,Manual,,,,,,,,,,,,,Standard,Conventional
5887,2747623,15500,1833024,149,1.0,1997,,,7/15/2010 0:00,L70C,L70,C,,,,Wheel Loader - 120.0 to 135.0 Horsepower,Texas,WL,Wheel Loader,,EROPS,Yes,,None or Unspecified,,,,,,,,2 Valve,,,,,20.5,None or Unspecified,,,,,,,,,,,,,Standard,Conventional
5887,2747630,19000,1871206,149,1.0,1998,,,7/15/2010 0:00,L70C,L70,C,,,,Wheel Loader - 120.0 to 135.0 Horsepower,Texas,WL,Wheel Loader,,EROPS,Yes,,None or Unspecified,,,,,,,,2 Valve,,,,,20.5,None or Unspecified,,,,,,,,,,,,,Standard,Conventional
5887,2747641,22500,1908017,149,1.0,1999,,,7/15/2010 0:00,L70C,L70,C,,,,Wheel Loader - 120.0 to 135.0 Horsepower,Texas,WL,Wheel Loader,,EROPS,None or Unspecified,,None or Unspecified,,,,,,,,2 Valve,,,,,20.5,None or Unspecified,,,,,,,,,,,,,Standard,Conventional
5887,2747661,17500,1834839,149,4.0,1998,,,2/7/2011 0:00,L70C,L70,C,,,,Wheel Loader - 120.0 to 135.0 Horsepower,Florida,WL,Wheel Loader,,OROPS,Yes,,None or Unspecified,,,,,,,,2 Valve,,,,,None or Unspecified,Manual,,,,,,,,,,,,,Standard,Conventional
5887,2747673,12000,1823231,149,2.0,1998,,,8/25/2010 0:00,L70C,L70,C,,,,Wheel Loader - 120.0 to 135.0 Horsepower,Texas,WL,Wheel Loader,,OROPS,None or Unspecified,,None or Unspecified,,,,,,,,2 Valve,,,,,None or Unspecified,None or Unspecified,,,,,,,,,,,,,Standard,Conventional
5887,2754100,27500,1861196,149,1.0,1995,9949.0,Medium,2/15/2011 0:00,L70C,L70,C,,,,Wheel Loader - 120.0 to 135.0 Horsepower,Florida,WL,Wheel Loader,,EROPS w AC,None or Unspecified,,None or Unspecified,,,,,,,,2 Valve,,,,,20.5,Manual,,,,,,,,,,,,,Standard,Conventional
5887,2754113,34000,1799550,149,1.0,1997,,,9/23/2010 0:00,L70C,L70,C,,,,Wheel Loader - 120.0 to 135.0 Horsepower,Illinois,WL,Wheel Loader,,EROPS,None or Unspecified,,None or Unspecified,,,,,,,,2 Valve,,,,,20.5,None or Unspecified,,,,,,,,,,,,,Standard,Conventional
5887,2754122,24000,1807572,149,2.0,1998,,,11/6/2010 0:00,L70C,L70,C,,,,Wheel Loader - 120.0 to 135.0 Horsepower,Wisconsin,WL,Wheel Loader,,EROPS,None or Unspecified,,None or Unspecified,,,,,,,,2 Valve,,,,,None or Unspecified,None or Unspecified,,,,,,,,,,,,,Standard,Conventional
5887,2754127,25000,1907302,149,1.0,1998,8916.0,Medium,5/18/2011 0:00,L70C,L70,C,,,,Wheel Loader - 120.0 to 135.0 Horsepower,Florida,WL,Wheel Loader,,EROPS w AC,None or Unspecified,,None or Unspecified,,,,,,,,2 Valve,,,,,20.5,None or Unspecified,,,,,,,,,,,,,Standard,Conventional
5887,2754129,19500,1801972,149,2.0,1998,,,12/15/2010 0:00,L70C,L70,C,,,,Wheel Loader - 120.0 to 135.0 Horsepower,Florida,WL,Wheel Loader,,EROPS,None or Unspecified,,None or Unspecified,,,,,,,,2 Valve,,,,,None or Unspecified,None or Unspecified,,,,,,,,,,,,,Standard,Conventional
5887,2754133,31000,1667659,149,1.0,1998,16928.0,Medium,12/14/2010 0:00,L70C,L70,C,,,,Wheel Loader - 120.0 to 135.0 Horsepower,California,WL,Wheel Loader,,EROPS w AC,None or Unspecified,,None or Unspecified,,,,,,,,2 Valve,,,,,20.5,None or Unspecified,,,,,,,,,,,,,Standard,Conventional
5887,2754134,29000,1869823,149,1.0,1998,,,9/29/2010 0:00,L70C,L70,C,,,,Wheel Loader - 120.0 to 135.0 Horsepower,Texas,WL,Wheel Loader,,EROPS w AC,Yes,,None or Unspecified,,,,,,,,2 Valve,,,,,20.5,None or Unspecified,,,,,,,,,,,,,Standard,Conventional
5887,2754138,34000,1903902,149,1.0,1999,12124.0,Medium,3/29/2011 0:00,L70C,L70,C,,,,Wheel Loader - 120.0 to 135.0 Horsepower,Minnesota,WL,Wheel Loader,,EROPS w AC,Yes,,Yes,,,,,,,,2 Valve,,,,,20.5,None or Unspecified,,,,,,,,,,,,,Standard,Conventional
5887,2754139,36000,1806019,149,1.0,1999,8822.0,Medium,5/11/2011 0:00,L70C,L70,C,,,,Wheel Loader - 120.0 to 135.0 Horsepower,Texas,WL,Wheel Loader,,EROPS,None or Unspecified,,None or Unspecified,,,,,,,,2 Valve,,,,,20.5,None or Unspecified,,,,,,,,,,,,,Standard,Conventional
5887,2754141,20000,1863083,149,1.0,1999,7306.0,Medium,2/15/2011 0:00,L70C,L70,C,,,,Wheel Loader - 120.0 to 135.0 Horsepower,Florida,WL,Wheel Loader,,OROPS,None or Unspecified,,None or Unspecified,,,,,,,,2 Valve,,,,,20.5,Manual,,,,,,,,,,,,,Standard,Conventional
5887,2754874,37500,1798883,149,2.0,1998,,,6/18/2011 0:00,L70C,L70,C,,,,Wheel Loader - 120.0 to 135.0 Horsepower,New Jersey,WL,Wheel Loader,,EROPS,None or Unspecified,,None or Unspecified,,,,,,,,3 Valve,,,,,None or Unspecified,Hydraulic,,,,,,,,,,,,,Standard,Conventional
5887,4394729,27500,1696028,172,1.0,1996,,,5/6/2009 0:00,L70C,L70,C,,,,Wheel Loader - 120.0 to 135.0 Horsepower,Texas,WL,Wheel Loader,,EROPS w AC,None or Unspecified,,Yes,,,,,,,,2 Valve,,,,,20.5,Manual,,,,,,,,,,,,,Standard,Conventional
5887,4394731,26000,1696028,172,1.0,1996,8248.0,Medium,2/5/2010 0:00,L70C,L70,C,,,,Wheel Loader - 120.0 to 135.0 Horsepower,Nevada,WL,Wheel Loader,,EROPS w AC,None or Unspecified,,Yes,,,,,,,,2 Valve,,,,,20.5,Manual,,,,,,,,,,,,,Standard,Conventional
5887,4394738,15500,2307505,172,1.0,1997,12885.0,Medium,7/15/2010 0:00,L70C,L70,C,,,,Wheel Loader - 120.0 to 135.0 Horsepower,Texas,WL,Wheel Loader,,EROPS,Yes,,None or Unspecified,,,,,,,,2 Valve,,,,,20.5,None or Unspecified,,,,,,,,,,,,,Standard,Conventional
5887,4394739,19000,2269623,172,1.0,1998,12324.0,Medium,7/15/2010 0:00,L70C,L70,C,,,,Wheel Loader - 120.0 to 135.0 Horsepower,Texas,WL,Wheel Loader,,EROPS,Yes,,None or Unspecified,,,,,,,,2 Valve,,,,,20.5,None or Unspecified,,,,,,,,,,,,,Standard,Conventional
5887,4394741,22500,2299366,172,1.0,1998,14662.0,Medium,7/15/2010 0:00,L70C,L70,C,,,,Wheel Loader - 120.0 to 135.0 Horsepower,Texas,WL,Wheel Loader,,EROPS,None or Unspecified,,None or Unspecified,,,,,,,,2 Valve,,,,,20.5,None or Unspecified,,,,,,,,,,,,,Standard,Conventional
5887,4394749,22000,2296720,172,1.0,1999,6868.0,Medium,12/17/2009 0:00,L70C,L70,C,,,,Wheel Loader - 120.0 to 135.0 Horsepower,California,WL,Wheel Loader,,OROPS,None or Unspecified,,None or Unspecified,,,,,,,,2 Valve,,,,,20.5,None or Unspecified,,,,,,,,,,,,,Standard,Conventional
5887,4394762,39000,2289985,172,1.0,1999,7138.0,Medium,5/12/2010 0:00,L70C,L70,C,,,,Wheel Loader - 120.0 to 135.0 Horsepower,California,WL,Wheel Loader,,EROPS w AC,None or Unspecified,,None or Unspecified,,,,,,,,2 Valve,,,,,20.5,None or Unspecified,,,,,,,,,,,,,Standard,Conventional
5887,4394770,19000,2284439,172,1.0,1998,14114.0,Medium,10/3/2011 0:00,L70C,L70,C,,,,Wheel Loader - 120.0 to 135.0 Horsepower,Texas,WL,Wheel Loader,,EROPS w AC,Yes,,Yes,,,,,,,,2 Valve,,,,,20.5,None or Unspecified,,,,,,,,,,,,,Standard,Conventional
5887,4394778,25000,2284439,172,1.0,1999,4769.0,Low,11/15/2011 0:00,L70C,L70,C,,,,Wheel Loader - 120.0 to 135.0 Horsepower,Texas,WL,Wheel Loader,,EROPS w AC,Yes,,Yes,,,,,,,,2 Valve,,,,,20.5,None or Unspecified,,,,,,,,,,,,,Standard,Conventional
5887,4394785,31000,2284439,172,1.0,1999,11829.0,Medium,7/26/2011 0:00,L70C,L70,C,,,,Wheel Loader - 120.0 to 135.0 Horsepower,Texas,WL,Wheel Loader,,EROPS w AC,Yes,,Yes,,,,,,,,2 Valve,,,,,20.5,None or Unspecified,,,,,,,,,,,,,Standard,Conventional
5887,4394786,22000,2284439,172,1.0,1998,9149.0,Medium,8/16/2011 0:00,L70C,L70,C,,,,Wheel Loader - 120.0 to 135.0 Horsepower,Florida,WL,Wheel Loader,,EROPS w AC,Yes,,Yes,,,,,,,,2 Valve,,,,,20.5,None or Unspecified,,,,,,,,,,,,,Standard,Conventional
5887,4394787,21500,2284439,172,1.0,1995,11168.0,Medium,6/29/2011 0:00,L70C,L70,C,,,,Wheel Loader - 120.0 to 135.0 Horsepower,North Carolina,WL,Wheel Loader,,EROPS w AC,Yes,,Yes,,,,,,,,2 Valve,,,,,20.5,None or Unspecified,,,,,,,,,,,,,Standard,Conventional
5887,4394865,38000,2300498,172,1.0,2003,9246.0,High,7/9/2009 0:00,L70C,L70,C,,,,Wheel Loader - 120.0 to 135.0 Horsepower,Texas,WL,Wheel Loader,,EROPS w AC,None or Unspecified,,None or Unspecified,,,,,,,,2 Valve,,,,,20.5,None or Unspecified,,,,,,,,,,,,,Standard,Conventional
5887,4395265,17500,2303712,172,1.0,1999,10046.0,High,5/6/2009 0:00,L70C,L70,C,,,,Wheel Loader - 120.0 to 135.0 Horsepower,Texas,WL,Wheel Loader,,EROPS w AC,,,,,,,,,,,Auxiliary,,,,,,None or Unspecified,,,,,,,,,,,,,,
5887,6318527,27500,1875773,149,13.0,1998,,,9/17/2011 0:00,L70C,L70,C,,,,Wheel Loader - 120.0 to 135.0 Horsepower,Tennessee,WL,Wheel Loader,,EROPS w AC,None or Unspecified,,None or Unspecified,,,,,,,,2 Valve,,,,,None or Unspecified,Manual,,,,,,,,,,,,,Standard,Conventional
5887,6320287,21500,1916881,149,1.0,1995,,,6/30/2011 0:00,L70C,L70,C,,,,Wheel Loader - 120.0 to 135.0 Horsepower,North Carolina,WL,Wheel Loader,,EROPS,None or Unspecified,,None or Unspecified,,,,,,,,2 Valve,,,,,20.5,None or Unspecified,,,,,,,,,,,,,Standard,Conventional
5887,6320296,22000,1821900,149,1.0,1998,,,8/17/2011 0:00,L70C,L70,C,,,,Wheel Loader - 120.0 to 135.0 Horsepower,Florida,WL,Wheel Loader,,OROPS,None or Unspecified,,None or Unspecified,,,,,,,,2 Valve,,,,,None or Unspecified,Hydraulic,,,,,,,,,,,,,Standard,Conventional
5887,6320297,26000,1893940,149,2.0,1998,,,8/16/2011 0:00,L70C,L70,C,,,,Wheel Loader - 120.0 to 135.0 Horsepower,Florida,WL,Wheel Loader,,EROPS w AC,None or Unspecified,,None or Unspecified,,,,,,,,2 Valve,,,,,None or Unspecified,None or Unspecified,,,,,,,,,,,,,Standard,Conventional
5887,6320299,19000,1894536,149,1.0,1997,,,10/4/2011 0:00,L70C,L70,C,,,,Wheel Loader - 120.0 to 135.0 Horsepower,Texas,WL,Wheel Loader,,OROPS,Yes,,None or Unspecified,,,,,,,,2 Valve,,,,,None or Unspecified,None or Unspecified,,,,,,,,,,,,,Standard,Conventional
5887,6320300,24000,1811764,149,2.0,1999,,,10/25/2011 0:00,L70C,L70,C,,,,Wheel Loader - 120.0 to 135.0 Horsepower,Florida,WL,Wheel Loader,,EROPS,None or Unspecified,,None or Unspecified,,,,,,,,2 Valve,,,,,None or Unspecified,None or Unspecified,,,,,,,,,,,,,Standard,Conventional
5887,6320301,25000,1944330,149,1.0,1999,,,11/16/2011 0:00,L70C,L70,C,,,,Wheel Loader - 120.0 to 135.0 Horsepower,Texas,WL,Wheel Loader,,OROPS,None or Unspecified,,None or Unspecified,,,,,,,,2 Valve,,,,,20.5,None or Unspecified,,,,,,,,,,,,,Standard,Conventional
5887,6320303,19000,1891343,149,8.0,1999,,,11/16/2011 0:00,L70C,L70,C,,,,Wheel Loader - 120.0 to 135.0 Horsepower,Mississippi,WL,Wheel Loader,,OROPS,None or Unspecified,,None or Unspecified,,,,,,,,2 Valve,,,,,None or Unspecified,None or Unspecified,,,,,,,,,,,,,Standard,Conventional
5887,6320305,31000,1942675,149,1.0,1999,,,7/27/2011 0:00,L70C,L70,C,,,,Wheel Loader - 120.0 to 135.0 Horsepower,Texas,WL,Wheel Loader,,OROPS,None or Unspecified,,None or Unspecified,,,,,,,,2 Valve,,,,,None or Unspecified,None or Unspecified,,,,,,,,,,,,,Standard,Conventional
