ModelID,SalesID,SalePrice,MachineID,datasource,auctioneerID,YearMade,MachineHoursCurrentMeter,UsageBand,saledate,fiModelDesc,fiBaseModel,fiSecondaryDesc,fiModelSeries,fiModelDescriptor,ProductSize,fiProductClassDesc,state,ProductGroup,ProductGroupDesc,Drive_System,Enclosure,Forks,Pad_Type,Ride_Control,Stick,Transmission,Turbocharged,Blade_Extension,Blade_Width,Enclosure_Type,Engine_Horsepower,Hydraulics,Pushblock,Ripper,Scarifier,Tip_Control,Tire_Size,Coupler,Coupler_System,Grouser_Tracks,Hydraulics_Flow,Track_Type,Undercarriage_Pad_Width,Stick_Length,Thumb,Pattern_Changer,Grouser_Type,Backhoe_Mounting,Blade_Type,Travel_Controls,Differential_Type,Steering_Controls
5895,1169620,9000,1013965,121,3.0,2000,2445.0,Medium,7/1/2004 0:00,ZL402C,ZL402,C,,,Compact,Wheel Loader - 0.0 to 40.0 Horsepower,Alabama,WL,Wheel Loader,,OROPS,Yes,,None or Unspecified,,,,,,,,2 Valve,,,,,None or Unspecified,None or Unspecified,,,,,,,,,,,,,Standard,Conventional
5895,1173465,20500,1036089,121,3.0,2001,2099.0,Medium,7/15/2004 0:00,ZL402C,ZL402,C,,,Compact,Wheel Loader - 0.0 to 40.0 Horsepower,Georgia,WL,Wheel Loader,,EROPS,None or Unspecified,,None or Unspecified,,,,,,,,2 Valve,,,,,None or Unspecified,None or Unspecified,,,,,,,,,,,,,Standard,Conventional
5895,1177428,17500,1020391,121,3.0,2001,2037.0,Low,4/3/2008 0:00,ZL402C,ZL402,C,,,Compact,Wheel Loader - 0.0 to 40.0 Horsepower,Arkansas,WL,Wheel Loader,,EROPS,Yes,,None or Unspecified,,,,,,,,2 Valve,,,,,None or Unspecified,None or Unspecified,,,,,,,,,,,,,Standard,Conventional
5895,2749695,13500,1829645,149,1.0,2001,5000.0,Low,4/14/2011 0:00,ZL402C,ZL402,C,,,Compact,Wheel Loader - 0.0 to 40.0 Horsepower,Connecticut,WL,Wheel Loader,,EROPS w AC,Yes,,None or Unspecified,,,,,,,,2 Valve,,,,,None or Unspecified,None or Unspecified,,,,,,,,,,,,,Standard,Conventional
5895,2750777,13000,1895916,149,5.0,1999,4652.0,Low,9/24/2010 0:00,ZL402C,ZL402,C,,,Compact,Wheel Loader - 0.0 to 40.0 Horsepower,Connecticut,WL,Wheel Loader,,OROPS,Yes,,None or Unspecified,,,,,,,,2 Valve,,,,,None or Unspecified,None or Unspecified,,,,,,,,,,,,,Standard,Conventional
