SalesID,2460622
SalePrice,13000
MachineID,1659061
datasource,136
auctioneerID,
YearMade,1000
MachineHoursCurrentMeter,919.0
UsageBand,Low
saledate,5/9/2009 0:00
fiModelDesc,515B
fiBaseModel,515
fiSecondaryDesc,B
fiModelSeries,
fiModelDescriptor,
ProductSize,
fiProductClassDesc,Wheel Loader - 90.0 to 100.0 Horsepower
state,California
ProductGroup,WL
ProductGroupDesc,Wheel Loader
Drive_System,
Enclosure,EROPS
Forks,None or Unspecified
Pad_Type,
Ride_Control,None or Unspecified
Stick,
Transmission,
Turbocharged,
Blade_Extension,
Blade_Width,
Enclosure_Type,
Engine_Horsepower,
Hydraulics,2 Valve
Pushblock,
Ripper,
Scarifier,
Tip_Control,
Tire_Size,17.5
Coupler,None or Unspecified
Coupler_System,
Grouser_Tracks,
Hydraulics_Flow,
Track_Type,
Undercarriage_Pad_Width,
Stick_Length,
Thumb,
Pattern_Changer,
Grouser_Type,
Backhoe_Mounting,
Blade_Type,
Travel_Controls,
Differential_Type,Standard
Steering_Controls,Conventional
