ModelID,SalesID,SalePrice,MachineID,datasource,auctioneerID,YearMade,MachineHoursCurrentMeter,UsageBand,saledate,fiModelDesc,fiBaseModel,fiSecondaryDesc,fiModelSeries,fiModelDescriptor,ProductSize,fiProductClassDesc,state,ProductGroup,ProductGroupDesc,Drive_System,Enclosure,Forks,Pad_Type,Ride_Control,Stick,Transmission,Turbocharged,Blade_Extension,Blade_Width,Enclosure_Type,Engine_Horsepower,Hydraulics,Pushblock,Ripper,Scarifier,Tip_Control,Tire_Size,Coupler,Coupler_System,Grouser_Tracks,Hydraulics_Flow,Track_Type,Undercarriage_Pad_Width,Stick_Length,Thumb,Pattern_Changer,Grouser_Type,Backhoe_Mounting,Blade_Type,Travel_Controls,Differential_Type,Steering_Controls
6004,1875748,7750,1094784,132,2.0,1993,,,11/14/1998 0:00,940E,940,E,,,,Skid Steer Loader - 1251.0 to 1351.0 Lb Operating Capacity,New York,SSL,Skid Steer Loaders,,OROPS,None or Unspecified,,,,,,,,,,Standard,,,,,,None or Unspecified,None or Unspecified,None or Unspecified,Standard,,,,,,,,,,,
6004,1875776,7000,1407083,132,2.0,1993,,,11/14/1998 0:00,940E,940,E,,,,Skid Steer Loader - 1251.0 to 1351.0 Lb Operating Capacity,New York,SSL,Skid Steer Loaders,,OROPS,None or Unspecified,,,,,,,,,,Standard,,,,,,None or Unspecified,None or Unspecified,None or Unspecified,Standard,,,,,,,,,,,
6004,1875964,14250,1228978,132,2.0,1000,,,8/1/1998 0:00,940E,940,E,,,,Skid Steer Loader - 1251.0 to 1351.0 Lb Operating Capacity,Ohio,SSL,Skid Steer Loaders,,OROPS,None or Unspecified,,,,,,,,,,Standard,,,,,,None or Unspecified,None or Unspecified,None or Unspecified,Standard,,,,,,,,,,,
6004,1875972,6500,1263249,132,1.0,1995,,,8/26/1999 0:00,940E,940,E,,,,Skid Steer Loader - 1251.0 to 1351.0 Lb Operating Capacity,Texas,SSL,Skid Steer Loaders,,OROPS,None or Unspecified,,,,,,,,,,Standard,,,,,,None or Unspecified,None or Unspecified,None or Unspecified,Standard,,,,,,,,,,,
6004,1875977,5000,1111023,132,14.0,1995,,,6/14/2002 0:00,940E,940,E,,,,Skid Steer Loader - 1251.0 to 1351.0 Lb Operating Capacity,Indiana,SSL,Skid Steer Loaders,,OROPS,None or Unspecified,,,,,,,,,,Standard,,,,,,None or Unspecified,None or Unspecified,None or Unspecified,Standard,,,,,,,,,,,
6004,1876011,6450,1491239,132,14.0,1995,659.0,Low,9/10/1999 0:00,940E,940,E,,,,Skid Steer Loader - 1251.0 to 1351.0 Lb Operating Capacity,Ohio,SSL,Skid Steer Loaders,,OROPS,None or Unspecified,,,,,,,,,,Standard,,,,,,None or Unspecified,None or Unspecified,None or Unspecified,Standard,,,,,,,,,,,
6004,1876012,5000,1478784,132,4.0,1000,,,2/13/2007 0:00,940E,940,E,,,,Skid Steer Loader - 1251.0 to 1351.0 Lb Operating Capacity,Florida,SSL,Skid Steer Loaders,,OROPS,None or Unspecified,,,,,,,,,,Standard,,,,,,None or Unspecified,None or Unspecified,None or Unspecified,Standard,,,,,,,,,,,
6004,1876013,5000,1478784,132,4.0,1000,,,2/12/2007 0:00,940E,940,E,,,,Skid Steer Loader - 1251.0 to 1351.0 Lb Operating Capacity,Florida,SSL,Skid Steer Loaders,,OROPS,None or Unspecified,,,,,,,,,,Standard,,,,,,None or Unspecified,None or Unspecified,None or Unspecified,Standard,,,,,,,,,,,
6004,1876016,6750,1418995,132,5.0,1996,,,3/24/2000 0:00,940E,940,E,,,,Skid Steer Loader - 1251.0 to 1351.0 Lb Operating Capacity,Connecticut,SSL,Skid Steer Loaders,,OROPS,None or Unspecified,,,,,,,,,,Standard,,,,,,None or Unspecified,None or Unspecified,None or Unspecified,Standard,,,,,,,,,,,
6004,1876018,7000,1174898,132,6.0,1995,,,3/26/1998 0:00,940E,940,E,,,,Skid Steer Loader - 1251.0 to 1351.0 Lb Operating Capacity,New Mexico,SSL,Skid Steer Loaders,,OROPS,None or Unspecified,,,,,,,,,,Standard,,,,,,None or Unspecified,None or Unspecified,None or Unspecified,Standard,,,,,,,,,,,
6004,1876020,9500,536167,132,1.0,1995,,,4/1/1997 0:00,940E,940,E,,,,Skid Steer Loader - 1251.0 to 1351.0 Lb Operating Capacity,Florida,SSL,Skid Steer Loaders,,OROPS,None or Unspecified,,,,,,,,,,Standard,,,,,,None or Unspecified,None or Unspecified,None or Unspecified,Standard,,,,,,,,,,,
6004,1876022,7500,787791,132,1.0,1995,,,8/16/2001 0:00,940E,940,E,,,,Skid Steer Loader - 1251.0 to 1351.0 Lb Operating Capacity,Florida,SSL,Skid Steer Loaders,,OROPS,None or Unspecified,,,,,,,,,,Standard,,,,,,None or Unspecified,None or Unspecified,None or Unspecified,Standard,,,,,,,,,,,
6004,1876024,7000,1384593,132,1.0,1995,,,3/16/1999 0:00,940E,940,E,,,,Skid Steer Loader - 1251.0 to 1351.0 Lb Operating Capacity,Texas,SSL,Skid Steer Loaders,,OROPS,None or Unspecified,,,,,,,,,,Standard,,,,,,None or Unspecified,None or Unspecified,None or Unspecified,Standard,,,,,,,,,,,
6004,1876027,7500,1251731,132,1.0,1995,,,3/14/2000 0:00,940E,940,E,,,,Skid Steer Loader - 1251.0 to 1351.0 Lb Operating Capacity,Texas,SSL,Skid Steer Loaders,,OROPS,None or Unspecified,,,,,,,,,,Standard,,,,,,None or Unspecified,None or Unspecified,None or Unspecified,Standard,,,,,,,,,,,
6004,1876032,7000,100279,132,1.0,1995,,,3/26/2002 0:00,940E,940,E,,,,Skid Steer Loader - 1251.0 to 1351.0 Lb Operating Capacity,Maryland,SSL,Skid Steer Loaders,,OROPS,None or Unspecified,,,,,,,,,,Standard,,,,,,Manual,None or Unspecified,None or Unspecified,Standard,,,,,,,,,,,
6004,1876037,7500,1270202,132,1.0,1995,,,11/16/1999 0:00,940E,940,E,,,,Skid Steer Loader - 1251.0 to 1351.0 Lb Operating Capacity,Missouri,SSL,Skid Steer Loaders,,OROPS,None or Unspecified,,,,,,,,,,Standard,,,,,,None or Unspecified,None or Unspecified,None or Unspecified,Standard,,,,,,,,,,,
6004,1876038,7000,1227864,132,6.0,1995,,,11/12/1998 0:00,940E,940,E,,,,Skid Steer Loader - 1251.0 to 1351.0 Lb Operating Capacity,Missouri,SSL,Skid Steer Loaders,,OROPS,None or Unspecified,,,,,,,,,,Standard,,,,,,None or Unspecified,None or Unspecified,None or Unspecified,Standard,,,,,,,,,,,
6004,1876040,7500,1490965,132,6.0,1995,1160.0,Medium,12/10/1998 0:00,940E,940,E,,,,Skid Steer Loader - 1251.0 to 1351.0 Lb Operating Capacity,North Carolina,SSL,Skid Steer Loaders,,OROPS,None or Unspecified,,,,,,,,,,Standard,,,,,,None or Unspecified,None or Unspecified,None or Unspecified,Standard,,,,,,,,,,,
6004,1876194,13500,1475325,132,25.0,1995,,,5/3/1997 0:00,940E,940,E,,,,Skid Steer Loader - 1251.0 to 1351.0 Lb Operating Capacity,California,SSL,Skid Steer Loaders,,OROPS,None or Unspecified,,,,,,,,,,Standard,,,,,,None or Unspecified,None or Unspecified,None or Unspecified,Standard,,,,,,,,,,,
6004,1876195,7000,1307163,132,1.0,1996,,,3/10/2004 0:00,940E,940,E,,,,Skid Steer Loader - 1251.0 to 1351.0 Lb Operating Capacity,California,SSL,Skid Steer Loaders,,OROPS,None or Unspecified,,,,,,,,,,Standard,,,,,,None or Unspecified,None or Unspecified,None or Unspecified,Standard,,,,,,,,,,,
6004,1876197,7000,1373451,132,1.0,1995,,,3/16/1999 0:00,940E,940,E,,,,Skid Steer Loader - 1251.0 to 1351.0 Lb Operating Capacity,Texas,SSL,Skid Steer Loaders,,OROPS,None or Unspecified,,,,,,,,,,Standard,,,,,,None or Unspecified,None or Unspecified,None or Unspecified,Standard,,,,,,,,,,,
6004,1876199,10300,1177524,132,2.0,1995,216.0,Low,3/15/1997 0:00,940E,940,E,,,,Skid Steer Loader - 1251.0 to 1351.0 Lb Operating Capacity,Maine,SSL,Skid Steer Loaders,,OROPS,None or Unspecified,,,,,,,,,,Standard,,,,,,None or Unspecified,None or Unspecified,None or Unspecified,Standard,,,,,,,,,,,
6004,1876207,7750,530757,132,7.0,1996,,,3/2/2000 0:00,940E,940,E,,,,Skid Steer Loader - 1251.0 to 1351.0 Lb Operating Capacity,Alabama,SSL,Skid Steer Loaders,,OROPS,None or Unspecified,,,,,,,,,,Standard,,,,,,None or Unspecified,None or Unspecified,None or Unspecified,Standard,,,,,,,,,,,
6004,1876211,8000,1479599,132,1.0,1996,,,12/5/2000 0:00,940E,940,E,,,,Skid Steer Loader - 1251.0 to 1351.0 Lb Operating Capacity,Illinois,SSL,Skid Steer Loaders,,OROPS,None or Unspecified,,,,,,,,,,Standard,,,,,,None or Unspecified,None or Unspecified,None or Unspecified,Standard,,,,,,,,,,,
6004,1876212,7000,1081473,132,1.0,1995,,,6/30/1999 0:00,940E,940,E,,,,Skid Steer Loader - 1251.0 to 1351.0 Lb Operating Capacity,New Mexico,SSL,Skid Steer Loaders,,OROPS,None or Unspecified,,,,,,,,,,Standard,,,,,,None or Unspecified,None or Unspecified,None or Unspecified,Standard,,,,,,,,,,,
6004,1876213,5400,1124851,132,14.0,1996,,,3/22/2002 0:00,940E,940,E,,,,Skid Steer Loader - 1251.0 to 1351.0 Lb Operating Capacity,Indiana,SSL,Skid Steer Loaders,,OROPS,None or Unspecified,,,,,,,,,,Standard,,,,,,None or Unspecified,None or Unspecified,None or Unspecified,Standard,,,,,,,,,,,
6004,1876217,7000,1343850,132,22.0,1996,,,12/18/1999 0:00,940E,940,E,,,,Skid Steer Loader - 1251.0 to 1351.0 Lb Operating Capacity,Minnesota,SSL,Skid Steer Loaders,,OROPS,None or Unspecified,,,,,,,,,,Standard,,,,,,None or Unspecified,None or Unspecified,None or Unspecified,Standard,,,,,,,,,,,
6004,1876220,9000,1171589,132,10.0,1996,563.0,Low,11/11/1999 0:00,940E,940,E,,,,Skid Steer Loader - 1251.0 to 1351.0 Lb Operating Capacity,Louisiana,SSL,Skid Steer Loaders,,OROPS,None or Unspecified,,,,,,,,,,Standard,,,,,,None or Unspecified,None or Unspecified,None or Unspecified,Standard,,,,,,,,,,,
6004,1876221,9500,1320042,132,10.0,1996,,,8/18/1999 0:00,940E,940,E,,,,Skid Steer Loader - 1251.0 to 1351.0 Lb Operating Capacity,Louisiana,SSL,Skid Steer Loaders,,OROPS,None or Unspecified,,,,,,,,,,Standard,,,,,,None or Unspecified,None or Unspecified,None or Unspecified,Standard,,,,,,,,,,,
6004,1876222,8500,1210789,132,10.0,1996,,,11/11/1999 0:00,940E,940,E,,,,Skid Steer Loader - 1251.0 to 1351.0 Lb Operating Capacity,Louisiana,SSL,Skid Steer Loaders,,OROPS,None or Unspecified,,,,,,,,,,Standard,,,,,,None or Unspecified,None or Unspecified,None or Unspecified,Standard,,,,,,,,,,,
6004,1876223,8500,1333656,132,10.0,1996,243.0,Low,11/11/1999 0:00,940E,940,E,,,,Skid Steer Loader - 1251.0 to 1351.0 Lb Operating Capacity,Louisiana,SSL,Skid Steer Loaders,,OROPS,None or Unspecified,,,,,,,,,,Standard,,,,,,None or Unspecified,None or Unspecified,None or Unspecified,Standard,,,,,,,,,,,
6004,1876228,5000,1555364,132,7.0,1997,,,9/6/2001 0:00,940E,940,E,,,,Skid Steer Loader - 1251.0 to 1351.0 Lb Operating Capacity,Alabama,SSL,Skid Steer Loaders,,OROPS,None or Unspecified,,,,,,,,,,Standard,,,,,,None or Unspecified,None or Unspecified,None or Unspecified,Standard,,,,,,,,,,,
6004,1876230,9000,1533133,132,2.0,1996,,,6/27/1998 0:00,940E,940,E,,,,Skid Steer Loader - 1251.0 to 1351.0 Lb Operating Capacity,New York,SSL,Skid Steer Loaders,,OROPS,None or Unspecified,,,,,,,,,,Standard,,,,,,None or Unspecified,None or Unspecified,None or Unspecified,Standard,,,,,,,,,,,
6004,1876232,8750,1116534,132,2.0,1997,,,5/15/1999 0:00,940E,940,E,,,,Skid Steer Loader - 1251.0 to 1351.0 Lb Operating Capacity,New York,SSL,Skid Steer Loaders,,OROPS,None or Unspecified,,,,,,,,,,Standard,,,,,,None or Unspecified,None or Unspecified,None or Unspecified,Standard,,,,,,,,,,,
6004,1876236,6500,1089025,132,1.0,1996,,,9/13/2005 0:00,940E,940,E,,,,Skid Steer Loader - 1251.0 to 1351.0 Lb Operating Capacity,Ohio,SSL,Skid Steer Loaders,,OROPS,None or Unspecified,,,,,,,,,,Standard,,,,,,None or Unspecified,None or Unspecified,None or Unspecified,Standard,,,,,,,,,,,
6004,1876237,5000,1331553,132,1.0,1996,,,11/16/2001 0:00,940E,940,E,,,,Skid Steer Loader - 1251.0 to 1351.0 Lb Operating Capacity,Ohio,SSL,Skid Steer Loaders,,OROPS,None or Unspecified,,,,,,,,,,Standard,,,,,,None or Unspecified,None or Unspecified,None or Unspecified,Standard,,,,,,,,,,,
6004,1876240,9500,1117010,132,5.0,1000,836.0,Low,1/21/2000 0:00,940E,940,E,,,,Skid Steer Loader - 1251.0 to 1351.0 Lb Operating Capacity,Connecticut,SSL,Skid Steer Loaders,,OROPS,None or Unspecified,,,,,,,,,,Standard,,,,,,None or Unspecified,None or Unspecified,None or Unspecified,Standard,,,,,,,,,,,
6004,1876241,6500,1122516,132,1.0,1996,,,6/5/2001 0:00,940E,940,E,,,,Skid Steer Loader - 1251.0 to 1351.0 Lb Operating Capacity,Maine,SSL,Skid Steer Loaders,,OROPS,None or Unspecified,,,,,,,,,,Standard,,,,,,None or Unspecified,None or Unspecified,None or Unspecified,Standard,,,,,,,,,,,
6004,1876244,5500,1114842,132,1.0,1996,,,10/17/2001 0:00,940E,940,E,,,,Skid Steer Loader - 1251.0 to 1351.0 Lb Operating Capacity,Minnesota,SSL,Skid Steer Loaders,,OROPS,None or Unspecified,,,,,,,,,,Standard,,,,,,None or Unspecified,None or Unspecified,None or Unspecified,Standard,,,,,,,,,,,
6004,1876246,5500,1471840,132,1.0,1996,,,12/5/2000 0:00,940E,940,E,,,,Skid Steer Loader - 1251.0 to 1351.0 Lb Operating Capacity,Illinois,SSL,Skid Steer Loaders,,OROPS,None or Unspecified,,,,,,,,,,Standard,,,,,,None or Unspecified,None or Unspecified,None or Unspecified,Standard,,,,,,,,,,,
6004,1876247,6000,1227653,132,99.0,1996,,,4/25/2002 0:00,940E,940,E,,,,Skid Steer Loader - 1251.0 to 1351.0 Lb Operating Capacity,Maine,SSL,Skid Steer Loaders,,OROPS,None or Unspecified,,,,,,,,,,Standard,,,,,,None or Unspecified,None or Unspecified,None or Unspecified,Standard,,,,,,,,,,,
6004,1876250,8000,1205748,132,2.0,1996,,,9/25/1999 0:00,940E,940,E,,,,Skid Steer Loader - 1251.0 to 1351.0 Lb Operating Capacity,Connecticut,SSL,Skid Steer Loaders,,OROPS,None or Unspecified,,,,,,,,,,Standard,,,,,,None or Unspecified,None or Unspecified,None or Unspecified,Standard,,,,,,,,,,,
6004,1876251,4900,1398154,132,5.0,1995,,,11/14/2008 0:00,940E,940,E,,,,Skid Steer Loader - 1251.0 to 1351.0 Lb Operating Capacity,Connecticut,SSL,Skid Steer Loaders,,OROPS,None or Unspecified,,,,,,,,,,Standard,,,,,,None or Unspecified,None or Unspecified,None or Unspecified,Standard,,,,,,,,,,,
6004,1876252,7000,1479501,132,1.0,1996,,,12/15/2000 0:00,940E,940,E,,,,Skid Steer Loader - 1251.0 to 1351.0 Lb Operating Capacity,Minnesota,SSL,Skid Steer Loaders,,OROPS,None or Unspecified,,,,,,,,,,Standard,,,,,,None or Unspecified,None or Unspecified,None or Unspecified,Standard,,,,,,,,,,,
6004,1876253,7750,1226994,132,99.0,1996,,,7/9/2004 0:00,940E,940,E,,,,Skid Steer Loader - 1251.0 to 1351.0 Lb Operating Capacity,Missouri,SSL,Skid Steer Loaders,,OROPS,None or Unspecified,,,,,,,,,,Standard,,,,,,None or Unspecified,None or Unspecified,None or Unspecified,Standard,,,,,,,,,,,
6004,1876254,6500,1226994,132,20.0,1996,,,8/25/2004 0:00,940E,940,E,,,,Skid Steer Loader - 1251.0 to 1351.0 Lb Operating Capacity,Arkansas,SSL,Skid Steer Loaders,,OROPS,None or Unspecified,,,,,,,,,,Standard,,,,,,None or Unspecified,None or Unspecified,None or Unspecified,Standard,,,,,,,,,,,
6004,1876257,6000,1310664,132,10.0,1000,,,5/18/2000 0:00,940E,940,E,,,,Skid Steer Loader - 1251.0 to 1351.0 Lb Operating Capacity,Louisiana,SSL,Skid Steer Loaders,,OROPS,None or Unspecified,,,,,,,,,,Auxiliary,,,,,,None or Unspecified,None or Unspecified,None or Unspecified,Standard,,,,,,,,,,,
6004,1876258,10000,1310664,132,10.0,1996,,,11/11/1999 0:00,940E,940,E,,,,Skid Steer Loader - 1251.0 to 1351.0 Lb Operating Capacity,Louisiana,SSL,Skid Steer Loaders,,OROPS,None or Unspecified,,,,,,,,,,Auxiliary,,,,,,None or Unspecified,None or Unspecified,None or Unspecified,Standard,,,,,,,,,,,
6004,1876260,7250,1310664,132,10.0,1996,,,8/9/2000 0:00,940E,940,E,,,,Skid Steer Loader - 1251.0 to 1351.0 Lb Operating Capacity,Louisiana,SSL,Skid Steer Loaders,,OROPS,None or Unspecified,,,,,,,,,,Auxiliary,,,,,,None or Unspecified,None or Unspecified,None or Unspecified,Standard,,,,,,,,,,,
6004,1876261,8750,1416388,132,2.0,1996,,,9/8/2000 0:00,940E,940,E,,,,Skid Steer Loader - 1251.0 to 1351.0 Lb Operating Capacity,New York,SSL,Skid Steer Loaders,,OROPS,None or Unspecified,,,,,,,,,,Standard,,,,,,None or Unspecified,None or Unspecified,None or Unspecified,Standard,,,,,,,,,,,
6004,1876284,8500,1209016,132,10.0,1996,,,8/18/1999 0:00,940E,940,E,,,,Skid Steer Loader - 1251.0 to 1351.0 Lb Operating Capacity,Louisiana,SSL,Skid Steer Loaders,,OROPS,None or Unspecified,,,,,,,,,,Standard,,,,,,None or Unspecified,None or Unspecified,None or Unspecified,Standard,,,,,,,,,,,
6004,1876291,6750,1251202,132,11.0,1997,,,9/30/1998 0:00,940E,940,E,,,,Skid Steer Loader - 1251.0 to 1351.0 Lb Operating Capacity,Mississippi,SSL,Skid Steer Loaders,,OROPS,None or Unspecified,,,,,,,,,,Standard,,,,,,None or Unspecified,None or Unspecified,None or Unspecified,Standard,,,,,,,,,,,
6004,1876294,7500,1241082,132,1.0,1997,,,9/15/2003 0:00,940E,940,E,,,,Skid Steer Loader - 1251.0 to 1351.0 Lb Operating Capacity,Arizona,SSL,Skid Steer Loaders,,OROPS,None or Unspecified,,,,,,,,,,Standard,,,,,,None or Unspecified,None or Unspecified,None or Unspecified,Standard,,,,,,,,,,,
6004,1876354,7000,1132215,132,1.0,1998,,,3/14/2000 0:00,940E,940,E,,,,Skid Steer Loader - 1251.0 to 1351.0 Lb Operating Capacity,Texas,SSL,Skid Steer Loaders,,OROPS,None or Unspecified,,,,,,,,,,Standard,,,,,,None or Unspecified,None or Unspecified,None or Unspecified,Standard,,,,,,,,,,,
6004,1876355,7500,1497313,132,4.0,1995,,,2/4/1999 0:00,940E,940,E,,,,Skid Steer Loader - 1251.0 to 1351.0 Lb Operating Capacity,Florida,SSL,Skid Steer Loaders,,OROPS,None or Unspecified,,,,,,,,,,Standard,,,,,,None or Unspecified,None or Unspecified,None or Unspecified,Standard,,,,,,,,,,,
6004,1876377,7750,1274575,132,5.0,1999,3473.0,High,1/21/2000 0:00,940E,940,E,,,,Skid Steer Loader - 1251.0 to 1351.0 Lb Operating Capacity,Connecticut,SSL,Skid Steer Loaders,,OROPS,None or Unspecified,,,,,,,,,,Standard,,,,,,None or Unspecified,None or Unspecified,None or Unspecified,Standard,,,,,,,,,,,
6004,2771973,6000,1140886,149,1.0,1000,2207.0,Low,12/8/2010 0:00,940E,940,E,,,,Skid Steer Loader - 1251.0 to 1351.0 Lb Operating Capacity,Ohio,SSL,Skid Steer Loaders,,OROPS,None or Unspecified,,,,,,,,,,Standard,,,,,,None or Unspecified,None or Unspecified,None or Unspecified,Standard,,,,,,,,,,,
6004,2772036,4750,1919056,149,2.0,1996,,,3/31/2011 0:00,940E,940,E,,,,Skid Steer Loader - 1251.0 to 1351.0 Lb Operating Capacity,New Jersey,SSL,Skid Steer Loaders,,OROPS,None or Unspecified,,,,,,,,,,Auxiliary,,,,,,None or Unspecified,None or Unspecified,None or Unspecified,Standard,,,,,,,,,,,
6004,2772053,5000,1868237,149,2.0,1997,,,11/6/2010 0:00,940E,940,E,,,,Skid Steer Loader - 1251.0 to 1351.0 Lb Operating Capacity,Wisconsin,SSL,Skid Steer Loaders,,EROPS,None or Unspecified,,,,,,,,,,Auxiliary,,,,,,None or Unspecified,None or Unspecified,None or Unspecified,Standard,,,,,,,,,,,
6004,2772054,5250,1868237,149,2.0,1997,,,9/22/2010 0:00,940E,940,E,,,,Skid Steer Loader - 1251.0 to 1351.0 Lb Operating Capacity,Illinois,SSL,Skid Steer Loaders,,EROPS,None or Unspecified,,,,,,,,,,Auxiliary,,,,,,None or Unspecified,None or Unspecified,None or Unspecified,Standard,,,,,,,,,,,
