ModelID,SalesID,SalePrice,MachineID,datasource,auctioneerID,YearMade,MachineHoursCurrentMeter,UsageBand,saledate,fiModelDesc,fiBaseModel,fiSecondaryDesc,fiModelSeries,fiModelDescriptor,ProductSize,fiProductClassDesc,state,ProductGroup,ProductGroupDesc,Drive_System,Enclosure,Forks,Pad_Type,Ride_Control,Stick,Transmission,Turbocharged,Blade_Extension,Blade_Width,Enclosure_Type,Engine_Horsepower,Hydraulics,Pushblock,Ripper,Scarifier,Tip_Control,Tire_Size,Coupler,Coupler_System,Grouser_Tracks,Hydraulics_Flow,Track_Type,Undercarriage_Pad_Width,Stick_Length,Thumb,Pattern_Changer,Grouser_Type,Backhoe_Mounting,Blade_Type,Travel_Controls,Differential_Type,Steering_Controls
605,1736032,28000,631018,132,1.0,1000,,,10/1/2008 0:00,WA320-3H,WA320,,-3H,,Medium,Wheel Loader - 135.0 to 150.0 Horsepower,Maryland,WL,Wheel Loader,,EROPS w AC,,,,,,,,,,,Standard,,,,,,None or Unspecified,,,,,,,,,,,,,,
605,1736880,44000,1207611,132,1.0,1997,,,10/20/2004 0:00,WA320-3H,WA320,,-3H,,Medium,Wheel Loader - 135.0 to 150.0 Horsepower,Ohio,WL,Wheel Loader,,EROPS w AC,,,,,,,,,,,Standard,,,,,,Hydraulic,,,,,,,,,,,,,,
605,1737465,42000,1354290,132,1.0,2000,,,7/9/2008 0:00,WA320-3H,WA320,,-3H,,Medium,Wheel Loader - 135.0 to 150.0 Horsepower,Texas,WL,Wheel Loader,,EROPS w AC,None or Unspecified,,None or Unspecified,,,,,,,,2 Valve,,,,,20.5,None or Unspecified,,,,,,,,,,,,,Standard,Conventional
605,1737479,34000,1395612,132,15.0,2002,,,7/23/2009 0:00,WA320-3H,WA320,,-3H,,Medium,Wheel Loader - 135.0 to 150.0 Horsepower,New Jersey,WL,Wheel Loader,,OROPS,None or Unspecified,,None or Unspecified,,,,,,,,2 Valve,,,,,None or Unspecified,None or Unspecified,,,,,,,,,,,,,Standard,Conventional
605,1737755,36000,1286696,132,1.0,2002,,,3/30/2010 0:00,WA320-3H,WA320,,-3H,,Medium,Wheel Loader - 135.0 to 150.0 Horsepower,Missouri,WL,Wheel Loader,,EROPS,None or Unspecified,,None or Unspecified,,,,,,,,2 Valve,,,,,20.5,None or Unspecified,,,,,,,,,,,,,Standard,Conventional
605,1737758,39000,1363643,132,1.0,2002,,,7/9/2008 0:00,WA320-3H,WA320,,-3H,,Medium,Wheel Loader - 135.0 to 150.0 Horsepower,Texas,WL,Wheel Loader,,EROPS w AC,None or Unspecified,,None or Unspecified,,,,,,,,2 Valve,,,,,20.5,None or Unspecified,,,,,,,,,,,,,Standard,Conventional
605,1737776,42000,1425419,132,1.0,2002,,,7/9/2008 0:00,WA320-3H,WA320,,-3H,,Medium,Wheel Loader - 135.0 to 150.0 Horsepower,Texas,WL,Wheel Loader,,EROPS w AC,,,,,,,,,,,Standard,,,,,,None or Unspecified,,,,,,,,,,,,,,
605,1775003,30000,1097681,132,1.0,2002,14865.0,High,9/15/2010 0:00,WA320-3H,WA320,,-3H,,Medium,Wheel Loader - 135.0 to 150.0 Horsepower,Missouri,WL,Wheel Loader,,EROPS,None or Unspecified,,None or Unspecified,,,,,,,,2 Valve,,,,,20.5,None or Unspecified,,,,,,,,,,,,,Standard,Conventional
605,2423580,28000,1785165,136,1.0,1000,0.0,,10/1/2008 0:00,WA320-3H,WA320,,-3H,,Medium,Wheel Loader - 135.0 to 150.0 Horsepower,Maryland,WL,Wheel Loader,,EROPS,None or Unspecified,,None or Unspecified,,,,,,,,2 Valve,,,,,20.5,None or Unspecified,,,,,,,,,,,,,Standard,Conventional
605,2423585,42000,1760263,136,1.0,2000,0.0,,7/9/2008 0:00,WA320-3H,WA320,,-3H,,Medium,Wheel Loader - 135.0 to 150.0 Horsepower,Texas,WL,Wheel Loader,,EROPS w AC,None or Unspecified,,None or Unspecified,,,,,,,,2 Valve,,,,,20.5,None or Unspecified,,,,,,,,,,,,,Standard,Conventional
605,2423591,36000,1154049,136,1.0,2002,0.0,,3/30/2010 0:00,WA320-3H,WA320,,-3H,,Medium,Wheel Loader - 135.0 to 150.0 Horsepower,Missouri,WL,Wheel Loader,,EROPS w AC,None or Unspecified,,None or Unspecified,,,,,,,,2 Valve,,,,,20.5,None or Unspecified,,,,,,,,,,,,,Standard,Conventional
605,2423593,39000,1767782,136,1.0,2002,0.0,,7/9/2008 0:00,WA320-3H,WA320,,-3H,,Medium,Wheel Loader - 135.0 to 150.0 Horsepower,Texas,WL,Wheel Loader,,EROPS w AC,None or Unspecified,,None or Unspecified,,,,,,,,2 Valve,,,,,20.5,None or Unspecified,,,,,,,,,,,,,Standard,Conventional
605,2423594,42000,1721439,136,1.0,2002,0.0,,7/9/2008 0:00,WA320-3H,WA320,,-3H,,Medium,Wheel Loader - 135.0 to 150.0 Horsepower,Texas,WL,Wheel Loader,,EROPS w AC,None or Unspecified,,None or Unspecified,,,,,,,,2 Valve,,,,,None or Unspecified,None or Unspecified,,,,,,,,,,,,,Standard,Conventional
605,2707735,30000,1154049,149,1.0,2002,14865.0,High,9/15/2010 0:00,WA320-3H,WA320,,-3H,,Medium,Wheel Loader - 135.0 to 150.0 Horsepower,Missouri,WL,Wheel Loader,,EROPS w AC,None or Unspecified,,None or Unspecified,,,,,,,,2 Valve,,,,,20.5,None or Unspecified,,,,,,,,,,,,,Standard,Conventional
