ModelID,SalesID,SalePrice,MachineID,datasource,auctioneerID,YearMade,MachineHoursCurrentMeter,UsageBand,saledate,fiModelDesc,fiBaseModel,fiSecondaryDesc,fiModelSeries,fiModelDescriptor,ProductSize,fiProductClassDesc,state,ProductGroup,ProductGroupDesc,Drive_System,Enclosure,Forks,Pad_Type,Ride_Control,Stick,Transmission,Turbocharged,Blade_Extension,Blade_Width,Enclosure_Type,Engine_Horsepower,Hydraulics,Pushblock,Ripper,Scarifier,Tip_Control,Tire_Size,Coupler,Coupler_System,Grouser_Tracks,Hydraulics_Flow,Track_Type,Undercarriage_Pad_Width,Stick_Length,Thumb,Pattern_Changer,Grouser_Type,Backhoe_Mounting,Blade_Type,Travel_Controls,Differential_Type,Steering_Controls
6058,1148616,12500,1023761,121,3.0,2007,3771.0,High,10/15/2010 0:00,G3WD,G3,WD,,,Small,"Hydraulic Excavator, Track - 16.0 to 19.0 Metric Tons",Florida,TEX,Track Excavators,,EROPS,,,,,,,,,,,Standard,,,,,,None or Unspecified,,,,Steel,None or Unspecified,None or Unspecified,None or Unspecified,None or Unspecified,Double,,,,,
6058,1179110,8000,1058748,121,3.0,1000,6024.0,Low,5/1/2008 0:00,G3WD,G3,WD,,,Small,"Hydraulic Excavator, Track - 16.0 to 19.0 Metric Tons",Indiana,TEX,Track Excavators,,EROPS,,,,,,,,,,,Standard,,,,,,None or Unspecified,,,,Steel,None or Unspecified,None or Unspecified,None or Unspecified,None or Unspecified,Double,,,,,
6058,1898576,15000,1296386,132,4.0,1000,,,2/4/1999 0:00,G3WD,G3,WD,,,Small,"Hydraulic Excavator, Track - 16.0 to 19.0 Metric Tons",Florida,TEX,Track Excavators,,EROPS,,,,,,,,,,,Standard,,,,,,None or Unspecified,,,,Steel,None or Unspecified,None or Unspecified,None or Unspecified,None or Unspecified,Double,,,,,
6058,1898577,8500,1235023,132,1.0,1000,,,8/30/2006 0:00,G3WD,G3,WD,,,Small,"Hydraulic Excavator, Track - 16.0 to 19.0 Metric Tons",Georgia,TEX,Track Excavators,,EROPS,,,,,,,,,,,Standard,,,,,,None or Unspecified,,,,Steel,None or Unspecified,None or Unspecified,None or Unspecified,None or Unspecified,Double,,,,,
6058,1898581,11000,1152159,132,1.0,1000,,,10/5/2005 0:00,G3WD,G3,WD,,,Small,"Hydraulic Excavator, Track - 16.0 to 19.0 Metric Tons",Maryland,TEX,Track Excavators,,EROPS,,,,,,,,,,,Standard,,,,,,None or Unspecified,,,,Steel,None or Unspecified,None or Unspecified,None or Unspecified,None or Unspecified,Double,,,,,
6058,1898582,10000,1419430,132,1.0,1000,,,3/29/2005 0:00,G3WD,G3,WD,,,Small,"Hydraulic Excavator, Track - 16.0 to 19.0 Metric Tons",Texas,TEX,Track Excavators,,EROPS,,,,,,,,,,,Standard,,,,,,None or Unspecified,,,,Steel,None or Unspecified,None or Unspecified,None or Unspecified,None or Unspecified,Double,,,,,
6058,1898584,18000,1341802,132,4.0,1998,,,2/11/2008 0:00,G3WD,G3,WD,,,Small,"Hydraulic Excavator, Track - 16.0 to 19.0 Metric Tons",Florida,TEX,Track Excavators,,EROPS,,,,,,,,,,,Standard,,,,,,None or Unspecified,,,,Steel,None or Unspecified,None or Unspecified,None or Unspecified,None or Unspecified,Double,,,,,
6058,1899569,18000,1512744,132,1.0,1000,,,6/16/2004 0:00,G3WD,G3,WD,,,Small,"Hydraulic Excavator, Track - 16.0 to 19.0 Metric Tons",Texas,TEX,Track Excavators,,EROPS,,,,,,,,,,,Standard,,,,,,None or Unspecified,,,,Steel,None or Unspecified,None or Unspecified,None or Unspecified,None or Unspecified,Double,,,,,
6058,1899572,14000,1474027,132,1.0,1000,,,6/3/2008 0:00,G3WD,G3,WD,,,Small,"Hydraulic Excavator, Track - 16.0 to 19.0 Metric Tons",Pennsylvania,TEX,Track Excavators,,EROPS,,,,,,,,,,,Standard,,,,,,None or Unspecified,,,,Steel,None or Unspecified,None or Unspecified,None or Unspecified,None or Unspecified,Double,,,,,
6058,1899574,19500,1107754,132,1.0,1987,,,4/21/1994 0:00,G3WD,G3,WD,,,Small,"Hydraulic Excavator, Track - 16.0 to 19.0 Metric Tons",Texas,TEX,Track Excavators,,EROPS,,,,,,,,,,,Standard,,,,,,None or Unspecified,,,,Steel,None or Unspecified,None or Unspecified,None or Unspecified,None or Unspecified,Double,,,,,
6058,1899575,11000,1212784,132,99.0,1989,,,4/17/2004 0:00,G3WD,G3,WD,,,Small,"Hydraulic Excavator, Track - 16.0 to 19.0 Metric Tons",Pennsylvania,TEX,Track Excavators,,EROPS,,,,,,,,,,,Standard,,,,,,None or Unspecified,,,,Steel,None or Unspecified,None or Unspecified,None or Unspecified,None or Unspecified,Double,,,,,
6058,1899576,11500,1101791,132,1.0,1000,,,4/7/2005 0:00,G3WD,G3,WD,,,Small,"Hydraulic Excavator, Track - 16.0 to 19.0 Metric Tons",Georgia,TEX,Track Excavators,,EROPS,,,,,,,,,,,Standard,,,,,,None or Unspecified,,,,Steel,None or Unspecified,None or Unspecified,None or Unspecified,None or Unspecified,Double,,,,,
6058,1899577,9250,1461501,132,9.0,1000,,,2/23/2006 0:00,G3WD,G3,WD,,,Small,"Hydraulic Excavator, Track - 16.0 to 19.0 Metric Tons",Florida,TEX,Track Excavators,,EROPS,,,,,,,,,,,Standard,,,,,,None or Unspecified,,,,Steel,None or Unspecified,None or Unspecified,None or Unspecified,None or Unspecified,Double,,,,,
6058,1899578,9000,1461501,132,9.0,1000,,,2/16/2005 0:00,G3WD,G3,WD,,,Small,"Hydraulic Excavator, Track - 16.0 to 19.0 Metric Tons",Florida,TEX,Track Excavators,,EROPS,,,,,,,,,,,Standard,,,,,,None or Unspecified,,,,Steel,None or Unspecified,None or Unspecified,None or Unspecified,None or Unspecified,Double,,,,,
6058,1899580,22500,247418,132,4.0,1987,,,2/11/1994 0:00,G3WD,G3,WD,,,Small,"Hydraulic Excavator, Track - 16.0 to 19.0 Metric Tons",Florida,TEX,Track Excavators,,EROPS,,,,,,,,,,,Standard,,,,,,None or Unspecified,,,,Steel,None or Unspecified,None or Unspecified,None or Unspecified,None or Unspecified,Double,,,,,
6058,1899582,14000,1303714,132,99.0,1989,,,4/17/2004 0:00,G3WD,G3,WD,,,Small,"Hydraulic Excavator, Track - 16.0 to 19.0 Metric Tons",Pennsylvania,TEX,Track Excavators,,EROPS,,,,,,,,,,,Standard,,,,,,None or Unspecified,,,,Steel,None or Unspecified,None or Unspecified,None or Unspecified,None or Unspecified,Double,,,,,
6058,1899586,13000,1182862,132,4.0,1997,,,2/10/2011 0:00,G3WD,G3,WD,,,Small,"Hydraulic Excavator, Track - 16.0 to 19.0 Metric Tons",Florida,TEX,Track Excavators,,EROPS,,,,,,,,,,,Standard,,,,,,None or Unspecified,,,,Steel,None or Unspecified,None or Unspecified,None or Unspecified,None or Unspecified,Double,,,,,
6058,1899590,8500,185697,132,1.0,1998,,,3/15/2011 0:00,G3WD,G3,WD,,,Small,"Hydraulic Excavator, Track - 16.0 to 19.0 Metric Tons",Colorado,TEX,Track Excavators,,EROPS w AC,,,,,,,,,,,Standard,,,,,,None or Unspecified,,,,Steel,None or Unspecified,None or Unspecified,None or Unspecified,None or Unspecified,Double,,,,,
6058,1899593,9500,1095661,132,99.0,1995,,,10/3/2009 0:00,G3WD,G3,WD,,,Small,"Hydraulic Excavator, Track - 16.0 to 19.0 Metric Tons",New York,TEX,Track Excavators,,EROPS,,,,,,,,,,,Standard,,,,,,None or Unspecified,,,,Steel,None or Unspecified,None or Unspecified,None or Unspecified,None or Unspecified,Double,,,,,
6058,1899595,14000,1502330,132,6.0,1000,,,7/29/1997 0:00,G3WD,G3,WD,,,Small,"Hydraulic Excavator, Track - 16.0 to 19.0 Metric Tons",Texas,TEX,Track Excavators,,EROPS,,,,,,,,,,,Standard,,,,,,None or Unspecified,,,,Steel,None or Unspecified,None or Unspecified,None or Unspecified,None or Unspecified,Double,,,,,
6058,1899596,22000,1096999,132,1.0,1000,,,7/10/1997 0:00,G3WD,G3,WD,,,Small,"Hydraulic Excavator, Track - 16.0 to 19.0 Metric Tons",Maryland,TEX,Track Excavators,,EROPS,,,,,,,,,,,Standard,,,,,,None or Unspecified,,,,Steel,None or Unspecified,None or Unspecified,None or Unspecified,None or Unspecified,Double,,,,,
6058,1899598,11000,1472958,132,9.0,1000,,,5/15/2008 0:00,G3WD,G3,WD,,,Small,"Hydraulic Excavator, Track - 16.0 to 19.0 Metric Tons",South Carolina,TEX,Track Excavators,,EROPS,,,,,,,,,,,Standard,,,,,,None or Unspecified,,,,Steel,None or Unspecified,None or Unspecified,None or Unspecified,None or Unspecified,Double,,,,,
6058,1899602,18000,1318344,132,1.0,1000,,,3/2/2005 0:00,G3WD,G3,WD,,,Small,"Hydraulic Excavator, Track - 16.0 to 19.0 Metric Tons",Texas,TEX,Track Excavators,,EROPS,,,,,,,,,,,Standard,,,,,,None or Unspecified,,,,Steel,None or Unspecified,None or Unspecified,None or Unspecified,None or Unspecified,Double,,,,,
6058,1899606,17000,1289151,132,6.0,1000,,,10/19/1994 0:00,G3WD,G3,WD,,,Small,"Hydraulic Excavator, Track - 16.0 to 19.0 Metric Tons",North Carolina,TEX,Track Excavators,,EROPS,,,,,,,,,,,Standard,,,,,,None or Unspecified,,,,Steel,None or Unspecified,None or Unspecified,None or Unspecified,None or Unspecified,Double,,,,,
6058,1899609,14500,1133577,132,4.0,1000,,,2/4/1999 0:00,G3WD,G3,WD,,,Small,"Hydraulic Excavator, Track - 16.0 to 19.0 Metric Tons",Florida,TEX,Track Excavators,,EROPS,,,,,,,,,,,Standard,,,,,,None or Unspecified,,,,Steel,None or Unspecified,None or Unspecified,None or Unspecified,None or Unspecified,Double,,,,,
6058,1899614,8000,1324951,132,1.0,1000,,,8/26/2009 0:00,G3WD,G3,WD,,,Small,"Hydraulic Excavator, Track - 16.0 to 19.0 Metric Tons",Texas,TEX,Track Excavators,,EROPS,,,,,,,,,,,Standard,,,,,,None or Unspecified,,,,Steel,None or Unspecified,None or Unspecified,None or Unspecified,None or Unspecified,Double,,,,,
6058,1899617,10000,1221878,132,8.0,1000,,,9/18/2008 0:00,G3WD,G3,WD,,,Small,"Hydraulic Excavator, Track - 16.0 to 19.0 Metric Tons",Mississippi,TEX,Track Excavators,,EROPS,,,,,,,,,,,Standard,,,,,,None or Unspecified,,,,Steel,None or Unspecified,None or Unspecified,None or Unspecified,None or Unspecified,Double,,,,,
6058,1899620,9000,1115373,132,9.0,1000,,,2/16/2005 0:00,G3WD,G3,WD,,,Small,"Hydraulic Excavator, Track - 16.0 to 19.0 Metric Tons",Florida,TEX,Track Excavators,,EROPS,,,,,,,,,,,Standard,,,,,,None or Unspecified,,,,Steel,None or Unspecified,None or Unspecified,None or Unspecified,None or Unspecified,Double,,,,,
6058,1899622,19000,1113417,132,1.0,1000,,,12/3/2008 0:00,G3WD,G3,WD,,,Small,"Hydraulic Excavator, Track - 16.0 to 19.0 Metric Tons",Texas,TEX,Track Excavators,,EROPS,,,,,,,,,,,Standard,,,,,,None or Unspecified,,,,Steel,None or Unspecified,None or Unspecified,None or Unspecified,None or Unspecified,Double,,,,,
6058,1899627,9000,1157357,132,8.0,1000,,,10/12/2006 0:00,G3WD,G3,WD,,,Small,"Hydraulic Excavator, Track - 16.0 to 19.0 Metric Tons",Florida,TEX,Track Excavators,,EROPS,,,,,,,,,,,Standard,,,,,,None or Unspecified,,,,Steel,None or Unspecified,None or Unspecified,None or Unspecified,None or Unspecified,Double,,,,,
6058,1899628,7500,1157357,132,8.0,1000,,,2/16/2007 0:00,G3WD,G3,WD,,,Small,"Hydraulic Excavator, Track - 16.0 to 19.0 Metric Tons",Florida,TEX,Track Excavators,,EROPS,,,,,,,,,,,Standard,,,,,,None or Unspecified,,,,Steel,None or Unspecified,None or Unspecified,None or Unspecified,None or Unspecified,Double,,,,,
6058,1899630,9500,1365998,132,4.0,1000,,,2/12/2004 0:00,G3WD,G3,WD,,,Small,"Hydraulic Excavator, Track - 16.0 to 19.0 Metric Tons",Florida,TEX,Track Excavators,,EROPS,,,,,,,,,,,Standard,,,,,,None or Unspecified,,,,Steel,None or Unspecified,None or Unspecified,None or Unspecified,None or Unspecified,Double,,,,,
6058,1899631,7500,1478194,132,7.0,1000,,,3/12/2008 0:00,G3WD,G3,WD,,,Small,"Hydraulic Excavator, Track - 16.0 to 19.0 Metric Tons",Alabama,TEX,Track Excavators,,EROPS,,,,,,,,,,,Standard,,,,,,None or Unspecified,,,,,,None or Unspecified,None or Unspecified,No,,,,,,
6058,1899635,13000,1541919,132,1.0,1999,,,5/31/2006 0:00,G3WD,G3,WD,,,Small,"Hydraulic Excavator, Track - 16.0 to 19.0 Metric Tons",Illinois,TEX,Track Excavators,,EROPS,,,,,,,,,,,Standard,,,,,,None or Unspecified,,,,Steel,None or Unspecified,None or Unspecified,None or Unspecified,None or Unspecified,Double,,,,,
6058,1899637,16000,1130636,132,8.0,1999,,,9/18/2008 0:00,G3WD,G3,WD,,,Small,"Hydraulic Excavator, Track - 16.0 to 19.0 Metric Tons",Mississippi,TEX,Track Excavators,,EROPS,,,,,,,,,,,Standard,,,,,,None or Unspecified,,,,Steel,None or Unspecified,None or Unspecified,None or Unspecified,None or Unspecified,Double,,,,,
6058,1899638,19000,1130636,132,8.0,1999,,,11/18/2008 0:00,G3WD,G3,WD,,,Small,"Hydraulic Excavator, Track - 16.0 to 19.0 Metric Tons",Mississippi,TEX,Track Excavators,,EROPS,,,,,,,,,,,Standard,,,,,,None or Unspecified,,,,Steel,None or Unspecified,None or Unspecified,None or Unspecified,None or Unspecified,Double,,,,,
6058,1899639,7500,1470521,132,9.0,1000,,,2/23/2006 0:00,G3WD,G3,WD,,,Small,"Hydraulic Excavator, Track - 16.0 to 19.0 Metric Tons",Florida,TEX,Track Excavators,,EROPS,,,,,,,,,,,Standard,,,,,,None or Unspecified,,,,Steel,None or Unspecified,None or Unspecified,None or Unspecified,None or Unspecified,Double,,,,,
6058,1899640,9000,1470521,132,9.0,1000,,,2/16/2005 0:00,G3WD,G3,WD,,,Small,"Hydraulic Excavator, Track - 16.0 to 19.0 Metric Tons",Florida,TEX,Track Excavators,,EROPS,,,,,,,,,,,Standard,,,,,,None or Unspecified,,,,Steel,None or Unspecified,None or Unspecified,None or Unspecified,None or Unspecified,Double,,,,,
6058,1899643,8500,1457770,132,1.0,1968,,,3/29/2007 0:00,G3WD,G3,WD,,,Small,"Hydraulic Excavator, Track - 16.0 to 19.0 Metric Tons",Texas,TEX,Track Excavators,,EROPS,,,,,,,,,,,Standard,,,,,,None or Unspecified,,,,Steel,None or Unspecified,None or Unspecified,None or Unspecified,None or Unspecified,Double,,,,,
6058,1899644,29000,1366598,132,99.0,1991,,,3/3/1994 0:00,G3WD,G3,WD,,,Small,"Hydraulic Excavator, Track - 16.0 to 19.0 Metric Tons",Texas,TEX,Track Excavators,,EROPS,,,,,,,,,,,Standard,,,,,,None or Unspecified,,,,Steel,None or Unspecified,None or Unspecified,None or Unspecified,None or Unspecified,Double,,,,,
6058,1899646,8500,1324667,132,1.0,2001,,,6/22/2011 0:00,G3WD,G3,WD,,,Small,"Hydraulic Excavator, Track - 16.0 to 19.0 Metric Tons",Texas,TEX,Track Excavators,,EROPS,,,,,,,,,,,Standard,,,,,,None or Unspecified,,,,Steel,None or Unspecified,None or Unspecified,None or Unspecified,None or Unspecified,Double,,,,,
6058,1899668,7500,1167164,132,7.0,1000,,,8/31/2005 0:00,G3WD,G3,WD,,,Small,"Hydraulic Excavator, Track - 16.0 to 19.0 Metric Tons",Alabama,TEX,Track Excavators,,EROPS,,,,,,,,,,,Standard,,,,,,None or Unspecified,,,,Steel,None or Unspecified,None or Unspecified,None or Unspecified,None or Unspecified,Double,,,,,
6058,1900985,13000,1257556,132,2.0,1989,,,2/2/1999 0:00,G3WD,G3,WD,,,Small,"Hydraulic Excavator, Track - 16.0 to 19.0 Metric Tons",Florida,TEX,Track Excavators,,EROPS,,,,,,,,,,,Standard,,,,,,None or Unspecified,,,,Steel,None or Unspecified,None or Unspecified,None or Unspecified,None or Unspecified,Double,,,,,
6058,1900990,9000,1210587,132,4.0,1000,,,2/4/1999 0:00,G3WD,G3,WD,,,Small,"Hydraulic Excavator, Track - 16.0 to 19.0 Metric Tons",Florida,TEX,Track Excavators,,EROPS,,,,,,,,,,,Standard,,,,,,None or Unspecified,,,,Steel,None or Unspecified,None or Unspecified,None or Unspecified,None or Unspecified,Double,,,,,
6058,1901115,11500,1223584,132,9.0,1000,,,5/15/2008 0:00,G3WD,G3,WD,,,Small,"Hydraulic Excavator, Track - 16.0 to 19.0 Metric Tons",South Carolina,TEX,Track Excavators,,EROPS,,,,,,,,,,,Standard,,,,,,None or Unspecified,,,,Steel,None or Unspecified,None or Unspecified,None or Unspecified,None or Unspecified,Double,,,,,
6058,1901150,8000,1424910,132,4.0,1998,,,2/10/2011 0:00,G3WD,G3,WD,,,Small,"Hydraulic Excavator, Track - 16.0 to 19.0 Metric Tons",Florida,TEX,Track Excavators,,EROPS,,,,,,,,,,,Standard,,,,,,None or Unspecified,,,,Steel,None or Unspecified,None or Unspecified,None or Unspecified,None or Unspecified,Double,,,,,
6058,1901486,10000,1406958,132,2.0,1999,,,2/9/2007 0:00,G3WD,G3,WD,,,Small,"Hydraulic Excavator, Track - 16.0 to 19.0 Metric Tons",Florida,TEX,Track Excavators,,EROPS,,,,,,,,,,,Standard,,,,,,None or Unspecified,,,,Steel,None or Unspecified,None or Unspecified,None or Unspecified,None or Unspecified,Double,,,,,
6058,1901624,8000,1174023,132,8.0,1000,,,1/29/2008 0:00,G3WD,G3,WD,,,Small,"Hydraulic Excavator, Track - 16.0 to 19.0 Metric Tons",Alabama,TEX,Track Excavators,,EROPS,,,,,,,,,,,Standard,,,,,,None or Unspecified,,,,Steel,None or Unspecified,None or Unspecified,None or Unspecified,None or Unspecified,Double,,,,,
6058,1901627,18500,1295108,132,4.0,1000,,,2/5/1998 0:00,G3WD,G3,WD,,,Small,"Hydraulic Excavator, Track - 16.0 to 19.0 Metric Tons",Florida,TEX,Track Excavators,,EROPS,,,,,,,,,,,Standard,,,,,,None or Unspecified,,,,Steel,None or Unspecified,None or Unspecified,None or Unspecified,None or Unspecified,Double,,,,,
6058,1901902,19000,1077985,132,6.0,1000,,,10/19/1994 0:00,G3WD,G3,WD,,,Small,"Hydraulic Excavator, Track - 16.0 to 19.0 Metric Tons",North Carolina,TEX,Track Excavators,,EROPS,,,,,,,,,,,Standard,,,,,,None or Unspecified,,,,Steel,None or Unspecified,None or Unspecified,None or Unspecified,None or Unspecified,Double,,,,,
6058,1901903,19500,1431894,132,4.0,1000,,,2/4/1999 0:00,G3WD,G3,WD,,,Small,"Hydraulic Excavator, Track - 16.0 to 19.0 Metric Tons",Florida,TEX,Track Excavators,,EROPS,,,,,,,,,,,Standard,,,,,,None or Unspecified,,,,Steel,None or Unspecified,None or Unspecified,None or Unspecified,None or Unspecified,Double,,,,,
6058,1901904,10000,1139181,132,4.0,1000,,,2/4/1999 0:00,G3WD,G3,WD,,,Small,"Hydraulic Excavator, Track - 16.0 to 19.0 Metric Tons",Florida,TEX,Track Excavators,,EROPS,,,,,,,,,,,Standard,,,,,,None or Unspecified,,,,Steel,None or Unspecified,None or Unspecified,None or Unspecified,None or Unspecified,Double,,,,,
6058,1901906,9250,1232131,132,1.0,1000,,,8/1/2006 0:00,G3WD,G3,WD,,,Small,"Hydraulic Excavator, Track - 16.0 to 19.0 Metric Tons",Tennessee,TEX,Track Excavators,,EROPS,,,,,,,,,,,Standard,,,,,,None or Unspecified,,,,Steel,None or Unspecified,None or Unspecified,None or Unspecified,None or Unspecified,Double,,,,,
6058,1901909,19000,1338810,132,2.0,1987,,,2/10/1994 0:00,G3WD,G3,WD,,,Small,"Hydraulic Excavator, Track - 16.0 to 19.0 Metric Tons",Florida,TEX,Track Excavators,,EROPS,,,,,,,,,,,Standard,,,,,,None or Unspecified,,,,Steel,None or Unspecified,None or Unspecified,None or Unspecified,None or Unspecified,Double,,,,,
6058,1901911,9000,1316520,132,1.0,1000,,,5/12/2005 0:00,G3WD,G3,WD,,,Small,"Hydraulic Excavator, Track - 16.0 to 19.0 Metric Tons",Texas,TEX,Track Excavators,,EROPS,,,,,,,,,,,Standard,,,,,,None or Unspecified,,,,Steel,None or Unspecified,None or Unspecified,None or Unspecified,None or Unspecified,Double,,,,,
6058,1901913,30000,1195913,132,4.0,1987,,,2/11/1994 0:00,G3WD,G3,WD,,,Small,"Hydraulic Excavator, Track - 16.0 to 19.0 Metric Tons",Florida,TEX,Track Excavators,,EROPS,,,,,,,,,,,Standard,,,,,,None or Unspecified,,,,Steel,None or Unspecified,None or Unspecified,None or Unspecified,None or Unspecified,Double,,,,,
6058,1901915,14000,1519238,132,1.0,1988,,,4/21/1994 0:00,G3WD,G3,WD,,,Small,"Hydraulic Excavator, Track - 16.0 to 19.0 Metric Tons",Texas,TEX,Track Excavators,,EROPS,,,,,,,,,,,Standard,,,,,,None or Unspecified,,,,Steel,None or Unspecified,None or Unspecified,None or Unspecified,None or Unspecified,Double,,,,,
6058,1901916,8000,1156981,132,6.0,1000,,,10/15/1996 0:00,G3WD,G3,WD,,,Small,"Hydraulic Excavator, Track - 16.0 to 19.0 Metric Tons",Maine,TEX,Track Excavators,,EROPS,,,,,,,,,,,Standard,,,,,,None or Unspecified,,,,Steel,None or Unspecified,None or Unspecified,None or Unspecified,None or Unspecified,Double,,,,,
6058,1901917,9000,1425613,132,1.0,1000,,,11/29/2005 0:00,G3WD,G3,WD,,,Small,"Hydraulic Excavator, Track - 16.0 to 19.0 Metric Tons",Colorado,TEX,Track Excavators,,EROPS,,,,,,,,,,,Standard,,,,,,None or Unspecified,,,,Steel,None or Unspecified,None or Unspecified,None or Unspecified,None or Unspecified,Double,,,,,
6058,1901918,8500,1425613,132,1.0,1987,,,12/2/1997 0:00,G3WD,G3,WD,,,Small,"Hydraulic Excavator, Track - 16.0 to 19.0 Metric Tons",Texas,TEX,Track Excavators,,EROPS,,,,,,,,,,,Standard,,,,,,None or Unspecified,,,,Steel,None or Unspecified,None or Unspecified,None or Unspecified,None or Unspecified,Double,,,,,
6058,1901919,17000,1199554,132,6.0,1000,,,10/19/1994 0:00,G3WD,G3,WD,,,Small,"Hydraulic Excavator, Track - 16.0 to 19.0 Metric Tons",North Carolina,TEX,Track Excavators,,EROPS,,,,,,,,,,,Standard,,,,,,None or Unspecified,,,,Steel,None or Unspecified,None or Unspecified,None or Unspecified,None or Unspecified,Double,,,,,
6058,1901954,17000,1361164,132,10.0,1000,,,6/25/1998 0:00,G3WD,G3,WD,,,Small,"Hydraulic Excavator, Track - 16.0 to 19.0 Metric Tons",Louisiana,TEX,Track Excavators,,EROPS,,,,,,,,,,,Standard,,,,,,None or Unspecified,,,,Steel,None or Unspecified,None or Unspecified,None or Unspecified,None or Unspecified,Double,,,,,
6058,1901956,8750,1167364,132,16.0,1994,,,4/1/2004 0:00,G3WD,G3,WD,,,Small,"Hydraulic Excavator, Track - 16.0 to 19.0 Metric Tons",Wyoming,TEX,Track Excavators,,EROPS,,,,,,,,,,,Standard,,,,,,None or Unspecified,,,,Steel,None or Unspecified,None or Unspecified,None or Unspecified,None or Unspecified,Double,,,,,
6058,1901958,10000,1318585,132,2.0,1999,,,2/4/2007 0:00,G3WD,G3,WD,,,Small,"Hydraulic Excavator, Track - 16.0 to 19.0 Metric Tons",Florida,TEX,Track Excavators,,EROPS,,,,,,,,,,,Standard,,,,,,None or Unspecified,,,,Steel,None or Unspecified,None or Unspecified,None or Unspecified,None or Unspecified,Double,,,,,
6058,1901961,12500,1268847,132,3.0,2007,,,10/14/2010 0:00,G3WD,G3,WD,,,Small,"Hydraulic Excavator, Track - 16.0 to 19.0 Metric Tons",California,TEX,Track Excavators,,EROPS,,,,,,,,,,,Standard,,,,,,None or Unspecified,,,,Steel,None or Unspecified,None or Unspecified,None or Unspecified,None or Unspecified,Double,,,,,
6058,1901969,8000,1495809,132,16.0,1000,,,8/5/2004 0:00,G3WD,G3,WD,,,Small,"Hydraulic Excavator, Track - 16.0 to 19.0 Metric Tons",Ohio,TEX,Track Excavators,,EROPS,,,,,,,,,,,Standard,,,,,,None or Unspecified,,,,Steel,None or Unspecified,None or Unspecified,None or Unspecified,None or Unspecified,Double,,,,,
6058,1901975,12000,1479348,132,5.0,1000,,,4/29/1995 0:00,G3WD,G3,WD,,,Small,"Hydraulic Excavator, Track - 16.0 to 19.0 Metric Tons",Maine,TEX,Track Excavators,,EROPS,,,,,,,,,,,Standard,,,,,,None or Unspecified,,,,Steel,None or Unspecified,None or Unspecified,None or Unspecified,None or Unspecified,Double,,,,,
6058,1901978,29000,1242666,132,13.0,1987,,,5/9/1996 0:00,G3WD,G3,WD,,,Small,"Hydraulic Excavator, Track - 16.0 to 19.0 Metric Tons",Tennessee,TEX,Track Excavators,,EROPS,,,,,,,,,,,Standard,,,,,,None or Unspecified,,,,Steel,None or Unspecified,None or Unspecified,None or Unspecified,None or Unspecified,Double,,,,,
6058,1902244,15000,1366209,132,4.0,1984,,,2/11/1994 0:00,G3WD,G3,WD,,,Small,"Hydraulic Excavator, Track - 16.0 to 19.0 Metric Tons",Florida,TEX,Track Excavators,,EROPS,,,,,,,,,,,Standard,,,,,,None or Unspecified,,,,Steel,None or Unspecified,None or Unspecified,None or Unspecified,None or Unspecified,Double,,,,,
6058,1902256,10000,1370703,132,1.0,1985,,,6/30/1995 0:00,G3WD,G3,WD,,,Small,"Hydraulic Excavator, Track - 16.0 to 19.0 Metric Tons",Texas,TEX,Track Excavators,,EROPS,,,,,,,,,,,Standard,,,,,,None or Unspecified,,,,Steel,None or Unspecified,None or Unspecified,None or Unspecified,None or Unspecified,Double,,,,,
6058,1902263,16000,1160292,132,4.0,1000,,,2/9/1995 0:00,G3WD,G3,WD,,,Small,"Hydraulic Excavator, Track - 16.0 to 19.0 Metric Tons",Florida,TEX,Track Excavators,,EROPS,,,,,,,,,,,Standard,,,,,,None or Unspecified,,,,Steel,None or Unspecified,None or Unspecified,None or Unspecified,None or Unspecified,Double,,,,,
6058,1902267,13250,1478356,132,10.0,1986,,,6/22/2006 0:00,G3WD,G3,WD,,,Small,"Hydraulic Excavator, Track - 16.0 to 19.0 Metric Tons",Louisiana,TEX,Track Excavators,,EROPS,,,,,,,,,,,Standard,,,,,,None or Unspecified,,,,Steel,None or Unspecified,None or Unspecified,None or Unspecified,None or Unspecified,Double,,,,,
6058,1902268,12000,1478356,132,6.0,1985,,,8/22/1996 0:00,G3WD,G3,WD,,,Small,"Hydraulic Excavator, Track - 16.0 to 19.0 Metric Tons",Virginia,TEX,Track Excavators,,EROPS,,,,,,,,,,,Standard,,,,,,None or Unspecified,,,,Steel,None or Unspecified,None or Unspecified,None or Unspecified,None or Unspecified,Double,,,,,
6058,1902271,12000,1307353,132,10.0,1000,,,6/26/1997 0:00,G3WD,G3,WD,,,Small,"Hydraulic Excavator, Track - 16.0 to 19.0 Metric Tons",Louisiana,TEX,Track Excavators,,EROPS,,,,,,,,,,,Standard,,,,,,None or Unspecified,,,,Steel,None or Unspecified,None or Unspecified,None or Unspecified,None or Unspecified,Double,,,,,
6058,1902272,11000,1307353,132,7.0,1986,,,6/20/1997 0:00,G3WD,G3,WD,,,Small,"Hydraulic Excavator, Track - 16.0 to 19.0 Metric Tons",Alabama,TEX,Track Excavators,,EROPS,,,,,,,,,,,Standard,,,,,,None or Unspecified,,,,Steel,None or Unspecified,None or Unspecified,None or Unspecified,None or Unspecified,Double,,,,,
6058,1902275,12000,1233136,132,1.0,1986,,,6/21/1994 0:00,G3WD,G3,WD,,,Small,"Hydraulic Excavator, Track - 16.0 to 19.0 Metric Tons",Florida,TEX,Track Excavators,,EROPS,,,,,,,,,,,Standard,,,,,,None or Unspecified,,,,Steel,None or Unspecified,None or Unspecified,None or Unspecified,None or Unspecified,Double,,,,,
6058,1902279,9250,1436527,132,1.0,1000,,,8/1/2006 0:00,G3WD,G3,WD,,,Small,"Hydraulic Excavator, Track - 16.0 to 19.0 Metric Tons",Tennessee,TEX,Track Excavators,,EROPS,,,,,,,,,,,Standard,,,,,,None or Unspecified,,,,Steel,None or Unspecified,None or Unspecified,None or Unspecified,None or Unspecified,Double,,,,,
6058,1902282,7500,1529806,132,28.0,1000,,,9/8/2006 0:00,G3WD,G3,WD,,,Small,"Hydraulic Excavator, Track - 16.0 to 19.0 Metric Tons",Mississippi,TEX,Track Excavators,,EROPS,,,,,,,,,,,Standard,,,,,,None or Unspecified,,,,Steel,None or Unspecified,None or Unspecified,None or Unspecified,None or Unspecified,Double,,,,,
6058,1902287,13000,1385159,132,99.0,1000,,,3/16/1995 0:00,G3WD,G3,WD,,,Small,"Hydraulic Excavator, Track - 16.0 to 19.0 Metric Tons",Texas,TEX,Track Excavators,,EROPS,,,,,,,,,,,Standard,,,,,,None or Unspecified,,,,Steel,None or Unspecified,None or Unspecified,None or Unspecified,None or Unspecified,Double,,,,,
6058,1902288,7500,1502553,132,99.0,1000,,,3/16/1995 0:00,G3WD,G3,WD,,,Small,"Hydraulic Excavator, Track - 16.0 to 19.0 Metric Tons",Texas,TEX,Track Excavators,,EROPS,,,,,,,,,,,Standard,,,,,,None or Unspecified,,,,Steel,None or Unspecified,None or Unspecified,None or Unspecified,None or Unspecified,Double,,,,,
6058,1902290,18000,1545358,132,15.0,1986,,,3/23/2006 0:00,G3WD,G3,WD,,,Small,"Hydraulic Excavator, Track - 16.0 to 19.0 Metric Tons",Pennsylvania,TEX,Track Excavators,,EROPS,,,,,,,,,,,Standard,,,,,,None or Unspecified,,,,Steel,None or Unspecified,None or Unspecified,None or Unspecified,None or Unspecified,Double,,,,,
6058,1902293,27500,1335434,132,4.0,1000,,,2/9/1995 0:00,G3WD,G3,WD,,,Small,"Hydraulic Excavator, Track - 16.0 to 19.0 Metric Tons",Florida,TEX,Track Excavators,,EROPS,,,,,,,,,,,Standard,,,,,,None or Unspecified,,,,Steel,None or Unspecified,None or Unspecified,None or Unspecified,None or Unspecified,Double,,,,,
6058,1902296,19000,1491597,132,4.0,1986,,,2/11/1994 0:00,G3WD,G3,WD,,,Small,"Hydraulic Excavator, Track - 16.0 to 19.0 Metric Tons",Florida,TEX,Track Excavators,,EROPS,,,,,,,,,,,Standard,,,,,,None or Unspecified,,,,Steel,None or Unspecified,None or Unspecified,None or Unspecified,None or Unspecified,Double,,,,,
6058,1902298,12500,1467303,132,4.0,1000,,,2/9/1995 0:00,G3WD,G3,WD,,,Small,"Hydraulic Excavator, Track - 16.0 to 19.0 Metric Tons",Florida,TEX,Track Excavators,,EROPS,,,,,,,,,,,Standard,,,,,,None or Unspecified,,,,Steel,None or Unspecified,None or Unspecified,None or Unspecified,None or Unspecified,Double,,,,,
6058,1902300,14000,1241078,132,6.0,1000,,,12/9/1997 0:00,G3WD,G3,WD,,,Small,"Hydraulic Excavator, Track - 16.0 to 19.0 Metric Tons",Texas,TEX,Track Excavators,,EROPS,,,,,,,,,,,Standard,,,,,,None or Unspecified,,,,Steel,None or Unspecified,None or Unspecified,None or Unspecified,None or Unspecified,Double,,,,,
6058,1902301,37500,1538763,132,99.0,1989,,,6/28/1994 0:00,G3WD,G3,WD,,,Small,"Hydraulic Excavator, Track - 16.0 to 19.0 Metric Tons",Texas,TEX,Track Excavators,,EROPS,,,,,,,,,,,Standard,,,,,,None or Unspecified,,,,Steel,None or Unspecified,None or Unspecified,None or Unspecified,None or Unspecified,Double,,,,,
6058,1902314,10000,1437186,132,2.0,1000,,,8/21/1999 0:00,G3WD,G3,WD,,,Small,"Hydraulic Excavator, Track - 16.0 to 19.0 Metric Tons",Wisconsin,TEX,Track Excavators,,EROPS,,,,,,,,,,,Standard,,,,,,None or Unspecified,,,,Steel,None or Unspecified,None or Unspecified,None or Unspecified,None or Unspecified,Double,,,,,
6058,2472198,8000,1745869,136,99.0,1996,1324.0,Low,5/8/2010 0:00,G3WD,G3,WD,,,Small,"Hydraulic Excavator, Track - 16.0 to 19.0 Metric Tons",New York,TEX,Track Excavators,,EROPS,,,,,,,,,,,Standard,,,,,,None or Unspecified,,,,Steel,None or Unspecified,None or Unspecified,None or Unspecified,None or Unspecified,Double,,,,,
6058,2472200,8000,1744948,136,,1000,0.0,,8/26/2009 0:00,G3WD,G3,WD,,,Small,"Hydraulic Excavator, Track - 16.0 to 19.0 Metric Tons",Texas,TEX,Track Excavators,,EROPS,,,,,,,,,,,Standard,,,,,,None or Unspecified,,,,Steel,None or Unspecified,None or Unspecified,None or Unspecified,None or Unspecified,Double,,,,,
6058,2474299,11000,1523502,136,2.0,1000,910.0,Low,8/13/2009 0:00,G3WD,G3,WD,,,Small,"Hydraulic Excavator, Track - 16.0 to 19.0 Metric Tons",Florida,TEX,Track Excavators,,EROPS,,,,,,,,,,,Standard,,,,,,None or Unspecified,,,,Steel,None or Unspecified,None or Unspecified,None or Unspecified,None or Unspecified,Double,,,,,
6058,2474702,9500,1771658,136,5.0,1996,0.0,,10/3/2009 0:00,G3WD,G3,WD,,,Small,"Hydraulic Excavator, Track - 16.0 to 19.0 Metric Tons",New York,TEX,Track Excavators,,EROPS,,,,,,,,,,,Standard,,,,,,None or Unspecified,,,,Steel,None or Unspecified,None or Unspecified,None or Unspecified,None or Unspecified,Double,,,,,
6058,4412824,8500,2304820,172,1.0,2001,1311.0,Low,6/21/2011 0:00,G3WD,G3,WD,,,Small,"Hydraulic Excavator, Track - 16.0 to 19.0 Metric Tons",Texas,TEX,Track Excavators,,EROPS w AC,,,,,,,,,,,Standard,,,,,,Manual,,,,Steel,None or Unspecified,None or Unspecified,None or Unspecified,None or Unspecified,Double,,,,,
6058,4414058,8000,185697,172,1.0,1993,12201.0,High,6/4/2009 0:00,G3WD,G3,WD,,,Small,"Hydraulic Excavator, Track - 16.0 to 19.0 Metric Tons",Colorado,TEX,Track Excavators,,EROPS w AC,,,,,,,,,,,Standard,,,,,,None or Unspecified,,,,Steel,None or Unspecified,None or Unspecified,None or Unspecified,None or Unspecified,Double,,,,,
6058,4414060,12000,1305035,172,1.0,2000,1063.0,Low,3/4/2009 0:00,G3WD,G3,WD,,,Small,"Hydraulic Excavator, Track - 16.0 to 19.0 Metric Tons",Texas,TEX,Track Excavators,,EROPS,,,,,,,,,,,Standard,,,,,,None or Unspecified,,,,Steel,None or Unspecified,None or Unspecified,None or Unspecified,None or Unspecified,Double,,,,,
6058,6332455,8500,1238043,149,1.0,2001,,,6/22/2011 0:00,G3WD,G3,WD,,,Small,"Hydraulic Excavator, Track - 16.0 to 19.0 Metric Tons",Texas,TEX,Track Excavators,,EROPS,,,,,,,,,,,Standard,,,,,,None or Unspecified,,,,Steel,None or Unspecified,None or Unspecified,None or Unspecified,None or Unspecified,Double,,,,,
