ModelID,SalesID,SalePrice,MachineID,datasource,auctioneerID,YearMade,MachineHoursCurrentMeter,UsageBand,saledate,fiModelDesc,fiBaseModel,fiSecondaryDesc,fiModelSeries,fiModelDescriptor,ProductSize,fiProductClassDesc,state,ProductGroup,ProductGroupDesc,Drive_System,Enclosure,Forks,Pad_Type,Ride_Control,Stick,Transmission,Turbocharged,Blade_Extension,Blade_Width,Enclosure_Type,Engine_Horsepower,Hydraulics,Pushblock,Ripper,Scarifier,Tip_Control,Tire_Size,Coupler,Coupler_System,Grouser_Tracks,Hydraulics_Flow,Track_Type,Undercarriage_Pad_Width,Stick_Length,Thumb,Pattern_Changer,Grouser_Type,Backhoe_Mounting,Blade_Type,Travel_Controls,Differential_Type,Steering_Controls
615,1142134,47000,1039915,121,3.0,1999,11245.0,High,12/15/2005 0:00,WA380-3,WA380,,-3,,Medium,Wheel Loader - 175.0 to 200.0 Horsepower,South Carolina,WL,Wheel Loader,,EROPS w AC,None or Unspecified,,None or Unspecified,,,,,,,,2 Valve,,,,,23.5,None or Unspecified,,,,,,,,,,,,,Standard,Conventional
615,1148150,46000,1013328,121,3.0,1997,11424.0,Medium,8/23/2007 0:00,WA380-3,WA380,,-3,,Medium,Wheel Loader - 175.0 to 200.0 Horsepower,New Jersey,WL,Wheel Loader,,EROPS w AC,None or Unspecified,,None or Unspecified,,,,,,,,2 Valve,,,,,23.5,Manual,,,,,,,,,,,,,Standard,Conventional
615,1160928,60000,1022902,121,3.0,2000,9274.0,High,2/9/2006 0:00,WA380-3,WA380,,-3,,Medium,Wheel Loader - 175.0 to 200.0 Horsepower,Florida,WL,Wheel Loader,,EROPS w AC,Yes,,None or Unspecified,,,,,,,,2 Valve,,,,,23.5,Manual,,,,,,,,,,,,,Standard,Conventional
615,1180920,32000,1039915,121,3.0,1999,14121.0,High,6/19/2008 0:00,WA380-3,WA380,,-3,,Medium,Wheel Loader - 175.0 to 200.0 Horsepower,California,WL,Wheel Loader,,EROPS w AC,None or Unspecified,,None or Unspecified,,,,,,,,2 Valve,,,,,23.5,None or Unspecified,,,,,,,,,,,,,Standard,Conventional
615,1737021,51000,1299475,132,4.0,1000,,,10/30/2004 0:00,WA380-3,WA380,,-3,,Medium,Wheel Loader - 175.0 to 200.0 Horsepower,Pennsylvania,WL,Wheel Loader,,EROPS w AC,None or Unspecified,,None or Unspecified,,,,,,,,2 Valve,,,,,23.5,None or Unspecified,,,,,,,,,,,,,Standard,Conventional
615,1737022,38000,1299475,132,4.0,1000,,,2/7/2005 0:00,WA380-3,WA380,,-3,,Medium,Wheel Loader - 175.0 to 200.0 Horsepower,Florida,WL,Wheel Loader,,EROPS w AC,None or Unspecified,,None or Unspecified,,,,,,,,2 Valve,,,,,23.5,None or Unspecified,,,,,,,,,,,,,Standard,Conventional
615,1737646,47000,1014845,132,1.0,1996,,,2/21/2001 0:00,WA380-3,WA380,,-3,,Medium,Wheel Loader - 175.0 to 200.0 Horsepower,Florida,WL,Wheel Loader,,EROPS w AC,,,,,,,,,,,Auxiliary,,,,,,Manual,,,,,,,,,,,,,,
615,1745682,39750,1395065,132,5.0,1997,,,3/25/2003 0:00,WA380-3,WA380,,-3,,Medium,Wheel Loader - 175.0 to 200.0 Horsepower,Connecticut,WL,Wheel Loader,,OROPS,None or Unspecified,,None or Unspecified,,,,,,,,2 Valve,,,,,23.5,None or Unspecified,,,,,,,,,,,,,Standard,Conventional
615,1745683,73000,1173204,132,4.0,2000,,,2/10/2003 0:00,WA380-3,WA380,,-3,,Medium,Wheel Loader - 175.0 to 200.0 Horsepower,Florida,WL,Wheel Loader,,EROPS w AC,None or Unspecified,,None or Unspecified,,,,,,,,2 Valve,,,,,23.5,None or Unspecified,,,,,,,,,,,,,Standard,Conventional
615,1745684,81000,1452601,132,4.0,2000,,,2/10/2003 0:00,WA380-3,WA380,,-3,,Medium,Wheel Loader - 175.0 to 200.0 Horsepower,Florida,WL,Wheel Loader,,EROPS w AC,Yes,,None or Unspecified,,,,,,,,2 Valve,,,,,23.5,Manual,,,,,,,,,,,,,Standard,Conventional
615,1745685,84500,1188522,132,5.0,1999,,,9/29/2001 0:00,WA380-3,WA380,,-3,,Medium,Wheel Loader - 175.0 to 200.0 Horsepower,Maine,WL,Wheel Loader,,EROPS,None or Unspecified,,Yes,,,,,,,,2 Valve,,,,,23.5,None or Unspecified,,,,,,,,,,,,,Standard,Conventional
615,1750774,41000,1193782,132,1.0,1997,,,6/18/2003 0:00,WA380-3,WA380,,-3,,Medium,Wheel Loader - 175.0 to 200.0 Horsepower,Georgia,WL,Wheel Loader,,EROPS,,,,,,,,,,,Standard,,,,,,Manual,,,,,,,,,,,,,,
615,1750868,41000,1346500,132,1.0,1997,,,10/3/2002 0:00,WA380-3,WA380,,-3,,Medium,Wheel Loader - 175.0 to 200.0 Horsepower,Maryland,WL,Wheel Loader,,EROPS w AC,Yes,,None or Unspecified,,,,,,,,2 Valve,,,,,23.5,Manual,,,,,,,,,,,,,Standard,Conventional
615,1750914,52500,1525067,132,8.0,1997,,,11/20/2002 0:00,WA380-3,WA380,,-3,,Medium,Wheel Loader - 175.0 to 200.0 Horsepower,Mississippi,WL,Wheel Loader,,EROPS w AC,None or Unspecified,,None or Unspecified,,,,,,,,2 Valve,,,,,23.5,None or Unspecified,,,,,,,,,,,,,Standard,Conventional
615,1751035,71000,1134568,132,2.0,1998,,,5/4/2001 0:00,WA380-3,WA380,,-3,,Medium,Wheel Loader - 175.0 to 200.0 Horsepower,Georgia,WL,Wheel Loader,,EROPS w AC,Yes,,None or Unspecified,,,,,,,,2 Valve,,,,,26.5,Manual,,,,,,,,,,,,,Standard,Conventional
615,1751569,52000,1316414,132,4.0,2001,,,2/7/2005 0:00,WA380-3,WA380,,-3,,Medium,Wheel Loader - 175.0 to 200.0 Horsepower,Florida,WL,Wheel Loader,,EROPS w AC,None or Unspecified,,None or Unspecified,,,,,,,,2 Valve,,,,,None or Unspecified,None or Unspecified,,,,,,,,,,,,,Standard,Conventional
615,1751604,75000,1076145,132,1.0,2001,,,12/3/2002 0:00,WA380-3,WA380,,-3,,Medium,Wheel Loader - 175.0 to 200.0 Horsepower,Colorado,WL,Wheel Loader,,EROPS w AC,None or Unspecified,,None or Unspecified,,,,,,,,2 Valve,,,,,23.5,None or Unspecified,,,,,,,,,,,,,Standard,Conventional
615,1764762,23000,1214374,132,2.0,1991,,,2/7/2000 0:00,WA380-3,WA380,,-3,,Medium,Wheel Loader - 175.0 to 200.0 Horsepower,Florida,WL,Wheel Loader,,EROPS,None or Unspecified,,None or Unspecified,,,,,,,,3 Valve,,,,,None or Unspecified,None or Unspecified,,,,,,,,,,,,,Standard,Conventional
615,1764803,37000,202055,132,1.0,1993,,,6/25/2003 0:00,WA380-3,WA380,,-3,,Medium,Wheel Loader - 175.0 to 200.0 Horsepower,Colorado,WL,Wheel Loader,,EROPS,None or Unspecified,,None or Unspecified,,,,,,,,2 Valve,,,,,20.5,None or Unspecified,,,,,,,,,,,,,Standard,Conventional
615,1764835,30000,1346242,132,2.0,1991,,,2/7/2000 0:00,WA380-3,WA380,,-3,,Medium,Wheel Loader - 175.0 to 200.0 Horsepower,Florida,WL,Wheel Loader,,EROPS w AC,None or Unspecified,,None or Unspecified,,,,,,,,2 Valve,,,,,23.5,None or Unspecified,,,,,,,,,,,,,Standard,Conventional
615,1764871,23500,1490523,132,8.0,1000,,,2/16/2007 0:00,WA380-3,WA380,,-3,,Medium,Wheel Loader - 175.0 to 200.0 Horsepower,Florida,WL,Wheel Loader,,EROPS,None or Unspecified,,None or Unspecified,,,,,,,,2 Valve,,,,,None or Unspecified,None or Unspecified,,,,,,,,,,,,,Standard,Conventional
615,1764876,29000,790667,132,4.0,1997,,,2/7/2005 0:00,WA380-3,WA380,,-3,,Medium,Wheel Loader - 175.0 to 200.0 Horsepower,Florida,WL,Wheel Loader,,OROPS,Yes,,None or Unspecified,,,,,,,,2 Valve,,,,,None or Unspecified,Manual,,,,,,,,,,,,,Standard,Conventional
615,1764905,38000,1545851,132,1.0,1996,,,3/1/2005 0:00,WA380-3,WA380,,-3,,Medium,Wheel Loader - 175.0 to 200.0 Horsepower,Illinois,WL,Wheel Loader,,EROPS,None or Unspecified,,None or Unspecified,,,,,,,,2 Valve,,,,,23.5,Manual,,,,,,,,,,,,,Standard,Conventional
615,1764908,36000,1543692,132,4.0,1997,,,2/13/2007 0:00,WA380-3,WA380,,-3,,Medium,Wheel Loader - 175.0 to 200.0 Horsepower,Florida,WL,Wheel Loader,,EROPS w AC,None or Unspecified,,None or Unspecified,,,,,,,,2 Valve,,,,,23.5,None or Unspecified,,,,,,,,,,,,,Standard,Conventional
615,1764909,36000,1543692,132,4.0,1997,,,2/12/2007 0:00,WA380-3,WA380,,-3,,Medium,Wheel Loader - 175.0 to 200.0 Horsepower,Florida,WL,Wheel Loader,,EROPS w AC,None or Unspecified,,None or Unspecified,,,,,,,,2 Valve,,,,,23.5,None or Unspecified,,,,,,,,,,,,,Standard,Conventional
615,1764913,37500,1264758,132,1.0,1996,,,12/7/2004 0:00,WA380-3,WA380,,-3,,Medium,Wheel Loader - 175.0 to 200.0 Horsepower,Colorado,WL,Wheel Loader,,EROPS,None or Unspecified,,None or Unspecified,,,,,,,,2 Valve,,,,,23.5,None or Unspecified,,,,,,,,,,,,,Standard,Conventional
615,1764919,56000,1063567,132,1.0,1000,,,2/20/2007 0:00,WA380-3,WA380,,-3,,Medium,Wheel Loader - 175.0 to 200.0 Horsepower,Florida,WL,Wheel Loader,,EROPS w AC,Yes,,None or Unspecified,,,,,,,,2 Valve,,,,,23.5,Manual,,,,,,,,,,,,,Standard,Conventional
615,1764921,37000,191104,132,1.0,1996,,,6/25/2003 0:00,WA380-3,WA380,,-3,,Medium,Wheel Loader - 175.0 to 200.0 Horsepower,Colorado,WL,Wheel Loader,,EROPS,None or Unspecified,,None or Unspecified,,,,,,,,2 Valve,,,,,20.5,None or Unspecified,,,,,,,,,,,,,Standard,Conventional
615,1764922,47000,191104,132,1.0,1997,,,3/25/2004 0:00,WA380-3,WA380,,-3,,Medium,Wheel Loader - 175.0 to 200.0 Horsepower,Colorado,WL,Wheel Loader,,EROPS,None or Unspecified,,None or Unspecified,,,,,,,,2 Valve,,,,,20.5,None or Unspecified,,,,,,,,,,,,,Standard,Conventional
615,1764923,52000,1443492,132,99.0,1996,,,10/20/2000 0:00,WA380-3,WA380,,-3,,Medium,Wheel Loader - 175.0 to 200.0 Horsepower,Minnesota,WL,Wheel Loader,,EROPS w AC,None or Unspecified,,None or Unspecified,,,,,,,,2 Valve,,,,,23.5,None or Unspecified,,,,,,,,,,,,,Standard,Conventional
615,1764928,41000,1192988,132,3.0,1996,,,10/30/2003 0:00,WA380-3,WA380,,-3,,Medium,Wheel Loader - 175.0 to 200.0 Horsepower,Unspecified,WL,Wheel Loader,,EROPS w AC,None or Unspecified,,None or Unspecified,,,,,,,,2 Valve,,,,,None or Unspecified,None or Unspecified,,,,,,,,,,,,,Standard,Conventional
615,1764932,40000,1256304,132,1.0,1997,,,11/30/2006 0:00,WA380-3,WA380,,-3,,Medium,Wheel Loader - 175.0 to 200.0 Horsepower,Colorado,WL,Wheel Loader,,EROPS,None or Unspecified,,None or Unspecified,,,,,,,,2 Valve,,,,,23.5,None or Unspecified,,,,,,,,,,,,,Standard,Conventional
615,1764933,54500,1260040,132,2.0,1997,,,2/1/2004 0:00,WA380-3,WA380,,-3,,Medium,Wheel Loader - 175.0 to 200.0 Horsepower,Florida,WL,Wheel Loader,,OROPS,None or Unspecified,,None or Unspecified,,,,,,,,2 Valve,,,,,None or Unspecified,None or Unspecified,,,,,,,,,,,,,Standard,Conventional
615,1764934,43000,1084439,132,1.0,1997,,,11/30/2006 0:00,WA380-3,WA380,,-3,,Medium,Wheel Loader - 175.0 to 200.0 Horsepower,Colorado,WL,Wheel Loader,,EROPS,None or Unspecified,,None or Unspecified,,,,,,,,2 Valve,,,,,23.5,None or Unspecified,,,,,,,,,,,,,Standard,Conventional
615,1764940,67000,1371197,132,1.0,1997,,,6/12/2002 0:00,WA380-3,WA380,,-3,,Medium,Wheel Loader - 175.0 to 200.0 Horsepower,Texas,WL,Wheel Loader,,EROPS w AC,Yes,,None or Unspecified,,,,,,,,2 Valve,,,,,23.5,Manual,,,,,,,,,,,,,Standard,Conventional
615,1764942,32500,734531,132,7.0,1997,,,11/30/2006 0:00,WA380-3,WA380,,-3,,Medium,Wheel Loader - 175.0 to 200.0 Horsepower,Alabama,WL,Wheel Loader,,EROPS,None or Unspecified,,None or Unspecified,,,,,,,,2 Valve,,,,,23.5,None or Unspecified,,,,,,,,,,,,,Standard,Conventional
615,1764943,56000,1166005,132,1.0,1997,,,2/20/2007 0:00,WA380-3,WA380,,-3,,Medium,Wheel Loader - 175.0 to 200.0 Horsepower,Florida,WL,Wheel Loader,,EROPS w AC,Yes,,None or Unspecified,,,,,,,,2 Valve,,,,,23.5,Manual,,,,,,,,,,,,,Standard,Conventional
615,1764947,46000,830853,132,4.0,1997,,,6/23/2003 0:00,WA380-3,WA380,,-3,,Medium,Wheel Loader - 175.0 to 200.0 Horsepower,New Hampshire,WL,Wheel Loader,,EROPS,Yes,,None or Unspecified,,,,,,,,2 Valve,,,,,23.5,Manual,,,,,,,,,,,,,Standard,Conventional
615,1764948,42500,830853,132,5.0,1997,,,9/20/2002 0:00,WA380-3,WA380,,-3,,Medium,Wheel Loader - 175.0 to 200.0 Horsepower,Connecticut,WL,Wheel Loader,,EROPS,Yes,,None or Unspecified,,,,,,,,2 Valve,,,,,23.5,Manual,,,,,,,,,,,,,Standard,Conventional
615,1764951,49000,1504626,132,1.0,1997,,,3/23/2004 0:00,WA380-3,WA380,,-3,,Medium,Wheel Loader - 175.0 to 200.0 Horsepower,Nevada,WL,Wheel Loader,,EROPS w AC,None or Unspecified,,None or Unspecified,,,,,,,,2 Valve,,,,,23.5,None or Unspecified,,,,,,,,,,,,,Standard,Conventional
615,1764952,42000,1116751,132,4.0,1997,,,2/12/2007 0:00,WA380-3,WA380,,-3,,Medium,Wheel Loader - 175.0 to 200.0 Horsepower,Florida,WL,Wheel Loader,,EROPS w AC,None or Unspecified,,None or Unspecified,,,,,,,,2 Valve,,,,,None or Unspecified,Manual,,,,,,,,,,,,,Standard,Conventional
615,1764955,60000,1434520,132,7.0,1997,,,9/5/2002 0:00,WA380-3,WA380,,-3,,Medium,Wheel Loader - 175.0 to 200.0 Horsepower,Alabama,WL,Wheel Loader,,EROPS w AC,None or Unspecified,,None or Unspecified,,,,,,,,2 Valve,,,,,23.5,None or Unspecified,,,,,,,,,,,,,Standard,Conventional
615,1764956,52500,1434520,132,8.0,1997,,,9/18/2002 0:00,WA380-3,WA380,,-3,,Medium,Wheel Loader - 175.0 to 200.0 Horsepower,Mississippi,WL,Wheel Loader,,EROPS w AC,None or Unspecified,,None or Unspecified,,,,,,,,2 Valve,,,,,23.5,None or Unspecified,,,,,,,,,,,,,Standard,Conventional
615,1764957,61000,1434520,132,4.0,1997,,,2/10/2003 0:00,WA380-3,WA380,,-3,,Medium,Wheel Loader - 175.0 to 200.0 Horsepower,Florida,WL,Wheel Loader,,EROPS w AC,None or Unspecified,,None or Unspecified,,,,,,,,2 Valve,,,,,23.5,None or Unspecified,,,,,,,,,,,,,Standard,Conventional
615,1764958,45000,1434520,132,2.0,1997,,,6/4/2002 0:00,WA380-3,WA380,,-3,,Medium,Wheel Loader - 175.0 to 200.0 Horsepower,Alabama,WL,Wheel Loader,,EROPS w AC,None or Unspecified,,None or Unspecified,,,,,,,,2 Valve,,,,,23.5,None or Unspecified,,,,,,,,,,,,,Standard,Conventional
615,1764960,77500,1260012,132,99.0,1997,,,10/20/2000 0:00,WA380-3,WA380,,-3,,Medium,Wheel Loader - 175.0 to 200.0 Horsepower,Minnesota,WL,Wheel Loader,,EROPS w AC,None or Unspecified,,None or Unspecified,,,,,,,,2 Valve,,,,,23.5,None or Unspecified,,,,,,,,,,,,,Standard,Conventional
615,1764963,56000,1476170,132,5.0,1997,,,2/2/2001 0:00,WA380-3,WA380,,-3,,Medium,Wheel Loader - 175.0 to 200.0 Horsepower,Florida,WL,Wheel Loader,,EROPS,None or Unspecified,,None or Unspecified,,,,,,,,2 Valve,,,,,23.5,None or Unspecified,,,,,,,,,,,,,Standard,Conventional
615,1764964,77000,1373361,132,1.0,1997,,,3/21/2001 0:00,WA380-3,WA380,,-3,,Medium,Wheel Loader - 175.0 to 200.0 Horsepower,Texas,WL,Wheel Loader,,EROPS,None or Unspecified,,None or Unspecified,,,,,,,,2 Valve,,,,,23.5,None or Unspecified,,,,,,,,,,,,,Standard,Conventional
615,1764965,38500,1353691,132,4.0,1997,,,2/12/2007 0:00,WA380-3,WA380,,-3,,Medium,Wheel Loader - 175.0 to 200.0 Horsepower,Florida,WL,Wheel Loader,,EROPS,None or Unspecified,,None or Unspecified,,,,,,,,2 Valve,,,,,23.5,None or Unspecified,,,,,,,,,,,,,Standard,Conventional
615,1764966,32000,1147364,132,10.0,1997,,,3/10/2004 0:00,WA380-3,WA380,,-3,,Medium,Wheel Loader - 175.0 to 200.0 Horsepower,Louisiana,WL,Wheel Loader,,EROPS,None or Unspecified,,None or Unspecified,,,,,,,,2 Valve,,,,,None or Unspecified,None or Unspecified,,,,,,,,,,,,,Standard,Conventional
615,1764967,56000,1218819,132,2.0,1997,,,10/30/2004 0:00,WA380-3,WA380,,-3,,Medium,Wheel Loader - 175.0 to 200.0 Horsepower,New York,WL,Wheel Loader,,EROPS w AC,None or Unspecified,,None or Unspecified,,,,,,,,2 Valve,,,,,23.5,None or Unspecified,,,,,,,,,,,,,Standard,Conventional
615,1764968,49500,1218819,132,8.0,1997,,,5/28/2003 0:00,WA380-3,WA380,,-3,,Medium,Wheel Loader - 175.0 to 200.0 Horsepower,Mississippi,WL,Wheel Loader,,EROPS w AC,None or Unspecified,,None or Unspecified,,,,,,,,2 Valve,,,,,23.5,None or Unspecified,,,,,,,,,,,,,Standard,Conventional
615,1764969,41000,1218819,132,1.0,1997,,,4/3/2003 0:00,WA380-3,WA380,,-3,,Medium,Wheel Loader - 175.0 to 200.0 Horsepower,Georgia,WL,Wheel Loader,,EROPS w AC,None or Unspecified,,None or Unspecified,,,,,,,,2 Valve,,,,,23.5,None or Unspecified,,,,,,,,,,,,,Standard,Conventional
615,1764970,67500,1535610,132,2.0,1997,,,5/4/2001 0:00,WA380-3,WA380,,-3,,Medium,Wheel Loader - 175.0 to 200.0 Horsepower,Georgia,WL,Wheel Loader,,EROPS w AC,Yes,,None or Unspecified,,,,,,,,2 Valve,,,,,26.5,Manual,,,,,,,,,,,,,Standard,Conventional
615,1764971,57500,1456597,132,1.0,1997,,,3/11/2003 0:00,WA380-3,WA380,,-3,,Medium,Wheel Loader - 175.0 to 200.0 Horsepower,Colorado,WL,Wheel Loader,,EROPS w AC,None or Unspecified,,None or Unspecified,,,,,,,,2 Valve,,,,,23.5,None or Unspecified,,,,,,,,,,,,,Standard,Conventional
615,1764972,37000,1430518,132,1.0,1997,,,5/18/2004 0:00,WA380-3,WA380,,-3,,Medium,Wheel Loader - 175.0 to 200.0 Horsepower,Arizona,WL,Wheel Loader,,OROPS,None or Unspecified,,None or Unspecified,,,,,,,,2 Valve,,,,,23.5,None or Unspecified,,,,,,,,,,,,,Standard,Conventional
615,1764973,35000,1430518,132,1.0,1997,,,9/13/2005 0:00,WA380-3,WA380,,-3,,Medium,Wheel Loader - 175.0 to 200.0 Horsepower,California,WL,Wheel Loader,,OROPS,None or Unspecified,,None or Unspecified,,,,,,,,2 Valve,,,,,23.5,None or Unspecified,,,,,,,,,,,,,Standard,Conventional
615,1764982,63000,1315885,132,1.0,1997,,,6/25/2003 0:00,WA380-3,WA380,,-3,,Medium,Wheel Loader - 175.0 to 200.0 Horsepower,Colorado,WL,Wheel Loader,,EROPS w AC,None or Unspecified,,None or Unspecified,,,,,,,,2 Valve,,,,,23.5,None or Unspecified,,,,,,,,,,,,,Standard,Conventional
615,1764983,37000,1541933,132,10.0,1997,,,6/27/2001 0:00,WA380-3,WA380,,-3,,Medium,Wheel Loader - 175.0 to 200.0 Horsepower,Louisiana,WL,Wheel Loader,,EROPS w AC,None or Unspecified,,None or Unspecified,,,,,,,,2 Valve,,,,,23.5,None or Unspecified,,,,,,,,,,,,,Standard,Conventional
615,1764984,46000,1117514,132,2.0,1998,,,11/14/2003 0:00,WA380-3,WA380,,-3,,Medium,Wheel Loader - 175.0 to 200.0 Horsepower,New Hampshire,WL,Wheel Loader,,EROPS w AC,None or Unspecified,,None or Unspecified,,,,,,,,2 Valve,,,,,23.5,None or Unspecified,,,,,,,,,,,,,Standard,Conventional
615,1764985,42000,1530110,132,3.0,1998,,,10/30/2003 0:00,WA380-3,WA380,,-3,,Medium,Wheel Loader - 175.0 to 200.0 Horsepower,Unspecified,WL,Wheel Loader,,EROPS,None or Unspecified,,None or Unspecified,,,,,,,,2 Valve,,,,,None or Unspecified,None or Unspecified,,,,,,,,,,,,,Standard,Conventional
615,1764986,42000,1312259,132,1.0,1998,,,12/1/2006 0:00,WA380-3,WA380,,-3,,Medium,Wheel Loader - 175.0 to 200.0 Horsepower,Nevada,WL,Wheel Loader,,EROPS w AC,None or Unspecified,,None or Unspecified,,,,,,,,2 Valve,,,,,23.5,Manual,,,,,,,,,,,,,Standard,Conventional
615,1764988,53000,1368485,132,1.0,1998,,,3/16/2006 0:00,WA380-3,WA380,,-3,,Medium,Wheel Loader - 175.0 to 200.0 Horsepower,Colorado,WL,Wheel Loader,,EROPS,None or Unspecified,,None or Unspecified,,,,,,,,2 Valve,,,,,23.5,None or Unspecified,,,,,,,,,,,,,Standard,Conventional
615,1764990,46000,1364819,132,1.0,1998,,,5/30/2002 0:00,WA380-3,WA380,,-3,,Medium,Wheel Loader - 175.0 to 200.0 Horsepower,New Mexico,WL,Wheel Loader,,EROPS w AC,None or Unspecified,,None or Unspecified,,,,,,,,2 Valve,,,,,23.5,None or Unspecified,,,,,,,,,,,,,Standard,Conventional
615,1764991,52000,1363496,132,1.0,1998,,,5/18/2001 0:00,WA380-3,WA380,,-3,,Medium,Wheel Loader - 175.0 to 200.0 Horsepower,Pennsylvania,WL,Wheel Loader,,EROPS w AC,None or Unspecified,,None or Unspecified,,,,,,,,2 Valve,,,,,None or Unspecified,None or Unspecified,,,,,,,,,,,,,Standard,Conventional
615,1764993,48000,1262990,132,3.0,1998,,,4/25/2002 0:00,WA380-3,WA380,,-3,,Medium,Wheel Loader - 175.0 to 200.0 Horsepower,Unspecified,WL,Wheel Loader,,EROPS,None or Unspecified,,None or Unspecified,,,,,,,,2 Valve,,,,,None or Unspecified,Manual,,,,,,,,,,,,,Standard,Conventional
615,1764994,65000,1264312,132,8.0,1998,,,5/29/2002 0:00,WA380-3,WA380,,-3,,Medium,Wheel Loader - 175.0 to 200.0 Horsepower,Mississippi,WL,Wheel Loader,,EROPS,Yes,,None or Unspecified,,,,,,,,2 Valve,,,,,23.5,Manual,,,,,,,,,,,,,Standard,Conventional
615,1764995,27000,1530624,132,2.0,1998,,,2/3/2011 0:00,WA380-3,WA380,,-3,,Medium,Wheel Loader - 175.0 to 200.0 Horsepower,Florida,WL,Wheel Loader,,OROPS,Yes,,None or Unspecified,,,,,,,,2 Valve,,,,,None or Unspecified,Manual,,,,,,,,,,,,,Standard,Conventional
615,1764997,49000,1418790,132,1.0,1998,,,12/3/2002 0:00,WA380-3,WA380,,-3,,Medium,Wheel Loader - 175.0 to 200.0 Horsepower,Colorado,WL,Wheel Loader,,EROPS,,,,,,,,,,,Standard,,,,,,None or Unspecified,,,,,,,,,,,,,,
615,1764999,70000,1502052,132,4.0,1998,,,2/13/2006 0:00,WA380-3,WA380,,-3,,Medium,Wheel Loader - 175.0 to 200.0 Horsepower,Florida,WL,Wheel Loader,,EROPS w AC,None or Unspecified,,None or Unspecified,,,,,,,,2 Valve,,,,,23.5,None or Unspecified,,,,,,,,,,,,,Standard,Conventional
615,1765000,70000,1502052,132,4.0,1998,,,2/14/2006 0:00,WA380-3,WA380,,-3,,Medium,Wheel Loader - 175.0 to 200.0 Horsepower,Florida,WL,Wheel Loader,,EROPS w AC,None or Unspecified,,None or Unspecified,,,,,,,,2 Valve,,,,,23.5,None or Unspecified,,,,,,,,,,,,,Standard,Conventional
615,1765005,49500,362972,132,2.0,1997,,,6/13/2001 0:00,WA380-3,WA380,,-3,,Medium,Wheel Loader - 175.0 to 200.0 Horsepower,California,WL,Wheel Loader,,EROPS w AC,None or Unspecified,,None or Unspecified,,,,,,,,2 Valve,,,,,None or Unspecified,None or Unspecified,,,,,,,,,,,,,Standard,Conventional
615,1765006,42000,1393462,132,1.0,1998,,,12/12/2006 0:00,WA380-3,WA380,,-3,,Medium,Wheel Loader - 175.0 to 200.0 Horsepower,California,WL,Wheel Loader,,EROPS w AC,None or Unspecified,,None or Unspecified,,,,,,,,2 Valve,,,,,23.5,None or Unspecified,,,,,,,,,,,,,Standard,Conventional
615,1765008,50000,1227388,132,12.0,1998,,,8/17/2005 0:00,WA380-3,WA380,,-3,,Medium,Wheel Loader - 175.0 to 200.0 Horsepower,South Carolina,WL,Wheel Loader,,EROPS w AC,None or Unspecified,,None or Unspecified,,,,,,,,2 Valve,,,,,23.5,Hydraulic,,,,,,,,,,,,,Standard,Conventional
615,1765012,56000,1099534,132,8.0,1999,,,5/26/2004 0:00,WA380-3,WA380,,-3,,Medium,Wheel Loader - 175.0 to 200.0 Horsepower,Mississippi,WL,Wheel Loader,,EROPS w AC,None or Unspecified,,None or Unspecified,,,,,,,,2 Valve,,,,,None or Unspecified,None or Unspecified,,,,,,,,,,,,,Standard,Conventional
615,1765015,57000,1263896,132,1.0,1998,,,3/23/2004 0:00,WA380-3,WA380,,-3,,Medium,Wheel Loader - 175.0 to 200.0 Horsepower,Nevada,WL,Wheel Loader,,EROPS w AC,None or Unspecified,,None or Unspecified,,,,,,,,2 Valve,,,,,23.5,None or Unspecified,,,,,,,,,,,,,Standard,Conventional
615,1765016,60000,1260609,132,1.0,1998,,,11/29/2005 0:00,WA380-3,WA380,,-3,,Medium,Wheel Loader - 175.0 to 200.0 Horsepower,Colorado,WL,Wheel Loader,,EROPS,Yes,,None or Unspecified,,,,,,,,2 Valve,,,,,23.5,Manual,,,,,,,,,,,,,Standard,Conventional
615,1765017,75000,1075192,132,5.0,1998,,,2/2/2001 0:00,WA380-3,WA380,,-3,,Medium,Wheel Loader - 175.0 to 200.0 Horsepower,Florida,WL,Wheel Loader,,EROPS,None or Unspecified,,None or Unspecified,,,,,,,,2 Valve,,,,,20.5,None or Unspecified,,,,,,,,,,,,,Standard,Conventional
615,1765018,72000,1102825,132,4.0,1998,,,2/9/2004 0:00,WA380-3,WA380,,-3,,Medium,Wheel Loader - 175.0 to 200.0 Horsepower,Florida,WL,Wheel Loader,,EROPS w AC,Yes,,None or Unspecified,,,,,,,,2 Valve,,,,,23.5,Manual,,,,,,,,,,,,,Standard,Conventional
615,1765019,55000,1501384,132,1.0,1998,,,2/20/2003 0:00,WA380-3,WA380,,-3,,Medium,Wheel Loader - 175.0 to 200.0 Horsepower,Florida,WL,Wheel Loader,,EROPS,None or Unspecified,,None or Unspecified,,,,,,,,2 Valve,,,,,23.5,None or Unspecified,,,,,,,,,,,,,Standard,Conventional
615,1765021,76000,1106427,132,1.0,1998,,,6/14/2005 0:00,WA380-3,WA380,,-3,,Medium,Wheel Loader - 175.0 to 200.0 Horsepower,California,WL,Wheel Loader,,EROPS w AC,None or Unspecified,,None or Unspecified,,,,,,,,2 Valve,,,,,23.5,None or Unspecified,,,,,,,,,,,,,Standard,Conventional
615,1765024,66000,1184289,132,5.0,1998,,,2/2/2001 0:00,WA380-3,WA380,,-3,,Medium,Wheel Loader - 175.0 to 200.0 Horsepower,Florida,WL,Wheel Loader,,EROPS w AC,None or Unspecified,,None or Unspecified,,,,,,,,2 Valve,,,,,23.5,None or Unspecified,,,,,,,,,,,,,Standard,Conventional
615,1765026,57500,1278363,132,1.0,1998,,,10/14/2004 0:00,WA380-3,WA380,,-3,,Medium,Wheel Loader - 175.0 to 200.0 Horsepower,Florida,WL,Wheel Loader,,EROPS w AC,None or Unspecified,,None or Unspecified,,,,,,,,2 Valve,,,,,23.5,Manual,,,,,,,,,,,,,Standard,Conventional
615,1765028,72500,1195288,132,5.0,1998,,,2/2/2001 0:00,WA380-3,WA380,,-3,,Medium,Wheel Loader - 175.0 to 200.0 Horsepower,Florida,WL,Wheel Loader,,EROPS w AC,None or Unspecified,,None or Unspecified,,,,,,,,2 Valve,,,,,23.5,None or Unspecified,,,,,,,,,,,,,Standard,Conventional
615,1765029,83000,1239022,132,1.0,1998,,,6/14/2005 0:00,WA380-3,WA380,,-3,,Medium,Wheel Loader - 175.0 to 200.0 Horsepower,California,WL,Wheel Loader,,EROPS w AC,None or Unspecified,,None or Unspecified,,,,,,,,2 Valve,,,,,23.5,None or Unspecified,,,,,,,,,,,,,Standard,Conventional
615,1765031,69000,1323373,132,2.0,1999,,,3/23/2006 0:00,WA380-3,WA380,,-3,,Medium,Wheel Loader - 175.0 to 200.0 Horsepower,New Jersey,WL,Wheel Loader,,EROPS w AC,None or Unspecified,,None or Unspecified,,,,,,,,2 Valve,,,,,23.5,None or Unspecified,,,,,,,,,,,,,Standard,Conventional
615,1765032,69000,1355441,132,2.0,1999,,,3/23/2006 0:00,WA380-3,WA380,,-3,,Medium,Wheel Loader - 175.0 to 200.0 Horsepower,New Jersey,WL,Wheel Loader,,EROPS w AC,None or Unspecified,,None or Unspecified,,,,,,,,2 Valve,,,,,23.5,None or Unspecified,,,,,,,,,,,,,Standard,Conventional
615,1765033,50000,1213910,132,1.0,1998,,,12/3/2002 0:00,WA380-3,WA380,,-3,,Medium,Wheel Loader - 175.0 to 200.0 Horsepower,Colorado,WL,Wheel Loader,,EROPS,None or Unspecified,,None or Unspecified,,,,,,,,2 Valve,,,,,23.5,None or Unspecified,,,,,,,,,,,,,Standard,Conventional
615,1765034,67500,1076940,132,1.0,1999,,,6/23/2005 0:00,WA380-3,WA380,,-3,,Medium,Wheel Loader - 175.0 to 200.0 Horsepower,Washington,WL,Wheel Loader,,EROPS,Yes,,None or Unspecified,,,,,,,,2 Valve,,,,,23.5,Manual,,,,,,,,,,,,,Standard,Conventional
615,1765037,60000,1332169,132,1.0,1999,,,11/29/2005 0:00,WA380-3,WA380,,-3,,Medium,Wheel Loader - 175.0 to 200.0 Horsepower,Colorado,WL,Wheel Loader,,EROPS w AC,None or Unspecified,,None or Unspecified,,,,,,,,2 Valve,,,,,23.5,None or Unspecified,,,,,,,,,,,,,Standard,Conventional
615,1765038,63000,1332169,132,1.0,1999,,,9/30/2003 0:00,WA380-3,WA380,,-3,,Medium,Wheel Loader - 175.0 to 200.0 Horsepower,Colorado,WL,Wheel Loader,,EROPS w AC,None or Unspecified,,None or Unspecified,,,,,,,,2 Valve,,,,,23.5,None or Unspecified,,,,,,,,,,,,,Standard,Conventional
615,1765039,45000,1332169,132,1.0,1999,,,6/24/2010 0:00,WA380-3,WA380,,-3,,Medium,Wheel Loader - 175.0 to 200.0 Horsepower,Arizona,WL,Wheel Loader,,EROPS w AC,None or Unspecified,,None or Unspecified,,,,,,,,2 Valve,,,,,23.5,None or Unspecified,,,,,,,,,,,,,Standard,Conventional
615,1765043,55000,1426661,132,1.0,1999,,,8/30/2006 0:00,WA380-3,WA380,,-3,,Medium,Wheel Loader - 175.0 to 200.0 Horsepower,Georgia,WL,Wheel Loader,,EROPS w AC,None or Unspecified,,None or Unspecified,,,,,,,,2 Valve,,,,,23.5,None or Unspecified,,,,,,,,,,,,,Standard,Conventional
615,1765046,57000,798570,132,1.0,1999,,,5/26/2005 0:00,WA380-3,WA380,,-3,,Medium,Wheel Loader - 175.0 to 200.0 Horsepower,Florida,WL,Wheel Loader,,EROPS w AC,Yes,,None or Unspecified,,,,,,,,2 Valve,,,,,23.5,Manual,,,,,,,,,,,,,Standard,Conventional
615,1765050,52500,1168089,132,1.0,1999,,,6/11/2003 0:00,WA380-3,WA380,,-3,,Medium,Wheel Loader - 175.0 to 200.0 Horsepower,Texas,WL,Wheel Loader,,EROPS w AC,None or Unspecified,,None or Unspecified,,,,,,,,2 Valve,,,,,23.5,None or Unspecified,,,,,,,,,,,,,Standard,Conventional
615,1765051,64000,1311384,132,1.0,1999,,,11/3/2005 0:00,WA380-3,WA380,,-3,,Medium,Wheel Loader - 175.0 to 200.0 Horsepower,New Mexico,WL,Wheel Loader,,EROPS w AC,Yes,,None or Unspecified,,,,,,,,2 Valve,,,,,23.5,None or Unspecified,,,,,,,,,,,,,Standard,Conventional
615,1765055,55000,1441121,132,5.0,2001,,,9/28/2006 0:00,WA380-3,WA380,,-3,,Medium,Wheel Loader - 175.0 to 200.0 Horsepower,Connecticut,WL,Wheel Loader,,EROPS,None or Unspecified,,None or Unspecified,,,,,,,,2 Valve,,,,,23.5,None or Unspecified,,,,,,,,,,,,,Standard,Conventional
615,1765059,65000,204787,132,1.0,1999,,,6/25/2003 0:00,WA380-3,WA380,,-3,,Medium,Wheel Loader - 175.0 to 200.0 Horsepower,Colorado,WL,Wheel Loader,,EROPS w AC,None or Unspecified,,None or Unspecified,,,,,,,,2 Valve,,,,,20.5,None or Unspecified,,,,,,,,,,,,,Standard,Conventional
615,1765060,71000,212565,132,1.0,1999,,,6/25/2003 0:00,WA380-3,WA380,,-3,,Medium,Wheel Loader - 175.0 to 200.0 Horsepower,Colorado,WL,Wheel Loader,,EROPS w AC,None or Unspecified,,None or Unspecified,,,,,,,,2 Valve,,,,,20.5,None or Unspecified,,,,,,,,,,,,,Standard,Conventional
615,1765064,38500,1495438,132,4.0,1999,,,2/12/2007 0:00,WA380-3,WA380,,-3,,Medium,Wheel Loader - 175.0 to 200.0 Horsepower,Florida,WL,Wheel Loader,,EROPS,None or Unspecified,,None or Unspecified,,,,,,,,2 Valve,,,,,None or Unspecified,None or Unspecified,,,,,,,,,,,,,Standard,Conventional
615,1765066,45000,1039915,132,2.0,1999,,,6/24/2005 0:00,WA380-3,WA380,,-3,,Medium,Wheel Loader - 175.0 to 200.0 Horsepower,Georgia,WL,Wheel Loader,,EROPS w AC,None or Unspecified,,None or Unspecified,,,,,,,,2 Valve,,,,,23.5,None or Unspecified,,,,,,,,,,,,,Standard,Conventional
615,1765068,49000,1039915,132,1.0,1999,,,5/26/2005 0:00,WA380-3,WA380,,-3,,Medium,Wheel Loader - 175.0 to 200.0 Horsepower,Florida,WL,Wheel Loader,,EROPS w AC,None or Unspecified,,None or Unspecified,,,,,,,,2 Valve,,,,,23.5,None or Unspecified,,,,,,,,,,,,,Standard,Conventional
615,1765074,81000,573629,132,2.0,1999,,,10/11/2002 0:00,WA380-3,WA380,,-3,,Medium,Wheel Loader - 175.0 to 200.0 Horsepower,Florida,WL,Wheel Loader,,EROPS w AC,Yes,,None or Unspecified,,,,,,,,2 Valve,,,,,None or Unspecified,Manual,,,,,,,,,,,,,Standard,Conventional
615,1765076,65000,1313702,132,4.0,2000,,,2/12/2007 0:00,WA380-3,WA380,,-3,,Medium,Wheel Loader - 175.0 to 200.0 Horsepower,Florida,WL,Wheel Loader,,EROPS w AC,None or Unspecified,,None or Unspecified,,,,,,,,2 Valve,,,,,None or Unspecified,Manual,,,,,,,,,,,,,Standard,Conventional
615,1765077,65000,1313702,132,4.0,2000,,,2/13/2007 0:00,WA380-3,WA380,,-3,,Medium,Wheel Loader - 175.0 to 200.0 Horsepower,Florida,WL,Wheel Loader,,EROPS w AC,None or Unspecified,,None or Unspecified,,,,,,,,2 Valve,,,,,None or Unspecified,Manual,,,,,,,,,,,,,Standard,Conventional
615,1765080,40500,1556942,132,2.0,1000,,,12/8/2003 0:00,WA380-3,WA380,,-3,,Medium,Wheel Loader - 175.0 to 200.0 Horsepower,California,WL,Wheel Loader,,EROPS,None or Unspecified,,None or Unspecified,,,,,,,,2 Valve,,,,,None or Unspecified,None or Unspecified,,,,,,,,,,,,,Standard,Conventional
615,1765081,42000,1488726,132,1.0,1999,,,2/27/2007 0:00,WA380-3,WA380,,-3,,Medium,Wheel Loader - 175.0 to 200.0 Horsepower,California,WL,Wheel Loader,,EROPS w AC,None or Unspecified,,None or Unspecified,,,,,,,,2 Valve,,,,,23.5,Manual,,,,,,,,,,,,,Standard,Conventional
615,1765084,59000,1131900,132,1.0,1999,,,2/17/2004 0:00,WA380-3,WA380,,-3,,Medium,Wheel Loader - 175.0 to 200.0 Horsepower,Florida,WL,Wheel Loader,,OROPS,None or Unspecified,,None or Unspecified,,,,,,,,2 Valve,,,,,None or Unspecified,Manual,,,,,,,,,,,,,Standard,Conventional
615,1765087,67000,1383146,132,12.0,1000,,,8/17/2005 0:00,WA380-3,WA380,,-3,,Medium,Wheel Loader - 175.0 to 200.0 Horsepower,South Carolina,WL,Wheel Loader,,EROPS,None or Unspecified,,None or Unspecified,,,,,,,,2 Valve,,,,,None or Unspecified,None or Unspecified,,,,,,,,,,,,,Standard,Conventional
615,1765088,72000,1164853,132,7.0,1999,,,12/2/2004 0:00,WA380-3,WA380,,-3,,Medium,Wheel Loader - 175.0 to 200.0 Horsepower,Alabama,WL,Wheel Loader,,EROPS w AC,None or Unspecified,,None or Unspecified,,,,,,,,2 Valve,,,,,23.5,None or Unspecified,,,,,,,,,,,,,Standard,Conventional
615,1765091,45000,1119376,132,1.0,1999,,,11/30/2006 0:00,WA380-3,WA380,,-3,,Medium,Wheel Loader - 175.0 to 200.0 Horsepower,Colorado,WL,Wheel Loader,,EROPS w AC,None or Unspecified,,None or Unspecified,,,,,,,,2 Valve,,,,,23.5,None or Unspecified,,,,,,,,,,,,,Standard,Conventional
615,1765094,51000,1159452,132,5.0,1999,,,12/8/2006 0:00,WA380-3,WA380,,-3,,Medium,Wheel Loader - 175.0 to 200.0 Horsepower,Connecticut,WL,Wheel Loader,,EROPS,None or Unspecified,,None or Unspecified,,,,,,,,2 Valve,,,,,23.5,None or Unspecified,,,,,,,,,,,,,Standard,Conventional
615,1765096,69000,1318631,132,1.0,2000,,,2/20/2003 0:00,WA380-3,WA380,,-3,,Medium,Wheel Loader - 175.0 to 200.0 Horsepower,Florida,WL,Wheel Loader,,EROPS,None or Unspecified,,None or Unspecified,,,,,,,,2 Valve,,,,,23.5,Manual,,,,,,,,,,,,,Standard,Conventional
615,1765099,60000,1356222,132,2.0,2000,,,2/9/2006 0:00,WA380-3,WA380,,-3,,Medium,Wheel Loader - 175.0 to 200.0 Horsepower,Florida,WL,Wheel Loader,,EROPS w AC,Yes,,None or Unspecified,,,,,,,,3 Valve,,,,,23.5,None or Unspecified,,,,,,,,,,,,,Standard,Conventional
615,1765100,60000,1356222,132,2.0,2000,,,2/5/2006 0:00,WA380-3,WA380,,-3,,Medium,Wheel Loader - 175.0 to 200.0 Horsepower,Florida,WL,Wheel Loader,,EROPS w AC,Yes,,None or Unspecified,,,,,,,,3 Valve,,,,,23.5,None or Unspecified,,,,,,,,,,,,,Standard,Conventional
615,1765101,70000,1356222,132,2.0,2000,,,5/24/2006 0:00,WA380-3,WA380,,-3,,Medium,Wheel Loader - 175.0 to 200.0 Horsepower,Florida,WL,Wheel Loader,,EROPS w AC,Yes,,None or Unspecified,,,,,,,,3 Valve,,,,,23.5,None or Unspecified,,,,,,,,,,,,,Standard,Conventional
615,1765104,81000,1099493,132,2.0,2000,,,10/11/2002 0:00,WA380-3,WA380,,-3,,Medium,Wheel Loader - 175.0 to 200.0 Horsepower,Florida,WL,Wheel Loader,,EROPS w AC,Yes,,None or Unspecified,,,,,,,,2 Valve,,,,,None or Unspecified,Manual,,,,,,,,,,,,,Standard,Conventional
615,1765107,65000,1229666,132,8.0,2000,,,3/22/2006 0:00,WA380-3,WA380,,-3,,Medium,Wheel Loader - 175.0 to 200.0 Horsepower,Mississippi,WL,Wheel Loader,,EROPS w AC,None or Unspecified,,None or Unspecified,,,,,,,,2 Valve,,,,,23.5,None or Unspecified,,,,,,,,,,,,,Standard,Conventional
615,1765108,60000,1096049,132,1.0,2000,,,11/29/2005 0:00,WA380-3,WA380,,-3,,Medium,Wheel Loader - 175.0 to 200.0 Horsepower,Colorado,WL,Wheel Loader,,EROPS,None or Unspecified,,None or Unspecified,,,,,,,,2 Valve,,,,,23.5,None or Unspecified,,,,,,,,,,,,,Standard,Conventional
615,1765110,69000,1477634,132,1.0,2000,,,2/20/2003 0:00,WA380-3,WA380,,-3,,Medium,Wheel Loader - 175.0 to 200.0 Horsepower,Florida,WL,Wheel Loader,,EROPS w AC,None or Unspecified,,None or Unspecified,,,,,,,,2 Valve,,,,,20.5,Manual,,,,,,,,,,,,,Standard,Conventional
615,1765114,63000,1262513,132,9.0,2000,,,8/18/2005 0:00,WA380-3,WA380,,-3,,Medium,Wheel Loader - 175.0 to 200.0 Horsepower,South Carolina,WL,Wheel Loader,,EROPS,None or Unspecified,,None or Unspecified,,,,,,,,2 Valve,,,,,None or Unspecified,None or Unspecified,,,,,,,,,,,,,Standard,Conventional
615,1765115,53000,1262513,132,9.0,2000,,,5/19/2005 0:00,WA380-3,WA380,,-3,,Medium,Wheel Loader - 175.0 to 200.0 Horsepower,South Carolina,WL,Wheel Loader,,EROPS,None or Unspecified,,None or Unspecified,,,,,,,,2 Valve,,,,,None or Unspecified,None or Unspecified,,,,,,,,,,,,,Standard,Conventional
615,1765118,59500,1385707,132,9.0,2000,,,5/19/2005 0:00,WA380-3,WA380,,-3,,Medium,Wheel Loader - 175.0 to 200.0 Horsepower,South Carolina,WL,Wheel Loader,,EROPS,None or Unspecified,,None or Unspecified,,,,,,,,2 Valve,,,,,None or Unspecified,None or Unspecified,,,,,,,,,,,,,Standard,Conventional
615,1765119,68000,1308507,132,4.0,2001,,,2/13/2007 0:00,WA380-3,WA380,,-3,,Medium,Wheel Loader - 175.0 to 200.0 Horsepower,Florida,WL,Wheel Loader,,EROPS w AC,None or Unspecified,,None or Unspecified,,,,,,,,2 Valve,,,,,None or Unspecified,None or Unspecified,,,,,,,,,,,,,Standard,Conventional
615,1765120,68000,1308507,132,4.0,2000,,,2/12/2007 0:00,WA380-3,WA380,,-3,,Medium,Wheel Loader - 175.0 to 200.0 Horsepower,Florida,WL,Wheel Loader,,EROPS w AC,None or Unspecified,,None or Unspecified,,,,,,,,2 Valve,,,,,None or Unspecified,None or Unspecified,,,,,,,,,,,,,Standard,Conventional
615,1765124,79000,1022902,132,1.0,2000,,,2/20/2007 0:00,WA380-3,WA380,,-3,,Medium,Wheel Loader - 175.0 to 200.0 Horsepower,Florida,WL,Wheel Loader,,EROPS w AC,Yes,,None or Unspecified,,,,,,,,2 Valve,,,,,23.5,Manual,,,,,,,,,,,,,Standard,Conventional
615,1765127,44000,1328962,132,1.0,2000,,,3/23/2006 0:00,WA380-3,WA380,,-3,,Medium,Wheel Loader - 175.0 to 200.0 Horsepower,Tennessee,WL,Wheel Loader,,EROPS w AC,None or Unspecified,,None or Unspecified,,,,,,,,2 Valve,,,,,23.5,Hydraulic,,,,,,,,,,,,,Standard,Conventional
615,1765128,74000,1166552,132,4.0,2001,,,2/13/2006 0:00,WA380-3,WA380,,-3,,Medium,Wheel Loader - 175.0 to 200.0 Horsepower,Florida,WL,Wheel Loader,,EROPS,None or Unspecified,,None or Unspecified,,,,,,,,2 Valve,,,,,23.5,None or Unspecified,,,,,,,,,,,,,Standard,Conventional
615,1765130,80000,1108258,132,2.0,2001,,,11/14/2003 0:00,WA380-3,WA380,,-3,,Medium,Wheel Loader - 175.0 to 200.0 Horsepower,New Hampshire,WL,Wheel Loader,,EROPS w AC,None or Unspecified,,None or Unspecified,,,,,,,,2 Valve,,,,,23.5,None or Unspecified,,,,,,,,,,,,,Standard,Conventional
615,1765131,53000,1227430,132,1.0,2001,,,10/10/2006 0:00,WA380-3,WA380,,-3,,Medium,Wheel Loader - 175.0 to 200.0 Horsepower,Florida,WL,Wheel Loader,,EROPS w AC,None or Unspecified,,None or Unspecified,,,,,,,,2 Valve,,,,,23.5,Manual,,,,,,,,,,,,,Standard,Conventional
615,1765132,49500,1397388,132,2.0,2001,,,6/24/2005 0:00,WA380-3,WA380,,-3,,Medium,Wheel Loader - 175.0 to 200.0 Horsepower,Georgia,WL,Wheel Loader,,EROPS w AC,None or Unspecified,,None or Unspecified,,,,,,,,2 Valve,,,,,23.5,None or Unspecified,,,,,,,,,,,,,Standard,Conventional
615,1765133,55000,1397388,132,1.0,2001,,,5/26/2005 0:00,WA380-3,WA380,,-3,,Medium,Wheel Loader - 175.0 to 200.0 Horsepower,Florida,WL,Wheel Loader,,EROPS w AC,None or Unspecified,,None or Unspecified,,,,,,,,2 Valve,,,,,23.5,None or Unspecified,,,,,,,,,,,,,Standard,Conventional
615,1765135,78000,1446846,132,2.0,2001,,,3/23/2006 0:00,WA380-3,WA380,,-3,,Medium,Wheel Loader - 175.0 to 200.0 Horsepower,New Jersey,WL,Wheel Loader,,EROPS,None or Unspecified,,None or Unspecified,,,,,,,,2 Valve,,,,,None or Unspecified,None or Unspecified,,,,,,,,,,,,,Standard,Conventional
615,1765139,58000,1450427,132,4.0,2001,,,2/7/2005 0:00,WA380-3,WA380,,-3,,Medium,Wheel Loader - 175.0 to 200.0 Horsepower,Florida,WL,Wheel Loader,,EROPS w AC,None or Unspecified,,None or Unspecified,,,,,,,,2 Valve,,,,,23.5,None or Unspecified,,,,,,,,,,,,,Standard,Conventional
615,1765140,57000,1122322,132,1.0,2001,,,5/26/2005 0:00,WA380-3,WA380,,-3,,Medium,Wheel Loader - 175.0 to 200.0 Horsepower,Florida,WL,Wheel Loader,,EROPS w AC,None or Unspecified,,None or Unspecified,,,,,,,,2 Valve,,,,,23.5,None or Unspecified,,,,,,,,,,,,,Standard,Conventional
615,1765141,47500,1122322,132,2.0,2001,,,6/24/2005 0:00,WA380-3,WA380,,-3,,Medium,Wheel Loader - 175.0 to 200.0 Horsepower,Georgia,WL,Wheel Loader,,EROPS w AC,None or Unspecified,,None or Unspecified,,,,,,,,2 Valve,,,,,23.5,None or Unspecified,,,,,,,,,,,,,Standard,Conventional
615,1765142,63000,1126855,132,1.0,2001,,,5/26/2005 0:00,WA380-3,WA380,,-3,,Medium,Wheel Loader - 175.0 to 200.0 Horsepower,Florida,WL,Wheel Loader,,EROPS w AC,None or Unspecified,,None or Unspecified,,,,,,,,2 Valve,,,,,23.5,None or Unspecified,,,,,,,,,,,,,Standard,Conventional
615,1765143,63000,1482003,132,1.0,2001,,,5/26/2005 0:00,WA380-3,WA380,,-3,,Medium,Wheel Loader - 175.0 to 200.0 Horsepower,Florida,WL,Wheel Loader,,EROPS w AC,None or Unspecified,,None or Unspecified,,,,,,,,2 Valve,,,,,23.5,None or Unspecified,,,,,,,,,,,,,Standard,Conventional
615,1765144,36000,1482003,132,1.0,2001,,,10/26/2006 0:00,WA380-3,WA380,,-3,,Medium,Wheel Loader - 175.0 to 200.0 Horsepower,Maine,WL,Wheel Loader,,EROPS w AC,None or Unspecified,,None or Unspecified,,,,,,,,2 Valve,,,,,23.5,None or Unspecified,,,,,,,,,,,,,Standard,Conventional
615,1765148,88000,759497,132,1.0,2001,,,2/15/2005 0:00,WA380-3,WA380,,-3,,Medium,Wheel Loader - 175.0 to 200.0 Horsepower,Florida,WL,Wheel Loader,,EROPS w AC,Yes,,None or Unspecified,,,,,,,,2 Valve,,,,,23.5,Manual,,,,,,,,,,,,,Standard,Conventional
615,1765151,57500,1358177,132,1.0,2002,,,6/26/2008 0:00,WA380-3,WA380,,-3,,Medium,Wheel Loader - 175.0 to 200.0 Horsepower,Colorado,WL,Wheel Loader,,EROPS,Yes,,None or Unspecified,,,,,,,,2 Valve,,,,,23.5,Manual,,,,,,,,,,,,,Standard,Conventional
615,1765152,68000,1440569,132,1.0,2002,,,5/26/2005 0:00,WA380-3,WA380,,-3,,Medium,Wheel Loader - 175.0 to 200.0 Horsepower,Florida,WL,Wheel Loader,,EROPS w AC,None or Unspecified,,None or Unspecified,,,,,,,,2 Valve,,,,,23.5,None or Unspecified,,,,,,,,,,,,,Standard,Conventional
615,1765153,75000,1440569,132,1.0,2002,,,10/13/2005 0:00,WA380-3,WA380,,-3,,Medium,Wheel Loader - 175.0 to 200.0 Horsepower,Florida,WL,Wheel Loader,,EROPS w AC,None or Unspecified,,None or Unspecified,,,,,,,,2 Valve,,,,,23.5,None or Unspecified,,,,,,,,,,,,,Standard,Conventional
615,1765154,70000,1120845,132,1.0,2002,,,5/26/2005 0:00,WA380-3,WA380,,-3,,Medium,Wheel Loader - 175.0 to 200.0 Horsepower,Florida,WL,Wheel Loader,,EROPS w AC,None or Unspecified,,None or Unspecified,,,,,,,,2 Valve,,,,,23.5,None or Unspecified,,,,,,,,,,,,,Standard,Conventional
615,1765246,57000,1201590,132,1.0,2004,,,2/25/2010 0:00,WA380-3,WA380,,-3,,Medium,Wheel Loader - 175.0 to 200.0 Horsepower,Texas,WL,Wheel Loader,,EROPS w AC,None or Unspecified,,None or Unspecified,,,,,,,,2 Valve,,,,,23.5,None or Unspecified,,,,,,,,,,,,,Standard,Conventional
615,1774885,50000,1436884,132,1.0,1995,,,10/22/2003 0:00,WA380-3,WA380,,-3,,Medium,Wheel Loader - 175.0 to 200.0 Horsepower,Maine,WL,Wheel Loader,,EROPS w AC,None or Unspecified,,None or Unspecified,,,,,,,,2 Valve,,,,,23.5,Manual,,,,,,,,,,,,,Standard,Conventional
615,1774954,38000,1481124,132,4.0,1000,,,2/8/2005 0:00,WA380-3,WA380,,-3,,Medium,Wheel Loader - 175.0 to 200.0 Horsepower,Florida,WL,Wheel Loader,,EROPS,None or Unspecified,,None or Unspecified,,,,,,,,2 Valve,,,,,None or Unspecified,None or Unspecified,,,,,,,,,,,,,Standard,Conventional
615,1775023,80000,1282458,132,4.0,2002,,,2/13/2006 0:00,WA380-3,WA380,,-3,,Medium,Wheel Loader - 175.0 to 200.0 Horsepower,Florida,WL,Wheel Loader,,EROPS w AC,None or Unspecified,,None or Unspecified,,,,,,,,2 Valve,,,,,None or Unspecified,Manual,,,,,,,,,,,,,Standard,Conventional
615,1775024,80000,1282458,132,4.0,2002,,,2/14/2006 0:00,WA380-3,WA380,,-3,,Medium,Wheel Loader - 175.0 to 200.0 Horsepower,Florida,WL,Wheel Loader,,EROPS w AC,None or Unspecified,,None or Unspecified,,,,,,,,2 Valve,,,,,None or Unspecified,Manual,,,,,,,,,,,,,Standard,Conventional
615,1779208,69000,1503288,132,1.0,1999,,,9/19/2001 0:00,WA380-3,WA380,,-3,,Medium,Wheel Loader - 175.0 to 200.0 Horsepower,Texas,WL,Wheel Loader,,EROPS w AC,None or Unspecified,,None or Unspecified,,,,,,,,2 Valve,,,,,23.5,None or Unspecified,,,,,,,,,,,,,Standard,Conventional
615,1779210,89000,1414382,132,1.0,2000,,,3/17/2005 0:00,WA380-3,WA380,,-3,,Medium,Wheel Loader - 175.0 to 200.0 Horsepower,Colorado,WL,Wheel Loader,,EROPS w AC,None or Unspecified,,None or Unspecified,,,,,,,,2 Valve,,,,,23.5,None or Unspecified,,,,,,,,,,,,,Standard,Conventional
615,1779213,102000,1191352,132,2.0,2002,,,5/11/2002 0:00,WA380-3,WA380,,-3,,Medium,Wheel Loader - 175.0 to 200.0 Horsepower,Connecticut,WL,Wheel Loader,,EROPS w AC,None or Unspecified,,None or Unspecified,,,,,,,,2 Valve,,,,,None or Unspecified,None or Unspecified,,,,,,,,,,,,,Standard,Conventional
615,1779214,102500,1382805,132,2.0,2002,,,5/11/2002 0:00,WA380-3,WA380,,-3,,Medium,Wheel Loader - 175.0 to 200.0 Horsepower,Connecticut,WL,Wheel Loader,,EROPS w AC,None or Unspecified,,None or Unspecified,,,,,,,,2 Valve,,,,,None or Unspecified,None or Unspecified,,,,,,,,,,,,,Standard,Conventional
615,2406806,38000,1663243,136,,1000,0.0,,3/11/2009 0:00,WA380-3,WA380,,-3,,Medium,Wheel Loader - 175.0 to 200.0 Horsepower,Alabama,WL,Wheel Loader,,EROPS w AC,Yes,,None or Unspecified,,,,,,,,2 Valve,,,,,None or Unspecified,None or Unspecified,,,,,,,,,,,,,Standard,Conventional
615,2413045,31000,1296519,136,1.0,1000,0.0,,12/10/2009 0:00,WA380-3,WA380,,-3,,Medium,Wheel Loader - 175.0 to 200.0 Horsepower,Washington,WL,Wheel Loader,,EROPS,None or Unspecified,,None or Unspecified,,,,,,,,2 Valve,,,,,23.5,None or Unspecified,,,,,,,,,,,,,Standard,Conventional
615,2413052,28000,1084439,136,1.0,1000,0.0,,6/10/2010 0:00,WA380-3,WA380,,-3,,Medium,Wheel Loader - 175.0 to 200.0 Horsepower,Colorado,WL,Wheel Loader,,EROPS,None or Unspecified,,None or Unspecified,,,,,,,,2 Valve,,,,,23.5,None or Unspecified,,,,,,,,,,,,,Standard,Conventional
615,2413073,25000,1186818,136,1.0,1997,0.0,,9/30/2009 0:00,WA380-3,WA380,,-3,,Medium,Wheel Loader - 175.0 to 200.0 Horsepower,Maryland,WL,Wheel Loader,,OROPS,None or Unspecified,,None or Unspecified,,,,,,,,2 Valve,,,,,None or Unspecified,None or Unspecified,,,,,,,,,,,,,Standard,Conventional
615,2413087,44000,1654230,136,1.0,1998,0.0,,10/30/2008 0:00,WA380-3,WA380,,-3,,Medium,Wheel Loader - 175.0 to 200.0 Horsepower,Montana,WL,Wheel Loader,,EROPS,None or Unspecified,,None or Unspecified,,,,,,,,2 Valve,,,,,23.5,Manual,,,,,,,,,,,,,Standard,Conventional
615,2413108,46000,1439437,136,5.0,2000,0.0,,6/20/2008 0:00,WA380-3,WA380,,-3,,Medium,Wheel Loader - 175.0 to 200.0 Horsepower,Connecticut,WL,Wheel Loader,,EROPS,None or Unspecified,,None or Unspecified,,,,,,,,2 Valve,,,,,23.5,None or Unspecified,,,,,,,,,,,,,Standard,Conventional
615,2413109,62500,1418579,136,1.0,1999,0.0,,4/5/2007 0:00,WA380-3,WA380,,-3,,Medium,Wheel Loader - 175.0 to 200.0 Horsepower,Colorado,WL,Wheel Loader,,EROPS,None or Unspecified,,None or Unspecified,,,,,,,,2 Valve,,,,,23.5,None or Unspecified,,,,,,,,,,,,,Standard,Conventional
615,2413114,43000,1039915,136,3.0,1999,14121.0,High,5/29/2008 0:00,WA380-3,WA380,,-3,,Medium,Wheel Loader - 175.0 to 200.0 Horsepower,California,WL,Wheel Loader,,EROPS w AC,None or Unspecified,,None or Unspecified,,,,,,,,2 Valve,,,,,23.5,None or Unspecified,,,,,,,,,,,,,Standard,Conventional
615,2413127,28000,1219704,136,10.0,1999,0.0,,10/23/2008 0:00,WA380-3,WA380,,-3,,Medium,Wheel Loader - 175.0 to 200.0 Horsepower,Texas,WL,Wheel Loader,,EROPS,None or Unspecified,,None or Unspecified,,,,,,,,2 Valve,,,,,None or Unspecified,None or Unspecified,,,,,,,,,,,,,Standard,Conventional
615,2413135,52500,1126674,136,1.0,2000,0.0,,10/3/2007 0:00,WA380-3,WA380,,-3,,Medium,Wheel Loader - 175.0 to 200.0 Horsepower,Maryland,WL,Wheel Loader,,EROPS,None or Unspecified,,None or Unspecified,,,,,,,,2 Valve,,,,,None or Unspecified,None or Unspecified,,,,,,,,,,,,,Standard,Conventional
615,2413136,52500,1118846,136,1.0,2000,0.0,,5/9/2007 0:00,WA380-3,WA380,,-3,,Medium,Wheel Loader - 175.0 to 200.0 Horsepower,Texas,WL,Wheel Loader,,EROPS w AC,None or Unspecified,,None or Unspecified,,,,,,,,2 Valve,,,,,23.5,None or Unspecified,,,,,,,,,,,,,Standard,Conventional
615,2413146,45000,1223138,136,1.0,2001,0.0,,2/5/2010 0:00,WA380-3,WA380,,-3,,Medium,Wheel Loader - 175.0 to 200.0 Horsepower,Nevada,WL,Wheel Loader,,EROPS,None or Unspecified,,None or Unspecified,,,,,,,,2 Valve,,,,,23.5,None or Unspecified,,,,,,,,,,,,,Standard,Conventional
615,2695653,44000,1235131,149,99.0,1999,1646.0,Low,9/25/2010 0:00,WA380-3,WA380,,-3,,Medium,Wheel Loader - 175.0 to 200.0 Horsepower,California,WL,Wheel Loader,,EROPS,None or Unspecified,,None or Unspecified,,,,,,,,2 Valve,,,,,23.5,None or Unspecified,,,,,,,,,,,,,Standard,Conventional
615,2699327,43000,1479279,149,1.0,1997,11334.0,Medium,2/15/2011 0:00,WA380-3,WA380,,-3,,Medium,Wheel Loader - 175.0 to 200.0 Horsepower,Florida,WL,Wheel Loader,,EROPS w AC,None or Unspecified,,None or Unspecified,,,,,,,,2 Valve,,,,,23.5,None or Unspecified,,,,,,,,,,,,,Standard,Conventional
615,2699334,27000,1530624,149,2.0,2002,0.0,,1/29/2011 0:00,WA380-3,WA380,,-3,,Medium,Wheel Loader - 175.0 to 200.0 Horsepower,Florida,WL,Wheel Loader,,OROPS,Yes,,None or Unspecified,,,,,,,,2 Valve,,,,,None or Unspecified,Manual,,,,,,,,,,,,,Standard,Conventional
615,2699341,35000,1332169,149,1.0,1999,0.0,,9/2/2010 0:00,WA380-3,WA380,,-3,,Medium,Wheel Loader - 175.0 to 200.0 Horsepower,Arizona,WL,Wheel Loader,,EROPS w AC,None or Unspecified,,None or Unspecified,,,,,,,,2 Valve,,,,,23.5,None or Unspecified,,,,,,,,,,,,,Standard,Conventional
615,6304198,47500,1934800,149,1.0,2001,,,12/8/2011 0:00,WA380-3,WA380,,-3,,Medium,Wheel Loader - 175.0 to 200.0 Horsepower,Texas,WL,Wheel Loader,,EROPS w AC,None or Unspecified,,None or Unspecified,,,,,,,,2 Valve,,,,,23.5,None or Unspecified,,,,,,,,,,,,,Standard,Conventional
