ModelID,SalesID,SalePrice,MachineID,datasource,auctioneerID,YearMade,MachineHoursCurrentMeter,UsageBand,saledate,fiModelDesc,fiBaseModel,fiSecondaryDesc,fiModelSeries,fiModelDescriptor,ProductSize,fiProductClassDesc,state,ProductGroup,ProductGroupDesc,Drive_System,Enclosure,Forks,Pad_Type,Ride_Control,Stick,Transmission,Turbocharged,Blade_Extension,Blade_Width,Enclosure_Type,Engine_Horsepower,Hydraulics,Pushblock,Ripper,Scarifier,Tip_Control,Tire_Size,Coupler,Coupler_System,Grouser_Tracks,Hydraulics_Flow,Track_Type,Undercarriage_Pad_Width,Stick_Length,Thumb,Pattern_Changer,Grouser_Type,Backhoe_Mounting,Blade_Type,Travel_Controls,Differential_Type,Steering_Controls
617,1140090,36000,1009877,121,3.0,1997,16707.0,High,7/13/2006 0:00,WA380-3L,WA380,,-3L,,Medium,Wheel Loader - 175.0 to 200.0 Horsepower,Texas,WL,Wheel Loader,,EROPS w AC,None or Unspecified,,None or Unspecified,,,,,,,,2 Valve,,,,,23.5,None or Unspecified,,,,,,,,,,,,,Standard,Conventional
617,1140860,50500,1042031,121,3.0,1997,4655.0,Low,6/15/2006 0:00,WA380-3L,WA380,,-3L,,Medium,Wheel Loader - 175.0 to 200.0 Horsepower,Michigan,WL,Wheel Loader,,EROPS,None or Unspecified,,None or Unspecified,,,,,,,,2 Valve,,,,,23.5,None or Unspecified,,,,,,,,,,,,,Standard,Conventional
617,1144402,33000,1038843,121,3.0,1998,8588.0,Medium,3/26/2009 0:00,WA380-3L,WA380,,-3L,,Medium,Wheel Loader - 175.0 to 200.0 Horsepower,Florida,WL,Wheel Loader,,EROPS w AC,Yes,,None or Unspecified,,,,,,,,2 Valve,,,,,23.5,Hydraulic,,,,,,,,,,,,,Standard,Conventional
617,1172764,47000,1049087,121,3.0,1997,7027.0,Low,1/18/2011 0:00,WA380-3L,WA380,,-3L,,Medium,Wheel Loader - 175.0 to 200.0 Horsepower,Nebraska,WL,Wheel Loader,,EROPS w AC,None or Unspecified,,None or Unspecified,,,,,,,,2 Valve,,,,,23.5,None or Unspecified,,,,,,,,,,,,,Standard,Conventional
617,1186047,39000,1057291,121,3.0,1998,7878.0,Medium,12/18/2008 0:00,WA380-3L,WA380,,-3L,,Medium,Wheel Loader - 175.0 to 200.0 Horsepower,Wisconsin,WL,Wheel Loader,,EROPS w AC,Yes,,None or Unspecified,,,,,,,,2 Valve,,,,,23.5,Hydraulic,,,,,,,,,,,,,Standard,Conventional
617,1201436,29000,1044725,121,3.0,1996,,,5/20/2010 0:00,WA380-3L,WA380,,-3L,,Medium,Wheel Loader - 175.0 to 200.0 Horsepower,New Mexico,WL,Wheel Loader,,EROPS w AC,None or Unspecified,,None or Unspecified,,,,,,,,2 Valve,,,,,23.5,None or Unspecified,,,,,,,,,,,,,Standard,Conventional
617,1203270,25000,1016971,121,3.0,1997,9533.0,Medium,6/17/2010 0:00,WA380-3L,WA380,,-3L,,Medium,Wheel Loader - 175.0 to 200.0 Horsepower,Minnesota,WL,Wheel Loader,,EROPS w AC,None or Unspecified,,None or Unspecified,,,,,,,,2 Valve,,,,,None or Unspecified,Hydraulic,,,,,,,,,,,,,Standard,Conventional
617,1208038,33500,577453,121,3.0,1997,19299.0,Medium,10/14/2010 0:00,WA380-3L,WA380,,-3L,,Medium,Wheel Loader - 175.0 to 200.0 Horsepower,Michigan,WL,Wheel Loader,,EROPS,None or Unspecified,,None or Unspecified,,,,,,,,2 Valve,,,,,23.5,None or Unspecified,,,,,,,,,,,,,Standard,Conventional
617,1210008,29000,1029887,121,3.0,1998,9202.0,Medium,1/13/2011 0:00,WA380-3L,WA380,,-3L,,Medium,Wheel Loader - 175.0 to 200.0 Horsepower,Florida,WL,Wheel Loader,,OROPS,Yes,,None or Unspecified,,,,,,,,2 Valve,,,,,23.5,Manual,,,,,,,,,,,,,Standard,Conventional
617,1211798,37000,1008878,121,3.0,1997,16103.0,Medium,2/24/2011 0:00,WA380-3L,WA380,,-3L,,Medium,Wheel Loader - 175.0 to 200.0 Horsepower,Alabama,WL,Wheel Loader,,EROPS w AC,None or Unspecified,,None or Unspecified,,,,,,,,2 Valve,,,,,23.5,None or Unspecified,,,,,,,,,,,,,Standard,Conventional
617,1213808,42000,1057291,121,3.0,1998,8119.0,Medium,4/11/2011 0:00,WA380-3L,WA380,,-3L,,Medium,Wheel Loader - 175.0 to 200.0 Horsepower,Wisconsin,WL,Wheel Loader,,EROPS w AC,Yes,,None or Unspecified,,,,,,,,2 Valve,,,,,23.5,Hydraulic,,,,,,,,,,,,,Standard,Conventional
617,1216546,26000,1035005,121,3.0,1000,4728.0,Low,7/28/2011 0:00,WA380-3L,WA380,,-3L,,Medium,Wheel Loader - 175.0 to 200.0 Horsepower,Mississippi,WL,Wheel Loader,,EROPS,None or Unspecified,,None or Unspecified,,,,,,,,2 Valve,,,,,23.5,None or Unspecified,,,,,,,,,,,,,Standard,Conventional
617,2413014,33000,1489967,136,1.0,1000,0.0,,6/25/2008 0:00,WA380-3L,WA380,,-3L,,Medium,Wheel Loader - 175.0 to 200.0 Horsepower,Maryland,WL,Wheel Loader,,EROPS,None or Unspecified,,None or Unspecified,,,,,,,,2 Valve,,,,,23.5,Manual,,,,,,,,,,,,,Standard,Conventional
617,2413047,39000,1405944,136,1.0,1000,0.0,,6/25/2008 0:00,WA380-3L,WA380,,-3L,,Medium,Wheel Loader - 175.0 to 200.0 Horsepower,Maryland,WL,Wheel Loader,,EROPS,None or Unspecified,,None or Unspecified,,,,,,,,2 Valve,,,,,23.5,Manual,,,,,,,,,,,,,Standard,Conventional
617,2413049,22500,1558207,136,1.0,1000,0.0,,11/12/2008 0:00,WA380-3L,WA380,,-3L,,Medium,Wheel Loader - 175.0 to 200.0 Horsepower,Arizona,WL,Wheel Loader,,EROPS w AC,None or Unspecified,,None or Unspecified,,,,,,,,2 Valve,,,,,23.5,None or Unspecified,,,,,,,,,,,,,Standard,Conventional
617,2413050,25000,1257375,136,1.0,1000,0.0,,6/9/2010 0:00,WA380-3L,WA380,,-3L,,Medium,Wheel Loader - 175.0 to 200.0 Horsepower,Michigan,WL,Wheel Loader,,EROPS,None or Unspecified,,None or Unspecified,,,,,,,,2 Valve,,,,,23.5,Manual,,,,,,,,,,,,,Standard,Conventional
617,2413057,32500,1420713,136,1.0,1997,0.0,,10/13/2009 0:00,WA380-3L,WA380,,-3L,,Medium,Wheel Loader - 175.0 to 200.0 Horsepower,California,WL,Wheel Loader,,EROPS w AC,None or Unspecified,,None or Unspecified,,,,,,,,2 Valve,,,,,23.5,Hydraulic,,,,,,,,,,,,,Standard,Conventional
617,2413058,40000,1420713,136,1.0,1000,0.0,,3/4/2010 0:00,WA380-3L,WA380,,-3L,,Medium,Wheel Loader - 175.0 to 200.0 Horsepower,Washington,WL,Wheel Loader,,EROPS w AC,None or Unspecified,,None or Unspecified,,,,,,,,2 Valve,,,,,23.5,Hydraulic,,,,,,,,,,,,,Standard,Conventional
617,2413059,27500,1643944,136,1.0,1000,0.0,,6/24/2010 0:00,WA380-3L,WA380,,-3L,,Medium,Wheel Loader - 175.0 to 200.0 Horsepower,Connecticut,WL,Wheel Loader,,EROPS w AC,None or Unspecified,,None or Unspecified,,,,,,,,2 Valve,,,,,23.5,Manual,,,,,,,,,,,,,Standard,Conventional
617,2413060,26000,1371197,136,1.0,1997,0.0,,5/1/2009 0:00,WA380-3L,WA380,,-3L,,Medium,Wheel Loader - 175.0 to 200.0 Horsepower,Wisconsin,WL,Wheel Loader,,EROPS w AC,Yes,,None or Unspecified,,,,,,,,2 Valve,,,,,23.5,Manual,,,,,,,,,,,,,Standard,Conventional
617,2413061,18500,1371197,136,1.0,1997,0.0,,3/24/2009 0:00,WA380-3L,WA380,,-3L,,Medium,Wheel Loader - 175.0 to 200.0 Horsepower,Texas,WL,Wheel Loader,,EROPS w AC,Yes,,None or Unspecified,,,,,,,,2 Valve,,,,,23.5,Manual,,,,,,,,,,,,,Standard,Conventional
617,2413064,58000,1734397,136,15.0,1997,0.0,,10/15/2009 0:00,WA380-3L,WA380,,-3L,,Medium,Wheel Loader - 175.0 to 200.0 Horsepower,New Jersey,WL,Wheel Loader,,EROPS,None or Unspecified,,None or Unspecified,,,,,,,,2 Valve,,,,,23.5,None or Unspecified,,,,,,,,,,,,,Standard,Conventional
617,2413065,26000,1734507,136,1.0,1000,0.0,,7/23/2009 0:00,WA380-3L,WA380,,-3L,,Medium,Wheel Loader - 175.0 to 200.0 Horsepower,Arizona,WL,Wheel Loader,,EROPS w AC,None or Unspecified,,None or Unspecified,,,,,,,,2 Valve,,,,,23.5,None or Unspecified,,,,,,,,,,,,,Standard,Conventional
617,2413067,46000,1428573,136,1.0,1997,0.0,,6/8/2007 0:00,WA380-3L,WA380,,-3L,,Medium,Wheel Loader - 175.0 to 200.0 Horsepower,Nevada,WL,Wheel Loader,,EROPS w AC,None or Unspecified,,None or Unspecified,,,,,,,,2 Valve,,,,,23.5,None or Unspecified,,,,,,,,,,,,,Standard,Conventional
617,2413068,27000,1235448,136,1.0,1997,0.0,,8/7/2009 0:00,WA380-3L,WA380,,-3L,,Medium,Wheel Loader - 175.0 to 200.0 Horsepower,Nevada,WL,Wheel Loader,,EROPS w AC,None or Unspecified,,None or Unspecified,,,,,,,,2 Valve,,,,,23.5,None or Unspecified,,,,,,,,,,,,,Standard,Conventional
617,2413069,36000,1235448,136,1.0,1000,0.0,,8/26/2008 0:00,WA380-3L,WA380,,-3L,,Medium,Wheel Loader - 175.0 to 200.0 Horsepower,Utah,WL,Wheel Loader,,EROPS w AC,None or Unspecified,,None or Unspecified,,,,,,,,2 Valve,,,,,23.5,None or Unspecified,,,,,,,,,,,,,Standard,Conventional
617,2413070,42000,1262451,136,1.0,1000,0.0,,3/21/2007 0:00,WA380-3L,WA380,,-3L,,Medium,Wheel Loader - 175.0 to 200.0 Horsepower,Washington,WL,Wheel Loader,,EROPS,None or Unspecified,,None or Unspecified,,,,,,,,2 Valve,,,,,23.5,Manual,,,,,,,,,,,,,Standard,Conventional
617,2413072,27000,1430518,136,1.0,1000,18442.0,Medium,5/12/2010 0:00,WA380-3L,WA380,,-3L,,Medium,Wheel Loader - 175.0 to 200.0 Horsepower,California,WL,Wheel Loader,,OROPS,None or Unspecified,,None or Unspecified,,,,,,,,2 Valve,,,,,23.5,None or Unspecified,,,,,,,,,,,,,Standard,Conventional
617,2413074,42000,1117215,136,1.0,1000,0.0,,4/11/2007 0:00,WA380-3L,WA380,,-3L,,Medium,Wheel Loader - 175.0 to 200.0 Horsepower,Ohio,WL,Wheel Loader,,OROPS,None or Unspecified,,None or Unspecified,,,,,,,,2 Valve,,,,,None or Unspecified,None or Unspecified,,,,,,,,,,,,,Standard,Conventional
617,2413076,32500,1087178,136,1.0,1000,0.0,,2/16/2009 0:00,WA380-3L,WA380,,-3L,,Medium,Wheel Loader - 175.0 to 200.0 Horsepower,Florida,WL,Wheel Loader,,OROPS,Yes,,None or Unspecified,,,,,,,,2 Valve,,,,,23.5,Manual,,,,,,,,,,,,,Standard,Conventional
617,2413077,40000,1541933,136,1.0,1998,0.0,,3/5/2008 0:00,WA380-3L,WA380,,-3L,,Medium,Wheel Loader - 175.0 to 200.0 Horsepower,Texas,WL,Wheel Loader,,EROPS w AC,None or Unspecified,,None or Unspecified,,,,,,,,2 Valve,,,,,23.5,None or Unspecified,,,,,,,,,,,,,Standard,Conventional
617,2413078,42000,1759750,136,1.0,1998,0.0,,10/30/2008 0:00,WA380-3L,WA380,,-3L,,Medium,Wheel Loader - 175.0 to 200.0 Horsepower,Montana,WL,Wheel Loader,,EROPS,None or Unspecified,,None or Unspecified,,,,,,,,2 Valve,,,,,23.5,None or Unspecified,,,,,,,,,,,,,Standard,Conventional
617,2413079,36000,1084512,136,1.0,1998,0.0,,10/15/2008 0:00,WA380-3L,WA380,,-3L,,Medium,Wheel Loader - 175.0 to 200.0 Horsepower,Florida,WL,Wheel Loader,,OROPS,None or Unspecified,,None or Unspecified,,,,,,,,2 Valve,,,,,23.5,Manual,,,,,,,,,,,,,Standard,Conventional
617,2413089,22000,1294516,136,1.0,1000,0.0,,5/27/2009 0:00,WA380-3L,WA380,,-3L,,Medium,Wheel Loader - 175.0 to 200.0 Horsepower,Florida,WL,Wheel Loader,,OROPS,None or Unspecified,,None or Unspecified,,,,,,,,2 Valve,,,,,23.5,Manual,,,,,,,,,,,,,Standard,Conventional
617,2413091,33000,1710093,136,15.0,1998,0.0,,3/25/2010 0:00,WA380-3L,WA380,,-3L,,Medium,Wheel Loader - 175.0 to 200.0 Horsepower,New Jersey,WL,Wheel Loader,,OROPS,None or Unspecified,,None or Unspecified,,,,,,,,2 Valve,,,,,None or Unspecified,None or Unspecified,,,,,,,,,,,,,Standard,Conventional
617,2413092,33000,1263896,136,1.0,1000,0.0,,5/8/2009 0:00,WA380-3L,WA380,,-3L,,Medium,Wheel Loader - 175.0 to 200.0 Horsepower,Utah,WL,Wheel Loader,,EROPS w AC,None or Unspecified,,None or Unspecified,,,,,,,,2 Valve,,,,,23.5,None or Unspecified,,,,,,,,,,,,,Standard,Conventional
617,2413093,34000,1460522,136,1.0,1998,0.0,,12/16/2009 0:00,WA380-3L,WA380,,-3L,,Medium,Wheel Loader - 175.0 to 200.0 Horsepower,Maryland,WL,Wheel Loader,,EROPS,None or Unspecified,,None or Unspecified,,,,,,,,2 Valve,,,,,23.5,Manual,,,,,,,,,,,,,Standard,Conventional
617,2413094,39000,1328857,136,15.0,1998,0.0,,3/25/2010 0:00,WA380-3L,WA380,,-3L,,Medium,Wheel Loader - 175.0 to 200.0 Horsepower,New Jersey,WL,Wheel Loader,,EROPS w AC,None or Unspecified,,None or Unspecified,,,,,,,,2 Valve,,,,,23.5,Manual,,,,,,,,,,,,,Standard,Conventional
617,2413095,44000,1460079,136,1.0,1999,0.0,,2/12/2008 0:00,WA380-3L,WA380,,-3L,,Medium,Wheel Loader - 175.0 to 200.0 Horsepower,Arizona,WL,Wheel Loader,,EROPS w AC,None or Unspecified,,None or Unspecified,,,,,,,,2 Valve,,,,,23.5,None or Unspecified,,,,,,,,,,,,,Standard,Conventional
617,2413098,37500,1349221,136,8.0,1999,0.0,,3/21/2007 0:00,WA380-3L,WA380,,-3L,,Medium,Wheel Loader - 175.0 to 200.0 Horsepower,Mississippi,WL,Wheel Loader,,OROPS,None or Unspecified,,None or Unspecified,,,,,,,,2 Valve,,,,,None or Unspecified,None or Unspecified,,,,,,,,,,,,,Standard,Conventional
617,2413099,31000,1539918,136,1.0,1000,0.0,,6/9/2010 0:00,WA380-3L,WA380,,-3L,,Medium,Wheel Loader - 175.0 to 200.0 Horsepower,Michigan,WL,Wheel Loader,,EROPS,None or Unspecified,,Yes,,,,,,,,2 Valve,,,,,23.5,None or Unspecified,,,,,,,,,,,,,Standard,Conventional
617,2423595,23000,1359522,136,1.0,1997,0.0,,9/11/2009 0:00,WA380-3L,WA380,,-3L,,Medium,Wheel Loader - 175.0 to 200.0 Horsepower,Arizona,WL,Wheel Loader,,EROPS w AC,None or Unspecified,,None or Unspecified,,,,,,,,2 Valve,,,,,23.5,None or Unspecified,,,,,,,,,,,,,Standard,Conventional
617,2699335,45000,1259762,149,1.0,1998,7485.0,Medium,3/24/2011 0:00,WA380-3L,WA380,,-3L,,Medium,Wheel Loader - 175.0 to 200.0 Horsepower,Nevada,WL,Wheel Loader,,EROPS w AC,None or Unspecified,,None or Unspecified,,,,,,,,2 Valve,,,,,23.5,None or Unspecified,,,,,,,,,,,,,Standard,Conventional
617,2699337,41000,1324588,149,1.0,1998,12298.0,Medium,3/24/2011 0:00,WA380-3L,WA380,,-3L,,Medium,Wheel Loader - 175.0 to 200.0 Horsepower,Nevada,WL,Wheel Loader,,EROPS w AC,None or Unspecified,,None or Unspecified,,,,,,,,2 Valve,,,,,23.5,None or Unspecified,,,,,,,,,,,,,Standard,Conventional
617,4358678,17000,1256304,172,1.0,1999,14985.0,Medium,3/16/2010 0:00,WA380-3L,WA380,,-3L,,Medium,Wheel Loader - 175.0 to 200.0 Horsepower,Colorado,WL,Wheel Loader,,EROPS,None or Unspecified,,None or Unspecified,,,,,,,,2 Valve,,,,,23.5,None or Unspecified,,,,,,,,,,,,,Standard,Conventional
617,4358749,40000,2274670,172,1.0,1998,11675.0,Medium,12/7/2011 0:00,WA380-3L,WA380,,-3L,,Medium,Wheel Loader - 175.0 to 200.0 Horsepower,Connecticut,WL,Wheel Loader,,EROPS w AC,Yes,,Yes,,,,,,,,2 Valve,,,,,23.5,None or Unspecified,,,,,,,,,,,,,Standard,Conventional
617,4364396,26000,1359522,172,1.0,1997,12761.0,Medium,7/23/2009 0:00,WA380-3L,WA380,,-3L,,Medium,Wheel Loader - 175.0 to 200.0 Horsepower,Arizona,WL,Wheel Loader,,EROPS w AC,None or Unspecified,,None or Unspecified,,,,,,,,2 Valve,,,,,23.5,None or Unspecified,,,,,,,,,,,,,Standard,Conventional
617,6304191,40000,1925385,149,1.0,1998,,,12/8/2011 0:00,WA380-3L,WA380,,-3L,,Medium,Wheel Loader - 175.0 to 200.0 Horsepower,Connecticut,WL,Wheel Loader,,EROPS,None or Unspecified,,None or Unspecified,,,,,,,,2 Valve,,,,,None or Unspecified,None or Unspecified,,,,,,,,,,,,,Standard,Conventional
