ModelID,SalesID,SalePrice,MachineID,datasource,auctioneerID,YearMade,MachineHoursCurrentMeter,UsageBand,saledate,fiModelDesc,fiBaseModel,fiSecondaryDesc,fiModelSeries,fiModelDescriptor,ProductSize,fiProductClassDesc,state,ProductGroup,ProductGroupDesc,Drive_System,Enclosure,Forks,Pad_Type,Ride_Control,Stick,Transmission,Turbocharged,Blade_Extension,Blade_Width,Enclosure_Type,Engine_Horsepower,Hydraulics,Pushblock,Ripper,Scarifier,Tip_Control,Tire_Size,Coupler,Coupler_System,Grouser_Tracks,Hydraulics_Flow,Track_Type,Undercarriage_Pad_Width,Stick_Length,Thumb,Pattern_Changer,Grouser_Type,Backhoe_Mounting,Blade_Type,Travel_Controls,Differential_Type,Steering_Controls
6270,1139418,7750,1026462,121,3.0,2001,678.0,Low,7/9/2009 0:00,RC30,RC30,,,,,Skid Steer Loader - 701.0 to 976.0 Lb Operating Capacity,North Carolina,SSL,Skid Steer Loaders,,EROPS,None or Unspecified,,,,,,,,,,Auxiliary,,,,,,Manual,Yes,Yes,Standard,,,,,,,,,,,
6270,1141624,9000,177450,121,3.0,2001,1681.0,Medium,12/7/2006 0:00,RC30,RC30,,,,,Skid Steer Loader - 701.0 to 976.0 Lb Operating Capacity,California,SSL,Skid Steer Loaders,,OROPS,None or Unspecified,,,,,,,,,,Auxiliary,,,,,,None or Unspecified,None or Unspecified,Yes,Standard,,,,,,,,,,,
6270,1141975,12000,1045793,121,3.0,2000,507.0,Low,1/26/2006 0:00,RC30,RC30,,,,,Skid Steer Loader - 701.0 to 976.0 Lb Operating Capacity,Florida,SSL,Skid Steer Loaders,,OROPS,None or Unspecified,,,,,,,,,,Auxiliary,,,,,,None or Unspecified,None or Unspecified,Yes,Standard,,,,,,,,,,,
6270,1142212,15000,1018557,121,3.0,2002,87.0,Low,6/17/2004 0:00,RC30,RC30,,,,,Skid Steer Loader - 701.0 to 976.0 Lb Operating Capacity,Iowa,SSL,Skid Steer Loaders,,EROPS,None or Unspecified,,,,,,,,,,Standard,,,,,,None or Unspecified,None or Unspecified,Yes,Standard,,,,,,,,,,,
6270,1144578,10500,1044606,121,3.0,2005,321.0,Low,10/18/2007 0:00,RC30,RC30,,,,,Skid Steer Loader - 701.0 to 976.0 Lb Operating Capacity,Wisconsin,SSL,Skid Steer Loaders,,OROPS,None or Unspecified,,,,,,,,,,Auxiliary,,,,,,None or Unspecified,None or Unspecified,Yes,Standard,,,,,,,,,,,
6270,1146216,8500,1045793,121,3.0,2000,496.0,Low,7/28/2005 0:00,RC30,RC30,,,,,Skid Steer Loader - 701.0 to 976.0 Lb Operating Capacity,North Carolina,SSL,Skid Steer Loaders,,OROPS,None or Unspecified,,,,,,,,,,Auxiliary,,,,,,None or Unspecified,None or Unspecified,Yes,Standard,,,,,,,,,,,
6270,1146474,14000,1065126,121,3.0,2001,321.0,Low,6/16/2005 0:00,RC30,RC30,,,,,Skid Steer Loader - 701.0 to 976.0 Lb Operating Capacity,Michigan,SSL,Skid Steer Loaders,,OROPS,None or Unspecified,,,,,,,,,,Auxiliary,,,,,,None or Unspecified,None or Unspecified,Yes,Standard,,,,,,,,,,,
6270,1147876,9000,1052336,121,3.0,2002,650.0,Low,4/5/2007 0:00,RC30,RC30,,,,,Skid Steer Loader - 701.0 to 976.0 Lb Operating Capacity,Wisconsin,SSL,Skid Steer Loaders,,OROPS,None or Unspecified,,,,,,,,,,Auxiliary,,,,,,None or Unspecified,None or Unspecified,Yes,Standard,,,,,,,,,,,
6270,1153058,8000,115511,121,3.0,2000,1485.0,Medium,7/28/2005 0:00,RC30,RC30,,,,,Skid Steer Loader - 701.0 to 976.0 Lb Operating Capacity,North Carolina,SSL,Skid Steer Loaders,,OROPS,None or Unspecified,,,,,,,,,,Auxiliary,,,,,,None or Unspecified,None or Unspecified,Yes,Standard,,,,,,,,,,,
6270,1157975,8000,855743,121,3.0,2003,797.0,Medium,3/23/2006 0:00,RC30,RC30,,,,,Skid Steer Loader - 701.0 to 976.0 Lb Operating Capacity,Massachusetts,SSL,Skid Steer Loaders,,EROPS,None or Unspecified,,,,,,,,,,Auxiliary,,,,,,None or Unspecified,None or Unspecified,Yes,Standard,,,,,,,,,,,
6270,1158248,11000,999086,121,3.0,2001,835.0,Low,8/9/2007 0:00,RC30,RC30,,,,,Skid Steer Loader - 701.0 to 976.0 Lb Operating Capacity,Michigan,SSL,Skid Steer Loaders,,OROPS,None or Unspecified,,,,,,,,,,Auxiliary,,,,,,None or Unspecified,None or Unspecified,Yes,Standard,,,,,,,,,,,
6270,1158940,10000,114862,121,3.0,2000,414.0,Low,7/28/2005 0:00,RC30,RC30,,,,,Skid Steer Loader - 701.0 to 976.0 Lb Operating Capacity,North Carolina,SSL,Skid Steer Loaders,,OROPS,None or Unspecified,,,,,,,,,,Auxiliary,,,,,,None or Unspecified,None or Unspecified,Yes,Standard,,,,,,,,,,,
6270,1158960,13500,1048437,121,3.0,2001,387.0,Low,6/2/2005 0:00,RC30,RC30,,,,,Skid Steer Loader - 701.0 to 976.0 Lb Operating Capacity,Michigan,SSL,Skid Steer Loaders,,OROPS,None or Unspecified,,,,,,,,,,Auxiliary,,,,,,None or Unspecified,None or Unspecified,Yes,Standard,,,,,,,,,,,
6270,1167445,7750,1025059,121,3.0,2006,2039.0,High,10/22/2010 0:00,RC30,RC30,,,,,Skid Steer Loader - 701.0 to 976.0 Lb Operating Capacity,Florida,SSL,Skid Steer Loaders,,OROPS,None or Unspecified,,,,,,,,,,Auxiliary,,,,,,Manual,Yes,Yes,Standard,,,,,,,,,,,
6270,1172896,10500,118448,121,3.0,2000,0.0,,7/28/2005 0:00,RC30,RC30,,,,,Skid Steer Loader - 701.0 to 976.0 Lb Operating Capacity,North Carolina,SSL,Skid Steer Loaders,,OROPS,None or Unspecified,,,,,,,,,,Auxiliary,,,,,,None or Unspecified,None or Unspecified,None or Unspecified,Standard,,,,,,,,,,,
6270,1173680,14500,1053196,121,3.0,2001,484.0,Low,8/26/2004 0:00,RC30,RC30,,,,,Skid Steer Loader - 701.0 to 976.0 Lb Operating Capacity,Michigan,SSL,Skid Steer Loaders,,OROPS,None or Unspecified,,,,,,,,,,Auxiliary,,,,,,None or Unspecified,None or Unspecified,Yes,Standard,,,,,,,,,,,
6270,1173708,13000,1051409,121,3.0,2001,283.0,Low,8/26/2004 0:00,RC30,RC30,,,,,Skid Steer Loader - 701.0 to 976.0 Lb Operating Capacity,Pennsylvania,SSL,Skid Steer Loaders,,EROPS,None or Unspecified,,,,,,,,,,Standard,,,,,,None or Unspecified,None or Unspecified,Yes,Standard,,,,,,,,,,,
6270,1174043,11500,1005019,121,3.0,2001,392.0,Low,9/30/2004 0:00,RC30,RC30,,,,,Skid Steer Loader - 701.0 to 976.0 Lb Operating Capacity,Michigan,SSL,Skid Steer Loaders,,OROPS,None or Unspecified,,,,,,,,,,Auxiliary,,,,,,None or Unspecified,None or Unspecified,Yes,Standard,,,,,,,,,,,
6270,1174102,14000,1029125,121,3.0,2001,192.0,Low,10/7/2004 0:00,RC30,RC30,,,,,Skid Steer Loader - 701.0 to 976.0 Lb Operating Capacity,Michigan,SSL,Skid Steer Loaders,,OROPS,None or Unspecified,,,,,,,,,,Auxiliary,,,,,,None or Unspecified,None or Unspecified,Yes,Standard,,,,,,,,,,,
6270,1174158,14500,1049816,121,3.0,2001,0.0,,10/21/2004 0:00,RC30,RC30,,,,,Skid Steer Loader - 701.0 to 976.0 Lb Operating Capacity,Michigan,SSL,Skid Steer Loaders,,OROPS,None or Unspecified,,,,,,,,,,Auxiliary,,,,,,None or Unspecified,None or Unspecified,Yes,Standard,,,,,,,,,,,
6270,1174261,10750,840023,121,3.0,2001,207.0,Low,11/4/2004 0:00,RC30,RC30,,,,,Skid Steer Loader - 701.0 to 976.0 Lb Operating Capacity,Massachusetts,SSL,Skid Steer Loaders,,EROPS,None or Unspecified,,,,,,,,,,Auxiliary,,,,,,None or Unspecified,None or Unspecified,None or Unspecified,Standard,,,,,,,,,,,
6270,1174306,13250,1024538,121,3.0,2001,0.0,,11/4/2004 0:00,RC30,RC30,,,,,Skid Steer Loader - 701.0 to 976.0 Lb Operating Capacity,Michigan,SSL,Skid Steer Loaders,,OROPS,None or Unspecified,,,,,,,,,,Auxiliary,,,,,,None or Unspecified,None or Unspecified,Yes,Standard,,,,,,,,,,,
6270,1174422,13500,1020607,121,3.0,2000,473.0,Low,11/18/2004 0:00,RC30,RC30,,,,,Skid Steer Loader - 701.0 to 976.0 Lb Operating Capacity,Michigan,SSL,Skid Steer Loaders,,OROPS,None or Unspecified,,,,,,,,,,Auxiliary,,,,,,None or Unspecified,None or Unspecified,Yes,Standard,,,,,,,,,,,
6270,1174693,10500,1033326,121,3.0,2000,454.0,Low,12/16/2004 0:00,RC30,RC30,,,,,Skid Steer Loader - 701.0 to 976.0 Lb Operating Capacity,Florida,SSL,Skid Steer Loaders,,OROPS,None or Unspecified,,,,,,,,,,Auxiliary,,,,,,None or Unspecified,None or Unspecified,Yes,Standard,,,,,,,,,,,
6270,1174816,13000,1007866,121,3.0,2001,832.0,Medium,1/13/2005 0:00,RC30,RC30,,,,,Skid Steer Loader - 701.0 to 976.0 Lb Operating Capacity,Michigan,SSL,Skid Steer Loaders,,OROPS,None or Unspecified,,,,,,,,,,Auxiliary,,,,,,None or Unspecified,None or Unspecified,Yes,Standard,,,,,,,,,,,
6270,1174847,13000,1050146,121,3.0,2000,542.0,Low,1/13/2005 0:00,RC30,RC30,,,,,Skid Steer Loader - 701.0 to 976.0 Lb Operating Capacity,Michigan,SSL,Skid Steer Loaders,,OROPS,None or Unspecified,,,,,,,,,,Auxiliary,,,,,,None or Unspecified,None or Unspecified,Yes,Standard,,,,,,,,,,,
6270,1174896,12500,999086,121,3.0,2001,805.0,Medium,2/10/2005 0:00,RC30,RC30,,,,,Skid Steer Loader - 701.0 to 976.0 Lb Operating Capacity,Michigan,SSL,Skid Steer Loaders,,OROPS,None or Unspecified,,,,,,,,,,Auxiliary,,,,,,None or Unspecified,None or Unspecified,Yes,Standard,,,,,,,,,,,
6270,1174950,11000,1060039,121,3.0,2000,851.0,Low,2/10/2005 0:00,RC30,RC30,,,,,Skid Steer Loader - 701.0 to 976.0 Lb Operating Capacity,Pennsylvania,SSL,Skid Steer Loaders,,OROPS,None or Unspecified,,,,,,,,,,Auxiliary,,,,,,None or Unspecified,None or Unspecified,Yes,Standard,,,,,,,,,,,
6270,1175058,12000,1012291,121,3.0,2001,352.0,Low,2/24/2005 0:00,RC30,RC30,,,,,Skid Steer Loader - 701.0 to 976.0 Lb Operating Capacity,Michigan,SSL,Skid Steer Loaders,,OROPS,None or Unspecified,,,,,,,,,,Auxiliary,,,,,,None or Unspecified,None or Unspecified,Yes,Standard,,,,,,,,,,,
6270,1175090,14500,1040954,121,3.0,2001,626.0,Low,3/10/2005 0:00,RC30,RC30,,,,,Skid Steer Loader - 701.0 to 976.0 Lb Operating Capacity,Michigan,SSL,Skid Steer Loaders,,OROPS,None or Unspecified,,,,,,,,,,Auxiliary,,,,,,None or Unspecified,None or Unspecified,Yes,Standard,,,,,,,,,,,
6270,1175093,12000,1016351,121,3.0,2001,459.0,Low,3/24/2005 0:00,RC30,RC30,,,,,Skid Steer Loader - 701.0 to 976.0 Lb Operating Capacity,Michigan,SSL,Skid Steer Loaders,,OROPS,None or Unspecified,,,,,,,,,,Auxiliary,,,,,,None or Unspecified,None or Unspecified,Yes,Standard,,,,,,,,,,,
6270,1175994,9000,1034478,121,3.0,2004,0.0,,12/6/2007 0:00,RC30,RC30,,,,,Skid Steer Loader - 701.0 to 976.0 Lb Operating Capacity,Wisconsin,SSL,Skid Steer Loaders,,OROPS,None or Unspecified,,,,,,,,,,Auxiliary,,,,,,None or Unspecified,None or Unspecified,Yes,Standard,,,,,,,,,,,
6270,1179213,6500,799432,121,3.0,2001,0.0,,5/1/2008 0:00,RC30,RC30,,,,,Skid Steer Loader - 701.0 to 976.0 Lb Operating Capacity,Florida,SSL,Skid Steer Loaders,,OROPS,None or Unspecified,,,,,,,,,,Auxiliary,,,,,,Manual,Yes,Yes,Standard,,,,,,,,,,,
6270,1181462,11000,1040121,121,3.0,2006,570.0,Medium,9/4/2008 0:00,RC30,RC30,,,,,Skid Steer Loader - 701.0 to 976.0 Lb Operating Capacity,Louisiana,SSL,Skid Steer Loaders,,OROPS,None or Unspecified,,,,,,,,,,Standard,,,,,,Manual,Yes,Yes,Standard,,,,,,,,,,,
6270,1181465,8250,1016148,121,3.0,2006,592.0,Medium,8/7/2008 0:00,RC30,RC30,,,,,Skid Steer Loader - 701.0 to 976.0 Lb Operating Capacity,Louisiana,SSL,Skid Steer Loaders,,OROPS,None or Unspecified,,,,,,,,,,Auxiliary,,,,,,None or Unspecified,None or Unspecified,Yes,Standard,,,,,,,,,,,
6270,1181466,8000,1009720,121,3.0,2006,746.0,Medium,8/7/2008 0:00,RC30,RC30,,,,,Skid Steer Loader - 701.0 to 976.0 Lb Operating Capacity,Louisiana,SSL,Skid Steer Loaders,,OROPS,None or Unspecified,,,,,,,,,,Auxiliary,,,,,,None or Unspecified,None or Unspecified,Yes,Standard,,,,,,,,,,,
6270,1181467,13000,1065842,121,3.0,2006,248.0,Low,8/7/2008 0:00,RC30,RC30,,,,,Skid Steer Loader - 701.0 to 976.0 Lb Operating Capacity,Louisiana,SSL,Skid Steer Loaders,,OROPS,None or Unspecified,,,,,,,,,,Auxiliary,,,,,,Manual,Yes,Yes,Standard,,,,,,,,,,,
6270,1181577,10750,1056825,121,3.0,2006,536.0,Medium,8/14/2008 0:00,RC30,RC30,,,,,Skid Steer Loader - 701.0 to 976.0 Lb Operating Capacity,Louisiana,SSL,Skid Steer Loaders,,OROPS,None or Unspecified,,,,,,,,,,Auxiliary,,,,,,None or Unspecified,None or Unspecified,Yes,Standard,,,,,,,,,,,
6270,1181578,8500,1003076,121,3.0,2006,553.0,Medium,8/14/2008 0:00,RC30,RC30,,,,,Skid Steer Loader - 701.0 to 976.0 Lb Operating Capacity,Louisiana,SSL,Skid Steer Loaders,,OROPS,None or Unspecified,,,,,,,,,,Auxiliary,,,,,,None or Unspecified,None or Unspecified,Yes,Standard,,,,,,,,,,,
6270,1181584,8250,1062654,121,3.0,2006,676.0,Medium,8/21/2008 0:00,RC30,RC30,,,,,Skid Steer Loader - 701.0 to 976.0 Lb Operating Capacity,Mississippi,SSL,Skid Steer Loaders,,OROPS,None or Unspecified,,,,,,,,,,Auxiliary,,,,,,None or Unspecified,None or Unspecified,Yes,Standard,,,,,,,,,,,
6270,1181585,8500,1036060,121,3.0,2006,597.0,Medium,8/21/2008 0:00,RC30,RC30,,,,,Skid Steer Loader - 701.0 to 976.0 Lb Operating Capacity,Mississippi,SSL,Skid Steer Loaders,,OROPS,None or Unspecified,,,,,,,,,,Auxiliary,,,,,,None or Unspecified,None or Unspecified,Yes,Standard,,,,,,,,,,,
6270,1181586,10500,1064728,121,3.0,2006,617.0,Medium,8/21/2008 0:00,RC30,RC30,,,,,Skid Steer Loader - 701.0 to 976.0 Lb Operating Capacity,Mississippi,SSL,Skid Steer Loaders,,OROPS,None or Unspecified,,,,,,,,,,Auxiliary,,,,,,None or Unspecified,None or Unspecified,Yes,Standard,,,,,,,,,,,
6270,1181589,6750,1057926,121,3.0,2003,695.0,Low,8/14/2008 0:00,RC30,RC30,,,,,Skid Steer Loader - 701.0 to 976.0 Lb Operating Capacity,Mississippi,SSL,Skid Steer Loaders,,OROPS,None or Unspecified,,,,,,,,,,Auxiliary,,,,,,None or Unspecified,None or Unspecified,Yes,Standard,,,,,,,,,,,
6270,1181592,12000,1051667,121,3.0,2006,493.0,Medium,9/18/2008 0:00,RC30,RC30,,,,,Skid Steer Loader - 701.0 to 976.0 Lb Operating Capacity,Mississippi,SSL,Skid Steer Loaders,,OROPS,None or Unspecified,,,,,,,,,,Standard,,,,,,Manual,None or Unspecified,Yes,Standard,,,,,,,,,,,
6270,1181594,8750,1008929,121,3.0,2005,0.0,,10/30/2008 0:00,RC30,RC30,,,,,Skid Steer Loader - 701.0 to 976.0 Lb Operating Capacity,Louisiana,SSL,Skid Steer Loaders,,OROPS,None or Unspecified,,,,,,,,,,Auxiliary,,,,,,None or Unspecified,None or Unspecified,Yes,Standard,,,,,,,,,,,
6270,1181602,14500,1008875,121,3.0,2006,180.0,Low,8/14/2008 0:00,RC30,RC30,,,,,Skid Steer Loader - 701.0 to 976.0 Lb Operating Capacity,Louisiana,SSL,Skid Steer Loaders,,OROPS,None or Unspecified,,,,,,,,,,Auxiliary,,,,,,None or Unspecified,None or Unspecified,Yes,Standard,,,,,,,,,,,
6270,1181605,11750,1012772,121,3.0,2006,370.0,Low,8/21/2008 0:00,RC30,RC30,,,,,Skid Steer Loader - 701.0 to 976.0 Lb Operating Capacity,Louisiana,SSL,Skid Steer Loaders,,OROPS,None or Unspecified,,,,,,,,,,Auxiliary,,,,,,Manual,Yes,Yes,Standard,,,,,,,,,,,
6270,1181609,7500,1011030,121,3.0,2006,769.0,Medium,8/7/2008 0:00,RC30,RC30,,,,,Skid Steer Loader - 701.0 to 976.0 Lb Operating Capacity,Louisiana,SSL,Skid Steer Loaders,,OROPS,None or Unspecified,,,,,,,,,,Auxiliary,,,,,,None or Unspecified,None or Unspecified,Yes,Standard,,,,,,,,,,,
6270,1181610,9000,1051077,121,3.0,2006,519.0,Medium,8/7/2008 0:00,RC30,RC30,,,,,Skid Steer Loader - 701.0 to 976.0 Lb Operating Capacity,Louisiana,SSL,Skid Steer Loaders,,OROPS,None or Unspecified,,,,,,,,,,Auxiliary,,,,,,None or Unspecified,None or Unspecified,Yes,Standard,,,,,,,,,,,
6270,1181628,12000,1025536,121,3.0,2006,472.0,Medium,8/14/2008 0:00,RC30,RC30,,,,,Skid Steer Loader - 701.0 to 976.0 Lb Operating Capacity,Louisiana,SSL,Skid Steer Loaders,,OROPS,None or Unspecified,,,,,,,,,,Auxiliary,,,,,,None or Unspecified,None or Unspecified,Yes,Standard,,,,,,,,,,,
6270,1181630,7750,1038751,121,3.0,2006,0.0,,8/21/2008 0:00,RC30,RC30,,,,,Skid Steer Loader - 701.0 to 976.0 Lb Operating Capacity,Louisiana,SSL,Skid Steer Loaders,,OROPS,None or Unspecified,,,,,,,,,,Auxiliary,,,,,,None or Unspecified,None or Unspecified,Yes,Standard,,,,,,,,,,,
6270,1181631,14000,1028382,121,3.0,2006,319.0,Low,8/21/2008 0:00,RC30,RC30,,,,,Skid Steer Loader - 701.0 to 976.0 Lb Operating Capacity,Louisiana,SSL,Skid Steer Loaders,,OROPS,None or Unspecified,,,,,,,,,,Auxiliary,,,,,,Manual,Yes,Yes,Standard,,,,,,,,,,,
6270,1181632,8750,1015085,121,3.0,2006,0.0,,9/4/2008 0:00,RC30,RC30,,,,,Skid Steer Loader - 701.0 to 976.0 Lb Operating Capacity,Louisiana,SSL,Skid Steer Loaders,,OROPS,None or Unspecified,,,,,,,,,,Auxiliary,,,,,,None or Unspecified,None or Unspecified,Yes,Standard,,,,,,,,,,,
6270,1181633,10250,1038023,121,3.0,2006,530.0,Medium,8/21/2008 0:00,RC30,RC30,,,,,Skid Steer Loader - 701.0 to 976.0 Lb Operating Capacity,Louisiana,SSL,Skid Steer Loaders,,OROPS,None or Unspecified,,,,,,,,,,Auxiliary,,,,,,None or Unspecified,None or Unspecified,Yes,Standard,,,,,,,,,,,
6270,1181637,9250,1039543,121,3.0,2006,0.0,,8/21/2008 0:00,RC30,RC30,,,,,Skid Steer Loader - 701.0 to 976.0 Lb Operating Capacity,Louisiana,SSL,Skid Steer Loaders,,OROPS,None or Unspecified,,,,,,,,,,Auxiliary,,,,,,None or Unspecified,None or Unspecified,Yes,Standard,,,,,,,,,,,
6270,1181643,12500,1003606,121,3.0,1000,552.0,Low,8/14/2008 0:00,RC30,RC30,,,,,Skid Steer Loader - 701.0 to 976.0 Lb Operating Capacity,Louisiana,SSL,Skid Steer Loaders,,OROPS,None or Unspecified,,,,,,,,,,Auxiliary,,,,,,None or Unspecified,None or Unspecified,Yes,Standard,,,,,,,,,,,
6270,1181649,6500,1031611,121,3.0,2006,910.0,Medium,9/4/2008 0:00,RC30,RC30,,,,,Skid Steer Loader - 701.0 to 976.0 Lb Operating Capacity,Mississippi,SSL,Skid Steer Loaders,,OROPS,None or Unspecified,,,,,,,,,,Auxiliary,,,,,,Manual,Yes,Yes,Standard,,,,,,,,,,,
6270,1181654,6250,1054142,121,3.0,2005,888.0,Medium,8/21/2008 0:00,RC30,RC30,,,,,Skid Steer Loader - 701.0 to 976.0 Lb Operating Capacity,Louisiana,SSL,Skid Steer Loaders,,OROPS,None or Unspecified,,,,,,,,,,Auxiliary,,,,,,None or Unspecified,None or Unspecified,Yes,Standard,,,,,,,,,,,
6270,1183009,6500,1060181,121,3.0,2001,673.0,Low,9/18/2008 0:00,RC30,RC30,,,,,Skid Steer Loader - 701.0 to 976.0 Lb Operating Capacity,Florida,SSL,Skid Steer Loaders,,OROPS,None or Unspecified,,,,,,,,,,Auxiliary,,,,,,Manual,Yes,Yes,Standard,,,,,,,,,,,
6270,1183894,10750,1035616,121,3.0,2006,155.0,Low,10/30/2008 0:00,RC30,RC30,,,,,Skid Steer Loader - 701.0 to 976.0 Lb Operating Capacity,Florida,SSL,Skid Steer Loaders,,OROPS,None or Unspecified,,,,,,,,,,Standard,,,,,,Manual,Yes,Yes,Standard,,,,,,,,,,,
6270,1193221,9250,1060452,121,3.0,2005,436.0,Low,10/1/2009 0:00,RC30,RC30,,,,,Skid Steer Loader - 701.0 to 976.0 Lb Operating Capacity,Florida,SSL,Skid Steer Loaders,,OROPS,None or Unspecified,,,,,,,,,,Auxiliary,,,,,,Manual,Yes,Yes,Standard,,,,,,,,,,,
6270,1194022,7000,1062284,121,3.0,2005,362.0,Low,10/29/2009 0:00,RC30,RC30,,,,,Skid Steer Loader - 701.0 to 976.0 Lb Operating Capacity,Hawaii,SSL,Skid Steer Loaders,,OROPS,None or Unspecified,,,,,,,,,,Auxiliary,,,,,,None or Unspecified,None or Unspecified,Yes,Standard,,,,,,,,,,,
6270,1197705,10000,1017794,121,3.0,2007,5.0,Low,12/10/2009 0:00,RC30,RC30,,,,,Skid Steer Loader - 701.0 to 976.0 Lb Operating Capacity,California,SSL,Skid Steer Loaders,,OROPS,None or Unspecified,,,,,,,,,,Standard,,,,,,Manual,Yes,Yes,Standard,,,,,,,,,,,
6270,1206292,8500,774762,121,3.0,2002,1062.0,Low,10/5/2010 0:00,RC30,RC30,,,,,Skid Steer Loader - 701.0 to 976.0 Lb Operating Capacity,Kentucky,SSL,Skid Steer Loaders,,OROPS,None or Unspecified,,,,,,,,,,Auxiliary,,,,,,Manual,Yes,Yes,Standard,,,,,,,,,,,
6270,1210737,6500,777856,121,3.0,2001,1748.0,High,2/25/2011 0:00,RC30,RC30,,,,,Skid Steer Loader - 701.0 to 976.0 Lb Operating Capacity,Florida,SSL,Skid Steer Loaders,,OROPS,None or Unspecified,,,,,,,,,,Auxiliary,,,,,,Manual,Yes,Yes,Standard,,,,,,,,,,,
6270,1212129,8100,1043514,121,3.0,2001,1547.0,Low,2/25/2011 0:00,RC30,RC30,,,,,Skid Steer Loader - 701.0 to 976.0 Lb Operating Capacity,Minnesota,SSL,Skid Steer Loaders,,OROPS,None or Unspecified,,,,,,,,,,Auxiliary,,,,,,Manual,Yes,Yes,Standard,,,,,,,,,,,
6270,1213391,8000,1004081,121,3.0,2002,78.0,Low,4/1/2011 0:00,RC30,RC30,,,,,Skid Steer Loader - 701.0 to 976.0 Lb Operating Capacity,Pennsylvania,SSL,Skid Steer Loaders,,OROPS,None or Unspecified,,,,,,,,,,Auxiliary,,,,,,Manual,Yes,Yes,Standard,,,,,,,,,,,
6270,1218825,7000,1026609,121,3.0,2003,1340.0,Low,10/6/2011 0:00,RC30,RC30,,,,,Skid Steer Loader - 701.0 to 976.0 Lb Operating Capacity,Alabama,SSL,Skid Steer Loaders,,OROPS,None or Unspecified,,,,,,,,,,Auxiliary,,,,,,Manual,Yes,Yes,Standard,,,,,,,,,,,
6270,2191988,6500,1660211,136,1.0,2001,,,5/27/2009 0:00,RC30,RC30,,,,,Skid Steer Loader - 701.0 to 976.0 Lb Operating Capacity,Florida,SSL,Skid Steer Loaders,,OROPS,None or Unspecified,,,,,,,,,,Auxiliary,,,,,,None or Unspecified,None or Unspecified,None or Unspecified,Standard,,,,,,,,,,,
6270,2191991,6000,1744360,136,,1000,,,4/23/2009 0:00,RC30,RC30,,,,,Skid Steer Loader - 701.0 to 976.0 Lb Operating Capacity,Kentucky,SSL,Skid Steer Loaders,,OROPS,None or Unspecified,,,,,,,,,,Standard,,,,,,None or Unspecified,None or Unspecified,Yes,Standard,,,,,,,,,,,
6270,2191995,8000,1691011,136,1.0,2001,,,5/13/2009 0:00,RC30,RC30,,,,,Skid Steer Loader - 701.0 to 976.0 Lb Operating Capacity,Illinois,SSL,Skid Steer Loaders,,OROPS,None or Unspecified,,,,,,,,,,Auxiliary,,,,,,None or Unspecified,None or Unspecified,Yes,Standard,,,,,,,,,,,
6270,2191997,7250,1723479,136,,1000,,,6/17/2009 0:00,RC30,RC30,,,,,Skid Steer Loader - 701.0 to 976.0 Lb Operating Capacity,Arkansas,SSL,Skid Steer Loaders,,OROPS,Yes,,,,,,,,,,Standard,,,,,,None or Unspecified,None or Unspecified,Yes,Standard,,,,,,,,,,,
6270,2191999,7500,1723479,136,,1000,,,4/23/2009 0:00,RC30,RC30,,,,,Skid Steer Loader - 701.0 to 976.0 Lb Operating Capacity,Kentucky,SSL,Skid Steer Loaders,,OROPS,Yes,,,,,,,,,,Standard,,,,,,None or Unspecified,None or Unspecified,Yes,Standard,,,,,,,,,,,
6270,2192000,7000,1740040,136,,1000,,,3/19/2009 0:00,RC30,RC30,,,,,Skid Steer Loader - 701.0 to 976.0 Lb Operating Capacity,New Jersey,SSL,Skid Steer Loaders,,OROPS,None or Unspecified,,,,,,,,,,Auxiliary,,,,,,Manual,None or Unspecified,Yes,Standard,,,,,,,,,,,
6270,2192003,6000,1742630,136,,2002,,,10/14/2009 0:00,RC30,RC30,,,,,Skid Steer Loader - 701.0 to 976.0 Lb Operating Capacity,Florida,SSL,Skid Steer Loaders,,OROPS,None or Unspecified,,,,,,,,,,Auxiliary,,,,,,None or Unspecified,None or Unspecified,None or Unspecified,Standard,,,,,,,,,,,
6270,2192006,6500,1703399,136,,2004,,,10/12/2009 0:00,RC30,RC30,,,,,Skid Steer Loader - 701.0 to 976.0 Lb Operating Capacity,Florida,SSL,Skid Steer Loaders,,OROPS,None or Unspecified,,,,,,,,,,Auxiliary,,,,,,Manual,Yes,None or Unspecified,Standard,,,,,,,,,,,
6270,2192008,8000,548354,136,,2003,851.0,Low,3/20/2009 0:00,RC30,RC30,,,,,Skid Steer Loader - 701.0 to 976.0 Lb Operating Capacity,Indiana,SSL,Skid Steer Loaders,,OROPS,Yes,,,,,,,,,,Standard,,,,,,None or Unspecified,None or Unspecified,None or Unspecified,Standard,,,,,,,,,,,
6270,2192010,7000,1716381,136,,2004,,,9/10/2009 0:00,RC30,RC30,,,,,Skid Steer Loader - 701.0 to 976.0 Lb Operating Capacity,Georgia,SSL,Skid Steer Loaders,,OROPS,Yes,,,,,,,,,,Auxiliary,,,,,,None or Unspecified,None or Unspecified,Yes,Standard,,,,,,,,,,,
6270,2192016,7000,1639470,136,,2005,,,9/10/2009 0:00,RC30,RC30,,,,,Skid Steer Loader - 701.0 to 976.0 Lb Operating Capacity,Georgia,SSL,Skid Steer Loaders,,OROPS,Yes,,,,,,,,,,Auxiliary,,,,,,None or Unspecified,None or Unspecified,Yes,Standard,,,,,,,,,,,
6270,2192026,8000,1640312,136,,2005,,,9/10/2009 0:00,RC30,RC30,,,,,Skid Steer Loader - 701.0 to 976.0 Lb Operating Capacity,Georgia,SSL,Skid Steer Loaders,,OROPS,Yes,,,,,,,,,,Auxiliary,,,,,,None or Unspecified,None or Unspecified,Yes,Standard,,,,,,,,,,,
6270,2192027,8500,1758907,136,1.0,2006,429.0,Low,4/20/2010 0:00,RC30,RC30,,,,,Skid Steer Loader - 701.0 to 976.0 Lb Operating Capacity,New Mexico,SSL,Skid Steer Loaders,,OROPS,None or Unspecified,,,,,,,,,,Auxiliary,,,,,,Manual,Yes,None or Unspecified,Standard,,,,,,,,,,,
6270,2192030,7500,1703994,136,1.0,2005,,,3/26/2009 0:00,RC30,RC30,,,,,Skid Steer Loader - 701.0 to 976.0 Lb Operating Capacity,Georgia,SSL,Skid Steer Loaders,,OROPS,None or Unspecified,,,,,,,,,,Standard,,,,,,None or Unspecified,None or Unspecified,Yes,Standard,,,,,,,,,,,
6270,2192039,7000,1648189,136,1.0,2006,,,4/20/2010 0:00,RC30,RC30,,,,,Skid Steer Loader - 701.0 to 976.0 Lb Operating Capacity,New Mexico,SSL,Skid Steer Loaders,,OROPS,None or Unspecified,,,,,,,,,,Auxiliary,,,,,,Manual,Yes,None or Unspecified,Standard,,,,,,,,,,,
6270,2482911,11000,1923723,149,16.0,1000,0.0,,12/29/2010 0:00,RC30,RC30,,,,,Skid Steer Loader - 701.0 to 976.0 Lb Operating Capacity,Ohio,SSL,Skid Steer Loaders,,OROPS,None or Unspecified,,,,,,,,,,Auxiliary,,,,,,None or Unspecified,None or Unspecified,Yes,Standard,,,,,,,,,,,
6270,2482922,10000,1854490,149,1.0,2005,0.0,,2/15/2011 0:00,RC30,RC30,,,,,Skid Steer Loader - 701.0 to 976.0 Lb Operating Capacity,Florida,SSL,Skid Steer Loaders,,OROPS,None or Unspecified,,,,,,,,,,Auxiliary,,,,,,None or Unspecified,None or Unspecified,Yes,Standard,,,,,,,,,,,
6270,2482925,5000,777856,149,1.0,2009,1748.0,High,3/17/2011 0:00,RC30,RC30,,,,,Skid Steer Loader - 701.0 to 976.0 Lb Operating Capacity,Ohio,SSL,Skid Steer Loaders,,OROPS,None or Unspecified,,,,,,,,,,Auxiliary,,,,,,Manual,Yes,Yes,Standard,,,,,,,,,,,
6270,2482927,5000,1894284,149,1.0,1000,1197.0,Low,3/16/2011 0:00,RC30,RC30,,,,,Skid Steer Loader - 701.0 to 976.0 Lb Operating Capacity,Illinois,SSL,Skid Steer Loaders,,OROPS,None or Unspecified,,,,,,,,,,Auxiliary,,,,,,None or Unspecified,None or Unspecified,None or Unspecified,Standard,,,,,,,,,,,
6270,2482951,7500,1791804,149,1.0,2006,0.0,,9/23/2010 0:00,RC30,RC30,,,,,Skid Steer Loader - 701.0 to 976.0 Lb Operating Capacity,Illinois,SSL,Skid Steer Loaders,,OROPS,None or Unspecified,,,,,,,,,,Auxiliary,,,,,,None or Unspecified,None or Unspecified,Yes,Standard,,,,,,,,,,,
6270,2482953,8500,1859693,149,1.0,2005,0.0,,5/25/2010 0:00,RC30,RC30,,,,,Skid Steer Loader - 701.0 to 976.0 Lb Operating Capacity,Florida,SSL,Skid Steer Loaders,,OROPS,None or Unspecified,,,,,,,,,,Auxiliary,,,,,,None or Unspecified,None or Unspecified,Yes,Standard,,,,,,,,,,,
6270,2482960,11500,1690225,149,1.0,2006,206.0,Low,2/15/2010 0:00,RC30,RC30,,,,,Skid Steer Loader - 701.0 to 976.0 Lb Operating Capacity,Florida,SSL,Skid Steer Loaders,,OROPS,Yes,,,,,,,,,,Auxiliary,,,,,,None or Unspecified,None or Unspecified,Yes,Standard,,,,,,,,,,,
6270,2482961,9000,1793227,149,1.0,2005,341.0,Low,2/15/2010 0:00,RC30,RC30,,,,,Skid Steer Loader - 701.0 to 976.0 Lb Operating Capacity,Florida,SSL,Skid Steer Loaders,,OROPS,None or Unspecified,,,,,,,,,,Auxiliary,,,,,,None or Unspecified,None or Unspecified,Yes,Standard,,,,,,,,,,,
6270,2482962,8000,1901622,149,1.0,2006,0.0,,5/11/2011 0:00,RC30,RC30,,,,,Skid Steer Loader - 701.0 to 976.0 Lb Operating Capacity,Texas,SSL,Skid Steer Loaders,,OROPS,None or Unspecified,,,,,,,,,,Auxiliary,,,,,,None or Unspecified,None or Unspecified,Yes,Standard,,,,,,,,,,,
6270,2482964,11000,1896780,149,99.0,2006,0.0,,7/15/2010 0:00,RC30,RC30,,,,,Skid Steer Loader - 701.0 to 976.0 Lb Operating Capacity,Mississippi,SSL,Skid Steer Loaders,,OROPS,None or Unspecified,,,,,,,,,,Standard,,,,,,None or Unspecified,None or Unspecified,None or Unspecified,Standard,,,,,,,,,,,
6270,2482965,7250,1896780,149,1.0,2006,0.0,,1/28/2010 0:00,RC30,RC30,,,,,Skid Steer Loader - 701.0 to 976.0 Lb Operating Capacity,Alabama,SSL,Skid Steer Loaders,,OROPS,None or Unspecified,,,,,,,,,,Standard,,,,,,None or Unspecified,None or Unspecified,None or Unspecified,Standard,,,,,,,,,,,
6270,2482973,10000,1789896,149,1.0,2006,0.0,,2/15/2011 0:00,RC30,RC30,,,,,Skid Steer Loader - 701.0 to 976.0 Lb Operating Capacity,Florida,SSL,Skid Steer Loaders,,OROPS,None or Unspecified,,,,,,,,,,Auxiliary,,,,,,None or Unspecified,None or Unspecified,None or Unspecified,Standard,,,,,,,,,,,
6270,2482975,7900,1923452,149,26.0,2006,0.0,,6/9/2010 0:00,RC30,RC30,,,,,Skid Steer Loader - 701.0 to 976.0 Lb Operating Capacity,Alabama,SSL,Skid Steer Loaders,,OROPS,None or Unspecified,,,,,,,,,,Standard,,,,,,None or Unspecified,None or Unspecified,Yes,Standard,,,,,,,,,,,
6270,2482980,11500,1930213,149,1.0,2006,106.0,Low,2/15/2010 0:00,RC30,RC30,,,,,Skid Steer Loader - 701.0 to 976.0 Lb Operating Capacity,Florida,SSL,Skid Steer Loaders,,OROPS,Yes,,,,,,,,,,Auxiliary,,,,,,None or Unspecified,None or Unspecified,Yes,Standard,,,,,,,,,,,
6270,2482981,12500,1907467,149,1.0,2006,383.0,Low,3/24/2010 0:00,RC30,RC30,,,,,Skid Steer Loader - 701.0 to 976.0 Lb Operating Capacity,Texas,SSL,Skid Steer Loaders,,OROPS,None or Unspecified,,,,,,,,,,Auxiliary,,,,,,None or Unspecified,None or Unspecified,Yes,Standard,,,,,,,,,,,
6270,2482982,12500,1850412,149,1.0,2006,462.0,Low,3/24/2010 0:00,RC30,RC30,,,,,Skid Steer Loader - 701.0 to 976.0 Lb Operating Capacity,Texas,SSL,Skid Steer Loaders,,OROPS,None or Unspecified,,,,,,,,,,Auxiliary,,,,,,None or Unspecified,None or Unspecified,Yes,Standard,,,,,,,,,,,
6270,2483043,16500,1810606,149,1.0,2006,0.0,,3/24/2010 0:00,RC30,RC30,,,,,Skid Steer Loader - 701.0 to 976.0 Lb Operating Capacity,Texas,SSL,Skid Steer Loaders,,OROPS,None or Unspecified,,,,,,,,,,Auxiliary,,,,,,None or Unspecified,None or Unspecified,Yes,Standard,,,,,,,,,,,
6270,4240967,9000,2279570,172,1.0,2006,3127.0,High,11/20/2009 0:00,RC30,RC30,,,,,Skid Steer Loader - 701.0 to 976.0 Lb Operating Capacity,Arizona,SSL,Skid Steer Loaders,,OROPS,None or Unspecified,,,,,,,,,,Auxiliary,,,,,,None or Unspecified,None or Unspecified,None or Unspecified,Standard,,,,,,,,,,,
6270,6254518,6500,525077,149,1.0,2000,,,12/8/2011 0:00,RC30,RC30,,,,,Skid Steer Loader - 701.0 to 976.0 Lb Operating Capacity,Texas,SSL,Skid Steer Loaders,,OROPS,None or Unspecified,,,,,,,,,,Auxiliary,,,,,,None or Unspecified,None or Unspecified,None or Unspecified,Standard,,,,,,,,,,,
6270,6254519,7000,1854490,149,1.0,2001,,,12/20/2011 0:00,RC30,RC30,,,,,Skid Steer Loader - 701.0 to 976.0 Lb Operating Capacity,Tennessee,SSL,Skid Steer Loaders,,OROPS,None or Unspecified,,,,,,,,,,Auxiliary,,,,,,None or Unspecified,None or Unspecified,Yes,Standard,,,,,,,,,,,
6270,6254524,10000,1825384,149,1.0,2007,,,12/16/2011 0:00,RC30,RC30,,,,,Skid Steer Loader - 701.0 to 976.0 Lb Operating Capacity,Missouri,SSL,Skid Steer Loaders,,OROPS,None or Unspecified,,,,,,,,,,Auxiliary,,,,,,None or Unspecified,None or Unspecified,Yes,Standard,,,,,,,,,,,
6270,6254526,8000,772966,149,1.0,2005,,,10/26/2011 0:00,RC30,RC30,,,,,Skid Steer Loader - 701.0 to 976.0 Lb Operating Capacity,Florida,SSL,Skid Steer Loaders,,OROPS,None or Unspecified,,,,,,,,,,Auxiliary,,,,,,None or Unspecified,None or Unspecified,None or Unspecified,Standard,,,,,,,,,,,
6270,6254527,8000,779809,149,1.0,2005,,,10/26/2011 0:00,RC30,RC30,,,,,Skid Steer Loader - 701.0 to 976.0 Lb Operating Capacity,Florida,SSL,Skid Steer Loaders,,OROPS,None or Unspecified,,,,,,,,,,Auxiliary,,,,,,None or Unspecified,None or Unspecified,None or Unspecified,Standard,,,,,,,,,,,
6270,6254528,6750,1847166,149,10.0,2006,,,11/2/2011 0:00,RC30,RC30,,,,,Skid Steer Loader - 701.0 to 976.0 Lb Operating Capacity,Louisiana,SSL,Skid Steer Loaders,,OROPS,None or Unspecified,,,,,,,,,,Standard,,,,,,None or Unspecified,None or Unspecified,None or Unspecified,Standard,,,,,,,,,,,
6270,6254529,12500,1842167,149,1.0,2006,,,9/27/2011 0:00,RC30,RC30,,,,,Skid Steer Loader - 701.0 to 976.0 Lb Operating Capacity,Arizona,SSL,Skid Steer Loaders,,OROPS,None or Unspecified,,,,,,,,,,Auxiliary,,,,,,None or Unspecified,None or Unspecified,None or Unspecified,Standard,,,,,,,,,,,
6270,6254531,8000,782832,149,1.0,2006,,,10/26/2011 0:00,RC30,RC30,,,,,Skid Steer Loader - 701.0 to 976.0 Lb Operating Capacity,Florida,SSL,Skid Steer Loaders,,OROPS,None or Unspecified,,,,,,,,,,Auxiliary,,,,,,None or Unspecified,None or Unspecified,Yes,Standard,,,,,,,,,,,
6270,6254532,8500,782832,149,99.0,2006,,,11/16/2011 0:00,RC30,RC30,,,,,Skid Steer Loader - 701.0 to 976.0 Lb Operating Capacity,Mississippi,SSL,Skid Steer Loaders,,OROPS,None or Unspecified,,,,,,,,,,Auxiliary,,,,,,None or Unspecified,None or Unspecified,Yes,Standard,,,,,,,,,,,
6270,6254535,10000,1939671,149,1.0,2006,,,12/16/2011 0:00,RC30,RC30,,,,,Skid Steer Loader - 701.0 to 976.0 Lb Operating Capacity,Missouri,SSL,Skid Steer Loaders,,OROPS,None or Unspecified,,,,,,,,,,Auxiliary,,,,,,None or Unspecified,None or Unspecified,Yes,Standard,,,,,,,,,,,
6270,6254536,10000,1853397,149,1.0,2006,,,12/16/2011 0:00,RC30,RC30,,,,,Skid Steer Loader - 701.0 to 976.0 Lb Operating Capacity,Missouri,SSL,Skid Steer Loaders,,OROPS,None or Unspecified,,,,,,,,,,Auxiliary,,,,,,None or Unspecified,None or Unspecified,Yes,Standard,,,,,,,,,,,
