ModelID,SalesID,SalePrice,MachineID,datasource,auctioneerID,YearMade,MachineHoursCurrentMeter,UsageBand,saledate,fiModelDesc,fiBaseModel,fiSecondaryDesc,fiModelSeries,fiModelDescriptor,ProductSize,fiProductClassDesc,state,ProductGroup,ProductGroupDesc,Drive_System,Enclosure,Forks,Pad_Type,Ride_Control,Stick,Transmission,Turbocharged,Blade_Extension,Blade_Width,Enclosure_Type,Engine_Horsepower,Hydraulics,Pushblock,Ripper,Scarifier,Tip_Control,Tire_Size,Coupler,Coupler_System,Grouser_Tracks,Hydraulics_Flow,Track_Type,Undercarriage_Pad_Width,Stick_Length,Thumb,Pattern_Changer,Grouser_Type,Backhoe_Mounting,Blade_Type,Travel_Controls,Differential_Type,Steering_Controls
632,1179132,25500,1013467,121,3.0,1000,1122.0,Low,5/1/2008 0:00,WA450-1,WA450,,-1,,Medium,Wheel Loader - 250.0 to 275.0 Horsepower,Minnesota,WL,Wheel Loader,,EROPS,None or Unspecified,,None or Unspecified,,,,,,,,2 Valve,,,,,20.5,None or Unspecified,,,,,,,,,,,,,Standard,Conventional
632,1727344,32000,831407,132,1.0,1000,,,10/6/2004 0:00,WA450-1,WA450,,-1,,Medium,Wheel Loader - 250.0 to 275.0 Horsepower,Maryland,WL,Wheel Loader,,EROPS w AC,,,,,,,,,,,2 Valve,,,,,,,,,,,,,,,,,,,,
632,1727534,32000,1510051,132,2.0,1000,,,2/2/1999 0:00,WA450-1,WA450,,-1,,Medium,Wheel Loader - 250.0 to 275.0 Horsepower,Florida,WL,Wheel Loader,,EROPS w AC,,,,,,,,,,,Standard,,,,,,None or Unspecified,,,,,,,,,,,,,,
632,1727645,43000,1440903,132,1.0,1985,,,6/27/1995 0:00,WA450-1,WA450,,-1,,Medium,Wheel Loader - 250.0 to 275.0 Horsepower,Texas,WL,Wheel Loader,,EROPS w AC,None or Unspecified,,None or Unspecified,,,,,,,,2 Valve,,,,,17.5,Manual,,,,,,,,,,,,,Standard,Conventional
632,1727712,41000,1417489,132,1.0,1000,,,12/16/2004 0:00,WA450-1,WA450,,-1,,Medium,Wheel Loader - 250.0 to 275.0 Horsepower,Washington,WL,Wheel Loader,,EROPS,,,,,,,,,,,Auxiliary,,,,,,None or Unspecified,,,,,,,,,,,,,,
632,1727716,20000,830214,132,1.0,1000,,,11/14/2006 0:00,WA450-1,WA450,,-1,,Medium,Wheel Loader - 250.0 to 275.0 Horsepower,Arizona,WL,Wheel Loader,,EROPS w AC,,,,,,,,,,,Auxiliary,,,,,,None or Unspecified,,,,,,,,,,,,,,
632,1727717,16000,830214,132,1.0,1000,,,3/25/2002 0:00,WA450-1,WA450,,-1,,Medium,Wheel Loader - 250.0 to 275.0 Horsepower,Nevada,WL,Wheel Loader,,EROPS w AC,,,,,,,,,,,Auxiliary,,,,,,None or Unspecified,,,,,,,,,,,,,,
632,1727733,36000,1036006,132,2.0,1000,,,2/4/1998 0:00,WA450-1,WA450,,-1,,Medium,Wheel Loader - 250.0 to 275.0 Horsepower,Florida,WL,Wheel Loader,,EROPS w AC,,,,,,,,,,,2 Valve,,,,,,,,,,,,,,,,,,,,
632,1727867,31000,1166728,132,1.0,1000,,,9/20/2006 0:00,WA450-1,WA450,,-1,,Medium,Wheel Loader - 250.0 to 275.0 Horsepower,Washington,WL,Wheel Loader,,EROPS,,,,,,,,,,,Auxiliary,,,,,,None or Unspecified,,,,,,,,,,,,,,
632,1727902,42500,1273423,132,1.0,1000,,,8/24/2006 0:00,WA450-1,WA450,,-1,,Medium,Wheel Loader - 250.0 to 275.0 Horsepower,Texas,WL,Wheel Loader,,EROPS w AC,,,,,,,,,,,Standard,,,,,,None or Unspecified,,,,,,,,,,,,,,
632,1727987,21000,1023004,132,13.0,1000,,,3/17/2001 0:00,WA450-1,WA450,,-1,,Medium,Wheel Loader - 250.0 to 275.0 Horsepower,Tennessee,WL,Wheel Loader,,EROPS w AC,,,,,,,,,,,Auxiliary,,,,,,Hydraulic,,,,,,,,,,,,,,
632,1728067,8000,1546147,132,1.0,1984,,,10/3/2002 0:00,WA450-1,WA450,,-1,,Medium,Wheel Loader - 250.0 to 275.0 Horsepower,Maryland,WL,Wheel Loader,,EROPS w AC,,,,,,,,,,,2 Valve,,,,,,,,,,,,,,,,,,,,
632,1728080,9000,1402892,132,2.0,1984,,,3/27/2003 0:00,WA450-1,WA450,,-1,,Medium,Wheel Loader - 250.0 to 275.0 Horsepower,New Jersey,WL,Wheel Loader,,EROPS,None or Unspecified,,None or Unspecified,,,,,,,,3 Valve,,,,,17.5,Manual,,,,,,,,,,,,,Standard,Conventional
632,1728113,39000,846513,132,6.0,1984,,,11/12/1996 0:00,WA450-1,WA450,,-1,,Medium,Wheel Loader - 250.0 to 275.0 Horsepower,Ohio,WL,Wheel Loader,,EROPS w AC,,,,,,,,,,,Standard,,,,,,Manual,,,,,,,,,,,,,,
632,1728115,30000,846513,132,2.0,1000,,,11/21/1998 0:00,WA450-1,WA450,,-1,,Medium,Wheel Loader - 250.0 to 275.0 Horsepower,Ohio,WL,Wheel Loader,,EROPS w AC,,,,,,,,,,,Standard,,,,,,Manual,,,,,,,,,,,,,,
632,1728118,25000,846513,132,21.0,1000,,,10/19/2000 0:00,WA450-1,WA450,,-1,,Medium,Wheel Loader - 250.0 to 275.0 Horsepower,Maine,WL,Wheel Loader,,EROPS w AC,,,,,,,,,,,Standard,,,,,,Manual,,,,,,,,,,,,,,
632,1728128,21000,1528000,132,1.0,1000,,,10/11/2001 0:00,WA450-1,WA450,,-1,,Medium,Wheel Loader - 250.0 to 275.0 Horsepower,Missouri,WL,Wheel Loader,,EROPS w AC,,,,,,,,,,,Standard,,,,,,None or Unspecified,,,,,,,,,,,,,,
632,1728154,25000,861664,132,1.0,1000,,,2/27/2007 0:00,WA450-1,WA450,,-1,,Medium,Wheel Loader - 250.0 to 275.0 Horsepower,California,WL,Wheel Loader,,EROPS w AC,,,,,,,,,,,2 Valve,,,,,,,,,,,,,,,,,,,,
632,1728219,39000,93134,132,15.0,1985,,,3/28/2001 0:00,WA450-1,WA450,,-1,,Medium,Wheel Loader - 250.0 to 275.0 Horsepower,Pennsylvania,WL,Wheel Loader,,EROPS w AC,,,,,,,,,,,Auxiliary,,,,,,Hydraulic,,,,,,,,,,,,,,
632,1728251,22500,1495550,132,1.0,1985,,,12/5/2000 0:00,WA450-1,WA450,,-1,,Medium,Wheel Loader - 250.0 to 275.0 Horsepower,Illinois,WL,Wheel Loader,,EROPS,,,,,,,,,,,Standard,,,,,,None or Unspecified,,,,,,,,,,,,,,
632,1728252,27500,1495550,132,2.0,1985,,,1/20/2001 0:00,WA450-1,WA450,,-1,,Medium,Wheel Loader - 250.0 to 275.0 Horsepower,Maine,WL,Wheel Loader,,EROPS,,,,,,,,,,,Standard,,,,,,None or Unspecified,,,,,,,,,,,,,,
632,1728299,35000,1295717,132,6.0,1984,,,5/8/1997 0:00,WA450-1,WA450,,-1,,Medium,Wheel Loader - 250.0 to 275.0 Horsepower,Tennessee,WL,Wheel Loader,,EROPS,None or Unspecified,,None or Unspecified,,,,,,,,2 Valve,,,,,26.5,None or Unspecified,,,,,,,,,,,,,Standard,Conventional
632,1728300,29000,1295717,132,1.0,1000,,,6/27/2005 0:00,WA450-1,WA450,,-1,,Medium,Wheel Loader - 250.0 to 275.0 Horsepower,Minnesota,WL,Wheel Loader,,EROPS,None or Unspecified,,None or Unspecified,,,,,,,,2 Valve,,,,,26.5,None or Unspecified,,,,,,,,,,,,,Standard,Conventional
632,1728393,41000,1462078,132,6.0,1985,,,6/19/1997 0:00,WA450-1,WA450,,-1,,Medium,Wheel Loader - 250.0 to 275.0 Horsepower,Florida,WL,Wheel Loader,,EROPS w AC,None or Unspecified,,None or Unspecified,,,,,,,,2 Valve,,,,,26.5,None or Unspecified,,,,,,,,,,,,,Standard,Conventional
632,1728394,27000,1462078,132,1.0,1000,,,4/27/2000 0:00,WA450-1,WA450,,-1,,Medium,Wheel Loader - 250.0 to 275.0 Horsepower,Florida,WL,Wheel Loader,,EROPS w AC,None or Unspecified,,None or Unspecified,,,,,,,,2 Valve,,,,,26.5,None or Unspecified,,,,,,,,,,,,,Standard,Conventional
632,1728415,24000,1464685,132,1.0,1985,,,3/21/2006 0:00,WA450-1,WA450,,-1,,Medium,Wheel Loader - 250.0 to 275.0 Horsepower,Minnesota,WL,Wheel Loader,,EROPS,,,,,,,,,,,Standard,,,,,,None or Unspecified,,,,,,,,,,,,,,
632,1728419,48000,569062,132,1.0,1985,,,4/12/1994 0:00,WA450-1,WA450,,-1,,Medium,Wheel Loader - 250.0 to 275.0 Horsepower,Tennessee,WL,Wheel Loader,,EROPS w AC,,,,,,,,,,,Auxiliary,,,,,,Manual,,,,,,,,,,,,,,
632,1728425,22500,291524,132,8.0,1985,,,3/26/2003 0:00,WA450-1,WA450,,-1,,Medium,Wheel Loader - 250.0 to 275.0 Horsepower,Mississippi,WL,Wheel Loader,,EROPS,None or Unspecified,,None or Unspecified,,,,,,,,2 Valve,,,,,None or Unspecified,None or Unspecified,,,,,,,,,,,,,Standard,Conventional
632,1728457,25000,1495895,132,1.0,1985,,,3/21/2006 0:00,WA450-1,WA450,,-1,,Medium,Wheel Loader - 250.0 to 275.0 Horsepower,Minnesota,WL,Wheel Loader,,EROPS,,,,,,,,,,,,,,,,26.5,,,,,,,,,,,,,,,
632,1728472,42000,439878,132,2.0,1985,,,8/23/1997 0:00,WA450-1,WA450,,-1,,Medium,Wheel Loader - 250.0 to 275.0 Horsepower,Illinois,WL,Wheel Loader,,EROPS,,,,,,,,,,,Standard,,,,,,None or Unspecified,,,,,,,,,,,,,,
632,1728842,43000,1405684,132,1.0,1985,,,11/29/1994 0:00,WA450-1,WA450,,-1,,Medium,Wheel Loader - 250.0 to 275.0 Horsepower,Missouri,WL,Wheel Loader,,EROPS w AC,None or Unspecified,,None or Unspecified,,,,,,,,2 Valve,,,,,29.5,Manual,,,,,,,,,,,,,Standard,Conventional
632,1728844,25000,1242967,132,1.0,1000,,,3/15/2001 0:00,WA450-1,WA450,,-1,,Medium,Wheel Loader - 250.0 to 275.0 Horsepower,Colorado,WL,Wheel Loader,,EROPS,,,,,,,,,,,Auxiliary,,,,,,Manual,,,,,,,,,,,,,,
632,1728859,22000,1141069,132,1.0,1000,,,11/19/2002 0:00,WA450-1,WA450,,-1,,Medium,Wheel Loader - 250.0 to 275.0 Horsepower,Pennsylvania,WL,Wheel Loader,,EROPS w AC,None or Unspecified,,None or Unspecified,,,,,,,,2 Valve,,,,,26.5,None or Unspecified,,,,,,,,,,,,,Standard,Conventional
632,1728875,32000,1313655,132,1.0,1985,,,10/17/2001 0:00,WA450-1,WA450,,-1,,Medium,Wheel Loader - 250.0 to 275.0 Horsepower,Minnesota,WL,Wheel Loader,,EROPS,,,,,,,,,,,2 Valve,,,,,,,,,,,,,,,,,,,,
632,1728876,33000,1313655,132,1.0,1000,,,4/20/2001 0:00,WA450-1,WA450,,-1,,Medium,Wheel Loader - 250.0 to 275.0 Horsepower,Minnesota,WL,Wheel Loader,,EROPS,,,,,,,,,,,2 Valve,,,,,,,,,,,,,,,,,,,,
632,1728946,21500,833804,132,2.0,1987,,,3/30/2000 0:00,WA450-1,WA450,,-1,,Medium,Wheel Loader - 250.0 to 275.0 Horsepower,New Jersey,WL,Wheel Loader,,EROPS,,,,,,,,,,,Standard,,,,,,None or Unspecified,,,,,,,,,,,,,,
632,1728984,27000,1204959,132,1.0,1000,,,4/27/2000 0:00,WA450-1,WA450,,-1,,Medium,Wheel Loader - 250.0 to 275.0 Horsepower,Florida,WL,Wheel Loader,,EROPS w AC,None or Unspecified,,None or Unspecified,,,,,,,,2 Valve,,,,,20.5,Hydraulic,,,,,,,,,,,,,Standard,Conventional
632,1729002,30000,1068642,132,8.0,1985,,,9/22/2004 0:00,WA450-1,WA450,,-1,,Medium,Wheel Loader - 250.0 to 275.0 Horsepower,Mississippi,WL,Wheel Loader,,EROPS w AC,,,,,,,,,,,Standard,,,,,,None or Unspecified,,,,,,,,,,,,,,
632,1729017,24000,1454915,132,1.0,1985,,,9/29/2004 0:00,WA450-1,WA450,,-1,,Medium,Wheel Loader - 250.0 to 275.0 Horsepower,Washington,WL,Wheel Loader,,EROPS,Yes,,None or Unspecified,,,,,,,,3 Valve,,,,,17.5,None or Unspecified,,,,,,,,,,,,,Standard,Conventional
632,1729177,34000,1262505,132,1.0,1000,,,8/26/1999 0:00,WA450-1,WA450,,-1,,Medium,Wheel Loader - 250.0 to 275.0 Horsepower,Texas,WL,Wheel Loader,,EROPS w AC,,,,,,,,,,,Standard,,,,,,Manual,,,,,,,,,,,,,,
632,1729182,20500,1161036,132,16.0,1000,,,5/17/2000 0:00,WA450-1,WA450,,-1,,Medium,Wheel Loader - 250.0 to 275.0 Horsepower,Ohio,WL,Wheel Loader,,EROPS w AC,,,,,,,,,,,Standard,,,,,,None or Unspecified,,,,,,,,,,,,,,
632,1729244,21000,1206156,132,1.0,1985,,,6/26/2004 0:00,WA450-1,WA450,,-1,,Medium,Wheel Loader - 250.0 to 275.0 Horsepower,Hawaii,WL,Wheel Loader,,EROPS,None or Unspecified,,None or Unspecified,,,,,,,,2 Valve,,,,,26.5,None or Unspecified,,,,,,,,,,,,,Standard,Conventional
632,1729365,18000,1554366,132,99.0,1985,,,5/15/2004 0:00,WA450-1,WA450,,-1,,Medium,Wheel Loader - 250.0 to 275.0 Horsepower,California,WL,Wheel Loader,,EROPS,,,,,,,,,,,Standard,,,,,,None or Unspecified,,,,,,,,,,,,,,
632,1729369,47000,1554366,132,1.0,1985,,,2/19/1998 0:00,WA450-1,WA450,,-1,,Medium,Wheel Loader - 250.0 to 275.0 Horsepower,California,WL,Wheel Loader,,EROPS,,,,,,,,,,,Standard,,,,,,None or Unspecified,,,,,,,,,,,,,,
632,1729534,21000,79872,132,1.0,1985,,,9/29/2004 0:00,WA450-1,WA450,,-1,,Medium,Wheel Loader - 250.0 to 275.0 Horsepower,Washington,WL,Wheel Loader,,EROPS,,,,,,,,,,,Standard,,,,,,None or Unspecified,,,,,,,,,,,,,,
632,1729553,25000,1103389,132,1.0,1985,,,11/15/2000 0:00,WA450-1,WA450,,-1,,Medium,Wheel Loader - 250.0 to 275.0 Horsepower,Texas,WL,Wheel Loader,,EROPS w AC,None or Unspecified,,None or Unspecified,,,,,,,,2 Valve,,,,,23.5,None or Unspecified,,,,,,,,,,,,,Standard,Conventional
632,1729586,44000,1482844,132,1.0,1000,,,4/17/1997 0:00,WA450-1,WA450,,-1,,Medium,Wheel Loader - 250.0 to 275.0 Horsepower,Minnesota,WL,Wheel Loader,,EROPS,None or Unspecified,,None or Unspecified,,,,,,,,2 Valve,,,,,20.5,None or Unspecified,,,,,,,,,,,,,Standard,Conventional
632,1729620,33000,1348993,132,1.0,1000,,,11/14/2002 0:00,WA450-1,WA450,,-1,,Medium,Wheel Loader - 250.0 to 275.0 Horsepower,Georgia,WL,Wheel Loader,,EROPS w AC,None or Unspecified,,None or Unspecified,,,,,,,,2 Valve,,,,,26.5,None or Unspecified,,,,,,,,,,,,,Standard,Conventional
632,1729651,18000,1286291,132,1.0,1000,,,6/17/2003 0:00,WA450-1,WA450,,-1,,Medium,Wheel Loader - 250.0 to 275.0 Horsepower,Washington,WL,Wheel Loader,,EROPS,None or Unspecified,,None or Unspecified,,,,,,,,2 Valve,,,,,20.5,None or Unspecified,,,,,,,,,,,,,Standard,Conventional
632,1729654,36000,1286291,132,1.0,1000,,,6/20/1997 0:00,WA450-1,WA450,,-1,,Medium,Wheel Loader - 250.0 to 275.0 Horsepower,Washington,WL,Wheel Loader,,EROPS,None or Unspecified,,None or Unspecified,,,,,,,,2 Valve,,,,,20.5,None or Unspecified,,,,,,,,,,,,,Standard,Conventional
632,1729665,39000,1381599,132,18.0,1985,19920.0,High,4/12/1997 0:00,WA450-1,WA450,,-1,,Medium,Wheel Loader - 250.0 to 275.0 Horsepower,New Jersey,WL,Wheel Loader,,EROPS,None or Unspecified,,None or Unspecified,,,,,,,,2 Valve,,,,,None or Unspecified,None or Unspecified,,,,,,,,,,,,,Standard,Conventional
632,1729685,51000,804856,132,2.0,1986,,,11/16/1994 0:00,WA450-1,WA450,,-1,,Medium,Wheel Loader - 250.0 to 275.0 Horsepower,New Hampshire,WL,Wheel Loader,,EROPS w AC,,,,,,,,,,,2 Valve,,,,,,,,,,,,,,,,,,,,
632,1729814,36000,1148574,132,6.0,1985,,,12/12/1997 0:00,WA450-1,WA450,,-1,,Medium,Wheel Loader - 250.0 to 275.0 Horsepower,Ohio,WL,Wheel Loader,,EROPS w AC,,,,,,,,,,,Standard,,,,,,None or Unspecified,,,,,,,,,,,,,,
632,1729945,38500,1156034,132,2.0,1987,,,7/14/2001 0:00,WA450-1,WA450,,-1,,Medium,Wheel Loader - 250.0 to 275.0 Horsepower,Maine,WL,Wheel Loader,,OROPS,,,,,,,,,,,2 Valve,,,,,,,,,,,,,,,,,,,,
632,1729971,36500,1485547,132,21.0,1985,,,9/9/1999 0:00,WA450-1,WA450,,-1,,Medium,Wheel Loader - 250.0 to 275.0 Horsepower,Maine,WL,Wheel Loader,,EROPS w AC,Yes,,None or Unspecified,,,,,,,,2 Valve,,,,,23.5,None or Unspecified,,,,,,,,,,,,,Standard,Conventional
632,1729972,27000,1485547,132,1.0,1000,,,9/28/1999 0:00,WA450-1,WA450,,-1,,Medium,Wheel Loader - 250.0 to 275.0 Horsepower,Ohio,WL,Wheel Loader,,EROPS w AC,Yes,,None or Unspecified,,,,,,,,2 Valve,,,,,23.5,None or Unspecified,,,,,,,,,,,,,Standard,Conventional
632,1729979,50000,1297358,132,2.0,1987,,,5/21/1994 0:00,WA450-1,WA450,,-1,,Medium,Wheel Loader - 250.0 to 275.0 Horsepower,New York,WL,Wheel Loader,,EROPS,Yes,,None or Unspecified,,,,,,,,2 Valve,,,,,None or Unspecified,None or Unspecified,,,,,,,,,,,,,Standard,Conventional
632,1730059,26000,1032910,132,1.0,1000,,,3/15/2006 0:00,WA450-1,WA450,,-1,,Medium,Wheel Loader - 250.0 to 275.0 Horsepower,Iowa,WL,Wheel Loader,,EROPS w AC,,,,,,,,,,,2 Valve,,,,,,,,,,,,,,,,,,,,
632,1730060,44000,1032910,132,1.0,1987,,,12/14/1995 0:00,WA450-1,WA450,,-1,,Medium,Wheel Loader - 250.0 to 275.0 Horsepower,Arizona,WL,Wheel Loader,,EROPS w AC,,,,,,,,,,,2 Valve,,,,,,,,,,,,,,,,,,,,
632,1730066,41000,1488788,132,6.0,1986,,,11/12/1996 0:00,WA450-1,WA450,,-1,,Medium,Wheel Loader - 250.0 to 275.0 Horsepower,Ohio,WL,Wheel Loader,,EROPS,None or Unspecified,,None or Unspecified,,,,,,,,2 Valve,,,,,23.5,None or Unspecified,,,,,,,,,,,,,Standard,Conventional
632,1730074,52500,1099757,132,2.0,1987,,,5/21/1994 0:00,WA450-1,WA450,,-1,,Medium,Wheel Loader - 250.0 to 275.0 Horsepower,New York,WL,Wheel Loader,,EROPS w AC,,,,,,,,,,,2 Valve,,,,,,,,,,,,,,,,,,,,
632,1730080,36000,1379091,132,23.0,1987,,,1/25/1995 0:00,WA450-1,WA450,,-1,,Medium,Wheel Loader - 250.0 to 275.0 Horsepower,Pennsylvania,WL,Wheel Loader,,EROPS,None or Unspecified,,None or Unspecified,,,,,,,,2 Valve,,,,,26.5,None or Unspecified,,,,,,,,,,,,,Standard,Conventional
632,1730081,11000,1379091,132,2.0,1987,,,11/18/2000 0:00,WA450-1,WA450,,-1,,Medium,Wheel Loader - 250.0 to 275.0 Horsepower,Ohio,WL,Wheel Loader,,EROPS,None or Unspecified,,None or Unspecified,,,,,,,,2 Valve,,,,,26.5,None or Unspecified,,,,,,,,,,,,,Standard,Conventional
632,1730091,17000,419089,132,1.0,1987,,,10/4/2001 0:00,WA450-1,WA450,,-1,,Medium,Wheel Loader - 250.0 to 275.0 Horsepower,Colorado,WL,Wheel Loader,,EROPS,,,,,,,,,,,2 Valve,,,,,,,,,,,,,,,,,,,,
632,1730092,26000,419089,132,1.0,1986,,,9/29/2000 0:00,WA450-1,WA450,,-1,,Medium,Wheel Loader - 250.0 to 275.0 Horsepower,Colorado,WL,Wheel Loader,,EROPS,,,,,,,,,,,2 Valve,,,,,,,,,,,,,,,,,,,,
632,1730137,37500,1542985,132,23.0,1000,,,8/13/1994 0:00,WA450-1,WA450,,-1,,Medium,Wheel Loader - 250.0 to 275.0 Horsepower,New Jersey,WL,Wheel Loader,,EROPS,None or Unspecified,,None or Unspecified,,,,,,,,2 Valve,,,,,20.5,None or Unspecified,,,,,,,,,,,,,Standard,Conventional
632,1730138,42000,1542985,132,6.0,1000,,,12/15/1998 0:00,WA450-1,WA450,,-1,,Medium,Wheel Loader - 250.0 to 275.0 Horsepower,Kentucky,WL,Wheel Loader,,EROPS,None or Unspecified,,None or Unspecified,,,,,,,,2 Valve,,,,,20.5,None or Unspecified,,,,,,,,,,,,,Standard,Conventional
632,1730173,19000,573949,132,2.0,1000,,,12/14/2002 0:00,WA450-1,WA450,,-1,,Medium,Wheel Loader - 250.0 to 275.0 Horsepower,Pennsylvania,WL,Wheel Loader,,EROPS w AC,,,,,,,,,,,Standard,,,,,,Manual,,,,,,,,,,,,,,
632,1730203,29000,1086897,132,1.0,1000,,,9/11/2003 0:00,WA450-1,WA450,,-1,,Medium,Wheel Loader - 250.0 to 275.0 Horsepower,California,WL,Wheel Loader,,EROPS,,,,,,,,,,,Standard,,,,,,None or Unspecified,,,,,,,,,,,,,,
632,1730209,21500,1275702,132,4.0,1000,,,2/9/2004 0:00,WA450-1,WA450,,-1,,Medium,Wheel Loader - 250.0 to 275.0 Horsepower,Florida,WL,Wheel Loader,,EROPS,None or Unspecified,,None or Unspecified,,,,,,,,2 Valve,,,,,26.5,None or Unspecified,,,,,,,,,,,,,Standard,Conventional
632,1730221,21500,1168985,132,4.0,1987,,,2/10/2003 0:00,WA450-1,WA450,,-1,,Medium,Wheel Loader - 250.0 to 275.0 Horsepower,Florida,WL,Wheel Loader,,EROPS w AC,,,,,,,,,,,Standard,,,,,,None or Unspecified,,,,,,,,,,,,,,
632,1730348,45000,1367615,132,18.0,1986,,,10/23/1997 0:00,WA450-1,WA450,,-1,,Medium,Wheel Loader - 250.0 to 275.0 Horsepower,New Jersey,WL,Wheel Loader,,EROPS,,,,,,,,,,,Auxiliary,,,,,,None or Unspecified,,,,,,,,,,,,,,
632,1730349,26000,1367615,132,1.0,1986,,,12/17/2002 0:00,WA450-1,WA450,,-1,,Medium,Wheel Loader - 250.0 to 275.0 Horsepower,Maryland,WL,Wheel Loader,,EROPS,,,,,,,,,,,Auxiliary,,,,,,None or Unspecified,,,,,,,,,,,,,,
632,1730452,32000,390086,132,1.0,1986,,,5/6/2004 0:00,WA450-1,WA450,,-1,,Medium,Wheel Loader - 250.0 to 275.0 Horsepower,Montana,WL,Wheel Loader,,EROPS,,,,,,,,,,,Auxiliary,,,,,,None or Unspecified,,,,,,,,,,,,,,
632,1730532,9000,1557331,132,2.0,1000,,,9/15/2001 0:00,WA450-1,WA450,,-1,,Medium,Wheel Loader - 250.0 to 275.0 Horsepower,New Jersey,WL,Wheel Loader,,EROPS w AC,,,,,,,,,,,2 Valve,,,,,,,,,,,,,,,,,,,,
632,1730535,16000,1557331,132,2.0,1987,,,10/6/2001 0:00,WA450-1,WA450,,-1,,Medium,Wheel Loader - 250.0 to 275.0 Horsepower,Pennsylvania,WL,Wheel Loader,,EROPS w AC,,,,,,,,,,,2 Valve,,,,,,,,,,,,,,,,,,,,
632,1730648,21000,1508025,132,6.0,1987,,,5/5/1998 0:00,WA450-1,WA450,,-1,,Medium,Wheel Loader - 250.0 to 275.0 Horsepower,Florida,WL,Wheel Loader,,EROPS w AC,,,,,,,,,,,Auxiliary,,,,,,None or Unspecified,,,,,,,,,,,,,,
632,1731085,37500,798330,132,2.0,1987,,,3/18/1999 0:00,WA450-1,WA450,,-1,,Medium,Wheel Loader - 250.0 to 275.0 Horsepower,New Jersey,WL,Wheel Loader,,EROPS w AC,,,,,,,,,,,Auxiliary,,,,,,None or Unspecified,,,,,,,,,,,,,,
632,1731086,79000,366931,132,1.0,1988,,,12/13/1994 0:00,WA450-1,WA450,,-1,,Medium,Wheel Loader - 250.0 to 275.0 Horsepower,Arizona,WL,Wheel Loader,,EROPS w AC,,,,,,,,,,,Standard,,,,,,None or Unspecified,,,,,,,,,,,,,,
632,1731087,53000,1211129,132,1.0,1987,,,9/29/1994 0:00,WA450-1,WA450,,-1,,Medium,Wheel Loader - 250.0 to 275.0 Horsepower,Arizona,WL,Wheel Loader,,EROPS,None or Unspecified,,None or Unspecified,,,,,,,,2 Valve,,,,,None or Unspecified,None or Unspecified,,,,,,,,,,,,,Standard,Conventional
632,1731095,33000,1308795,132,1.0,1988,,,12/8/2000 0:00,WA450-1,WA450,,-1,,Medium,Wheel Loader - 250.0 to 275.0 Horsepower,Colorado,WL,Wheel Loader,,EROPS w AC,,,,,,,,,,,Standard,,,,,,None or Unspecified,,,,,,,,,,,,,,
632,1731096,19000,1308795,132,1.0,1000,,,12/7/2001 0:00,WA450-1,WA450,,-1,,Medium,Wheel Loader - 250.0 to 275.0 Horsepower,Colorado,WL,Wheel Loader,,EROPS w AC,,,,,,,,,,,Standard,,,,,,None or Unspecified,,,,,,,,,,,,,,
632,1731107,18000,1523235,132,2.0,1987,,,6/21/2002 0:00,WA450-1,WA450,,-1,,Medium,Wheel Loader - 250.0 to 275.0 Horsepower,Virginia,WL,Wheel Loader,,EROPS,None or Unspecified,,None or Unspecified,,,,,,,,2 Valve,,,,,None or Unspecified,None or Unspecified,,,,,,,,,,,,,Standard,Conventional
632,1731124,47000,1134693,132,23.0,1000,,,1/15/1994 0:00,WA450-1,WA450,,-1,,Medium,Wheel Loader - 250.0 to 275.0 Horsepower,New Jersey,WL,Wheel Loader,,EROPS,,,,,,,,,,,Base + 1 Function,,,,,None or Unspecified,,,,,,,,,,,,,,Standard,
632,1731205,35000,858577,132,6.0,1000,,,9/29/1998 0:00,WA450-1,WA450,,-1,,Medium,Wheel Loader - 250.0 to 275.0 Horsepower,New Jersey,WL,Wheel Loader,,EROPS w AC,None or Unspecified,,None or Unspecified,,,,,,,,2 Valve,,,,,23.5,None or Unspecified,,,,,,,,,,,,,Standard,Conventional
632,1731217,26000,1548096,132,1.0,1000,,,12/12/2001 0:00,WA450-1,WA450,,-1,,Medium,Wheel Loader - 250.0 to 275.0 Horsepower,Texas,WL,Wheel Loader,,EROPS,Yes,,None or Unspecified,,,,,,,,2 Valve,,,,,26.5,Manual,,,,,,,,,,,,,Standard,Conventional
632,1731221,40000,1544154,132,1.0,1000,,,4/20/1999 0:00,WA450-1,WA450,,-1,,Medium,Wheel Loader - 250.0 to 275.0 Horsepower,Utah,WL,Wheel Loader,,EROPS,None or Unspecified,,None or Unspecified,,,,,,,,2 Valve,,,,,26.5,None or Unspecified,,,,,,,,,,,,,Standard,Conventional
632,1731223,32500,1544154,132,1.0,1000,,,2/26/2004 0:00,WA450-1,WA450,,-1,,Medium,Wheel Loader - 250.0 to 275.0 Horsepower,Arizona,WL,Wheel Loader,,EROPS,None or Unspecified,,None or Unspecified,,,,,,,,2 Valve,,,,,26.5,None or Unspecified,,,,,,,,,,,,,Standard,Conventional
632,1731235,33500,1286853,132,2.0,1988,,,4/15/1999 0:00,WA450-1,WA450,,-1,,Medium,Wheel Loader - 250.0 to 275.0 Horsepower,Texas,WL,Wheel Loader,,OROPS,None or Unspecified,,None or Unspecified,,,,,,,,2 Valve,,,,,None or Unspecified,None or Unspecified,,,,,,,,,,,,,Standard,Conventional
632,1731243,24000,1201869,132,1.0,1987,,,3/21/2006 0:00,WA450-1,WA450,,-1,,Medium,Wheel Loader - 250.0 to 275.0 Horsepower,Minnesota,WL,Wheel Loader,,EROPS,Yes,,None or Unspecified,,,,,,,,2 Valve,,,,,20.5,None or Unspecified,,,,,,,,,,,,,Standard,Conventional
632,1731287,46000,977427,132,1.0,1988,,,6/20/1996 0:00,WA450-1,WA450,,-1,,Medium,Wheel Loader - 250.0 to 275.0 Horsepower,Washington,WL,Wheel Loader,,EROPS,,,,,,,,,,,2 Valve,,,,,,,,,,,,,,,,,,,,
632,1731396,26000,827231,132,1.0,1987,,,3/5/2003 0:00,WA450-1,WA450,,-1,,Medium,Wheel Loader - 250.0 to 275.0 Horsepower,Minnesota,WL,Wheel Loader,,EROPS,None or Unspecified,,None or Unspecified,,,,,,,,2 Valve,,,,,26.5,None or Unspecified,,,,,,,,,,,,,Standard,Conventional
632,1731405,46000,1363684,132,1.0,1988,,,8/11/1998 0:00,WA450-1,WA450,,-1,,Medium,Wheel Loader - 250.0 to 275.0 Horsepower,California,WL,Wheel Loader,,EROPS w AC,None or Unspecified,,None or Unspecified,,,,,,,,2 Valve,,,,,20.5,None or Unspecified,,,,,,,,,,,,,Standard,Conventional
632,1731417,40000,1259311,132,4.0,1988,,,2/4/1999 0:00,WA450-1,WA450,,-1,,Medium,Wheel Loader - 250.0 to 275.0 Horsepower,Florida,WL,Wheel Loader,,EROPS,,,,,,,,,,,Standard,,,,,,None or Unspecified,,,,,,,,,,,,,,
632,1731508,25000,1310805,132,1.0,1000,,,6/28/2001 0:00,WA450-1,WA450,,-1,,Medium,Wheel Loader - 250.0 to 275.0 Horsepower,Colorado,WL,Wheel Loader,,EROPS,,,,,,,,,,,Auxiliary,,,,,,None or Unspecified,,,,,,,,,,,,,,
632,1731512,25000,1310805,132,1.0,1988,,,9/20/2002 0:00,WA450-1,WA450,,-1,,Medium,Wheel Loader - 250.0 to 275.0 Horsepower,Wyoming,WL,Wheel Loader,,EROPS,,,,,,,,,,,Auxiliary,,,,,,None or Unspecified,,,,,,,,,,,,,,
632,1731588,50000,1258166,132,4.0,1988,,,2/11/1994 0:00,WA450-1,WA450,,-1,,Medium,Wheel Loader - 250.0 to 275.0 Horsepower,Florida,WL,Wheel Loader,,EROPS,,,,,,,,,,,Standard,,,,,,None or Unspecified,,,,,,,,,,,,,,
632,1731647,52000,1452392,132,4.0,1988,,,2/11/1994 0:00,WA450-1,WA450,,-1,,Medium,Wheel Loader - 250.0 to 275.0 Horsepower,Florida,WL,Wheel Loader,,EROPS,,,,,,,,,,,Standard,,,,,,None or Unspecified,,,,,,,,,,,,,,
632,1736022,26000,1342404,132,1.0,1988,,,3/5/2003 0:00,WA450-1,WA450,,-1,,Medium,Wheel Loader - 250.0 to 275.0 Horsepower,Minnesota,WL,Wheel Loader,,EROPS,,,,,,,,,,,Standard,,,,,,None or Unspecified,,,,,,,,,,,,,,
632,1736114,15000,1155451,132,17.0,1989,,,4/9/2002 0:00,WA450-1,WA450,,-1,,Medium,Wheel Loader - 250.0 to 275.0 Horsepower,Washington,WL,Wheel Loader,,EROPS w AC,,,,,,,,,,,Standard,,,,,,None or Unspecified,,,,,,,,,,,,,,
632,1736115,25000,1155451,132,1.0,1988,,,6/23/2004 0:00,WA450-1,WA450,,-1,,Medium,Wheel Loader - 250.0 to 275.0 Horsepower,Washington,WL,Wheel Loader,,EROPS w AC,,,,,,,,,,,Standard,,,,,,None or Unspecified,,,,,,,,,,,,,,
632,1736140,46000,1292858,132,2.0,1989,,,3/26/1998 0:00,WA450-1,WA450,,-1,,Medium,Wheel Loader - 250.0 to 275.0 Horsepower,New Jersey,WL,Wheel Loader,,EROPS,,,,,,,,,,,2 Valve,,,,,,,,,,,,,,,,,,,,
632,1736145,40000,1292858,132,1.0,1988,,,10/24/1997 0:00,WA450-1,WA450,,-1,,Medium,Wheel Loader - 250.0 to 275.0 Horsepower,Maryland,WL,Wheel Loader,,EROPS,,,,,,,,,,,2 Valve,,,,,,,,,,,,,,,,,,,,
632,1736288,46000,1180726,132,16.0,1989,,,9/13/2001 0:00,WA450-1,WA450,,-1,,Medium,Wheel Loader - 250.0 to 275.0 Horsepower,Wisconsin,WL,Wheel Loader,,EROPS,None or Unspecified,,None or Unspecified,,,,,,,,2 Valve,,,,,29.5,None or Unspecified,,,,,,,,,,,,,Standard,Conventional
632,1736499,38000,1383757,132,2.0,1989,,,2/2/1999 0:00,WA450-1,WA450,,-1,,Medium,Wheel Loader - 250.0 to 275.0 Horsepower,Florida,WL,Wheel Loader,,EROPS w AC,,,,,,,,,,,Auxiliary,,,,,,None or Unspecified,,,,,,,,,,,,,,
632,1736605,35000,1303343,132,1.0,1000,,,9/11/2003 0:00,WA450-1,WA450,,-1,,Medium,Wheel Loader - 250.0 to 275.0 Horsepower,California,WL,Wheel Loader,,EROPS w AC,,,,,,,,,,,Standard,,,,,,None or Unspecified,,,,,,,,,,,,,,
632,1736606,31000,1303343,132,1.0,1000,,,6/3/2005 0:00,WA450-1,WA450,,-1,,Medium,Wheel Loader - 250.0 to 275.0 Horsepower,Nevada,WL,Wheel Loader,,EROPS w AC,,,,,,,,,,,Standard,,,,,,None or Unspecified,,,,,,,,,,,,,,
632,1736626,40000,866925,132,6.0,1000,,,9/29/1998 0:00,WA450-1,WA450,,-1,,Medium,Wheel Loader - 250.0 to 275.0 Horsepower,New Jersey,WL,Wheel Loader,,EROPS,,,,,,,,,,,Standard,,,,,,None or Unspecified,,,,,,,,,,,,,,
632,1736857,34000,1357011,132,6.0,1989,,,8/19/1998 0:00,WA450-1,WA450,,-1,,Medium,Wheel Loader - 250.0 to 275.0 Horsepower,California,WL,Wheel Loader,,EROPS w AC,None or Unspecified,,None or Unspecified,,,,,,,,2 Valve,,,,,None or Unspecified,None or Unspecified,,,,,,,,,,,,,Standard,Conventional
632,1737044,45000,1230420,132,4.0,1991,,,2/17/2001 0:00,WA450-1,WA450,,-1,,Medium,Wheel Loader - 250.0 to 275.0 Horsepower,Florida,WL,Wheel Loader,,EROPS,None or Unspecified,,None or Unspecified,,,,,,,,2 Valve,,,,,None or Unspecified,None or Unspecified,,,,,,,,,,,,,Standard,Conventional
632,1737209,28000,1171764,132,1.0,1000,,,9/20/2006 0:00,WA450-1,WA450,,-1,,Medium,Wheel Loader - 250.0 to 275.0 Horsepower,Illinois,WL,Wheel Loader,,EROPS,None or Unspecified,,None or Unspecified,,,,,,,,2 Valve,,,,,None or Unspecified,None or Unspecified,,,,,,,,,,,,,Standard,Conventional
632,1737230,39000,1379416,132,6.0,1990,,,8/19/1998 0:00,WA450-1,WA450,,-1,,Medium,Wheel Loader - 250.0 to 275.0 Horsepower,California,WL,Wheel Loader,,EROPS w AC,,,,,,,,,,,Standard,,,,,,None or Unspecified,,,,,,,,,,,,,,
632,1737241,36000,1189962,132,6.0,1990,,,8/19/1998 0:00,WA450-1,WA450,,-1,,Medium,Wheel Loader - 250.0 to 275.0 Horsepower,California,WL,Wheel Loader,,EROPS,None or Unspecified,,None or Unspecified,,,,,,,,2 Valve,,,,,None or Unspecified,None or Unspecified,,,,,,,,,,,,,Standard,Conventional
632,1737449,42000,1425221,132,6.0,1993,,,8/19/1998 0:00,WA450-1,WA450,,-1,,Medium,Wheel Loader - 250.0 to 275.0 Horsepower,California,WL,Wheel Loader,,EROPS,None or Unspecified,,None or Unspecified,,,,,,,,2 Valve,,,,,23.5,None or Unspecified,,,,,,,,,,,,,Standard,Conventional
632,1737596,42000,1209978,132,6.0,1993,,,8/19/1998 0:00,WA450-1,WA450,,-1,,Medium,Wheel Loader - 250.0 to 275.0 Horsepower,California,WL,Wheel Loader,,EROPS w AC,,,,,,,,,,,2 Valve,,,,,,,,,,,,,,,,,,,,
632,1737600,30000,1209978,132,19.0,1000,,,3/31/2000 0:00,WA450-1,WA450,,-1,,Medium,Wheel Loader - 250.0 to 275.0 Horsepower,Nevada,WL,Wheel Loader,,EROPS w AC,,,,,,,,,,,2 Valve,,,,,,,,,,,,,,,,,,,,
632,1739539,61000,547291,132,23.0,1000,9686.0,Low,9/18/1996 0:00,WA450-1,WA450,,-1,,Medium,Wheel Loader - 250.0 to 275.0 Horsepower,New Jersey,WL,Wheel Loader,,EROPS,None or Unspecified,,None or Unspecified,,,,,,,,2 Valve,,,,,None or Unspecified,None or Unspecified,,,,,,,,,,,,,Standard,Conventional
632,1750657,51000,1545297,132,4.0,1997,,,2/9/2004 0:00,WA450-1,WA450,,-1,,Medium,Wheel Loader - 250.0 to 275.0 Horsepower,Florida,WL,Wheel Loader,,EROPS w AC,,,,,,,,,,,Base + 1 Function,,,,,"14""",,,,,,,,,,,,,,Standard,
632,1752261,45000,1112943,132,4.0,1999,,,2/13/2006 0:00,WA450-1,WA450,,-1,,Medium,Wheel Loader - 250.0 to 275.0 Horsepower,Florida,WL,Wheel Loader,,EROPS,None or Unspecified,,None or Unspecified,,,,,,,,2 Valve,,,,,None or Unspecified,None or Unspecified,,,,,,,,,,,,,Standard,Conventional
632,1762253,28000,1140130,132,1.0,1988,,,12/6/2005 0:00,WA450-1,WA450,,-1,,Medium,Wheel Loader - 250.0 to 275.0 Horsepower,Washington,WL,Wheel Loader,,EROPS,None or Unspecified,,None or Unspecified,,,,,,,,2 Valve,,,,,26.5,None or Unspecified,,,,,,,,,,,,,Standard,Conventional
632,1762254,36000,1377097,132,3.0,1988,,,7/21/2003 0:00,WA450-1,WA450,,-1,,Medium,Wheel Loader - 250.0 to 275.0 Horsepower,Unspecified,WL,Wheel Loader,,EROPS,None or Unspecified,,None or Unspecified,,,,,,,,2 Valve,,,,,26.5,None or Unspecified,,,,,,,,,,,,,Standard,Conventional
632,1762591,47500,1188091,132,1.0,1989,,,12/16/1997 0:00,WA450-1,WA450,,-1,,Medium,Wheel Loader - 250.0 to 275.0 Horsepower,Nevada,WL,Wheel Loader,,EROPS w AC,None or Unspecified,,None or Unspecified,,,,,,,,2 Valve,,,,,26.5,None or Unspecified,,,,,,,,,,,,,Standard,Conventional
632,1762594,31000,1160402,132,1.0,1000,,,4/11/2002 0:00,WA450-1,WA450,,-1,,Medium,Wheel Loader - 250.0 to 275.0 Horsepower,Minnesota,WL,Wheel Loader,,EROPS,None or Unspecified,,None or Unspecified,,,,,,,,2 Valve,,,,,None or Unspecified,None or Unspecified,,,,,,,,,,,,,Standard,Conventional
632,1762595,49000,1412492,132,6.0,1988,,,10/16/1997 0:00,WA450-1,WA450,,-1,,Medium,Wheel Loader - 250.0 to 275.0 Horsepower,New Mexico,WL,Wheel Loader,,OROPS,None or Unspecified,,None or Unspecified,,,,,,,,2 Valve,,,,,None or Unspecified,None or Unspecified,,,,,,,,,,,,,Standard,Conventional
632,1762602,21000,1163278,132,1.0,1000,,,9/26/2000 0:00,WA450-1,WA450,,-1,,Medium,Wheel Loader - 250.0 to 275.0 Horsepower,Washington,WL,Wheel Loader,,EROPS,None or Unspecified,,None or Unspecified,,,,,,,,2 Valve,,,,,26.5,None or Unspecified,,,,,,,,,,,,,Standard,Conventional
632,1762603,23000,1163278,132,1.0,1988,,,12/7/2000 0:00,WA450-1,WA450,,-1,,Medium,Wheel Loader - 250.0 to 275.0 Horsepower,Washington,WL,Wheel Loader,,EROPS,None or Unspecified,,None or Unspecified,,,,,,,,2 Valve,,,,,26.5,None or Unspecified,,,,,,,,,,,,,Standard,Conventional
632,1762604,43000,1134612,132,1.0,1000,,,9/15/2005 0:00,WA450-1,WA450,,-1,,Medium,Wheel Loader - 250.0 to 275.0 Horsepower,Ohio,WL,Wheel Loader,,EROPS,None or Unspecified,,None or Unspecified,,,,,,,,2 Valve,,,,,23.5,None or Unspecified,,,,,,,,,,,,,Standard,Conventional
632,1762615,48000,1394090,132,5.0,1988,,,8/19/1995 0:00,WA450-1,WA450,,-1,,Medium,Wheel Loader - 250.0 to 275.0 Horsepower,Connecticut,WL,Wheel Loader,,OROPS,None or Unspecified,,None or Unspecified,,,,,,,,2 Valve,,,,,None or Unspecified,None or Unspecified,,,,,,,,,,,,,Standard,Conventional
632,1762616,27000,1186543,132,1.0,1000,,,3/26/2002 0:00,WA450-1,WA450,,-1,,Medium,Wheel Loader - 250.0 to 275.0 Horsepower,Washington,WL,Wheel Loader,,EROPS w AC,None or Unspecified,,None or Unspecified,,,,,,,,2 Valve,,,,,26.5,None or Unspecified,,,,,,,,,,,,,Standard,Conventional
632,1762618,30000,1280181,132,4.0,1988,,,2/5/1998 0:00,WA450-1,WA450,,-1,,Medium,Wheel Loader - 250.0 to 275.0 Horsepower,Florida,WL,Wheel Loader,,OROPS,None or Unspecified,,No,,,,,,,,,,,,,,,,,,,,,,,,,,,Standard,Four Wheel Standard
632,1762619,28000,1280181,132,4.0,1988,,,2/4/1999 0:00,WA450-1,WA450,,-1,,Medium,Wheel Loader - 250.0 to 275.0 Horsepower,Florida,WL,Wheel Loader,,OROPS,None or Unspecified,,No,,,,,,,,,,,,,,,,,,,,,,,,,,,Standard,Four Wheel Standard
632,1762626,25000,1180312,132,1.0,1989,,,6/23/2003 0:00,WA450-1,WA450,,-1,,Medium,Wheel Loader - 250.0 to 275.0 Horsepower,Missouri,WL,Wheel Loader,,EROPS,None or Unspecified,,None or Unspecified,,,,,,,,2 Valve,,,,,26.5,None or Unspecified,,,,,,,,,,,,,Standard,Conventional
632,1762637,31000,1472791,132,1.0,1988,,,4/7/2005 0:00,WA450-1,WA450,,-1,,Medium,Wheel Loader - 250.0 to 275.0 Horsepower,Ohio,WL,Wheel Loader,,EROPS,None or Unspecified,,None or Unspecified,,,,,,,,2 Valve,,,,,23.5,None or Unspecified,,,,,,,,,,,,,Standard,Conventional
632,1762667,47000,1506964,132,1.0,1988,,,9/18/1997 0:00,WA450-1,WA450,,-1,,Medium,Wheel Loader - 250.0 to 275.0 Horsepower,Washington,WL,Wheel Loader,,EROPS,None or Unspecified,,None or Unspecified,,,,,,,,2 Valve,,,,,None or Unspecified,None or Unspecified,,,,,,,,,,,,,Standard,Conventional
632,1762668,24000,1441393,132,1.0,1988,,,5/31/2003 0:00,WA450-1,WA450,,-1,,Medium,Wheel Loader - 250.0 to 275.0 Horsepower,Nevada,WL,Wheel Loader,,EROPS w AC,None or Unspecified,,None or Unspecified,,,,,,,,2 Valve,,,,,26.5,None or Unspecified,,,,,,,,,,,,,Standard,Conventional
632,1762673,69000,1525195,132,1.0,1989,,,6/11/1996 0:00,WA450-1,WA450,,-1,,Medium,Wheel Loader - 250.0 to 275.0 Horsepower,Colorado,WL,Wheel Loader,,EROPS,None or Unspecified,,None or Unspecified,,,,,,,,2 Valve,,,,,26.5,None or Unspecified,,,,,,,,,,,,,Standard,Conventional
632,1762676,47000,1249593,132,1.0,1989,,,6/22/2006 0:00,WA450-1,WA450,,-1,,Medium,Wheel Loader - 250.0 to 275.0 Horsepower,Colorado,WL,Wheel Loader,,EROPS w AC,None or Unspecified,,None or Unspecified,,,,,,,,2 Valve,,,,,26.5,None or Unspecified,,,,,,,,,,,,,Standard,Conventional
632,1762679,20500,1410432,132,2.0,1000,,,11/22/2003 0:00,WA450-1,WA450,,-1,,Medium,Wheel Loader - 250.0 to 275.0 Horsepower,New Jersey,WL,Wheel Loader,,EROPS,None or Unspecified,,None or Unspecified,,,,,,,,2 Valve,,,,,None or Unspecified,None or Unspecified,,,,,,,,,,,,,Standard,Conventional
632,1762697,42500,1488983,132,99.0,1989,,,12/13/2000 0:00,WA450-1,WA450,,-1,,Medium,Wheel Loader - 250.0 to 275.0 Horsepower,Kentucky,WL,Wheel Loader,,EROPS,None or Unspecified,,None or Unspecified,,,,,,,,2 Valve,,,,,29.5,None or Unspecified,,,,,,,,,,,,,Standard,Conventional
632,1762716,24000,296829,132,1.0,1989,,,9/20/2006 0:00,WA450-1,WA450,,-1,,Medium,Wheel Loader - 250.0 to 275.0 Horsepower,Illinois,WL,Wheel Loader,,EROPS,None or Unspecified,,No,,,,,,,,,,,,,,,,,,,,,,,,,,,Standard,Four Wheel Standard
632,1762738,24500,1252386,132,4.0,1989,,,2/9/2004 0:00,WA450-1,WA450,,-1,,Medium,Wheel Loader - 250.0 to 275.0 Horsepower,Florida,WL,Wheel Loader,,EROPS w AC,None or Unspecified,,None or Unspecified,,,,,,,,2 Valve,,,,,29.5,None or Unspecified,,,,,,,,,,,,,Standard,Conventional
632,1762739,50000,1483043,132,1.0,1988,,,6/28/1994 0:00,WA450-1,WA450,,-1,,Medium,Wheel Loader - 250.0 to 275.0 Horsepower,Georgia,WL,Wheel Loader,,EROPS,None or Unspecified,,None or Unspecified,,,,,,,,2 Valve,,,,,None or Unspecified,None or Unspecified,,,,,,,,,,,,,Standard,Conventional
632,1762740,51000,1352167,132,1.0,1000,,,8/3/2006 0:00,WA450-1,WA450,,-1,,Medium,Wheel Loader - 250.0 to 275.0 Horsepower,Montana,WL,Wheel Loader,,EROPS,None or Unspecified,,None or Unspecified,,,,,,,,2 Valve,,,,,26.5,None or Unspecified,,,,,,,,,,,,,Standard,Conventional
632,1762743,42000,1180290,132,1.0,1990,,,5/23/2000 0:00,WA450-1,WA450,,-1,,Medium,Wheel Loader - 250.0 to 275.0 Horsepower,Montana,WL,Wheel Loader,,EROPS w AC,None or Unspecified,,None or Unspecified,,,,,,,,2 Valve,,,,,26.5,None or Unspecified,,,,,,,,,,,,,Standard,Conventional
632,1762746,25000,1530782,132,1.0,1990,,,9/20/2002 0:00,WA450-1,WA450,,-1,,Medium,Wheel Loader - 250.0 to 275.0 Horsepower,Wyoming,WL,Wheel Loader,,EROPS,None or Unspecified,,None or Unspecified,,,,,,,,2 Valve,,,,,26.5,None or Unspecified,,,,,,,,,,,,,Standard,Conventional
632,1762748,42000,1451325,132,1.0,1988,,,12/15/1995 0:00,WA450-1,WA450,,-1,,Medium,Wheel Loader - 250.0 to 275.0 Horsepower,California,WL,Wheel Loader,,EROPS,None or Unspecified,,None or Unspecified,,,,,,,,2 Valve,,,,,None or Unspecified,None or Unspecified,,,,,,,,,,,,,Standard,Conventional
632,1762773,23000,1165188,132,1.0,1989,,,6/11/2002 0:00,WA450-1,WA450,,-1,,Medium,Wheel Loader - 250.0 to 275.0 Horsepower,Georgia,WL,Wheel Loader,,EROPS,None or Unspecified,,None or Unspecified,,,,,,,,2 Valve,,,,,26.5,None or Unspecified,,,,,,,,,,,,,Standard,Conventional
632,1762776,29000,1327503,132,1.0,1990,,,3/11/2005 0:00,WA450-1,WA450,,-1,,Medium,Wheel Loader - 250.0 to 275.0 Horsepower,Missouri,WL,Wheel Loader,,EROPS,None or Unspecified,,None or Unspecified,,,,,,,,3 Valve,,,,,26.5,None or Unspecified,,,,,,,,,,,,,Standard,Conventional
632,1762797,11500,1407715,132,2.0,1000,,,9/16/2000 0:00,WA450-1,WA450,,-1,,Medium,Wheel Loader - 250.0 to 275.0 Horsepower,New Jersey,WL,Wheel Loader,,EROPS,None or Unspecified,,None or Unspecified,,,,,,,,2 Valve,,,,,26.5,None or Unspecified,,,,,,,,,,,,,Standard,Conventional
632,1762818,46000,371767,132,1.0,1989,,,8/11/1998 0:00,WA450-1,WA450,,-1,,Medium,Wheel Loader - 250.0 to 275.0 Horsepower,California,WL,Wheel Loader,,OROPS,None or Unspecified,,None or Unspecified,,,,,,,,2 Valve,,,,,None or Unspecified,None or Unspecified,,,,,,,,,,,,,Standard,Conventional
632,1762819,40000,1419886,132,1.0,1989,,,2/20/2007 0:00,WA450-1,WA450,,-1,,Medium,Wheel Loader - 250.0 to 275.0 Horsepower,Florida,WL,Wheel Loader,,EROPS w AC,None or Unspecified,,None or Unspecified,,,,,,,,2 Valve,,,,,26.5,None or Unspecified,,,,,,,,,,,,,Standard,Conventional
632,1762820,65000,1321971,132,1.0,1988,,,4/30/1996 0:00,WA450-1,WA450,,-1,,Medium,Wheel Loader - 250.0 to 275.0 Horsepower,Montana,WL,Wheel Loader,,EROPS,None or Unspecified,,None or Unspecified,,,,,,,,2 Valve,,,,,26.5,None or Unspecified,,,,,,,,,,,,,Standard,Conventional
632,1762823,51000,1321971,132,1.0,1000,,,8/3/2006 0:00,WA450-1,WA450,,-1,,Medium,Wheel Loader - 250.0 to 275.0 Horsepower,Montana,WL,Wheel Loader,,EROPS,None or Unspecified,,None or Unspecified,,,,,,,,2 Valve,,,,,26.5,None or Unspecified,,,,,,,,,,,,,Standard,Conventional
632,1762829,28000,1158410,132,1.0,1990,,,6/23/2004 0:00,WA450-1,WA450,,-1,,Medium,Wheel Loader - 250.0 to 275.0 Horsepower,Washington,WL,Wheel Loader,,EROPS,None or Unspecified,,None or Unspecified,,,,,,,,2 Valve,,,,,26.5,None or Unspecified,,,,,,,,,,,,,Standard,Conventional
632,1762838,38000,1386380,132,4.0,1989,,,2/9/2004 0:00,WA450-1,WA450,,-1,,Medium,Wheel Loader - 250.0 to 275.0 Horsepower,Florida,WL,Wheel Loader,,OROPS,None or Unspecified,,None or Unspecified,,,,,,,,2 Valve,,,,,26.5,None or Unspecified,,,,,,,,,,,,,Standard,Conventional
632,1762847,36000,210010,132,1.0,1989,,,4/22/1999 0:00,WA450-1,WA450,,-1,,Medium,Wheel Loader - 250.0 to 275.0 Horsepower,New Mexico,WL,Wheel Loader,,EROPS w AC,None or Unspecified,,None or Unspecified,,,,,,,,2 Valve,,,,,29.5,None or Unspecified,,,,,,,,,,,,,Standard,Conventional
632,1762849,43000,1222866,132,4.0,1990,,,2/9/2000 0:00,WA450-1,WA450,,-1,,Medium,Wheel Loader - 250.0 to 275.0 Horsepower,Florida,WL,Wheel Loader,,EROPS w AC,None or Unspecified,,None or Unspecified,,,,,,,,2 Valve,,,,,None or Unspecified,None or Unspecified,,,,,,,,,,,,,Standard,Conventional
632,1762855,33000,1280631,132,1.0,1989,,,12/5/2000 0:00,WA450-1,WA450,,-1,,Medium,Wheel Loader - 250.0 to 275.0 Horsepower,Illinois,WL,Wheel Loader,,OROPS,None or Unspecified,,None or Unspecified,,,,,,,,2 Valve,,,,,None or Unspecified,None or Unspecified,,,,,,,,,,,,,Standard,Conventional
632,1762856,47500,1449010,132,1.0,1989,,,4/7/2000 0:00,WA450-1,WA450,,-1,,Medium,Wheel Loader - 250.0 to 275.0 Horsepower,Minnesota,WL,Wheel Loader,,EROPS,None or Unspecified,,None or Unspecified,,,,,,,,2 Valve,,,,,26.5,None or Unspecified,,,,,,,,,,,,,Standard,Conventional
632,1762857,32000,1449010,132,1.0,1990,,,10/1/2004 0:00,WA450-1,WA450,,-1,,Medium,Wheel Loader - 250.0 to 275.0 Horsepower,Colorado,WL,Wheel Loader,,EROPS,None or Unspecified,,None or Unspecified,,,,,,,,2 Valve,,,,,26.5,None or Unspecified,,,,,,,,,,,,,Standard,Conventional
632,1762858,30000,22851,132,1.0,1000,,,12/16/2005 0:00,WA450-1,WA450,,-1,,Medium,Wheel Loader - 250.0 to 275.0 Horsepower,Minnesota,WL,Wheel Loader,,EROPS w AC,None or Unspecified,,None or Unspecified,,,,,,,,2 Valve,,,,,26.5,None or Unspecified,,,,,,,,,,,,,Standard,Conventional
632,1762888,19000,1348016,132,7.0,1989,,,6/1/2000 0:00,WA450-1,WA450,,-1,,Medium,Wheel Loader - 250.0 to 275.0 Horsepower,Alabama,WL,Wheel Loader,,EROPS w AC,None or Unspecified,,None or Unspecified,,,,,,,,2 Valve,,,,,26.5,None or Unspecified,,,,,,,,,,,,,Standard,Conventional
632,1762891,32500,1348016,132,7.0,1989,,,6/20/1997 0:00,WA450-1,WA450,,-1,,Medium,Wheel Loader - 250.0 to 275.0 Horsepower,Alabama,WL,Wheel Loader,,EROPS w AC,None or Unspecified,,None or Unspecified,,,,,,,,2 Valve,,,,,26.5,None or Unspecified,,,,,,,,,,,,,Standard,Conventional
632,1762892,20000,1348016,132,4.0,1989,,,2/10/2003 0:00,WA450-1,WA450,,-1,,Medium,Wheel Loader - 250.0 to 275.0 Horsepower,Florida,WL,Wheel Loader,,EROPS w AC,None or Unspecified,,None or Unspecified,,,,,,,,2 Valve,,,,,26.5,None or Unspecified,,,,,,,,,,,,,Standard,Conventional
632,1762893,37500,1348016,132,7.0,1989,,,6/5/1998 0:00,WA450-1,WA450,,-1,,Medium,Wheel Loader - 250.0 to 275.0 Horsepower,Alabama,WL,Wheel Loader,,EROPS w AC,None or Unspecified,,None or Unspecified,,,,,,,,2 Valve,,,,,26.5,None or Unspecified,,,,,,,,,,,,,Standard,Conventional
632,1762896,39000,1120925,132,1.0,1989,,,9/29/1999 0:00,WA450-1,WA450,,-1,,Medium,Wheel Loader - 250.0 to 275.0 Horsepower,Washington,WL,Wheel Loader,,EROPS,None or Unspecified,,None or Unspecified,,,,,,,,2 Valve,,,,,None or Unspecified,None or Unspecified,,,,,,,,,,,,,Standard,Conventional
632,1762897,25000,1407196,132,1.0,1990,,,10/4/2002 0:00,WA450-1,WA450,,-1,,Medium,Wheel Loader - 250.0 to 275.0 Horsepower,Missouri,WL,Wheel Loader,,EROPS w AC,None or Unspecified,,None or Unspecified,,,,,,,,2 Valve,,,,,26.5,None or Unspecified,,,,,,,,,,,,,Standard,Conventional
632,1762903,47500,1381019,132,1.0,1989,,,12/14/1995 0:00,WA450-1,WA450,,-1,,Medium,Wheel Loader - 250.0 to 275.0 Horsepower,Arizona,WL,Wheel Loader,,EROPS w AC,None or Unspecified,,None or Unspecified,,,,,,,,2 Valve,,,,,26.5,None or Unspecified,,,,,,,,,,,,,Standard,Conventional
632,1762927,20000,1089779,132,4.0,1000,,,2/11/2002 0:00,WA450-1,WA450,,-1,,Medium,Wheel Loader - 250.0 to 275.0 Horsepower,Florida,WL,Wheel Loader,,EROPS,None or Unspecified,,None or Unspecified,,,,,,,,2 Valve,,,,,None or Unspecified,None or Unspecified,,,,,,,,,,,,,Standard,Conventional
632,1762931,53000,1279648,132,1.0,1990,,,6/30/1999 0:00,WA450-1,WA450,,-1,,Medium,Wheel Loader - 250.0 to 275.0 Horsepower,New Mexico,WL,Wheel Loader,,EROPS w AC,None or Unspecified,,No,,,,,,,,,,,,,,,,,,,,,,,,,,,Standard,Four Wheel Standard
632,1763309,43000,1369964,132,1.0,1990,,,6/17/1998 0:00,WA450-1,WA450,,-1,,Medium,Wheel Loader - 250.0 to 275.0 Horsepower,Texas,WL,Wheel Loader,,EROPS w AC,None or Unspecified,,None or Unspecified,,,,,,,,2 Valve,,,,,26.5,None or Unspecified,,,,,,,,,,,,,Standard,Conventional
632,1763312,63000,840080,132,2.0,1991,,,3/2/1996 0:00,WA450-1,WA450,,-1,,Medium,Wheel Loader - 250.0 to 275.0 Horsepower,New Hampshire,WL,Wheel Loader,,EROPS w AC,,,,,,,,,,,Standard,,,,,,None or Unspecified,,,,,,,,,,,,,,
632,1763326,32500,71398,132,1.0,1000,,,9/11/2003 0:00,WA450-1,WA450,,-1,,Medium,Wheel Loader - 250.0 to 275.0 Horsepower,California,WL,Wheel Loader,,EROPS w AC,None or Unspecified,,None or Unspecified,,,,,,,,2 Valve,,,,,20.5,None or Unspecified,,,,,,,,,,,,,Standard,Conventional
632,1763337,10500,1184696,132,2.0,1000,,,9/16/2000 0:00,WA450-1,WA450,,-1,,Medium,Wheel Loader - 250.0 to 275.0 Horsepower,New Jersey,WL,Wheel Loader,,EROPS,,,,,,,,,,,Auxiliary,,,,,,None or Unspecified,,,,,,,,,,,,,,
632,1763388,45000,1368263,132,4.0,1991,,,2/4/1999 0:00,WA450-1,WA450,,-1,,Medium,Wheel Loader - 250.0 to 275.0 Horsepower,Florida,WL,Wheel Loader,,EROPS w AC,None or Unspecified,,None or Unspecified,,,,,,,,2 Valve,,,,,20.5,None or Unspecified,,,,,,,,,,,,,Standard,Conventional
632,1763414,26000,1469255,132,2.0,1992,,,4/5/2002 0:00,WA450-1,WA450,,-1,,Medium,Wheel Loader - 250.0 to 275.0 Horsepower,North Carolina,WL,Wheel Loader,,EROPS w AC,None or Unspecified,,None or Unspecified,,,,,,,,2 Valve,,,,,26.5,None or Unspecified,,,,,,,,,,,,,Standard,Conventional
632,1763429,47000,844558,132,2.0,1992,,,3/14/2002 0:00,WA450-1,WA450,,-1,,Medium,Wheel Loader - 250.0 to 275.0 Horsepower,New Jersey,WL,Wheel Loader,,EROPS,None or Unspecified,,None or Unspecified,,,,,,,,2 Valve,,,,,None or Unspecified,None or Unspecified,,,,,,,,,,,,,Standard,Conventional
632,1763437,21000,1373478,132,2.0,1992,,,4/5/2002 0:00,WA450-1,WA450,,-1,,Medium,Wheel Loader - 250.0 to 275.0 Horsepower,North Carolina,WL,Wheel Loader,,EROPS w AC,None or Unspecified,,None or Unspecified,,,,,,,,2 Valve,,,,,26.5,None or Unspecified,,,,,,,,,,,,,Standard,Conventional
632,1763445,43000,1104214,132,2.0,1992,,,4/21/2001 0:00,WA450-1,WA450,,-1,,Medium,Wheel Loader - 250.0 to 275.0 Horsepower,New York,WL,Wheel Loader,,EROPS,None or Unspecified,,None or Unspecified,,,,,,,,2 Valve,,,,,None or Unspecified,None or Unspecified,,,,,,,,,,,,,Standard,Conventional
632,1763471,57500,699681,132,6.0,1993,,,12/15/1997 0:00,WA450-1,WA450,,-1,,Medium,Wheel Loader - 250.0 to 275.0 Horsepower,Kentucky,WL,Wheel Loader,,EROPS,None or Unspecified,,None or Unspecified,,,,,,,,3 Valve,,,,,None or Unspecified,None or Unspecified,,,,,,,,,,,,,Standard,Conventional
632,1763522,31000,1551802,132,1.0,1993,,,3/15/2006 0:00,WA450-1,WA450,,-1,,Medium,Wheel Loader - 250.0 to 275.0 Horsepower,Iowa,WL,Wheel Loader,,EROPS,None or Unspecified,,None or Unspecified,,,,,,,,2 Valve,,,,,26.5,None or Unspecified,,,,,,,,,,,,,Standard,Conventional
632,1763598,45000,1141199,132,1.0,1994,,,5/31/2001 0:00,WA450-1,WA450,,-1,,Medium,Wheel Loader - 250.0 to 275.0 Horsepower,New Mexico,WL,Wheel Loader,,EROPS w AC,None or Unspecified,,None or Unspecified,,,,,,,,2 Valve,,,,,29.5,None or Unspecified,,,,,,,,,,,,,Standard,Conventional
632,1763641,47500,1253921,132,2.0,1995,,,5/19/2001 0:00,WA450-1,WA450,,-1,,Medium,Wheel Loader - 250.0 to 275.0 Horsepower,Connecticut,WL,Wheel Loader,,EROPS w AC,None or Unspecified,,None or Unspecified,,,,,,,,2 Valve,,,,,None or Unspecified,None or Unspecified,,,,,,,,,,,,,Standard,Conventional
632,1763802,43000,72989,132,1.0,1997,,,10/14/2004 0:00,WA450-1,WA450,,-1,,Medium,Wheel Loader - 250.0 to 275.0 Horsepower,Florida,WL,Wheel Loader,,EROPS,None or Unspecified,,None or Unspecified,,,,,,,,2 Valve,,,,,26.5,None or Unspecified,,,,,,,,,,,,,Standard,Conventional
632,1763825,52500,1174125,132,4.0,1997,,,6/23/2003 0:00,WA450-1,WA450,,-1,,Medium,Wheel Loader - 250.0 to 275.0 Horsepower,New Hampshire,WL,Wheel Loader,,OROPS,None or Unspecified,,None or Unspecified,,,,,,,,2 Valve,,,,,None or Unspecified,None or Unspecified,,,,,,,,,,,,,Standard,Conventional
632,1763953,43000,1542662,132,3.0,1998,,,3/13/2003 0:00,WA450-1,WA450,,-1,,Medium,Wheel Loader - 250.0 to 275.0 Horsepower,Unspecified,WL,Wheel Loader,,EROPS w AC,None or Unspecified,,None or Unspecified,,,,,,,,2 Valve,,,,,26.5,None or Unspecified,,,,,,,,,,,,,Standard,Conventional
632,1778993,21000,1237133,132,1.0,1985,,,6/23/2004 0:00,WA450-1,WA450,,-1,,Medium,Wheel Loader - 250.0 to 275.0 Horsepower,Washington,WL,Wheel Loader,,EROPS,None or Unspecified,,None or Unspecified,,,,,,,,2 Valve,,,,,None or Unspecified,None or Unspecified,,,,,,,,,,,,,Standard,Conventional
632,1779004,29000,1335398,132,2.0,1000,,,11/17/1998 0:00,WA450-1,WA450,,-1,,Medium,Wheel Loader - 250.0 to 275.0 Horsepower,Texas,WL,Wheel Loader,,EROPS,None or Unspecified,,None or Unspecified,,,,,,,,2 Valve,,,,,None or Unspecified,None or Unspecified,,,,,,,,,,,,,Standard,Conventional
632,1779005,29000,1203659,132,2.0,1000,,,11/17/1998 0:00,WA450-1,WA450,,-1,,Medium,Wheel Loader - 250.0 to 275.0 Horsepower,Texas,WL,Wheel Loader,,EROPS,None or Unspecified,,None or Unspecified,,,,,,,,2 Valve,,,,,None or Unspecified,None or Unspecified,,,,,,,,,,,,,Standard,Conventional
632,1779008,29000,1489945,132,2.0,1000,,,11/17/1998 0:00,WA450-1,WA450,,-1,,Medium,Wheel Loader - 250.0 to 275.0 Horsepower,Texas,WL,Wheel Loader,,EROPS,None or Unspecified,,None or Unspecified,,,,,,,,2 Valve,,,,,None or Unspecified,None or Unspecified,,,,,,,,,,,,,Standard,Conventional
632,1779044,34000,1110546,132,1.0,1989,,,9/29/2000 0:00,WA450-1,WA450,,-1,,Medium,Wheel Loader - 250.0 to 275.0 Horsepower,Colorado,WL,Wheel Loader,,EROPS,None or Unspecified,,None or Unspecified,,,,,,,,2 Valve,,,,,None or Unspecified,None or Unspecified,,,,,,,,,,,,,Standard,Conventional
632,2397157,16000,1036006,136,1.0,1984,0.0,,9/24/2008 0:00,WA450-1,WA450,,-1,,Medium,Wheel Loader - 250.0 to 275.0 Horsepower,Texas,WL,Wheel Loader,,EROPS w AC,,,,,,,,,,,2 Valve,,,,,,,,,,,,,,,,,,,,
632,2397158,18000,1036006,136,1.0,1000,0.0,,12/3/2008 0:00,WA450-1,WA450,,-1,,Medium,Wheel Loader - 250.0 to 275.0 Horsepower,Texas,WL,Wheel Loader,,EROPS w AC,,,,,,,,,,,2 Valve,,,,,,,,,,,,,,,,,,,,
632,2397273,25000,1209450,136,3.0,1000,0.0,,6/26/2007 0:00,WA450-1,WA450,,-1,,Medium,Wheel Loader - 250.0 to 275.0 Horsepower,Minnesota,WL,Wheel Loader,,EROPS w AC,,,,,,,,,,,Standard,,,,,,None or Unspecified,,,,,,,,,,,,,,
632,2397560,33000,1141069,136,1.0,1000,0.0,,2/19/2008 0:00,WA450-1,WA450,,-1,,Medium,Wheel Loader - 250.0 to 275.0 Horsepower,Florida,WL,Wheel Loader,,EROPS w AC,None or Unspecified,,None or Unspecified,,,,,,,,2 Valve,,,,,26.5,None or Unspecified,,,,,,,,,,,,,Standard,Conventional
632,2397796,24000,1103389,136,1.0,1000,0.0,,5/5/2010 0:00,WA450-1,WA450,,-1,,Medium,Wheel Loader - 250.0 to 275.0 Horsepower,Washington,WL,Wheel Loader,,EROPS w AC,None or Unspecified,,None or Unspecified,,,,,,,,2 Valve,,,,,23.5,None or Unspecified,,,,,,,,,,,,,Standard,Conventional
632,2397854,17000,1681815,136,4.0,1988,0.0,,9/20/2008 0:00,WA450-1,WA450,,-1,,Medium,Wheel Loader - 250.0 to 275.0 Horsepower,Arizona,WL,Wheel Loader,,EROPS w AC,None or Unspecified,,None or Unspecified,,,,,,,,2 Valve,,,,,26.5,None or Unspecified,,,,,,,,,,,,,Standard,Conventional
632,2397863,19000,1059368,136,1.0,1986,0.0,,12/10/2008 0:00,WA450-1,WA450,,-1,,Medium,Wheel Loader - 250.0 to 275.0 Horsepower,Georgia,WL,Wheel Loader,,EROPS,Yes,,None or Unspecified,,,,,,,,2 Valve,,,,,20.5,Hydraulic,,,,,,,,,,,,,Standard,Conventional
632,2397891,35000,1170940,136,1.0,1000,0.0,,3/16/2007 0:00,WA450-1,WA450,,-1,,Medium,Wheel Loader - 250.0 to 275.0 Horsepower,Minnesota,WL,Wheel Loader,,EROPS w AC,None or Unspecified,,None or Unspecified,,,,,,,,2 Valve,,,,,26.5,None or Unspecified,,,,,,,,,,,,,Standard,Conventional
632,2397945,32000,1269448,136,4.0,1000,0.0,,11/6/2008 0:00,WA450-1,WA450,,-1,,Medium,Wheel Loader - 250.0 to 275.0 Horsepower,Michigan,WL,Wheel Loader,,EROPS,None or Unspecified,,None or Unspecified,,,,,,,,2 Valve,,,,,26.5,None or Unspecified,,,,,,,,,,,,,Standard,Conventional
632,2398009,19000,1032910,136,1.0,1985,0.0,,6/5/2007 0:00,WA450-1,WA450,,-1,,Medium,Wheel Loader - 250.0 to 275.0 Horsepower,Nebraska,WL,Wheel Loader,,EROPS w AC,,,,,,,,,,,2 Valve,,,,,,,,,,,,,,,,,,,,
632,2398422,85000,1107884,136,2.0,1000,0.0,,12/19/2009 0:00,WA450-1,WA450,,-1,,Medium,Wheel Loader - 250.0 to 275.0 Horsepower,New Jersey,WL,Wheel Loader,,EROPS,None or Unspecified,,None or Unspecified,,,,,,,,2 Valve,,,,,26.5,Manual,,,,,,,,,,,,,Standard,Conventional
632,2401424,20000,1402587,136,1.0,1991,0.0,,12/16/2008 0:00,WA450-1,WA450,,-1,,Medium,Wheel Loader - 250.0 to 275.0 Horsepower,Washington,WL,Wheel Loader,,EROPS,None or Unspecified,,None or Unspecified,,,,,,,,2 Valve,,,,,26.5,None or Unspecified,,,,,,,,,,,,,Standard,Conventional
632,2401494,16000,112162,136,1.0,1989,0.0,,11/12/2008 0:00,WA450-1,WA450,,-1,,Medium,Wheel Loader - 250.0 to 275.0 Horsepower,Arizona,WL,Wheel Loader,,EROPS,,,,,,,,,,,Standard,,,,,,None or Unspecified,,,,,,,,,,,,,,
632,2401814,15500,1209978,136,1.0,1000,0.0,,8/20/2009 0:00,WA450-1,WA450,,-1,,Medium,Wheel Loader - 250.0 to 275.0 Horsepower,Colorado,WL,Wheel Loader,,EROPS w AC,,,,,,,,,,,2 Valve,,,,,,,,,,,,,,,,,,,,
632,2412094,11000,1349578,136,15.0,1990,0.0,,8/28/2007 0:00,WA450-1,WA450,,-1,,Medium,Wheel Loader - 250.0 to 275.0 Horsepower,California,WL,Wheel Loader,,EROPS w AC,None or Unspecified,,None or Unspecified,,,,,,,,2 Valve,,,,,26.5,None or Unspecified,,,,,,,,,,,,,Standard,Conventional
632,2412095,23000,1349578,136,1.0,1990,0.0,,2/26/2008 0:00,WA450-1,WA450,,-1,,Medium,Wheel Loader - 250.0 to 275.0 Horsepower,California,WL,Wheel Loader,,EROPS w AC,None or Unspecified,,None or Unspecified,,,,,,,,2 Valve,,,,,26.5,None or Unspecified,,,,,,,,,,,,,Standard,Conventional
632,2412307,25000,1153981,136,1.0,1991,0.0,,3/21/2007 0:00,WA450-1,WA450,,-1,,Medium,Wheel Loader - 250.0 to 275.0 Horsepower,Washington,WL,Wheel Loader,,EROPS w AC,None or Unspecified,,None or Unspecified,,,,,,,,2 Valve,,,,,26.5,None or Unspecified,,,,,,,,,,,,,Standard,Conventional
632,2690713,26000,1417489,149,1.0,1984,12177.0,Medium,3/8/2011 0:00,WA450-1,WA450,,-1,,Medium,Wheel Loader - 250.0 to 275.0 Horsepower,Washington,WL,Wheel Loader,,EROPS,,,,,,,,,,,Auxiliary,,,,,,None or Unspecified,,,,,,,,,,,,,,
632,2691033,20000,1103389,149,1.0,1000,0.0,,7/29/2010 0:00,WA450-1,WA450,,-1,,Medium,Wheel Loader - 250.0 to 275.0 Horsepower,Washington,WL,Wheel Loader,,EROPS w AC,None or Unspecified,,None or Unspecified,,,,,,,,2 Valve,,,,,23.5,None or Unspecified,,,,,,,,,,,,,Standard,Conventional
632,2691034,32500,1103389,149,1.0,1986,5100.0,Low,4/6/2011 0:00,WA450-1,WA450,,-1,,Medium,Wheel Loader - 250.0 to 275.0 Horsepower,Oregon,WL,Wheel Loader,,EROPS w AC,None or Unspecified,,None or Unspecified,,,,,,,,2 Valve,,,,,23.5,None or Unspecified,,,,,,,,,,,,,Standard,Conventional
632,4358371,17000,1829425,172,1.0,1990,18481.0,Medium,12/14/2011 0:00,WA450-1,WA450,,-1,,Medium,Wheel Loader - 250.0 to 275.0 Horsepower,California,WL,Wheel Loader,,EROPS w AC,Yes,,None or Unspecified,,,,,,,,2 Valve,,,,,20.5,None or Unspecified,,,,,,,,,,,,,Standard,Conventional
632,6303987,17000,1803335,149,1.0,1990,,,12/15/2011 0:00,WA450-1,WA450,,-1,,Medium,Wheel Loader - 250.0 to 275.0 Horsepower,California,WL,Wheel Loader,,EROPS,None or Unspecified,,None or Unspecified,,,,,,,,2 Valve,,,,,26.5,None or Unspecified,,,,,,,,,,,,,Standard,Conventional
