ModelID,SalesID,SalePrice,MachineID,datasource,auctioneerID,YearMade,MachineHoursCurrentMeter,UsageBand,saledate,fiModelDesc,fiBaseModel,fiSecondaryDesc,fiModelSeries,fiModelDescriptor,ProductSize,fiProductClassDesc,state,ProductGroup,ProductGroupDesc,Drive_System,Enclosure,Forks,Pad_Type,Ride_Control,Stick,Transmission,Turbocharged,Blade_Extension,Blade_Width,Enclosure_Type,Engine_Horsepower,Hydraulics,Pushblock,Ripper,Scarifier,Tip_Control,Tire_Size,Coupler,Coupler_System,Grouser_Tracks,Hydraulics_Flow,Track_Type,Undercarriage_Pad_Width,Stick_Length,Thumb,Pattern_Changer,Grouser_Type,Backhoe_Mounting,Blade_Type,Travel_Controls,Differential_Type,Steering_Controls
6631,1251288,7750,1351467,132,18.0,1000,,,3/8/1997 0:00,1835,1835,,,,,Skid Steer Loader - 1251.0 to 1351.0 Lb Operating Capacity,Pennsylvania,SSL,Skid Steer Loaders,,OROPS,None or Unspecified,,,,,,,,,,Standard,,,,,,None or Unspecified,None or Unspecified,None or Unspecified,Standard,,,,,,,,,,,
6631,1252642,5500,1126243,132,1.0,1986,,,2/21/1996 0:00,1835,1835,,,,,Skid Steer Loader - 1251.0 to 1351.0 Lb Operating Capacity,California,SSL,Skid Steer Loaders,,OROPS,None or Unspecified,,,,,,,,,,Standard,,,,,,None or Unspecified,None or Unspecified,None or Unspecified,Standard,,,,,,,,,,,
6631,1252655,7500,1358951,132,1.0,1985,,,5/17/1994 0:00,1835,1835,,,,,Skid Steer Loader - 1251.0 to 1351.0 Lb Operating Capacity,Kansas,SSL,Skid Steer Loaders,,OROPS,None or Unspecified,,,,,,,,,,Standard,,,,,,None or Unspecified,None or Unspecified,None or Unspecified,Standard,,,,,,,,,,,
6631,1252701,7000,1316985,132,2.0,1000,,,2/7/1996 0:00,1835,1835,,,,,Skid Steer Loader - 1251.0 to 1351.0 Lb Operating Capacity,Florida,SSL,Skid Steer Loaders,,OROPS,None or Unspecified,,,,,,,,,,Standard,,,,,,None or Unspecified,None or Unspecified,None or Unspecified,Standard,,,,,,,,,,,
6631,1254252,5000,1555665,132,25.0,1988,,,10/24/1998 0:00,1835,1835,,,,,Skid Steer Loader - 1251.0 to 1351.0 Lb Operating Capacity,California,SSL,Skid Steer Loaders,,OROPS,None or Unspecified,,,,,,,,,,Standard,,,,,,None or Unspecified,None or Unspecified,None or Unspecified,Standard,,,,,,,,,,,
6631,1257084,5250,1539402,132,5.0,1982,,,8/15/2001 0:00,1835,1835,,,,,Skid Steer Loader - 1251.0 to 1351.0 Lb Operating Capacity,Connecticut,SSL,Skid Steer Loaders,,OROPS,None or Unspecified,,,,,,,,,,Standard,,,,,,None or Unspecified,None or Unspecified,None or Unspecified,Standard,,,,,,,,,,,
6631,1264625,5500,1511957,132,1.0,1980,,,11/16/1995 0:00,1835,1835,,,,,Skid Steer Loader - 1251.0 to 1351.0 Lb Operating Capacity,Georgia,SSL,Skid Steer Loaders,,OROPS,None or Unspecified,,,,,,,,,,Standard,,,,,,None or Unspecified,None or Unspecified,None or Unspecified,Standard,,,,,,,,,,,
6631,1264638,5750,1495648,132,14.0,1980,,,3/19/1994 0:00,1835,1835,,,,,Skid Steer Loader - 1251.0 to 1351.0 Lb Operating Capacity,Indiana,SSL,Skid Steer Loaders,,OROPS,None or Unspecified,,,,,,,,,,Standard,,,,,,None or Unspecified,None or Unspecified,None or Unspecified,Standard,,,,,,,,,,,
6631,1264665,6000,1329047,132,2.0,1981,,,6/23/1995 0:00,1835,1835,,,,,Skid Steer Loader - 1251.0 to 1351.0 Lb Operating Capacity,Louisiana,SSL,Skid Steer Loaders,,OROPS,None or Unspecified,,,,,,,,,,Standard,,,,,,None or Unspecified,None or Unspecified,None or Unspecified,Standard,,,,,,,,,,,
6631,1264667,6000,1527772,132,1.0,1981,,,6/24/1999 0:00,1835,1835,,,,,Skid Steer Loader - 1251.0 to 1351.0 Lb Operating Capacity,Colorado,SSL,Skid Steer Loaders,,OROPS,None or Unspecified,,,,,,,,,,Standard,,,,,,None or Unspecified,None or Unspecified,None or Unspecified,Standard,,,,,,,,,,,
6631,1264673,7400,1323639,132,18.0,1981,,,4/5/1997 0:00,1835,1835,,,,,Skid Steer Loader - 1251.0 to 1351.0 Lb Operating Capacity,Pennsylvania,SSL,Skid Steer Loaders,,OROPS,None or Unspecified,,,,,,,,,,Standard,,,,,,None or Unspecified,None or Unspecified,None or Unspecified,Standard,,,,,,,,,,,
6631,1264674,4850,1269503,132,18.0,1981,,,3/13/1999 0:00,1835,1835,,,,,Skid Steer Loader - 1251.0 to 1351.0 Lb Operating Capacity,Pennsylvania,SSL,Skid Steer Loaders,,OROPS,None or Unspecified,,,,,,,,,,Standard,,,,,,None or Unspecified,None or Unspecified,None or Unspecified,Standard,,,,,,,,,,,
6631,1264680,5500,1176500,132,22.0,1981,,,3/16/1996 0:00,1835,1835,,,,,Skid Steer Loader - 1251.0 to 1351.0 Lb Operating Capacity,Minnesota,SSL,Skid Steer Loaders,,OROPS,None or Unspecified,,,,,,,,,,Standard,,,,,,None or Unspecified,None or Unspecified,None or Unspecified,Standard,,,,,,,,,,,
6631,1264681,4750,1425369,132,99.0,1981,,,6/17/1995 0:00,1835,1835,,,,,Skid Steer Loader - 1251.0 to 1351.0 Lb Operating Capacity,Washington,SSL,Skid Steer Loaders,,OROPS,None or Unspecified,,,,,,,,,,Standard,,,,,,None or Unspecified,None or Unspecified,None or Unspecified,Standard,,,,,,,,,,,
6631,1264683,6000,1210402,132,18.0,1981,,,10/4/1997 0:00,1835,1835,,,,,Skid Steer Loader - 1251.0 to 1351.0 Lb Operating Capacity,New Hampshire,SSL,Skid Steer Loaders,,OROPS,None or Unspecified,,,,,,,,,,Standard,,,,,,None or Unspecified,None or Unspecified,None or Unspecified,Standard,,,,,,,,,,,
6631,1264684,5250,1422929,132,6.0,1981,,,12/12/1994 0:00,1835,1835,,,,,Skid Steer Loader - 1251.0 to 1351.0 Lb Operating Capacity,Kentucky,SSL,Skid Steer Loaders,,OROPS,None or Unspecified,,,,,,,,,,Standard,,,,,,None or Unspecified,None or Unspecified,None or Unspecified,Standard,,,,,,,,,,,
6631,1264685,6000,1132064,132,1.0,1981,,,6/24/1999 0:00,1835,1835,,,,,Skid Steer Loader - 1251.0 to 1351.0 Lb Operating Capacity,Colorado,SSL,Skid Steer Loaders,,OROPS,None or Unspecified,,,,,,,,,,Standard,,,,,,None or Unspecified,None or Unspecified,None or Unspecified,Standard,,,,,,,,,,,
6631,1264686,4750,1433387,132,99.0,1981,,,4/5/2000 0:00,1835,1835,,,,,Skid Steer Loader - 1251.0 to 1351.0 Lb Operating Capacity,Iowa,SSL,Skid Steer Loaders,,OROPS,None or Unspecified,,,,,,,,,,Standard,,,,,,None or Unspecified,None or Unspecified,None or Unspecified,Standard,,,,,,,,,,,
6631,1264688,5000,1119809,132,4.0,1981,,,2/8/1996 0:00,1835,1835,,,,,Skid Steer Loader - 1251.0 to 1351.0 Lb Operating Capacity,Florida,SSL,Skid Steer Loaders,,OROPS,None or Unspecified,,,,,,,,,,Standard,,,,,,None or Unspecified,None or Unspecified,None or Unspecified,Standard,,,,,,,,,,,
6631,1264689,5500,1119809,132,9.0,1981,,,2/13/1997 0:00,1835,1835,,,,,Skid Steer Loader - 1251.0 to 1351.0 Lb Operating Capacity,Florida,SSL,Skid Steer Loaders,,OROPS,None or Unspecified,,,,,,,,,,Standard,,,,,,None or Unspecified,None or Unspecified,None or Unspecified,Standard,,,,,,,,,,,
6631,1264722,6000,1329694,132,1.0,1982,,,4/7/2000 0:00,1835,1835,,,,,Skid Steer Loader - 1251.0 to 1351.0 Lb Operating Capacity,Minnesota,SSL,Skid Steer Loaders,,OROPS,None or Unspecified,,,,,,,,,,Standard,,,,,,None or Unspecified,None or Unspecified,None or Unspecified,Standard,,,,,,,,,,,
6631,1264724,6500,1424581,132,1.0,1982,,,10/8/1996 0:00,1835,1835,,,,,Skid Steer Loader - 1251.0 to 1351.0 Lb Operating Capacity,Texas,SSL,Skid Steer Loaders,,OROPS,None or Unspecified,,,,,,,,,,Standard,,,,,,None or Unspecified,None or Unspecified,None or Unspecified,Standard,,,,,,,,,,,
6631,1264725,5600,1297833,132,2.0,1982,,,8/25/1995 0:00,1835,1835,,,,,Skid Steer Loader - 1251.0 to 1351.0 Lb Operating Capacity,Ohio,SSL,Skid Steer Loaders,,OROPS,None or Unspecified,,,,,,,,,,Standard,,,,,,None or Unspecified,None or Unspecified,None or Unspecified,Standard,,,,,,,,,,,
6631,1264872,7750,1337320,132,1.0,1984,,,6/23/1994 0:00,1835,1835,,,,,Skid Steer Loader - 1251.0 to 1351.0 Lb Operating Capacity,Colorado,SSL,Skid Steer Loaders,,OROPS,None or Unspecified,,,,,,,,,,Standard,,,,,,None or Unspecified,None or Unspecified,None or Unspecified,Standard,,,,,,,,,,,
6631,1264873,5500,1465547,132,1.0,1000,,,6/17/1998 0:00,1835,1835,,,,,Skid Steer Loader - 1251.0 to 1351.0 Lb Operating Capacity,Texas,SSL,Skid Steer Loaders,,OROPS,None or Unspecified,,,,,,,,,,Standard,,,,,,None or Unspecified,None or Unspecified,None or Unspecified,Standard,,,,,,,,,,,
6631,1268980,6900,1458357,132,21.0,1000,,,3/13/2004 0:00,1835,1835,,,,,Skid Steer Loader - 1251.0 to 1351.0 Lb Operating Capacity,Maine,SSL,Skid Steer Loaders,,OROPS,None or Unspecified,,,,,,,,,,Standard,,,,,,None or Unspecified,None or Unspecified,None or Unspecified,Standard,,,,,,,,,,,
6631,1269007,6000,1211576,132,22.0,1000,,,6/12/1999 0:00,1835,1835,,,,,Skid Steer Loader - 1251.0 to 1351.0 Lb Operating Capacity,Minnesota,SSL,Skid Steer Loaders,,OROPS,None or Unspecified,,,,,,,,,,Standard,,,,,,None or Unspecified,None or Unspecified,None or Unspecified,Standard,,,,,,,,,,,
6631,1269008,6250,1324209,132,9.0,1000,,,12/8/1999 0:00,1835,1835,,,,,Skid Steer Loader - 1251.0 to 1351.0 Lb Operating Capacity,South Carolina,SSL,Skid Steer Loaders,,OROPS,None or Unspecified,,,,,,,,,,Standard,,,,,,None or Unspecified,None or Unspecified,None or Unspecified,Standard,,,,,,,,,,,
6631,1270582,6000,1320474,132,1.0,1994,,,6/20/1997 0:00,1835,1835,,,,,Skid Steer Loader - 1251.0 to 1351.0 Lb Operating Capacity,Washington,SSL,Skid Steer Loaders,,OROPS,None or Unspecified,,,,,,,,,,Standard,,,,,,None or Unspecified,None or Unspecified,None or Unspecified,Standard,,,,,,,,,,,
6631,1275254,5000,1536120,132,1.0,1996,,,6/10/2009 0:00,1835,1835,,,,,Skid Steer Loader - 1251.0 to 1351.0 Lb Operating Capacity,Texas,SSL,Skid Steer Loaders,,OROPS,None or Unspecified,,,,,,,,,,Standard,,,,,,None or Unspecified,None or Unspecified,None or Unspecified,Standard,,,,,,,,,,,
6631,4247537,5000,2293194,172,1.0,1996,4157.0,Medium,6/10/2009 0:00,1835,1835,,,,,Skid Steer Loader - 1251.0 to 1351.0 Lb Operating Capacity,Texas,SSL,Skid Steer Loaders,,OROPS,None or Unspecified,,,,,,,,,,Standard,,,,,,None or Unspecified,None or Unspecified,None or Unspecified,Standard,,,,,,,,,,,
