ModelID,SalesID,SalePrice,MachineID,datasource,auctioneerID,YearMade,MachineHoursCurrentMeter,UsageBand,saledate,fiModelDesc,fiBaseModel,fiSecondaryDesc,fiModelSeries,fiModelDescriptor,ProductSize,fiProductClassDesc,state,ProductGroup,ProductGroupDesc,Drive_System,Enclosure,Forks,Pad_Type,Ride_Control,Stick,Transmission,Turbocharged,Blade_Extension,Blade_Width,Enclosure_Type,Engine_Horsepower,Hydraulics,Pushblock,Ripper,Scarifier,Tip_Control,Tire_Size,Coupler,Coupler_System,Grouser_Tracks,Hydraulics_Flow,Track_Type,Undercarriage_Pad_Width,Stick_Length,Thumb,Pattern_Changer,Grouser_Type,Backhoe_Mounting,Blade_Type,Travel_Controls,Differential_Type,Steering_Controls
6751,1254794,16500,1364210,132,1.0,1972,,,6/6/2007 0:00,475,475,,,,,"Track Type Tractor, Dozer - 75.0 to 85.0 Horsepower",Illinois,TTT,Track Type Tractors,,OROPS,,,,,Standard,,,,,,2 Valve,,None or Unspecified,,,,,,,,,,,,,,None or Unspecified,None or Unspecified,None or Unspecified,,
6751,1254820,15000,1252218,132,1.0,1973,,,3/27/2001 0:00,475,475,,,,,"Track Type Tractor, Dozer - 75.0 to 85.0 Horsepower",North Carolina,TTT,Track Type Tractors,,OROPS,,,,,Standard,,,,,,2 Valve,,None or Unspecified,,,,,,,,,,,,,,None or Unspecified,None or Unspecified,None or Unspecified,,
6751,1254821,8000,1553610,132,1.0,1973,,,6/15/1995 0:00,475,475,,,,,"Track Type Tractor, Dozer - 75.0 to 85.0 Horsepower",Washington,TTT,Track Type Tractors,,OROPS,,,,,Standard,,,,,,2 Valve,,None or Unspecified,,,,,,,,,,,,,,None or Unspecified,None or Unspecified,None or Unspecified,,
6751,1254822,9000,1499061,132,99.0,1000,,,8/4/1994 0:00,475,475,,,,,"Track Type Tractor, Dozer - 75.0 to 85.0 Horsepower",Iowa,TTT,Track Type Tractors,,OROPS,,,,,Standard,,,,,,2 Valve,,None or Unspecified,,,,,,,,,,,,,,None or Unspecified,None or Unspecified,None or Unspecified,,
6751,1254823,17000,1490167,132,1.0,1973,,,6/20/1997 0:00,475,475,,,,,"Track Type Tractor, Dozer - 75.0 to 85.0 Horsepower",Washington,TTT,Track Type Tractors,,OROPS,,,,,Standard,,,,,,2 Valve,,None or Unspecified,,,,,,,,,,,,,,None or Unspecified,None or Unspecified,None or Unspecified,,
6751,1254825,10500,1198388,132,1.0,1973,,,3/15/1994 0:00,475,475,,,,,"Track Type Tractor, Dozer - 75.0 to 85.0 Horsepower",Georgia,TTT,Track Type Tractors,,OROPS,,,,,Standard,,,,,,2 Valve,,None or Unspecified,,,,,,,,,,,,,,None or Unspecified,None or Unspecified,None or Unspecified,,
6751,1254829,8500,1357351,132,1.0,1973,,,6/19/2008 0:00,475,475,,,,,"Track Type Tractor, Dozer - 75.0 to 85.0 Horsepower",Illinois,TTT,Track Type Tractors,,OROPS,,,,,Standard,,,,,,2 Valve,,None or Unspecified,,,,,,,,,,,,,,None or Unspecified,None or Unspecified,None or Unspecified,,
6751,1254830,16500,1483185,132,1.0,1973,,,6/6/2007 0:00,475,475,,,,,"Track Type Tractor, Dozer - 75.0 to 85.0 Horsepower",Illinois,TTT,Track Type Tractors,,OROPS,,,,,Standard,,,,,,2 Valve,,None or Unspecified,,,,,,,,,,,,,,None or Unspecified,None or Unspecified,None or Unspecified,,
6751,1254832,14000,1256063,132,1.0,1973,,,11/16/2005 0:00,475,475,,,,,"Track Type Tractor, Dozer - 75.0 to 85.0 Horsepower",Illinois,TTT,Track Type Tractors,,OROPS,,,,,Standard,,,,,,2 Valve,,None or Unspecified,,,,,,,,,,,,,,None or Unspecified,None or Unspecified,None or Unspecified,,
6751,1254834,8400,1107621,132,20.0,1979,,,6/19/2002 0:00,475,475,,,,,"Track Type Tractor, Dozer - 75.0 to 85.0 Horsepower",Arkansas,TTT,Track Type Tractors,,OROPS,,,,,Standard,,,,,,2 Valve,,None or Unspecified,,,,,,,,,,,,,,None or Unspecified,None or Unspecified,None or Unspecified,,
6751,1254835,14000,1439609,132,20.0,1979,,,6/19/2002 0:00,475,475,,,,,"Track Type Tractor, Dozer - 75.0 to 85.0 Horsepower",Arkansas,TTT,Track Type Tractors,,OROPS,,,,,Standard,,,,,,2 Valve,,None or Unspecified,,,,,,,,,,,,,,None or Unspecified,None or Unspecified,None or Unspecified,,
6751,1254836,8500,1532909,132,20.0,1979,,,6/19/2002 0:00,475,475,,,,,"Track Type Tractor, Dozer - 75.0 to 85.0 Horsepower",Arkansas,TTT,Track Type Tractors,,OROPS,,,,,Standard,,,,,,2 Valve,,None or Unspecified,,,,,,,,,,,,,,None or Unspecified,None or Unspecified,None or Unspecified,,
6751,1254869,13000,1258621,132,1.0,1975,,,3/9/2005 0:00,475,475,,,,,"Track Type Tractor, Dozer - 75.0 to 85.0 Horsepower",Minnesota,TTT,Track Type Tractors,,OROPS,,,,,Standard,,,,,,2 Valve,,None or Unspecified,,,,,,,,,,,,,,None or Unspecified,None or Unspecified,None or Unspecified,,
6751,1254872,9500,1310063,132,1.0,1975,,,6/10/2004 0:00,475,475,,,,,"Track Type Tractor, Dozer - 75.0 to 85.0 Horsepower",Illinois,TTT,Track Type Tractors,,OROPS,,,,,Standard,,,,,,2 Valve,,None or Unspecified,,,,,,,,,,,,,,None or Unspecified,None or Unspecified,None or Unspecified,,
6751,1254875,14000,1529703,132,1.0,1000,,,7/23/1998 0:00,475,475,,,,,"Track Type Tractor, Dozer - 75.0 to 85.0 Horsepower",Georgia,TTT,Track Type Tractors,,OROPS,,,,,Standard,,,,,,2 Valve,,None or Unspecified,,,,,,,,,,,,,,None or Unspecified,Straight,None or Unspecified,,
6751,1254876,16000,1174759,132,22.0,1976,,,5/24/1997 0:00,475,475,,,,,"Track Type Tractor, Dozer - 75.0 to 85.0 Horsepower",Minnesota,TTT,Track Type Tractors,,OROPS,,,,,Standard,,,,,,2 Valve,,None or Unspecified,,,,,,,,,,,,,,None or Unspecified,None or Unspecified,None or Unspecified,,
6751,1254878,12500,1204419,132,1.0,1975,,,4/4/1996 0:00,475,475,,,,,"Track Type Tractor, Dozer - 75.0 to 85.0 Horsepower",Georgia,TTT,Track Type Tractors,,OROPS,,,,,Standard,,,,,,2 Valve,,None or Unspecified,,,,,,,,,,,,,,None or Unspecified,None or Unspecified,None or Unspecified,,
6751,1254879,8000,1251203,132,1.0,1975,,,9/18/1997 0:00,475,475,,,,,"Track Type Tractor, Dozer - 75.0 to 85.0 Horsepower",Washington,TTT,Track Type Tractors,,OROPS,,,,,Standard,,,,,,2 Valve,,None or Unspecified,,,,,,,,,,,,,,None or Unspecified,None or Unspecified,None or Unspecified,,
6751,1254881,15750,1251203,132,22.0,1000,,,6/11/2005 0:00,475,475,,,,,"Track Type Tractor, Dozer - 75.0 to 85.0 Horsepower",Minnesota,TTT,Track Type Tractors,,OROPS,,,,,Standard,,,,,,2 Valve,,None or Unspecified,,,,,,,,,,,,,,None or Unspecified,None or Unspecified,None or Unspecified,,
6751,1254913,13500,1452662,132,1.0,1000,,,12/8/2003 0:00,475,475,,,,,"Track Type Tractor, Dozer - 75.0 to 85.0 Horsepower",Minnesota,TTT,Track Type Tractors,,OROPS,,,,,Standard,,,,,,2 Valve,,None or Unspecified,,,,,,,,,,,,,,None or Unspecified,None or Unspecified,None or Unspecified,,
6751,1254914,21000,1452662,132,1.0,1000,,,3/5/2004 0:00,475,475,,,,,"Track Type Tractor, Dozer - 75.0 to 85.0 Horsepower",Minnesota,TTT,Track Type Tractors,,OROPS,,,,,Standard,,,,,,2 Valve,,None or Unspecified,,,,,,,,,,,,,,None or Unspecified,None or Unspecified,None or Unspecified,,
6751,1254922,11500,1078833,132,1.0,1976,,,4/4/1996 0:00,475,475,,,,,"Track Type Tractor, Dozer - 75.0 to 85.0 Horsepower",Georgia,TTT,Track Type Tractors,,OROPS,,,,,Standard,,,,,,2 Valve,,None or Unspecified,,,,,,,,,,,,,,None or Unspecified,None or Unspecified,None or Unspecified,,
6751,1254926,10500,1440499,132,1.0,1976,,,6/26/1997 0:00,475,475,,,,,"Track Type Tractor, Dozer - 75.0 to 85.0 Horsepower",Colorado,TTT,Track Type Tractors,,OROPS,,,,,Standard,,,,,,2 Valve,,None or Unspecified,,,,,,,,,,,,,,None or Unspecified,None or Unspecified,None or Unspecified,,
6751,1254947,10500,1185397,132,1.0,1977,,,3/15/1994 0:00,475,475,,,,,"Track Type Tractor, Dozer - 75.0 to 85.0 Horsepower",Georgia,TTT,Track Type Tractors,,OROPS,,,,,Standard,,,,,,2 Valve,,None or Unspecified,,,,,,,,,,,,,,None or Unspecified,None or Unspecified,None or Unspecified,,
6751,1254949,9000,1532444,132,1.0,1000,,,9/21/2007 0:00,475,475,,,,,"Track Type Tractor, Dozer - 75.0 to 85.0 Horsepower",Minnesota,TTT,Track Type Tractors,,OROPS,,,,,Standard,,,,,,2 Valve,,None or Unspecified,,,,,,,,,,,,,,None or Unspecified,Straight,None or Unspecified,,
6751,1254950,14000,1532444,132,1.0,1000,,,6/20/1995 0:00,475,475,,,,,"Track Type Tractor, Dozer - 75.0 to 85.0 Horsepower",Minnesota,TTT,Track Type Tractors,,OROPS,,,,,Standard,,,,,,2 Valve,,None or Unspecified,,,,,,,,,,,,,,None or Unspecified,Straight,None or Unspecified,,
6751,1254951,10000,1208981,132,1.0,1977,,,4/9/2002 0:00,475,475,,,,,"Track Type Tractor, Dozer - 75.0 to 85.0 Horsepower",Georgia,TTT,Track Type Tractors,,OROPS,,,,,Standard,,,,,,2 Valve,,None or Unspecified,,,,,,,,,,,,,,None or Unspecified,None or Unspecified,None or Unspecified,,
6751,1254952,21000,1311859,132,1.0,1977,,,7/23/1996 0:00,475,475,,,,,"Track Type Tractor, Dozer - 75.0 to 85.0 Horsepower",Texas,TTT,Track Type Tractors,,OROPS,,,,,Standard,,,,,,2 Valve,,None or Unspecified,,,,,,,,,,,,,,None or Unspecified,None or Unspecified,None or Unspecified,,
6751,1254953,11000,1231047,132,1.0,1977,,,3/26/1998 0:00,475,475,,,,,"Track Type Tractor, Dozer - 75.0 to 85.0 Horsepower",Texas,TTT,Track Type Tractors,,OROPS,,,,,Standard,,,,,,2 Valve,,None or Unspecified,,,,,,,,,,,,,,None or Unspecified,None or Unspecified,None or Unspecified,,
6751,1254954,8000,1159568,132,1.0,1977,,,11/21/2002 0:00,475,475,,,,,"Track Type Tractor, Dozer - 75.0 to 85.0 Horsepower",Arizona,TTT,Track Type Tractors,,OROPS,,,,,Standard,,,,,,2 Valve,,None or Unspecified,,,,,,,,,,,,,,None or Unspecified,Straight,None or Unspecified,,
6751,1254956,10000,1283552,132,1.0,1977,,,4/9/2002 0:00,475,475,,,,,"Track Type Tractor, Dozer - 75.0 to 85.0 Horsepower",Georgia,TTT,Track Type Tractors,,OROPS,,,,,Standard,,,,,,2 Valve,,None or Unspecified,,,,,,,,,,,,,,None or Unspecified,None or Unspecified,None or Unspecified,,
6751,1254958,11500,1316571,132,1.0,1977,,,4/4/1996 0:00,475,475,,,,,"Track Type Tractor, Dozer - 75.0 to 85.0 Horsepower",Georgia,TTT,Track Type Tractors,,OROPS,,,,,Standard,,,,,,2 Valve,,None or Unspecified,,,,,,,,,,,,,,None or Unspecified,None or Unspecified,None or Unspecified,,
6751,1254962,15000,1144404,132,1.0,1000,,,6/14/2000 0:00,475,475,,,,,"Track Type Tractor, Dozer - 75.0 to 85.0 Horsepower",Texas,TTT,Track Type Tractors,,OROPS,,,,,Standard,,,,,,2 Valve,,None or Unspecified,,,,,,,,,,,,,,None or Unspecified,None or Unspecified,None or Unspecified,,
6751,1254981,17000,1130469,132,14.0,1978,,,4/7/1999 0:00,475,475,,,,,"Track Type Tractor, Dozer - 75.0 to 85.0 Horsepower",Indiana,TTT,Track Type Tractors,,OROPS,,,,,Standard,,,,,,2 Valve,,None or Unspecified,,,,,,,,,,,,,,None or Unspecified,None or Unspecified,None or Unspecified,,
6751,1254982,11500,1191715,132,1.0,1978,,,4/4/1996 0:00,475,475,,,,,"Track Type Tractor, Dozer - 75.0 to 85.0 Horsepower",Georgia,TTT,Track Type Tractors,,OROPS,,,,,Standard,,,,,,2 Valve,,None or Unspecified,,,,,,,,,,,,,,None or Unspecified,Straight,None or Unspecified,,
6751,1254985,14500,1387983,132,1.0,1000,,,7/23/1998 0:00,475,475,,,,,"Track Type Tractor, Dozer - 75.0 to 85.0 Horsepower",Georgia,TTT,Track Type Tractors,,OROPS,,,,,Standard,,,,,,2 Valve,,None or Unspecified,,,,,,,,,,,,,,None or Unspecified,None or Unspecified,None or Unspecified,,
6751,1254991,10000,1175865,132,25.0,1978,,,9/30/1995 0:00,475,475,,,,,"Track Type Tractor, Dozer - 75.0 to 85.0 Horsepower",California,TTT,Track Type Tractors,,OROPS,,,,,Standard,,,,,,2 Valve,,None or Unspecified,,,,,,,,,,,,,,None or Unspecified,None or Unspecified,None or Unspecified,,
6751,1254992,14000,1116523,132,1.0,1978,,,11/16/2005 0:00,475,475,,,,,"Track Type Tractor, Dozer - 75.0 to 85.0 Horsepower",Illinois,TTT,Track Type Tractors,,OROPS,,,,,Standard,,,,,,2 Valve,,None or Unspecified,,,,,,,,,,,,,,None or Unspecified,None or Unspecified,None or Unspecified,,
6751,1254994,14000,1419612,132,1.0,1000,,,6/20/1995 0:00,475,475,,,,,"Track Type Tractor, Dozer - 75.0 to 85.0 Horsepower",Minnesota,TTT,Track Type Tractors,,OROPS,,,,,Standard,,,,,,2 Valve,,None or Unspecified,,,,,,,,,,,,,,None or Unspecified,None or Unspecified,None or Unspecified,,
6751,1254995,9000,1393619,132,20.0,1978,,,6/19/2002 0:00,475,475,,,,,"Track Type Tractor, Dozer - 75.0 to 85.0 Horsepower",Arkansas,TTT,Track Type Tractors,,OROPS,,,,,Powershift,,,,,,2 Valve,,None or Unspecified,,,,,,,,,,,,,,None or Unspecified,None or Unspecified,None or Unspecified,,
6751,1254997,10000,1083882,132,1.0,1978,,,4/9/2002 0:00,475,475,,,,,"Track Type Tractor, Dozer - 75.0 to 85.0 Horsepower",Georgia,TTT,Track Type Tractors,,OROPS,,,,,Standard,,,,,,2 Valve,,None or Unspecified,,,,,,,,,,,,,,None or Unspecified,None or Unspecified,None or Unspecified,,
6751,1255031,23000,1501958,132,1.0,1979,,,3/18/1997 0:00,475,475,,,,,"Track Type Tractor, Dozer - 75.0 to 85.0 Horsepower",Texas,TTT,Track Type Tractors,,OROPS,,,,,Standard,,,,,,2 Valve,,Multi Shank,,,,,,,,,,,,,,None or Unspecified,PAT,None or Unspecified,,
6751,1255034,21000,1258428,132,1.0,1979,,,3/3/1998 0:00,475,475,,,,,"Track Type Tractor, Dozer - 75.0 to 85.0 Horsepower",Wisconsin,TTT,Track Type Tractors,,OROPS,,,,,Standard,,,,,,2 Valve,,None or Unspecified,,,,,,,,,,,,,,None or Unspecified,None or Unspecified,None or Unspecified,,
6751,1255036,10500,1094934,132,1.0,1979,,,3/26/2002 0:00,475,475,,,,,"Track Type Tractor, Dozer - 75.0 to 85.0 Horsepower",Washington,TTT,Track Type Tractors,,OROPS,,,,,Standard,,,,,,2 Valve,,None or Unspecified,,,,,,,,,,,,,,None or Unspecified,None or Unspecified,None or Unspecified,,
6751,1255038,11500,1350506,132,1.0,1979,,,4/4/1996 0:00,475,475,,,,,"Track Type Tractor, Dozer - 75.0 to 85.0 Horsepower",Georgia,TTT,Track Type Tractors,,OROPS,,,,,Standard,,,,,,2 Valve,,None or Unspecified,,,,,,,,,,,,,,None or Unspecified,None or Unspecified,None or Unspecified,,
6751,1255040,16500,1453766,132,4.0,1000,,,2/9/1995 0:00,475,475,,,,,"Track Type Tractor, Dozer - 75.0 to 85.0 Horsepower",Florida,TTT,Track Type Tractors,,OROPS,,,,,Standard,,,,,,2 Valve,,None or Unspecified,,,,,,,,,,,,,,None or Unspecified,None or Unspecified,None or Unspecified,,
6751,1255041,21000,1453766,132,14.0,1979,,,4/7/1999 0:00,475,475,,,,,"Track Type Tractor, Dozer - 75.0 to 85.0 Horsepower",Indiana,TTT,Track Type Tractors,,OROPS,,,,,Standard,,,,,,2 Valve,,None or Unspecified,,,,,,,,,,,,,,None or Unspecified,None or Unspecified,None or Unspecified,,
6751,1255043,9000,1049294,132,1.0,1000,,,2/28/2003 0:00,475,475,,,,,"Track Type Tractor, Dozer - 75.0 to 85.0 Horsepower",Texas,TTT,Track Type Tractors,,OROPS,,,,,Standard,,,,,,2 Valve,,None or Unspecified,,,,,,,,,,,,,,None or Unspecified,None or Unspecified,None or Unspecified,,
6751,1255044,24000,1130269,132,1.0,1000,,,4/20/1995 0:00,475,475,,,,,"Track Type Tractor, Dozer - 75.0 to 85.0 Horsepower",Georgia,TTT,Track Type Tractors,,OROPS,,,,,Standard,,,,,,2 Valve,,None or Unspecified,,,,,,,,,,,,,,None or Unspecified,None or Unspecified,None or Unspecified,,
6751,1255045,24000,1503063,132,1.0,1000,,,4/20/1995 0:00,475,475,,,,,"Track Type Tractor, Dozer - 75.0 to 85.0 Horsepower",Georgia,TTT,Track Type Tractors,,OROPS,,,,,Standard,,,,,,2 Valve,,None or Unspecified,,,,,,,,,,,,,,None or Unspecified,None or Unspecified,None or Unspecified,,
6751,1255085,8000,1168752,132,1.0,1980,,,4/9/2002 0:00,475,475,,,,,"Track Type Tractor, Dozer - 75.0 to 85.0 Horsepower",Georgia,TTT,Track Type Tractors,,OROPS,,,,,Standard,,,,,,2 Valve,,None or Unspecified,,,,,,,,,,,,,,None or Unspecified,None or Unspecified,None or Unspecified,,
6751,1255086,8000,1530634,132,1.0,1980,,,4/9/2002 0:00,475,475,,,,,"Track Type Tractor, Dozer - 75.0 to 85.0 Horsepower",Georgia,TTT,Track Type Tractors,,OROPS,,,,,Standard,,,,,,2 Valve,,None or Unspecified,,,,,,,,,,,,,,None or Unspecified,None or Unspecified,None or Unspecified,,
6751,1255088,16500,1353671,132,18.0,1984,,,5/20/1995 0:00,475,475,,,,,"Track Type Tractor, Dozer - 75.0 to 85.0 Horsepower",Oklahoma,TTT,Track Type Tractors,,OROPS,,,,,Powershift,,,,,,2 Valve,,None or Unspecified,,,,,,,,,,,,,,None or Unspecified,None or Unspecified,None or Unspecified,,
6751,1255093,11500,1244765,132,1.0,1980,,,4/4/1996 0:00,475,475,,,,,"Track Type Tractor, Dozer - 75.0 to 85.0 Horsepower",Georgia,TTT,Track Type Tractors,,OROPS,,,,,Standard,,,,,,2 Valve,,None or Unspecified,,,,,,,,,,,,,,None or Unspecified,None or Unspecified,None or Unspecified,,
6751,1255094,10000,1301371,132,8.0,1981,,,5/29/2002 0:00,475,475,,,,,"Track Type Tractor, Dozer - 75.0 to 85.0 Horsepower",Mississippi,TTT,Track Type Tractors,,OROPS,,,,,Standard,,,,,,2 Valve,,None or Unspecified,,,,,,,,,,,,,,None or Unspecified,None or Unspecified,None or Unspecified,,
6751,1255095,8000,1283148,132,1.0,1981,,,4/9/2002 0:00,475,475,,,,,"Track Type Tractor, Dozer - 75.0 to 85.0 Horsepower",Georgia,TTT,Track Type Tractors,,OROPS,,,,,Standard,,,,,,2 Valve,,None or Unspecified,,,,,,,,,,,,,,None or Unspecified,None or Unspecified,None or Unspecified,,
6751,1269398,8000,1186741,132,99.0,1973,,,6/4/2002 0:00,475,475,,,,,"Track Type Tractor, Dozer - 75.0 to 85.0 Horsepower",Missouri,TTT,Track Type Tractors,,OROPS,,,,,Standard,,,,,,2 Valve,,None or Unspecified,,,,,,,,,,,,,,None or Unspecified,None or Unspecified,None or Unspecified,,
6751,1275977,8000,1320598,132,1.0,1000,,,9/24/2004 0:00,475,475,,,,,"Track Type Tractor, Dozer - 75.0 to 85.0 Horsepower",Minnesota,TTT,Track Type Tractors,,OROPS,,,,,Standard,,,,,,2 Valve,,None or Unspecified,,,,,,,,,,,,,,None or Unspecified,None or Unspecified,None or Unspecified,,
