ModelID,SalesID,SalePrice,MachineID,datasource,auctioneerID,YearMade,MachineHoursCurrentMeter,UsageBand,saledate,fiModelDesc,fiBaseModel,fiSecondaryDesc,fiModelSeries,fiModelDescriptor,ProductSize,fiProductClassDesc,state,ProductGroup,ProductGroupDesc,Drive_System,Enclosure,Forks,Pad_Type,Ride_Control,Stick,Transmission,Turbocharged,Blade_Extension,Blade_Width,Enclosure_Type,Engine_Horsepower,Hydraulics,Pushblock,Ripper,Scarifier,Tip_Control,Tire_Size,Coupler,Coupler_System,Grouser_Tracks,Hydraulics_Flow,Track_Type,Undercarriage_Pad_Width,Stick_Length,Thumb,Pattern_Changer,Grouser_Type,Backhoe_Mounting,Blade_Type,Travel_Controls,Differential_Type,Steering_Controls
6752,1250415,22000,1309748,132,1.0,1988,,,10/3/1991 0:00,480,480,,,,,Backhoe Loader - 0.0 to 14.0 Ft Standard Digging Depth,Florida,BL,Backhoe Loaders,Two Wheel Drive,OROPS,None or Unspecified,None or Unspecified,No,Extended,Standard,None or Unspecified,,,,,,,,,,,,,,,,,,,,,,,,,
6752,1251395,11500,1506041,132,4.0,1985,1528.0,Low,10/7/1992 0:00,480,480,,,,,Backhoe Loader - 0.0 to 14.0 Ft Standard Digging Depth,Florida,BL,Backhoe Loaders,Two Wheel Drive,OROPS,None or Unspecified,None or Unspecified,No,Extended,Standard,None or Unspecified,,,,,,,,,,,,,,,,,,,,,,,,,
6752,1251399,10000,1394739,132,1.0,1985,,,2/22/1990 0:00,480,480,,,,,Backhoe Loader - 0.0 to 14.0 Ft Standard Digging Depth,Arizona,BL,Backhoe Loaders,Two Wheel Drive,OROPS,None or Unspecified,None or Unspecified,No,Standard,Standard,None or Unspecified,,,,,,,,,,,,,,,,,,,,,,,,,
6752,1251405,8500,1186884,132,1.0,1985,,,9/26/1991 0:00,480,480,,,,,Backhoe Loader - 0.0 to 14.0 Ft Standard Digging Depth,Arizona,BL,Backhoe Loaders,Two Wheel Drive,OROPS,None or Unspecified,None or Unspecified,No,Standard,Standard,None or Unspecified,,,,,,,,,,,,,,,,,,,,,,,,,
6752,1251407,8000,1356396,132,1.0,1985,,,12/6/1991 0:00,480,480,,,,,Backhoe Loader - 0.0 to 14.0 Ft Standard Digging Depth,Arizona,BL,Backhoe Loaders,Two Wheel Drive,OROPS,None or Unspecified,None or Unspecified,No,Standard,Standard,None or Unspecified,,,,,,,,,,,,,,,,,,,,,,,,,
6752,1251408,11000,1356396,132,1.0,1985,,,5/11/1989 0:00,480,480,,,,,Backhoe Loader - 0.0 to 14.0 Ft Standard Digging Depth,Arizona,BL,Backhoe Loaders,Two Wheel Drive,OROPS,None or Unspecified,None or Unspecified,No,Standard,Standard,None or Unspecified,,,,,,,,,,,,,,,,,,,,,,,,,
6752,1251416,9100,1392443,132,4.0,1985,,,4/15/1992 0:00,480,480,,,,,Backhoe Loader - 0.0 to 14.0 Ft Standard Digging Depth,North Carolina,BL,Backhoe Loaders,Two Wheel Drive,OROPS,None or Unspecified,None or Unspecified,No,Standard,Standard,None or Unspecified,,,,,,,,,,,,,,,,,,,,,,,,,
6752,1251417,12000,1207536,132,4.0,1985,,,2/5/1991 0:00,480,480,,,,,Backhoe Loader - 0.0 to 14.0 Ft Standard Digging Depth,Florida,BL,Backhoe Loaders,Two Wheel Drive,OROPS,None or Unspecified,None or Unspecified,No,Standard,Standard,None or Unspecified,,,,,,,,,,,,,,,,,,,,,,,,,
6752,1251426,9500,1207055,132,99.0,1985,,,4/17/1999 0:00,480,480,,,,,Backhoe Loader - 0.0 to 14.0 Ft Standard Digging Depth,Illinois,BL,Backhoe Loaders,Two Wheel Drive,EROPS,None or Unspecified,None or Unspecified,No,Standard,Powershuttle,None or Unspecified,,,,,,,,,,,,,,,,,,,,,,,,,
6752,1251427,12500,1207055,132,1.0,1985,,,8/22/1989 0:00,480,480,,,,,Backhoe Loader - 0.0 to 14.0 Ft Standard Digging Depth,Colorado,BL,Backhoe Loaders,Two Wheel Drive,EROPS,None or Unspecified,None or Unspecified,No,Standard,Powershuttle,None or Unspecified,,,,,,,,,,,,,,,,,,,,,,,,,
6752,1251434,8750,1288757,132,6.0,1985,,,12/10/1990 0:00,480,480,,,,,Backhoe Loader - 0.0 to 14.0 Ft Standard Digging Depth,Kentucky,BL,Backhoe Loaders,Two Wheel Drive,OROPS,None or Unspecified,None or Unspecified,No,Standard,Standard,None or Unspecified,,,,,,,,,,,,,,,,,,,,,,,,,
6752,1251437,9500,1084755,132,1.0,1985,,,3/5/1991 0:00,480,480,,,,,Backhoe Loader - 0.0 to 14.0 Ft Standard Digging Depth,Arizona,BL,Backhoe Loaders,Two Wheel Drive,OROPS,None or Unspecified,None or Unspecified,No,Standard,Standard,None or Unspecified,,,,,,,,,,,,,,,,,,,,,,,,,
6752,1251438,11500,1551578,132,1.0,1985,,,4/15/1993 0:00,480,480,,,,,Backhoe Loader - 0.0 to 14.0 Ft Standard Digging Depth,Texas,BL,Backhoe Loaders,Two Wheel Drive,OROPS,None or Unspecified,None or Unspecified,No,Standard,Standard,None or Unspecified,,,,,,,,,,,,,,,,,,,,,,,,,
6752,1251439,10500,1185894,132,1.0,1985,,,3/5/1991 0:00,480,480,,,,,Backhoe Loader - 0.0 to 14.0 Ft Standard Digging Depth,Arizona,BL,Backhoe Loaders,Two Wheel Drive,OROPS,None or Unspecified,None or Unspecified,No,Standard,Standard,None or Unspecified,,,,,,,,,,,,,,,,,,,,,,,,,
6752,1251444,13750,1500085,132,6.0,1988,,,2/1/1990 0:00,480,480,,,,,Backhoe Loader - 0.0 to 14.0 Ft Standard Digging Depth,Texas,BL,Backhoe Loaders,Two Wheel Drive,OROPS,None or Unspecified,None or Unspecified,No,Standard,Standard,None or Unspecified,,,,,,,,,,,,,,,,,,,,,,,,,
6752,1251445,11300,1495714,132,4.0,1985,,,4/15/1992 0:00,480,480,,,,,Backhoe Loader - 0.0 to 14.0 Ft Standard Digging Depth,North Carolina,BL,Backhoe Loaders,Two Wheel Drive,OROPS,None or Unspecified,None or Unspecified,No,Standard,Standard,None or Unspecified,,,,,,,,,,,,,,,,,,,,,,,,,
6752,1251449,11750,1529541,132,2.0,1985,,,1/23/1993 0:00,480,480,,,,,Backhoe Loader - 0.0 to 14.0 Ft Standard Digging Depth,New York,BL,Backhoe Loaders,Two Wheel Drive,OROPS,None or Unspecified,None or Unspecified,No,Standard,Standard,None or Unspecified,,,,,,,,,,,,,,,,,,,,,,,,,
6752,1251454,11000,1529213,132,19.0,1985,,,5/13/1992 0:00,480,480,,,,,Backhoe Loader - 0.0 to 14.0 Ft Standard Digging Depth,California,BL,Backhoe Loaders,Two Wheel Drive,OROPS,None or Unspecified,None or Unspecified,No,Standard,Standard,None or Unspecified,,,,,,,,,,,,,,,,,,,,,,,,,
6752,1251459,10500,1079405,132,1.0,1985,,,3/5/1991 0:00,480,480,,,,,Backhoe Loader - 0.0 to 14.0 Ft Standard Digging Depth,Arizona,BL,Backhoe Loaders,Two Wheel Drive,OROPS,None or Unspecified,None or Unspecified,No,Standard,Standard,None or Unspecified,,,,,,,,,,,,,,,,,,,,,,,,,
6752,1251460,10500,1535628,132,1.0,1985,,,3/5/1991 0:00,480,480,,,,,Backhoe Loader - 0.0 to 14.0 Ft Standard Digging Depth,Arizona,BL,Backhoe Loaders,Two Wheel Drive,OROPS,None or Unspecified,None or Unspecified,No,Standard,Standard,None or Unspecified,,,,,,,,,,,,,,,,,,,,,,,,,
6752,1251461,9000,1149993,132,25.0,1985,,,10/23/1993 0:00,480,480,,,,,Backhoe Loader - 0.0 to 14.0 Ft Standard Digging Depth,California,BL,Backhoe Loaders,Two Wheel Drive,OROPS,None or Unspecified,None or Unspecified,No,Standard,Standard,None or Unspecified,,,,,,,,,,,,,,,,,,,,,,,,,
6752,1251462,9750,1501526,132,11.0,1985,,,11/11/1993 0:00,480,480,,,,,Backhoe Loader - 0.0 to 14.0 Ft Standard Digging Depth,Mississippi,BL,Backhoe Loaders,Two Wheel Drive,OROPS,None or Unspecified,None or Unspecified,No,Standard,Standard,None or Unspecified,,,,,,,,,,,,,,,,,,,,,,,,,
6752,1251466,10500,1404699,132,1.0,1985,,,3/5/1991 0:00,480,480,,,,,Backhoe Loader - 0.0 to 14.0 Ft Standard Digging Depth,Arizona,BL,Backhoe Loaders,Two Wheel Drive,OROPS,None or Unspecified,None or Unspecified,No,Standard,Standard,None or Unspecified,,,,,,,,,,,,,,,,,,,,,,,,,
6752,1251467,9500,1461407,132,1.0,1985,,,3/5/1991 0:00,480,480,,,,,Backhoe Loader - 0.0 to 14.0 Ft Standard Digging Depth,Arizona,BL,Backhoe Loaders,Two Wheel Drive,OROPS,None or Unspecified,None or Unspecified,No,Standard,Standard,None or Unspecified,,,,,,,,,,,,,,,,,,,,,,,,,
6752,1251468,8500,1281397,132,25.0,1985,,,10/23/1993 0:00,480,480,,,,,Backhoe Loader - 0.0 to 14.0 Ft Standard Digging Depth,California,BL,Backhoe Loaders,Two Wheel Drive,OROPS,None or Unspecified,None or Unspecified,No,Standard,Standard,None or Unspecified,,,,,,,,,,,,,,,,,,,,,,,,,
6752,1251475,9500,1262084,132,1.0,1985,,,9/20/1990 0:00,480,480,,,,,Backhoe Loader - 0.0 to 14.0 Ft Standard Digging Depth,Arizona,BL,Backhoe Loaders,Two Wheel Drive,OROPS,None or Unspecified,None or Unspecified,No,Standard,Standard,None or Unspecified,,,,,,,,,,,,,,,,,,,,,,,,,
6752,1251478,13000,1391628,132,4.0,1985,2475.0,Low,2/1/1993 0:00,480,480,,,,,Backhoe Loader - 0.0 to 14.0 Ft Standard Digging Depth,Florida,BL,Backhoe Loaders,Two Wheel Drive,OROPS,None or Unspecified,None or Unspecified,No,Standard,Standard,None or Unspecified,,,,,,,,,,,,,,,,,,,,,,,,,
6752,1251480,9000,1335109,132,1.0,1985,,,9/14/1993 0:00,480,480,,,,,Backhoe Loader - 0.0 to 14.0 Ft Standard Digging Depth,Arizona,BL,Backhoe Loaders,Two Wheel Drive,OROPS,None or Unspecified,None or Unspecified,No,Standard,Standard,None or Unspecified,,,,,,,,,,,,,,,,,,,,,,,,,
6752,1251481,9500,1367111,132,1.0,1985,,,12/9/1994 0:00,480,480,,,,,Backhoe Loader - 0.0 to 14.0 Ft Standard Digging Depth,California,BL,Backhoe Loaders,Two Wheel Drive,OROPS,None or Unspecified,None or Unspecified,No,Standard,Standard,None or Unspecified,,,,,,,,,,,,,,,,,,,,,,,,,
6752,1251487,15000,1267900,132,1.0,1986,,,12/3/1992 0:00,480,480,,,,,Backhoe Loader - 0.0 to 14.0 Ft Standard Digging Depth,Washington,BL,Backhoe Loaders,Two Wheel Drive,OROPS,None or Unspecified,None or Unspecified,No,Standard,Standard,None or Unspecified,,,,,,,,,,,,,,,,,,,,,,,,,
6752,1251495,14750,1320102,132,2.0,1986,,,8/28/1993 0:00,480,480,,,,,Backhoe Loader - 0.0 to 14.0 Ft Standard Digging Depth,Maine,BL,Backhoe Loaders,Two Wheel Drive,EROPS,None or Unspecified,None or Unspecified,No,Standard,Standard,None or Unspecified,,,,,,,,,,,,,,,,,,,,,,,,,
6752,1251505,13250,1156238,132,6.0,1987,,,3/26/1991 0:00,480,480,,,,,Backhoe Loader - 0.0 to 14.0 Ft Standard Digging Depth,Kentucky,BL,Backhoe Loaders,Two Wheel Drive,OROPS,None or Unspecified,None or Unspecified,No,Standard,Standard,None or Unspecified,,,,,,,,,,,,,,,,,,,,,,,,,
6752,1251506,14000,1227650,132,6.0,1987,,,3/26/1991 0:00,480,480,,,,,Backhoe Loader - 0.0 to 14.0 Ft Standard Digging Depth,Kentucky,BL,Backhoe Loaders,Two Wheel Drive,OROPS,None or Unspecified,None or Unspecified,No,Standard,Standard,None or Unspecified,,,,,,,,,,,,,,,,,,,,,,,,,
6752,1251507,14750,1393259,132,2.0,1986,,,8/28/1993 0:00,480,480,,,,,Backhoe Loader - 0.0 to 14.0 Ft Standard Digging Depth,Maine,BL,Backhoe Loaders,Two Wheel Drive,EROPS,None or Unspecified,None or Unspecified,No,Standard,Standard,None or Unspecified,,,,,,,,,,,,,,,,,,,,,,,,,
6752,1251511,16000,1198799,132,1.0,1986,,,12/3/1992 0:00,480,480,,,,,Backhoe Loader - 0.0 to 14.0 Ft Standard Digging Depth,Washington,BL,Backhoe Loaders,Two Wheel Drive,OROPS,None or Unspecified,None or Unspecified,No,Standard,Standard,None or Unspecified,,,,,,,,,,,,,,,,,,,,,,,,,
6752,1251516,9000,1184434,132,4.0,1986,,,11/14/1991 0:00,480,480,,,,,Backhoe Loader - 0.0 to 14.0 Ft Standard Digging Depth,Delaware,BL,Backhoe Loaders,Two Wheel Drive,OROPS,None or Unspecified,None or Unspecified,No,Standard,Standard,None or Unspecified,,,,,,,,,,,,,,,,,,,,,,,,,
6752,1251517,13500,1076946,132,6.0,1986,1300.0,Low,12/17/1991 0:00,480,480,,,,,Backhoe Loader - 0.0 to 14.0 Ft Standard Digging Depth,Kentucky,BL,Backhoe Loaders,Two Wheel Drive,OROPS,None or Unspecified,None or Unspecified,No,Standard,Standard,None or Unspecified,,,,,,,,,,,,,,,,,,,,,,,,,
6752,1251527,14500,1413758,132,1.0,1986,,,3/25/1993 0:00,480,480,,,,,Backhoe Loader - 0.0 to 14.0 Ft Standard Digging Depth,Washington,BL,Backhoe Loaders,Two Wheel Drive,OROPS,None or Unspecified,None or Unspecified,No,Standard,Standard,None or Unspecified,,,,,,,,,,,,,,,,,,,,,,,,,
6752,1251528,13700,1463992,132,2.0,1986,,,11/21/1992 0:00,480,480,,,,,Backhoe Loader - 0.0 to 14.0 Ft Standard Digging Depth,Ohio,BL,Backhoe Loaders,Two Wheel Drive,OROPS,None or Unspecified,None or Unspecified,No,Standard,Standard,None or Unspecified,,,,,,,,,,,,,,,,,,,,,,,,,
6752,1251529,16000,1103573,132,4.0,1986,,,4/21/1989 0:00,480,480,,,,,Backhoe Loader - 0.0 to 14.0 Ft Standard Digging Depth,Louisiana,BL,Backhoe Loaders,Two Wheel Drive,OROPS,None or Unspecified,None or Unspecified,No,Standard,Standard,None or Unspecified,,,,,,,,,,,,,,,,,,,,,,,,,
6752,1251543,12350,1198857,132,2.0,1986,,,11/21/1992 0:00,480,480,,,,,Backhoe Loader - 0.0 to 14.0 Ft Standard Digging Depth,Ohio,BL,Backhoe Loaders,Two Wheel Drive,EROPS,None or Unspecified,None or Unspecified,No,Standard,Standard,None or Unspecified,,,,,,,,,,,,,,,,,,,,,,,,,
6752,1251572,12500,1221320,132,2.0,1986,,,6/20/1992 0:00,480,480,,,,,Backhoe Loader - 0.0 to 14.0 Ft Standard Digging Depth,Indiana,BL,Backhoe Loaders,Two Wheel Drive,EROPS,None or Unspecified,None or Unspecified,No,Standard,Standard,None or Unspecified,,,,,,,,,,,,,,,,,,,,,,,,,
6752,1251576,10000,1121813,132,1.0,1987,,,6/21/1991 0:00,480,480,,,,,Backhoe Loader - 0.0 to 14.0 Ft Standard Digging Depth,Colorado,BL,Backhoe Loaders,Two Wheel Drive,OROPS,None or Unspecified,None or Unspecified,No,Standard,Standard,None or Unspecified,,,,,,,,,,,,,,,,,,,,,,,,,
6752,1251581,13000,1422629,132,19.0,1988,,,5/13/1992 0:00,480,480,,,,,Backhoe Loader - 0.0 to 14.0 Ft Standard Digging Depth,California,BL,Backhoe Loaders,Two Wheel Drive,OROPS,None or Unspecified,None or Unspecified,No,Standard,Standard,None or Unspecified,,,,,,,,,,,,,,,,,,,,,,,,,
6752,1251584,10500,1434289,132,1.0,1987,,,6/4/1991 0:00,480,480,,,,,Backhoe Loader - 0.0 to 14.0 Ft Standard Digging Depth,Oklahoma,BL,Backhoe Loaders,Two Wheel Drive,OROPS,None or Unspecified,None or Unspecified,No,Standard,Standard,None or Unspecified,,,,,,,,,,,,,,,,,,,,,,,,,
6752,1251588,11000,1189108,132,1.0,1987,,,9/18/1990 0:00,480,480,,,,,Backhoe Loader - 0.0 to 14.0 Ft Standard Digging Depth,California,BL,Backhoe Loaders,Two Wheel Drive,OROPS,None or Unspecified,None or Unspecified,No,Standard,Standard,None or Unspecified,,,,,,,,,,,,,,,,,,,,,,,,,
6752,1251594,10500,1500539,132,1.0,1987,,,9/18/1990 0:00,480,480,,,,,Backhoe Loader - 0.0 to 14.0 Ft Standard Digging Depth,California,BL,Backhoe Loaders,Two Wheel Drive,OROPS,None or Unspecified,None or Unspecified,No,Standard,Standard,None or Unspecified,,,,,,,,,,,,,,,,,,,,,,,,,
6752,1251595,11000,1077828,132,1.0,1987,,,9/18/1990 0:00,480,480,,,,,Backhoe Loader - 0.0 to 14.0 Ft Standard Digging Depth,California,BL,Backhoe Loaders,Two Wheel Drive,OROPS,None or Unspecified,None or Unspecified,No,Standard,Standard,None or Unspecified,,,,,,,,,,,,,,,,,,,,,,,,,
6752,1251596,13000,1149684,132,11.0,1987,,,4/7/1993 0:00,480,480,,,,,Backhoe Loader - 0.0 to 14.0 Ft Standard Digging Depth,Mississippi,BL,Backhoe Loaders,Two Wheel Drive,OROPS,None or Unspecified,None or Unspecified,No,Standard,Standard,None or Unspecified,,,,,,,,,,,,,,,,,,,,,,,,,
6752,1251601,12500,1085934,132,2.0,1987,,,10/24/1992 0:00,480,480,,,,,Backhoe Loader - 0.0 to 14.0 Ft Standard Digging Depth,New Hampshire,BL,Backhoe Loaders,Four Wheel Drive,EROPS,None or Unspecified,None or Unspecified,No,Standard,Standard,None or Unspecified,,,,,,,,,,,,,,,,,,,,,,,,,
6752,1251602,19500,1440935,132,18.0,1987,,,4/8/1989 0:00,480,480,,,,,Backhoe Loader - 0.0 to 14.0 Ft Standard Digging Depth,Pennsylvania,BL,Backhoe Loaders,Two Wheel Drive,EROPS,None or Unspecified,None or Unspecified,No,Standard,Powershuttle,None or Unspecified,,,,,,,,,,,,,,,,,,,,,,,,,
6752,1251610,17000,1351834,132,18.0,1988,,,3/6/1990 0:00,480,480,,,,,Backhoe Loader - 0.0 to 14.0 Ft Standard Digging Depth,Pennsylvania,BL,Backhoe Loaders,Two Wheel Drive,OROPS,None or Unspecified,None or Unspecified,No,Standard,Powershuttle,None or Unspecified,,,,,,,,,,,,,,,,,,,,,,,,,
6752,1251623,11500,1421246,132,1.0,1987,,,5/23/1991 0:00,480,480,,,,,Backhoe Loader - 0.0 to 14.0 Ft Standard Digging Depth,California,BL,Backhoe Loaders,Two Wheel Drive,OROPS,None or Unspecified,None or Unspecified,No,Standard,Standard,None or Unspecified,,,,,,,,,,,,,,,,,,,,,,,,,
6752,1251629,14500,1435483,132,10.0,1987,,,4/21/1993 0:00,480,480,,,,,Backhoe Loader - 0.0 to 14.0 Ft Standard Digging Depth,Louisiana,BL,Backhoe Loaders,Two Wheel Drive,OROPS,None or Unspecified,None or Unspecified,No,Standard,Standard,None or Unspecified,,,,,,,,,,,,,,,,,,,,,,,,,
6752,1251630,13500,1527539,132,10.0,1987,,,2/25/1993 0:00,480,480,,,,,Backhoe Loader - 0.0 to 14.0 Ft Standard Digging Depth,Alabama,BL,Backhoe Loaders,Two Wheel Drive,OROPS,None or Unspecified,None or Unspecified,No,Standard,Standard,None or Unspecified,,,,,,,,,,,,,,,,,,,,,,,,,
6752,1251631,14500,1527539,132,10.0,1987,,,4/21/1993 0:00,480,480,,,,,Backhoe Loader - 0.0 to 14.0 Ft Standard Digging Depth,Louisiana,BL,Backhoe Loaders,Two Wheel Drive,OROPS,None or Unspecified,None or Unspecified,No,Standard,Standard,None or Unspecified,,,,,,,,,,,,,,,,,,,,,,,,,
6752,1251632,12000,1386974,132,10.0,1987,,,8/26/1993 0:00,480,480,,,,,Backhoe Loader - 0.0 to 14.0 Ft Standard Digging Depth,Louisiana,BL,Backhoe Loaders,Two Wheel Drive,OROPS,None or Unspecified,None or Unspecified,No,Standard,Standard,None or Unspecified,,,,,,,,,,,,,,,,,,,,,,,,,
6752,1251633,15500,1165157,132,10.0,1987,,,4/21/1993 0:00,480,480,,,,,Backhoe Loader - 0.0 to 14.0 Ft Standard Digging Depth,Louisiana,BL,Backhoe Loaders,Two Wheel Drive,OROPS,None or Unspecified,None or Unspecified,No,Standard,Standard,None or Unspecified,,,,,,,,,,,,,,,,,,,,,,,,,
6752,1251637,13000,1075446,132,1.0,1988,,,9/20/1990 0:00,480,480,,,,,Backhoe Loader - 0.0 to 14.0 Ft Standard Digging Depth,Arizona,BL,Backhoe Loaders,Two Wheel Drive,OROPS,None or Unspecified,None or Unspecified,No,Standard,Standard,None or Unspecified,,,,,,,,,,,,,,,,,,,,,,,,,
6752,1251638,8500,1233451,132,1.0,1987,,,2/18/1992 0:00,480,480,,,,,Backhoe Loader - 0.0 to 14.0 Ft Standard Digging Depth,California,BL,Backhoe Loaders,Two Wheel Drive,OROPS,None or Unspecified,None or Unspecified,No,Standard,Standard,None or Unspecified,,,,,,,,,,,,,,,,,,,,,,,,,
6752,1251647,10500,1136692,132,1.0,1987,,,9/14/1993 0:00,480,480,,,,,Backhoe Loader - 0.0 to 14.0 Ft Standard Digging Depth,Arizona,BL,Backhoe Loaders,Two Wheel Drive,OROPS,None or Unspecified,None or Unspecified,No,Standard,Standard,None or Unspecified,,,,,,,,,,,,,,,,,,,,,,,,,
6752,1251648,14000,1543362,132,1.0,1987,,,5/8/1990 0:00,480,480,,,,,Backhoe Loader - 0.0 to 14.0 Ft Standard Digging Depth,Arizona,BL,Backhoe Loaders,Two Wheel Drive,OROPS,None or Unspecified,None or Unspecified,No,Standard,Standard,None or Unspecified,,,,,,,,,,,,,,,,,,,,,,,,,
6752,1251661,10100,1129618,132,4.0,1985,,,4/15/1992 0:00,480,480,,,,,Backhoe Loader - 0.0 to 14.0 Ft Standard Digging Depth,North Carolina,BL,Backhoe Loaders,Two Wheel Drive,OROPS,None or Unspecified,None or Unspecified,No,Standard,Standard,None or Unspecified,,,,,,,,,,,,,,,,,,,,,,,,,
6752,1251671,19500,1538807,132,4.0,1986,400.0,Low,2/1/1989 0:00,480,480,,,,,Backhoe Loader - 0.0 to 14.0 Ft Standard Digging Depth,Florida,BL,Backhoe Loaders,Two Wheel Drive,OROPS,None or Unspecified,None or Unspecified,No,Standard,Standard,None or Unspecified,,,,,,,,,,,,,,,,,,,,,,,,,
6752,1254698,11750,1101715,132,4.0,1986,3210.0,Medium,9/15/1992 0:00,480,480,,,,,Backhoe Loader - 0.0 to 14.0 Ft Standard Digging Depth,Ohio,BL,Backhoe Loaders,Two Wheel Drive,OROPS,None or Unspecified,Street,No,Standard,Standard,None or Unspecified,,,,,,,,,,,,,,,,,,,,,,,,,
6752,1255443,25000,1159014,132,10.0,1989,55.0,Low,4/30/1992 0:00,480,480,,,,,Backhoe Loader - 0.0 to 14.0 Ft Standard Digging Depth,Maine,BL,Backhoe Loaders,Four Wheel Drive,OROPS,None or Unspecified,None or Unspecified,No,Standard,Standard,None or Unspecified,,,,,,,,,,,,,,,,,,,,,,,,,
6752,1256957,12000,1164932,132,10.0,1987,,,8/26/1993 0:00,480,480,,,,,Backhoe Loader - 0.0 to 14.0 Ft Standard Digging Depth,Louisiana,BL,Backhoe Loaders,Two Wheel Drive,OROPS,None or Unspecified,None or Unspecified,No,Standard,Standard,None or Unspecified,,,,,,,,,,,,,,,,,,,,,,,,,
6752,1259584,8500,1256414,132,25.0,1984,,,10/23/1993 0:00,480,480,,,,,Backhoe Loader - 0.0 to 14.0 Ft Standard Digging Depth,California,BL,Backhoe Loaders,Two Wheel Drive,OROPS,None or Unspecified,None or Unspecified,No,Standard,Standard,None or Unspecified,,,,,,,,,,,,,,,,,,,,,,,,,
6752,1259648,9000,1530445,132,4.0,1977,,,2/1/1993 0:00,480,480,,,,,Backhoe Loader - 0.0 to 14.0 Ft Standard Digging Depth,Florida,BL,Backhoe Loaders,Two Wheel Drive,OROPS,None or Unspecified,None or Unspecified,No,Standard,Standard,None or Unspecified,,,,,,,,,,,,,,,,,,,,,,,,,
6752,1259652,8500,1235573,132,1.0,1977,,,6/11/1998 0:00,480,480,,,,,Backhoe Loader - 0.0 to 14.0 Ft Standard Digging Depth,Florida,BL,Backhoe Loaders,Two Wheel Drive,OROPS,None or Unspecified,None or Unspecified,No,Standard,Standard,None or Unspecified,,,,,,,,,,,,,,,,,,,,,,,,,
6752,1259654,10000,1504845,132,1.0,1978,,,10/4/1990 0:00,480,480,,,,,Backhoe Loader - 0.0 to 14.0 Ft Standard Digging Depth,Washington,BL,Backhoe Loaders,Two Wheel Drive,OROPS,None or Unspecified,None or Unspecified,No,Standard,Standard,None or Unspecified,,,,,,,,,,,,,,,,,,,,,,,,,
6752,1259657,9000,1150847,132,1.0,1978,,,8/24/1989 0:00,480,480,,,,,Backhoe Loader - 0.0 to 14.0 Ft Standard Digging Depth,California,BL,Backhoe Loaders,Two Wheel Drive,OROPS,None or Unspecified,None or Unspecified,No,Standard,Standard,None or Unspecified,,,,,,,,,,,,,,,,,,,,,,,,,
6752,1259659,8500,1400587,132,1.0,1977,,,4/2/1992 0:00,480,480,,,,,Backhoe Loader - 0.0 to 14.0 Ft Standard Digging Depth,Texas,BL,Backhoe Loaders,Two Wheel Drive,OROPS,None or Unspecified,None or Unspecified,No,Standard,Standard,None or Unspecified,,,,,,,,,,,,,,,,,,,,,,,,,
6752,1259660,8300,1395977,132,4.0,1978,,,4/15/1992 0:00,480,480,,,,,Backhoe Loader - 0.0 to 14.0 Ft Standard Digging Depth,North Carolina,BL,Backhoe Loaders,Two Wheel Drive,OROPS,None or Unspecified,None or Unspecified,No,Standard,Standard,None or Unspecified,,,,,,,,,,,,,,,,,,,,,,,,,
6752,1259661,8750,1111755,132,10.0,1978,,,4/30/1992 0:00,480,480,,,,,Backhoe Loader - 0.0 to 14.0 Ft Standard Digging Depth,Maine,BL,Backhoe Loaders,Two Wheel Drive,OROPS,None or Unspecified,None or Unspecified,No,Standard,Powershuttle,None or Unspecified,,,,,,,,,,,,,,,,,,,,,,,,,
6752,1260013,10500,1364662,132,1.0,1978,,,3/27/1990 0:00,480,480,,,,,Backhoe Loader - 0.0 to 14.0 Ft Standard Digging Depth,Colorado,BL,Backhoe Loaders,Two Wheel Drive,OROPS,None or Unspecified,None or Unspecified,No,Standard,Standard,None or Unspecified,,,,,,,,,,,,,,,,,,,,,,,,,
6752,1260015,11000,1298559,132,11.0,1978,,,6/24/1993 0:00,480,480,,,,,Backhoe Loader - 0.0 to 14.0 Ft Standard Digging Depth,Mississippi,BL,Backhoe Loaders,Two Wheel Drive,EROPS,None or Unspecified,None or Unspecified,No,Standard,Powershuttle,None or Unspecified,,,,,,,,,,,,,,,,,,,,,,,,,
6752,1260016,8500,1298559,132,18.0,1978,,,5/5/1993 0:00,480,480,,,,,Backhoe Loader - 0.0 to 14.0 Ft Standard Digging Depth,Pennsylvania,BL,Backhoe Loaders,Two Wheel Drive,EROPS,None or Unspecified,None or Unspecified,No,Standard,Powershuttle,None or Unspecified,,,,,,,,,,,,,,,,,,,,,,,,,
6752,1260021,8500,1267293,132,1.0,1979,,,2/20/1992 0:00,480,480,,,,,Backhoe Loader - 0.0 to 14.0 Ft Standard Digging Depth,Arizona,BL,Backhoe Loaders,Two Wheel Drive,OROPS,None or Unspecified,None or Unspecified,No,Standard,Standard,None or Unspecified,,,,,,,,,,,,,,,,,,,,,,,,,
6752,1260022,8000,1267293,132,1.0,1983,,,6/23/1992 0:00,480,480,,,,,Backhoe Loader - 0.0 to 14.0 Ft Standard Digging Depth,California,BL,Backhoe Loaders,Two Wheel Drive,OROPS,None or Unspecified,None or Unspecified,No,Standard,Standard,None or Unspecified,,,,,,,,,,,,,,,,,,,,,,,,,
6752,1260024,10000,1530463,132,18.0,1979,,,4/29/1989 0:00,480,480,,,,,Backhoe Loader - 0.0 to 14.0 Ft Standard Digging Depth,Pennsylvania,BL,Backhoe Loaders,Two Wheel Drive,OROPS,None or Unspecified,None or Unspecified,No,Standard,Powershuttle,None or Unspecified,,,,,,,,,,,,,,,,,,,,,,,,,
6752,1260025,8000,1137712,132,10.0,1979,,,10/30/1992 0:00,480,480,,,,,Backhoe Loader - 0.0 to 14.0 Ft Standard Digging Depth,Mississippi,BL,Backhoe Loaders,Two Wheel Drive,OROPS,None or Unspecified,None or Unspecified,No,Standard,Standard,None or Unspecified,,,,,,,,,,,,,,,,,,,,,,,,,
6752,1260027,8000,1325533,132,4.0,1978,,,4/15/1992 0:00,480,480,,,,,Backhoe Loader - 0.0 to 14.0 Ft Standard Digging Depth,North Carolina,BL,Backhoe Loaders,Two Wheel Drive,OROPS,None or Unspecified,None or Unspecified,No,Standard,Standard,None or Unspecified,,,,,,,,,,,,,,,,,,,,,,,,,
6752,1260028,8300,1295832,132,4.0,1978,,,4/15/1992 0:00,480,480,,,,,Backhoe Loader - 0.0 to 14.0 Ft Standard Digging Depth,North Carolina,BL,Backhoe Loaders,Two Wheel Drive,OROPS,None or Unspecified,None or Unspecified,No,Standard,Standard,None or Unspecified,,,,,,,,,,,,,,,,,,,,,,,,,
6752,1260434,7900,1370924,132,4.0,1979,,,4/15/1992 0:00,480,480,,,,,Backhoe Loader - 0.0 to 14.0 Ft Standard Digging Depth,North Carolina,BL,Backhoe Loaders,Two Wheel Drive,OROPS,None or Unspecified,None or Unspecified,No,Standard,Standard,None or Unspecified,,,,,,,,,,,,,,,,,,,,,,,,,
6752,1260435,7750,1170489,132,24.0,1980,,,3/24/1992 0:00,480,480,,,,,Backhoe Loader - 0.0 to 14.0 Ft Standard Digging Depth,Georgia,BL,Backhoe Loaders,Two Wheel Drive,OROPS,None or Unspecified,None or Unspecified,No,Standard,Standard,None or Unspecified,,,,,,,,,,,,,,,,,,,,,,,,,
6752,1260436,9000,1364345,132,1.0,1980,,,6/5/1990 0:00,480,480,,,,,Backhoe Loader - 0.0 to 14.0 Ft Standard Digging Depth,Minnesota,BL,Backhoe Loaders,Two Wheel Drive,OROPS,None or Unspecified,None or Unspecified,No,Standard,Standard,None or Unspecified,,,,,,,,,,,,,,,,,,,,,,,,,
6752,1260441,7800,1408447,132,24.0,1980,,,3/24/1992 0:00,480,480,,,,,Backhoe Loader - 0.0 to 14.0 Ft Standard Digging Depth,Georgia,BL,Backhoe Loaders,Two Wheel Drive,OROPS,None or Unspecified,None or Unspecified,No,Standard,Standard,None or Unspecified,,,,,,,,,,,,,,,,,,,,,,,,,
6752,1260443,8000,1468418,132,2.0,1980,,,6/26/1993 0:00,480,480,,,,,Backhoe Loader - 0.0 to 14.0 Ft Standard Digging Depth,New Jersey,BL,Backhoe Loaders,Two Wheel Drive,EROPS,None or Unspecified,None or Unspecified,No,Standard,Standard,None or Unspecified,,,,,,,,,,,,,,,,,,,,,,,,,
6752,1260444,7750,1153259,132,24.0,1980,,,3/24/1992 0:00,480,480,,,,,Backhoe Loader - 0.0 to 14.0 Ft Standard Digging Depth,Georgia,BL,Backhoe Loaders,Two Wheel Drive,OROPS,None or Unspecified,None or Unspecified,No,Standard,Standard,None or Unspecified,,,,,,,,,,,,,,,,,,,,,,,,,
6752,1260445,8400,1361632,132,4.0,1979,,,4/15/1992 0:00,480,480,,,,,Backhoe Loader - 0.0 to 14.0 Ft Standard Digging Depth,North Carolina,BL,Backhoe Loaders,Two Wheel Drive,OROPS,None or Unspecified,None or Unspecified,No,Standard,Standard,None or Unspecified,,,,,,,,,,,,,,,,,,,,,,,,,
6752,1260844,8250,1445918,132,1.0,1981,,,5/17/1990 0:00,480,480,,,,,Backhoe Loader - 0.0 to 14.0 Ft Standard Digging Depth,Arizona,BL,Backhoe Loaders,Two Wheel Drive,OROPS,None or Unspecified,None or Unspecified,No,Standard,Standard,None or Unspecified,,,,,,,,,,,,,,,,,,,,,,,,,
6752,1260845,8250,1085209,132,1.0,1981,,,5/17/1990 0:00,480,480,,,,,Backhoe Loader - 0.0 to 14.0 Ft Standard Digging Depth,Arizona,BL,Backhoe Loaders,Two Wheel Drive,OROPS,None or Unspecified,None or Unspecified,No,Standard,Standard,None or Unspecified,,,,,,,,,,,,,,,,,,,,,,,,,
6752,1260848,10000,1084559,132,1.0,1981,,,2/22/1990 0:00,480,480,,,,,Backhoe Loader - 0.0 to 14.0 Ft Standard Digging Depth,Arizona,BL,Backhoe Loaders,Two Wheel Drive,OROPS,None or Unspecified,None or Unspecified,No,Standard,Standard,None or Unspecified,,,,,,,,,,,,,,,,,,,,,,,,,
6752,1260849,8500,1084559,132,19.0,1981,,,3/25/1992 0:00,480,480,,,,,Backhoe Loader - 0.0 to 14.0 Ft Standard Digging Depth,Nevada,BL,Backhoe Loaders,Two Wheel Drive,OROPS,None or Unspecified,None or Unspecified,No,Standard,Standard,None or Unspecified,,,,,,,,,,,,,,,,,,,,,,,,,
6752,1260854,8250,1158112,132,1.0,1981,,,5/17/1990 0:00,480,480,,,,,Backhoe Loader - 0.0 to 14.0 Ft Standard Digging Depth,Arizona,BL,Backhoe Loaders,Two Wheel Drive,OROPS,None or Unspecified,None or Unspecified,No,Standard,Standard,None or Unspecified,,,,,,,,,,,,,,,,,,,,,,,,,
6752,1260856,8250,1410195,132,1.0,1983,,,5/17/1990 0:00,480,480,,,,,Backhoe Loader - 0.0 to 14.0 Ft Standard Digging Depth,Arizona,BL,Backhoe Loaders,Two Wheel Drive,OROPS,None or Unspecified,None or Unspecified,No,Standard,Standard,None or Unspecified,,,,,,,,,,,,,,,,,,,,,,,,,
6752,1260857,12500,1536066,132,1.0,1981,,,6/13/1989 0:00,480,480,,,,,Backhoe Loader - 0.0 to 14.0 Ft Standard Digging Depth,Illinois,BL,Backhoe Loaders,Two Wheel Drive,OROPS,None or Unspecified,None or Unspecified,No,Standard,Standard,None or Unspecified,,,,,,,,,,,,,,,,,,,,,,,,,
6752,1260858,10250,1105531,132,4.0,1981,,,2/1/1989 0:00,480,480,,,,,Backhoe Loader - 0.0 to 14.0 Ft Standard Digging Depth,Florida,BL,Backhoe Loaders,Two Wheel Drive,OROPS,None or Unspecified,None or Unspecified,No,Standard,Standard,None or Unspecified,,,,,,,,,,,,,,,,,,,,,,,,,
6752,1260859,8250,1245473,132,1.0,1981,,,5/17/1990 0:00,480,480,,,,,Backhoe Loader - 0.0 to 14.0 Ft Standard Digging Depth,Arizona,BL,Backhoe Loaders,Two Wheel Drive,OROPS,None or Unspecified,None or Unspecified,No,Standard,Standard,None or Unspecified,,,,,,,,,,,,,,,,,,,,,,,,,
6752,1260862,8250,1334164,132,1.0,1981,,,5/17/1990 0:00,480,480,,,,,Backhoe Loader - 0.0 to 14.0 Ft Standard Digging Depth,Arizona,BL,Backhoe Loaders,Two Wheel Drive,OROPS,None or Unspecified,None or Unspecified,No,Standard,Standard,None or Unspecified,,,,,,,,,,,,,,,,,,,,,,,,,
6752,1260865,8250,1218878,132,1.0,1981,,,5/17/1990 0:00,480,480,,,,,Backhoe Loader - 0.0 to 14.0 Ft Standard Digging Depth,Arizona,BL,Backhoe Loaders,Two Wheel Drive,OROPS,None or Unspecified,None or Unspecified,No,Standard,Standard,None or Unspecified,,,,,,,,,,,,,,,,,,,,,,,,,
6752,1260866,8500,1530534,132,1.0,1981,,,5/17/1990 0:00,480,480,,,,,Backhoe Loader - 0.0 to 14.0 Ft Standard Digging Depth,Arizona,BL,Backhoe Loaders,Two Wheel Drive,OROPS,None or Unspecified,None or Unspecified,No,Standard,Standard,None or Unspecified,,,,,,,,,,,,,,,,,,,,,,,,,
6752,1260867,9500,1239094,132,24.0,1984,,,3/24/1992 0:00,480,480,,,,,Backhoe Loader - 0.0 to 14.0 Ft Standard Digging Depth,Georgia,BL,Backhoe Loaders,Two Wheel Drive,OROPS,None or Unspecified,None or Unspecified,No,Standard,Standard,None or Unspecified,,,,,,,,,,,,,,,,,,,,,,,,,
6752,1260869,8250,1188911,132,1.0,1981,,,5/17/1990 0:00,480,480,,,,,Backhoe Loader - 0.0 to 14.0 Ft Standard Digging Depth,Arizona,BL,Backhoe Loaders,Two Wheel Drive,OROPS,None or Unspecified,None or Unspecified,No,Standard,Standard,None or Unspecified,,,,,,,,,,,,,,,,,,,,,,,,,
6752,1260870,11000,1314688,132,1.0,1981,,,5/11/1989 0:00,480,480,,,,,Backhoe Loader - 0.0 to 14.0 Ft Standard Digging Depth,Arizona,BL,Backhoe Loaders,Two Wheel Drive,OROPS,None or Unspecified,None or Unspecified,No,Standard,Standard,None or Unspecified,,,,,,,,,,,,,,,,,,,,,,,,,
6752,1260871,10000,1215336,132,1.0,1981,,,5/11/1989 0:00,480,480,,,,,Backhoe Loader - 0.0 to 14.0 Ft Standard Digging Depth,Arizona,BL,Backhoe Loaders,Two Wheel Drive,OROPS,None or Unspecified,None or Unspecified,No,Standard,Standard,None or Unspecified,,,,,,,,,,,,,,,,,,,,,,,,,
6752,1260877,8750,1255328,132,1.0,1981,,,5/17/1990 0:00,480,480,,,,,Backhoe Loader - 0.0 to 14.0 Ft Standard Digging Depth,Arizona,BL,Backhoe Loaders,Two Wheel Drive,OROPS,None or Unspecified,None or Unspecified,No,Standard,Standard,None or Unspecified,,,,,,,,,,,,,,,,,,,,,,,,,
6752,1260880,11500,1238565,132,1.0,1981,,,6/13/1989 0:00,480,480,,,,,Backhoe Loader - 0.0 to 14.0 Ft Standard Digging Depth,Illinois,BL,Backhoe Loaders,Two Wheel Drive,OROPS,None or Unspecified,None or Unspecified,No,Standard,Standard,None or Unspecified,,,,,,,,,,,,,,,,,,,,,,,,,
6752,1260883,9200,1275056,132,4.0,1981,,,4/15/1992 0:00,480,480,,,,,Backhoe Loader - 0.0 to 14.0 Ft Standard Digging Depth,North Carolina,BL,Backhoe Loaders,Two Wheel Drive,OROPS,None or Unspecified,None or Unspecified,No,Standard,Standard,None or Unspecified,,,,,,,,,,,,,,,,,,,,,,,,,
6752,1260891,9750,1401907,132,2.0,1981,,,11/21/1992 0:00,480,480,,,,,Backhoe Loader - 0.0 to 14.0 Ft Standard Digging Depth,Ohio,BL,Backhoe Loaders,Two Wheel Drive,OROPS,None or Unspecified,None or Unspecified,No,Standard,Standard,None or Unspecified,,,,,,,,,,,,,,,,,,,,,,,,,
6752,1260892,8000,1401907,132,2.0,1981,,,11/7/1992 0:00,480,480,,,,,Backhoe Loader - 0.0 to 14.0 Ft Standard Digging Depth,New York,BL,Backhoe Loaders,Two Wheel Drive,OROPS,None or Unspecified,None or Unspecified,No,Standard,Standard,None or Unspecified,,,,,,,,,,,,,,,,,,,,,,,,,
6752,1261290,11500,1161140,132,1.0,1982,,,6/13/1989 0:00,480,480,,,,,Backhoe Loader - 0.0 to 14.0 Ft Standard Digging Depth,Illinois,BL,Backhoe Loaders,Two Wheel Drive,OROPS,None or Unspecified,None or Unspecified,No,Standard,Standard,None or Unspecified,,,,,,,,,,,,,,,,,,,,,,,,,
6752,1261674,8750,1310317,132,1.0,1984,,,2/22/1990 0:00,480,480,,,,,Backhoe Loader - 0.0 to 14.0 Ft Standard Digging Depth,Arizona,BL,Backhoe Loaders,Two Wheel Drive,OROPS,None or Unspecified,None or Unspecified,No,Standard,Standard,None or Unspecified,,,,,,,,,,,,,,,,,,,,,,,,,
6752,1261676,13500,1481791,132,1.0,1983,,,3/16/1989 0:00,480,480,,,,,Backhoe Loader - 0.0 to 14.0 Ft Standard Digging Depth,Florida,BL,Backhoe Loaders,Two Wheel Drive,OROPS,None or Unspecified,None or Unspecified,No,Standard,Standard,None or Unspecified,,,,,,,,,,,,,,,,,,,,,,,,,
6752,1261677,10500,1478979,132,1.0,1983,,,9/21/1989 0:00,480,480,,,,,Backhoe Loader - 0.0 to 14.0 Ft Standard Digging Depth,Florida,BL,Backhoe Loaders,Two Wheel Drive,OROPS,None or Unspecified,None or Unspecified,No,Standard,Standard,None or Unspecified,,,,,,,,,,,,,,,,,,,,,,,,,
6752,1261678,8000,1167252,132,1.0,1983,,,8/24/1993 0:00,480,480,,,,,Backhoe Loader - 0.0 to 14.0 Ft Standard Digging Depth,Minnesota,BL,Backhoe Loaders,Two Wheel Drive,OROPS,None or Unspecified,None or Unspecified,No,Standard,Standard,None or Unspecified,,,,,,,,,,,,,,,,,,,,,,,,,
6752,1261689,10000,1255796,132,1.0,1983,,,2/20/1992 0:00,480,480,,,,,Backhoe Loader - 0.0 to 14.0 Ft Standard Digging Depth,Arizona,BL,Backhoe Loaders,Two Wheel Drive,OROPS,None or Unspecified,None or Unspecified,No,Standard,Standard,None or Unspecified,,,,,,,,,,,,,,,,,,,,,,,,,
6752,1261696,9000,1121476,132,1.0,1983,,,12/10/1992 0:00,480,480,,,,,Backhoe Loader - 0.0 to 14.0 Ft Standard Digging Depth,Texas,BL,Backhoe Loaders,Two Wheel Drive,OROPS,None or Unspecified,None or Unspecified,No,Standard,Standard,None or Unspecified,,,,,,,,,,,,,,,,,,,,,,,,,
6752,1261700,8500,1121549,132,1.0,1983,,,2/22/1990 0:00,480,480,,,,,Backhoe Loader - 0.0 to 14.0 Ft Standard Digging Depth,Arizona,BL,Backhoe Loaders,Two Wheel Drive,OROPS,None or Unspecified,None or Unspecified,No,Standard,Standard,None or Unspecified,,,,,,,,,,,,,,,,,,,,,,,,,
6752,1261831,26000,1262380,132,4.0,1987,,,2/1/1989 0:00,480,480,,,,,Backhoe Loader - 0.0 to 14.0 Ft Standard Digging Depth,Florida,BL,Backhoe Loaders,Two Wheel Drive,OROPS,None or Unspecified,None or Unspecified,No,Standard,Standard,None or Unspecified,,,,,,,,,,,,,,,,,,,,,,,,,
6752,1261856,10000,1342826,132,1.0,1983,,,10/21/1993 0:00,480,480,,,,,Backhoe Loader - 0.0 to 14.0 Ft Standard Digging Depth,Texas,BL,Backhoe Loaders,Two Wheel Drive,OROPS,None or Unspecified,None or Unspecified,No,Standard,Standard,None or Unspecified,,,,,,,,,,,,,,,,,,,,,,,,,
6752,1261860,9000,1403763,132,1.0,1983,,,2/22/1990 0:00,480,480,,,,,Backhoe Loader - 0.0 to 14.0 Ft Standard Digging Depth,Arizona,BL,Backhoe Loaders,Two Wheel Drive,OROPS,None or Unspecified,None or Unspecified,No,Standard,Standard,None or Unspecified,,,,,,,,,,,,,,,,,,,,,,,,,
6752,1261861,9000,1374691,132,1.0,1983,,,2/22/1990 0:00,480,480,,,,,Backhoe Loader - 0.0 to 14.0 Ft Standard Digging Depth,Arizona,BL,Backhoe Loaders,Two Wheel Drive,OROPS,None or Unspecified,None or Unspecified,No,Standard,Standard,None or Unspecified,,,,,,,,,,,,,,,,,,,,,,,,,
6752,1261862,9500,1082894,132,1.0,1983,,,2/22/1990 0:00,480,480,,,,,Backhoe Loader - 0.0 to 14.0 Ft Standard Digging Depth,Arizona,BL,Backhoe Loaders,Two Wheel Drive,OROPS,None or Unspecified,None or Unspecified,No,Standard,Standard,None or Unspecified,,,,,,,,,,,,,,,,,,,,,,,,,
6752,1261866,10000,1486547,132,1.0,1983,,,2/22/1990 0:00,480,480,,,,,Backhoe Loader - 0.0 to 14.0 Ft Standard Digging Depth,Arizona,BL,Backhoe Loaders,Two Wheel Drive,OROPS,None or Unspecified,None or Unspecified,No,Standard,Standard,None or Unspecified,,,,,,,,,,,,,,,,,,,,,,,,,
6752,1261867,8750,1537047,132,1.0,1983,,,2/22/1990 0:00,480,480,,,,,Backhoe Loader - 0.0 to 14.0 Ft Standard Digging Depth,Arizona,BL,Backhoe Loaders,Two Wheel Drive,OROPS,None or Unspecified,None or Unspecified,No,Standard,Standard,None or Unspecified,,,,,,,,,,,,,,,,,,,,,,,,,
6752,1261868,10000,1307789,132,1.0,1983,,,2/22/1990 0:00,480,480,,,,,Backhoe Loader - 0.0 to 14.0 Ft Standard Digging Depth,Arizona,BL,Backhoe Loaders,Two Wheel Drive,OROPS,None or Unspecified,None or Unspecified,No,Standard,Standard,None or Unspecified,,,,,,,,,,,,,,,,,,,,,,,,,
6752,1261869,10000,1334882,132,1.0,1983,,,2/22/1990 0:00,480,480,,,,,Backhoe Loader - 0.0 to 14.0 Ft Standard Digging Depth,Arizona,BL,Backhoe Loaders,Two Wheel Drive,OROPS,None or Unspecified,None or Unspecified,No,Standard,Standard,None or Unspecified,,,,,,,,,,,,,,,,,,,,,,,,,
6752,1261872,9250,1212730,132,24.0,1983,,,4/27/1990 0:00,480,480,,,,,Backhoe Loader - 0.0 to 14.0 Ft Standard Digging Depth,Mississippi,BL,Backhoe Loaders,Two Wheel Drive,OROPS,None or Unspecified,None or Unspecified,No,Standard,Standard,None or Unspecified,,,,,,,,,,,,,,,,,,,,,,,,,
6752,1261873,9500,1541704,132,1.0,1983,,,9/14/1993 0:00,480,480,,,,,Backhoe Loader - 0.0 to 14.0 Ft Standard Digging Depth,Arizona,BL,Backhoe Loaders,Two Wheel Drive,OROPS,None or Unspecified,None or Unspecified,No,Standard,Standard,None or Unspecified,,,,,,,,,,,,,,,,,,,,,,,,,
6752,1261875,11000,1352009,132,1.0,1983,,,6/30/1992 0:00,480,480,,,,,Backhoe Loader - 0.0 to 14.0 Ft Standard Digging Depth,Colorado,BL,Backhoe Loaders,Two Wheel Drive,OROPS,None or Unspecified,None or Unspecified,No,Standard,Standard,None or Unspecified,,,,,,,,,,,,,,,,,,,,,,,,,
6752,1261887,8000,1336681,132,1.0,1983,,,4/12/1990 0:00,480,480,,,,,Backhoe Loader - 0.0 to 14.0 Ft Standard Digging Depth,Texas,BL,Backhoe Loaders,Two Wheel Drive,OROPS,None or Unspecified,None or Unspecified,No,Standard,Standard,None or Unspecified,,,,,,,,,,,,,,,,,,,,,,,,,
6752,1261888,10500,1378854,132,1.0,1984,,,3/14/1989 0:00,480,480,,,,,Backhoe Loader - 0.0 to 14.0 Ft Standard Digging Depth,Texas,BL,Backhoe Loaders,Two Wheel Drive,OROPS,None or Unspecified,None or Unspecified,No,Standard,Standard,None or Unspecified,,,,,,,,,,,,,,,,,,,,,,,,,
6752,1261898,9500,1333303,132,1.0,1984,,,2/22/1990 0:00,480,480,,,,,Backhoe Loader - 0.0 to 14.0 Ft Standard Digging Depth,Arizona,BL,Backhoe Loaders,Two Wheel Drive,OROPS,None or Unspecified,None or Unspecified,No,Standard,Standard,None or Unspecified,,,,,,,,,,,,,,,,,,,,,,,,,
6752,1261899,10500,1102782,132,1.0,1984,,,2/22/1990 0:00,480,480,,,,,Backhoe Loader - 0.0 to 14.0 Ft Standard Digging Depth,Arizona,BL,Backhoe Loaders,Two Wheel Drive,OROPS,None or Unspecified,None or Unspecified,No,Standard,Standard,None or Unspecified,,,,,,,,,,,,,,,,,,,,,,,,,
6752,1261900,11500,1477120,132,1.0,1984,,,2/22/1990 0:00,480,480,,,,,Backhoe Loader - 0.0 to 14.0 Ft Standard Digging Depth,Arizona,BL,Backhoe Loaders,Two Wheel Drive,OROPS,None or Unspecified,None or Unspecified,No,Standard,Standard,None or Unspecified,,,,,,,,,,,,,,,,,,,,,,,,,
6752,1261915,8000,1280372,132,1.0,1983,,,4/12/1990 0:00,480,480,,,,,Backhoe Loader - 0.0 to 14.0 Ft Standard Digging Depth,Texas,BL,Backhoe Loaders,Two Wheel Drive,OROPS,None or Unspecified,None or Unspecified,No,Standard,Standard,None or Unspecified,,,,,,,,,,,,,,,,,,,,,,,,,
6752,1261919,9500,1146664,132,1.0,1984,,,2/22/1990 0:00,480,480,,,,,Backhoe Loader - 0.0 to 14.0 Ft Standard Digging Depth,Arizona,BL,Backhoe Loaders,Two Wheel Drive,OROPS,None or Unspecified,None or Unspecified,No,Standard,Standard,None or Unspecified,,,,,,,,,,,,,,,,,,,,,,,,,
6752,1261922,9500,1312079,132,24.0,1983,,,3/24/1992 0:00,480,480,,,,,Backhoe Loader - 0.0 to 14.0 Ft Standard Digging Depth,Georgia,BL,Backhoe Loaders,Two Wheel Drive,OROPS,None or Unspecified,None or Unspecified,No,Standard,Standard,None or Unspecified,,,,,,,,,,,,,,,,,,,,,,,,,
6752,1261923,9000,1080346,132,1.0,1981,,,5/17/1990 0:00,480,480,,,,,Backhoe Loader - 0.0 to 14.0 Ft Standard Digging Depth,Arizona,BL,Backhoe Loaders,Two Wheel Drive,OROPS,None or Unspecified,None or Unspecified,No,Standard,Standard,None or Unspecified,,,,,,,,,,,,,,,,,,,,,,,,,
6752,1261924,10000,1404664,132,1.0,1983,,,4/30/1992 0:00,480,480,,,,,Backhoe Loader - 0.0 to 14.0 Ft Standard Digging Depth,Arizona,BL,Backhoe Loaders,Two Wheel Drive,OROPS,None or Unspecified,None or Unspecified,No,Standard,Standard,None or Unspecified,,,,,,,,,,,,,,,,,,,,,,,,,
6752,1261925,11000,1410632,132,1.0,1984,,,2/20/1992 0:00,480,480,,,,,Backhoe Loader - 0.0 to 14.0 Ft Standard Digging Depth,Arizona,BL,Backhoe Loaders,Two Wheel Drive,OROPS,None or Unspecified,None or Unspecified,No,Standard,Standard,None or Unspecified,,,,,,,,,,,,,,,,,,,,,,,,,
6752,1264773,13750,1294526,132,10.0,1984,,,5/21/1993 0:00,480,480,,,,,Backhoe Loader - 0.0 to 14.0 Ft Standard Digging Depth,Mississippi,BL,Backhoe Loaders,Two Wheel Drive,OROPS,None or Unspecified,None or Unspecified,No,Standard,Standard,None or Unspecified,,,,,,,,,,,,,,,,,,,,,,,,,
6752,1264774,9500,1358540,132,1.0,1984,,,9/14/1993 0:00,480,480,,,,,Backhoe Loader - 0.0 to 14.0 Ft Standard Digging Depth,Arizona,BL,Backhoe Loaders,Two Wheel Drive,OROPS,None or Unspecified,None or Unspecified,No,Standard,Standard,None or Unspecified,,,,,,,,,,,,,,,,,,,,,,,,,
6752,1264775,10000,1152629,132,1.0,1984,,,6/26/1991 0:00,480,480,,,,,Backhoe Loader - 0.0 to 14.0 Ft Standard Digging Depth,Nevada,BL,Backhoe Loaders,Two Wheel Drive,OROPS,None or Unspecified,None or Unspecified,No,Standard,Standard,None or Unspecified,,,,,,,,,,,,,,,,,,,,,,,,,
6752,1264776,10500,1152629,132,1.0,1984,,,5/23/1991 0:00,480,480,,,,,Backhoe Loader - 0.0 to 14.0 Ft Standard Digging Depth,California,BL,Backhoe Loaders,Two Wheel Drive,OROPS,None or Unspecified,None or Unspecified,No,Standard,Standard,None or Unspecified,,,,,,,,,,,,,,,,,,,,,,,,,
6752,1264777,8750,1152629,132,1.0,1984,,,9/20/1990 0:00,480,480,,,,,Backhoe Loader - 0.0 to 14.0 Ft Standard Digging Depth,Arizona,BL,Backhoe Loaders,Two Wheel Drive,OROPS,None or Unspecified,None or Unspecified,No,Standard,Standard,None or Unspecified,,,,,,,,,,,,,,,,,,,,,,,,,
6752,1264779,8750,1149861,132,1.0,1984,,,9/20/1990 0:00,480,480,,,,,Backhoe Loader - 0.0 to 14.0 Ft Standard Digging Depth,Arizona,BL,Backhoe Loaders,Two Wheel Drive,OROPS,None or Unspecified,None or Unspecified,No,Standard,Standard,None or Unspecified,,,,,,,,,,,,,,,,,,,,,,,,,
6752,1264781,8500,1247463,132,1.0,1984,,,3/5/1991 0:00,480,480,,,,,Backhoe Loader - 0.0 to 14.0 Ft Standard Digging Depth,Arizona,BL,Backhoe Loaders,Two Wheel Drive,OROPS,None or Unspecified,None or Unspecified,No,Standard,Standard,None or Unspecified,,,,,,,,,,,,,,,,,,,,,,,,,
6752,1264782,8500,1334495,132,1.0,1984,,,3/5/1991 0:00,480,480,,,,,Backhoe Loader - 0.0 to 14.0 Ft Standard Digging Depth,Arizona,BL,Backhoe Loaders,Two Wheel Drive,OROPS,None or Unspecified,None or Unspecified,No,Standard,Standard,None or Unspecified,,,,,,,,,,,,,,,,,,,,,,,,,
6752,1264783,10000,1179873,132,11.0,1984,,,6/24/1993 0:00,480,480,,,,,Backhoe Loader - 0.0 to 14.0 Ft Standard Digging Depth,Mississippi,BL,Backhoe Loaders,Two Wheel Drive,OROPS,None or Unspecified,None or Unspecified,No,Standard,Standard,None or Unspecified,,,,,,,,,,,,,,,,,,,,,,,,,
6752,1264784,10700,1179873,132,10.0,1984,,,8/26/1993 0:00,480,480,,,,,Backhoe Loader - 0.0 to 14.0 Ft Standard Digging Depth,Louisiana,BL,Backhoe Loaders,Two Wheel Drive,OROPS,None or Unspecified,None or Unspecified,No,Standard,Standard,None or Unspecified,,,,,,,,,,,,,,,,,,,,,,,,,
6752,1264785,11750,1179873,132,11.0,1984,,,11/11/1993 0:00,480,480,,,,,Backhoe Loader - 0.0 to 14.0 Ft Standard Digging Depth,Mississippi,BL,Backhoe Loaders,Two Wheel Drive,OROPS,None or Unspecified,None or Unspecified,No,Standard,Standard,None or Unspecified,,,,,,,,,,,,,,,,,,,,,,,,,
6752,1264787,10000,1218173,132,1.0,1984,,,9/28/1989 0:00,480,480,,,,,Backhoe Loader - 0.0 to 14.0 Ft Standard Digging Depth,Arizona,BL,Backhoe Loaders,Two Wheel Drive,OROPS,None or Unspecified,None or Unspecified,No,Standard,Standard,None or Unspecified,,,,,,,,,,,,,,,,,,,,,,,,,
6752,1264792,8750,1358445,132,1.0,1984,,,9/20/1990 0:00,480,480,,,,,Backhoe Loader - 0.0 to 14.0 Ft Standard Digging Depth,Arizona,BL,Backhoe Loaders,Two Wheel Drive,OROPS,None or Unspecified,None or Unspecified,No,Standard,Standard,None or Unspecified,,,,,,,,,,,,,,,,,,,,,,,,,
6752,1264793,9500,1547744,132,1.0,1984,,,9/14/1993 0:00,480,480,,,,,Backhoe Loader - 0.0 to 14.0 Ft Standard Digging Depth,Arizona,BL,Backhoe Loaders,Two Wheel Drive,OROPS,None or Unspecified,None or Unspecified,No,Standard,Standard,None or Unspecified,,,,,,,,,,,,,,,,,,,,,,,,,
6752,1264795,11000,1358743,132,18.0,1984,,,4/28/1990 0:00,480,480,,,,,Backhoe Loader - 0.0 to 14.0 Ft Standard Digging Depth,Pennsylvania,BL,Backhoe Loaders,Two Wheel Drive,OROPS,None or Unspecified,None or Unspecified,No,Standard,Powershuttle,None or Unspecified,,,,,,,,,,,,,,,,,,,,,,,,,
6752,1264796,10000,1355756,132,1.0,1984,,,5/15/1990 0:00,480,480,,,,,Backhoe Loader - 0.0 to 14.0 Ft Standard Digging Depth,Florida,BL,Backhoe Loaders,Two Wheel Drive,OROPS,None or Unspecified,None or Unspecified,No,Standard,Standard,None or Unspecified,,,,,,,,,,,,,,,,,,,,,,,,,
6752,1264797,9000,1430358,132,25.0,1984,2400.0,Low,10/23/1993 0:00,480,480,,,,,Backhoe Loader - 0.0 to 14.0 Ft Standard Digging Depth,California,BL,Backhoe Loaders,Two Wheel Drive,OROPS,None or Unspecified,None or Unspecified,No,Standard,Standard,None or Unspecified,,,,,,,,,,,,,,,,,,,,,,,,,
6752,1264798,11500,1183238,132,1.0,1984,,,3/14/1989 0:00,480,480,,,,,Backhoe Loader - 0.0 to 14.0 Ft Standard Digging Depth,Texas,BL,Backhoe Loaders,Two Wheel Drive,OROPS,None or Unspecified,None or Unspecified,No,Standard,Standard,None or Unspecified,,,,,,,,,,,,,,,,,,,,,,,,,
6752,1264800,10800,1205300,132,10.0,1984,,,8/26/1993 0:00,480,480,,,,,Backhoe Loader - 0.0 to 14.0 Ft Standard Digging Depth,Louisiana,BL,Backhoe Loaders,Two Wheel Drive,OROPS,None or Unspecified,None or Unspecified,No,Standard,Standard,None or Unspecified,,,,,,,,,,,,,,,,,,,,,,,,,
6752,1264802,8000,1548260,132,1.0,1984,,,2/18/1992 0:00,480,480,,,,,Backhoe Loader - 0.0 to 14.0 Ft Standard Digging Depth,California,BL,Backhoe Loaders,Two Wheel Drive,OROPS,None or Unspecified,None or Unspecified,No,Standard,Standard,None or Unspecified,,,,,,,,,,,,,,,,,,,,,,,,,
6752,1264804,10250,1432502,132,24.0,1984,,,3/24/1992 0:00,480,480,,,,,Backhoe Loader - 0.0 to 14.0 Ft Standard Digging Depth,Georgia,BL,Backhoe Loaders,Two Wheel Drive,OROPS,None or Unspecified,None or Unspecified,No,Standard,Standard,None or Unspecified,,,,,,,,,,,,,,,,,,,,,,,,,
6752,1264809,8500,1414583,132,1.0,1984,,,4/2/1992 0:00,480,480,,,,,Backhoe Loader - 0.0 to 14.0 Ft Standard Digging Depth,Texas,BL,Backhoe Loaders,Two Wheel Drive,OROPS,None or Unspecified,None or Unspecified,No,Standard,Standard,None or Unspecified,,,,,,,,,,,,,,,,,,,,,,,,,
6752,1264818,8500,1202535,132,1.0,1984,,,4/2/1992 0:00,480,480,,,,,Backhoe Loader - 0.0 to 14.0 Ft Standard Digging Depth,Texas,BL,Backhoe Loaders,Two Wheel Drive,OROPS,None or Unspecified,None or Unspecified,No,Standard,Standard,None or Unspecified,,,,,,,,,,,,,,,,,,,,,,,,,
6752,1264819,9000,1482732,132,24.0,1984,,,3/24/1992 0:00,480,480,,,,,Backhoe Loader - 0.0 to 14.0 Ft Standard Digging Depth,Georgia,BL,Backhoe Loaders,Two Wheel Drive,OROPS,None or Unspecified,None or Unspecified,No,Standard,Standard,None or Unspecified,,,,,,,,,,,,,,,,,,,,,,,,,
6752,1264820,8500,1385469,132,1.0,1984,,,3/5/1991 0:00,480,480,,,,,Backhoe Loader - 0.0 to 14.0 Ft Standard Digging Depth,Arizona,BL,Backhoe Loaders,Two Wheel Drive,OROPS,None or Unspecified,None or Unspecified,No,Standard,Standard,None or Unspecified,,,,,,,,,,,,,,,,,,,,,,,,,
6752,1264821,8000,1357036,132,1.0,1984,,,4/2/1992 0:00,480,480,,,,,Backhoe Loader - 0.0 to 14.0 Ft Standard Digging Depth,Texas,BL,Backhoe Loaders,Two Wheel Drive,OROPS,None or Unspecified,None or Unspecified,No,Standard,Standard,None or Unspecified,,,,,,,,,,,,,,,,,,,,,,,,,
6752,1264822,8500,1321501,132,1.0,1984,,,4/2/1992 0:00,480,480,,,,,Backhoe Loader - 0.0 to 14.0 Ft Standard Digging Depth,Texas,BL,Backhoe Loaders,Two Wheel Drive,OROPS,None or Unspecified,None or Unspecified,No,Standard,Standard,None or Unspecified,,,,,,,,,,,,,,,,,,,,,,,,,
6752,1264823,21500,1406871,132,4.0,1984,,,2/1/1989 0:00,480,480,,,,,Backhoe Loader - 0.0 to 14.0 Ft Standard Digging Depth,Florida,BL,Backhoe Loaders,Two Wheel Drive,OROPS,None or Unspecified,None or Unspecified,No,Standard,Powershift,None or Unspecified,,,,,,,,,,,,,,,,,,,,,,,,,
6752,1264824,8500,1483195,132,1.0,1984,,,6/1/1989 0:00,480,480,,,,,Backhoe Loader - 0.0 to 14.0 Ft Standard Digging Depth,Texas,BL,Backhoe Loaders,Two Wheel Drive,OROPS,None or Unspecified,None or Unspecified,No,Standard,Standard,None or Unspecified,,,,,,,,,,,,,,,,,,,,,,,,,
6752,1264825,8500,1276237,132,1.0,1984,,,3/5/1991 0:00,480,480,,,,,Backhoe Loader - 0.0 to 14.0 Ft Standard Digging Depth,Arizona,BL,Backhoe Loaders,Two Wheel Drive,OROPS,None or Unspecified,None or Unspecified,No,Standard,Standard,None or Unspecified,,,,,,,,,,,,,,,,,,,,,,,,,
6752,1264837,8700,1258835,132,4.0,1984,,,11/14/1991 0:00,480,480,,,,,Backhoe Loader - 0.0 to 14.0 Ft Standard Digging Depth,Delaware,BL,Backhoe Loaders,Two Wheel Drive,OROPS,None or Unspecified,None or Unspecified,No,Standard,Standard,None or Unspecified,,,,,,,,,,,,,,,,,,,,,,,,,
6752,1264842,9500,1094685,132,1.0,1984,,,9/14/1993 0:00,480,480,,,,,Backhoe Loader - 0.0 to 14.0 Ft Standard Digging Depth,Arizona,BL,Backhoe Loaders,Two Wheel Drive,OROPS,None or Unspecified,None or Unspecified,No,Standard,Standard,None or Unspecified,,,,,,,,,,,,,,,,,,,,,,,,,
6752,1264843,10000,1389656,132,1.0,1984,,,9/28/1989 0:00,480,480,,,,,Backhoe Loader - 0.0 to 14.0 Ft Standard Digging Depth,Arizona,BL,Backhoe Loaders,Two Wheel Drive,OROPS,None or Unspecified,None or Unspecified,No,Standard,Standard,None or Unspecified,,,,,,,,,,,,,,,,,,,,,,,,,
6752,1264852,9500,1309115,132,24.0,1984,,,4/27/1990 0:00,480,480,,,,,Backhoe Loader - 0.0 to 14.0 Ft Standard Digging Depth,Mississippi,BL,Backhoe Loaders,Two Wheel Drive,OROPS,None or Unspecified,None or Unspecified,No,Standard,Standard,None or Unspecified,,,,,,,,,,,,,,,,,,,,,,,,,
6752,1264963,16000,1426242,132,1.0,1985,,,6/24/1992 0:00,480,480,,,,,Backhoe Loader - 0.0 to 14.0 Ft Standard Digging Depth,Texas,BL,Backhoe Loaders,Two Wheel Drive,OROPS,None or Unspecified,None or Unspecified,No,Standard,Standard,None or Unspecified,,,,,,,,,,,,,,,,,,,,,,,,,
6752,1265225,9000,1451924,132,1.0,1984,,,4/20/1993 0:00,480,480,,,,,Backhoe Loader - 0.0 to 14.0 Ft Standard Digging Depth,Tennessee,BL,Backhoe Loaders,Two Wheel Drive,OROPS,None or Unspecified,None or Unspecified,No,Standard,Standard,None or Unspecified,,,,,,,,,,,,,,,,,,,,,,,,,
6752,1280632,13750,1191544,132,11.0,1988,,,11/12/1992 0:00,480,480,,,,,Backhoe Loader - 0.0 to 14.0 Ft Standard Digging Depth,Mississippi,BL,Backhoe Loaders,Two Wheel Drive,OROPS,None or Unspecified,None or Unspecified,No,Standard,Powershuttle,None or Unspecified,,,,,,,,,,,,,,,,,,,,,,,,,
6752,1280679,14500,1446157,132,6.0,1988,,,12/13/1993 0:00,480,480,,,,,Backhoe Loader - 0.0 to 14.0 Ft Standard Digging Depth,Kentucky,BL,Backhoe Loaders,Two Wheel Drive,OROPS,None or Unspecified,None or Unspecified,No,Standard,Standard,None or Unspecified,,,,,,,,,,,,,,,,,,,,,,,,,
6752,1280682,14500,1336873,132,6.0,1988,,,12/13/1993 0:00,480,480,,,,,Backhoe Loader - 0.0 to 14.0 Ft Standard Digging Depth,Kentucky,BL,Backhoe Loaders,Two Wheel Drive,OROPS,None or Unspecified,None or Unspecified,No,Standard,Standard,None or Unspecified,,,,,,,,,,,,,,,,,,,,,,,,,
6752,1280687,18000,1341597,132,4.0,1989,1906.0,Medium,2/1/1993 0:00,480,480,,,,,Backhoe Loader - 0.0 to 14.0 Ft Standard Digging Depth,Florida,BL,Backhoe Loaders,Two Wheel Drive,OROPS,None or Unspecified,None or Unspecified,No,Standard,Standard,None or Unspecified,,,,,,,,,,,,,,,,,,,,,,,,,
6752,1280777,24500,1550124,132,2.0,1991,,,11/21/1992 0:00,480,480,,,,,Backhoe Loader - 0.0 to 14.0 Ft Standard Digging Depth,Ohio,BL,Backhoe Loaders,Four Wheel Drive,EROPS,None or Unspecified,None or Unspecified,No,Standard,Standard,None or Unspecified,,,,,,,,,,,,,,,,,,,,,,,,,
6752,1280782,19500,1466953,132,1.0,1991,,,7/12/1993 0:00,480,480,,,,,Backhoe Loader - 0.0 to 14.0 Ft Standard Digging Depth,Texas,BL,Backhoe Loaders,Two Wheel Drive,OROPS,None or Unspecified,None or Unspecified,No,Standard,Standard,None or Unspecified,,,,,,,,,,,,,,,,,,,,,,,,,
6752,1282037,18500,1260925,132,1.0,1986,,,5/23/1991 0:00,480,480,,,,,Backhoe Loader - 0.0 to 14.0 Ft Standard Digging Depth,California,BL,Backhoe Loaders,Two Wheel Drive,OROPS,None or Unspecified,None or Unspecified,No,Standard,Standard,None or Unspecified,,,,,,,,,,,,,,,,,,,,,,,,,
6752,1282837,15000,1201770,132,2.0,1989,,,8/28/1993 0:00,480,480,,,,,Backhoe Loader - 0.0 to 14.0 Ft Standard Digging Depth,Maine,BL,Backhoe Loaders,Two Wheel Drive,EROPS,None or Unspecified,None or Unspecified,No,Standard,Standard,None or Unspecified,,,,,,,,,,,,,,,,,,,,,,,,,
6752,1283128,9750,1415684,132,2.0,1995,,,2/8/2001 0:00,480,480,,,,,Backhoe Loader - 0.0 to 14.0 Ft Standard Digging Depth,Florida,BL,Backhoe Loaders,Two Wheel Drive,OROPS,None or Unspecified,None or Unspecified,No,Standard,Standard,None or Unspecified,,,,,,,,,,,,,,,,,,,,,,,,,
6752,1283310,17000,1165036,132,1.0,1989,,,6/24/1992 0:00,480,480,,,,,Backhoe Loader - 0.0 to 14.0 Ft Standard Digging Depth,Texas,BL,Backhoe Loaders,Two Wheel Drive,OROPS,None or Unspecified,None or Unspecified,No,Standard,Standard,None or Unspecified,,,,,,,,,,,,,,,,,,,,,,,,,
6752,1283399,16000,1353591,132,1.0,1990,,,6/3/1993 0:00,480,480,,,,,Backhoe Loader - 0.0 to 14.0 Ft Standard Digging Depth,California,BL,Backhoe Loaders,Two Wheel Drive,OROPS,None or Unspecified,None or Unspecified,No,Standard,Standard,None or Unspecified,,,,,,,,,,,,,,,,,,,,,,,,,
6752,1283417,11500,1250373,132,2.0,1000,,,2/5/1997 0:00,480,480,,,,,Backhoe Loader - 0.0 to 14.0 Ft Standard Digging Depth,Florida,BL,Backhoe Loaders,Two Wheel Drive,OROPS,None or Unspecified,None or Unspecified,No,Standard,Standard,None or Unspecified,,,,,,,,,,,,,,,,,,,,,,,,,
6752,1295229,17500,1273938,132,1.0,1988,,,5/23/1991 0:00,480,480,,,,,Backhoe Loader - 0.0 to 14.0 Ft Standard Digging Depth,California,BL,Backhoe Loaders,Two Wheel Drive,OROPS,None or Unspecified,None or Unspecified,No,Standard,Standard,None or Unspecified,,,,,,,,,,,,,,,,,,,,,,,,,
