ModelID,SalesID,SalePrice,MachineID,datasource,auctioneerID,YearMade,MachineHoursCurrentMeter,UsageBand,saledate,fiModelDesc,fiBaseModel,fiSecondaryDesc,fiModelSeries,fiModelDescriptor,ProductSize,fiProductClassDesc,state,ProductGroup,ProductGroupDesc,Drive_System,Enclosure,Forks,Pad_Type,Ride_Control,Stick,Transmission,Turbocharged,Blade_Extension,Blade_Width,Enclosure_Type,Engine_Horsepower,Hydraulics,Pushblock,Ripper,Scarifier,Tip_Control,Tire_Size,Coupler,Coupler_System,Grouser_Tracks,Hydraulics_Flow,Track_Type,Undercarriage_Pad_Width,Stick_Length,Thumb,Pattern_Changer,Grouser_Type,Backhoe_Mounting,Blade_Type,Travel_Controls,Differential_Type,Steering_Controls
6797,1140995,23500,1003815,121,3.0,1000,0.0,,9/21/2006 0:00,621,621,,,,,Wheel Loader - 120.0 to 135.0 Horsepower,Texas,WL,Wheel Loader,,EROPS,None or Unspecified,,None or Unspecified,,,,,,,,2 Valve,,,,,20.5,None or Unspecified,,,,,,,,,,,,,Standard,Conventional
6797,1145775,11000,1001993,121,3.0,1000,2393.0,Low,12/15/2010 0:00,621,621,,,,,Wheel Loader - 120.0 to 135.0 Horsepower,Florida,WL,Wheel Loader,,EROPS,None or Unspecified,,None or Unspecified,,,,,,,,2 Valve,,,,,20.5,None or Unspecified,,,,,,,,,,,,,Standard,Conventional
6797,1192004,12500,1009634,121,3.0,1000,8228.0,Low,10/29/2009 0:00,621,621,,,,,Wheel Loader - 120.0 to 135.0 Horsepower,Arizona,WL,Wheel Loader,,OROPS,None or Unspecified,,None or Unspecified,,,,,,,,2 Valve,,,,,20.5,None or Unspecified,,,,,,,,,,,,,Standard,Conventional
6797,1202363,15000,1028003,121,3.0,1000,8078.0,Low,6/17/2010 0:00,621,621,,,,,Wheel Loader - 120.0 to 135.0 Horsepower,Minnesota,WL,Wheel Loader,,EROPS,None or Unspecified,,None or Unspecified,,,,,,,,2 Valve,,,,,20.5,None or Unspecified,,,,,,,,,,,,,Standard,Conventional
6797,1206022,10000,1006342,121,3.0,1000,,,9/2/2010 0:00,621,621,,,,,Wheel Loader - 120.0 to 135.0 Horsepower,Texas,WL,Wheel Loader,,EROPS,Yes,,None or Unspecified,,,,,,,,2 Valve,,,,,20.5,None or Unspecified,,,,,,,,,,,,,Standard,Conventional
6797,1213960,18000,334780,121,3.0,1000,6232.0,Low,4/28/2011 0:00,621,621,,,,,Wheel Loader - 120.0 to 135.0 Horsepower,Pennsylvania,WL,Wheel Loader,,EROPS,None or Unspecified,,None or Unspecified,,,,,,,,2 Valve,,,,,None or Unspecified,None or Unspecified,,,,,,,,,,,,,Standard,Conventional
6797,1215824,13250,1001993,121,3.0,1000,2400.0,Low,7/21/2011 0:00,621,621,,,,,Wheel Loader - 120.0 to 135.0 Horsepower,Florida,WL,Wheel Loader,,EROPS,None or Unspecified,,None or Unspecified,,,,,,,,2 Valve,,,,,20.5,None or Unspecified,,,,,,,,,,,,,Standard,Conventional
6797,1218397,18000,1052261,121,3.0,1000,542.0,Low,9/29/2011 0:00,621,621,,,,,Wheel Loader - 120.0 to 135.0 Horsepower,Pennsylvania,WL,Wheel Loader,,EROPS,None or Unspecified,,None or Unspecified,,,,,,,,2 Valve,,,,,17.5,Manual,,,,,,,,,,,,,Standard,Conventional
6797,1250340,11500,1417572,132,2.0,1000,,,1/29/2011 0:00,621,621,,,,,Wheel Loader - 120.0 to 135.0 Horsepower,Florida,WL,Wheel Loader,,OROPS,None or Unspecified,,None or Unspecified,,,,,,,,2 Valve,,,,,None or Unspecified,None or Unspecified,,,,,,,,,,,,,Standard,Conventional
6797,1251189,9750,1095325,132,4.0,1000,,,2/9/2010 0:00,621,621,,,,,Wheel Loader - 120.0 to 135.0 Horsepower,Florida,WL,Wheel Loader,,OROPS,None or Unspecified,,None or Unspecified,,,,,,,,2 Valve,,,,,None or Unspecified,None or Unspecified,,,,,,,,,,,,,Standard,Conventional
6797,1254468,20000,1455942,132,6.0,1989,,,6/29/1998 0:00,621,621,,,,,Wheel Loader - 120.0 to 135.0 Horsepower,Wyoming,WL,Wheel Loader,,EROPS,Yes,,None or Unspecified,,,,,,,,2 Valve,,,,,None or Unspecified,None or Unspecified,,,,,,,,,,,,,Standard,Conventional
6797,1254479,39000,1489498,132,2.0,1989,,,6/20/1992 0:00,621,621,,,,,Wheel Loader - 120.0 to 135.0 Horsepower,Indiana,WL,Wheel Loader,,EROPS,None or Unspecified,,None or Unspecified,,,,,,,,2 Valve,,,,,None or Unspecified,None or Unspecified,,,,,,,,,,,,,Standard,Conventional
6797,1254487,17500,1443249,132,10.0,1000,,,10/19/2000 0:00,621,621,,,,,Wheel Loader - 120.0 to 135.0 Horsepower,Louisiana,WL,Wheel Loader,,EROPS,None or Unspecified,,None or Unspecified,,,,,,,,2 Valve,,,,,20.5,None or Unspecified,,,,,,,,,,,,,Standard,Conventional
6797,1255384,13750,1434865,132,10.0,1000,,,5/18/2000 0:00,621,621,,,,,Wheel Loader - 120.0 to 135.0 Horsepower,Louisiana,WL,Wheel Loader,,EROPS,None or Unspecified,,None or Unspecified,,,,,,,,2 Valve,,,,,None or Unspecified,None or Unspecified,,,,,,,,,,,,,Standard,Conventional
6797,1268862,13000,1085764,132,7.0,1000,,,10/18/2002 0:00,621,621,,,,,Wheel Loader - 120.0 to 135.0 Horsepower,South Carolina,WL,Wheel Loader,,OROPS,None or Unspecified,,None or Unspecified,,,,,,,,2 Valve,,,,,20.5,None or Unspecified,,,,,,,,,,,,,Standard,Conventional
6797,1268901,14500,1428589,132,1.0,1000,,,5/28/2008 0:00,621,621,,,,,Wheel Loader - 120.0 to 135.0 Horsepower,Florida,WL,Wheel Loader,,EROPS,None or Unspecified,,None or Unspecified,,,,,,,,2 Valve,,,,,20.5,None or Unspecified,,,,,,,,,,,,,Standard,Conventional
6797,1268905,16000,1227491,132,1.0,1000,,,8/26/2009 0:00,621,621,,,,,Wheel Loader - 120.0 to 135.0 Horsepower,Texas,WL,Wheel Loader,,OROPS,None or Unspecified,,None or Unspecified,,,,,,,,2 Valve,,,,,20.5,None or Unspecified,,,,,,,,,,,,,Standard,Conventional
6797,1277115,31500,1457265,132,2.0,1989,,,11/21/1992 0:00,621,621,,,,,Wheel Loader - 120.0 to 135.0 Horsepower,Ohio,WL,Wheel Loader,,EROPS,None or Unspecified,,None or Unspecified,,,,,,,,2 Valve,,,,,None or Unspecified,None or Unspecified,,,,,,,,,,,,,Standard,Conventional
6797,1277116,12700,1137885,132,20.0,1988,,,6/19/2002 0:00,621,621,,,,,Wheel Loader - 120.0 to 135.0 Horsepower,Arkansas,WL,Wheel Loader,,OROPS,None or Unspecified,,None or Unspecified,,,,,,,,2 Valve,,,,,None or Unspecified,None or Unspecified,,,,,,,,,,,,,Standard,Conventional
6797,1277117,45000,1537408,132,2.0,1988,,,12/18/1993 0:00,621,621,,,,,Wheel Loader - 120.0 to 135.0 Horsepower,New Jersey,WL,Wheel Loader,,EROPS,None or Unspecified,,None or Unspecified,,,,,,,,2 Valve,,,,,None or Unspecified,None or Unspecified,,,,,,,,,,,,,Standard,Conventional
6797,1277118,21000,1408614,132,11.0,1988,,,5/28/1998 0:00,621,621,,,,,Wheel Loader - 120.0 to 135.0 Horsepower,Mississippi,WL,Wheel Loader,,OROPS,Yes,,None or Unspecified,,,,,,,,2 Valve,,,,,None or Unspecified,Manual,,,,,,,,,,,,,Standard,Conventional
6797,1277119,35000,1311206,132,4.0,1989,,,2/8/1996 0:00,621,621,,,,,Wheel Loader - 120.0 to 135.0 Horsepower,Florida,WL,Wheel Loader,,OROPS,None or Unspecified,,None or Unspecified,,,,,,,,2 Valve,,,,,None or Unspecified,None or Unspecified,,,,,,,,,,,,,Standard,Conventional
6797,1277120,37000,1216374,132,1.0,1988,,,12/9/1994 0:00,621,621,,,,,Wheel Loader - 120.0 to 135.0 Horsepower,California,WL,Wheel Loader,,OROPS,None or Unspecified,,None or Unspecified,,,,,,,,2 Valve,,,,,None or Unspecified,Manual,,,,,,,,,,,,,Standard,Conventional
6797,1277121,35000,1235659,132,25.0,1988,,,2/24/1996 0:00,621,621,,,,,Wheel Loader - 120.0 to 135.0 Horsepower,California,WL,Wheel Loader,,OROPS,None or Unspecified,,None or Unspecified,,,,,,,,2 Valve,,,,,None or Unspecified,None or Unspecified,,,,,,,,,,,,,Standard,Conventional
6797,1277126,26000,982441,132,1.0,1988,,,12/1/2006 0:00,621,621,,,,,Wheel Loader - 120.0 to 135.0 Horsepower,Nevada,WL,Wheel Loader,,EROPS,Yes,,None or Unspecified,,,,,,,,2 Valve,,,,,17.5,Manual,,,,,,,,,,,,,Standard,Conventional
6797,1277127,33250,1146572,132,2.0,1988,,,6/13/1998 0:00,621,621,,,,,Wheel Loader - 120.0 to 135.0 Horsepower,Florida,WL,Wheel Loader,,EROPS,None or Unspecified,,None or Unspecified,,,,,,,,2 Valve,,,,,None or Unspecified,None or Unspecified,,,,,,,,,,,,,Standard,Conventional
6797,1277128,42000,963657,132,1.0,1988,,,5/2/1995 0:00,621,621,,,,,Wheel Loader - 120.0 to 135.0 Horsepower,Delaware,WL,Wheel Loader,,EROPS,None or Unspecified,,None or Unspecified,,,,,,,,2 Valve,,,,,None or Unspecified,None or Unspecified,,,,,,,,,,,,,Standard,Conventional
6797,1277129,31000,1213868,132,1.0,1988,,,7/25/1995 0:00,621,621,,,,,Wheel Loader - 120.0 to 135.0 Horsepower,Florida,WL,Wheel Loader,,OROPS,None or Unspecified,,None or Unspecified,,,,,,,,2 Valve,,,,,None or Unspecified,Manual,,,,,,,,,,,,,Standard,Conventional
6797,1277131,27000,1377401,132,1.0,1000,,,9/13/2005 0:00,621,621,,,,,Wheel Loader - 120.0 to 135.0 Horsepower,California,WL,Wheel Loader,,OROPS,None or Unspecified,,None or Unspecified,,,,,,,,2 Valve,,,,,20.5,None or Unspecified,,,,,,,,,,,,,Standard,Conventional
6797,1277133,46000,1511362,132,2.0,1988,,,11/19/1994 0:00,621,621,,,,,Wheel Loader - 120.0 to 135.0 Horsepower,Ohio,WL,Wheel Loader,,OROPS,None or Unspecified,,None or Unspecified,,,,,,,,2 Valve,,,,,None or Unspecified,None or Unspecified,,,,,,,,,,,,,Standard,Conventional
6797,1277136,30000,1084569,132,10.0,1988,2700.0,Medium,5/21/1993 0:00,621,621,,,,,Wheel Loader - 120.0 to 135.0 Horsepower,Mississippi,WL,Wheel Loader,,EROPS,None or Unspecified,,None or Unspecified,,,,,,,,2 Valve,,,,,None or Unspecified,None or Unspecified,,,,,,,,,,,,,Standard,Conventional
6797,1277138,35500,1248457,132,2.0,1988,,,12/14/1996 0:00,621,621,,,,,Wheel Loader - 120.0 to 135.0 Horsepower,Illinois,WL,Wheel Loader,,EROPS,None or Unspecified,,None or Unspecified,,,,,,,,2 Valve,,,,,None or Unspecified,None or Unspecified,,,,,,,,,,,,,Standard,Conventional
6797,1277139,41000,1414298,132,1.0,1988,,,12/9/1994 0:00,621,621,,,,,Wheel Loader - 120.0 to 135.0 Horsepower,California,WL,Wheel Loader,,OROPS,None or Unspecified,,None or Unspecified,,,,,,,,2 Valve,,,,,None or Unspecified,Manual,,,,,,,,,,,,,Standard,Conventional
6797,1277142,39000,1484336,132,2.0,1989,,,2/10/1994 0:00,621,621,,,,,Wheel Loader - 120.0 to 135.0 Horsepower,Florida,WL,Wheel Loader,,OROPS,None or Unspecified,,None or Unspecified,,,,,,,,2 Valve,,,,,None or Unspecified,None or Unspecified,,,,,,,,,,,,,Standard,Conventional
6797,1277143,46000,1182688,132,1.0,1989,,,4/9/1996 0:00,621,621,,,,,Wheel Loader - 120.0 to 135.0 Horsepower,Washington,WL,Wheel Loader,,EROPS,None or Unspecified,,None or Unspecified,,,,,,,,2 Valve,,,,,None or Unspecified,None or Unspecified,,,,,,,,,,,,,Standard,Conventional
6797,1277144,16000,1131835,132,4.0,1990,,,2/13/2006 0:00,621,621,,,,,Wheel Loader - 120.0 to 135.0 Horsepower,Florida,WL,Wheel Loader,,OROPS,None or Unspecified,,None or Unspecified,,,,,,,,2 Valve,,,,,None or Unspecified,None or Unspecified,,,,,,,,,,,,,Standard,Conventional
6797,1277145,22000,1424873,132,1.0,1989,,,3/23/2000 0:00,621,621,,,,,Wheel Loader - 120.0 to 135.0 Horsepower,North Carolina,WL,Wheel Loader,,EROPS,None or Unspecified,,None or Unspecified,,,,,,,,2 Valve,,,,,None or Unspecified,None or Unspecified,,,,,,,,,,,,,Standard,Conventional
6797,1277147,55000,1484355,132,23.0,1989,,,11/19/1994 0:00,621,621,,,,,Wheel Loader - 120.0 to 135.0 Horsepower,New Jersey,WL,Wheel Loader,,EROPS,None or Unspecified,,None or Unspecified,,,,,,,,2 Valve,,,,,None or Unspecified,Manual,,,,,,,,,,,,,Standard,Conventional
6797,1277148,23000,1470779,132,1.0,1989,,,11/17/1998 0:00,621,621,,,,,Wheel Loader - 120.0 to 135.0 Horsepower,Texas,WL,Wheel Loader,,EROPS,None or Unspecified,,None or Unspecified,,,,,,,,2 Valve,,,,,None or Unspecified,None or Unspecified,,,,,,,,,,,,,Standard,Conventional
6797,1277149,17000,1228495,132,1.0,1989,,,10/5/1999 0:00,621,621,,,,,Wheel Loader - 120.0 to 135.0 Horsepower,Tennessee,WL,Wheel Loader,,OROPS,Yes,,None or Unspecified,,,,,,,,2 Valve,,,,,None or Unspecified,None or Unspecified,,,,,,,,,,,,,Standard,Conventional
6797,1277150,23000,1133075,132,15.0,1989,,,1/12/2006 0:00,621,621,,,,,Wheel Loader - 120.0 to 135.0 Horsepower,Pennsylvania,WL,Wheel Loader,,EROPS,None or Unspecified,,None or Unspecified,,,,,,,,2 Valve,,,,,None or Unspecified,None or Unspecified,,,,,,,,,,,,,Standard,Conventional
6797,1277151,42000,1133075,132,1.0,1989,4058.0,Medium,4/23/1996 0:00,621,621,,,,,Wheel Loader - 120.0 to 135.0 Horsepower,Virginia,WL,Wheel Loader,,EROPS,None or Unspecified,,None or Unspecified,,,,,,,,2 Valve,,,,,None or Unspecified,None or Unspecified,,,,,,,,,,,,,Standard,Conventional
6797,1277152,28000,1209855,132,1.0,1989,,,9/22/2004 0:00,621,621,,,,,Wheel Loader - 120.0 to 135.0 Horsepower,California,WL,Wheel Loader,,OROPS,None or Unspecified,,None or Unspecified,,,,,,,,2 Valve,,,,,20.5,None or Unspecified,,,,,,,,,,,,,Standard,Conventional
6797,1277153,21000,1336024,132,1.0,1989,,,3/25/2003 0:00,621,621,,,,,Wheel Loader - 120.0 to 135.0 Horsepower,Washington,WL,Wheel Loader,,EROPS,None or Unspecified,,None or Unspecified,,,,,,,,2 Valve,,,,,20.5,None or Unspecified,,,,,,,,,,,,,Standard,Conventional
6797,1277155,25000,1334918,132,1.0,1989,,,9/29/2000 0:00,621,621,,,,,Wheel Loader - 120.0 to 135.0 Horsepower,Colorado,WL,Wheel Loader,,EROPS,None or Unspecified,,None or Unspecified,,,,,,,,2 Valve,,,,,None or Unspecified,None or Unspecified,,,,,,,,,,,,,Standard,Conventional
6797,1277156,24000,1312495,132,2.0,1000,,,5/9/2006 0:00,621,621,,,,,Wheel Loader - 120.0 to 135.0 Horsepower,Texas,WL,Wheel Loader,,EROPS w AC,None or Unspecified,,None or Unspecified,,,,,,,,2 Valve,,,,,None or Unspecified,None or Unspecified,,,,,,,,,,,,,Standard,Conventional
6797,1277157,45000,1313990,132,2.0,1989,,,6/17/1995 0:00,621,621,,,,,Wheel Loader - 120.0 to 135.0 Horsepower,New Jersey,WL,Wheel Loader,,EROPS,None or Unspecified,,None or Unspecified,,,,,,,,2 Valve,,,,,None or Unspecified,None or Unspecified,,,,,,,,,,,,,Standard,Conventional
6797,1277158,43000,1213237,132,2.0,1989,,,2/7/1996 0:00,621,621,,,,,Wheel Loader - 120.0 to 135.0 Horsepower,Florida,WL,Wheel Loader,,EROPS,None or Unspecified,,None or Unspecified,,,,,,,,2 Valve,,,,,None or Unspecified,None or Unspecified,,,,,,,,,,,,,Standard,Conventional
6797,1277159,32500,1224022,132,2.0,1000,,,2/5/1997 0:00,621,621,,,,,Wheel Loader - 120.0 to 135.0 Horsepower,Florida,WL,Wheel Loader,,OROPS,None or Unspecified,,None or Unspecified,,,,,,,,2 Valve,,,,,None or Unspecified,None or Unspecified,,,,,,,,,,,,,Standard,Conventional
6797,1277160,24000,1332006,132,2.0,1989,,,6/27/2002 0:00,621,621,,,,,Wheel Loader - 120.0 to 135.0 Horsepower,California,WL,Wheel Loader,,EROPS,None or Unspecified,,None or Unspecified,,,,,,,,2 Valve,,,,,None or Unspecified,None or Unspecified,,,,,,,,,,,,,Standard,Conventional
6797,1277163,40000,1216016,132,1.0,1989,,,2/21/1991 0:00,621,621,,,,,Wheel Loader - 120.0 to 135.0 Horsepower,Texas,WL,Wheel Loader,,EROPS,None or Unspecified,,None or Unspecified,,,,,,,,2 Valve,,,,,20.5,None or Unspecified,,,,,,,,,,,,,Standard,Conventional
6797,1277164,47000,1216016,132,1.0,1989,,,11/21/1996 0:00,621,621,,,,,Wheel Loader - 120.0 to 135.0 Horsepower,Texas,WL,Wheel Loader,,EROPS,None or Unspecified,,None or Unspecified,,,,,,,,2 Valve,,,,,20.5,None or Unspecified,,,,,,,,,,,,,Standard,Conventional
6797,1277165,43000,1343373,132,2.0,1989,,,5/14/1994 0:00,621,621,,,,,Wheel Loader - 120.0 to 135.0 Horsepower,New York,WL,Wheel Loader,,EROPS,None or Unspecified,,None or Unspecified,,,,,,,,2 Valve,,,,,20.5,Hydraulic,,,,,,,,,,,,,Standard,Conventional
6797,1277166,18000,1425524,132,1.0,1989,,,8/13/2003 0:00,621,621,,,,,Wheel Loader - 120.0 to 135.0 Horsepower,Texas,WL,Wheel Loader,,OROPS,None or Unspecified,,None or Unspecified,,,,,,,,2 Valve,,,,,20.5,None or Unspecified,,,,,,,,,,,,,Standard,Conventional
6797,1277168,16000,1262415,132,1.0,1989,,,8/30/2006 0:00,621,621,,,,,Wheel Loader - 120.0 to 135.0 Horsepower,Georgia,WL,Wheel Loader,,EROPS,None or Unspecified,,None or Unspecified,,,,,,,,2 Valve,,,,,17.5,None or Unspecified,,,,,,,,,,,,,Standard,Conventional
6797,1277169,17750,1408203,132,11.0,1989,,,9/1/1999 0:00,621,621,,,,,Wheel Loader - 120.0 to 135.0 Horsepower,Mississippi,WL,Wheel Loader,,OROPS,None or Unspecified,,None or Unspecified,,,,,,,,2 Valve,,,,,None or Unspecified,None or Unspecified,,,,,,,,,,,,,Standard,Conventional
6797,1277170,22500,1408203,132,2.0,1989,,,6/5/1999 0:00,621,621,,,,,Wheel Loader - 120.0 to 135.0 Horsepower,Florida,WL,Wheel Loader,,OROPS,None or Unspecified,,None or Unspecified,,,,,,,,2 Valve,,,,,None or Unspecified,None or Unspecified,,,,,,,,,,,,,Standard,Conventional
6797,1277172,19950,1538019,132,9.0,1989,,,8/19/2004 0:00,621,621,,,,,Wheel Loader - 120.0 to 135.0 Horsepower,South Carolina,WL,Wheel Loader,,EROPS,None or Unspecified,,None or Unspecified,,,,,,,,2 Valve,,,,,17.5,None or Unspecified,,,,,,,,,,,,,Standard,Conventional
6797,1277174,28500,1162602,132,4.0,1989,,,2/7/2005 0:00,621,621,,,,,Wheel Loader - 120.0 to 135.0 Horsepower,Florida,WL,Wheel Loader,,EROPS,None or Unspecified,,None or Unspecified,,,,,,,,2 Valve,,,,,None or Unspecified,None or Unspecified,,,,,,,,,,,,,Standard,Conventional
6797,1277175,28000,1236000,132,1.0,1989,,,9/23/1998 0:00,621,621,,,,,Wheel Loader - 120.0 to 135.0 Horsepower,Texas,WL,Wheel Loader,,EROPS,None or Unspecified,,None or Unspecified,,,,,,,,2 Valve,,,,,None or Unspecified,None or Unspecified,,,,,,,,,,,,,Standard,Conventional
6797,1277177,17500,1079510,132,25.0,1989,2092.0,Low,6/26/1999 0:00,621,621,,,,,Wheel Loader - 120.0 to 135.0 Horsepower,California,WL,Wheel Loader,,OROPS,None or Unspecified,,None or Unspecified,,,,,,,,2 Valve,,,,,None or Unspecified,None or Unspecified,,,,,,,,,,,,,Standard,Conventional
6797,1277178,18000,1074476,132,1.0,1989,,,9/19/2001 0:00,621,621,,,,,Wheel Loader - 120.0 to 135.0 Horsepower,Texas,WL,Wheel Loader,,EROPS,None or Unspecified,,None or Unspecified,,,,,,,,2 Valve,,,,,20.5,None or Unspecified,,,,,,,,,,,,,Standard,Conventional
6797,1277179,19000,1503922,132,1.0,1989,,,12/12/2001 0:00,621,621,,,,,Wheel Loader - 120.0 to 135.0 Horsepower,Texas,WL,Wheel Loader,,OROPS,None or Unspecified,,None or Unspecified,,,,,,,,2 Valve,,,,,20.5,None or Unspecified,,,,,,,,,,,,,Standard,Conventional
6797,1277180,27000,1503922,132,6.0,1989,,,2/26/1998 0:00,621,621,,,,,Wheel Loader - 120.0 to 135.0 Horsepower,Texas,WL,Wheel Loader,,OROPS,None or Unspecified,,None or Unspecified,,,,,,,,2 Valve,,,,,20.5,None or Unspecified,,,,,,,,,,,,,Standard,Conventional
6797,1277181,19500,1503922,132,1.0,1989,,,3/20/2002 0:00,621,621,,,,,Wheel Loader - 120.0 to 135.0 Horsepower,Texas,WL,Wheel Loader,,OROPS,None or Unspecified,,None or Unspecified,,,,,,,,2 Valve,,,,,20.5,None or Unspecified,,,,,,,,,,,,,Standard,Conventional
6797,1277182,20000,1503922,132,1.0,1989,,,6/16/2004 0:00,621,621,,,,,Wheel Loader - 120.0 to 135.0 Horsepower,Texas,WL,Wheel Loader,,OROPS,None or Unspecified,,None or Unspecified,,,,,,,,2 Valve,,,,,20.5,None or Unspecified,,,,,,,,,,,,,Standard,Conventional
6797,1277183,22000,1503922,132,6.0,1989,,,7/23/1998 0:00,621,621,,,,,Wheel Loader - 120.0 to 135.0 Horsepower,Texas,WL,Wheel Loader,,OROPS,None or Unspecified,,None or Unspecified,,,,,,,,2 Valve,,,,,20.5,None or Unspecified,,,,,,,,,,,,,Standard,Conventional
6797,1277184,22000,1326736,132,1.0,1989,,,9/30/2003 0:00,621,621,,,,,Wheel Loader - 120.0 to 135.0 Horsepower,Colorado,WL,Wheel Loader,,EROPS,None or Unspecified,,None or Unspecified,,,,,,,,2 Valve,,,,,None or Unspecified,None or Unspecified,,,,,,,,,,,,,Standard,Conventional
6797,1277186,39000,1435591,132,18.0,1000,,,6/12/1996 0:00,621,621,,,,,Wheel Loader - 120.0 to 135.0 Horsepower,Pennsylvania,WL,Wheel Loader,,EROPS,None or Unspecified,,None or Unspecified,,,,,,,,2 Valve,,,,,None or Unspecified,None or Unspecified,,,,,,,,,,,,,Standard,Conventional
6797,1277187,18500,569682,132,21.0,1989,,,5/6/2004 0:00,621,621,,,,,Wheel Loader - 120.0 to 135.0 Horsepower,Maine,WL,Wheel Loader,,EROPS,None or Unspecified,,None or Unspecified,,,,,,,,2 Valve,,,,,20.5,None or Unspecified,,,,,,,,,,,,,Standard,Conventional
6797,1277189,25000,1245452,132,1.0,1000,,,9/24/2004 0:00,621,621,,,,,Wheel Loader - 120.0 to 135.0 Horsepower,Texas,WL,Wheel Loader,,EROPS w AC,None or Unspecified,,None or Unspecified,,,,,,,,2 Valve,,,,,20.5,None or Unspecified,,,,,,,,,,,,,Standard,Conventional
6797,1277191,44000,1286298,132,2.0,1989,,,7/23/1994 0:00,621,621,,,,,Wheel Loader - 120.0 to 135.0 Horsepower,Ohio,WL,Wheel Loader,,EROPS w AC,None or Unspecified,,None or Unspecified,,,,,,,,2 Valve,,,,,None or Unspecified,None or Unspecified,,,,,,,,,,,,,Standard,Conventional
6797,1277192,43000,1525202,132,2.0,1989,,,3/25/1994 0:00,621,621,,,,,Wheel Loader - 120.0 to 135.0 Horsepower,New Jersey,WL,Wheel Loader,,EROPS,None or Unspecified,,None or Unspecified,,,,,,,,2 Valve,,,,,None or Unspecified,None or Unspecified,,,,,,,,,,,,,Standard,Conventional
6797,1277194,22500,1384091,132,4.0,1989,,,2/13/2006 0:00,621,621,,,,,Wheel Loader - 120.0 to 135.0 Horsepower,Florida,WL,Wheel Loader,,EROPS,None or Unspecified,,None or Unspecified,,,,,,,,2 Valve,,,,,None or Unspecified,Manual,,,,,,,,,,,,,Standard,Conventional
6797,1277195,26000,1195060,132,6.0,1989,,,3/13/1997 0:00,621,621,,,,,Wheel Loader - 120.0 to 135.0 Horsepower,Florida,WL,Wheel Loader,,EROPS,None or Unspecified,,None or Unspecified,,,,,,,,2 Valve,,,,,None or Unspecified,None or Unspecified,,,,,,,,,,,,,Standard,Conventional
6797,1277196,46000,1288659,132,1.0,1989,,,9/22/1994 0:00,621,621,,,,,Wheel Loader - 120.0 to 135.0 Horsepower,Colorado,WL,Wheel Loader,,EROPS,None or Unspecified,,None or Unspecified,,,,,,,,2 Valve,,,,,None or Unspecified,None or Unspecified,,,,,,,,,,,,,Standard,Conventional
6797,1277197,22000,1121390,132,1.0,1989,,,6/20/2002 0:00,621,621,,,,,Wheel Loader - 120.0 to 135.0 Horsepower,Illinois,WL,Wheel Loader,,EROPS w AC,None or Unspecified,,None or Unspecified,,,,,,,,2 Valve,,,,,20.5,None or Unspecified,,,,,,,,,,,,,Standard,Conventional
6797,1277199,33000,1105105,132,2.0,1990,,,6/15/1996 0:00,621,621,,,,,Wheel Loader - 120.0 to 135.0 Horsepower,New Jersey,WL,Wheel Loader,,EROPS,None or Unspecified,,None or Unspecified,,,,,,,,2 Valve,,,,,None or Unspecified,None or Unspecified,,,,,,,,,,,,,Standard,Conventional
6797,1277200,39000,1074584,132,2.0,1988,,,5/8/1993 0:00,621,621,,,,,Wheel Loader - 120.0 to 135.0 Horsepower,Ohio,WL,Wheel Loader,,EROPS,None or Unspecified,,None or Unspecified,,,,,,,,2 Valve,,,,,None or Unspecified,None or Unspecified,,,,,,,,,,,,,Standard,Conventional
6797,1277201,32000,1074584,132,2.0,1989,,,3/12/1993 0:00,621,621,,,,,Wheel Loader - 120.0 to 135.0 Horsepower,New Jersey,WL,Wheel Loader,,EROPS,None or Unspecified,,None or Unspecified,,,,,,,,2 Valve,,,,,None or Unspecified,None or Unspecified,,,,,,,,,,,,,Standard,Conventional
6797,1277204,48500,1423644,132,2.0,1990,,,10/1/1994 0:00,621,621,,,,,Wheel Loader - 120.0 to 135.0 Horsepower,Pennsylvania,WL,Wheel Loader,,EROPS,None or Unspecified,,None or Unspecified,,,,,,,,2 Valve,,,,,None or Unspecified,None or Unspecified,,,,,,,,,,,,,Standard,Conventional
6797,1277206,29000,1511591,132,2.0,1989,,,12/19/1992 0:00,621,621,,,,,Wheel Loader - 120.0 to 135.0 Horsepower,New Jersey,WL,Wheel Loader,,EROPS,None or Unspecified,,None or Unspecified,,,,,,,,2 Valve,,,,,None or Unspecified,None or Unspecified,,,,,,,,,,,,,Standard,Conventional
6797,1277207,23000,1246098,132,1.0,1989,,,6/22/2000 0:00,621,621,,,,,Wheel Loader - 120.0 to 135.0 Horsepower,Illinois,WL,Wheel Loader,,EROPS,None or Unspecified,,None or Unspecified,,,,,,,,2 Valve,,,,,20.5,None or Unspecified,,,,,,,,,,,,,Standard,Conventional
6797,1277209,21000,1223604,132,1.0,1989,,,6/14/2000 0:00,621,621,,,,,Wheel Loader - 120.0 to 135.0 Horsepower,Texas,WL,Wheel Loader,,EROPS,None or Unspecified,,None or Unspecified,,,,,,,,2 Valve,,,,,20.5,None or Unspecified,,,,,,,,,,,,,Standard,Conventional
6797,1277210,36500,1248467,132,2.0,1989,,,3/14/1998 0:00,621,621,,,,,Wheel Loader - 120.0 to 135.0 Horsepower,Indiana,WL,Wheel Loader,,EROPS,None or Unspecified,,None or Unspecified,,,,,,,,2 Valve,,,,,None or Unspecified,None or Unspecified,,,,,,,,,,,,,Standard,Conventional
6797,1277211,39000,1470508,132,1.0,1989,,,4/23/1996 0:00,621,621,,,,,Wheel Loader - 120.0 to 135.0 Horsepower,Virginia,WL,Wheel Loader,,EROPS,None or Unspecified,,None or Unspecified,,,,,,,,2 Valve,,,,,None or Unspecified,None or Unspecified,,,,,,,,,,,,,Standard,Conventional
6797,1277212,30500,1380067,132,99.0,1989,,,4/4/1997 0:00,621,621,,,,,Wheel Loader - 120.0 to 135.0 Horsepower,Maryland,WL,Wheel Loader,,OROPS,None or Unspecified,,None or Unspecified,,,,,,,,2 Valve,,,,,None or Unspecified,None or Unspecified,,,,,,,,,,,,,Standard,Conventional
6797,1277213,15500,1433118,132,11.0,1000,,,3/21/2000 0:00,621,621,,,,,Wheel Loader - 120.0 to 135.0 Horsepower,Mississippi,WL,Wheel Loader,,OROPS,None or Unspecified,,None or Unspecified,,,,,,,,2 Valve,,,,,None or Unspecified,None or Unspecified,,,,,,,,,,,,,Standard,Conventional
6797,1277215,43000,1355488,132,2.0,1989,,,3/25/1994 0:00,621,621,,,,,Wheel Loader - 120.0 to 135.0 Horsepower,New Jersey,WL,Wheel Loader,,EROPS,None or Unspecified,,None or Unspecified,,,,,,,,2 Valve,,,,,None or Unspecified,None or Unspecified,,,,,,,,,,,,,Standard,Conventional
6797,1277216,16000,1100329,132,1.0,1989,,,11/14/2001 0:00,621,621,,,,,Wheel Loader - 120.0 to 135.0 Horsepower,Utah,WL,Wheel Loader,,EROPS,None or Unspecified,,None or Unspecified,,,,,,,,2 Valve,,,,,20.5,None or Unspecified,,,,,,,,,,,,,Standard,Conventional
6797,1277217,35000,1094481,132,1.0,1989,,,12/3/1992 0:00,621,621,,,,,Wheel Loader - 120.0 to 135.0 Horsepower,Washington,WL,Wheel Loader,,OROPS,None or Unspecified,,None or Unspecified,,,,,,,,2 Valve,,,,,None or Unspecified,None or Unspecified,,,,,,,,,,,,,Standard,Conventional
6797,1277218,28000,1514155,132,2.0,1989,,,3/27/2003 0:00,621,621,,,,,Wheel Loader - 120.0 to 135.0 Horsepower,New Jersey,WL,Wheel Loader,,EROPS,None or Unspecified,,None or Unspecified,,,,,,,,2 Valve,,,,,None or Unspecified,None or Unspecified,,,,,,,,,,,,,Standard,Conventional
6797,1277224,28000,1495214,132,99.0,1000,,,7/25/2000 0:00,621,621,,,,,Wheel Loader - 120.0 to 135.0 Horsepower,Missouri,WL,Wheel Loader,,EROPS,None or Unspecified,,None or Unspecified,,,,,,,,2 Valve,,,,,None or Unspecified,None or Unspecified,,,,,,,,,,,,,Standard,Conventional
6797,1277225,18000,1503432,132,1.0,1989,,,9/19/2001 0:00,621,621,,,,,Wheel Loader - 120.0 to 135.0 Horsepower,Texas,WL,Wheel Loader,,EROPS,None or Unspecified,,None or Unspecified,,,,,,,,2 Valve,,,,,20.5,None or Unspecified,,,,,,,,,,,,,Standard,Conventional
6797,1277228,32000,1110851,132,1.0,1989,,,3/3/1998 0:00,621,621,,,,,Wheel Loader - 120.0 to 135.0 Horsepower,Wisconsin,WL,Wheel Loader,,EROPS,None or Unspecified,,None or Unspecified,,,,,,,,2 Valve,,,,,None or Unspecified,None or Unspecified,,,,,,,,,,,,,Standard,Conventional
6797,1277229,37500,1135195,132,99.0,1989,,,5/18/1996 0:00,621,621,,,,,Wheel Loader - 120.0 to 135.0 Horsepower,Illinois,WL,Wheel Loader,,EROPS,None or Unspecified,,None or Unspecified,,,,,,,,2 Valve,,,,,None or Unspecified,None or Unspecified,,,,,,,,,,,,,Standard,Conventional
6797,1277232,17500,1182380,132,13.0,1989,,,3/20/2004 0:00,621,621,,,,,Wheel Loader - 120.0 to 135.0 Horsepower,Tennessee,WL,Wheel Loader,,EROPS,Yes,,None or Unspecified,,,,,,,,2 Valve,,,,,None or Unspecified,None or Unspecified,,,,,,,,,,,,,Standard,Conventional
6797,1277233,28500,1182380,132,13.0,1990,,,6/9/2001 0:00,621,621,,,,,Wheel Loader - 120.0 to 135.0 Horsepower,Tennessee,WL,Wheel Loader,,EROPS,Yes,,None or Unspecified,,,,,,,,2 Valve,,,,,None or Unspecified,None or Unspecified,,,,,,,,,,,,,Standard,Conventional
6797,1277234,19000,1472819,132,7.0,1989,,,3/9/2005 0:00,621,621,,,,,Wheel Loader - 120.0 to 135.0 Horsepower,Alabama,WL,Wheel Loader,,EROPS,Yes,,None or Unspecified,,,,,,,,2 Valve,,,,,20.5,None or Unspecified,,,,,,,,,,,,,Standard,Conventional
6797,1277235,23000,1209774,132,2.0,1989,,,3/14/2002 0:00,621,621,,,,,Wheel Loader - 120.0 to 135.0 Horsepower,New Jersey,WL,Wheel Loader,,EROPS,None or Unspecified,,None or Unspecified,,,,,,,,2 Valve,,,,,None or Unspecified,None or Unspecified,,,,,,,,,,,,,Standard,Conventional
6797,1277236,16000,1151223,132,1.0,1989,,,7/12/2006 0:00,621,621,,,,,Wheel Loader - 120.0 to 135.0 Horsepower,Texas,WL,Wheel Loader,,EROPS,None or Unspecified,,None or Unspecified,,,,,,,,2 Valve,,,,,20.5,None or Unspecified,,,,,,,,,,,,,Standard,Conventional
6797,1277238,32000,1387346,132,4.0,1990,,,2/5/1998 0:00,621,621,,,,,Wheel Loader - 120.0 to 135.0 Horsepower,Florida,WL,Wheel Loader,,OROPS,None or Unspecified,,None or Unspecified,,,,,,,,2 Valve,,,,,None or Unspecified,None or Unspecified,,,,,,,,,,,,,Standard,Conventional
6797,1277239,21000,1308253,132,1.0,1989,,,3/13/2003 0:00,621,621,,,,,Wheel Loader - 120.0 to 135.0 Horsepower,Illinois,WL,Wheel Loader,,EROPS,None or Unspecified,,None or Unspecified,,,,,,,,2 Valve,,,,,20.5,None or Unspecified,,,,,,,,,,,,,Standard,Conventional
6797,1277240,18500,1029287,132,11.0,1990,,,9/1/1999 0:00,621,621,,,,,Wheel Loader - 120.0 to 135.0 Horsepower,Mississippi,WL,Wheel Loader,,OROPS,None or Unspecified,,None or Unspecified,,,,,,,,2 Valve,,,,,20.5,None or Unspecified,,,,,,,,,,,,,Standard,Conventional
6797,1277243,31500,1236562,132,2.0,1990,,,3/20/1997 0:00,621,621,,,,,Wheel Loader - 120.0 to 135.0 Horsepower,New Jersey,WL,Wheel Loader,,OROPS,None or Unspecified,,None or Unspecified,,,,,,,,2 Valve,,,,,None or Unspecified,None or Unspecified,,,,,,,,,,,,,Standard,Conventional
6797,1277244,17000,1236562,132,2.0,1990,,,9/18/1999 0:00,621,621,,,,,Wheel Loader - 120.0 to 135.0 Horsepower,New Jersey,WL,Wheel Loader,,OROPS,None or Unspecified,,None or Unspecified,,,,,,,,2 Valve,,,,,None or Unspecified,None or Unspecified,,,,,,,,,,,,,Standard,Conventional
6797,1277246,38000,1443597,132,1.0,1990,,,11/14/1995 0:00,621,621,,,,,Wheel Loader - 120.0 to 135.0 Horsepower,Florida,WL,Wheel Loader,,OROPS,None or Unspecified,,None or Unspecified,,,,,,,,2 Valve,,,,,None or Unspecified,None or Unspecified,,,,,,,,,,,,,Standard,Conventional
6797,1277247,49000,1227054,132,2.0,1990,,,2/7/1996 0:00,621,621,,,,,Wheel Loader - 120.0 to 135.0 Horsepower,Florida,WL,Wheel Loader,,EROPS,None or Unspecified,,None or Unspecified,,,,,,,,2 Valve,,,,,None or Unspecified,None or Unspecified,,,,,,,,,,,,,Standard,Conventional
6797,1277248,22000,1207643,132,2.0,1000,,,5/18/2002 0:00,621,621,,,,,Wheel Loader - 120.0 to 135.0 Horsepower,Pennsylvania,WL,Wheel Loader,,OROPS,None or Unspecified,,None or Unspecified,,,,,,,,3 Valve,,,,,None or Unspecified,None or Unspecified,,,,,,,,,,,,,Standard,Conventional
6797,1277249,45000,1441038,132,2.0,1990,,,4/27/1996 0:00,621,621,,,,,Wheel Loader - 120.0 to 135.0 Horsepower,Ohio,WL,Wheel Loader,,EROPS w AC,None or Unspecified,,None or Unspecified,,,,,,,,2 Valve,,,,,None or Unspecified,None or Unspecified,,,,,,,,,,,,,Standard,Conventional
6797,1277250,26000,1120022,132,1.0,1990,,,9/24/2004 0:00,621,621,,,,,Wheel Loader - 120.0 to 135.0 Horsepower,Texas,WL,Wheel Loader,,EROPS w AC,None or Unspecified,,None or Unspecified,,,,,,,,2 Valve,,,,,20.5,None or Unspecified,,,,,,,,,,,,,Standard,Conventional
6797,1277251,39000,1094774,132,99.0,1990,,,5/18/1996 0:00,621,621,,,,,Wheel Loader - 120.0 to 135.0 Horsepower,Illinois,WL,Wheel Loader,,EROPS,None or Unspecified,,None or Unspecified,,,,,,,,2 Valve,,,,,None or Unspecified,None or Unspecified,,,,,,,,,,,,,Standard,Conventional
6797,1277252,27000,1412316,132,1.0,1990,,,6/22/1999 0:00,621,621,,,,,Wheel Loader - 120.0 to 135.0 Horsepower,Washington,WL,Wheel Loader,,OROPS,None or Unspecified,,None or Unspecified,,,,,,,,2 Valve,,,,,None or Unspecified,None or Unspecified,,,,,,,,,,,,,Standard,Conventional
6797,1277255,34000,1428196,132,6.0,1990,,,2/26/1998 0:00,621,621,,,,,Wheel Loader - 120.0 to 135.0 Horsepower,Texas,WL,Wheel Loader,,OROPS,None or Unspecified,,None or Unspecified,,,,,,,,2 Valve,,,,,20.5,None or Unspecified,,,,,,,,,,,,,Standard,Conventional
6797,1277256,17500,1428196,132,1.0,1990,,,9/11/2001 0:00,621,621,,,,,Wheel Loader - 120.0 to 135.0 Horsepower,California,WL,Wheel Loader,,OROPS,None or Unspecified,,None or Unspecified,,,,,,,,2 Valve,,,,,20.5,None or Unspecified,,,,,,,,,,,,,Standard,Conventional
6797,1277258,20000,1471132,132,1.0,1990,,,12/16/2005 0:00,621,621,,,,,Wheel Loader - 120.0 to 135.0 Horsepower,Arizona,WL,Wheel Loader,,OROPS,None or Unspecified,,None or Unspecified,,,,,,,,2 Valve,,,,,20.5,None or Unspecified,,,,,,,,,,,,,Standard,Conventional
6797,1277260,19000,1003815,132,1.0,1990,,,9/27/2006 0:00,621,621,,,,,Wheel Loader - 120.0 to 135.0 Horsepower,Texas,WL,Wheel Loader,,EROPS,None or Unspecified,,None or Unspecified,,,,,,,,2 Valve,,,,,20.5,None or Unspecified,,,,,,,,,,,,,Standard,Conventional
6797,1277261,32000,1230753,132,4.0,1990,,,2/5/1998 0:00,621,621,,,,,Wheel Loader - 120.0 to 135.0 Horsepower,Florida,WL,Wheel Loader,,OROPS,None or Unspecified,,None or Unspecified,,,,,,,,2 Valve,,,,,None or Unspecified,None or Unspecified,,,,,,,,,,,,,Standard,Conventional
6797,1277262,28000,1534496,132,1.0,1990,,,2/29/2000 0:00,621,621,,,,,Wheel Loader - 120.0 to 135.0 Horsepower,Arizona,WL,Wheel Loader,,OROPS,None or Unspecified,,None or Unspecified,,,,,,,,2 Valve,,,,,20.5,None or Unspecified,,,,,,,,,,,,,Standard,Conventional
6797,1277266,16000,1438853,132,2.0,1990,,,3/17/2004 0:00,621,621,,,,,Wheel Loader - 120.0 to 135.0 Horsepower,Texas,WL,Wheel Loader,,OROPS,None or Unspecified,,None or Unspecified,,,,,,,,2 Valve,,,,,None or Unspecified,None or Unspecified,,,,,,,,,,,,,Standard,Conventional
6797,1277267,40000,1132079,132,2.0,1990,,,5/14/1994 0:00,621,621,,,,,Wheel Loader - 120.0 to 135.0 Horsepower,New York,WL,Wheel Loader,,OROPS,None or Unspecified,,None or Unspecified,,,,,,,,2 Valve,,,,,None or Unspecified,None or Unspecified,,,,,,,,,,,,,Standard,Conventional
6797,1277268,38000,1346767,132,11.0,1990,,,3/29/1995 0:00,621,621,,,,,Wheel Loader - 120.0 to 135.0 Horsepower,Mississippi,WL,Wheel Loader,,OROPS,None or Unspecified,,None or Unspecified,,,,,,,,2 Valve,,,,,None or Unspecified,Manual,,,,,,,,,,,,,Standard,Conventional
6797,1277269,46500,1410003,132,2.0,1990,,,8/13/1994 0:00,621,621,,,,,Wheel Loader - 120.0 to 135.0 Horsepower,Pennsylvania,WL,Wheel Loader,,EROPS,None or Unspecified,,None or Unspecified,,,,,,,,2 Valve,,,,,None or Unspecified,None or Unspecified,,,,,,,,,,,,,Standard,Conventional
6797,1277270,26250,1357732,132,2.0,1990,,,2/4/1998 0:00,621,621,,,,,Wheel Loader - 120.0 to 135.0 Horsepower,Florida,WL,Wheel Loader,,OROPS,None or Unspecified,,None or Unspecified,,,,,,,,2 Valve,,,,,None or Unspecified,None or Unspecified,,,,,,,,,,,,,Standard,Conventional
6797,1277271,25500,1357732,132,2.0,1990,,,10/23/1999 0:00,621,621,,,,,Wheel Loader - 120.0 to 135.0 Horsepower,Florida,WL,Wheel Loader,,OROPS,None or Unspecified,,None or Unspecified,,,,,,,,2 Valve,,,,,None or Unspecified,None or Unspecified,,,,,,,,,,,,,Standard,Conventional
6797,1277272,24000,1520017,132,1.0,1990,,,6/17/1998 0:00,621,621,,,,,Wheel Loader - 120.0 to 135.0 Horsepower,Texas,WL,Wheel Loader,,EROPS,None or Unspecified,,None or Unspecified,,,,,,,,2 Valve,,,,,None or Unspecified,None or Unspecified,,,,,,,,,,,,,Standard,Conventional
6797,1277274,24000,1075984,132,4.0,1990,,,2/10/2003 0:00,621,621,,,,,Wheel Loader - 120.0 to 135.0 Horsepower,Florida,WL,Wheel Loader,,EROPS,None or Unspecified,,None or Unspecified,,,,,,,,2 Valve,,,,,None or Unspecified,None or Unspecified,,,,,,,,,,,,,Standard,Conventional
6797,1277275,43500,1434677,132,2.0,1990,,,8/13/1994 0:00,621,621,,,,,Wheel Loader - 120.0 to 135.0 Horsepower,Pennsylvania,WL,Wheel Loader,,EROPS,None or Unspecified,,None or Unspecified,,,,,,,,2 Valve,,,,,None or Unspecified,None or Unspecified,,,,,,,,,,,,,Standard,Conventional
6797,1277276,50000,1230819,132,2.0,1990,,,11/20/1993 0:00,621,621,,,,,Wheel Loader - 120.0 to 135.0 Horsepower,Ohio,WL,Wheel Loader,,EROPS,None or Unspecified,,None or Unspecified,,,,,,,,3 Valve,,,,,None or Unspecified,None or Unspecified,,,,,,,,,,,,,Standard,Conventional
6797,1277278,50000,1147497,132,2.0,1990,,,10/2/1993 0:00,621,621,,,,,Wheel Loader - 120.0 to 135.0 Horsepower,Pennsylvania,WL,Wheel Loader,,EROPS,None or Unspecified,,None or Unspecified,,,,,,,,2 Valve,,,,,None or Unspecified,None or Unspecified,,,,,,,,,,,,,Standard,Conventional
6797,1277282,21000,1226404,132,9.0,1990,,,8/19/2004 0:00,621,621,,,,,Wheel Loader - 120.0 to 135.0 Horsepower,South Carolina,WL,Wheel Loader,,EROPS,None or Unspecified,,None or Unspecified,,,,,,,,2 Valve,,,,,None or Unspecified,None or Unspecified,,,,,,,,,,,,,Standard,Conventional
6797,1277283,25000,1125026,132,4.0,1990,,,2/11/2002 0:00,621,621,,,,,Wheel Loader - 120.0 to 135.0 Horsepower,Florida,WL,Wheel Loader,,EROPS w AC,None or Unspecified,,None or Unspecified,,,,,,,,2 Valve,,,,,17.5,Manual,,,,,,,,,,,,,Standard,Conventional
6797,1277284,25000,1125026,132,4.0,1990,,,2/13/2006 0:00,621,621,,,,,Wheel Loader - 120.0 to 135.0 Horsepower,Florida,WL,Wheel Loader,,EROPS w AC,None or Unspecified,,None or Unspecified,,,,,,,,2 Valve,,,,,17.5,Manual,,,,,,,,,,,,,Standard,Conventional
6797,1277285,26000,1241318,132,7.0,1990,,,2/28/2002 0:00,621,621,,,,,Wheel Loader - 120.0 to 135.0 Horsepower,Alabama,WL,Wheel Loader,,EROPS,None or Unspecified,,None or Unspecified,,,,,,,,2 Valve,,,,,20.5,None or Unspecified,,,,,,,,,,,,,Standard,Conventional
6797,1277286,29000,1075632,132,1.0,1990,,,3/15/2001 0:00,621,621,,,,,Wheel Loader - 120.0 to 135.0 Horsepower,Colorado,WL,Wheel Loader,,EROPS,None or Unspecified,,None or Unspecified,,,,,,,,2 Valve,,,,,20.5,None or Unspecified,,,,,,,,,,,,,Standard,Conventional
6797,1277287,32500,1135731,132,2.0,1990,,,10/29/1999 0:00,621,621,,,,,Wheel Loader - 120.0 to 135.0 Horsepower,Ohio,WL,Wheel Loader,,EROPS,None or Unspecified,,None or Unspecified,,,,,,,,2 Valve,,,,,None or Unspecified,Manual,,,,,,,,,,,,,Standard,Conventional
6797,1277288,24000,1449678,132,1.0,1990,,,9/25/2001 0:00,621,621,,,,,Wheel Loader - 120.0 to 135.0 Horsepower,Illinois,WL,Wheel Loader,,EROPS,Yes,,None or Unspecified,,,,,,,,2 Valve,,,,,20.5,Manual,,,,,,,,,,,,,Standard,Conventional
6797,1277291,17000,320677,132,1.0,1990,,,12/19/2001 0:00,621,621,,,,,Wheel Loader - 120.0 to 135.0 Horsepower,Maryland,WL,Wheel Loader,,EROPS,Yes,,None or Unspecified,,,,,,,,2 Valve,,,,,20.5,None or Unspecified,,,,,,,,,,,,,Standard,Conventional
6797,1277292,25000,1337347,132,1.0,1990,,,6/12/2001 0:00,621,621,,,,,Wheel Loader - 120.0 to 135.0 Horsepower,Texas,WL,Wheel Loader,,EROPS,Yes,,None or Unspecified,,,,,,,,2 Valve,,,,,17.5,None or Unspecified,,,,,,,,,,,,,Standard,Conventional
6797,1277293,27000,1337347,132,1.0,1990,,,9/19/2001 0:00,621,621,,,,,Wheel Loader - 120.0 to 135.0 Horsepower,Texas,WL,Wheel Loader,,EROPS,Yes,,None or Unspecified,,,,,,,,2 Valve,,,,,17.5,None or Unspecified,,,,,,,,,,,,,Standard,Conventional
6797,1277294,26000,1165604,132,2.0,1990,,,8/3/2002 0:00,621,621,,,,,Wheel Loader - 120.0 to 135.0 Horsepower,Wisconsin,WL,Wheel Loader,,OROPS,None or Unspecified,,None or Unspecified,,,,,,,,2 Valve,,,,,None or Unspecified,None or Unspecified,,,,,,,,,,,,,Standard,Conventional
6797,1277295,22000,1255078,132,1.0,1990,,,6/27/2002 0:00,621,621,,,,,Wheel Loader - 120.0 to 135.0 Horsepower,Colorado,WL,Wheel Loader,,EROPS,None or Unspecified,,None or Unspecified,,,,,,,,2 Valve,,,,,None or Unspecified,None or Unspecified,,,,,,,,,,,,,Standard,Conventional
6797,1277297,35500,1194937,132,2.0,1990,,,6/15/1996 0:00,621,621,,,,,Wheel Loader - 120.0 to 135.0 Horsepower,New Jersey,WL,Wheel Loader,,EROPS,None or Unspecified,,None or Unspecified,,,,,,,,2 Valve,,,,,None or Unspecified,None or Unspecified,,,,,,,,,,,,,Standard,Conventional
6797,1277299,46000,1215247,132,21.0,1991,,,10/25/1997 0:00,621,621,,,,,Wheel Loader - 120.0 to 135.0 Horsepower,Maine,WL,Wheel Loader,,OROPS,None or Unspecified,,None or Unspecified,,,,,,,,2 Valve,,,,,None or Unspecified,None or Unspecified,,,,,,,,,,,,,Standard,Conventional
6797,1277301,28000,1362519,132,1.0,1991,,,5/27/1998 0:00,621,621,,,,,Wheel Loader - 120.0 to 135.0 Horsepower,Texas,WL,Wheel Loader,,EROPS,None or Unspecified,,None or Unspecified,,,,,,,,2 Valve,,,,,None or Unspecified,None or Unspecified,,,,,,,,,,,,,Standard,Conventional
6797,1277302,16500,1098313,132,1.0,1991,,,6/28/2005 0:00,621,621,,,,,Wheel Loader - 120.0 to 135.0 Horsepower,Maryland,WL,Wheel Loader,,EROPS,Yes,,None or Unspecified,,,,,,,,2 Valve,,,,,17.5,None or Unspecified,,,,,,,,,,,,,Standard,Conventional
6797,1277303,32000,1295990,132,1.0,1991,,,3/1/2005 0:00,621,621,,,,,Wheel Loader - 120.0 to 135.0 Horsepower,Illinois,WL,Wheel Loader,,EROPS,None or Unspecified,,None or Unspecified,,,,,,,,2 Valve,,,,,20.5,None or Unspecified,,,,,,,,,,,,,Standard,Conventional
6797,1277305,30000,1512981,132,1.0,1991,,,9/24/2004 0:00,621,621,,,,,Wheel Loader - 120.0 to 135.0 Horsepower,Minnesota,WL,Wheel Loader,,EROPS,None or Unspecified,,None or Unspecified,,,,,,,,2 Valve,,,,,None or Unspecified,None or Unspecified,,,,,,,,,,,,,Standard,Conventional
6797,1277306,35000,1408327,132,1.0,1995,,,6/30/1999 0:00,621,621,,,,,Wheel Loader - 120.0 to 135.0 Horsepower,New Mexico,WL,Wheel Loader,,OROPS,None or Unspecified,,None or Unspecified,,,,,,,,2 Valve,,,,,None or Unspecified,None or Unspecified,,,,,,,,,,,,,Standard,Conventional
6797,1277307,31000,1130334,132,1.0,1991,,,4/12/2005 0:00,621,621,,,,,Wheel Loader - 120.0 to 135.0 Horsepower,Maryland,WL,Wheel Loader,,EROPS,None or Unspecified,,None or Unspecified,,,,,,,,2 Valve,,,,,20.5,Manual,,,,,,,,,,,,,Standard,Conventional
6797,1277309,34000,1448536,132,1.0,1991,,,3/1/2005 0:00,621,621,,,,,Wheel Loader - 120.0 to 135.0 Horsepower,Illinois,WL,Wheel Loader,,EROPS,None or Unspecified,,None or Unspecified,,,,,,,,2 Valve,,,,,20.5,None or Unspecified,,,,,,,,,,,,,Standard,Conventional
6797,1277312,21000,1490048,132,1.0,1991,,,9/18/2001 0:00,621,621,,,,,Wheel Loader - 120.0 to 135.0 Horsepower,Arizona,WL,Wheel Loader,,OROPS,None or Unspecified,,None or Unspecified,,,,,,,,2 Valve,,,,,None or Unspecified,None or Unspecified,,,,,,,,,,,,,Standard,Conventional
6797,1277313,15000,1367770,132,1.0,1991,,,12/11/2002 0:00,621,621,,,,,Wheel Loader - 120.0 to 135.0 Horsepower,Texas,WL,Wheel Loader,,EROPS,Yes,,None or Unspecified,,,,,,,,2 Valve,,,,,20.5,None or Unspecified,,,,,,,,,,,,,Standard,Conventional
6797,1277514,38500,1329964,132,21.0,1991,,,4/30/1998 0:00,621,621,,,,,Wheel Loader - 120.0 to 135.0 Horsepower,Maine,WL,Wheel Loader,,OROPS,None or Unspecified,,None or Unspecified,,,,,,,,2 Valve,,,,,None or Unspecified,None or Unspecified,,,,,,,,,,,,,Standard,Conventional
6797,1277515,37000,1214728,132,21.0,1991,,,4/30/1998 0:00,621,621,,,,,Wheel Loader - 120.0 to 135.0 Horsepower,Maine,WL,Wheel Loader,,EROPS,None or Unspecified,,None or Unspecified,,,,,,,,2 Valve,,,,,None or Unspecified,None or Unspecified,,,,,,,,,,,,,Standard,Conventional
6797,1277518,36500,1534166,132,2.0,1991,,,9/26/1998 0:00,621,621,,,,,Wheel Loader - 120.0 to 135.0 Horsepower,New Jersey,WL,Wheel Loader,,EROPS,None or Unspecified,,None or Unspecified,,,,,,,,2 Valve,,,,,None or Unspecified,None or Unspecified,,,,,,,,,,,,,Standard,Conventional
6797,1277519,15500,1150085,132,4.0,1991,,,2/7/2005 0:00,621,621,,,,,Wheel Loader - 120.0 to 135.0 Horsepower,Florida,WL,Wheel Loader,,OROPS,None or Unspecified,,None or Unspecified,,,,,,,,2 Valve,,,,,None or Unspecified,None or Unspecified,,,,,,,,,,,,,Standard,Conventional
6797,1277520,32750,1447965,132,2.0,1991,,,2/4/1998 0:00,621,621,,,,,Wheel Loader - 120.0 to 135.0 Horsepower,Florida,WL,Wheel Loader,,OROPS,None or Unspecified,,None or Unspecified,,,,,,,,2 Valve,,,,,None or Unspecified,None or Unspecified,,,,,,,,,,,,,Standard,Conventional
6797,1277521,24000,1382600,132,1.0,1991,,,9/19/2001 0:00,621,621,,,,,Wheel Loader - 120.0 to 135.0 Horsepower,Texas,WL,Wheel Loader,,EROPS,None or Unspecified,,None or Unspecified,,,,,,,,2 Valve,,,,,17.5,None or Unspecified,,,,,,,,,,,,,Standard,Conventional
6797,1277522,35000,1234803,132,2.0,1991,,,4/28/2000 0:00,621,621,,,,,Wheel Loader - 120.0 to 135.0 Horsepower,Wisconsin,WL,Wheel Loader,,OROPS,None or Unspecified,,None or Unspecified,,,,,,,,2 Valve,,,,,None or Unspecified,None or Unspecified,,,,,,,,,,,,,Standard,Conventional
6797,1277523,45000,1494639,132,1.0,1991,,,10/3/1995 0:00,621,621,,,,,Wheel Loader - 120.0 to 135.0 Horsepower,Texas,WL,Wheel Loader,,EROPS,None or Unspecified,,None or Unspecified,,,,,,,,2 Valve,,,,,None or Unspecified,None or Unspecified,,,,,,,,,,,,,Standard,Conventional
6797,1277524,48500,1275352,132,2.0,1991,,,4/29/1995 0:00,621,621,,,,,Wheel Loader - 120.0 to 135.0 Horsepower,Ohio,WL,Wheel Loader,,OROPS,None or Unspecified,,None or Unspecified,,,,,,,,2 Valve,,,,,None or Unspecified,None or Unspecified,,,,,,,,,,,,,Standard,Conventional
6797,1277528,43000,1278187,132,1.0,1992,,,9/23/1997 0:00,621,621,,,,,Wheel Loader - 120.0 to 135.0 Horsepower,Texas,WL,Wheel Loader,,EROPS,None or Unspecified,,None or Unspecified,,,,,,,,2 Valve,,,,,None or Unspecified,None or Unspecified,,,,,,,,,,,,,Standard,Conventional
6797,1277529,52500,1086746,132,6.0,1992,,,3/15/1996 0:00,621,621,,,,,Wheel Loader - 120.0 to 135.0 Horsepower,New Mexico,WL,Wheel Loader,,EROPS,None or Unspecified,,None or Unspecified,,,,,,,,2 Valve,,,,,None or Unspecified,None or Unspecified,,,,,,,,,,,,,Standard,Conventional
6797,1277532,43000,1138113,132,1.0,1992,,,3/21/2005 0:00,621,621,,,,,Wheel Loader - 120.0 to 135.0 Horsepower,Arizona,WL,Wheel Loader,,OROPS,None or Unspecified,,None or Unspecified,,,,,,,,2 Valve,,,,,20.5,None or Unspecified,,,,,,,,,,,,,Standard,Conventional
6797,1277533,30000,1363237,132,1.0,1992,,,3/14/2000 0:00,621,621,,,,,Wheel Loader - 120.0 to 135.0 Horsepower,Texas,WL,Wheel Loader,,OROPS,Yes,,None or Unspecified,,,,,,,,2 Valve,,,,,20.5,None or Unspecified,,,,,,,,,,,,,Standard,Conventional
6797,1277535,47500,1300452,132,2.0,1992,,,3/28/1996 0:00,621,621,,,,,Wheel Loader - 120.0 to 135.0 Horsepower,New Jersey,WL,Wheel Loader,,EROPS,None or Unspecified,,None or Unspecified,,,,,,,,2 Valve,,,,,None or Unspecified,None or Unspecified,,,,,,,,,,,,,Standard,Conventional
6797,1277537,32000,1454340,132,2.0,1992,,,2/5/1997 0:00,621,621,,,,,Wheel Loader - 120.0 to 135.0 Horsepower,Florida,WL,Wheel Loader,,OROPS,None or Unspecified,,None or Unspecified,,,,,,,,2 Valve,,,,,None or Unspecified,None or Unspecified,,,,,,,,,,,,,Standard,Conventional
6797,1277540,47500,1323559,132,2.0,1992,,,3/28/1996 0:00,621,621,,,,,Wheel Loader - 120.0 to 135.0 Horsepower,New Jersey,WL,Wheel Loader,,EROPS w AC,None or Unspecified,,None or Unspecified,,,,,,,,2 Valve,,,,,20.5,None or Unspecified,,,,,,,,,,,,,Standard,Conventional
6797,1277543,13500,1230942,132,1.0,1992,,,10/1/2002 0:00,621,621,,,,,Wheel Loader - 120.0 to 135.0 Horsepower,North Carolina,WL,Wheel Loader,,OROPS,None or Unspecified,,None or Unspecified,,,,,,,,2 Valve,,,,,None or Unspecified,Manual,,,,,,,,,,,,,Standard,Conventional
6797,1277544,20500,1401583,132,9.0,1000,,,5/20/2004 0:00,621,621,,,,,Wheel Loader - 120.0 to 135.0 Horsepower,South Carolina,WL,Wheel Loader,,OROPS,None or Unspecified,,None or Unspecified,,,,,,,,2 Valve,,,,,None or Unspecified,Manual,,,,,,,,,,,,,Standard,Conventional
6797,1277546,34000,1307624,132,6.0,1992,,,2/26/1998 0:00,621,621,,,,,Wheel Loader - 120.0 to 135.0 Horsepower,Texas,WL,Wheel Loader,,OROPS,None or Unspecified,,None or Unspecified,,,,,,,,2 Valve,,,,,20.5,None or Unspecified,,,,,,,,,,,,,Standard,Conventional
6797,1277547,36000,1186301,132,4.0,1992,,,2/13/2006 0:00,621,621,,,,,Wheel Loader - 120.0 to 135.0 Horsepower,Florida,WL,Wheel Loader,,EROPS w AC,None or Unspecified,,None or Unspecified,,,,,,,,2 Valve,,,,,None or Unspecified,Manual,,,,,,,,,,,,,Standard,Conventional
6797,1277552,28000,1309964,132,17.0,1992,,,3/20/2001 0:00,621,621,,,,,Wheel Loader - 120.0 to 135.0 Horsepower,Washington,WL,Wheel Loader,,EROPS,None or Unspecified,,None or Unspecified,,,,,,,,2 Valve,,,,,20.5,None or Unspecified,,,,,,,,,,,,,Standard,Conventional
6797,1277553,46000,1185070,132,1.0,1991,,,4/1/1999 0:00,621,621,,,,,Wheel Loader - 120.0 to 135.0 Horsepower,Colorado,WL,Wheel Loader,,EROPS,None or Unspecified,,None or Unspecified,,,,,,,,2 Valve,,,,,None or Unspecified,None or Unspecified,,,,,,,,,,,,,Standard,Conventional
6797,1277554,20500,1261868,132,2.0,1992,,,6/5/1999 0:00,621,621,,,,,Wheel Loader - 120.0 to 135.0 Horsepower,Florida,WL,Wheel Loader,,OROPS,None or Unspecified,,None or Unspecified,,,,,,,,2 Valve,,,,,None or Unspecified,None or Unspecified,,,,,,,,,,,,,Standard,Conventional
6797,1277555,19000,1261868,132,11.0,1992,,,9/1/1999 0:00,621,621,,,,,Wheel Loader - 120.0 to 135.0 Horsepower,Mississippi,WL,Wheel Loader,,OROPS,None or Unspecified,,None or Unspecified,,,,,,,,2 Valve,,,,,None or Unspecified,None or Unspecified,,,,,,,,,,,,,Standard,Conventional
6797,1277556,17500,1489568,132,2.0,1992,,,5/24/2006 0:00,621,621,,,,,Wheel Loader - 120.0 to 135.0 Horsepower,Florida,WL,Wheel Loader,,OROPS,None or Unspecified,,None or Unspecified,,,,,,,,2 Valve,,,,,None or Unspecified,None or Unspecified,,,,,,,,,,,,,Standard,Conventional
6797,1277559,38500,1237519,132,2.0,1992,,,7/27/1996 0:00,621,621,,,,,Wheel Loader - 120.0 to 135.0 Horsepower,Ohio,WL,Wheel Loader,,OROPS,Yes,,None or Unspecified,,,,,,,,2 Valve,,,,,None or Unspecified,None or Unspecified,,,,,,,,,,,,,Standard,Conventional
6797,1277560,46000,1250139,132,1.0,1991,,,4/1/1999 0:00,621,621,,,,,Wheel Loader - 120.0 to 135.0 Horsepower,Colorado,WL,Wheel Loader,,EROPS,None or Unspecified,,None or Unspecified,,,,,,,,2 Valve,,,,,None or Unspecified,None or Unspecified,,,,,,,,,,,,,Standard,Conventional
6797,1277562,30000,1480382,132,4.0,1993,,,2/4/1999 0:00,621,621,,,,,Wheel Loader - 120.0 to 135.0 Horsepower,Florida,WL,Wheel Loader,,OROPS,None or Unspecified,,None or Unspecified,,,,,,,,2 Valve,,,,,None or Unspecified,None or Unspecified,,,,,,,,,,,,,Standard,Conventional
6797,1277563,21500,331612,132,2.0,1000,,,3/25/2004 0:00,621,621,,,,,Wheel Loader - 120.0 to 135.0 Horsepower,New Jersey,WL,Wheel Loader,,EROPS w AC,Yes,,None or Unspecified,,,,,,,,3 Valve,,,,,None or Unspecified,None or Unspecified,,,,,,,,,,,,,Standard,Conventional
6797,1277565,47000,1268320,132,2.0,1992,,,4/27/1996 0:00,621,621,,,,,Wheel Loader - 120.0 to 135.0 Horsepower,Ohio,WL,Wheel Loader,,EROPS,None or Unspecified,,None or Unspecified,,,,,,,,2 Valve,,,,,None or Unspecified,None or Unspecified,,,,,,,,,,,,,Standard,Conventional
6797,1277567,25000,1223288,132,1.0,1992,,,5/27/2004 0:00,621,621,,,,,Wheel Loader - 120.0 to 135.0 Horsepower,Florida,WL,Wheel Loader,,EROPS,None or Unspecified,,None or Unspecified,,,,,,,,2 Valve,,,,,None or Unspecified,None or Unspecified,,,,,,,,,,,,,Standard,Conventional
6797,1277571,39000,1341424,132,2.0,1993,,,11/16/1996 0:00,621,621,,,,,Wheel Loader - 120.0 to 135.0 Horsepower,Ohio,WL,Wheel Loader,,EROPS,None or Unspecified,,None or Unspecified,,,,,,,,2 Valve,,,,,None or Unspecified,None or Unspecified,,,,,,,,,,,,,Standard,Conventional
6797,1277572,35000,1341424,132,7.0,1993,,,6/20/1997 0:00,621,621,,,,,Wheel Loader - 120.0 to 135.0 Horsepower,Alabama,WL,Wheel Loader,,EROPS,None or Unspecified,,None or Unspecified,,,,,,,,2 Valve,,,,,None or Unspecified,None or Unspecified,,,,,,,,,,,,,Standard,Conventional
6797,1277573,38000,280012,132,2.0,1993,,,7/27/1996 0:00,621,621,,,,,Wheel Loader - 120.0 to 135.0 Horsepower,Ohio,WL,Wheel Loader,,EROPS,None or Unspecified,,None or Unspecified,,,,,,,,2 Valve,,,,,None or Unspecified,None or Unspecified,,,,,,,,,,,,,Standard,Conventional
6797,1277574,23500,1173678,132,2.0,1992,,,6/2/2001 0:00,621,621,,,,,Wheel Loader - 120.0 to 135.0 Horsepower,Florida,WL,Wheel Loader,,OROPS,None or Unspecified,,None or Unspecified,,,,,,,,2 Valve,,,,,None or Unspecified,None or Unspecified,,,,,,,,,,,,,Standard,Conventional
6797,1277576,26000,1538889,132,1.0,1993,,,3/6/2002 0:00,621,621,,,,,Wheel Loader - 120.0 to 135.0 Horsepower,New Mexico,WL,Wheel Loader,,EROPS,Yes,,None or Unspecified,,,,,,,,2 Valve,,,,,20.5,Manual,,,,,,,,,,,,,Standard,Conventional
6797,1277586,35500,1306718,132,21.0,1993,,,5/11/2000 0:00,621,621,,,,,Wheel Loader - 120.0 to 135.0 Horsepower,Maine,WL,Wheel Loader,,EROPS,None or Unspecified,,None or Unspecified,,,,,,,,2 Valve,,,,,20.5,None or Unspecified,,,,,,,,,,,,,Standard,Conventional
6797,1277651,40000,1515533,132,99.0,1000,,,9/20/1995 0:00,621,621,,,,,Wheel Loader - 120.0 to 135.0 Horsepower,Mississippi,WL,Wheel Loader,,EROPS w AC,Yes,,None or Unspecified,,,,,,,,2 Valve,,,,,None or Unspecified,None or Unspecified,,,,,,,,,,,,,Standard,Conventional
6797,1277652,44000,1136800,132,2.0,1989,,,6/15/1996 0:00,621,621,,,,,Wheel Loader - 120.0 to 135.0 Horsepower,New Jersey,WL,Wheel Loader,,EROPS,Yes,,None or Unspecified,,,,,,,,2 Valve,,,,,None or Unspecified,None or Unspecified,,,,,,,,,,,,,Standard,Conventional
6797,1277668,23000,1319341,132,2.0,1989,,,2/4/2002 0:00,621,621,,,,,Wheel Loader - 120.0 to 135.0 Horsepower,Florida,WL,Wheel Loader,,EROPS,Yes,,None or Unspecified,,,,,,,,2 Valve,,,,,None or Unspecified,None or Unspecified,,,,,,,,,,,,,Standard,Conventional
6797,1277669,16000,1252267,132,2.0,1000,,,7/20/2005 0:00,621,621,,,,,Wheel Loader - 120.0 to 135.0 Horsepower,Texas,WL,Wheel Loader,,EROPS w AC,None or Unspecified,,None or Unspecified,,,,,,,,2 Valve,,,,,None or Unspecified,None or Unspecified,,,,,,,,,,,,,Standard,Conventional
6797,1277670,29500,1252267,132,2.0,1990,,,6/15/2005 0:00,621,621,,,,,Wheel Loader - 120.0 to 135.0 Horsepower,Texas,WL,Wheel Loader,,EROPS w AC,None or Unspecified,,None or Unspecified,,,,,,,,2 Valve,,,,,None or Unspecified,None or Unspecified,,,,,,,,,,,,,Standard,Conventional
6797,1277675,29000,1449788,132,14.0,1990,,,3/22/2002 0:00,621,621,,,,,Wheel Loader - 120.0 to 135.0 Horsepower,Indiana,WL,Wheel Loader,,OROPS,None or Unspecified,,None or Unspecified,,,,,,,,2 Valve,,,,,None or Unspecified,None or Unspecified,,,,,,,,,,,,,Standard,Conventional
6797,1277680,27000,1223178,132,2.0,1993,,,2/2/1999 0:00,621,621,,,,,Wheel Loader - 120.0 to 135.0 Horsepower,Florida,WL,Wheel Loader,,OROPS,None or Unspecified,,None or Unspecified,,,,,,,,2 Valve,,,,,None or Unspecified,None or Unspecified,,,,,,,,,,,,,Standard,Conventional
6797,1277769,11500,1411433,132,1.0,1988,,,7/21/2009 0:00,621,621,,,,,Wheel Loader - 120.0 to 135.0 Horsepower,California,WL,Wheel Loader,,EROPS,None or Unspecified,,None or Unspecified,,,,,,,,2 Valve,,,,,20.5,None or Unspecified,,,,,,,,,,,,,Standard,Conventional
6797,1277771,39500,1091884,132,2.0,1988,,,12/18/1993 0:00,621,621,,,,,Wheel Loader - 120.0 to 135.0 Horsepower,New Jersey,WL,Wheel Loader,,OROPS,None or Unspecified,,None or Unspecified,,,,,,,,2 Valve,,,,,None or Unspecified,None or Unspecified,,,,,,,,,,,,,Standard,Conventional
6797,1277773,21000,1509881,132,1.0,1988,6610.0,Low,3/4/2011 0:00,621,621,,,,,Wheel Loader - 120.0 to 135.0 Horsepower,California,WL,Wheel Loader,,EROPS,None or Unspecified,,None or Unspecified,,,,,,,,2 Valve,,,,,20.5,None or Unspecified,,,,,,,,,,,,,Standard,Conventional
6797,1277774,23750,1463835,132,16.0,1989,,,5/13/2004 0:00,621,621,,,,,Wheel Loader - 120.0 to 135.0 Horsepower,Illinois,WL,Wheel Loader,,EROPS,Yes,,None or Unspecified,,,,,,,,2 Valve,,,,,17.5,None or Unspecified,,,,,,,,,,,,,Standard,Conventional
6797,1277775,16000,1511177,132,4.0,1989,,,2/14/2006 0:00,621,621,,,,,Wheel Loader - 120.0 to 135.0 Horsepower,Florida,WL,Wheel Loader,,OROPS,None or Unspecified,,None or Unspecified,,,,,,,,2 Valve,,,,,None or Unspecified,None or Unspecified,,,,,,,,,,,,,Standard,Conventional
6797,1277776,18500,1522493,132,4.0,1989,,,5/15/2008 0:00,621,621,,,,,Wheel Loader - 120.0 to 135.0 Horsepower,New Hampshire,WL,Wheel Loader,,OROPS,None or Unspecified,,None or Unspecified,,,,,,,,2 Valve,,,,,None or Unspecified,None or Unspecified,,,,,,,,,,,,,Standard,Conventional
6797,1277777,41500,1475199,132,99.0,1989,3338.0,Low,2/24/1996 0:00,621,621,,,,,Wheel Loader - 120.0 to 135.0 Horsepower,Virginia,WL,Wheel Loader,,EROPS,None or Unspecified,,None or Unspecified,,,,,,,,2 Valve,,,,,None or Unspecified,None or Unspecified,,,,,,,,,,,,,Standard,Conventional
6797,1277779,15000,1179708,132,1.0,1989,,,2/27/2009 0:00,621,621,,,,,Wheel Loader - 120.0 to 135.0 Horsepower,California,WL,Wheel Loader,,OROPS,None or Unspecified,,None or Unspecified,,,,,,,,2 Valve,,,,,20.5,None or Unspecified,,,,,,,,,,,,,Standard,Conventional
6797,1277780,39000,1512936,132,1.0,1989,,,7/12/1993 0:00,621,621,,,,,Wheel Loader - 120.0 to 135.0 Horsepower,Texas,WL,Wheel Loader,,EROPS w AC,None or Unspecified,,None or Unspecified,,,,,,,,2 Valve,,,,,None or Unspecified,None or Unspecified,,,,,,,,,,,,,Standard,Conventional
6797,1277781,15500,1173541,132,2.0,1989,,,9/12/2002 0:00,621,621,,,,,Wheel Loader - 120.0 to 135.0 Horsepower,Texas,WL,Wheel Loader,,OROPS,None or Unspecified,,None or Unspecified,,,,,,,,2 Valve,,,,,20.5,None or Unspecified,,,,,,,,,,,,,Standard,Conventional
6797,1277782,18500,1412721,132,99.0,1989,,,6/6/2008 0:00,621,621,,,,,Wheel Loader - 120.0 to 135.0 Horsepower,Minnesota,WL,Wheel Loader,,EROPS w AC,None or Unspecified,,None or Unspecified,,,,,,,,2 Valve,,,,,None or Unspecified,None or Unspecified,,,,,,,,,,,,,Standard,Conventional
6797,1277783,23000,1290401,132,8.0,1989,,,10/12/2006 0:00,621,621,,,,,Wheel Loader - 120.0 to 135.0 Horsepower,Florida,WL,Wheel Loader,,EROPS,None or Unspecified,,None or Unspecified,,,,,,,,2 Valve,,,,,None or Unspecified,None or Unspecified,,,,,,,,,,,,,Standard,Conventional
6797,1277785,19000,1258793,132,2.0,1000,,,12/8/2007 0:00,621,621,,,,,Wheel Loader - 120.0 to 135.0 Horsepower,Pennsylvania,WL,Wheel Loader,,EROPS w AC,None or Unspecified,,None or Unspecified,,,,,,,,2 Valve,,,,,20.5,None or Unspecified,,,,,,,,,,,,,Standard,Conventional
6797,1277786,25000,1258793,132,1.0,1000,,,9/15/2004 0:00,621,621,,,,,Wheel Loader - 120.0 to 135.0 Horsepower,Texas,WL,Wheel Loader,,EROPS w AC,None or Unspecified,,None or Unspecified,,,,,,,,2 Valve,,,,,20.5,None or Unspecified,,,,,,,,,,,,,Standard,Conventional
6797,1277787,22500,1248914,132,4.0,1989,,,2/14/2006 0:00,621,621,,,,,Wheel Loader - 120.0 to 135.0 Horsepower,Florida,WL,Wheel Loader,,EROPS,None or Unspecified,,None or Unspecified,,,,,,,,2 Valve,,,,,None or Unspecified,None or Unspecified,,,,,,,,,,,,,Standard,Conventional
6797,1277788,14000,1402217,132,1.0,1989,,,3/4/2009 0:00,621,621,,,,,Wheel Loader - 120.0 to 135.0 Horsepower,Texas,WL,Wheel Loader,,EROPS w AC,None or Unspecified,,None or Unspecified,,,,,,,,2 Valve,,,,,20.5,None or Unspecified,,,,,,,,,,,,,Standard,Conventional
6797,1277789,14000,1451139,132,1.0,1989,,,9/16/2009 0:00,621,621,,,,,Wheel Loader - 120.0 to 135.0 Horsepower,Washington,WL,Wheel Loader,,EROPS,None or Unspecified,,None or Unspecified,,,,,,,,2 Valve,,,,,17.5,None or Unspecified,,,,,,,,,,,,,Standard,Conventional
6797,1277790,12500,1320747,132,1.0,1989,,,2/16/2010 0:00,621,621,,,,,Wheel Loader - 120.0 to 135.0 Horsepower,Florida,WL,Wheel Loader,,OROPS,None or Unspecified,,None or Unspecified,,,,,,,,2 Valve,,,,,20.5,None or Unspecified,,,,,,,,,,,,,Standard,Conventional
6797,1277791,42500,1422379,132,2.0,1989,,,4/12/1996 0:00,621,621,,,,,Wheel Loader - 120.0 to 135.0 Horsepower,New York,WL,Wheel Loader,,OROPS,None or Unspecified,,None or Unspecified,,,,,,,,2 Valve,,,,,None or Unspecified,None or Unspecified,,,,,,,,,,,,,Standard,Conventional
6797,1277792,12500,1089070,132,3.0,1989,,,10/29/2009 0:00,621,621,,,,,Wheel Loader - 120.0 to 135.0 Horsepower,California,WL,Wheel Loader,,OROPS,None or Unspecified,,None or Unspecified,,,,,,,,2 Valve,,,,,None or Unspecified,None or Unspecified,,,,,,,,,,,,,Standard,Conventional
6797,1277793,16500,1525456,132,1.0,1989,,,7/9/2010 0:00,621,621,,,,,Wheel Loader - 120.0 to 135.0 Horsepower,California,WL,Wheel Loader,,EROPS,None or Unspecified,,None or Unspecified,,,,,,,,2 Valve,,,,,20.5,None or Unspecified,,,,,,,,,,,,,Standard,Conventional
6797,1277795,26000,1415213,132,5.0,1989,,,6/20/2008 0:00,621,621,,,,,Wheel Loader - 120.0 to 135.0 Horsepower,Connecticut,WL,Wheel Loader,,EROPS,None or Unspecified,,None or Unspecified,,,,,,,,2 Valve,,,,,20.5,None or Unspecified,,,,,,,,,,,,,Standard,Conventional
6797,1277798,26000,1317854,132,1.0,1990,,,9/15/2004 0:00,621,621,,,,,Wheel Loader - 120.0 to 135.0 Horsepower,Texas,WL,Wheel Loader,,EROPS w AC,None or Unspecified,,None or Unspecified,,,,,,,,2 Valve,,,,,20.5,None or Unspecified,,,,,,,,,,,,,Standard,Conventional
6797,1277799,30000,1196829,132,1.0,1990,,,11/16/2006 0:00,621,621,,,,,Wheel Loader - 120.0 to 135.0 Horsepower,Texas,WL,Wheel Loader,,EROPS,None or Unspecified,,None or Unspecified,,,,,,,,2 Valve,,,,,20.5,None or Unspecified,,,,,,,,,,,,,Standard,Conventional
6797,1277800,18000,1167120,132,1.0,1990,,,3/17/2004 0:00,621,621,,,,,Wheel Loader - 120.0 to 135.0 Horsepower,Texas,WL,Wheel Loader,,EROPS,None or Unspecified,,None or Unspecified,,,,,,,,2 Valve,,,,,20.5,None or Unspecified,,,,,,,,,,,,,Standard,Conventional
6797,1277801,25000,1335839,132,1.0,1990,,,3/17/2004 0:00,621,621,,,,,Wheel Loader - 120.0 to 135.0 Horsepower,Texas,WL,Wheel Loader,,EROPS,None or Unspecified,,None or Unspecified,,,,,,,,2 Valve,,,,,20.5,None or Unspecified,,,,,,,,,,,,,Standard,Conventional
6797,1277805,15000,1421318,132,1.0,1990,4988.0,Low,5/18/2011 0:00,621,621,,,,,Wheel Loader - 120.0 to 135.0 Horsepower,Florida,WL,Wheel Loader,,EROPS w AC,None or Unspecified,,None or Unspecified,,,,,,,,2 Valve,,,,,17.5,None or Unspecified,,,,,,,,,,,,,Standard,Conventional
6797,1277806,16000,1421318,132,1.0,1990,4989.0,Low,8/17/2011 0:00,621,621,,,,,Wheel Loader - 120.0 to 135.0 Horsepower,Florida,WL,Wheel Loader,,EROPS w AC,None or Unspecified,,None or Unspecified,,,,,,,,2 Valve,,,,,17.5,None or Unspecified,,,,,,,,,,,,,Standard,Conventional
6797,1277807,25000,1421318,132,4.0,1990,,,2/14/2006 0:00,621,621,,,,,Wheel Loader - 120.0 to 135.0 Horsepower,Florida,WL,Wheel Loader,,EROPS w AC,None or Unspecified,,None or Unspecified,,,,,,,,2 Valve,,,,,17.5,None or Unspecified,,,,,,,,,,,,,Standard,Conventional
6797,1277809,14000,1212102,132,1.0,1990,,,2/16/2011 0:00,621,621,,,,,Wheel Loader - 120.0 to 135.0 Horsepower,Florida,WL,Wheel Loader,,OROPS,Yes,,None or Unspecified,,,,,,,,2 Valve,,,,,None or Unspecified,None or Unspecified,,,,,,,,,,,,,Standard,Conventional
6797,1277813,11500,1236441,132,2.0,1991,,,2/3/2011 0:00,621,621,,,,,Wheel Loader - 120.0 to 135.0 Horsepower,Florida,WL,Wheel Loader,,OROPS,None or Unspecified,,None or Unspecified,,,,,,,,2 Valve,,,,,None or Unspecified,None or Unspecified,,,,,,,,,,,,,Standard,Conventional
6797,1277814,42500,1546969,132,21.0,1991,4100.0,Medium,5/22/1996 0:00,621,621,,,,,Wheel Loader - 120.0 to 135.0 Horsepower,Maine,WL,Wheel Loader,,EROPS,None or Unspecified,,None or Unspecified,,,,,,,,2 Valve,,,,,None or Unspecified,None or Unspecified,,,,,,,,,,,,,Standard,Conventional
6797,1277815,36000,1448256,132,1.0,1991,,,9/20/2006 0:00,621,621,,,,,Wheel Loader - 120.0 to 135.0 Horsepower,Washington,WL,Wheel Loader,,EROPS,None or Unspecified,,None or Unspecified,,,,,,,,2 Valve,,,,,None or Unspecified,None or Unspecified,,,,,,,,,,,,,Standard,Conventional
6797,1277867,47000,1104258,132,6.0,1991,,,7/26/1994 0:00,621,621,,,,,Wheel Loader - 120.0 to 135.0 Horsepower,Tennessee,WL,Wheel Loader,,OROPS,None or Unspecified,,None or Unspecified,,,,,,,,2 Valve,,,,,20.5,Manual,,,,,,,,,,,,,Standard,Conventional
6797,1277868,9000,1216749,132,7.0,1991,,,4/21/2011 0:00,621,621,,,,,Wheel Loader - 120.0 to 135.0 Horsepower,South Carolina,WL,Wheel Loader,,OROPS,None or Unspecified,,None or Unspecified,,,,,,,,2 Valve,,,,,17.5,None or Unspecified,,,,,,,,,,,,,Standard,Conventional
6797,1277869,9000,1090559,132,10.0,1991,,,3/18/2009 0:00,621,621,,,,,Wheel Loader - 120.0 to 135.0 Horsepower,Louisiana,WL,Wheel Loader,,OROPS,None or Unspecified,,None or Unspecified,,,,,,,,2 Valve,,,,,None or Unspecified,None or Unspecified,,,,,,,,,,,,,Standard,Conventional
6797,1277873,29000,1365491,132,1.0,1992,,,12/2/2004 0:00,621,621,,,,,Wheel Loader - 120.0 to 135.0 Horsepower,Illinois,WL,Wheel Loader,,EROPS,None or Unspecified,,None or Unspecified,,,,,,,,2 Valve,,,,,20.5,None or Unspecified,,,,,,,,,,,,,Standard,Conventional
6797,1277876,22500,1460125,132,27.0,1992,,,4/20/2007 0:00,621,621,,,,,Wheel Loader - 120.0 to 135.0 Horsepower,North Carolina,WL,Wheel Loader,,EROPS,None or Unspecified,,None or Unspecified,,,,,,,,2 Valve,,,,,20.5,None or Unspecified,,,,,,,,,,,,,Standard,Conventional
6797,1277878,12000,1545384,132,7.0,1992,,,3/10/2010 0:00,621,621,,,,,Wheel Loader - 120.0 to 135.0 Horsepower,Alabama,WL,Wheel Loader,,EROPS w AC,None or Unspecified,,None or Unspecified,,,,,,,,2 Valve,,,,,20.5,None or Unspecified,,,,,,,,,,,,,Standard,Conventional
6797,1277879,16000,1213775,132,1.0,1992,,,8/26/2009 0:00,621,621,,,,,Wheel Loader - 120.0 to 135.0 Horsepower,Texas,WL,Wheel Loader,,OROPS,None or Unspecified,,None or Unspecified,,,,,,,,2 Valve,,,,,20.5,None or Unspecified,,,,,,,,,,,,,Standard,Conventional
6797,1277880,28000,1440501,132,15.0,1992,,,8/2/2007 0:00,621,621,,,,,Wheel Loader - 120.0 to 135.0 Horsepower,Pennsylvania,WL,Wheel Loader,,EROPS,Yes,,None or Unspecified,,,,,,,,2 Valve,,,,,None or Unspecified,None or Unspecified,,,,,,,,,,,,,Standard,Conventional
6797,1277883,10250,1358433,132,12.0,1992,,,6/15/2011 0:00,621,621,,,,,Wheel Loader - 120.0 to 135.0 Horsepower,South Carolina,WL,Wheel Loader,,EROPS,None or Unspecified,,None or Unspecified,,,,,,,,2 Valve,,,,,None or Unspecified,None or Unspecified,,,,,,,,,,,,,Standard,Conventional
6797,1277884,21000,1485944,132,1.0,1992,,,8/31/2010 0:00,621,621,,,,,Wheel Loader - 120.0 to 135.0 Horsepower,Colorado,WL,Wheel Loader,,EROPS w AC,None or Unspecified,,None or Unspecified,,,,,,,,2 Valve,,,,,20.5,None or Unspecified,,,,,,,,,,,,,Standard,Conventional
6797,1277885,20000,1098063,132,1.0,1992,,,6/4/2009 0:00,621,621,,,,,Wheel Loader - 120.0 to 135.0 Horsepower,Colorado,WL,Wheel Loader,,EROPS,None or Unspecified,,None or Unspecified,,,,,,,,2 Valve,,,,,20.5,None or Unspecified,,,,,,,,,,,,,Standard,Conventional
6797,1277886,22000,1454664,132,5.0,1992,,,10/24/2008 0:00,621,621,,,,,Wheel Loader - 120.0 to 135.0 Horsepower,Ohio,WL,Wheel Loader,,EROPS,None or Unspecified,,None or Unspecified,,,,,,,,2 Valve,,,,,20.5,None or Unspecified,,,,,,,,,,,,,Standard,Conventional
6797,1277888,10000,1129910,132,3.0,1992,,,9/2/2010 0:00,621,621,,,,,Wheel Loader - 120.0 to 135.0 Horsepower,California,WL,Wheel Loader,,EROPS,Yes,,None or Unspecified,,,,,,,,2 Valve,,,,,20.5,None or Unspecified,,,,,,,,,,,,,Standard,Conventional
6797,1277889,25000,1249016,132,2.0,1992,,,5/10/2008 0:00,621,621,,,,,Wheel Loader - 120.0 to 135.0 Horsepower,Wisconsin,WL,Wheel Loader,,EROPS,None or Unspecified,,None or Unspecified,,,,,,,,2 Valve,,,,,20.5,None or Unspecified,,,,,,,,,,,,,Standard,Conventional
6797,1277891,27500,1249016,132,2.0,1992,,,1/13/2007 0:00,621,621,,,,,Wheel Loader - 120.0 to 135.0 Horsepower,Ohio,WL,Wheel Loader,,EROPS,None or Unspecified,,None or Unspecified,,,,,,,,2 Valve,,,,,20.5,None or Unspecified,,,,,,,,,,,,,Standard,Conventional
6797,1277893,25000,1257305,132,4.0,1992,,,2/10/2003 0:00,621,621,,,,,Wheel Loader - 120.0 to 135.0 Horsepower,Florida,WL,Wheel Loader,,EROPS,None or Unspecified,,None or Unspecified,,,,,,,,2 Valve,,,,,20.5,None or Unspecified,,,,,,,,,,,,,Standard,Conventional
6797,1277935,46500,1457584,132,2.0,1990,,,2/8/1995 0:00,621,621,,,,,Wheel Loader - 120.0 to 135.0 Horsepower,Florida,WL,Wheel Loader,,EROPS,None or Unspecified,,None or Unspecified,,,,,,,,3 Valve,,,,,None or Unspecified,None or Unspecified,,,,,,,,,,,,,Standard,Conventional
6797,1278491,38000,1454727,132,1.0,1997,,,3/13/2003 0:00,621,621,,,,,Wheel Loader - 120.0 to 135.0 Horsepower,Illinois,WL,Wheel Loader,,OROPS,None or Unspecified,,None or Unspecified,,,,,,,,2 Valve,,,,,None or Unspecified,None or Unspecified,,,,,,,,,,,,,Standard,Conventional
6797,1278708,25000,1111969,132,2.0,1000,,,3/27/2002 0:00,621,621,,,,,Wheel Loader - 120.0 to 135.0 Horsepower,Florida,WL,Wheel Loader,,OROPS,None or Unspecified,,None or Unspecified,,,,,,,,2 Valve,,,,,None or Unspecified,None or Unspecified,,,,,,,,,,,,,Standard,Conventional
6797,1279942,40000,1345676,132,1.0,1998,,,6/30/2006 0:00,621,621,,,,,Wheel Loader - 120.0 to 135.0 Horsepower,Minnesota,WL,Wheel Loader,,EROPS,None or Unspecified,,None or Unspecified,,,,,,,,2 Valve,,,,,None or Unspecified,None or Unspecified,,,,,,,,,,,,,Standard,Conventional
6797,1295264,27000,1349669,132,9.0,1000,,,3/29/2001 0:00,621,621,,,,,Wheel Loader - 120.0 to 135.0 Horsepower,Kentucky,WL,Wheel Loader,,EROPS w AC,None or Unspecified,,None or Unspecified,,,,,,,,2 Valve,,,,,20.5,Manual,,,,,,,,,,,,,Standard,Conventional
6797,1295266,23000,1349669,132,9.0,1992,,,5/17/2001 0:00,621,621,,,,,Wheel Loader - 120.0 to 135.0 Horsepower,South Carolina,WL,Wheel Loader,,EROPS w AC,None or Unspecified,,None or Unspecified,,,,,,,,2 Valve,,,,,20.5,Manual,,,,,,,,,,,,,Standard,Conventional
6797,1295316,28000,1173337,132,1.0,1000,,,2/17/2009 0:00,621,621,,,,,Wheel Loader - 120.0 to 135.0 Horsepower,Florida,WL,Wheel Loader,,EROPS,None or Unspecified,,None or Unspecified,,,,,,,,2 Valve,,,,,20.5,None or Unspecified,,,,,,,,,,,,,Standard,Conventional
6797,1295602,28500,1443796,132,4.0,1000,,,2/8/2005 0:00,621,621,,,,,Wheel Loader - 120.0 to 135.0 Horsepower,Florida,WL,Wheel Loader,,OROPS,None or Unspecified,,None or Unspecified,,,,,,,,2 Valve,,,,,None or Unspecified,None or Unspecified,,,,,,,,,,,,,Standard,Conventional
6797,1295616,29000,1495145,132,1.0,1989,,,6/16/1998 0:00,621,621,,,,,Wheel Loader - 120.0 to 135.0 Horsepower,Washington,WL,Wheel Loader,,EROPS,None or Unspecified,,None or Unspecified,,,,,,,,2 Valve,,,,,None or Unspecified,None or Unspecified,,,,,,,,,,,,,Standard,Conventional
6797,1295621,10750,1372161,132,4.0,1000,,,2/10/2009 0:00,621,621,,,,,Wheel Loader - 120.0 to 135.0 Horsepower,Florida,WL,Wheel Loader,,OROPS,None or Unspecified,,None or Unspecified,,,,,,,,2 Valve,,,,,None or Unspecified,None or Unspecified,,,,,,,,,,,,,Standard,Conventional
6797,2196205,17500,1643512,136,1.0,1991,,,8/2/2008 0:00,621,621,,,,,Wheel Loader - 120.0 to 135.0 Horsepower,Tennessee,WL,Wheel Loader,,OROPS,None or Unspecified,,None or Unspecified,,,,,,,,2 Valve,,,,,None or Unspecified,None or Unspecified,,,,,,,,,,,,,Standard,Conventional
6797,2204048,11500,1321851,136,1.0,1988,,,7/21/2009 0:00,621,621,,,,,Wheel Loader - 120.0 to 135.0 Horsepower,California,WL,Wheel Loader,,EROPS,None or Unspecified,,None or Unspecified,,,,,,,,2 Valve,,,,,20.5,None or Unspecified,,,,,,,,,,,,,Standard,Conventional
6797,2204053,22000,1179051,136,1.0,1988,,,4/5/2007 0:00,621,621,,,,,Wheel Loader - 120.0 to 135.0 Horsepower,Colorado,WL,Wheel Loader,,EROPS,None or Unspecified,,None or Unspecified,,,,,,,,2 Valve,,,,,20.5,None or Unspecified,,,,,,,,,,,,,Standard,Conventional
6797,2204054,8250,1666195,136,,1988,,,8/15/2009 0:00,621,621,,,,,Wheel Loader - 120.0 to 135.0 Horsepower,California,WL,Wheel Loader,,OROPS,None or Unspecified,,None or Unspecified,,,,,,,,2 Valve,,,,,None or Unspecified,None or Unspecified,,,,,,,,,,,,,Standard,Conventional
6797,2204055,19000,1410367,136,99.0,1988,1955.0,Low,11/11/2009 0:00,621,621,,,,,Wheel Loader - 120.0 to 135.0 Horsepower,Colorado,WL,Wheel Loader,,EROPS,None or Unspecified,,None or Unspecified,,,,,,,,2 Valve,,,,,None or Unspecified,None or Unspecified,,,,,,,,,,,,,Standard,Conventional
6797,2204056,17500,1410367,136,1.0,1988,,,12/16/2009 0:00,621,621,,,,,Wheel Loader - 120.0 to 135.0 Horsepower,Maryland,WL,Wheel Loader,,EROPS,None or Unspecified,,None or Unspecified,,,,,,,,2 Valve,,,,,None or Unspecified,None or Unspecified,,,,,,,,,,,,,Standard,Conventional
6797,2204060,15000,1133075,136,1.0,1989,,,9/27/2008 0:00,621,621,,,,,Wheel Loader - 120.0 to 135.0 Horsepower,New Jersey,WL,Wheel Loader,,EROPS,None or Unspecified,,None or Unspecified,,,,,,,,2 Valve,,,,,None or Unspecified,None or Unspecified,,,,,,,,,,,,,Standard,Conventional
6797,2204062,18500,1313990,136,2.0,1989,,,5/15/2008 0:00,621,621,,,,,Wheel Loader - 120.0 to 135.0 Horsepower,New Hampshire,WL,Wheel Loader,,EROPS,None or Unspecified,,None or Unspecified,,,,,,,,2 Valve,,,,,None or Unspecified,None or Unspecified,,,,,,,,,,,,,Standard,Conventional
6797,2204063,20000,1785782,136,,1989,,,9/13/2008 0:00,621,621,,,,,Wheel Loader - 120.0 to 135.0 Horsepower,Florida,WL,Wheel Loader,,EROPS w AC,None or Unspecified,,None or Unspecified,,,,,,,,2 Valve,,,,,None or Unspecified,None or Unspecified,,,,,,,,,,,,,Standard,Conventional
6797,2204066,15000,1723777,136,1.0,1989,,,2/27/2009 0:00,621,621,,,,,Wheel Loader - 120.0 to 135.0 Horsepower,California,WL,Wheel Loader,,OROPS,None or Unspecified,,None or Unspecified,,,,,,,,2 Valve,,,,,20.5,None or Unspecified,,,,,,,,,,,,,Standard,Conventional
6797,2204067,18000,1343373,136,2.0,1989,,,6/14/2008 0:00,621,621,,,,,Wheel Loader - 120.0 to 135.0 Horsepower,Michigan,WL,Wheel Loader,,EROPS,None or Unspecified,,None or Unspecified,,,,,,,,2 Valve,,,,,20.5,Hydraulic,,,,,,,,,,,,,Standard,Conventional
6797,2204070,15500,1774473,136,,1989,,,9/27/2008 0:00,621,621,,,,,Wheel Loader - 120.0 to 135.0 Horsepower,North Carolina,WL,Wheel Loader,,EROPS,None or Unspecified,,None or Unspecified,,,,,,,,2 Valve,,,,,17.5,None or Unspecified,,,,,,,,,,,,,Standard,Conventional
6797,2204071,18500,1758109,136,,1989,,,6/6/2008 0:00,621,621,,,,,Wheel Loader - 120.0 to 135.0 Horsepower,Minnesota,WL,Wheel Loader,,EROPS w AC,None or Unspecified,,None or Unspecified,,,,,,,,2 Valve,,,,,None or Unspecified,None or Unspecified,,,,,,,,,,,,,Standard,Conventional
6797,2204073,46000,1554871,136,1.0,1989,,,5/1/2009 0:00,621,621,,,,,Wheel Loader - 120.0 to 135.0 Horsepower,Nevada,WL,Wheel Loader,,EROPS,None or Unspecified,,None or Unspecified,,,,,,,,2 Valve,,,,,20.5,None or Unspecified,,,,,,,,,,,,,Standard,Conventional
6797,2204075,16000,569682,136,1.0,1989,,,11/11/2008 0:00,621,621,,,,,Wheel Loader - 120.0 to 135.0 Horsepower,Michigan,WL,Wheel Loader,,EROPS,None or Unspecified,,None or Unspecified,,,,,,,,2 Valve,,,,,20.5,None or Unspecified,,,,,,,,,,,,,Standard,Conventional
6797,2204076,19000,1245452,136,1.0,1000,,,12/1/2007 0:00,621,621,,,,,Wheel Loader - 120.0 to 135.0 Horsepower,New York,WL,Wheel Loader,,EROPS w AC,None or Unspecified,,None or Unspecified,,,,,,,,2 Valve,,,,,20.5,None or Unspecified,,,,,,,,,,,,,Standard,Conventional
6797,2204079,14000,1760783,136,1.0,1989,,,3/4/2009 0:00,621,621,,,,,Wheel Loader - 120.0 to 135.0 Horsepower,Texas,WL,Wheel Loader,,EROPS w AC,None or Unspecified,,None or Unspecified,,,,,,,,2 Valve,,,,,20.5,None or Unspecified,,,,,,,,,,,,,Standard,Conventional
6797,2204082,14000,1110452,136,1.0,1989,,,9/16/2009 0:00,621,621,,,,,Wheel Loader - 120.0 to 135.0 Horsepower,Washington,WL,Wheel Loader,,EROPS,Yes,,None or Unspecified,,,,,,,,2 Valve,,,,,17.5,Manual,,,,,,,,,,,,,Standard,Conventional
6797,2204083,23575,1679805,136,,1992,4452.0,Low,7/30/2007 0:00,621,621,,,,,Wheel Loader - 120.0 to 135.0 Horsepower,Michigan,WL,Wheel Loader,,EROPS,None or Unspecified,,None or Unspecified,,,,,,,,2 Valve,,,,,None or Unspecified,None or Unspecified,,,,,,,,,,,,,Standard,Conventional
6797,2204084,12500,1264134,136,1.0,1989,,,2/15/2010 0:00,621,621,,,,,Wheel Loader - 120.0 to 135.0 Horsepower,Florida,WL,Wheel Loader,,OROPS,None or Unspecified,,None or Unspecified,,,,,,,,2 Valve,,,,,20.5,None or Unspecified,,,,,,,,,,,,,Standard,Conventional
6797,2204085,21000,1335951,136,1.0,1989,,,3/13/2008 0:00,621,621,,,,,Wheel Loader - 120.0 to 135.0 Horsepower,Nevada,WL,Wheel Loader,,EROPS,None or Unspecified,,None or Unspecified,,,,,,,,2 Valve,,,,,20.5,None or Unspecified,,,,,,,,,,,,,Standard,Conventional
6797,2204086,20000,1248467,136,2.0,1989,,,12/12/2008 0:00,621,621,,,,,Wheel Loader - 120.0 to 135.0 Horsepower,Ohio,WL,Wheel Loader,,EROPS,None or Unspecified,,None or Unspecified,,,,,,,,2 Valve,,,,,None or Unspecified,None or Unspecified,,,,,,,,,,,,,Standard,Conventional
6797,2204087,15000,1674358,136,,1989,,,12/3/2008 0:00,621,621,,,,,Wheel Loader - 120.0 to 135.0 Horsepower,Texas,WL,Wheel Loader,,EROPS w AC,None or Unspecified,,None or Unspecified,,,,,,,,2 Valve,,,,,None or Unspecified,None or Unspecified,,,,,,,,,,,,,Standard,Conventional
6797,2204088,19000,1405271,136,1.0,1989,,,5/24/2007 0:00,621,621,,,,,Wheel Loader - 120.0 to 135.0 Horsepower,Florida,WL,Wheel Loader,,OROPS,None or Unspecified,,None or Unspecified,,,,,,,,2 Valve,,,,,20.5,None or Unspecified,,,,,,,,,,,,,Standard,Conventional
6797,2204090,30000,1676465,136,,1989,,,11/10/2007 0:00,621,621,,,,,Wheel Loader - 120.0 to 135.0 Horsepower,California,WL,Wheel Loader,,EROPS,None or Unspecified,,None or Unspecified,,,,,,,,2 Valve,,,,,20.5,None or Unspecified,,,,,,,,,,,,,Standard,Conventional
6797,2204091,16500,1153220,136,1.0,1000,,,7/9/2010 0:00,621,621,,,,,Wheel Loader - 120.0 to 135.0 Horsepower,California,WL,Wheel Loader,,EROPS,None or Unspecified,,None or Unspecified,,,,,,,,2 Valve,,,,,20.5,None or Unspecified,,,,,,,,,,,,,Standard,Conventional
6797,2204093,20500,1695800,136,,1989,,,5/12/2007 0:00,621,621,,,,,Wheel Loader - 120.0 to 135.0 Horsepower,Michigan,WL,Wheel Loader,,EROPS,None or Unspecified,,None or Unspecified,,,,,,,,2 Valve,,,,,None or Unspecified,None or Unspecified,,,,,,,,,,,,,Standard,Conventional
6797,2204094,24500,1695800,136,,1989,,,10/27/2007 0:00,621,621,,,,,Wheel Loader - 120.0 to 135.0 Horsepower,Michigan,WL,Wheel Loader,,EROPS,None or Unspecified,,None or Unspecified,,,,,,,,2 Valve,,,,,None or Unspecified,None or Unspecified,,,,,,,,,,,,,Standard,Conventional
6797,2204095,26000,1780828,136,,1989,,,6/20/2008 0:00,621,621,,,,,Wheel Loader - 120.0 to 135.0 Horsepower,Connecticut,WL,Wheel Loader,,EROPS,None or Unspecified,,None or Unspecified,,,,,,,,2 Valve,,,,,20.5,None or Unspecified,,,,,,,,,,,,,Standard,Conventional
6797,2204098,30000,1468187,136,1.0,1990,,,3/27/2008 0:00,621,621,,,,,Wheel Loader - 120.0 to 135.0 Horsepower,Texas,WL,Wheel Loader,,EROPS,Yes,,None or Unspecified,,,,,,,,2 Valve,,,,,17.5,None or Unspecified,,,,,,,,,,,,,Standard,Conventional
6797,2204103,25000,1150421,136,1.0,1990,,,10/10/2007 0:00,621,621,,,,,Wheel Loader - 120.0 to 135.0 Horsepower,Florida,WL,Wheel Loader,,EROPS w AC,None or Unspecified,,None or Unspecified,,,,,,,,2 Valve,,,,,20.5,None or Unspecified,,,,,,,,,,,,,Standard,Conventional
6797,2204107,14500,1472595,136,1.0,1993,,,5/28/2008 0:00,621,621,,,,,Wheel Loader - 120.0 to 135.0 Horsepower,Florida,WL,Wheel Loader,,EROPS,None or Unspecified,,None or Unspecified,,,,,,,,2 Valve,,,,,20.5,None or Unspecified,,,,,,,,,,,,,Standard,Conventional
6797,2204117,16000,1702799,136,,1991,6696.0,Low,5/11/2007 0:00,621,621,,,,,Wheel Loader - 120.0 to 135.0 Horsepower,Virginia,WL,Wheel Loader,,EROPS,None or Unspecified,,None or Unspecified,,,,,,,,2 Valve,,,,,None or Unspecified,None or Unspecified,,,,,,,,,,,,,Standard,Conventional
6797,2204196,28000,1323559,136,2.0,1992,,,8/2/2007 0:00,621,621,,,,,Wheel Loader - 120.0 to 135.0 Horsepower,Pennsylvania,WL,Wheel Loader,,EROPS w AC,None or Unspecified,,None or Unspecified,,,,,,,,2 Valve,,,,,20.5,None or Unspecified,,,,,,,,,,,,,Standard,Conventional
6797,2204198,21000,1772443,136,,1992,1279.0,Low,2/20/2009 0:00,621,621,,,,,Wheel Loader - 120.0 to 135.0 Horsepower,California,WL,Wheel Loader,,OROPS,None or Unspecified,,None or Unspecified,,,,,,,,2 Valve,,,,,None or Unspecified,None or Unspecified,,,,,,,,,,,,,Standard,Conventional
6797,2204265,22000,1769160,136,,1992,,,10/24/2008 0:00,621,621,,,,,Wheel Loader - 120.0 to 135.0 Horsepower,Ohio,WL,Wheel Loader,,EROPS,None or Unspecified,,None or Unspecified,,,,,,,,2 Valve,,,,,20.5,None or Unspecified,,,,,,,,,,,,,Standard,Conventional
6797,2204277,14000,1655187,136,2.0,1000,,,4/15/2010 0:00,621,621,,,,,Wheel Loader - 120.0 to 135.0 Horsepower,North Carolina,WL,Wheel Loader,,EROPS,None or Unspecified,,None or Unspecified,,,,,,,,3 Valve,,,,,None or Unspecified,None or Unspecified,,,,,,,,,,,,,Standard,Conventional
6797,2210715,28000,1349669,136,1.0,1000,,,2/16/2009 0:00,621,621,,,,,Wheel Loader - 120.0 to 135.0 Horsepower,Florida,WL,Wheel Loader,,EROPS w AC,None or Unspecified,,None or Unspecified,,,,,,,,2 Valve,,,,,20.5,Manual,,,,,,,,,,,,,Standard,Conventional
6797,2210840,9750,1495145,136,4.0,1000,,,2/8/2010 0:00,621,621,,,,,Wheel Loader - 120.0 to 135.0 Horsepower,Florida,WL,Wheel Loader,,EROPS,None or Unspecified,,None or Unspecified,,,,,,,,2 Valve,,,,,None or Unspecified,None or Unspecified,,,,,,,,,,,,,Standard,Conventional
6797,2497156,21000,1477205,149,1.0,1988,6610.0,Low,3/4/2011 0:00,621,621,,,,,Wheel Loader - 120.0 to 135.0 Horsepower,California,WL,Wheel Loader,,EROPS,None or Unspecified,,None or Unspecified,,,,,,,,2 Valve,,,,,20.5,None or Unspecified,,,,,,,,,,,,,Standard,Conventional
6797,2497158,17000,1344901,149,1.0,1988,0.0,,4/6/2011 0:00,621,621,,,,,Wheel Loader - 120.0 to 135.0 Horsepower,Oregon,WL,Wheel Loader,,EROPS,None or Unspecified,,None or Unspecified,,,,,,,,2 Valve,,,,,20.5,None or Unspecified,,,,,,,,,,,,,Standard,Conventional
6797,2497162,19500,1471682,149,1.0,1989,0.0,,4/6/2011 0:00,621,621,,,,,Wheel Loader - 120.0 to 135.0 Horsepower,Oregon,WL,Wheel Loader,,OROPS,None or Unspecified,,None or Unspecified,,,,,,,,2 Valve,,,,,20.5,None or Unspecified,,,,,,,,,,,,,Standard,Conventional
6797,2497187,15000,1125026,149,1.0,1990,4988.0,Low,5/18/2011 0:00,621,621,,,,,Wheel Loader - 120.0 to 135.0 Horsepower,Florida,WL,Wheel Loader,,EROPS w AC,None or Unspecified,,None or Unspecified,,,,,,,,2 Valve,,,,,17.5,Manual,,,,,,,,,,,,,Standard,Conventional
6797,2497217,11500,1794524,149,2.0,1991,0.0,,1/29/2011 0:00,621,621,,,,,Wheel Loader - 120.0 to 135.0 Horsepower,Florida,WL,Wheel Loader,,OROPS,None or Unspecified,,None or Unspecified,,,,,,,,2 Valve,,,,,None or Unspecified,None or Unspecified,,,,,,,,,,,,,Standard,Conventional
6797,2497288,13000,1903670,149,1.0,1991,0.0,,5/18/2011 0:00,621,621,,,,,Wheel Loader - 120.0 to 135.0 Horsepower,Florida,WL,Wheel Loader,,OROPS,None or Unspecified,,None or Unspecified,,,,,,,,2 Valve,,,,,17.5,Manual,,,,,,,,,,,,,Standard,Conventional
6797,2497290,9000,1903670,149,26.0,1991,0.0,,4/21/2011 0:00,621,621,,,,,Wheel Loader - 120.0 to 135.0 Horsepower,South Carolina,WL,Wheel Loader,,OROPS,None or Unspecified,,None or Unspecified,,,,,,,,2 Valve,,,,,17.5,Manual,,,,,,,,,,,,,Standard,Conventional
6797,2497297,18000,1397771,149,1.0,1992,0.0,,7/13/2010 0:00,621,621,,,,,Wheel Loader - 120.0 to 135.0 Horsepower,Illinois,WL,Wheel Loader,,EROPS,None or Unspecified,,None or Unspecified,,,,,,,,2 Valve,,,,,17.5,Manual,,,,,,,,,,,,,Standard,Conventional
6797,2497298,18000,1362859,149,1.0,1992,0.0,,7/13/2010 0:00,621,621,,,,,Wheel Loader - 120.0 to 135.0 Horsepower,Illinois,WL,Wheel Loader,,EROPS,None or Unspecified,,None or Unspecified,,,,,,,,2 Valve,,,,,17.5,Manual,,,,,,,,,,,,,Standard,Conventional
6797,2497302,10250,1790074,149,12.0,1992,0.0,,6/15/2011 0:00,621,621,,,,,Wheel Loader - 120.0 to 135.0 Horsepower,South Carolina,WL,Wheel Loader,,EROPS,None or Unspecified,,None or Unspecified,,,,,,,,2 Valve,,,,,None or Unspecified,Manual,,,,,,,,,,,,,Standard,Conventional
6797,2497304,21000,1247815,149,1.0,1992,0.0,,8/31/2010 0:00,621,621,,,,,Wheel Loader - 120.0 to 135.0 Horsepower,Colorado,WL,Wheel Loader,,EROPS w AC,None or Unspecified,,None or Unspecified,,,,,,,,2 Valve,,,,,20.5,None or Unspecified,,,,,,,,,,,,,Standard,Conventional
6797,2497314,26000,1289442,149,1.0,1993,0.0,,7/13/2010 0:00,621,621,,,,,Wheel Loader - 120.0 to 135.0 Horsepower,Illinois,WL,Wheel Loader,,EROPS,None or Unspecified,,None or Unspecified,,,,,,,,2 Valve,,,,,17.5,Manual,,,,,,,,,,,,,Standard,Conventional
6797,4248561,20000,1376888,172,1.0,1992,4932.0,Low,6/4/2009 0:00,621,621,,,,,Wheel Loader - 120.0 to 135.0 Horsepower,Colorado,WL,Wheel Loader,,EROPS,None or Unspecified,,None or Unspecified,,,,,,,,2 Valve,,,,,20.5,None or Unspecified,,,,,,,,,,,,,Standard,Conventional
6797,4248584,16000,2275304,172,1.0,1990,4989.0,Low,8/16/2011 0:00,621,621,,,,,Wheel Loader - 120.0 to 135.0 Horsepower,Florida,WL,Wheel Loader,,EROPS w AC,Yes,,None or Unspecified,,,,,,,,2 Valve,,,,,20.5,None or Unspecified,,,,,,,,,,,,,Standard,Conventional
6797,6257820,16000,1125026,149,1.0,1990,,,8/17/2011 0:00,621,621,,,,,Wheel Loader - 120.0 to 135.0 Horsepower,Florida,WL,Wheel Loader,,EROPS w AC,None or Unspecified,,None or Unspecified,,,,,,,,2 Valve,,,,,17.5,Manual,,,,,,,,,,,,,Standard,Conventional
