ModelID,SalesID,SalePrice,MachineID,datasource,auctioneerID,YearMade,MachineHoursCurrentMeter,UsageBand,saledate,fiModelDesc,fiBaseModel,fiSecondaryDesc,fiModelSeries,fiModelDescriptor,ProductSize,fiProductClassDesc,state,ProductGroup,ProductGroupDesc,Drive_System,Enclosure,Forks,Pad_Type,Ride_Control,Stick,Transmission,Turbocharged,Blade_Extension,Blade_Width,Enclosure_Type,Engine_Horsepower,Hydraulics,Pushblock,Ripper,Scarifier,Tip_Control,Tire_Size,Coupler,Coupler_System,Grouser_Tracks,Hydraulics_Flow,Track_Type,Undercarriage_Pad_Width,Stick_Length,Thumb,Pattern_Changer,Grouser_Type,Backhoe_Mounting,Blade_Type,Travel_Controls,Differential_Type,Steering_Controls
7005,1397028,25000,1303112,132,1.0,1988,,,12/6/1995 0:00,219,219,,,,Large / Medium,"Hydraulic Excavator, Track - 21.0 to 24.0 Metric Tons",Washington,TEX,Track Excavators,,EROPS,,,,,,,,,,,Standard,,,,,,None or Unspecified,,,,Steel,None or Unspecified,None or Unspecified,None or Unspecified,None or Unspecified,Double,,,,,
7005,1397033,65000,211060,132,6.0,1988,940.0,Low,4/26/1991 0:00,219,219,,,,Large / Medium,"Hydraulic Excavator, Track - 21.0 to 24.0 Metric Tons",Tennessee,TEX,Track Excavators,,EROPS,,,,,,,,,,,Standard,,,,,,None or Unspecified,,,,Steel,30 inch,None or Unspecified,None or Unspecified,None or Unspecified,Double,,,,,
7005,1397039,55000,1542823,132,2.0,1988,,,8/29/1992 0:00,219,219,,,,Large / Medium,"Hydraulic Excavator, Track - 21.0 to 24.0 Metric Tons",New York,TEX,Track Excavators,,EROPS,,,,,,,,,,,Auxiliary,,,,,,None or Unspecified,,,,Steel,None or Unspecified,None or Unspecified,None or Unspecified,None or Unspecified,Double,,,,,
7005,1397041,20500,1090199,132,15.0,1988,,,11/4/2010 0:00,219,219,,,,Large / Medium,"Hydraulic Excavator, Track - 21.0 to 24.0 Metric Tons",Ohio,TEX,Track Excavators,,EROPS,,,,,,,,,,,Standard,,,,,,Manual,,,,Steel,30 inch,None or Unspecified,Manual,None or Unspecified,Triple,,,,,
7005,1397042,30000,1090199,132,15.0,1988,,,6/6/2001 0:00,219,219,,,,Large / Medium,"Hydraulic Excavator, Track - 21.0 to 24.0 Metric Tons",Ohio,TEX,Track Excavators,,EROPS,,,,,,,,,,,Standard,,,,,,Manual,,,,Steel,30 inch,None or Unspecified,Manual,None or Unspecified,Triple,,,,,
7005,1397043,25000,1349104,132,6.0,1988,,,10/21/1997 0:00,219,219,,,,Large / Medium,"Hydraulic Excavator, Track - 21.0 to 24.0 Metric Tons",Texas,TEX,Track Excavators,,EROPS,,,,,,,,,,,Standard,,,,,,None or Unspecified,,,,Steel,30 inch,None or Unspecified,None or Unspecified,None or Unspecified,Double,,,,,
7005,1397058,45000,1513967,132,6.0,1989,1707.0,Low,6/8/1995 0:00,219,219,,,,Large / Medium,"Hydraulic Excavator, Track - 21.0 to 24.0 Metric Tons",Texas,TEX,Track Excavators,,EROPS,,,,,,,,,,,Standard,,,,,,None or Unspecified,,,,Steel,None or Unspecified,None or Unspecified,None or Unspecified,None or Unspecified,Double,,,,,
7005,1397062,51000,1271585,132,1.0,1989,,,10/26/1999 0:00,219,219,,,,Large / Medium,"Hydraulic Excavator, Track - 21.0 to 24.0 Metric Tons",Idaho,TEX,Track Excavators,,EROPS,,,,,,,,,,,Standard,,,,,,None or Unspecified,,,,Steel,None or Unspecified,None or Unspecified,None or Unspecified,None or Unspecified,Double,,,,,
7005,2244953,19000,1296221,136,99.0,1988,23557.0,High,11/12/2008 0:00,219,219,,,,Large / Medium,"Hydraulic Excavator, Track - 21.0 to 24.0 Metric Tons",Iowa,TEX,Track Excavators,,EROPS,,,,,,,,,,,Auxiliary,,,,,,Hydraulic,,,,Steel,None or Unspecified,"9' 6""",None or Unspecified,None or Unspecified,Double,,,,,
7005,2244958,13000,1079363,136,99.0,1989,24012.0,High,11/12/2008 0:00,219,219,,,,Large / Medium,"Hydraulic Excavator, Track - 21.0 to 24.0 Metric Tons",Iowa,TEX,Track Excavators,,EROPS,,,,,,,,,,,Auxiliary,,,,,,Hydraulic,,,,Steel,None or Unspecified,None or Unspecified,None or Unspecified,None or Unspecified,Double,,,,,
7005,2244959,15000,1500370,136,99.0,1989,14166.0,Medium,11/12/2008 0:00,219,219,,,,Large / Medium,"Hydraulic Excavator, Track - 21.0 to 24.0 Metric Tons",Iowa,TEX,Track Excavators,,EROPS,,,,,,,,,,,Auxiliary,,,,,,Hydraulic,,,,Steel,None or Unspecified,None or Unspecified,None or Unspecified,None or Unspecified,Double,,,,,
