ModelID,SalesID,SalePrice,MachineID,datasource,auctioneerID,YearMade,MachineHoursCurrentMeter,UsageBand,saledate,fiModelDesc,fiBaseModel,fiSecondaryDesc,fiModelSeries,fiModelDescriptor,ProductSize,fiProductClassDesc,state,ProductGroup,ProductGroupDesc,Drive_System,Enclosure,Forks,Pad_Type,Ride_Control,Stick,Transmission,Turbocharged,Blade_Extension,Blade_Width,Enclosure_Type,Engine_Horsepower,Hydraulics,Pushblock,Ripper,Scarifier,Tip_Control,Tire_Size,Coupler,Coupler_System,Grouser_Tracks,Hydraulics_Flow,Track_Type,Undercarriage_Pad_Width,Stick_Length,Thumb,Pattern_Changer,Grouser_Type,Backhoe_Mounting,Blade_Type,Travel_Controls,Differential_Type,Steering_Controls
7017,1143694,17000,65215,121,3.0,2002,156.0,Low,8/11/2005 0:00,242,242,,,,,Skid Steer Loader - 1751.0 to 2201.0 Lb Operating Capacity,Louisiana,SSL,Skid Steer Loaders,,OROPS,None or Unspecified,,,,,,,,,,Auxiliary,,,,,,Manual,None or Unspecified,None or Unspecified,Standard,,,,,,,,,,,
7017,1144984,9000,125653,121,3.0,2004,0.0,,8/24/2006 0:00,242,242,,,,,Skid Steer Loader - 1751.0 to 2201.0 Lb Operating Capacity,North Carolina,SSL,Skid Steer Loaders,,OROPS,None or Unspecified,,,,,,,,,,Standard,,,,,,Manual,None or Unspecified,None or Unspecified,Standard,,,,,,,,,,,
7017,1147334,11000,810386,121,3.0,2002,0.0,,5/19/2011 0:00,242,242,,,,,Skid Steer Loader - 1751.0 to 2201.0 Lb Operating Capacity,Maine,SSL,Skid Steer Loaders,,EROPS,None or Unspecified,,,,,,,,,,Auxiliary,,,,,,Manual,Yes,None or Unspecified,Standard,,,,,,,,,,,
7017,1147990,16500,231308,121,3.0,2003,545.0,Low,4/12/2007 0:00,242,242,,,,,Skid Steer Loader - 1751.0 to 2201.0 Lb Operating Capacity,Maryland,SSL,Skid Steer Loaders,,EROPS w AC,None or Unspecified,,,,,,,,,,Auxiliary,,,,,,Manual,Yes,None or Unspecified,Standard,,,,,,,,,,,
7017,1148645,15500,262158,121,3.0,2004,845.0,High,4/20/2006 0:00,242,242,,,,,Skid Steer Loader - 1751.0 to 2201.0 Lb Operating Capacity,South Carolina,SSL,Skid Steer Loaders,,EROPS w AC,None or Unspecified,,,,,,,,,,Auxiliary,,,,,,Manual,None or Unspecified,None or Unspecified,Standard,,,,,,,,,,,
7017,1149537,12500,668195,121,3.0,2003,1129.0,High,9/21/2006 0:00,242,242,,,,,Skid Steer Loader - 1751.0 to 2201.0 Lb Operating Capacity,Nebraska,SSL,Skid Steer Loaders,,EROPS w AC,None or Unspecified,,,,,,,,,,Auxiliary,,,,,,Hydraulic,Yes,None or Unspecified,Standard,,,,,,,,,,,
7017,1151103,18000,766451,121,3.0,2003,693.0,Medium,11/3/2005 0:00,242,242,,,,,Skid Steer Loader - 1751.0 to 2201.0 Lb Operating Capacity,Florida,SSL,Skid Steer Loaders,,OROPS,Yes,,,,,,,,,,Auxiliary,,,,,,Manual,None or Unspecified,None or Unspecified,Standard,,,,,,,,,,,
7017,1154094,18500,1052661,121,3.0,2002,733.0,Medium,5/20/2004 0:00,242,242,,,,,Skid Steer Loader - 1751.0 to 2201.0 Lb Operating Capacity,Wisconsin,SSL,Skid Steer Loaders,,EROPS,None or Unspecified,,,,,,,,,,Standard,,,,,,None or Unspecified,None or Unspecified,None or Unspecified,Standard,,,,,,,,,,,
7017,1154737,8500,139453,121,3.0,2003,232.0,Low,12/1/2005 0:00,242,242,,,,,Skid Steer Loader - 1751.0 to 2201.0 Lb Operating Capacity,Georgia,SSL,Skid Steer Loaders,,OROPS,None or Unspecified,,,,,,,,,,Auxiliary,,,,,,Manual,None or Unspecified,None or Unspecified,Standard,,,,,,,,,,,
7017,1155230,15000,120418,121,3.0,2003,2219.0,High,7/28/2005 0:00,242,242,,,,,Skid Steer Loader - 1751.0 to 2201.0 Lb Operating Capacity,North Carolina,SSL,Skid Steer Loaders,,OROPS,None or Unspecified,,,,,,,,,,Auxiliary,,,,,,Manual,None or Unspecified,None or Unspecified,Standard,,,,,,,,,,,
7017,1155851,15000,225781,121,3.0,2003,659.0,Low,4/12/2007 0:00,242,242,,,,,Skid Steer Loader - 1751.0 to 2201.0 Lb Operating Capacity,Maryland,SSL,Skid Steer Loaders,,OROPS,None or Unspecified,,,,,,,,,,Auxiliary,,,,,,Manual,Yes,None or Unspecified,Standard,,,,,,,,,,,
7017,1158355,19500,239418,121,3.0,2003,717.0,Medium,7/28/2005 0:00,242,242,,,,,Skid Steer Loader - 1751.0 to 2201.0 Lb Operating Capacity,Iowa,SSL,Skid Steer Loaders,,EROPS,None or Unspecified,,,,,,,,,,Auxiliary,,,,,,Manual,Yes,None or Unspecified,Standard,,,,,,,,,,,
7017,1158797,16000,1059947,121,3.0,2004,1135.0,High,10/25/2007 0:00,242,242,,,,,Skid Steer Loader - 1751.0 to 2201.0 Lb Operating Capacity,Colorado,SSL,Skid Steer Loaders,,EROPS,None or Unspecified,,,,,,,,,,Auxiliary,,,,,,Manual,None or Unspecified,None or Unspecified,Standard,,,,,,,,,,,
7017,1161090,17000,218991,121,3.0,2003,475.0,Low,4/12/2007 0:00,242,242,,,,,Skid Steer Loader - 1751.0 to 2201.0 Lb Operating Capacity,Maryland,SSL,Skid Steer Loaders,,EROPS w AC,None or Unspecified,,,,,,,,,,Auxiliary,,,,,,Manual,Yes,None or Unspecified,Standard,,,,,,,,,,,
7017,1162435,14000,224030,121,3.0,2003,650.0,Low,4/12/2007 0:00,242,242,,,,,Skid Steer Loader - 1751.0 to 2201.0 Lb Operating Capacity,Maryland,SSL,Skid Steer Loaders,,OROPS,None or Unspecified,,,,,,,,,,Auxiliary,,,,,,Manual,Yes,None or Unspecified,Standard,,,,,,,,,,,
7017,1164094,19000,841770,121,3.0,2002,117.0,Low,7/29/2004 0:00,242,242,,,,,Skid Steer Loader - 1751.0 to 2201.0 Lb Operating Capacity,New York,SSL,Skid Steer Loaders,,OROPS,Yes,,,,,,,,,,Standard,,,,,,Manual,None or Unspecified,None or Unspecified,Standard,,,,,,,,,,,
7017,1164676,15000,1038494,121,3.0,2003,913.0,Medium,11/15/2007 0:00,242,242,,,,,Skid Steer Loader - 1751.0 to 2201.0 Lb Operating Capacity,Colorado,SSL,Skid Steer Loaders,,EROPS,None or Unspecified,,,,,,,,,,Auxiliary,,,,,,Manual,None or Unspecified,None or Unspecified,Standard,,,,,,,,,,,
7017,1165457,14500,251117,121,3.0,2003,689.0,Medium,7/13/2006 0:00,242,242,,,,,Skid Steer Loader - 1751.0 to 2201.0 Lb Operating Capacity,South Carolina,SSL,Skid Steer Loaders,,OROPS,None or Unspecified,,,,,,,,,,Auxiliary,,,,,,Manual,None or Unspecified,None or Unspecified,Standard,,,,,,,,,,,
7017,1166085,15000,152707,121,3.0,2004,938.0,High,5/18/2006 0:00,242,242,,,,,Skid Steer Loader - 1751.0 to 2201.0 Lb Operating Capacity,Alabama,SSL,Skid Steer Loaders,,OROPS,None or Unspecified,,,,,,,,,,Auxiliary,,,,,,Manual,None or Unspecified,None or Unspecified,Standard,,,,,,,,,,,
7017,1168697,12000,42744,121,3.0,2003,1101.0,Medium,10/25/2007 0:00,242,242,,,,,Skid Steer Loader - 1751.0 to 2201.0 Lb Operating Capacity,Louisiana,SSL,Skid Steer Loaders,,OROPS,None or Unspecified,,,,,,,,,,Auxiliary,,,,,,Manual,Yes,None or Unspecified,Standard,,,,,,,,,,,
7017,1172460,16500,68285,121,3.0,2002,413.0,Low,8/11/2005 0:00,242,242,,,,,Skid Steer Loader - 1751.0 to 2201.0 Lb Operating Capacity,Louisiana,SSL,Skid Steer Loaders,,OROPS,None or Unspecified,,,,,,,,,,Auxiliary,,,,,,Manual,None or Unspecified,None or Unspecified,Standard,,,,,,,,,,,
7017,1172825,16000,681305,121,3.0,2003,663.0,Low,5/3/2007 0:00,242,242,,,,,Skid Steer Loader - 1751.0 to 2201.0 Lb Operating Capacity,West Virginia,SSL,Skid Steer Loaders,,OROPS,None or Unspecified,,,,,,,,,,Auxiliary,,,,,,Manual,None or Unspecified,None or Unspecified,Standard,,,,,,,,,,,
7017,1174615,17500,1028942,121,3.0,2003,609.0,High,12/16/2004 0:00,242,242,,,,,Skid Steer Loader - 1751.0 to 2201.0 Lb Operating Capacity,Texas,SSL,Skid Steer Loaders,,OROPS,None or Unspecified,,,,,,,,,,Auxiliary,,,,,,Manual,None or Unspecified,None or Unspecified,Standard,,,,,,,,,,,
7017,1175246,19500,1053460,121,3.0,2003,912.0,High,3/24/2005 0:00,242,242,,,,,Skid Steer Loader - 1751.0 to 2201.0 Lb Operating Capacity,Iowa,SSL,Skid Steer Loaders,,EROPS w AC,None or Unspecified,,,,,,,,,,Auxiliary,,,,,,None or Unspecified,None or Unspecified,None or Unspecified,Standard,,,,,,,,,,,
7017,1175410,15500,156775,121,3.0,2003,1236.0,High,4/7/2005 0:00,242,242,,,,,Skid Steer Loader - 1751.0 to 2201.0 Lb Operating Capacity,Alabama,SSL,Skid Steer Loaders,,OROPS,None or Unspecified,,,,,,,,,,Auxiliary,,,,,,Manual,None or Unspecified,None or Unspecified,Standard,,,,,,,,,,,
7017,1176542,13000,608325,121,3.0,2003,1721.0,Medium,1/31/2008 0:00,242,242,,,,,Skid Steer Loader - 1751.0 to 2201.0 Lb Operating Capacity,Texas,SSL,Skid Steer Loaders,,OROPS,None or Unspecified,,,,,,,,,,Auxiliary,,,,,,Manual,None or Unspecified,None or Unspecified,Standard,,,,,,,,,,,
7017,1180120,17500,352499,121,3.0,2004,519.0,Low,6/12/2008 0:00,242,242,,,,,Skid Steer Loader - 1751.0 to 2201.0 Lb Operating Capacity,Pennsylvania,SSL,Skid Steer Loaders,,EROPS w AC,None or Unspecified,,,,,,,,,,Auxiliary,,,,,,Manual,None or Unspecified,None or Unspecified,Standard,,,,,,,,,,,
7017,1181677,11500,261400,121,3.0,2003,2272.0,High,8/7/2008 0:00,242,242,,,,,Skid Steer Loader - 1751.0 to 2201.0 Lb Operating Capacity,Georgia,SSL,Skid Steer Loaders,,EROPS,None or Unspecified,,,,,,,,,,Auxiliary,,,,,,Manual,Yes,None or Unspecified,Standard,,,,,,,,,,,
7017,1183048,12500,1015618,121,3.0,2004,498.0,Low,9/25/2008 0:00,242,242,,,,,Skid Steer Loader - 1751.0 to 2201.0 Lb Operating Capacity,Wisconsin,SSL,Skid Steer Loaders,,OROPS,None or Unspecified,,,,,,,,,,Auxiliary,,,,,,None or Unspecified,None or Unspecified,None or Unspecified,Standard,,,,,,,,,,,
7017,1201865,9000,1042202,121,3.0,2004,1942.0,Medium,4/30/2010 0:00,242,242,,,,,Skid Steer Loader - 1751.0 to 2201.0 Lb Operating Capacity,New York,SSL,Skid Steer Loaders,,OROPS,Yes,,,,,,,,,,Auxiliary,,,,,,Manual,Yes,None or Unspecified,Standard,,,,,,,,,,,
7017,1205013,13500,142223,121,3.0,2003,732.0,Low,7/29/2010 0:00,242,242,,,,,Skid Steer Loader - 1751.0 to 2201.0 Lb Operating Capacity,Wisconsin,SSL,Skid Steer Loaders,,OROPS,None or Unspecified,,,,,,,,,,Standard,,,,,,Manual,Yes,None or Unspecified,Standard,,,,,,,,,,,
7017,1210529,13000,1039164,121,3.0,2003,564.0,Low,1/28/2011 0:00,242,242,,,,,Skid Steer Loader - 1751.0 to 2201.0 Lb Operating Capacity,Michigan,SSL,Skid Steer Loaders,,EROPS,None or Unspecified,,,,,,,,,,Auxiliary,,,,,,Manual,Yes,None or Unspecified,Standard,,,,,,,,,,,
7017,1217221,13500,276115,121,3.0,2003,3153.0,High,9/8/2011 0:00,242,242,,,,,Skid Steer Loader - 1751.0 to 2201.0 Lb Operating Capacity,South Dakota,SSL,Skid Steer Loaders,,EROPS,None or Unspecified,,,,,,,,,,Auxiliary,,,,,,Hydraulic,Yes,None or Unspecified,Standard,,,,,,,,,,,
7017,1551664,16500,782189,132,1.0,2002,,,10/14/2004 0:00,242,242,,,,,Skid Steer Loader - 1751.0 to 2201.0 Lb Operating Capacity,Florida,SSL,Skid Steer Loaders,,OROPS,None or Unspecified,,,,,,,,,,Standard,,,,,,None or Unspecified,None or Unspecified,None or Unspecified,Standard,,,,,,,,,,,
7017,1551665,20000,873053,132,2.0,2002,,,12/11/2004 0:00,242,242,,,,,Skid Steer Loader - 1751.0 to 2201.0 Lb Operating Capacity,Pennsylvania,SSL,Skid Steer Loaders,,OROPS,None or Unspecified,,,,,,,,,,Standard,,,,,,None or Unspecified,None or Unspecified,None or Unspecified,Standard,,,,,,,,,,,
7017,1551666,20000,873053,132,2.0,2002,,,1/30/2005 0:00,242,242,,,,,Skid Steer Loader - 1751.0 to 2201.0 Lb Operating Capacity,Florida,SSL,Skid Steer Loaders,,OROPS,None or Unspecified,,,,,,,,,,Standard,,,,,,None or Unspecified,None or Unspecified,None or Unspecified,Standard,,,,,,,,,,,
7017,1551671,16000,1208327,132,1.0,2002,,,7/28/2006 0:00,242,242,,,,,Skid Steer Loader - 1751.0 to 2201.0 Lb Operating Capacity,Colorado,SSL,Skid Steer Loaders,,OROPS,None or Unspecified,,,,,,,,,,Standard,,,,,,Manual,None or Unspecified,None or Unspecified,Standard,,,,,,,,,,,
7017,1551672,13000,1208327,132,1.0,2002,,,6/29/2004 0:00,242,242,,,,,Skid Steer Loader - 1751.0 to 2201.0 Lb Operating Capacity,Colorado,SSL,Skid Steer Loaders,,OROPS,None or Unspecified,,,,,,,,,,Standard,,,,,,Manual,None or Unspecified,None or Unspecified,Standard,,,,,,,,,,,
7017,1551673,12000,1385516,132,1.0,2002,,,6/29/2004 0:00,242,242,,,,,Skid Steer Loader - 1751.0 to 2201.0 Lb Operating Capacity,Colorado,SSL,Skid Steer Loaders,,EROPS,None or Unspecified,,,,,,,,,,Standard,,,,,,Manual,None or Unspecified,None or Unspecified,Standard,,,,,,,,,,,
7017,1551674,12500,345089,132,2.0,2002,,,3/23/2006 0:00,242,242,,,,,Skid Steer Loader - 1751.0 to 2201.0 Lb Operating Capacity,New Jersey,SSL,Skid Steer Loaders,,OROPS,None or Unspecified,,,,,,,,,,Standard,,,,,,None or Unspecified,None or Unspecified,None or Unspecified,Standard,,,,,,,,,,,
7017,1551675,13500,811363,132,2.0,2002,,,11/4/2006 0:00,242,242,,,,,Skid Steer Loader - 1751.0 to 2201.0 Lb Operating Capacity,New York,SSL,Skid Steer Loaders,,OROPS,None or Unspecified,,,,,,,,,,Standard,,,,,,Manual,Yes,None or Unspecified,Standard,,,,,,,,,,,
7017,1551677,13000,250872,132,1.0,2002,,,6/17/2005 0:00,242,242,,,,,Skid Steer Loader - 1751.0 to 2201.0 Lb Operating Capacity,North Carolina,SSL,Skid Steer Loaders,,OROPS,None or Unspecified,,,,,,,,,,Standard,,,,,,Manual,None or Unspecified,None or Unspecified,Standard,,,,,,,,,,,
7017,1551678,17500,1110123,132,2.0,2002,,,6/26/2004 0:00,242,242,,,,,Skid Steer Loader - 1751.0 to 2201.0 Lb Operating Capacity,Ohio,SSL,Skid Steer Loaders,,OROPS,None or Unspecified,,,,,,,,,,Standard,,,,,,None or Unspecified,None or Unspecified,None or Unspecified,Standard,,,,,,,,,,,
7017,1551688,18000,1399089,132,1.0,2003,,,3/17/2005 0:00,242,242,,,,,Skid Steer Loader - 1751.0 to 2201.0 Lb Operating Capacity,Colorado,SSL,Skid Steer Loaders,,OROPS,None or Unspecified,,,,,,,,,,Standard,,,,,,Manual,None or Unspecified,None or Unspecified,Standard,,,,,,,,,,,
7017,1551690,13500,511285,132,1.0,2003,,,12/4/2006 0:00,242,242,,,,,Skid Steer Loader - 1751.0 to 2201.0 Lb Operating Capacity,California,SSL,Skid Steer Loaders,,OROPS,None or Unspecified,,,,,,,,,,Standard,,,,,,Manual,None or Unspecified,None or Unspecified,Standard,,,,,,,,,,,
7017,1551693,13000,269862,132,99.0,2003,,,12/1/2006 0:00,242,242,,,,,Skid Steer Loader - 1751.0 to 2201.0 Lb Operating Capacity,Minnesota,SSL,Skid Steer Loaders,,EROPS,None or Unspecified,,,,,,,,,,Standard,,,,,,Hydraulic,None or Unspecified,None or Unspecified,Standard,,,,,,,,,,,
7017,1551694,17000,775724,132,1.0,2003,,,5/26/2005 0:00,242,242,,,,,Skid Steer Loader - 1751.0 to 2201.0 Lb Operating Capacity,Florida,SSL,Skid Steer Loaders,,OROPS,None or Unspecified,,,,,,,,,,Standard,,,,,,Manual,None or Unspecified,None or Unspecified,Standard,,,,,,,,,,,
7017,1551696,19000,758364,132,1.0,2003,,,10/13/2005 0:00,242,242,,,,,Skid Steer Loader - 1751.0 to 2201.0 Lb Operating Capacity,Florida,SSL,Skid Steer Loaders,,EROPS w AC,None or Unspecified,,,,,,,,,,Standard,,,,,,Hydraulic,None or Unspecified,None or Unspecified,Standard,,,,,,,,,,,
7017,1551697,15000,267982,132,2.0,2003,,,3/23/2006 0:00,242,242,,,,,Skid Steer Loader - 1751.0 to 2201.0 Lb Operating Capacity,New Jersey,SSL,Skid Steer Loaders,,OROPS,None or Unspecified,,,,,,,,,,Standard,,,,,,Manual,None or Unspecified,None or Unspecified,Standard,,,,,,,,,,,
7017,1551702,15500,250145,132,1.0,2003,,,6/15/2006 0:00,242,242,,,,,Skid Steer Loader - 1751.0 to 2201.0 Lb Operating Capacity,Georgia,SSL,Skid Steer Loaders,,OROPS,None or Unspecified,,,,,,,,,,Standard,,,,,,Manual,None or Unspecified,None or Unspecified,Standard,,,,,,,,,,,
7017,1551703,12500,263172,132,1.0,2003,,,6/17/2005 0:00,242,242,,,,,Skid Steer Loader - 1751.0 to 2201.0 Lb Operating Capacity,North Carolina,SSL,Skid Steer Loaders,,OROPS,None or Unspecified,,,,,,,,,,Standard,,,,,,Manual,None or Unspecified,None or Unspecified,Standard,,,,,,,,,,,
7017,1551704,13000,245604,132,1.0,2003,,,6/17/2005 0:00,242,242,,,,,Skid Steer Loader - 1751.0 to 2201.0 Lb Operating Capacity,North Carolina,SSL,Skid Steer Loaders,,OROPS,None or Unspecified,,,,,,,,,,Standard,,,,,,Manual,None or Unspecified,None or Unspecified,Standard,,,,,,,,,,,
7017,1551705,16000,1130285,132,4.0,2003,,,2/12/2007 0:00,242,242,,,,,Skid Steer Loader - 1751.0 to 2201.0 Lb Operating Capacity,Florida,SSL,Skid Steer Loaders,,OROPS,None or Unspecified,,,,,,,,,,Standard,,,,,,Manual,None or Unspecified,None or Unspecified,Standard,,,,,,,,,,,
7017,1551706,9100,249098,132,7.0,2003,,,8/30/2006 0:00,242,242,,,,,Skid Steer Loader - 1751.0 to 2201.0 Lb Operating Capacity,Alabama,SSL,Skid Steer Loaders,,OROPS,None or Unspecified,,,,,,,,,,Standard,,,,,,Manual,None or Unspecified,None or Unspecified,Standard,,,,,,,,,,,
7017,1551711,17000,254079,132,27.0,2003,,,12/28/2005 0:00,242,242,,,,,Skid Steer Loader - 1751.0 to 2201.0 Lb Operating Capacity,North Carolina,SSL,Skid Steer Loaders,,OROPS,None or Unspecified,,,,,,,,,,Standard,,,,,,Manual,None or Unspecified,None or Unspecified,Standard,,,,,,,,,,,
7017,1551715,12500,1013586,132,3.0,2003,,,11/26/2009 0:00,242,242,,,,,Skid Steer Loader - 1751.0 to 2201.0 Lb Operating Capacity,California,SSL,Skid Steer Loaders,,OROPS,None or Unspecified,,,,,,,,,,Auxiliary,,,,,,Manual,Yes,None or Unspecified,Standard,,,,,,,,,,,
7017,1551725,14500,114991,132,1.0,2003,,,6/15/2006 0:00,242,242,,,,,Skid Steer Loader - 1751.0 to 2201.0 Lb Operating Capacity,Georgia,SSL,Skid Steer Loaders,,OROPS,None or Unspecified,,,,,,,,,,Standard,,,,,,Manual,None or Unspecified,None or Unspecified,Standard,,,,,,,,,,,
7017,1551726,16000,114076,132,27.0,2004,,,7/21/2006 0:00,242,242,,,,,Skid Steer Loader - 1751.0 to 2201.0 Lb Operating Capacity,North Carolina,SSL,Skid Steer Loaders,,OROPS,None or Unspecified,,,,,,,,,,Standard,,,,,,Manual,None or Unspecified,None or Unspecified,Standard,,,,,,,,,,,
7017,1551727,16000,114076,132,7.0,2003,,,4/20/2006 0:00,242,242,,,,,Skid Steer Loader - 1751.0 to 2201.0 Lb Operating Capacity,South Carolina,SSL,Skid Steer Loaders,,OROPS,None or Unspecified,,,,,,,,,,Standard,,,,,,Manual,None or Unspecified,None or Unspecified,Standard,,,,,,,,,,,
7017,1551734,18000,80973,132,1.0,2003,,,10/3/2007 0:00,242,242,,,,,Skid Steer Loader - 1751.0 to 2201.0 Lb Operating Capacity,Maryland,SSL,Skid Steer Loaders,,OROPS,Yes,,,,,,,,,,Standard,,,,,,Manual,None or Unspecified,None or Unspecified,Standard,,,,,,,,,,,
7017,1551737,16500,116461,132,10.0,2004,,,6/22/2006 0:00,242,242,,,,,Skid Steer Loader - 1751.0 to 2201.0 Lb Operating Capacity,Louisiana,SSL,Skid Steer Loaders,,OROPS,None or Unspecified,,,,,,,,,,Standard,,,,,,Manual,None or Unspecified,None or Unspecified,Standard,,,,,,,,,,,
7017,1551738,16500,128585,132,27.0,2004,,,4/21/2006 0:00,242,242,,,,,Skid Steer Loader - 1751.0 to 2201.0 Lb Operating Capacity,North Carolina,SSL,Skid Steer Loaders,,OROPS,None or Unspecified,,,,,,,,,,Standard,,,,,,Manual,None or Unspecified,None or Unspecified,Standard,,,,,,,,,,,
7017,1551739,17000,260232,132,1.0,2003,,,2/24/2006 0:00,242,242,,,,,Skid Steer Loader - 1751.0 to 2201.0 Lb Operating Capacity,Florida,SSL,Skid Steer Loaders,,OROPS,None or Unspecified,,,,,,,,,,Auxiliary,,,,,,Manual,None or Unspecified,None or Unspecified,Standard,,,,,,,,,,,
7017,1551741,17000,245126,132,1.0,2003,,,2/24/2006 0:00,242,242,,,,,Skid Steer Loader - 1751.0 to 2201.0 Lb Operating Capacity,Florida,SSL,Skid Steer Loaders,,OROPS,None or Unspecified,,,,,,,,,,Standard,,,,,,Manual,None or Unspecified,None or Unspecified,Standard,,,,,,,,,,,
7017,1551744,11250,115628,132,9.0,2003,,,5/20/2010 0:00,242,242,,,,,Skid Steer Loader - 1751.0 to 2201.0 Lb Operating Capacity,South Carolina,SSL,Skid Steer Loaders,,OROPS,None or Unspecified,,,,,,,,,,Standard,,,,,,Manual,None or Unspecified,None or Unspecified,Standard,,,,,,,,,,,
7017,1551745,14000,260837,132,10.0,2004,,,9/6/2006 0:00,242,242,,,,,Skid Steer Loader - 1751.0 to 2201.0 Lb Operating Capacity,Louisiana,SSL,Skid Steer Loaders,,OROPS,None or Unspecified,,,,,,,,,,Standard,,,,,,Manual,None or Unspecified,None or Unspecified,Standard,,,,,,,,,,,
7017,1551746,15500,260837,132,10.0,2004,,,6/22/2006 0:00,242,242,,,,,Skid Steer Loader - 1751.0 to 2201.0 Lb Operating Capacity,Louisiana,SSL,Skid Steer Loaders,,OROPS,None or Unspecified,,,,,,,,,,Standard,,,,,,Manual,None or Unspecified,None or Unspecified,Standard,,,,,,,,,,,
7017,1551749,15000,63852,132,10.0,2004,,,6/22/2006 0:00,242,242,,,,,Skid Steer Loader - 1751.0 to 2201.0 Lb Operating Capacity,Louisiana,SSL,Skid Steer Loaders,,EROPS w AC,None or Unspecified,,,,,,,,,,Standard,,,,,,Manual,None or Unspecified,None or Unspecified,Standard,,,,,,,,,,,
7017,1551751,15000,256452,132,7.0,2004,,,4/20/2006 0:00,242,242,,,,,Skid Steer Loader - 1751.0 to 2201.0 Lb Operating Capacity,South Carolina,SSL,Skid Steer Loaders,,EROPS w AC,None or Unspecified,,,,,,,,,,Standard,,,,,,Manual,None or Unspecified,None or Unspecified,Standard,,,,,,,,,,,
7017,1551752,12500,427452,132,27.0,2004,1118.0,High,4/20/2007 0:00,242,242,,,,,Skid Steer Loader - 1751.0 to 2201.0 Lb Operating Capacity,North Carolina,SSL,Skid Steer Loaders,,OROPS,None or Unspecified,,,,,,,,,,Standard,,,,,,Manual,Yes,None or Unspecified,Standard,,,,,,,,,,,
7017,1551753,16000,1108028,132,10.0,2004,,,5/20/2008 0:00,242,242,,,,,Skid Steer Loader - 1751.0 to 2201.0 Lb Operating Capacity,Louisiana,SSL,Skid Steer Loaders,,OROPS,None or Unspecified,,,,,,,,,,Standard,,,,,,Manual,None or Unspecified,None or Unspecified,Standard,,,,,,,,,,,
7017,1551754,10500,1108028,132,10.0,2004,395.0,Low,12/9/2009 0:00,242,242,,,,,Skid Steer Loader - 1751.0 to 2201.0 Lb Operating Capacity,Louisiana,SSL,Skid Steer Loaders,,OROPS,None or Unspecified,,,,,,,,,,Standard,,,,,,Manual,None or Unspecified,None or Unspecified,Standard,,,,,,,,,,,
7017,1551756,16000,306549,132,1.0,2004,,,9/22/2005 0:00,242,242,,,,,Skid Steer Loader - 1751.0 to 2201.0 Lb Operating Capacity,Washington,SSL,Skid Steer Loaders,,EROPS,None or Unspecified,,,,,,,,,,Standard,,,,,,Manual,None or Unspecified,None or Unspecified,Standard,,,,,,,,,,,
7017,1551760,15000,264040,132,7.0,2004,,,5/31/2006 0:00,242,242,,,,,Skid Steer Loader - 1751.0 to 2201.0 Lb Operating Capacity,Alabama,SSL,Skid Steer Loaders,,EROPS w AC,None or Unspecified,,,,,,,,,,Standard,,,,,,Manual,None or Unspecified,None or Unspecified,Standard,,,,,,,,,,,
7017,1551761,16000,315165,132,1.0,2004,,,9/22/2005 0:00,242,242,,,,,Skid Steer Loader - 1751.0 to 2201.0 Lb Operating Capacity,Washington,SSL,Skid Steer Loaders,,OROPS,None or Unspecified,,,,,,,,,,Standard,,,,,,Manual,None or Unspecified,None or Unspecified,Standard,,,,,,,,,,,
7017,1551764,13000,152381,132,2.0,2004,1653.0,Medium,2/7/2009 0:00,242,242,,,,,Skid Steer Loader - 1751.0 to 2201.0 Lb Operating Capacity,Florida,SSL,Skid Steer Loaders,,OROPS,None or Unspecified,,,,,,,,,,Standard,,,,,,Manual,None or Unspecified,None or Unspecified,Standard,,,,,,,,,,,
7017,1551765,13000,152381,132,2.0,2004,,,1/31/2009 0:00,242,242,,,,,Skid Steer Loader - 1751.0 to 2201.0 Lb Operating Capacity,Florida,SSL,Skid Steer Loaders,,OROPS,None or Unspecified,,,,,,,,,,Standard,,,,,,Manual,None or Unspecified,None or Unspecified,Standard,,,,,,,,,,,
7017,1551766,10000,132243,132,2.0,2004,,,5/26/2009 0:00,242,242,,,,,Skid Steer Loader - 1751.0 to 2201.0 Lb Operating Capacity,Florida,SSL,Skid Steer Loaders,,OROPS,None or Unspecified,,,,,,,,,,Auxiliary,,,,,,Manual,None or Unspecified,None or Unspecified,Standard,,,,,,,,,,,
7017,1551767,13000,132243,132,2.0,2004,,,1/31/2009 0:00,242,242,,,,,Skid Steer Loader - 1751.0 to 2201.0 Lb Operating Capacity,Florida,SSL,Skid Steer Loaders,,OROPS,None or Unspecified,,,,,,,,,,Auxiliary,,,,,,Manual,None or Unspecified,None or Unspecified,Standard,,,,,,,,,,,
7017,1551768,13000,132243,132,2.0,2004,1582.0,Medium,2/7/2009 0:00,242,242,,,,,Skid Steer Loader - 1751.0 to 2201.0 Lb Operating Capacity,Florida,SSL,Skid Steer Loaders,,OROPS,None or Unspecified,,,,,,,,,,Auxiliary,,,,,,Manual,None or Unspecified,None or Unspecified,Standard,,,,,,,,,,,
7017,1551770,14250,259981,132,7.0,2004,,,5/31/2006 0:00,242,242,,,,,Skid Steer Loader - 1751.0 to 2201.0 Lb Operating Capacity,Alabama,SSL,Skid Steer Loaders,,OROPS,None or Unspecified,,,,,,,,,,Standard,,,,,,Manual,None or Unspecified,None or Unspecified,Standard,,,,,,,,,,,
7017,1551771,15500,110993,132,1.0,2004,,,8/30/2006 0:00,242,242,,,,,Skid Steer Loader - 1751.0 to 2201.0 Lb Operating Capacity,Georgia,SSL,Skid Steer Loaders,,OROPS,None or Unspecified,,,,,,,,,,Standard,,,,,,Manual,None or Unspecified,None or Unspecified,Standard,,,,,,,,,,,
7017,1551773,16000,307403,132,1.0,2004,,,9/22/2005 0:00,242,242,,,,,Skid Steer Loader - 1751.0 to 2201.0 Lb Operating Capacity,Washington,SSL,Skid Steer Loaders,,EROPS,None or Unspecified,,,,,,,,,,Standard,,,,,,Manual,None or Unspecified,None or Unspecified,Standard,,,,,,,,,,,
7017,1551775,9500,1037733,132,3.0,2004,,,9/3/2009 0:00,242,242,,,,,Skid Steer Loader - 1751.0 to 2201.0 Lb Operating Capacity,California,SSL,Skid Steer Loaders,,EROPS,None or Unspecified,,,,,,,,,,Auxiliary,,,,,,Manual,Yes,None or Unspecified,Standard,,,,,,,,,,,
7017,1551776,16000,306674,132,1.0,2004,,,9/22/2005 0:00,242,242,,,,,Skid Steer Loader - 1751.0 to 2201.0 Lb Operating Capacity,Washington,SSL,Skid Steer Loaders,,OROPS,None or Unspecified,,,,,,,,,,Standard,,,,,,Manual,None or Unspecified,None or Unspecified,Standard,,,,,,,,,,,
7017,2299188,14000,1068504,136,3.0,2002,1636.0,Medium,4/16/2008 0:00,242,242,,,,,Skid Steer Loader - 1751.0 to 2201.0 Lb Operating Capacity,Tennessee,SSL,Skid Steer Loaders,,EROPS,None or Unspecified,,,,,,,,,,Auxiliary,,,,,,None or Unspecified,None or Unspecified,None or Unspecified,Standard,,,,,,,,,,,
7017,2299189,13500,869894,136,,1000,0.0,,7/18/2009 0:00,242,242,,,,,Skid Steer Loader - 1751.0 to 2201.0 Lb Operating Capacity,New York,SSL,Skid Steer Loaders,,EROPS,None or Unspecified,,,,,,,,,,Auxiliary,,,,,,Manual,Yes,None or Unspecified,Standard,,,,,,,,,,,
7017,2299190,13500,176456,136,1.0,2002,0.0,,6/23/2008 0:00,242,242,,,,,Skid Steer Loader - 1751.0 to 2201.0 Lb Operating Capacity,California,SSL,Skid Steer Loaders,,OROPS,None or Unspecified,,,,,,,,,,Auxiliary,,,,,,Manual,None or Unspecified,None or Unspecified,Standard,,,,,,,,,,,
7017,2299191,10000,1168952,136,99.0,2002,2702.0,High,6/6/2008 0:00,242,242,,,,,Skid Steer Loader - 1751.0 to 2201.0 Lb Operating Capacity,Minnesota,SSL,Skid Steer Loaders,,OROPS,None or Unspecified,,,,,,,,,,Auxiliary,,,,,,None or Unspecified,None or Unspecified,None or Unspecified,Standard,,,,,,,,,,,
7017,2299192,11000,750940,136,1.0,2004,2494.0,Medium,5/14/2009 0:00,242,242,,,,,Skid Steer Loader - 1751.0 to 2201.0 Lb Operating Capacity,California,SSL,Skid Steer Loaders,,OROPS,None or Unspecified,,,,,,,,,,Auxiliary,,,,,,Manual,None or Unspecified,None or Unspecified,Standard,,,,,,,,,,,
7017,2299195,12000,248335,136,1.0,2003,1829.0,Medium,6/25/2008 0:00,242,242,,,,,Skid Steer Loader - 1751.0 to 2201.0 Lb Operating Capacity,Maryland,SSL,Skid Steer Loaders,,OROPS,Yes,,,,,,,,,,Auxiliary,,,,,,Manual,None or Unspecified,None or Unspecified,Standard,,,,,,,,,,,
7017,2299196,8250,893025,136,2.0,2003,0.0,,4/21/2010 0:00,242,242,,,,,Skid Steer Loader - 1751.0 to 2201.0 Lb Operating Capacity,Tennessee,SSL,Skid Steer Loaders,,OROPS,None or Unspecified,,,,,,,,,,Auxiliary,,,,,,Manual,Yes,None or Unspecified,Standard,,,,,,,,,,,
7017,2299201,8750,5621,136,7.0,2003,1165.0,Medium,3/12/2008 0:00,242,242,,,,,Skid Steer Loader - 1751.0 to 2201.0 Lb Operating Capacity,Alabama,SSL,Skid Steer Loaders,,OROPS,None or Unspecified,,,,,,,,,,Standard,,,,,,Manual,None or Unspecified,None or Unspecified,Standard,,,,,,,,,,,
7017,2299205,11500,455722,136,1.0,2003,0.0,,5/14/2009 0:00,242,242,,,,,Skid Steer Loader - 1751.0 to 2201.0 Lb Operating Capacity,California,SSL,Skid Steer Loaders,,EROPS w AC,None or Unspecified,,,,,,,,,,Auxiliary,,,,,,Manual,None or Unspecified,None or Unspecified,Standard,,,,,,,,,,,
7017,2299209,13000,372971,136,1.0,2003,1516.0,High,8/28/2007 0:00,242,242,,,,,Skid Steer Loader - 1751.0 to 2201.0 Lb Operating Capacity,California,SSL,Skid Steer Loaders,,OROPS,None or Unspecified,,,,,,,,,,Auxiliary,,,,,,None or Unspecified,None or Unspecified,None or Unspecified,Standard,,,,,,,,,,,
7017,2299212,11500,222575,136,1.0,2003,0.0,,6/24/2009 0:00,242,242,,,,,Skid Steer Loader - 1751.0 to 2201.0 Lb Operating Capacity,Maryland,SSL,Skid Steer Loaders,,OROPS,None or Unspecified,,,,,,,,,,Auxiliary,,,,,,Manual,None or Unspecified,None or Unspecified,Standard,,,,,,,,,,,
7017,2299215,11000,220222,136,1.0,2003,0.0,,6/24/2009 0:00,242,242,,,,,Skid Steer Loader - 1751.0 to 2201.0 Lb Operating Capacity,Maryland,SSL,Skid Steer Loaders,,OROPS,None or Unspecified,,,,,,,,,,Auxiliary,,,,,,Manual,None or Unspecified,None or Unspecified,Standard,,,,,,,,,,,
7017,2299219,18500,260232,136,1.0,2003,0.0,,10/15/2008 0:00,242,242,,,,,Skid Steer Loader - 1751.0 to 2201.0 Lb Operating Capacity,Florida,SSL,Skid Steer Loaders,,OROPS,None or Unspecified,,,,,,,,,,Auxiliary,,,,,,Manual,None or Unspecified,None or Unspecified,Standard,,,,,,,,,,,
7017,2299224,15000,1209145,136,2.0,2004,0.0,,11/3/2007 0:00,242,242,,,,,Skid Steer Loader - 1751.0 to 2201.0 Lb Operating Capacity,New York,SSL,Skid Steer Loaders,,EROPS,None or Unspecified,,,,,,,,,,Auxiliary,,,,,,Manual,None or Unspecified,None or Unspecified,Standard,,,,,,,,,,,
7017,2299225,16500,563261,136,1.0,1000,0.0,,2/19/2008 0:00,242,242,,,,,Skid Steer Loader - 1751.0 to 2201.0 Lb Operating Capacity,Florida,SSL,Skid Steer Loaders,,OROPS,None or Unspecified,,,,,,,,,,Auxiliary,,,,,,None or Unspecified,None or Unspecified,None or Unspecified,Standard,,,,,,,,,,,
7017,2299229,13000,82077,136,2.0,2004,2151.0,High,9/28/2007 0:00,242,242,,,,,Skid Steer Loader - 1751.0 to 2201.0 Lb Operating Capacity,New Jersey,SSL,Skid Steer Loaders,,EROPS,None or Unspecified,,,,,,,,,,Auxiliary,,,,,,Manual,None or Unspecified,None or Unspecified,Standard,,,,,,,,,,,
7017,2299231,11000,132243,136,2.0,2004,0.0,,5/9/2009 0:00,242,242,,,,,Skid Steer Loader - 1751.0 to 2201.0 Lb Operating Capacity,Tennessee,SSL,Skid Steer Loaders,,OROPS,None or Unspecified,,,,,,,,,,Auxiliary,,,,,,Manual,None or Unspecified,None or Unspecified,Standard,,,,,,,,,,,
7017,2299233,13000,1677522,136,,2004,1653.0,Medium,1/31/2009 0:00,242,242,,,,,Skid Steer Loader - 1751.0 to 2201.0 Lb Operating Capacity,Florida,SSL,Skid Steer Loaders,,OROPS,None or Unspecified,,,,,,,,,,Auxiliary,,,,,,Manual,Yes,None or Unspecified,Standard,,,,,,,,,,,
7017,2299234,13000,1757906,136,,2004,1582.0,Medium,1/31/2009 0:00,242,242,,,,,Skid Steer Loader - 1751.0 to 2201.0 Lb Operating Capacity,Florida,SSL,Skid Steer Loaders,,OROPS,None or Unspecified,,,,,,,,,,Auxiliary,,,,,,Manual,Yes,None or Unspecified,Standard,,,,,,,,,,,
7017,2582865,11500,815337,149,99.0,2002,0.0,,8/12/2010 0:00,242,242,,,,,Skid Steer Loader - 1751.0 to 2201.0 Lb Operating Capacity,New York,SSL,Skid Steer Loaders,,OROPS,None or Unspecified,,,,,,,,,,Standard,,,,,,Manual,None or Unspecified,None or Unspecified,Standard,,,,,,,,,,,
7017,2582872,13500,217567,149,1.0,2003,0.0,,2/15/2010 0:00,242,242,,,,,Skid Steer Loader - 1751.0 to 2201.0 Lb Operating Capacity,Florida,SSL,Skid Steer Loaders,,OROPS,None or Unspecified,,,,,,,,,,Auxiliary,,,,,,Manual,None or Unspecified,None or Unspecified,Standard,,,,,,,,,,,
7017,4295307,9000,305594,172,1.0,2003,1073.0,Medium,11/20/2009 0:00,242,242,,,,,Skid Steer Loader - 1751.0 to 2201.0 Lb Operating Capacity,Arizona,SSL,Skid Steer Loaders,,OROPS,None or Unspecified,,,,,,,,,,Auxiliary,,,,,,Manual,None or Unspecified,None or Unspecified,Standard,,,,,,,,,,,
7017,4295316,14500,2312433,172,1.0,2003,3473.0,High,10/10/2011 0:00,242,242,,,,,Skid Steer Loader - 1751.0 to 2201.0 Lb Operating Capacity,Colorado,SSL,Skid Steer Loaders,,EROPS,None or Unspecified,,,,,,,,,,Auxiliary,,,,,,None or Unspecified,None or Unspecified,None or Unspecified,Standard,,,,,,,,,,,
7017,6275002,14500,1825560,149,1.0,2003,,,10/11/2011 0:00,242,242,,,,,Skid Steer Loader - 1751.0 to 2201.0 Lb Operating Capacity,Colorado,SSL,Skid Steer Loaders,,OROPS,None or Unspecified,,,,,,,,,,Auxiliary,,,,,,Manual,None or Unspecified,None or Unspecified,Standard,,,,,,,,,,,
