ModelID,SalesID,SalePrice,MachineID,datasource,auctioneerID,YearMade,MachineHoursCurrentMeter,UsageBand,saledate,fiModelDesc,fiBaseModel,fiSecondaryDesc,fiModelSeries,fiModelDescriptor,ProductSize,fiProductClassDesc,state,ProductGroup,ProductGroupDesc,Drive_System,Enclosure,Forks,Pad_Type,Ride_Control,Stick,Transmission,Turbocharged,Blade_Extension,Blade_Width,Enclosure_Type,Engine_Horsepower,Hydraulics,Pushblock,Ripper,Scarifier,Tip_Control,Tire_Size,Coupler,Coupler_System,Grouser_Tracks,Hydraulics_Flow,Track_Type,Undercarriage_Pad_Width,Stick_Length,Thumb,Pattern_Changer,Grouser_Type,Backhoe_Mounting,Blade_Type,Travel_Controls,Differential_Type,Steering_Controls
7023,1141996,18000,1018668,121,3.0,2004,523.0,Medium,2/9/2006 0:00,252,252,,,,,Skid Steer Loader - 2201.0 to 2701.0 Lb Operating Capacity,Wisconsin,SSL,Skid Steer Loaders,,OROPS,None or Unspecified,,,,,,,,,,Standard,,,,,,None or Unspecified,None or Unspecified,None or Unspecified,Standard,,,,,,,,,,,
7023,1142266,14000,133225,121,3.0,2001,0.0,,1/26/2006 0:00,252,252,,,,,Skid Steer Loader - 2201.0 to 2701.0 Lb Operating Capacity,Georgia,SSL,Skid Steer Loaders,,OROPS,None or Unspecified,,,,,,,,,,Auxiliary,,,,,,None or Unspecified,None or Unspecified,None or Unspecified,Standard,,,,,,,,,,,
7023,1142450,15500,1049374,121,3.0,2001,1216.0,Medium,8/10/2006 0:00,252,252,,,,,Skid Steer Loader - 2201.0 to 2701.0 Lb Operating Capacity,Texas,SSL,Skid Steer Loaders,,OROPS,None or Unspecified,,,,,,,,,,Auxiliary,,,,,,None or Unspecified,None or Unspecified,None or Unspecified,Standard,,,,,,,,,,,
7023,1142520,12000,156969,121,3.0,2002,0.0,,2/23/2006 0:00,252,252,,,,,Skid Steer Loader - 2201.0 to 2701.0 Lb Operating Capacity,Georgia,SSL,Skid Steer Loaders,,OROPS,None or Unspecified,,,,,,,,,,Auxiliary,,,,,,None or Unspecified,None or Unspecified,None or Unspecified,Standard,,,,,,,,,,,
7023,1143276,14500,610496,121,3.0,2002,1353.0,High,12/15/2005 0:00,252,252,,,,,Skid Steer Loader - 2201.0 to 2701.0 Lb Operating Capacity,Illinois,SSL,Skid Steer Loaders,,OROPS,None or Unspecified,,,,,,,,,,Auxiliary,,,,,,None or Unspecified,None or Unspecified,None or Unspecified,Standard,,,,,,,,,,,
7023,1144937,16500,149434,121,3.0,2002,800.0,Medium,8/25/2005 0:00,252,252,,,,,Skid Steer Loader - 2201.0 to 2701.0 Lb Operating Capacity,Alabama,SSL,Skid Steer Loaders,,OROPS,None or Unspecified,,,,,,,,,,Auxiliary,,,,,,Manual,None or Unspecified,None or Unspecified,Standard,,,,,,,,,,,
7023,1145018,17500,1004037,121,3.0,2004,640.0,High,12/1/2005 0:00,252,252,,,,,Skid Steer Loader - 2201.0 to 2701.0 Lb Operating Capacity,Wisconsin,SSL,Skid Steer Loaders,,EROPS,None or Unspecified,,,,,,,,,,Auxiliary,,,,,,None or Unspecified,None or Unspecified,None or Unspecified,Standard,,,,,,,,,,,
7023,1148558,18500,1000902,121,3.0,2002,649.0,Medium,6/3/2004 0:00,252,252,,,,,Skid Steer Loader - 2201.0 to 2701.0 Lb Operating Capacity,Wisconsin,SSL,Skid Steer Loaders,,EROPS,None or Unspecified,,,,,,,,,,Standard,,,,,,None or Unspecified,None or Unspecified,None or Unspecified,Standard,,,,,,,,,,,
7023,1150051,14000,125266,121,3.0,2003,850.0,Medium,12/7/2006 0:00,252,252,,,,,Skid Steer Loader - 2201.0 to 2701.0 Lb Operating Capacity,North Carolina,SSL,Skid Steer Loaders,,OROPS,None or Unspecified,,,,,,,,,,Auxiliary,,,,,,Manual,None or Unspecified,None or Unspecified,Standard,,,,,,,,,,,
7023,1150522,17000,520864,121,3.0,2002,167.0,Low,6/3/2004 0:00,252,252,,,,,Skid Steer Loader - 2201.0 to 2701.0 Lb Operating Capacity,Florida,SSL,Skid Steer Loaders,,OROPS,None or Unspecified,,,,,,,,,,Standard,,,,,,None or Unspecified,None or Unspecified,None or Unspecified,Standard,,,,,,,,,,,
7023,1151040,13000,220813,121,3.0,2002,2634.0,High,4/12/2007 0:00,252,252,,,,,Skid Steer Loader - 2201.0 to 2701.0 Lb Operating Capacity,Maryland,SSL,Skid Steer Loaders,,EROPS w AC,None or Unspecified,,,,,,,,,,Auxiliary,,,,,,None or Unspecified,None or Unspecified,Yes,Standard,,,,,,,,,,,
7023,1154227,19000,134927,121,3.0,2003,670.0,Medium,7/28/2005 0:00,252,252,,,,,Skid Steer Loader - 2201.0 to 2701.0 Lb Operating Capacity,Georgia,SSL,Skid Steer Loaders,,OROPS,None or Unspecified,,,,,,,,,,Auxiliary,,,,,,Manual,None or Unspecified,None or Unspecified,Standard,,,,,,,,,,,
7023,1154463,13500,135792,121,3.0,2001,0.0,,1/12/2006 0:00,252,252,,,,,Skid Steer Loader - 2201.0 to 2701.0 Lb Operating Capacity,Georgia,SSL,Skid Steer Loaders,,OROPS,None or Unspecified,,,,,,,,,,Auxiliary,,,,,,None or Unspecified,None or Unspecified,None or Unspecified,Standard,,,,,,,,,,,
7023,1157003,15500,911374,121,3.0,2002,1575.0,Medium,2/23/2006 0:00,252,252,,,,,Skid Steer Loader - 2201.0 to 2701.0 Lb Operating Capacity,Kentucky,SSL,Skid Steer Loaders,,EROPS,None or Unspecified,,,,,,,,,,Auxiliary,,,,,,None or Unspecified,None or Unspecified,None or Unspecified,Standard,,,,,,,,,,,
7023,1157985,18500,50768,121,3.0,2002,138.0,Low,8/25/2005 0:00,252,252,,,,,Skid Steer Loader - 2201.0 to 2701.0 Lb Operating Capacity,Louisiana,SSL,Skid Steer Loaders,,OROPS,None or Unspecified,,,,,,,,,,Auxiliary,,,,,,Manual,None or Unspecified,None or Unspecified,Standard,,,,,,,,,,,
7023,1158010,18500,1011029,121,3.0,2002,259.0,Low,5/6/2004 0:00,252,252,,,,,Skid Steer Loader - 2201.0 to 2701.0 Lb Operating Capacity,Pennsylvania,SSL,Skid Steer Loaders,,OROPS,None or Unspecified,,,,,,,,,,Standard,,,,,,None or Unspecified,None or Unspecified,None or Unspecified,Standard,,,,,,,,,,,
7023,1158079,15000,890334,121,3.0,2003,1731.0,High,4/12/2007 0:00,252,252,,,,,Skid Steer Loader - 2201.0 to 2701.0 Lb Operating Capacity,Tennessee,SSL,Skid Steer Loaders,,OROPS,None or Unspecified,,,,,,,,,,Auxiliary,,,,,,None or Unspecified,None or Unspecified,None or Unspecified,Standard,,,,,,,,,,,
7023,1161467,19500,1038862,121,3.0,2003,510.0,Low,8/10/2006 0:00,252,252,,,,,Skid Steer Loader - 2201.0 to 2701.0 Lb Operating Capacity,Illinois,SSL,Skid Steer Loaders,,EROPS,Yes,,,,,,,,,,Auxiliary,,,,,,None or Unspecified,None or Unspecified,None or Unspecified,Standard,,,,,,,,,,,
7023,1162051,16500,514155,121,3.0,2002,1171.0,Medium,9/21/2006 0:00,252,252,,,,,Skid Steer Loader - 2201.0 to 2701.0 Lb Operating Capacity,California,SSL,Skid Steer Loaders,,OROPS,None or Unspecified,,,,,,,,,,Auxiliary,,,,,,None or Unspecified,None or Unspecified,None or Unspecified,Standard,,,,,,,,,,,
7023,1162078,13500,700852,121,3.0,2003,891.0,Medium,11/2/2006 0:00,252,252,,,,,Skid Steer Loader - 2201.0 to 2701.0 Lb Operating Capacity,Indiana,SSL,Skid Steer Loaders,,EROPS,None or Unspecified,,,,,,,,,,Auxiliary,,,,,,Manual,Yes,None or Unspecified,Standard,,,,,,,,,,,
7023,1162142,19000,674272,121,3.0,2004,523.0,Medium,4/6/2006 0:00,252,252,,,,,Skid Steer Loader - 2201.0 to 2701.0 Lb Operating Capacity,Ohio,SSL,Skid Steer Loaders,,EROPS,None or Unspecified,,,,,,,,,,Auxiliary,,,,,,Manual,None or Unspecified,None or Unspecified,Standard,,,,,,,,,,,
7023,1163822,17500,770715,121,3.0,2003,587.0,Medium,4/6/2006 0:00,252,252,,,,,Skid Steer Loader - 2201.0 to 2701.0 Lb Operating Capacity,Florida,SSL,Skid Steer Loaders,,OROPS,None or Unspecified,,,,,,,,,,Standard,,,,,,Manual,None or Unspecified,None or Unspecified,Standard,,,,,,,,,,,
7023,1164716,15000,1056818,121,3.0,2001,812.0,Low,2/23/2006 0:00,252,252,,,,,Skid Steer Loader - 2201.0 to 2701.0 Lb Operating Capacity,Wisconsin,SSL,Skid Steer Loaders,,OROPS,None or Unspecified,,,,,,,,,,Auxiliary,,,,,,None or Unspecified,None or Unspecified,None or Unspecified,Standard,,,,,,,,,,,
7023,1164784,18000,1052637,121,3.0,2002,208.0,Low,3/25/2004 0:00,252,252,,,,,Skid Steer Loader - 2201.0 to 2701.0 Lb Operating Capacity,Missouri,SSL,Skid Steer Loaders,,EROPS,Yes,,,,,,,,,,Standard,,,,,,None or Unspecified,None or Unspecified,None or Unspecified,Standard,,,,,,,,,,,
7023,1165229,16000,533391,121,3.0,2003,930.0,Medium,5/3/2007 0:00,252,252,,,,,Skid Steer Loader - 2201.0 to 2701.0 Lb Operating Capacity,Florida,SSL,Skid Steer Loaders,,OROPS,None or Unspecified,,,,,,,,,,Auxiliary,,,,,,Manual,None or Unspecified,None or Unspecified,Standard,,,,,,,,,,,
7023,1166054,19000,308801,121,3.0,2001,553.0,Low,9/22/2005 0:00,252,252,,,,,Skid Steer Loader - 2201.0 to 2701.0 Lb Operating Capacity,California,SSL,Skid Steer Loaders,,EROPS,None or Unspecified,,,,,,,,,,Auxiliary,,,,,,None or Unspecified,None or Unspecified,None or Unspecified,Standard,,,,,,,,,,,
7023,1168103,16500,410689,121,3.0,2002,825.0,Medium,8/25/2005 0:00,252,252,,,,,Skid Steer Loader - 2201.0 to 2701.0 Lb Operating Capacity,Kansas,SSL,Skid Steer Loaders,,OROPS,Yes,,,,,,,,,,Auxiliary,,,,,,None or Unspecified,None or Unspecified,None or Unspecified,Standard,,,,,,,,,,,
7023,1169390,15000,1061208,121,3.0,2004,2072.0,High,8/24/2006 0:00,252,252,,,,,Skid Steer Loader - 2201.0 to 2701.0 Lb Operating Capacity,Iowa,SSL,Skid Steer Loaders,,EROPS,None or Unspecified,,,,,,,,,,Auxiliary,,,,,,Manual,None or Unspecified,None or Unspecified,Standard,,,,,,,,,,,
7023,1170167,15000,1045171,121,3.0,2004,1993.0,High,8/24/2006 0:00,252,252,,,,,Skid Steer Loader - 2201.0 to 2701.0 Lb Operating Capacity,Iowa,SSL,Skid Steer Loaders,,EROPS,None or Unspecified,,,,,,,,,,Auxiliary,,,,,,Manual,None or Unspecified,None or Unspecified,Standard,,,,,,,,,,,
7023,1171358,15500,123221,121,3.0,2004,720.0,Medium,12/7/2006 0:00,252,252,,,,,Skid Steer Loader - 2201.0 to 2701.0 Lb Operating Capacity,North Carolina,SSL,Skid Steer Loaders,,OROPS,None or Unspecified,,,,,,,,,,Auxiliary,,,,,,Manual,None or Unspecified,None or Unspecified,Standard,,,,,,,,,,,
7023,1174618,17500,1035882,121,3.0,2002,0.0,,12/16/2004 0:00,252,252,,,,,Skid Steer Loader - 2201.0 to 2701.0 Lb Operating Capacity,Wisconsin,SSL,Skid Steer Loaders,,OROPS,None or Unspecified,,,,,,,,,,Auxiliary,,,,,,None or Unspecified,None or Unspecified,None or Unspecified,Standard,,,,,,,,,,,
7023,1175125,15500,363416,121,3.0,2003,772.0,Medium,4/7/2005 0:00,252,252,,,,,Skid Steer Loader - 2201.0 to 2701.0 Lb Operating Capacity,Arizona,SSL,Skid Steer Loaders,,OROPS,None or Unspecified,,,,,,,,,,Auxiliary,,,,,,None or Unspecified,None or Unspecified,None or Unspecified,Standard,,,,,,,,,,,
7023,1175477,15000,439081,121,3.0,2003,0.0,,5/5/2005 0:00,252,252,,,,,Skid Steer Loader - 2201.0 to 2701.0 Lb Operating Capacity,New York,SSL,Skid Steer Loaders,,OROPS,None or Unspecified,,,,,,,,,,Auxiliary,,,,,,Manual,None or Unspecified,None or Unspecified,Standard,,,,,,,,,,,
7023,1175720,16500,51164,121,3.0,2001,844.0,Medium,5/5/2005 0:00,252,252,,,,,Skid Steer Loader - 2201.0 to 2701.0 Lb Operating Capacity,Louisiana,SSL,Skid Steer Loaders,,OROPS,None or Unspecified,,,,,,,,,,Auxiliary,,,,,,None or Unspecified,None or Unspecified,None or Unspecified,Standard,,,,,,,,,,,
7023,1181678,9500,1067306,121,3.0,2004,0.0,,8/7/2008 0:00,252,252,,,,,Skid Steer Loader - 2201.0 to 2701.0 Lb Operating Capacity,Georgia,SSL,Skid Steer Loaders,,OROPS,None or Unspecified,,,,,,,,,,Auxiliary,,,,,,Manual,None or Unspecified,None or Unspecified,Standard,,,,,,,,,,,
7023,1195584,9500,861612,121,3.0,2003,2984.0,High,12/17/2009 0:00,252,252,,,,,Skid Steer Loader - 2201.0 to 2701.0 Lb Operating Capacity,New York,SSL,Skid Steer Loaders,,OROPS,None or Unspecified,,,,,,,,,,Auxiliary,,,,,,Manual,None or Unspecified,None or Unspecified,Standard,,,,,,,,,,,
7023,1198537,12500,147298,121,3.0,2003,,,2/11/2010 0:00,252,252,,,,,Skid Steer Loader - 2201.0 to 2701.0 Lb Operating Capacity,Georgia,SSL,Skid Steer Loaders,,OROPS,Yes,,,,,,,,,,Auxiliary,,,,,,Manual,Yes,None or Unspecified,Standard,,,,,,,,,,,
7023,1558103,13500,1325131,132,1.0,2001,,,11/12/2003 0:00,252,252,,,,,Skid Steer Loader - 2201.0 to 2701.0 Lb Operating Capacity,Iowa,SSL,Skid Steer Loaders,,OROPS,None or Unspecified,,,,,,,,,,Standard,,,,,,None or Unspecified,None or Unspecified,None or Unspecified,Standard,,,,,,,,,,,
7023,1558106,16500,1376813,132,3.0,2001,,,10/30/2003 0:00,252,252,,,,,Skid Steer Loader - 2201.0 to 2701.0 Lb Operating Capacity,Unspecified,SSL,Skid Steer Loaders,,OROPS,None or Unspecified,,,,,,,,,,Standard,,,,,,None or Unspecified,None or Unspecified,None or Unspecified,Standard,,,,,,,,,,,
7023,1558107,15500,139253,132,2.0,2001,,,6/26/2004 0:00,252,252,,,,,Skid Steer Loader - 2201.0 to 2701.0 Lb Operating Capacity,Ohio,SSL,Skid Steer Loaders,,OROPS,None or Unspecified,,,,,,,,,,Standard,,,,,,None or Unspecified,None or Unspecified,None or Unspecified,Standard,,,,,,,,,,,
7023,1558108,15000,133225,132,27.0,2001,,,4/21/2006 0:00,252,252,,,,,Skid Steer Loader - 2201.0 to 2701.0 Lb Operating Capacity,North Carolina,SSL,Skid Steer Loaders,,OROPS,None or Unspecified,,,,,,,,,,Auxiliary,,,,,,None or Unspecified,None or Unspecified,None or Unspecified,Standard,,,,,,,,,,,
7023,1558111,17500,1084266,132,3.0,2001,,,10/30/2003 0:00,252,252,,,,,Skid Steer Loader - 2201.0 to 2701.0 Lb Operating Capacity,Unspecified,SSL,Skid Steer Loaders,,OROPS,None or Unspecified,,,,,,,,,,Standard,,,,,,None or Unspecified,None or Unspecified,None or Unspecified,Standard,,,,,,,,,,,
7023,1558112,14000,1144283,132,1.0,2001,,,3/11/2005 0:00,252,252,,,,,Skid Steer Loader - 2201.0 to 2701.0 Lb Operating Capacity,Missouri,SSL,Skid Steer Loaders,,OROPS,None or Unspecified,,,,,,,,,,Standard,,,,,,None or Unspecified,None or Unspecified,None or Unspecified,Standard,,,,,,,,,,,
7023,1558114,16000,254312,132,7.0,2001,,,4/16/2003 0:00,252,252,,,,,Skid Steer Loader - 2201.0 to 2701.0 Lb Operating Capacity,South Carolina,SSL,Skid Steer Loaders,,OROPS,None or Unspecified,,,,,,,,,,Standard,,,,,,None or Unspecified,None or Unspecified,None or Unspecified,Standard,,,,,,,,,,,
7023,1558115,18000,254312,132,7.0,2001,,,10/16/2003 0:00,252,252,,,,,Skid Steer Loader - 2201.0 to 2701.0 Lb Operating Capacity,South Carolina,SSL,Skid Steer Loaders,,OROPS,None or Unspecified,,,,,,,,,,Standard,,,,,,None or Unspecified,None or Unspecified,None or Unspecified,Standard,,,,,,,,,,,
7023,1558116,17500,255424,132,7.0,2001,,,4/16/2003 0:00,252,252,,,,,Skid Steer Loader - 2201.0 to 2701.0 Lb Operating Capacity,South Carolina,SSL,Skid Steer Loaders,,OROPS,None or Unspecified,,,,,,,,,,Standard,,,,,,None or Unspecified,None or Unspecified,None or Unspecified,Standard,,,,,,,,,,,
7023,1558117,18500,245745,132,7.0,2001,,,10/16/2003 0:00,252,252,,,,,Skid Steer Loader - 2201.0 to 2701.0 Lb Operating Capacity,South Carolina,SSL,Skid Steer Loaders,,OROPS,None or Unspecified,,,,,,,,,,Standard,,,,,,None or Unspecified,None or Unspecified,None or Unspecified,Standard,,,,,,,,,,,
7023,1558119,17500,310986,132,2.0,2001,,,1/30/2005 0:00,252,252,,,,,Skid Steer Loader - 2201.0 to 2701.0 Lb Operating Capacity,Florida,SSL,Skid Steer Loaders,,OROPS,None or Unspecified,,,,,,,,,,Standard,,,,,,None or Unspecified,None or Unspecified,None or Unspecified,Standard,,,,,,,,,,,
7023,1558122,14000,424264,132,1.0,2001,,,3/31/2006 0:00,252,252,,,,,Skid Steer Loader - 2201.0 to 2701.0 Lb Operating Capacity,North Carolina,SSL,Skid Steer Loaders,,OROPS,None or Unspecified,,,,,,,,,,Standard,,,,,,None or Unspecified,None or Unspecified,None or Unspecified,Standard,,,,,,,,,,,
7023,1558123,11500,582599,132,99.0,2001,802.0,Low,3/26/2009 0:00,252,252,,,,,Skid Steer Loader - 2201.0 to 2701.0 Lb Operating Capacity,Minnesota,SSL,Skid Steer Loaders,,OROPS,Yes,,,,,,,,,,Standard,,,,,,None or Unspecified,None or Unspecified,None or Unspecified,Standard,,,,,,,,,,,
7023,1558125,10500,122314,132,9.0,2001,,,5/20/2010 0:00,252,252,,,,,Skid Steer Loader - 2201.0 to 2701.0 Lb Operating Capacity,South Carolina,SSL,Skid Steer Loaders,,OROPS,None or Unspecified,,,,,,,,,,Standard,,,,,,None or Unspecified,None or Unspecified,None or Unspecified,Standard,,,,,,,,,,,
7023,1558129,17000,378682,132,1.0,2002,,,9/27/2005 0:00,252,252,,,,,Skid Steer Loader - 2201.0 to 2701.0 Lb Operating Capacity,Colorado,SSL,Skid Steer Loaders,,OROPS,None or Unspecified,,,,,,,,,,Auxiliary,,,,,,None or Unspecified,None or Unspecified,None or Unspecified,Standard,,,,,,,,,,,
7023,1558131,15000,1321410,132,1.0,2002,,,9/24/2004 0:00,252,252,,,,,Skid Steer Loader - 2201.0 to 2701.0 Lb Operating Capacity,California,SSL,Skid Steer Loaders,,OROPS,None or Unspecified,,,,,,,,,,Auxiliary,,,,,,Manual,Yes,None or Unspecified,Standard,,,,,,,,,,,
7023,1558133,19500,356252,132,2.0,2002,,,9/23/2005 0:00,252,252,,,,,Skid Steer Loader - 2201.0 to 2701.0 Lb Operating Capacity,New Jersey,SSL,Skid Steer Loaders,,OROPS,None or Unspecified,,,,,,,,,,Standard,,,,,,None or Unspecified,None or Unspecified,Yes,Standard,,,,,,,,,,,
7023,1558134,14500,156969,132,27.0,2002,,,7/21/2006 0:00,252,252,,,,,Skid Steer Loader - 2201.0 to 2701.0 Lb Operating Capacity,North Carolina,SSL,Skid Steer Loaders,,OROPS,None or Unspecified,,,,,,,,,,Auxiliary,,,,,,None or Unspecified,None or Unspecified,None or Unspecified,Standard,,,,,,,,,,,
7023,1558135,13500,156969,132,7.0,2002,,,4/20/2006 0:00,252,252,,,,,Skid Steer Loader - 2201.0 to 2701.0 Lb Operating Capacity,South Carolina,SSL,Skid Steer Loaders,,OROPS,None or Unspecified,,,,,,,,,,Auxiliary,,,,,,None or Unspecified,None or Unspecified,None or Unspecified,Standard,,,,,,,,,,,
7023,1558136,14000,621208,132,2.0,2002,,,8/23/2006 0:00,252,252,,,,,Skid Steer Loader - 2201.0 to 2701.0 Lb Operating Capacity,Texas,SSL,Skid Steer Loaders,,OROPS,None or Unspecified,,,,,,,,,,Standard,,,,,,None or Unspecified,None or Unspecified,None or Unspecified,Standard,,,,,,,,,,,
7023,1558137,14000,610496,132,1.0,2002,,,3/29/2005 0:00,252,252,,,,,Skid Steer Loader - 2201.0 to 2701.0 Lb Operating Capacity,Texas,SSL,Skid Steer Loaders,,OROPS,None or Unspecified,,,,,,,,,,Auxiliary,,,,,,None or Unspecified,None or Unspecified,None or Unspecified,Standard,,,,,,,,,,,
7023,1558138,18500,480515,132,3.0,2002,,,10/30/2003 0:00,252,252,,,,,Skid Steer Loader - 2201.0 to 2701.0 Lb Operating Capacity,Unspecified,SSL,Skid Steer Loaders,,OROPS,None or Unspecified,,,,,,,,,,Standard,,,,,,None or Unspecified,None or Unspecified,None or Unspecified,Standard,,,,,,,,,,,
7023,1558143,19000,92506,132,1.0,2002,,,10/4/2006 0:00,252,252,,,,,Skid Steer Loader - 2201.0 to 2701.0 Lb Operating Capacity,Maryland,SSL,Skid Steer Loaders,,EROPS,None or Unspecified,,,,,,,,,,Standard,,,,,,None or Unspecified,None or Unspecified,None or Unspecified,Standard,,,,,,,,,,,
7023,1558144,18500,92451,132,1.0,2002,,,10/6/2004 0:00,252,252,,,,,Skid Steer Loader - 2201.0 to 2701.0 Lb Operating Capacity,Maryland,SSL,Skid Steer Loaders,,EROPS,None or Unspecified,,,,,,,,,,Standard,,,,,,None or Unspecified,None or Unspecified,None or Unspecified,Standard,,,,,,,,,,,
7023,1558145,18000,76621,132,1.0,2002,,,10/4/2006 0:00,252,252,,,,,Skid Steer Loader - 2201.0 to 2701.0 Lb Operating Capacity,Maryland,SSL,Skid Steer Loaders,,EROPS,None or Unspecified,,,,,,,,,,Standard,,,,,,None or Unspecified,None or Unspecified,None or Unspecified,Standard,,,,,,,,,,,
7023,1558146,16500,755309,132,1.0,2002,,,9/24/2004 0:00,252,252,,,,,Skid Steer Loader - 2201.0 to 2701.0 Lb Operating Capacity,California,SSL,Skid Steer Loaders,,OROPS,None or Unspecified,,,,,,,,,,Standard,,,,,,None or Unspecified,None or Unspecified,None or Unspecified,Standard,,,,,,,,,,,
7023,1558148,16000,115319,132,1.0,2002,,,9/27/2006 0:00,252,252,,,,,Skid Steer Loader - 2201.0 to 2701.0 Lb Operating Capacity,Texas,SSL,Skid Steer Loaders,,OROPS,None or Unspecified,,,,,,,,,,Auxiliary,,,,,,None or Unspecified,None or Unspecified,None or Unspecified,Standard,,,,,,,,,,,
7023,1558151,10500,1345819,132,1.0,2002,,,11/15/2005 0:00,252,252,,,,,Skid Steer Loader - 2201.0 to 2701.0 Lb Operating Capacity,Georgia,SSL,Skid Steer Loaders,,OROPS,None or Unspecified,,,,,,,,,,Standard,,,,,,None or Unspecified,None or Unspecified,None or Unspecified,Standard,,,,,,,,,,,
7023,1558152,18000,1271136,132,4.0,2002,,,2/12/2007 0:00,252,252,,,,,Skid Steer Loader - 2201.0 to 2701.0 Lb Operating Capacity,Florida,SSL,Skid Steer Loaders,,OROPS,None or Unspecified,,,,,,,,,,Standard,,,,,,None or Unspecified,None or Unspecified,None or Unspecified,Standard,,,,,,,,,,,
7023,1558153,18500,1440361,132,3.0,2002,,,9/1/2003 0:00,252,252,,,,,Skid Steer Loader - 2201.0 to 2701.0 Lb Operating Capacity,Unspecified,SSL,Skid Steer Loaders,,OROPS,None or Unspecified,,,,,,,,,,Standard,,,,,,None or Unspecified,None or Unspecified,None or Unspecified,Standard,,,,,,,,,,,
7023,1558166,16000,260985,132,1.0,2002,,,6/17/2005 0:00,252,252,,,,,Skid Steer Loader - 2201.0 to 2701.0 Lb Operating Capacity,North Carolina,SSL,Skid Steer Loaders,,OROPS,None or Unspecified,,,,,,,,,,Standard,,,,,,Manual,None or Unspecified,None or Unspecified,Standard,,,,,,,,,,,
7023,1558167,14000,259735,132,1.0,2002,,,6/17/2005 0:00,252,252,,,,,Skid Steer Loader - 2201.0 to 2701.0 Lb Operating Capacity,North Carolina,SSL,Skid Steer Loaders,,OROPS,None or Unspecified,,,,,,,,,,Standard,,,,,,Manual,None or Unspecified,None or Unspecified,Standard,,,,,,,,,,,
7023,1558168,17000,149434,132,3.0,2002,,,7/28/2005 0:00,252,252,,,,,Skid Steer Loader - 2201.0 to 2701.0 Lb Operating Capacity,Unspecified,SSL,Skid Steer Loaders,,OROPS,None or Unspecified,,,,,,,,,,Auxiliary,,,,,,Manual,None or Unspecified,None or Unspecified,Standard,,,,,,,,,,,
7023,1558170,11500,546947,132,1.0,2002,,,10/20/2004 0:00,252,252,,,,,Skid Steer Loader - 2201.0 to 2701.0 Lb Operating Capacity,Ohio,SSL,Skid Steer Loaders,,OROPS,None or Unspecified,,,,,,,,,,Standard,,,,,,Manual,None or Unspecified,None or Unspecified,Standard,,,,,,,,,,,
7023,1558171,12500,746619,132,1.0,2002,,,12/4/2006 0:00,252,252,,,,,Skid Steer Loader - 2201.0 to 2701.0 Lb Operating Capacity,California,SSL,Skid Steer Loaders,,OROPS,None or Unspecified,,,,,,,,,,Standard,,,,,,Manual,None or Unspecified,None or Unspecified,Standard,,,,,,,,,,,
7023,1558185,16500,247885,132,10.0,2003,,,3/16/2006 0:00,252,252,,,,,Skid Steer Loader - 2201.0 to 2701.0 Lb Operating Capacity,Louisiana,SSL,Skid Steer Loaders,,OROPS,None or Unspecified,,,,,,,,,,Standard,,,,,,Manual,None or Unspecified,None or Unspecified,Standard,,,,,,,,,,,
7023,1558186,19000,247885,132,10.0,2003,,,12/13/2005 0:00,252,252,,,,,Skid Steer Loader - 2201.0 to 2701.0 Lb Operating Capacity,Louisiana,SSL,Skid Steer Loaders,,OROPS,None or Unspecified,,,,,,,,,,Standard,,,,,,Manual,None or Unspecified,None or Unspecified,Standard,,,,,,,,,,,
7023,1558187,16000,247885,132,10.0,2003,,,5/4/2006 0:00,252,252,,,,,Skid Steer Loader - 2201.0 to 2701.0 Lb Operating Capacity,Alabama,SSL,Skid Steer Loaders,,OROPS,None or Unspecified,,,,,,,,,,Standard,,,,,,Manual,None or Unspecified,None or Unspecified,Standard,,,,,,,,,,,
7023,1558193,19000,268849,132,10.0,2003,,,12/13/2005 0:00,252,252,,,,,Skid Steer Loader - 2201.0 to 2701.0 Lb Operating Capacity,Louisiana,SSL,Skid Steer Loaders,,OROPS,None or Unspecified,,,,,,,,,,Standard,,,,,,Manual,None or Unspecified,None or Unspecified,Standard,,,,,,,,,,,
7023,1558194,18500,268849,132,10.0,2003,,,6/22/2006 0:00,252,252,,,,,Skid Steer Loader - 2201.0 to 2701.0 Lb Operating Capacity,Louisiana,SSL,Skid Steer Loaders,,OROPS,None or Unspecified,,,,,,,,,,Standard,,,,,,Manual,None or Unspecified,None or Unspecified,Standard,,,,,,,,,,,
7023,1558195,16500,268849,132,10.0,2003,,,3/16/2006 0:00,252,252,,,,,Skid Steer Loader - 2201.0 to 2701.0 Lb Operating Capacity,Louisiana,SSL,Skid Steer Loaders,,OROPS,None or Unspecified,,,,,,,,,,Standard,,,,,,Manual,None or Unspecified,None or Unspecified,Standard,,,,,,,,,,,
7023,1558196,19000,268182,132,10.0,2003,,,12/13/2005 0:00,252,252,,,,,Skid Steer Loader - 2201.0 to 2701.0 Lb Operating Capacity,Louisiana,SSL,Skid Steer Loaders,,OROPS,None or Unspecified,,,,,,,,,,Standard,,,,,,Manual,None or Unspecified,None or Unspecified,Standard,,,,,,,,,,,
7023,1558197,14000,268182,132,1.0,2003,,,11/16/2006 0:00,252,252,,,,,Skid Steer Loader - 2201.0 to 2701.0 Lb Operating Capacity,Texas,SSL,Skid Steer Loaders,,OROPS,None or Unspecified,,,,,,,,,,Standard,,,,,,Manual,None or Unspecified,None or Unspecified,Standard,,,,,,,,,,,
7023,1558198,15000,268182,132,10.0,2003,,,9/6/2006 0:00,252,252,,,,,Skid Steer Loader - 2201.0 to 2701.0 Lb Operating Capacity,Louisiana,SSL,Skid Steer Loaders,,OROPS,None or Unspecified,,,,,,,,,,Standard,,,,,,Manual,None or Unspecified,None or Unspecified,Standard,,,,,,,,,,,
7023,1558199,17000,252340,132,1.0,2003,,,11/30/2006 0:00,252,252,,,,,Skid Steer Loader - 2201.0 to 2701.0 Lb Operating Capacity,Colorado,SSL,Skid Steer Loaders,,EROPS,None or Unspecified,,,,,,,,,,Auxiliary,,,,,,Manual,None or Unspecified,None or Unspecified,Standard,,,,,,,,,,,
7023,1558200,15000,268700,132,1.0,2003,,,6/17/2005 0:00,252,252,,,,,Skid Steer Loader - 2201.0 to 2701.0 Lb Operating Capacity,North Carolina,SSL,Skid Steer Loaders,,OROPS,None or Unspecified,,,,,,,,,,Standard,,,,,,Manual,None or Unspecified,None or Unspecified,Standard,,,,,,,,,,,
7023,1558202,13000,145071,132,27.0,2003,,,7/21/2006 0:00,252,252,,,,,Skid Steer Loader - 2201.0 to 2701.0 Lb Operating Capacity,North Carolina,SSL,Skid Steer Loaders,,OROPS,Yes,,,,,,,,,,Standard,,,,,,Manual,None or Unspecified,None or Unspecified,Standard,,,,,,,,,,,
7023,1558205,17500,1352155,132,2.0,2003,,,12/11/2004 0:00,252,252,,,,,Skid Steer Loader - 2201.0 to 2701.0 Lb Operating Capacity,Pennsylvania,SSL,Skid Steer Loaders,,OROPS,None or Unspecified,,,,,,,,,,Standard,,,,,,Manual,None or Unspecified,None or Unspecified,Standard,,,,,,,,,,,
7023,1558206,16000,1352155,132,2.0,2003,,,3/23/2006 0:00,252,252,,,,,Skid Steer Loader - 2201.0 to 2701.0 Lb Operating Capacity,New Jersey,SSL,Skid Steer Loaders,,OROPS,None or Unspecified,,,,,,,,,,Standard,,,,,,Manual,None or Unspecified,None or Unspecified,Standard,,,,,,,,,,,
7023,1558207,14500,551381,132,2.0,2003,,,3/23/2006 0:00,252,252,,,,,Skid Steer Loader - 2201.0 to 2701.0 Lb Operating Capacity,New Jersey,SSL,Skid Steer Loaders,,OROPS,None or Unspecified,,,,,,,,,,Standard,,,,,,Manual,None or Unspecified,None or Unspecified,Standard,,,,,,,,,,,
7023,1558208,12500,317230,132,3.0,2003,,,8/12/2010 0:00,252,252,,,,,Skid Steer Loader - 2201.0 to 2701.0 Lb Operating Capacity,California,SSL,Skid Steer Loaders,,OROPS,None or Unspecified,,,,,,,,,,Standard,,,,,,Hydraulic,None or Unspecified,None or Unspecified,Standard,,,,,,,,,,,
7023,1558215,14500,163342,132,1.0,2003,,,9/25/2006 0:00,252,252,,,,,Skid Steer Loader - 2201.0 to 2701.0 Lb Operating Capacity,Colorado,SSL,Skid Steer Loaders,,OROPS,None or Unspecified,,,,,,,,,,Auxiliary,,,,,,Manual,None or Unspecified,None or Unspecified,Standard,,,,,,,,,,,
7023,1558222,14500,247696,132,7.0,2003,,,3/8/2006 0:00,252,252,,,,,Skid Steer Loader - 2201.0 to 2701.0 Lb Operating Capacity,Alabama,SSL,Skid Steer Loaders,,EROPS w AC,None or Unspecified,,,,,,,,,,Standard,,,,,,Manual,None or Unspecified,None or Unspecified,Standard,,,,,,,,,,,
7023,1558230,18500,316158,132,2.0,2004,,,3/18/2005 0:00,252,252,,,,,Skid Steer Loader - 2201.0 to 2701.0 Lb Operating Capacity,Nevada,SSL,Skid Steer Loaders,,OROPS,None or Unspecified,,,,,,,,,,Standard,,,,,,Manual,None or Unspecified,None or Unspecified,Standard,,,,,,,,,,,
7023,1558231,13250,278384,132,22.0,2003,,,9/26/2006 0:00,252,252,,,,,Skid Steer Loader - 2201.0 to 2701.0 Lb Operating Capacity,Minnesota,SSL,Skid Steer Loaders,,EROPS,None or Unspecified,,,,,,,,,,Standard,,,,,,None or Unspecified,None or Unspecified,None or Unspecified,Standard,,,,,,,,,,,
7023,1558234,19500,532270,132,8.0,2003,,,10/12/2006 0:00,252,252,,,,,Skid Steer Loader - 2201.0 to 2701.0 Lb Operating Capacity,Florida,SSL,Skid Steer Loaders,,OROPS,None or Unspecified,,,,,,,,,,Standard,,,,,,Manual,None or Unspecified,None or Unspecified,Standard,,,,,,,,,,,
7023,1558243,12000,142167,132,2.0,2004,,,2/6/2009 0:00,252,252,,,,,Skid Steer Loader - 2201.0 to 2701.0 Lb Operating Capacity,Florida,SSL,Skid Steer Loaders,,OROPS,None or Unspecified,,,,,,,,,,Auxiliary,,,,,,Manual,Yes,None or Unspecified,Standard,,,,,,,,,,,
7023,1558248,18000,1067306,132,1.0,2004,,,11/17/2005 0:00,252,252,,,,,Skid Steer Loader - 2201.0 to 2701.0 Lb Operating Capacity,Texas,SSL,Skid Steer Loaders,,OROPS,None or Unspecified,,,,,,,,,,Auxiliary,,,,,,Manual,None or Unspecified,None or Unspecified,Standard,,,,,,,,,,,
7023,1558251,15000,230207,132,2.0,2003,,,10/21/2006 0:00,252,252,,,,,Skid Steer Loader - 2201.0 to 2701.0 Lb Operating Capacity,Ohio,SSL,Skid Steer Loaders,,OROPS,None or Unspecified,,,,,,,,,,Standard,,,,,,Manual,None or Unspecified,None or Unspecified,Standard,,,,,,,,,,,
7023,1558253,16000,1417030,132,1.0,2004,,,11/17/2005 0:00,252,252,,,,,Skid Steer Loader - 2201.0 to 2701.0 Lb Operating Capacity,Texas,SSL,Skid Steer Loaders,,OROPS,None or Unspecified,,,,,,,,,,Standard,,,,,,None or Unspecified,None or Unspecified,None or Unspecified,Standard,,,,,,,,,,,
7023,1558254,18000,1245169,132,1.0,2004,,,11/17/2005 0:00,252,252,,,,,Skid Steer Loader - 2201.0 to 2701.0 Lb Operating Capacity,Texas,SSL,Skid Steer Loaders,,OROPS,None or Unspecified,,,,,,,,,,Standard,,,,,,None or Unspecified,None or Unspecified,None or Unspecified,Standard,,,,,,,,,,,
7023,1558256,19000,248811,132,10.0,2004,,,6/22/2006 0:00,252,252,,,,,Skid Steer Loader - 2201.0 to 2701.0 Lb Operating Capacity,Louisiana,SSL,Skid Steer Loaders,,OROPS,None or Unspecified,,,,,,,,,,Standard,,,,,,Manual,None or Unspecified,None or Unspecified,Standard,,,,,,,,,,,
7023,1558259,16500,700677,132,3.0,2004,,,3/23/2006 0:00,252,252,,,,,Skid Steer Loader - 2201.0 to 2701.0 Lb Operating Capacity,Unspecified,SSL,Skid Steer Loaders,,EROPS,Yes,,,,,,,,,,Auxiliary,,,,,,Hydraulic,None or Unspecified,None or Unspecified,Standard,,,,,,,,,,,
7023,1558261,16500,258544,132,10.0,2004,,,5/4/2006 0:00,252,252,,,,,Skid Steer Loader - 2201.0 to 2701.0 Lb Operating Capacity,Alabama,SSL,Skid Steer Loaders,,OROPS,None or Unspecified,,,,,,,,,,Standard,,,,,,Manual,None or Unspecified,None or Unspecified,Standard,,,,,,,,,,,
7023,1558262,18500,258544,132,10.0,2004,,,6/22/2006 0:00,252,252,,,,,Skid Steer Loader - 2201.0 to 2701.0 Lb Operating Capacity,Louisiana,SSL,Skid Steer Loaders,,OROPS,None or Unspecified,,,,,,,,,,Standard,,,,,,Manual,None or Unspecified,None or Unspecified,Standard,,,,,,,,,,,
7023,1558264,16500,252296,132,10.0,2004,,,3/16/2006 0:00,252,252,,,,,Skid Steer Loader - 2201.0 to 2701.0 Lb Operating Capacity,Louisiana,SSL,Skid Steer Loaders,,OROPS,None or Unspecified,,,,,,,,,,Standard,,,,,,Manual,None or Unspecified,None or Unspecified,Standard,,,,,,,,,,,
7023,1558265,17500,248073,132,2.0,2004,,,3/23/2006 0:00,252,252,,,,,Skid Steer Loader - 2201.0 to 2701.0 Lb Operating Capacity,New Jersey,SSL,Skid Steer Loaders,,OROPS,None or Unspecified,,,,,,,,,,Standard,,,,,,Manual,None or Unspecified,None or Unspecified,Standard,,,,,,,,,,,
7023,2305856,13500,172436,136,1.0,2002,0.0,,6/23/2008 0:00,252,252,,,,,Skid Steer Loader - 2201.0 to 2701.0 Lb Operating Capacity,California,SSL,Skid Steer Loaders,,OROPS,None or Unspecified,,,,,,,,,,Standard,,,,,,None or Unspecified,None or Unspecified,None or Unspecified,Standard,,,,,,,,,,,
7023,2305857,13000,842252,136,5.0,2001,0.0,,8/24/2007 0:00,252,252,,,,,Skid Steer Loader - 2201.0 to 2701.0 Lb Operating Capacity,Connecticut,SSL,Skid Steer Loaders,,EROPS,None or Unspecified,,,,,,,,,,Standard,,,,,,None or Unspecified,None or Unspecified,Yes,Standard,,,,,,,,,,,
7023,2305862,7500,1321410,136,1.0,2002,0.0,,6/13/2009 0:00,252,252,,,,,Skid Steer Loader - 2201.0 to 2701.0 Lb Operating Capacity,California,SSL,Skid Steer Loaders,,OROPS,None or Unspecified,,,,,,,,,,Auxiliary,,,,,,Manual,Yes,None or Unspecified,Standard,,,,,,,,,,,
7023,2305863,13750,1755899,136,,2001,0.0,,7/26/2008 0:00,252,252,,,,,Skid Steer Loader - 2201.0 to 2701.0 Lb Operating Capacity,California,SSL,Skid Steer Loaders,,OROPS,None or Unspecified,,,,,,,,,,Standard,,,,,,None or Unspecified,None or Unspecified,None or Unspecified,Standard,,,,,,,,,,,
7023,2305864,12000,449982,136,1.0,2002,0.0,,12/4/2007 0:00,252,252,,,,,Skid Steer Loader - 2201.0 to 2701.0 Lb Operating Capacity,California,SSL,Skid Steer Loaders,,OROPS,None or Unspecified,,,,,,,,,,Auxiliary,,,,,,None or Unspecified,None or Unspecified,None or Unspecified,Standard,,,,,,,,,,,
7023,2305865,17000,1786125,136,,2003,1345.0,Medium,4/26/2007 0:00,252,252,,,,,Skid Steer Loader - 2201.0 to 2701.0 Lb Operating Capacity,Kentucky,SSL,Skid Steer Loaders,,OROPS,None or Unspecified,,,,,,,,,,Auxiliary,,,,,,None or Unspecified,None or Unspecified,None or Unspecified,Standard,,,,,,,,,,,
7023,2305868,9750,137773,136,12.0,2002,0.0,,3/17/2010 0:00,252,252,,,,,Skid Steer Loader - 2201.0 to 2701.0 Lb Operating Capacity,South Carolina,SSL,Skid Steer Loaders,,OROPS,None or Unspecified,,,,,,,,,,Auxiliary,,,,,,None or Unspecified,None or Unspecified,None or Unspecified,Standard,,,,,,,,,,,
7023,2305869,11000,1745049,136,,1000,1322.0,Medium,6/26/2009 0:00,252,252,,,,,Skid Steer Loader - 2201.0 to 2701.0 Lb Operating Capacity,Ohio,SSL,Skid Steer Loaders,,OROPS,None or Unspecified,,,,,,,,,,Auxiliary,,,,,,None or Unspecified,None or Unspecified,None or Unspecified,Standard,,,,,,,,,,,
7023,2305870,12750,1715059,136,,2002,1615.0,Medium,4/29/2008 0:00,252,252,,,,,Skid Steer Loader - 2201.0 to 2701.0 Lb Operating Capacity,South Carolina,SSL,Skid Steer Loaders,,OROPS,None or Unspecified,,,,,,,,,,Standard,,,,,,None or Unspecified,None or Unspecified,None or Unspecified,Standard,,,,,,,,,,,
7023,2305871,11500,765747,136,1.0,2002,0.0,,10/14/2009 0:00,252,252,,,,,Skid Steer Loader - 2201.0 to 2701.0 Lb Operating Capacity,Florida,SSL,Skid Steer Loaders,,OROPS,None or Unspecified,,,,,,,,,,Auxiliary,,,,,,None or Unspecified,None or Unspecified,None or Unspecified,Standard,,,,,,,,,,,
7023,2305872,13500,513510,136,2.0,2002,1774.0,Medium,9/20/2007 0:00,252,252,,,,,Skid Steer Loader - 2201.0 to 2701.0 Lb Operating Capacity,California,SSL,Skid Steer Loaders,,OROPS,None or Unspecified,,,,,,,,,,Auxiliary,,,,,,Manual,Yes,None or Unspecified,Standard,,,,,,,,,,,
7023,2305873,16000,513217,136,2.0,2002,1149.0,Medium,9/20/2007 0:00,252,252,,,,,Skid Steer Loader - 2201.0 to 2701.0 Lb Operating Capacity,California,SSL,Skid Steer Loaders,,OROPS,None or Unspecified,,,,,,,,,,Auxiliary,,,,,,Manual,Yes,None or Unspecified,Standard,,,,,,,,,,,
7023,2305875,15500,1436269,136,1.0,2002,0.0,,3/18/2008 0:00,252,252,,,,,Skid Steer Loader - 2201.0 to 2701.0 Lb Operating Capacity,Illinois,SSL,Skid Steer Loaders,,EROPS,None or Unspecified,,,,,,,,,,Auxiliary,,,,,,None or Unspecified,None or Unspecified,None or Unspecified,Standard,,,,,,,,,,,
7023,2305879,14500,1714248,136,,2002,0.0,,4/18/2007 0:00,252,252,,,,,Skid Steer Loader - 2201.0 to 2701.0 Lb Operating Capacity,Arkansas,SSL,Skid Steer Loaders,,OROPS,None or Unspecified,,,,,,,,,,Auxiliary,,,,,,Manual,None or Unspecified,None or Unspecified,Standard,,,,,,,,,,,
7023,2305880,15500,341987,136,2.0,2002,0.0,,1/26/2008 0:00,252,252,,,,,Skid Steer Loader - 2201.0 to 2701.0 Lb Operating Capacity,New Jersey,SSL,Skid Steer Loaders,,OROPS,None or Unspecified,,,,,,,,,,Auxiliary,,,,,,None or Unspecified,None or Unspecified,None or Unspecified,Standard,,,,,,,,,,,
7023,2305881,15500,181946,136,1.0,2003,308.0,Low,2/26/2008 0:00,252,252,,,,,Skid Steer Loader - 2201.0 to 2701.0 Lb Operating Capacity,California,SSL,Skid Steer Loaders,,EROPS w AC,None or Unspecified,,,,,,,,,,Auxiliary,,,,,,Hydraulic,None or Unspecified,None or Unspecified,Standard,,,,,,,,,,,
7023,2305882,16000,536666,136,1.0,2003,3752.0,High,2/19/2008 0:00,252,252,,,,,Skid Steer Loader - 2201.0 to 2701.0 Lb Operating Capacity,Florida,SSL,Skid Steer Loaders,,OROPS,None or Unspecified,,,,,,,,,,Auxiliary,,,,,,Manual,None or Unspecified,None or Unspecified,Standard,,,,,,,,,,,
7023,2305883,15500,530023,136,,2004,0.0,,10/14/2008 0:00,252,252,,,,,Skid Steer Loader - 2201.0 to 2701.0 Lb Operating Capacity,Florida,SSL,Skid Steer Loaders,,OROPS,None or Unspecified,,,,,,,,,,Auxiliary,,,,,,Hydraulic,None or Unspecified,None or Unspecified,Standard,,,,,,,,,,,
7023,2305884,10500,30330,136,1.0,2003,0.0,,10/21/2008 0:00,252,252,,,,,Skid Steer Loader - 2201.0 to 2701.0 Lb Operating Capacity,Mississippi,SSL,Skid Steer Loaders,,OROPS,None or Unspecified,,,,,,,,,,Auxiliary,,,,,,Manual,None or Unspecified,None or Unspecified,Standard,,,,,,,,,,,
7023,2305886,10000,119894,136,1.0,2003,0.0,,5/27/2009 0:00,252,252,,,,,Skid Steer Loader - 2201.0 to 2701.0 Lb Operating Capacity,Florida,SSL,Skid Steer Loaders,,OROPS,None or Unspecified,,,,,,,,,,Auxiliary,,,,,,Manual,None or Unspecified,None or Unspecified,Standard,,,,,,,,,,,
7023,2305887,13000,1348587,136,1.0,2003,4618.0,High,9/18/2007 0:00,252,252,,,,,Skid Steer Loader - 2201.0 to 2701.0 Lb Operating Capacity,Georgia,SSL,Skid Steer Loaders,,OROPS,None or Unspecified,,,,,,,,,,Auxiliary,,,,,,None or Unspecified,None or Unspecified,None or Unspecified,Standard,,,,,,,,,,,
7023,2305890,13000,74021,136,1.0,2003,1374.0,Medium,6/20/2007 0:00,252,252,,,,,Skid Steer Loader - 2201.0 to 2701.0 Lb Operating Capacity,Maryland,SSL,Skid Steer Loaders,,EROPS,None or Unspecified,,,,,,,,,,Auxiliary,,,,,,Manual,None or Unspecified,None or Unspecified,Standard,,,,,,,,,,,
7023,2305894,15500,698834,136,1.0,2004,915.0,Low,9/21/2009 0:00,252,252,,,,,Skid Steer Loader - 2201.0 to 2701.0 Lb Operating Capacity,Illinois,SSL,Skid Steer Loaders,,EROPS w AC,None or Unspecified,,,,,,,,,,Auxiliary,,,,,,Hydraulic,Yes,None or Unspecified,Standard,,,,,,,,,,,
7023,2305895,12000,142167,136,2.0,2004,0.0,,1/31/2009 0:00,252,252,,,,,Skid Steer Loader - 2201.0 to 2701.0 Lb Operating Capacity,Florida,SSL,Skid Steer Loaders,,OROPS,None or Unspecified,,,,,,,,,,Auxiliary,,,,,,Manual,Yes,None or Unspecified,Standard,,,,,,,,,,,
7023,2305899,16500,252296,136,,1000,0.0,,12/11/2007 0:00,252,252,,,,,Skid Steer Loader - 2201.0 to 2701.0 Lb Operating Capacity,Louisiana,SSL,Skid Steer Loaders,,OROPS,None or Unspecified,,,,,,,,,,Standard,,,,,,Manual,None or Unspecified,None or Unspecified,Standard,,,,,,,,,,,
7023,2305900,11500,1506998,136,1.0,2004,0.0,,3/17/2010 0:00,252,252,,,,,Skid Steer Loader - 2201.0 to 2701.0 Lb Operating Capacity,Ohio,SSL,Skid Steer Loaders,,EROPS,Yes,,,,,,,,,,Auxiliary,,,,,,Manual,None or Unspecified,None or Unspecified,Standard,,,,,,,,,,,
7023,2589899,14000,119254,149,2.0,2001,2490.0,Medium,1/14/2011 0:00,252,252,,,,,Skid Steer Loader - 2201.0 to 2701.0 Lb Operating Capacity,North Carolina,SSL,Skid Steer Loaders,,OROPS,None or Unspecified,,,,,,,,,,Auxiliary,,,,,,None or Unspecified,None or Unspecified,None or Unspecified,Standard,,,,,,,,,,,
7023,2589903,11000,355248,149,1.0,2002,7445.0,High,3/31/2011 0:00,252,252,,,,,Skid Steer Loader - 2201.0 to 2701.0 Lb Operating Capacity,Missouri,SSL,Skid Steer Loaders,,OROPS,None or Unspecified,,,,,,,,,,Auxiliary,,,,,,None or Unspecified,None or Unspecified,None or Unspecified,Standard,,,,,,,,,,,
7023,2589905,10000,154125,149,1.0,2002,0.0,,8/18/2010 0:00,252,252,,,,,Skid Steer Loader - 2201.0 to 2701.0 Lb Operating Capacity,Florida,SSL,Skid Steer Loaders,,OROPS,Yes,,,,,,,,,,Auxiliary,,,,,,Manual,None or Unspecified,None or Unspecified,Standard,,,,,,,,,,,
7023,2589906,12500,154713,149,1.0,2002,2850.0,Medium,9/22/2010 0:00,252,252,,,,,Skid Steer Loader - 2201.0 to 2701.0 Lb Operating Capacity,Georgia,SSL,Skid Steer Loaders,,OROPS,None or Unspecified,,,,,,,,,,Auxiliary,,,,,,Manual,None or Unspecified,Yes,Standard,,,,,,,,,,,
7023,2589911,9500,133590,149,1.0,2002,4693.0,High,9/22/2010 0:00,252,252,,,,,Skid Steer Loader - 2201.0 to 2701.0 Lb Operating Capacity,Georgia,SSL,Skid Steer Loaders,,OROPS,Yes,,,,,,,,,,Auxiliary,,,,,,Manual,None or Unspecified,None or Unspecified,Standard,,,,,,,,,,,
7023,2589912,13000,181946,149,1.0,2003,0.0,,8/6/2010 0:00,252,252,,,,,Skid Steer Loader - 2201.0 to 2701.0 Lb Operating Capacity,Nevada,SSL,Skid Steer Loaders,,EROPS w AC,None or Unspecified,,,,,,,,,,Auxiliary,,,,,,Hydraulic,None or Unspecified,None or Unspecified,Standard,,,,,,,,,,,
7023,2589913,13000,467746,149,12.0,2003,0.0,,5/25/2011 0:00,252,252,,,,,Skid Steer Loader - 2201.0 to 2701.0 Lb Operating Capacity,Mississippi,SSL,Skid Steer Loaders,,OROPS,None or Unspecified,,,,,,,,,,Standard,,,,,,Manual,None or Unspecified,None or Unspecified,Standard,,,,,,,,,,,
7023,4298174,9500,146597,172,1.0,2003,6151.0,High,11/12/2009 0:00,252,252,,,,,Skid Steer Loader - 2201.0 to 2701.0 Lb Operating Capacity,Georgia,SSL,Skid Steer Loaders,,OROPS,None or Unspecified,,,,,,,,,,Auxiliary,,,,,,Manual,None or Unspecified,None or Unspecified,Standard,,,,,,,,,,,
7023,4298175,13000,1502512,172,1.0,2003,1018.0,Low,12/10/2009 0:00,252,252,,,,,Skid Steer Loader - 2201.0 to 2701.0 Lb Operating Capacity,Washington,SSL,Skid Steer Loaders,,OROPS,None or Unspecified,,,,,,,,,,Auxiliary,,,,,,Manual,None or Unspecified,Yes,Standard,,,,,,,,,,,
7023,4298178,11000,1502594,172,1.0,2003,1097.0,Medium,12/10/2009 0:00,252,252,,,,,Skid Steer Loader - 2201.0 to 2701.0 Lb Operating Capacity,Washington,SSL,Skid Steer Loaders,,OROPS,None or Unspecified,,,,,,,,,,Auxiliary,,,,,,Manual,None or Unspecified,Yes,Standard,,,,,,,,,,,
7023,4298179,14000,29983,172,1.0,2004,2597.0,Medium,11/15/2011 0:00,252,252,,,,,Skid Steer Loader - 2201.0 to 2701.0 Lb Operating Capacity,Texas,SSL,Skid Steer Loaders,,OROPS,None or Unspecified,,,,,,,,,,Auxiliary,,,,,,Manual,None or Unspecified,None or Unspecified,Standard,,,,,,,,,,,
7023,4298188,19000,2287415,172,1.0,2003,1528.0,Medium,7/25/2011 0:00,252,252,,,,,Skid Steer Loader - 2201.0 to 2701.0 Lb Operating Capacity,California,SSL,Skid Steer Loaders,,EROPS w AC,None or Unspecified,,,,,,,,,,Auxiliary,,,,,,None or Unspecified,None or Unspecified,None or Unspecified,Standard,,,,,,,,,,,
7023,6276342,19000,289970,149,1.0,2003,,,7/26/2011 0:00,252,252,,,,,Skid Steer Loader - 2201.0 to 2701.0 Lb Operating Capacity,California,SSL,Skid Steer Loaders,,OROPS,Yes,,,,,,,,,,Auxiliary,,,,,,Manual,None or Unspecified,None or Unspecified,Standard,,,,,,,,,,,
7023,6277936,14000,1876918,149,1.0,2004,,,11/16/2011 0:00,252,252,,,,,Skid Steer Loader - 2201.0 to 2701.0 Lb Operating Capacity,Texas,SSL,Skid Steer Loaders,,OROPS,None or Unspecified,,,,,,,,,,Auxiliary,,,,,,None or Unspecified,None or Unspecified,None or Unspecified,Standard,,,,,,,,,,,
