ModelID,SalesID,SalePrice,MachineID,datasource,auctioneerID,YearMade,MachineHoursCurrentMeter,UsageBand,saledate,fiModelDesc,fiBaseModel,fiSecondaryDesc,fiModelSeries,fiModelDescriptor,ProductSize,fiProductClassDesc,state,ProductGroup,ProductGroupDesc,Drive_System,Enclosure,Forks,Pad_Type,Ride_Control,Stick,Transmission,Turbocharged,Blade_Extension,Blade_Width,Enclosure_Type,Engine_Horsepower,Hydraulics,Pushblock,Ripper,Scarifier,Tip_Control,Tire_Size,Coupler,Coupler_System,Grouser_Tracks,Hydraulics_Flow,Track_Type,Undercarriage_Pad_Width,Stick_Length,Thumb,Pattern_Changer,Grouser_Type,Backhoe_Mounting,Blade_Type,Travel_Controls,Differential_Type,Steering_Controls
7026,1140089,18000,1001521,121,3.0,2003,891.0,High,4/29/2004 0:00,262,262,,,,,Skid Steer Loader - 2701.0+ Lb Operating Capacity,Ohio,SSL,Skid Steer Loaders,,OROPS,None or Unspecified,,,,,,,,,,Standard,,,,,,None or Unspecified,None or Unspecified,Yes,Standard,,,,,,,,,,,
7026,1141474,16000,1004202,121,3.0,2002,1116.0,Medium,3/9/2006 0:00,262,262,,,,,Skid Steer Loader - 2701.0+ Lb Operating Capacity,Arkansas,SSL,Skid Steer Loaders,,OROPS,Yes,,,,,,,,,,Auxiliary,,,,,,None or Unspecified,None or Unspecified,None or Unspecified,Standard,,,,,,,,,,,
7026,1141902,11500,315935,121,3.0,2003,2574.0,High,7/27/2006 0:00,262,262,,,,,Skid Steer Loader - 2701.0+ Lb Operating Capacity,Nevada,SSL,Skid Steer Loaders,,OROPS,None or Unspecified,,,,,,,,,,Auxiliary,,,,,,Manual,None or Unspecified,None or Unspecified,Standard,,,,,,,,,,,
7026,1142068,19000,132213,121,3.0,2002,583.0,Medium,3/25/2004 0:00,262,262,,,,,Skid Steer Loader - 2701.0+ Lb Operating Capacity,Tennessee,SSL,Skid Steer Loaders,,OROPS,Yes,,,,,,,,,,Standard,,,,,,Manual,None or Unspecified,None or Unspecified,Standard,,,,,,,,,,,
7026,1142248,18000,975829,121,3.0,2003,1821.0,High,6/2/2005 0:00,262,262,,,,,Skid Steer Loader - 2701.0+ Lb Operating Capacity,Idaho,SSL,Skid Steer Loaders,,EROPS w AC,None or Unspecified,,,,,,,,,,Auxiliary,,,,,,Manual,Yes,None or Unspecified,Standard,,,,,,,,,,,
7026,1142519,15000,152006,121,3.0,2003,1289.0,Medium,4/20/2006 0:00,262,262,,,,,Skid Steer Loader - 2701.0+ Lb Operating Capacity,Alabama,SSL,Skid Steer Loaders,,OROPS,Yes,,,,,,,,,,Auxiliary,,,,,,Manual,None or Unspecified,Yes,Standard,,,,,,,,,,,
7026,1143340,16500,999276,121,3.0,2001,753.0,Medium,3/11/2004 0:00,262,262,,,,,Skid Steer Loader - 2701.0+ Lb Operating Capacity,Texas,SSL,Skid Steer Loaders,,OROPS,None or Unspecified,,,,,,,,,,Standard,,,,,,None or Unspecified,None or Unspecified,None or Unspecified,Standard,,,,,,,,,,,
7026,1144238,20000,620243,121,3.0,2004,157.0,Low,7/28/2005 0:00,262,262,,,,,Skid Steer Loader - 2701.0+ Lb Operating Capacity,Texas,SSL,Skid Steer Loaders,,OROPS,None or Unspecified,,,,,,,,,,Auxiliary,,,,,,Manual,None or Unspecified,None or Unspecified,Standard,,,,,,,,,,,
7026,1145348,11500,315683,121,3.0,2003,3041.0,High,7/27/2006 0:00,262,262,,,,,Skid Steer Loader - 2701.0+ Lb Operating Capacity,Nevada,SSL,Skid Steer Loaders,,OROPS,None or Unspecified,,,,,,,,,,Auxiliary,,,,,,Manual,None or Unspecified,None or Unspecified,Standard,,,,,,,,,,,
7026,1145349,16000,125696,121,3.0,2003,968.0,Medium,12/7/2006 0:00,262,262,,,,,Skid Steer Loader - 2701.0+ Lb Operating Capacity,North Carolina,SSL,Skid Steer Loaders,,OROPS,None or Unspecified,,,,,,,,,,Auxiliary,,,,,,Manual,None or Unspecified,None or Unspecified,Standard,,,,,,,,,,,
7026,1145457,16500,999206,121,3.0,2002,715.0,Low,2/23/2006 0:00,262,262,,,,,Skid Steer Loader - 2701.0+ Lb Operating Capacity,Wisconsin,SSL,Skid Steer Loaders,,OROPS,Yes,,,,,,,,,,Auxiliary,,,,,,None or Unspecified,None or Unspecified,None or Unspecified,Standard,,,,,,,,,,,
7026,1146113,18000,750181,121,3.0,2002,2090.0,High,2/23/2006 0:00,262,262,,,,,Skid Steer Loader - 2701.0+ Lb Operating Capacity,California,SSL,Skid Steer Loaders,,OROPS,None or Unspecified,,,,,,,,,,Auxiliary,,,,,,Manual,None or Unspecified,None or Unspecified,Standard,,,,,,,,,,,
7026,1146887,15000,699257,121,3.0,2003,2022.0,High,3/9/2006 0:00,262,262,,,,,Skid Steer Loader - 2701.0+ Lb Operating Capacity,Texas,SSL,Skid Steer Loaders,,OROPS,None or Unspecified,,,,,,,,,,Auxiliary,,,,,,Manual,None or Unspecified,None or Unspecified,Standard,,,,,,,,,,,
7026,1147109,18000,369547,121,3.0,2003,908.0,Medium,2/9/2006 0:00,262,262,,,,,Skid Steer Loader - 2701.0+ Lb Operating Capacity,Arizona,SSL,Skid Steer Loaders,,EROPS,None or Unspecified,,,,,,,,,,Auxiliary,,,,,,None or Unspecified,None or Unspecified,None or Unspecified,Standard,,,,,,,,,,,
7026,1147759,18500,1004209,121,3.0,2002,615.0,Low,11/17/2005 0:00,262,262,,,,,Skid Steer Loader - 2701.0+ Lb Operating Capacity,Texas,SSL,Skid Steer Loaders,,OROPS,None or Unspecified,,,,,,,,,,Auxiliary,,,,,,Manual,None or Unspecified,None or Unspecified,Standard,,,,,,,,,,,
7026,1147995,11500,133086,121,3.0,2004,0.0,,8/24/2006 0:00,262,262,,,,,Skid Steer Loader - 2701.0+ Lb Operating Capacity,Georgia,SSL,Skid Steer Loaders,,OROPS,None or Unspecified,,,,,,,,,,Auxiliary,,,,,,Manual,None or Unspecified,None or Unspecified,Standard,,,,,,,,,,,
7026,1148495,11500,133382,121,3.0,2003,2749.0,High,7/27/2006 0:00,262,262,,,,,Skid Steer Loader - 2701.0+ Lb Operating Capacity,Georgia,SSL,Skid Steer Loaders,,EROPS w AC,None or Unspecified,,,,,,,,,,Auxiliary,,,,,,Manual,None or Unspecified,Yes,Standard,,,,,,,,,,,
7026,1151696,19000,957025,121,3.0,2003,1762.0,High,6/1/2006 0:00,262,262,,,,,Skid Steer Loader - 2701.0+ Lb Operating Capacity,Texas,SSL,Skid Steer Loaders,,OROPS,None or Unspecified,,,,,,,,,,Auxiliary,,,,,,Manual,None or Unspecified,None or Unspecified,Standard,,,,,,,,,,,
7026,1151782,19500,1053452,121,3.0,2002,0.0,,3/11/2004 0:00,262,262,,,,,Skid Steer Loader - 2701.0+ Lb Operating Capacity,Wisconsin,SSL,Skid Steer Loaders,,EROPS,None or Unspecified,,,,,,,,,,Standard,,,,,,None or Unspecified,None or Unspecified,None or Unspecified,Standard,,,,,,,,,,,
7026,1152263,16500,440086,121,3.0,2002,737.0,Medium,6/17/2004 0:00,262,262,,,,,Skid Steer Loader - 2701.0+ Lb Operating Capacity,New Jersey,SSL,Skid Steer Loaders,,OROPS,None or Unspecified,,,,,,,,,,Standard,,,,,,None or Unspecified,None or Unspecified,None or Unspecified,Standard,,,,,,,,,,,
7026,1154178,14500,233640,121,3.0,2001,1965.0,Medium,4/12/2007 0:00,262,262,,,,,Skid Steer Loader - 2701.0+ Lb Operating Capacity,Illinois,SSL,Skid Steer Loaders,,EROPS,None or Unspecified,,,,,,,,,,Auxiliary,,,,,,None or Unspecified,None or Unspecified,None or Unspecified,Standard,,,,,,,,,,,
7026,1154642,16500,818007,121,3.0,2004,3705.0,High,6/29/2006 0:00,262,262,,,,,Skid Steer Loader - 2701.0+ Lb Operating Capacity,Massachusetts,SSL,Skid Steer Loaders,,EROPS,None or Unspecified,,,,,,,,,,Auxiliary,,,,,,Manual,None or Unspecified,None or Unspecified,Standard,,,,,,,,,,,
7026,1154714,11500,304968,121,3.0,2003,2892.0,High,7/27/2006 0:00,262,262,,,,,Skid Steer Loader - 2701.0+ Lb Operating Capacity,Nevada,SSL,Skid Steer Loaders,,OROPS,None or Unspecified,,,,,,,,,,Auxiliary,,,,,,Manual,None or Unspecified,None or Unspecified,Standard,,,,,,,,,,,
7026,1154750,17000,752691,121,3.0,2004,765.0,Medium,9/7/2006 0:00,262,262,,,,,Skid Steer Loader - 2701.0+ Lb Operating Capacity,California,SSL,Skid Steer Loaders,,OROPS,None or Unspecified,,,,,,,,,,Auxiliary,,,,,,Manual,None or Unspecified,None or Unspecified,Standard,,,,,,,,,,,
7026,1155097,16000,517054,121,3.0,2003,1450.0,Medium,10/5/2006 0:00,262,262,,,,,Skid Steer Loader - 2701.0+ Lb Operating Capacity,California,SSL,Skid Steer Loaders,,EROPS w AC,None or Unspecified,,,,,,,,,,Auxiliary,,,,,,Hydraulic,None or Unspecified,None or Unspecified,Standard,,,,,,,,,,,
7026,1155960,15000,134932,121,3.0,2003,1921.0,High,6/15/2006 0:00,262,262,,,,,Skid Steer Loader - 2701.0+ Lb Operating Capacity,Alabama,SSL,Skid Steer Loaders,,OROPS,Yes,,,,,,,,,,Auxiliary,,,,,,Manual,None or Unspecified,None or Unspecified,Standard,,,,,,,,,,,
7026,1156120,9500,244898,121,3.0,2003,5441.0,High,12/14/2006 0:00,262,262,,,,,Skid Steer Loader - 2701.0+ Lb Operating Capacity,Iowa,SSL,Skid Steer Loaders,,EROPS,None or Unspecified,,,,,,,,,,Auxiliary,,,,,,Manual,Yes,None or Unspecified,Standard,,,,,,,,,,,
7026,1157709,16500,537607,121,3.0,2001,1917.0,High,4/29/2004 0:00,262,262,,,,,Skid Steer Loader - 2701.0+ Lb Operating Capacity,Indiana,SSL,Skid Steer Loaders,,EROPS,Yes,,,,,,,,,,Standard,,,,,,None or Unspecified,None or Unspecified,Yes,Standard,,,,,,,,,,,
7026,1157868,20000,424819,121,3.0,2002,520.0,Medium,2/26/2004 0:00,262,262,,,,,Skid Steer Loader - 2701.0+ Lb Operating Capacity,North Carolina,SSL,Skid Steer Loaders,,OROPS,None or Unspecified,,,,,,,,,,Standard,,,,,,Manual,None or Unspecified,None or Unspecified,Standard,,,,,,,,,,,
7026,1159259,18500,1055872,121,3.0,2003,0.0,,8/10/2006 0:00,262,262,,,,,Skid Steer Loader - 2701.0+ Lb Operating Capacity,Texas,SSL,Skid Steer Loaders,,EROPS w AC,None or Unspecified,,,,,,,,,,Auxiliary,,,,,,Manual,None or Unspecified,None or Unspecified,Standard,,,,,,,,,,,
7026,1161763,12500,517973,121,3.0,2002,1307.0,Medium,7/27/2006 0:00,262,262,,,,,Skid Steer Loader - 2701.0+ Lb Operating Capacity,California,SSL,Skid Steer Loaders,,OROPS,None or Unspecified,,,,,,,,,,Auxiliary,,,,,,Manual,None or Unspecified,None or Unspecified,Standard,,,,,,,,,,,
7026,1162204,19000,400798,121,3.0,2003,433.0,Medium,4/29/2004 0:00,262,262,,,,,Skid Steer Loader - 2701.0+ Lb Operating Capacity,New York,SSL,Skid Steer Loaders,,EROPS,None or Unspecified,,,,,,,,,,Standard,,,,,,Manual,None or Unspecified,None or Unspecified,Standard,,,,,,,,,,,
7026,1162651,15000,896511,121,3.0,2003,1772.0,Medium,4/12/2007 0:00,262,262,,,,,Skid Steer Loader - 2701.0+ Lb Operating Capacity,Tennessee,SSL,Skid Steer Loaders,,OROPS,None or Unspecified,,,,,,,,,,Auxiliary,,,,,,None or Unspecified,None or Unspecified,None or Unspecified,Standard,,,,,,,,,,,
7026,1164126,18500,367272,121,3.0,2003,1837.0,High,9/22/2005 0:00,262,262,,,,,Skid Steer Loader - 2701.0+ Lb Operating Capacity,California,SSL,Skid Steer Loaders,,EROPS w AC,None or Unspecified,,,,,,,,,,Auxiliary,,,,,,Hydraulic,Yes,None or Unspecified,Standard,,,,,,,,,,,
7026,1164322,19500,624972,121,3.0,2002,990.0,Medium,4/20/2006 0:00,262,262,,,,,Skid Steer Loader - 2701.0+ Lb Operating Capacity,North Dakota,SSL,Skid Steer Loaders,,OROPS,Yes,,,,,,,,,,Auxiliary,,,,,,Manual,Yes,None or Unspecified,Standard,,,,,,,,,,,
7026,1164697,16500,221491,121,3.0,2002,1108.0,Medium,4/12/2007 0:00,262,262,,,,,Skid Steer Loader - 2701.0+ Lb Operating Capacity,Maryland,SSL,Skid Steer Loaders,,OROPS,None or Unspecified,,,,,,,,,,Auxiliary,,,,,,Manual,Yes,Yes,Standard,,,,,,,,,,,
7026,1164912,11500,316389,121,3.0,2003,2979.0,High,7/27/2006 0:00,262,262,,,,,Skid Steer Loader - 2701.0+ Lb Operating Capacity,Nevada,SSL,Skid Steer Loaders,,OROPS,None or Unspecified,,,,,,,,,,Auxiliary,,,,,,Manual,None or Unspecified,None or Unspecified,Standard,,,,,,,,,,,
7026,1165478,8500,307255,121,3.0,2003,0.0,,8/13/2009 0:00,262,262,,,,,Skid Steer Loader - 2701.0+ Lb Operating Capacity,Nevada,SSL,Skid Steer Loaders,,OROPS,None or Unspecified,,,,,,,,,,Auxiliary,,,,,,Manual,Yes,None or Unspecified,Standard,,,,,,,,,,,
7026,1165606,17000,392820,121,3.0,2002,823.0,Medium,11/2/2006 0:00,262,262,,,,,Skid Steer Loader - 2701.0+ Lb Operating Capacity,Louisiana,SSL,Skid Steer Loaders,,OROPS,None or Unspecified,,,,,,,,,,Auxiliary,,,,,,Hydraulic,None or Unspecified,None or Unspecified,Standard,,,,,,,,,,,
7026,1165775,16500,339326,121,3.0,2001,987.0,Medium,4/29/2004 0:00,262,262,,,,,Skid Steer Loader - 2701.0+ Lb Operating Capacity,Pennsylvania,SSL,Skid Steer Loaders,,EROPS,Yes,,,,,,,,,,Standard,,,,,,None or Unspecified,None or Unspecified,None or Unspecified,Standard,,,,,,,,,,,
7026,1165862,17000,529362,121,3.0,2002,463.0,Low,3/23/2006 0:00,262,262,,,,,Skid Steer Loader - 2701.0+ Lb Operating Capacity,Florida,SSL,Skid Steer Loaders,,OROPS,None or Unspecified,,,,,,,,,,Auxiliary,,,,,,None or Unspecified,None or Unspecified,None or Unspecified,Standard,,,,,,,,,,,
7026,1166668,13000,276217,121,3.0,2001,4384.0,High,4/12/2007 0:00,262,262,,,,,Skid Steer Loader - 2701.0+ Lb Operating Capacity,South Dakota,SSL,Skid Steer Loaders,,EROPS,None or Unspecified,,,,,,,,,,Auxiliary,,,,,,None or Unspecified,None or Unspecified,None or Unspecified,Standard,,,,,,,,,,,
7026,1166781,15000,887146,121,3.0,2002,1828.0,Medium,4/12/2007 0:00,262,262,,,,,Skid Steer Loader - 2701.0+ Lb Operating Capacity,Tennessee,SSL,Skid Steer Loaders,,OROPS,None or Unspecified,,,,,,,,,,Auxiliary,,,,,,None or Unspecified,None or Unspecified,None or Unspecified,Standard,,,,,,,,,,,
7026,1166805,19000,1056999,121,3.0,2002,780.0,Medium,2/26/2004 0:00,262,262,,,,,Skid Steer Loader - 2701.0+ Lb Operating Capacity,Texas,SSL,Skid Steer Loaders,,OROPS,None or Unspecified,,,,,,,,,,Standard,,,,,,Manual,None or Unspecified,None or Unspecified,Standard,,,,,,,,,,,
7026,1167375,13000,153404,121,3.0,2002,1397.0,Medium,8/24/2006 0:00,262,262,,,,,Skid Steer Loader - 2701.0+ Lb Operating Capacity,Alabama,SSL,Skid Steer Loaders,,OROPS,Yes,,,,,,,,,,Auxiliary,,,,,,None or Unspecified,None or Unspecified,None or Unspecified,Standard,,,,,,,,,,,
7026,1168224,12500,141224,121,3.0,2004,4574.0,High,8/24/2006 0:00,262,262,,,,,Skid Steer Loader - 2701.0+ Lb Operating Capacity,Georgia,SSL,Skid Steer Loaders,,OROPS,None or Unspecified,,,,,,,,,,Auxiliary,,,,,,Manual,None or Unspecified,None or Unspecified,Standard,,,,,,,,,,,
7026,1168833,16500,845238,121,3.0,2002,1550.0,Medium,1/25/2007 0:00,262,262,,,,,Skid Steer Loader - 2701.0+ Lb Operating Capacity,Massachusetts,SSL,Skid Steer Loaders,,EROPS,None or Unspecified,,,,,,,,,,Auxiliary,,,,,,None or Unspecified,None or Unspecified,None or Unspecified,Standard,,,,,,,,,,,
7026,1169538,14000,591276,121,3.0,2002,2812.0,High,7/27/2006 0:00,262,262,,,,,Skid Steer Loader - 2701.0+ Lb Operating Capacity,Texas,SSL,Skid Steer Loaders,,OROPS,None or Unspecified,,,,,,,,,,Auxiliary,,,,,,None or Unspecified,None or Unspecified,None or Unspecified,Standard,,,,,,,,,,,
7026,1170272,9500,431305,121,3.0,2002,0.0,,9/7/2006 0:00,262,262,,,,,Skid Steer Loader - 2701.0+ Lb Operating Capacity,Connecticut,SSL,Skid Steer Loaders,,OROPS,None or Unspecified,,,,,,,,,,Auxiliary,,,,,,Manual,None or Unspecified,None or Unspecified,Standard,,,,,,,,,,,
7026,1171392,16500,1045729,121,3.0,2003,614.0,Low,9/21/2006 0:00,262,262,,,,,Skid Steer Loader - 2701.0+ Lb Operating Capacity,Tennessee,SSL,Skid Steer Loaders,,OROPS,None or Unspecified,,,,,,,,,,Auxiliary,,,,,,None or Unspecified,None or Unspecified,None or Unspecified,Standard,,,,,,,,,,,
7026,1171568,20000,417377,121,3.0,2002,576.0,Low,7/28/2005 0:00,262,262,,,,,Skid Steer Loader - 2701.0+ Lb Operating Capacity,Utah,SSL,Skid Steer Loaders,,OROPS,None or Unspecified,,,,,,,,,,Auxiliary,,,,,,None or Unspecified,None or Unspecified,None or Unspecified,Standard,,,,,,,,,,,
7026,1172291,17250,432464,121,3.0,2003,911.0,High,6/17/2004 0:00,262,262,,,,,Skid Steer Loader - 2701.0+ Lb Operating Capacity,Connecticut,SSL,Skid Steer Loaders,,EROPS,None or Unspecified,,,,,,,,,,Standard,,,,,,Manual,None or Unspecified,None or Unspecified,Standard,,,,,,,,,,,
7026,1172856,17500,880438,121,3.0,2003,716.0,Medium,3/9/2006 0:00,262,262,,,,,Skid Steer Loader - 2701.0+ Lb Operating Capacity,Oregon,SSL,Skid Steer Loaders,,OROPS,Yes,,,,,,,,,,Auxiliary,,,,,,Manual,None or Unspecified,None or Unspecified,Standard,,,,,,,,,,,
7026,1173561,18000,594748,121,3.0,2002,980.0,Medium,8/12/2004 0:00,262,262,,,,,Skid Steer Loader - 2701.0+ Lb Operating Capacity,Texas,SSL,Skid Steer Loaders,,OROPS,Yes,,,,,,,,,,Standard,,,,,,None or Unspecified,None or Unspecified,None or Unspecified,Standard,,,,,,,,,,,
7026,1174128,18500,1023715,121,3.0,2002,1142.0,High,10/7/2004 0:00,262,262,,,,,Skid Steer Loader - 2701.0+ Lb Operating Capacity,Michigan,SSL,Skid Steer Loaders,,OROPS,Yes,,,,,,,,,,Auxiliary,,,,,,None or Unspecified,None or Unspecified,None or Unspecified,Standard,,,,,,,,,,,
7026,1174610,15000,32299,121,3.0,2001,675.0,Medium,12/16/2004 0:00,262,262,,,,,Skid Steer Loader - 2701.0+ Lb Operating Capacity,Florida,SSL,Skid Steer Loaders,,OROPS,Yes,,,,,,,,,,Auxiliary,,,,,,None or Unspecified,None or Unspecified,None or Unspecified,Standard,,,,,,,,,,,
7026,1174616,20000,1054841,121,3.0,2003,914.0,High,12/16/2004 0:00,262,262,,,,,Skid Steer Loader - 2701.0+ Lb Operating Capacity,Texas,SSL,Skid Steer Loaders,,OROPS,None or Unspecified,,,,,,,,,,Auxiliary,,,,,,Manual,None or Unspecified,None or Unspecified,Standard,,,,,,,,,,,
7026,1175103,19500,909523,121,3.0,2002,1086.0,Medium,3/24/2005 0:00,262,262,,,,,Skid Steer Loader - 2701.0+ Lb Operating Capacity,Kentucky,SSL,Skid Steer Loaders,,EROPS,None or Unspecified,,,,,,,,,,Standard,,,,,,None or Unspecified,None or Unspecified,Yes,Standard,,,,,,,,,,,
7026,1175294,13500,800579,121,3.0,2001,2596.0,High,3/24/2005 0:00,262,262,,,,,Skid Steer Loader - 2701.0+ Lb Operating Capacity,Florida,SSL,Skid Steer Loaders,,OROPS,None or Unspecified,,,,,,,,,,Auxiliary,,,,,,None or Unspecified,None or Unspecified,None or Unspecified,Standard,,,,,,,,,,,
7026,1175360,19000,1041298,121,3.0,2002,499.0,Low,4/7/2005 0:00,262,262,,,,,Skid Steer Loader - 2701.0+ Lb Operating Capacity,Michigan,SSL,Skid Steer Loaders,,EROPS,Yes,,,,,,,,,,Standard,,,,,,Manual,None or Unspecified,None or Unspecified,Standard,,,,,,,,,,,
7026,1175371,17500,458273,121,3.0,2001,957.0,Medium,4/7/2005 0:00,262,262,,,,,Skid Steer Loader - 2701.0+ Lb Operating Capacity,Texas,SSL,Skid Steer Loaders,,OROPS,None or Unspecified,,,,,,,,,,Auxiliary,,,,,,None or Unspecified,None or Unspecified,None or Unspecified,Standard,,,,,,,,,,,
7026,1175520,19500,260656,121,3.0,2003,496.0,Medium,5/5/2005 0:00,262,262,,,,,Skid Steer Loader - 2701.0+ Lb Operating Capacity,South Carolina,SSL,Skid Steer Loaders,,OROPS,None or Unspecified,,,,,,,,,,Auxiliary,,,,,,Manual,None or Unspecified,None or Unspecified,Standard,,,,,,,,,,,
7026,1176861,19000,405809,121,3.0,2003,1251.0,Medium,1/31/2008 0:00,262,262,,,,,Skid Steer Loader - 2701.0+ Lb Operating Capacity,Idaho,SSL,Skid Steer Loaders,,EROPS,None or Unspecified,,,,,,,,,,Auxiliary,,,,,,Manual,None or Unspecified,None or Unspecified,Standard,,,,,,,,,,,
7026,1177114,15000,1002567,121,3.0,2001,3168.0,Medium,2/28/2008 0:00,262,262,,,,,Skid Steer Loader - 2701.0+ Lb Operating Capacity,Colorado,SSL,Skid Steer Loaders,,OROPS,None or Unspecified,,,,,,,,,,Auxiliary,,,,,,None or Unspecified,None or Unspecified,None or Unspecified,Standard,,,,,,,,,,,
7026,1213176,10000,510689,121,3.0,2002,3485.0,Medium,4/7/2011 0:00,262,262,,,,,Skid Steer Loader - 2701.0+ Lb Operating Capacity,California,SSL,Skid Steer Loaders,,OROPS,None or Unspecified,,,,,,,,,,Auxiliary,,,,,,Manual,Yes,None or Unspecified,Standard,,,,,,,,,,,
7026,1213901,11500,312608,121,3.0,2003,,,4/21/2011 0:00,262,262,,,,,Skid Steer Loader - 2701.0+ Lb Operating Capacity,Nevada,SSL,Skid Steer Loaders,,OROPS,None or Unspecified,,,,,,,,,,Auxiliary,,,,,,Manual,Yes,None or Unspecified,Standard,,,,,,,,,,,
7026,1214397,13000,176212,121,3.0,2003,1902.0,Medium,4/28/2011 0:00,262,262,,,,,Skid Steer Loader - 2701.0+ Lb Operating Capacity,California,SSL,Skid Steer Loaders,,OROPS,None or Unspecified,,,,,,,,,,Auxiliary,,,,,,Hydraulic,Yes,None or Unspecified,Standard,,,,,,,,,,,
7026,1214754,11500,430327,121,3.0,2002,3206.0,Medium,6/24/2011 0:00,262,262,,,,,Skid Steer Loader - 2701.0+ Lb Operating Capacity,Connecticut,SSL,Skid Steer Loaders,,EROPS,None or Unspecified,,,,,,,,,,Auxiliary,,,,,,Manual,Yes,None or Unspecified,Standard,,,,,,,,,,,
7026,1549897,16500,559407,132,2.0,2001,,,5/15/2004 0:00,262,262,,,,,Skid Steer Loader - 2701.0+ Lb Operating Capacity,Connecticut,SSL,Skid Steer Loaders,,OROPS,None or Unspecified,,,,,,,,,,Standard,,,,,,None or Unspecified,None or Unspecified,None or Unspecified,Standard,,,,,,,,,,,
7026,1549898,19500,109961,132,3.0,2001,,,11/13/2003 0:00,262,262,,,,,Skid Steer Loader - 2701.0+ Lb Operating Capacity,Unspecified,SSL,Skid Steer Loaders,,OROPS,None or Unspecified,,,,,,,,,,Standard,,,,,,None or Unspecified,None or Unspecified,None or Unspecified,Standard,,,,,,,,,,,
7026,1549899,16000,337838,132,1.0,2001,,,12/14/2005 0:00,262,262,,,,,Skid Steer Loader - 2701.0+ Lb Operating Capacity,Maryland,SSL,Skid Steer Loaders,,EROPS,None or Unspecified,,,,,,,,,,Standard,,,,,,None or Unspecified,None or Unspecified,None or Unspecified,Standard,,,,,,,,,,,
7026,1549902,14000,233640,132,20.0,2001,,,10/31/2007 0:00,262,262,,,,,Skid Steer Loader - 2701.0+ Lb Operating Capacity,Arkansas,SSL,Skid Steer Loaders,,EROPS,None or Unspecified,,,,,,,,,,Auxiliary,,,,,,None or Unspecified,None or Unspecified,None or Unspecified,Standard,,,,,,,,,,,
7026,1549907,17000,116219,132,3.0,2001,,,12/4/2003 0:00,262,262,,,,,Skid Steer Loader - 2701.0+ Lb Operating Capacity,Unspecified,SSL,Skid Steer Loaders,,OROPS,None or Unspecified,,,,,,,,,,Standard,,,,,,None or Unspecified,None or Unspecified,None or Unspecified,Standard,,,,,,,,,,,
7026,1549908,17500,116219,132,2.0,2001,,,1/30/2005 0:00,262,262,,,,,Skid Steer Loader - 2701.0+ Lb Operating Capacity,Florida,SSL,Skid Steer Loaders,,OROPS,None or Unspecified,,,,,,,,,,Standard,,,,,,None or Unspecified,None or Unspecified,None or Unspecified,Standard,,,,,,,,,,,
7026,1549909,12000,23256,132,1.0,2001,,,6/15/2006 0:00,262,262,,,,,Skid Steer Loader - 2701.0+ Lb Operating Capacity,Georgia,SSL,Skid Steer Loaders,,OROPS,None or Unspecified,,,,,,,,,,Standard,,,,,,None or Unspecified,None or Unspecified,None or Unspecified,Standard,,,,,,,,,,,
7026,1549910,17000,154431,132,3.0,2001,,,12/4/2003 0:00,262,262,,,,,Skid Steer Loader - 2701.0+ Lb Operating Capacity,Unspecified,SSL,Skid Steer Loaders,,OROPS,None or Unspecified,,,,,,,,,,Standard,,,,,,None or Unspecified,None or Unspecified,None or Unspecified,Standard,,,,,,,,,,,
7026,1549912,17000,438654,132,2.0,2001,,,3/23/2006 0:00,262,262,,,,,Skid Steer Loader - 2701.0+ Lb Operating Capacity,New Jersey,SSL,Skid Steer Loaders,,EROPS,None or Unspecified,,,,,,,,,,Standard,,,,,,None or Unspecified,None or Unspecified,None or Unspecified,Standard,,,,,,,,,,,
7026,1549916,13800,117309,132,99.0,2001,1853.0,Medium,3/5/2010 0:00,262,262,,,,,Skid Steer Loader - 2701.0+ Lb Operating Capacity,Minnesota,SSL,Skid Steer Loaders,,OROPS,None or Unspecified,,,,,,,,,,Standard,,,,,,None or Unspecified,None or Unspecified,None or Unspecified,Standard,,,,,,,,,,,
7026,1549921,13000,471416,132,1.0,2001,,,12/8/2005 0:00,262,262,,,,,Skid Steer Loader - 2701.0+ Lb Operating Capacity,Texas,SSL,Skid Steer Loaders,,OROPS,None or Unspecified,,,,,,,,,,Standard,,,,,,None or Unspecified,None or Unspecified,None or Unspecified,Standard,,,,,,,,,,,
7026,1549922,13000,329168,132,3.0,2001,,,9/15/2003 0:00,262,262,,,,,Skid Steer Loader - 2701.0+ Lb Operating Capacity,Unspecified,SSL,Skid Steer Loaders,,OROPS,None or Unspecified,,,,,,,,,,Standard,,,,,,None or Unspecified,None or Unspecified,None or Unspecified,Standard,,,,,,,,,,,
7026,1549933,15500,1000143,132,3.0,2001,,,11/26/2009 0:00,262,262,,,,,Skid Steer Loader - 2701.0+ Lb Operating Capacity,California,SSL,Skid Steer Loaders,,OROPS,Yes,,,,,,,,,,Auxiliary,,,,,,Manual,Yes,None or Unspecified,Standard,,,,,,,,,,,
7026,1549937,17500,707056,132,3.0,2001,,,10/16/2003 0:00,262,262,,,,,Skid Steer Loader - 2701.0+ Lb Operating Capacity,Unspecified,SSL,Skid Steer Loaders,,OROPS,None or Unspecified,,,,,,,,,,Standard,,,,,,None or Unspecified,None or Unspecified,None or Unspecified,Standard,,,,,,,,,,,
7026,1549938,14000,141995,132,1.0,2002,,,12/8/2004 0:00,262,262,,,,,Skid Steer Loader - 2701.0+ Lb Operating Capacity,North Carolina,SSL,Skid Steer Loaders,,OROPS,None or Unspecified,,,,,,,,,,Standard,,,,,,None or Unspecified,None or Unspecified,None or Unspecified,Standard,,,,,,,,,,,
7026,1549944,16000,518351,132,19.0,2002,,,9/9/2005 0:00,262,262,,,,,Skid Steer Loader - 2701.0+ Lb Operating Capacity,California,SSL,Skid Steer Loaders,,OROPS,None or Unspecified,,,,,,,,,,Standard,,,,,,None or Unspecified,None or Unspecified,None or Unspecified,Standard,,,,,,,,,,,
7026,1549946,16500,613195,132,1.0,2002,,,9/27/2006 0:00,262,262,,,,,Skid Steer Loader - 2701.0+ Lb Operating Capacity,Texas,SSL,Skid Steer Loaders,,OROPS,None or Unspecified,,,,,,,,,,Standard,,,,,,None or Unspecified,None or Unspecified,None or Unspecified,Standard,,,,,,,,,,,
7026,1549953,20000,558240,132,2.0,2002,,,2/1/2004 0:00,262,262,,,,,Skid Steer Loader - 2701.0+ Lb Operating Capacity,Florida,SSL,Skid Steer Loaders,,OROPS,None or Unspecified,,,,,,,,,,Standard,,,,,,None or Unspecified,None or Unspecified,None or Unspecified,Standard,,,,,,,,,,,
7026,1549961,20000,114614,132,3.0,2002,,,12/4/2003 0:00,262,262,,,,,Skid Steer Loader - 2701.0+ Lb Operating Capacity,Unspecified,SSL,Skid Steer Loaders,,OROPS,None or Unspecified,,,,,,,,,,Standard,,,,,,None or Unspecified,None or Unspecified,None or Unspecified,Standard,,,,,,,,,,,
7026,1549962,17000,1247271,132,4.0,2002,,,2/13/2006 0:00,262,262,,,,,Skid Steer Loader - 2701.0+ Lb Operating Capacity,Florida,SSL,Skid Steer Loaders,,OROPS,None or Unspecified,,,,,,,,,,Standard,,,,,,None or Unspecified,None or Unspecified,None or Unspecified,Standard,,,,,,,,,,,
7026,1549963,14000,428650,132,5.0,2002,,,12/18/2006 0:00,262,262,,,,,Skid Steer Loader - 2701.0+ Lb Operating Capacity,New Jersey,SSL,Skid Steer Loaders,,EROPS,None or Unspecified,,,,,,,,,,Standard,,,,,,None or Unspecified,None or Unspecified,None or Unspecified,Standard,,,,,,,,,,,
7026,1549966,17000,577723,132,1.0,2002,,,10/10/2006 0:00,262,262,,,,,Skid Steer Loader - 2701.0+ Lb Operating Capacity,Florida,SSL,Skid Steer Loaders,,OROPS,None or Unspecified,,,,,,,,,,Standard,,,,,,Hydraulic,Yes,None or Unspecified,Standard,,,,,,,,,,,
7026,1549967,20000,523326,132,4.0,2002,,,2/7/2005 0:00,262,262,,,,,Skid Steer Loader - 2701.0+ Lb Operating Capacity,Florida,SSL,Skid Steer Loaders,,OROPS,None or Unspecified,,,,,,,,,,Standard,,,,,,None or Unspecified,None or Unspecified,None or Unspecified,Standard,,,,,,,,,,,
7026,1549980,19000,865005,132,5.0,2002,,,8/19/2006 0:00,262,262,,,,,Skid Steer Loader - 2701.0+ Lb Operating Capacity,New Jersey,SSL,Skid Steer Loaders,,EROPS,None or Unspecified,,,,,,,,,,Standard,,,,,,None or Unspecified,None or Unspecified,None or Unspecified,Standard,,,,,,,,,,,
7026,1549981,17500,865005,132,5.0,2002,,,6/16/2006 0:00,262,262,,,,,Skid Steer Loader - 2701.0+ Lb Operating Capacity,Connecticut,SSL,Skid Steer Loaders,,EROPS,None or Unspecified,,,,,,,,,,Standard,,,,,,None or Unspecified,None or Unspecified,None or Unspecified,Standard,,,,,,,,,,,
7026,1549982,18000,1290036,132,2.0,2002,,,12/8/2004 0:00,262,262,,,,,Skid Steer Loader - 2701.0+ Lb Operating Capacity,Texas,SSL,Skid Steer Loaders,,OROPS,None or Unspecified,,,,,,,,,,Standard,,,,,,None or Unspecified,None or Unspecified,None or Unspecified,Standard,,,,,,,,,,,
7026,1549983,20000,538034,132,2.0,2002,,,5/15/2004 0:00,262,262,,,,,Skid Steer Loader - 2701.0+ Lb Operating Capacity,Connecticut,SSL,Skid Steer Loaders,,OROPS,None or Unspecified,,,,,,,,,,Standard,,,,,,None or Unspecified,None or Unspecified,None or Unspecified,Standard,,,,,,,,,,,
7026,1549986,17500,551999,132,2.0,2002,,,12/3/2005 0:00,262,262,,,,,Skid Steer Loader - 2701.0+ Lb Operating Capacity,New Jersey,SSL,Skid Steer Loaders,,EROPS,None or Unspecified,,,,,,,,,,Standard,,,,,,Hydraulic,None or Unspecified,None or Unspecified,Standard,,,,,,,,,,,
7026,1549990,20000,553713,132,2.0,2002,,,12/11/2004 0:00,262,262,,,,,Skid Steer Loader - 2701.0+ Lb Operating Capacity,Pennsylvania,SSL,Skid Steer Loaders,,EROPS,None or Unspecified,,,,,,,,,,Auxiliary,,,,,,Hydraulic,None or Unspecified,None or Unspecified,Standard,,,,,,,,,,,
7026,1549994,18000,698368,132,2.0,2003,,,9/16/2006 0:00,262,262,,,,,Skid Steer Loader - 2701.0+ Lb Operating Capacity,New Jersey,SSL,Skid Steer Loaders,,EROPS,None or Unspecified,,,,,,,,,,Standard,,,,,,Manual,Yes,None or Unspecified,Standard,,,,,,,,,,,
7026,1549997,18000,93275,132,2.0,2002,,,3/23/2006 0:00,262,262,,,,,Skid Steer Loader - 2701.0+ Lb Operating Capacity,New Jersey,SSL,Skid Steer Loaders,,EROPS,None or Unspecified,,,,,,,,,,Standard,,,,,,Manual,None or Unspecified,None or Unspecified,Standard,,,,,,,,,,,
7026,1549999,20000,839417,132,2.0,2002,,,2/4/2007 0:00,262,262,,,,,Skid Steer Loader - 2701.0+ Lb Operating Capacity,Florida,SSL,Skid Steer Loaders,,OROPS,None or Unspecified,,,,,,,,,,Standard,,,,,,Manual,Yes,None or Unspecified,Standard,,,,,,,,,,,
7026,1550004,15000,261778,132,12.0,2002,,,3/20/2008 0:00,262,262,,,,,Skid Steer Loader - 2701.0+ Lb Operating Capacity,South Carolina,SSL,Skid Steer Loaders,,EROPS,None or Unspecified,,,,,,,,,,Standard,,,,,,Manual,None or Unspecified,None or Unspecified,Standard,,,,,,,,,,,
7026,1550012,16500,165342,132,2.0,2002,,,6/26/2004 0:00,262,262,,,,,Skid Steer Loader - 2701.0+ Lb Operating Capacity,Ohio,SSL,Skid Steer Loaders,,OROPS,None or Unspecified,,,,,,,,,,Standard,,,,,,Manual,None or Unspecified,Yes,Standard,,,,,,,,,,,
7026,1550022,15500,537357,132,12.0,2002,,,3/30/2005 0:00,262,262,,,,,Skid Steer Loader - 2701.0+ Lb Operating Capacity,South Carolina,SSL,Skid Steer Loaders,,OROPS,None or Unspecified,,,,,,,,,,Standard,,,,,,Hydraulic,None or Unspecified,None or Unspecified,Standard,,,,,,,,,,,
7026,1550023,17000,560082,132,1.0,2002,,,9/25/2006 0:00,262,262,,,,,Skid Steer Loader - 2701.0+ Lb Operating Capacity,Colorado,SSL,Skid Steer Loaders,,EROPS,None or Unspecified,,,,,,,,,,Standard,,,,,,Manual,None or Unspecified,None or Unspecified,Standard,,,,,,,,,,,
7026,1550027,15500,569263,132,1.0,2002,,,10/10/2006 0:00,262,262,,,,,Skid Steer Loader - 2701.0+ Lb Operating Capacity,Florida,SSL,Skid Steer Loaders,,OROPS,None or Unspecified,,,,,,,,,,Standard,,,,,,None or Unspecified,None or Unspecified,Yes,Standard,,,,,,,,,,,
7026,1550029,17000,267953,132,12.0,2002,,,6/15/2005 0:00,262,262,,,,,Skid Steer Loader - 2701.0+ Lb Operating Capacity,South Carolina,SSL,Skid Steer Loaders,,OROPS,None or Unspecified,,,,,,,,,,Standard,,,,,,Manual,None or Unspecified,None or Unspecified,Standard,,,,,,,,,,,
7026,1550030,13000,267953,132,12.0,2002,,,9/20/2007 0:00,262,262,,,,,Skid Steer Loader - 2701.0+ Lb Operating Capacity,South Carolina,SSL,Skid Steer Loaders,,OROPS,None or Unspecified,,,,,,,,,,Standard,,,,,,Manual,None or Unspecified,None or Unspecified,Standard,,,,,,,,,,,
7026,1550031,15250,1480481,132,12.0,2002,,,12/8/2005 0:00,262,262,,,,,Skid Steer Loader - 2701.0+ Lb Operating Capacity,South Carolina,SSL,Skid Steer Loaders,,OROPS,None or Unspecified,,,,,,,,,,Standard,,,,,,Manual,None or Unspecified,None or Unspecified,Standard,,,,,,,,,,,
7026,1550034,16000,869214,132,2.0,2002,,,3/23/2006 0:00,262,262,,,,,Skid Steer Loader - 2701.0+ Lb Operating Capacity,New Jersey,SSL,Skid Steer Loaders,,EROPS,None or Unspecified,,,,,,,,,,Standard,,,,,,Manual,Yes,None or Unspecified,Standard,,,,,,,,,,,
7026,1550038,18000,1499555,132,1.0,2002,,,12/19/2005 0:00,262,262,,,,,Skid Steer Loader - 2701.0+ Lb Operating Capacity,Ohio,SSL,Skid Steer Loaders,,OROPS,None or Unspecified,,,,,,,,,,Standard,,,,,,None or Unspecified,None or Unspecified,None or Unspecified,Standard,,,,,,,,,,,
7026,1550040,13000,672501,132,4.0,2003,,,2/12/2007 0:00,262,262,,,,,Skid Steer Loader - 2701.0+ Lb Operating Capacity,Florida,SSL,Skid Steer Loaders,,OROPS,None or Unspecified,,,,,,,,,,Standard,,,,,,None or Unspecified,None or Unspecified,None or Unspecified,Standard,,,,,,,,,,,
7026,1550047,15500,122109,132,8.0,2003,,,3/22/2006 0:00,262,262,,,,,Skid Steer Loader - 2701.0+ Lb Operating Capacity,Mississippi,SSL,Skid Steer Loaders,,EROPS w AC,None or Unspecified,,,,,,,,,,Standard,,,,,,Manual,None or Unspecified,None or Unspecified,Standard,,,,,,,,,,,
7026,1550048,17500,112670,132,2.0,2003,,,3/23/2006 0:00,262,262,,,,,Skid Steer Loader - 2701.0+ Lb Operating Capacity,New Jersey,SSL,Skid Steer Loaders,,EROPS w AC,None or Unspecified,,,,,,,,,,Standard,,,,,,Manual,None or Unspecified,None or Unspecified,Standard,,,,,,,,,,,
7026,1550049,16000,117228,132,8.0,2003,,,3/22/2006 0:00,262,262,,,,,Skid Steer Loader - 2701.0+ Lb Operating Capacity,Mississippi,SSL,Skid Steer Loaders,,EROPS w AC,None or Unspecified,,,,,,,,,,Standard,,,,,,Manual,None or Unspecified,None or Unspecified,Standard,,,,,,,,,,,
7026,1550052,17000,977203,132,1.0,2003,,,12/15/2006 0:00,262,262,,,,,Skid Steer Loader - 2701.0+ Lb Operating Capacity,Idaho,SSL,Skid Steer Loaders,,OROPS,None or Unspecified,,,,,,,,,,Auxiliary,,,,,,Manual,None or Unspecified,None or Unspecified,Standard,,,,,,,,,,,
7026,1550053,17500,127264,132,9.0,2003,,,8/19/2010 0:00,262,262,,,,,Skid Steer Loader - 2701.0+ Lb Operating Capacity,South Carolina,SSL,Skid Steer Loaders,,EROPS w AC,None or Unspecified,,,,,,,,,,Standard,,,,,,Manual,None or Unspecified,None or Unspecified,Standard,,,,,,,,,,,
7026,1550054,17500,109962,132,2.0,2003,,,3/23/2006 0:00,262,262,,,,,Skid Steer Loader - 2701.0+ Lb Operating Capacity,New Jersey,SSL,Skid Steer Loaders,,EROPS w AC,None or Unspecified,,,,,,,,,,Standard,,,,,,Manual,None or Unspecified,None or Unspecified,Standard,,,,,,,,,,,
7026,1550059,19000,267026,132,10.0,2003,,,12/13/2005 0:00,262,262,,,,,Skid Steer Loader - 2701.0+ Lb Operating Capacity,Louisiana,SSL,Skid Steer Loaders,,EROPS w AC,None or Unspecified,,,,,,,,,,Standard,,,,,,Hydraulic,None or Unspecified,None or Unspecified,Standard,,,,,,,,,,,
7026,1550060,18000,825750,132,10.0,2003,,,3/16/2006 0:00,262,262,,,,,Skid Steer Loader - 2701.0+ Lb Operating Capacity,Louisiana,SSL,Skid Steer Loaders,,EROPS,Yes,,,,,,,,,,Standard,,,,,,Manual,None or Unspecified,None or Unspecified,Standard,,,,,,,,,,,
7026,1550084,19500,454844,132,1.0,2003,,,3/7/2006 0:00,262,262,,,,,Skid Steer Loader - 2701.0+ Lb Operating Capacity,California,SSL,Skid Steer Loaders,,EROPS w AC,None or Unspecified,,,,,,,,,,Auxiliary,,,,,,Manual,None or Unspecified,None or Unspecified,Standard,,,,,,,,,,,
7026,1550085,13500,1199809,132,1.0,2002,,,6/28/2006 0:00,262,262,,,,,Skid Steer Loader - 2701.0+ Lb Operating Capacity,California,SSL,Skid Steer Loaders,,EROPS w AC,None or Unspecified,,,,,,,,,,Standard,,,,,,Manual,None or Unspecified,None or Unspecified,Standard,,,,,,,,,,,
7026,1550086,17750,811033,132,2.0,2003,,,3/23/2006 0:00,262,262,,,,,Skid Steer Loader - 2701.0+ Lb Operating Capacity,New Jersey,SSL,Skid Steer Loaders,,EROPS,None or Unspecified,,,,,,,,,,Standard,,,,,,Manual,Yes,None or Unspecified,Standard,,,,,,,,,,,
7026,1550087,19000,866405,132,2.0,2003,,,3/23/2006 0:00,262,262,,,,,Skid Steer Loader - 2701.0+ Lb Operating Capacity,New Jersey,SSL,Skid Steer Loaders,,EROPS,None or Unspecified,,,,,,,,,,Standard,,,,,,Manual,Yes,None or Unspecified,Standard,,,,,,,,,,,
7026,1550088,16500,875556,132,2.0,2003,,,8/26/2006 0:00,262,262,,,,,Skid Steer Loader - 2701.0+ Lb Operating Capacity,Ohio,SSL,Skid Steer Loaders,,EROPS,None or Unspecified,,,,,,,,,,Standard,,,,,,Manual,Yes,None or Unspecified,Standard,,,,,,,,,,,
7026,1550100,17000,259856,132,1.0,2003,,,6/15/2006 0:00,262,262,,,,,Skid Steer Loader - 2701.0+ Lb Operating Capacity,Georgia,SSL,Skid Steer Loaders,,OROPS,None or Unspecified,,,,,,,,,,Standard,,,,,,Manual,None or Unspecified,None or Unspecified,Standard,,,,,,,,,,,
7026,1550103,16500,1235799,132,9.0,2003,,,2/16/2005 0:00,262,262,,,,,Skid Steer Loader - 2701.0+ Lb Operating Capacity,Florida,SSL,Skid Steer Loaders,,OROPS,None or Unspecified,,,,,,,,,,Standard,,,,,,Manual,Yes,None or Unspecified,Standard,,,,,,,,,,,
7026,1550104,14500,1085367,132,9.0,2003,,,2/16/2005 0:00,262,262,,,,,Skid Steer Loader - 2701.0+ Lb Operating Capacity,Florida,SSL,Skid Steer Loaders,,OROPS,None or Unspecified,,,,,,,,,,Standard,,,,,,Manual,Yes,None or Unspecified,Standard,,,,,,,,,,,
7026,1550106,15500,1274946,132,1.0,2003,,,9/27/2006 0:00,262,262,,,,,Skid Steer Loader - 2701.0+ Lb Operating Capacity,North Carolina,SSL,Skid Steer Loaders,,OROPS,None or Unspecified,,,,,,,,,,Standard,,,,,,None or Unspecified,None or Unspecified,None or Unspecified,Standard,,,,,,,,,,,
7026,1550108,13000,564050,132,99.0,2003,1019.0,Low,1/20/2009 0:00,262,262,,,,,Skid Steer Loader - 2701.0+ Lb Operating Capacity,South Carolina,SSL,Skid Steer Loaders,,OROPS,None or Unspecified,,,,,,,,,,Standard,,,,,,Manual,None or Unspecified,None or Unspecified,Standard,,,,,,,,,,,
7026,1550111,16500,1433300,132,1.0,2003,1615.0,Low,6/22/2011 0:00,262,262,,,,,Skid Steer Loader - 2701.0+ Lb Operating Capacity,Texas,SSL,Skid Steer Loaders,,EROPS w AC,None or Unspecified,,,,,,,,,,Standard,,,,,,Manual,None or Unspecified,None or Unspecified,Standard,,,,,,,,,,,
7026,1550122,17000,868245,132,2.0,2003,967.0,Low,4/27/2008 0:00,262,262,,,,,Skid Steer Loader - 2701.0+ Lb Operating Capacity,New York,SSL,Skid Steer Loaders,,OROPS,None or Unspecified,,,,,,,,,,Auxiliary,,,,,,Manual,Yes,None or Unspecified,Standard,,,,,,,,,,,
7026,1550131,18500,313026,132,1.0,2003,,,12/1/2005 0:00,262,262,,,,,Skid Steer Loader - 2701.0+ Lb Operating Capacity,Illinois,SSL,Skid Steer Loaders,,OROPS,None or Unspecified,,,,,,,,,,Standard,,,,,,Manual,None or Unspecified,None or Unspecified,Standard,,,,,,,,,,,
7026,1550132,12500,307716,132,1.0,2003,,,9/27/2005 0:00,262,262,,,,,Skid Steer Loader - 2701.0+ Lb Operating Capacity,Colorado,SSL,Skid Steer Loaders,,OROPS,None or Unspecified,,,,,,,,,,Standard,,,,,,Manual,None or Unspecified,None or Unspecified,Standard,,,,,,,,,,,
7026,1550135,15000,688920,132,2.0,2003,,,3/12/2008 0:00,262,262,,,,,Skid Steer Loader - 2701.0+ Lb Operating Capacity,Nevada,SSL,Skid Steer Loaders,,EROPS,None or Unspecified,,,,,,,,,,Auxiliary,,,,,,Manual,Yes,None or Unspecified,Standard,,,,,,,,,,,
7026,1550138,15500,111650,132,12.0,2003,,,12/8/2005 0:00,262,262,,,,,Skid Steer Loader - 2701.0+ Lb Operating Capacity,South Carolina,SSL,Skid Steer Loaders,,EROPS w AC,None or Unspecified,,,,,,,,,,Standard,,,,,,Manual,None or Unspecified,None or Unspecified,Standard,,,,,,,,,,,
7026,1550175,14500,1031519,132,4.0,2004,,,2/8/2010 0:00,262,262,,,,,Skid Steer Loader - 2701.0+ Lb Operating Capacity,Florida,SSL,Skid Steer Loaders,,OROPS,None or Unspecified,,,,,,,,,,Auxiliary,,,,,,Manual,Yes,None or Unspecified,Standard,,,,,,,,,,,
7026,1550176,14500,1031519,132,4.0,2004,,,2/9/2010 0:00,262,262,,,,,Skid Steer Loader - 2701.0+ Lb Operating Capacity,Florida,SSL,Skid Steer Loaders,,OROPS,None or Unspecified,,,,,,,,,,Auxiliary,,,,,,Manual,Yes,None or Unspecified,Standard,,,,,,,,,,,
7026,2297715,9000,405993,136,5.0,2001,0.0,,6/26/2009 0:00,262,262,,,,,Skid Steer Loader - 2701.0+ Lb Operating Capacity,Connecticut,SSL,Skid Steer Loaders,,OROPS,None or Unspecified,,,,,,,,,,Standard,,,,,,None or Unspecified,None or Unspecified,None or Unspecified,Standard,,,,,,,,,,,
7026,2297717,14750,233640,136,3.0,2001,0.0,,8/15/2007 0:00,262,262,,,,,Skid Steer Loader - 2701.0+ Lb Operating Capacity,Arkansas,SSL,Skid Steer Loaders,,EROPS,None or Unspecified,,,,,,,,,,Auxiliary,,,,,,None or Unspecified,None or Unspecified,None or Unspecified,Standard,,,,,,,,,,,
7026,2297718,8000,233640,136,20.0,2001,0.0,,12/12/2007 0:00,262,262,,,,,Skid Steer Loader - 2701.0+ Lb Operating Capacity,Arkansas,SSL,Skid Steer Loaders,,EROPS,None or Unspecified,,,,,,,,,,Auxiliary,,,,,,None or Unspecified,None or Unspecified,None or Unspecified,Standard,,,,,,,,,,,
7026,2297722,11000,1449795,136,1.0,2001,0.0,,9/26/2007 0:00,262,262,,,,,Skid Steer Loader - 2701.0+ Lb Operating Capacity,Texas,SSL,Skid Steer Loaders,,OROPS,None or Unspecified,,,,,,,,,,Auxiliary,,,,,,None or Unspecified,None or Unspecified,None or Unspecified,Standard,,,,,,,,,,,
7026,2297726,17000,254387,136,2.0,2001,1200.0,Low,5/17/2008 0:00,262,262,,,,,Skid Steer Loader - 2701.0+ Lb Operating Capacity,Massachusetts,SSL,Skid Steer Loaders,,EROPS,None or Unspecified,,,,,,,,,,Auxiliary,,,,,,Manual,Yes,None or Unspecified,Standard,,,,,,,,,,,
7026,2297727,10000,1123424,136,1.0,2001,0.0,,6/2/2007 0:00,262,262,,,,,Skid Steer Loader - 2701.0+ Lb Operating Capacity,Oregon,SSL,Skid Steer Loaders,,OROPS,None or Unspecified,,,,,,,,,,Standard,,,,,,None or Unspecified,None or Unspecified,None or Unspecified,Standard,,,,,,,,,,,
7026,2297728,7000,139934,136,1.0,2002,0.0,,6/2/2010 0:00,262,262,,,,,Skid Steer Loader - 2701.0+ Lb Operating Capacity,Maryland,SSL,Skid Steer Loaders,,OROPS,None or Unspecified,,,,,,,,,,Auxiliary,,,,,,None or Unspecified,None or Unspecified,None or Unspecified,Standard,,,,,,,,,,,
7026,2297730,11500,1740024,136,,2000,1893.0,Medium,8/4/2007 0:00,262,262,,,,,Skid Steer Loader - 2701.0+ Lb Operating Capacity,Michigan,SSL,Skid Steer Loaders,,OROPS,None or Unspecified,,,,,,,,,,Auxiliary,,,,,,None or Unspecified,None or Unspecified,None or Unspecified,Standard,,,,,,,,,,,
7026,2297732,14500,167054,136,1.0,2002,0.0,,6/23/2008 0:00,262,262,,,,,Skid Steer Loader - 2701.0+ Lb Operating Capacity,California,SSL,Skid Steer Loaders,,OROPS,None or Unspecified,,,,,,,,,,Auxiliary,,,,,,None or Unspecified,None or Unspecified,None or Unspecified,Standard,,,,,,,,,,,
7026,2297736,16000,553713,136,2.0,2002,1182.0,Medium,6/9/2007 0:00,262,262,,,,,Skid Steer Loader - 2701.0+ Lb Operating Capacity,New Jersey,SSL,Skid Steer Loaders,,EROPS,None or Unspecified,,,,,,,,,,Auxiliary,,,,,,Hydraulic,None or Unspecified,None or Unspecified,Standard,,,,,,,,,,,
7026,2297738,17000,766901,136,1.0,2002,0.0,,2/19/2008 0:00,262,262,,,,,Skid Steer Loader - 2701.0+ Lb Operating Capacity,Florida,SSL,Skid Steer Loaders,,OROPS,None or Unspecified,,,,,,,,,,Auxiliary,,,,,,Hydraulic,None or Unspecified,None or Unspecified,Standard,,,,,,,,,,,
7026,2297739,13965,1707271,136,,2002,2355.0,Medium,6/7/2008 0:00,262,262,,,,,Skid Steer Loader - 2701.0+ Lb Operating Capacity,Tennessee,SSL,Skid Steer Loaders,,OROPS,None or Unspecified,,,,,,,,,,Auxiliary,,,,,,None or Unspecified,None or Unspecified,None or Unspecified,Standard,,,,,,,,,,,
7026,2297740,11350,108687,136,,2002,0.0,,9/27/2008 0:00,262,262,,,,,Skid Steer Loader - 2701.0+ Lb Operating Capacity,New Jersey,SSL,Skid Steer Loaders,,OROPS,None or Unspecified,,,,,,,,,,Auxiliary,,,,,,Manual,None or Unspecified,None or Unspecified,Standard,,,,,,,,,,,
7026,2297741,14500,631272,136,1.0,2002,0.0,,5/8/2008 0:00,262,262,,,,,Skid Steer Loader - 2701.0+ Lb Operating Capacity,Montana,SSL,Skid Steer Loaders,,EROPS,None or Unspecified,,,,,,,,,,Auxiliary,,,,,,Manual,None or Unspecified,None or Unspecified,Standard,,,,,,,,,,,
7026,2297742,11000,305444,136,1.0,2002,0.0,,5/1/2009 0:00,262,262,,,,,Skid Steer Loader - 2701.0+ Lb Operating Capacity,Nevada,SSL,Skid Steer Loaders,,OROPS,Yes,,,,,,,,,,Auxiliary,,,,,,Manual,None or Unspecified,None or Unspecified,Standard,,,,,,,,,,,
7026,2297743,10500,967046,136,1.0,2002,0.0,,9/11/2007 0:00,262,262,,,,,Skid Steer Loader - 2701.0+ Lb Operating Capacity,Washington,SSL,Skid Steer Loaders,,OROPS,None or Unspecified,,,,,,,,,,Auxiliary,,,,,,Manual,None or Unspecified,None or Unspecified,Standard,,,,,,,,,,,
7026,2297744,11500,959340,136,1.0,2002,0.0,,9/11/2007 0:00,262,262,,,,,Skid Steer Loader - 2701.0+ Lb Operating Capacity,Washington,SSL,Skid Steer Loaders,,OROPS,None or Unspecified,,,,,,,,,,Auxiliary,,,,,,Manual,None or Unspecified,None or Unspecified,Standard,,,,,,,,,,,
7026,2297745,10500,965585,136,1.0,2002,0.0,,9/11/2007 0:00,262,262,,,,,Skid Steer Loader - 2701.0+ Lb Operating Capacity,Washington,SSL,Skid Steer Loaders,,OROPS,None or Unspecified,,,,,,,,,,Auxiliary,,,,,,Manual,None or Unspecified,None or Unspecified,Standard,,,,,,,,,,,
7026,2297746,16500,867156,136,5.0,2002,0.0,,11/9/2007 0:00,262,262,,,,,Skid Steer Loader - 2701.0+ Lb Operating Capacity,Connecticut,SSL,Skid Steer Loaders,,EROPS,None or Unspecified,,,,,,,,,,Standard,,,,,,Manual,Yes,None or Unspecified,Standard,,,,,,,,,,,
7026,2297748,17000,1067629,136,,2002,0.0,,5/16/2007 0:00,262,262,,,,,Skid Steer Loader - 2701.0+ Lb Operating Capacity,Colorado,SSL,Skid Steer Loaders,,EROPS,None or Unspecified,,,,,,,,,,Auxiliary,,,,,,None or Unspecified,None or Unspecified,None or Unspecified,Standard,,,,,,,,,,,
7026,2297752,16500,785311,136,1.0,2002,0.0,,5/28/2008 0:00,262,262,,,,,Skid Steer Loader - 2701.0+ Lb Operating Capacity,Florida,SSL,Skid Steer Loaders,,OROPS,None or Unspecified,,,,,,,,,,Auxiliary,,,,,,Manual,None or Unspecified,None or Unspecified,Standard,,,,,,,,,,,
7026,2297753,13500,306996,136,1.0,2002,0.0,,5/1/2009 0:00,262,262,,,,,Skid Steer Loader - 2701.0+ Lb Operating Capacity,Nevada,SSL,Skid Steer Loaders,,OROPS,Yes,,,,,,,,,,Auxiliary,,,,,,Manual,None or Unspecified,None or Unspecified,Standard,,,,,,,,,,,
7026,2297754,14500,752494,136,,2003,0.0,,11/10/2007 0:00,262,262,,,,,Skid Steer Loader - 2701.0+ Lb Operating Capacity,California,SSL,Skid Steer Loaders,,OROPS,None or Unspecified,,,,,,,,,,Standard,,,,,,Manual,None or Unspecified,None or Unspecified,Standard,,,,,,,,,,,
7026,2297757,12500,1426472,136,1.0,2003,0.0,,5/28/2009 0:00,262,262,,,,,Skid Steer Loader - 2701.0+ Lb Operating Capacity,Missouri,SSL,Skid Steer Loaders,,EROPS,None or Unspecified,,,,,,,,,,Auxiliary,,,,,,Hydraulic,None or Unspecified,None or Unspecified,Standard,,,,,,,,,,,
7026,2297758,16000,544169,136,14.0,2003,1624.0,Medium,3/21/2008 0:00,262,262,,,,,Skid Steer Loader - 2701.0+ Lb Operating Capacity,Indiana,SSL,Skid Steer Loaders,,EROPS w AC,None or Unspecified,,,,,,,,,,Standard,,,,,,Hydraulic,None or Unspecified,None or Unspecified,Standard,,,,,,,,,,,
7026,2297759,16000,544016,136,,2003,2500.0,Medium,2/6/2008 0:00,262,262,,,,,Skid Steer Loader - 2701.0+ Lb Operating Capacity,Arkansas,SSL,Skid Steer Loaders,,EROPS w AC,None or Unspecified,,,,,,,,,,Auxiliary,,,,,,Hydraulic,None or Unspecified,None or Unspecified,Standard,,,,,,,,,,,
7026,2297761,7000,279323,136,1.0,2002,0.0,,12/10/2008 0:00,262,262,,,,,Skid Steer Loader - 2701.0+ Lb Operating Capacity,Arkansas,SSL,Skid Steer Loaders,,EROPS w AC,Yes,,,,,,,,,,Auxiliary,,,,,,Hydraulic,None or Unspecified,None or Unspecified,Standard,,,,,,,,,,,
7026,2297764,13000,451174,136,1.0,2003,2775.0,High,12/4/2007 0:00,262,262,,,,,Skid Steer Loader - 2701.0+ Lb Operating Capacity,California,SSL,Skid Steer Loaders,,OROPS,None or Unspecified,,,,,,,,,,Auxiliary,,,,,,Manual,None or Unspecified,None or Unspecified,Standard,,,,,,,,,,,
7026,2297767,13500,890814,136,1.0,2003,1440.0,Medium,11/6/2007 0:00,262,262,,,,,Skid Steer Loader - 2701.0+ Lb Operating Capacity,Tennessee,SSL,Skid Steer Loaders,,OROPS,None or Unspecified,,,,,,,,,,Auxiliary,,,,,,None or Unspecified,None or Unspecified,None or Unspecified,Standard,,,,,,,,,,,
7026,2297768,12500,1299767,136,1.0,2003,0.0,,3/4/2009 0:00,262,262,,,,,Skid Steer Loader - 2701.0+ Lb Operating Capacity,Texas,SSL,Skid Steer Loaders,,OROPS,None or Unspecified,,,,,,,,,,Auxiliary,,,,,,Manual,None or Unspecified,None or Unspecified,Standard,,,,,,,,,,,
7026,2297769,11500,425838,136,27.0,2003,1866.0,Medium,4/4/2008 0:00,262,262,,,,,Skid Steer Loader - 2701.0+ Lb Operating Capacity,North Carolina,SSL,Skid Steer Loaders,,OROPS,None or Unspecified,,,,,,,,,,Auxiliary,,,,,,Manual,None or Unspecified,None or Unspecified,Standard,,,,,,,,,,,
7026,2297771,9200,126951,136,12.0,2003,0.0,,6/17/2009 0:00,262,262,,,,,Skid Steer Loader - 2701.0+ Lb Operating Capacity,South Carolina,SSL,Skid Steer Loaders,,OROPS,None or Unspecified,,,,,,,,,,Auxiliary,,,,,,Manual,None or Unspecified,None or Unspecified,Standard,,,,,,,,,,,
7026,2297772,13500,305035,136,1.0,2003,0.0,,5/1/2009 0:00,262,262,,,,,Skid Steer Loader - 2701.0+ Lb Operating Capacity,Nevada,SSL,Skid Steer Loaders,,OROPS,None or Unspecified,,,,,,,,,,Auxiliary,,,,,,Manual,None or Unspecified,None or Unspecified,Standard,,,,,,,,,,,
7026,2297775,15500,248948,136,10.0,2003,0.0,,3/14/2007 0:00,262,262,,,,,Skid Steer Loader - 2701.0+ Lb Operating Capacity,Louisiana,SSL,Skid Steer Loaders,,OROPS,None or Unspecified,,,,,,,,,,Standard,,,,,,Manual,None or Unspecified,None or Unspecified,Standard,,,,,,,,,,,
7026,2297776,11000,1524215,136,1.0,2003,6813.0,High,5/6/2010 0:00,262,262,,,,,Skid Steer Loader - 2701.0+ Lb Operating Capacity,Texas,SSL,Skid Steer Loaders,,OROPS,None or Unspecified,,,,,,,,,,Auxiliary,,,,,,Manual,None or Unspecified,None or Unspecified,Standard,,,,,,,,,,,
7026,2297778,15500,254911,136,10.0,2003,0.0,,3/14/2007 0:00,262,262,,,,,Skid Steer Loader - 2701.0+ Lb Operating Capacity,Louisiana,SSL,Skid Steer Loaders,,OROPS,None or Unspecified,,,,,,,,,,Standard,,,,,,Manual,None or Unspecified,None or Unspecified,Standard,,,,,,,,,,,
7026,2297779,13000,620644,136,1.0,2003,1500.0,Medium,3/29/2007 0:00,262,262,,,,,Skid Steer Loader - 2701.0+ Lb Operating Capacity,Texas,SSL,Skid Steer Loaders,,OROPS,Yes,,,,,,,,,,Standard,,,,,,Manual,Yes,None or Unspecified,Standard,,,,,,,,,,,
7026,2297781,13000,1754971,136,,2003,1455.0,Medium,6/16/2007 0:00,262,262,,,,,Skid Steer Loader - 2701.0+ Lb Operating Capacity,California,SSL,Skid Steer Loaders,,OROPS,None or Unspecified,,,,,,,,,,Auxiliary,,,,,,Hydraulic,None or Unspecified,None or Unspecified,Standard,,,,,,,,,,,
7026,2297784,10500,247017,136,9.0,2003,0.0,,5/7/2009 0:00,262,262,,,,,Skid Steer Loader - 2701.0+ Lb Operating Capacity,South Carolina,SSL,Skid Steer Loaders,,OROPS,None or Unspecified,,,,,,,,,,Auxiliary,,,,,,Manual,Yes,None or Unspecified,Standard,,,,,,,,,,,
7026,2297785,14500,685546,136,1.0,2003,0.0,,6/6/2007 0:00,262,262,,,,,Skid Steer Loader - 2701.0+ Lb Operating Capacity,Illinois,SSL,Skid Steer Loaders,,EROPS,None or Unspecified,,,,,,,,,,Auxiliary,,,,,,Manual,None or Unspecified,None or Unspecified,Standard,,,,,,,,,,,
7026,2297787,15000,868245,136,2.0,2003,967.0,Low,5/3/2008 0:00,262,262,,,,,Skid Steer Loader - 2701.0+ Lb Operating Capacity,New Hampshire,SSL,Skid Steer Loaders,,OROPS,None or Unspecified,,,,,,,,,,Auxiliary,,,,,,Manual,Yes,None or Unspecified,Standard,,,,,,,,,,,
7026,2297790,12500,1675879,136,,1000,1225.0,Low,6/26/2009 0:00,262,262,,,,,Skid Steer Loader - 2701.0+ Lb Operating Capacity,Ohio,SSL,Skid Steer Loaders,,OROPS,None or Unspecified,,,,,,,,,,Auxiliary,,,,,,None or Unspecified,None or Unspecified,None or Unspecified,Standard,,,,,,,,,,,
7026,2297791,15000,698090,136,2.0,2003,1610.0,Medium,3/12/2008 0:00,262,262,,,,,Skid Steer Loader - 2701.0+ Lb Operating Capacity,Nevada,SSL,Skid Steer Loaders,,EROPS,None or Unspecified,,,,,,,,,,Auxiliary,,,,,,Manual,Yes,None or Unspecified,Standard,,,,,,,,,,,
7026,2297792,12000,698090,136,2.0,2003,0.0,,2/3/2008 0:00,262,262,,,,,Skid Steer Loader - 2701.0+ Lb Operating Capacity,Florida,SSL,Skid Steer Loaders,,EROPS,None or Unspecified,,,,,,,,,,Auxiliary,,,,,,Manual,Yes,None or Unspecified,Standard,,,,,,,,,,,
7026,2297793,14000,315662,136,1.0,2003,708.0,Low,5/12/2010 0:00,262,262,,,,,Skid Steer Loader - 2701.0+ Lb Operating Capacity,California,SSL,Skid Steer Loaders,,OROPS,None or Unspecified,,,,,,,,,,Auxiliary,,,,,,Manual,None or Unspecified,None or Unspecified,Standard,,,,,,,,,,,
7026,2297795,12000,688920,136,2.0,1000,0.0,,2/3/2008 0:00,262,262,,,,,Skid Steer Loader - 2701.0+ Lb Operating Capacity,Florida,SSL,Skid Steer Loaders,,EROPS,None or Unspecified,,,,,,,,,,Auxiliary,,,,,,Manual,Yes,None or Unspecified,Standard,,,,,,,,,,,
7026,2297796,7500,688920,136,2.0,1000,0.0,,10/31/2008 0:00,262,262,,,,,Skid Steer Loader - 2701.0+ Lb Operating Capacity,California,SSL,Skid Steer Loaders,,EROPS,None or Unspecified,,,,,,,,,,Auxiliary,,,,,,Manual,Yes,None or Unspecified,Standard,,,,,,,,,,,
7026,2297798,10000,150027,136,,2003,0.0,,9/11/2009 0:00,262,262,,,,,Skid Steer Loader - 2701.0+ Lb Operating Capacity,Georgia,SSL,Skid Steer Loaders,,OROPS,None or Unspecified,,,,,,,,,,Auxiliary,,,,,,Hydraulic,None or Unspecified,None or Unspecified,Standard,,,,,,,,,,,
7026,2297802,20000,307305,136,1.0,2003,0.0,,8/15/2008 0:00,262,262,,,,,Skid Steer Loader - 2701.0+ Lb Operating Capacity,Nevada,SSL,Skid Steer Loaders,,OROPS,None or Unspecified,,,,,,,,,,Auxiliary,,,,,,Manual,Yes,None or Unspecified,Standard,,,,,,,,,,,
7026,2297805,12000,960243,136,1.0,2003,0.0,,9/11/2007 0:00,262,262,,,,,Skid Steer Loader - 2701.0+ Lb Operating Capacity,Washington,SSL,Skid Steer Loaders,,OROPS,None or Unspecified,,,,,,,,,,Auxiliary,,,,,,Manual,None or Unspecified,None or Unspecified,Standard,,,,,,,,,,,
7026,2297807,16000,219099,136,,2003,0.0,,6/9/2007 0:00,262,262,,,,,Skid Steer Loader - 2701.0+ Lb Operating Capacity,New Jersey,SSL,Skid Steer Loaders,,EROPS w AC,None or Unspecified,,,,,,,,,,Auxiliary,,,,,,Manual,None or Unspecified,None or Unspecified,Standard,,,,,,,,,,,
7026,2297809,11500,120808,136,1.0,2003,0.0,,9/22/2009 0:00,262,262,,,,,Skid Steer Loader - 2701.0+ Lb Operating Capacity,North Carolina,SSL,Skid Steer Loaders,,EROPS w AC,None or Unspecified,,,,,,,,,,Auxiliary,,,,,,Manual,None or Unspecified,None or Unspecified,Standard,,,,,,,,,,,
7026,2297812,15000,577325,136,2.0,2003,0.0,,11/9/2007 0:00,262,262,,,,,Skid Steer Loader - 2701.0+ Lb Operating Capacity,Ohio,SSL,Skid Steer Loaders,,EROPS w AC,None or Unspecified,,,,,,,,,,Auxiliary,,,,,,Manual,Yes,None or Unspecified,Standard,,,,,,,,,,,
7026,2297813,15500,585621,136,2.0,2004,0.0,,2/3/2008 0:00,262,262,,,,,Skid Steer Loader - 2701.0+ Lb Operating Capacity,Florida,SSL,Skid Steer Loaders,,EROPS,None or Unspecified,,,,,,,,,,Auxiliary,,,,,,Manual,Yes,None or Unspecified,Standard,,,,,,,,,,,
7026,2297814,12000,836549,136,5.0,2004,0.0,,6/15/2007 0:00,262,262,,,,,Skid Steer Loader - 2701.0+ Lb Operating Capacity,Connecticut,SSL,Skid Steer Loaders,,EROPS,None or Unspecified,,,,,,,,,,Auxiliary,,,,,,Manual,None or Unspecified,None or Unspecified,Standard,,,,,,,,,,,
7026,2297817,11000,225201,136,1.0,2001,0.0,,6/2/2010 0:00,262,262,,,,,Skid Steer Loader - 2701.0+ Lb Operating Capacity,Maryland,SSL,Skid Steer Loaders,,EROPS,None or Unspecified,,,,,,,,,,Auxiliary,,,,,,Manual,None or Unspecified,Yes,Standard,,,,,,,,,,,
7026,2297818,13000,225201,136,1.0,2004,0.0,,9/28/2007 0:00,262,262,,,,,Skid Steer Loader - 2701.0+ Lb Operating Capacity,New Jersey,SSL,Skid Steer Loaders,,EROPS,None or Unspecified,,,,,,,,,,Auxiliary,,,,,,Manual,None or Unspecified,Yes,Standard,,,,,,,,,,,
7026,2297819,13000,225201,136,1.0,2004,1861.0,High,6/20/2007 0:00,262,262,,,,,Skid Steer Loader - 2701.0+ Lb Operating Capacity,Maryland,SSL,Skid Steer Loaders,,EROPS,None or Unspecified,,,,,,,,,,Auxiliary,,,,,,Manual,None or Unspecified,Yes,Standard,,,,,,,,,,,
7026,2297825,18000,219929,136,1.0,2003,412.0,Low,10/1/2008 0:00,262,262,,,,,Skid Steer Loader - 2701.0+ Lb Operating Capacity,Maryland,SSL,Skid Steer Loaders,,EROPS w AC,None or Unspecified,,,,,,,,,,Auxiliary,,,,,,Manual,None or Unspecified,None or Unspecified,Standard,,,,,,,,,,,
7026,2581486,17000,337087,149,1.0,2001,1406.0,Low,10/19/2010 0:00,262,262,,,,,Skid Steer Loader - 2701.0+ Lb Operating Capacity,Maryland,SSL,Skid Steer Loaders,,EROPS,None or Unspecified,,,,,,,,,,Auxiliary,,,,,,Hydraulic,Yes,None or Unspecified,Standard,,,,,,,,,,,
7026,2581490,10000,139934,149,99.0,2002,0.0,,8/12/2010 0:00,262,262,,,,,Skid Steer Loader - 2701.0+ Lb Operating Capacity,New York,SSL,Skid Steer Loaders,,OROPS,None or Unspecified,,,,,,,,,,Auxiliary,,,,,,None or Unspecified,None or Unspecified,None or Unspecified,Standard,,,,,,,,,,,
7026,2581492,14000,24245,149,26.0,2002,0.0,,3/2/2011 0:00,262,262,,,,,Skid Steer Loader - 2701.0+ Lb Operating Capacity,Alabama,SSL,Skid Steer Loaders,,OROPS,None or Unspecified,,,,,,,,,,Standard,,,,,,None or Unspecified,None or Unspecified,None or Unspecified,Standard,,,,,,,,,,,
7026,2581499,9500,961152,149,1.0,2002,4452.0,High,8/27/2010 0:00,262,262,,,,,Skid Steer Loader - 2701.0+ Lb Operating Capacity,Idaho,SSL,Skid Steer Loaders,,OROPS,Yes,,,,,,,,,,Auxiliary,,,,,,Manual,None or Unspecified,None or Unspecified,Standard,,,,,,,,,,,
7026,2581508,10000,977203,149,1.0,2003,0.0,,8/27/2010 0:00,262,262,,,,,Skid Steer Loader - 2701.0+ Lb Operating Capacity,Idaho,SSL,Skid Steer Loaders,,OROPS,None or Unspecified,,,,,,,,,,Auxiliary,,,,,,Manual,None or Unspecified,None or Unspecified,Standard,,,,,,,,,,,
7026,2581511,16000,515603,149,1.0,2003,0.0,,12/7/2010 0:00,262,262,,,,,Skid Steer Loader - 2701.0+ Lb Operating Capacity,California,SSL,Skid Steer Loaders,,EROPS w AC,None or Unspecified,,,,,,,,,,Auxiliary,,,,,,Manual,None or Unspecified,None or Unspecified,Standard,,,,,,,,,,,
7026,2581516,15500,447556,149,99.0,2005,0.0,,7/15/2010 0:00,262,262,,,,,Skid Steer Loader - 2701.0+ Lb Operating Capacity,California,SSL,Skid Steer Loaders,,OROPS,None or Unspecified,,,,,,,,,,Standard,,,,,,Manual,None or Unspecified,None or Unspecified,Standard,,,,,,,,,,,
7026,2581517,19000,453604,149,1.0,2003,0.0,,3/30/2011 0:00,262,262,,,,,Skid Steer Loader - 2701.0+ Lb Operating Capacity,California,SSL,Skid Steer Loaders,,OROPS,None or Unspecified,,,,,,,,,,Auxiliary,,,,,,Manual,None or Unspecified,None or Unspecified,Standard,,,,,,,,,,,
7026,2581518,11000,1441687,149,1.0,2003,0.0,,5/6/2010 0:00,262,262,,,,,Skid Steer Loader - 2701.0+ Lb Operating Capacity,Texas,SSL,Skid Steer Loaders,,OROPS,None or Unspecified,,,,,,,,,,Auxiliary,,,,,,Manual,None or Unspecified,None or Unspecified,Standard,,,,,,,,,,,
7026,2581521,12000,154305,149,1.0,2003,2677.0,Medium,6/9/2011 0:00,262,262,,,,,Skid Steer Loader - 2701.0+ Lb Operating Capacity,Georgia,SSL,Skid Steer Loaders,,OROPS,Yes,,,,,,,,,,Auxiliary,,,,,,Manual,None or Unspecified,None or Unspecified,Standard,,,,,,,,,,,
7026,2581532,11500,514302,149,99.0,2003,350.0,Low,9/30/2010 0:00,262,262,,,,,Skid Steer Loader - 2701.0+ Lb Operating Capacity,California,SSL,Skid Steer Loaders,,OROPS,None or Unspecified,,,,,,,,,,Standard,,,,,,Hydraulic,None or Unspecified,None or Unspecified,Standard,,,,,,,,,,,
7026,2581534,13000,113477,149,27.0,2004,577.0,Low,12/28/2010 0:00,262,262,,,,,Skid Steer Loader - 2701.0+ Lb Operating Capacity,North Carolina,SSL,Skid Steer Loaders,,OROPS,None or Unspecified,,,,,,,,,,Auxiliary,,,,,,Manual,None or Unspecified,None or Unspecified,Standard,,,,,,,,,,,
7026,2581537,15500,513843,149,1.0,2003,1359.0,Low,9/28/2010 0:00,262,262,,,,,Skid Steer Loader - 2701.0+ Lb Operating Capacity,California,SSL,Skid Steer Loaders,,OROPS,None or Unspecified,,,,,,,,,,Auxiliary,,,,,,Manual,None or Unspecified,None or Unspecified,Standard,,,,,,,,,,,
7026,4294758,12500,762757,172,1.0,2003,8730.0,High,2/15/2010 0:00,262,262,,,,,Skid Steer Loader - 2701.0+ Lb Operating Capacity,Florida,SSL,Skid Steer Loaders,,OROPS,None or Unspecified,,,,,,,,,,Auxiliary,,,,,,Manual,None or Unspecified,None or Unspecified,Standard,,,,,,,,,,,
7026,4294766,18000,2294955,172,1.0,2004,2891.0,Medium,11/17/2011 0:00,262,262,,,,,Skid Steer Loader - 2701.0+ Lb Operating Capacity,Nevada,SSL,Skid Steer Loaders,,EROPS w AC,None or Unspecified,,,,,,,,,,Auxiliary,,,,,,None or Unspecified,None or Unspecified,Yes,Standard,,,,,,,,,,,
7026,4294768,16500,2294955,172,1.0,2003,1615.0,Medium,6/21/2011 0:00,262,262,,,,,Skid Steer Loader - 2701.0+ Lb Operating Capacity,Texas,SSL,Skid Steer Loaders,,EROPS w AC,None or Unspecified,,,,,,,,,,Auxiliary,,,,,,None or Unspecified,None or Unspecified,Yes,Standard,,,,,,,,,,,
7026,4294769,12500,2294955,172,1.0,2004,1875.0,Medium,9/27/2011 0:00,262,262,,,,,Skid Steer Loader - 2701.0+ Lb Operating Capacity,North Carolina,SSL,Skid Steer Loaders,,EROPS w AC,None or Unspecified,,,,,,,,,,Auxiliary,,,,,,None or Unspecified,None or Unspecified,Yes,Standard,,,,,,,,,,,
7026,6274782,11000,215727,149,2.0,1000,,,9/24/2011 0:00,262,262,,,,,Skid Steer Loader - 2701.0+ Lb Operating Capacity,New Jersey,SSL,Skid Steer Loaders,,OROPS,None or Unspecified,,,,,,,,,,Standard,,,,,,None or Unspecified,None or Unspecified,None or Unspecified,Standard,,,,,,,,,,,
7026,6274788,18000,316466,149,1.0,2004,,,11/18/2011 0:00,262,262,,,,,Skid Steer Loader - 2701.0+ Lb Operating Capacity,Nevada,SSL,Skid Steer Loaders,,OROPS,None or Unspecified,,,,,,,,,,Auxiliary,,,,,,Manual,None or Unspecified,None or Unspecified,Standard,,,,,,,,,,,
7026,6274789,12500,162114,149,1.0,2004,,,9/28/2011 0:00,262,262,,,,,Skid Steer Loader - 2701.0+ Lb Operating Capacity,North Carolina,SSL,Skid Steer Loaders,,OROPS,None or Unspecified,,,,,,,,,,Auxiliary,,,,,,Manual,None or Unspecified,None or Unspecified,Standard,,,,,,,,,,,
7026,6276234,16500,1943358,149,1.0,2003,,,6/22/2011 0:00,262,262,,,,,Skid Steer Loader - 2701.0+ Lb Operating Capacity,Texas,SSL,Skid Steer Loaders,,EROPS w AC,None or Unspecified,,,,,,,,,,Auxiliary,,,,,,None or Unspecified,None or Unspecified,None or Unspecified,Standard,,,,,,,,,,,
