ModelID,SalesID,SalePrice,MachineID,datasource,auctioneerID,YearMade,MachineHoursCurrentMeter,UsageBand,saledate,fiModelDesc,fiBaseModel,fiSecondaryDesc,fiModelSeries,fiModelDescriptor,ProductSize,fiProductClassDesc,state,ProductGroup,ProductGroupDesc,Drive_System,Enclosure,Forks,Pad_Type,Ride_Control,Stick,Transmission,Turbocharged,Blade_Extension,Blade_Width,Enclosure_Type,Engine_Horsepower,Hydraulics,Pushblock,Ripper,Scarifier,Tip_Control,Tire_Size,Coupler,Coupler_System,Grouser_Tracks,Hydraulics_Flow,Track_Type,Undercarriage_Pad_Width,Stick_Length,Thumb,Pattern_Changer,Grouser_Type,Backhoe_Mounting,Blade_Type,Travel_Controls,Differential_Type,Steering_Controls
7080,1494258,27250,1341207,132,12.0,1994,,,9/23/2009 0:00,330,330,,,,Large / Medium,"Hydraulic Excavator, Track - 28.0 to 33.0 Metric Tons",South Carolina,TEX,Track Excavators,,EROPS w AC,,,,,,,,,,,Standard,,,,,,None or Unspecified,,,,Steel,None or Unspecified,"8' 4""",None or Unspecified,None or Unspecified,Double,,,,,
7080,1494264,37000,1135766,132,1.0,1994,,,6/4/2004 0:00,330,330,,,,Large / Medium,"Hydraulic Excavator, Track - 28.0 to 33.0 Metric Tons",Minnesota,TEX,Track Excavators,,EROPS,,,,,,,,,,,Standard,,,,,,None or Unspecified,,,,Steel,None or Unspecified,None or Unspecified,None or Unspecified,None or Unspecified,Double,,,,,
7080,1494267,75000,1498145,132,1.0,1995,,,9/17/1998 0:00,330,330,,,,Large / Medium,"Hydraulic Excavator, Track - 28.0 to 33.0 Metric Tons",Washington,TEX,Track Excavators,,EROPS,,,,,,,,,,,Standard,,,,,,None or Unspecified,,,,Steel,None or Unspecified,None or Unspecified,None or Unspecified,None or Unspecified,Double,,,,,
7080,1494268,77500,1102650,132,1.0,1995,,,9/17/1998 0:00,330,330,,,,Large / Medium,"Hydraulic Excavator, Track - 28.0 to 33.0 Metric Tons",Washington,TEX,Track Excavators,,EROPS,,,,,,,,,,,Standard,,,,,,None or Unspecified,,,,Steel,None or Unspecified,None or Unspecified,None or Unspecified,None or Unspecified,Double,,,,,
7080,1494269,97500,1345288,132,1.0,1995,,,9/17/1998 0:00,330,330,,,,Large / Medium,"Hydraulic Excavator, Track - 28.0 to 33.0 Metric Tons",Washington,TEX,Track Excavators,,EROPS,,,,,,,,,,,Standard,,,,,,None or Unspecified,,,,Steel,None or Unspecified,None or Unspecified,None or Unspecified,None or Unspecified,Double,,,,,
7080,1494270,93000,1409397,132,1.0,1995,,,9/17/1998 0:00,330,330,,,,Large / Medium,"Hydraulic Excavator, Track - 28.0 to 33.0 Metric Tons",Washington,TEX,Track Excavators,,EROPS,,,,,,,,,,,Standard,,,,,,None or Unspecified,,,,Steel,None or Unspecified,None or Unspecified,None or Unspecified,None or Unspecified,Double,,,,,
7080,1494272,83000,1112641,132,9.0,1995,,,4/6/2000 0:00,330,330,,,,Large / Medium,"Hydraulic Excavator, Track - 28.0 to 33.0 Metric Tons",Texas,TEX,Track Excavators,,EROPS w AC,,,,,,,,,,,Standard,,,,,,None or Unspecified,,,,Steel,30 inch,None or Unspecified,None or Unspecified,None or Unspecified,Triple,,,,,
7080,1494273,81000,1112641,132,9.0,1995,,,2/15/2000 0:00,330,330,,,,Large / Medium,"Hydraulic Excavator, Track - 28.0 to 33.0 Metric Tons",Florida,TEX,Track Excavators,,EROPS w AC,,,,,,,,,,,Standard,,,,,,None or Unspecified,,,,Steel,30 inch,None or Unspecified,None or Unspecified,None or Unspecified,Triple,,,,,
7080,1494274,85000,1112641,132,9.0,1995,,,12/8/1999 0:00,330,330,,,,Large / Medium,"Hydraulic Excavator, Track - 28.0 to 33.0 Metric Tons",South Carolina,TEX,Track Excavators,,EROPS w AC,,,,,,,,,,,Standard,,,,,,None or Unspecified,,,,Steel,30 inch,None or Unspecified,None or Unspecified,None or Unspecified,Triple,,,,,
7080,1494276,102500,1127541,132,1.0,1995,,,9/17/1998 0:00,330,330,,,,Large / Medium,"Hydraulic Excavator, Track - 28.0 to 33.0 Metric Tons",Washington,TEX,Track Excavators,,EROPS,,,,,,,,,,,Standard,,,,,,None or Unspecified,,,,Steel,None or Unspecified,None or Unspecified,None or Unspecified,None or Unspecified,Double,,,,,
7080,1494277,50000,1456590,132,1.0,1995,,,6/28/2006 0:00,330,330,,,,Large / Medium,"Hydraulic Excavator, Track - 28.0 to 33.0 Metric Tons",California,TEX,Track Excavators,,EROPS,,,,,,,,,,,Standard,,,,,,None or Unspecified,,,,Steel,None or Unspecified,"10' 6""",None or Unspecified,None or Unspecified,Double,,,,,
7080,1494278,102500,1456590,132,1.0,1995,,,9/17/1998 0:00,330,330,,,,Large / Medium,"Hydraulic Excavator, Track - 28.0 to 33.0 Metric Tons",Washington,TEX,Track Excavators,,EROPS,,,,,,,,,,,Standard,,,,,,None or Unspecified,,,,Steel,None or Unspecified,"10' 6""",None or Unspecified,None or Unspecified,Double,,,,,
7080,1494279,102500,1195071,132,1.0,1995,,,9/17/1998 0:00,330,330,,,,Large / Medium,"Hydraulic Excavator, Track - 28.0 to 33.0 Metric Tons",Washington,TEX,Track Excavators,,EROPS,,,,,,,,,,,Standard,,,,,,None or Unspecified,,,,Steel,None or Unspecified,None or Unspecified,None or Unspecified,None or Unspecified,Double,,,,,
7080,1494281,96000,1087741,132,1.0,1995,,,9/17/1998 0:00,330,330,,,,Large / Medium,"Hydraulic Excavator, Track - 28.0 to 33.0 Metric Tons",Washington,TEX,Track Excavators,,EROPS,,,,,,,,,,,Standard,,,,,,None or Unspecified,,,,Steel,None or Unspecified,None or Unspecified,None or Unspecified,None or Unspecified,Double,,,,,
7080,1494283,100000,1229284,132,1.0,1995,,,9/17/1998 0:00,330,330,,,,Large / Medium,"Hydraulic Excavator, Track - 28.0 to 33.0 Metric Tons",Washington,TEX,Track Excavators,,EROPS w AC,,,,,,,,,,,Auxiliary,,,,,,None or Unspecified,,,,Steel,None or Unspecified,"11' 0""",None or Unspecified,None or Unspecified,Double,,,,,
7080,1494287,64000,633137,132,1.0,1996,,,9/20/2006 0:00,330,330,,,,Large / Medium,"Hydraulic Excavator, Track - 28.0 to 33.0 Metric Tons",Washington,TEX,Track Excavators,,EROPS,,,,,,,,,,,Standard,,,,,,None or Unspecified,,,,Steel,None or Unspecified,"11' 0""",Manual,None or Unspecified,Double,,,,,
7080,1494290,70000,1379789,132,6.0,1996,,,11/18/1998 0:00,330,330,,,,Large / Medium,"Hydraulic Excavator, Track - 28.0 to 33.0 Metric Tons",Texas,TEX,Track Excavators,,EROPS w AC,,,,,,,,,,,Standard,,,,,,None or Unspecified,,,,Steel,24 inch,None or Unspecified,None or Unspecified,None or Unspecified,Double,,,,,
7080,1494291,57000,1482500,132,1.0,1996,,,8/26/2004 0:00,330,330,,,,Large / Medium,"Hydraulic Excavator, Track - 28.0 to 33.0 Metric Tons",Missouri,TEX,Track Excavators,,EROPS w AC,,,,,,,,,,,Standard,,,,,,None or Unspecified,,,,Steel,24 inch,None or Unspecified,None or Unspecified,None or Unspecified,Double,,,,,
7080,1494292,66000,1482500,132,1.0,1996,,,9/17/2003 0:00,330,330,,,,Large / Medium,"Hydraulic Excavator, Track - 28.0 to 33.0 Metric Tons",Texas,TEX,Track Excavators,,EROPS w AC,,,,,,,,,,,Standard,,,,,,None or Unspecified,,,,Steel,24 inch,None or Unspecified,None or Unspecified,None or Unspecified,Double,,,,,
7080,1494293,70000,1482500,132,6.0,1996,,,11/18/1998 0:00,330,330,,,,Large / Medium,"Hydraulic Excavator, Track - 28.0 to 33.0 Metric Tons",Texas,TEX,Track Excavators,,EROPS w AC,,,,,,,,,,,Standard,,,,,,None or Unspecified,,,,Steel,24 inch,None or Unspecified,None or Unspecified,None or Unspecified,Double,,,,,
7080,1525959,90000,1276403,132,1.0,1992,,,6/5/1996 0:00,330,330,,,,Large / Medium,"Hydraulic Excavator, Track - 28.0 to 33.0 Metric Tons",Texas,TEX,Track Excavators,,EROPS w AC,,,,,,,,,,,Standard,,,,,,None or Unspecified,,,,Steel,30 inch,"10' 10""",None or Unspecified,None or Unspecified,Triple,,,,,
7080,1525960,97500,1276403,132,4.0,1992,,,2/8/1996 0:00,330,330,,,,Large / Medium,"Hydraulic Excavator, Track - 28.0 to 33.0 Metric Tons",Florida,TEX,Track Excavators,,EROPS w AC,,,,,,,,,,,Standard,,,,,,None or Unspecified,,,,Steel,30 inch,"10' 10""",None or Unspecified,None or Unspecified,Triple,,,,,
7080,1525962,54000,1083405,132,6.0,1992,,,8/19/1998 0:00,330,330,,,,Large / Medium,"Hydraulic Excavator, Track - 28.0 to 33.0 Metric Tons",California,TEX,Track Excavators,,EROPS,,,,,,,,,,,Standard,,,,,,None or Unspecified,,,,Steel,30 inch,"10' 10""",None or Unspecified,None or Unspecified,Double,,,,,
7080,1525963,47500,1300619,132,1.0,1992,,,12/4/1998 0:00,330,330,,,,Large / Medium,"Hydraulic Excavator, Track - 28.0 to 33.0 Metric Tons",California,TEX,Track Excavators,,EROPS,,,,,,,,,,,Standard,,,,,,None or Unspecified,,,,Steel,None or Unspecified,None or Unspecified,None or Unspecified,None or Unspecified,Double,,,,,
7080,1525967,65000,1518216,132,9.0,1992,,,12/8/1999 0:00,330,330,,,,Large / Medium,"Hydraulic Excavator, Track - 28.0 to 33.0 Metric Tons",South Carolina,TEX,Track Excavators,,EROPS,,,,,,,,,,,Standard,,,,,,None or Unspecified,,,,Steel,None or Unspecified,None or Unspecified,None or Unspecified,None or Unspecified,Double,,,,,
7080,1525968,63000,1518216,132,9.0,1992,,,5/17/2001 0:00,330,330,,,,Large / Medium,"Hydraulic Excavator, Track - 28.0 to 33.0 Metric Tons",South Carolina,TEX,Track Excavators,,EROPS,,,,,,,,,,,Standard,,,,,,None or Unspecified,,,,Steel,None or Unspecified,None or Unspecified,None or Unspecified,None or Unspecified,Double,,,,,
7080,1525969,47500,1518216,132,9.0,1992,,,8/31/2000 0:00,330,330,,,,Large / Medium,"Hydraulic Excavator, Track - 28.0 to 33.0 Metric Tons",South Carolina,TEX,Track Excavators,,EROPS,,,,,,,,,,,Standard,,,,,,None or Unspecified,,,,Steel,None or Unspecified,None or Unspecified,None or Unspecified,None or Unspecified,Double,,,,,
7080,1525970,64000,1518216,132,9.0,1992,,,11/16/2000 0:00,330,330,,,,Large / Medium,"Hydraulic Excavator, Track - 28.0 to 33.0 Metric Tons",South Carolina,TEX,Track Excavators,,EROPS,,,,,,,,,,,Standard,,,,,,None or Unspecified,,,,Steel,None or Unspecified,None or Unspecified,None or Unspecified,None or Unspecified,Double,,,,,
7080,1525971,66000,1115698,132,2.0,1992,,,4/24/1999 0:00,330,330,,,,Large / Medium,"Hydraulic Excavator, Track - 28.0 to 33.0 Metric Tons",Ohio,TEX,Track Excavators,,EROPS,,,,,,,,,,,Standard,,,,,,None or Unspecified,,,,Steel,None or Unspecified,None or Unspecified,None or Unspecified,None or Unspecified,Double,,,,,
7080,1525978,40000,1200954,132,2.0,1993,,,3/27/2003 0:00,330,330,,,,Large / Medium,"Hydraulic Excavator, Track - 28.0 to 33.0 Metric Tons",New Jersey,TEX,Track Excavators,,EROPS,,,,,,,,,,,Auxiliary,,,,,,None or Unspecified,,,,Steel,30 inch,"10' 10""",None or Unspecified,None or Unspecified,Double,,,,,
7080,1525979,91000,1200954,132,5.0,1993,,,3/6/1999 0:00,330,330,,,,Large / Medium,"Hydraulic Excavator, Track - 28.0 to 33.0 Metric Tons",Connecticut,TEX,Track Excavators,,EROPS,,,,,,,,,,,Auxiliary,,,,,,None or Unspecified,,,,Steel,30 inch,"10' 10""",None or Unspecified,None or Unspecified,Double,,,,,
7080,1525981,70000,1543252,132,4.0,1993,6235.0,Medium,2/4/1999 0:00,330,330,,,,Large / Medium,"Hydraulic Excavator, Track - 28.0 to 33.0 Metric Tons",Florida,TEX,Track Excavators,,EROPS w AC,,,,,,,,,,,Auxiliary,,,,,,None or Unspecified,,,,Steel,28 inch,"10' 10""",None or Unspecified,None or Unspecified,Triple,,,,,
7080,1525983,81000,1365463,132,4.0,1993,5162.0,Medium,2/4/1999 0:00,330,330,,,,Large / Medium,"Hydraulic Excavator, Track - 28.0 to 33.0 Metric Tons",Florida,TEX,Track Excavators,,EROPS w AC,,,,,,,,,,,Standard,,,,,,None or Unspecified,,,,Steel,28 inch,None or Unspecified,None or Unspecified,None or Unspecified,Triple,,,,,
7080,1525986,74000,1552563,132,5.0,1993,,,9/15/2000 0:00,330,330,,,,Large / Medium,"Hydraulic Excavator, Track - 28.0 to 33.0 Metric Tons",Connecticut,TEX,Track Excavators,,EROPS,,,,,,,,,,,Standard,,,,,,None or Unspecified,,,,Steel,30 inch,"11' 0""",None or Unspecified,None or Unspecified,Double,,,,,
7080,1525988,72000,1338502,132,5.0,1993,,,6/16/2000 0:00,330,330,,,,Large / Medium,"Hydraulic Excavator, Track - 28.0 to 33.0 Metric Tons",Connecticut,TEX,Track Excavators,,EROPS,,,,,,,,,,,Standard,,,,,,None or Unspecified,,,,Steel,24 inch,"11' 0""",None or Unspecified,None or Unspecified,Double,,,,,
7080,1525989,74000,1390448,132,2.0,1994,,,2/7/2000 0:00,330,330,,,,Large / Medium,"Hydraulic Excavator, Track - 28.0 to 33.0 Metric Tons",Florida,TEX,Track Excavators,,EROPS,,,,,,,,,,,Standard,,,,,,None or Unspecified,,,,Steel,None or Unspecified,None or Unspecified,None or Unspecified,None or Unspecified,Double,,,,,
7080,1525990,80000,1390448,132,2.0,1994,,,12/11/1999 0:00,330,330,,,,Large / Medium,"Hydraulic Excavator, Track - 28.0 to 33.0 Metric Tons",Pennsylvania,TEX,Track Excavators,,EROPS,,,,,,,,,,,Standard,,,,,,None or Unspecified,,,,Steel,None or Unspecified,None or Unspecified,None or Unspecified,None or Unspecified,Double,,,,,
7080,1525991,81000,1421078,132,2.0,1994,,,5/20/2000 0:00,330,330,,,,Large / Medium,"Hydraulic Excavator, Track - 28.0 to 33.0 Metric Tons",Connecticut,TEX,Track Excavators,,EROPS,,,,,,,,,,,Standard,,,,,,None or Unspecified,,,,Steel,None or Unspecified,None or Unspecified,None or Unspecified,None or Unspecified,Double,,,,,
7080,1526158,80000,1278582,132,9.0,1992,,,2/9/1999 0:00,330,330,,,,Large / Medium,"Hydraulic Excavator, Track - 28.0 to 33.0 Metric Tons",Florida,TEX,Track Excavators,,EROPS,,,,,,,,,,,Standard,,,,,,None or Unspecified,,,,Steel,None or Unspecified,None or Unspecified,None or Unspecified,None or Unspecified,Double,,,,,
7080,1526171,100000,1265104,132,6.0,1994,,,6/25/1998 0:00,330,330,,,,Large / Medium,"Hydraulic Excavator, Track - 28.0 to 33.0 Metric Tons",New Mexico,TEX,Track Excavators,,EROPS,,,,,,,,,,,Standard,,,,,,None or Unspecified,,,,Steel,30 inch,"11' 0""",None or Unspecified,None or Unspecified,Double,,,,,
7080,1526178,49000,1140923,132,1.0,1995,,,5/27/2004 0:00,330,330,,,,Large / Medium,"Hydraulic Excavator, Track - 28.0 to 33.0 Metric Tons",Florida,TEX,Track Excavators,,EROPS,,,,,,,,,,,Standard,,,,,,None or Unspecified,,,,Steel,None or Unspecified,None or Unspecified,None or Unspecified,None or Unspecified,Double,,,,,
7080,1526181,49000,1281291,132,1.0,1995,,,5/27/2004 0:00,330,330,,,,Large / Medium,"Hydraulic Excavator, Track - 28.0 to 33.0 Metric Tons",Florida,TEX,Track Excavators,,EROPS,,,,,,,,,,,Standard,,,,,,None or Unspecified,,,,Steel,None or Unspecified,None or Unspecified,None or Unspecified,None or Unspecified,Double,,,,,
7080,1526185,50000,1097381,132,1.0,1995,,,12/12/2000 0:00,330,330,,,,Large / Medium,"Hydraulic Excavator, Track - 28.0 to 33.0 Metric Tons",California,TEX,Track Excavators,,EROPS w AC,,,,,,,,,,,Standard,,,,,,None or Unspecified,,,,Steel,24 inch,"10' 10""",None or Unspecified,None or Unspecified,Double,,,,,
7080,1526186,60000,1113384,132,19.0,1997,,,6/30/2006 0:00,330,330,,,,Large / Medium,"Hydraulic Excavator, Track - 28.0 to 33.0 Metric Tons",Nevada,TEX,Track Excavators,,EROPS w AC,,,,,,,,,,,Standard,,,,,,None or Unspecified,,,,Steel,30 inch,"10' 10""",None or Unspecified,None or Unspecified,Triple,,,,,
7080,1526190,66000,1417148,132,1.0,1995,,,6/8/2004 0:00,330,330,,,,Large / Medium,"Hydraulic Excavator, Track - 28.0 to 33.0 Metric Tons",California,TEX,Track Excavators,,EROPS,,,,,,,,,,,Auxiliary,,,,,,Manual,,,,Steel,None or Unspecified,None or Unspecified,Hydraulic,None or Unspecified,Double,,,,,
7080,1530312,39500,527663,132,2.0,1993,,,2/6/2009 0:00,330,330,,,,Large / Medium,"Hydraulic Excavator, Track - 28.0 to 33.0 Metric Tons",Florida,TEX,Track Excavators,,EROPS w AC,,,,,,,,,,,Standard,,,,,,None or Unspecified,,,,Steel,33 inch,"12' 10""",None or Unspecified,None or Unspecified,Triple,,,,,
7080,1530313,60000,459394,132,1.0,1993,,,3/14/2000 0:00,330,330,,,,Large / Medium,"Hydraulic Excavator, Track - 28.0 to 33.0 Metric Tons",Texas,TEX,Track Excavators,,EROPS,,,,,,,,,,,Standard,,,,,,None or Unspecified,,,,Steel,None or Unspecified,None or Unspecified,None or Unspecified,Yes,Double,,,,,
7080,2271803,32500,1341207,136,1.0,1994,0.0,,2/15/2010 0:00,330,330,,,,Large / Medium,"Hydraulic Excavator, Track - 28.0 to 33.0 Metric Tons",Florida,TEX,Track Excavators,,EROPS w AC,,,,,,,,,,,Standard,,,,,,None or Unspecified,,,,Steel,None or Unspecified,"8' 4""",None or Unspecified,None or Unspecified,Double,,,,,
7080,2271804,29000,1341207,136,12.0,1000,0.0,,6/17/2009 0:00,330,330,,,,Large / Medium,"Hydraulic Excavator, Track - 28.0 to 33.0 Metric Tons",South Carolina,TEX,Track Excavators,,EROPS w AC,,,,,,,,,,,Standard,,,,,,None or Unspecified,,,,Steel,None or Unspecified,"8' 4""",None or Unspecified,None or Unspecified,Double,,,,,
7080,2280523,39500,527663,136,2.0,1000,0.0,,1/31/2009 0:00,330,330,,,,Large / Medium,"Hydraulic Excavator, Track - 28.0 to 33.0 Metric Tons",Florida,TEX,Track Excavators,,EROPS w AC,,,,,,,,,,,Standard,,,,,,None or Unspecified,,,,Steel,33 inch,"12' 10""",None or Unspecified,None or Unspecified,Triple,,,,,
7080,4281237,50000,1229284,172,1.0,1995,9899.0,Low,11/9/2010 0:00,330,330,,,,Large / Medium,"Hydraulic Excavator, Track - 28.0 to 33.0 Metric Tons",New Mexico,TEX,Track Excavators,,EROPS w AC,,,,,,,,,,,Auxiliary,,,,,,None or Unspecified,,,,Steel,None or Unspecified,"11' 0""",None or Unspecified,None or Unspecified,Double,,,,,
