ModelID,SalesID,SalePrice,MachineID,datasource,auctioneerID,YearMade,MachineHoursCurrentMeter,UsageBand,saledate,fiModelDesc,fiBaseModel,fiSecondaryDesc,fiModelSeries,fiModelDescriptor,ProductSize,fiProductClassDesc,state,ProductGroup,ProductGroupDesc,Drive_System,Enclosure,Forks,Pad_Type,Ride_Control,Stick,Transmission,Turbocharged,Blade_Extension,Blade_Width,Enclosure_Type,Engine_Horsepower,Hydraulics,Pushblock,Ripper,Scarifier,Tip_Control,Tire_Size,Coupler,Coupler_System,Grouser_Tracks,Hydraulics_Flow,Track_Type,Undercarriage_Pad_Width,Stick_Length,Thumb,Pattern_Changer,Grouser_Type,Backhoe_Mounting,Blade_Type,Travel_Controls,Differential_Type,Steering_Controls
7292,1157027,50000,29606,121,3.0,1997,9213.0,Low,6/9/2011 0:00,990,990,,,,Large,Wheel Loader - 500.0 to 1000.0 Horsepower,Alabama,WL,Wheel Loader,,EROPS w AC,None or Unspecified,,None or Unspecified,,,,,,,,2 Valve,,,,,None or Unspecified,None or Unspecified,,,,,,,,,,,,,Standard,Conventional
7292,1203083,40000,154259,121,3.0,1000,38540.0,Medium,6/3/2010 0:00,990,990,,,,Large,Wheel Loader - 500.0 to 1000.0 Horsepower,Kentucky,WL,Wheel Loader,,EROPS w AC,None or Unspecified,,None or Unspecified,,,,,,,,2 Valve,,,,,None or Unspecified,None or Unspecified,,,,,,,,,,,,,Standard,Conventional
7292,1214404,103000,804430,121,3.0,1997,36050.0,Medium,6/30/2011 0:00,990,990,,,,Large,Wheel Loader - 500.0 to 1000.0 Horsepower,New York,WL,Wheel Loader,,EROPS w AC,None or Unspecified,,None or Unspecified,,,,,,,,2 Valve,,,,,None or Unspecified,None or Unspecified,,,,,,,,,,,,,Standard,Conventional
7292,1217850,54000,154827,121,3.0,1000,34989.0,Medium,9/22/2011 0:00,990,990,,,,Large,Wheel Loader - 500.0 to 1000.0 Horsepower,Georgia,WL,Wheel Loader,,EROPS w AC,None or Unspecified,,None or Unspecified,,,,,,,,2 Valve,,,,,None or Unspecified,None or Unspecified,,,,,,,,,,,,,Standard,Conventional
7292,1219347,57000,1047224,121,3.0,1000,,,10/19/2011 0:00,990,990,,,,Large,Wheel Loader - 500.0 to 1000.0 Horsepower,Michigan,WL,Wheel Loader,,EROPS w AC,None or Unspecified,,None or Unspecified,,,,,,,,2 Valve,,,,,None or Unspecified,None or Unspecified,,,,,,,,,,,,,Standard,Conventional
7292,1466067,100000,1288864,132,1.0,1995,,,12/13/2006 0:00,990,990,,,,Large,Wheel Loader - 500.0 to 1000.0 Horsepower,Maryland,WL,Wheel Loader,,EROPS w AC,None or Unspecified,,None or Unspecified,,,,,,,,2 Valve,,,,,None or Unspecified,None or Unspecified,,,,,,,,,,,,,Standard,Conventional
7292,2263144,100000,628118,136,1.0,1994,0.0,,11/28/2007 0:00,990,990,,,,Large,Wheel Loader - 500.0 to 1000.0 Horsepower,Washington,WL,Wheel Loader,,EROPS,None or Unspecified,,Yes,,,,,,,,2 Valve,,,,,None or Unspecified,None or Unspecified,,,,,,,,,,,,,Standard,Conventional
7292,2263148,97500,513429,136,1.0,1995,0.0,,5/22/2007 0:00,990,990,,,,Large,Wheel Loader - 500.0 to 1000.0 Horsepower,California,WL,Wheel Loader,,EROPS w AC,None or Unspecified,,None or Unspecified,,,,,,,,2 Valve,,,,,None or Unspecified,None or Unspecified,,,,,,,,,,,,,Standard,Conventional
7292,2291765,32000,1659501,136,2.0,1000,0.0,,6/8/2010 0:00,990,990,,,,Large,Wheel Loader - 500.0 to 1000.0 Horsepower,Texas,WL,Wheel Loader,,EROPS,None or Unspecified,,None or Unspecified,,,,,,,,2 Valve,,,,,None or Unspecified,Manual,,,,,,,,,,,,,Standard,Conventional
7292,2529255,80000,486569,149,1.0,1998,32767.0,Medium,3/9/2011 0:00,990,990,,,,Large,Wheel Loader - 500.0 to 1000.0 Horsepower,Texas,WL,Wheel Loader,,EROPS w AC,None or Unspecified,,None or Unspecified,,,,,,,,2 Valve,,,,,None or Unspecified,None or Unspecified,,,,,,,,,,,,,Standard,Conventional
7292,2529256,75000,465805,149,1.0,1996,32767.0,Medium,3/9/2011 0:00,990,990,,,,Large,Wheel Loader - 500.0 to 1000.0 Horsepower,Texas,WL,Wheel Loader,,EROPS w AC,None or Unspecified,,None or Unspecified,,,,,,,,2 Valve,,,,,None or Unspecified,None or Unspecified,,,,,,,,,,,,,Standard,Conventional
7292,2549610,80000,480829,149,1.0,1994,32767.0,Medium,3/9/2011 0:00,990,990,,,,Large,Wheel Loader - 500.0 to 1000.0 Horsepower,Texas,WL,Wheel Loader,,EROPS w AC,None or Unspecified,,None or Unspecified,,,,,,,,2 Valve,,,,,None or Unspecified,None or Unspecified,,,,,,,,,,,,,Standard,Conventional
7292,4277535,70000,717180,172,1.0,1994,46263.0,High,3/30/2011 0:00,990,990,,,,Large,Wheel Loader - 500.0 to 1000.0 Horsepower,California,WL,Wheel Loader,,EROPS w AC,None or Unspecified,,None or Unspecified,,,,,,,,2 Valve,,,,,None or Unspecified,None or Unspecified,,,,,,,,,,,,,Standard,Conventional
7292,4277536,62500,719948,172,1.0,1994,56785.0,High,3/30/2011 0:00,990,990,,,,Large,Wheel Loader - 500.0 to 1000.0 Horsepower,California,WL,Wheel Loader,,EROPS w AC,None or Unspecified,,None or Unspecified,,,,,,,,2 Valve,,,,,None or Unspecified,None or Unspecified,,,,,,,,,,,,,Standard,Conventional
7292,4277541,60000,2294825,172,1.0,1993,29259.0,Medium,10/6/2011 0:00,990,990,,,,Large,Wheel Loader - 500.0 to 1000.0 Horsepower,Illinois,WL,Wheel Loader,,EROPS w AC,None or Unspecified,,None or Unspecified,,,,,,,,2 Valve,,,,,None or Unspecified,None or Unspecified,,,,,,,,,,,,,Standard,Conventional
7292,6268466,60000,327971,149,1.0,1993,,,10/7/2011 0:00,990,990,,,,Large,Wheel Loader - 500.0 to 1000.0 Horsepower,Illinois,WL,Wheel Loader,,EROPS,None or Unspecified,,None or Unspecified,,,,,,,,2 Valve,,,,,None or Unspecified,None or Unspecified,,,,,,,,,,,,,Standard,Conventional
