ModelID,SalesID,SalePrice,MachineID,datasource,auctioneerID,YearMade,MachineHoursCurrentMeter,UsageBand,saledate,fiModelDesc,fiBaseModel,fiSecondaryDesc,fiModelSeries,fiModelDescriptor,ProductSize,fiProductClassDesc,state,ProductGroup,ProductGroupDesc,Drive_System,Enclosure,Forks,Pad_Type,Ride_Control,Stick,Transmission,Turbocharged,Blade_Extension,Blade_Width,Enclosure_Type,Engine_Horsepower,Hydraulics,Pushblock,Ripper,Scarifier,Tip_Control,Tire_Size,Coupler,Coupler_System,Grouser_Tracks,Hydraulics_Flow,Track_Type,Undercarriage_Pad_Width,Stick_Length,Thumb,Pattern_Changer,Grouser_Type,Backhoe_Mounting,Blade_Type,Travel_Controls,Differential_Type,Steering_Controls
7503,1316643,14500,1458174,132,5.0,1987,,,10/15/2005 0:00,E140,E140,,,,Small,"Hydraulic Excavator, Track - 14.0 to 16.0 Metric Tons",New Jersey,TEX,Track Excavators,,EROPS,,,,,,,,,,,Standard,,,,,,None or Unspecified,,,,Steel,18 inch,"11' 0""",None or Unspecified,None or Unspecified,Triple,,,,,
7503,1316644,19500,1507088,132,1.0,1988,,,8/15/2000 0:00,E140,E140,,,,Small,"Hydraulic Excavator, Track - 14.0 to 16.0 Metric Tons",Oregon,TEX,Track Excavators,,EROPS,,,,,,,,,,,Auxiliary,,,,,,None or Unspecified,,,,Steel,None or Unspecified,None or Unspecified,None or Unspecified,None or Unspecified,Double,,,,,
7503,1316645,21000,1478102,132,5.0,1987,,,6/14/2003 0:00,E140,E140,,,,Small,"Hydraulic Excavator, Track - 14.0 to 16.0 Metric Tons",Connecticut,TEX,Track Excavators,,EROPS,,,,,,,,,,,Standard,,,,,,None or Unspecified,,,,Steel,18 inch,None or Unspecified,None or Unspecified,None or Unspecified,Triple,,,,,
7503,1316648,18000,1398458,132,5.0,1988,,,3/23/2001 0:00,E140,E140,,,,Small,"Hydraulic Excavator, Track - 14.0 to 16.0 Metric Tons",Connecticut,TEX,Track Excavators,,EROPS,,,,,,,,,,,Auxiliary,,,,,,None or Unspecified,,,,Steel,18 inch,None or Unspecified,None or Unspecified,None or Unspecified,Double,,,,,
7503,1316650,18500,1542578,132,2.0,1988,,,5/26/2004 0:00,E140,E140,,,,Small,"Hydraulic Excavator, Track - 14.0 to 16.0 Metric Tons",Florida,TEX,Track Excavators,,EROPS,,,,,,,,,,,Standard,,,,,,None or Unspecified,,,,Steel,None or Unspecified,None or Unspecified,None or Unspecified,None or Unspecified,Double,,,,,
7503,1316651,17000,1239355,132,1.0,1988,,,6/27/2006 0:00,E140,E140,,,,Small,"Hydraulic Excavator, Track - 14.0 to 16.0 Metric Tons",North Carolina,TEX,Track Excavators,,EROPS,,,,,,,,,,,Standard,,,,,,None or Unspecified,,,,Steel,None or Unspecified,None or Unspecified,None or Unspecified,None or Unspecified,Double,,,,,
7503,1316653,9500,1448617,132,1.0,1988,,,3/7/2001 0:00,E140,E140,,,,Small,"Hydraulic Excavator, Track - 14.0 to 16.0 Metric Tons",Missouri,TEX,Track Excavators,,EROPS,,,,,,,,,,,Standard,,,,,,None or Unspecified,,,,Steel,None or Unspecified,None or Unspecified,None or Unspecified,None or Unspecified,Double,,,,,
7503,1316654,36500,1278722,132,4.0,1988,,,2/6/1997 0:00,E140,E140,,,,Small,"Hydraulic Excavator, Track - 14.0 to 16.0 Metric Tons",Florida,TEX,Track Excavators,,EROPS,,,,,,,,,,,Standard,,,,,,None or Unspecified,,,,Steel,None or Unspecified,None or Unspecified,None or Unspecified,None or Unspecified,Double,,,,,
7503,1316656,32000,1448786,132,10.0,1989,,,6/27/2001 0:00,E140,E140,,,,Small,"Hydraulic Excavator, Track - 14.0 to 16.0 Metric Tons",Louisiana,TEX,Track Excavators,,EROPS,,,,,,,,,,,Standard,,,,,,None or Unspecified,,,,Steel,None or Unspecified,None or Unspecified,None or Unspecified,None or Unspecified,Triple,,,,,
7503,1316658,16500,1187175,132,2.0,1989,,,3/27/2003 0:00,E140,E140,,,,Small,"Hydraulic Excavator, Track - 14.0 to 16.0 Metric Tons",New Jersey,TEX,Track Excavators,,EROPS,,,,,,,,,,,Standard,,,,,,None or Unspecified,,,,Steel,24 inch,None or Unspecified,None or Unspecified,None or Unspecified,Double,,,,,
7503,1316659,15500,1133188,132,5.0,1990,,,1/25/2002 0:00,E140,E140,,,,Small,"Hydraulic Excavator, Track - 14.0 to 16.0 Metric Tons",Connecticut,TEX,Track Excavators,,EROPS,,,,,,,,,,,Standard,,,,,,None or Unspecified,,,,Steel,30 inch,None or Unspecified,Manual,None or Unspecified,Double,,,,,
7503,1316660,23000,1245524,132,2.0,1990,,,2/4/2007 0:00,E140,E140,,,,Small,"Hydraulic Excavator, Track - 14.0 to 16.0 Metric Tons",Florida,TEX,Track Excavators,,EROPS,,,,,,,,,,,Standard,,,,,,None or Unspecified,,,,Steel,24 inch,None or Unspecified,None or Unspecified,None or Unspecified,Double,,,,,
7503,1316661,23000,1283774,132,2.0,1990,,,2/2/2003 0:00,E140,E140,,,,Small,"Hydraulic Excavator, Track - 14.0 to 16.0 Metric Tons",Florida,TEX,Track Excavators,,EROPS,,,,,,,,,,,Standard,,,,,,None or Unspecified,,,,Steel,20 inch,None or Unspecified,None or Unspecified,None or Unspecified,Double,,,,,
7503,1316662,14250,1295126,132,9.0,1991,,,2/18/2002 0:00,E140,E140,,,,Small,"Hydraulic Excavator, Track - 14.0 to 16.0 Metric Tons",Florida,TEX,Track Excavators,,EROPS,,,,,,,,,,,Standard,,,,,,None or Unspecified,,,,Steel,None or Unspecified,None or Unspecified,None or Unspecified,None or Unspecified,Double,,,,,
7503,1316663,25000,1236878,132,10.0,1991,,,3/26/2001 0:00,E140,E140,,,,Small,"Hydraulic Excavator, Track - 14.0 to 16.0 Metric Tons",Mississippi,TEX,Track Excavators,,EROPS,,,,,,,,,,,Standard,,,,,,None or Unspecified,,,,Steel,28 inch,None or Unspecified,None or Unspecified,None or Unspecified,Triple,,,,,
7503,1316664,30000,1236878,132,11.0,1991,,,12/6/2000 0:00,E140,E140,,,,Small,"Hydraulic Excavator, Track - 14.0 to 16.0 Metric Tons",Mississippi,TEX,Track Excavators,,EROPS,,,,,,,,,,,Standard,,,,,,None or Unspecified,,,,Steel,28 inch,None or Unspecified,None or Unspecified,None or Unspecified,Triple,,,,,
7503,1316665,32000,1236878,132,9.0,1991,,,2/21/2001 0:00,E140,E140,,,,Small,"Hydraulic Excavator, Track - 14.0 to 16.0 Metric Tons",Florida,TEX,Track Excavators,,EROPS,,,,,,,,,,,Standard,,,,,,None or Unspecified,,,,Steel,28 inch,None or Unspecified,None or Unspecified,None or Unspecified,Triple,,,,,
7503,1316666,32750,1321062,132,9.0,1991,,,11/16/2000 0:00,E140,E140,,,,Small,"Hydraulic Excavator, Track - 14.0 to 16.0 Metric Tons",South Carolina,TEX,Track Excavators,,EROPS,,,,,,,,,,,Standard,,,,,,None or Unspecified,,,,Steel,28 inch,None or Unspecified,None or Unspecified,None or Unspecified,Triple,,,,,
7503,1316667,36000,1382952,132,2.0,1991,,,2/2/1999 0:00,E140,E140,,,,Small,"Hydraulic Excavator, Track - 14.0 to 16.0 Metric Tons",Florida,TEX,Track Excavators,,EROPS,,,,,,,,,,,Standard,,,,,,None or Unspecified,,,,Steel,None or Unspecified,None or Unspecified,None or Unspecified,None or Unspecified,Double,,,,,
7503,1316668,33000,1468314,132,9.0,1991,,,8/30/2000 0:00,E140,E140,,,,Small,"Hydraulic Excavator, Track - 14.0 to 16.0 Metric Tons",South Carolina,TEX,Track Excavators,,EROPS,,,,,,,,,,,Standard,,,,,,None or Unspecified,,,,Steel,28 inch,None or Unspecified,None or Unspecified,None or Unspecified,Triple,,,,,
7503,1316669,29000,1411513,132,2.0,1991,,,2/5/2006 0:00,E140,E140,,,,Small,"Hydraulic Excavator, Track - 14.0 to 16.0 Metric Tons",Florida,TEX,Track Excavators,,EROPS,,,,,,,,,,,Standard,,,,,,None or Unspecified,,,,Steel,20 inch,None or Unspecified,None or Unspecified,None or Unspecified,Double,,,,,
7503,1316670,36000,1382751,132,6.0,1993,,,4/28/1998 0:00,E140,E140,,,,Small,"Hydraulic Excavator, Track - 14.0 to 16.0 Metric Tons",California,TEX,Track Excavators,,EROPS,,,,,,,,,,,Standard,,,,,,None or Unspecified,,,,Steel,20 inch,None or Unspecified,None or Unspecified,None or Unspecified,Double,,,,,
7503,1316671,22000,1320940,132,2.0,1993,,,1/30/2005 0:00,E140,E140,,,,Small,"Hydraulic Excavator, Track - 14.0 to 16.0 Metric Tons",Florida,TEX,Track Excavators,,EROPS,,,,,,,,,,,Standard,,,,,,None or Unspecified,,,,Steel,20 inch,None or Unspecified,None or Unspecified,None or Unspecified,Double,,,,,
7503,1316672,11500,1320940,132,2.0,1993,,,12/7/2006 0:00,E140,E140,,,,Small,"Hydraulic Excavator, Track - 14.0 to 16.0 Metric Tons",New York,TEX,Track Excavators,,EROPS,,,,,,,,,,,Standard,,,,,,None or Unspecified,,,,Steel,20 inch,None or Unspecified,None or Unspecified,None or Unspecified,Double,,,,,
7503,1316673,16750,1218527,132,12.0,1994,,,5/24/2001 0:00,E140,E140,,,,Small,"Hydraulic Excavator, Track - 14.0 to 16.0 Metric Tons",Kentucky,TEX,Track Excavators,,EROPS,,,,,,,,,,,Standard,,,,,,None or Unspecified,,,,Steel,None or Unspecified,None or Unspecified,None or Unspecified,None or Unspecified,Double,,,,,
