ModelID,SalesID,SalePrice,MachineID,datasource,auctioneerID,YearMade,MachineHoursCurrentMeter,UsageBand,saledate,fiModelDesc,fiBaseModel,fiSecondaryDesc,fiModelSeries,fiModelDescriptor,ProductSize,fiProductClassDesc,state,ProductGroup,ProductGroupDesc,Drive_System,Enclosure,Forks,Pad_Type,Ride_Control,Stick,Transmission,Turbocharged,Blade_Extension,Blade_Width,Enclosure_Type,Engine_Horsepower,Hydraulics,Pushblock,Ripper,Scarifier,Tip_Control,Tire_Size,Coupler,Coupler_System,Grouser_Tracks,Hydraulics_Flow,Track_Type,Undercarriage_Pad_Width,Stick_Length,Thumb,Pattern_Changer,Grouser_Type,Backhoe_Mounting,Blade_Type,Travel_Controls,Differential_Type,Steering_Controls
7852,1203141,9000,1012130,121,3.0,1000,,,7/22/2010 0:00,715,715,,,,,Motorgrader - 145.0 to 170.0 Horsepower,Florida,MG,Motor Graders,No,EROPS,,,,,Powershift,,None or Unspecified,12',None or Unspecified,No,Base + 1 Function,None or Unspecified,None or Unspecified,Yes,None or Unspecified,"14""",,,,,,,,,,,,,,,
7852,2325473,17000,1697888,136,,1000,0.0,,4/24/2007 0:00,715,715,,,,,Motorgrader - 145.0 to 170.0 Horsepower,Idaho,MG,Motor Graders,No,EROPS w AC,,,,,None or Unspecified,,None or Unspecified,14',None or Unspecified,No,Base + 1 Function,None or Unspecified,Yes,Yes,None or Unspecified,None or Unspecified,,,,,,,,,,,,,,,
7852,2325499,8000,1747575,136,9.0,1000,0.0,,5/15/2008 0:00,715,715,,,,,Motorgrader - 145.0 to 170.0 Horsepower,South Carolina,MG,Motor Graders,No,EROPS,,,,,None or Unspecified,,None or Unspecified,None or Unspecified,None or Unspecified,No,Base + 1 Function,None or Unspecified,None or Unspecified,Yes,None or Unspecified,None or Unspecified,,,,,,,,,,,,,,,
7852,2325939,21000,1761924,136,1.0,1000,0.0,,5/28/2008 0:00,715,715,,,,,Motorgrader - 145.0 to 170.0 Horsepower,Florida,MG,Motor Graders,No,EROPS,,,,,None or Unspecified,,None or Unspecified,14',None or Unspecified,No,Base + 1 Function,None or Unspecified,None or Unspecified,Yes,None or Unspecified,None or Unspecified,,,,,,,,,,,,,,,
7852,2325940,10000,1783011,136,1.0,1000,0.0,,4/1/2009 0:00,715,715,,,,,Motorgrader - 145.0 to 170.0 Horsepower,Maryland,MG,Motor Graders,No,EROPS,,,,,None or Unspecified,,None or Unspecified,12',None or Unspecified,No,Base + 1 Function,None or Unspecified,None or Unspecified,None or Unspecified,None or Unspecified,None or Unspecified,,,,,,,,,,,,,,,
7852,2325941,12000,1775224,136,1.0,1000,0.0,,4/2/2008 0:00,715,715,,,,,Motorgrader - 145.0 to 170.0 Horsepower,Maryland,MG,Motor Graders,No,OROPS,,,,,None or Unspecified,,None or Unspecified,12',None or Unspecified,No,Base + 1 Function,None or Unspecified,None or Unspecified,None or Unspecified,None or Unspecified,None or Unspecified,,,,,,,,,,,,,,,
7852,2325943,11000,1690726,136,2.0,1000,0.0,,1/31/2009 0:00,715,715,,,,,Motorgrader - 145.0 to 170.0 Horsepower,Florida,MG,Motor Graders,No,EROPS,,,,,None or Unspecified,,None or Unspecified,None or Unspecified,None or Unspecified,No,Base + 1 Function,None or Unspecified,None or Unspecified,None or Unspecified,None or Unspecified,None or Unspecified,,,,,,,,,,,,,,,
7852,2325948,9500,1691912,136,,1000,0.0,,10/27/2007 0:00,715,715,,,,,Motorgrader - 145.0 to 170.0 Horsepower,Michigan,MG,Motor Graders,No,EROPS,,,,,None or Unspecified,,None or Unspecified,14',None or Unspecified,No,Base + 1 Function,None or Unspecified,None or Unspecified,None or Unspecified,None or Unspecified,None or Unspecified,,,,,,,,,,,,,,,
7852,2325950,9000,1741270,136,,1000,0.0,,10/14/2009 0:00,715,715,,,,,Motorgrader - 145.0 to 170.0 Horsepower,Florida,MG,Motor Graders,No,EROPS,,,,,None or Unspecified,,None or Unspecified,14',None or Unspecified,No,Base + 1 Function,None or Unspecified,None or Unspecified,Yes,None or Unspecified,"14""",,,,,,,,,,,,,,,
7852,2325951,10000,1641846,136,1.0,1000,0.0,,9/10/2008 0:00,715,715,,,,,Motorgrader - 145.0 to 170.0 Horsepower,Alabama,MG,Motor Graders,No,EROPS,,,,,None or Unspecified,,None or Unspecified,12',None or Unspecified,No,Base + 1 Function,None or Unspecified,None or Unspecified,None or Unspecified,Tip,"14""",,,,,,,,,,,,,,,
7852,2325955,10500,1734395,136,1.0,1000,0.0,,10/3/2007 0:00,715,715,,,,,Motorgrader - 145.0 to 170.0 Horsepower,Maryland,MG,Motor Graders,No,EROPS,,,,,None or Unspecified,,None or Unspecified,12',None or Unspecified,No,Base + 1 Function,None or Unspecified,None or Unspecified,Yes,None or Unspecified,None or Unspecified,,,,,,,,,,,,,,,
7852,2325957,11000,1700509,136,,1000,0.0,,7/24/2008 0:00,715,715,,,,,Motorgrader - 145.0 to 170.0 Horsepower,Texas,MG,Motor Graders,No,EROPS,,,,,None or Unspecified,,None or Unspecified,14',None or Unspecified,No,Base + 1 Function,None or Unspecified,None or Unspecified,Yes,None or Unspecified,None or Unspecified,,,,,,,,,,,,,,,
7852,2325959,8000,1677679,136,,1000,0.0,,7/1/2008 0:00,715,715,,,,,Motorgrader - 145.0 to 170.0 Horsepower,North Carolina,MG,Motor Graders,No,EROPS,,,,,None or Unspecified,,None or Unspecified,13',None or Unspecified,No,Base + 1 Function,None or Unspecified,None or Unspecified,None or Unspecified,None or Unspecified,"14""",,,,,,,,,,,,,,,
7852,2325965,15901,1761485,136,,1978,2188.0,Low,4/8/2008 0:00,715,715,,,,,Motorgrader - 145.0 to 170.0 Horsepower,Texas,MG,Motor Graders,No,OROPS,,,,,Powershift,,None or Unspecified,12',None or Unspecified,No,Base + 1 Function,None or Unspecified,None or Unspecified,None or Unspecified,None or Unspecified,"14""",,,,,,,,,,,,,,,
7852,2325966,11000,1661819,136,1.0,1000,0.0,,5/20/2010 0:00,715,715,,,,,Motorgrader - 145.0 to 170.0 Horsepower,California,MG,Motor Graders,No,EROPS,,,,,None or Unspecified,,None or Unspecified,13',None or Unspecified,No,Base + 1 Function,None or Unspecified,Yes,None or Unspecified,None or Unspecified,"14""",,,,,,,,,,,,,,,
7852,2325967,15000,1761432,136,1.0,1000,0.0,,3/18/2008 0:00,715,715,,,,,Motorgrader - 145.0 to 170.0 Horsepower,Illinois,MG,Motor Graders,No,OROPS,,,,,None or Unspecified,,None or Unspecified,13',None or Unspecified,No,Base + 1 Function,None or Unspecified,None or Unspecified,Yes,None or Unspecified,None or Unspecified,,,,,,,,,,,,,,,
7852,2325969,8000,1691710,136,,1000,0.0,,4/18/2008 0:00,715,715,,,,,Motorgrader - 145.0 to 170.0 Horsepower,Wisconsin,MG,Motor Graders,No,OROPS,,,,,None or Unspecified,,None or Unspecified,14',None or Unspecified,No,Base + 1 Function,None or Unspecified,None or Unspecified,None or Unspecified,None or Unspecified,None or Unspecified,,,,,,,,,,,,,,,
7852,2618346,9000,1868126,149,4.0,1000,0.0,,2/7/2011 0:00,715,715,,,,,Motorgrader - 145.0 to 170.0 Horsepower,Florida,MG,Motor Graders,No,OROPS,,,,,None or Unspecified,,None or Unspecified,13',None or Unspecified,No,Base + 1 Function,None or Unspecified,None or Unspecified,None or Unspecified,None or Unspecified,None or Unspecified,,,,,,,,,,,,,,,
7852,2618362,11000,1898228,149,12.0,1980,0.0,,3/9/2011 0:00,715,715,,,,,Motorgrader - 145.0 to 170.0 Horsepower,North Carolina,MG,Motor Graders,No,EROPS,,,,,None or Unspecified,,None or Unspecified,None or Unspecified,None or Unspecified,No,Base + 1 Function,None or Unspecified,None or Unspecified,Yes,None or Unspecified,None or Unspecified,,,,,,,,,,,,,,,
7852,2618780,11000,1661819,149,1.0,1980,7113.0,Low,12/14/2010 0:00,715,715,,,,,Motorgrader - 145.0 to 170.0 Horsepower,California,MG,Motor Graders,No,EROPS,,,,,None or Unspecified,,None or Unspecified,13',None or Unspecified,No,Base + 1 Function,None or Unspecified,Yes,None or Unspecified,None or Unspecified,"14""",,,,,,,,,,,,,,,
