ModelID,SalesID,SalePrice,MachineID,datasource,auctioneerID,YearMade,MachineHoursCurrentMeter,UsageBand,saledate,fiModelDesc,fiBaseModel,fiSecondaryDesc,fiModelSeries,fiModelDescriptor,ProductSize,fiProductClassDesc,state,ProductGroup,ProductGroupDesc,Drive_System,Enclosure,Forks,Pad_Type,Ride_Control,Stick,Transmission,Turbocharged,Blade_Extension,Blade_Width,Enclosure_Type,Engine_Horsepower,Hydraulics,Pushblock,Ripper,Scarifier,Tip_Control,Tire_Size,Coupler,Coupler_System,Grouser_Tracks,Hydraulics_Flow,Track_Type,Undercarriage_Pad_Width,Stick_Length,Thumb,Pattern_Changer,Grouser_Type,Backhoe_Mounting,Blade_Type,Travel_Controls,Differential_Type,Steering_Controls
7855,1184353,10000,1030001,121,3.0,1000,0.0,,11/20/2008 0:00,740,740,,,,,Motorgrader - 200.0 + Horsepower,Pennsylvania,MG,Motor Graders,No,EROPS,,,,,Powershift,,None or Unspecified,None or Unspecified,None or Unspecified,No,Base + 1 Function,None or Unspecified,None or Unspecified,Yes,None or Unspecified,None or Unspecified,,,,,,,,,,,,,,,
7855,2325455,13000,1748949,136,2.0,1000,0.0,,9/24/2008 0:00,740,740,,,,,Motorgrader - 200.0 + Horsepower,Texas,MG,Motor Graders,No,EROPS,,,,,None or Unspecified,,None or Unspecified,None or Unspecified,None or Unspecified,No,Base + 1 Function,None or Unspecified,None or Unspecified,None or Unspecified,Sideshift & Tip,None or Unspecified,,,,,,,,,,,,,,,
7855,2326133,12500,1774594,136,1.0,1000,0.0,,8/1/2007 0:00,740,740,,,,,Motorgrader - 200.0 + Horsepower,Alaska,MG,Motor Graders,No,EROPS,,,,,None or Unspecified,,None or Unspecified,14',None or Unspecified,No,Base + 1 Function,None or Unspecified,None or Unspecified,Yes,None or Unspecified,"14""",,,,,,,,,,,,,,,
7855,2326142,15000,1702633,136,,1000,8495.0,Low,6/7/2007 0:00,740,740,,,,,Motorgrader - 200.0 + Horsepower,Michigan,MG,Motor Graders,No,EROPS,,,,,None or Unspecified,,None or Unspecified,13',None or Unspecified,No,Base + 1 Function,None or Unspecified,None or Unspecified,Yes,Sideshift & Tip,None or Unspecified,,,,,,,,,,,,,,,
7855,2326143,22000,1722351,136,,1000,0.0,,6/22/2007 0:00,740,740,,,,,Motorgrader - 200.0 + Horsepower,Indiana,MG,Motor Graders,No,EROPS,,,,,None or Unspecified,,None or Unspecified,None or Unspecified,None or Unspecified,No,Base + 1 Function,None or Unspecified,None or Unspecified,Yes,None or Unspecified,None or Unspecified,,,,,,,,,,,,,,,
7855,2326176,13000,1664931,136,1.0,1000,0.0,,5/17/2007 0:00,740,740,,,,,Motorgrader - 200.0 + Horsepower,Montana,MG,Motor Graders,No,EROPS,,,,,None or Unspecified,,None or Unspecified,14',None or Unspecified,No,Base + 1 Function,None or Unspecified,None or Unspecified,None or Unspecified,None or Unspecified,"14""",,,,,,,,,,,,,,,
7855,2326177,11000,1725592,136,,1000,0.0,,10/24/2008 0:00,740,740,,,,,Motorgrader - 200.0 + Horsepower,Wisconsin,MG,Motor Graders,No,EROPS,,,,,None or Unspecified,,None or Unspecified,12',None or Unspecified,No,Base + 1 Function,None or Unspecified,None or Unspecified,None or Unspecified,None or Unspecified,"14""",,,,,,,,,,,,,,,
7855,2326193,8000,1704052,136,1.0,1000,0.0,,8/1/2007 0:00,740,740,,,,,Motorgrader - 200.0 + Horsepower,Alaska,MG,Motor Graders,No,EROPS,,,,,None or Unspecified,,None or Unspecified,14',None or Unspecified,No,Base + 1 Function,None or Unspecified,None or Unspecified,Yes,None or Unspecified,"14""",,,,,,,,,,,,,,,
7855,2618554,9500,1811893,149,10.0,1000,0.0,,10/20/2010 0:00,740,740,,,,,Motorgrader - 200.0 + Horsepower,Louisiana,MG,Motor Graders,No,EROPS w AC,,,,,None or Unspecified,,None or Unspecified,None or Unspecified,None or Unspecified,No,Base + 1 Function,None or Unspecified,None or Unspecified,None or Unspecified,None or Unspecified,None or Unspecified,,,,,,,,,,,,,,,
7855,2618944,11500,1829266,149,2.0,1000,0.0,,1/29/2011 0:00,740,740,,,,,Motorgrader - 200.0 + Horsepower,Florida,MG,Motor Graders,No,OROPS,,,,,None or Unspecified,,None or Unspecified,None or Unspecified,None or Unspecified,No,Base + 1 Function,None or Unspecified,None or Unspecified,Yes,None or Unspecified,None or Unspecified,,,,,,,,,,,,,,,
7855,2618990,15500,1819822,149,1.0,1000,0.0,,3/24/2011 0:00,740,740,,,,,Motorgrader - 200.0 + Horsepower,Nevada,MG,Motor Graders,No,EROPS,,,,,None or Unspecified,,None or Unspecified,14',None or Unspecified,No,Base + 1 Function,Yes,Yes,None or Unspecified,None or Unspecified,None or Unspecified,,,,,,,,,,,,,,,
7855,4308095,18000,2289206,172,1.0,1992,,,12/1/2011 0:00,740,740,,,,,Motorgrader - 200.0 + Horsepower,Texas,MG,Motor Graders,No,EROPS,,,,,None or Unspecified,,None or Unspecified,14',None or Unspecified,No,Base + 1 Function,None or Unspecified,None or Unspecified,Yes,None or Unspecified,None or Unspecified,,,,,,,,,,,,,,,
7855,4308285,12500,1650542,172,1.0,1978,,,6/26/2011 0:00,740,740,,,,,Motorgrader - 200.0 + Horsepower,Pennsylvania,MG,Motor Graders,No,EROPS w AC,,,,,None or Unspecified,,None or Unspecified,14',None or Unspecified,No,Base + 1 Function,None or Unspecified,Yes,None or Unspecified,None or Unspecified,None or Unspecified,,,,,,,,,,,,,,,
7855,4308287,12500,1650542,172,1.0,1978,,,6/27/2011 0:00,740,740,,,,,Motorgrader - 200.0 + Horsepower,Pennsylvania,MG,Motor Graders,No,EROPS w AC,,,,,None or Unspecified,,None or Unspecified,14',None or Unspecified,No,Base + 1 Function,None or Unspecified,Yes,None or Unspecified,None or Unspecified,None or Unspecified,,,,,,,,,,,,,,,
7855,6281367,18000,1830078,149,1.0,1992,,,12/2/2011 0:00,740,740,,,,,Motorgrader - 200.0 + Horsepower,Texas,MG,Motor Graders,No,EROPS,,,,,None or Unspecified,,None or Unspecified,None or Unspecified,None or Unspecified,No,Base + 1 Function,None or Unspecified,None or Unspecified,Yes,None or Unspecified,None or Unspecified,,,,,,,,,,,,,,,
