SalesID,2326070
SalePrice,9000
MachineID,1679944
datasource,136
auctioneerID,
YearMade,1000
MachineHoursCurrentMeter,0.0
UsageBand,
saledate,2/11/2008 0:00
fiModelDesc,D600
fiBaseModel,D600
fiSecondaryDesc,
fiModelSeries,
fiModelDescriptor,
ProductSize,
fiProductClassDesc,Motorgrader - 145.0 to 170.0 Horsepower
state,Florida
ProductGroup,MG
ProductGroupDesc,Motor Graders
Drive_System,No
Enclosure,EROPS
Forks,
Pad_Type,
Ride_Control,
Stick,
Transmission,None or Unspecified
Turbocharged,
Blade_Extension,None or Unspecified
Blade_Width,12'
Enclosure_Type,None or Unspecified
Engine_Horsepower,No
Hydraulics,Base + 1 Function
Pushblock,None or Unspecified
Ripper,None or Unspecified
Scarifier,None or Unspecified
Tip_Control,None or Unspecified
Tire_Size,"14"""
Coupler,
Coupler_System,
Grouser_Tracks,
Hydraulics_Flow,
Track_Type,
Undercarriage_Pad_Width,
Stick_Length,
Thumb,
Pattern_Changer,
Grouser_Type,
Backhoe_Mounting,
Blade_Type,
Travel_Controls,
Differential_Type,
Steering_Controls,
