ModelID,SalesID,SalePrice,MachineID,datasource,auctioneerID,YearMade,MachineHoursCurrentMeter,UsageBand,saledate,fiModelDesc,fiBaseModel,fiSecondaryDesc,fiModelSeries,fiModelDescriptor,ProductSize,fiProductClassDesc,state,ProductGroup,ProductGroupDesc,Drive_System,Enclosure,Forks,Pad_Type,Ride_Control,Stick,Transmission,Turbocharged,Blade_Extension,Blade_Width,Enclosure_Type,Engine_Horsepower,Hydraulics,Pushblock,Ripper,Scarifier,Tip_Control,Tire_Size,Coupler,Coupler_System,Grouser_Tracks,Hydraulics_Flow,Track_Type,Undercarriage_Pad_Width,Stick_Length,Thumb,Pattern_Changer,Grouser_Type,Backhoe_Mounting,Blade_Type,Travel_Controls,Differential_Type,Steering_Controls
7918,1577323,10000,1254900,132,1.0,1987,,,12/5/2002 0:00,DH130,DH130,,,,Small,"Hydraulic Excavator, Track - 12.0 to 14.0 Metric Tons",Illinois,TEX,Track Excavators,,EROPS,,,,,,,,,,,Auxiliary,,,,,,None or Unspecified,,,,Steel,None or Unspecified,"11' 0""",None or Unspecified,None or Unspecified,Double,,,,,
7918,1577368,11500,1251971,132,21.0,1989,,,5/6/1999 0:00,DH130,DH130,,,,Small,"Hydraulic Excavator, Track - 12.0 to 14.0 Metric Tons",Maine,TEX,Track Excavators,,EROPS w AC,,,,,,,,,,,Standard,,,,,,None or Unspecified,,,,Steel,None or Unspecified,"8' 6""",None or Unspecified,None or Unspecified,Double,,,,,
7918,1577419,11500,1540237,132,2.0,1000,,,3/14/2002 0:00,DH130,DH130,,,,Small,"Hydraulic Excavator, Track - 12.0 to 14.0 Metric Tons",New Jersey,TEX,Track Excavators,,EROPS,,,,,,,,,,,Standard,,,,,,None or Unspecified,,,,Steel,None or Unspecified,None or Unspecified,None or Unspecified,None or Unspecified,Double,,,,,
7918,1577420,30500,1011237,132,99.0,1989,,,4/4/1997 0:00,DH130,DH130,,,,Small,"Hydraulic Excavator, Track - 12.0 to 14.0 Metric Tons",Maryland,TEX,Track Excavators,,EROPS w AC,,,,,,,,,,,Standard,,,,,,None or Unspecified,,,,Steel,18 inch,"9' 10""",None or Unspecified,None or Unspecified,Double,,,,,
7918,1577433,9000,1304129,132,1.0,1000,,,3/25/2008 0:00,DH130,DH130,,,,Small,"Hydraulic Excavator, Track - 12.0 to 14.0 Metric Tons",Minnesota,TEX,Track Excavators,,EROPS,,,,,,,,,,,Auxiliary,,,,,,None or Unspecified,,,,Steel,None or Unspecified,None or Unspecified,None or Unspecified,None or Unspecified,Double,,,,,
7918,1577554,17000,973050,132,1.0,1994,,,9/26/2000 0:00,DH130,DH130,,,,Small,"Hydraulic Excavator, Track - 12.0 to 14.0 Metric Tons",Washington,TEX,Track Excavators,,EROPS,,,,,,,,,,,Standard,,,,,,None or Unspecified,,,,Steel,None or Unspecified,None or Unspecified,Manual,None or Unspecified,Double,,,,,
7918,1577626,38500,1175942,132,2.0,1000,,,6/14/1997 0:00,DH130,DH130,,,,Small,"Hydraulic Excavator, Track - 12.0 to 14.0 Metric Tons",Florida,TEX,Track Excavators,,EROPS,,,,,,,,,,,Standard,,,,,,None or Unspecified,,,,Steel,None or Unspecified,None or Unspecified,None or Unspecified,None or Unspecified,Double,,,,,
7918,1577641,33000,1476206,132,28.0,1998,,,12/9/2000 0:00,DH130,DH130,,,,Small,"Hydraulic Excavator, Track - 12.0 to 14.0 Metric Tons",Mississippi,TEX,Track Excavators,,EROPS,,,,,,,,,,,Standard,,,,,,None or Unspecified,,,,Steel,None or Unspecified,"10' 6""",None or Unspecified,None or Unspecified,Double,,,,,
7918,1577708,21000,1534447,132,2.0,1996,,,3/31/2001 0:00,DH130,DH130,,,,Small,"Hydraulic Excavator, Track - 12.0 to 14.0 Metric Tons",New Jersey,TEX,Track Excavators,,EROPS,,,,,,,,,,,Auxiliary,,,,,,None or Unspecified,,,,,,"9' 6""",None or Unspecified,No,,,,,,
7918,1577711,23000,1509681,132,2.0,1000,,,7/31/1999 0:00,DH130,DH130,,,,Small,"Hydraulic Excavator, Track - 12.0 to 14.0 Metric Tons",Ohio,TEX,Track Excavators,,EROPS,,,,,,,,,,,Standard,,,,,,None or Unspecified,,,,Steel,None or Unspecified,None or Unspecified,None or Unspecified,None or Unspecified,Double,,,,,
7918,1577712,31500,1509681,132,2.0,1000,,,4/9/1999 0:00,DH130,DH130,,,,Small,"Hydraulic Excavator, Track - 12.0 to 14.0 Metric Tons",Georgia,TEX,Track Excavators,,EROPS,,,,,,,,,,,Standard,,,,,,None or Unspecified,,,,Steel,None or Unspecified,None or Unspecified,None or Unspecified,None or Unspecified,Double,,,,,
7918,1577828,29000,1077571,132,2.0,1000,,,3/18/1999 0:00,DH130,DH130,,,,Small,"Hydraulic Excavator, Track - 12.0 to 14.0 Metric Tons",New Jersey,TEX,Track Excavators,,EROPS,,,,,,,,,,,Auxiliary,,,,,,None or Unspecified,,,,Steel,None or Unspecified,None or Unspecified,None or Unspecified,None or Unspecified,Double,,,,,
7918,1577842,20500,1557326,132,2.0,1995,,,4/24/1999 0:00,DH130,DH130,,,,Small,"Hydraulic Excavator, Track - 12.0 to 14.0 Metric Tons",Ohio,TEX,Track Excavators,,EROPS,,,,,,,,,,,Standard,,,,,,Manual,,,,,,"9' 6""",None or Unspecified,No,,,,,,
7918,1577844,21000,1132967,132,2.0,1000,,,9/25/1999 0:00,DH130,DH130,,,,Small,"Hydraulic Excavator, Track - 12.0 to 14.0 Metric Tons",Connecticut,TEX,Track Excavators,,EROPS,,,,,,,,,,,Standard,,,,,,None or Unspecified,,,,Steel,None or Unspecified,None or Unspecified,None or Unspecified,None or Unspecified,Double,,,,,
7918,1578026,31000,1396511,132,2.0,1995,,,2/2/1999 0:00,DH130,DH130,,,,Small,"Hydraulic Excavator, Track - 12.0 to 14.0 Metric Tons",Florida,TEX,Track Excavators,,EROPS,,,,,,,,,,,Standard,,,,,,None or Unspecified,,,,Steel,None or Unspecified,None or Unspecified,None or Unspecified,None or Unspecified,Double,,,,,
7918,1578070,34500,1507275,132,2.0,1995,,,2/4/1998 0:00,DH130,DH130,,,,Small,"Hydraulic Excavator, Track - 12.0 to 14.0 Metric Tons",Florida,TEX,Track Excavators,,EROPS,,,,,,,,,,,Standard,,,,,,None or Unspecified,,,,Steel,None or Unspecified,None or Unspecified,None or Unspecified,None or Unspecified,Double,,,,,
7918,1578087,31500,1360061,132,2.0,1995,,,2/4/1998 0:00,DH130,DH130,,,,Small,"Hydraulic Excavator, Track - 12.0 to 14.0 Metric Tons",Florida,TEX,Track Excavators,,EROPS,,,,,,,,,,,Standard,,,,,,None or Unspecified,,,,Steel,None or Unspecified,None or Unspecified,None or Unspecified,None or Unspecified,Double,,,,,
7918,1578109,33000,1431636,132,2.0,1995,,,2/2/1999 0:00,DH130,DH130,,,,Small,"Hydraulic Excavator, Track - 12.0 to 14.0 Metric Tons",Florida,TEX,Track Excavators,,EROPS,,,,,,,,,,,Standard,,,,,,None or Unspecified,,,,Steel,None or Unspecified,None or Unspecified,None or Unspecified,None or Unspecified,Double,,,,,
7918,1578110,21000,1129189,132,2.0,1995,1542.0,Low,2/7/2000 0:00,DH130,DH130,,,,Small,"Hydraulic Excavator, Track - 12.0 to 14.0 Metric Tons",Florida,TEX,Track Excavators,,EROPS,,,,,,,,,,,Standard,,,,,,None or Unspecified,,,,Steel,None or Unspecified,None or Unspecified,None or Unspecified,None or Unspecified,Double,,,,,
7918,1578158,20000,1225182,132,2.0,1995,,,2/7/2000 0:00,DH130,DH130,,,,Small,"Hydraulic Excavator, Track - 12.0 to 14.0 Metric Tons",Florida,TEX,Track Excavators,,EROPS,,,,,,,,,,,Auxiliary,,,,,,None or Unspecified,,,,Steel,None or Unspecified,None or Unspecified,None or Unspecified,None or Unspecified,Double,,,,,
7918,1578159,23500,1225182,132,2.0,1990,,,3/30/2000 0:00,DH130,DH130,,,,Small,"Hydraulic Excavator, Track - 12.0 to 14.0 Metric Tons",New Jersey,TEX,Track Excavators,,EROPS,,,,,,,,,,,Auxiliary,,,,,,None or Unspecified,,,,Steel,None or Unspecified,None or Unspecified,None or Unspecified,None or Unspecified,Double,,,,,
7918,1578173,27000,1531965,132,2.0,1996,1225.0,Low,2/7/2000 0:00,DH130,DH130,,,,Small,"Hydraulic Excavator, Track - 12.0 to 14.0 Metric Tons",Florida,TEX,Track Excavators,,EROPS,,,,,,,,,,,Standard,,,,,,None or Unspecified,,,,Steel,None or Unspecified,None or Unspecified,None or Unspecified,None or Unspecified,Double,,,,,
7918,1578185,27000,1082287,132,2.0,1996,1845.0,Medium,2/7/2000 0:00,DH130,DH130,,,,Small,"Hydraulic Excavator, Track - 12.0 to 14.0 Metric Tons",Florida,TEX,Track Excavators,,EROPS w AC,,,,,,,,,,,Auxiliary,,,,,,Manual,,,,Steel,None or Unspecified,"9' 6""",None or Unspecified,None or Unspecified,Double,,,,,
7918,1578207,36000,1173694,132,2.0,1000,,,3/18/1999 0:00,DH130,DH130,,,,Small,"Hydraulic Excavator, Track - 12.0 to 14.0 Metric Tons",New Jersey,TEX,Track Excavators,,EROPS,,,,,,,,,,,Standard,,,,,,None or Unspecified,,,,Steel,None or Unspecified,None or Unspecified,None or Unspecified,None or Unspecified,Double,,,,,
7918,1578211,31000,1504426,132,2.0,1996,,,2/7/2000 0:00,DH130,DH130,,,,Small,"Hydraulic Excavator, Track - 12.0 to 14.0 Metric Tons",Florida,TEX,Track Excavators,,EROPS,,,,,,,,,,,Standard,,,,,,None or Unspecified,,,,Steel,None or Unspecified,None or Unspecified,None or Unspecified,None or Unspecified,Double,,,,,
7918,1578213,7500,1548040,132,2.0,1000,,,6/14/2003 0:00,DH130,DH130,,,,Small,"Hydraulic Excavator, Track - 12.0 to 14.0 Metric Tons",Pennsylvania,TEX,Track Excavators,,EROPS,,,,,,,,,,,Standard,,,,,,None or Unspecified,,,,Steel,None or Unspecified,None or Unspecified,None or Unspecified,None or Unspecified,Double,,,,,
7918,1578504,18000,1130924,132,2.0,1000,,,2/8/2001 0:00,DH130,DH130,,,,Small,"Hydraulic Excavator, Track - 12.0 to 14.0 Metric Tons",Florida,TEX,Track Excavators,,EROPS,,,,,,,,,,,Standard,,,,,,None or Unspecified,,,,Steel,None or Unspecified,None or Unspecified,Manual,None or Unspecified,Double,,,,,
7918,2326903,9000,1101391,136,1.0,1989,0.0,,12/2/2009 0:00,DH130,DH130,,,,Small,"Hydraulic Excavator, Track - 12.0 to 14.0 Metric Tons",Texas,TEX,Track Excavators,,EROPS w AC,,,,,,,,,,,Standard,,,,,,None or Unspecified,,,,Steel,None or Unspecified,None or Unspecified,None or Unspecified,None or Unspecified,Double,,,,,
7918,2327108,17000,1782493,136,1.0,2004,0.0,,4/2/2009 0:00,DH130,DH130,,,,Small,"Hydraulic Excavator, Track - 12.0 to 14.0 Metric Tons",Mississippi,TEX,Track Excavators,,EROPS,,,,,,,,,,,Standard,,,,,,None or Unspecified,,,,Steel,None or Unspecified,None or Unspecified,None or Unspecified,None or Unspecified,Double,,,,,
