ModelID,SalesID,SalePrice,MachineID,datasource,auctioneerID,YearMade,MachineHoursCurrentMeter,UsageBand,saledate,fiModelDesc,fiBaseModel,fiSecondaryDesc,fiModelSeries,fiModelDescriptor,ProductSize,fiProductClassDesc,state,ProductGroup,ProductGroupDesc,Drive_System,Enclosure,Forks,Pad_Type,Ride_Control,Stick,Transmission,Turbocharged,Blade_Extension,Blade_Width,Enclosure_Type,Engine_Horsepower,Hydraulics,Pushblock,Ripper,Scarifier,Tip_Control,Tire_Size,Coupler,Coupler_System,Grouser_Tracks,Hydraulics_Flow,Track_Type,Undercarriage_Pad_Width,Stick_Length,Thumb,Pattern_Changer,Grouser_Type,Backhoe_Mounting,Blade_Type,Travel_Controls,Differential_Type,Steering_Controls
8165,1218679,8000,1000129,121,3.0,1000,2916.0,Low,9/29/2011 0:00,490,490,,,,Small,"Hydraulic Excavator, Track - 8.0 to 11.0 Metric Tons",Florida,TEX,Track Excavators,,EROPS,,,,,,,,,,,Standard,,,,,,None or Unspecified,,,,Steel,None or Unspecified,"8' 4""",None or Unspecified,None or Unspecified,Double,,,,,
8165,1580879,9000,1198810,132,1.0,1000,,,5/30/2002 0:00,490,490,,,,Small,"Hydraulic Excavator, Track - 8.0 to 11.0 Metric Tons",New Mexico,TEX,Track Excavators,,EROPS,,,,,,,,,,,Standard,,,,,,None or Unspecified,,,,Steel,None or Unspecified,"9' 10""",None or Unspecified,None or Unspecified,Double,,,,,
8165,1581460,16000,1455649,132,21.0,1984,1384.0,Low,9/19/1998 0:00,490,490,,,,Small,"Hydraulic Excavator, Track - 8.0 to 11.0 Metric Tons",Maine,TEX,Track Excavators,,EROPS,,,,,,,,,,,Base + 1 Function,,,,,,,,,,,,,,,,,,,,
8165,1581464,26000,1233374,132,2.0,1984,,,7/27/1996 0:00,490,490,,,,Small,"Hydraulic Excavator, Track - 8.0 to 11.0 Metric Tons",Ohio,TEX,Track Excavators,,EROPS,,,,,,,,,,,Standard,,,,,,None or Unspecified,,,,Steel,None or Unspecified,None or Unspecified,None or Unspecified,None or Unspecified,Double,,,,,
8165,1581469,15000,1180450,132,11.0,1984,,,3/29/2001 0:00,490,490,,,,Small,"Hydraulic Excavator, Track - 8.0 to 11.0 Metric Tons",Mississippi,TEX,Track Excavators,,EROPS,,,,,,,,,,,Standard,,,,,,None or Unspecified,,,,Steel,None or Unspecified,None or Unspecified,None or Unspecified,None or Unspecified,Double,,,,,
8165,1581531,18000,1231165,132,2.0,1984,,,6/12/1999 0:00,490,490,,,,Small,"Hydraulic Excavator, Track - 8.0 to 11.0 Metric Tons",Maine,TEX,Track Excavators,,EROPS,,,,,,,,,,,Standard,,,,,,None or Unspecified,,,,Steel,None or Unspecified,None or Unspecified,None or Unspecified,None or Unspecified,Double,,,,,
8165,1581533,26500,1470271,132,18.0,1984,,,12/10/1992 0:00,490,490,,,,Small,"Hydraulic Excavator, Track - 8.0 to 11.0 Metric Tons",Pennsylvania,TEX,Track Excavators,,EROPS,,,,,,,,,,,Standard,,,,,,None or Unspecified,,,,Steel,16 inch,None or Unspecified,None or Unspecified,None or Unspecified,Double,,,,,
8165,1581536,9000,1545000,132,1.0,1984,,,12/10/2009 0:00,490,490,,,,Small,"Hydraulic Excavator, Track - 8.0 to 11.0 Metric Tons",Washington,TEX,Track Excavators,,EROPS,,,,,,,,,,,Standard,,,,,,None or Unspecified,,,,Steel,None or Unspecified,"9' 10""",Hydraulic,None or Unspecified,Double,,,,,
8165,1581537,23250,1520828,132,13.0,1984,,,5/9/1996 0:00,490,490,,,,Small,"Hydraulic Excavator, Track - 8.0 to 11.0 Metric Tons",Tennessee,TEX,Track Excavators,,EROPS,,,,,,,,,,,Standard,,,,,,None or Unspecified,,,,Steel,None or Unspecified,None or Unspecified,None or Unspecified,None or Unspecified,Double,,,,,
8165,1581585,16500,1358267,132,2.0,1984,,,4/25/1998 0:00,490,490,,,,Small,"Hydraulic Excavator, Track - 8.0 to 11.0 Metric Tons",Ohio,TEX,Track Excavators,,EROPS,,,,,,,,,,,Standard,,,,,,None or Unspecified,,,,Steel,None or Unspecified,None or Unspecified,None or Unspecified,None or Unspecified,Double,,,,,
8165,1581589,25000,1249689,132,2.0,1984,,,3/26/1998 0:00,490,490,,,,Small,"Hydraulic Excavator, Track - 8.0 to 11.0 Metric Tons",New Jersey,TEX,Track Excavators,,EROPS,,,,,,,,,,,,,,,,,,,,,,None or Unspecified,,,,,,,,,
8165,1581592,10500,1330764,132,1.0,1984,,,9/22/2006 0:00,490,490,,,,Small,"Hydraulic Excavator, Track - 8.0 to 11.0 Metric Tons",Arizona,TEX,Track Excavators,,EROPS,,,,,,,,,,,Standard,,,,,,None or Unspecified,,,,Steel,None or Unspecified,None or Unspecified,Manual,None or Unspecified,Double,,,,,
8165,1581666,13000,1439746,132,1.0,1985,,,11/19/2002 0:00,490,490,,,,Small,"Hydraulic Excavator, Track - 8.0 to 11.0 Metric Tons",Pennsylvania,TEX,Track Excavators,,EROPS,,,,,,,,,,,Auxiliary,,,,,,None or Unspecified,,,,Steel,20 inch,"8' 2""",None or Unspecified,None or Unspecified,Triple,,,,,
8165,1581667,32500,1439746,132,15.0,1985,,,9/11/1997 0:00,490,490,,,,Small,"Hydraulic Excavator, Track - 8.0 to 11.0 Metric Tons",Pennsylvania,TEX,Track Excavators,,EROPS,,,,,,,,,,,Auxiliary,,,,,,None or Unspecified,,,,Steel,20 inch,"8' 2""",None or Unspecified,None or Unspecified,Triple,,,,,
8165,1581670,14500,1400766,132,2.0,1985,,,6/26/2004 0:00,490,490,,,,Small,"Hydraulic Excavator, Track - 8.0 to 11.0 Metric Tons",Ohio,TEX,Track Excavators,,EROPS,,,,,,,,,,,Standard,,,,,,None or Unspecified,,,,Steel,None or Unspecified,None or Unspecified,Manual,None or Unspecified,Double,,,,,
8165,1581671,23000,1347171,132,1.0,1984,,,3/22/2000 0:00,490,490,,,,Small,"Hydraulic Excavator, Track - 8.0 to 11.0 Metric Tons",Washington,TEX,Track Excavators,,EROPS,,,,,,,,,,,Standard,,,,,,None or Unspecified,,,,Steel,None or Unspecified,None or Unspecified,Manual,None or Unspecified,Double,,,,,
8165,1581701,27000,1107039,132,1.0,1985,,,9/23/1997 0:00,490,490,,,,Small,"Hydraulic Excavator, Track - 8.0 to 11.0 Metric Tons",Texas,TEX,Track Excavators,,EROPS,,,,,,,,,,,Standard,,,,,,None or Unspecified,,,,Steel,None or Unspecified,None or Unspecified,None or Unspecified,None or Unspecified,Double,,,,,
8165,1581702,17000,1180263,132,1.0,1985,,,9/26/1996 0:00,490,490,,,,Small,"Hydraulic Excavator, Track - 8.0 to 11.0 Metric Tons",Colorado,TEX,Track Excavators,,EROPS,,,,,,,,,,,Standard,,,,,,Manual,,,,Steel,None or Unspecified,None or Unspecified,None or Unspecified,None or Unspecified,Double,,,,,
8165,1581703,30000,1180263,132,1.0,1984,,,2/22/1990 0:00,490,490,,,,Small,"Hydraulic Excavator, Track - 8.0 to 11.0 Metric Tons",Arizona,TEX,Track Excavators,,EROPS,,,,,,,,,,,Standard,,,,,,Manual,,,,Steel,None or Unspecified,None or Unspecified,None or Unspecified,None or Unspecified,Double,,,,,
8165,1581706,20000,1346346,132,22.0,1985,,,3/16/2002 0:00,490,490,,,,Small,"Hydraulic Excavator, Track - 8.0 to 11.0 Metric Tons",Minnesota,TEX,Track Excavators,,EROPS,,,,,,,,,,,Standard,,,,,,None or Unspecified,,,,Steel,None or Unspecified,None or Unspecified,None or Unspecified,None or Unspecified,Double,,,,,
8165,1581732,10000,1234535,132,4.0,1985,,,2/12/2007 0:00,490,490,,,,Small,"Hydraulic Excavator, Track - 8.0 to 11.0 Metric Tons",Florida,TEX,Track Excavators,,EROPS,,,,,,,,,,,Standard,,,,,,None or Unspecified,,,,Steel,None or Unspecified,"10' 2""",Manual,None or Unspecified,Double,,,,,
8165,1581733,25000,1200341,132,1.0,1985,,,3/5/1996 0:00,490,490,,,,Small,"Hydraulic Excavator, Track - 8.0 to 11.0 Metric Tons",Texas,TEX,Track Excavators,,EROPS,,,,,,,,,,,Standard,,,,,,None or Unspecified,,,,Steel,None or Unspecified,None or Unspecified,None or Unspecified,None or Unspecified,Double,,,,,
8165,1581734,31500,1284840,132,4.0,1985,,,4/14/1994 0:00,490,490,,,,Small,"Hydraulic Excavator, Track - 8.0 to 11.0 Metric Tons",Louisiana,TEX,Track Excavators,,EROPS,,,,,,,,,,,Standard,,,,,,None or Unspecified,,,,Steel,28 inch,None or Unspecified,None or Unspecified,None or Unspecified,Triple,,,,,
8165,1581762,9300,1343363,132,18.0,1985,,,1/30/1999 0:00,490,490,,,,Small,"Hydraulic Excavator, Track - 8.0 to 11.0 Metric Tons",Pennsylvania,TEX,Track Excavators,,EROPS,,,,,,,,,,,Standard,,,,,,None or Unspecified,,,,Steel,20 inch,"8' 2""",None or Unspecified,None or Unspecified,Double,,,,,
8165,1581807,31000,1392656,132,1.0,1985,,,2/22/1990 0:00,490,490,,,,Small,"Hydraulic Excavator, Track - 8.0 to 11.0 Metric Tons",Arizona,TEX,Track Excavators,,EROPS,,,,,,,,,,,Standard,,,,,,None or Unspecified,,,,Steel,None or Unspecified,"8' 2""",None or Unspecified,None or Unspecified,Double,,,,,
8165,1581809,13500,1392656,132,1.0,1985,,,3/26/2002 0:00,490,490,,,,Small,"Hydraulic Excavator, Track - 8.0 to 11.0 Metric Tons",Washington,TEX,Track Excavators,,EROPS,,,,,,,,,,,Standard,,,,,,None or Unspecified,,,,Steel,None or Unspecified,"8' 2""",None or Unspecified,None or Unspecified,Double,,,,,
8165,1581827,25000,1350939,132,1.0,1985,,,10/3/1991 0:00,490,490,,,,Small,"Hydraulic Excavator, Track - 8.0 to 11.0 Metric Tons",Florida,TEX,Track Excavators,,EROPS,,,,,,,,,,,Standard,,,,,,None or Unspecified,,,,Steel,None or Unspecified,None or Unspecified,None or Unspecified,None or Unspecified,Double,,,,,
8165,1581829,14000,1300485,132,21.0,1985,,,9/19/2002 0:00,490,490,,,,Small,"Hydraulic Excavator, Track - 8.0 to 11.0 Metric Tons",Maine,TEX,Track Excavators,,EROPS,,,,,,,,,,,Standard,,,,,,None or Unspecified,,,,Steel,None or Unspecified,None or Unspecified,None or Unspecified,None or Unspecified,Double,,,,,
8165,1581832,16000,1349575,132,2.0,1985,,,3/31/2001 0:00,490,490,,,,Small,"Hydraulic Excavator, Track - 8.0 to 11.0 Metric Tons",New Jersey,TEX,Track Excavators,,EROPS,,,,,,,,,,,Standard,,,,,,Manual,,,,Steel,None or Unspecified,None or Unspecified,None or Unspecified,None or Unspecified,Double,,,,,
8165,1581843,13000,1238371,132,1.0,1985,,,4/29/2004 0:00,490,490,,,,Small,"Hydraulic Excavator, Track - 8.0 to 11.0 Metric Tons",Pennsylvania,TEX,Track Excavators,,EROPS,,,,,,,,,,,Standard,,,,,,None or Unspecified,,,,Steel,None or Unspecified,None or Unspecified,None or Unspecified,None or Unspecified,Double,,,,,
8165,1581844,31000,1420807,132,1.0,1985,,,6/7/1991 0:00,490,490,,,,Small,"Hydraulic Excavator, Track - 8.0 to 11.0 Metric Tons",Texas,TEX,Track Excavators,,EROPS,,,,,,,,,,,Standard,,,,,,None or Unspecified,,,,Steel,None or Unspecified,None or Unspecified,None or Unspecified,None or Unspecified,Triple,,,,,
8165,1581845,29500,1419667,132,18.0,1985,,,12/10/1992 0:00,490,490,,,,Small,"Hydraulic Excavator, Track - 8.0 to 11.0 Metric Tons",Pennsylvania,TEX,Track Excavators,,EROPS,,,,,,,,,,,Standard,,,,,,None or Unspecified,,,,Steel,16 inch,None or Unspecified,None or Unspecified,None or Unspecified,Double,,,,,
8165,1581847,26000,1427143,132,1.0,1985,,,3/28/1996 0:00,490,490,,,,Small,"Hydraulic Excavator, Track - 8.0 to 11.0 Metric Tons",Colorado,TEX,Track Excavators,,EROPS,,,,,,,,,,,Base + 1 Function,,,,,,,,,,,,,,,,,,,,
8165,1581849,18000,1390990,132,1.0,1985,,,3/1/2005 0:00,490,490,,,,Small,"Hydraulic Excavator, Track - 8.0 to 11.0 Metric Tons",Illinois,TEX,Track Excavators,,EROPS,,,,,,,,,,,Standard,,,,,,None or Unspecified,,,,Steel,None or Unspecified,None or Unspecified,None or Unspecified,None or Unspecified,Double,,,,,
8165,1581853,12500,1279986,132,1.0,1985,,,9/17/2003 0:00,490,490,,,,Small,"Hydraulic Excavator, Track - 8.0 to 11.0 Metric Tons",Texas,TEX,Track Excavators,,EROPS,,,,,,,,,,,Standard,,,,,,None or Unspecified,,,,Steel,None or Unspecified,None or Unspecified,None or Unspecified,None or Unspecified,Double,,,,,
8165,1581874,10000,1081033,132,1.0,1985,,,4/29/2004 0:00,490,490,,,,Small,"Hydraulic Excavator, Track - 8.0 to 11.0 Metric Tons",Pennsylvania,TEX,Track Excavators,,EROPS,,,,,,,,,,,Standard,,,,,,None or Unspecified,,,,Steel,None or Unspecified,None or Unspecified,None or Unspecified,None or Unspecified,Double,,,,,
8165,1581892,16250,1165934,132,28.0,1985,,,6/8/2002 0:00,490,490,,,,Small,"Hydraulic Excavator, Track - 8.0 to 11.0 Metric Tons",Mississippi,TEX,Track Excavators,,EROPS,,,,,,,,,,,Standard,,,,,,None or Unspecified,,,,Steel,None or Unspecified,None or Unspecified,None or Unspecified,None or Unspecified,Double,,,,,
8165,1581893,18000,1165934,132,28.0,1985,,,9/14/2002 0:00,490,490,,,,Small,"Hydraulic Excavator, Track - 8.0 to 11.0 Metric Tons",Mississippi,TEX,Track Excavators,,EROPS,,,,,,,,,,,Standard,,,,,,None or Unspecified,,,,Steel,None or Unspecified,None or Unspecified,None or Unspecified,None or Unspecified,Double,,,,,
8165,1581894,16000,1165934,132,28.0,1985,,,3/8/2003 0:00,490,490,,,,Small,"Hydraulic Excavator, Track - 8.0 to 11.0 Metric Tons",Mississippi,TEX,Track Excavators,,EROPS,,,,,,,,,,,Standard,,,,,,None or Unspecified,,,,Steel,None or Unspecified,None or Unspecified,None or Unspecified,None or Unspecified,Double,,,,,
8165,1581906,15000,1203777,132,2.0,1985,,,11/3/2001 0:00,490,490,,,,Small,"Hydraulic Excavator, Track - 8.0 to 11.0 Metric Tons",New York,TEX,Track Excavators,,EROPS,,,,,,,,,,,Base + 1 Function,,,,,,,,,,,,,,,,,,,,
8165,1581927,15500,1346793,132,2.0,1985,,,8/17/2002 0:00,490,490,,,,Small,"Hydraulic Excavator, Track - 8.0 to 11.0 Metric Tons",New York,TEX,Track Excavators,,EROPS,,,,,,,,,,,Standard,,,,,,None or Unspecified,,,,Steel,None or Unspecified,None or Unspecified,None or Unspecified,None or Unspecified,Double,,,,,
8165,1581929,19000,1257083,132,1.0,1986,,,10/31/1991 0:00,490,490,,,,Small,"Hydraulic Excavator, Track - 8.0 to 11.0 Metric Tons",Georgia,TEX,Track Excavators,,EROPS,,,,,,,,,,,Standard,,,,,,None or Unspecified,,,,Steel,None or Unspecified,None or Unspecified,None or Unspecified,None or Unspecified,Double,,,,,
8165,1581982,20000,1401010,132,1.0,1985,,,6/2/2001 0:00,490,490,,,,Small,"Hydraulic Excavator, Track - 8.0 to 11.0 Metric Tons",Alaska,TEX,Track Excavators,,EROPS,,,,,,,,,,,Standard,,,,,,None or Unspecified,,,,Steel,None or Unspecified,None or Unspecified,None or Unspecified,None or Unspecified,Double,,,,,
8165,1581985,12500,1496536,132,2.0,1985,,,11/17/2001 0:00,490,490,,,,Small,"Hydraulic Excavator, Track - 8.0 to 11.0 Metric Tons",Ohio,TEX,Track Excavators,,EROPS,,,,,,,,,,,Standard,,,,,,None or Unspecified,,,,Steel,24 inch,None or Unspecified,None or Unspecified,None or Unspecified,Double,,,,,
8165,1581990,8500,1512183,132,1.0,1986,,,6/12/2002 0:00,490,490,,,,Small,"Hydraulic Excavator, Track - 8.0 to 11.0 Metric Tons",Texas,TEX,Track Excavators,,EROPS,,,,,,,,,,,Standard,,,,,,None or Unspecified,,,,Steel,None or Unspecified,None or Unspecified,None or Unspecified,None or Unspecified,Double,,,,,
8165,1582034,11000,1168351,132,7.0,1986,,,6/1/2000 0:00,490,490,,,,Small,"Hydraulic Excavator, Track - 8.0 to 11.0 Metric Tons",Alabama,TEX,Track Excavators,,EROPS,,,,,,,,,,,Standard,,,,,,Manual,,,,Steel,32 inch,"8' 4""",None or Unspecified,None or Unspecified,Triple,,,,,
8165,1582036,11000,1507774,132,2.0,1986,,,11/3/2001 0:00,490,490,,,,Small,"Hydraulic Excavator, Track - 8.0 to 11.0 Metric Tons",New York,TEX,Track Excavators,,EROPS,,,,,,,,,,,Standard,,,,,,None or Unspecified,,,,Steel,20 inch,None or Unspecified,None or Unspecified,None or Unspecified,Double,,,,,
8165,1582040,24000,1384107,132,2.0,1986,,,3/6/1999 0:00,490,490,,,,Small,"Hydraulic Excavator, Track - 8.0 to 11.0 Metric Tons",Pennsylvania,TEX,Track Excavators,,EROPS,,,,,,,,,,,Standard,,,,,,None or Unspecified,,,,Steel,None or Unspecified,None or Unspecified,None or Unspecified,None or Unspecified,Double,,,,,
8165,1582041,19500,1384107,132,1.0,1986,,,9/14/2000 0:00,490,490,,,,Small,"Hydraulic Excavator, Track - 8.0 to 11.0 Metric Tons",Ohio,TEX,Track Excavators,,EROPS,,,,,,,,,,,Standard,,,,,,None or Unspecified,,,,Steel,None or Unspecified,None or Unspecified,None or Unspecified,None or Unspecified,Double,,,,,
8165,1582102,24000,1115014,132,1.0,1986,,,3/25/1996 0:00,490,490,,,,Small,"Hydraulic Excavator, Track - 8.0 to 11.0 Metric Tons",Nevada,TEX,Track Excavators,,EROPS,,,,,,,,,,,Standard,,,,,,None or Unspecified,,,,Steel,None or Unspecified,None or Unspecified,None or Unspecified,None or Unspecified,Double,,,,,
8165,1582148,17000,1198665,132,2.0,1986,,,12/28/2002 0:00,490,490,,,,Small,"Hydraulic Excavator, Track - 8.0 to 11.0 Metric Tons",New York,TEX,Track Excavators,,EROPS w AC,,,,,,,,,,,Standard,,,,,,None or Unspecified,,,,Steel,None or Unspecified,None or Unspecified,None or Unspecified,None or Unspecified,Double,,,,,
8165,1582175,25500,1123672,132,2.0,1986,,,2/5/1997 0:00,490,490,,,,Small,"Hydraulic Excavator, Track - 8.0 to 11.0 Metric Tons",Florida,TEX,Track Excavators,,EROPS,,,,,,,,,,,Standard,,,,,,None or Unspecified,,,,Steel,None or Unspecified,None or Unspecified,None or Unspecified,None or Unspecified,Double,,,,,
8165,1582176,17000,1224947,132,21.0,1986,,,7/2/2003 0:00,490,490,,,,Small,"Hydraulic Excavator, Track - 8.0 to 11.0 Metric Tons",Maine,TEX,Track Excavators,,EROPS,,,,,,,,,,,Standard,,,,,,None or Unspecified,,,,Steel,None or Unspecified,None or Unspecified,None or Unspecified,None or Unspecified,Double,,,,,
8165,1582183,16000,1543380,132,1.0,1986,,,9/26/1996 0:00,490,490,,,,Small,"Hydraulic Excavator, Track - 8.0 to 11.0 Metric Tons",Colorado,TEX,Track Excavators,,EROPS,,,,,,,,,,,Standard,,,,,,None or Unspecified,,,,Steel,None or Unspecified,None or Unspecified,None or Unspecified,None or Unspecified,Double,,,,,
8165,1582187,15500,1249249,132,9.0,1986,,,3/29/2001 0:00,490,490,,,,Small,"Hydraulic Excavator, Track - 8.0 to 11.0 Metric Tons",Kentucky,TEX,Track Excavators,,EROPS,,,,,,,,,,,Standard,,,,,,None or Unspecified,,,,Steel,None or Unspecified,None or Unspecified,None or Unspecified,None or Unspecified,Double,,,,,
8165,1582191,16750,1184028,132,13.0,1986,,,12/10/2005 0:00,490,490,,,,Small,"Hydraulic Excavator, Track - 8.0 to 11.0 Metric Tons",Tennessee,TEX,Track Excavators,,EROPS,,,,,,,,,,,Standard,,,,,,None or Unspecified,,,,Steel,None or Unspecified,None or Unspecified,Manual,None or Unspecified,Double,,,,,
8165,1582220,34000,1380320,132,1.0,1986,,,3/27/1996 0:00,490,490,,,,Small,"Hydraulic Excavator, Track - 8.0 to 11.0 Metric Tons",Illinois,TEX,Track Excavators,,EROPS w AC,,,,,,,,,,,Standard,,,,,,None or Unspecified,,,,Steel,None or Unspecified,"9' 10""",None or Unspecified,None or Unspecified,Double,,,,,
8165,1582230,11000,1521287,132,4.0,1986,,,5/13/2004 0:00,490,490,,,,Small,"Hydraulic Excavator, Track - 8.0 to 11.0 Metric Tons",New Hampshire,TEX,Track Excavators,,EROPS,,,,,,,,,,,Standard,,,,,,None or Unspecified,,,,Steel,None or Unspecified,None or Unspecified,None or Unspecified,None or Unspecified,Double,,,,,
8165,1582360,23000,1295064,132,5.0,1986,,,4/4/1998 0:00,490,490,,,,Small,"Hydraulic Excavator, Track - 8.0 to 11.0 Metric Tons",New York,TEX,Track Excavators,,EROPS,,,,,,,,,,,Standard,,,,,,None or Unspecified,,,,Steel,None or Unspecified,None or Unspecified,None or Unspecified,None or Unspecified,Double,,,,,
8165,1582374,22500,1378387,132,2.0,1986,,,4/27/1996 0:00,490,490,,,,Small,"Hydraulic Excavator, Track - 8.0 to 11.0 Metric Tons",Ohio,TEX,Track Excavators,,EROPS,,,,,,,,,,,Standard,,,,,,None or Unspecified,,,,Steel,None or Unspecified,None or Unspecified,None or Unspecified,None or Unspecified,Double,,,,,
8165,1582377,26000,1147920,132,2.0,1987,,,3/30/2000 0:00,490,490,,,,Small,"Hydraulic Excavator, Track - 8.0 to 11.0 Metric Tons",New Jersey,TEX,Track Excavators,,EROPS,,,,,,,,,,,Standard,,,,,,None or Unspecified,,,,Steel,None or Unspecified,None or Unspecified,None or Unspecified,None or Unspecified,Double,,,,,
8165,1582378,20500,1437279,132,6.0,1986,,,5/21/1998 0:00,490,490,,,,Small,"Hydraulic Excavator, Track - 8.0 to 11.0 Metric Tons",Maryland,TEX,Track Excavators,,EROPS,,,,,,,,,,,Auxiliary,,,,,,None or Unspecified,,,,Steel,None or Unspecified,None or Unspecified,None or Unspecified,None or Unspecified,Double,,,,,
8165,1582394,29000,1554096,132,99.0,1987,,,9/16/1995 0:00,490,490,,,,Small,"Hydraulic Excavator, Track - 8.0 to 11.0 Metric Tons",Connecticut,TEX,Track Excavators,,EROPS,,,,,,,,,,,Standard,,,,,,None or Unspecified,,,,Steel,None or Unspecified,None or Unspecified,None or Unspecified,None or Unspecified,Double,,,,,
8165,1582463,40000,1269732,132,1.0,1987,,,10/3/1989 0:00,490,490,,,,Small,"Hydraulic Excavator, Track - 8.0 to 11.0 Metric Tons",Maryland,TEX,Track Excavators,,EROPS,,,,,,,,,,,Standard,,,,,,None or Unspecified,,,,Steel,None or Unspecified,None or Unspecified,None or Unspecified,None or Unspecified,Double,,,,,
8165,1582518,35000,1376649,132,1.0,1988,,,6/25/1991 0:00,490,490,,,,Small,"Hydraulic Excavator, Track - 8.0 to 11.0 Metric Tons",Alabama,TEX,Track Excavators,,EROPS,,,,,,,,,,,Standard,,,,,,None or Unspecified,,,,Steel,None or Unspecified,None or Unspecified,None or Unspecified,None or Unspecified,Triple,,,,,
8165,1582525,33000,1409989,132,1.0,1989,,,10/4/1993 0:00,490,490,,,,Small,"Hydraulic Excavator, Track - 8.0 to 11.0 Metric Tons",Texas,TEX,Track Excavators,,EROPS,,,,,,,,,,,Standard,,,,,,None or Unspecified,,,,Steel,None or Unspecified,"9' 10""",None or Unspecified,None or Unspecified,Triple,,,,,
8165,1582618,37000,1519103,132,1.0,1988,,,3/14/1991 0:00,490,490,,,,Small,"Hydraulic Excavator, Track - 8.0 to 11.0 Metric Tons",Florida,TEX,Track Excavators,,EROPS,,,,,,,,,,,Standard,,,,,,None or Unspecified,,,,Steel,None or Unspecified,"9' 6""",None or Unspecified,None or Unspecified,Double,,,,,
8165,1582751,16500,1413549,132,2.0,1990,,,3/27/2003 0:00,490,490,,,,Small,"Hydraulic Excavator, Track - 8.0 to 11.0 Metric Tons",New Jersey,TEX,Track Excavators,,EROPS,,,,,,,,,,,Standard,,,,,,None or Unspecified,,,,Steel,None or Unspecified,None or Unspecified,None or Unspecified,None or Unspecified,Double,,,,,
8165,1585596,17000,1456264,132,2.0,1985,,,9/21/2000 0:00,490,490,,,,Small,"Hydraulic Excavator, Track - 8.0 to 11.0 Metric Tons",Alabama,TEX,Track Excavators,,EROPS,,,,,,,,,,,Standard,,,,,,None or Unspecified,,,,Steel,None or Unspecified,None or Unspecified,None or Unspecified,None or Unspecified,Double,,,,,
8165,1585821,15000,1334822,132,17.0,1985,,,5/4/1999 0:00,490,490,,,,Small,"Hydraulic Excavator, Track - 8.0 to 11.0 Metric Tons",Idaho,TEX,Track Excavators,,OROPS,,,,,,,,,,,2 Valve,,,,,,None or Unspecified,,,,,,,,,,,,,,
8165,1585830,31500,1420462,132,4.0,1985,,,4/14/1994 0:00,490,490,,,,Small,"Hydraulic Excavator, Track - 8.0 to 11.0 Metric Tons",Louisiana,TEX,Track Excavators,,EROPS,,,,,,,,,,,Standard,,,,,,None or Unspecified,,,,Steel,28 inch,None or Unspecified,None or Unspecified,None or Unspecified,Triple,,,,,
8165,1585962,21500,1533669,132,4.0,1986,,,2/6/1997 0:00,490,490,,,,Small,"Hydraulic Excavator, Track - 8.0 to 11.0 Metric Tons",Florida,TEX,Track Excavators,,EROPS,,,,,,,,,,,Standard,,,,,,None or Unspecified,,,,Steel,28 inch,None or Unspecified,None or Unspecified,None or Unspecified,Double,,,,,
8165,1585963,17500,1182479,132,2.0,1985,,,12/3/2004 0:00,490,490,,,,Small,"Hydraulic Excavator, Track - 8.0 to 11.0 Metric Tons",Maine,TEX,Track Excavators,,EROPS,,,,,,,,,,,Standard,,,,,,None or Unspecified,,,,Steel,None or Unspecified,None or Unspecified,None or Unspecified,None or Unspecified,Double,,,,,
8165,1586098,23000,1536759,132,4.0,1986,,,2/6/1997 0:00,490,490,,,,Small,"Hydraulic Excavator, Track - 8.0 to 11.0 Metric Tons",Florida,TEX,Track Excavators,,EROPS,,,,,,,,,,,Standard,,,,,,None or Unspecified,,,,Steel,30 inch,None or Unspecified,Manual,None or Unspecified,Double,,,,,
8165,1586141,21000,1453362,132,10.0,1986,,,6/25/1998 0:00,490,490,,,,Small,"Hydraulic Excavator, Track - 8.0 to 11.0 Metric Tons",Louisiana,TEX,Track Excavators,,EROPS,,,,,,,,,,,Standard,,,,,,None or Unspecified,,,,Steel,28 inch,None or Unspecified,None or Unspecified,None or Unspecified,Double,,,,,
8165,1586165,22500,1115348,132,24.0,1986,,,11/13/1990 0:00,490,490,,,,Small,"Hydraulic Excavator, Track - 8.0 to 11.0 Metric Tons",Kentucky,TEX,Track Excavators,,EROPS,,,,,,,,,,,Standard,,,,,,None or Unspecified,,,,,,,,,,,,,,
8165,1586169,31000,1339828,132,1.0,1986,,,12/2/1993 0:00,490,490,,,,Small,"Hydraulic Excavator, Track - 8.0 to 11.0 Metric Tons",Washington,TEX,Track Excavators,,EROPS,,,,,,,,,,,Standard,,,,,,None or Unspecified,,,,Steel,None or Unspecified,None or Unspecified,Hydraulic,None or Unspecified,Triple,,,,,
8165,1586297,28000,1302124,132,10.0,1986,,,5/21/1993 0:00,490,490,,,,Small,"Hydraulic Excavator, Track - 8.0 to 11.0 Metric Tons",Mississippi,TEX,Track Excavators,,EROPS,,,,,,,,,,,Standard,,,,,,None or Unspecified,,,,Steel,30 inch,"9' 10""",None or Unspecified,None or Unspecified,Double,,,,,
8165,1586319,25000,1080113,132,24.0,1986,,,11/13/1990 0:00,490,490,,,,Small,"Hydraulic Excavator, Track - 8.0 to 11.0 Metric Tons",Kentucky,TEX,Track Excavators,,EROPS,,,,,,,,,,,Standard,,,,,,None or Unspecified,,,,Steel,None or Unspecified,None or Unspecified,Hydraulic,None or Unspecified,Double,,,,,
8165,1586440,13500,1221089,132,2.0,1986,,,12/11/1999 0:00,490,490,,,,Small,"Hydraulic Excavator, Track - 8.0 to 11.0 Metric Tons",Pennsylvania,TEX,Track Excavators,,EROPS,,,,,,,,,,,Standard,,,,,,None or Unspecified,,,,Steel,None or Unspecified,None or Unspecified,None or Unspecified,None or Unspecified,Double,,,,,
8165,1586551,42500,1122471,132,1.0,1986,,,4/25/1989 0:00,490,490,,,,Small,"Hydraulic Excavator, Track - 8.0 to 11.0 Metric Tons",Tennessee,TEX,Track Excavators,,EROPS,,,,,,,,,,,Standard,,,,,,None or Unspecified,,,,Steel,None or Unspecified,None or Unspecified,None or Unspecified,None or Unspecified,Double,,,,,
8165,1586554,30000,1345627,132,1.0,1986,,,4/29/1996 0:00,490,490,,,,Small,"Hydraulic Excavator, Track - 8.0 to 11.0 Metric Tons",Minnesota,TEX,Track Excavators,,OROPS,,,,,,,,,,,2 Valve,,,,,,,,,,,None or Unspecified,,,,,,,,,
8165,1586591,25000,1248113,132,18.0,1986,,,8/16/1995 0:00,490,490,,,,Small,"Hydraulic Excavator, Track - 8.0 to 11.0 Metric Tons",Illinois,TEX,Track Excavators,,EROPS,,,,,,,,,,,Standard,,,,,,None or Unspecified,,,,Steel,None or Unspecified,"9' 10""",None or Unspecified,None or Unspecified,Double,,,,,
8165,1586613,12000,1296177,132,2.0,1986,,,11/6/1999 0:00,490,490,,,,Small,"Hydraulic Excavator, Track - 8.0 to 11.0 Metric Tons",New York,TEX,Track Excavators,,EROPS,,,,,,,,,,,Standard,,,,,,None or Unspecified,,,,Steel,None or Unspecified,None or Unspecified,None or Unspecified,None or Unspecified,Double,,,,,
8165,1587071,30000,1287226,132,18.0,1986,,,12/10/1992 0:00,490,490,,,,Small,"Hydraulic Excavator, Track - 8.0 to 11.0 Metric Tons",Pennsylvania,TEX,Track Excavators,,EROPS,,,,,,,,,,,Standard,,,,,,None or Unspecified,,,,Steel,16 inch,None or Unspecified,None or Unspecified,None or Unspecified,Double,,,,,
8165,1587248,24000,1401829,132,4.0,1986,,,5/21/1996 0:00,490,490,,,,Small,"Hydraulic Excavator, Track - 8.0 to 11.0 Metric Tons",Florida,TEX,Track Excavators,,EROPS,,,,,,,,,,,Standard,,,,,,None or Unspecified,,,,Steel,None or Unspecified,None or Unspecified,None or Unspecified,None or Unspecified,Double,,,,,
8165,1587481,17000,1214078,132,2.0,1986,,,12/13/2000 0:00,490,490,,,,Small,"Hydraulic Excavator, Track - 8.0 to 11.0 Metric Tons",Texas,TEX,Track Excavators,,EROPS,,,,,,,,,,,Standard,,,,,,None or Unspecified,,,,Steel,None or Unspecified,None or Unspecified,Manual,None or Unspecified,Double,,,,,
8165,1587487,29000,1245913,132,2.0,1986,,,3/24/1995 0:00,490,490,,,,Small,"Hydraulic Excavator, Track - 8.0 to 11.0 Metric Tons",New Jersey,TEX,Track Excavators,,EROPS,,,,,,,,,,,Standard,,,,,,None or Unspecified,,,,Steel,20 inch,None or Unspecified,None or Unspecified,None or Unspecified,Double,,,,,
8165,1587495,11500,1441198,132,27.0,1986,,,12/29/2006 0:00,490,490,,,,Small,"Hydraulic Excavator, Track - 8.0 to 11.0 Metric Tons",North Carolina,TEX,Track Excavators,,EROPS,,,,,,,,,,,Standard,,,,,,None or Unspecified,,,,Steel,28 inch,None or Unspecified,Manual,None or Unspecified,Double,,,,,
8165,1587599,24000,1548772,132,2.0,1986,,,1/18/1997 0:00,490,490,,,,Small,"Hydraulic Excavator, Track - 8.0 to 11.0 Metric Tons",New York,TEX,Track Excavators,,EROPS,,,,,,,,,,,Standard,,,,,,None or Unspecified,,,,Steel,28 inch,None or Unspecified,None or Unspecified,None or Unspecified,Double,,,,,
8165,1587841,25000,1340301,132,2.0,1987,,,8/10/1996 0:00,490,490,,,,Small,"Hydraulic Excavator, Track - 8.0 to 11.0 Metric Tons",Vermont,TEX,Track Excavators,,EROPS,,,,,,,,,,,Standard,,,,,,None or Unspecified,,,,Steel,None or Unspecified,None or Unspecified,None or Unspecified,None or Unspecified,Double,,,,,
8165,1589064,33500,1094780,132,2.0,1987,,,12/5/1992 0:00,490,490,,,,Small,"Hydraulic Excavator, Track - 8.0 to 11.0 Metric Tons",New York,TEX,Track Excavators,,EROPS,,,,,,,,,,,Standard,,,,,,None or Unspecified,,,,Steel,None or Unspecified,None or Unspecified,None or Unspecified,None or Unspecified,Double,,,,,
8165,1589065,35500,1094780,132,2.0,1989,,,10/24/1992 0:00,490,490,,,,Small,"Hydraulic Excavator, Track - 8.0 to 11.0 Metric Tons",New Hampshire,TEX,Track Excavators,,EROPS,,,,,,,,,,,Standard,,,,,,None or Unspecified,,,,Steel,None or Unspecified,None or Unspecified,None or Unspecified,None or Unspecified,Double,,,,,
8165,1589178,38000,1393821,132,1.0,1988,,,9/24/1992 0:00,490,490,,,,Small,"Hydraulic Excavator, Track - 8.0 to 11.0 Metric Tons",Washington,TEX,Track Excavators,,EROPS,,,,,,,,,,,Standard,,,,,,None or Unspecified,,,,Steel,None or Unspecified,None or Unspecified,None or Unspecified,None or Unspecified,Double,,,,,
8165,1589215,18000,1285765,132,1.0,1987,,,7/12/1991 0:00,490,490,,,,Small,"Hydraulic Excavator, Track - 8.0 to 11.0 Metric Tons",Kentucky,TEX,Track Excavators,,EROPS,,,,,,,,,,,Standard,,,,,,None or Unspecified,,,,Steel,None or Unspecified,None or Unspecified,None or Unspecified,None or Unspecified,Triple,,,,,
8165,1589249,39500,1500070,132,10.0,1987,,,4/21/1993 0:00,490,490,,,,Small,"Hydraulic Excavator, Track - 8.0 to 11.0 Metric Tons",Louisiana,TEX,Track Excavators,,EROPS,,,,,,,,,,,Standard,,,,,,None or Unspecified,,,,Steel,None or Unspecified,None or Unspecified,None or Unspecified,None or Unspecified,Double,,,,,
8165,1589314,18000,1468950,132,1.0,1987,,,7/12/1991 0:00,490,490,,,,Small,"Hydraulic Excavator, Track - 8.0 to 11.0 Metric Tons",Kentucky,TEX,Track Excavators,,EROPS,,,,,,,,,,,Standard,,,,,,None or Unspecified,,,,Steel,None or Unspecified,None or Unspecified,None or Unspecified,None or Unspecified,Triple,,,,,
8165,1589315,27000,1404086,132,1.0,1987,,,12/18/1990 0:00,490,490,,,,Small,"Hydraulic Excavator, Track - 8.0 to 11.0 Metric Tons",North Carolina,TEX,Track Excavators,,EROPS,,,,,,,,,,,Standard,,,,,,None or Unspecified,,,,Steel,None or Unspecified,"9' 10""",None or Unspecified,None or Unspecified,Double,,,,,
8165,1589325,32500,1240742,132,1.0,1987,,,9/14/1993 0:00,490,490,,,,Small,"Hydraulic Excavator, Track - 8.0 to 11.0 Metric Tons",Arizona,TEX,Track Excavators,,EROPS,,,,,,,,,,,Standard,,,,,,None or Unspecified,,,,Steel,None or Unspecified,None or Unspecified,None or Unspecified,None or Unspecified,Double,,,,,
8165,1589355,30000,1156718,132,2.0,1987,,,4/5/1997 0:00,490,490,,,,Small,"Hydraulic Excavator, Track - 8.0 to 11.0 Metric Tons",Missouri,TEX,Track Excavators,,EROPS,,,,,,,,,,,Standard,,,,,,None or Unspecified,,,,Steel,None or Unspecified,None or Unspecified,None or Unspecified,None or Unspecified,Double,,,,,
8165,1589404,25000,1265669,132,99.0,1987,,,4/21/1999 0:00,490,490,,,,Small,"Hydraulic Excavator, Track - 8.0 to 11.0 Metric Tons",Wyoming,TEX,Track Excavators,,EROPS,,,,,,,,,,,Standard,,,,,,None or Unspecified,,,,Steel,None or Unspecified,None or Unspecified,None or Unspecified,None or Unspecified,Double,,,,,
8165,1589413,25000,1077532,132,1.0,1987,,,6/25/1991 0:00,490,490,,,,Small,"Hydraulic Excavator, Track - 8.0 to 11.0 Metric Tons",Alabama,TEX,Track Excavators,,EROPS,,,,,,,,,,,Standard,,,,,,None or Unspecified,,,,Steel,None or Unspecified,None or Unspecified,None or Unspecified,None or Unspecified,Double,,,,,
8165,1589415,36000,1419464,132,6.0,1987,,,4/8/1993 0:00,490,490,,,,Small,"Hydraulic Excavator, Track - 8.0 to 11.0 Metric Tons",New Mexico,TEX,Track Excavators,,EROPS,,,,,,,,,,,Standard,,,,,,None or Unspecified,,,,Steel,None or Unspecified,None or Unspecified,None or Unspecified,None or Unspecified,Double,,,,,
8165,1589432,34000,1443533,132,2.0,1988,,,3/27/1993 0:00,490,490,,,,Small,"Hydraulic Excavator, Track - 8.0 to 11.0 Metric Tons",Pennsylvania,TEX,Track Excavators,,EROPS,,,,,,,,,,,Standard,,,,,,None or Unspecified,,,,Steel,None or Unspecified,None or Unspecified,None or Unspecified,None or Unspecified,Double,,,,,
8165,1589435,37000,1369841,132,1.0,1987,,,12/19/1990 0:00,490,490,,,,Small,"Hydraulic Excavator, Track - 8.0 to 11.0 Metric Tons",South Carolina,TEX,Track Excavators,,EROPS,,,,,,,,,,,Standard,,,,,,None or Unspecified,,,,Steel,None or Unspecified,"9' 10""",None or Unspecified,None or Unspecified,Double,,,,,
8165,1589446,22000,1507039,132,1.0,1987,,,10/31/1991 0:00,490,490,,,,Small,"Hydraulic Excavator, Track - 8.0 to 11.0 Metric Tons",Georgia,TEX,Track Excavators,,EROPS,,,,,,,,,,,Standard,,,,,,None or Unspecified,,,,Steel,None or Unspecified,"9' 6""",None or Unspecified,None or Unspecified,Double,,,,,
8165,1589527,32500,1472901,132,1.0,1988,,,6/25/1991 0:00,490,490,,,,Small,"Hydraulic Excavator, Track - 8.0 to 11.0 Metric Tons",Alabama,TEX,Track Excavators,,EROPS,,,,,,,,,,,Standard,,,,,,None or Unspecified,,,,Steel,None or Unspecified,"9' 6""",None or Unspecified,None or Unspecified,Triple,,,,,
8165,1589554,32000,1531753,132,2.0,1988,,,3/12/1993 0:00,490,490,,,,Small,"Hydraulic Excavator, Track - 8.0 to 11.0 Metric Tons",New Jersey,TEX,Track Excavators,,EROPS,,,,,,,,,,,Standard,,,,,,None or Unspecified,,,,Steel,28 inch,None or Unspecified,None or Unspecified,None or Unspecified,Double,,,,,
8165,1589657,13000,1171308,132,1.0,1988,,,9/21/1999 0:00,490,490,,,,Small,"Hydraulic Excavator, Track - 8.0 to 11.0 Metric Tons",Texas,TEX,Track Excavators,,EROPS,,,,,,,,,,,Standard,,,,,,None or Unspecified,,,,Steel,None or Unspecified,None or Unspecified,None or Unspecified,None or Unspecified,Double,,,,,
8165,1589705,35000,1156793,132,13.0,1988,,,11/13/1993 0:00,490,490,,,,Small,"Hydraulic Excavator, Track - 8.0 to 11.0 Metric Tons",Tennessee,TEX,Track Excavators,,EROPS,,,,,,,,,,,Standard,,,,,,None or Unspecified,,,,Steel,None or Unspecified,None or Unspecified,None or Unspecified,None or Unspecified,Double,,,,,
8165,1589795,38500,1208634,132,6.0,1988,,,11/5/1991 0:00,490,490,,,,Small,"Hydraulic Excavator, Track - 8.0 to 11.0 Metric Tons",Maine,TEX,Track Excavators,,EROPS,,,,,,,,,,,Standard,,,,,,None or Unspecified,,,,Steel,28 inch,None or Unspecified,None or Unspecified,None or Unspecified,Double,,,,,
8165,1589810,42000,1348157,132,1.0,1988,,,12/19/1990 0:00,490,490,,,,Small,"Hydraulic Excavator, Track - 8.0 to 11.0 Metric Tons",South Carolina,TEX,Track Excavators,,EROPS,,,,,,,,,,,Standard,,,,,,None or Unspecified,,,,Steel,None or Unspecified,"9' 10""",None or Unspecified,None or Unspecified,Double,,,,,
8165,1589918,39500,1279273,132,10.0,1989,,,6/18/1992 0:00,490,490,,,,Small,"Hydraulic Excavator, Track - 8.0 to 11.0 Metric Tons",Louisiana,TEX,Track Excavators,,EROPS,,,,,,,,,,,Standard,,,,,,None or Unspecified,,,,Steel,None or Unspecified,None or Unspecified,None or Unspecified,None or Unspecified,Double,,,,,
8165,1589988,68000,1312131,132,1.0,1989,,,6/7/1990 0:00,490,490,,,,Small,"Hydraulic Excavator, Track - 8.0 to 11.0 Metric Tons",Washington,TEX,Track Excavators,,EROPS,,,,,,,,,,,Standard,,,,,,None or Unspecified,,,,Steel,None or Unspecified,None or Unspecified,Hydraulic,None or Unspecified,Double,,,,,
8165,1590031,52000,1189113,132,1.0,1989,,,10/28/1992 0:00,490,490,,,,Small,"Hydraulic Excavator, Track - 8.0 to 11.0 Metric Tons",Maryland,TEX,Track Excavators,,EROPS,,,,,,,,,,,Standard,,,,,,None or Unspecified,,,,Steel,None or Unspecified,None or Unspecified,None or Unspecified,None or Unspecified,Triple,,,,,
8165,1590062,42000,1419927,132,1.0,1989,,,6/26/1992 0:00,490,490,,,,Small,"Hydraulic Excavator, Track - 8.0 to 11.0 Metric Tons",Texas,TEX,Track Excavators,,EROPS,,,,,,,,,,,Standard,,,,,,None or Unspecified,,,,Steel,None or Unspecified,None or Unspecified,None or Unspecified,None or Unspecified,Triple,,,,,
8165,1590095,48000,1379879,132,1.0,1989,,,12/19/1990 0:00,490,490,,,,Small,"Hydraulic Excavator, Track - 8.0 to 11.0 Metric Tons",South Carolina,TEX,Track Excavators,,EROPS,,,,,,,,,,,Standard,,,,,,None or Unspecified,,,,Steel,None or Unspecified,"9' 10""",None or Unspecified,None or Unspecified,Double,,,,,
8165,1590101,43000,1116102,132,6.0,1990,1060.0,Low,11/5/1991 0:00,490,490,,,,Small,"Hydraulic Excavator, Track - 8.0 to 11.0 Metric Tons",Maine,TEX,Track Excavators,,EROPS,,,,,,,,,,,Standard,,,,,,None or Unspecified,,,,Steel,28 inch,"11' 10""",None or Unspecified,None or Unspecified,Double,,,,,
8165,1590116,50000,1405583,132,1.0,1989,,,12/19/1990 0:00,490,490,,,,Small,"Hydraulic Excavator, Track - 8.0 to 11.0 Metric Tons",South Carolina,TEX,Track Excavators,,EROPS,,,,,,,,,,,Standard,,,,,,None or Unspecified,,,,Steel,None or Unspecified,"9' 10""",None or Unspecified,None or Unspecified,Double,,,,,
8165,1590145,49000,1302795,132,6.0,1990,470.0,Medium,11/5/1991 0:00,490,490,,,,Small,"Hydraulic Excavator, Track - 8.0 to 11.0 Metric Tons",Maine,TEX,Track Excavators,,EROPS,,,,,,,,,,,Standard,,,,,,None or Unspecified,,,,Steel,24 inch,None or Unspecified,None or Unspecified,None or Unspecified,Double,,,,,
8165,1591719,32000,1287157,132,1.0,1993,,,3/22/2000 0:00,490,490,,,,Small,"Hydraulic Excavator, Track - 8.0 to 11.0 Metric Tons",Washington,TEX,Track Excavators,,EROPS,,,,,,,,,,,Standard,,,,,,None or Unspecified,,,,Steel,None or Unspecified,None or Unspecified,Manual,None or Unspecified,Double,,,,,
8165,1594279,26000,1134158,132,1.0,1984,,,6/20/2006 0:00,490,490,,,,Small,"Hydraulic Excavator, Track - 8.0 to 11.0 Metric Tons",Washington,TEX,Track Excavators,,EROPS,,,,,,,,,,,Standard,,,,,,None or Unspecified,,,,Steel,None or Unspecified,None or Unspecified,Hydraulic,None or Unspecified,Double,,,,,
8165,1602157,25750,1465532,132,21.0,1985,,,10/26/1995 0:00,490,490,,,,Small,"Hydraulic Excavator, Track - 8.0 to 11.0 Metric Tons",Maine,TEX,Track Excavators,,EROPS,,,,,,,,,,,Standard,,,,,,None or Unspecified,,,,Steel,28 inch,None or Unspecified,None or Unspecified,None or Unspecified,Double,,,,,
8165,1602196,37000,1174692,132,2.0,1000,,,10/22/1994 0:00,490,490,,,,Small,"Hydraulic Excavator, Track - 8.0 to 11.0 Metric Tons",Ohio,TEX,Track Excavators,,EROPS,,,,,,,,,,,Standard,,,,,,None or Unspecified,,,,Steel,None or Unspecified,None or Unspecified,None or Unspecified,None or Unspecified,Double,,,,,
8165,1602197,29000,1359542,132,2.0,1000,,,4/29/1995 0:00,490,490,,,,Small,"Hydraulic Excavator, Track - 8.0 to 11.0 Metric Tons",Ohio,TEX,Track Excavators,,EROPS,,,,,,,,,,,Standard,,,,,,None or Unspecified,,,,Steel,None or Unspecified,None or Unspecified,None or Unspecified,None or Unspecified,Double,,,,,
8165,1602320,37500,1509266,132,21.0,1988,,,5/22/1996 0:00,490,490,,,,Small,"Hydraulic Excavator, Track - 8.0 to 11.0 Metric Tons",Maine,TEX,Track Excavators,,EROPS,,,,,,,,,,,Standard,,,,,,None or Unspecified,,,,Steel,None or Unspecified,None or Unspecified,None or Unspecified,None or Unspecified,Double,,,,,
8165,1613802,24500,1364989,132,2.0,1987,,,2/5/1997 0:00,490,490,,,,Small,"Hydraulic Excavator, Track - 8.0 to 11.0 Metric Tons",Florida,TEX,Track Excavators,,EROPS,,,,,,,,,,,Standard,,,,,,None or Unspecified,,,,Steel,None or Unspecified,None or Unspecified,None or Unspecified,None or Unspecified,Double,,,,,
8165,1621399,26500,1385156,132,2.0,1984,,,9/21/1996 0:00,490,490,,,,Small,"Hydraulic Excavator, Track - 8.0 to 11.0 Metric Tons",Ohio,TEX,Track Excavators,,EROPS,,,,,,,,,,,Standard,,,,,,None or Unspecified,,,,Steel,None or Unspecified,None or Unspecified,None or Unspecified,None or Unspecified,Double,,,,,
8165,1622341,24000,1161315,132,1.0,1984,,,10/11/1990 0:00,490,490,,,,Small,"Hydraulic Excavator, Track - 8.0 to 11.0 Metric Tons",Florida,TEX,Track Excavators,,EROPS,,,,,,,,,,,Standard,,,,,,None or Unspecified,,,,Steel,None or Unspecified,"9' 6""",None or Unspecified,None or Unspecified,Double,,,,,
8165,1622342,14500,1161315,132,1.0,1984,,,3/14/2000 0:00,490,490,,,,Small,"Hydraulic Excavator, Track - 8.0 to 11.0 Metric Tons",Texas,TEX,Track Excavators,,EROPS,,,,,,,,,,,Standard,,,,,,None or Unspecified,,,,Steel,None or Unspecified,"9' 6""",None or Unspecified,None or Unspecified,Double,,,,,
8165,1623432,15500,1506484,132,2.0,1984,,,9/7/2001 0:00,490,490,,,,Small,"Hydraulic Excavator, Track - 8.0 to 11.0 Metric Tons",New Hampshire,TEX,Track Excavators,,EROPS,,,,,,,,,,,Standard,,,,,,None or Unspecified,,,,Steel,None or Unspecified,None or Unspecified,None or Unspecified,None or Unspecified,Double,,,,,
8165,1623469,27500,1058775,132,4.0,1984,,,10/18/1990 0:00,490,490,,,,Small,"Hydraulic Excavator, Track - 8.0 to 11.0 Metric Tons",Maine,TEX,Track Excavators,,EROPS,,,,,,,,,,,Standard,,,,,,None or Unspecified,,,,Steel,None or Unspecified,None or Unspecified,None or Unspecified,None or Unspecified,Double,,,,,
8165,1623533,14000,1356675,132,1.0,1984,,,9/25/2001 0:00,490,490,,,,Small,"Hydraulic Excavator, Track - 8.0 to 11.0 Metric Tons",Washington,TEX,Track Excavators,,EROPS,,,,,,,,,,,Standard,,,,,,None or Unspecified,,,,Steel,None or Unspecified,"9' 10""",Hydraulic,None or Unspecified,Double,,,,,
8165,1623534,9000,1356675,132,1.0,1984,,,12/10/2009 0:00,490,490,,,,Small,"Hydraulic Excavator, Track - 8.0 to 11.0 Metric Tons",Washington,TEX,Track Excavators,,EROPS,,,,,,,,,,,Standard,,,,,,None or Unspecified,,,,Steel,None or Unspecified,"9' 10""",Hydraulic,None or Unspecified,Double,,,,,
8165,1625271,13500,1374096,132,8.0,1984,,,5/25/2004 0:00,490,490,,,,Small,"Hydraulic Excavator, Track - 8.0 to 11.0 Metric Tons",Mississippi,TEX,Track Excavators,,EROPS,,,,,,,,,,,Standard,,,,,,None or Unspecified,,,,Steel,None or Unspecified,None or Unspecified,None or Unspecified,None or Unspecified,Double,,,,,
8165,1625403,14500,1445544,132,2.0,1984,,,1/24/1998 0:00,490,490,,,,Small,"Hydraulic Excavator, Track - 8.0 to 11.0 Metric Tons",Ohio,TEX,Track Excavators,,EROPS,,,,,,,,,,,Standard,,,,,,None or Unspecified,,,,Steel,None or Unspecified,None or Unspecified,None or Unspecified,None or Unspecified,Double,,,,,
8165,1625421,18000,1492131,132,2.0,1984,,,2/4/1998 0:00,490,490,,,,Small,"Hydraulic Excavator, Track - 8.0 to 11.0 Metric Tons",Florida,TEX,Track Excavators,,EROPS,,,,,,,,,,,Standard,,,,,,None or Unspecified,,,,Steel,24 inch,None or Unspecified,None or Unspecified,None or Unspecified,Double,,,,,
8165,1625468,8000,1354939,132,1.0,1984,,,6/28/2007 0:00,490,490,,,,Small,"Hydraulic Excavator, Track - 8.0 to 11.0 Metric Tons",Arizona,TEX,Track Excavators,,EROPS,,,,,,,,,,,Standard,,,,,,None or Unspecified,,,,Steel,None or Unspecified,"8' 6""",Manual,None or Unspecified,Double,,,,,
8165,1629477,25000,1151495,132,4.0,1985,,,2/9/1995 0:00,490,490,,,,Small,"Hydraulic Excavator, Track - 8.0 to 11.0 Metric Tons",Florida,TEX,Track Excavators,,EROPS,,,,,,,,,,,Standard,,,,,,None or Unspecified,,,,Steel,32 inch,None or Unspecified,None or Unspecified,None or Unspecified,Double,,,,,
8165,1631287,12000,1189253,132,5.0,1985,,,6/29/2002 0:00,490,490,,,,Small,"Hydraulic Excavator, Track - 8.0 to 11.0 Metric Tons",Connecticut,TEX,Track Excavators,,EROPS,,,,,,,,,,,Standard,,,,,,Manual,,,,Steel,20 inch,None or Unspecified,None or Unspecified,None or Unspecified,Triple,,,,,
8165,1631406,13000,1289595,132,7.0,1984,,,3/8/2006 0:00,490,490,,,,Small,"Hydraulic Excavator, Track - 8.0 to 11.0 Metric Tons",Alabama,TEX,Track Excavators,,EROPS,,,,,,,,,,,Standard,,,,,,None or Unspecified,,,,Steel,28 inch,None or Unspecified,None or Unspecified,None or Unspecified,Triple,,,,,
8165,1631418,32000,1346145,132,1.0,1984,,,9/21/1989 0:00,490,490,,,,Small,"Hydraulic Excavator, Track - 8.0 to 11.0 Metric Tons",Florida,TEX,Track Excavators,,EROPS,,,,,,,,,,,Standard,,,,,,None or Unspecified,,,,Steel,None or Unspecified,"9' 10""",None or Unspecified,None or Unspecified,Double,,,,,
8165,1631460,25000,1142625,132,4.0,1984,,,2/5/1991 0:00,490,490,,,,Small,"Hydraulic Excavator, Track - 8.0 to 11.0 Metric Tons",Florida,TEX,Track Excavators,,EROPS,,,,,,,,,,,Standard,,,,,,None or Unspecified,,,,Steel,None or Unspecified,None or Unspecified,None or Unspecified,None or Unspecified,Double,,,,,
8165,1631479,28000,1251775,132,1.0,1984,,,2/22/1990 0:00,490,490,,,,Small,"Hydraulic Excavator, Track - 8.0 to 11.0 Metric Tons",Arizona,TEX,Track Excavators,,EROPS,,,,,,,,,,,Standard,,,,,,None or Unspecified,,,,Steel,None or Unspecified,None or Unspecified,None or Unspecified,None or Unspecified,Double,,,,,
8165,1633174,10000,1144782,132,4.0,1984,,,2/15/2007 0:00,490,490,,,,Small,"Hydraulic Excavator, Track - 8.0 to 11.0 Metric Tons",Florida,TEX,Track Excavators,,EROPS,,,,,,,,,,,Standard,,,,,,None or Unspecified,,,,Steel,None or Unspecified,"10' 2""",Manual,None or Unspecified,Double,,,,,
8165,1633276,30000,1361108,132,4.0,1984,,,2/6/1990 0:00,490,490,,,,Small,"Hydraulic Excavator, Track - 8.0 to 11.0 Metric Tons",Florida,TEX,Track Excavators,,EROPS,,,,,,,,,,,Standard,,,,,,None or Unspecified,,,,Steel,None or Unspecified,None or Unspecified,None or Unspecified,None or Unspecified,Double,,,,,
8165,1634310,28500,1508359,132,6.0,1985,,,4/11/1995 0:00,490,490,,,,Small,"Hydraulic Excavator, Track - 8.0 to 11.0 Metric Tons",Maryland,TEX,Track Excavators,,EROPS,,,,,,,,,,,Standard,,,,,,None or Unspecified,,,,Steel,20 inch,None or Unspecified,None or Unspecified,None or Unspecified,Double,,,,,
8165,1634327,10500,1365295,132,1.0,1985,,,9/12/2003 0:00,490,490,,,,Small,"Hydraulic Excavator, Track - 8.0 to 11.0 Metric Tons",Missouri,TEX,Track Excavators,,EROPS,,,,,,,,,,,Standard,,,,,,None or Unspecified,,,,Steel,None or Unspecified,None or Unspecified,None or Unspecified,None or Unspecified,Double,,,,,
8165,1637659,35000,1326130,132,4.0,1985,,,2/6/1990 0:00,490,490,,,,Small,"Hydraulic Excavator, Track - 8.0 to 11.0 Metric Tons",Florida,TEX,Track Excavators,,EROPS,,,,,,,,,,,Standard,,,,,,None or Unspecified,,,,Steel,None or Unspecified,None or Unspecified,None or Unspecified,None or Unspecified,Double,,,,,
8165,1637748,26000,1330614,132,1.0,1985,,,9/25/1990 0:00,490,490,,,,Small,"Hydraulic Excavator, Track - 8.0 to 11.0 Metric Tons",Kentucky,TEX,Track Excavators,,EROPS,,,,,,,,,,,Auxiliary,,,,,,None or Unspecified,,,,Steel,None or Unspecified,None or Unspecified,None or Unspecified,None or Unspecified,Double,,,,,
8165,1639420,27000,1274579,132,1.0,1984,,,10/17/1989 0:00,490,490,,,,Small,"Hydraulic Excavator, Track - 8.0 to 11.0 Metric Tons",Minnesota,TEX,Track Excavators,,EROPS,,,,,,,,,,,Standard,,,,,,None or Unspecified,,,,Steel,None or Unspecified,None or Unspecified,None or Unspecified,None or Unspecified,Double,,,,,
8165,1639737,8000,1081768,132,8.0,1985,,,5/25/2011 0:00,490,490,,,,Small,"Hydraulic Excavator, Track - 8.0 to 11.0 Metric Tons",Mississippi,TEX,Track Excavators,,EROPS,,,,,,,,,,,Standard,,,,,,None or Unspecified,,,,Steel,None or Unspecified,None or Unspecified,Hydraulic,None or Unspecified,Double,,,,,
8165,1639871,10750,1226921,132,5.0,1986,,,8/28/2009 0:00,490,490,,,,Small,"Hydraulic Excavator, Track - 8.0 to 11.0 Metric Tons",Connecticut,TEX,Track Excavators,,EROPS,,,,,,,,,,,Standard,,,,,,None or Unspecified,,,,Steel,None or Unspecified,None or Unspecified,None or Unspecified,None or Unspecified,Double,,,,,
8165,1639921,13500,1111310,132,2.0,1985,,,2/8/2008 0:00,490,490,,,,Small,"Hydraulic Excavator, Track - 8.0 to 11.0 Metric Tons",Florida,TEX,Track Excavators,,EROPS w AC,,,,,,,,,,,2 Valve,,,,,,,,,,,None or Unspecified,,,,,,,,,
8165,1640555,11500,1534865,132,2.0,1985,,,12/10/2003 0:00,490,490,,,,Small,"Hydraulic Excavator, Track - 8.0 to 11.0 Metric Tons",Texas,TEX,Track Excavators,,EROPS,,,,,,,,,,,Standard,,,,,,None or Unspecified,,,,Steel,None or Unspecified,None or Unspecified,None or Unspecified,None or Unspecified,Double,,,,,
8165,1642399,35000,1533670,132,1.0,1985,,,7/29/1992 0:00,490,490,,,,Small,"Hydraulic Excavator, Track - 8.0 to 11.0 Metric Tons",Maryland,TEX,Track Excavators,,EROPS,,,,,,,,,,,Standard,,,,,,None or Unspecified,,,,Steel,None or Unspecified,None or Unspecified,None or Unspecified,None or Unspecified,Triple,,,,,
8165,1644255,25500,1296695,132,4.0,1985,,,2/4/1992 0:00,490,490,,,,Small,"Hydraulic Excavator, Track - 8.0 to 11.0 Metric Tons",Florida,TEX,Track Excavators,,EROPS,,,,,,,,,,,Standard,,,,,,None or Unspecified,,,,Steel,None or Unspecified,None or Unspecified,None or Unspecified,None or Unspecified,Double,,,,,
8165,1644256,24000,1296695,132,12.0,1985,,,5/28/1997 0:00,490,490,,,,Small,"Hydraulic Excavator, Track - 8.0 to 11.0 Metric Tons",South Carolina,TEX,Track Excavators,,EROPS,,,,,,,,,,,Standard,,,,,,None or Unspecified,,,,Steel,None or Unspecified,None or Unspecified,None or Unspecified,None or Unspecified,Double,,,,,
8165,1644267,22750,1115411,132,24.0,1985,,,3/24/1992 0:00,490,490,,,,Small,"Hydraulic Excavator, Track - 8.0 to 11.0 Metric Tons",Georgia,TEX,Track Excavators,,EROPS,,,,,,,,,,,Standard,,,,,,None or Unspecified,,,,Steel,None or Unspecified,None or Unspecified,None or Unspecified,None or Unspecified,Double,,,,,
8165,1644277,25000,1180467,132,4.0,1985,,,10/28/1993 0:00,490,490,,,,Small,"Hydraulic Excavator, Track - 8.0 to 11.0 Metric Tons",Georgia,TEX,Track Excavators,,EROPS,,,,,,,,,,,Standard,,,,,,None or Unspecified,,,,Steel,None or Unspecified,None or Unspecified,None or Unspecified,None or Unspecified,Double,,,,,
8165,1644395,25000,1418006,132,2.0,1985,,,9/16/1995 0:00,490,490,,,,Small,"Hydraulic Excavator, Track - 8.0 to 11.0 Metric Tons",Indiana,TEX,Track Excavators,,EROPS,,,,,,,,,,,,,,,,,,,,,,None or Unspecified,,,,,,,,,
8165,1644398,23500,1378166,132,2.0,1985,,,9/23/1995 0:00,490,490,,,,Small,"Hydraulic Excavator, Track - 8.0 to 11.0 Metric Tons",New York,TEX,Track Excavators,,EROPS,,,,,,,,,,,Standard,,,,,,None or Unspecified,,,,Steel,None or Unspecified,None or Unspecified,None or Unspecified,None or Unspecified,Double,,,,,
8165,1644400,17250,1473529,132,20.0,1985,,,4/18/2001 0:00,490,490,,,,Small,"Hydraulic Excavator, Track - 8.0 to 11.0 Metric Tons",Arkansas,TEX,Track Excavators,,EROPS,,,,,,,,,,,Standard,,,,,,None or Unspecified,,,,Steel,28 inch,None or Unspecified,Manual,None or Unspecified,Triple,,,,,
8165,1644401,25000,1473529,132,10.0,1986,,,10/30/1992 0:00,490,490,,,,Small,"Hydraulic Excavator, Track - 8.0 to 11.0 Metric Tons",Mississippi,TEX,Track Excavators,,EROPS,,,,,,,,,,,Standard,,,,,,None or Unspecified,,,,Steel,28 inch,None or Unspecified,Manual,None or Unspecified,Triple,,,,,
8165,1644404,16500,1531595,132,1.0,1985,,,10/4/2006 0:00,490,490,,,,Small,"Hydraulic Excavator, Track - 8.0 to 11.0 Metric Tons",Maryland,TEX,Track Excavators,,EROPS,,,,,,,,,,,Standard,,,,,,None or Unspecified,,,,Steel,None or Unspecified,"9' 10""",None or Unspecified,None or Unspecified,Double,,,,,
8165,1644448,10500,1338533,132,14.0,1985,,,11/22/1996 0:00,490,490,,,,Small,"Hydraulic Excavator, Track - 8.0 to 11.0 Metric Tons",Indiana,TEX,Track Excavators,,EROPS,,,,,,,,,,,Standard,,,,,,None or Unspecified,,,,Steel,None or Unspecified,None or Unspecified,None or Unspecified,None or Unspecified,Double,,,,,
8165,1644452,13000,1134790,132,7.0,1985,,,9/1/2004 0:00,490,490,,,,Small,"Hydraulic Excavator, Track - 8.0 to 11.0 Metric Tons",Alabama,TEX,Track Excavators,,EROPS,,,,,,,,,,,Standard,,,,,,None or Unspecified,,,,Steel,28 inch,None or Unspecified,None or Unspecified,None or Unspecified,Triple,,,,,
8165,1644711,11000,1213095,132,1.0,1984,,,3/29/2001 0:00,490,490,,,,Small,"Hydraulic Excavator, Track - 8.0 to 11.0 Metric Tons",Maryland,TEX,Track Excavators,,EROPS,,,,,,,,,,,Standard,,,,,,None or Unspecified,,,,Steel,None or Unspecified,None or Unspecified,None or Unspecified,None or Unspecified,Double,,,,,
8165,1644713,10000,1116252,132,1.0,1985,,,11/4/1999 0:00,490,490,,,,Small,"Hydraulic Excavator, Track - 8.0 to 11.0 Metric Tons",Florida,TEX,Track Excavators,,EROPS,,,,,,,,,,,Standard,,,,,,None or Unspecified,,,,Steel,None or Unspecified,"9' 10""",None or Unspecified,None or Unspecified,Double,,,,,
8165,1644760,22000,1431867,132,4.0,1987,,,2/9/1995 0:00,490,490,,,,Small,"Hydraulic Excavator, Track - 8.0 to 11.0 Metric Tons",Florida,TEX,Track Excavators,,EROPS,,,,,,,,,,,Standard,,,,,,None or Unspecified,,,,Steel,None or Unspecified,None or Unspecified,None or Unspecified,None or Unspecified,Double,,,,,
8165,1644771,18500,1122074,132,1.0,1985,,,12/13/1994 0:00,490,490,,,,Small,"Hydraulic Excavator, Track - 8.0 to 11.0 Metric Tons",Arizona,TEX,Track Excavators,,EROPS,,,,,,,,,,,Standard,,,,,,None or Unspecified,,,,Steel,None or Unspecified,None or Unspecified,None or Unspecified,None or Unspecified,Triple,,,,,
8165,1644772,27000,1094266,132,1.0,1985,,,3/30/1995 0:00,490,490,,,,Small,"Hydraulic Excavator, Track - 8.0 to 11.0 Metric Tons",Washington,TEX,Track Excavators,,EROPS,,,,,,,,,,,Auxiliary,,,,,,None or Unspecified,,,,Steel,None or Unspecified,None or Unspecified,Manual,None or Unspecified,Triple,,,,,
8165,1645743,30500,1197458,132,2.0,1985,,,3/25/1994 0:00,490,490,,,,Small,"Hydraulic Excavator, Track - 8.0 to 11.0 Metric Tons",New Jersey,TEX,Track Excavators,,EROPS,,,,,,,,,,,Standard,,,,,,None or Unspecified,,,,Steel,30 inch,None or Unspecified,None or Unspecified,None or Unspecified,Triple,,,,,
8165,1645800,23000,1453747,132,1.0,1000,,,9/30/1997 0:00,490,490,,,,Small,"Hydraulic Excavator, Track - 8.0 to 11.0 Metric Tons",Ohio,TEX,Track Excavators,,EROPS,,,,,,,,,,,Standard,,,,,,None or Unspecified,,,,Steel,None or Unspecified,"9' 6""",None or Unspecified,None or Unspecified,Double,,,,,
8165,1645807,24500,1147185,132,4.0,1000,,,2/9/2000 0:00,490,490,,,,Small,"Hydraulic Excavator, Track - 8.0 to 11.0 Metric Tons",Florida,TEX,Track Excavators,,EROPS,,,,,,,,,,,Standard,,,,,,None or Unspecified,,,,Steel,None or Unspecified,None or Unspecified,None or Unspecified,None or Unspecified,Double,,,,,
8165,1646565,14000,1525890,132,5.0,1985,,,12/28/2001 0:00,490,490,,,,Small,"Hydraulic Excavator, Track - 8.0 to 11.0 Metric Tons",New Jersey,TEX,Track Excavators,,EROPS,,,,,,,,,,,Standard,,,,,,None or Unspecified,,,,Steel,20 inch,None or Unspecified,None or Unspecified,None or Unspecified,Double,,,,,
8165,1646566,26500,1337374,132,2.0,1985,,,10/1/1994 0:00,490,490,,,,Small,"Hydraulic Excavator, Track - 8.0 to 11.0 Metric Tons",Pennsylvania,TEX,Track Excavators,,EROPS,,,,,,,,,,,Standard,,,,,,None or Unspecified,,,,Steel,20 inch,None or Unspecified,None or Unspecified,None or Unspecified,Double,,,,,
8165,1646611,28000,1495272,132,4.0,1988,4500.0,High,5/14/1992 0:00,490,490,,,,Small,"Hydraulic Excavator, Track - 8.0 to 11.0 Metric Tons",Illinois,TEX,Track Excavators,,EROPS,,,,,,,,,,,Auxiliary,,,,,,None or Unspecified,,,,Steel,None or Unspecified,None or Unspecified,None or Unspecified,None or Unspecified,Double,,,,,
8165,2328180,9000,1392656,136,1.0,1985,0.0,,9/16/2008 0:00,490,490,,,,Small,"Hydraulic Excavator, Track - 8.0 to 11.0 Metric Tons",Washington,TEX,Track Excavators,,EROPS,,,,,,,,,,,Standard,,,,,,None or Unspecified,,,,Steel,None or Unspecified,"8' 2""",None or Unspecified,None or Unspecified,Double,,,,,
8165,2328182,8000,1207381,136,8.0,1000,0.0,,3/26/2008 0:00,490,490,,,,Small,"Hydraulic Excavator, Track - 8.0 to 11.0 Metric Tons",Mississippi,TEX,Track Excavators,,EROPS,,,,,,,,,,,Standard,,,,,,None or Unspecified,,,,Steel,None or Unspecified,None or Unspecified,None or Unspecified,None or Unspecified,Double,,,,,
8165,2328184,10750,831506,136,,1986,0.0,,8/28/2009 0:00,490,490,,,,Small,"Hydraulic Excavator, Track - 8.0 to 11.0 Metric Tons",Connecticut,TEX,Track Excavators,,EROPS w AC,,,,,,,,,,,Standard,,,,,,None or Unspecified,,,,Steel,28 inch,None or Unspecified,None or Unspecified,None or Unspecified,Double,,,,,
8165,2329125,8500,1195234,136,6.0,1987,0.0,,4/24/2009 0:00,490,490,,,,Small,"Hydraulic Excavator, Track - 8.0 to 11.0 Metric Tons",Wisconsin,TEX,Track Excavators,,EROPS w AC,,,,,,,,,,,Standard,,,,,,None or Unspecified,,,,Steel,30 inch,None or Unspecified,None or Unspecified,None or Unspecified,Double,,,,,
8165,2336363,10000,1113370,136,2.0,1985,0.0,,12/12/2007 0:00,490,490,,,,Small,"Hydraulic Excavator, Track - 8.0 to 11.0 Metric Tons",Pennsylvania,TEX,Track Excavators,,EROPS,,,,,,,,,,,Standard,,,,,,Manual,,,,Steel,None or Unspecified,None or Unspecified,None or Unspecified,None or Unspecified,Double,,,,,
8165,2336364,12500,1113370,136,4.0,1985,0.0,,4/17/2008 0:00,490,490,,,,Small,"Hydraulic Excavator, Track - 8.0 to 11.0 Metric Tons",Pennsylvania,TEX,Track Excavators,,EROPS,,,,,,,,,,,Standard,,,,,,Manual,,,,Steel,None or Unspecified,None or Unspecified,None or Unspecified,None or Unspecified,Double,,,,,
8165,2337251,15500,1711475,136,,1987,0.0,,6/16/2007 0:00,490,490,,,,Small,"Hydraulic Excavator, Track - 8.0 to 11.0 Metric Tons",New Hampshire,TEX,Track Excavators,,EROPS w AC,,,,,,,,,,,Standard,,,,,,None or Unspecified,,,,Steel,None or Unspecified,None or Unspecified,Manual,None or Unspecified,Double,,,,,
8165,2337253,8000,1696466,136,,1984,0.0,,6/28/2007 0:00,490,490,,,,Small,"Hydraulic Excavator, Track - 8.0 to 11.0 Metric Tons",Arizona,TEX,Track Excavators,,EROPS,,,,,,,,,,,Standard,,,,,,None or Unspecified,,,,Steel,None or Unspecified,None or Unspecified,Manual,None or Unspecified,Double,,,,,
8165,2337255,12500,1663868,136,,1984,0.0,,6/14/2008 0:00,490,490,,,,Small,"Hydraulic Excavator, Track - 8.0 to 11.0 Metric Tons",Minnesota,TEX,Track Excavators,,EROPS,,,,,,,,,,,Standard,,,,,,None or Unspecified,,,,Steel,None or Unspecified,None or Unspecified,None or Unspecified,None or Unspecified,Double,,,,,
8165,2337257,20000,1628103,136,,1985,0.0,,12/12/2008 0:00,490,490,,,,Small,"Hydraulic Excavator, Track - 8.0 to 11.0 Metric Tons",Missouri,TEX,Track Excavators,,EROPS,,,,,,,,,,,Standard,,,,,,None or Unspecified,,,,Steel,20 inch,None or Unspecified,None or Unspecified,None or Unspecified,Triple,,,,,
8165,2337258,12000,1722360,136,,1985,0.0,,10/27/2007 0:00,490,490,,,,Small,"Hydraulic Excavator, Track - 8.0 to 11.0 Metric Tons",Michigan,TEX,Track Excavators,,EROPS,,,,,,,,,,,Standard,,,,,,None or Unspecified,,,,Steel,None or Unspecified,None or Unspecified,None or Unspecified,None or Unspecified,Double,,,,,
8165,2337380,15000,1769066,136,,1986,7925.0,Low,11/6/2008 0:00,490,490,,,,Small,"Hydraulic Excavator, Track - 8.0 to 11.0 Metric Tons",Maine,TEX,Track Excavators,,EROPS,,,,,,,,,,,Standard,,,,,,None or Unspecified,,,,Steel,None or Unspecified,None or Unspecified,None or Unspecified,None or Unspecified,Double,,,,,
8165,2337555,15500,1703403,136,,1987,0.0,,6/28/2008 0:00,490,490,,,,Small,"Hydraulic Excavator, Track - 8.0 to 11.0 Metric Tons",New Jersey,TEX,Track Excavators,,EROPS,,,,,,,,,,,Standard,,,,,,None or Unspecified,,,,Steel,None or Unspecified,None or Unspecified,None or Unspecified,None or Unspecified,Double,,,,,
8165,2344858,13000,1788626,136,,1991,0.0,,7/26/2008 0:00,490,490,,,,Small,"Hydraulic Excavator, Track - 8.0 to 11.0 Metric Tons",Vermont,TEX,Track Excavators,,EROPS,,,,,,,,,,,Standard,,,,,,None or Unspecified,,,,Steel,None or Unspecified,None or Unspecified,None or Unspecified,None or Unspecified,Double,,,,,
8165,2621427,8000,1892208,149,0.0,1985,0.0,,5/25/2011 0:00,490,490,,,,Small,"Hydraulic Excavator, Track - 8.0 to 11.0 Metric Tons",Mississippi,TEX,Track Excavators,,EROPS,,,,,,,,,,,Standard,,,,,,None or Unspecified,,,,Steel,None or Unspecified,None or Unspecified,None or Unspecified,None or Unspecified,Double,,,,,
8165,4310965,9000,2297333,172,1.0,1984,9037.0,Low,12/10/2009 0:00,490,490,,,,Small,"Hydraulic Excavator, Track - 8.0 to 11.0 Metric Tons",Washington,TEX,Track Excavators,,EROPS,,,,,,,,,,,Standard,,,,,,None or Unspecified,,,,Steel,None or Unspecified,None or Unspecified,Hydraulic,None or Unspecified,Double,,,,,
