ModelID,SalesID,SalePrice,MachineID,datasource,auctioneerID,YearMade,MachineHoursCurrentMeter,UsageBand,saledate,fiModelDesc,fiBaseModel,fiSecondaryDesc,fiModelSeries,fiModelDescriptor,ProductSize,fiProductClassDesc,state,ProductGroup,ProductGroupDesc,Drive_System,Enclosure,Forks,Pad_Type,Ride_Control,Stick,Transmission,Turbocharged,Blade_Extension,Blade_Width,Enclosure_Type,Engine_Horsepower,Hydraulics,Pushblock,Ripper,Scarifier,Tip_Control,Tire_Size,Coupler,Coupler_System,Grouser_Tracks,Hydraulics_Flow,Track_Type,Undercarriage_Pad_Width,Stick_Length,Thumb,Pattern_Changer,Grouser_Type,Backhoe_Mounting,Blade_Type,Travel_Controls,Differential_Type,Steering_Controls
8217,1579268,17500,1557658,132,1.0,1000,,,6/10/2003 0:00,590,590,,,,Small,"Hydraulic Excavator, Track - 12.0 to 14.0 Metric Tons",Pennsylvania,TEX,Track Excavators,,EROPS,,,,,,,,,,,,,,,,,,,,,,None or Unspecified,,,,,,,,,
8217,1579755,23000,1413489,132,22.0,1995,,,6/11/2005 0:00,590,590,,,,Small,"Hydraulic Excavator, Track - 12.0 to 14.0 Metric Tons",Minnesota,TEX,Track Excavators,,EROPS,,,,,,,,,,,Auxiliary,,,,,,None or Unspecified,,,,Steel,28 inch,None or Unspecified,None or Unspecified,None or Unspecified,Double,,,,,
8217,1579880,13000,1075258,132,1.0,1000,,,3/11/2008 0:00,590,590,,,,Small,"Hydraulic Excavator, Track - 12.0 to 14.0 Metric Tons",Colorado,TEX,Track Excavators,,EROPS w AC,,,,,,,,,,,Standard,,,,,,None or Unspecified,,,,Steel,None or Unspecified,None or Unspecified,Manual,None or Unspecified,Double,,,,,
8217,1589514,37000,1513603,132,11.0,1990,,,9/17/1997 0:00,590,590,,,,Small,"Hydraulic Excavator, Track - 12.0 to 14.0 Metric Tons",Mississippi,TEX,Track Excavators,,EROPS,,,,,,,,,,,Standard,,,,,,None or Unspecified,,,,Steel,32 inch,None or Unspecified,None or Unspecified,None or Unspecified,Double,,,,,
8217,1589597,62500,1220321,132,1.0,1991,,,7/20/1993 0:00,590,590,,,,Small,"Hydraulic Excavator, Track - 12.0 to 14.0 Metric Tons",Georgia,TEX,Track Excavators,,EROPS,,,,,,,,,,,Standard,,,,,,None or Unspecified,,,,Steel,None or Unspecified,None or Unspecified,None or Unspecified,None or Unspecified,Triple,,,,,
8217,1602474,24500,1468472,132,11.0,1983,,,8/25/1993 0:00,590,590,,,,Small,"Hydraulic Excavator, Track - 12.0 to 14.0 Metric Tons",Mississippi,TEX,Track Excavators,,EROPS,,,,,,,,,,,Standard,,,,,,None or Unspecified,,,,Steel,30 inch,None or Unspecified,None or Unspecified,None or Unspecified,Triple,,,,,
8217,2344877,13000,1731145,136,,1994,0.0,,3/11/2008 0:00,590,590,,,,Small,"Hydraulic Excavator, Track - 12.0 to 14.0 Metric Tons",Colorado,TEX,Track Excavators,,EROPS,,,,,,,,,,,Standard,,,,,,None or Unspecified,,,,Steel,None or Unspecified,None or Unspecified,Manual,None or Unspecified,Double,,,,,
8217,6285238,22000,1906592,149,99.0,1992,,,9/1/2011 0:00,590,590,,,,Small,"Hydraulic Excavator, Track - 12.0 to 14.0 Metric Tons",Montana,TEX,Track Excavators,,EROPS,,,,,,,,,,,Standard,,,,,,None or Unspecified,,,,Steel,None or Unspecified,None or Unspecified,None or Unspecified,None or Unspecified,Double,,,,,
