ModelID,SalesID,SalePrice,MachineID,datasource,auctioneerID,YearMade,MachineHoursCurrentMeter,UsageBand,saledate,fiModelDesc,fiBaseModel,fiSecondaryDesc,fiModelSeries,fiModelDescriptor,ProductSize,fiProductClassDesc,state,ProductGroup,ProductGroupDesc,Drive_System,Enclosure,Forks,Pad_Type,Ride_Control,Stick,Transmission,Turbocharged,Blade_Extension,Blade_Width,Enclosure_Type,Engine_Horsepower,Hydraulics,Pushblock,Ripper,Scarifier,Tip_Control,Tire_Size,Coupler,Coupler_System,Grouser_Tracks,Hydraulics_Flow,Track_Type,Undercarriage_Pad_Width,Stick_Length,Thumb,Pattern_Changer,Grouser_Type,Backhoe_Mounting,Blade_Type,Travel_Controls,Differential_Type,Steering_Controls
8269,1142286,7500,972787,121,3.0,1978,0.0,,5/20/2004 0:00,690,690,,,,Small,"Hydraulic Excavator, Track - 16.0 to 19.0 Metric Tons",Montana,TEX,Track Excavators,,EROPS,,,,,,,,,,,Standard,,,,,,None or Unspecified,,,,Steel,24 inch,None or Unspecified,None or Unspecified,None or Unspecified,Double,,,,,
8269,1578806,10250,1118483,132,99.0,1970,,,11/4/1998 0:00,690,690,,,,Small,"Hydraulic Excavator, Track - 16.0 to 19.0 Metric Tons",Wyoming,TEX,Track Excavators,,EROPS,,,,,,,,,,,Standard,,,,,,None or Unspecified,,,,,,None or Unspecified,None or Unspecified,No,,,,,,
8269,1578849,7500,1501037,132,99.0,1970,,,10/26/1995 0:00,690,690,,,,Small,"Hydraulic Excavator, Track - 16.0 to 19.0 Metric Tons",Maryland,TEX,Track Excavators,,EROPS,,,,,,,,,,,Standard,,,,,,None or Unspecified,,,,Steel,None or Unspecified,None or Unspecified,None or Unspecified,None or Unspecified,Double,,,,,
8269,1578860,8000,1524879,132,1.0,1970,,,5/23/1989 0:00,690,690,,,,Small,"Hydraulic Excavator, Track - 16.0 to 19.0 Metric Tons",Minnesota,TEX,Track Excavators,,EROPS,,,,,,,,,,,Standard,,,,,,None or Unspecified,,,,Steel,None or Unspecified,None or Unspecified,None or Unspecified,None or Unspecified,Double,,,,,
8269,1578941,7500,1423342,132,1.0,1971,,,6/7/1990 0:00,690,690,,,,Small,"Hydraulic Excavator, Track - 16.0 to 19.0 Metric Tons",Washington,TEX,Track Excavators,,EROPS,,,,,,,,,,,Standard,,,,,,None or Unspecified,,,,Steel,None or Unspecified,None or Unspecified,None or Unspecified,None or Unspecified,Double,,,,,
8269,1579610,11000,1227001,132,1.0,1000,,,8/5/1999 0:00,690,690,,,,Small,"Hydraulic Excavator, Track - 16.0 to 19.0 Metric Tons",Pennsylvania,TEX,Track Excavators,,EROPS,,,,,,,,,,,Standard,,,,,,None or Unspecified,,,,Steel,None or Unspecified,None or Unspecified,None or Unspecified,None or Unspecified,Double,,,,,
8269,1579639,9000,1552646,132,1.0,1973,,,9/12/1989 0:00,690,690,,,,Small,"Hydraulic Excavator, Track - 16.0 to 19.0 Metric Tons",Texas,TEX,Track Excavators,,EROPS,,,,,,,,,,,Standard,,,,,,None or Unspecified,,,,Steel,None or Unspecified,None or Unspecified,None or Unspecified,None or Unspecified,Double,,,,,
8269,1579739,11000,1194991,132,1.0,1973,,,6/22/1989 0:00,690,690,,,,Small,"Hydraulic Excavator, Track - 16.0 to 19.0 Metric Tons",Oregon,TEX,Track Excavators,,EROPS,,,,,,,,,,,Standard,,,,,,None or Unspecified,,,,Steel,None or Unspecified,None or Unspecified,None or Unspecified,None or Unspecified,Double,,,,,
8269,1580055,16000,1130227,132,2.0,1000,,,11/5/1994 0:00,690,690,,,,Small,"Hydraulic Excavator, Track - 16.0 to 19.0 Metric Tons",Wisconsin,TEX,Track Excavators,,EROPS,,,,,,,,,,,Standard,,,,,,None or Unspecified,,,,Steel,None or Unspecified,None or Unspecified,None or Unspecified,None or Unspecified,Double,,,,,
8269,1580250,10000,1258249,132,1.0,1976,,,12/2/1993 0:00,690,690,,,,Small,"Hydraulic Excavator, Track - 16.0 to 19.0 Metric Tons",Washington,TEX,Track Excavators,,EROPS,,,,,,,,,,,Standard,,,,,,None or Unspecified,,,,Steel,None or Unspecified,None or Unspecified,None or Unspecified,None or Unspecified,Triple,,,,,
8269,1580307,29000,1357844,132,1.0,1976,,,9/16/1993 0:00,690,690,,,,Small,"Hydraulic Excavator, Track - 16.0 to 19.0 Metric Tons",Utah,TEX,Track Excavators,,EROPS,,,,,,,,,,,Standard,,,,,,None or Unspecified,,,,Steel,None or Unspecified,None or Unspecified,Manual,None or Unspecified,Triple,,,,,
8269,1580420,26000,1117325,132,99.0,1976,,,5/22/1990 0:00,690,690,,,,Small,"Hydraulic Excavator, Track - 16.0 to 19.0 Metric Tons",Montana,TEX,Track Excavators,,EROPS,,,,,,,,,,,Standard,,,,,,None or Unspecified,,,,Steel,None or Unspecified,None or Unspecified,None or Unspecified,None or Unspecified,Double,,,,,
8269,1580444,12500,1492845,132,17.0,1000,,,5/3/2005 0:00,690,690,,,,Small,"Hydraulic Excavator, Track - 16.0 to 19.0 Metric Tons",Idaho,TEX,Track Excavators,,EROPS,,,,,,,,,,,Standard,,,,,,None or Unspecified,,,,Steel,None or Unspecified,None or Unspecified,Manual,None or Unspecified,Double,,,,,
8269,1580774,16000,1508053,132,1.0,1977,,,8/22/1989 0:00,690,690,,,,Small,"Hydraulic Excavator, Track - 16.0 to 19.0 Metric Tons",Colorado,TEX,Track Excavators,,EROPS,,,,,,,,,,,Standard,,,,,,None or Unspecified,,,,Steel,None or Unspecified,None or Unspecified,None or Unspecified,None or Unspecified,Triple,,,,,
8269,1580789,18000,1105929,132,1.0,1977,,,11/21/1989 0:00,690,690,,,,Small,"Hydraulic Excavator, Track - 16.0 to 19.0 Metric Tons",Colorado,TEX,Track Excavators,,EROPS,,,,,,,,,,,Standard,,,,,,None or Unspecified,,,,Steel,None or Unspecified,None or Unspecified,None or Unspecified,None or Unspecified,Double,,,,,
8269,1580790,16000,1105929,132,1.0,1977,,,8/22/1989 0:00,690,690,,,,Small,"Hydraulic Excavator, Track - 16.0 to 19.0 Metric Tons",Colorado,TEX,Track Excavators,,EROPS,,,,,,,,,,,Standard,,,,,,None or Unspecified,,,,Steel,None or Unspecified,None or Unspecified,None or Unspecified,None or Unspecified,Double,,,,,
8269,1580840,8500,1195148,132,25.0,1000,,,6/23/2001 0:00,690,690,,,,Small,"Hydraulic Excavator, Track - 16.0 to 19.0 Metric Tons",California,TEX,Track Excavators,,EROPS,,,,,,,,,,,Base + 1 Function,,,,,,,,,,,,,,,,,,,,
8269,1580844,12500,1346916,132,1.0,1979,,,6/19/1992 0:00,690,690,,,,Small,"Hydraulic Excavator, Track - 16.0 to 19.0 Metric Tons",Minnesota,TEX,Track Excavators,,OROPS,,,,,,,,,,,Base + 1 Function,,,,,,,,,,,,,,,,,,,,
8269,1580846,16000,1534506,132,2.0,1978,,,6/5/1992 0:00,690,690,,,,Small,"Hydraulic Excavator, Track - 16.0 to 19.0 Metric Tons",Ohio,TEX,Track Excavators,,EROPS,,,,,,,,,,,Standard,,,,,,None or Unspecified,,,,Steel,None or Unspecified,None or Unspecified,None or Unspecified,None or Unspecified,Double,,,,,
8269,1581036,27500,1524547,132,1.0,1978,,,4/4/1989 0:00,690,690,,,,Small,"Hydraulic Excavator, Track - 16.0 to 19.0 Metric Tons",New Mexico,TEX,Track Excavators,,EROPS,,,,,,,,,,,Base + 1 Function,,,,,,,,,,,,,,,,,,,,
8269,1581061,26500,1489691,132,1.0,1978,,,3/27/1990 0:00,690,690,,,,Small,"Hydraulic Excavator, Track - 16.0 to 19.0 Metric Tons",Colorado,TEX,Track Excavators,,EROPS,,,,,,,,,,,Standard,,,,,,None or Unspecified,,,,Steel,None or Unspecified,None or Unspecified,None or Unspecified,None or Unspecified,Double,,,,,
8269,1581111,26000,1187397,132,1.0,1979,,,2/22/1990 0:00,690,690,,,,Small,"Hydraulic Excavator, Track - 16.0 to 19.0 Metric Tons",Arizona,TEX,Track Excavators,,EROPS,,,,,,,,,,,Standard,,,,,,None or Unspecified,,,,Steel,None or Unspecified,None or Unspecified,None or Unspecified,None or Unspecified,Double,,,,,
8269,1581149,16500,1545999,132,1.0,1979,,,4/4/1989 0:00,690,690,,,,Small,"Hydraulic Excavator, Track - 16.0 to 19.0 Metric Tons",New Mexico,TEX,Track Excavators,,EROPS,,,,,,,,,,,Standard,,,,,,None or Unspecified,,,,Steel,None or Unspecified,None or Unspecified,None or Unspecified,None or Unspecified,Double,,,,,
8269,1581367,27000,1446603,132,1.0,1979,,,4/4/1989 0:00,690,690,,,,Small,"Hydraulic Excavator, Track - 16.0 to 19.0 Metric Tons",New Mexico,TEX,Track Excavators,,EROPS,,,,,,,,,,,Standard,,,,,,None or Unspecified,,,,Steel,None or Unspecified,None or Unspecified,None or Unspecified,None or Unspecified,Double,,,,,
8269,1581900,29000,1486390,132,1.0,1982,,,4/18/1989 0:00,690,690,,,,Small,"Hydraulic Excavator, Track - 16.0 to 19.0 Metric Tons",Texas,TEX,Track Excavators,,EROPS,,,,,,,,,,,Standard,,,,,,None or Unspecified,,,,Steel,None or Unspecified,None or Unspecified,None or Unspecified,None or Unspecified,Double,,,,,
8269,1582893,8500,1375838,132,18.0,1973,,,4/27/1991 0:00,690,690,,,,Small,"Hydraulic Excavator, Track - 16.0 to 19.0 Metric Tons",Pennsylvania,TEX,Track Excavators,,EROPS,,,,,,,,,,,Standard,,,,,,None or Unspecified,,,,Steel,24 inch,None or Unspecified,None or Unspecified,None or Unspecified,Double,,,,,
8269,1586384,9000,1467995,132,6.0,1972,,,12/17/1991 0:00,690,690,,,,Small,"Hydraulic Excavator, Track - 16.0 to 19.0 Metric Tons",Kentucky,TEX,Track Excavators,,EROPS w AC,,,,,,,,,,,Auxiliary,,,,,,None or Unspecified,,,,Steel,None or Unspecified,None or Unspecified,Hydraulic,None or Unspecified,Double,,,,,
8269,1586385,10000,1467995,132,6.0,1973,,,12/15/1992 0:00,690,690,,,,Small,"Hydraulic Excavator, Track - 16.0 to 19.0 Metric Tons",Kentucky,TEX,Track Excavators,,EROPS w AC,,,,,,,,,,,Auxiliary,,,,,,None or Unspecified,,,,Steel,None or Unspecified,None or Unspecified,Hydraulic,None or Unspecified,Double,,,,,
8269,1589367,10000,1215848,132,4.0,1972,,,2/1/1989 0:00,690,690,,,,Small,"Hydraulic Excavator, Track - 16.0 to 19.0 Metric Tons",Florida,TEX,Track Excavators,,EROPS,,,,,,,,,,,Standard,,,,,,None or Unspecified,,,,Steel,None or Unspecified,None or Unspecified,None or Unspecified,None or Unspecified,Double,,,,,
8269,1590814,11000,1283380,132,1.0,1973,,,5/18/1989 0:00,690,690,,,,Small,"Hydraulic Excavator, Track - 16.0 to 19.0 Metric Tons",Wyoming,TEX,Track Excavators,,EROPS,,,,,,,,,,,Standard,,,,,,None or Unspecified,,,,Steel,None or Unspecified,None or Unspecified,None or Unspecified,None or Unspecified,Double,,,,,
8269,1590950,9500,1291953,132,4.0,1973,,,8/8/1991 0:00,690,690,,,,Small,"Hydraulic Excavator, Track - 16.0 to 19.0 Metric Tons",North Carolina,TEX,Track Excavators,,EROPS,,,,,,,,,,,Standard,,,,,,None or Unspecified,,,,Steel,24 inch,None or Unspecified,None or Unspecified,None or Unspecified,Double,,,,,
8269,1591646,8500,1431645,132,99.0,1973,,,3/15/1994 0:00,690,690,,,,Small,"Hydraulic Excavator, Track - 16.0 to 19.0 Metric Tons",Texas,TEX,Track Excavators,,EROPS,,,,,,,,,,,Standard,,,,,,None or Unspecified,,,,Steel,None or Unspecified,None or Unspecified,None or Unspecified,None or Unspecified,Double,,,,,
8269,1591714,9250,1531147,132,10.0,1973,,,10/14/1992 0:00,690,690,,,,Small,"Hydraulic Excavator, Track - 16.0 to 19.0 Metric Tons",Alabama,TEX,Track Excavators,,EROPS,,,,,,,,,,,Standard,,,,,,None or Unspecified,,,,Steel,None or Unspecified,None or Unspecified,None or Unspecified,None or Unspecified,Double,,,,,
8269,1592108,12000,1160581,132,1.0,1973,,,5/25/1989 0:00,690,690,,,,Small,"Hydraulic Excavator, Track - 16.0 to 19.0 Metric Tons",Montana,TEX,Track Excavators,,EROPS,,,,,,,,,,,Standard,,,,,,None or Unspecified,,,,Steel,None or Unspecified,None or Unspecified,None or Unspecified,None or Unspecified,Double,,,,,
8269,1592333,12500,1504138,132,4.0,1974,,,10/18/1990 0:00,690,690,,,,Small,"Hydraulic Excavator, Track - 16.0 to 19.0 Metric Tons",Maine,TEX,Track Excavators,,EROPS,,,,,,,,,,,Standard,,,,,,None or Unspecified,,,,Steel,None or Unspecified,None or Unspecified,None or Unspecified,None or Unspecified,Double,,,,,
8269,1592418,16500,1456872,132,99.0,1974,,,8/20/1993 0:00,690,690,,,,Small,"Hydraulic Excavator, Track - 16.0 to 19.0 Metric Tons",South Carolina,TEX,Track Excavators,,EROPS,,,,,,,,,,,Standard,,,,,,None or Unspecified,,,,Steel,None or Unspecified,None or Unspecified,None or Unspecified,None or Unspecified,Double,,,,,
8269,1592602,14500,1119167,132,1.0,1971,,,10/12/1989 0:00,690,690,,,,Small,"Hydraulic Excavator, Track - 16.0 to 19.0 Metric Tons",Texas,TEX,Track Excavators,,EROPS,,,,,,,,,,,,,,,,,,,,,,None or Unspecified,,,,,,,,,
8269,1593150,19500,1309801,132,24.0,1974,,,4/26/1989 0:00,690,690,,,,Small,"Hydraulic Excavator, Track - 16.0 to 19.0 Metric Tons",Georgia,TEX,Track Excavators,,EROPS,,,,,,,,,,,Standard,,,,,,None or Unspecified,,,,Steel,None or Unspecified,None or Unspecified,None or Unspecified,None or Unspecified,Double,,,,,
8269,1593151,15500,1309801,132,24.0,1974,,,3/13/1990 0:00,690,690,,,,Small,"Hydraulic Excavator, Track - 16.0 to 19.0 Metric Tons",Georgia,TEX,Track Excavators,,EROPS,,,,,,,,,,,Standard,,,,,,None or Unspecified,,,,Steel,None or Unspecified,None or Unspecified,None or Unspecified,None or Unspecified,Double,,,,,
8269,1593182,14000,1273113,132,1.0,1974,,,9/24/1992 0:00,690,690,,,,Small,"Hydraulic Excavator, Track - 16.0 to 19.0 Metric Tons",Washington,TEX,Track Excavators,,EROPS,,,,,,,,,,,2 Valve,,,,,,None or Unspecified,,,,,,,,,,,,,,
8269,1593853,9000,1370357,132,1.0,1974,,,7/12/1993 0:00,690,690,,,,Small,"Hydraulic Excavator, Track - 16.0 to 19.0 Metric Tons",Texas,TEX,Track Excavators,,EROPS,,,,,,,,,,,,,,,,,,,,,,None or Unspecified,,,,,,,,,
8269,1594323,17500,1314116,132,6.0,1974,100.0,Low,5/5/1992 0:00,690,690,,,,Small,"Hydraulic Excavator, Track - 16.0 to 19.0 Metric Tons",Minnesota,TEX,Track Excavators,,EROPS,,,,,,,,,,,Standard,,,,,,None or Unspecified,,,,Steel,None or Unspecified,None or Unspecified,None or Unspecified,None or Unspecified,Double,,,,,
8269,1594351,7500,1235980,132,1.0,1975,,,5/5/1992 0:00,690,690,,,,Small,"Hydraulic Excavator, Track - 16.0 to 19.0 Metric Tons",Maryland,TEX,Track Excavators,,EROPS,,,,,,,,,,,Standard,,,,,,None or Unspecified,,,,Steel,None or Unspecified,None or Unspecified,None or Unspecified,None or Unspecified,Triple,,,,,
8269,1594539,13000,1099785,132,1.0,1974,,,5/25/1989 0:00,690,690,,,,Small,"Hydraulic Excavator, Track - 16.0 to 19.0 Metric Tons",Montana,TEX,Track Excavators,,EROPS,,,,,,,,,,,Standard,,,,,,None or Unspecified,,,,Steel,None or Unspecified,None or Unspecified,None or Unspecified,None or Unspecified,Double,,,,,
8269,1595001,14000,381101,132,4.0,1974,,,2/6/1990 0:00,690,690,,,,Small,"Hydraulic Excavator, Track - 16.0 to 19.0 Metric Tons",Florida,TEX,Track Excavators,,EROPS,,,,,,,,,,,Standard,,,,,,None or Unspecified,,,,Steel,None or Unspecified,None or Unspecified,None or Unspecified,None or Unspecified,Double,,,,,
8269,1595142,9000,1254800,132,6.0,1970,,,6/6/1995 0:00,690,690,,,,Small,"Hydraulic Excavator, Track - 16.0 to 19.0 Metric Tons",Florida,TEX,Track Excavators,,OROPS,,,,,,,,,,,2 Valve,,,,,,None or Unspecified,,,,,,,,,,,,,,
8269,1595162,12500,1372884,132,1.0,1974,,,11/24/1992 0:00,690,690,,,,Small,"Hydraulic Excavator, Track - 16.0 to 19.0 Metric Tons",Nevada,TEX,Track Excavators,,EROPS,,,,,,,,,,,Standard,,,,,,None or Unspecified,,,,Steel,None or Unspecified,None or Unspecified,None or Unspecified,None or Unspecified,Double,,,,,
8269,1595197,9000,1136076,132,1.0,1974,,,7/12/1993 0:00,690,690,,,,Small,"Hydraulic Excavator, Track - 16.0 to 19.0 Metric Tons",Texas,TEX,Track Excavators,,EROPS,,,,,,,,,,,Standard,,,,,,None or Unspecified,,,,Steel,None or Unspecified,None or Unspecified,None or Unspecified,None or Unspecified,Triple,,,,,
8269,1595233,19000,1097893,132,1.0,1974,,,12/4/1990 0:00,690,690,,,,Small,"Hydraulic Excavator, Track - 16.0 to 19.0 Metric Tons",Texas,TEX,Track Excavators,,EROPS,,,,,,,,,,,Standard,,,,,,None or Unspecified,,,,Steel,None or Unspecified,None or Unspecified,None or Unspecified,None or Unspecified,Double,,,,,
8269,1595253,15000,1259438,132,1.0,1974,,,5/1/1990 0:00,690,690,,,,Small,"Hydraulic Excavator, Track - 16.0 to 19.0 Metric Tons",Maine,TEX,Track Excavators,,EROPS,,,,,,,,,,,Standard,,,,,,None or Unspecified,,,,Steel,None or Unspecified,None or Unspecified,None or Unspecified,None or Unspecified,Double,,,,,
8269,1595305,15500,1313084,132,24.0,1974,,,3/13/1990 0:00,690,690,,,,Small,"Hydraulic Excavator, Track - 16.0 to 19.0 Metric Tons",Georgia,TEX,Track Excavators,,EROPS,,,,,,,,,,,Standard,,,,,,None or Unspecified,,,,Steel,30 inch,None or Unspecified,None or Unspecified,None or Unspecified,Triple,,,,,
8269,1595402,10500,1100387,132,99.0,1970,,,4/2/1997 0:00,690,690,,,,Small,"Hydraulic Excavator, Track - 16.0 to 19.0 Metric Tons",Iowa,TEX,Track Excavators,,EROPS,,,,,,,,,,,Standard,,,,,,None or Unspecified,,,,Steel,24 inch,None or Unspecified,None or Unspecified,None or Unspecified,Double,,,,,
8269,1595404,18000,1200795,132,1.0,1974,,,5/2/1989 0:00,690,690,,,,Small,"Hydraulic Excavator, Track - 16.0 to 19.0 Metric Tons",Pennsylvania,TEX,Track Excavators,,EROPS,,,,,,,,,,,Standard,,,,,,None or Unspecified,,,,Steel,None or Unspecified,None or Unspecified,None or Unspecified,None or Unspecified,Double,,,,,
8269,1595786,19000,1496255,132,1.0,1975,,,4/18/1989 0:00,690,690,,,,Small,"Hydraulic Excavator, Track - 16.0 to 19.0 Metric Tons",Texas,TEX,Track Excavators,,OROPS,,,,,,,,,,,Base + 1 Function,,,,,,,,,,,,,,,,,,,,
8269,1595799,13000,1236699,132,1.0,1975,,,3/14/1989 0:00,690,690,,,,Small,"Hydraulic Excavator, Track - 16.0 to 19.0 Metric Tons",Texas,TEX,Track Excavators,,EROPS,,,,,,,,,,,Standard,,,,,,None or Unspecified,,,,Steel,None or Unspecified,"9' 6""",None or Unspecified,None or Unspecified,Double,,,,,
8269,1596028,20000,1466011,132,4.0,1975,,,2/1/1993 0:00,690,690,,,,Small,"Hydraulic Excavator, Track - 16.0 to 19.0 Metric Tons",Florida,TEX,Track Excavators,,EROPS,,,,,,,,,,,Standard,,,,,,None or Unspecified,,,,Steel,30 inch,None or Unspecified,None or Unspecified,None or Unspecified,Double,,,,,
8269,1596062,12000,1393591,132,1.0,1975,,,10/17/1989 0:00,690,690,,,,Small,"Hydraulic Excavator, Track - 16.0 to 19.0 Metric Tons",Minnesota,TEX,Track Excavators,,EROPS,,,,,,,,,,,Standard,,,,,,None or Unspecified,,,,Steel,None or Unspecified,None or Unspecified,None or Unspecified,None or Unspecified,Double,,,,,
8269,1596095,15000,1116415,132,1.0,1975,,,4/22/1993 0:00,690,690,,,,Small,"Hydraulic Excavator, Track - 16.0 to 19.0 Metric Tons",Minnesota,TEX,Track Excavators,,EROPS,,,,,,,,,,,Standard,,,,,,None or Unspecified,,,,Steel,None or Unspecified,None or Unspecified,None or Unspecified,None or Unspecified,Triple,,,,,
8269,1596108,16500,1114798,132,1.0,1975,,,7/20/1993 0:00,690,690,,,,Small,"Hydraulic Excavator, Track - 16.0 to 19.0 Metric Tons",Georgia,TEX,Track Excavators,,EROPS,,,,,,,,,,,Standard,,,,,,None or Unspecified,,,,Steel,None or Unspecified,None or Unspecified,None or Unspecified,None or Unspecified,Triple,,,,,
8269,1596721,13000,1129550,132,2.0,1975,,,10/3/1992 0:00,690,690,,,,Small,"Hydraulic Excavator, Track - 16.0 to 19.0 Metric Tons",Pennsylvania,TEX,Track Excavators,,EROPS,,,,,,,,,,,Standard,,,,,,None or Unspecified,,,,Steel,None or Unspecified,None or Unspecified,None or Unspecified,None or Unspecified,Triple,,,,,
8269,1596722,16000,1129550,132,4.0,1975,,,2/1/1993 0:00,690,690,,,,Small,"Hydraulic Excavator, Track - 16.0 to 19.0 Metric Tons",Florida,TEX,Track Excavators,,EROPS,,,,,,,,,,,Standard,,,,,,None or Unspecified,,,,Steel,None or Unspecified,None or Unspecified,None or Unspecified,None or Unspecified,Triple,,,,,
8269,1597342,23750,1429979,132,2.0,1976,,,6/26/1993 0:00,690,690,,,,Small,"Hydraulic Excavator, Track - 16.0 to 19.0 Metric Tons",New Jersey,TEX,Track Excavators,,EROPS,,,,,,,,,,,Standard,,,,,,None or Unspecified,,,,Steel,None or Unspecified,None or Unspecified,None or Unspecified,None or Unspecified,Double,,,,,
8269,1597945,18500,1511474,132,1.0,1976,,,4/2/1992 0:00,690,690,,,,Small,"Hydraulic Excavator, Track - 16.0 to 19.0 Metric Tons",Texas,TEX,Track Excavators,,EROPS,,,,,,,,,,,,,,,,,,,,,,,,,,,,,,,
8269,1598214,17000,1281453,132,23.0,1976,,,10/24/1992 0:00,690,690,,,,Small,"Hydraulic Excavator, Track - 16.0 to 19.0 Metric Tons",Pennsylvania,TEX,Track Excavators,,EROPS,,,,,,,,,,,Auxiliary,,,,,,None or Unspecified,,,,Steel,None or Unspecified,None or Unspecified,None or Unspecified,None or Unspecified,Double,,,,,
8269,1598316,14000,1524765,132,2.0,1976,,,9/23/1995 0:00,690,690,,,,Small,"Hydraulic Excavator, Track - 16.0 to 19.0 Metric Tons",New York,TEX,Track Excavators,,EROPS w AC,,,,,,,,,,,Standard,,,,,,None or Unspecified,,,,Steel,None or Unspecified,None or Unspecified,None or Unspecified,None or Unspecified,Double,,,,,
8269,1598338,19000,1234930,132,4.0,1976,,,10/18/1990 0:00,690,690,,,,Small,"Hydraulic Excavator, Track - 16.0 to 19.0 Metric Tons",Maine,TEX,Track Excavators,,EROPS,,,,,,,,,,,Standard,,,,,,None or Unspecified,,,,Steel,None or Unspecified,None or Unspecified,None or Unspecified,None or Unspecified,Double,,,,,
8269,1598528,23500,1205185,132,6.0,1976,,,4/11/1989 0:00,690,690,,,,Small,"Hydraulic Excavator, Track - 16.0 to 19.0 Metric Tons",Utah,TEX,Track Excavators,,EROPS,,,,,,,,,,,Standard,,,,,,None or Unspecified,,,,Steel,24 inch,None or Unspecified,None or Unspecified,None or Unspecified,Double,,,,,
8269,1598735,12000,1490600,132,1.0,1976,,,10/12/1989 0:00,690,690,,,,Small,"Hydraulic Excavator, Track - 16.0 to 19.0 Metric Tons",Texas,TEX,Track Excavators,,EROPS,,,,,,,,,,,,,,,,,,,,,,,,,,,,,,,
8269,1599082,14000,1416548,132,1.0,1976,,,6/17/1993 0:00,690,690,,,,Small,"Hydraulic Excavator, Track - 16.0 to 19.0 Metric Tons",Washington,TEX,Track Excavators,,EROPS,,,,,,,,,,,Standard,,,,,,None or Unspecified,,,,Steel,None or Unspecified,None or Unspecified,Hydraulic,None or Unspecified,Double,,,,,
8269,1599101,15000,1388006,132,24.0,1976,,,3/13/1990 0:00,690,690,,,,Small,"Hydraulic Excavator, Track - 16.0 to 19.0 Metric Tons",Georgia,TEX,Track Excavators,,EROPS,,,,,,,,,,,Standard,,,,,,None or Unspecified,,,,Steel,None or Unspecified,None or Unspecified,None or Unspecified,None or Unspecified,Double,,,,,
8269,1599253,21000,1313922,132,11.0,1977,,,6/24/1993 0:00,690,690,,,,Small,"Hydraulic Excavator, Track - 16.0 to 19.0 Metric Tons",Mississippi,TEX,Track Excavators,,EROPS,,,,,,,,,,,Standard,,,,,,None or Unspecified,,,,Steel,None or Unspecified,None or Unspecified,None or Unspecified,None or Unspecified,Double,,,,,
8269,1599564,23000,1103032,132,1.0,1977,,,4/18/1989 0:00,690,690,,,,Small,"Hydraulic Excavator, Track - 16.0 to 19.0 Metric Tons",Texas,TEX,Track Excavators,,EROPS,,,,,,,,,,,,,,,,,,,,,,,,,,,,,,,
8269,1599851,17500,1250170,132,4.0,1977,,,2/5/1991 0:00,690,690,,,,Small,"Hydraulic Excavator, Track - 16.0 to 19.0 Metric Tons",Florida,TEX,Track Excavators,,EROPS,,,,,,,,,,,Standard,,,,,,None or Unspecified,,,,Steel,30 inch,None or Unspecified,None or Unspecified,None or Unspecified,Double,,,,,
8269,1599874,18000,1339876,132,1.0,1977,,,5/25/1989 0:00,690,690,,,,Small,"Hydraulic Excavator, Track - 16.0 to 19.0 Metric Tons",Montana,TEX,Track Excavators,,EROPS,,,,,,,,,,,Standard,,,,,,None or Unspecified,,,,Steel,None or Unspecified,None or Unspecified,Hydraulic,None or Unspecified,Double,,,,,
8269,1599938,14000,1550871,132,19.0,1981,,,10/21/1992 0:00,690,690,,,,Small,"Hydraulic Excavator, Track - 16.0 to 19.0 Metric Tons",California,TEX,Track Excavators,,EROPS,,,,,,,,,,,Standard,,,,,,None or Unspecified,,,,Steel,None or Unspecified,None or Unspecified,None or Unspecified,None or Unspecified,Double,,,,,
8269,1599943,18500,1469136,132,1.0,1981,,,6/29/1993 0:00,690,690,,,,Small,"Hydraulic Excavator, Track - 16.0 to 19.0 Metric Tons",Ohio,TEX,Track Excavators,,EROPS,,,,,,,,,,,Auxiliary,,,,,,None or Unspecified,,,,Steel,None or Unspecified,None or Unspecified,None or Unspecified,None or Unspecified,Triple,,,,,
8269,1599945,20000,1246953,132,4.0,1981,,,10/19/1993 0:00,690,690,,,,Small,"Hydraulic Excavator, Track - 16.0 to 19.0 Metric Tons",Ohio,TEX,Track Excavators,,EROPS,,,,,,,,,,,Standard,,,,,,None or Unspecified,,,,Steel,30 inch,None or Unspecified,None or Unspecified,None or Unspecified,Double,,,,,
8269,1599968,15000,1525824,132,1.0,1981,,,11/14/1991 0:00,690,690,,,,Small,"Hydraulic Excavator, Track - 16.0 to 19.0 Metric Tons",Texas,TEX,Track Excavators,,EROPS,,,,,,,,,,,Standard,,,,,,None or Unspecified,,,,Steel,None or Unspecified,None or Unspecified,None or Unspecified,None or Unspecified,Triple,,,,,
8269,1600058,35000,1433668,132,1.0,1981,,,3/14/1989 0:00,690,690,,,,Small,"Hydraulic Excavator, Track - 16.0 to 19.0 Metric Tons",Texas,TEX,Track Excavators,,EROPS,,,,,,,,,,,Standard,,,,,,None or Unspecified,,,,Steel,None or Unspecified,None or Unspecified,None or Unspecified,None or Unspecified,Double,,,,,
8269,1600064,17000,1280418,132,1.0,1981,,,9/28/1993 0:00,690,690,,,,Small,"Hydraulic Excavator, Track - 16.0 to 19.0 Metric Tons",Pennsylvania,TEX,Track Excavators,,EROPS,,,,,,,,,,,Standard,,,,,,None or Unspecified,,,,Steel,None or Unspecified,None or Unspecified,None or Unspecified,None or Unspecified,Double,,,,,
8269,1600082,24000,1200583,132,4.0,1980,,,2/4/1992 0:00,690,690,,,,Small,"Hydraulic Excavator, Track - 16.0 to 19.0 Metric Tons",Florida,TEX,Track Excavators,,EROPS,,,,,,,,,,,Standard,,,,,,None or Unspecified,,,,Steel,None or Unspecified,None or Unspecified,None or Unspecified,None or Unspecified,Double,,,,,
8269,1600112,23000,1120606,132,18.0,1981,,,5/25/1993 0:00,690,690,,,,Small,"Hydraulic Excavator, Track - 16.0 to 19.0 Metric Tons",Pennsylvania,TEX,Track Excavators,,EROPS,,,,,,,,,,,Standard,,,,,,None or Unspecified,,,,Steel,30 inch,None or Unspecified,None or Unspecified,None or Unspecified,Triple,,,,,
8269,1600183,24000,1206887,132,1.0,1981,,,4/23/1991 0:00,690,690,,,,Small,"Hydraulic Excavator, Track - 16.0 to 19.0 Metric Tons",Kansas,TEX,Track Excavators,,EROPS,,,,,,,,,,,Standard,,,,,,None or Unspecified,,,,Steel,None or Unspecified,None or Unspecified,None or Unspecified,None or Unspecified,Triple,,,,,
8269,1600224,25000,1420343,132,1.0,1981,,,3/21/1989 0:00,690,690,,,,Small,"Hydraulic Excavator, Track - 16.0 to 19.0 Metric Tons",Colorado,TEX,Track Excavators,,EROPS,,,,,,,,,,,Standard,,,,,,None or Unspecified,,,,Steel,None or Unspecified,None or Unspecified,None or Unspecified,None or Unspecified,Double,,,,,
8269,1600271,22000,1359394,132,24.0,1981,,,11/29/1990 0:00,690,690,,,,Small,"Hydraulic Excavator, Track - 16.0 to 19.0 Metric Tons",Georgia,TEX,Track Excavators,,EROPS,,,,,,,,,,,Standard,,,,,,None or Unspecified,,,,Steel,32 inch,None or Unspecified,None or Unspecified,None or Unspecified,Double,,,,,
8269,1600293,33000,1531068,132,4.0,1982,,,2/6/1990 0:00,690,690,,,,Small,"Hydraulic Excavator, Track - 16.0 to 19.0 Metric Tons",Florida,TEX,Track Excavators,,EROPS,,,,,,,,,,,Standard,,,,,,None or Unspecified,,,,Steel,30 inch,None or Unspecified,None or Unspecified,None or Unspecified,Triple,,,,,
8269,1600335,22000,1521464,132,1.0,1981,,,4/4/1989 0:00,690,690,,,,Small,"Hydraulic Excavator, Track - 16.0 to 19.0 Metric Tons",New Mexico,TEX,Track Excavators,,EROPS,,,,,,,,,,,Standard,,,,,,None or Unspecified,,,,Steel,30 inch,None or Unspecified,None or Unspecified,None or Unspecified,Double,,,,,
8269,1600378,24500,1231749,132,6.0,1982,,,7/24/1989 0:00,690,690,,,,Small,"Hydraulic Excavator, Track - 16.0 to 19.0 Metric Tons",Colorado,TEX,Track Excavators,,EROPS,,,,,,,,,,,Standard,,,,,,None or Unspecified,,,,Steel,24 inch,None or Unspecified,Manual,None or Unspecified,Triple,,,,,
8269,1600380,16000,1176825,132,1.0,1982,,,10/11/1990 0:00,690,690,,,,Small,"Hydraulic Excavator, Track - 16.0 to 19.0 Metric Tons",Florida,TEX,Track Excavators,,EROPS,,,,,,,,,,,Standard,,,,,,None or Unspecified,,,,Steel,None or Unspecified,None or Unspecified,None or Unspecified,None or Unspecified,Double,,,,,
8269,1600381,38000,1445133,132,18.0,1982,,,4/8/1989 0:00,690,690,,,,Small,"Hydraulic Excavator, Track - 16.0 to 19.0 Metric Tons",Pennsylvania,TEX,Track Excavators,,EROPS,,,,,,,,,,,Standard,,,,,,None or Unspecified,,,,Steel,30 inch,None or Unspecified,None or Unspecified,None or Unspecified,Double,,,,,
8269,1600420,20000,1119096,132,1.0,1982,,,10/9/1990 0:00,690,690,,,,Small,"Hydraulic Excavator, Track - 16.0 to 19.0 Metric Tons",Wisconsin,TEX,Track Excavators,,EROPS,,,,,,,,,,,Standard,,,,,,None or Unspecified,,,,Steel,None or Unspecified,None or Unspecified,None or Unspecified,None or Unspecified,Double,,,,,
8269,1600432,22500,325542,132,18.0,1983,,,4/24/1991 0:00,690,690,,,,Small,"Hydraulic Excavator, Track - 16.0 to 19.0 Metric Tons",Vermont,TEX,Track Excavators,,EROPS,,,,,,,,,,,Standard,,,,,,None or Unspecified,,,,Steel,None or Unspecified,None or Unspecified,None or Unspecified,None or Unspecified,Double,,,,,
8269,1600433,21000,1299736,132,18.0,1982,,,10/21/1989 0:00,690,690,,,,Small,"Hydraulic Excavator, Track - 16.0 to 19.0 Metric Tons",Pennsylvania,TEX,Track Excavators,,EROPS,,,,,,,,,,,Standard,,,,,,None or Unspecified,,,,Steel,30 inch,None or Unspecified,None or Unspecified,None or Unspecified,Double,,,,,
8269,1600468,18000,1369582,132,1.0,1982,,,9/28/1993 0:00,690,690,,,,Small,"Hydraulic Excavator, Track - 16.0 to 19.0 Metric Tons",Pennsylvania,TEX,Track Excavators,,EROPS,,,,,,,,,,,Standard,,,,,,None or Unspecified,,,,Steel,None or Unspecified,None or Unspecified,None or Unspecified,None or Unspecified,Triple,,,,,
8269,1600478,40000,1286327,132,4.0,1982,,,2/6/1990 0:00,690,690,,,,Small,"Hydraulic Excavator, Track - 16.0 to 19.0 Metric Tons",Florida,TEX,Track Excavators,,EROPS,,,,,,,,,,,Standard,,,,,,None or Unspecified,,,,Steel,None or Unspecified,None or Unspecified,None or Unspecified,None or Unspecified,Double,,,,,
8269,1600479,34000,1154824,132,1.0,1983,,,9/26/1989 0:00,690,690,,,,Small,"Hydraulic Excavator, Track - 16.0 to 19.0 Metric Tons",Montana,TEX,Track Excavators,,EROPS,,,,,,,,,,,Standard,,,,,,None or Unspecified,,,,Steel,None or Unspecified,None or Unspecified,None or Unspecified,None or Unspecified,Triple,,,,,
8269,1600512,28500,1185938,132,4.0,1983,,,2/6/1990 0:00,690,690,,,,Small,"Hydraulic Excavator, Track - 16.0 to 19.0 Metric Tons",Florida,TEX,Track Excavators,,EROPS,,,,,,,,,,,Standard,,,,,,None or Unspecified,,,,Steel,None or Unspecified,None or Unspecified,None or Unspecified,None or Unspecified,Double,,,,,
8269,1600513,30000,1392012,132,1.0,1983,,,11/6/1990 0:00,690,690,,,,Small,"Hydraulic Excavator, Track - 16.0 to 19.0 Metric Tons",Oregon,TEX,Track Excavators,,EROPS,,,,,,,,,,,Standard,,,,,,None or Unspecified,,,,Steel,None or Unspecified,None or Unspecified,None or Unspecified,None or Unspecified,Double,,,,,
8269,1600544,28000,1509738,132,2.0,1984,,,3/12/1993 0:00,690,690,,,,Small,"Hydraulic Excavator, Track - 16.0 to 19.0 Metric Tons",New Jersey,TEX,Track Excavators,,EROPS,,,,,,,,,,,Standard,,,,,,None or Unspecified,,,,Steel,None or Unspecified,None or Unspecified,None or Unspecified,None or Unspecified,Double,,,,,
8269,1600575,23000,1262265,132,4.0,1983,,,2/5/1991 0:00,690,690,,,,Small,"Hydraulic Excavator, Track - 16.0 to 19.0 Metric Tons",Florida,TEX,Track Excavators,,EROPS,,,,,,,,,,,Standard,,,,,,None or Unspecified,,,,Steel,None or Unspecified,None or Unspecified,None or Unspecified,None or Unspecified,Double,,,,,
8269,1600641,19000,1286381,132,1.0,1983,,,3/14/1991 0:00,690,690,,,,Small,"Hydraulic Excavator, Track - 16.0 to 19.0 Metric Tons",Florida,TEX,Track Excavators,,EROPS,,,,,,,,,,,Standard,,,,,,None or Unspecified,,,,Steel,None or Unspecified,None or Unspecified,None or Unspecified,None or Unspecified,Triple,,,,,
8269,1600706,17000,1216251,132,1.0,1977,,,8/19/1993 0:00,690,690,,,,Small,"Hydraulic Excavator, Track - 16.0 to 19.0 Metric Tons",Tennessee,TEX,Track Excavators,,EROPS,,,,,,,,,,,Standard,,,,,,None or Unspecified,,,,Steel,None or Unspecified,None or Unspecified,None or Unspecified,None or Unspecified,Triple,,,,,
8269,1600739,26500,1376612,132,4.0,1983,,,2/1/1993 0:00,690,690,,,,Small,"Hydraulic Excavator, Track - 16.0 to 19.0 Metric Tons",Florida,TEX,Track Excavators,,EROPS,,,,,,,,,,,Standard,,,,,,None or Unspecified,,,,Steel,None or Unspecified,None or Unspecified,None or Unspecified,None or Unspecified,Double,,,,,
8269,1600743,19500,56319,132,1.0,1983,,,11/5/1992 0:00,690,690,,,,Small,"Hydraulic Excavator, Track - 16.0 to 19.0 Metric Tons",Maine,TEX,Track Excavators,,EROPS,,,,,,,,,,,Standard,,,,,,None or Unspecified,,,,Steel,None or Unspecified,None or Unspecified,None or Unspecified,None or Unspecified,Triple,,,,,
8269,1600765,18500,1500077,132,4.0,1983,,,10/7/1992 0:00,690,690,,,,Small,"Hydraulic Excavator, Track - 16.0 to 19.0 Metric Tons",Florida,TEX,Track Excavators,,EROPS,,,,,,,,,,,Standard,,,,,,None or Unspecified,,,,Steel,30 inch,None or Unspecified,None or Unspecified,None or Unspecified,Double,,,,,
8269,1600775,24000,1416426,132,2.0,1983,,,10/3/1992 0:00,690,690,,,,Small,"Hydraulic Excavator, Track - 16.0 to 19.0 Metric Tons",Pennsylvania,TEX,Track Excavators,,EROPS,,,,,,,,,,,Standard,,,,,,None or Unspecified,,,,Steel,None or Unspecified,None or Unspecified,None or Unspecified,None or Unspecified,Double,,,,,
8269,1600955,14000,1400252,132,18.0,1977,,,3/23/1991 0:00,690,690,,,,Small,"Hydraulic Excavator, Track - 16.0 to 19.0 Metric Tons",New Jersey,TEX,Track Excavators,,EROPS,,,,,,,,,,,Standard,,,,,,None or Unspecified,,,,Steel,30 inch,None or Unspecified,None or Unspecified,None or Unspecified,Double,,,,,
8269,1600964,32000,1394536,132,1.0,1977,,,8/24/1993 0:00,690,690,,,,Small,"Hydraulic Excavator, Track - 16.0 to 19.0 Metric Tons",Minnesota,TEX,Track Excavators,,EROPS,,,,,,,,,,,Standard,,,,,,None or Unspecified,,,,Steel,None or Unspecified,None or Unspecified,None or Unspecified,None or Unspecified,Triple,,,,,
8269,1601010,22500,1130214,132,6.0,1977,,,12/17/1991 0:00,690,690,,,,Small,"Hydraulic Excavator, Track - 16.0 to 19.0 Metric Tons",Kentucky,TEX,Track Excavators,,EROPS,,,,,,,,,,,Standard,,,,,,None or Unspecified,,,,Steel,None or Unspecified,None or Unspecified,None or Unspecified,None or Unspecified,Double,,,,,
8269,1601015,7500,1542718,132,1.0,1977,,,11/2/1993 0:00,690,690,,,,Small,"Hydraulic Excavator, Track - 16.0 to 19.0 Metric Tons",California,TEX,Track Excavators,,EROPS,,,,,,,,,,,,,,,,,,,,,,None or Unspecified,,,,,,,,,
8269,1601181,17500,1135276,132,4.0,1980,,,10/28/1993 0:00,690,690,,,,Small,"Hydraulic Excavator, Track - 16.0 to 19.0 Metric Tons",Georgia,TEX,Track Excavators,,EROPS,,,,,,,,,,,Standard,,,,,,None or Unspecified,,,,Steel,None or Unspecified,None or Unspecified,None or Unspecified,None or Unspecified,Double,,,,,
8269,1601233,13000,1268060,132,1.0,1977,,,10/12/1989 0:00,690,690,,,,Small,"Hydraulic Excavator, Track - 16.0 to 19.0 Metric Tons",Texas,TEX,Track Excavators,,EROPS,,,,,,,,,,,Standard,,,,,,None or Unspecified,,,,Steel,None or Unspecified,None or Unspecified,None or Unspecified,None or Unspecified,Double,,,,,
8269,1601238,18000,1503413,132,1.0,1977,,,3/14/1989 0:00,690,690,,,,Small,"Hydraulic Excavator, Track - 16.0 to 19.0 Metric Tons",Texas,TEX,Track Excavators,,EROPS,,,,,,,,,,,2 Valve,,,,,,None or Unspecified,,,,,,,,,,,,,,
8269,1601241,20000,1154939,132,1.0,1977,,,3/21/1989 0:00,690,690,,,,Small,"Hydraulic Excavator, Track - 16.0 to 19.0 Metric Tons",Colorado,TEX,Track Excavators,,EROPS,,,,,,,,,,,Standard,,,,,,None or Unspecified,,,,Steel,24 inch,None or Unspecified,None or Unspecified,None or Unspecified,Triple,,,,,
8269,1601261,24000,1153380,132,18.0,1982,,,4/8/1992 0:00,690,690,,,,Small,"Hydraulic Excavator, Track - 16.0 to 19.0 Metric Tons",Maryland,TEX,Track Excavators,,EROPS,,,,,,,,,,,Standard,,,,,,None or Unspecified,,,,Steel,None or Unspecified,None or Unspecified,None or Unspecified,None or Unspecified,Triple,,,,,
8269,1601270,22000,1420523,132,18.0,1978,,,2/23/1991 0:00,690,690,,,,Small,"Hydraulic Excavator, Track - 16.0 to 19.0 Metric Tons",Pennsylvania,TEX,Track Excavators,,EROPS,,,,,,,,,,,Standard,,,,,,None or Unspecified,,,,Steel,24 inch,None or Unspecified,None or Unspecified,None or Unspecified,Double,,,,,
8269,1601288,13000,1544962,132,1.0,1978,,,6/16/1992 0:00,690,690,,,,Small,"Hydraulic Excavator, Track - 16.0 to 19.0 Metric Tons",Washington,TEX,Track Excavators,,EROPS,,,,,,,,,,,Standard,,,,,,None or Unspecified,,,,Steel,None or Unspecified,None or Unspecified,Hydraulic,None or Unspecified,Triple,,,,,
8269,1601316,12000,1161244,132,1.0,1978,,,3/9/1989 0:00,690,690,,,,Small,"Hydraulic Excavator, Track - 16.0 to 19.0 Metric Tons",Washington,TEX,Track Excavators,,EROPS,,,,,,,,,,,Standard,,,,,,None or Unspecified,,,,Steel,None or Unspecified,None or Unspecified,None or Unspecified,None or Unspecified,Double,,,,,
8269,1601358,20000,1454479,132,11.0,1978,,,6/24/1993 0:00,690,690,,,,Small,"Hydraulic Excavator, Track - 16.0 to 19.0 Metric Tons",Mississippi,TEX,Track Excavators,,EROPS,,,,,,,,,,,Standard,,,,,,None or Unspecified,,,,Steel,None or Unspecified,None or Unspecified,None or Unspecified,None or Unspecified,Double,,,,,
8269,1601506,14000,1214549,132,1.0,1978,,,6/20/1991 0:00,690,690,,,,Small,"Hydraulic Excavator, Track - 16.0 to 19.0 Metric Tons",Colorado,TEX,Track Excavators,,EROPS,,,,,,,,,,,Standard,,,,,,None or Unspecified,,,,Steel,None or Unspecified,None or Unspecified,None or Unspecified,None or Unspecified,Triple,,,,,
8269,1601545,25000,1205053,132,1.0,1978,,,6/20/1991 0:00,690,690,,,,Small,"Hydraulic Excavator, Track - 16.0 to 19.0 Metric Tons",Colorado,TEX,Track Excavators,,EROPS,,,,,,,,,,,Standard,,,,,,None or Unspecified,,,,Steel,None or Unspecified,None or Unspecified,None or Unspecified,None or Unspecified,Triple,,,,,
8269,1601556,20000,1375322,132,4.0,1978,,,2/1/1989 0:00,690,690,,,,Small,"Hydraulic Excavator, Track - 16.0 to 19.0 Metric Tons",Florida,TEX,Track Excavators,,EROPS,,,,,,,,,,,Standard,,,,,,None or Unspecified,,,,Steel,24 inch,None or Unspecified,None or Unspecified,None or Unspecified,Double,,,,,
8269,1601602,13500,1387166,132,4.0,1978,1500.0,Low,2/5/1991 0:00,690,690,,,,Small,"Hydraulic Excavator, Track - 16.0 to 19.0 Metric Tons",Florida,TEX,Track Excavators,,EROPS,,,,,,,,,,,Standard,,,,,,None or Unspecified,,,,Steel,None or Unspecified,None or Unspecified,None or Unspecified,None or Unspecified,Double,,,,,
8269,1601622,18000,1376218,132,1.0,1978,,,12/11/1992 0:00,690,690,,,,Small,"Hydraulic Excavator, Track - 16.0 to 19.0 Metric Tons",Kansas,TEX,Track Excavators,,EROPS,,,,,,,,,,,Standard,,,,,,None or Unspecified,,,,Steel,None or Unspecified,None or Unspecified,None or Unspecified,None or Unspecified,Triple,,,,,
8269,1602402,27000,1495907,132,2.0,1983,,,12/5/1992 0:00,690,690,,,,Small,"Hydraulic Excavator, Track - 16.0 to 19.0 Metric Tons",New York,TEX,Track Excavators,,EROPS,,,,,,,,,,,Standard,,,,,,None or Unspecified,,,,Steel,None or Unspecified,None or Unspecified,None or Unspecified,None or Unspecified,Double,,,,,
8269,1602447,24000,727626,132,99.0,1983,,,4/15/1989 0:00,690,690,,,,Small,"Hydraulic Excavator, Track - 16.0 to 19.0 Metric Tons",Connecticut,TEX,Track Excavators,,EROPS,,,,,,,,,,,Standard,,,,,,None or Unspecified,,,,Steel,None or Unspecified,None or Unspecified,None or Unspecified,None or Unspecified,Double,,,,,
8269,1602452,34500,1268002,132,6.0,1983,,,4/3/1990 0:00,690,690,,,,Small,"Hydraulic Excavator, Track - 16.0 to 19.0 Metric Tons",Wyoming,TEX,Track Excavators,,EROPS,,,,,,,,,,,Standard,,,,,,None or Unspecified,,,,Steel,None or Unspecified,None or Unspecified,None or Unspecified,None or Unspecified,Double,,,,,
8269,1602536,26000,1509694,132,18.0,1984,,,5/1/1991 0:00,690,690,,,,Small,"Hydraulic Excavator, Track - 16.0 to 19.0 Metric Tons",Maine,TEX,Track Excavators,,EROPS,,,,,,,,,,,Standard,,,,,,None or Unspecified,,,,Steel,24 inch,None or Unspecified,None or Unspecified,None or Unspecified,Double,,,,,
8269,1602541,40000,1095463,132,4.0,1984,,,2/1/1989 0:00,690,690,,,,Small,"Hydraulic Excavator, Track - 16.0 to 19.0 Metric Tons",Florida,TEX,Track Excavators,,EROPS,,,,,,,,,,,Standard,,,,,,None or Unspecified,,,,Steel,None or Unspecified,None or Unspecified,None or Unspecified,None or Unspecified,Double,,,,,
8269,1602580,26500,1440882,132,18.0,1984,,,5/25/1993 0:00,690,690,,,,Small,"Hydraulic Excavator, Track - 16.0 to 19.0 Metric Tons",Pennsylvania,TEX,Track Excavators,,EROPS,,,,,,,,,,,Standard,,,,,,None or Unspecified,,,,Steel,24 inch,None or Unspecified,None or Unspecified,None or Unspecified,Triple,,,,,
8269,1602583,36000,1506784,132,24.0,1984,,,4/7/1989 0:00,690,690,,,,Small,"Hydraulic Excavator, Track - 16.0 to 19.0 Metric Tons",Indiana,TEX,Track Excavators,,EROPS,,,,,,,,,,,Standard,,,,,,None or Unspecified,,,,Steel,None or Unspecified,None or Unspecified,None or Unspecified,None or Unspecified,Double,,,,,
8269,1602584,17000,1373548,132,1.0,1983,,,10/8/1991 0:00,690,690,,,,Small,"Hydraulic Excavator, Track - 16.0 to 19.0 Metric Tons",Washington,TEX,Track Excavators,,EROPS,,,,,,,,,,,Standard,,,,,,None or Unspecified,,,,Steel,None or Unspecified,None or Unspecified,Manual,None or Unspecified,Double,,,,,
8269,1602585,20500,1230124,132,4.0,1988,,,2/5/1991 0:00,690,690,,,,Small,"Hydraulic Excavator, Track - 16.0 to 19.0 Metric Tons",Florida,TEX,Track Excavators,,EROPS,,,,,,,,,,,Standard,,,,,,None or Unspecified,,,,Steel,None or Unspecified,None or Unspecified,None or Unspecified,None or Unspecified,Double,,,,,
8269,1602609,18000,1449026,132,1.0,1984,,,6/29/1993 0:00,690,690,,,,Small,"Hydraulic Excavator, Track - 16.0 to 19.0 Metric Tons",Ohio,TEX,Track Excavators,,EROPS,,,,,,,,,,,Standard,,,,,,None or Unspecified,,,,Steel,None or Unspecified,None or Unspecified,None or Unspecified,None or Unspecified,Triple,,,,,
8269,1602732,22000,1233226,132,6.0,1984,,,7/13/1989 0:00,690,690,,,,Small,"Hydraulic Excavator, Track - 16.0 to 19.0 Metric Tons",Wyoming,TEX,Track Excavators,,EROPS,,,,,,,,,,,Standard,,,,,,None or Unspecified,,,,Steel,30 inch,None or Unspecified,None or Unspecified,None or Unspecified,Triple,,,,,
8269,1602761,40000,1493795,132,4.0,1984,,,2/1/1989 0:00,690,690,,,,Small,"Hydraulic Excavator, Track - 16.0 to 19.0 Metric Tons",Florida,TEX,Track Excavators,,EROPS,,,,,,,,,,,Standard,,,,,,None or Unspecified,,,,Steel,None or Unspecified,None or Unspecified,None or Unspecified,None or Unspecified,Double,,,,,
8269,1602821,25000,1457425,132,1.0,1984,,,11/13/1992 0:00,690,690,,,,Small,"Hydraulic Excavator, Track - 16.0 to 19.0 Metric Tons",Illinois,TEX,Track Excavators,,EROPS,,,,,,,,,,,Standard,,,,,,None or Unspecified,,,,Steel,30 inch,None or Unspecified,None or Unspecified,None or Unspecified,Triple,,,,,
8269,1603007,20500,1077357,132,1.0,1984,,,6/26/1992 0:00,690,690,,,,Small,"Hydraulic Excavator, Track - 16.0 to 19.0 Metric Tons",Texas,TEX,Track Excavators,,EROPS,,,,,,,,,,,Standard,,,,,,None or Unspecified,,,,Steel,None or Unspecified,"9' 6""",None or Unspecified,None or Unspecified,Triple,,,,,
8269,1603274,23000,1227378,132,1.0,1984,,,7/20/1993 0:00,690,690,,,,Small,"Hydraulic Excavator, Track - 16.0 to 19.0 Metric Tons",Georgia,TEX,Track Excavators,,EROPS,,,,,,,,,,,Standard,,,,,,None or Unspecified,,,,Steel,None or Unspecified,None or Unspecified,None or Unspecified,None or Unspecified,Triple,,,,,
8269,1603467,22500,1221923,132,4.0,1984,,,10/18/1990 0:00,690,690,,,,Small,"Hydraulic Excavator, Track - 16.0 to 19.0 Metric Tons",Maine,TEX,Track Excavators,,EROPS,,,,,,,,,,,Standard,,,,,,None or Unspecified,,,,Steel,None or Unspecified,None or Unspecified,None or Unspecified,None or Unspecified,Double,,,,,
8269,1603468,20000,1221923,132,4.0,1985,,,2/5/1991 0:00,690,690,,,,Small,"Hydraulic Excavator, Track - 16.0 to 19.0 Metric Tons",Florida,TEX,Track Excavators,,EROPS,,,,,,,,,,,Standard,,,,,,None or Unspecified,,,,Steel,None or Unspecified,None or Unspecified,None or Unspecified,None or Unspecified,Double,,,,,
8269,1603469,24000,1221923,132,24.0,1984,,,8/9/1990 0:00,690,690,,,,Small,"Hydraulic Excavator, Track - 16.0 to 19.0 Metric Tons",Georgia,TEX,Track Excavators,,EROPS,,,,,,,,,,,Standard,,,,,,None or Unspecified,,,,Steel,None or Unspecified,None or Unspecified,None or Unspecified,None or Unspecified,Double,,,,,
8269,1603473,34000,1274174,132,24.0,1984,,,8/9/1990 0:00,690,690,,,,Small,"Hydraulic Excavator, Track - 16.0 to 19.0 Metric Tons",Georgia,TEX,Track Excavators,,EROPS,,,,,,,,,,,Standard,,,,,,None or Unspecified,,,,Steel,None or Unspecified,None or Unspecified,None or Unspecified,None or Unspecified,Double,,,,,
8269,1603474,31000,1274174,132,4.0,1984,,,10/18/1990 0:00,690,690,,,,Small,"Hydraulic Excavator, Track - 16.0 to 19.0 Metric Tons",Maine,TEX,Track Excavators,,EROPS,,,,,,,,,,,Standard,,,,,,None or Unspecified,,,,Steel,None or Unspecified,None or Unspecified,None or Unspecified,None or Unspecified,Double,,,,,
8269,1603484,11500,1442318,132,5.0,1984,,,11/7/2003 0:00,690,690,,,,Small,"Hydraulic Excavator, Track - 16.0 to 19.0 Metric Tons",Connecticut,TEX,Track Excavators,,EROPS,,,,,,,,,,,Standard,,,,,,None or Unspecified,,,,Steel,25 inch,None or Unspecified,None or Unspecified,None or Unspecified,Triple,,,,,
8269,1603497,46000,1422703,132,1.0,1985,,,11/21/1989 0:00,690,690,,,,Small,"Hydraulic Excavator, Track - 16.0 to 19.0 Metric Tons",Colorado,TEX,Track Excavators,,EROPS,,,,,,,,,,,Standard,,,,,,None or Unspecified,,,,Steel,None or Unspecified,None or Unspecified,None or Unspecified,None or Unspecified,Triple,,,,,
8269,1603513,25000,1557741,132,1.0,1985,,,10/11/1990 0:00,690,690,,,,Small,"Hydraulic Excavator, Track - 16.0 to 19.0 Metric Tons",Florida,TEX,Track Excavators,,EROPS,,,,,,,,,,,Standard,,,,,,None or Unspecified,,,,Steel,None or Unspecified,None or Unspecified,None or Unspecified,None or Unspecified,Double,,,,,
8269,1603515,47000,1466297,132,4.0,1985,,,2/1/1989 0:00,690,690,,,,Small,"Hydraulic Excavator, Track - 16.0 to 19.0 Metric Tons",Florida,TEX,Track Excavators,,EROPS,,,,,,,,,,,Standard,,,,,,None or Unspecified,,,,Steel,None or Unspecified,None or Unspecified,None or Unspecified,None or Unspecified,Double,,,,,
8269,1603522,50000,1191107,132,1.0,1985,,,5/18/1989 0:00,690,690,,,,Small,"Hydraulic Excavator, Track - 16.0 to 19.0 Metric Tons",Wyoming,TEX,Track Excavators,,EROPS w AC,,,,,,,,,,,Standard,,,,,,None or Unspecified,,,,Steel,None or Unspecified,"9' 6""",None or Unspecified,None or Unspecified,Double,,,,,
8269,1603537,26500,1132367,132,4.0,1985,,,2/1/1993 0:00,690,690,,,,Small,"Hydraulic Excavator, Track - 16.0 to 19.0 Metric Tons",Florida,TEX,Track Excavators,,EROPS,,,,,,,,,,,Standard,,,,,,None or Unspecified,,,,Steel,None or Unspecified,None or Unspecified,None or Unspecified,None or Unspecified,Double,,,,,
8269,1603555,22000,1153807,132,1.0,1985,,,3/14/1991 0:00,690,690,,,,Small,"Hydraulic Excavator, Track - 16.0 to 19.0 Metric Tons",Florida,TEX,Track Excavators,,EROPS,,,,,,,,,,,Standard,,,,,,None or Unspecified,,,,Steel,None or Unspecified,None or Unspecified,None or Unspecified,None or Unspecified,Double,,,,,
8269,1603597,24000,1150869,132,1.0,1985,,,4/2/1992 0:00,690,690,,,,Small,"Hydraulic Excavator, Track - 16.0 to 19.0 Metric Tons",Texas,TEX,Track Excavators,,EROPS,,,,,,,,,,,Standard,,,,,,None or Unspecified,,,,Steel,None or Unspecified,None or Unspecified,None or Unspecified,None or Unspecified,Triple,,,,,
8269,1603648,25000,1300184,132,2.0,1985,,,7/17/1993 0:00,690,690,,,,Small,"Hydraulic Excavator, Track - 16.0 to 19.0 Metric Tons",New York,TEX,Track Excavators,,EROPS,,,,,,,,,,,Standard,,,,,,None or Unspecified,,,,Steel,None or Unspecified,None or Unspecified,None or Unspecified,None or Unspecified,Double,,,,,
8269,1603649,28000,1300184,132,2.0,1985,,,11/6/1993 0:00,690,690,,,,Small,"Hydraulic Excavator, Track - 16.0 to 19.0 Metric Tons",New York,TEX,Track Excavators,,EROPS,,,,,,,,,,,Standard,,,,,,None or Unspecified,,,,Steel,None or Unspecified,None or Unspecified,None or Unspecified,None or Unspecified,Double,,,,,
8269,1603660,47000,1297930,132,1.0,1985,,,5/25/1989 0:00,690,690,,,,Small,"Hydraulic Excavator, Track - 16.0 to 19.0 Metric Tons",Montana,TEX,Track Excavators,,EROPS,,,,,,,,,,,Standard,,,,,,None or Unspecified,,,,Steel,32 inch,None or Unspecified,None or Unspecified,None or Unspecified,Triple,,,,,
8269,1603675,35000,1282338,132,1.0,1985,,,5/23/1991 0:00,690,690,,,,Small,"Hydraulic Excavator, Track - 16.0 to 19.0 Metric Tons",California,TEX,Track Excavators,,EROPS,,,,,,,,,,,Standard,,,,,,None or Unspecified,,,,Steel,None or Unspecified,None or Unspecified,None or Unspecified,None or Unspecified,Triple,,,,,
8269,1603729,50000,1261650,132,1.0,1985,,,5/18/1989 0:00,690,690,,,,Small,"Hydraulic Excavator, Track - 16.0 to 19.0 Metric Tons",Wyoming,TEX,Track Excavators,,EROPS,,,,,,,,,,,Standard,,,,,,None or Unspecified,,,,Steel,None or Unspecified,None or Unspecified,None or Unspecified,None or Unspecified,Double,,,,,
8269,1603730,30000,1086216,132,99.0,1985,3411.0,Low,10/27/1993 0:00,690,690,,,,Small,"Hydraulic Excavator, Track - 16.0 to 19.0 Metric Tons",Wyoming,TEX,Track Excavators,,EROPS,,,,,,,,,,,Standard,,,,,,None or Unspecified,,,,Steel,None or Unspecified,None or Unspecified,None or Unspecified,None or Unspecified,Double,,,,,
8269,1603731,28500,1086216,132,6.0,1985,,,4/23/1992 0:00,690,690,,,,Small,"Hydraulic Excavator, Track - 16.0 to 19.0 Metric Tons",Kentucky,TEX,Track Excavators,,EROPS,,,,,,,,,,,Standard,,,,,,None or Unspecified,,,,Steel,None or Unspecified,None or Unspecified,None or Unspecified,None or Unspecified,Double,,,,,
8269,1603765,28000,1129114,132,2.0,1985,,,1/23/1993 0:00,690,690,,,,Small,"Hydraulic Excavator, Track - 16.0 to 19.0 Metric Tons",New York,TEX,Track Excavators,,EROPS,,,,,,,,,,,Standard,,,,,,None or Unspecified,,,,Steel,None or Unspecified,None or Unspecified,None or Unspecified,None or Unspecified,Double,,,,,
8269,1603766,45000,1250012,132,1.0,1985,,,6/28/1990 0:00,690,690,,,,Small,"Hydraulic Excavator, Track - 16.0 to 19.0 Metric Tons",Colorado,TEX,Track Excavators,,EROPS,,,,,,,,,,,Standard,,,,,,None or Unspecified,,,,Steel,None or Unspecified,None or Unspecified,None or Unspecified,None or Unspecified,Double,,,,,
8269,1603771,32000,1389791,132,1.0,1985,,,3/30/1993 0:00,690,690,,,,Small,"Hydraulic Excavator, Track - 16.0 to 19.0 Metric Tons",Colorado,TEX,Track Excavators,,EROPS w AC,,,,,,,,,,,Standard,,,,,,None or Unspecified,,,,Steel,None or Unspecified,"9' 7""",Manual,None or Unspecified,Triple,,,,,
8269,1603825,29000,1424134,132,6.0,1985,,,12/15/1992 0:00,690,690,,,,Small,"Hydraulic Excavator, Track - 16.0 to 19.0 Metric Tons",Kentucky,TEX,Track Excavators,,EROPS,,,,,,,,,,,Standard,,,,,,None or Unspecified,,,,Steel,None or Unspecified,None or Unspecified,None or Unspecified,None or Unspecified,Double,,,,,
8269,1603826,36000,1365983,132,6.0,1985,,,3/25/1992 0:00,690,690,,,,Small,"Hydraulic Excavator, Track - 16.0 to 19.0 Metric Tons",Maryland,TEX,Track Excavators,,EROPS,,,,,,,,,,,Standard,,,,,,None or Unspecified,,,,Steel,32 inch,None or Unspecified,None or Unspecified,None or Unspecified,Triple,,,,,
8269,1603853,45000,1506820,132,1.0,1985,,,4/23/1991 0:00,690,690,,,,Small,"Hydraulic Excavator, Track - 16.0 to 19.0 Metric Tons",Kansas,TEX,Track Excavators,,EROPS,,,,,,,,,,,Standard,,,,,,None or Unspecified,,,,Steel,None or Unspecified,None or Unspecified,None or Unspecified,None or Unspecified,Triple,,,,,
8269,1603854,27500,1294951,132,1.0,1985,,,3/14/1991 0:00,690,690,,,,Small,"Hydraulic Excavator, Track - 16.0 to 19.0 Metric Tons",Florida,TEX,Track Excavators,,EROPS,,,,,,,,,,,Standard,,,,,,None or Unspecified,,,,Steel,None or Unspecified,None or Unspecified,None or Unspecified,None or Unspecified,Double,,,,,
8269,1603988,10000,1238088,132,5.0,1986,,,9/28/2006 0:00,690,690,,,,Small,"Hydraulic Excavator, Track - 16.0 to 19.0 Metric Tons",Connecticut,TEX,Track Excavators,,EROPS,,,,,,,,,,,Standard,,,,,,None or Unspecified,,,,Steel,32 inch,None or Unspecified,None or Unspecified,None or Unspecified,Triple,,,,,
8269,1604012,34500,1503356,132,4.0,1986,,,2/5/1991 0:00,690,690,,,,Small,"Hydraulic Excavator, Track - 16.0 to 19.0 Metric Tons",Florida,TEX,Track Excavators,,EROPS,,,,,,,,,,,Standard,,,,,,None or Unspecified,,,,Steel,None or Unspecified,"9' 6""",None or Unspecified,None or Unspecified,Double,,,,,
8269,1604013,31000,1503356,132,1.0,1986,,,12/18/1990 0:00,690,690,,,,Small,"Hydraulic Excavator, Track - 16.0 to 19.0 Metric Tons",North Carolina,TEX,Track Excavators,,EROPS,,,,,,,,,,,Standard,,,,,,None or Unspecified,,,,Steel,None or Unspecified,"9' 6""",None or Unspecified,None or Unspecified,Double,,,,,
8269,1604014,29000,1119137,132,6.0,1986,,,10/26/1995 0:00,690,690,,,,Small,"Hydraulic Excavator, Track - 16.0 to 19.0 Metric Tons",North Carolina,TEX,Track Excavators,,EROPS,,,,,,,,,,,Standard,,,,,,None or Unspecified,,,,Steel,None or Unspecified,None or Unspecified,None or Unspecified,None or Unspecified,Double,,,,,
8269,1604015,32000,1195326,132,6.0,1986,,,10/8/1993 0:00,690,690,,,,Small,"Hydraulic Excavator, Track - 16.0 to 19.0 Metric Tons",Pennsylvania,TEX,Track Excavators,,EROPS,,,,,,,,,,,Standard,,,,,,None or Unspecified,,,,Steel,None or Unspecified,None or Unspecified,None or Unspecified,None or Unspecified,Double,,,,,
8269,1604017,27000,1172168,132,18.0,1986,,,2/28/1992 0:00,690,690,,,,Small,"Hydraulic Excavator, Track - 16.0 to 19.0 Metric Tons",Pennsylvania,TEX,Track Excavators,,EROPS,,,,,,,,,,,Standard,,,,,,None or Unspecified,,,,Steel,30 inch,None or Unspecified,None or Unspecified,None or Unspecified,Double,,,,,
8269,1604139,38000,1398707,132,4.0,1986,2318.0,Medium,2/5/1991 0:00,690,690,,,,Small,"Hydraulic Excavator, Track - 16.0 to 19.0 Metric Tons",Florida,TEX,Track Excavators,,EROPS,,,,,,,,,,,Standard,,,,,,None or Unspecified,,,,Steel,30 inch,None or Unspecified,None or Unspecified,None or Unspecified,Triple,,,,,
8269,1604148,39000,1137426,132,2.0,1986,,,6/13/1992 0:00,690,690,,,,Small,"Hydraulic Excavator, Track - 16.0 to 19.0 Metric Tons",New York,TEX,Track Excavators,,EROPS,,,,,,,,,,,Standard,,,,,,None or Unspecified,,,,Steel,None or Unspecified,None or Unspecified,None or Unspecified,None or Unspecified,Double,,,,,
8269,1604156,35000,1173375,132,4.0,1986,,,10/18/1990 0:00,690,690,,,,Small,"Hydraulic Excavator, Track - 16.0 to 19.0 Metric Tons",Maine,TEX,Track Excavators,,EROPS,,,,,,,,,,,Standard,,,,,,None or Unspecified,,,,Steel,None or Unspecified,None or Unspecified,None or Unspecified,None or Unspecified,Double,,,,,
8269,1604184,30000,1520509,132,1.0,1987,,,11/16/1993 0:00,690,690,,,,Small,"Hydraulic Excavator, Track - 16.0 to 19.0 Metric Tons",Wisconsin,TEX,Track Excavators,,EROPS,,,,,,,,,,,Standard,,,,,,None or Unspecified,,,,Steel,None or Unspecified,None or Unspecified,None or Unspecified,None or Unspecified,Triple,,,,,
8269,1604271,41000,1508707,132,1.0,1987,,,4/7/1992 0:00,690,690,,,,Small,"Hydraulic Excavator, Track - 16.0 to 19.0 Metric Tons",Montana,TEX,Track Excavators,,EROPS,,,,,,,,,,,Standard,,,,,,None or Unspecified,,,,Steel,None or Unspecified,None or Unspecified,None or Unspecified,None or Unspecified,Triple,,,,,
8269,1604277,37500,1392373,132,1.0,1987,,,10/28/1992 0:00,690,690,,,,Small,"Hydraulic Excavator, Track - 16.0 to 19.0 Metric Tons",Maryland,TEX,Track Excavators,,EROPS,,,,,,,,,,,Standard,,,,,,None or Unspecified,,,,Steel,None or Unspecified,None or Unspecified,None or Unspecified,None or Unspecified,Triple,,,,,
8269,1604306,23500,1214206,132,10.0,1987,,,8/26/1993 0:00,690,690,,,,Small,"Hydraulic Excavator, Track - 16.0 to 19.0 Metric Tons",Louisiana,TEX,Track Excavators,,EROPS,,,,,,,,,,,Standard,,,,,,None or Unspecified,,,,Steel,None or Unspecified,None or Unspecified,None or Unspecified,None or Unspecified,Triple,,,,,
8269,1604312,30000,1122246,132,6.0,1987,,,12/15/1992 0:00,690,690,,,,Small,"Hydraulic Excavator, Track - 16.0 to 19.0 Metric Tons",Kentucky,TEX,Track Excavators,,EROPS,,,,,,,,,,,Standard,,,,,,None or Unspecified,,,,Steel,None or Unspecified,None or Unspecified,None or Unspecified,None or Unspecified,Double,,,,,
8269,1604313,10500,1470826,132,1.0,1000,,,12/18/2000 0:00,690,690,,,,Small,"Hydraulic Excavator, Track - 16.0 to 19.0 Metric Tons",Maryland,TEX,Track Excavators,,EROPS,,,,,,,,,,,Standard,,,,,,None or Unspecified,,,,Steel,None or Unspecified,None or Unspecified,Manual,None or Unspecified,Double,,,,,
8269,1604340,36500,1523129,132,16.0,1987,,,6/17/1993 0:00,690,690,,,,Small,"Hydraulic Excavator, Track - 16.0 to 19.0 Metric Tons",Illinois,TEX,Track Excavators,,EROPS,,,,,,,,,,,Standard,,,,,,None or Unspecified,,,,Steel,None or Unspecified,None or Unspecified,None or Unspecified,None or Unspecified,Double,,,,,
8269,1604341,31000,1370568,132,17.0,1987,,,4/26/2001 0:00,690,690,,,,Small,"Hydraulic Excavator, Track - 16.0 to 19.0 Metric Tons",Montana,TEX,Track Excavators,,EROPS,,,,,,,,,,,Standard,,,,,,None or Unspecified,,,,Steel,None or Unspecified,None or Unspecified,None or Unspecified,None or Unspecified,Double,,,,,
8269,1604348,34000,1123084,132,4.0,1987,,,11/15/1990 0:00,690,690,,,,Small,"Hydraulic Excavator, Track - 16.0 to 19.0 Metric Tons",Ohio,TEX,Track Excavators,,EROPS,,,,,,,,,,,Standard,,,,,,None or Unspecified,,,,Steel,None or Unspecified,None or Unspecified,None or Unspecified,None or Unspecified,Double,,,,,
8269,1604349,36500,1418063,132,6.0,1987,,,9/30/1992 0:00,690,690,,,,Small,"Hydraulic Excavator, Track - 16.0 to 19.0 Metric Tons",Maryland,TEX,Track Excavators,,EROPS,,,,,,,,,,,Standard,,,,,,None or Unspecified,,,,Steel,None or Unspecified,None or Unspecified,None or Unspecified,None or Unspecified,Double,,,,,
8269,1604369,45000,1466909,132,1.0,1987,,,7/20/1993 0:00,690,690,,,,Small,"Hydraulic Excavator, Track - 16.0 to 19.0 Metric Tons",Georgia,TEX,Track Excavators,,EROPS,,,,,,,,,,,Standard,,,,,,None or Unspecified,,,,Steel,None or Unspecified,None or Unspecified,None or Unspecified,None or Unspecified,Triple,,,,,
8269,1604400,44500,1090426,132,4.0,1987,,,2/4/1992 0:00,690,690,,,,Small,"Hydraulic Excavator, Track - 16.0 to 19.0 Metric Tons",Florida,TEX,Track Excavators,,EROPS,,,,,,,,,,,Standard,,,,,,None or Unspecified,,,,Steel,None or Unspecified,None or Unspecified,None or Unspecified,None or Unspecified,Double,,,,,
8269,1604459,40000,1335661,132,1.0,1987,,,12/18/1990 0:00,690,690,,,,Small,"Hydraulic Excavator, Track - 16.0 to 19.0 Metric Tons",North Carolina,TEX,Track Excavators,,EROPS,,,,,,,,,,,Standard,,,,,,None or Unspecified,,,,Steel,None or Unspecified,None or Unspecified,None or Unspecified,None or Unspecified,Double,,,,,
8269,1604468,62000,1455557,132,1.0,1987,,,10/28/1992 0:00,690,690,,,,Small,"Hydraulic Excavator, Track - 16.0 to 19.0 Metric Tons",Maryland,TEX,Track Excavators,,EROPS,,,,,,,,,,,Standard,,,,,,None or Unspecified,,,,Steel,None or Unspecified,None or Unspecified,None or Unspecified,None or Unspecified,Triple,,,,,
8269,1604534,40000,1350672,132,1.0,1987,,,12/18/1990 0:00,690,690,,,,Small,"Hydraulic Excavator, Track - 16.0 to 19.0 Metric Tons",North Carolina,TEX,Track Excavators,,EROPS,,,,,,,,,,,Standard,,,,,,None or Unspecified,,,,Steel,None or Unspecified,"9' 6""",None or Unspecified,None or Unspecified,Double,,,,,
8269,1604659,38750,1266776,132,10.0,1988,,,6/18/1992 0:00,690,690,,,,Small,"Hydraulic Excavator, Track - 16.0 to 19.0 Metric Tons",Louisiana,TEX,Track Excavators,,EROPS,,,,,,,,,,,Standard,,,,,,None or Unspecified,,,,Steel,None or Unspecified,None or Unspecified,None or Unspecified,None or Unspecified,Double,,,,,
8269,1604686,47000,1097909,132,1.0,1988,,,3/14/1991 0:00,690,690,,,,Small,"Hydraulic Excavator, Track - 16.0 to 19.0 Metric Tons",Florida,TEX,Track Excavators,,EROPS,,,,,,,,,,,Standard,,,,,,None or Unspecified,,,,Steel,None or Unspecified,None or Unspecified,None or Unspecified,None or Unspecified,Double,,,,,
8269,1604913,55000,1432778,132,24.0,1988,1770.0,High,11/7/1989 0:00,690,690,,,,Small,"Hydraulic Excavator, Track - 16.0 to 19.0 Metric Tons",Georgia,TEX,Track Excavators,,EROPS,,,,,,,,,,,Standard,,,,,,None or Unspecified,,,,Steel,None or Unspecified,None or Unspecified,None or Unspecified,None or Unspecified,Double,,,,,
8269,1604920,45500,1410124,132,2.0,1988,,,3/12/1993 0:00,690,690,,,,Small,"Hydraulic Excavator, Track - 16.0 to 19.0 Metric Tons",New Jersey,TEX,Track Excavators,,EROPS,,,,,,,,,,,Standard,,,,,,None or Unspecified,,,,Steel,None or Unspecified,None or Unspecified,None or Unspecified,None or Unspecified,Double,,,,,
8269,1604921,45000,1550876,132,1.0,1988,,,6/19/1992 0:00,690,690,,,,Small,"Hydraulic Excavator, Track - 16.0 to 19.0 Metric Tons",Minnesota,TEX,Track Excavators,,EROPS,,,,,,,,,,,Standard,,,,,,None or Unspecified,,,,Steel,None or Unspecified,None or Unspecified,None or Unspecified,None or Unspecified,Triple,,,,,
8269,1604928,45000,1529262,132,1.0,1988,,,3/18/1993 0:00,690,690,,,,Small,"Hydraulic Excavator, Track - 16.0 to 19.0 Metric Tons",Nevada,TEX,Track Excavators,,EROPS,,,,,,,,,,,Standard,,,,,,None or Unspecified,,,,Steel,None or Unspecified,None or Unspecified,None or Unspecified,None or Unspecified,Triple,,,,,
8269,1604971,51000,1500284,132,4.0,1988,,,2/4/1992 0:00,690,690,,,,Small,"Hydraulic Excavator, Track - 16.0 to 19.0 Metric Tons",Florida,TEX,Track Excavators,,EROPS,,,,,,,,,,,Standard,,,,,,None or Unspecified,,,,Steel,None or Unspecified,None or Unspecified,None or Unspecified,None or Unspecified,Double,,,,,
8269,1605071,56000,1290098,132,11.0,1988,,,8/25/1993 0:00,690,690,,,,Small,"Hydraulic Excavator, Track - 16.0 to 19.0 Metric Tons",Mississippi,TEX,Track Excavators,,EROPS,,,,,,,,,,,Standard,,,,,,None or Unspecified,,,,Steel,30 inch,None or Unspecified,None or Unspecified,None or Unspecified,Double,,,,,
8269,1605094,48000,1272452,132,11.0,1988,,,11/12/1992 0:00,690,690,,,,Small,"Hydraulic Excavator, Track - 16.0 to 19.0 Metric Tons",Mississippi,TEX,Track Excavators,,EROPS,,,,,,,,,,,Standard,,,,,,None or Unspecified,,,,Steel,None or Unspecified,None or Unspecified,None or Unspecified,None or Unspecified,Double,,,,,
8269,1605095,39000,1272452,132,10.0,1988,,,6/18/1992 0:00,690,690,,,,Small,"Hydraulic Excavator, Track - 16.0 to 19.0 Metric Tons",Louisiana,TEX,Track Excavators,,EROPS,,,,,,,,,,,Standard,,,,,,None or Unspecified,,,,Steel,None or Unspecified,None or Unspecified,None or Unspecified,None or Unspecified,Double,,,,,
8269,1605156,57000,1301132,132,4.0,1989,,,9/26/1991 0:00,690,690,,,,Small,"Hydraulic Excavator, Track - 16.0 to 19.0 Metric Tons",Kentucky,TEX,Track Excavators,,EROPS,,,,,,,,,,,Standard,,,,,,None or Unspecified,,,,Steel,None or Unspecified,None or Unspecified,None or Unspecified,None or Unspecified,Double,,,,,
8269,1605360,50000,1475787,132,1.0,1989,,,11/18/1993 0:00,690,690,,,,Small,"Hydraulic Excavator, Track - 16.0 to 19.0 Metric Tons",Texas,TEX,Track Excavators,,EROPS,,,,,,,,,,,Standard,,,,,,None or Unspecified,,,,Steel,None or Unspecified,"9' 6""",None or Unspecified,None or Unspecified,Triple,,,,,
8269,1605410,48500,1307314,132,2.0,1989,,,6/13/1992 0:00,690,690,,,,Small,"Hydraulic Excavator, Track - 16.0 to 19.0 Metric Tons",New York,TEX,Track Excavators,,EROPS,,,,,,,,,,,Standard,,,,,,None or Unspecified,,,,Steel,None or Unspecified,None or Unspecified,None or Unspecified,None or Unspecified,Double,,,,,
8269,1605517,17000,1337285,132,6.0,1978,,,11/30/1990 0:00,690,690,,,,Small,"Hydraulic Excavator, Track - 16.0 to 19.0 Metric Tons",Maryland,TEX,Track Excavators,,EROPS,,,,,,,,,,,Standard,,,,,,None or Unspecified,,,,Steel,None or Unspecified,None or Unspecified,None or Unspecified,None or Unspecified,Double,,,,,
8269,1605616,48000,1180052,132,6.0,1988,1700.0,Low,4/23/1992 0:00,690,690,,,,Small,"Hydraulic Excavator, Track - 16.0 to 19.0 Metric Tons",Kentucky,TEX,Track Excavators,,EROPS,,,,,,,,,,,Standard,,,,,,None or Unspecified,,,,Steel,None or Unspecified,None or Unspecified,None or Unspecified,None or Unspecified,Double,,,,,
8269,1605679,59000,1365531,132,1.0,1989,,,12/18/1990 0:00,690,690,,,,Small,"Hydraulic Excavator, Track - 16.0 to 19.0 Metric Tons",North Carolina,TEX,Track Excavators,,EROPS,,,,,,,,,,,Standard,,,,,,None or Unspecified,,,,Steel,None or Unspecified,"9' 6""",None or Unspecified,None or Unspecified,Double,,,,,
8269,1605813,51000,1480062,132,2.0,1990,,,8/29/1992 0:00,690,690,,,,Small,"Hydraulic Excavator, Track - 16.0 to 19.0 Metric Tons",New York,TEX,Track Excavators,,EROPS,,,,,,,,,,,Standard,,,,,,None or Unspecified,,,,Steel,None or Unspecified,None or Unspecified,None or Unspecified,None or Unspecified,Double,,,,,
8269,1605861,62000,1445955,132,1.0,1978,,,6/25/1991 0:00,690,690,,,,Small,"Hydraulic Excavator, Track - 16.0 to 19.0 Metric Tons",Alabama,TEX,Track Excavators,,EROPS,,,,,,,,,,,Standard,,,,,,None or Unspecified,,,,Steel,None or Unspecified,"9' 6""",None or Unspecified,None or Unspecified,Triple,,,,,
8269,1606166,17500,1255469,132,4.0,1978,,,10/10/1990 0:00,690,690,,,,Small,"Hydraulic Excavator, Track - 16.0 to 19.0 Metric Tons",Florida,TEX,Track Excavators,,EROPS,,,,,,,,,,,Standard,,,,,,None or Unspecified,,,,Steel,None or Unspecified,None or Unspecified,None or Unspecified,None or Unspecified,Triple,,,,,
8269,1606538,27500,1278068,132,17.0,1992,,,3/16/1999 0:00,690,690,,,,Small,"Hydraulic Excavator, Track - 16.0 to 19.0 Metric Tons",Washington,TEX,Track Excavators,,EROPS,,,,,,,,,,,Standard,,,,,,None or Unspecified,,,,Steel,None or Unspecified,None or Unspecified,None or Unspecified,None or Unspecified,Double,,,,,
8269,1607085,29500,1550005,132,4.0,1978,,,2/6/1990 0:00,690,690,,,,Small,"Hydraulic Excavator, Track - 16.0 to 19.0 Metric Tons",Florida,TEX,Track Excavators,,EROPS,,,,,,,,,,,Standard,,,,,,None or Unspecified,,,,Steel,None or Unspecified,None or Unspecified,None or Unspecified,None or Unspecified,Double,,,,,
8269,1607181,28000,1420426,132,2.0,1000,,,8/9/2003 0:00,690,690,,,,Small,"Hydraulic Excavator, Track - 16.0 to 19.0 Metric Tons",Ohio,TEX,Track Excavators,,EROPS,,,,,,,,,,,Standard,,,,,,None or Unspecified,,,,Steel,None or Unspecified,None or Unspecified,None or Unspecified,None or Unspecified,Double,,,,,
8269,1607343,36000,1425330,132,1.0,1993,,,5/24/2001 0:00,690,690,,,,Small,"Hydraulic Excavator, Track - 16.0 to 19.0 Metric Tons",Oregon,TEX,Track Excavators,,EROPS,,,,,,,,,,,Standard,,,,,,None or Unspecified,,,,Steel,None or Unspecified,None or Unspecified,None or Unspecified,None or Unspecified,Double,,,,,
8269,1607440,37500,1136486,132,2.0,1995,,,9/8/2000 0:00,690,690,,,,Small,"Hydraulic Excavator, Track - 16.0 to 19.0 Metric Tons",New York,TEX,Track Excavators,,EROPS,,,,,,,,,,,Standard,,,,,,None or Unspecified,,,,Steel,None or Unspecified,None or Unspecified,None or Unspecified,None or Unspecified,Double,,,,,
8269,1607545,29000,1144175,132,1.0,1994,,,9/23/2003 0:00,690,690,,,,Small,"Hydraulic Excavator, Track - 16.0 to 19.0 Metric Tons",Washington,TEX,Track Excavators,,EROPS,,,,,,,,,,,Standard,,,,,,Manual,,,,Steel,None or Unspecified,None or Unspecified,None or Unspecified,None or Unspecified,Double,,,,,
8269,1607679,14500,1436918,132,4.0,1978,,,2/6/1990 0:00,690,690,,,,Small,"Hydraulic Excavator, Track - 16.0 to 19.0 Metric Tons",Florida,TEX,Track Excavators,,EROPS,,,,,,,,,,,Standard,,,,,,None or Unspecified,,,,Steel,None or Unspecified,None or Unspecified,None or Unspecified,None or Unspecified,Double,,,,,
8269,1607760,18000,1237963,132,1.0,1978,,,10/17/1989 0:00,690,690,,,,Small,"Hydraulic Excavator, Track - 16.0 to 19.0 Metric Tons",Minnesota,TEX,Track Excavators,,EROPS,,,,,,,,,,,Standard,,,,,,None or Unspecified,,,,Steel,None or Unspecified,None or Unspecified,None or Unspecified,None or Unspecified,Double,,,,,
8269,1607783,48500,1477321,132,2.0,1994,,,3/25/1999 0:00,690,690,,,,Small,"Hydraulic Excavator, Track - 16.0 to 19.0 Metric Tons",Nevada,TEX,Track Excavators,,EROPS,,,,,,,,,,,Standard,,,,,,None or Unspecified,,,,Steel,None or Unspecified,None or Unspecified,None or Unspecified,None or Unspecified,Double,,,,,
8269,1607970,26000,833151,132,1.0,1000,,,10/5/2005 0:00,690,690,,,,Small,"Hydraulic Excavator, Track - 16.0 to 19.0 Metric Tons",Maryland,TEX,Track Excavators,,EROPS w AC,,,,,,,,,,,Standard,,,,,,None or Unspecified,,,,Steel,None or Unspecified,None or Unspecified,None or Unspecified,None or Unspecified,Double,,,,,
8269,1608222,28000,1112223,132,6.0,1978,,,4/3/1990 0:00,690,690,,,,Small,"Hydraulic Excavator, Track - 16.0 to 19.0 Metric Tons",Wyoming,TEX,Track Excavators,,EROPS,,,,,,,,,,,Standard,,,,,,None or Unspecified,,,,Steel,None or Unspecified,None or Unspecified,None or Unspecified,None or Unspecified,Double,,,,,
8269,1609092,42000,1416970,132,2.0,1996,,,9/26/2003 0:00,690,690,,,,Small,"Hydraulic Excavator, Track - 16.0 to 19.0 Metric Tons",Pennsylvania,TEX,Track Excavators,,EROPS,,,,,,,,,,,Standard,,,,,,None or Unspecified,,,,Steel,None or Unspecified,None or Unspecified,None or Unspecified,None or Unspecified,Double,,,,,
8269,1609351,16000,1481064,132,3.0,1996,,,12/4/2003 0:00,690,690,,,,Small,"Hydraulic Excavator, Track - 16.0 to 19.0 Metric Tons",Unspecified,TEX,Track Excavators,,EROPS,,,,,,,,,,,Standard,,,,,,None or Unspecified,,,,Steel,26 inch,None or Unspecified,None or Unspecified,None or Unspecified,Double,,,,,
8269,1611055,19000,1447134,132,1.0,1978,,,4/12/1990 0:00,690,690,,,,Small,"Hydraulic Excavator, Track - 16.0 to 19.0 Metric Tons",Texas,TEX,Track Excavators,,EROPS,,,,,,,,,,,Standard,,,,,,None or Unspecified,,,,Steel,None or Unspecified,None or Unspecified,None or Unspecified,None or Unspecified,Double,,,,,
8269,1611460,19000,1380590,132,4.0,1978,,,2/5/1991 0:00,690,690,,,,Small,"Hydraulic Excavator, Track - 16.0 to 19.0 Metric Tons",Florida,TEX,Track Excavators,,EROPS,,,,,,,,,,,Base + 1 Function,,,,,,,,,,,,,,,,,,,,
8269,1612233,27000,1400871,132,4.0,1978,,,2/1/1989 0:00,690,690,,,,Small,"Hydraulic Excavator, Track - 16.0 to 19.0 Metric Tons",Florida,TEX,Track Excavators,,EROPS,,,,,,,,,,,Standard,,,,,,None or Unspecified,,,,Steel,None or Unspecified,None or Unspecified,None or Unspecified,None or Unspecified,Double,,,,,
8269,1612269,24000,1180947,132,1.0,1978,,,12/4/1990 0:00,690,690,,,,Small,"Hydraulic Excavator, Track - 16.0 to 19.0 Metric Tons",Texas,TEX,Track Excavators,,EROPS,,,,,,,,,,,Standard,,,,,,None or Unspecified,,,,Steel,None or Unspecified,None or Unspecified,None or Unspecified,None or Unspecified,Double,,,,,
8269,1612529,16000,1166055,132,1.0,1979,,,12/3/1992 0:00,690,690,,,,Small,"Hydraulic Excavator, Track - 16.0 to 19.0 Metric Tons",Washington,TEX,Track Excavators,,EROPS,,,,,,,,,,,Standard,,,,,,None or Unspecified,,,,Steel,None or Unspecified,None or Unspecified,None or Unspecified,None or Unspecified,Triple,,,,,
8269,1613050,16000,1287876,132,24.0,1979,,,3/21/1991 0:00,690,690,,,,Small,"Hydraulic Excavator, Track - 16.0 to 19.0 Metric Tons",Georgia,TEX,Track Excavators,,EROPS,,,,,,,,,,,Standard,,,,,,None or Unspecified,,,,Steel,30 inch,None or Unspecified,None or Unspecified,None or Unspecified,Double,,,,,
8269,1613277,15500,1318247,132,2.0,1979,,,7/24/1993 0:00,690,690,,,,Small,"Hydraulic Excavator, Track - 16.0 to 19.0 Metric Tons",New York,TEX,Track Excavators,,EROPS,,,,,,,,,,,Standard,,,,,,None or Unspecified,,,,Steel,None or Unspecified,None or Unspecified,None or Unspecified,None or Unspecified,Double,,,,,
8269,1613478,17000,1252032,132,1.0,1979,,,8/19/1993 0:00,690,690,,,,Small,"Hydraulic Excavator, Track - 16.0 to 19.0 Metric Tons",Tennessee,TEX,Track Excavators,,EROPS,,,,,,,,,,,Standard,,,,,,None or Unspecified,,,,Steel,None or Unspecified,None or Unspecified,None or Unspecified,None or Unspecified,Triple,,,,,
8269,1613618,14000,273643,132,1.0,1979,,,7/12/1993 0:00,690,690,,,,Small,"Hydraulic Excavator, Track - 16.0 to 19.0 Metric Tons",Texas,TEX,Track Excavators,,EROPS,,,,,,,,,,,,,,,,,,,,,,None or Unspecified,,,,,,,,,
8269,1613781,19000,1540413,132,1.0,1979,,,3/14/1989 0:00,690,690,,,,Small,"Hydraulic Excavator, Track - 16.0 to 19.0 Metric Tons",Texas,TEX,Track Excavators,,OROPS,,,,,,,,,,,2 Valve,,,,,,,,,,,None or Unspecified,,,,,,,,,
8269,1613853,16000,1251779,132,4.0,1979,,,12/2/1993 0:00,690,690,,,,Small,"Hydraulic Excavator, Track - 16.0 to 19.0 Metric Tons",Ohio,TEX,Track Excavators,,EROPS,,,,,,,,,,,Standard,,,,,,None or Unspecified,,,,Steel,None or Unspecified,None or Unspecified,None or Unspecified,None or Unspecified,Double,,,,,
8269,1614019,17000,1514546,132,1.0,1979,,,12/5/1991 0:00,690,690,,,,Small,"Hydraulic Excavator, Track - 16.0 to 19.0 Metric Tons",Texas,TEX,Track Excavators,,EROPS,,,,,,,,,,,Standard,,,,,,None or Unspecified,,,,Steel,None or Unspecified,None or Unspecified,None or Unspecified,None or Unspecified,Triple,,,,,
8269,1614307,7500,1502174,132,6.0,1000,,,8/11/1995 0:00,690,690,,,,Small,"Hydraulic Excavator, Track - 16.0 to 19.0 Metric Tons",Texas,TEX,Track Excavators,,OROPS,,,,,,,,,,,Standard,,,,,,None or Unspecified,,,,,,,,,,,,,,
8269,1614308,11000,1502174,132,99.0,1970,,,3/15/1994 0:00,690,690,,,,Small,"Hydraulic Excavator, Track - 16.0 to 19.0 Metric Tons",Texas,TEX,Track Excavators,,OROPS,,,,,,,,,,,Standard,,,,,,None or Unspecified,,,,,,,,,,,,,,
8269,1614505,19000,1499757,132,1.0,1979,,,2/28/1991 0:00,690,690,,,,Small,"Hydraulic Excavator, Track - 16.0 to 19.0 Metric Tons",California,TEX,Track Excavators,,EROPS,,,,,,,,,,,Standard,,,,,,None or Unspecified,,,,Steel,None or Unspecified,None or Unspecified,None or Unspecified,None or Unspecified,Double,,,,,
8269,1614512,19000,1160997,132,1.0,1979,,,11/21/1989 0:00,690,690,,,,Small,"Hydraulic Excavator, Track - 16.0 to 19.0 Metric Tons",Colorado,TEX,Track Excavators,,EROPS,,,,,,,,,,,Standard,,,,,,None or Unspecified,,,,Steel,None or Unspecified,None or Unspecified,None or Unspecified,None or Unspecified,Triple,,,,,
8269,1614527,17500,1343803,132,1.0,1979,,,4/15/1993 0:00,690,690,,,,Small,"Hydraulic Excavator, Track - 16.0 to 19.0 Metric Tons",Texas,TEX,Track Excavators,,EROPS,,,,,,,,,,,Standard,,,,,,None or Unspecified,,,,Steel,None or Unspecified,None or Unspecified,None or Unspecified,None or Unspecified,Triple,,,,,
8269,1614576,15000,1417753,132,1.0,1979,,,2/26/1991 0:00,690,690,,,,Small,"Hydraulic Excavator, Track - 16.0 to 19.0 Metric Tons",Nevada,TEX,Track Excavators,,EROPS,,,,,,,,,,,Standard,,,,,,None or Unspecified,,,,Steel,None or Unspecified,None or Unspecified,None or Unspecified,None or Unspecified,Triple,,,,,
8269,1614590,14000,1370751,132,1.0,1979,,,9/28/1993 0:00,690,690,,,,Small,"Hydraulic Excavator, Track - 16.0 to 19.0 Metric Tons",Pennsylvania,TEX,Track Excavators,,EROPS,,,,,,,,,,,Standard,,,,,,None or Unspecified,,,,Steel,None or Unspecified,None or Unspecified,None or Unspecified,None or Unspecified,Double,,,,,
8269,1614593,13000,1483814,132,1.0,1979,,,9/24/1992 0:00,690,690,,,,Small,"Hydraulic Excavator, Track - 16.0 to 19.0 Metric Tons",Washington,TEX,Track Excavators,,EROPS,,,,,,,,,,,Standard,,,,,,None or Unspecified,,,,Steel,None or Unspecified,None or Unspecified,None or Unspecified,None or Unspecified,Double,,,,,
8269,1614675,17500,1280912,132,1.0,1979,,,10/9/1990 0:00,690,690,,,,Small,"Hydraulic Excavator, Track - 16.0 to 19.0 Metric Tons",Wisconsin,TEX,Track Excavators,,EROPS,,,,,,,,,,,Standard,,,,,,None or Unspecified,,,,Steel,None or Unspecified,None or Unspecified,None or Unspecified,None or Unspecified,Double,,,,,
8269,1614921,32500,395624,132,6.0,1979,,,4/6/1990 0:00,690,690,,,,Small,"Hydraulic Excavator, Track - 16.0 to 19.0 Metric Tons",Tennessee,TEX,Track Excavators,,OROPS,,,,,,,,,,,2 Valve,,,,,,None or Unspecified,,,,,None or Unspecified,,,,,,,,,
8269,1614950,27000,1153938,132,1.0,1979,,,8/22/1989 0:00,690,690,,,,Small,"Hydraulic Excavator, Track - 16.0 to 19.0 Metric Tons",Colorado,TEX,Track Excavators,,OROPS,,,,,,,,,,,Base + 1 Function,,,,,,,,,,,,,,,,,,,,
8269,1614990,16000,1203125,132,1.0,1979,,,2/28/1991 0:00,690,690,,,,Small,"Hydraulic Excavator, Track - 16.0 to 19.0 Metric Tons",California,TEX,Track Excavators,,EROPS,,,,,,,,,,,Standard,,,,,,None or Unspecified,,,,Steel,None or Unspecified,None or Unspecified,None or Unspecified,None or Unspecified,Double,,,,,
8269,1614995,11500,1428683,132,2.0,1979,,,9/12/1992 0:00,690,690,,,,Small,"Hydraulic Excavator, Track - 16.0 to 19.0 Metric Tons",Kentucky,TEX,Track Excavators,,EROPS,,,,,,,,,,,Standard,,,,,,None or Unspecified,,,,Steel,None or Unspecified,None or Unspecified,None or Unspecified,None or Unspecified,Double,,,,,
8269,1615022,20000,1167331,132,2.0,1979,,,3/12/1993 0:00,690,690,,,,Small,"Hydraulic Excavator, Track - 16.0 to 19.0 Metric Tons",New Jersey,TEX,Track Excavators,,EROPS,,,,,,,,,,,Base + 1 Function,,,,,,,,,,,,,,,,,,,,
8269,1618210,16000,1199608,132,1.0,1979,,,10/12/1989 0:00,690,690,,,,Small,"Hydraulic Excavator, Track - 16.0 to 19.0 Metric Tons",Texas,TEX,Track Excavators,,EROPS,,,,,,,,,,,,,,,,,,,,,,32 inch,,,,,,,,,
8269,1618238,16000,1543935,132,6.0,1979,,,2/15/1991 0:00,690,690,,,,Small,"Hydraulic Excavator, Track - 16.0 to 19.0 Metric Tons",Florida,TEX,Track Excavators,,OROPS,,,,,,,,,,,Standard,,,,,,None or Unspecified,,,,,,,,,,,,,,
8269,1619569,16750,1100434,132,2.0,1980,,,11/21/1992 0:00,690,690,,,,Small,"Hydraulic Excavator, Track - 16.0 to 19.0 Metric Tons",Ohio,TEX,Track Excavators,,EROPS w AC,,,,,,,,,,,2 Valve,,,,,,None or Unspecified,,,,,None or Unspecified,,,,,,,,,
8269,1620176,28000,275909,132,4.0,1982,,,2/6/1990 0:00,690,690,,,,Small,"Hydraulic Excavator, Track - 16.0 to 19.0 Metric Tons",Florida,TEX,Track Excavators,,EROPS,,,,,,,,,,,,,,,,,,,,,,30 inch,,,,,,,,,
8269,1620193,18500,1476562,132,4.0,1980,,,2/5/1991 0:00,690,690,,,,Small,"Hydraulic Excavator, Track - 16.0 to 19.0 Metric Tons",Florida,TEX,Track Excavators,,EROPS,,,,,,,,,,,Standard,,,,,,None or Unspecified,,,,Steel,None or Unspecified,None or Unspecified,None or Unspecified,None or Unspecified,Double,,,,,
8269,1620747,19000,1388927,132,1.0,1980,,,10/29/1992 0:00,690,690,,,,Small,"Hydraulic Excavator, Track - 16.0 to 19.0 Metric Tons",Maryland,TEX,Track Excavators,,EROPS,,,,,,,,,,,Standard,,,,,,None or Unspecified,,,,Steel,None or Unspecified,None or Unspecified,None or Unspecified,None or Unspecified,Double,,,,,
8269,1620916,11500,1324535,132,6.0,1000,,,4/25/1995 0:00,690,690,,,,Small,"Hydraulic Excavator, Track - 16.0 to 19.0 Metric Tons",New Mexico,TEX,Track Excavators,,EROPS,,,,,,,,,,,Standard,,,,,,None or Unspecified,,,,Steel,30 inch,None or Unspecified,None or Unspecified,None or Unspecified,Triple,,,,,
8269,1621513,21000,1467942,132,6.0,1980,,,4/23/1991 0:00,690,690,,,,Small,"Hydraulic Excavator, Track - 16.0 to 19.0 Metric Tons",Kentucky,TEX,Track Excavators,,EROPS,,,,,,,,,,,Standard,,,,,,None or Unspecified,,,,Steel,None or Unspecified,None or Unspecified,None or Unspecified,None or Unspecified,Double,,,,,
8269,1621579,20000,1249267,132,1.0,1980,,,3/2/1993 0:00,690,690,,,,Small,"Hydraulic Excavator, Track - 16.0 to 19.0 Metric Tons",Georgia,TEX,Track Excavators,,OROPS,,,,,,,,,,,Base + 1 Function,,,,,,,,,,,,,,,,,,,,
8269,1621940,15000,1511136,132,1.0,1980,,,7/12/1993 0:00,690,690,,,,Small,"Hydraulic Excavator, Track - 16.0 to 19.0 Metric Tons",Texas,TEX,Track Excavators,,EROPS,,,,,,,,,,,Standard,,,,,,None or Unspecified,,,,Steel,None or Unspecified,None or Unspecified,None or Unspecified,None or Unspecified,Triple,,,,,
8269,1622114,19000,1128368,132,1.0,1980,,,8/19/1993 0:00,690,690,,,,Small,"Hydraulic Excavator, Track - 16.0 to 19.0 Metric Tons",Tennessee,TEX,Track Excavators,,EROPS,,,,,,,,,,,Standard,,,,,,None or Unspecified,,,,Steel,None or Unspecified,None or Unspecified,None or Unspecified,None or Unspecified,Triple,,,,,
8269,1622513,19000,1305278,132,6.0,1980,1000.0,Low,4/23/1991 0:00,690,690,,,,Small,"Hydraulic Excavator, Track - 16.0 to 19.0 Metric Tons",Kentucky,TEX,Track Excavators,,EROPS,,,,,,,,,,,Standard,,,,,,None or Unspecified,,,,Steel,None or Unspecified,None or Unspecified,None or Unspecified,None or Unspecified,Double,,,,,
8269,1623454,23000,1132778,132,4.0,1980,,,2/6/1990 0:00,690,690,,,,Small,"Hydraulic Excavator, Track - 16.0 to 19.0 Metric Tons",Florida,TEX,Track Excavators,,EROPS,,,,,,,,,,,Standard,,,,,,None or Unspecified,,,,Steel,None or Unspecified,None or Unspecified,None or Unspecified,None or Unspecified,Double,,,,,
8269,1623509,22500,1225626,132,6.0,1980,,,12/15/1992 0:00,690,690,,,,Small,"Hydraulic Excavator, Track - 16.0 to 19.0 Metric Tons",Kentucky,TEX,Track Excavators,,EROPS,,,,,,,,,,,Standard,,,,,,None or Unspecified,,,,Steel,None or Unspecified,None or Unspecified,None or Unspecified,None or Unspecified,Double,,,,,
8269,1624070,8000,1238783,132,23.0,1980,,,4/8/1995 0:00,690,690,,,,Small,"Hydraulic Excavator, Track - 16.0 to 19.0 Metric Tons",New Jersey,TEX,Track Excavators,,OROPS,,,,,,,,,,,,,,,,,,,,,,None or Unspecified,,,,,,,,,
8269,1624445,22000,1450059,132,1.0,1980,,,4/12/1990 0:00,690,690,,,,Small,"Hydraulic Excavator, Track - 16.0 to 19.0 Metric Tons",Texas,TEX,Track Excavators,,EROPS,,,,,,,,,,,Standard,,,,,,None or Unspecified,,,,Steel,None or Unspecified,None or Unspecified,None or Unspecified,None or Unspecified,Double,,,,,
8269,1624516,25000,1331756,132,6.0,1980,,,12/11/1989 0:00,690,690,,,,Small,"Hydraulic Excavator, Track - 16.0 to 19.0 Metric Tons",Kentucky,TEX,Track Excavators,,EROPS,,,,,,,,,,,Standard,,,,,,None or Unspecified,,,,Steel,None or Unspecified,None or Unspecified,None or Unspecified,None or Unspecified,Double,,,,,
8269,1625091,13000,1117895,132,1.0,1980,,,11/10/1993 0:00,690,690,,,,Small,"Hydraulic Excavator, Track - 16.0 to 19.0 Metric Tons",Montana,TEX,Track Excavators,,EROPS,,,,,,,,,,,Standard,,,,,,None or Unspecified,,,,Steel,None or Unspecified,None or Unspecified,Manual,None or Unspecified,Double,,,,,
8269,1625172,16750,1449063,132,6.0,1980,,,5/17/1991 0:00,690,690,,,,Small,"Hydraulic Excavator, Track - 16.0 to 19.0 Metric Tons",Missouri,TEX,Track Excavators,,EROPS,,,,,,,,,,,Standard,,,,,,None or Unspecified,,,,Steel,None or Unspecified,None or Unspecified,None or Unspecified,None or Unspecified,Double,,,,,
8269,1625603,22000,1470125,132,6.0,1980,,,4/11/1989 0:00,690,690,,,,Small,"Hydraulic Excavator, Track - 16.0 to 19.0 Metric Tons",Utah,TEX,Track Excavators,,EROPS,,,,,,,,,,,Standard,,,,,,None or Unspecified,,,,Steel,30 inch,None or Unspecified,None or Unspecified,None or Unspecified,Double,,,,,
8269,1625730,17000,1444962,132,1.0,1980,,,9/25/1990 0:00,690,690,,,,Small,"Hydraulic Excavator, Track - 16.0 to 19.0 Metric Tons",Kentucky,TEX,Track Excavators,,EROPS,,,,,,,,,,,Standard,,,,,,None or Unspecified,,,,Steel,None or Unspecified,None or Unspecified,None or Unspecified,None or Unspecified,Double,,,,,
8269,1625805,18750,1280223,132,4.0,1980,,,2/1/1993 0:00,690,690,,,,Small,"Hydraulic Excavator, Track - 16.0 to 19.0 Metric Tons",Florida,TEX,Track Excavators,,EROPS,,,,,,,,,,,Standard,,,,,,None or Unspecified,,,,Steel,None or Unspecified,None or Unspecified,None or Unspecified,None or Unspecified,Double,,,,,
8269,1627620,8000,1185204,132,6.0,1971,,,12/17/1991 0:00,690,690,,,,Small,"Hydraulic Excavator, Track - 16.0 to 19.0 Metric Tons",Kentucky,TEX,Track Excavators,,EROPS,,,,,,,,,,,Standard,,,,,,None or Unspecified,,,,Steel,None or Unspecified,None or Unspecified,None or Unspecified,None or Unspecified,Double,,,,,
8269,1638415,30000,1269449,132,28.0,1000,,,9/8/2000 0:00,690,690,,,,Small,"Hydraulic Excavator, Track - 16.0 to 19.0 Metric Tons",Mississippi,TEX,Track Excavators,,EROPS,,,,,,,,,,,Standard,,,,,,None or Unspecified,,,,Steel,None or Unspecified,None or Unspecified,None or Unspecified,None or Unspecified,Double,,,,,
8269,1644457,19000,1216076,132,18.0,1979,,,2/9/1991 0:00,690,690,,,,Small,"Hydraulic Excavator, Track - 16.0 to 19.0 Metric Tons",New Jersey,TEX,Track Excavators,,EROPS,,,,,,,,,,,Standard,,,,,,None or Unspecified,,,,Steel,None or Unspecified,None or Unspecified,None or Unspecified,None or Unspecified,Double,,,,,
8269,1644659,50000,1221677,132,1.0,1987,,,3/14/1991 0:00,690,690,,,,Small,"Hydraulic Excavator, Track - 16.0 to 19.0 Metric Tons",Florida,TEX,Track Excavators,,EROPS,,,,,,,,,,,Standard,,,,,,None or Unspecified,,,,Steel,None or Unspecified,None or Unspecified,None or Unspecified,None or Unspecified,Double,,,,,
8269,1644677,37000,1156212,132,1.0,1984,,,2/14/1989 0:00,690,690,,,,Small,"Hydraulic Excavator, Track - 16.0 to 19.0 Metric Tons",South Carolina,TEX,Track Excavators,,EROPS,,,,,,,,,,,Standard,,,,,,None or Unspecified,,,,Steel,None or Unspecified,None or Unspecified,None or Unspecified,None or Unspecified,Double,,,,,
8269,1645273,47500,1097720,132,1.0,1987,,,12/13/1993 0:00,690,690,,,,Small,"Hydraulic Excavator, Track - 16.0 to 19.0 Metric Tons",Kentucky,TEX,Track Excavators,,EROPS,,,,,,,,,,,Standard,,,,,,None or Unspecified,,,,Steel,None or Unspecified,None or Unspecified,None or Unspecified,None or Unspecified,Triple,,,,,
8269,1645686,18500,1344553,132,22.0,1000,,,12/2/2006 0:00,690,690,,,,Small,"Hydraulic Excavator, Track - 16.0 to 19.0 Metric Tons",Minnesota,TEX,Track Excavators,,EROPS,,,,,,,,,,,Standard,,,,,,None or Unspecified,,,,Steel,None or Unspecified,None or Unspecified,None or Unspecified,None or Unspecified,Double,,,,,
