ModelID,SalesID,SalePrice,MachineID,datasource,auctioneerID,YearMade,MachineHoursCurrentMeter,UsageBand,saledate,fiModelDesc,fiBaseModel,fiSecondaryDesc,fiModelSeries,fiModelDescriptor,ProductSize,fiProductClassDesc,state,ProductGroup,ProductGroupDesc,Drive_System,Enclosure,Forks,Pad_Type,Ride_Control,Stick,Transmission,Turbocharged,Blade_Extension,Blade_Width,Enclosure_Type,Engine_Horsepower,Hydraulics,Pushblock,Ripper,Scarifier,Tip_Control,Tire_Size,Coupler,Coupler_System,Grouser_Tracks,Hydraulics_Flow,Track_Type,Undercarriage_Pad_Width,Stick_Length,Thumb,Pattern_Changer,Grouser_Type,Backhoe_Mounting,Blade_Type,Travel_Controls,Differential_Type,Steering_Controls
8573,1194036,13000,1044701,121,3.0,1000,4973.0,Low,10/29/2009 0:00,FR20,FR20,,,,Medium,Wheel Loader - 225.0 to 250.0 Horsepower,Illinois,WL,Wheel Loader,,EROPS,None or Unspecified,,None or Unspecified,,,,,,,,2 Valve,,,,,23.5,None or Unspecified,,,,,,,,,,,,,Standard,Conventional
8573,1654484,23500,1288840,132,4.0,1980,,,2/1/1993 0:00,FR20,FR20,,,,Medium,Wheel Loader - 225.0 to 250.0 Horsepower,Florida,WL,Wheel Loader,,OROPS,None or Unspecified,,None or Unspecified,,,,,,,,2 Valve,,,,,None or Unspecified,None or Unspecified,,,,,,,,,,,,,Standard,Conventional
8573,1655757,16250,1406534,132,4.0,1985,,,2/1/1989 0:00,FR20,FR20,,,,Medium,Wheel Loader - 225.0 to 250.0 Horsepower,Florida,WL,Wheel Loader,,EROPS,None or Unspecified,,None or Unspecified,,,,,,,,2 Valve,,,,,None or Unspecified,None or Unspecified,,,,,,,,,,,,,Standard,Conventional
8573,1655901,28000,1538728,132,1.0,1982,,,11/8/1990 0:00,FR20,FR20,,,,Medium,Wheel Loader - 225.0 to 250.0 Horsepower,Colorado,WL,Wheel Loader,,EROPS,None or Unspecified,,None or Unspecified,,,,,,,,2 Valve,,,,,26.5,None or Unspecified,,,,,,,,,,,,,Standard,Conventional
8573,1655903,15500,1366430,132,18.0,1981,,,3/23/1991 0:00,FR20,FR20,,,,Medium,Wheel Loader - 225.0 to 250.0 Horsepower,New Jersey,WL,Wheel Loader,,EROPS,None or Unspecified,,None or Unspecified,,,,,,,,2 Valve,,,,,None or Unspecified,None or Unspecified,,,,,,,,,,,,,Standard,Conventional
8573,1656160,14000,1303495,132,24.0,1982,,,3/24/1992 0:00,FR20,FR20,,,,Medium,Wheel Loader - 225.0 to 250.0 Horsepower,Georgia,WL,Wheel Loader,,EROPS,None or Unspecified,,None or Unspecified,,,,,,,,2 Valve,,,,,None or Unspecified,None or Unspecified,,,,,,,,,,,,,Standard,Conventional
8573,1656330,24000,1184791,132,1.0,1983,,,2/26/1991 0:00,FR20,FR20,,,,Medium,Wheel Loader - 225.0 to 250.0 Horsepower,Nevada,WL,Wheel Loader,,EROPS,None or Unspecified,,None or Unspecified,,,,,,,,2 Valve,,,,,26.5,None or Unspecified,,,,,,,,,,,,,Standard,Conventional
8573,1656332,40000,1126823,132,4.0,1981,,,2/6/1990 0:00,FR20,FR20,,,,Medium,Wheel Loader - 225.0 to 250.0 Horsepower,Florida,WL,Wheel Loader,,OROPS,None or Unspecified,,None or Unspecified,,,,,,,,2 Valve,,,,,23.5,None or Unspecified,,,,,,,,,,,,,Standard,Conventional
8573,1656334,15000,1318690,132,1.0,1984,,,6/4/1992 0:00,FR20,FR20,,,,Medium,Wheel Loader - 225.0 to 250.0 Horsepower,Georgia,WL,Wheel Loader,,EROPS,None or Unspecified,,None or Unspecified,,,,,,,,2 Valve,,,,,None or Unspecified,None or Unspecified,,,,,,,,,,,,,Standard,Conventional
8573,1656337,21000,1485080,132,10.0,1984,,,8/26/1993 0:00,FR20,FR20,,,,Medium,Wheel Loader - 225.0 to 250.0 Horsepower,Louisiana,WL,Wheel Loader,,EROPS,None or Unspecified,,None or Unspecified,,,,,,,,2 Valve,,,,,None or Unspecified,None or Unspecified,,,,,,,,,,,,,Standard,Conventional
8573,1656341,24000,1484873,132,1.0,1984,,,2/26/1991 0:00,FR20,FR20,,,,Medium,Wheel Loader - 225.0 to 250.0 Horsepower,Nevada,WL,Wheel Loader,,OROPS,None or Unspecified,,None or Unspecified,,,,,,,,2 Valve,,,,,23.5,None or Unspecified,,,,,,,,,,,,,Standard,Conventional
8573,1656342,24000,1455458,132,18.0,1984,,,5/5/1993 0:00,FR20,FR20,,,,Medium,Wheel Loader - 225.0 to 250.0 Horsepower,Pennsylvania,WL,Wheel Loader,,EROPS,None or Unspecified,,None or Unspecified,,,,,,,,2 Valve,,,,,26.5,None or Unspecified,,,,,,,,,,,,,Standard,Conventional
8573,1656345,31000,1119649,132,1.0,1985,,,6/24/1993 0:00,FR20,FR20,,,,Medium,Wheel Loader - 225.0 to 250.0 Horsepower,Colorado,WL,Wheel Loader,,EROPS,None or Unspecified,,None or Unspecified,,,,,,,,2 Valve,,,,,None or Unspecified,None or Unspecified,,,,,,,,,,,,,Standard,Conventional
8573,1656347,30000,1498354,132,23.0,1985,,,5/9/1992 0:00,FR20,FR20,,,,Medium,Wheel Loader - 225.0 to 250.0 Horsepower,Pennsylvania,WL,Wheel Loader,,EROPS,None or Unspecified,,None or Unspecified,,,,,,,,2 Valve,,,,,None or Unspecified,None or Unspecified,,,,,,,,,,,,,Standard,Conventional
8573,1656349,29000,1100084,132,1.0,1985,,,5/23/1991 0:00,FR20,FR20,,,,Medium,Wheel Loader - 225.0 to 250.0 Horsepower,California,WL,Wheel Loader,,EROPS,None or Unspecified,,None or Unspecified,,,,,,,,2 Valve,,,,,26.5,None or Unspecified,,,,,,,,,,,,,Standard,Conventional
8573,1656350,21000,1487809,132,10.0,1986,,,5/21/1993 0:00,FR20,FR20,,,,Medium,Wheel Loader - 225.0 to 250.0 Horsepower,Mississippi,WL,Wheel Loader,,EROPS,Yes,,None or Unspecified,,,,,,,,2 Valve,,,,,None or Unspecified,None or Unspecified,,,,,,,,,,,,,Standard,Conventional
8573,1656383,52000,1255805,132,1.0,1987,,,4/23/1991 0:00,FR20,FR20,,,,Medium,Wheel Loader - 225.0 to 250.0 Horsepower,Kansas,WL,Wheel Loader,,EROPS,None or Unspecified,,None or Unspecified,,,,,,,,2 Valve,,,,,26.5,None or Unspecified,,,,,,,,,,,,,Standard,Conventional
8573,1656384,25000,1448127,132,1.0,1987,,,5/31/1991 0:00,FR20,FR20,,,,Medium,Wheel Loader - 225.0 to 250.0 Horsepower,Florida,WL,Wheel Loader,,EROPS,None or Unspecified,,None or Unspecified,,,,,,,,2 Valve,,,,,26.5,None or Unspecified,,,,,,,,,,,,,Standard,Conventional
8573,1656395,54000,1432732,132,6.0,1988,,,4/26/1991 0:00,FR20,FR20,,,,Medium,Wheel Loader - 225.0 to 250.0 Horsepower,Tennessee,WL,Wheel Loader,,EROPS,None or Unspecified,,None or Unspecified,,,,,,,,2 Valve,,,,,26.5,None or Unspecified,,,,,,,,,,,,,Standard,Conventional
8573,1656429,40000,1205994,132,25.0,1989,,,10/23/1993 0:00,FR20,FR20,,,,Medium,Wheel Loader - 225.0 to 250.0 Horsepower,California,WL,Wheel Loader,,EROPS w AC,None or Unspecified,,None or Unspecified,,,,,,,,2 Valve,,,,,26.5,None or Unspecified,,,,,,,,,,,,,Standard,Conventional
8573,1656450,29000,1302382,132,4.0,1983,,,2/1/1993 0:00,FR20,FR20,,,,Medium,Wheel Loader - 225.0 to 250.0 Horsepower,Florida,WL,Wheel Loader,,EROPS,None or Unspecified,,None or Unspecified,,,,,,,,2 Valve,,,,,None or Unspecified,None or Unspecified,,,,,,,,,,,,,Standard,Conventional
8573,1656547,29000,1464564,132,1.0,1983,,,6/24/1993 0:00,FR20,FR20,,,,Medium,Wheel Loader - 225.0 to 250.0 Horsepower,Colorado,WL,Wheel Loader,,EROPS,None or Unspecified,,None or Unspecified,,,,,,,,2 Valve,,,,,None or Unspecified,None or Unspecified,,,,,,,,,,,,,Standard,Conventional
8573,1656553,23500,1146051,132,1.0,1984,,,10/25/1991 0:00,FR20,FR20,,,,Medium,Wheel Loader - 225.0 to 250.0 Horsepower,New Jersey,WL,Wheel Loader,,OROPS,None or Unspecified,,None or Unspecified,,,,,,,,2 Valve,,,,,26.5,None or Unspecified,,,,,,,,,,,,,Standard,Conventional
8573,1656951,22000,1398044,132,2.0,1982,,,5/2/1992 0:00,FR20,FR20,,,,Medium,Wheel Loader - 225.0 to 250.0 Horsepower,New York,WL,Wheel Loader,,EROPS,None or Unspecified,,None or Unspecified,,,,,,,,2 Valve,,,,,None or Unspecified,None or Unspecified,,,,,,,,,,,,,Standard,Conventional
8573,1657957,29000,1250693,132,1.0,1980,,,8/24/1993 0:00,FR20,FR20,,,,Medium,Wheel Loader - 225.0 to 250.0 Horsepower,Minnesota,WL,Wheel Loader,,EROPS,None or Unspecified,,None or Unspecified,,,,,,,,2 Valve,,,,,None or Unspecified,None or Unspecified,,,,,,,,,,,,,Standard,Conventional
8573,1657958,21500,1122839,132,1.0,1980,,,3/24/1992 0:00,FR20,FR20,,,,Medium,Wheel Loader - 225.0 to 250.0 Horsepower,Colorado,WL,Wheel Loader,,EROPS,None or Unspecified,,None or Unspecified,,,,,,,,2 Valve,,,,,23.5,None or Unspecified,,,,,,,,,,,,,Standard,Conventional
8573,1657959,20000,1122839,132,1.0,1980,,,5/7/1991 0:00,FR20,FR20,,,,Medium,Wheel Loader - 225.0 to 250.0 Horsepower,Utah,WL,Wheel Loader,,EROPS,None or Unspecified,,None or Unspecified,,,,,,,,2 Valve,,,,,23.5,None or Unspecified,,,,,,,,,,,,,Standard,Conventional
8573,1657960,26000,1378573,132,4.0,1980,,,2/6/1990 0:00,FR20,FR20,,,,Medium,Wheel Loader - 225.0 to 250.0 Horsepower,Florida,WL,Wheel Loader,,EROPS,None or Unspecified,,None or Unspecified,,,,,,,,2 Valve,,,,,None or Unspecified,None or Unspecified,,,,,,,,,,,,,Standard,Conventional
8573,1657961,33000,1383708,132,1.0,1981,,,3/27/1990 0:00,FR20,FR20,,,,Medium,Wheel Loader - 225.0 to 250.0 Horsepower,Colorado,WL,Wheel Loader,,EROPS,None or Unspecified,,None or Unspecified,,,,,,,,2 Valve,,,,,26.5,None or Unspecified,,,,,,,,,,,,,Standard,Conventional
8573,1657964,22500,1485885,132,6.0,1980,,,12/10/1990 0:00,FR20,FR20,,,,Medium,Wheel Loader - 225.0 to 250.0 Horsepower,Kentucky,WL,Wheel Loader,,EROPS,None or Unspecified,,None or Unspecified,,,,,,,,2 Valve,,,,,None or Unspecified,None or Unspecified,,,,,,,,,,,,,Standard,Conventional
8573,1657965,15000,1453046,132,6.0,1980,2000.0,Low,12/10/1990 0:00,FR20,FR20,,,,Medium,Wheel Loader - 225.0 to 250.0 Horsepower,Kentucky,WL,Wheel Loader,,EROPS,None or Unspecified,,None or Unspecified,,,,,,,,2 Valve,,,,,None or Unspecified,None or Unspecified,,,,,,,,,,,,,Standard,Conventional
8573,1657992,27000,1352101,132,6.0,1982,,,4/12/1990 0:00,FR20,FR20,,,,Medium,Wheel Loader - 225.0 to 250.0 Horsepower,Louisiana,WL,Wheel Loader,,EROPS,None or Unspecified,,None or Unspecified,,,,,,,,2 Valve,,,,,None or Unspecified,None or Unspecified,,,,,,,,,,,,,Standard,Conventional
8573,1657994,16000,1500294,132,1.0,1982,,,5/31/1991 0:00,FR20,FR20,,,,Medium,Wheel Loader - 225.0 to 250.0 Horsepower,Florida,WL,Wheel Loader,,EROPS,None or Unspecified,,None or Unspecified,,,,,,,,2 Valve,,,,,26.5,None or Unspecified,,,,,,,,,,,,,Standard,Conventional
8573,1657996,22500,1503419,132,18.0,1984,,,4/25/1990 0:00,FR20,FR20,,,,Medium,Wheel Loader - 225.0 to 250.0 Horsepower,Pennsylvania,WL,Wheel Loader,,EROPS,None or Unspecified,,None or Unspecified,,,,,,,,2 Valve,,,,,26.5,None or Unspecified,,,,,,,,,,,,,Standard,Conventional
8573,1657997,19000,1323692,132,1.0,1983,,,5/31/1991 0:00,FR20,FR20,,,,Medium,Wheel Loader - 225.0 to 250.0 Horsepower,Florida,WL,Wheel Loader,,EROPS,None or Unspecified,,None or Unspecified,,,,,,,,2 Valve,,,,,26.5,None or Unspecified,,,,,,,,,,,,,Standard,Conventional
8573,2365260,9000,1563731,136,1.0,1000,0.0,,6/24/2009 0:00,FR20,FR20,,,,Medium,Wheel Loader - 225.0 to 250.0 Horsepower,Maryland,WL,Wheel Loader,,EROPS,None or Unspecified,,None or Unspecified,,,,,,,,2 Valve,,,,,23.5,None or Unspecified,,,,,,,,,,,,,Standard,Conventional
8573,2365622,10000,1774177,136,1.0,1000,0.0,,6/10/2009 0:00,FR20,FR20,,,,Medium,Wheel Loader - 225.0 to 250.0 Horsepower,Texas,WL,Wheel Loader,,EROPS,Yes,,None or Unspecified,,,,,,,,2 Valve,,,,,23.5,None or Unspecified,,,,,,,,,,,,,Standard,Conventional
8573,2365623,13500,1774177,136,1.0,1981,0.0,,6/5/2008 0:00,FR20,FR20,,,,Medium,Wheel Loader - 225.0 to 250.0 Horsepower,Texas,WL,Wheel Loader,,EROPS,Yes,,None or Unspecified,,,,,,,,2 Valve,,,,,23.5,None or Unspecified,,,,,,,,,,,,,Standard,Conventional
8573,2365624,9000,1666528,136,,1981,0.0,,3/29/2007 0:00,FR20,FR20,,,,Medium,Wheel Loader - 225.0 to 250.0 Horsepower,Texas,WL,Wheel Loader,,OROPS,None or Unspecified,,None or Unspecified,,,,,,,,2 Valve,,,,,None or Unspecified,None or Unspecified,,,,,,,,,,,,,Standard,Conventional
8573,2365641,16500,1690597,136,1.0,1982,0.0,,10/24/2007 0:00,FR20,FR20,,,,Medium,Wheel Loader - 225.0 to 250.0 Horsepower,North Dakota,WL,Wheel Loader,,EROPS,None or Unspecified,,None or Unspecified,,,,,,,,2 Valve,,,,,26.5,None or Unspecified,,,,,,,,,,,,,Standard,Conventional
8573,2365874,10000,1721114,136,,1986,0.0,,8/1/2007 0:00,FR20,FR20,,,,Medium,Wheel Loader - 225.0 to 250.0 Horsepower,Alaska,WL,Wheel Loader,,EROPS,None or Unspecified,,None or Unspecified,,,,,,,,2 Valve,,,,,26.5,None or Unspecified,,,,,,,,,,,,,Standard,Conventional
8573,2365875,10500,1706688,136,1.0,1985,0.0,,3/11/2008 0:00,FR20,FR20,,,,Medium,Wheel Loader - 225.0 to 250.0 Horsepower,Colorado,WL,Wheel Loader,,EROPS,None or Unspecified,,None or Unspecified,,,,,,,,2 Valve,,,,,26.5,None or Unspecified,,,,,,,,,,,,,Standard,Conventional
