ModelID,SalesID,SalePrice,MachineID,datasource,auctioneerID,YearMade,MachineHoursCurrentMeter,UsageBand,saledate,fiModelDesc,fiBaseModel,fiSecondaryDesc,fiModelSeries,fiModelDescriptor,ProductSize,fiProductClassDesc,state,ProductGroup,ProductGroupDesc,Drive_System,Enclosure,Forks,Pad_Type,Ride_Control,Stick,Transmission,Turbocharged,Blade_Extension,Blade_Width,Enclosure_Type,Engine_Horsepower,Hydraulics,Pushblock,Ripper,Scarifier,Tip_Control,Tire_Size,Coupler,Coupler_System,Grouser_Tracks,Hydraulics_Flow,Track_Type,Undercarriage_Pad_Width,Stick_Length,Thumb,Pattern_Changer,Grouser_Type,Backhoe_Mounting,Blade_Type,Travel_Controls,Differential_Type,Steering_Controls
8583,1664345,8500,1425476,132,2.0,1000,,,9/28/2007 0:00,455,455,,,,,Backhoe Loader - Unidentified,New Jersey,BL,Backhoe Loaders,Two Wheel Drive,EROPS,None or Unspecified,None or Unspecified,No,Standard,Standard,None or Unspecified,,,,,,,,,,,,,,,,,,,,,,,,,
8583,1665064,7500,1145770,132,22.0,1988,,,3/16/1996 0:00,455,455,,,,,Backhoe Loader - Unidentified,Minnesota,BL,Backhoe Loaders,Two Wheel Drive,OROPS,Yes,None or Unspecified,No,Standard,Standard,None or Unspecified,,,,,,,,,,,,,,,,,,,,,,,,,
8583,1665065,7500,1173119,132,4.0,1988,,,2/8/1996 0:00,455,455,,,,,Backhoe Loader - Unidentified,Florida,BL,Backhoe Loaders,Two Wheel Drive,OROPS,Yes,None or Unspecified,No,Standard,Standard,None or Unspecified,,,,,,,,,,,,,,,,,,,,,,,,,
8583,1665162,8400,1084027,132,4.0,1000,,,2/4/1999 0:00,455,455,,,,,Backhoe Loader - Unidentified,Florida,BL,Backhoe Loaders,Two Wheel Drive,OROPS,None or Unspecified,None or Unspecified,No,Standard,Standard,None or Unspecified,,,,,,,,,,,,,,,,,,,,,,,,,
8583,1665516,8000,1298695,132,1.0,1985,,,6/26/1991 0:00,455,455,,,,,Backhoe Loader - Unidentified,Nevada,BL,Backhoe Loaders,Two Wheel Drive,OROPS,None or Unspecified,None or Unspecified,No,Standard,Standard,None or Unspecified,,,,,,,,,,,,,,,,,,,,,,,,,
8583,1665594,10000,1384447,132,1.0,1984,,,9/24/1992 0:00,455,455,,,,,Backhoe Loader - Unidentified,Washington,BL,Backhoe Loaders,Two Wheel Drive,OROPS,None or Unspecified,None or Unspecified,No,Standard,Standard,None or Unspecified,,,,,,,,,,,,,,,,,,,,,,,,,
8583,1666015,8000,1395432,132,1.0,1987,,,11/30/1989 0:00,455,455,,,,,Backhoe Loader - Unidentified,Arizona,BL,Backhoe Loaders,Two Wheel Drive,OROPS,None or Unspecified,None or Unspecified,No,Standard,Standard,None or Unspecified,,,,,,,,,,,,,,,,,,,,,,,,,
8583,1666128,8500,1552151,132,1.0,1987,,,6/26/1991 0:00,455,455,,,,,Backhoe Loader - Unidentified,Nevada,BL,Backhoe Loaders,Two Wheel Drive,OROPS,None or Unspecified,None or Unspecified,No,Standard,Standard,None or Unspecified,,,,,,,,,,,,,,,,,,,,,,,,,
8583,1668114,10500,1313498,132,1.0,1000,,,6/11/1998 0:00,455,455,,,,,Backhoe Loader - Unidentified,Florida,BL,Backhoe Loaders,Two Wheel Drive,OROPS,None or Unspecified,None or Unspecified,No,Standard,Standard,None or Unspecified,,,,,,,,,,,,,,,,,,,,,,,,,
8583,1668139,17750,1129755,132,4.0,1990,,,2/5/1991 0:00,455,455,,,,,Backhoe Loader - Unidentified,Florida,BL,Backhoe Loaders,Two Wheel Drive,OROPS,None or Unspecified,None or Unspecified,No,Standard,Standard,None or Unspecified,,,,,,,,,,,,,,,,,,,,,,,,,
8583,1668161,10500,1190716,132,1.0,1989,,,12/10/1991 0:00,455,455,,,,,Backhoe Loader - Unidentified,Georgia,BL,Backhoe Loaders,Two Wheel Drive,OROPS,None or Unspecified,None or Unspecified,No,Standard,Standard,None or Unspecified,,,,,,,,,,,,,,,,,,,,,,,,,
8583,1668164,11500,1232771,132,1.0,1989,,,12/10/1991 0:00,455,455,,,,,Backhoe Loader - Unidentified,Georgia,BL,Backhoe Loaders,Two Wheel Drive,OROPS,None or Unspecified,None or Unspecified,No,Standard,Standard,None or Unspecified,,,,,,,,,,,,,,,,,,,,,,,,,
8583,1668166,11500,1332219,132,1.0,1989,,,12/10/1991 0:00,455,455,,,,,Backhoe Loader - Unidentified,Georgia,BL,Backhoe Loaders,Two Wheel Drive,OROPS,None or Unspecified,None or Unspecified,No,Standard,Standard,None or Unspecified,,,,,,,,,,,,,,,,,,,,,,,,,
8583,1668168,12000,1324433,132,1.0,1989,,,12/10/1991 0:00,455,455,,,,,Backhoe Loader - Unidentified,Georgia,BL,Backhoe Loaders,Two Wheel Drive,OROPS,None or Unspecified,None or Unspecified,No,Standard,Standard,None or Unspecified,,,,,,,,,,,,,,,,,,,,,,,,,
8583,1668173,11500,1463403,132,1.0,1989,,,12/10/1991 0:00,455,455,,,,,Backhoe Loader - Unidentified,Georgia,BL,Backhoe Loaders,Two Wheel Drive,OROPS,None or Unspecified,None or Unspecified,No,Standard,Standard,None or Unspecified,,,,,,,,,,,,,,,,,,,,,,,,,
8583,1668175,11500,1456823,132,1.0,1989,,,12/10/1991 0:00,455,455,,,,,Backhoe Loader - Unidentified,Georgia,BL,Backhoe Loaders,Two Wheel Drive,OROPS,None or Unspecified,None or Unspecified,No,Standard,Standard,None or Unspecified,,,,,,,,,,,,,,,,,,,,,,,,,
8583,1668191,12000,1349179,132,1.0,1989,,,12/10/1991 0:00,455,455,,,,,Backhoe Loader - Unidentified,Georgia,BL,Backhoe Loaders,Two Wheel Drive,OROPS,None or Unspecified,None or Unspecified,No,Standard,Standard,None or Unspecified,,,,,,,,,,,,,,,,,,,,,,,,,
8583,1668231,13000,1525642,132,1.0,1989,,,6/4/2002 0:00,455,455,,,,,Backhoe Loader - Unidentified,California,BL,Backhoe Loaders,Four Wheel Drive,OROPS,None or Unspecified,None or Unspecified,No,Standard,Standard,None or Unspecified,,,,,,,,,,,,,,,,,,,,,,,,,
8583,1668232,14500,1525642,132,1.0,1000,,,5/21/1996 0:00,455,455,,,,,Backhoe Loader - Unidentified,California,BL,Backhoe Loaders,Four Wheel Drive,OROPS,None or Unspecified,None or Unspecified,No,Standard,Standard,None or Unspecified,,,,,,,,,,,,,,,,,,,,,,,,,
8583,1668255,17250,1372434,132,4.0,1990,,,2/5/1991 0:00,455,455,,,,,Backhoe Loader - Unidentified,Florida,BL,Backhoe Loaders,Two Wheel Drive,OROPS,None or Unspecified,None or Unspecified,No,Standard,Standard,None or Unspecified,,,,,,,,,,,,,,,,,,,,,,,,,
8583,1668588,10500,1157942,132,1.0,1995,,,6/12/2003 0:00,455,455,,,,,Backhoe Loader - Unidentified,Texas,BL,Backhoe Loaders,Two Wheel Drive,OROPS,None or Unspecified,None or Unspecified,No,Standard,Standard,None or Unspecified,,,,,,,,,,,,,,,,,,,,,,,,,
8583,1670393,9000,1444875,132,1.0,1988,,,2/28/1995 0:00,455,455,,,,,Backhoe Loader - Unidentified,California,BL,Backhoe Loaders,Two Wheel Drive,OROPS,None or Unspecified,None or Unspecified,No,Standard,Standard,None or Unspecified,,,,,,,,,,,,,,,,,,,,,,,,,
8583,1670394,8500,1539491,132,1.0,1988,,,2/21/1996 0:00,455,455,,,,,Backhoe Loader - Unidentified,California,BL,Backhoe Loaders,Two Wheel Drive,OROPS,None or Unspecified,None or Unspecified,No,Standard,Standard,None or Unspecified,,,,,,,,,,,,,,,,,,,,,,,,,
8583,1670918,7500,1397729,132,1.0,1979,,,5/11/1989 0:00,455,455,,,,,Backhoe Loader - Unidentified,Arizona,BL,Backhoe Loaders,Two Wheel Drive,OROPS,None or Unspecified,None or Unspecified,No,Standard,Standard,None or Unspecified,,,,,,,,,,,,,,,,,,,,,,,,,
8583,1671025,8000,1091919,132,1.0,1000,,,9/13/2005 0:00,455,455,,,,,Backhoe Loader - Unidentified,California,BL,Backhoe Loaders,Two Wheel Drive,OROPS,None or Unspecified,None or Unspecified,No,Standard,Standard,None or Unspecified,,,,,,,,,,,,,,,,,,,,,,,,,
8583,1671122,9500,1460680,132,2.0,1982,,,3/12/1993 0:00,455,455,,,,,Backhoe Loader - Unidentified,New Jersey,BL,Backhoe Loaders,Two Wheel Drive,OROPS,None or Unspecified,None or Unspecified,No,Standard,Standard,None or Unspecified,,,,,,,,,,,,,,,,,,,,,,,,,
8583,1671482,10000,1397931,132,1.0,1983,,,5/11/1989 0:00,455,455,,,,,Backhoe Loader - Unidentified,Arizona,BL,Backhoe Loaders,Two Wheel Drive,OROPS,None or Unspecified,None or Unspecified,No,Standard,Standard,None or Unspecified,,,,,,,,,,,,,,,,,,,,,,,,,
8583,1671483,10000,1129625,132,1.0,1983,,,5/11/1989 0:00,455,455,,,,,Backhoe Loader - Unidentified,Arizona,BL,Backhoe Loaders,Two Wheel Drive,OROPS,None or Unspecified,None or Unspecified,No,Standard,Standard,None or Unspecified,,,,,,,,,,,,,,,,,,,,,,,,,
8583,1671757,8500,1506025,132,1.0,1985,,,7/14/1993 0:00,455,455,,,,,Backhoe Loader - Unidentified,Texas,BL,Backhoe Loaders,Two Wheel Drive,OROPS,None or Unspecified,None or Unspecified,No,Standard,Standard,None or Unspecified,,,,,,,,,,,,,,,,,,,,,,,,,
8583,1672340,11500,1382233,132,2.0,1988,2000.0,Medium,11/13/1993 0:00,455,455,,,,,Backhoe Loader - Unidentified,New Hampshire,BL,Backhoe Loaders,Two Wheel Drive,EROPS,None or Unspecified,None or Unspecified,No,Standard,Standard,None or Unspecified,,,,,,,,,,,,,,,,,,,,,,,,,
8583,1674205,13500,1539833,132,1.0,1988,,,7/27/1995 0:00,455,455,,,,,Backhoe Loader - Unidentified,Georgia,BL,Backhoe Loaders,Two Wheel Drive,OROPS,None or Unspecified,None or Unspecified,No,Standard,Standard,None or Unspecified,,,,,,,,,,,,,,,,,,,,,,,,,
8583,1674206,15000,1520489,132,1.0,1988,,,9/30/1993 0:00,455,455,,,,,Backhoe Loader - Unidentified,Maryland,BL,Backhoe Loaders,Two Wheel Drive,OROPS,None or Unspecified,None or Unspecified,No,Extended,Standard,None or Unspecified,,,,,,,,,,,,,,,,,,,,,,,,,
8583,1674207,16000,1367747,132,1.0,1988,,,9/30/1993 0:00,455,455,,,,,Backhoe Loader - Unidentified,Maryland,BL,Backhoe Loaders,Two Wheel Drive,EROPS,None or Unspecified,None or Unspecified,No,Extended,Standard,None or Unspecified,,,,,,,,,,,,,,,,,,,,,,,,,
8583,1674208,9000,1289417,132,1.0,1000,,,4/6/2004 0:00,455,455,,,,,Backhoe Loader - Unidentified,Maryland,BL,Backhoe Loaders,Two Wheel Drive,OROPS,None or Unspecified,None or Unspecified,No,Standard,Standard,None or Unspecified,,,,,,,,,,,,,,,,,,,,,,,,,
8583,1674209,11000,1362346,132,4.0,1000,,,2/8/1996 0:00,455,455,,,,,Backhoe Loader - Unidentified,Florida,BL,Backhoe Loaders,Two Wheel Drive,OROPS,None or Unspecified,None or Unspecified,No,Standard,Standard,None or Unspecified,,,,,,,,,,,,,,,,,,,,,,,,,
8583,1674210,16000,1160981,132,1.0,1988,,,9/30/1993 0:00,455,455,,,,,Backhoe Loader - Unidentified,Maryland,BL,Backhoe Loaders,Two Wheel Drive,EROPS,None or Unspecified,None or Unspecified,No,Extended,Standard,None or Unspecified,,,,,,,,,,,,,,,,,,,,,,,,,
8583,1674212,14000,1166205,132,1.0,1988,,,9/30/1993 0:00,455,455,,,,,Backhoe Loader - Unidentified,Maryland,BL,Backhoe Loaders,Two Wheel Drive,OROPS,None or Unspecified,None or Unspecified,No,Standard,Standard,None or Unspecified,,,,,,,,,,,,,,,,,,,,,,,,,
8583,1674214,13500,1417582,132,1.0,1988,,,9/30/1993 0:00,455,455,,,,,Backhoe Loader - Unidentified,Maryland,BL,Backhoe Loaders,Two Wheel Drive,OROPS,None or Unspecified,None or Unspecified,No,Standard,Standard,None or Unspecified,,,,,,,,,,,,,,,,,,,,,,,,,
8583,1674215,10500,1533139,132,99.0,1988,,,10/17/2001 0:00,455,455,,,,,Backhoe Loader - Unidentified,Wyoming,BL,Backhoe Loaders,Two Wheel Drive,EROPS,None or Unspecified,None or Unspecified,No,Standard,Powershuttle,None or Unspecified,,,,,,,,,,,,,,,,,,,,,,,,,
8583,1674216,9800,1537019,132,18.0,1988,,,10/21/1995 0:00,455,455,,,,,Backhoe Loader - Unidentified,Pennsylvania,BL,Backhoe Loaders,Two Wheel Drive,OROPS,None or Unspecified,None or Unspecified,No,Standard,Powershuttle,None or Unspecified,,,,,,,,,,,,,,,,,,,,,,,,,
8583,1674217,10500,1434247,132,7.0,1000,,,6/1/2000 0:00,455,455,,,,,Backhoe Loader - Unidentified,Alabama,BL,Backhoe Loaders,Two Wheel Drive,OROPS,None or Unspecified,None or Unspecified,No,Standard,Standard,None or Unspecified,,,,,,,,,,,,,,,,,,,,,,,,,
8583,1674218,10500,1108937,132,9.0,1000,,,10/23/1997 0:00,455,455,,,,,Backhoe Loader - Unidentified,South Carolina,BL,Backhoe Loaders,Two Wheel Drive,OROPS,None or Unspecified,None or Unspecified,No,Standard,Standard,None or Unspecified,,,,,,,,,,,,,,,,,,,,,,,,,
8583,1674219,9800,1447931,132,18.0,1988,,,10/21/1995 0:00,455,455,,,,,Backhoe Loader - Unidentified,Pennsylvania,BL,Backhoe Loaders,Two Wheel Drive,OROPS,None or Unspecified,None or Unspecified,No,Standard,Powershuttle,None or Unspecified,,,,,,,,,,,,,,,,,,,,,,,,,
8583,1674220,9000,1341735,132,8.0,1988,,,3/26/2008 0:00,455,455,,,,,Backhoe Loader - Unidentified,Mississippi,BL,Backhoe Loaders,Two Wheel Drive,OROPS,None or Unspecified,None or Unspecified,No,Standard,Standard,None or Unspecified,,,,,,,,,,,,,,,,,,,,,,,,,
8583,1674222,10500,1168802,132,2.0,1000,,,5/16/2004 0:00,455,455,,,,,Backhoe Loader - Unidentified,New York,BL,Backhoe Loaders,Two Wheel Drive,EROPS,None or Unspecified,None or Unspecified,No,Standard,Standard,None or Unspecified,,,,,,,,,,,,,,,,,,,,,,,,,
8583,1674223,9800,1403174,132,18.0,1988,,,10/21/1995 0:00,455,455,,,,,Backhoe Loader - Unidentified,Pennsylvania,BL,Backhoe Loaders,Two Wheel Drive,OROPS,None or Unspecified,None or Unspecified,No,Standard,Powershuttle,None or Unspecified,,,,,,,,,,,,,,,,,,,,,,,,,
8583,1674224,14000,1298059,132,1.0,1988,,,9/30/1993 0:00,455,455,,,,,Backhoe Loader - Unidentified,Maryland,BL,Backhoe Loaders,Two Wheel Drive,OROPS,None or Unspecified,None or Unspecified,No,Standard,Standard,None or Unspecified,,,,,,,,,,,,,,,,,,,,,,,,,
8583,1674225,16500,1229989,132,5.0,1988,,,6/26/1999 0:00,455,455,,,,,Backhoe Loader - Unidentified,Connecticut,BL,Backhoe Loaders,Four Wheel Drive,OROPS,None or Unspecified,None or Unspecified,No,Extended,Standard,None or Unspecified,,,,,,,,,,,,,,,,,,,,,,,,,
8583,1674227,9600,1003325,132,8.0,1000,,,3/21/2007 0:00,455,455,,,,,Backhoe Loader - Unidentified,Mississippi,BL,Backhoe Loaders,Two Wheel Drive,EROPS,None or Unspecified,None or Unspecified,No,Standard,Standard,None or Unspecified,,,,,,,,,,,,,,,,,,,,,,,,,
8583,1674229,14000,1334264,132,1.0,1988,,,9/30/1993 0:00,455,455,,,,,Backhoe Loader - Unidentified,Maryland,BL,Backhoe Loaders,Two Wheel Drive,OROPS,None or Unspecified,None or Unspecified,No,Standard,Standard,None or Unspecified,,,,,,,,,,,,,,,,,,,,,,,,,
8583,1674230,14000,1112082,132,1.0,1988,,,9/30/1993 0:00,455,455,,,,,Backhoe Loader - Unidentified,Maryland,BL,Backhoe Loaders,Two Wheel Drive,OROPS,None or Unspecified,None or Unspecified,No,Standard,Standard,None or Unspecified,,,,,,,,,,,,,,,,,,,,,,,,,
8583,1674233,10500,1235520,132,13.0,1000,1300.0,Low,12/17/1998 0:00,455,455,,,,,Backhoe Loader - Unidentified,Kentucky,BL,Backhoe Loaders,Four Wheel Drive,OROPS,None or Unspecified,None or Unspecified,No,Extended,Standard,None or Unspecified,,,,,,,,,,,,,,,,,,,,,,,,,
8583,1674234,15000,1353690,132,12.0,1000,,,9/27/1995 0:00,455,455,,,,,Backhoe Loader - Unidentified,South Carolina,BL,Backhoe Loaders,Two Wheel Drive,OROPS,None or Unspecified,None or Unspecified,No,Standard,Standard,None or Unspecified,,,,,,,,,,,,,,,,,,,,,,,,,
8583,1674235,13500,1422119,132,2.0,1000,,,3/30/2000 0:00,455,455,,,,,Backhoe Loader - Unidentified,New Jersey,BL,Backhoe Loaders,Two Wheel Drive,OROPS,None or Unspecified,None or Unspecified,No,Standard,Standard,None or Unspecified,,,,,,,,,,,,,,,,,,,,,,,,,
8583,1674236,10500,1336509,132,18.0,1000,,,3/14/1998 0:00,455,455,,,,,Backhoe Loader - Unidentified,Pennsylvania,BL,Backhoe Loaders,Two Wheel Drive,OROPS,None or Unspecified,None or Unspecified,No,Standard,Powershuttle,None or Unspecified,,,,,,,,,,,,,,,,,,,,,,,,,
8583,1674283,8250,1242176,132,5.0,1000,,,4/4/1998 0:00,455,455,,,,,Backhoe Loader - Unidentified,New York,BL,Backhoe Loaders,Two Wheel Drive,OROPS,None or Unspecified,None or Unspecified,No,Extended,Standard,None or Unspecified,,,,,,,,,,,,,,,,,,,,,,,,,
8583,1674286,11500,1410196,132,11.0,1988,,,8/25/1993 0:00,455,455,,,,,Backhoe Loader - Unidentified,Mississippi,BL,Backhoe Loaders,Two Wheel Drive,OROPS,None or Unspecified,None or Unspecified,No,Standard,Standard,None or Unspecified,,,,,,,,,,,,,,,,,,,,,,,,,
8583,2661755,8000,1373922,149,12.0,1988,0.0,,3/30/2011 0:00,455,455,,,,,Backhoe Loader - Unidentified,South Carolina,BL,Backhoe Loaders,Two Wheel Drive,OROPS,None or Unspecified,None or Unspecified,No,Standard,Standard,None or Unspecified,,,,,,,,,,,,,,,,,,,,,,,,,
8583,2661758,8500,1260327,149,1.0,1988,5608.0,Low,12/7/2010 0:00,455,455,,,,,Backhoe Loader - Unidentified,California,BL,Backhoe Loaders,Two Wheel Drive,OROPS,None or Unspecified,None or Unspecified,No,Extended,Standard,None or Unspecified,,,,,,,,,,,,,,,,,,,,,,,,,
