ModelID,SalesID,SalePrice,MachineID,datasource,auctioneerID,YearMade,MachineHoursCurrentMeter,UsageBand,saledate,fiModelDesc,fiBaseModel,fiSecondaryDesc,fiModelSeries,fiModelDescriptor,ProductSize,fiProductClassDesc,state,ProductGroup,ProductGroupDesc,Drive_System,Enclosure,Forks,Pad_Type,Ride_Control,Stick,Transmission,Turbocharged,Blade_Extension,Blade_Width,Enclosure_Type,Engine_Horsepower,Hydraulics,Pushblock,Ripper,Scarifier,Tip_Control,Tire_Size,Coupler,Coupler_System,Grouser_Tracks,Hydraulics_Flow,Track_Type,Undercarriage_Pad_Width,Stick_Length,Thumb,Pattern_Changer,Grouser_Type,Backhoe_Mounting,Blade_Type,Travel_Controls,Differential_Type,Steering_Controls
8648,1189787,8000,1051835,121,3.0,1000,8006.0,Low,5/15/2009 0:00,A550,A550,,,,,Motorgrader - 145.0 to 170.0 Horsepower,Missouri,MG,Motor Graders,No,EROPS,,,,,Powershift,,None or Unspecified,None or Unspecified,None or Unspecified,No,Base + 1 Function,None or Unspecified,None or Unspecified,None or Unspecified,None or Unspecified,"14""",,,,,,,,,,,,,,,
8648,1203544,8000,1015119,121,3.0,1000,5988.0,Low,6/24/2010 0:00,A550,A550,,,,,Motorgrader - 145.0 to 170.0 Horsepower,Illinois,MG,Motor Graders,No,EROPS w AC,,,,,Powershift,,None or Unspecified,12',None or Unspecified,No,Base + 1 Function,None or Unspecified,None or Unspecified,Yes,None or Unspecified,"14""",,,,,,,,,,,,,,,
8648,1209552,15000,1034391,121,3.0,1000,,,12/9/2010 0:00,A550,A550,,,,,Motorgrader - 145.0 to 170.0 Horsepower,Illinois,MG,Motor Graders,No,EROPS w AC,,,,,None or Unspecified,,None or Unspecified,12',None or Unspecified,No,Base + 1 Function,None or Unspecified,None or Unspecified,Yes,None or Unspecified,"14""",,,,,,,,,,,,,,,
8648,1675625,15500,1152155,132,13.0,1987,2640.0,Low,3/13/2010 0:00,A550,A550,,,,,Motorgrader - 145.0 to 170.0 Horsepower,Tennessee,MG,Motor Graders,No,EROPS,,,,,None or Unspecified,,None or Unspecified,None or Unspecified,None or Unspecified,No,Base + 1 Function,None or Unspecified,None or Unspecified,None or Unspecified,None or Unspecified,None or Unspecified,,,,,,,,,,,,,,,
8648,1675626,14750,1495395,132,12.0,1000,,,12/8/2005 0:00,A550,A550,,,,,Motorgrader - 145.0 to 170.0 Horsepower,South Carolina,MG,Motor Graders,No,EROPS,,,,,None or Unspecified,,None or Unspecified,None or Unspecified,None or Unspecified,No,Base + 1 Function,None or Unspecified,None or Unspecified,None or Unspecified,Tip,"14""",,,,,,,,,,,,,,,
8648,1675627,16000,1495395,132,27.0,1000,,,12/28/2005 0:00,A550,A550,,,,,Motorgrader - 145.0 to 170.0 Horsepower,North Carolina,MG,Motor Graders,No,EROPS,,,,,None or Unspecified,,None or Unspecified,None or Unspecified,None or Unspecified,No,Base + 1 Function,None or Unspecified,None or Unspecified,None or Unspecified,Tip,"14""",,,,,,,,,,,,,,,
8648,1675628,17000,1495395,132,12.0,1000,,,9/21/2005 0:00,A550,A550,,,,,Motorgrader - 145.0 to 170.0 Horsepower,South Carolina,MG,Motor Graders,No,EROPS,,,,,None or Unspecified,,None or Unspecified,None or Unspecified,None or Unspecified,No,Base + 1 Function,None or Unspecified,None or Unspecified,None or Unspecified,Tip,"14""",,,,,,,,,,,,,,,
8648,1675639,19000,1137058,132,4.0,1988,,,2/8/2010 0:00,A550,A550,,,,,Motorgrader - 145.0 to 170.0 Horsepower,Florida,MG,Motor Graders,No,EROPS,,,,,None or Unspecified,,None or Unspecified,None or Unspecified,None or Unspecified,No,Base + 1 Function,None or Unspecified,None or Unspecified,Yes,None or Unspecified,None or Unspecified,,,,,,,,,,,,,,,
8648,1675640,18000,1372159,132,8.0,1000,,,4/2/2009 0:00,A550,A550,,,,,Motorgrader - 145.0 to 170.0 Horsepower,Mississippi,MG,Motor Graders,No,EROPS,,,,,None or Unspecified,,None or Unspecified,None or Unspecified,None or Unspecified,No,Base + 1 Function,None or Unspecified,None or Unspecified,None or Unspecified,None or Unspecified,None or Unspecified,,,,,,,,,,,,,,,
8648,1675642,15000,1430747,132,1.0,1988,,,3/1/2006 0:00,A550,A550,,,,,Motorgrader - 145.0 to 170.0 Horsepower,Texas,MG,Motor Graders,No,EROPS w AC,,,,,None or Unspecified,,None or Unspecified,None or Unspecified,None or Unspecified,No,Base + 1 Function,None or Unspecified,None or Unspecified,Yes,None or Unspecified,"14""",,,,,,,,,,,,,,,
8648,1675643,25000,1430747,132,1.0,1988,,,5/9/2007 0:00,A550,A550,,,,,Motorgrader - 145.0 to 170.0 Horsepower,Texas,MG,Motor Graders,No,EROPS w AC,,,,,None or Unspecified,,None or Unspecified,None or Unspecified,None or Unspecified,No,Base + 1 Function,None or Unspecified,None or Unspecified,Yes,None or Unspecified,"14""",,,,,,,,,,,,,,,
8648,1675726,17000,1410739,132,8.0,1000,,,3/22/2006 0:00,A550,A550,,,,,Motorgrader - 145.0 to 170.0 Horsepower,Mississippi,MG,Motor Graders,No,EROPS,,,,,None or Unspecified,,None or Unspecified,None or Unspecified,None or Unspecified,No,Base + 1 Function,None or Unspecified,None or Unspecified,None or Unspecified,None or Unspecified,None or Unspecified,,,,,,,,,,,,,,,
8648,1675727,16500,1158371,132,1.0,1982,,,2/27/1992 0:00,A550,A550,,,,,Motorgrader - 145.0 to 170.0 Horsepower,Georgia,MG,Motor Graders,No,EROPS,,,,,None or Unspecified,,None or Unspecified,12',None or Unspecified,No,Base + 1 Function,None or Unspecified,None or Unspecified,None or Unspecified,Sideshift & Tip,"14""",,,,,,,,,,,,,,,
8648,1675728,18000,1481460,132,1.0,1982,,,2/27/1992 0:00,A550,A550,,,,,Motorgrader - 145.0 to 170.0 Horsepower,Georgia,MG,Motor Graders,No,EROPS,,,,,None or Unspecified,,None or Unspecified,12',None or Unspecified,No,Base + 1 Function,None or Unspecified,None or Unspecified,None or Unspecified,Sideshift & Tip,"14""",,,,,,,,,,,,,,,
8648,1675732,14500,1222083,132,1.0,1983,,,3/26/1992 0:00,A550,A550,,,,,Motorgrader - 145.0 to 170.0 Horsepower,Florida,MG,Motor Graders,No,EROPS,,,,,None or Unspecified,,None or Unspecified,12',None or Unspecified,No,Base + 1 Function,None or Unspecified,None or Unspecified,Yes,Tip,"14""",,,,,,,,,,,,,,,
8648,1675734,31000,1498037,132,6.0,1000,,,4/15/1997 0:00,A550,A550,,,,,Motorgrader - 145.0 to 170.0 Horsepower,Kentucky,MG,Motor Graders,No,EROPS,,,,,None or Unspecified,,None or Unspecified,None or Unspecified,None or Unspecified,No,Base + 1 Function,None or Unspecified,None or Unspecified,Yes,Sideshift & Tip,None or Unspecified,,,,,,,,,,,,,,,
8648,1675743,15000,1431049,132,27.0,1000,,,4/16/2009 0:00,A550,A550,,,,,Motorgrader - 145.0 to 170.0 Horsepower,North Carolina,MG,Motor Graders,No,EROPS,,,,,Powershift,,None or Unspecified,12',None or Unspecified,No,Base + 1 Function,None or Unspecified,None or Unspecified,Yes,Sideshift & Tip,None or Unspecified,,,,,,,,,,,,,,,
8648,1675746,19000,1434180,132,8.0,1000,,,9/13/2006 0:00,A550,A550,,,,,Motorgrader - 145.0 to 170.0 Horsepower,Mississippi,MG,Motor Graders,No,OROPS,,,,,None or Unspecified,,None or Unspecified,None or Unspecified,None or Unspecified,No,Base + 1 Function,None or Unspecified,None or Unspecified,None or Unspecified,None or Unspecified,None or Unspecified,,,,,,,,,,,,,,,
8648,1675773,10000,159346,132,1.0,1000,,,4/3/2003 0:00,A550,A550,,,,,Motorgrader - 145.0 to 170.0 Horsepower,Georgia,MG,Motor Graders,No,EROPS,,,,,None or Unspecified,,None or Unspecified,14',None or Unspecified,No,Base + 1 Function,None or Unspecified,None or Unspecified,None or Unspecified,Sideshift & Tip,"14""",,,,,,,,,,,,,,,
8648,1675788,27000,1182028,132,1.0,1984,,,10/12/1989 0:00,A550,A550,,,,,Motorgrader - 145.0 to 170.0 Horsepower,Texas,MG,Motor Graders,No,EROPS,,,,,None or Unspecified,,None or Unspecified,14',None or Unspecified,No,Base + 1 Function,None or Unspecified,None or Unspecified,Yes,Sideshift & Tip,"14""",,,,,,,,,,,,,,,
8648,1675800,17500,1299590,132,8.0,1000,,,5/24/2006 0:00,A550,A550,,,,,Motorgrader - 145.0 to 170.0 Horsepower,Mississippi,MG,Motor Graders,No,OROPS,,,,,None or Unspecified,,None or Unspecified,None or Unspecified,None or Unspecified,No,Base + 1 Function,None or Unspecified,None or Unspecified,Yes,None or Unspecified,None or Unspecified,,,,,,,,,,,,,,,
8648,1675817,10000,1158180,132,99.0,1000,,,7/14/2011 0:00,A550,A550,,,,,Motorgrader - 145.0 to 170.0 Horsepower,Georgia,MG,Motor Graders,No,EROPS,,,,,None or Unspecified,,None or Unspecified,None or Unspecified,None or Unspecified,No,Base + 1 Function,None or Unspecified,None or Unspecified,None or Unspecified,Sideshift & Tip,"14""",,,,,,,,,,,,,,,
8648,1675819,18000,1335719,132,2.0,1000,,,10/3/1998 0:00,A550,A550,,,,,Motorgrader - 145.0 to 170.0 Horsepower,Pennsylvania,MG,Motor Graders,No,OROPS,,,,,None or Unspecified,,None or Unspecified,None or Unspecified,None or Unspecified,No,Base + 1 Function,None or Unspecified,None or Unspecified,None or Unspecified,None or Unspecified,None or Unspecified,,,,,,,,,,,,,,,
8648,1675820,26000,1484226,132,6.0,1986,,,12/8/1998 0:00,A550,A550,,,,,Motorgrader - 145.0 to 170.0 Horsepower,Virginia,MG,Motor Graders,No,EROPS,,,,,None or Unspecified,,None or Unspecified,12',None or Unspecified,No,Base + 1 Function,Yes,Yes,None or Unspecified,Sideshift & Tip,"14""",,,,,,,,,,,,,,,
8648,1675821,14500,1484226,132,1.0,1000,,,6/26/2002 0:00,A550,A550,,,,,Motorgrader - 145.0 to 170.0 Horsepower,Maryland,MG,Motor Graders,No,EROPS,,,,,None or Unspecified,,None or Unspecified,12',None or Unspecified,No,Base + 1 Function,Yes,Yes,None or Unspecified,Sideshift & Tip,"14""",,,,,,,,,,,,,,,
8648,1675841,16500,1548942,132,27.0,1993,,,12/28/2010 0:00,A550,A550,,,,,Motorgrader - 145.0 to 170.0 Horsepower,North Carolina,MG,Motor Graders,No,EROPS,,,,,None or Unspecified,,None or Unspecified,13',None or Unspecified,No,Base + 1 Function,Yes,Yes,None or Unspecified,None or Unspecified,"14""",,,,,,,,,,,,,,,
8648,1675845,16000,1404091,132,1.0,1987,,,6/16/2004 0:00,A550,A550,,,,,Motorgrader - 145.0 to 170.0 Horsepower,Texas,MG,Motor Graders,No,EROPS,,,,,None or Unspecified,,Yes,None or Unspecified,None or Unspecified,No,Base + 1 Function,None or Unspecified,None or Unspecified,None or Unspecified,None or Unspecified,"14""",,,,,,,,,,,,,,,
8648,1675858,12500,1131013,132,14.0,1000,,,3/25/2011 0:00,A550,A550,,,,,Motorgrader - 145.0 to 170.0 Horsepower,Indiana,MG,Motor Graders,No,EROPS,,,,,None or Unspecified,,None or Unspecified,None or Unspecified,None or Unspecified,No,Base + 1 Function,None or Unspecified,None or Unspecified,Yes,None or Unspecified,None or Unspecified,,,,,,,,,,,,,,,
8648,1676149,16000,1433274,132,99.0,1000,,,6/29/1994 0:00,A550,A550,,,,,Motorgrader - 145.0 to 170.0 Horsepower,Missouri,MG,Motor Graders,No,EROPS,,,,,None or Unspecified,,None or Unspecified,None or Unspecified,None or Unspecified,No,Base + 1 Function,None or Unspecified,None or Unspecified,None or Unspecified,Sideshift & Tip,None or Unspecified,,,,,,,,,,,,,,,
8648,1676150,13000,1179895,132,4.0,1980,,,2/5/1991 0:00,A550,A550,,,,,Motorgrader - 145.0 to 170.0 Horsepower,Florida,MG,Motor Graders,No,OROPS,,,,,None or Unspecified,,None or Unspecified,14',None or Unspecified,No,Base + 1 Function,None or Unspecified,None or Unspecified,None or Unspecified,None or Unspecified,None or Unspecified,,,,,,,,,,,,,,,
8648,1676153,14500,1152434,132,6.0,1982,,,9/17/1997 0:00,A550,A550,,,,,Motorgrader - 145.0 to 170.0 Horsepower,Illinois,MG,Motor Graders,No,EROPS,,,,,None or Unspecified,,None or Unspecified,None or Unspecified,None or Unspecified,No,Base + 1 Function,None or Unspecified,None or Unspecified,Yes,Sideshift & Tip,None or Unspecified,,,,,,,,,,,,,,,
8648,1676155,23000,1151277,132,1.0,1983,,,11/10/1992 0:00,A550,A550,,,,,Motorgrader - 145.0 to 170.0 Horsepower,Colorado,MG,Motor Graders,No,EROPS,,,,,None or Unspecified,,Yes,None or Unspecified,None or Unspecified,No,Base + 1 Function,None or Unspecified,None or Unspecified,None or Unspecified,Sideshift & Tip,None or Unspecified,,,,,,,,,,,,,,,
8648,1676156,15000,1306490,132,1.0,1000,,,9/23/1997 0:00,A550,A550,,,,,Motorgrader - 145.0 to 170.0 Horsepower,Texas,MG,Motor Graders,No,EROPS,,,,,None or Unspecified,,None or Unspecified,14',None or Unspecified,No,Base + 1 Function,None or Unspecified,None or Unspecified,Yes,None or Unspecified,None or Unspecified,,,,,,,,,,,,,,,
8648,1676157,15000,1436268,132,1.0,1000,,,3/16/2006 0:00,A550,A550,,,,,Motorgrader - 145.0 to 170.0 Horsepower,Colorado,MG,Motor Graders,No,EROPS,,,,,None or Unspecified,,None or Unspecified,14',None or Unspecified,No,Base + 1 Function,None or Unspecified,None or Unspecified,None or Unspecified,None or Unspecified,"14""",,,,,,,,,,,,,,,
8648,1676161,12000,1290315,132,99.0,1000,,,9/30/2010 0:00,A550,A550,,,,,Motorgrader - 145.0 to 170.0 Horsepower,Colorado,MG,Motor Graders,No,EROPS,,,,,None or Unspecified,,None or Unspecified,None or Unspecified,None or Unspecified,No,Base + 1 Function,None or Unspecified,Yes,None or Unspecified,None or Unspecified,"14""",,,,,,,,,,,,,,,
8648,1676173,13000,1187554,132,10.0,1000,,,6/15/2001 0:00,A550,A550,,,,,Motorgrader - 145.0 to 170.0 Horsepower,Louisiana,MG,Motor Graders,No,EROPS,,,,,None or Unspecified,,None or Unspecified,12',None or Unspecified,No,Base + 1 Function,None or Unspecified,None or Unspecified,Yes,Sideshift & Tip,"14""",,,,,,,,,,,,,,,
8648,1676176,15000,1556473,132,8.0,1000,,,3/24/2004 0:00,A550,A550,,,,,Motorgrader - 145.0 to 170.0 Horsepower,Mississippi,MG,Motor Graders,No,EROPS,,,,,None or Unspecified,,None or Unspecified,None or Unspecified,None or Unspecified,No,Base + 1 Function,None or Unspecified,None or Unspecified,None or Unspecified,Sideshift & Tip,None or Unspecified,,,,,,,,,,,,,,,
8648,1676177,23000,1306714,132,4.0,1000,,,2/5/1998 0:00,A550,A550,,,,,Motorgrader - 145.0 to 170.0 Horsepower,Florida,MG,Motor Graders,No,EROPS w AC,,,,,None or Unspecified,,None or Unspecified,14',None or Unspecified,No,Base + 1 Function,None or Unspecified,None or Unspecified,None or Unspecified,None or Unspecified,None or Unspecified,,,,,,,,,,,,,,,
8648,1676184,12500,1231331,132,1.0,1000,,,6/14/2000 0:00,A550,A550,,,,,Motorgrader - 145.0 to 170.0 Horsepower,Texas,MG,Motor Graders,No,EROPS,,,,,None or Unspecified,,None or Unspecified,14',None or Unspecified,No,Base + 1 Function,None or Unspecified,None or Unspecified,None or Unspecified,None or Unspecified,"14""",,,,,,,,,,,,,,,
8648,1676185,16000,1093018,132,1.0,1000,,,9/29/1995 0:00,A550,A550,,,,,Motorgrader - 145.0 to 170.0 Horsepower,Colorado,MG,Motor Graders,No,EROPS,,,,,None or Unspecified,,None or Unspecified,None or Unspecified,None or Unspecified,No,Base + 1 Function,None or Unspecified,None or Unspecified,None or Unspecified,Sideshift & Tip,None or Unspecified,,,,,,,,,,,,,,,
8648,1676187,8000,1249422,132,8.0,1000,,,3/24/2004 0:00,A550,A550,,,,,Motorgrader - 145.0 to 170.0 Horsepower,Mississippi,MG,Motor Graders,No,OROPS,,,,,None or Unspecified,,None or Unspecified,None or Unspecified,None or Unspecified,No,Base + 1 Function,None or Unspecified,None or Unspecified,None or Unspecified,None or Unspecified,None or Unspecified,,,,,,,,,,,,,,,
8648,1676188,18500,1465923,132,16.0,1000,,,8/5/2004 0:00,A550,A550,,,,,Motorgrader - 145.0 to 170.0 Horsepower,Ohio,MG,Motor Graders,No,EROPS,,,,,Powershift,,None or Unspecified,None or Unspecified,None or Unspecified,No,Base + 1 Function,None or Unspecified,Yes,Yes,Sideshift & Tip,"14""",,,,,,,,,,,,,,,
8648,1676189,9500,1446772,132,1.0,1000,,,9/12/2002 0:00,A550,A550,,,,,Motorgrader - 145.0 to 170.0 Horsepower,Texas,MG,Motor Graders,No,EROPS,,,,,None or Unspecified,,None or Unspecified,14',None or Unspecified,No,Base + 1 Function,Yes,None or Unspecified,None or Unspecified,None or Unspecified,"14""",,,,,,,,,,,,,,,
8648,1676332,8500,1420822,132,22.0,1000,,,12/13/2003 0:00,A550,A550,,,,,Motorgrader - 145.0 to 170.0 Horsepower,Minnesota,MG,Motor Graders,No,OROPS,,,,,None or Unspecified,,None or Unspecified,None or Unspecified,None or Unspecified,No,Base + 1 Function,None or Unspecified,None or Unspecified,None or Unspecified,None or Unspecified,None or Unspecified,,,,,,,,,,,,,,,
8648,1676949,11000,1267019,132,4.0,1000,,,2/8/2010 0:00,A550,A550,,,,,Motorgrader - 145.0 to 170.0 Horsepower,Florida,MG,Motor Graders,No,EROPS,,,,,None or Unspecified,,None or Unspecified,12',None or Unspecified,No,Base + 1 Function,None or Unspecified,None or Unspecified,Yes,Sideshift & Tip,None or Unspecified,,,,,,,,,,,,,,,
8648,1677223,18500,1458439,132,24.0,1983,,,3/21/1991 0:00,A550,A550,,,,,Motorgrader - 145.0 to 170.0 Horsepower,Georgia,MG,Motor Graders,No,EROPS,,,,,None or Unspecified,,None or Unspecified,None or Unspecified,None or Unspecified,No,Base + 1 Function,None or Unspecified,None or Unspecified,Yes,Sideshift & Tip,None or Unspecified,,,,,,,,,,,,,,,
8648,1677224,12000,1135734,132,5.0,1000,,,4/7/2011 0:00,A550,A550,,,,,Motorgrader - 145.0 to 170.0 Horsepower,Connecticut,MG,Motor Graders,No,EROPS,,,,,None or Unspecified,,None or Unspecified,None or Unspecified,None or Unspecified,No,Base + 1 Function,None or Unspecified,None or Unspecified,None or Unspecified,None or Unspecified,None or Unspecified,,,,,,,,,,,,,,,
8648,1677225,10000,1135734,132,4.0,1000,,,12/2/2004 0:00,A550,A550,,,,,Motorgrader - 145.0 to 170.0 Horsepower,New Hampshire,MG,Motor Graders,No,EROPS,,,,,None or Unspecified,,None or Unspecified,None or Unspecified,None or Unspecified,No,Base + 1 Function,None or Unspecified,None or Unspecified,None or Unspecified,None or Unspecified,None or Unspecified,,,,,,,,,,,,,,,
8648,1677229,21000,1537415,132,1.0,1980,,,6/22/1989 0:00,A550,A550,,,,,Motorgrader - 145.0 to 170.0 Horsepower,Oregon,MG,Motor Graders,No,EROPS,,,,,None or Unspecified,,None or Unspecified,14',None or Unspecified,No,Base + 1 Function,None or Unspecified,None or Unspecified,Yes,Sideshift & Tip,None or Unspecified,,,,,,,,,,,,,,,
8648,1677232,15000,1410982,132,1.0,1000,,,5/22/2007 0:00,A550,A550,,,,,Motorgrader - 145.0 to 170.0 Horsepower,California,MG,Motor Graders,No,OROPS,,,,,None or Unspecified,,None or Unspecified,None or Unspecified,None or Unspecified,No,Base + 1 Function,None or Unspecified,None or Unspecified,Yes,None or Unspecified,"14""",,,,,,,,,,,,,,,
8648,1677233,18000,1103477,132,1.0,1000,,,3/4/2009 0:00,A550,A550,,,,,Motorgrader - 145.0 to 170.0 Horsepower,Texas,MG,Motor Graders,No,EROPS,,,,,None or Unspecified,,None or Unspecified,None or Unspecified,None or Unspecified,No,Base + 1 Function,None or Unspecified,None or Unspecified,Yes,None or Unspecified,"14""",,,,,,,,,,,,,,,
8648,1677234,14000,1157564,132,19.0,1000,,,7/18/2007 0:00,A550,A550,,,,,Motorgrader - 145.0 to 170.0 Horsepower,New Mexico,MG,Motor Graders,No,EROPS,,,,,None or Unspecified,,None or Unspecified,None or Unspecified,None or Unspecified,No,Base + 1 Function,None or Unspecified,Yes,Yes,Tip,"14""",,,,,,,,,,,,,,,
8648,1677236,9500,1187188,132,7.0,1000,,,3/11/2009 0:00,A550,A550,,,,,Motorgrader - 145.0 to 170.0 Horsepower,Alabama,MG,Motor Graders,No,EROPS,,,,,None or Unspecified,,None or Unspecified,None or Unspecified,None or Unspecified,No,Base + 1 Function,None or Unspecified,Yes,None or Unspecified,Tip,None or Unspecified,,,,,,,,,,,,,,,
8648,1677238,22000,1285500,132,1.0,1000,,,3/5/2008 0:00,A550,A550,,,,,Motorgrader - 145.0 to 170.0 Horsepower,Texas,MG,Motor Graders,No,EROPS w AC,,,,,None or Unspecified,,None or Unspecified,None or Unspecified,None or Unspecified,No,Base + 1 Function,None or Unspecified,Yes,None or Unspecified,None or Unspecified,"14""",,,,,,,,,,,,,,,
8648,1677241,26000,1364163,132,1.0,1980,,,11/8/1990 0:00,A550,A550,,,,,Motorgrader - 145.0 to 170.0 Horsepower,Colorado,MG,Motor Graders,No,EROPS,,,,,None or Unspecified,,None or Unspecified,16',None or Unspecified,No,Base + 1 Function,None or Unspecified,None or Unspecified,Yes,Sideshift & Tip,"14""",,,,,,,,,,,,,,,
8648,1677243,13750,1195295,132,9.0,1992,,,8/20/2009 0:00,A550,A550,,,,,Motorgrader - 145.0 to 170.0 Horsepower,South Carolina,MG,Motor Graders,No,EROPS,,,,,None or Unspecified,,None or Unspecified,None or Unspecified,None or Unspecified,No,Base + 1 Function,None or Unspecified,Yes,Yes,Sideshift & Tip,None or Unspecified,,,,,,,,,,,,,,,
8648,1677266,16000,1090633,132,1.0,1987,,,6/10/2004 0:00,A550,A550,,,,,Motorgrader - 145.0 to 170.0 Horsepower,Illinois,MG,Motor Graders,No,EROPS,,,,,None or Unspecified,,None or Unspecified,13',None or Unspecified,No,Base + 1 Function,None or Unspecified,None or Unspecified,Yes,None or Unspecified,"14""",,,,,,,,,,,,,,,
8648,1677284,18000,1126964,132,16.0,1000,,,5/10/2006 0:00,A550,A550,,,,,Motorgrader - 145.0 to 170.0 Horsepower,Ohio,MG,Motor Graders,No,EROPS,,,,,None or Unspecified,,None or Unspecified,None or Unspecified,None or Unspecified,No,Base + 1 Function,None or Unspecified,None or Unspecified,None or Unspecified,Sideshift & Tip,"14""",,,,,,,,,,,,,,,
8648,1677285,10500,1494427,132,1.0,1000,,,10/3/1995 0:00,A550,A550,,,,,Motorgrader - 145.0 to 170.0 Horsepower,Texas,MG,Motor Graders,No,EROPS,,,,,None or Unspecified,,None or Unspecified,None or Unspecified,None or Unspecified,No,Base + 1 Function,None or Unspecified,None or Unspecified,None or Unspecified,None or Unspecified,None or Unspecified,,,,,,,,,,,,,,,
8648,1677461,19000,1475772,132,1.0,1000,,,9/10/1997 0:00,A550,A550,,,,,Motorgrader - 145.0 to 170.0 Horsepower,New York,MG,Motor Graders,No,EROPS,,,,,None or Unspecified,,None or Unspecified,None or Unspecified,None or Unspecified,No,Base + 1 Function,None or Unspecified,None or Unspecified,Yes,Sideshift & Tip,None or Unspecified,,,,,,,,,,,,,,,
8648,1677462,14000,1371651,132,1.0,1000,,,12/2/2003 0:00,A550,A550,,,,,Motorgrader - 145.0 to 170.0 Horsepower,Washington,MG,Motor Graders,No,EROPS,,,,,None or Unspecified,,None or Unspecified,13',None or Unspecified,No,Base + 1 Function,None or Unspecified,None or Unspecified,Yes,None or Unspecified,"14""",,,,,,,,,,,,,,,
8648,1677481,20000,1176180,132,1.0,1000,,,10/1/1997 0:00,A550,A550,,,,,Motorgrader - 145.0 to 170.0 Horsepower,Florida,MG,Motor Graders,No,EROPS,,,,,None or Unspecified,,None or Unspecified,None or Unspecified,None or Unspecified,No,Base + 1 Function,None or Unspecified,None or Unspecified,Yes,Sideshift & Tip,None or Unspecified,,,,,,,,,,,,,,,
8648,1677513,20000,1288705,132,1.0,1988,,,11/18/1997 0:00,A550,A550,,,,,Motorgrader - 145.0 to 170.0 Horsepower,California,MG,Motor Graders,No,EROPS,,,,,None or Unspecified,,None or Unspecified,None or Unspecified,None or Unspecified,No,Base + 1 Function,Yes,Yes,None or Unspecified,Sideshift & Tip,None or Unspecified,,,,,,,,,,,,,,,
8648,1677518,18000,1323760,132,5.0,1000,,,8/19/1995 0:00,A550,A550,,,,,Motorgrader - 145.0 to 170.0 Horsepower,Connecticut,MG,Motor Graders,No,OROPS,,,,,None or Unspecified,,None or Unspecified,None or Unspecified,None or Unspecified,No,Base + 1 Function,None or Unspecified,None or Unspecified,None or Unspecified,None or Unspecified,None or Unspecified,,,,,,,,,,,,,,,
8648,1677570,15000,1215169,132,2.0,1000,,,8/9/2003 0:00,A550,A550,,,,,Motorgrader - 145.0 to 170.0 Horsepower,Ohio,MG,Motor Graders,No,EROPS,,,,,None or Unspecified,,None or Unspecified,None or Unspecified,None or Unspecified,No,Base + 1 Function,None or Unspecified,None or Unspecified,None or Unspecified,Sideshift & Tip,None or Unspecified,,,,,,,,,,,,,,,
8648,1677664,23000,1467146,132,6.0,1988,,,6/26/1997 0:00,A550,A550,,,,,Motorgrader - 145.0 to 170.0 Horsepower,Ohio,MG,Motor Graders,No,EROPS,,,,,None or Unspecified,,None or Unspecified,12',None or Unspecified,No,Base + 1 Function,None or Unspecified,Yes,None or Unspecified,Sideshift & Tip,None or Unspecified,,,,,,,,,,,,,,,
8648,1677665,17000,1093924,132,25.0,1000,,,7/19/1996 0:00,A550,A550,,,,,Motorgrader - 145.0 to 170.0 Horsepower,California,MG,Motor Graders,No,EROPS,,,,,None or Unspecified,,None or Unspecified,None or Unspecified,None or Unspecified,No,Base + 1 Function,None or Unspecified,Yes,None or Unspecified,None or Unspecified,None or Unspecified,,,,,,,,,,,,,,,
8648,1677666,15000,1545340,132,1.0,1000,,,8/20/1996 0:00,A550,A550,,,,,Motorgrader - 145.0 to 170.0 Horsepower,Texas,MG,Motor Graders,No,OROPS,,,,,None or Unspecified,,None or Unspecified,13',None or Unspecified,No,Base + 1 Function,None or Unspecified,None or Unspecified,Yes,None or Unspecified,None or Unspecified,,,,,,,,,,,,,,,
8648,1677667,13500,1366663,132,16.0,1000,,,4/11/2002 0:00,A550,A550,,,,,Motorgrader - 145.0 to 170.0 Horsepower,Indiana,MG,Motor Graders,No,EROPS,,,,,None or Unspecified,,None or Unspecified,None or Unspecified,None or Unspecified,No,Base + 1 Function,None or Unspecified,None or Unspecified,Yes,Sideshift & Tip,None or Unspecified,,,,,,,,,,,,,,,
8648,1677670,25000,1380618,132,1.0,1000,,,5/2/1995 0:00,A550,A550,,,,,Motorgrader - 145.0 to 170.0 Horsepower,Delaware,MG,Motor Graders,No,EROPS,,,,,None or Unspecified,,None or Unspecified,None or Unspecified,None or Unspecified,No,Base + 1 Function,None or Unspecified,None or Unspecified,Yes,Sideshift & Tip,None or Unspecified,,,,,,,,,,,,,,,
8648,1677676,17000,1152334,132,1.0,1000,,,4/8/1999 0:00,A550,A550,,,,,Motorgrader - 145.0 to 170.0 Horsepower,Georgia,MG,Motor Graders,No,EROPS,,,,,None or Unspecified,,None or Unspecified,12',None or Unspecified,No,Base + 1 Function,None or Unspecified,None or Unspecified,Yes,None or Unspecified,None or Unspecified,,,,,,,,,,,,,,,
8648,1677776,17000,1281528,132,16.0,1000,,,7/12/2001 0:00,A550,A550,,,,,Motorgrader - 145.0 to 170.0 Horsepower,Ohio,MG,Motor Graders,No,OROPS,,,,,None or Unspecified,,None or Unspecified,None or Unspecified,None or Unspecified,No,Base + 1 Function,None or Unspecified,None or Unspecified,Yes,Sideshift & Tip,None or Unspecified,,,,,,,,,,,,,,,
8648,1677777,12500,1146670,132,4.0,1000,,,2/8/2010 0:00,A550,A550,,,,,Motorgrader - 145.0 to 170.0 Horsepower,Florida,MG,Motor Graders,No,EROPS,,,,,None or Unspecified,,None or Unspecified,None or Unspecified,None or Unspecified,No,Base + 1 Function,None or Unspecified,None or Unspecified,Yes,None or Unspecified,None or Unspecified,,,,,,,,,,,,,,,
8648,1677881,11000,1339380,132,1.0,1000,,,6/22/1999 0:00,A550,A550,,,,,Motorgrader - 145.0 to 170.0 Horsepower,Washington,MG,Motor Graders,No,EROPS,,,,,None or Unspecified,,None or Unspecified,14',None or Unspecified,No,Base + 1 Function,None or Unspecified,Yes,None or Unspecified,None or Unspecified,None or Unspecified,,,,,,,,,,,,,,,
8648,1677939,9000,1376029,132,1.0,1000,,,12/1/2004 0:00,A550,A550,,,,,Motorgrader - 145.0 to 170.0 Horsepower,Arizona,MG,Motor Graders,No,EROPS,,,,,None or Unspecified,,None or Unspecified,14',None or Unspecified,No,Base + 1 Function,Yes,None or Unspecified,Yes,None or Unspecified,"14""",,,,,,,,,,,,,,,
8648,1677940,13000,1118277,132,1.0,1000,,,9/14/2000 0:00,A550,A550,,,,,Motorgrader - 145.0 to 170.0 Horsepower,Ohio,MG,Motor Graders,No,EROPS,,,,,None or Unspecified,,None or Unspecified,14',None or Unspecified,No,Base + 1 Function,None or Unspecified,None or Unspecified,Yes,None or Unspecified,"14""",,,,,,,,,,,,,,,
8648,1677943,20000,1403156,132,1.0,1981,,,6/4/1991 0:00,A550,A550,,,,,Motorgrader - 145.0 to 170.0 Horsepower,Oklahoma,MG,Motor Graders,No,OROPS,,,,,None or Unspecified,,None or Unspecified,12',None or Unspecified,No,Base + 1 Function,None or Unspecified,None or Unspecified,Yes,Sideshift & Tip,"14""",,,,,,,,,,,,,,,
8648,1677944,9000,1343626,132,1.0,1000,,,12/3/2002 0:00,A550,A550,,,,,Motorgrader - 145.0 to 170.0 Horsepower,Colorado,MG,Motor Graders,No,EROPS,,,,,None or Unspecified,,None or Unspecified,14',None or Unspecified,No,Base + 1 Function,None or Unspecified,None or Unspecified,None or Unspecified,None or Unspecified,"14""",,,,,,,,,,,,,,,
8648,1677945,19500,1288837,132,1.0,1000,,,9/25/2007 0:00,A550,A550,,,,,Motorgrader - 145.0 to 170.0 Horsepower,Colorado,MG,Motor Graders,No,EROPS,,,,,None or Unspecified,,None or Unspecified,14',None or Unspecified,No,Base + 1 Function,None or Unspecified,Yes,Yes,None or Unspecified,"14""",,,,,,,,,,,,,,,
8648,1677946,12500,1293531,132,1.0,1000,,,6/14/2000 0:00,A550,A550,,,,,Motorgrader - 145.0 to 170.0 Horsepower,Texas,MG,Motor Graders,No,EROPS,,,,,None or Unspecified,,None or Unspecified,12',None or Unspecified,No,Base + 1 Function,None or Unspecified,None or Unspecified,Yes,None or Unspecified,"14""",,,,,,,,,,,,,,,
8648,1677952,20000,1168270,132,1.0,1000,,,6/26/1997 0:00,A550,A550,,,,,Motorgrader - 145.0 to 170.0 Horsepower,Colorado,MG,Motor Graders,No,EROPS,,,,,None or Unspecified,,None or Unspecified,None or Unspecified,None or Unspecified,No,Base + 1 Function,None or Unspecified,None or Unspecified,Yes,Sideshift & Tip,None or Unspecified,,,,,,,,,,,,,,,
8648,1677953,15500,1322022,132,1.0,1000,,,5/11/2011 0:00,A550,A550,,,,,Motorgrader - 145.0 to 170.0 Horsepower,Texas,MG,Motor Graders,No,EROPS w AC,,,,,None or Unspecified,,None or Unspecified,None or Unspecified,None or Unspecified,No,Base + 1 Function,None or Unspecified,None or Unspecified,None or Unspecified,None or Unspecified,"14""",,,,,,,,,,,,,,,
8648,1677954,21500,1326967,132,1.0,1984,,,10/12/1989 0:00,A550,A550,,,,,Motorgrader - 145.0 to 170.0 Horsepower,Texas,MG,Motor Graders,No,EROPS,,,,,None or Unspecified,,None or Unspecified,14',None or Unspecified,No,Base + 1 Function,None or Unspecified,None or Unspecified,Yes,Tip,"14""",,,,,,,,,,,,,,,
8648,1677957,9250,1357680,132,11.0,1000,,,9/30/1998 0:00,A550,A550,,,,,Motorgrader - 145.0 to 170.0 Horsepower,Mississippi,MG,Motor Graders,No,EROPS,,,,,None or Unspecified,,None or Unspecified,None or Unspecified,None or Unspecified,No,Base + 1 Function,None or Unspecified,None or Unspecified,None or Unspecified,Sideshift & Tip,None or Unspecified,,,,,,,,,,,,,,,
8648,1677958,12000,1536366,132,11.0,1000,,,3/21/2000 0:00,A550,A550,,,,,Motorgrader - 145.0 to 170.0 Horsepower,Mississippi,MG,Motor Graders,No,EROPS,,,,,None or Unspecified,,None or Unspecified,None or Unspecified,None or Unspecified,No,Base + 1 Function,None or Unspecified,None or Unspecified,Yes,Tip,None or Unspecified,,,,,,,,,,,,,,,
8648,1677966,17000,1102935,132,1.0,1988,,,6/28/2001 0:00,A550,A550,,,,,Motorgrader - 145.0 to 170.0 Horsepower,Colorado,MG,Motor Graders,No,EROPS,,,,,None or Unspecified,,None or Unspecified,14',None or Unspecified,No,Base + 1 Function,None or Unspecified,None or Unspecified,None or Unspecified,None or Unspecified,"14""",,,,,,,,,,,,,,,
8648,1677969,25000,1545016,132,1.0,1984,,,10/12/1989 0:00,A550,A550,,,,,Motorgrader - 145.0 to 170.0 Horsepower,Texas,MG,Motor Graders,No,EROPS,,,,,None or Unspecified,,None or Unspecified,14',None or Unspecified,No,Base + 1 Function,None or Unspecified,None or Unspecified,Yes,Tip,"14""",,,,,,,,,,,,,,,
8648,1677970,13000,1545016,132,1.0,1000,,,3/29/2005 0:00,A550,A550,,,,,Motorgrader - 145.0 to 170.0 Horsepower,Texas,MG,Motor Graders,No,EROPS,,,,,None or Unspecified,,None or Unspecified,14',None or Unspecified,No,Base + 1 Function,None or Unspecified,None or Unspecified,Yes,Tip,"14""",,,,,,,,,,,,,,,
8648,1677974,12000,1355084,132,1.0,1000,,,6/23/2003 0:00,A550,A550,,,,,Motorgrader - 145.0 to 170.0 Horsepower,Missouri,MG,Motor Graders,No,EROPS,,,,,None or Unspecified,,None or Unspecified,14',None or Unspecified,No,Base + 1 Function,None or Unspecified,Yes,None or Unspecified,None or Unspecified,"14""",,,,,,,,,,,,,,,
8648,1677975,24000,1382455,132,1.0,1000,,,6/26/1997 0:00,A550,A550,,,,,Motorgrader - 145.0 to 170.0 Horsepower,Colorado,MG,Motor Graders,No,EROPS,,,,,None or Unspecified,,None or Unspecified,None or Unspecified,None or Unspecified,No,Base + 1 Function,None or Unspecified,None or Unspecified,Yes,Sideshift & Tip,None or Unspecified,,,,,,,,,,,,,,,
8648,1677984,13000,1370768,132,1.0,1000,,,9/14/2000 0:00,A550,A550,,,,,Motorgrader - 145.0 to 170.0 Horsepower,Ohio,MG,Motor Graders,No,EROPS,,,,,None or Unspecified,,None or Unspecified,14',None or Unspecified,No,Base + 1 Function,None or Unspecified,None or Unspecified,Yes,None or Unspecified,"14""",,,,,,,,,,,,,,,
8648,1677987,19500,1512026,132,1.0,1000,,,2/22/2000 0:00,A550,A550,,,,,Motorgrader - 145.0 to 170.0 Horsepower,Texas,MG,Motor Graders,No,EROPS,,,,,None or Unspecified,,None or Unspecified,14',None or Unspecified,No,Base + 1 Function,None or Unspecified,None or Unspecified,None or Unspecified,None or Unspecified,"14""",,,,,,,,,,,,,,,
8648,1677988,9000,1079402,132,1.0,1000,,,6/25/2003 0:00,A550,A550,,,,,Motorgrader - 145.0 to 170.0 Horsepower,Colorado,MG,Motor Graders,No,EROPS,,,,,None or Unspecified,,None or Unspecified,14',None or Unspecified,No,Base + 1 Function,None or Unspecified,None or Unspecified,None or Unspecified,None or Unspecified,"14""",,,,,,,,,,,,,,,
8648,1678127,12000,1096525,132,1.0,1000,,,6/18/2003 0:00,A550,A550,,,,,Motorgrader - 145.0 to 170.0 Horsepower,Georgia,MG,Motor Graders,No,EROPS,,,,,None or Unspecified,,None or Unspecified,14',None or Unspecified,No,Base + 1 Function,None or Unspecified,None or Unspecified,Yes,None or Unspecified,"14""",,,,,,,,,,,,,,,
8648,2366636,9500,1726752,136,,1000,0.0,,3/11/2009 0:00,A550,A550,,,,,Motorgrader - 145.0 to 170.0 Horsepower,Alabama,MG,Motor Graders,No,EROPS,,,,,None or Unspecified,,None or Unspecified,14',None or Unspecified,No,Base + 1 Function,None or Unspecified,None or Unspecified,None or Unspecified,Tip,None or Unspecified,,,,,,,,,,,,,,,
8648,2366638,12500,1703227,136,4.0,1000,0.0,,2/8/2010 0:00,A550,A550,,,,,Motorgrader - 145.0 to 170.0 Horsepower,Florida,MG,Motor Graders,No,EROPS,,,,,None or Unspecified,,None or Unspecified,12',None or Unspecified,No,Base + 1 Function,None or Unspecified,Yes,Yes,None or Unspecified,None or Unspecified,,,,,,,,,,,,,,,
8648,2366642,8500,1275939,136,2.0,1000,0.0,,5/7/2008 0:00,A550,A550,,,,,Motorgrader - 145.0 to 170.0 Horsepower,Texas,MG,Motor Graders,No,EROPS w AC,,,,,None or Unspecified,,None or Unspecified,None or Unspecified,None or Unspecified,No,Base + 1 Function,None or Unspecified,None or Unspecified,Yes,Sideshift & Tip,None or Unspecified,,,,,,,,,,,,,,,
8648,2366644,11000,1431049,136,4.0,1000,0.0,,2/8/2010 0:00,A550,A550,,,,,Motorgrader - 145.0 to 170.0 Horsepower,Florida,MG,Motor Graders,No,EROPS,,,,,Powershift,,None or Unspecified,12',None or Unspecified,No,Base + 1 Function,None or Unspecified,None or Unspecified,Yes,Sideshift & Tip,None or Unspecified,,,,,,,,,,,,,,,
8648,2366712,16000,1368525,136,7.0,1000,0.0,,10/18/2007 0:00,A550,A550,,,,,Motorgrader - 145.0 to 170.0 Horsepower,South Carolina,MG,Motor Graders,No,OROPS,,,,,None or Unspecified,,None or Unspecified,None or Unspecified,None or Unspecified,No,Base + 1 Function,None or Unspecified,None or Unspecified,Yes,None or Unspecified,"14""",,,,,,,,,,,,,,,
8648,2366713,14500,1724159,136,,1988,0.0,,7/22/2008 0:00,A550,A550,,,,,Motorgrader - 145.0 to 170.0 Horsepower,Missouri,MG,Motor Graders,No,EROPS,,,,,None or Unspecified,,None or Unspecified,12',None or Unspecified,No,Base + 1 Function,None or Unspecified,None or Unspecified,None or Unspecified,None or Unspecified,"14""",,,,,,,,,,,,,,,
8648,2366714,18000,1505994,136,1.0,1000,0.0,,12/13/2007 0:00,A550,A550,,,,,Motorgrader - 145.0 to 170.0 Horsepower,Colorado,MG,Motor Graders,No,EROPS,,,,,None or Unspecified,,None or Unspecified,14',None or Unspecified,No,Base + 1 Function,None or Unspecified,Yes,Yes,None or Unspecified,"14""",,,,,,,,,,,,,,,
8648,2366717,14000,1308389,136,16.0,1000,0.0,,8/7/2008 0:00,A550,A550,,,,,Motorgrader - 145.0 to 170.0 Horsepower,Ohio,MG,Motor Graders,No,EROPS,,,,,None or Unspecified,,None or Unspecified,None or Unspecified,None or Unspecified,No,Base + 1 Function,None or Unspecified,None or Unspecified,Yes,Sideshift & Tip,"14""",,,,,,,,,,,,,,,
8648,2366747,8750,1781487,136,4.0,1000,0.0,,2/8/2010 0:00,A550,A550,,,,,Motorgrader - 145.0 to 170.0 Horsepower,Florida,MG,Motor Graders,No,EROPS,,,,,None or Unspecified,,None or Unspecified,None or Unspecified,None or Unspecified,No,Base + 1 Function,None or Unspecified,None or Unspecified,Yes,None or Unspecified,None or Unspecified,,,,,,,,,,,,,,,
8648,2366969,20000,1467146,136,6.0,1000,0.0,,9/12/2007 0:00,A550,A550,,,,,Motorgrader - 145.0 to 170.0 Horsepower,Missouri,MG,Motor Graders,No,EROPS,,,,,None or Unspecified,,None or Unspecified,12',None or Unspecified,No,Base + 1 Function,None or Unspecified,Yes,None or Unspecified,Sideshift & Tip,None or Unspecified,,,,,,,,,,,,,,,
8648,2366970,13750,1713290,136,,1992,0.0,,8/20/2009 0:00,A550,A550,,,,,Motorgrader - 145.0 to 170.0 Horsepower,South Carolina,MG,Motor Graders,No,EROPS,,,,,None or Unspecified,,None or Unspecified,12',None or Unspecified,No,Base + 1 Function,None or Unspecified,Yes,Yes,Sideshift & Tip,None or Unspecified,,,,,,,,,,,,,,,
8648,2367067,19500,1762778,136,1.0,1000,0.0,,9/25/2007 0:00,A550,A550,,,,,Motorgrader - 145.0 to 170.0 Horsepower,Colorado,MG,Motor Graders,No,EROPS,,,,,None or Unspecified,,None or Unspecified,14',None or Unspecified,No,Base + 1 Function,None or Unspecified,Yes,Yes,None or Unspecified,None or Unspecified,,,,,,,,,,,,,,,
8648,2367075,15000,1701012,136,,1000,0.0,,5/22/2007 0:00,A550,A550,,,,,Motorgrader - 145.0 to 170.0 Horsepower,California,MG,Motor Graders,No,OROPS,,,,,None or Unspecified,,None or Unspecified,12',None or Unspecified,No,Base + 1 Function,None or Unspecified,None or Unspecified,Yes,None or Unspecified,"14""",,,,,,,,,,,,,,,
8648,2662265,12000,1825688,149,5.0,1000,0.0,,9/30/2010 0:00,A550,A550,,,,,Motorgrader - 145.0 to 170.0 Horsepower,Colorado,MG,Motor Graders,No,EROPS,,,,,None or Unspecified,,None or Unspecified,14',None or Unspecified,No,Base + 1 Function,None or Unspecified,Yes,None or Unspecified,None or Unspecified,"14""",,,,,,,,,,,,,,,
8648,2662544,15500,1897512,149,1.0,1000,0.0,,5/11/2011 0:00,A550,A550,,,,,Motorgrader - 145.0 to 170.0 Horsepower,Texas,MG,Motor Graders,No,EROPS w AC,,,,,None or Unspecified,,None or Unspecified,14',None or Unspecified,No,Base + 1 Function,None or Unspecified,None or Unspecified,None or Unspecified,None or Unspecified,"14""",,,,,,,,,,,,,,,
8648,2662545,12750,1851835,149,99.0,1000,0.0,,11/10/2010 0:00,A550,A550,,,,,Motorgrader - 145.0 to 170.0 Horsepower,Colorado,MG,Motor Graders,No,OROPS,,,,,None or Unspecified,,None or Unspecified,14',None or Unspecified,No,Base + 1 Function,None or Unspecified,None or Unspecified,Yes,None or Unspecified,None or Unspecified,,,,,,,,,,,,,,,
8648,2662555,12000,1366490,149,5.0,1000,0.0,,4/7/2011 0:00,A550,A550,,,,,Motorgrader - 145.0 to 170.0 Horsepower,Connecticut,MG,Motor Graders,No,OROPS,,,,,None or Unspecified,,None or Unspecified,<12',None or Unspecified,No,Base + 1 Function,None or Unspecified,None or Unspecified,None or Unspecified,None or Unspecified,None or Unspecified,,,,,,,,,,,,,,,
8648,4332851,17000,2293369,172,1.0,1988,5994.0,Low,12/1/2011 0:00,A550,A550,,,,,Motorgrader - 145.0 to 170.0 Horsepower,Texas,MG,Motor Graders,No,EROPS w AC,,,,,None or Unspecified,,None or Unspecified,12',None or Unspecified,No,Base + 1 Function,None or Unspecified,None or Unspecified,Yes,None or Unspecified,"14""",,,,,,,,,,,,,,,
8648,6290264,17000,1015119,149,1.0,1988,,,12/2/2011 0:00,A550,A550,,,,,Motorgrader - 145.0 to 170.0 Horsepower,Texas,MG,Motor Graders,No,EROPS w AC,,,,,Powershift,,None or Unspecified,12',None or Unspecified,No,Base + 1 Function,None or Unspecified,None or Unspecified,Yes,None or Unspecified,"14""",,,,,,,,,,,,,,,
