ModelID,SalesID,SalePrice,MachineID,datasource,auctioneerID,YearMade,MachineHoursCurrentMeter,UsageBand,saledate,fiModelDesc,fiBaseModel,fiSecondaryDesc,fiModelSeries,fiModelDescriptor,ProductSize,fiProductClassDesc,state,ProductGroup,ProductGroupDesc,Drive_System,Enclosure,Forks,Pad_Type,Ride_Control,Stick,Transmission,Turbocharged,Blade_Extension,Blade_Width,Enclosure_Type,Engine_Horsepower,Hydraulics,Pushblock,Ripper,Scarifier,Tip_Control,Tire_Size,Coupler,Coupler_System,Grouser_Tracks,Hydraulics_Flow,Track_Type,Undercarriage_Pad_Width,Stick_Length,Thumb,Pattern_Changer,Grouser_Type,Backhoe_Mounting,Blade_Type,Travel_Controls,Differential_Type,Steering_Controls
8659,1675530,10250,1396909,132,4.0,1000,,,2/5/1998 0:00,T600,T600,,,,,Motorgrader - 170.0 to 200.0 Horsepower,Florida,MG,Motor Graders,No,OROPS,,,,,None or Unspecified,,None or Unspecified,None or Unspecified,None or Unspecified,No,Base + 1 Function,None or Unspecified,None or Unspecified,Yes,None or Unspecified,None or Unspecified,,,,,,,,,,,,,,,
8659,1675540,15000,1380436,132,2.0,1000,,,3/26/1998 0:00,T600,T600,,,,,Motorgrader - 170.0 to 200.0 Horsepower,New Jersey,MG,Motor Graders,No,EROPS,,,,,None or Unspecified,,None or Unspecified,None or Unspecified,None or Unspecified,No,Base + 1 Function,None or Unspecified,None or Unspecified,None or Unspecified,None or Unspecified,None or Unspecified,,,,,,,,,,,,,,,
8659,1676334,10500,1164766,132,6.0,1976,,,12/15/1992 0:00,T600,T600,,,,,Motorgrader - 170.0 to 200.0 Horsepower,Kentucky,MG,Motor Graders,No,EROPS,,,,,None or Unspecified,,None or Unspecified,None or Unspecified,None or Unspecified,No,Base + 1 Function,None or Unspecified,None or Unspecified,None or Unspecified,None or Unspecified,None or Unspecified,,,,,,,,,,,,,,,
8659,1676347,12000,1427182,132,17.0,1971,,,4/24/2007 0:00,T600,T600,,,,,Motorgrader - 170.0 to 200.0 Horsepower,Idaho,MG,Motor Graders,No,EROPS,,,,,None or Unspecified,,None or Unspecified,None or Unspecified,None or Unspecified,No,Base + 1 Function,None or Unspecified,None or Unspecified,Yes,None or Unspecified,"14""",,,,,,,,,,,,,,,
8659,1676371,14000,1362554,132,1.0,1981,,,6/3/1993 0:00,T600,T600,,,,,Motorgrader - 170.0 to 200.0 Horsepower,California,MG,Motor Graders,No,EROPS,,,,,None or Unspecified,,None or Unspecified,14',None or Unspecified,No,Base + 1 Function,None or Unspecified,None or Unspecified,Yes,Sideshift & Tip,"14""",,,,,,,,,,,,,,,
8659,1677588,8000,1279040,132,1.0,1973,,,11/24/1992 0:00,T600,T600,,,,,Motorgrader - 170.0 to 200.0 Horsepower,Nevada,MG,Motor Graders,No,EROPS,,,,,None or Unspecified,,None or Unspecified,14',None or Unspecified,No,Base + 1 Function,None or Unspecified,None or Unspecified,Yes,Sideshift & Tip,None or Unspecified,,,,,,,,,,,,,,,
8659,1677590,11000,1333290,132,1.0,1000,,,9/21/1999 0:00,T600,T600,,,,,Motorgrader - 170.0 to 200.0 Horsepower,Texas,MG,Motor Graders,No,EROPS,,,,,None or Unspecified,,None or Unspecified,12',None or Unspecified,No,Base + 1 Function,None or Unspecified,None or Unspecified,Yes,None or Unspecified,None or Unspecified,,,,,,,,,,,,,,,
8659,1677606,16000,1293314,132,1.0,1980,,,6/1/1989 0:00,T600,T600,,,,,Motorgrader - 170.0 to 200.0 Horsepower,Texas,MG,Motor Graders,No,EROPS,,,,,None or Unspecified,,None or Unspecified,14',None or Unspecified,No,Base + 1 Function,None or Unspecified,None or Unspecified,Yes,Sideshift & Tip,"14""",,,,,,,,,,,,,,,
8659,1677607,16000,1293314,132,1.0,1982,,,7/13/1989 0:00,T600,T600,,,,,Motorgrader - 170.0 to 200.0 Horsepower,Oklahoma,MG,Motor Graders,No,EROPS,,,,,None or Unspecified,,None or Unspecified,14',None or Unspecified,No,Base + 1 Function,None or Unspecified,None or Unspecified,Yes,Sideshift & Tip,"14""",,,,,,,,,,,,,,,
8659,1678124,14000,1238526,132,1.0,1977,,,5/23/1989 0:00,T600,T600,,,,,Motorgrader - 170.0 to 200.0 Horsepower,Minnesota,MG,Motor Graders,No,EROPS,,,,,None or Unspecified,,None or Unspecified,None or Unspecified,None or Unspecified,No,Base + 1 Function,None or Unspecified,None or Unspecified,Yes,Sideshift & Tip,None or Unspecified,,,,,,,,,,,,,,,
