SalesID,2680538
SalePrice,9750
MachineID,1939918
datasource,149
auctioneerID,5.0
YearMade,1988
MachineHoursCurrentMeter,0.0
UsageBand,
saledate,9/24/2010 0:00
fiModelDesc,1400
fiBaseModel,1400
fiSecondaryDesc,
fiModelSeries,
fiModelDescriptor,
ProductSize,
fiProductClassDesc,Backhoe Loader - 14.0 to 15.0 Ft Standard Digging Depth
state,Connecticut
ProductGroup,BL
ProductGroupDesc,Backhoe Loaders
Drive_System,Two Wheel Drive
Enclosure,EROPS
Forks,None or Unspecified
Pad_Type,None or Unspecified
Ride_Control,No
Stick,Extended
Transmission,Standard
Turbocharged,None or Unspecified
Blade_Extension,
Blade_Width,
Enclosure_Type,
Engine_Horsepower,
Hydraulics,
Pushblock,
Ripper,
Scarifier,
Tip_Control,
Tire_Size,
Coupler,
Coupler_System,
Grouser_Tracks,
Hydraulics_Flow,
Track_Type,
Undercarriage_Pad_Width,
Stick_Length,
Thumb,
Pattern_Changer,
Grouser_Type,
Backhoe_Mounting,
Blade_Type,
Travel_Controls,
Differential_Type,
Steering_Controls,
