ModelID,SalesID,SalePrice,MachineID,datasource,auctioneerID,YearMade,MachineHoursCurrentMeter,UsageBand,saledate,fiModelDesc,fiBaseModel,fiSecondaryDesc,fiModelSeries,fiModelDescriptor,ProductSize,fiProductClassDesc,state,ProductGroup,ProductGroupDesc,Drive_System,Enclosure,Forks,Pad_Type,Ride_Control,Stick,Transmission,Turbocharged,Blade_Extension,Blade_Width,Enclosure_Type,Engine_Horsepower,Hydraulics,Pushblock,Ripper,Scarifier,Tip_Control,Tire_Size,Coupler,Coupler_System,Grouser_Tracks,Hydraulics_Flow,Track_Type,Undercarriage_Pad_Width,Stick_Length,Thumb,Pattern_Changer,Grouser_Type,Backhoe_Mounting,Blade_Type,Travel_Controls,Differential_Type,Steering_Controls
8851,1218497,29500,1058213,121,3.0,2006,1716.0,Medium,9/30/2011 0:00,3CX,3CX,,,,,Backhoe Loader - 0.0 to 14.0 Ft Standard Digging Depth,Florida,BL,Backhoe Loaders,Four Wheel Drive,OROPS,Yes,None or Unspecified,No,Extended,Standard,None or Unspecified,,,,,,,,,,,,,,,,,,,,,,,,,
8851,1222273,30500,1063944,121,3.0,2007,1321.0,Medium,12/14/2011 0:00,3CX,3CX,,,,,Backhoe Loader - 0.0 to 14.0 Ft Standard Digging Depth,Utah,BL,Backhoe Loaders,Four Wheel Drive,EROPS w AC,None or Unspecified,None or Unspecified,No,Extended,Standard,None or Unspecified,,,,,,,,,,,,,,,,,,,,,,,,,
8851,1706873,9000,1486537,132,1.0,1978,,,4/24/1990 0:00,3CX,3CX,,,,,Backhoe Loader - 0.0 to 14.0 Ft Standard Digging Depth,Montana,BL,Backhoe Loaders,Two Wheel Drive,EROPS,None or Unspecified,None or Unspecified,No,Extended,Standard,None or Unspecified,,,,,,,,,,,,,,,,,,,,,,,,,
8851,1706904,9000,1320331,132,1.0,1980,,,6/7/1990 0:00,3CX,3CX,,,,,Backhoe Loader - 0.0 to 14.0 Ft Standard Digging Depth,Washington,BL,Backhoe Loaders,Two Wheel Drive,OROPS,None or Unspecified,None or Unspecified,No,Standard,Standard,None or Unspecified,,,,,,,,,,,,,,,,,,,,,,,,,
8851,1707472,13750,1331414,132,24.0,1985,,,7/20/1989 0:00,3CX,3CX,,,,,Backhoe Loader - 0.0 to 14.0 Ft Standard Digging Depth,Georgia,BL,Backhoe Loaders,Two Wheel Drive,OROPS,None or Unspecified,None or Unspecified,No,Standard,Standard,None or Unspecified,,,,,,,,,,,,,,,,,,,,,,,,,
8851,1707513,9100,1365520,132,11.0,1984,,,4/7/1993 0:00,3CX,3CX,,,,,Backhoe Loader - 0.0 to 14.0 Ft Standard Digging Depth,Mississippi,BL,Backhoe Loaders,Two Wheel Drive,EROPS,None or Unspecified,None or Unspecified,No,Standard,Standard,None or Unspecified,,,,,,,,,,,,,,,,,,,,,,,,,
8851,1707516,19500,1430721,132,2.0,1000,,,10/17/1998 0:00,3CX,3CX,,,,,Backhoe Loader - 0.0 to 14.0 Ft Standard Digging Depth,Maine,BL,Backhoe Loaders,Two Wheel Drive,EROPS,None or Unspecified,None or Unspecified,No,Extended,Standard,None or Unspecified,,,,,,,,,,,,,,,,,,,,,,,,,
8851,1707547,19000,1301326,132,99.0,1985,,,4/15/1989 0:00,3CX,3CX,,,,,Backhoe Loader - 0.0 to 14.0 Ft Standard Digging Depth,Connecticut,BL,Backhoe Loaders,Two Wheel Drive,OROPS,None or Unspecified,None or Unspecified,No,Standard,Standard,None or Unspecified,,,,,,,,,,,,,,,,,,,,,,,,,
8851,1707663,15000,1439796,132,1.0,1987,,,2/28/1991 0:00,3CX,3CX,,,,,Backhoe Loader - 0.0 to 14.0 Ft Standard Digging Depth,California,BL,Backhoe Loaders,Two Wheel Drive,OROPS,None or Unspecified,None or Unspecified,No,Standard,Standard,None or Unspecified,,,,,,,,,,,,,,,,,,,,,,,,,
8851,1707664,25000,1320558,132,6.0,1985,,,5/18/1990 0:00,3CX,3CX,,,,,Backhoe Loader - 0.0 to 14.0 Ft Standard Digging Depth,Missouri,BL,Backhoe Loaders,Two Wheel Drive,EROPS,None or Unspecified,None or Unspecified,No,Extended,Standard,None or Unspecified,,,,,,,,,,,,,,,,,,,,,,,,,
8851,1707694,14000,1506551,132,18.0,1986,,,10/9/1993 0:00,3CX,3CX,,,,,Backhoe Loader - 0.0 to 14.0 Ft Standard Digging Depth,Maryland,BL,Backhoe Loaders,Four Wheel Drive,OROPS,None or Unspecified,None or Unspecified,No,Standard,Powershuttle,None or Unspecified,,,,,,,,,,,,,,,,,,,,,,,,,
8851,1707809,14500,1209607,132,6.0,1987,,,12/18/1992 0:00,3CX,3CX,,,,,Backhoe Loader - 0.0 to 14.0 Ft Standard Digging Depth,Maine,BL,Backhoe Loaders,Two Wheel Drive,EROPS,None or Unspecified,None or Unspecified,No,Standard,Standard,None or Unspecified,,,,,,,,,,,,,,,,,,,,,,,,,
8851,1707856,17250,1408025,132,4.0,1987,,,10/10/1990 0:00,3CX,3CX,,,,,Backhoe Loader - 0.0 to 14.0 Ft Standard Digging Depth,Florida,BL,Backhoe Loaders,Four Wheel Drive,OROPS,None or Unspecified,None or Unspecified,No,Standard,Standard,None or Unspecified,,,,,,,,,,,,,,,,,,,,,,,,,
8851,1707968,17500,1438648,132,18.0,1988,,,10/20/1990 0:00,3CX,3CX,,,,,Backhoe Loader - 0.0 to 14.0 Ft Standard Digging Depth,Pennsylvania,BL,Backhoe Loaders,Four Wheel Drive,EROPS,Yes,None or Unspecified,No,Extended,Powershuttle,None or Unspecified,,,,,,,,,,,,,,,,,,,,,,,,,
8851,1708011,34500,1094328,132,1.0,1988,,,4/6/1989 0:00,3CX,3CX,,,,,Backhoe Loader - 0.0 to 14.0 Ft Standard Digging Depth,Maryland,BL,Backhoe Loaders,Two Wheel Drive,EROPS,Yes,None or Unspecified,No,Extended,Standard,None or Unspecified,,,,,,,,,,,,,,,,,,,,,,,,,
8851,1708013,37000,1544317,132,1.0,1988,,,5/2/1989 0:00,3CX,3CX,,,,,Backhoe Loader - 0.0 to 14.0 Ft Standard Digging Depth,Pennsylvania,BL,Backhoe Loaders,Two Wheel Drive,EROPS,Yes,None or Unspecified,No,Extended,Standard,None or Unspecified,,,,,,,,,,,,,,,,,,,,,,,,,
8851,1708035,20500,1421956,132,4.0,1988,,,10/10/1990 0:00,3CX,3CX,,,,,Backhoe Loader - 0.0 to 14.0 Ft Standard Digging Depth,Florida,BL,Backhoe Loaders,Four Wheel Drive,OROPS,None or Unspecified,None or Unspecified,No,Standard,Standard,None or Unspecified,,,,,,,,,,,,,,,,,,,,,,,,,
8851,1708275,14000,1134320,132,1.0,1987,,,10/1/1997 0:00,3CX,3CX,,,,,Backhoe Loader - 0.0 to 14.0 Ft Standard Digging Depth,Florida,BL,Backhoe Loaders,Two Wheel Drive,OROPS,None or Unspecified,None or Unspecified,No,Extended,Standard,None or Unspecified,,,,,,,,,,,,,,,,,,,,,,,,,
8851,1708588,12500,999198,132,3.0,1991,,,10/1/2009 0:00,3CX,3CX,,,,,Backhoe Loader - 0.0 to 14.0 Ft Standard Digging Depth,California,BL,Backhoe Loaders,Four Wheel Drive,EROPS,Yes,None or Unspecified,No,Extended,Standard,None or Unspecified,,,,,,,,,,,,,,,,,,,,,,,,,
8851,1708590,11500,1332556,132,1.0,1991,,,4/1/2009 0:00,3CX,3CX,,,,,Backhoe Loader - 0.0 to 14.0 Ft Standard Digging Depth,Maryland,BL,Backhoe Loaders,Four Wheel Drive,OROPS,None or Unspecified,None or Unspecified,No,Extended,Standard,None or Unspecified,,,,,,,,,,,,,,,,,,,,,,,,,
8851,1708618,10000,1055000,132,3.0,1995,,,10/1/2009 0:00,3CX,3CX,,,,,Backhoe Loader - 0.0 to 14.0 Ft Standard Digging Depth,California,BL,Backhoe Loaders,Four Wheel Drive,EROPS,Yes,None or Unspecified,No,Extended,Standard,None or Unspecified,,,,,,,,,,,,,,,,,,,,,,,,,
8851,1708891,14500,1167348,132,3.0,1998,,,10/1/2009 0:00,3CX,3CX,,,,,Backhoe Loader - 0.0 to 14.0 Ft Standard Digging Depth,California,BL,Backhoe Loaders,Four Wheel Drive,OROPS,Yes,None or Unspecified,No,Standard,Standard,None or Unspecified,,,,,,,,,,,,,,,,,,,,,,,,,
8851,1709005,13500,1039470,132,3.0,1999,,,10/1/2009 0:00,3CX,3CX,,,,,Backhoe Loader - 0.0 to 14.0 Ft Standard Digging Depth,California,BL,Backhoe Loaders,Four Wheel Drive,EROPS,Yes,None or Unspecified,No,Standard,Powershift,Yes,,,,,,,,,,,,,,,,,,,,,,,,,
8851,1709108,15500,1033402,132,3.0,2000,,,10/1/2009 0:00,3CX,3CX,,,,,Backhoe Loader - 0.0 to 14.0 Ft Standard Digging Depth,California,BL,Backhoe Loaders,Four Wheel Drive,EROPS,Yes,None or Unspecified,No,Standard,Standard,None or Unspecified,,,,,,,,,,,,,,,,,,,,,,,,,
8851,1714013,31000,1327993,132,1.0,2006,426.0,Low,5/25/2010 0:00,3CX,3CX,,,,,Backhoe Loader - 0.0 to 14.0 Ft Standard Digging Depth,Florida,BL,Backhoe Loaders,Four Wheel Drive,OROPS,Yes,None or Unspecified,No,Extended,Standard,None or Unspecified,,,,,,,,,,,,,,,,,,,,,,,,,
8851,1714015,39000,1373592,132,1.0,2006,,,12/15/2010 0:00,3CX,3CX,,,,,Backhoe Loader - 0.0 to 14.0 Ft Standard Digging Depth,Missouri,BL,Backhoe Loaders,Four Wheel Drive,EROPS w AC,None or Unspecified,None or Unspecified,No,Extended,Standard,None or Unspecified,,,,,,,,,,,,,,,,,,,,,,,,,
8851,1714020,30000,1435813,132,1.0,2006,318.0,Low,7/9/2010 0:00,3CX,3CX,,,,,Backhoe Loader - 0.0 to 14.0 Ft Standard Digging Depth,California,BL,Backhoe Loaders,Four Wheel Drive,OROPS,None or Unspecified,None or Unspecified,No,Extended,Standard,None or Unspecified,,,,,,,,,,,,,,,,,,,,,,,,,
8851,1714021,25000,1340302,132,1.0,2006,,,6/18/2009 0:00,3CX,3CX,,,,,Backhoe Loader - 0.0 to 14.0 Ft Standard Digging Depth,Georgia,BL,Backhoe Loaders,Four Wheel Drive,OROPS,None or Unspecified,None or Unspecified,No,Extended,Standard,None or Unspecified,,,,,,,,,,,,,,,,,,,,,,,,,
8851,1714023,35000,1296390,132,1.0,2006,200.0,Low,11/20/2009 0:00,3CX,3CX,,,,,Backhoe Loader - 0.0 to 14.0 Ft Standard Digging Depth,Arizona,BL,Backhoe Loaders,Four Wheel Drive,EROPS w AC,None or Unspecified,None or Unspecified,No,Extended,Standard,None or Unspecified,,,,,,,,,,,,,,,,,,,,,,,,,
8851,1714029,31000,1447238,132,1.0,2007,234.0,Low,5/25/2010 0:00,3CX,3CX,,,,,Backhoe Loader - 0.0 to 14.0 Ft Standard Digging Depth,Florida,BL,Backhoe Loaders,Four Wheel Drive,OROPS,None or Unspecified,None or Unspecified,No,Extended,Standard,None or Unspecified,,,,,,,,,,,,,,,,,,,,,,,,,
8851,1714030,31000,1101919,132,1.0,2007,492.0,Low,5/25/2010 0:00,3CX,3CX,,,,,Backhoe Loader - 0.0 to 14.0 Ft Standard Digging Depth,Florida,BL,Backhoe Loaders,Four Wheel Drive,OROPS,None or Unspecified,None or Unspecified,No,Extended,Standard,None or Unspecified,,,,,,,,,,,,,,,,,,,,,,,,,
8851,1714031,31000,1127009,132,1.0,2007,312.0,Low,5/25/2010 0:00,3CX,3CX,,,,,Backhoe Loader - 0.0 to 14.0 Ft Standard Digging Depth,Florida,BL,Backhoe Loaders,Four Wheel Drive,OROPS,None or Unspecified,None or Unspecified,No,Extended,Standard,None or Unspecified,,,,,,,,,,,,,,,,,,,,,,,,,
8851,1714054,17000,1170421,132,1.0,1987,,,2/28/1991 0:00,3CX,3CX,,,,,Backhoe Loader - 0.0 to 14.0 Ft Standard Digging Depth,California,BL,Backhoe Loaders,Four Wheel Drive,EROPS,None or Unspecified,None or Unspecified,No,Standard,Standard,None or Unspecified,,,,,,,,,,,,,,,,,,,,,,,,,
8851,1714086,28000,1363226,132,1.0,2004,,,4/20/2011 0:00,3CX,3CX,,,,,Backhoe Loader - 0.0 to 14.0 Ft Standard Digging Depth,Unspecified,BL,Backhoe Loaders,Four Wheel Drive,OROPS,Yes,None or Unspecified,No,Extended,Standard,None or Unspecified,,,,,,,,,,,,,,,,,,,,,,,,,
8851,1714097,24000,1273560,132,3.0,2005,,,2/24/2009 0:00,3CX,3CX,,,,,Backhoe Loader - 0.0 to 14.0 Ft Standard Digging Depth,California,BL,Backhoe Loaders,Four Wheel Drive,OROPS,Yes,None or Unspecified,No,Standard,Standard,None or Unspecified,,,,,,,,,,,,,,,,,,,,,,,,,
8851,1714098,20000,1020905,132,3.0,2005,,,10/1/2009 0:00,3CX,3CX,,,,,Backhoe Loader - 0.0 to 14.0 Ft Standard Digging Depth,California,BL,Backhoe Loaders,Four Wheel Drive,EROPS,None or Unspecified,None or Unspecified,No,Standard,Standard,None or Unspecified,,,,,,,,,,,,,,,,,,,,,,,,,
8851,1714106,24500,1054140,132,3.0,2005,,,10/1/2009 0:00,3CX,3CX,,,,,Backhoe Loader - 0.0 to 14.0 Ft Standard Digging Depth,California,BL,Backhoe Loaders,Four Wheel Drive,EROPS,Yes,None or Unspecified,No,Extended,Standard,None or Unspecified,,,,,,,,,,,,,,,,,,,,,,,,,
8851,1714108,22000,1385824,132,3.0,2005,,,10/1/2009 0:00,3CX,3CX,,,,,Backhoe Loader - 0.0 to 14.0 Ft Standard Digging Depth,California,BL,Backhoe Loaders,Four Wheel Drive,EROPS,None or Unspecified,None or Unspecified,No,Extended,Standard,None or Unspecified,,,,,,,,,,,,,,,,,,,,,,,,,
8851,1714109,22500,1385824,132,3.0,2005,,,10/15/2009 0:00,3CX,3CX,,,,,Backhoe Loader - 0.0 to 14.0 Ft Standard Digging Depth,California,BL,Backhoe Loaders,Four Wheel Drive,EROPS,None or Unspecified,None or Unspecified,No,Extended,Standard,None or Unspecified,,,,,,,,,,,,,,,,,,,,,,,,,
8851,1714112,22000,1466185,132,3.0,2005,,,2/24/2009 0:00,3CX,3CX,,,,,Backhoe Loader - 0.0 to 14.0 Ft Standard Digging Depth,California,BL,Backhoe Loaders,Two Wheel Drive,OROPS,Yes,None or Unspecified,No,Standard,Standard,None or Unspecified,,,,,,,,,,,,,,,,,,,,,,,,,
8851,1714118,27000,1027015,132,3.0,2007,,,8/27/2009 0:00,3CX,3CX,,,,,Backhoe Loader - 0.0 to 14.0 Ft Standard Digging Depth,California,BL,Backhoe Loaders,Four Wheel Drive,EROPS,None or Unspecified,None or Unspecified,No,Standard,Standard,None or Unspecified,,,,,,,,,,,,,,,,,,,,,,,,,
8851,1714120,27000,1022852,132,3.0,2007,,,8/27/2009 0:00,3CX,3CX,,,,,Backhoe Loader - 0.0 to 14.0 Ft Standard Digging Depth,California,BL,Backhoe Loaders,Four Wheel Drive,EROPS,None or Unspecified,None or Unspecified,No,Standard,Standard,None or Unspecified,,,,,,,,,,,,,,,,,,,,,,,,,
8851,1714337,34000,1310198,132,1.0,2007,,,4/20/2011 0:00,3CX,3CX,,,,,Backhoe Loader - 0.0 to 14.0 Ft Standard Digging Depth,Unspecified,BL,Backhoe Loaders,Four Wheel Drive,EROPS,Yes,None or Unspecified,No,Extended,Standard,None or Unspecified,,,,,,,,,,,,,,,,,,,,,,,,,
8851,1714343,37500,1354815,132,1.0,2007,,,2/24/2011 0:00,3CX,3CX,,,,,Backhoe Loader - 0.0 to 14.0 Ft Standard Digging Depth,Unspecified,BL,Backhoe Loaders,Four Wheel Drive,EROPS,Yes,None or Unspecified,No,Extended,Standard,None or Unspecified,,,,,,,,,,,,,,,,,,,,,,,,,
8851,2388122,11500,1494151,136,1.0,1000,0.0,,4/1/2009 0:00,3CX,3CX,,,,,Backhoe Loader - 0.0 to 14.0 Ft Standard Digging Depth,Maryland,BL,Backhoe Loaders,Four Wheel Drive,OROPS,None or Unspecified,None or Unspecified,No,Extended,Standard,None or Unspecified,,,,,,,,,,,,,,,,,,,,,,,,,
8851,2391460,30000,1338895,136,1.0,2006,318.0,Low,7/9/2010 0:00,3CX,3CX,,,,,Backhoe Loader - 0.0 to 14.0 Ft Standard Digging Depth,California,BL,Backhoe Loaders,Four Wheel Drive,OROPS,None or Unspecified,None or Unspecified,No,Extended,Standard,None or Unspecified,,,,,,,,,,,,,,,,,,,,,,,,,
8851,2391463,35000,1533445,136,1.0,2006,200.0,Low,11/20/2009 0:00,3CX,3CX,,,,,Backhoe Loader - 0.0 to 14.0 Ft Standard Digging Depth,Arizona,BL,Backhoe Loaders,Four Wheel Drive,EROPS w AC,None or Unspecified,None or Unspecified,No,Extended,Standard,None or Unspecified,,,,,,,,,,,,,,,,,,,,,,,,,
8851,2391465,31000,1432305,136,1.0,2006,426.0,Low,5/25/2010 0:00,3CX,3CX,,,,,Backhoe Loader - 0.0 to 14.0 Ft Standard Digging Depth,Florida,BL,Backhoe Loaders,Four Wheel Drive,OROPS,Yes,None or Unspecified,No,Extended,Standard,None or Unspecified,,,,,,,,,,,,,,,,,,,,,,,,,
8851,2391466,31000,1518434,136,1.0,2007,234.0,Low,5/25/2010 0:00,3CX,3CX,,,,,Backhoe Loader - 0.0 to 14.0 Ft Standard Digging Depth,Florida,BL,Backhoe Loaders,Four Wheel Drive,OROPS,None or Unspecified,None or Unspecified,No,Extended,Standard,None or Unspecified,,,,,,,,,,,,,,,,,,,,,,,,,
8851,2391550,36000,1674041,136,,1000,0.0,,6/25/2009 0:00,3CX,3CX,,,,,Backhoe Loader - 0.0 to 14.0 Ft Standard Digging Depth,Georgia,BL,Backhoe Loaders,Two Wheel Drive,OROPS,None or Unspecified,None or Unspecified,No,Standard,Standard,None or Unspecified,,,,,,,,,,,,,,,,,,,,,,,,,
8851,2391551,31000,1677423,136,1.0,2007,312.0,Low,5/25/2010 0:00,3CX,3CX,,,,,Backhoe Loader - 0.0 to 14.0 Ft Standard Digging Depth,Florida,BL,Backhoe Loaders,Two Wheel Drive,OROPS,None or Unspecified,None or Unspecified,No,Extended,Standard,None or Unspecified,,,,,,,,,,,,,,,,,,,,,,,,,
8851,2391570,31000,1534064,136,1.0,2007,471.0,Low,5/25/2010 0:00,3CX,3CX,,,,,Backhoe Loader - 0.0 to 14.0 Ft Standard Digging Depth,Florida,BL,Backhoe Loaders,Four Wheel Drive,OROPS,None or Unspecified,None or Unspecified,No,Extended,Standard,None or Unspecified,,,,,,,,,,,,,,,,,,,,,,,,,
8851,2682497,35000,1121232,149,26.0,2008,1997.0,Medium,4/21/2011 0:00,3CX,3CX,,,,,Backhoe Loader - 0.0 to 14.0 Ft Standard Digging Depth,South Carolina,BL,Backhoe Loaders,Four Wheel Drive,EROPS w AC,None or Unspecified,None or Unspecified,No,Extended,Standard,None or Unspecified,,,,,,,,,,,,,,,,,,,,,,,,,
8851,2684437,39000,1318184,149,1.0,2006,893.0,Low,12/15/2010 0:00,3CX,3CX,,,,,Backhoe Loader - 0.0 to 14.0 Ft Standard Digging Depth,Missouri,BL,Backhoe Loaders,Four Wheel Drive,EROPS w AC,None or Unspecified,None or Unspecified,No,Extended,Standard,None or Unspecified,,,,,,,,,,,,,,,,,,,,,,,,,
8851,2684494,27000,1234995,149,1.0,2006,1521.0,Low,6/9/2011 0:00,3CX,3CX,,,,,Backhoe Loader - 0.0 to 14.0 Ft Standard Digging Depth,Georgia,BL,Backhoe Loaders,Four Wheel Drive,OROPS,None or Unspecified,None or Unspecified,No,Extended,Standard,None or Unspecified,,,,,,,,,,,,,,,,,,,,,,,,,
8851,2684508,35000,1394984,149,1.0,2008,825.0,Medium,9/10/2010 0:00,3CX,3CX,,,,,Backhoe Loader - 0.0 to 14.0 Ft Standard Digging Depth,New Mexico,BL,Backhoe Loaders,Four Wheel Drive,EROPS w AC,None or Unspecified,None or Unspecified,No,Extended,Standard,None or Unspecified,,,,,,,,,,,,,,,,,,,,,,,,,
8851,4349868,27000,2302217,172,1.0,2006,,,12/13/2011 0:00,3CX,3CX,,,,,Backhoe Loader - 0.0 to 14.0 Ft Standard Digging Depth,North Carolina,BL,Backhoe Loaders,Two Wheel Drive,OROPS,None or Unspecified,None or Unspecified,No,Standard,Standard,None or Unspecified,,,,,,,,,,,,,,,,,,,,,,,,,
8851,4349904,31000,2270557,172,1.0,2007,312.0,Low,5/25/2010 0:00,3CX,3CX,,,,,Backhoe Loader - 0.0 to 14.0 Ft Standard Digging Depth,Florida,BL,Backhoe Loaders,Two Wheel Drive,OROPS,None or Unspecified,None or Unspecified,No,Extended,Standard,None or Unspecified,,,,,,,,,,,,,,,,,,,,,,,,,
8851,6298352,27000,1816631,149,1.0,2006,,,12/14/2011 0:00,3CX,3CX,,,,,Backhoe Loader - 0.0 to 14.0 Ft Standard Digging Depth,North Carolina,BL,Backhoe Loaders,Two Wheel Drive,OROPS,None or Unspecified,None or Unspecified,No,Standard,Standard,None or Unspecified,,,,,,,,,,,,,,,,,,,,,,,,,
