SalesID,1707261
SalePrice,8000
MachineID,1538595
datasource,132
auctioneerID,1.0
YearMade,1981
MachineHoursCurrentMeter,
UsageBand,
saledate,11/6/1990 0:00
fiModelDesc,805
fiBaseModel,805
fiSecondaryDesc,
fiModelSeries,
fiModelDescriptor,
ProductSize,Mini
fiProductClassDesc,"Hydraulic Excavator, Track - 5.0 to 6.0 Metric Tons"
state,Oregon
ProductGroup,TEX
ProductGroupDesc,Track Excavators
Drive_System,
Enclosure,EROPS
Forks,
Pad_Type,
Ride_Control,
Stick,
Transmission,
Turbocharged,
Blade_Extension,
Blade_Width,
Enclosure_Type,
Engine_Horsepower,
Hydraulics,Standard
Pushblock,
Ripper,
Scarifier,
Tip_Control,
Tire_Size,
Coupler,None or Unspecified
Coupler_System,
Grouser_Tracks,
Hydraulics_Flow,
Track_Type,Steel
Undercarriage_Pad_Width,None or Unspecified
Stick_Length,None or Unspecified
Thumb,Manual
Pattern_Changer,None or Unspecified
Grouser_Type,Double
Backhoe_Mounting,
Blade_Type,
Travel_Controls,
Differential_Type,
Steering_Controls,
