ModelID,SalesID,SalePrice,MachineID,datasource,auctioneerID,YearMade,MachineHoursCurrentMeter,UsageBand,saledate,fiModelDesc,fiBaseModel,fiSecondaryDesc,fiModelSeries,fiModelDescriptor,ProductSize,fiProductClassDesc,state,ProductGroup,ProductGroupDesc,Drive_System,Enclosure,Forks,Pad_Type,Ride_Control,Stick,Transmission,Turbocharged,Blade_Extension,Blade_Width,Enclosure_Type,Engine_Horsepower,Hydraulics,Pushblock,Ripper,Scarifier,Tip_Control,Tire_Size,Coupler,Coupler_System,Grouser_Tracks,Hydraulics_Flow,Track_Type,Undercarriage_Pad_Width,Stick_Length,Thumb,Pattern_Changer,Grouser_Type,Backhoe_Mounting,Blade_Type,Travel_Controls,Differential_Type,Steering_Controls
8914,1718321,19000,1197333,132,1.0,1983,,,4/2/1992 0:00,LK600,LK600,,,,Medium,Wheel Loader - 150.0 to 175.0 Horsepower,Texas,WL,Wheel Loader,,EROPS,Yes,,None or Unspecified,,,,,,,,2 Valve,,,,,None or Unspecified,None or Unspecified,,,,,,,,,,,,,Standard,Conventional
8914,1718322,11000,1502548,132,1.0,1000,,,8/20/1996 0:00,LK600,LK600,,,,Medium,Wheel Loader - 150.0 to 175.0 Horsepower,Texas,WL,Wheel Loader,,EROPS,None or Unspecified,,None or Unspecified,,,,,,,,2 Valve,,,,,None or Unspecified,None or Unspecified,,,,,,,,,,,,,Standard,Conventional
8914,1718346,13500,1120406,132,4.0,1000,,,2/8/1996 0:00,LK600,LK600,,,,Medium,Wheel Loader - 150.0 to 175.0 Horsepower,Florida,WL,Wheel Loader,,OROPS,None or Unspecified,,None or Unspecified,,,,,,,,2 Valve,,,,,None or Unspecified,None or Unspecified,,,,,,,,,,,,,Standard,Conventional
8914,1718421,25000,1254688,132,4.0,1982,,,2/1/1989 0:00,LK600,LK600,,,,Medium,Wheel Loader - 150.0 to 175.0 Horsepower,Florida,WL,Wheel Loader,,OROPS,None or Unspecified,,None or Unspecified,,,,,,,,2 Valve,,,,,20.5,None or Unspecified,,,,,,,,,,,,,Standard,Conventional
8914,1718422,18000,1475672,132,10.0,1982,,,5/21/1993 0:00,LK600,LK600,,,,Medium,Wheel Loader - 150.0 to 175.0 Horsepower,Mississippi,WL,Wheel Loader,,OROPS,None or Unspecified,,None or Unspecified,,,,,,,,2 Valve,,,,,None or Unspecified,None or Unspecified,,,,,,,,,,,,,Standard,Conventional
8914,1718440,28500,1553231,132,4.0,1983,,,2/1/1989 0:00,LK600,LK600,,,,Medium,Wheel Loader - 150.0 to 175.0 Horsepower,Florida,WL,Wheel Loader,,EROPS,None or Unspecified,,None or Unspecified,,,,,,,,2 Valve,,,,,20.5,None or Unspecified,,,,,,,,,,,,,Standard,Conventional
8914,1718477,10000,343371,132,2.0,1000,,,10/2/1999 0:00,LK600,LK600,,,,Medium,Wheel Loader - 150.0 to 175.0 Horsepower,Pennsylvania,WL,Wheel Loader,,OROPS,None or Unspecified,,None or Unspecified,,,,,,,,2 Valve,,,,,None or Unspecified,None or Unspecified,,,,,,,,,,,,,Standard,Conventional
8914,1718479,15000,1529416,132,1.0,1000,,,12/1/2006 0:00,LK600,LK600,,,,Medium,Wheel Loader - 150.0 to 175.0 Horsepower,Nevada,WL,Wheel Loader,,EROPS w AC,None or Unspecified,,None or Unspecified,,,,,,,,2 Valve,,,,,20.5,None or Unspecified,,,,,,,,,,,,,Standard,Conventional
8914,1718486,20000,1347123,132,6.0,1984,,,4/25/1995 0:00,LK600,LK600,,,,Medium,Wheel Loader - 150.0 to 175.0 Horsepower,New Mexico,WL,Wheel Loader,,EROPS,None or Unspecified,,None or Unspecified,,,,,,,,2 Valve,,,,,None or Unspecified,None or Unspecified,,,,,,,,,,,,,Standard,Conventional
8914,1718493,23000,1491329,132,2.0,1984,,,2/10/1994 0:00,LK600,LK600,,,,Medium,Wheel Loader - 150.0 to 175.0 Horsepower,Florida,WL,Wheel Loader,,EROPS,None or Unspecified,,None or Unspecified,,,,,,,,2 Valve,,,,,None or Unspecified,None or Unspecified,,,,,,,,,,,,,Standard,Conventional
8914,1718494,15000,1491329,132,4.0,1983,,,10/28/1993 0:00,LK600,LK600,,,,Medium,Wheel Loader - 150.0 to 175.0 Horsepower,Georgia,WL,Wheel Loader,,EROPS,None or Unspecified,,None or Unspecified,,,,,,,,2 Valve,,,,,None or Unspecified,None or Unspecified,,,,,,,,,,,,,Standard,Conventional
8914,1718495,17000,1367178,132,2.0,1000,,,10/23/1999 0:00,LK600,LK600,,,,Medium,Wheel Loader - 150.0 to 175.0 Horsepower,Florida,WL,Wheel Loader,,OROPS,None or Unspecified,,None or Unspecified,,,,,,,,2 Valve,,,,,None or Unspecified,None or Unspecified,,,,,,,,,,,,,Standard,Conventional
8914,1718497,25000,1471616,132,4.0,1984,,,2/1/1989 0:00,LK600,LK600,,,,Medium,Wheel Loader - 150.0 to 175.0 Horsepower,Florida,WL,Wheel Loader,,OROPS,None or Unspecified,,None or Unspecified,,,,,,,,2 Valve,,,,,None or Unspecified,None or Unspecified,,,,,,,,,,,,,Standard,Conventional
8914,1718498,24000,1507835,132,4.0,1983,,,2/1/1989 0:00,LK600,LK600,,,,Medium,Wheel Loader - 150.0 to 175.0 Horsepower,Florida,WL,Wheel Loader,,OROPS,None or Unspecified,,None or Unspecified,,,,,,,,2 Valve,,,,,20.5,None or Unspecified,,,,,,,,,,,,,Standard,Conventional
8914,1718504,16000,1369526,132,1.0,1000,,,6/27/1995 0:00,LK600,LK600,,,,Medium,Wheel Loader - 150.0 to 175.0 Horsepower,Texas,WL,Wheel Loader,,EROPS,None or Unspecified,,None or Unspecified,,,,,,,,2 Valve,,,,,None or Unspecified,None or Unspecified,,,,,,,,,,,,,Standard,Conventional
8914,1718514,20000,1555055,132,10.0,1984,,,6/18/1992 0:00,LK600,LK600,,,,Medium,Wheel Loader - 150.0 to 175.0 Horsepower,Louisiana,WL,Wheel Loader,,OROPS,None or Unspecified,,None or Unspecified,,,,,,,,2 Valve,,,,,None or Unspecified,None or Unspecified,,,,,,,,,,,,,Standard,Conventional
8914,1718515,22000,1555055,132,10.0,1984,,,10/14/1992 0:00,LK600,LK600,,,,Medium,Wheel Loader - 150.0 to 175.0 Horsepower,Alabama,WL,Wheel Loader,,OROPS,None or Unspecified,,None or Unspecified,,,,,,,,2 Valve,,,,,None or Unspecified,None or Unspecified,,,,,,,,,,,,,Standard,Conventional
8914,1718536,21000,1343148,132,5.0,1000,4892.0,Low,1/21/2000 0:00,LK600,LK600,,,,Medium,Wheel Loader - 150.0 to 175.0 Horsepower,Connecticut,WL,Wheel Loader,,EROPS,None or Unspecified,,None or Unspecified,,,,,,,,2 Valve,,,,,20.5,None or Unspecified,,,,,,,,,,,,,Standard,Conventional
8914,1718544,17000,1452107,132,1.0,1987,,,7/25/1995 0:00,LK600,LK600,,,,Medium,Wheel Loader - 150.0 to 175.0 Horsepower,Florida,WL,Wheel Loader,,OROPS,None or Unspecified,,None or Unspecified,,,,,,,,2 Valve,,,,,None or Unspecified,None or Unspecified,,,,,,,,,,,,,Standard,Conventional
8914,1718545,18000,1452107,132,1.0,1987,,,11/14/1995 0:00,LK600,LK600,,,,Medium,Wheel Loader - 150.0 to 175.0 Horsepower,Florida,WL,Wheel Loader,,OROPS,None or Unspecified,,None or Unspecified,,,,,,,,2 Valve,,,,,None or Unspecified,None or Unspecified,,,,,,,,,,,,,Standard,Conventional
8914,1719435,8500,1297948,132,8.0,1000,,,5/25/2005 0:00,LK600,LK600,,,,Medium,Wheel Loader - 150.0 to 175.0 Horsepower,Mississippi,WL,Wheel Loader,,OROPS,None or Unspecified,,None or Unspecified,,,,,,,,2 Valve,,,,,None or Unspecified,None or Unspecified,,,,,,,,,,,,,Standard,Conventional
8914,1720972,18750,1299259,132,18.0,1985,,,2/23/1991 0:00,LK600,LK600,,,,Medium,Wheel Loader - 150.0 to 175.0 Horsepower,Pennsylvania,WL,Wheel Loader,,EROPS,None or Unspecified,,None or Unspecified,,,,,,,,2 Valve,,,,,None or Unspecified,None or Unspecified,,,,,,,,,,,,,Standard,Conventional
8914,1720976,14000,1476460,132,4.0,1984,,,10/10/1990 0:00,LK600,LK600,,,,Medium,Wheel Loader - 150.0 to 175.0 Horsepower,Florida,WL,Wheel Loader,,OROPS,None or Unspecified,,None or Unspecified,,,,,,,,2 Valve,,,,,None or Unspecified,None or Unspecified,,,,,,,,,,,,,Standard,Conventional
8914,1720977,23000,1476460,132,4.0,1984,,,2/1/1989 0:00,LK600,LK600,,,,Medium,Wheel Loader - 150.0 to 175.0 Horsepower,Florida,WL,Wheel Loader,,OROPS,None or Unspecified,,None or Unspecified,,,,,,,,2 Valve,,,,,None or Unspecified,None or Unspecified,,,,,,,,,,,,,Standard,Conventional
8914,1720978,15000,1174333,132,9.0,1986,,,2/11/1998 0:00,LK600,LK600,,,,Medium,Wheel Loader - 150.0 to 175.0 Horsepower,Florida,WL,Wheel Loader,,OROPS,None or Unspecified,,None or Unspecified,,,,,,,,2 Valve,,,,,None or Unspecified,None or Unspecified,,,,,,,,,,,,,Standard,Conventional
8914,1720979,12500,1155648,132,1.0,1984,,,9/23/1998 0:00,LK600,LK600,,,,Medium,Wheel Loader - 150.0 to 175.0 Horsepower,Texas,WL,Wheel Loader,,OROPS,None or Unspecified,,None or Unspecified,,,,,,,,2 Valve,,,,,None or Unspecified,None or Unspecified,,,,,,,,,,,,,Standard,Conventional
8914,1720981,29000,1497571,132,1.0,1985,,,9/24/1991 0:00,LK600,LK600,,,,Medium,Wheel Loader - 150.0 to 175.0 Horsepower,Texas,WL,Wheel Loader,,EROPS,None or Unspecified,,None or Unspecified,,,,,,,,2 Valve,,,,,20.5,None or Unspecified,,,,,,,,,,,,,Standard,Conventional
8914,1720982,11000,1283902,132,1.0,1000,,,12/13/2005 0:00,LK600,LK600,,,,Medium,Wheel Loader - 150.0 to 175.0 Horsepower,California,WL,Wheel Loader,,OROPS,None or Unspecified,,None or Unspecified,,,,,,,,2 Valve,,,,,20.5,None or Unspecified,,,,,,,,,,,,,Standard,Conventional
8914,1720985,24000,1341352,132,1.0,1987,,,3/11/1993 0:00,LK600,LK600,,,,Medium,Wheel Loader - 150.0 to 175.0 Horsepower,Florida,WL,Wheel Loader,,OROPS,None or Unspecified,,None or Unspecified,,,,,,,,2 Valve,,,,,None or Unspecified,None or Unspecified,,,,,,,,,,,,,Standard,Conventional
8914,1720986,24000,1409952,132,1.0,1988,,,3/11/1993 0:00,LK600,LK600,,,,Medium,Wheel Loader - 150.0 to 175.0 Horsepower,Florida,WL,Wheel Loader,,OROPS,None or Unspecified,,None or Unspecified,,,,,,,,2 Valve,,,,,None or Unspecified,None or Unspecified,,,,,,,,,,,,,Standard,Conventional
8914,1720988,25000,1360298,132,1.0,1988,,,3/11/1993 0:00,LK600,LK600,,,,Medium,Wheel Loader - 150.0 to 175.0 Horsepower,Florida,WL,Wheel Loader,,OROPS,None or Unspecified,,None or Unspecified,,,,,,,,2 Valve,,,,,None or Unspecified,None or Unspecified,,,,,,,,,,,,,Standard,Conventional
8914,1720991,8500,1397922,132,1.0,1000,,,12/8/2004 0:00,LK600,LK600,,,,Medium,Wheel Loader - 150.0 to 175.0 Horsepower,Texas,WL,Wheel Loader,,EROPS,None or Unspecified,,None or Unspecified,,,,,,,,2 Valve,,,,,20.5,None or Unspecified,,,,,,,,,,,,,Standard,Conventional
8914,1720992,15500,1284582,132,2.0,1984,,,12/5/1992 0:00,LK600,LK600,,,,Medium,Wheel Loader - 150.0 to 175.0 Horsepower,New York,WL,Wheel Loader,,EROPS,None or Unspecified,,None or Unspecified,,,,,,,,2 Valve,,,,,None or Unspecified,None or Unspecified,,,,,,,,,,,,,Standard,Conventional
8914,1720993,18750,1284582,132,18.0,1983,,,3/17/1990 0:00,LK600,LK600,,,,Medium,Wheel Loader - 150.0 to 175.0 Horsepower,New Jersey,WL,Wheel Loader,,EROPS,None or Unspecified,,None or Unspecified,,,,,,,,2 Valve,,,,,None or Unspecified,None or Unspecified,,,,,,,,,,,,,Standard,Conventional
8914,1720996,18500,1154541,132,10.0,1984,,,5/21/1993 0:00,LK600,LK600,,,,Medium,Wheel Loader - 150.0 to 175.0 Horsepower,Mississippi,WL,Wheel Loader,,OROPS,None or Unspecified,,None or Unspecified,,,,,,,,2 Valve,,,,,None or Unspecified,None or Unspecified,,,,,,,,,,,,,Standard,Conventional
8914,1720997,15250,1117888,132,11.0,1984,,,4/7/1993 0:00,LK600,LK600,,,,Medium,Wheel Loader - 150.0 to 175.0 Horsepower,Mississippi,WL,Wheel Loader,,OROPS,None or Unspecified,,None or Unspecified,,,,,,,,2 Valve,,,,,None or Unspecified,None or Unspecified,,,,,,,,,,,,,Standard,Conventional
8914,1720998,10000,1465137,132,1.0,1984,,,6/27/2006 0:00,LK600,LK600,,,,Medium,Wheel Loader - 150.0 to 175.0 Horsepower,North Carolina,WL,Wheel Loader,,EROPS,None or Unspecified,,None or Unspecified,,,,,,,,2 Valve,,,,,20.5,None or Unspecified,,,,,,,,,,,,,Standard,Conventional
8914,1721001,15000,1235441,132,5.0,1984,,,8/19/1995 0:00,LK600,LK600,,,,Medium,Wheel Loader - 150.0 to 175.0 Horsepower,Connecticut,WL,Wheel Loader,,OROPS,None or Unspecified,,None or Unspecified,,,,,,,,2 Valve,,,,,None or Unspecified,None or Unspecified,,,,,,,,,,,,,Standard,Conventional
8914,1721002,29750,1142909,132,6.0,1984,1635.0,Low,3/15/1989 0:00,LK600,LK600,,,,Medium,Wheel Loader - 150.0 to 175.0 Horsepower,Florida,WL,Wheel Loader,,OROPS,None or Unspecified,,None or Unspecified,,,,,,,,2 Valve,,,,,None or Unspecified,None or Unspecified,,,,,,,,,,,,,Standard,Conventional
8914,1721003,12500,1536885,132,1.0,1984,,,2/22/2006 0:00,LK600,LK600,,,,Medium,Wheel Loader - 150.0 to 175.0 Horsepower,Florida,WL,Wheel Loader,,EROPS,None or Unspecified,,None or Unspecified,,,,,,,,2 Valve,,,,,20.5,None or Unspecified,,,,,,,,,,,,,Standard,Conventional
8914,1721011,29000,1139144,132,1.0,1988,,,3/11/1993 0:00,LK600,LK600,,,,Medium,Wheel Loader - 150.0 to 175.0 Horsepower,Florida,WL,Wheel Loader,,OROPS,None or Unspecified,,None or Unspecified,,,,,,,,2 Valve,,,,,None or Unspecified,None or Unspecified,,,,,,,,,,,,,Standard,Conventional
8914,1721012,25000,1142202,132,1.0,1988,,,3/11/1993 0:00,LK600,LK600,,,,Medium,Wheel Loader - 150.0 to 175.0 Horsepower,Florida,WL,Wheel Loader,,OROPS,None or Unspecified,,None or Unspecified,,,,,,,,2 Valve,,,,,None or Unspecified,None or Unspecified,,,,,,,,,,,,,Standard,Conventional
8914,2394744,14000,1707509,136,4.0,1000,0.0,,11/10/2007 0:00,LK600,LK600,,,,Medium,Wheel Loader - 150.0 to 175.0 Horsepower,California,WL,Wheel Loader,,OROPS,None or Unspecified,,None or Unspecified,,,,,,,,2 Valve,,,,,None or Unspecified,None or Unspecified,,,,,,,,,,,,,Standard,Conventional
8914,2395523,10000,1328018,136,1.0,1000,0.0,,6/17/2009 0:00,LK600,LK600,,,,Medium,Wheel Loader - 150.0 to 175.0 Horsepower,Washington,WL,Wheel Loader,,EROPS,None or Unspecified,,None or Unspecified,,,,,,,,2 Valve,,,,,20.5,None or Unspecified,,,,,,,,,,,,,Standard,Conventional
8914,2395524,14000,1785948,136,,1985,4451.0,Low,11/6/2008 0:00,LK600,LK600,,,,Medium,Wheel Loader - 150.0 to 175.0 Horsepower,Maine,WL,Wheel Loader,,EROPS,None or Unspecified,,None or Unspecified,,,,,,,,2 Valve,,,,,20.5,None or Unspecified,,,,,,,,,,,,,Standard,Conventional
8914,4353493,14000,2308798,172,1.0,1989,5205.0,Low,10/5/2011 0:00,LK600,LK600,,,,Medium,Wheel Loader - 150.0 to 175.0 Horsepower,Connecticut,WL,Wheel Loader,,EROPS,None or Unspecified,,None or Unspecified,,,,,,,,2 Valve,,,,,None or Unspecified,None or Unspecified,,,,,,,,,,,,,Standard,Conventional
8914,6300132,14000,1855559,149,1.0,1989,,,10/6/2011 0:00,LK600,LK600,,,,Medium,Wheel Loader - 150.0 to 175.0 Horsepower,Connecticut,WL,Wheel Loader,,EROPS,None or Unspecified,,None or Unspecified,,,,,,,,2 Valve,,,,,None or Unspecified,None or Unspecified,,,,,,,,,,,,,Standard,Conventional
