ModelID,SalesID,SalePrice,MachineID,datasource,auctioneerID,YearMade,MachineHoursCurrentMeter,UsageBand,saledate,fiModelDesc,fiBaseModel,fiSecondaryDesc,fiModelSeries,fiModelDescriptor,ProductSize,fiProductClassDesc,state,ProductGroup,ProductGroupDesc,Drive_System,Enclosure,Forks,Pad_Type,Ride_Control,Stick,Transmission,Turbocharged,Blade_Extension,Blade_Width,Enclosure_Type,Engine_Horsepower,Hydraulics,Pushblock,Ripper,Scarifier,Tip_Control,Tire_Size,Coupler,Coupler_System,Grouser_Tracks,Hydraulics_Flow,Track_Type,Undercarriage_Pad_Width,Stick_Length,Thumb,Pattern_Changer,Grouser_Type,Backhoe_Mounting,Blade_Type,Travel_Controls,Differential_Type,Steering_Controls
8928,1176135,32000,696271,121,3.0,2002,3475.0,Medium,12/13/2007 0:00,SK160,SK160,,,,Small,"Hydraulic Excavator, Track - 16.0 to 19.0 Metric Tons",Illinois,TEX,Track Excavators,,EROPS w AC,,,,,,,,,,,Standard,,,,,,None or Unspecified,,,,Steel,24 inch,None or Unspecified,None or Unspecified,None or Unspecified,Double,,,,,
8928,1194409,35000,1033559,121,3.0,2004,2982.0,Medium,10/29/2009 0:00,SK160,SK160,,,,Small,"Hydraulic Excavator, Track - 16.0 to 19.0 Metric Tons",Texas,TEX,Track Excavators,,EROPS w AC,,,,,,,,,,,Standard,,,,,,None or Unspecified,,,,Steel,None or Unspecified,None or Unspecified,None or Unspecified,None or Unspecified,Double,,,,,
8928,1722422,32000,1514275,132,3.0,2002,,,12/13/2007 0:00,SK160,SK160,,,,Small,"Hydraulic Excavator, Track - 16.0 to 19.0 Metric Tons",California,TEX,Track Excavators,,EROPS w AC,,,,,,,,,,,Standard,,,,,,None or Unspecified,,,,Steel,None or Unspecified,None or Unspecified,None or Unspecified,None or Unspecified,Double,,,,,
8928,1722462,51000,1334982,132,4.0,2005,864.0,Low,2/12/2009 0:00,SK160,SK160,,,,Small,"Hydraulic Excavator, Track - 16.0 to 19.0 Metric Tons",Florida,TEX,Track Excavators,,EROPS w AC,,,,,,,,,,,Standard,,,,,,None or Unspecified,,,,Steel,None or Unspecified,None or Unspecified,None or Unspecified,None or Unspecified,Double,,,,,
8928,1722491,35000,1553175,132,3.0,2004,,,10/29/2009 0:00,SK160,SK160,,,,Small,"Hydraulic Excavator, Track - 16.0 to 19.0 Metric Tons",California,TEX,Track Excavators,,EROPS w AC,,,,,,,,,,,Standard,,,,,,None or Unspecified,,,,Steel,None or Unspecified,None or Unspecified,None or Unspecified,None or Unspecified,Double,,,,,
8928,2689011,21000,1506714,149,1.0,2002,9349.0,Medium,3/17/2011 0:00,SK160,SK160,,,,Small,"Hydraulic Excavator, Track - 16.0 to 19.0 Metric Tons",Ohio,TEX,Track Excavators,,EROPS,,,,,,,,,,,Standard,,,,,,None or Unspecified,,,,Steel,None or Unspecified,None or Unspecified,None or Unspecified,None or Unspecified,Double,,,,,
8928,6300454,41000,1823872,149,10.0,2004,,,11/2/2011 0:00,SK160,SK160,,,,Small,"Hydraulic Excavator, Track - 16.0 to 19.0 Metric Tons",Louisiana,TEX,Track Excavators,,EROPS,,,,,,,,,,,Standard,,,,,,None or Unspecified,,,,Steel,None or Unspecified,None or Unspecified,None or Unspecified,None or Unspecified,Double,,,,,
8928,6300457,40000,1802347,149,2.0,2005,,,8/23/2011 0:00,SK160,SK160,,,,Small,"Hydraulic Excavator, Track - 16.0 to 19.0 Metric Tons",Texas,TEX,Track Excavators,,EROPS w AC,,,,,,,,,,,Standard,,,,,,None or Unspecified,,,,Steel,None or Unspecified,None or Unspecified,None or Unspecified,None or Unspecified,Double,,,,,
