ModelID,SalesID,SalePrice,MachineID,datasource,auctioneerID,YearMade,MachineHoursCurrentMeter,UsageBand,saledate,fiModelDesc,fiBaseModel,fiSecondaryDesc,fiModelSeries,fiModelDescriptor,ProductSize,fiProductClassDesc,state,ProductGroup,ProductGroupDesc,Drive_System,Enclosure,Forks,Pad_Type,Ride_Control,Stick,Transmission,Turbocharged,Blade_Extension,Blade_Width,Enclosure_Type,Engine_Horsepower,Hydraulics,Pushblock,Ripper,Scarifier,Tip_Control,Tire_Size,Coupler,Coupler_System,Grouser_Tracks,Hydraulics_Flow,Track_Type,Undercarriage_Pad_Width,Stick_Length,Thumb,Pattern_Changer,Grouser_Type,Backhoe_Mounting,Blade_Type,Travel_Controls,Differential_Type,Steering_Controls
8953,1725243,25000,1557833,132,2.0,1000,,,10/1/1994 0:00,6620,6620,,,,Small,"Hydraulic Excavator, Track - 16.0 to 19.0 Metric Tons",Pennsylvania,TEX,Track Excavators,,EROPS,,,,,,,,,,,Standard,,,,,,None or Unspecified,,,,Steel,None or Unspecified,None or Unspecified,None or Unspecified,None or Unspecified,Triple,,,,,
8953,1725244,22500,1557833,132,6.0,1983,,,12/13/1995 0:00,6620,6620,,,,Small,"Hydraulic Excavator, Track - 16.0 to 19.0 Metric Tons",Kentucky,TEX,Track Excavators,,EROPS,,,,,,,,,,,Standard,,,,,,None or Unspecified,,,,Steel,None or Unspecified,None or Unspecified,None or Unspecified,None or Unspecified,Triple,,,,,
8953,1725245,25500,1099390,132,21.0,1985,,,5/4/1995 0:00,6620,6620,,,,Small,"Hydraulic Excavator, Track - 16.0 to 19.0 Metric Tons",Maine,TEX,Track Excavators,,EROPS,,,,,,,,,,,Standard,,,,,,None or Unspecified,,,,Steel,24 inch,None or Unspecified,None or Unspecified,None or Unspecified,Double,,,,,
8953,1725246,20000,1099390,132,99.0,1000,,,6/1/1996 0:00,6620,6620,,,,Small,"Hydraulic Excavator, Track - 16.0 to 19.0 Metric Tons",Illinois,TEX,Track Excavators,,EROPS,,,,,,,,,,,Standard,,,,,,None or Unspecified,,,,Steel,24 inch,None or Unspecified,None or Unspecified,None or Unspecified,Double,,,,,
8953,1725247,16500,1099390,132,21.0,1985,,,10/26/1995 0:00,6620,6620,,,,Small,"Hydraulic Excavator, Track - 16.0 to 19.0 Metric Tons",Maine,TEX,Track Excavators,,EROPS,,,,,,,,,,,Standard,,,,,,None or Unspecified,,,,Steel,24 inch,None or Unspecified,None or Unspecified,None or Unspecified,Double,,,,,
8953,1725248,12000,1306809,132,2.0,1000,,,2/22/1997 0:00,6620,6620,,,,Small,"Hydraulic Excavator, Track - 16.0 to 19.0 Metric Tons",Ohio,TEX,Track Excavators,,EROPS,,,,,,,,,,,Standard,,,,,,None or Unspecified,,,,Steel,None or Unspecified,None or Unspecified,None or Unspecified,None or Unspecified,Double,,,,,
8953,1725249,10000,1186170,132,2.0,1985,,,12/3/2004 0:00,6620,6620,,,,Small,"Hydraulic Excavator, Track - 16.0 to 19.0 Metric Tons",Maine,TEX,Track Excavators,,EROPS,,,,,,,,,,,Standard,,,,,,None or Unspecified,,,,Steel,None or Unspecified,None or Unspecified,None or Unspecified,None or Unspecified,Double,,,,,
8953,1725250,8500,1538085,132,1.0,1000,,,12/1/2005 0:00,6620,6620,,,,Small,"Hydraulic Excavator, Track - 16.0 to 19.0 Metric Tons",Illinois,TEX,Track Excavators,,EROPS,,,,,,,,,,,Standard,,,,,,None or Unspecified,,,,Steel,None or Unspecified,None or Unspecified,None or Unspecified,None or Unspecified,Double,,,,,
8953,1725252,14000,1079322,132,11.0,1985,,,4/26/2001 0:00,6620,6620,,,,Small,"Hydraulic Excavator, Track - 16.0 to 19.0 Metric Tons",South Carolina,TEX,Track Excavators,,EROPS,,,,,,,,,,,Standard,,,,,,None or Unspecified,,,,Steel,None or Unspecified,None or Unspecified,None or Unspecified,None or Unspecified,Double,,,,,
8953,1725253,31000,1453586,132,6.0,1986,,,4/23/1991 0:00,6620,6620,,,,Small,"Hydraulic Excavator, Track - 16.0 to 19.0 Metric Tons",Kentucky,TEX,Track Excavators,,EROPS,,,,,,,,,,,Standard,,,,,,None or Unspecified,,,,Steel,None or Unspecified,None or Unspecified,None or Unspecified,None or Unspecified,Double,,,,,
8953,1725254,25000,97304,132,2.0,1000,,,10/7/1995 0:00,6620,6620,,,,Small,"Hydraulic Excavator, Track - 16.0 to 19.0 Metric Tons",Maine,TEX,Track Excavators,,EROPS,,,,,,,,,,,Standard,,,,,,None or Unspecified,,,,Steel,None or Unspecified,None or Unspecified,None or Unspecified,None or Unspecified,Double,,,,,
8953,1725255,16000,1452008,132,6.0,1000,,,10/20/1998 0:00,6620,6620,,,,Small,"Hydraulic Excavator, Track - 16.0 to 19.0 Metric Tons",Maine,TEX,Track Excavators,,EROPS,,,,,,,,,,,Standard,,,,,,None or Unspecified,,,,Steel,None or Unspecified,None or Unspecified,None or Unspecified,None or Unspecified,Double,,,,,
8953,1725256,12000,1492054,132,2.0,1000,,,5/24/2006 0:00,6620,6620,,,,Small,"Hydraulic Excavator, Track - 16.0 to 19.0 Metric Tons",Florida,TEX,Track Excavators,,EROPS,,,,,,,,,,,Standard,,,,,,None or Unspecified,,,,Steel,None or Unspecified,None or Unspecified,None or Unspecified,None or Unspecified,Double,,,,,
8953,1725257,15000,1545396,132,1.0,1000,,,3/21/2006 0:00,6620,6620,,,,Small,"Hydraulic Excavator, Track - 16.0 to 19.0 Metric Tons",Minnesota,TEX,Track Excavators,,EROPS,,,,,,,,,,,Standard,,,,,,None or Unspecified,,,,Steel,None or Unspecified,"9' 6""",None or Unspecified,None or Unspecified,Double,,,,,
8953,1725258,13250,1146553,132,2.0,1000,,,6/14/2003 0:00,6620,6620,,,,Small,"Hydraulic Excavator, Track - 16.0 to 19.0 Metric Tons",Pennsylvania,TEX,Track Excavators,,EROPS,,,,,,,,,,,Standard,,,,,,None or Unspecified,,,,Steel,None or Unspecified,None or Unspecified,None or Unspecified,None or Unspecified,Double,,,,,
8953,1725259,12000,1146553,132,1.0,1000,,,6/26/2002 0:00,6620,6620,,,,Small,"Hydraulic Excavator, Track - 16.0 to 19.0 Metric Tons",Maryland,TEX,Track Excavators,,EROPS,,,,,,,,,,,Standard,,,,,,None or Unspecified,,,,Steel,None or Unspecified,None or Unspecified,None or Unspecified,None or Unspecified,Double,,,,,
8953,1725260,13000,1275237,132,2.0,1987,,,3/30/2000 0:00,6620,6620,,,,Small,"Hydraulic Excavator, Track - 16.0 to 19.0 Metric Tons",New Jersey,TEX,Track Excavators,,EROPS,,,,,,,,,,,Standard,,,,,,None or Unspecified,,,,Steel,None or Unspecified,None or Unspecified,None or Unspecified,None or Unspecified,Double,,,,,
8953,1725261,39000,1510592,132,1.0,1989,,,8/24/1993 0:00,6620,6620,,,,Small,"Hydraulic Excavator, Track - 16.0 to 19.0 Metric Tons",Minnesota,TEX,Track Excavators,,EROPS,,,,,,,,,,,Standard,,,,,,None or Unspecified,,,,Steel,None or Unspecified,None or Unspecified,None or Unspecified,None or Unspecified,Triple,,,,,
8953,1725262,39000,1139414,132,1.0,1989,,,8/24/1993 0:00,6620,6620,,,,Small,"Hydraulic Excavator, Track - 16.0 to 19.0 Metric Tons",Minnesota,TEX,Track Excavators,,EROPS,,,,,,,,,,,Standard,,,,,,None or Unspecified,,,,Steel,32 inch,None or Unspecified,None or Unspecified,None or Unspecified,Triple,,,,,
8953,1725263,26500,1139414,132,14.0,1000,,,6/25/1996 0:00,6620,6620,,,,Small,"Hydraulic Excavator, Track - 16.0 to 19.0 Metric Tons",Maine,TEX,Track Excavators,,EROPS,,,,,,,,,,,Standard,,,,,,None or Unspecified,,,,Steel,32 inch,None or Unspecified,None or Unspecified,None or Unspecified,Triple,,,,,
8953,1725264,27000,1233857,132,1.0,1989,,,4/22/1996 0:00,6620,6620,,,,Small,"Hydraulic Excavator, Track - 16.0 to 19.0 Metric Tons",Delaware,TEX,Track Excavators,,EROPS,,,,,,,,,,,Standard,,,,,,None or Unspecified,,,,Steel,None or Unspecified,None or Unspecified,None or Unspecified,None or Unspecified,Double,,,,,
8953,1725265,37000,1554971,132,1.0,1989,,,3/30/1995 0:00,6620,6620,,,,Small,"Hydraulic Excavator, Track - 16.0 to 19.0 Metric Tons",Wisconsin,TEX,Track Excavators,,EROPS,,,,,,,,,,,Standard,,,,,,Manual,,,,Steel,32 inch,None or Unspecified,None or Unspecified,None or Unspecified,Triple,,,,,
8953,1725266,37000,1172009,132,1.0,1989,,,11/16/1993 0:00,6620,6620,,,,Small,"Hydraulic Excavator, Track - 16.0 to 19.0 Metric Tons",Wisconsin,TEX,Track Excavators,,EROPS,,,,,,,,,,,Standard,,,,,,None or Unspecified,,,,Steel,None or Unspecified,None or Unspecified,None or Unspecified,None or Unspecified,Triple,,,,,
8953,1725267,40000,1078191,132,1.0,1989,,,11/16/1993 0:00,6620,6620,,,,Small,"Hydraulic Excavator, Track - 16.0 to 19.0 Metric Tons",Wisconsin,TEX,Track Excavators,,EROPS,,,,,,,,,,,Standard,,,,,,None or Unspecified,,,,Steel,None or Unspecified,None or Unspecified,None or Unspecified,None or Unspecified,Triple,,,,,
8953,1725269,35000,1329909,132,99.0,1990,,,3/21/1998 0:00,6620,6620,,,,Small,"Hydraulic Excavator, Track - 16.0 to 19.0 Metric Tons",Illinois,TEX,Track Excavators,,EROPS,,,,,,,,,,,Standard,,,,,,None or Unspecified,,,,Steel,32 inch,None or Unspecified,None or Unspecified,None or Unspecified,Double,,,,,
8953,1725270,17500,1153758,132,2.0,1000,,,11/13/1998 0:00,6620,6620,,,,Small,"Hydraulic Excavator, Track - 16.0 to 19.0 Metric Tons",New York,TEX,Track Excavators,,EROPS,,,,,,,,,,,Standard,,,,,,None or Unspecified,,,,Steel,None or Unspecified,None or Unspecified,None or Unspecified,None or Unspecified,Double,,,,,
8953,1725272,30000,1409378,132,1.0,1989,,,6/24/1997 0:00,6620,6620,,,,Small,"Hydraulic Excavator, Track - 16.0 to 19.0 Metric Tons",California,TEX,Track Excavators,,EROPS,,,,,,,,,,,Standard,,,,,,None or Unspecified,,,,Steel,None or Unspecified,None or Unspecified,None or Unspecified,None or Unspecified,Double,,,,,
8953,1725273,13000,1447987,132,1.0,1000,,,9/25/2001 0:00,6620,6620,,,,Small,"Hydraulic Excavator, Track - 16.0 to 19.0 Metric Tons",Illinois,TEX,Track Excavators,,EROPS,,,,,,,,,,,Standard,,,,,,None or Unspecified,,,,Steel,None or Unspecified,None or Unspecified,None or Unspecified,None or Unspecified,Double,,,,,
8953,1725274,8000,730093,132,8.0,1000,,,9/10/2003 0:00,6620,6620,,,,Small,"Hydraulic Excavator, Track - 16.0 to 19.0 Metric Tons",Mississippi,TEX,Track Excavators,,EROPS,,,,,,,,,,,Standard,,,,,,None or Unspecified,,,,Steel,None or Unspecified,None or Unspecified,None or Unspecified,None or Unspecified,Double,,,,,
8953,1725276,42000,1234513,132,1.0,1990,,,3/27/1996 0:00,6620,6620,,,,Small,"Hydraulic Excavator, Track - 16.0 to 19.0 Metric Tons",Illinois,TEX,Track Excavators,,EROPS,,,,,,,,,,,Auxiliary,,,,,,None or Unspecified,,,,Steel,None or Unspecified,"9' 6""",None or Unspecified,None or Unspecified,Double,,,,,
8953,1725405,16500,1395714,132,1.0,1985,,,3/3/1998 0:00,6620,6620,,,,Small,"Hydraulic Excavator, Track - 16.0 to 19.0 Metric Tons",Wisconsin,TEX,Track Excavators,,EROPS,,,,,,,,,,,Auxiliary,,,,,,None or Unspecified,,,,Steel,None or Unspecified,None or Unspecified,None or Unspecified,None or Unspecified,Double,,,,,
8953,1725406,17000,1395714,132,99.0,1000,,,3/21/1998 0:00,6620,6620,,,,Small,"Hydraulic Excavator, Track - 16.0 to 19.0 Metric Tons",Illinois,TEX,Track Excavators,,EROPS,,,,,,,,,,,Auxiliary,,,,,,None or Unspecified,,,,Steel,None or Unspecified,None or Unspecified,None or Unspecified,None or Unspecified,Double,,,,,
8953,1725407,29000,1524145,132,6.0,1000,,,3/16/1994 0:00,6620,6620,,,,Small,"Hydraulic Excavator, Track - 16.0 to 19.0 Metric Tons",Ohio,TEX,Track Excavators,,EROPS,,,,,,,,,,,Auxiliary,,,,,,None or Unspecified,,,,Steel,32 inch,None or Unspecified,None or Unspecified,None or Unspecified,Triple,,,,,
8953,1725408,14000,1264914,132,1.0,1000,,,6/10/2005 0:00,6620,6620,,,,Small,"Hydraulic Excavator, Track - 16.0 to 19.0 Metric Tons",Pennsylvania,TEX,Track Excavators,,EROPS,,,,,,,,,,,Standard,,,,,,None or Unspecified,,,,Steel,None or Unspecified,None or Unspecified,None or Unspecified,None or Unspecified,Double,,,,,
8953,1725409,13500,1525997,132,1.0,1985,,,3/8/2006 0:00,6620,6620,,,,Small,"Hydraulic Excavator, Track - 16.0 to 19.0 Metric Tons",Illinois,TEX,Track Excavators,,EROPS,,,,,,,,,,,Standard,,,,,,None or Unspecified,,,,Steel,None or Unspecified,None or Unspecified,None or Unspecified,None or Unspecified,Double,,,,,
8953,1725410,21500,1228908,132,6.0,1984,,,12/13/1995 0:00,6620,6620,,,,Small,"Hydraulic Excavator, Track - 16.0 to 19.0 Metric Tons",Kentucky,TEX,Track Excavators,,EROPS,,,,,,,,,,,Standard,,,,,,None or Unspecified,,,,Steel,None or Unspecified,None or Unspecified,None or Unspecified,None or Unspecified,Double,,,,,
8953,1725411,13500,1365293,132,2.0,1000,,,3/20/1997 0:00,6620,6620,,,,Small,"Hydraulic Excavator, Track - 16.0 to 19.0 Metric Tons",New Jersey,TEX,Track Excavators,,EROPS,,,,,,,,,,,Standard,,,,,,None or Unspecified,,,,Steel,None or Unspecified,None or Unspecified,None or Unspecified,None or Unspecified,Double,,,,,
8953,1725412,22000,1238883,132,23.0,1000,6055.0,Low,8/3/1996 0:00,6620,6620,,,,Small,"Hydraulic Excavator, Track - 16.0 to 19.0 Metric Tons",New Jersey,TEX,Track Excavators,,EROPS,,,,,,,,,,,Standard,,,,,,None or Unspecified,,,,Steel,None or Unspecified,None or Unspecified,None or Unspecified,None or Unspecified,Double,,,,,
8953,1725413,14000,1385244,132,6.0,1000,,,4/4/1997 0:00,6620,6620,,,,Small,"Hydraulic Excavator, Track - 16.0 to 19.0 Metric Tons",Wyoming,TEX,Track Excavators,,EROPS,,,,,,,,,,,Standard,,,,,,None or Unspecified,,,,Steel,None or Unspecified,None or Unspecified,None or Unspecified,None or Unspecified,Double,,,,,
8953,1725414,17500,1254327,132,99.0,1000,,,11/12/1998 0:00,6620,6620,,,,Small,"Hydraulic Excavator, Track - 16.0 to 19.0 Metric Tons",Maine,TEX,Track Excavators,,EROPS,,,,,,,,,,,Standard,,,,,,None or Unspecified,,,,Steel,None or Unspecified,None or Unspecified,None or Unspecified,None or Unspecified,Double,,,,,
8953,1725415,11000,1237080,132,1.0,1000,,,3/26/2002 0:00,6620,6620,,,,Small,"Hydraulic Excavator, Track - 16.0 to 19.0 Metric Tons",Maryland,TEX,Track Excavators,,EROPS,,,,,,,,,,,Standard,,,,,,None or Unspecified,,,,Steel,None or Unspecified,None or Unspecified,None or Unspecified,None or Unspecified,Double,,,,,
8953,1725416,17000,1540584,132,2.0,1000,,,10/14/1995 0:00,6620,6620,,,,Small,"Hydraulic Excavator, Track - 16.0 to 19.0 Metric Tons",Pennsylvania,TEX,Track Excavators,,EROPS,,,,,,,,,,,Standard,,,,,,None or Unspecified,,,,Steel,32 inch,None or Unspecified,None or Unspecified,None or Unspecified,Double,,,,,
8953,1725417,20500,1540584,132,2.0,1988,,,9/16/1995 0:00,6620,6620,,,,Small,"Hydraulic Excavator, Track - 16.0 to 19.0 Metric Tons",Indiana,TEX,Track Excavators,,EROPS,,,,,,,,,,,Standard,,,,,,None or Unspecified,,,,Steel,32 inch,None or Unspecified,None or Unspecified,None or Unspecified,Double,,,,,
8953,1725419,23000,1292419,132,6.0,1000,,,12/18/1996 0:00,6620,6620,,,,Small,"Hydraulic Excavator, Track - 16.0 to 19.0 Metric Tons",Kentucky,TEX,Track Excavators,,EROPS,,,,,,,,,,,Standard,,,,,,None or Unspecified,,,,Steel,32 inch,None or Unspecified,None or Unspecified,None or Unspecified,Double,,,,,
8953,1725420,28000,1524516,132,99.0,1987,,,7/30/1997 0:00,6620,6620,,,,Small,"Hydraulic Excavator, Track - 16.0 to 19.0 Metric Tons",Wyoming,TEX,Track Excavators,,EROPS,,,,,,,,,,,Standard,,,,,,None or Unspecified,,,,Steel,None or Unspecified,None or Unspecified,None or Unspecified,None or Unspecified,Double,,,,,
8953,1725421,14500,1135153,132,4.0,1000,,,11/22/2005 0:00,6620,6620,,,,Small,"Hydraulic Excavator, Track - 16.0 to 19.0 Metric Tons",Ohio,TEX,Track Excavators,,EROPS,,,,,,,,,,,Standard,,,,,,None or Unspecified,,,,Steel,None or Unspecified,None or Unspecified,None or Unspecified,None or Unspecified,Double,,,,,
8953,1725422,24000,1116416,132,21.0,1986,,,10/10/1994 0:00,6620,6620,,,,Small,"Hydraulic Excavator, Track - 16.0 to 19.0 Metric Tons",Maine,TEX,Track Excavators,,EROPS,,,,,,,,,,,Standard,,,,,,None or Unspecified,,,,Steel,32 inch,None or Unspecified,None or Unspecified,None or Unspecified,Double,,,,,
8953,1725423,8000,1422474,132,99.0,1985,,,3/14/2008 0:00,6620,6620,,,,Small,"Hydraulic Excavator, Track - 16.0 to 19.0 Metric Tons",Minnesota,TEX,Track Excavators,,EROPS,,,,,,,,,,,Standard,,,,,,None or Unspecified,,,,Steel,32 inch,None or Unspecified,None or Unspecified,None or Unspecified,Double,,,,,
8953,1725424,18500,1147701,132,16.0,1974,,,4/27/2000 0:00,6620,6620,,,,Small,"Hydraulic Excavator, Track - 16.0 to 19.0 Metric Tons",Illinois,TEX,Track Excavators,,EROPS,,,,,,,,,,,Standard,,,,,,Manual,,,,Steel,32 inch,None or Unspecified,None or Unspecified,None or Unspecified,Double,,,,,
8953,1725425,25000,1253363,132,1.0,1987,,,10/23/1991 0:00,6620,6620,,,,Small,"Hydraulic Excavator, Track - 16.0 to 19.0 Metric Tons",Maryland,TEX,Track Excavators,,EROPS,,,,,,,,,,,Standard,,,,,,None or Unspecified,,,,Steel,None or Unspecified,None or Unspecified,None or Unspecified,None or Unspecified,Double,,,,,
8953,1725434,8000,1468800,132,1.0,1985,,,9/24/2008 0:00,6620,6620,,,,Small,"Hydraulic Excavator, Track - 16.0 to 19.0 Metric Tons",Texas,TEX,Track Excavators,,EROPS,,,,,,,,,,,Standard,,,,,,None or Unspecified,,,,Steel,None or Unspecified,None or Unspecified,None or Unspecified,None or Unspecified,Double,,,,,
8953,1725575,28000,1265283,132,1.0,1986,,,5/14/1991 0:00,6620,6620,,,,Small,"Hydraulic Excavator, Track - 16.0 to 19.0 Metric Tons",Illinois,TEX,Track Excavators,,EROPS,,,,,,,,,,,Auxiliary,,,,,,None or Unspecified,,,,Steel,None or Unspecified,None or Unspecified,None or Unspecified,None or Unspecified,Double,,,,,
8953,1725633,12000,1275403,132,99.0,1000,,,4/19/2001 0:00,6620,6620,,,,Small,"Hydraulic Excavator, Track - 16.0 to 19.0 Metric Tons",Kentucky,TEX,Track Excavators,,EROPS,,,,,,,,,,,Standard,,,,,,None or Unspecified,,,,Steel,None or Unspecified,None or Unspecified,None or Unspecified,None or Unspecified,Double,,,,,
8953,1725634,19000,1356090,132,16.0,1993,,,7/13/2000 0:00,6620,6620,,,,Small,"Hydraulic Excavator, Track - 16.0 to 19.0 Metric Tons",Ohio,TEX,Track Excavators,,EROPS,,,,,,,,,,,Auxiliary,,,,,,None or Unspecified,,,,Steel,None or Unspecified,None or Unspecified,None or Unspecified,None or Unspecified,Double,,,,,
8953,1725635,40000,1103624,132,99.0,1991,,,5/10/1995 0:00,6620,6620,,,,Small,"Hydraulic Excavator, Track - 16.0 to 19.0 Metric Tons",Mississippi,TEX,Track Excavators,,EROPS,,,,,,,,,,,Standard,,,,,,None or Unspecified,,,,Steel,None or Unspecified,None or Unspecified,None or Unspecified,None or Unspecified,Double,,,,,
8953,1725637,22000,1277508,132,1.0,1991,,,12/4/2001 0:00,6620,6620,,,,Small,"Hydraulic Excavator, Track - 16.0 to 19.0 Metric Tons",California,TEX,Track Excavators,,EROPS,,,,,,,,,,,Standard,,,,,,None or Unspecified,,,,Steel,None or Unspecified,None or Unspecified,Manual,None or Unspecified,Double,,,,,
8953,1725638,19000,1272685,132,2.0,1000,,,7/14/2001 0:00,6620,6620,,,,Small,"Hydraulic Excavator, Track - 16.0 to 19.0 Metric Tons",Maine,TEX,Track Excavators,,EROPS,,,,,,,,,,,Auxiliary,,,,,,None or Unspecified,,,,Steel,None or Unspecified,"9' 7""",None or Unspecified,None or Unspecified,Double,,,,,
8953,1725639,20000,1272685,132,1.0,1992,,,6/5/2001 0:00,6620,6620,,,,Small,"Hydraulic Excavator, Track - 16.0 to 19.0 Metric Tons",Maine,TEX,Track Excavators,,EROPS,,,,,,,,,,,Auxiliary,,,,,,None or Unspecified,,,,Steel,None or Unspecified,"9' 7""",None or Unspecified,None or Unspecified,Double,,,,,
8953,1725640,10000,1241927,132,1.0,1993,,,2/28/2001 0:00,6620,6620,,,,Small,"Hydraulic Excavator, Track - 16.0 to 19.0 Metric Tons",Texas,TEX,Track Excavators,,EROPS,,,,,,,,,,,Standard,,,,,,None or Unspecified,,,,Steel,None or Unspecified,"9' 6""",None or Unspecified,None or Unspecified,Triple,,,,,
8953,1725641,11000,1381798,132,16.0,1000,,,6/14/2006 0:00,6620,6620,,,,Small,"Hydraulic Excavator, Track - 16.0 to 19.0 Metric Tons",Wisconsin,TEX,Track Excavators,,EROPS,,,,,,,,,,,Standard,,,,,,None or Unspecified,,,,Steel,None or Unspecified,None or Unspecified,None or Unspecified,None or Unspecified,Double,,,,,
8953,1725642,37000,1084832,132,16.0,1992,,,7/10/1997 0:00,6620,6620,,,,Small,"Hydraulic Excavator, Track - 16.0 to 19.0 Metric Tons",Ohio,TEX,Track Excavators,,EROPS,,,,,,,,,,,Auxiliary,,,,,,None or Unspecified,,,,Steel,None or Unspecified,None or Unspecified,None or Unspecified,None or Unspecified,Double,,,,,
8953,1725643,27000,1522330,132,1.0,1992,,,12/15/1997 0:00,6620,6620,,,,Small,"Hydraulic Excavator, Track - 16.0 to 19.0 Metric Tons",Missouri,TEX,Track Excavators,,EROPS,,,,,,,,,,,Standard,,,,,,None or Unspecified,,,,Steel,None or Unspecified,None or Unspecified,None or Unspecified,None or Unspecified,Triple,,,,,
8953,1725644,13500,1377995,132,1.0,1000,,,4/30/2002 0:00,6620,6620,,,,Small,"Hydraulic Excavator, Track - 16.0 to 19.0 Metric Tons",Pennsylvania,TEX,Track Excavators,,EROPS,,,,,,,,,,,Standard,,,,,,None or Unspecified,,,,Steel,None or Unspecified,"9' 7""",None or Unspecified,None or Unspecified,Double,,,,,
8953,1725645,17000,1322454,132,22.0,1000,,,3/27/2004 0:00,6620,6620,,,,Small,"Hydraulic Excavator, Track - 16.0 to 19.0 Metric Tons",Minnesota,TEX,Track Excavators,,EROPS,,,,,,,,,,,Standard,,,,,,None or Unspecified,,,,Steel,None or Unspecified,None or Unspecified,None or Unspecified,None or Unspecified,Double,,,,,
8953,1725646,23500,1322454,132,22.0,1993,,,3/18/2000 0:00,6620,6620,,,,Small,"Hydraulic Excavator, Track - 16.0 to 19.0 Metric Tons",Minnesota,TEX,Track Excavators,,EROPS,,,,,,,,,,,Standard,,,,,,None or Unspecified,,,,Steel,None or Unspecified,None or Unspecified,None or Unspecified,None or Unspecified,Double,,,,,
8953,1725647,21500,1155568,132,1.0,1993,,,9/14/2000 0:00,6620,6620,,,,Small,"Hydraulic Excavator, Track - 16.0 to 19.0 Metric Tons",Ohio,TEX,Track Excavators,,EROPS,,,,,,,,,,,Auxiliary,,,,,,Manual,,,,Steel,None or Unspecified,"9' 6""",None or Unspecified,None or Unspecified,Double,,,,,
8953,2690151,7750,1833571,149,2.0,1986,0.0,,3/31/2011 0:00,6620,6620,,,,Small,"Hydraulic Excavator, Track - 16.0 to 19.0 Metric Tons",New Jersey,TEX,Track Excavators,,EROPS,,,,,,,,,,,Standard,,,,,,None or Unspecified,,,,Steel,None or Unspecified,None or Unspecified,None or Unspecified,None or Unspecified,Double,,,,,
