ModelID,SalesID,SalePrice,MachineID,datasource,auctioneerID,YearMade,MachineHoursCurrentMeter,UsageBand,saledate,fiModelDesc,fiBaseModel,fiSecondaryDesc,fiModelSeries,fiModelDescriptor,ProductSize,fiProductClassDesc,state,ProductGroup,ProductGroupDesc,Drive_System,Enclosure,Forks,Pad_Type,Ride_Control,Stick,Transmission,Turbocharged,Blade_Extension,Blade_Width,Enclosure_Type,Engine_Horsepower,Hydraulics,Pushblock,Ripper,Scarifier,Tip_Control,Tire_Size,Coupler,Coupler_System,Grouser_Tracks,Hydraulics_Flow,Track_Type,Undercarriage_Pad_Width,Stick_Length,Thumb,Pattern_Changer,Grouser_Type,Backhoe_Mounting,Blade_Type,Travel_Controls,Differential_Type,Steering_Controls
8960,1725713,12500,1075461,132,1.0,1974,,,4/22/1993 0:00,C166,C166,,,,Small,"Hydraulic Excavator, Track - 16.0 to 19.0 Metric Tons",Minnesota,TEX,Track Excavators,,EROPS,,,,,,,,,,,Standard,,,,,,None or Unspecified,,,,Steel,None or Unspecified,None or Unspecified,None or Unspecified,None or Unspecified,Triple,,,,,
8960,1725714,8750,1495970,132,18.0,1974,,,10/21/1989 0:00,C166,C166,,,,Small,"Hydraulic Excavator, Track - 16.0 to 19.0 Metric Tons",Pennsylvania,TEX,Track Excavators,,EROPS,,,,,,,,,,,Standard,,,,,,None or Unspecified,,,,Steel,None or Unspecified,None or Unspecified,None or Unspecified,None or Unspecified,Double,,,,,
8960,1725715,8500,1212481,132,18.0,1974,,,7/17/1993 0:00,C166,C166,,,,Small,"Hydraulic Excavator, Track - 16.0 to 19.0 Metric Tons",Pennsylvania,TEX,Track Excavators,,EROPS,,,,,,,,,,,Standard,,,,,,None or Unspecified,,,,Steel,24 inch,None or Unspecified,None or Unspecified,None or Unspecified,Triple,,,,,
8960,1725716,14000,1241948,132,6.0,1974,,,4/23/1991 0:00,C166,C166,,,,Small,"Hydraulic Excavator, Track - 16.0 to 19.0 Metric Tons",Kentucky,TEX,Track Excavators,,EROPS,,,,,,,,,,,Standard,,,,,,None or Unspecified,,,,Steel,None or Unspecified,None or Unspecified,None or Unspecified,None or Unspecified,Double,,,,,
8960,1725717,7750,1490812,132,4.0,1974,,,2/5/1991 0:00,C166,C166,,,,Small,"Hydraulic Excavator, Track - 16.0 to 19.0 Metric Tons",Florida,TEX,Track Excavators,,EROPS,,,,,,,,,,,Standard,,,,,,None or Unspecified,,,,Steel,None or Unspecified,None or Unspecified,None or Unspecified,None or Unspecified,Double,,,,,
8960,1725718,10000,1254234,132,1.0,1974,,,10/9/1990 0:00,C166,C166,,,,Small,"Hydraulic Excavator, Track - 16.0 to 19.0 Metric Tons",Wisconsin,TEX,Track Excavators,,EROPS,,,,,,,,,,,Standard,,,,,,None or Unspecified,,,,Steel,None or Unspecified,None or Unspecified,None or Unspecified,None or Unspecified,Double,,,,,
8960,1725721,17000,1414522,132,4.0,1978,,,2/1/1989 0:00,C166,C166,,,,Small,"Hydraulic Excavator, Track - 16.0 to 19.0 Metric Tons",Florida,TEX,Track Excavators,,EROPS,,,,,,,,,,,Standard,,,,,,None or Unspecified,,,,Steel,24 inch,None or Unspecified,None or Unspecified,None or Unspecified,Triple,,,,,
8960,1725723,11000,1228500,132,6.0,1976,,,4/12/1990 0:00,C166,C166,,,,Small,"Hydraulic Excavator, Track - 16.0 to 19.0 Metric Tons",Louisiana,TEX,Track Excavators,,EROPS,,,,,,,,,,,Standard,,,,,,None or Unspecified,,,,Steel,None or Unspecified,None or Unspecified,None or Unspecified,None or Unspecified,Double,,,,,
8960,1725724,12000,1469909,132,1.0,1000,,,4/7/1995 0:00,C166,C166,,,,Small,"Hydraulic Excavator, Track - 16.0 to 19.0 Metric Tons",Minnesota,TEX,Track Excavators,,EROPS,,,,,,,,,,,Standard,,,,,,None or Unspecified,,,,Steel,None or Unspecified,None or Unspecified,None or Unspecified,None or Unspecified,Double,,,,,
8960,1725731,15000,1531111,132,6.0,1979,,,10/2/1992 0:00,C166,C166,,,,Small,"Hydraulic Excavator, Track - 16.0 to 19.0 Metric Tons",Virginia,TEX,Track Excavators,,EROPS,,,,,,,,,,,Standard,,,,,,None or Unspecified,,,,Steel,None or Unspecified,None or Unspecified,None or Unspecified,None or Unspecified,Double,,,,,
8960,1725734,16000,1246371,132,4.0,1978,,,2/6/1990 0:00,C166,C166,,,,Small,"Hydraulic Excavator, Track - 16.0 to 19.0 Metric Tons",Florida,TEX,Track Excavators,,EROPS,,,,,,,,,,,Standard,,,,,,None or Unspecified,,,,Steel,None or Unspecified,None or Unspecified,None or Unspecified,None or Unspecified,Double,,,,,
8960,1725735,14500,1418883,132,4.0,1978,,,2/1/1989 0:00,C166,C166,,,,Small,"Hydraulic Excavator, Track - 16.0 to 19.0 Metric Tons",Florida,TEX,Track Excavators,,EROPS,,,,,,,,,,,Standard,,,,,,None or Unspecified,,,,Steel,31 inch,None or Unspecified,None or Unspecified,None or Unspecified,Triple,,,,,
8960,1725738,23000,1210082,132,4.0,1978,,,4/21/1989 0:00,C166,C166,,,,Small,"Hydraulic Excavator, Track - 16.0 to 19.0 Metric Tons",Louisiana,TEX,Track Excavators,,EROPS,,,,,,,,,,,Standard,,,,,,None or Unspecified,,,,Steel,None or Unspecified,None or Unspecified,None or Unspecified,None or Unspecified,Triple,,,,,
8960,1725742,13000,1553895,132,18.0,1000,,,6/22/1996 0:00,C166,C166,,,,Small,"Hydraulic Excavator, Track - 16.0 to 19.0 Metric Tons",Pennsylvania,TEX,Track Excavators,,EROPS,,,,,,,,,,,Standard,,,,,,None or Unspecified,,,,Steel,20 inch,None or Unspecified,None or Unspecified,None or Unspecified,Triple,,,,,
8960,1725743,15500,1107445,132,1.0,1979,,,5/14/1991 0:00,C166,C166,,,,Small,"Hydraulic Excavator, Track - 16.0 to 19.0 Metric Tons",Illinois,TEX,Track Excavators,,EROPS,,,,,,,,,,,Standard,,,,,,None or Unspecified,,,,Steel,None or Unspecified,None or Unspecified,None or Unspecified,None or Unspecified,Double,,,,,
8960,1725744,9000,1236314,132,11.0,1000,,,4/28/1994 0:00,C166,C166,,,,Small,"Hydraulic Excavator, Track - 16.0 to 19.0 Metric Tons",Mississippi,TEX,Track Excavators,,EROPS,,,,,,,,,,,Standard,,,,,,None or Unspecified,,,,Steel,None or Unspecified,None or Unspecified,None or Unspecified,None or Unspecified,Double,,,,,
8960,1725745,11000,1197961,132,1.0,1979,,,10/9/1990 0:00,C166,C166,,,,Small,"Hydraulic Excavator, Track - 16.0 to 19.0 Metric Tons",Wisconsin,TEX,Track Excavators,,EROPS,,,,,,,,,,,Standard,,,,,,None or Unspecified,,,,Steel,None or Unspecified,None or Unspecified,None or Unspecified,None or Unspecified,Double,,,,,
8960,1725747,19000,1488760,132,4.0,1979,,,4/21/1989 0:00,C166,C166,,,,Small,"Hydraulic Excavator, Track - 16.0 to 19.0 Metric Tons",Louisiana,TEX,Track Excavators,,EROPS,,,,,,,,,,,Standard,,,,,,None or Unspecified,,,,Steel,None or Unspecified,None or Unspecified,None or Unspecified,None or Unspecified,Triple,,,,,
8960,1725748,20000,1109881,132,4.0,1979,,,4/21/1989 0:00,C166,C166,,,,Small,"Hydraulic Excavator, Track - 16.0 to 19.0 Metric Tons",Louisiana,TEX,Track Excavators,,EROPS,,,,,,,,,,,Standard,,,,,,None or Unspecified,,,,Steel,None or Unspecified,None or Unspecified,None or Unspecified,None or Unspecified,Triple,,,,,
8960,1725757,21500,1120362,132,4.0,1980,,,4/21/1989 0:00,C166,C166,,,,Small,"Hydraulic Excavator, Track - 16.0 to 19.0 Metric Tons",Louisiana,TEX,Track Excavators,,EROPS,,,,,,,,,,,Standard,,,,,,None or Unspecified,,,,Steel,None or Unspecified,None or Unspecified,None or Unspecified,None or Unspecified,Triple,,,,,
8960,1725760,15500,1133469,132,24.0,1980,,,9/7/1989 0:00,C166,C166,,,,Small,"Hydraulic Excavator, Track - 16.0 to 19.0 Metric Tons",Florida,TEX,Track Excavators,,EROPS,,,,,,,,,,,Standard,,,,,,None or Unspecified,,,,Steel,24 inch,None or Unspecified,None or Unspecified,None or Unspecified,Double,,,,,
8960,1725761,17000,1133469,132,4.0,1980,,,2/6/1990 0:00,C166,C166,,,,Small,"Hydraulic Excavator, Track - 16.0 to 19.0 Metric Tons",Florida,TEX,Track Excavators,,EROPS,,,,,,,,,,,Standard,,,,,,None or Unspecified,,,,Steel,24 inch,None or Unspecified,None or Unspecified,None or Unspecified,Double,,,,,
8960,1725781,21000,1379228,132,4.0,1983,,,5/14/1992 0:00,C166,C166,,,,Small,"Hydraulic Excavator, Track - 16.0 to 19.0 Metric Tons",Illinois,TEX,Track Excavators,,EROPS,,,,,,,,,,,Standard,,,,,,None or Unspecified,,,,Steel,24 inch,None or Unspecified,None or Unspecified,None or Unspecified,Double,,,,,
8960,1725783,19000,1519167,132,1.0,1981,,,2/22/1990 0:00,C166,C166,,,,Small,"Hydraulic Excavator, Track - 16.0 to 19.0 Metric Tons",Arizona,TEX,Track Excavators,,EROPS,,,,,,,,,,,Standard,,,,,,None or Unspecified,,,,Steel,None or Unspecified,None or Unspecified,None or Unspecified,None or Unspecified,Double,,,,,
8960,1725785,26000,1348737,132,4.0,1983,,,2/6/1990 0:00,C166,C166,,,,Small,"Hydraulic Excavator, Track - 16.0 to 19.0 Metric Tons",Florida,TEX,Track Excavators,,EROPS,,,,,,,,,,,Standard,,,,,,None or Unspecified,,,,Steel,24 inch,None or Unspecified,None or Unspecified,None or Unspecified,Double,,,,,
8960,1725788,18000,1376577,132,11.0,1000,,,4/28/1994 0:00,C166,C166,,,,Small,"Hydraulic Excavator, Track - 16.0 to 19.0 Metric Tons",Mississippi,TEX,Track Excavators,,EROPS,,,,,,,,,,,Standard,,,,,,None or Unspecified,,,,Steel,None or Unspecified,None or Unspecified,None or Unspecified,None or Unspecified,Double,,,,,
8960,1725789,9500,1322826,132,1.0,1000,,,5/18/2000 0:00,C166,C166,,,,Small,"Hydraulic Excavator, Track - 16.0 to 19.0 Metric Tons",Maine,TEX,Track Excavators,,EROPS,,,,,,,,,,,Standard,,,,,,Manual,,,,Steel,None or Unspecified,None or Unspecified,None or Unspecified,None or Unspecified,Double,,,,,
8960,1725798,20000,1415393,132,4.0,1000,,,2/11/1994 0:00,C166,C166,,,,Small,"Hydraulic Excavator, Track - 16.0 to 19.0 Metric Tons",Florida,TEX,Track Excavators,,EROPS,,,,,,,,,,,Standard,,,,,,None or Unspecified,,,,Steel,32 inch,None or Unspecified,None or Unspecified,None or Unspecified,Triple,,,,,
