ModelID,SalesID,SalePrice,MachineID,datasource,auctioneerID,YearMade,MachineHoursCurrentMeter,UsageBand,saledate,fiModelDesc,fiBaseModel,fiSecondaryDesc,fiModelSeries,fiModelDescriptor,ProductSize,fiProductClassDesc,state,ProductGroup,ProductGroupDesc,Drive_System,Enclosure,Forks,Pad_Type,Ride_Control,Stick,Transmission,Turbocharged,Blade_Extension,Blade_Width,Enclosure_Type,Engine_Horsepower,Hydraulics,Pushblock,Ripper,Scarifier,Tip_Control,Tire_Size,Coupler,Coupler_System,Grouser_Tracks,Hydraulics_Flow,Track_Type,Undercarriage_Pad_Width,Stick_Length,Thumb,Pattern_Changer,Grouser_Type,Backhoe_Mounting,Blade_Type,Travel_Controls,Differential_Type,Steering_Controls
8987,1145755,49000,1004859,121,3.0,1982,0.0,,11/16/2006 0:00,D155,D155,,,,Large,"Track Type Tractor, Dozer - 260.0 + Horsepower",Pennsylvania,TTT,Track Type Tractors,,EROPS,,,,,Powershift,,,,,,2 Valve,,None or Unspecified,,,,,,,,,,,,,,None or Unspecified,None or Unspecified,None or Unspecified,,
8987,1164556,19500,1049588,121,3.0,1000,0.0,,12/14/2006 0:00,D155,D155,,,,Large,"Track Type Tractor, Dozer - 260.0 + Horsepower",Minnesota,TTT,Track Type Tractors,,EROPS w AC,,,,,Standard,,,,,,2 Valve,,None or Unspecified,,,,,,,,,,,,,,None or Unspecified,None or Unspecified,None or Unspecified,,
8987,1729339,11500,1386973,132,6.0,1976,,,5/17/1991 0:00,D155,D155,,,,Large,"Track Type Tractor, Dozer - 260.0 + Horsepower",Missouri,TTT,Track Type Tractors,,EROPS,,,,,,,,,,,2 Valve,,,,,,,,,,,,,,,,,,,,
8987,1729766,25000,1416955,132,1.0,1977,,,9/19/1989 0:00,D155,D155,,,,Large,"Track Type Tractor, Dozer - 260.0 + Horsepower",Washington,TTT,Track Type Tractors,,EROPS,,,,,,,,,,,Auxiliary,,,,,,,,,,,,,,,,,Straight,2 Pedal,,
8987,1730222,15000,1168985,132,4.0,1975,,,9/25/1992 0:00,D155,D155,,,,Large,"Track Type Tractor, Dozer - 260.0 + Horsepower",Ohio,TTT,Track Type Tractors,,EROPS w AC,,,,,,,,,,,Standard,,,,,,,,,,,,,,,,,No,2 Pedal,,
8987,1730374,15000,1461378,132,6.0,1975,,,1/25/1990 0:00,D155,D155,,,,Large,"Track Type Tractor, Dozer - 260.0 + Horsepower",Florida,TTT,Track Type Tractors,,EROPS,,,,,,,,,,,Auxiliary,,,,,,,,,,,,,,,,,Straight,2 Pedal,,
8987,1730908,19000,1515071,132,4.0,1975,,,2/1/1989 0:00,D155,D155,,,,Large,"Track Type Tractor, Dozer - 260.0 + Horsepower",Florida,TTT,Track Type Tractors,,EROPS,,,,,,,,,,,Standard,,,,,,,,,,,,,,,,,Straight,2 Pedal,,
8987,1731203,31000,1495017,132,1.0,1976,,,10/7/1992 0:00,D155,D155,,,,Large,"Track Type Tractor, Dozer - 260.0 + Horsepower",California,TTT,Track Type Tractors,,EROPS,,,,,,,,,,,Standard,,,,,,,,,,,,,,,,,Straight,2 Pedal,,
8987,1731250,14000,153882,132,1.0,1977,,,6/13/1989 0:00,D155,D155,,,,Large,"Track Type Tractor, Dozer - 260.0 + Horsepower",Illinois,TTT,Track Type Tractors,,EROPS,,,,,,,,,,,2 Valve,,,,,,,,,,,,,,,,,,,,
8987,1731267,23000,1423829,132,1.0,1975,,,3/22/1989 0:00,D155,D155,,,,Large,"Track Type Tractor, Dozer - 260.0 + Horsepower",California,TTT,Track Type Tractors,,EROPS w AC,,,,,,,,,,,Standard,,,,,,,,,,,,,,,,,Straight,2 Pedal,,
8987,1731484,12000,1521236,132,1.0,1000,,,4/7/1995 0:00,D155,D155,,,,Large,"Track Type Tractor, Dozer - 260.0 + Horsepower",Minnesota,TTT,Track Type Tractors,,EROPS,,,,,,,,,,,Auxiliary,,,,,,,,,,,,,,,,,Straight,2 Pedal,,
8987,1731651,46000,1538200,132,1.0,1981,,,10/25/1991 0:00,D155,D155,,,,Large,"Track Type Tractor, Dozer - 260.0 + Horsepower",New Jersey,TTT,Track Type Tractors,,EROPS w AC,,,,,Standard,,,,,,2 Valve,,None or Unspecified,,,,,,,,,,,,,,None or Unspecified,PAT,None or Unspecified,,
8987,1731777,12500,1111125,132,24.0,1975,,,3/21/1991 0:00,D155,D155,,,,Large,"Track Type Tractor, Dozer - 260.0 + Horsepower",Georgia,TTT,Track Type Tractors,,EROPS w AC,,,,,,,,,,,2 Valve,,,,,,,,,,,,,,,,,,,,
8987,1731802,12000,1084994,132,24.0,1976,,,4/3/1990 0:00,D155,D155,,,,Large,"Track Type Tractor, Dozer - 260.0 + Horsepower",Tennessee,TTT,Track Type Tractors,,EROPS,,,,,,,,,,,Standard,,,,,,,,,,,,,,,,,Straight,2 Pedal,,
8987,1731969,20000,1346829,132,2.0,1976,,,1/23/1993 0:00,D155,D155,,,,Large,"Track Type Tractor, Dozer - 260.0 + Horsepower",New York,TTT,Track Type Tractors,,OROPS,,,,,Standard,,,,,,2 Valve,,Single Shank,,,,,,,,,,,,,,None or Unspecified,Straight,None or Unspecified,,
8987,1732509,27500,1501116,132,1.0,1000,,,3/19/2003 0:00,D155,D155,,,,Large,"Track Type Tractor, Dozer - 260.0 + Horsepower",Texas,TTT,Track Type Tractors,,OROPS,,,,,Standard,,,,,,2 Valve,,None or Unspecified,,,,,,,,,,,,,,None or Unspecified,Semi U,None or Unspecified,,
8987,1732939,19500,1119700,132,2.0,1976,,,5/15/1993 0:00,D155,D155,,,,Large,"Track Type Tractor, Dozer - 260.0 + Horsepower",New York,TTT,Track Type Tractors,,EROPS,,,,,,,,,,,Standard,,,,,,,,,,,,,,,,,No,2 Pedal,,
8987,1732941,12000,1119700,132,2.0,1976,,,11/7/1992 0:00,D155,D155,,,,Large,"Track Type Tractor, Dozer - 260.0 + Horsepower",New York,TTT,Track Type Tractors,,EROPS,,,,,,,,,,,Standard,,,,,,,,,,,,,,,,,No,2 Pedal,,
8987,1733035,11000,1451654,132,6.0,1977,,,3/26/1991 0:00,D155,D155,,,,Large,"Track Type Tractor, Dozer - 260.0 + Horsepower",Kentucky,TTT,Track Type Tractors,,EROPS,,,,,Standard,,,,,,2 Valve,,Single Shank,,,,,,,,,,,,,,None or Unspecified,Semi U,None or Unspecified,,
8987,1733106,11500,1373476,132,11.0,1977,,,8/25/1993 0:00,D155,D155,,,,Large,"Track Type Tractor, Dozer - 260.0 + Horsepower",Mississippi,TTT,Track Type Tractors,,EROPS,,,,,,,,,,,Standard,,,,,,,,,,,,,,,,,Straight,2 Pedal,,
8987,1733238,26000,1536275,132,1.0,1977,,,12/5/1989 0:00,D155,D155,,,,Large,"Track Type Tractor, Dozer - 260.0 + Horsepower",Tennessee,TTT,Track Type Tractors,,EROPS,,,,,,,,,,,Standard,,,,,,,,,,,,,,,,,Straight,2 Pedal,,
8987,1733239,13000,1536275,132,1.0,1977,,,4/18/1991 0:00,D155,D155,,,,Large,"Track Type Tractor, Dozer - 260.0 + Horsepower",Minnesota,TTT,Track Type Tractors,,EROPS,,,,,,,,,,,Standard,,,,,,,,,,,,,,,,,Straight,2 Pedal,,
8987,1733287,32000,1329914,132,1.0,1977,,,9/19/1989 0:00,D155,D155,,,,Large,"Track Type Tractor, Dozer - 260.0 + Horsepower",Washington,TTT,Track Type Tractors,,OROPS,,,,,Standard,,,,,,2 Valve,,Single Shank,,,,,,,,,,,,,,None or Unspecified,Straight,None or Unspecified,,
8987,1733340,22000,1311351,132,1.0,1977,,,3/21/1989 0:00,D155,D155,,,,Large,"Track Type Tractor, Dozer - 260.0 + Horsepower",Colorado,TTT,Track Type Tractors,,EROPS,,,,,Standard,,,,,,2 Valve,,Single Shank,,,,,,,,,,,,,,None or Unspecified,Straight,None or Unspecified,,
8987,1733343,22000,1549085,132,1.0,1977,,,3/22/1989 0:00,D155,D155,,,,Large,"Track Type Tractor, Dozer - 260.0 + Horsepower",California,TTT,Track Type Tractors,,EROPS,,,,,,,,,,,Standard,,,,,,,,,,,,,,,,,Straight,2 Pedal,,
8987,1733994,17000,1418862,132,1.0,1977,,,3/28/1989 0:00,D155,D155,,,,Large,"Track Type Tractor, Dozer - 260.0 + Horsepower",California,TTT,Track Type Tractors,,EROPS,,,,,,,,,,,Standard,,,,,,,,,,,,,,,,,Straight,2 Pedal,,
8987,1734064,15500,1245715,132,1.0,1978,,,12/2/1993 0:00,D155,D155,,,,Large,"Track Type Tractor, Dozer - 260.0 + Horsepower",Georgia,TTT,Track Type Tractors,,OROPS,,,,,Standard,,,,,,2 Valve,,Single Shank,,,,,,,,,,,,,,None or Unspecified,Straight,None or Unspecified,,
8987,1734092,33000,1134540,132,1.0,1978,,,3/22/1989 0:00,D155,D155,,,,Large,"Track Type Tractor, Dozer - 260.0 + Horsepower",California,TTT,Track Type Tractors,,EROPS,,,,,,,,,,,Standard,,,,,,,,,,,,,,,,,Straight,2 Pedal,,
8987,1734101,23000,1133131,132,18.0,1978,,,5/6/1989 0:00,D155,D155,,,,Large,"Track Type Tractor, Dozer - 260.0 + Horsepower",New York,TTT,Track Type Tractors,,EROPS,,,,,Standard,,,,,,2 Valve,,None or Unspecified,,,,,,,,,,,,,,None or Unspecified,Straight,None or Unspecified,,
8987,1734102,18500,1133131,132,2.0,1978,,,8/28/1993 0:00,D155,D155,,,,Large,"Track Type Tractor, Dozer - 260.0 + Horsepower",Maine,TTT,Track Type Tractors,,EROPS,,,,,Standard,,,,,,2 Valve,,None or Unspecified,,,,,,,,,,,,,,None or Unspecified,Straight,None or Unspecified,,
8987,1734116,14250,1187404,132,6.0,1978,600.0,Low,5/17/1991 0:00,D155,D155,,,,Large,"Track Type Tractor, Dozer - 260.0 + Horsepower",Missouri,TTT,Track Type Tractors,,OROPS,,,,,Standard,,,,,,2 Valve,,None or Unspecified,,,,,,,,,,,,,,None or Unspecified,Semi U,None or Unspecified,,
8987,1734153,29500,1231246,132,2.0,1978,,,9/18/1993 0:00,D155,D155,,,,Large,"Track Type Tractor, Dozer - 260.0 + Horsepower",Pennsylvania,TTT,Track Type Tractors,,EROPS,,,,,,,,,,,Standard,,,,,,,,,,,,,,,,,Straight,2 Pedal,,
8987,1734154,16000,1379500,132,2.0,1978,,,9/12/1992 0:00,D155,D155,,,,Large,"Track Type Tractor, Dozer - 260.0 + Horsepower",Kentucky,TTT,Track Type Tractors,,OROPS,,,,,Standard,,,,,,2 Valve,,None or Unspecified,,,,,,,,,,,,,,None or Unspecified,Straight,None or Unspecified,,
8987,1734155,22500,1379500,132,4.0,1978,,,2/1/1993 0:00,D155,D155,,,,Large,"Track Type Tractor, Dozer - 260.0 + Horsepower",Florida,TTT,Track Type Tractors,,OROPS,,,,,Standard,,,,,,2 Valve,,None or Unspecified,,,,,,,,,,,,,,None or Unspecified,Straight,None or Unspecified,,
8987,1734160,33000,1510710,132,4.0,1979,500.0,Low,2/1/1989 0:00,D155,D155,,,,Large,"Track Type Tractor, Dozer - 260.0 + Horsepower",Florida,TTT,Track Type Tractors,,EROPS,,,,,,,,,,,Standard,,,,,,,,,,,,,,,,,Straight,2 Pedal,,
8987,1734263,17750,1276892,132,24.0,1978,,,4/3/1990 0:00,D155,D155,,,,Large,"Track Type Tractor, Dozer - 260.0 + Horsepower",Tennessee,TTT,Track Type Tractors,,EROPS,,,,,,,,,,,Standard,,,,,,,,,,,,,,,,,Straight,2 Pedal,,
8987,1734296,22500,1496017,132,6.0,1978,,,10/31/1990 0:00,D155,D155,,,,Large,"Track Type Tractor, Dozer - 260.0 + Horsepower",Alabama,TTT,Track Type Tractors,,OROPS,,,,,Standard,,,,,,2 Valve,,Multi Shank,,,,,,,,,,,,,,None or Unspecified,Straight,None or Unspecified,,
8987,1734311,25000,1259524,132,1.0,1978,,,4/25/1989 0:00,D155,D155,,,,Large,"Track Type Tractor, Dozer - 260.0 + Horsepower",Tennessee,TTT,Track Type Tractors,,EROPS w AC,,,,,,,,,,,Standard,,,,,,,,,,,,,,,,,Straight,2 Pedal,,
8987,1734374,8500,1287374,132,10.0,1978,,,4/30/1992 0:00,D155,D155,,,,Large,"Track Type Tractor, Dozer - 260.0 + Horsepower",Maine,TTT,Track Type Tractors,,EROPS,,,,,,,,,,,Standard,,,,,,,,,,,,,,,,,Straight,2 Pedal,,
8987,1734405,12500,1190222,132,24.0,1978,,,6/20/1991 0:00,D155,D155,,,,Large,"Track Type Tractor, Dozer - 260.0 + Horsepower",Georgia,TTT,Track Type Tractors,,EROPS,,,,,,,,,,,Standard,,,,,,,,,,,,,,,,,Straight,2 Pedal,,
8987,1734460,19400,1474519,132,18.0,1978,,,11/16/1989 0:00,D155,D155,,,,Large,"Track Type Tractor, Dozer - 260.0 + Horsepower",Pennsylvania,TTT,Track Type Tractors,,EROPS,,,,,Powershift,,,,,,2 Valve,,Single Shank,,,,,,,,,,,,,,None or Unspecified,U,None or Unspecified,,
8987,1734462,30000,1160612,132,4.0,1978,,,2/1/1989 0:00,D155,D155,,,,Large,"Track Type Tractor, Dozer - 260.0 + Horsepower",Florida,TTT,Track Type Tractors,,EROPS,,,,,,,,,,,Standard,,,,,,,,,,,,,,,,,Straight,2 Pedal,,
8987,1734466,9000,1412586,132,11.0,1978,,,5/26/1999 0:00,D155,D155,,,,Large,"Track Type Tractor, Dozer - 260.0 + Horsepower",Mississippi,TTT,Track Type Tractors,,OROPS,,,,,Standard,,,,,,2 Valve,,None or Unspecified,,,,,,,,,,,,,,None or Unspecified,Straight,None or Unspecified,,
8987,1734496,14500,1101711,132,18.0,1978,,,7/26/1990 0:00,D155,D155,,,,Large,"Track Type Tractor, Dozer - 260.0 + Horsepower",Maryland,TTT,Track Type Tractors,,OROPS,,,,,Powershift,,,,,,3 Valve,,Single Shank,,,,,,,,,,,,,,None or Unspecified,Semi U,None or Unspecified,,
8987,1734497,25000,1529343,132,1.0,1978,,,4/25/1989 0:00,D155,D155,,,,Large,"Track Type Tractor, Dozer - 260.0 + Horsepower",Tennessee,TTT,Track Type Tractors,,OROPS,,,,,Standard,,,,,,2 Valve,,Single Shank,,,,,,,,,,,,,,None or Unspecified,Straight,None or Unspecified,,
8987,1734499,16500,1111952,132,4.0,1978,,,11/15/1990 0:00,D155,D155,,,,Large,"Track Type Tractor, Dozer - 260.0 + Horsepower",Ohio,TTT,Track Type Tractors,,EROPS,,,,,Standard,,,,,,2 Valve,,None or Unspecified,,,,,,,,,,,,,,None or Unspecified,U,None or Unspecified,,
8987,1734545,22000,1353376,132,4.0,1978,,,2/1/1993 0:00,D155,D155,,,,Large,"Track Type Tractor, Dozer - 260.0 + Horsepower",Florida,TTT,Track Type Tractors,,EROPS,,,,,Standard,,,,,,2 Valve,,Multi Shank,,,,,,,,,,,,,,None or Unspecified,Angle,None or Unspecified,,
8987,1734607,26000,1465204,132,1.0,1977,,,3/26/1992 0:00,D155,D155,,,,Large,"Track Type Tractor, Dozer - 260.0 + Horsepower",Florida,TTT,Track Type Tractors,,OROPS,,,,,Standard,,,,,,2 Valve,,Single Shank,,,,,,,,,,,,,,None or Unspecified,Straight,None or Unspecified,,
8987,1734609,16500,1112848,132,6.0,1978,,,11/12/1991 0:00,D155,D155,,,,Large,"Track Type Tractor, Dozer - 260.0 + Horsepower",Virginia,TTT,Track Type Tractors,,EROPS w AC,,,,,Standard,,,,,,2 Valve,,None or Unspecified,,,,,,,,,,,,,,None or Unspecified,U,None or Unspecified,,
8987,1734738,27500,1056792,132,24.0,1975,,,3/24/1992 0:00,D155,D155,,,,Large,"Track Type Tractor, Dozer - 260.0 + Horsepower",Georgia,TTT,Track Type Tractors,,EROPS,,,,,,,,,,,Standard,,,,,,,,,,,,,,,,,No,2 Pedal,,
8987,1734776,22000,1224423,132,6.0,1978,,,7/24/1989 0:00,D155,D155,,,,Large,"Track Type Tractor, Dozer - 260.0 + Horsepower",Colorado,TTT,Track Type Tractors,,OROPS,,,,,Standard,,,,,,2 Valve,,Multi Shank,,,,,,,,,,,,,,None or Unspecified,U,None or Unspecified,,
8987,1734777,30500,1138979,132,4.0,1978,,,2/1/1989 0:00,D155,D155,,,,Large,"Track Type Tractor, Dozer - 260.0 + Horsepower",Florida,TTT,Track Type Tractors,,OROPS,,,,,Powershift,,,,,,2 Valve,,None or Unspecified,,,,,,,,,,,,,,None or Unspecified,Straight,None or Unspecified,,
8987,1734782,30000,1305255,132,1.0,1978,,,5/16/1989 0:00,D155,D155,,,,Large,"Track Type Tractor, Dozer - 260.0 + Horsepower",Wyoming,TTT,Track Type Tractors,,EROPS,,,,,Standard,,,,,,2 Valve,,Single Shank,,,,,,,,,,,,,,None or Unspecified,Straight,None or Unspecified,,
8987,1734807,10500,1239081,132,6.0,1978,,,12/10/1990 0:00,D155,D155,,,,Large,"Track Type Tractor, Dozer - 260.0 + Horsepower",Kentucky,TTT,Track Type Tractors,,OROPS,,,,,Standard,,,,,,2 Valve,,None or Unspecified,,,,,,,,,,,,,,None or Unspecified,U,None or Unspecified,,
8987,1734867,14000,1134635,132,6.0,1979,,,6/24/1993 0:00,D155,D155,,,,Large,"Track Type Tractor, Dozer - 260.0 + Horsepower",Maryland,TTT,Track Type Tractors,,EROPS,,,,,Standard,,,,,,2 Valve,,None or Unspecified,,,,,,,,,,,,,,None or Unspecified,Straight,None or Unspecified,,
8987,1734882,36000,1253154,132,6.0,1978,,,7/24/1989 0:00,D155,D155,,,,Large,"Track Type Tractor, Dozer - 260.0 + Horsepower",Colorado,TTT,Track Type Tractors,,OROPS,,,,,Standard,,,,,,2 Valve,,None or Unspecified,,,,,,,,,,,,,,None or Unspecified,None or Unspecified,None or Unspecified,,
8987,1734951,19000,1437981,132,1.0,1979,,,11/10/1993 0:00,D155,D155,,,,Large,"Track Type Tractor, Dozer - 260.0 + Horsepower",Montana,TTT,Track Type Tractors,,EROPS,,,,,Standard,,,,,,2 Valve,,Multi Shank,,,,,,,,,,,,,,None or Unspecified,Straight,None or Unspecified,,
8987,1734957,24000,1407864,132,23.0,1981,,,10/8/1994 0:00,D155,D155,,,,Large,"Track Type Tractor, Dozer - 260.0 + Horsepower",New Jersey,TTT,Track Type Tractors,,EROPS,,,,,Standard,,,,,,2 Valve,,Single Shank,,,,,,,,,,,,,,None or Unspecified,Straight,None or Unspecified,,
8987,1734958,10750,1407864,132,6.0,1979,,,12/10/1990 0:00,D155,D155,,,,Large,"Track Type Tractor, Dozer - 260.0 + Horsepower",Kentucky,TTT,Track Type Tractors,,EROPS,,,,,Standard,,,,,,2 Valve,,Single Shank,,,,,,,,,,,,,,None or Unspecified,Straight,None or Unspecified,,
8987,1734959,17500,1407864,132,24.0,1978,,,3/13/1990 0:00,D155,D155,,,,Large,"Track Type Tractor, Dozer - 260.0 + Horsepower",Georgia,TTT,Track Type Tractors,,EROPS,,,,,Standard,,,,,,2 Valve,,Single Shank,,,,,,,,,,,,,,None or Unspecified,Straight,None or Unspecified,,
8987,1734961,16500,1407864,132,24.0,1978,,,11/7/1989 0:00,D155,D155,,,,Large,"Track Type Tractor, Dozer - 260.0 + Horsepower",Georgia,TTT,Track Type Tractors,,EROPS,,,,,Standard,,,,,,2 Valve,,Single Shank,,,,,,,,,,,,,,None or Unspecified,Straight,None or Unspecified,,
8987,1735149,24500,1243095,132,4.0,1981,,,2/5/1991 0:00,D155,D155,,,,Large,"Track Type Tractor, Dozer - 260.0 + Horsepower",Florida,TTT,Track Type Tractors,,OROPS,,,,,Standard,,,,,,2 Valve,,None or Unspecified,,,,,,,,,,,,,,None or Unspecified,Straight,None or Unspecified,,
8987,1735152,19000,1101423,132,6.0,1979,,,12/10/1990 0:00,D155,D155,,,,Large,"Track Type Tractor, Dozer - 260.0 + Horsepower",Kentucky,TTT,Track Type Tractors,,EROPS,,,,,Standard,,,,,,2 Valve,,None or Unspecified,,,,,,,,,,,,,,None or Unspecified,Semi U,None or Unspecified,,
8987,1735185,18000,1428175,132,1.0,1979,,,6/28/1990 0:00,D155,D155,,,,Large,"Track Type Tractor, Dozer - 260.0 + Horsepower",Colorado,TTT,Track Type Tractors,,EROPS,,,,,Standard,,,,,,2 Valve,,Single Shank,,,,,,,,,,,,,,None or Unspecified,Straight,None or Unspecified,,
8987,1735221,29000,368265,132,1.0,1979,,,9/14/1993 0:00,D155,D155,,,,Large,"Track Type Tractor, Dozer - 260.0 + Horsepower",Arizona,TTT,Track Type Tractors,,OROPS,,,,,Standard,,,,,,2 Valve,,Multi Shank,,,,,,,,,,,,,,None or Unspecified,Straight,None or Unspecified,,
8987,1735239,24000,1258306,132,1.0,1979,,,6/16/1992 0:00,D155,D155,,,,Large,"Track Type Tractor, Dozer - 260.0 + Horsepower",Washington,TTT,Track Type Tractors,,OROPS,,,,,Standard,,,,,,2 Valve,,Multi Shank,,,,,,,,,,,,,,None or Unspecified,U,None or Unspecified,,
8987,1735247,36000,1346295,132,1.0,1979,,,6/24/1993 0:00,D155,D155,,,,Large,"Track Type Tractor, Dozer - 260.0 + Horsepower",Colorado,TTT,Track Type Tractors,,OROPS,,,,,Standard,,,,,,2 Valve,,Single Shank,,,,,,,,,,,,,,None or Unspecified,Straight,None or Unspecified,,
8987,1735250,18250,1287029,132,6.0,1979,,,12/15/1992 0:00,D155,D155,,,,Large,"Track Type Tractor, Dozer - 260.0 + Horsepower",Kentucky,TTT,Track Type Tractors,,EROPS w AC,,,,,Standard,,,,,,2 Valve,,None or Unspecified,,,,,,,,,,,,,,None or Unspecified,Straight,None or Unspecified,,
8987,1736988,30000,1358711,132,4.0,1981,,,2/1/1993 0:00,D155,D155,,,,Large,"Track Type Tractor, Dozer - 260.0 + Horsepower",Florida,TTT,Track Type Tractors,,EROPS,,,,,,,,,,,Auxiliary,,,,,,,,,,,,,,,,,No,2 Pedal,,
8987,1737150,28500,1161005,132,4.0,1982,,,2/5/1991 0:00,D155,D155,,,,Large,"Track Type Tractor, Dozer - 260.0 + Horsepower",Florida,TTT,Track Type Tractors,,EROPS,,,,,,,,,,,Standard,,,,,,,,,,,,,,,,,Straight,2 Pedal,,
8987,1737156,23000,1153729,132,23.0,1000,,,9/30/1995 0:00,D155,D155,,,,Large,"Track Type Tractor, Dozer - 260.0 + Horsepower",New Jersey,TTT,Track Type Tractors,,EROPS,,,,,Powershift,,,,,,3 Valve,,Single Shank,,,,,,,,,,,,,,None or Unspecified,Straight,None or Unspecified,,
8987,1737362,25000,1277546,132,4.0,1982,2509.0,High,6/2/1990 0:00,D155,D155,,,,Large,"Track Type Tractor, Dozer - 260.0 + Horsepower",Maine,TTT,Track Type Tractors,,EROPS w AC,,,,,,,,,,,Standard,,,,,,,,,,,,,,,,,Straight,2 Pedal,,
8987,1739788,27000,1341896,132,2.0,1984,,,1/23/1993 0:00,D155,D155,,,,Large,"Track Type Tractor, Dozer - 260.0 + Horsepower",New York,TTT,Track Type Tractors,,EROPS,,,,,,,,,,,Standard,,,,,,,,,,,,,,,,,Straight,2 Pedal,,
8987,1740138,40000,1118579,132,1.0,1984,,,6/16/1992 0:00,D155,D155,,,,Large,"Track Type Tractor, Dozer - 260.0 + Horsepower",Washington,TTT,Track Type Tractors,,EROPS,,,,,Standard,,,,,,2 Valve,,Multi Shank,,,,,,,,,,,,,,None or Unspecified,U,None or Unspecified,,
8987,1740139,57500,1118579,132,1.0,1984,,,3/27/1990 0:00,D155,D155,,,,Large,"Track Type Tractor, Dozer - 260.0 + Horsepower",Colorado,TTT,Track Type Tractors,,EROPS,,,,,Standard,,,,,,2 Valve,,Multi Shank,,,,,,,,,,,,,,None or Unspecified,U,None or Unspecified,,
8987,1740233,50000,1399551,132,1.0,1984,,,3/21/1991 0:00,D155,D155,,,,Large,"Track Type Tractor, Dozer - 260.0 + Horsepower",Colorado,TTT,Track Type Tractors,,EROPS,,,,,Standard,,,,,,2 Valve,,Multi Shank,,,,,,,,,,,,,,None or Unspecified,U,None or Unspecified,,
8987,1740246,37000,280451,132,1.0,1000,,,7/16/1996 0:00,D155,D155,,,,Large,"Track Type Tractor, Dozer - 260.0 + Horsepower",Minnesota,TTT,Track Type Tractors,,EROPS w AC,,,,,Standard,,,,,,2 Valve,,None or Unspecified,,,,,,,,,,,,,,None or Unspecified,PAT,None or Unspecified,,
8987,1740319,63000,1140905,132,1.0,1984,,,4/23/1990 0:00,D155,D155,,,,Large,"Track Type Tractor, Dozer - 260.0 + Horsepower",Connecticut,TTT,Track Type Tractors,,EROPS,,,,,,,,,,,Standard,,,,,,,,,,,,,,,,,Straight,2 Pedal,,
8987,1740380,34000,1328925,132,6.0,1984,,,12/11/1989 0:00,D155,D155,,,,Large,"Track Type Tractor, Dozer - 260.0 + Horsepower",Kentucky,TTT,Track Type Tractors,,EROPS,,,,,Standard,,,,,,2 Valve,,Single Shank,,,,,,,,,,,,,,None or Unspecified,Semi U,None or Unspecified,,
8987,1740394,49000,1285334,132,1.0,1984,,,12/13/1993 0:00,D155,D155,,,,Large,"Track Type Tractor, Dozer - 260.0 + Horsepower",Kentucky,TTT,Track Type Tractors,,OROPS,,,,,Standard,,,,,,2 Valve,,None or Unspecified,,,,,,,,,,,,,,None or Unspecified,Straight,None or Unspecified,,
8987,1740430,37000,1390873,132,2.0,1984,,,3/12/1993 0:00,D155,D155,,,,Large,"Track Type Tractor, Dozer - 260.0 + Horsepower",New Jersey,TTT,Track Type Tractors,,EROPS,,,,,Standard,,,,,,2 Valve,,Multi Shank,,,,,,,,,,,,,,None or Unspecified,Angle,None or Unspecified,,
8987,1740433,40000,1255147,132,1.0,1984,,,6/16/1992 0:00,D155,D155,,,,Large,"Track Type Tractor, Dozer - 260.0 + Horsepower",Washington,TTT,Track Type Tractors,,OROPS,,,,,Standard,,,,,,2 Valve,,Multi Shank,,,,,,,,,,,,,,None or Unspecified,U,None or Unspecified,,
8987,1740440,62000,1358533,132,1.0,1984,,,9/30/1993 0:00,D155,D155,,,,Large,"Track Type Tractor, Dozer - 260.0 + Horsepower",Maryland,TTT,Track Type Tractors,,OROPS,,,,,Standard,,,,,,2 Valve,,Single Shank,,,,,,,,,,,,,,None or Unspecified,Semi U,None or Unspecified,,
8987,1740449,45000,1502733,132,1.0,1985,,,6/17/1993 0:00,D155,D155,,,,Large,"Track Type Tractor, Dozer - 260.0 + Horsepower",Washington,TTT,Track Type Tractors,,OROPS,,,,,Standard,,,,,,2 Valve,,None or Unspecified,,,,,,,,,,,,,,None or Unspecified,Straight,None or Unspecified,,
8987,1740455,37000,1172189,132,2.0,1984,,,3/12/1993 0:00,D155,D155,,,,Large,"Track Type Tractor, Dozer - 260.0 + Horsepower",New Jersey,TTT,Track Type Tractors,,OROPS,,,,,Standard,,,,,,2 Valve,,None or Unspecified,,,,,,,,,,,,,,None or Unspecified,Angle,None or Unspecified,,
8987,1740466,49000,1372430,132,1.0,1985,,,4/16/1991 0:00,D155,D155,,,,Large,"Track Type Tractor, Dozer - 260.0 + Horsepower",Tennessee,TTT,Track Type Tractors,,EROPS,,,,,,,,,,,Standard,,,,,,,,,,,,,,,,,Straight,2 Pedal,,
8987,1740468,62000,1427743,132,1.0,1985,,,4/16/1991 0:00,D155,D155,,,,Large,"Track Type Tractor, Dozer - 260.0 + Horsepower",Tennessee,TTT,Track Type Tractors,,OROPS,,,,,Standard,,,,,,2 Valve,,None or Unspecified,,,,,,,,,,,,,,None or Unspecified,Straight,None or Unspecified,,
8987,1740522,65000,1122640,132,1.0,1985,,,3/27/1990 0:00,D155,D155,,,,Large,"Track Type Tractor, Dozer - 260.0 + Horsepower",Colorado,TTT,Track Type Tractors,,EROPS,,,,,Standard,,,,,,2 Valve,,Multi Shank,,,,,,,,,,,,,,None or Unspecified,Straight,None or Unspecified,,
8987,1740806,26500,1219215,132,23.0,1000,,,9/30/1995 0:00,D155,D155,,,,Large,"Track Type Tractor, Dozer - 260.0 + Horsepower",New Jersey,TTT,Track Type Tractors,,EROPS,,,,,Powershift,,,,,,2 Valve,,None or Unspecified,,,,,,,,,,,,,,None or Unspecified,None or Unspecified,None or Unspecified,,
8987,1740849,102500,1483341,132,24.0,1986,,,3/13/1990 0:00,D155,D155,,,,Large,"Track Type Tractor, Dozer - 260.0 + Horsepower",Georgia,TTT,Track Type Tractors,,OROPS,,,,,Standard,,,,,,2 Valve,,Single Shank,,,,,,,,,,,,,,None or Unspecified,Straight,None or Unspecified,,
8987,1740990,77500,1145911,132,1.0,1987,,,10/30/1990 0:00,D155,D155,,,,Large,"Track Type Tractor, Dozer - 260.0 + Horsepower",Maryland,TTT,Track Type Tractors,,OROPS,,,,,Standard,,,,,,2 Valve,,Multi Shank,,,,,,,,,,,,,,None or Unspecified,Straight,None or Unspecified,,
8987,1741078,77500,1399186,132,1.0,1987,,,10/30/1990 0:00,D155,D155,,,,Large,"Track Type Tractor, Dozer - 260.0 + Horsepower",Maryland,TTT,Track Type Tractors,,OROPS,,,,,Standard,,,,,,2 Valve,,None or Unspecified,,,,,,,,,,,,,,None or Unspecified,Straight,None or Unspecified,,
8987,1741561,74000,1110147,132,2.0,1989,,,11/5/1994 0:00,D155,D155,,,,Large,"Track Type Tractor, Dozer - 260.0 + Horsepower",Wisconsin,TTT,Track Type Tractors,,EROPS w AC,,,,,,,,,,,Standard,,,,,,,,,,,,,,,,,Straight,2 Pedal,,
8987,1754877,16000,1397145,132,4.0,1978,,,2/1/1989 0:00,D155,D155,,,,Large,"Track Type Tractor, Dozer - 260.0 + Horsepower",Florida,TTT,Track Type Tractors,,OROPS,,,,,Standard,,,,,,2 Valve,,None or Unspecified,,,,,,,,,,,,,,None or Unspecified,Angle,None or Unspecified,,
8987,1760526,15000,1538990,132,1.0,1973,,,5/23/1989 0:00,D155,D155,,,,Large,"Track Type Tractor, Dozer - 260.0 + Horsepower",Minnesota,TTT,Track Type Tractors,,OROPS,,,,,Standard,,,,,,2 Valve,,None or Unspecified,,,,,,,,,,,,,,None or Unspecified,Straight,None or Unspecified,,
8987,1760673,10500,1441170,132,4.0,1000,,,2/11/2002 0:00,D155,D155,,,,Large,"Track Type Tractor, Dozer - 260.0 + Horsepower",Florida,TTT,Track Type Tractors,,EROPS,,,,,,,,,,,Standard,,,,,,,,,,,,,,,,,Straight,2 Pedal,,
8987,1761245,28000,648698,132,1.0,1000,,,6/16/1998 0:00,D155,D155,,,,Large,"Track Type Tractor, Dozer - 260.0 + Horsepower",Washington,TTT,Track Type Tractors,,OROPS,,,,,Standard,,,,,,2 Valve,,Multi Shank,,,,,,,,,,,,,,None or Unspecified,U,None or Unspecified,,
8987,1761394,9500,1246477,132,2.0,1000,,,10/4/2003 0:00,D155,D155,,,,Large,"Track Type Tractor, Dozer - 260.0 + Horsepower",Pennsylvania,TTT,Track Type Tractors,,EROPS,,,,,,,,,,,Standard,,,,,,,,,,,,,,,,,Straight,2 Pedal,,
8987,1761509,9000,859554,132,2.0,1000,,,5/20/1995 0:00,D155,D155,,,,Large,"Track Type Tractor, Dozer - 260.0 + Horsepower",New Hampshire,TTT,Track Type Tractors,,OROPS,,,,,Standard,,,,,,2 Valve,,None or Unspecified,,,,,,,,,,,,,,None or Unspecified,None or Unspecified,None or Unspecified,,
