ModelID,SalesID,SalePrice,MachineID,datasource,auctioneerID,YearMade,MachineHoursCurrentMeter,UsageBand,saledate,fiModelDesc,fiBaseModel,fiSecondaryDesc,fiModelSeries,fiModelDescriptor,ProductSize,fiProductClassDesc,state,ProductGroup,ProductGroupDesc,Drive_System,Enclosure,Forks,Pad_Type,Ride_Control,Stick,Transmission,Turbocharged,Blade_Extension,Blade_Width,Enclosure_Type,Engine_Horsepower,Hydraulics,Pushblock,Ripper,Scarifier,Tip_Control,Tire_Size,Coupler,Coupler_System,Grouser_Tracks,Hydraulics_Flow,Track_Type,Undercarriage_Pad_Width,Stick_Length,Thumb,Pattern_Changer,Grouser_Type,Backhoe_Mounting,Blade_Type,Travel_Controls,Differential_Type,Steering_Controls
90,1140492,72000,980380,121,3.0,1994,24827.0,High,10/18/2007 0:00,980FII,980,F,II,,Medium,Wheel Loader - 275.0 to 350.0 Horsepower,Utah,WL,Wheel Loader,,EROPS w AC,None or Unspecified,,Yes,,,,,,,,2 Valve,,,,,29.5,None or Unspecified,,,,,,,,,,,,,Standard,Conventional
90,1161451,94000,988894,121,3.0,1995,17067.0,Medium,7/13/2006 0:00,980FII,980,F,II,,Medium,Wheel Loader - 275.0 to 350.0 Horsepower,Utah,WL,Wheel Loader,,EROPS w AC,None or Unspecified,,Yes,,,,,,,,2 Valve,,,,,29.5,None or Unspecified,,,,,,,,,,,,,Standard,Conventional
90,1163704,72000,1028764,121,3.0,1000,19163.0,Medium,6/9/2011 0:00,980FII,980,F,II,,Medium,Wheel Loader - 275.0 to 350.0 Horsepower,Missouri,WL,Wheel Loader,,EROPS w AC,None or Unspecified,,Yes,,,,,,,,2 Valve,,,,,None or Unspecified,None or Unspecified,,,,,,,,,,,,,Standard,Conventional
90,1171558,45000,163103,121,3.0,1000,0.0,,11/18/2010 0:00,980FII,980,F,II,,Medium,Wheel Loader - 275.0 to 350.0 Horsepower,Georgia,WL,Wheel Loader,,EROPS w AC,None or Unspecified,,None or Unspecified,,,,,,,,2 Valve,,,,,29.5,None or Unspecified,,,,,,,,,,,,,Standard,Conventional
90,1177571,75000,362708,121,3.0,1995,15220.0,Medium,3/12/2008 0:00,980FII,980,F,II,,Medium,Wheel Loader - 275.0 to 350.0 Horsepower,Arizona,WL,Wheel Loader,,EROPS w AC,None or Unspecified,,None or Unspecified,,,,,,,,2 Valve,,,,,None or Unspecified,None or Unspecified,,,,,,,,,,,,,Standard,Conventional
90,1187304,33000,1015786,121,3.0,1995,17360.0,Medium,2/19/2009 0:00,980FII,980,F,II,,Medium,Wheel Loader - 275.0 to 350.0 Horsepower,Arizona,WL,Wheel Loader,,EROPS w AC,None or Unspecified,,None or Unspecified,,,,,,,,2 Valve,,,,,29.5,None or Unspecified,,,,,,,,,,,,,Standard,Conventional
90,1187305,53000,1044541,121,3.0,1995,36311.0,High,2/19/2009 0:00,980FII,980,F,II,,Medium,Wheel Loader - 275.0 to 350.0 Horsepower,Arizona,WL,Wheel Loader,,EROPS w AC,None or Unspecified,,None or Unspecified,,,,,,,,2 Valve,,,,,None or Unspecified,None or Unspecified,,,,,,,,,,,,,Standard,Conventional
90,1187307,46000,1014625,121,3.0,1996,46127.0,High,2/19/2009 0:00,980FII,980,F,II,,Medium,Wheel Loader - 275.0 to 350.0 Horsepower,Arizona,WL,Wheel Loader,,EROPS w AC,None or Unspecified,,None or Unspecified,,,,,,,,2 Valve,,,,,None or Unspecified,None or Unspecified,,,,,,,,,,,,,Standard,Conventional
90,1187314,51000,135134,121,3.0,1995,24.0,Low,2/5/2009 0:00,980FII,980,F,II,,Medium,Wheel Loader - 275.0 to 350.0 Horsepower,South Carolina,WL,Wheel Loader,,EROPS w AC,None or Unspecified,,None or Unspecified,,,,,,,,2 Valve,,,,,29.5,None or Unspecified,,,,,,,,,,,,,Standard,Conventional
90,1190950,73000,1057269,121,3.0,1995,305.0,Low,5/14/2009 0:00,980FII,980,F,II,,Medium,Wheel Loader - 275.0 to 350.0 Horsepower,Florida,WL,Wheel Loader,,EROPS w AC,None or Unspecified,,None or Unspecified,,,,,,,,2 Valve,,,,,29.5,None or Unspecified,,,,,,,,,,,,,Standard,Conventional
90,1193678,45000,1043329,121,3.0,1994,17992.0,Medium,10/13/2009 0:00,980FII,980,F,II,,Medium,Wheel Loader - 275.0 to 350.0 Horsepower,Oregon,WL,Wheel Loader,,EROPS w AC,None or Unspecified,,None or Unspecified,,,,,,,,2 Valve,,,,,None or Unspecified,None or Unspecified,,,,,,,,,,,,,Standard,Conventional
90,1207658,61000,828132,121,3.0,1000,889.0,Low,10/7/2010 0:00,980FII,980,F,II,,Medium,Wheel Loader - 275.0 to 350.0 Horsepower,New Hampshire,WL,Wheel Loader,,EROPS w AC,None or Unspecified,,Yes,,,,,,,,2 Valve,,,,,29.5,None or Unspecified,,,,,,,,,,,,,Standard,Conventional
90,1208299,62000,1023539,121,3.0,1000,41750.0,High,10/28/2010 0:00,980FII,980,F,II,,Medium,Wheel Loader - 275.0 to 350.0 Horsepower,Arizona,WL,Wheel Loader,,EROPS w AC,None or Unspecified,,None or Unspecified,,,,,,,,2 Valve,,,,,29.5,None or Unspecified,,,,,,,,,,,,,Standard,Conventional
90,1221444,71000,99653,121,3.0,1000,27404.0,Medium,12/1/2011 0:00,980FII,980,F,II,,Medium,Wheel Loader - 275.0 to 350.0 Horsepower,Pennsylvania,WL,Wheel Loader,,EROPS w AC,None or Unspecified,,None or Unspecified,,,,,,,,2 Valve,,,,,29.5,None or Unspecified,,,,,,,,,,,,,Standard,Conventional
90,1381337,90000,1466616,132,1.0,1995,,,6/3/2005 0:00,980FII,980,F,II,,Medium,Wheel Loader - 275.0 to 350.0 Horsepower,Nevada,WL,Wheel Loader,,EROPS w AC,None or Unspecified,,None or Unspecified,,,,,,,,2 Valve,,,,,29.5,None or Unspecified,,,,,,,,,,,,,Standard,Conventional
90,1381339,47000,1160742,132,4.0,1995,,,10/30/2004 0:00,980FII,980,F,II,,Medium,Wheel Loader - 275.0 to 350.0 Horsepower,Pennsylvania,WL,Wheel Loader,,OROPS,None or Unspecified,,None or Unspecified,,,,,,,,2 Valve,,,,,None or Unspecified,None or Unspecified,,,,,,,,,,,,,Standard,Conventional
90,1381362,60000,338539,132,1.0,1996,,,4/30/2002 0:00,980FII,980,F,II,,Medium,Wheel Loader - 275.0 to 350.0 Horsepower,Pennsylvania,WL,Wheel Loader,,EROPS w AC,None or Unspecified,,None or Unspecified,,,,,,,,2 Valve,,,,,None or Unspecified,None or Unspecified,,,,,,,,,,,,,Standard,Conventional
90,1489010,85000,861179,132,5.0,1994,,,6/16/2006 0:00,980FII,980,F,II,,Medium,Wheel Loader - 275.0 to 350.0 Horsepower,Connecticut,WL,Wheel Loader,,EROPS,None or Unspecified,,None or Unspecified,,,,,,,,2 Valve,,,,,23.5,None or Unspecified,,,,,,,,,,,,,Standard,Conventional
90,1489012,77000,93561,132,1.0,1994,,,4/4/2002 0:00,980FII,980,F,II,,Medium,Wheel Loader - 275.0 to 350.0 Horsepower,Colorado,WL,Wheel Loader,,EROPS w AC,None or Unspecified,,None or Unspecified,,,,,,,,2 Valve,,,,,29.5,None or Unspecified,,,,,,,,,,,,,Standard,Conventional
90,1489013,102500,1102440,132,1.0,1994,,,3/14/2001 0:00,980FII,980,F,II,,Medium,Wheel Loader - 275.0 to 350.0 Horsepower,Illinois,WL,Wheel Loader,,EROPS w AC,None or Unspecified,,None or Unspecified,,,,,,,,2 Valve,,,,,29.5,None or Unspecified,,,,,,,,,,,,,Standard,Conventional
90,1489016,80000,464035,132,1.0,1994,,,9/29/2005 0:00,980FII,980,F,II,,Medium,Wheel Loader - 275.0 to 350.0 Horsepower,Texas,WL,Wheel Loader,,EROPS w AC,None or Unspecified,,None or Unspecified,,,,,,,,2 Valve,,,,,29.5,None or Unspecified,,,,,,,,,,,,,Standard,Conventional
90,1489021,72500,142097,132,7.0,1995,,,5/31/2006 0:00,980FII,980,F,II,,Medium,Wheel Loader - 275.0 to 350.0 Horsepower,Alabama,WL,Wheel Loader,,EROPS w AC,None or Unspecified,,None or Unspecified,,,,,,,,2 Valve,,,,,29.5,None or Unspecified,,,,,,,,,,,,,Standard,Conventional
90,1489023,70000,488482,132,8.0,1995,,,11/19/2003 0:00,980FII,980,F,II,,Medium,Wheel Loader - 275.0 to 350.0 Horsepower,Mississippi,WL,Wheel Loader,,EROPS w AC,None or Unspecified,,None or Unspecified,,,,,,,,2 Valve,,,,,26.5,None or Unspecified,,,,,,,,,,,,,Standard,Conventional
90,1489025,80000,789358,132,1.0,1995,,,2/15/2005 0:00,980FII,980,F,II,,Medium,Wheel Loader - 275.0 to 350.0 Horsepower,Florida,WL,Wheel Loader,,EROPS w AC,None or Unspecified,,None or Unspecified,,,,,,,,2 Valve,,,,,29.5,None or Unspecified,,,,,,,,,,,,,Standard,Conventional
90,1489031,100000,188973,132,1.0,1995,,,7/28/2006 0:00,980FII,980,F,II,,Medium,Wheel Loader - 275.0 to 350.0 Horsepower,Colorado,WL,Wheel Loader,,EROPS w AC,None or Unspecified,,Yes,,,,,,,,2 Valve,,,,,29.5,None or Unspecified,,,,,,,,,,,,,Standard,Conventional
90,1489037,69000,506962,132,1.0,1995,,,3/25/2003 0:00,980FII,980,F,II,,Medium,Wheel Loader - 275.0 to 350.0 Horsepower,Washington,WL,Wheel Loader,,EROPS w AC,None or Unspecified,,None or Unspecified,,,,,,,,3 Valve,,,,,29.5,None or Unspecified,,,,,,,,,,,,,Standard,Conventional
90,1489039,76000,131051,132,1.0,1995,,,2/17/2004 0:00,980FII,980,F,II,,Medium,Wheel Loader - 275.0 to 350.0 Horsepower,Florida,WL,Wheel Loader,,EROPS w AC,None or Unspecified,,None or Unspecified,,,,,,,,2 Valve,,,,,29.5,None or Unspecified,,,,,,,,,,,,,Standard,Conventional
90,1489043,100000,1083899,132,1.0,1995,,,12/12/2001 0:00,980FII,980,F,II,,Medium,Wheel Loader - 275.0 to 350.0 Horsepower,Texas,WL,Wheel Loader,,EROPS,None or Unspecified,,None or Unspecified,,,,,,,,2 Valve,,,,,29.5,None or Unspecified,,,,,,,,,,,,,Standard,Conventional
90,1489046,45000,1391987,132,2.0,1995,,,5/26/2009 0:00,980FII,980,F,II,,Medium,Wheel Loader - 275.0 to 350.0 Horsepower,Florida,WL,Wheel Loader,,EROPS w AC,None or Unspecified,,None or Unspecified,,,,,,,,2 Valve,,,,,29.5,None or Unspecified,,,,,,,,,,,,,Standard,Conventional
90,1489051,76000,780390,132,1.0,1995,,,2/15/2005 0:00,980FII,980,F,II,,Medium,Wheel Loader - 275.0 to 350.0 Horsepower,Florida,WL,Wheel Loader,,EROPS w AC,None or Unspecified,,None or Unspecified,,,,,,,,2 Valve,,,,,29.5,None or Unspecified,,,,,,,,,,,,,Standard,Conventional
90,1489054,60000,1428834,132,1.0,1995,,,9/19/2001 0:00,980FII,980,F,II,,Medium,Wheel Loader - 275.0 to 350.0 Horsepower,Texas,WL,Wheel Loader,,EROPS,None or Unspecified,,None or Unspecified,,,,,,,,2 Valve,,,,,29.5,None or Unspecified,,,,,,,,,,,,,Standard,Conventional
90,1489058,80000,1406056,132,1.0,1995,,,3/1/2005 0:00,980FII,980,F,II,,Medium,Wheel Loader - 275.0 to 350.0 Horsepower,Illinois,WL,Wheel Loader,,EROPS,None or Unspecified,,None or Unspecified,,,,,,,,2 Valve,,,,,29.5,None or Unspecified,,,,,,,,,,,,,Standard,Conventional
90,1489060,102500,1184276,132,1.0,1995,,,10/17/2002 0:00,980FII,980,F,II,,Medium,Wheel Loader - 275.0 to 350.0 Horsepower,Idaho,WL,Wheel Loader,,EROPS w AC,None or Unspecified,,None or Unspecified,,,,,,,,2 Valve,,,,,29.5,None or Unspecified,,,,,,,,,,,,,Standard,Conventional
90,1489061,66000,701138,132,2.0,1995,,,9/29/2004 0:00,980FII,980,F,II,,Medium,Wheel Loader - 275.0 to 350.0 Horsepower,Florida,WL,Wheel Loader,,EROPS w AC,None or Unspecified,,None or Unspecified,,,,,,,,2 Valve,,,,,None or Unspecified,None or Unspecified,,,,,,,,,,,,,Standard,Conventional
90,1489064,92500,1262661,132,1.0,1995,,,6/1/2005 0:00,980FII,980,F,II,,Medium,Wheel Loader - 275.0 to 350.0 Horsepower,Illinois,WL,Wheel Loader,,EROPS,None or Unspecified,,Yes,,,,,,,,2 Valve,,,,,29.5,None or Unspecified,,,,,,,,,,,,,Standard,Conventional
90,1489069,62000,1244455,132,1.0,1995,,,3/20/2002 0:00,980FII,980,F,II,,Medium,Wheel Loader - 275.0 to 350.0 Horsepower,Texas,WL,Wheel Loader,,EROPS w AC,None or Unspecified,,None or Unspecified,,,,,,,,2 Valve,,,,,29.5,None or Unspecified,,,,,,,,,,,,,Standard,Conventional
90,1489071,85000,1311778,132,1.0,1995,,,12/13/2006 0:00,980FII,980,F,II,,Medium,Wheel Loader - 275.0 to 350.0 Horsepower,Maryland,WL,Wheel Loader,,EROPS w AC,None or Unspecified,,None or Unspecified,,,,,,,,2 Valve,,,,,29.5,None or Unspecified,,,,,,,,,,,,,Standard,Conventional
90,1489074,77500,1446888,132,1.0,1995,,,9/18/2001 0:00,980FII,980,F,II,,Medium,Wheel Loader - 275.0 to 350.0 Horsepower,Arizona,WL,Wheel Loader,,EROPS w AC,None or Unspecified,,None or Unspecified,,,,,,,,2 Valve,,,,,29.5,None or Unspecified,,,,,,,,,,,,,Standard,Conventional
90,1489075,77500,1221949,132,1.0,1995,,,9/18/2001 0:00,980FII,980,F,II,,Medium,Wheel Loader - 275.0 to 350.0 Horsepower,Arizona,WL,Wheel Loader,,EROPS w AC,None or Unspecified,,None or Unspecified,,,,,,,,2 Valve,,,,,29.5,None or Unspecified,,,,,,,,,,,,,Standard,Conventional
90,1489076,76000,1478575,132,1.0,1995,,,4/20/2006 0:00,980FII,980,F,II,,Medium,Wheel Loader - 275.0 to 350.0 Horsepower,Ohio,WL,Wheel Loader,,EROPS w AC,None or Unspecified,,None or Unspecified,,,,,,,,2 Valve,,,,,29.5,None or Unspecified,,,,,,,,,,,,,Standard,Conventional
90,1489081,65000,1332723,132,1.0,1995,,,9/15/2003 0:00,980FII,980,F,II,,Medium,Wheel Loader - 275.0 to 350.0 Horsepower,Arizona,WL,Wheel Loader,,EROPS w AC,None or Unspecified,,None or Unspecified,,,,,,,,2 Valve,,,,,29.5,None or Unspecified,,,,,,,,,,,,,Standard,Conventional
90,1489082,90000,1332723,132,1.0,1995,,,5/22/2001 0:00,980FII,980,F,II,,Medium,Wheel Loader - 275.0 to 350.0 Horsepower,Arizona,WL,Wheel Loader,,EROPS w AC,None or Unspecified,,None or Unspecified,,,,,,,,2 Valve,,,,,29.5,None or Unspecified,,,,,,,,,,,,,Standard,Conventional
90,1489086,95000,1479285,132,1.0,1995,,,6/1/2005 0:00,980FII,980,F,II,,Medium,Wheel Loader - 275.0 to 350.0 Horsepower,Illinois,WL,Wheel Loader,,EROPS,None or Unspecified,,Yes,,,,,,,,2 Valve,,,,,29.5,None or Unspecified,,,,,,,,,,,,,Standard,Conventional
90,1489088,97000,987117,132,1.0,1995,,,10/16/2004 0:00,980FII,980,F,II,,Medium,Wheel Loader - 275.0 to 350.0 Horsepower,Nevada,WL,Wheel Loader,,EROPS w AC,None or Unspecified,,Yes,,,,,,,,2 Valve,,,,,29.5,None or Unspecified,,,,,,,,,,,,,Standard,Conventional
90,1489089,80000,987117,132,1.0,1995,,,6/23/2005 0:00,980FII,980,F,II,,Medium,Wheel Loader - 275.0 to 350.0 Horsepower,Washington,WL,Wheel Loader,,EROPS w AC,None or Unspecified,,Yes,,,,,,,,2 Valve,,,,,29.5,None or Unspecified,,,,,,,,,,,,,Standard,Conventional
90,1489093,60000,1438533,132,1.0,1995,,,9/1/2006 0:00,980FII,980,F,II,,Medium,Wheel Loader - 275.0 to 350.0 Horsepower,Nevada,WL,Wheel Loader,,EROPS w AC,None or Unspecified,,Yes,,,,,,,,2 Valve,,,,,29.5,None or Unspecified,,,,,,,,,,,,,Standard,Conventional
90,1489094,101000,963115,132,1.0,1995,,,4/29/2005 0:00,980FII,980,F,II,,Medium,Wheel Loader - 275.0 to 350.0 Horsepower,Utah,WL,Wheel Loader,,EROPS w AC,None or Unspecified,,Yes,,,,,,,,2 Valve,,,,,29.5,None or Unspecified,,,,,,,,,,,,,Standard,Conventional
90,1489095,69000,1250847,132,1.0,1995,,,4/29/2005 0:00,980FII,980,F,II,,Medium,Wheel Loader - 275.0 to 350.0 Horsepower,Utah,WL,Wheel Loader,,EROPS w AC,None or Unspecified,,None or Unspecified,,,,,,,,2 Valve,,,,,29.5,None or Unspecified,,,,,,,,,,,,,Standard,Conventional
90,1489096,60000,1314234,132,1.0,1995,,,9/19/2001 0:00,980FII,980,F,II,,Medium,Wheel Loader - 275.0 to 350.0 Horsepower,Texas,WL,Wheel Loader,,OROPS,Yes,,None or Unspecified,,,,,,,,2 Valve,,,,,29.5,None or Unspecified,,,,,,,,,,,,,Standard,Conventional
90,1489100,100000,530909,132,1.0,1995,,,4/27/2000 0:00,980FII,980,F,II,,Medium,Wheel Loader - 275.0 to 350.0 Horsepower,Florida,WL,Wheel Loader,,EROPS w AC,None or Unspecified,,None or Unspecified,,,,,,,,2 Valve,,,,,None or Unspecified,None or Unspecified,,,,,,,,,,,,,Standard,Conventional
90,1489102,60000,534943,132,1.0,1995,,,5/14/2003 0:00,980FII,980,F,II,,Medium,Wheel Loader - 275.0 to 350.0 Horsepower,Florida,WL,Wheel Loader,,EROPS w AC,None or Unspecified,,None or Unspecified,,,,,,,,2 Valve,,,,,29.5,None or Unspecified,,,,,,,,,,,,,Standard,Conventional
90,1489104,52500,78920,132,1.0,1995,,,10/5/2005 0:00,980FII,980,F,II,,Medium,Wheel Loader - 275.0 to 350.0 Horsepower,Maryland,WL,Wheel Loader,,EROPS w AC,None or Unspecified,,None or Unspecified,,,,,,,,2 Valve,,,,,29.5,None or Unspecified,,,,,,,,,,,,,Standard,Conventional
90,1489105,75000,1154614,132,8.0,1995,,,3/27/2002 0:00,980FII,980,F,II,,Medium,Wheel Loader - 275.0 to 350.0 Horsepower,Mississippi,WL,Wheel Loader,,EROPS w AC,None or Unspecified,,None or Unspecified,,,,,,,,2 Valve,,,,,None or Unspecified,None or Unspecified,,,,,,,,,,,,,Standard,Conventional
90,1489107,85000,367927,132,1.0,1995,,,11/21/2002 0:00,980FII,980,F,II,,Medium,Wheel Loader - 275.0 to 350.0 Horsepower,Arizona,WL,Wheel Loader,,EROPS w AC,None or Unspecified,,Yes,,,,,,,,2 Valve,,,,,29.5,None or Unspecified,,,,,,,,,,,,,Standard,Conventional
90,1489108,90000,1419990,132,15.0,1995,,,11/2/2000 0:00,980FII,980,F,II,,Medium,Wheel Loader - 275.0 to 350.0 Horsepower,Kentucky,WL,Wheel Loader,,EROPS w AC,None or Unspecified,,None or Unspecified,,,,,,,,2 Valve,,,,,None or Unspecified,None or Unspecified,,,,,,,,,,,,,Standard,Conventional
90,1489109,77500,756429,132,19.0,1995,,,11/8/2001 0:00,980FII,980,F,II,,Medium,Wheel Loader - 275.0 to 350.0 Horsepower,California,WL,Wheel Loader,,EROPS w AC,None or Unspecified,,None or Unspecified,,,,,,,,2 Valve,,,,,29.5,None or Unspecified,,,,,,,,,,,,,Standard,Conventional
90,1489110,85000,214244,132,19.0,1995,,,11/22/2002 0:00,980FII,980,F,II,,Medium,Wheel Loader - 275.0 to 350.0 Horsepower,California,WL,Wheel Loader,,EROPS w AC,None or Unspecified,,None or Unspecified,,,,,,,,2 Valve,,,,,29.5,None or Unspecified,,,,,,,,,,,,,Standard,Conventional
90,1489113,76000,596191,132,2.0,1995,,,2/4/2002 0:00,980FII,980,F,II,,Medium,Wheel Loader - 275.0 to 350.0 Horsepower,Florida,WL,Wheel Loader,,EROPS w AC,Yes,,None or Unspecified,,,,,,,,3 Valve,,,,,29.5,None or Unspecified,,,,,,,,,,,,,Standard,Conventional
90,1489114,100000,1506828,132,1.0,1995,,,3/25/2002 0:00,980FII,980,F,II,,Medium,Wheel Loader - 275.0 to 350.0 Horsepower,Nevada,WL,Wheel Loader,,EROPS w AC,None or Unspecified,,None or Unspecified,,,,,,,,2 Valve,,,,,29.5,None or Unspecified,,,,,,,,,,,,,Standard,Conventional
90,1489115,77500,1215135,132,15.0,1995,,,11/2/2000 0:00,980FII,980,F,II,,Medium,Wheel Loader - 275.0 to 350.0 Horsepower,Kentucky,WL,Wheel Loader,,EROPS w AC,None or Unspecified,,None or Unspecified,,,,,,,,2 Valve,,,,,None or Unspecified,None or Unspecified,,,,,,,,,,,,,Standard,Conventional
90,1489116,75000,491691,132,7.0,1995,,,3/6/2003 0:00,980FII,980,F,II,,Medium,Wheel Loader - 275.0 to 350.0 Horsepower,Alabama,WL,Wheel Loader,,EROPS w AC,None or Unspecified,,None or Unspecified,,,,,,,,2 Valve,,,,,26.5,None or Unspecified,,,,,,,,,,,,,Standard,Conventional
90,1489117,89000,1452723,132,15.0,1995,,,11/2/2000 0:00,980FII,980,F,II,,Medium,Wheel Loader - 275.0 to 350.0 Horsepower,Kentucky,WL,Wheel Loader,,EROPS w AC,None or Unspecified,,None or Unspecified,,,,,,,,2 Valve,,,,,None or Unspecified,None or Unspecified,,,,,,,,,,,,,Standard,Conventional
90,1489118,89000,1354735,132,15.0,1995,,,11/2/2000 0:00,980FII,980,F,II,,Medium,Wheel Loader - 275.0 to 350.0 Horsepower,Kentucky,WL,Wheel Loader,,EROPS w AC,None or Unspecified,,None or Unspecified,,,,,,,,2 Valve,,,,,None or Unspecified,None or Unspecified,,,,,,,,,,,,,Standard,Conventional
90,2240338,52500,878988,136,1.0,1994,0.0,,6/17/2009 0:00,980FII,980,F,II,,Medium,Wheel Loader - 275.0 to 350.0 Horsepower,Washington,WL,Wheel Loader,,EROPS,None or Unspecified,,Yes,,,,,,,,2 Valve,,,,,29.5,None or Unspecified,,,,,,,,,,,,,Standard,Conventional
90,2240344,82500,1089571,136,1.0,1995,0.0,,4/29/2008 0:00,980FII,980,F,II,,Medium,Wheel Loader - 275.0 to 350.0 Horsepower,California,WL,Wheel Loader,,EROPS w AC,None or Unspecified,,None or Unspecified,,,,,,,,2 Valve,,,,,29.5,None or Unspecified,,,,,,,,,,,,,Standard,Conventional
90,2240345,47500,1397018,136,1.0,1995,0.0,,11/18/2008 0:00,980FII,980,F,II,,Medium,Wheel Loader - 275.0 to 350.0 Horsepower,California,WL,Wheel Loader,,EROPS w AC,None or Unspecified,,None or Unspecified,,,,,,,,2 Valve,,,,,29.5,None or Unspecified,,,,,,,,,,,,,Standard,Conventional
90,2240349,60000,1531642,136,1.0,1996,0.0,,6/8/2007 0:00,980FII,980,F,II,,Medium,Wheel Loader - 275.0 to 350.0 Horsepower,Nevada,WL,Wheel Loader,,EROPS w AC,None or Unspecified,,None or Unspecified,,,,,,,,2 Valve,,,,,29.5,None or Unspecified,,,,,,,,,,,,,Standard,Conventional
90,2270112,41000,438831,136,,1000,0.0,,5/22/2009 0:00,980FII,980,F,II,,Medium,Wheel Loader - 275.0 to 350.0 Horsepower,New Jersey,WL,Wheel Loader,,EROPS,None or Unspecified,,None or Unspecified,,,,,,,,2 Valve,,,,,29.5,None or Unspecified,,,,,,,,,,,,,Standard,Conventional
90,2270115,65000,1292739,136,1.0,1994,0.0,,11/28/2007 0:00,980FII,980,F,II,,Medium,Wheel Loader - 275.0 to 350.0 Horsepower,Washington,WL,Wheel Loader,,EROPS,None or Unspecified,,Yes,,,,,,,,2 Valve,,,,,29.5,None or Unspecified,,,,,,,,,,,,,Standard,Conventional
90,2270116,66000,819230,136,1.0,1995,0.0,,8/27/2008 0:00,980FII,980,F,II,,Medium,Wheel Loader - 275.0 to 350.0 Horsepower,Connecticut,WL,Wheel Loader,,EROPS w AC,None or Unspecified,,None or Unspecified,,,,,,,,2 Valve,,,,,29.5,None or Unspecified,,,,,,,,,,,,,Standard,Conventional
90,2270117,72000,1476957,136,1.0,1995,0.0,,6/21/2008 0:00,980FII,980,F,II,,Medium,Wheel Loader - 275.0 to 350.0 Horsepower,Oregon,WL,Wheel Loader,,EROPS,None or Unspecified,,None or Unspecified,,,,,,,,2 Valve,,,,,29.5,None or Unspecified,,,,,,,,,,,,,Standard,Conventional
90,2270120,97500,1342994,136,17.0,1995,0.0,,12/4/2007 0:00,980FII,980,F,II,,Medium,Wheel Loader - 275.0 to 350.0 Horsepower,Washington,WL,Wheel Loader,,EROPS,None or Unspecified,,Yes,,,,,,,,2 Valve,,,,,29.5,None or Unspecified,,,,,,,,,,,,,Standard,Conventional
90,2270121,56000,488482,136,4.0,1995,0.0,,2/9/2009 0:00,980FII,980,F,II,,Medium,Wheel Loader - 275.0 to 350.0 Horsepower,Florida,WL,Wheel Loader,,EROPS w AC,None or Unspecified,,None or Unspecified,,,,,,,,2 Valve,,,,,26.5,None or Unspecified,,,,,,,,,,,,,Standard,Conventional
90,2270122,43000,669544,136,1.0,1995,0.0,,2/15/2010 0:00,980FII,980,F,II,,Medium,Wheel Loader - 275.0 to 350.0 Horsepower,Florida,WL,Wheel Loader,,EROPS w AC,None or Unspecified,,None or Unspecified,,,,,,,,2 Valve,,,,,26.5,None or Unspecified,,,,,,,,,,,,,Standard,Conventional
90,2270123,95000,1082371,136,1.0,1995,0.0,,3/13/2008 0:00,980FII,980,F,II,,Medium,Wheel Loader - 275.0 to 350.0 Horsepower,Nevada,WL,Wheel Loader,,EROPS w AC,None or Unspecified,,Yes,,,,,,,,2 Valve,,,,,29.5,None or Unspecified,,,,,,,,,,,,,Standard,Conventional
90,2270124,77500,386604,136,1.0,1000,0.0,,10/2/2009 0:00,980FII,980,F,II,,Medium,Wheel Loader - 275.0 to 350.0 Horsepower,Missouri,WL,Wheel Loader,,EROPS w AC,None or Unspecified,,Yes,,,,,,,,2 Valve,,,,,29.5,None or Unspecified,,,,,,,,,,,,,Standard,Conventional
90,2270125,80000,386604,136,1.0,1995,0.0,,10/30/2007 0:00,980FII,980,F,II,,Medium,Wheel Loader - 275.0 to 350.0 Horsepower,Missouri,WL,Wheel Loader,,EROPS w AC,None or Unspecified,,Yes,,,,,,,,2 Valve,,,,,29.5,None or Unspecified,,,,,,,,,,,,,Standard,Conventional
90,2270128,61000,857281,136,4.0,1995,0.0,,5/17/2007 0:00,980FII,980,F,II,,Medium,Wheel Loader - 275.0 to 350.0 Horsepower,New Hampshire,WL,Wheel Loader,,EROPS w AC,None or Unspecified,,Yes,,,,,,,,2 Valve,,,,,None or Unspecified,None or Unspecified,,,,,,,,,,,,,Standard,Conventional
90,2270129,51000,1391987,136,4.0,1995,0.0,,2/8/2010 0:00,980FII,980,F,II,,Medium,Wheel Loader - 275.0 to 350.0 Horsepower,Florida,WL,Wheel Loader,,EROPS w AC,None or Unspecified,,None or Unspecified,,,,,,,,2 Valve,,,,,29.5,None or Unspecified,,,,,,,,,,,,,Standard,Conventional
90,2270130,46000,1391987,136,4.0,1995,0.0,,2/9/2009 0:00,980FII,980,F,II,,Medium,Wheel Loader - 275.0 to 350.0 Horsepower,Florida,WL,Wheel Loader,,EROPS w AC,None or Unspecified,,None or Unspecified,,,,,,,,2 Valve,,,,,29.5,None or Unspecified,,,,,,,,,,,,,Standard,Conventional
90,2270132,75000,200853,136,1.0,1995,0.0,,9/25/2007 0:00,980FII,980,F,II,,Medium,Wheel Loader - 275.0 to 350.0 Horsepower,Colorado,WL,Wheel Loader,,EROPS w AC,None or Unspecified,,Yes,,,,,,,,2 Valve,,,,,29.5,None or Unspecified,,,,,,,,,,,,,Standard,Conventional
90,2270133,70000,1309479,136,1.0,1995,0.0,,3/13/2008 0:00,980FII,980,F,II,,Medium,Wheel Loader - 275.0 to 350.0 Horsepower,Nevada,WL,Wheel Loader,,EROPS w AC,None or Unspecified,,Yes,,,,,,,,2 Valve,,,,,29.5,None or Unspecified,,,,,,,,,,,,,Standard,Conventional
90,2270134,40000,1187154,136,1.0,1995,0.0,,5/8/2009 0:00,980FII,980,F,II,,Medium,Wheel Loader - 275.0 to 350.0 Horsepower,Utah,WL,Wheel Loader,,EROPS,None or Unspecified,,Yes,,,,,,,,2 Valve,,,,,29.5,None or Unspecified,,,,,,,,,,,,,Standard,Conventional
90,2270137,70000,1352505,136,1.0,1995,0.0,,9/25/2007 0:00,980FII,980,F,II,,Medium,Wheel Loader - 275.0 to 350.0 Horsepower,Colorado,WL,Wheel Loader,,EROPS w AC,None or Unspecified,,Yes,,,,,,,,2 Valve,,,,,29.5,None or Unspecified,,,,,,,,,,,,,Standard,Conventional
90,2270139,60000,182885,136,,1995,0.0,,8/23/2008 0:00,980FII,980,F,II,,Medium,Wheel Loader - 275.0 to 350.0 Horsepower,California,WL,Wheel Loader,,EROPS w AC,None or Unspecified,,None or Unspecified,,,,,,,,2 Valve,,,,,None or Unspecified,None or Unspecified,,,,,,,,,,,,,Standard,Conventional
90,2270140,72500,189863,136,1.0,1995,0.0,,3/11/2008 0:00,980FII,980,F,II,,Medium,Wheel Loader - 275.0 to 350.0 Horsepower,Colorado,WL,Wheel Loader,,EROPS w AC,None or Unspecified,,Yes,,,,,,,,2 Valve,,,,,29.5,None or Unspecified,,,,,,,,,,,,,Standard,Conventional
90,2270142,45000,1355079,136,1.0,1995,0.0,,3/10/2009 0:00,980FII,980,F,II,,Medium,Wheel Loader - 275.0 to 350.0 Horsepower,Colorado,WL,Wheel Loader,,EROPS w AC,None or Unspecified,,Yes,,,,,,,,2 Valve,,,,,29.5,None or Unspecified,,,,,,,,,,,,,Standard,Conventional
90,2270143,49000,641596,136,1.0,1000,0.0,,5/29/2009 0:00,980FII,980,F,II,,Medium,Wheel Loader - 275.0 to 350.0 Horsepower,Montana,WL,Wheel Loader,,EROPS w AC,None or Unspecified,,Yes,,,,,,,,2 Valve,,,,,29.5,None or Unspecified,,,,,,,,,,,,,Standard,Conventional
90,2270144,85000,649644,136,5.0,1995,0.0,,4/12/2007 0:00,980FII,980,F,II,,Medium,Wheel Loader - 275.0 to 350.0 Horsepower,Utah,WL,Wheel Loader,,EROPS w AC,None or Unspecified,,Yes,,,,,,,,2 Valve,,,,,29.5,None or Unspecified,,,,,,,,,,,,,Standard,Conventional
90,2270146,57500,187492,136,1.0,1000,0.0,,3/2/2010 0:00,980FII,980,F,II,,Medium,Wheel Loader - 275.0 to 350.0 Horsepower,California,WL,Wheel Loader,,EROPS w AC,None or Unspecified,,None or Unspecified,,,,,,,,2 Valve,,,,,29.5,None or Unspecified,,,,,,,,,,,,,Standard,Conventional
90,2270147,67000,1083798,136,1.0,1995,0.0,,6/2/2007 0:00,980FII,980,F,II,,Medium,Wheel Loader - 275.0 to 350.0 Horsepower,Oregon,WL,Wheel Loader,,EROPS w AC,None or Unspecified,,None or Unspecified,,,,,,,,2 Valve,,,,,29.5,None or Unspecified,,,,,,,,,,,,,Standard,Conventional
90,2270151,95000,1175351,136,16.0,1995,0.0,,6/29/2007 0:00,980FII,980,F,II,,Medium,Wheel Loader - 275.0 to 350.0 Horsepower,Michigan,WL,Wheel Loader,,EROPS,None or Unspecified,,None or Unspecified,,,,,,,,2 Valve,,,,,None or Unspecified,None or Unspecified,,,,,,,,,,,,,Standard,Conventional
90,2270152,74000,1469471,136,1.0,1995,0.0,,2/29/2008 0:00,980FII,980,F,II,,Medium,Wheel Loader - 275.0 to 350.0 Horsepower,New Mexico,WL,Wheel Loader,,EROPS w AC,None or Unspecified,,None or Unspecified,,,,,,,,2 Valve,,,,,29.5,None or Unspecified,,,,,,,,,,,,,Standard,Conventional
90,2270155,70000,1532789,136,2.0,1995,0.0,,3/27/2008 0:00,980FII,980,F,II,,Medium,Wheel Loader - 275.0 to 350.0 Horsepower,New Jersey,WL,Wheel Loader,,EROPS w AC,None or Unspecified,,None or Unspecified,,,,,,,,2 Valve,,,,,None or Unspecified,None or Unspecified,,,,,,,,,,,,,Standard,Conventional
90,2270156,47500,51837,136,1.0,1995,0.0,,11/6/2009 0:00,980FII,980,F,II,,Medium,Wheel Loader - 275.0 to 350.0 Horsepower,Nevada,WL,Wheel Loader,,EROPS w AC,None or Unspecified,,None or Unspecified,,,,,,,,2 Valve,,,,,29.5,None or Unspecified,,,,,,,,,,,,,Standard,Conventional
90,2530671,56000,745370,149,1.0,1995,18158.0,Medium,12/7/2010 0:00,980FII,980,F,II,,Medium,Wheel Loader - 275.0 to 350.0 Horsepower,California,WL,Wheel Loader,,EROPS w AC,None or Unspecified,,Yes,,,,,,,,2 Valve,,,,,29.5,None or Unspecified,,,,,,,,,,,,,Standard,Conventional
90,2530673,48000,494901,149,5.0,1995,0.0,,4/12/2011 0:00,980FII,980,F,II,,Medium,Wheel Loader - 275.0 to 350.0 Horsepower,Texas,WL,Wheel Loader,,EROPS w AC,None or Unspecified,,Yes,,,,,,,,2 Valve,,,,,29.5,None or Unspecified,,,,,,,,,,,,,Standard,Conventional
90,2555046,55000,1292739,149,1.0,1994,23514.0,Medium,6/16/2011 0:00,980FII,980,F,II,,Medium,Wheel Loader - 275.0 to 350.0 Horsepower,Washington,WL,Wheel Loader,,EROPS,None or Unspecified,,Yes,,,,,,,,2 Valve,,,,,29.5,None or Unspecified,,,,,,,,,,,,,Standard,Conventional
90,2555047,56000,1515558,149,1.0,1995,21888.0,Medium,9/28/2010 0:00,980FII,980,F,II,,Medium,Wheel Loader - 275.0 to 350.0 Horsepower,California,WL,Wheel Loader,,EROPS w AC,None or Unspecified,,None or Unspecified,,,,,,,,2 Valve,,,,,29.5,None or Unspecified,,,,,,,,,,,,,Standard,Conventional
90,2555051,82500,623148,149,1.0,1995,21745.0,Medium,3/1/2011 0:00,980FII,980,F,II,,Medium,Wheel Loader - 275.0 to 350.0 Horsepower,Washington,WL,Wheel Loader,,EROPS w AC,None or Unspecified,,Yes,,,,,,,,2 Valve,,,,,29.5,None or Unspecified,,,,,,,,,,,,,Standard,Conventional
90,2555059,45000,518702,149,1.0,1995,24998.0,Medium,9/16/2010 0:00,980FII,980,F,II,,Medium,Wheel Loader - 275.0 to 350.0 Horsepower,California,WL,Wheel Loader,,EROPS w AC,None or Unspecified,,Yes,,,,,,,,2 Valve,,,,,29.5,None or Unspecified,,,,,,,,,,,,,Standard,Conventional
90,2555064,50000,1238234,149,5.0,1995,0.0,,4/12/2011 0:00,980FII,980,F,II,,Medium,Wheel Loader - 275.0 to 350.0 Horsepower,Texas,WL,Wheel Loader,,EROPS w AC,None or Unspecified,,None or Unspecified,,,,,,,,2 Valve,,,,,29.5,None or Unspecified,,,,,,,,,,,,,Standard,Conventional
90,2555065,52000,1238234,149,99.0,1995,0.0,,10/27/2010 0:00,980FII,980,F,II,,Medium,Wheel Loader - 275.0 to 350.0 Horsepower,Texas,WL,Wheel Loader,,EROPS w AC,None or Unspecified,,None or Unspecified,,,,,,,,2 Valve,,,,,29.5,None or Unspecified,,,,,,,,,,,,,Standard,Conventional
90,2555071,49000,1469471,149,1.0,1995,32767.0,High,2/24/2011 0:00,980FII,980,F,II,,Medium,Wheel Loader - 275.0 to 350.0 Horsepower,Arizona,WL,Wheel Loader,,EROPS w AC,None or Unspecified,,None or Unspecified,,,,,,,,2 Valve,,,,,29.5,None or Unspecified,,,,,,,,,,,,,Standard,Conventional
90,2555073,77000,986216,149,1.0,1995,0.0,,12/3/2010 0:00,980FII,980,F,II,,Medium,Wheel Loader - 275.0 to 350.0 Horsepower,Utah,WL,Wheel Loader,,EROPS w AC,None or Unspecified,,Yes,,,,,,,,2 Valve,,,,,29.5,None or Unspecified,,,,,,,,,,,,,Limited Slip,Conventional
90,2555075,56000,1807197,149,2.0,1995,0.0,,3/23/2011 0:00,980FII,980,F,II,,Medium,Wheel Loader - 275.0 to 350.0 Horsepower,Nevada,WL,Wheel Loader,,EROPS,None or Unspecified,,None or Unspecified,,,,,,,,2 Valve,,,,,None or Unspecified,None or Unspecified,,,,,,,,,,,,,Standard,Conventional
90,4280383,70000,2276502,172,1.0,1995,,,12/19/2011 0:00,980FII,980,F,II,,Medium,Wheel Loader - 275.0 to 350.0 Horsepower,Washington,WL,Wheel Loader,,EROPS w AC,None or Unspecified,,Yes,,,,,,,,2 Valve,,,,,29.5,None or Unspecified,,,,,,,,,,,,,Standard,Conventional
90,4280389,87500,2276502,172,1.0,1995,27863.0,Medium,10/5/2011 0:00,980FII,980,F,II,,Medium,Wheel Loader - 275.0 to 350.0 Horsepower,Connecticut,WL,Wheel Loader,,EROPS w AC,None or Unspecified,,Yes,,,,,,,,2 Valve,,,,,29.5,None or Unspecified,,,,,,,,,,,,,Standard,Conventional
90,6269672,65000,1309479,149,1.0,1995,,,12/20/2011 0:00,980FII,980,F,II,,Medium,Wheel Loader - 275.0 to 350.0 Horsepower,Washington,WL,Wheel Loader,,EROPS w AC,None or Unspecified,,Yes,,,,,,,,2 Valve,,,,,29.5,None or Unspecified,,,,,,,,,,,,,Standard,Conventional
90,6269673,87500,809752,149,1.0,1995,,,10/6/2011 0:00,980FII,980,F,II,,Medium,Wheel Loader - 275.0 to 350.0 Horsepower,Connecticut,WL,Wheel Loader,,EROPS w AC,None or Unspecified,,Yes,,,,,,,,2 Valve,,,,,None or Unspecified,None or Unspecified,,,,,,,,,,,,,Standard,Conventional
90,6269676,70000,631853,149,1.0,1995,,,12/20/2011 0:00,980FII,980,F,II,,Medium,Wheel Loader - 275.0 to 350.0 Horsepower,Washington,WL,Wheel Loader,,EROPS w AC,None or Unspecified,,Yes,,,,,,,,2 Valve,,,,,29.5,None or Unspecified,,,,,,,,,,,,,Standard,Conventional
90,6269680,57000,1940657,149,5.0,1995,,,12/16/2011 0:00,980FII,980,F,II,,Medium,Wheel Loader - 275.0 to 350.0 Horsepower,Connecticut,WL,Wheel Loader,,EROPS w AC,None or Unspecified,,None or Unspecified,,,,,,,,2 Valve,,,,,None or Unspecified,None or Unspecified,,,,,,,,,,,,,Standard,Conventional
