ModelID,SalesID,SalePrice,MachineID,datasource,auctioneerID,YearMade,MachineHoursCurrentMeter,UsageBand,saledate,fiModelDesc,fiBaseModel,fiSecondaryDesc,fiModelSeries,fiModelDescriptor,ProductSize,fiProductClassDesc,state,ProductGroup,ProductGroupDesc,Drive_System,Enclosure,Forks,Pad_Type,Ride_Control,Stick,Transmission,Turbocharged,Blade_Extension,Blade_Width,Enclosure_Type,Engine_Horsepower,Hydraulics,Pushblock,Ripper,Scarifier,Tip_Control,Tire_Size,Coupler,Coupler_System,Grouser_Tracks,Hydraulics_Flow,Track_Type,Undercarriage_Pad_Width,Stick_Length,Thumb,Pattern_Changer,Grouser_Type,Backhoe_Mounting,Blade_Type,Travel_Controls,Differential_Type,Steering_Controls
9035,1738402,10000,1434692,132,22.0,1000,2585.0,Low,12/20/1997 0:00,PC10,PC10,,,,Mini,"Hydraulic Excavator, Track - 0.0 to 2.0 Metric Tons",Minnesota,TEX,Track Excavators,,EROPS,,,,,,,,,,,Standard,,,,,,None or Unspecified,,,,Rubber,None or Unspecified,None or Unspecified,None or Unspecified,None or Unspecified,Double,,,,,
9035,1739635,9750,1402455,132,9.0,1000,,,8/27/2003 0:00,PC10,PC10,,,,Mini,"Hydraulic Excavator, Track - 0.0 to 2.0 Metric Tons",Florida,TEX,Track Excavators,,EROPS,,,,,,,,,,,Standard,,,,,,None or Unspecified,,,,Steel,None or Unspecified,None or Unspecified,None or Unspecified,None or Unspecified,Double,,,,,
9035,1739733,8600,1157886,132,27.0,1000,,,7/21/2006 0:00,PC10,PC10,,,,Mini,"Hydraulic Excavator, Track - 0.0 to 2.0 Metric Tons",North Carolina,TEX,Track Excavators,,EROPS,,,,,,,,,,,Standard,,,,,,None or Unspecified,,,,Steel,None or Unspecified,None or Unspecified,None or Unspecified,None or Unspecified,Double,,,,,
9035,1739948,8500,1127440,132,1.0,1000,,,12/12/2006 0:00,PC10,PC10,,,,Mini,"Hydraulic Excavator, Track - 0.0 to 2.0 Metric Tons",California,TEX,Track Excavators,,EROPS,,,,,,,,,,,Standard,,,,,,None or Unspecified,,,,Rubber,16 inch,None or Unspecified,Manual,None or Unspecified,Double,,,,,
9035,1740169,11400,1359029,132,22.0,1000,,,3/18/2000 0:00,PC10,PC10,,,,Mini,"Hydraulic Excavator, Track - 0.0 to 2.0 Metric Tons",Minnesota,TEX,Track Excavators,,EROPS,,,,,,,,,,,Standard,,,,,,None or Unspecified,,,,Steel,None or Unspecified,None or Unspecified,None or Unspecified,None or Unspecified,Double,,,,,
9035,1761369,7900,1223020,132,28.0,1000,3041.0,Low,11/30/2007 0:00,PC10,PC10,,,,Mini,"Hydraulic Excavator, Track - 0.0 to 2.0 Metric Tons",Mississippi,TEX,Track Excavators,,EROPS,,,,,,,,,,,Standard,,,,,,None or Unspecified,,,,Steel,None or Unspecified,None or Unspecified,None or Unspecified,None or Unspecified,Double,,,,,
