ModelID,SalesID,SalePrice,MachineID,datasource,auctioneerID,YearMade,MachineHoursCurrentMeter,UsageBand,saledate,fiModelDesc,fiBaseModel,fiSecondaryDesc,fiModelSeries,fiModelDescriptor,ProductSize,fiProductClassDesc,state,ProductGroup,ProductGroupDesc,Drive_System,Enclosure,Forks,Pad_Type,Ride_Control,Stick,Transmission,Turbocharged,Blade_Extension,Blade_Width,Enclosure_Type,Engine_Horsepower,Hydraulics,Pushblock,Ripper,Scarifier,Tip_Control,Tire_Size,Coupler,Coupler_System,Grouser_Tracks,Hydraulics_Flow,Track_Type,Undercarriage_Pad_Width,Stick_Length,Thumb,Pattern_Changer,Grouser_Type,Backhoe_Mounting,Blade_Type,Travel_Controls,Differential_Type,Steering_Controls
9040,1737215,64000,1376118,132,10.0,2006,,,12/11/2007 0:00,PC130,PC130,,,,Small,"Hydraulic Excavator, Track - 12.0 to 14.0 Metric Tons",Louisiana,TEX,Track Excavators,,EROPS,,,,,,,,,,,Standard,,,,,,None or Unspecified,,,,Steel,None or Unspecified,None or Unspecified,None or Unspecified,None or Unspecified,Double,,,,,
9040,1741770,32500,1451051,132,2.0,1000,,,12/30/2004 0:00,PC130,PC130,,,,Small,"Hydraulic Excavator, Track - 12.0 to 14.0 Metric Tons",New York,TEX,Track Excavators,,EROPS,,,,,,,,,,,Standard,,,,,,None or Unspecified,,,,Steel,None or Unspecified,None or Unspecified,None or Unspecified,None or Unspecified,Double,,,,,
9040,1746573,33500,1178231,132,2.0,1993,,,2/4/1998 0:00,PC130,PC130,,,,Small,"Hydraulic Excavator, Track - 12.0 to 14.0 Metric Tons",Florida,TEX,Track Excavators,,EROPS w AC,,,,,,,,,,,Auxiliary,,,,,,None or Unspecified,,,,Steel,None or Unspecified,None or Unspecified,None or Unspecified,None or Unspecified,Double,,,,,
9040,1749151,22000,1181552,132,1.0,1000,,,3/13/2002 0:00,PC130,PC130,,,,Small,"Hydraulic Excavator, Track - 12.0 to 14.0 Metric Tons",Illinois,TEX,Track Excavators,,EROPS w AC,,,,,,,,,,,Auxiliary,,,,,,None or Unspecified,,,,Steel,None or Unspecified,"8' 2""",None or Unspecified,None or Unspecified,Double,,,,,
9040,1749479,34000,1237857,132,21.0,1993,,,9/9/1999 0:00,PC130,PC130,,,,Small,"Hydraulic Excavator, Track - 12.0 to 14.0 Metric Tons",Maine,TEX,Track Excavators,,EROPS,,,,,,,,,,,Standard,,,,,,None or Unspecified,,,,Steel,None or Unspecified,None or Unspecified,None or Unspecified,None or Unspecified,Double,,,,,
9040,1749480,35500,1237857,132,21.0,1000,,,10/14/1999 0:00,PC130,PC130,,,,Small,"Hydraulic Excavator, Track - 12.0 to 14.0 Metric Tons",Maine,TEX,Track Excavators,,EROPS,,,,,,,,,,,Standard,,,,,,None or Unspecified,,,,Steel,None or Unspecified,None or Unspecified,None or Unspecified,None or Unspecified,Double,,,,,
9040,1758527,66000,1342829,132,2.0,2006,,,1/19/2008 0:00,PC130,PC130,,,,Small,"Hydraulic Excavator, Track - 12.0 to 14.0 Metric Tons",Ohio,TEX,Track Excavators,,EROPS,,,,,,,,,,,Auxiliary,,,,,,None or Unspecified,,,,Steel,None or Unspecified,None or Unspecified,None or Unspecified,None or Unspecified,Double,,,,,
9040,1758528,61000,1342829,132,10.0,1000,,,5/20/2008 0:00,PC130,PC130,,,,Small,"Hydraulic Excavator, Track - 12.0 to 14.0 Metric Tons",Louisiana,TEX,Track Excavators,,EROPS,,,,,,,,,,,Auxiliary,,,,,,None or Unspecified,,,,Steel,None or Unspecified,None or Unspecified,None or Unspecified,None or Unspecified,Double,,,,,
9040,1775626,25500,1310137,132,4.0,1000,,,10/14/2004 0:00,PC130,PC130,,,,Small,"Hydraulic Excavator, Track - 12.0 to 14.0 Metric Tons",New Hampshire,TEX,Track Excavators,,EROPS,,,,,,,,,,,Standard,,,,,,None or Unspecified,,,,Steel,None or Unspecified,None or Unspecified,None or Unspecified,None or Unspecified,Double,,,,,
9040,1776123,30500,1326795,132,4.0,1000,,,12/2/2004 0:00,PC130,PC130,,,,Small,"Hydraulic Excavator, Track - 12.0 to 14.0 Metric Tons",New Hampshire,TEX,Track Excavators,,EROPS,,,,,,,,,,,Standard,,,,,,None or Unspecified,,,,Steel,None or Unspecified,None or Unspecified,None or Unspecified,None or Unspecified,Double,,,,,
9040,1776125,29000,1314640,132,4.0,1000,,,2/7/2005 0:00,PC130,PC130,,,,Small,"Hydraulic Excavator, Track - 12.0 to 14.0 Metric Tons",Florida,TEX,Track Excavators,,EROPS,,,,,,,,,,,Auxiliary,,,,,,Manual,,,,,,None or Unspecified,None or Unspecified,No,,,,,,
9040,1776126,30000,1314640,132,9.0,1000,,,2/16/2005 0:00,PC130,PC130,,,,Small,"Hydraulic Excavator, Track - 12.0 to 14.0 Metric Tons",Florida,TEX,Track Excavators,,EROPS,,,,,,,,,,,Auxiliary,,,,,,Manual,,,,,,None or Unspecified,None or Unspecified,No,,,,,,
9040,1776179,33500,1264136,132,2.0,1000,,,3/31/2005 0:00,PC130,PC130,,,,Small,"Hydraulic Excavator, Track - 12.0 to 14.0 Metric Tons",New Jersey,TEX,Track Excavators,,EROPS,,,,,,,,,,,Auxiliary,,,,,,None or Unspecified,,,,Steel,None or Unspecified,None or Unspecified,None or Unspecified,None or Unspecified,Double,,,,,
9040,1776315,33000,1279529,132,4.0,1998,,,2/7/2005 0:00,PC130,PC130,,,,Small,"Hydraulic Excavator, Track - 12.0 to 14.0 Metric Tons",Florida,TEX,Track Excavators,,EROPS,,,,,,,,,,,Standard,,,,,,Manual,,,,Steel,27 inch,None or Unspecified,None or Unspecified,None or Unspecified,Triple,,,,,
9040,1776316,32000,1279529,132,9.0,1000,,,2/16/2005 0:00,PC130,PC130,,,,Small,"Hydraulic Excavator, Track - 12.0 to 14.0 Metric Tons",Florida,TEX,Track Excavators,,EROPS,,,,,,,,,,,Standard,,,,,,Manual,,,,Steel,27 inch,None or Unspecified,None or Unspecified,None or Unspecified,Triple,,,,,
9040,1776317,27750,1279529,132,12.0,1000,,,6/15/2005 0:00,PC130,PC130,,,,Small,"Hydraulic Excavator, Track - 12.0 to 14.0 Metric Tons",South Carolina,TEX,Track Excavators,,EROPS,,,,,,,,,,,Standard,,,,,,Manual,,,,Steel,27 inch,None or Unspecified,None or Unspecified,None or Unspecified,Triple,,,,,
9040,1776318,33000,1279529,132,4.0,1998,,,2/10/2005 0:00,PC130,PC130,,,,Small,"Hydraulic Excavator, Track - 12.0 to 14.0 Metric Tons",Florida,TEX,Track Excavators,,EROPS,,,,,,,,,,,Standard,,,,,,Manual,,,,Steel,27 inch,None or Unspecified,None or Unspecified,None or Unspecified,Triple,,,,,
9040,1776331,25000,1512161,132,12.0,1000,,,9/21/2006 0:00,PC130,PC130,,,,Small,"Hydraulic Excavator, Track - 12.0 to 14.0 Metric Tons",South Carolina,TEX,Track Excavators,,EROPS,,,,,,,,,,,Auxiliary,,,,,,None or Unspecified,,,,Rubber,None or Unspecified,None or Unspecified,Hydraulic,None or Unspecified,Double,,,,,
9040,1776393,39000,1339441,132,4.0,1000,,,2/10/2005 0:00,PC130,PC130,,,,Small,"Hydraulic Excavator, Track - 12.0 to 14.0 Metric Tons",Florida,TEX,Track Excavators,,EROPS,,,,,,,,,,,Auxiliary,,,,,,None or Unspecified,,,,Steel,None or Unspecified,None or Unspecified,None or Unspecified,None or Unspecified,Double,,,,,
9040,1776395,34000,1199517,132,4.0,2001,3115.0,Low,4/10/2007 0:00,PC130,PC130,,,,Small,"Hydraulic Excavator, Track - 12.0 to 14.0 Metric Tons",Ohio,TEX,Track Excavators,,EROPS,,,,,,,,,,,Auxiliary,,,,,,None or Unspecified,,,,Steel,28 inch,None or Unspecified,None or Unspecified,None or Unspecified,Double,,,,,
9040,1776411,15500,1068490,132,3.0,2003,,,11/26/2009 0:00,PC130,PC130,,,,Small,"Hydraulic Excavator, Track - 12.0 to 14.0 Metric Tons",California,TEX,Track Excavators,,EROPS,,,,,,,,,,,Auxiliary,,,,,,Hydraulic,,,,Steel,None or Unspecified,None or Unspecified,None or Unspecified,None or Unspecified,Double,,,,,
9040,1776418,74000,1368905,132,2.0,2003,,,11/15/2003 0:00,PC130,PC130,,,,Small,"Hydraulic Excavator, Track - 12.0 to 14.0 Metric Tons",Connecticut,TEX,Track Excavators,,EROPS,,,,,,,,,,,Standard,,,,,,None or Unspecified,,,,Steel,28 inch,None or Unspecified,None or Unspecified,None or Unspecified,Double,,,,,
9040,2396862,23000,1435755,136,1.0,1000,0.0,,10/3/2007 0:00,PC130,PC130,,,,Small,"Hydraulic Excavator, Track - 12.0 to 14.0 Metric Tons",Maryland,TEX,Track Excavators,,EROPS,,,,,,,,,,,Auxiliary,,,,,,None or Unspecified,,,,Steel,None or Unspecified,"9' 8""",None or Unspecified,None or Unspecified,Double,,,,,
9040,2406424,24500,1102545,136,9.0,1000,0.0,,5/15/2008 0:00,PC130,PC130,,,,Small,"Hydraulic Excavator, Track - 12.0 to 14.0 Metric Tons",South Carolina,TEX,Track Excavators,,EROPS,,,,,,,,,,,2 Valve,,,,,,,,,,,None or Unspecified,,,,,,,,,
9040,2421217,64000,1717581,136,,2006,0.0,,12/11/2007 0:00,PC130,PC130,,,,Small,"Hydraulic Excavator, Track - 12.0 to 14.0 Metric Tons",Louisiana,TEX,Track Excavators,,EROPS w AC,,,,,,,,,,,Auxiliary,,,,,,None or Unspecified,,,,Steel,None or Unspecified,None or Unspecified,Hydraulic,None or Unspecified,Triple,,,,,
9040,2421219,66000,1717581,136,,2006,0.0,,1/19/2008 0:00,PC130,PC130,,,,Small,"Hydraulic Excavator, Track - 12.0 to 14.0 Metric Tons",Ohio,TEX,Track Excavators,,EROPS w AC,,,,,,,,,,,Auxiliary,,,,,,None or Unspecified,,,,Steel,None or Unspecified,None or Unspecified,Hydraulic,None or Unspecified,Triple,,,,,
9040,2421502,59000,1718088,136,,2008,0.0,,3/25/2009 0:00,PC130,PC130,,,,Small,"Hydraulic Excavator, Track - 12.0 to 14.0 Metric Tons",Texas,TEX,Track Excavators,,EROPS w AC,,,,,,,,,,,Auxiliary,,,,,,None or Unspecified,,,,Steel,None or Unspecified,None or Unspecified,None or Unspecified,None or Unspecified,Double,,,,,
