ModelID,SalesID,SalePrice,MachineID,datasource,auctioneerID,YearMade,MachineHoursCurrentMeter,UsageBand,saledate,fiModelDesc,fiBaseModel,fiSecondaryDesc,fiModelSeries,fiModelDescriptor,ProductSize,fiProductClassDesc,state,ProductGroup,ProductGroupDesc,Drive_System,Enclosure,Forks,Pad_Type,Ride_Control,Stick,Transmission,Turbocharged,Blade_Extension,Blade_Width,Enclosure_Type,Engine_Horsepower,Hydraulics,Pushblock,Ripper,Scarifier,Tip_Control,Tire_Size,Coupler,Coupler_System,Grouser_Tracks,Hydraulics_Flow,Track_Type,Undercarriage_Pad_Width,Stick_Length,Thumb,Pattern_Changer,Grouser_Type,Backhoe_Mounting,Blade_Type,Travel_Controls,Differential_Type,Steering_Controls
9055,1140736,41000,1031754,121,3.0,1000,15069.0,Low,11/11/2010 0:00,PC300,PC300,,,,Large / Medium,"Hydraulic Excavator, Track - 33.0 to 40.0 Metric Tons",Alabama,TEX,Track Excavators,,EROPS w AC,,,,,,,,,,,Standard,,,,,,None or Unspecified,,,,Steel,None or Unspecified,"10' 6""",None or Unspecified,None or Unspecified,Double,,,,,
9055,1147781,44000,434372,121,3.0,1999,12089.0,High,2/23/2006 0:00,PC300,PC300,,,,Large / Medium,"Hydraulic Excavator, Track - 33.0 to 40.0 Metric Tons",Florida,TEX,Track Excavators,,EROPS w AC,,,,,,,,,,,Standard,,,,,,None or Unspecified,,,,Steel,30 inch,None or Unspecified,Manual,None or Unspecified,Double,,,,,
9055,1152770,53000,1048726,121,3.0,1997,3144.0,Medium,2/26/2004 0:00,PC300,PC300,,,,Large / Medium,"Hydraulic Excavator, Track - 33.0 to 40.0 Metric Tons",Texas,TEX,Track Excavators,,EROPS,,,,,,,,,,,Auxiliary,,,,,,None or Unspecified,,,,Steel,None or Unspecified,"15' 9""",None or Unspecified,None or Unspecified,Double,,,,,
9055,1153993,24000,1050684,121,3.0,1995,2981.0,Low,12/14/2006 0:00,PC300,PC300,,,,Large / Medium,"Hydraulic Excavator, Track - 33.0 to 40.0 Metric Tons",Florida,TEX,Track Excavators,,EROPS,,,,,,,,,,,Standard,,,,,,None or Unspecified,,,,Steel,None or Unspecified,None or Unspecified,None or Unspecified,None or Unspecified,Double,,,,,
9055,1159001,58000,1043621,121,3.0,1997,0.0,,2/9/2006 0:00,PC300,PC300,,,,Large / Medium,"Hydraulic Excavator, Track - 33.0 to 40.0 Metric Tons",Colorado,TEX,Track Excavators,,EROPS w AC,,,,,,,,,,,Standard,,,,,,None or Unspecified,,,,Steel,None or Unspecified,None or Unspecified,None or Unspecified,None or Unspecified,Double,,,,,
9055,1159500,21000,1056518,121,3.0,1989,0.0,,6/2/2005 0:00,PC300,PC300,,,,Large / Medium,"Hydraulic Excavator, Track - 33.0 to 40.0 Metric Tons",Georgia,TEX,Track Excavators,,EROPS,,,,,,,,,,,Standard,,,,,,None or Unspecified,,,,Steel,None or Unspecified,None or Unspecified,None or Unspecified,None or Unspecified,Double,,,,,
9055,1159942,27000,1069010,121,3.0,2000,15042.0,High,8/13/2009 0:00,PC300,PC300,,,,Large / Medium,"Hydraulic Excavator, Track - 33.0 to 40.0 Metric Tons",Missouri,TEX,Track Excavators,,EROPS w AC,,,,,,,,,,,Standard,,,,,,None or Unspecified,,,,Steel,None or Unspecified,"11' 0""",None or Unspecified,None or Unspecified,Double,,,,,
9055,1166009,20500,1000712,121,3.0,1000,0.0,,5/19/2011 0:00,PC300,PC300,,,,Large / Medium,"Hydraulic Excavator, Track - 33.0 to 40.0 Metric Tons",Texas,TEX,Track Excavators,,EROPS,,,,,,,,,,,Standard,,,,,,None or Unspecified,,,,Steel,None or Unspecified,None or Unspecified,None or Unspecified,None or Unspecified,Double,,,,,
9055,1171098,41500,1040633,121,3.0,1997,7564.0,Medium,11/15/2007 0:00,PC300,PC300,,,,Large / Medium,"Hydraulic Excavator, Track - 33.0 to 40.0 Metric Tons",Florida,TEX,Track Excavators,,EROPS w AC,,,,,,,,,,,Auxiliary,,,,,,None or Unspecified,,,,Steel,None or Unspecified,"11' 0""",None or Unspecified,None or Unspecified,Double,,,,,
9055,1173105,40000,1036101,121,3.0,2000,0.0,,11/2/2006 0:00,PC300,PC300,,,,Large / Medium,"Hydraulic Excavator, Track - 33.0 to 40.0 Metric Tons",North Carolina,TEX,Track Excavators,,EROPS w AC,,,,,,,,,,,Standard,,,,,,None or Unspecified,,,,Steel,None or Unspecified,"10' 6""",Manual,None or Unspecified,Double,,,,,
9055,1174074,20500,1064455,121,3.0,1990,3706.0,Low,9/30/2004 0:00,PC300,PC300,,,,Large / Medium,"Hydraulic Excavator, Track - 33.0 to 40.0 Metric Tons",Nevada,TEX,Track Excavators,,EROPS w AC,,,,,,,,,,,Standard,,,,,,Hydraulic,,,,,,,,,,,,,,
9055,1176082,27500,1014774,121,3.0,1993,7252.0,Medium,12/13/2007 0:00,PC300,PC300,,,,Large / Medium,"Hydraulic Excavator, Track - 33.0 to 40.0 Metric Tons",Texas,TEX,Track Excavators,,EROPS,,,,,,,,,,,Standard,,,,,,None or Unspecified,,,,Steel,16 inch,None or Unspecified,None or Unspecified,None or Unspecified,Double,,,,,
9055,1176083,39000,1054292,121,3.0,1998,9800.0,High,12/13/2007 0:00,PC300,PC300,,,,Large / Medium,"Hydraulic Excavator, Track - 33.0 to 40.0 Metric Tons",Texas,TEX,Track Excavators,,EROPS,,,,,,,,,,,Standard,,,,,,None or Unspecified,,,,Steel,None or Unspecified,None or Unspecified,None or Unspecified,None or Unspecified,Double,,,,,
9055,1176203,10000,1005433,121,3.0,1000,0.0,,12/13/2007 0:00,PC300,PC300,,,,Large / Medium,"Hydraulic Excavator, Track - 33.0 to 40.0 Metric Tons",Maryland,TEX,Track Excavators,,EROPS,,,,,,,,,,,Standard,,,,,,None or Unspecified,,,,Steel,32 inch,None or Unspecified,None or Unspecified,None or Unspecified,Double,,,,,
9055,1176565,42000,1024845,121,3.0,1999,10598.0,High,1/31/2008 0:00,PC300,PC300,,,,Large / Medium,"Hydraulic Excavator, Track - 33.0 to 40.0 Metric Tons",Florida,TEX,Track Excavators,,EROPS w AC,,,,,,,,,,,Standard,,,,,,None or Unspecified,,,,Steel,16 inch,None or Unspecified,None or Unspecified,None or Unspecified,Double,,,,,
9055,1183322,50000,1012723,121,3.0,1000,0.0,,10/16/2008 0:00,PC300,PC300,,,,Large / Medium,"Hydraulic Excavator, Track - 33.0 to 40.0 Metric Tons",West Virginia,TEX,Track Excavators,,EROPS,,,,,,,,,,,Standard,,,,,,None or Unspecified,,,,Steel,None or Unspecified,"9' 6""",Manual,None or Unspecified,Double,,,,,
9055,1184574,19500,1008578,121,3.0,1000,0.0,,12/11/2008 0:00,PC300,PC300,,,,Large / Medium,"Hydraulic Excavator, Track - 33.0 to 40.0 Metric Tons",Georgia,TEX,Track Excavators,,EROPS w AC,,,,,,,,,,,Standard,,,,,,None or Unspecified,,,,Steel,34 inch,None or Unspecified,Manual,None or Unspecified,Double,,,,,
9055,1199163,87000,1069892,121,3.0,2005,5285.0,Medium,3/25/2010 0:00,PC300,PC300,,,,Large / Medium,"Hydraulic Excavator, Track - 33.0 to 40.0 Metric Tons",Virginia,TEX,Track Excavators,,EROPS w AC,,,,,,,,,,,Standard,,,,,,Hydraulic,,,,Steel,None or Unspecified,None or Unspecified,Manual,None or Unspecified,Double,,,,,
9055,1206901,40000,1045173,121,3.0,1000,10308.0,Low,9/23/2010 0:00,PC300,PC300,,,,Large / Medium,"Hydraulic Excavator, Track - 33.0 to 40.0 Metric Tons",Mississippi,TEX,Track Excavators,,EROPS,,,,,,,,,,,Standard,,,,,,None or Unspecified,,,,Steel,None or Unspecified,None or Unspecified,None or Unspecified,None or Unspecified,Double,,,,,
9055,1219833,37500,1034638,121,3.0,1000,5937.0,Low,10/27/2011 0:00,PC300,PC300,,,,Large / Medium,"Hydraulic Excavator, Track - 33.0 to 40.0 Metric Tons",North Carolina,TEX,Track Excavators,,EROPS,,,,,,,,,,,Auxiliary,,,,,,None or Unspecified,,,,Steel,None or Unspecified,"10' 6""",None or Unspecified,None or Unspecified,Double,,,,,
9055,1727773,21500,530377,132,1.0,1981,,,5/18/1993 0:00,PC300,PC300,,,,Large / Medium,"Hydraulic Excavator, Track - 33.0 to 40.0 Metric Tons",Maine,TEX,Track Excavators,,,,,,,,,,,,,,,,,,,,,,,,,,,,,,,,,
9055,1731025,31750,1549562,132,6.0,1983,,,3/26/1991 0:00,PC300,PC300,,,,Large / Medium,"Hydraulic Excavator, Track - 33.0 to 40.0 Metric Tons",Kentucky,TEX,Track Excavators,,EROPS,,,,,,,,,,,Standard,,,,,,None or Unspecified,,,,Steel,None or Unspecified,None or Unspecified,None or Unspecified,None or Unspecified,Double,,,,,
9055,1731036,33000,1546806,132,1.0,1983,,,3/30/1993 0:00,PC300,PC300,,,,Large / Medium,"Hydraulic Excavator, Track - 33.0 to 40.0 Metric Tons",Colorado,TEX,Track Excavators,,EROPS,,,,,,,,,,,2 Valve,,,,,,None or Unspecified,,,,,,,,,,,,,,
9055,1731039,33000,1168674,132,4.0,1983,100.0,Low,2/5/1991 0:00,PC300,PC300,,,,Large / Medium,"Hydraulic Excavator, Track - 33.0 to 40.0 Metric Tons",Florida,TEX,Track Excavators,,EROPS,,,,,,,,,,,Standard,,,,,,None or Unspecified,,,,Rubber,None or Unspecified,None or Unspecified,None or Unspecified,None or Unspecified,Double,,,,,
9055,1731171,35000,888270,132,1.0,1984,,,12/5/1989 0:00,PC300,PC300,,,,Large / Medium,"Hydraulic Excavator, Track - 33.0 to 40.0 Metric Tons",Tennessee,TEX,Track Excavators,,EROPS,,,,,,,,,,,2 Valve,,,,,,None or Unspecified,,,,,,,,,,,,,,
9055,1731194,39000,1507110,132,4.0,1984,,,8/8/1991 0:00,PC300,PC300,,,,Large / Medium,"Hydraulic Excavator, Track - 33.0 to 40.0 Metric Tons",North Carolina,TEX,Track Excavators,,EROPS,,,,,,,,,,,Standard,,,,,,None or Unspecified,,,,Steel,32 inch,None or Unspecified,None or Unspecified,None or Unspecified,Double,,,,,
9055,1731200,28500,1495017,132,24.0,1983,,,11/29/1990 0:00,PC300,PC300,,,,Large / Medium,"Hydraulic Excavator, Track - 33.0 to 40.0 Metric Tons",Georgia,TEX,Track Excavators,,EROPS,,,,,,,,,,,Standard,,,,,,None or Unspecified,,,,Steel,32 inch,None or Unspecified,None or Unspecified,None or Unspecified,Double,,,,,
9055,1731201,38000,1495017,132,24.0,1983,,,8/9/1990 0:00,PC300,PC300,,,,Large / Medium,"Hydraulic Excavator, Track - 33.0 to 40.0 Metric Tons",Georgia,TEX,Track Excavators,,EROPS,,,,,,,,,,,Standard,,,,,,None or Unspecified,,,,Steel,32 inch,None or Unspecified,None or Unspecified,None or Unspecified,Double,,,,,
9055,1731202,40000,1495017,132,24.0,1983,,,3/13/1990 0:00,PC300,PC300,,,,Large / Medium,"Hydraulic Excavator, Track - 33.0 to 40.0 Metric Tons",Georgia,TEX,Track Excavators,,EROPS,,,,,,,,,,,Standard,,,,,,None or Unspecified,,,,Steel,32 inch,None or Unspecified,None or Unspecified,None or Unspecified,Double,,,,,
9055,1731271,34000,1395706,132,2.0,1984,,,3/12/1993 0:00,PC300,PC300,,,,Large / Medium,"Hydraulic Excavator, Track - 33.0 to 40.0 Metric Tons",New Jersey,TEX,Track Excavators,,EROPS,,,,,,,,,,,Standard,,,,,,None or Unspecified,,,,Steel,None or Unspecified,None or Unspecified,None or Unspecified,None or Unspecified,Double,,,,,
9055,1731319,53000,1115732,132,4.0,1984,,,2/6/1990 0:00,PC300,PC300,,,,Large / Medium,"Hydraulic Excavator, Track - 33.0 to 40.0 Metric Tons",Florida,TEX,Track Excavators,,EROPS,,,,,,,,,,,2 Valve,,,,,,None or Unspecified,,,,,,,,,,,,,,
9055,1731395,35000,827231,132,1.0,1984,,,3/2/1993 0:00,PC300,PC300,,,,Large / Medium,"Hydraulic Excavator, Track - 33.0 to 40.0 Metric Tons",Georgia,TEX,Track Excavators,,EROPS,,,,,,,,,,,2 Valve,,,,,,None or Unspecified,,,,,,,,,,,,,,
9055,1731403,50500,1363684,132,4.0,1984,,,2/1/1993 0:00,PC300,PC300,,,,Large / Medium,"Hydraulic Excavator, Track - 33.0 to 40.0 Metric Tons",Florida,TEX,Track Excavators,,EROPS w AC,,,,,,,,,,,2 Valve,,,,,,None or Unspecified,,,,,,,,,,,,,,
9055,1731442,43500,1196353,132,6.0,1984,,,3/22/1990 0:00,PC300,PC300,,,,Large / Medium,"Hydraulic Excavator, Track - 33.0 to 40.0 Metric Tons",Mississippi,TEX,Track Excavators,,EROPS,,,,,,,,,,,2 Valve,,,,,,None or Unspecified,,,,,,,,,,,,,,
9055,1731448,32500,1325000,132,1.0,1984,,,2/26/1991 0:00,PC300,PC300,,,,Large / Medium,"Hydraulic Excavator, Track - 33.0 to 40.0 Metric Tons",Nevada,TEX,Track Excavators,,EROPS,,,,,,,,,,,Standard,,,,,,None or Unspecified,,,,Steel,None or Unspecified,None or Unspecified,None or Unspecified,None or Unspecified,Triple,,,,,
9055,1731531,46000,1410355,132,24.0,1984,,,3/13/1990 0:00,PC300,PC300,,,,Large / Medium,"Hydraulic Excavator, Track - 33.0 to 40.0 Metric Tons",Georgia,TEX,Track Excavators,,EROPS,,,,,,,,,,,Standard,,,,,,None or Unspecified,,,,Steel,32 inch,None or Unspecified,None or Unspecified,None or Unspecified,Triple,,,,,
9055,1731566,30500,1391627,132,4.0,1984,,,2/4/1992 0:00,PC300,PC300,,,,Large / Medium,"Hydraulic Excavator, Track - 33.0 to 40.0 Metric Tons",Florida,TEX,Track Excavators,,EROPS w AC,,,,,,,,,,,2 Valve,,,,,,None or Unspecified,,,,,,,,,,,,,,
9055,1731573,25000,1297077,132,1.0,1984,,,10/29/1992 0:00,PC300,PC300,,,,Large / Medium,"Hydraulic Excavator, Track - 33.0 to 40.0 Metric Tons",Maryland,TEX,Track Excavators,,EROPS,,,,,,,,,,,Standard,,,,,,None or Unspecified,,,,,,None or Unspecified,None or Unspecified,No,,,,,,
9055,1731574,27000,1297077,132,1.0,1984,,,5/11/1993 0:00,PC300,PC300,,,,Large / Medium,"Hydraulic Excavator, Track - 33.0 to 40.0 Metric Tons",Maryland,TEX,Track Excavators,,EROPS,,,,,,,,,,,Standard,,,,,,None or Unspecified,,,,,,None or Unspecified,None or Unspecified,No,,,,,,
9055,1731581,30000,1354529,132,1.0,1984,,,11/24/1992 0:00,PC300,PC300,,,,Large / Medium,"Hydraulic Excavator, Track - 33.0 to 40.0 Metric Tons",Nevada,TEX,Track Excavators,,EROPS,,,,,,,,,,,Standard,,,,,,None or Unspecified,,,,Steel,None or Unspecified,None or Unspecified,None or Unspecified,None or Unspecified,Triple,,,,,
9055,1731584,67500,1224128,132,1.0,1984,,,10/4/1990 0:00,PC300,PC300,,,,Large / Medium,"Hydraulic Excavator, Track - 33.0 to 40.0 Metric Tons",Washington,TEX,Track Excavators,,EROPS,,,,,,,,,,,Standard,,,,,,None or Unspecified,,,,Steel,None or Unspecified,None or Unspecified,None or Unspecified,None or Unspecified,Double,,,,,
9055,1731586,49000,1456736,132,6.0,1984,,,3/29/1990 0:00,PC300,PC300,,,,Large / Medium,"Hydraulic Excavator, Track - 33.0 to 40.0 Metric Tons",Kentucky,TEX,Track Excavators,,EROPS,,,,,,,,,,,Standard,,,,,,None or Unspecified,,,,Rubber,None or Unspecified,None or Unspecified,None or Unspecified,None or Unspecified,Double,,,,,
9055,1731617,43500,1180075,132,6.0,1984,,,3/22/1990 0:00,PC300,PC300,,,,Large / Medium,"Hydraulic Excavator, Track - 33.0 to 40.0 Metric Tons",Mississippi,TEX,Track Excavators,,EROPS,,,,,,,,,,,2 Valve,,,,,,None or Unspecified,,,,,,,,,,,,,,
9055,1732363,44000,1102477,132,11.0,1985,,,11/12/1992 0:00,PC300,PC300,,,,Large / Medium,"Hydraulic Excavator, Track - 33.0 to 40.0 Metric Tons",Mississippi,TEX,Track Excavators,,EROPS,,,,,,,,,,,Standard,,,,,,None or Unspecified,,,,Steel,None or Unspecified,None or Unspecified,None or Unspecified,None or Unspecified,Double,,,,,
9055,1732365,45000,1102477,132,10.0,1985,,,10/14/1992 0:00,PC300,PC300,,,,Large / Medium,"Hydraulic Excavator, Track - 33.0 to 40.0 Metric Tons",Alabama,TEX,Track Excavators,,EROPS,,,,,,,,,,,Standard,,,,,,None or Unspecified,,,,Steel,None or Unspecified,None or Unspecified,None or Unspecified,None or Unspecified,Double,,,,,
9055,1732375,39000,1508061,132,2.0,1985,,,7/31/1993 0:00,PC300,PC300,,,,Large / Medium,"Hydraulic Excavator, Track - 33.0 to 40.0 Metric Tons",North Carolina,TEX,Track Excavators,,EROPS,,,,,,,,,,,Standard,,,,,,None or Unspecified,,,,Steel,None or Unspecified,None or Unspecified,None or Unspecified,None or Unspecified,Double,,,,,
9055,1732382,25500,1252690,132,2.0,1985,,,10/2/1993 0:00,PC300,PC300,,,,Large / Medium,"Hydraulic Excavator, Track - 33.0 to 40.0 Metric Tons",Pennsylvania,TEX,Track Excavators,,EROPS,,,,,,,,,,,Standard,,,,,,None or Unspecified,,,,Steel,None or Unspecified,None or Unspecified,None or Unspecified,None or Unspecified,Double,,,,,
9055,1732649,54000,1213754,132,1.0,1985,,,4/11/1991 0:00,PC300,PC300,,,,Large / Medium,"Hydraulic Excavator, Track - 33.0 to 40.0 Metric Tons",Washington,TEX,Track Excavators,,EROPS,,,,,,,,,,,Standard,,,,,,None or Unspecified,,,,Steel,None or Unspecified,None or Unspecified,Manual,None or Unspecified,Triple,,,,,
9055,1732685,55000,1488620,132,4.0,1985,,,2/4/1992 0:00,PC300,PC300,,,,Large / Medium,"Hydraulic Excavator, Track - 33.0 to 40.0 Metric Tons",Florida,TEX,Track Excavators,,EROPS,,,,,,,,,,,Standard,,,,,,None or Unspecified,,,,Steel,None or Unspecified,None or Unspecified,None or Unspecified,None or Unspecified,Double,,,,,
9055,1732736,43000,249778,132,24.0,1985,,,8/9/1990 0:00,PC300,PC300,,,,Large / Medium,"Hydraulic Excavator, Track - 33.0 to 40.0 Metric Tons",Georgia,TEX,Track Excavators,,EROPS,,,,,,,,,,,Standard,,,,,,None or Unspecified,,,,Steel,32 inch,None or Unspecified,None or Unspecified,None or Unspecified,Double,,,,,
9055,1732768,40000,1191574,132,19.0,1985,,,7/29/1992 0:00,PC300,PC300,,,,Large / Medium,"Hydraulic Excavator, Track - 33.0 to 40.0 Metric Tons",California,TEX,Track Excavators,,EROPS,,,,,,,,,,,Standard,,,,,,None or Unspecified,,,,Steel,32 inch,None or Unspecified,None or Unspecified,None or Unspecified,Triple,,,,,
9055,1732781,53000,1342854,132,1.0,1984,,,11/22/1991 0:00,PC300,PC300,,,,Large / Medium,"Hydraulic Excavator, Track - 33.0 to 40.0 Metric Tons",Minnesota,TEX,Track Excavators,,EROPS,,,,,,,,,,,Standard,,,,,,None or Unspecified,,,,Steel,None or Unspecified,None or Unspecified,None or Unspecified,None or Unspecified,Triple,,,,,
9055,1732793,59000,1282713,132,1.0,1986,,,4/11/1991 0:00,PC300,PC300,,,,Large / Medium,"Hydraulic Excavator, Track - 33.0 to 40.0 Metric Tons",Washington,TEX,Track Excavators,,EROPS,,,,,,,,,,,Standard,,,,,,None or Unspecified,,,,Steel,None or Unspecified,None or Unspecified,Manual,None or Unspecified,Triple,,,,,
9055,1732800,37500,269565,132,1.0,1985,,,4/22/1993 0:00,PC300,PC300,,,,Large / Medium,"Hydraulic Excavator, Track - 33.0 to 40.0 Metric Tons",Minnesota,TEX,Track Excavators,,OROPS,,,,,,,,,,,2 Valve,,,,,,None or Unspecified,,,,,,,,,,,,,,
9055,1732802,27000,1447278,132,1.0,1984,,,3/26/1992 0:00,PC300,PC300,,,,Large / Medium,"Hydraulic Excavator, Track - 33.0 to 40.0 Metric Tons",Florida,TEX,Track Excavators,,EROPS,,,,,,,,,,,Standard,,,,,,None or Unspecified,,,,Steel,None or Unspecified,"11' 0""",None or Unspecified,None or Unspecified,Double,,,,,
9055,1732934,48000,1360728,132,1.0,1986,,,6/19/1992 0:00,PC300,PC300,,,,Large / Medium,"Hydraulic Excavator, Track - 33.0 to 40.0 Metric Tons",Minnesota,TEX,Track Excavators,,EROPS,,,,,,,,,,,2 Valve,,,,,,Manual,,,,,,,,,,,,,,
9055,1732936,45000,1360728,132,1.0,1986,,,11/16/1993 0:00,PC300,PC300,,,,Large / Medium,"Hydraulic Excavator, Track - 33.0 to 40.0 Metric Tons",Wisconsin,TEX,Track Excavators,,EROPS,,,,,,,,,,,2 Valve,,,,,,Manual,,,,,,,,,,,,,,
9055,1732958,40000,1132096,132,4.0,1986,,,2/5/1991 0:00,PC300,PC300,,,,Large / Medium,"Hydraulic Excavator, Track - 33.0 to 40.0 Metric Tons",Florida,TEX,Track Excavators,,EROPS,,,,,,,,,,,Standard,,,,,,None or Unspecified,,,,Steel,None or Unspecified,None or Unspecified,None or Unspecified,None or Unspecified,Double,,,,,
9055,1732959,65000,1457654,132,4.0,1986,100.0,Low,9/25/1992 0:00,PC300,PC300,,,,Large / Medium,"Hydraulic Excavator, Track - 33.0 to 40.0 Metric Tons",Ohio,TEX,Track Excavators,,OROPS,,,,,,,,,,,2 Valve,,,,,,,,,,,32 inch,,,,,,,,,
9055,1733013,67000,1544232,132,4.0,1986,,,2/5/1991 0:00,PC300,PC300,,,,Large / Medium,"Hydraulic Excavator, Track - 33.0 to 40.0 Metric Tons",Florida,TEX,Track Excavators,,EROPS,,,,,,,,,,,Auxiliary,,,,,,Manual,,,,Steel,None or Unspecified,"10' 2""",None or Unspecified,None or Unspecified,Double,,,,,
9055,1733131,70000,1407070,132,4.0,1986,2443.0,High,2/4/1992 0:00,PC300,PC300,,,,Large / Medium,"Hydraulic Excavator, Track - 33.0 to 40.0 Metric Tons",Florida,TEX,Track Excavators,,EROPS,,,,,,,,,,,Standard,,,,,,None or Unspecified,,,,Rubber,None or Unspecified,None or Unspecified,None or Unspecified,None or Unspecified,Double,,,,,
9055,1733165,54500,1392148,132,6.0,1986,,,11/7/1991 0:00,PC300,PC300,,,,Large / Medium,"Hydraulic Excavator, Track - 33.0 to 40.0 Metric Tons",Texas,TEX,Track Excavators,,EROPS,,,,,,,,,,,Standard,,,,,,None or Unspecified,,,,Steel,32 inch,"10' 6""",None or Unspecified,None or Unspecified,Double,,,,,
9055,1733178,52000,1185497,132,99.0,1986,,,7/15/1993 0:00,PC300,PC300,,,,Large / Medium,"Hydraulic Excavator, Track - 33.0 to 40.0 Metric Tons",Maine,TEX,Track Excavators,,EROPS,,,,,,,,,,,Standard,,,,,,None or Unspecified,,,,Steel,32 inch,None or Unspecified,None or Unspecified,None or Unspecified,Triple,,,,,
9055,1733215,46000,1478623,132,6.0,1986,,,1/31/1992 0:00,PC300,PC300,,,,Large / Medium,"Hydraulic Excavator, Track - 33.0 to 40.0 Metric Tons",Florida,TEX,Track Excavators,,EROPS,,,,,,,,,,,Standard,,,,,,None or Unspecified,,,,Rubber,None or Unspecified,None or Unspecified,None or Unspecified,None or Unspecified,Double,,,,,
9055,1733217,34000,1237757,132,25.0,1986,,,5/1/1993 0:00,PC300,PC300,,,,Large / Medium,"Hydraulic Excavator, Track - 33.0 to 40.0 Metric Tons",California,TEX,Track Excavators,,EROPS w AC,,,,,,,,,,,2 Valve,,,,,,,,,,,32 inch,,,,,,,,,
9055,1733218,35000,1237757,132,19.0,1985,,,3/25/1992 0:00,PC300,PC300,,,,Large / Medium,"Hydraulic Excavator, Track - 33.0 to 40.0 Metric Tons",Nevada,TEX,Track Excavators,,EROPS w AC,,,,,,,,,,,2 Valve,,,,,,,,,,,32 inch,,,,,,,,,
9055,1733227,65000,1390133,132,4.0,1986,,,2/1/1993 0:00,PC300,PC300,,,,Large / Medium,"Hydraulic Excavator, Track - 33.0 to 40.0 Metric Tons",Florida,TEX,Track Excavators,,EROPS,,,,,,,,,,,Standard,,,,,,None or Unspecified,,,,Steel,None or Unspecified,None or Unspecified,None or Unspecified,None or Unspecified,Double,,,,,
9055,1733251,41000,1386024,132,2.0,1986,,,7/31/1993 0:00,PC300,PC300,,,,Large / Medium,"Hydraulic Excavator, Track - 33.0 to 40.0 Metric Tons",North Carolina,TEX,Track Excavators,,EROPS,,,,,,,,,,,Standard,,,,,,None or Unspecified,,,,Steel,None or Unspecified,None or Unspecified,None or Unspecified,None or Unspecified,Double,,,,,
9055,1733277,67000,1368177,132,11.0,1988,,,11/12/1992 0:00,PC300,PC300,,,,Large / Medium,"Hydraulic Excavator, Track - 33.0 to 40.0 Metric Tons",Mississippi,TEX,Track Excavators,,EROPS,,,,,,,,,,,Standard,,,,,,None or Unspecified,,,,Steel,None or Unspecified,None or Unspecified,None or Unspecified,None or Unspecified,Double,,,,,
9055,1733284,55000,1275851,132,4.0,1987,,,9/25/1992 0:00,PC300,PC300,,,,Large / Medium,"Hydraulic Excavator, Track - 33.0 to 40.0 Metric Tons",Ohio,TEX,Track Excavators,,EROPS,,,,,,,,,,,Standard,,,,,,None or Unspecified,,,,Steel,32 inch,None or Unspecified,None or Unspecified,None or Unspecified,Double,,,,,
9055,1733312,69000,1164782,132,4.0,1986,,,2/4/1992 0:00,PC300,PC300,,,,Large / Medium,"Hydraulic Excavator, Track - 33.0 to 40.0 Metric Tons",Florida,TEX,Track Excavators,,EROPS,,,,,,,,,,,Standard,,,,,,None or Unspecified,,,,Steel,None or Unspecified,None or Unspecified,None or Unspecified,None or Unspecified,Double,,,,,
9055,1733328,36000,1207149,132,1.0,1986,,,11/13/1992 0:00,PC300,PC300,,,,Large / Medium,"Hydraulic Excavator, Track - 33.0 to 40.0 Metric Tons",Illinois,TEX,Track Excavators,,EROPS,,,,,,,,,,,Standard,,,,,,None or Unspecified,,,,Steel,None or Unspecified,None or Unspecified,None or Unspecified,None or Unspecified,Double,,,,,
9055,1733367,65000,1223962,132,18.0,1987,,,10/25/1990 0:00,PC300,PC300,,,,Large / Medium,"Hydraulic Excavator, Track - 33.0 to 40.0 Metric Tons",Pennsylvania,TEX,Track Excavators,,EROPS,,,,,,,,,,,Standard,,,,,,None or Unspecified,,,,Steel,32 inch,None or Unspecified,None or Unspecified,None or Unspecified,Triple,,,,,
9055,1733368,45000,1433871,132,1.0,1987,,,4/22/1993 0:00,PC300,PC300,,,,Large / Medium,"Hydraulic Excavator, Track - 33.0 to 40.0 Metric Tons",Minnesota,TEX,Track Excavators,,EROPS,,,,,,,,,,,Standard,,,,,,None or Unspecified,,,,Steel,None or Unspecified,None or Unspecified,Hydraulic,None or Unspecified,Triple,,,,,
9055,1733388,38000,1187143,132,1.0,1986,,,3/26/1992 0:00,PC300,PC300,,,,Large / Medium,"Hydraulic Excavator, Track - 33.0 to 40.0 Metric Tons",Florida,TEX,Track Excavators,,EROPS,,,,,,,,,,,Standard,,,,,,None or Unspecified,,,,Steel,None or Unspecified,"10' 6""",None or Unspecified,None or Unspecified,Double,,,,,
9055,1733421,50000,1114742,132,2.0,1987,,,7/31/1993 0:00,PC300,PC300,,,,Large / Medium,"Hydraulic Excavator, Track - 33.0 to 40.0 Metric Tons",North Carolina,TEX,Track Excavators,,EROPS,,,,,,,,,,,Auxiliary,,,,,,Manual,,,,Steel,None or Unspecified,None or Unspecified,None or Unspecified,None or Unspecified,Double,,,,,
9055,1733453,48000,1499810,132,2.0,1986,,,7/31/1993 0:00,PC300,PC300,,,,Large / Medium,"Hydraulic Excavator, Track - 33.0 to 40.0 Metric Tons",North Carolina,TEX,Track Excavators,,EROPS,,,,,,,,,,,Standard,,,,,,None or Unspecified,,,,Steel,None or Unspecified,"9' 6""",None or Unspecified,None or Unspecified,Double,,,,,
9055,1733472,32000,1321030,132,4.0,1987,,,2/4/1992 0:00,PC300,PC300,,,,Large / Medium,"Hydraulic Excavator, Track - 33.0 to 40.0 Metric Tons",Florida,TEX,Track Excavators,,EROPS,,,,,,,,,,,Standard,,,,,,None or Unspecified,,,,Steel,None or Unspecified,None or Unspecified,None or Unspecified,None or Unspecified,Double,,,,,
9055,1733489,61500,1146540,132,99.0,1987,,,4/17/1993 0:00,PC300,PC300,,,,Large / Medium,"Hydraulic Excavator, Track - 33.0 to 40.0 Metric Tons",New York,TEX,Track Excavators,,EROPS,,,,,,,,,,,Standard,,,,,,None or Unspecified,,,,Steel,32 inch,None or Unspecified,None or Unspecified,None or Unspecified,Triple,,,,,
9055,1733502,47500,855966,132,2.0,1988,,,12/4/1993 0:00,PC300,PC300,,,,Large / Medium,"Hydraulic Excavator, Track - 33.0 to 40.0 Metric Tons",Connecticut,TEX,Track Excavators,,EROPS,,,,,,,,,,,Standard,,,,,,None or Unspecified,,,,Steel,None or Unspecified,None or Unspecified,None or Unspecified,None or Unspecified,Double,,,,,
9055,1733525,54000,1352182,132,6.0,1987,,,9/24/1991 0:00,PC300,PC300,,,,Large / Medium,"Hydraulic Excavator, Track - 33.0 to 40.0 Metric Tons",Maryland,TEX,Track Excavators,,EROPS,,,,,,,,,,,Standard,,,,,,None or Unspecified,,,,Steel,None or Unspecified,None or Unspecified,None or Unspecified,None or Unspecified,Double,,,,,
9055,1733531,48000,1405588,132,6.0,1987,,,1/31/1992 0:00,PC300,PC300,,,,Large / Medium,"Hydraulic Excavator, Track - 33.0 to 40.0 Metric Tons",Florida,TEX,Track Excavators,,EROPS,,,,,,,,,,,Standard,,,,,,None or Unspecified,,,,Steel,None or Unspecified,None or Unspecified,None or Unspecified,None or Unspecified,Double,,,,,
9055,1733555,56000,1558180,132,1.0,1987,,,4/21/1992 0:00,PC300,PC300,,,,Large / Medium,"Hydraulic Excavator, Track - 33.0 to 40.0 Metric Tons",Minnesota,TEX,Track Excavators,,EROPS,,,,,,,,,,,Standard,,,,,,None or Unspecified,,,,Steel,None or Unspecified,None or Unspecified,None or Unspecified,None or Unspecified,Triple,,,,,
9055,1733588,37500,1466830,132,1.0,1987,,,12/14/1992 0:00,PC300,PC300,,,,Large / Medium,"Hydraulic Excavator, Track - 33.0 to 40.0 Metric Tons",North Carolina,TEX,Track Excavators,,EROPS,,,,,,,,,,,Standard,,,,,,None or Unspecified,,,,Steel,None or Unspecified,None or Unspecified,None or Unspecified,None or Unspecified,Triple,,,,,
9055,1733602,51000,1076716,132,2.0,1988,,,7/31/1993 0:00,PC300,PC300,,,,Large / Medium,"Hydraulic Excavator, Track - 33.0 to 40.0 Metric Tons",North Carolina,TEX,Track Excavators,,EROPS,,,,,,,,,,,Standard,,,,,,None or Unspecified,,,,Steel,None or Unspecified,None or Unspecified,None or Unspecified,None or Unspecified,Double,,,,,
9055,1733604,55000,1470381,132,1.0,1987,,,9/24/1991 0:00,PC300,PC300,,,,Large / Medium,"Hydraulic Excavator, Track - 33.0 to 40.0 Metric Tons",Texas,TEX,Track Excavators,,EROPS,,,,,,,,,,,Standard,,,,,,None or Unspecified,,,,Steel,None or Unspecified,None or Unspecified,Manual,None or Unspecified,Triple,,,,,
9055,1733624,43000,1381792,132,1.0,1987,,,12/14/1992 0:00,PC300,PC300,,,,Large / Medium,"Hydraulic Excavator, Track - 33.0 to 40.0 Metric Tons",North Carolina,TEX,Track Excavators,,EROPS,,,,,,,,,,,Standard,,,,,,None or Unspecified,,,,Steel,None or Unspecified,None or Unspecified,None or Unspecified,None or Unspecified,Triple,,,,,
9055,1733625,52500,1271699,132,4.0,1987,,,10/28/1993 0:00,PC300,PC300,,,,Large / Medium,"Hydraulic Excavator, Track - 33.0 to 40.0 Metric Tons",Georgia,TEX,Track Excavators,,OROPS,,,,,,,,,,,2 Valve,,,,,,,,,,,None or Unspecified,,,,,,,,,
9055,1733631,100000,1478464,132,1.0,1987,,,4/23/1990 0:00,PC300,PC300,,,,Large / Medium,"Hydraulic Excavator, Track - 33.0 to 40.0 Metric Tons",Connecticut,TEX,Track Excavators,,EROPS,,,,,,,,,,,Auxiliary,,,,,,None or Unspecified,,,,Steel,None or Unspecified,"10' 6""",None or Unspecified,None or Unspecified,Double,,,,,
9055,1733635,55000,1274681,132,1.0,1988,,,10/8/1991 0:00,PC300,PC300,,,,Large / Medium,"Hydraulic Excavator, Track - 33.0 to 40.0 Metric Tons",Washington,TEX,Track Excavators,,EROPS,,,,,,,,,,,Standard,,,,,,None or Unspecified,,,,Steel,None or Unspecified,None or Unspecified,Manual,None or Unspecified,Double,,,,,
9055,1733717,65000,1084555,132,1.0,1988,,,3/17/1993 0:00,PC300,PC300,,,,Large / Medium,"Hydraulic Excavator, Track - 33.0 to 40.0 Metric Tons",Indiana,TEX,Track Excavators,,EROPS,,,,,,,,,,,Standard,,,,,,None or Unspecified,,,,Steel,None or Unspecified,None or Unspecified,None or Unspecified,None or Unspecified,Double,,,,,
9055,1733751,53000,1150206,132,1.0,1987,,,9/9/1993 0:00,PC300,PC300,,,,Large / Medium,"Hydraulic Excavator, Track - 33.0 to 40.0 Metric Tons",Florida,TEX,Track Excavators,,EROPS,,,,,,,,,,,Standard,,,,,,None or Unspecified,,,,Steel,None or Unspecified,None or Unspecified,None or Unspecified,None or Unspecified,Triple,,,,,
9055,1733808,56500,1461913,132,2.0,1988,,,12/4/1993 0:00,PC300,PC300,,,,Large / Medium,"Hydraulic Excavator, Track - 33.0 to 40.0 Metric Tons",Connecticut,TEX,Track Excavators,,EROPS,,,,,,,,,,,Standard,,,,,,None or Unspecified,,,,Steel,None or Unspecified,None or Unspecified,None or Unspecified,None or Unspecified,Double,,,,,
9055,1733817,55000,1471697,132,1.0,1988,,,12/14/1992 0:00,PC300,PC300,,,,Large / Medium,"Hydraulic Excavator, Track - 33.0 to 40.0 Metric Tons",North Carolina,TEX,Track Excavators,,EROPS,,,,,,,,,,,Standard,,,,,,None or Unspecified,,,,Steel,None or Unspecified,None or Unspecified,None or Unspecified,None or Unspecified,Triple,,,,,
9055,1733909,94000,1509831,132,1.0,1988,,,4/11/1991 0:00,PC300,PC300,,,,Large / Medium,"Hydraulic Excavator, Track - 33.0 to 40.0 Metric Tons",Washington,TEX,Track Excavators,,EROPS,,,,,,,,,,,Standard,,,,,,None or Unspecified,,,,Steel,None or Unspecified,None or Unspecified,Hydraulic,None or Unspecified,Triple,,,,,
9055,1733966,87000,1467932,132,1.0,1988,,,4/11/1991 0:00,PC300,PC300,,,,Large / Medium,"Hydraulic Excavator, Track - 33.0 to 40.0 Metric Tons",Washington,TEX,Track Excavators,,EROPS,,,,,,,,,,,Standard,,,,,,Manual,,,,Steel,None or Unspecified,None or Unspecified,Manual,None or Unspecified,Double,,,,,
9055,1733970,59000,1145047,132,4.0,1988,,,10/28/1993 0:00,PC300,PC300,,,,Large / Medium,"Hydraulic Excavator, Track - 33.0 to 40.0 Metric Tons",Georgia,TEX,Track Excavators,,EROPS,,,,,,,,,,,Standard,,,,,,None or Unspecified,,,,Steel,None or Unspecified,None or Unspecified,None or Unspecified,None or Unspecified,Double,,,,,
9055,1733988,65000,1117343,132,1.0,1988,,,12/14/1992 0:00,PC300,PC300,,,,Large / Medium,"Hydraulic Excavator, Track - 33.0 to 40.0 Metric Tons",North Carolina,TEX,Track Excavators,,EROPS,,,,,,,,,,,Standard,,,,,,None or Unspecified,,,,Steel,None or Unspecified,None or Unspecified,None or Unspecified,None or Unspecified,Triple,,,,,
9055,1733991,81000,1416658,132,18.0,1988,,,10/25/1990 0:00,PC300,PC300,,,,Large / Medium,"Hydraulic Excavator, Track - 33.0 to 40.0 Metric Tons",Pennsylvania,TEX,Track Excavators,,EROPS,,,,,,,,,,,Standard,,,,,,None or Unspecified,,,,Steel,32 inch,None or Unspecified,None or Unspecified,None or Unspecified,Triple,,,,,
9055,1733992,86000,1202733,132,18.0,1988,,,10/25/1990 0:00,PC300,PC300,,,,Large / Medium,"Hydraulic Excavator, Track - 33.0 to 40.0 Metric Tons",Pennsylvania,TEX,Track Excavators,,EROPS,,,,,,,,,,,Standard,,,,,,None or Unspecified,,,,Steel,32 inch,None or Unspecified,None or Unspecified,None or Unspecified,Triple,,,,,
9055,1734331,67500,1109079,132,2.0,1989,,,7/31/1993 0:00,PC300,PC300,,,,Large / Medium,"Hydraulic Excavator, Track - 33.0 to 40.0 Metric Tons",North Carolina,TEX,Track Excavators,,EROPS,,,,,,,,,,,Standard,,,,,,None or Unspecified,,,,Steel,None or Unspecified,None or Unspecified,None or Unspecified,None or Unspecified,Double,,,,,
9055,1734334,87500,1481548,132,18.0,1989,,,10/25/1990 0:00,PC300,PC300,,,,Large / Medium,"Hydraulic Excavator, Track - 33.0 to 40.0 Metric Tons",Pennsylvania,TEX,Track Excavators,,EROPS,,,,,,,,,,,Standard,,,,,,None or Unspecified,,,,Steel,32 inch,None or Unspecified,None or Unspecified,None or Unspecified,Triple,,,,,
9055,1734371,76000,1262187,132,1.0,1989,,,6/3/1993 0:00,PC300,PC300,,,,Large / Medium,"Hydraulic Excavator, Track - 33.0 to 40.0 Metric Tons",California,TEX,Track Excavators,,EROPS,,,,,,,,,,,Standard,,,,,,Hydraulic,,,,Steel,24 inch,"9' 8""",None or Unspecified,None or Unspecified,Double,,,,,
9055,1739091,50000,557570,132,2.0,1987,,,8/28/1993 0:00,PC300,PC300,,,,Large / Medium,"Hydraulic Excavator, Track - 33.0 to 40.0 Metric Tons",Maine,TEX,Track Excavators,,EROPS,,,,,,,,,,,Standard,,,,,,None or Unspecified,,,,Steel,None or Unspecified,None or Unspecified,None or Unspecified,None or Unspecified,Double,,,,,
9055,1762370,56000,1389879,132,2.0,1988,,,7/31/1993 0:00,PC300,PC300,,,,Large / Medium,"Hydraulic Excavator, Track - 33.0 to 40.0 Metric Tons",North Carolina,TEX,Track Excavators,,EROPS,,,,,,,,,,,Standard,,,,,,None or Unspecified,,,,Steel,None or Unspecified,None or Unspecified,None or Unspecified,None or Unspecified,Double,,,,,
9055,1762380,33000,1260195,132,1.0,1988,,,9/30/1993 0:00,PC300,PC300,,,,Large / Medium,"Hydraulic Excavator, Track - 33.0 to 40.0 Metric Tons",Maryland,TEX,Track Excavators,,EROPS,,,,,,,,,,,Standard,,,,,,None or Unspecified,,,,Steel,None or Unspecified,None or Unspecified,None or Unspecified,None or Unspecified,Double,,,,,
9055,1762861,91000,1477542,132,11.0,1990,,,11/12/1992 0:00,PC300,PC300,,,,Large / Medium,"Hydraulic Excavator, Track - 33.0 to 40.0 Metric Tons",Mississippi,TEX,Track Excavators,,EROPS w AC,,,,,,,,,,,Standard,,,,,,None or Unspecified,,,,Steel,None or Unspecified,None or Unspecified,None or Unspecified,None or Unspecified,Double,,,,,
9055,1766320,52000,1452855,132,1.0,1990,,,7/12/1993 0:00,PC300,PC300,,,,Large / Medium,"Hydraulic Excavator, Track - 33.0 to 40.0 Metric Tons",Texas,TEX,Track Excavators,,EROPS w AC,,,,,,,,,,,2 Valve,,,,,,None or Unspecified,,,,,,,,,,,,,,
9055,2399308,15000,1762899,136,,1986,0.0,,6/7/2007 0:00,PC300,PC300,,,,Large / Medium,"Hydraulic Excavator, Track - 33.0 to 40.0 Metric Tons",Michigan,TEX,Track Excavators,,EROPS,,,,,,,,,,,Auxiliary,,,,,,None or Unspecified,,,,Steel,None or Unspecified,None or Unspecified,None or Unspecified,None or Unspecified,Triple,,,,,
9055,2399724,11000,711063,136,,1000,0.0,,10/1/2008 0:00,PC300,PC300,,,,Large / Medium,"Hydraulic Excavator, Track - 33.0 to 40.0 Metric Tons",California,TEX,Track Excavators,,EROPS,,,,,,,,,,,Standard,,,,,,None or Unspecified,,,,Steel,None or Unspecified,None or Unspecified,None or Unspecified,None or Unspecified,Double,,,,,
9055,2399860,12500,1526536,136,12.0,1000,0.0,,5/13/2009 0:00,PC300,PC300,,,,Large / Medium,"Hydraulic Excavator, Track - 33.0 to 40.0 Metric Tons",South Carolina,TEX,Track Excavators,,EROPS,,,,,,,,,,,Standard,,,,,,None or Unspecified,,,,Steel,None or Unspecified,None or Unspecified,Manual,None or Unspecified,Double,,,,,
9055,2400149,25000,1129162,136,1.0,1000,0.0,,2/12/2008 0:00,PC300,PC300,,,,Large / Medium,"Hydraulic Excavator, Track - 33.0 to 40.0 Metric Tons",Arizona,TEX,Track Excavators,,EROPS,,,,,,,,,,,Standard,,,,,,None or Unspecified,,,,Steel,None or Unspecified,"10' 6""",None or Unspecified,None or Unspecified,Double,,,,,
9055,2401550,20500,1319401,136,1.0,1000,0.0,,6/4/2008 0:00,PC300,PC300,,,,Large / Medium,"Hydraulic Excavator, Track - 33.0 to 40.0 Metric Tons",Alabama,TEX,Track Excavators,,EROPS w AC,,,,,,,,,,,Standard,,,,,,None or Unspecified,,,,Steel,None or Unspecified,None or Unspecified,None or Unspecified,None or Unspecified,Triple,,,,,
9055,2403499,36000,1245350,136,4.0,1000,0.0,,2/8/2010 0:00,PC300,PC300,,,,Large / Medium,"Hydraulic Excavator, Track - 33.0 to 40.0 Metric Tons",Florida,TEX,Track Excavators,,EROPS,,,,,,,,,,,Standard,,,,,,None or Unspecified,,,,Steel,None or Unspecified,None or Unspecified,None or Unspecified,None or Unspecified,Double,,,,,
9055,2404149,45000,1075777,136,1.0,1000,0.0,,3/26/2008 0:00,PC300,PC300,,,,Large / Medium,"Hydraulic Excavator, Track - 33.0 to 40.0 Metric Tons",Georgia,TEX,Track Excavators,,EROPS w AC,,,,,,,,,,,Standard,,,,,,None or Unspecified,,,,Steel,None or Unspecified,"10' 6""",None or Unspecified,None or Unspecified,Double,,,,,
9055,2413722,26000,1237334,136,1.0,1000,0.0,,2/19/2008 0:00,PC300,PC300,,,,Large / Medium,"Hydraulic Excavator, Track - 33.0 to 40.0 Metric Tons",Florida,TEX,Track Excavators,,EROPS,,,,,,,,,,,Standard,,,,,,None or Unspecified,,,,Steel,None or Unspecified,None or Unspecified,None or Unspecified,None or Unspecified,Double,,,,,
9055,2413787,24000,1142101,136,8.0,1000,0.0,,11/13/2008 0:00,PC300,PC300,,,,Large / Medium,"Hydraulic Excavator, Track - 33.0 to 40.0 Metric Tons",New Hampshire,TEX,Track Excavators,,EROPS,,,,,,,,,,,Standard,,,,,,None or Unspecified,,,,Steel,None or Unspecified,None or Unspecified,None or Unspecified,None or Unspecified,Double,,,,,
9055,2413819,25000,1730972,136,,1992,0.0,,10/23/2008 0:00,PC300,PC300,,,,Large / Medium,"Hydraulic Excavator, Track - 33.0 to 40.0 Metric Tons",Michigan,TEX,Track Excavators,,EROPS w AC,,,,,,,,,,,Standard,,,,,,None or Unspecified,,,,Steel,None or Unspecified,None or Unspecified,None or Unspecified,None or Unspecified,Triple,,,,,
9055,2413820,31000,1730972,136,,1000,0.0,,10/11/2007 0:00,PC300,PC300,,,,Large / Medium,"Hydraulic Excavator, Track - 33.0 to 40.0 Metric Tons",Michigan,TEX,Track Excavators,,EROPS w AC,,,,,,,,,,,Standard,,,,,,None or Unspecified,,,,Steel,None or Unspecified,None or Unspecified,None or Unspecified,None or Unspecified,Triple,,,,,
9055,2413863,30000,1417680,136,8.0,1000,0.0,,9/12/2007 0:00,PC300,PC300,,,,Large / Medium,"Hydraulic Excavator, Track - 33.0 to 40.0 Metric Tons",Mississippi,TEX,Track Excavators,,EROPS,,,,,,,,,,,Standard,,,,,,None or Unspecified,,,,Steel,None or Unspecified,None or Unspecified,None or Unspecified,None or Unspecified,Double,,,,,
9055,2413875,10500,1516831,136,1.0,1993,0.0,,9/24/2009 0:00,PC300,PC300,,,,Large / Medium,"Hydraulic Excavator, Track - 33.0 to 40.0 Metric Tons",Oklahoma,TEX,Track Excavators,,EROPS,,,,,,,,,,,Standard,,,,,,None or Unspecified,,,,Steel,None or Unspecified,None or Unspecified,None or Unspecified,None or Unspecified,Double,,,,,
9055,2414560,38000,1504230,136,1.0,1000,3477.0,Low,12/10/2009 0:00,PC300,PC300,,,,Large / Medium,"Hydraulic Excavator, Track - 33.0 to 40.0 Metric Tons",Washington,TEX,Track Excavators,,EROPS,,,,,,,,,,,Standard,,,,,,Hydraulic,,,,Steel,None or Unspecified,"10' 6""",Hydraulic,None or Unspecified,Double,,,,,
9055,2414616,40000,1086986,136,4.0,1000,0.0,,2/8/2010 0:00,PC300,PC300,,,,Large / Medium,"Hydraulic Excavator, Track - 33.0 to 40.0 Metric Tons",Florida,TEX,Track Excavators,,EROPS,,,,,,,,,,,Standard,,,,,,None or Unspecified,,,,Steel,None or Unspecified,None or Unspecified,Hydraulic,None or Unspecified,Double,,,,,
9055,2414754,40000,1299279,136,,1998,0.0,,9/27/2007 0:00,PC300,PC300,,,,Large / Medium,"Hydraulic Excavator, Track - 33.0 to 40.0 Metric Tons",Tennessee,TEX,Track Excavators,,EROPS,,,,,,,,,,,2 Valve,,,,,,,,,,,None or Unspecified,,,,,,,,,
9055,2414941,25000,213709,136,,1999,0.0,,11/14/2008 0:00,PC300,PC300,,,,Large / Medium,"Hydraulic Excavator, Track - 33.0 to 40.0 Metric Tons",Virginia,TEX,Track Excavators,,EROPS w AC,,,,,,,,,,,Auxiliary,,,,,,None or Unspecified,,,,Steel,None or Unspecified,None or Unspecified,None or Unspecified,None or Unspecified,Triple,,,,,
9055,2414966,42000,96673,136,5.0,1999,0.0,,3/26/2009 0:00,PC300,PC300,,,,Large / Medium,"Hydraulic Excavator, Track - 33.0 to 40.0 Metric Tons",Connecticut,TEX,Track Excavators,,EROPS,,,,,,,,,,,Standard,,,,,,None or Unspecified,,,,Steel,34 inch,None or Unspecified,None or Unspecified,None or Unspecified,Triple,,,,,
9055,2415063,37500,1513877,136,4.0,1000,0.0,,2/8/2010 0:00,PC300,PC300,,,,Large / Medium,"Hydraulic Excavator, Track - 33.0 to 40.0 Metric Tons",Florida,TEX,Track Excavators,,EROPS,,,,,,,,,,,Standard,,,,,,None or Unspecified,,,,Steel,None or Unspecified,None or Unspecified,None or Unspecified,None or Unspecified,Double,,,,,
9055,2415067,69000,1674357,136,,1999,0.0,,6/20/2007 0:00,PC300,PC300,,,,Large / Medium,"Hydraulic Excavator, Track - 33.0 to 40.0 Metric Tons",Louisiana,TEX,Track Excavators,,EROPS,,,,,,,,,,,Standard,,,,,,None or Unspecified,,,,Steel,None or Unspecified,None or Unspecified,None or Unspecified,None or Unspecified,Triple,,,,,
9055,2415078,41500,1186469,136,4.0,1000,0.0,,2/11/2008 0:00,PC300,PC300,,,,Large / Medium,"Hydraulic Excavator, Track - 33.0 to 40.0 Metric Tons",Florida,TEX,Track Excavators,,EROPS,,,,,,,,,,,Standard,,,,,,None or Unspecified,,,,Steel,None or Unspecified,None or Unspecified,None or Unspecified,None or Unspecified,Double,,,,,
9055,2415104,40000,125295,136,,1999,0.0,,10/10/2007 0:00,PC300,PC300,,,,Large / Medium,"Hydraulic Excavator, Track - 33.0 to 40.0 Metric Tons",Florida,TEX,Track Excavators,,EROPS w AC,,,,,,,,,,,Standard,,,,,,None or Unspecified,,,,Steel,32 inch,None or Unspecified,None or Unspecified,None or Unspecified,Double,,,,,
9055,2415220,41000,1430419,136,,2000,0.0,,4/10/2008 0:00,PC300,PC300,,,,Large / Medium,"Hydraulic Excavator, Track - 33.0 to 40.0 Metric Tons",Connecticut,TEX,Track Excavators,,EROPS w AC,,,,,,,,,,,Standard,,,,,,None or Unspecified,,,,Steel,None or Unspecified,None or Unspecified,None or Unspecified,None or Unspecified,Triple,,,,,
9055,2415221,47000,1430419,136,,2000,0.0,,1/25/2008 0:00,PC300,PC300,,,,Large / Medium,"Hydraulic Excavator, Track - 33.0 to 40.0 Metric Tons",Connecticut,TEX,Track Excavators,,EROPS w AC,,,,,,,,,,,Standard,,,,,,None or Unspecified,,,,Steel,None or Unspecified,None or Unspecified,None or Unspecified,None or Unspecified,Triple,,,,,
9055,2415247,67500,1322530,136,22.0,2000,0.0,,8/23/2007 0:00,PC300,PC300,,,,Large / Medium,"Hydraulic Excavator, Track - 33.0 to 40.0 Metric Tons",Minnesota,TEX,Track Excavators,,EROPS,,,,,,,,,,,Standard,,,,,,None or Unspecified,,,,Steel,None or Unspecified,None or Unspecified,None or Unspecified,None or Unspecified,Double,,,,,
9055,2415250,69000,1222838,136,1.0,2000,0.0,,6/20/2007 0:00,PC300,PC300,,,,Large / Medium,"Hydraulic Excavator, Track - 33.0 to 40.0 Metric Tons",Louisiana,TEX,Track Excavators,,EROPS,,,,,,,,,,,Standard,,,,,,None or Unspecified,,,,Steel,None or Unspecified,"15' 9""",None or Unspecified,None or Unspecified,Double,,,,,
9055,2415286,29000,1005028,136,10.0,1000,0.0,,9/16/2009 0:00,PC300,PC300,,,,Large / Medium,"Hydraulic Excavator, Track - 33.0 to 40.0 Metric Tons",Louisiana,TEX,Track Excavators,,EROPS w AC,,,,,,,,,,,Auxiliary,,,,,,Hydraulic,,,,Steel,34 inch,None or Unspecified,None or Unspecified,None or Unspecified,Triple,,,,,
9055,2415575,52000,1052248,136,7.0,2003,0.0,,10/22/2008 0:00,PC300,PC300,,,,Large / Medium,"Hydraulic Excavator, Track - 33.0 to 40.0 Metric Tons",South Carolina,TEX,Track Excavators,,EROPS w AC,,,,,,,,,,,Standard,,,,,,None or Unspecified,,,,Steel,34 inch,None or Unspecified,None or Unspecified,None or Unspecified,Triple,,,,,
9055,2416166,82000,1435730,136,12.0,1000,0.0,,6/25/2009 0:00,PC300,PC300,,,,Large / Medium,"Hydraulic Excavator, Track - 33.0 to 40.0 Metric Tons",South Carolina,TEX,Track Excavators,,EROPS w AC,,,,,,,,,,,Standard,,,,,,None or Unspecified,,,,Steel,None or Unspecified,None or Unspecified,None or Unspecified,None or Unspecified,Double,,,,,
9055,2416183,100000,1033997,136,7.0,1000,2680.0,High,6/16/2009 0:00,PC300,PC300,,,,Large / Medium,"Hydraulic Excavator, Track - 33.0 to 40.0 Metric Tons",Alabama,TEX,Track Excavators,,EROPS w AC,,,,,,,,,,,Standard,,,,,,None or Unspecified,,,,Steel,34 inch,"10' 6""",None or Unspecified,None or Unspecified,Triple,,,,,
9055,2420900,75000,1440166,136,1.0,1000,4264.0,Medium,12/19/2008 0:00,PC300,PC300,,,,Large / Medium,"Hydraulic Excavator, Track - 33.0 to 40.0 Metric Tons",Missouri,TEX,Track Excavators,,EROPS w AC,,,,,,,,,,,Auxiliary,,,,,,Manual,,,,Steel,None or Unspecified,None or Unspecified,None or Unspecified,None or Unspecified,Double,,,,,
9055,2420939,90000,1717642,136,,2005,4939.0,High,2/16/2009 0:00,PC300,PC300,,,,Large / Medium,"Hydraulic Excavator, Track - 33.0 to 40.0 Metric Tons",Florida,TEX,Track Excavators,,EROPS w AC,,,,,,,,,,,Standard,,,,,,None or Unspecified,,,,Steel,None or Unspecified,None or Unspecified,None or Unspecified,None or Unspecified,Double,,,,,
9055,2422605,17500,1656305,136,,1988,0.0,,5/15/2008 0:00,PC300,PC300,,,,Large / Medium,"Hydraulic Excavator, Track - 33.0 to 40.0 Metric Tons",Michigan,TEX,Track Excavators,,EROPS,,,,,,,,,,,Standard,,,,,,None or Unspecified,,,,Steel,None or Unspecified,None or Unspecified,None or Unspecified,None or Unspecified,Double,,,,,
9055,2423711,24000,1734956,136,,1000,0.0,,9/16/2009 0:00,PC300,PC300,,,,Large / Medium,"Hydraulic Excavator, Track - 33.0 to 40.0 Metric Tons",Louisiana,TEX,Track Excavators,,EROPS,,,,,,,,,,,Standard,,,,,,None or Unspecified,,,,Steel,None or Unspecified,None or Unspecified,None or Unspecified,None or Unspecified,Double,,,,,
9055,2700229,41500,856196,149,2.0,1000,0.0,,3/31/2011 0:00,PC300,PC300,,,,Large / Medium,"Hydraulic Excavator, Track - 33.0 to 40.0 Metric Tons",New Jersey,TEX,Track Excavators,,EROPS,,,,,,,,,,,2 Valve,,,,,,Manual,,,,,,,,,,,,,,
9055,4359551,42000,2282857,172,1.0,2001,16016.0,High,11/3/2010 0:00,PC300,PC300,,,,Large / Medium,"Hydraulic Excavator, Track - 33.0 to 40.0 Metric Tons",Texas,TEX,Track Excavators,,EROPS w AC,,,,,,,,,,,Standard,,,,,,None or Unspecified,,,,Steel,None or Unspecified,None or Unspecified,None or Unspecified,None or Unspecified,Double,,,,,
9055,6301506,19000,1806982,149,1.0,1987,,,12/16/2011 0:00,PC300,PC300,,,,Large / Medium,"Hydraulic Excavator, Track - 33.0 to 40.0 Metric Tons",California,TEX,Track Excavators,,EROPS,,,,,,,,,,,Standard,,,,,,None or Unspecified,,,,Steel,None or Unspecified,None or Unspecified,None or Unspecified,None or Unspecified,Double,,,,,
9055,6301601,19000,1915356,149,1.0,1989,,,12/16/2011 0:00,PC300,PC300,,,,Large / Medium,"Hydraulic Excavator, Track - 33.0 to 40.0 Metric Tons",California,TEX,Track Excavators,,EROPS,,,,,,,,,,,Standard,,,,,,None or Unspecified,,,,Steel,None or Unspecified,None or Unspecified,None or Unspecified,None or Unspecified,Double,,,,,
9055,6304067,32500,1407654,149,1.0,1995,,,12/16/2011 0:00,PC300,PC300,,,,Large / Medium,"Hydraulic Excavator, Track - 33.0 to 40.0 Metric Tons",California,TEX,Track Excavators,,EROPS,,,,,,,,,,,Standard,,,,,,None or Unspecified,,,,Steel,None or Unspecified,None or Unspecified,None or Unspecified,None or Unspecified,Double,,,,,
9055,6304441,45000,1709283,149,1.0,1998,,,9/14/2011 0:00,PC300,PC300,,,,Large / Medium,"Hydraulic Excavator, Track - 33.0 to 40.0 Metric Tons",Georgia,TEX,Track Excavators,,EROPS w AC,,,,,,,,,,,Standard,,,,,,None or Unspecified,,,,Steel,None or Unspecified,None or Unspecified,None or Unspecified,None or Unspecified,Double,,,,,
9055,6304551,49000,1177036,149,1.0,2001,,,7/27/2011 0:00,PC300,PC300,,,,Large / Medium,"Hydraulic Excavator, Track - 33.0 to 40.0 Metric Tons",Texas,TEX,Track Excavators,,EROPS,,,,,,,,,,,Standard,,,,,,None or Unspecified,,,,Steel,None or Unspecified,None or Unspecified,None or Unspecified,None or Unspecified,Double,,,,,
9055,6304648,72000,1876370,149,1.0,2005,,,9/14/2011 0:00,PC300,PC300,,,,Large / Medium,"Hydraulic Excavator, Track - 33.0 to 40.0 Metric Tons",Georgia,TEX,Track Excavators,,EROPS w AC,,,,,,,,,,,Standard,,,,,,None or Unspecified,,,,Steel,None or Unspecified,None or Unspecified,None or Unspecified,None or Unspecified,Double,,,,,
