ModelID,SalesID,SalePrice,MachineID,datasource,auctioneerID,YearMade,MachineHoursCurrentMeter,UsageBand,saledate,fiModelDesc,fiBaseModel,fiSecondaryDesc,fiModelSeries,fiModelDescriptor,ProductSize,fiProductClassDesc,state,ProductGroup,ProductGroupDesc,Drive_System,Enclosure,Forks,Pad_Type,Ride_Control,Stick,Transmission,Turbocharged,Blade_Extension,Blade_Width,Enclosure_Type,Engine_Horsepower,Hydraulics,Pushblock,Ripper,Scarifier,Tip_Control,Tire_Size,Coupler,Coupler_System,Grouser_Tracks,Hydraulics_Flow,Track_Type,Undercarriage_Pad_Width,Stick_Length,Thumb,Pattern_Changer,Grouser_Type,Backhoe_Mounting,Blade_Type,Travel_Controls,Differential_Type,Steering_Controls
9061,1142561,15000,1031522,121,3.0,2003,4237.0,Medium,4/16/2009 0:00,PC400,PC400,,,,Large / Medium,"Hydraulic Excavator, Track - 40.0 to 50.0 Metric Tons",Alabama,TEX,Track Excavators,,EROPS w AC,,,,,,,,,,,Auxiliary,,,,,,None or Unspecified,,,,Steel,24 inch,None or Unspecified,None or Unspecified,None or Unspecified,Double,,,,,
9061,1158972,16500,1000847,121,3.0,1985,0.0,,4/20/2006 0:00,PC400,PC400,,,,Large / Medium,"Hydraulic Excavator, Track - 40.0 to 50.0 Metric Tons",Florida,TEX,Track Excavators,,EROPS,,,,,,,,,,,Standard,,,,,,Manual,,,,Steel,36 inch,None or Unspecified,None or Unspecified,None or Unspecified,Triple,,,,,
9061,1175710,14000,1057398,121,3.0,1987,5222.0,Low,6/2/2005 0:00,PC400,PC400,,,,Large / Medium,"Hydraulic Excavator, Track - 40.0 to 50.0 Metric Tons",California,TEX,Track Excavators,,EROPS,,,,,,,,,,,Auxiliary,,,,,,None or Unspecified,,,,Steel,28 inch,None or Unspecified,None or Unspecified,None or Unspecified,Double,,,,,
9061,1183238,40000,1032656,121,3.0,1996,373.0,Low,10/14/2008 0:00,PC400,PC400,,,,Large / Medium,"Hydraulic Excavator, Track - 40.0 to 50.0 Metric Tons",Georgia,TEX,Track Excavators,,EROPS w AC,,,,,,,,,,,2 Valve,,,,,,Manual,,,,,,,,,,,,,,
9061,1185684,29000,1053823,121,3.0,1997,11147.0,Medium,12/4/2008 0:00,PC400,PC400,,,,Large / Medium,"Hydraulic Excavator, Track - 40.0 to 50.0 Metric Tons",North Carolina,TEX,Track Excavators,,EROPS w AC,,,,,,,,,,,Standard,,,,,,None or Unspecified,,,,Steel,24 inch,"10' 6""",None or Unspecified,None or Unspecified,Double,,,,,
9061,1727597,27500,1000956,132,1.0,1000,,,9/16/1997 0:00,PC400,PC400,,,,Large / Medium,"Hydraulic Excavator, Track - 40.0 to 50.0 Metric Tons",Oregon,TEX,Track Excavators,,EROPS w AC,,,,,,,,,,,Standard,,,,,,Manual,,,,Steel,24 inch,None or Unspecified,Manual,None or Unspecified,Triple,,,,,
9061,1727774,20000,530377,132,1.0,1000,,,12/9/1994 0:00,PC400,PC400,,,,Large / Medium,"Hydraulic Excavator, Track - 40.0 to 50.0 Metric Tons",California,TEX,Track Excavators,,,,,,,,,,,,,,,,,,,,,,,,,,,,,,,,,
9061,1727813,32500,1269113,132,2.0,1985,,,8/20/1994 0:00,PC400,PC400,,,,Large / Medium,"Hydraulic Excavator, Track - 40.0 to 50.0 Metric Tons",New York,TEX,Track Excavators,,EROPS w AC,,,,,,,,,,,Auxiliary,,,,,,None or Unspecified,,,,Steel,24 inch,"11' 0""",None or Unspecified,None or Unspecified,Triple,,,,,
9061,1727814,30000,1269113,132,23.0,1984,,,11/11/1992 0:00,PC400,PC400,,,,Large / Medium,"Hydraulic Excavator, Track - 40.0 to 50.0 Metric Tons",Pennsylvania,TEX,Track Excavators,,EROPS w AC,,,,,,,,,,,Auxiliary,,,,,,None or Unspecified,,,,Steel,24 inch,"11' 0""",None or Unspecified,None or Unspecified,Triple,,,,,
9061,1727815,27250,1269113,132,18.0,1984,,,7/30/1992 0:00,PC400,PC400,,,,Large / Medium,"Hydraulic Excavator, Track - 40.0 to 50.0 Metric Tons",Pennsylvania,TEX,Track Excavators,,EROPS w AC,,,,,,,,,,,Auxiliary,,,,,,None or Unspecified,,,,Steel,24 inch,"11' 0""",None or Unspecified,None or Unspecified,Triple,,,,,
9061,1727818,33500,1269113,132,2.0,1000,,,3/25/1994 0:00,PC400,PC400,,,,Large / Medium,"Hydraulic Excavator, Track - 40.0 to 50.0 Metric Tons",New Jersey,TEX,Track Excavators,,EROPS w AC,,,,,,,,,,,Auxiliary,,,,,,None or Unspecified,,,,Steel,24 inch,"11' 0""",None or Unspecified,None or Unspecified,Triple,,,,,
9061,1728264,30000,1472410,132,1.0,1984,,,4/16/1993 0:00,PC400,PC400,,,,Large / Medium,"Hydraulic Excavator, Track - 40.0 to 50.0 Metric Tons",Texas,TEX,Track Excavators,,EROPS w AC,,,,,,,,,,,2 Valve,,,,,,,,,,,None or Unspecified,,,,,,,,,
9061,1728440,82000,1027935,132,6.0,1984,,,12/11/1989 0:00,PC400,PC400,,,,Large / Medium,"Hydraulic Excavator, Track - 40.0 to 50.0 Metric Tons",Kentucky,TEX,Track Excavators,,EROPS w AC,,,,,,,,,,,Auxiliary,,,,,,Hydraulic,,,,Rubber,None or Unspecified,None or Unspecified,Manual,None or Unspecified,Double,,,,,
9061,1728574,69000,1380295,132,6.0,1984,,,4/18/1989 0:00,PC400,PC400,,,,Large / Medium,"Hydraulic Excavator, Track - 40.0 to 50.0 Metric Tons",Kentucky,TEX,Track Excavators,,EROPS w AC,,,,,,,,,,,,,,,,,,,,,,,,,,,,,,,
9061,1728602,36000,1195105,132,1.0,1984,,,12/5/1991 0:00,PC400,PC400,,,,Large / Medium,"Hydraulic Excavator, Track - 40.0 to 50.0 Metric Tons",Texas,TEX,Track Excavators,,EROPS w AC,,,,,,,,,,,Standard,,,,,,Hydraulic,,,,Rubber,None or Unspecified,None or Unspecified,None or Unspecified,None or Unspecified,Triple,,,,,
9061,1728604,26000,1195105,132,1.0,1984,,,3/31/1992 0:00,PC400,PC400,,,,Large / Medium,"Hydraulic Excavator, Track - 40.0 to 50.0 Metric Tons",Texas,TEX,Track Excavators,,EROPS w AC,,,,,,,,,,,Standard,,,,,,Hydraulic,,,,Rubber,None or Unspecified,None or Unspecified,None or Unspecified,None or Unspecified,Triple,,,,,
9061,1728663,38000,257125,132,1.0,1984,,,7/20/1993 0:00,PC400,PC400,,,,Large / Medium,"Hydraulic Excavator, Track - 40.0 to 50.0 Metric Tons",Georgia,TEX,Track Excavators,,EROPS w AC,,,,,,,,,,,,,,,,,,,,,,,,,,,,,,,
9061,1728664,37000,257125,132,24.0,1984,,,8/9/1990 0:00,PC400,PC400,,,,Large / Medium,"Hydraulic Excavator, Track - 40.0 to 50.0 Metric Tons",Georgia,TEX,Track Excavators,,EROPS w AC,,,,,,,,,,,,,,,,,,,,,,,,,,,,,,,
9061,1729178,35000,1262505,132,2.0,1985,,,9/19/1992 0:00,PC400,PC400,,,,Large / Medium,"Hydraulic Excavator, Track - 40.0 to 50.0 Metric Tons",New York,TEX,Track Excavators,,EROPS w AC,,,,,,,,,,,Standard,,,,,,Manual,,,,Rubber,None or Unspecified,None or Unspecified,None or Unspecified,None or Unspecified,Double,,,,,
9061,1729196,43000,521423,132,1.0,1985,,,2/28/1991 0:00,PC400,PC400,,,,Large / Medium,"Hydraulic Excavator, Track - 40.0 to 50.0 Metric Tons",California,TEX,Track Excavators,,EROPS w AC,,,,,,,,,,,2 Valve,,,,,,,,,,,None or Unspecified,,,,,,,,,
9061,1729260,48000,1162095,132,1.0,1985,,,4/2/1992 0:00,PC400,PC400,,,,Large / Medium,"Hydraulic Excavator, Track - 40.0 to 50.0 Metric Tons",Texas,TEX,Track Excavators,,EROPS w AC,,,,,,,,,,,2 Valve,,,,,,Hydraulic,,,,,,,,,,,,,,
9061,1729262,42000,1353234,132,1.0,1985,,,9/24/1992 0:00,PC400,PC400,,,,Large / Medium,"Hydraulic Excavator, Track - 40.0 to 50.0 Metric Tons",Washington,TEX,Track Excavators,,EROPS,,,,,,,,,,,Auxiliary,,,,,,None or Unspecified,,,,Steel,None or Unspecified,None or Unspecified,None or Unspecified,None or Unspecified,Double,,,,,
9061,1729266,48000,1235033,132,1.0,1985,,,3/14/1991 0:00,PC400,PC400,,,,Large / Medium,"Hydraulic Excavator, Track - 40.0 to 50.0 Metric Tons",Florida,TEX,Track Excavators,,EROPS w AC,,,,,,,,,,,Standard,,,,,,Manual,,,,Steel,None or Unspecified,None or Unspecified,None or Unspecified,None or Unspecified,Double,,,,,
9061,1729271,10500,844512,132,4.0,1000,,,11/17/2005 0:00,PC400,PC400,,,,Large / Medium,"Hydraulic Excavator, Track - 40.0 to 50.0 Metric Tons",New Hampshire,TEX,Track Excavators,,OROPS,,,,,,,,,,,2 Valve,,,,,,,,,,,None or Unspecified,,,,,,,,,
9061,1729489,47500,1547946,132,6.0,1985,,,3/12/1991 0:00,PC400,PC400,,,,Large / Medium,"Hydraulic Excavator, Track - 40.0 to 50.0 Metric Tons",Maryland,TEX,Track Excavators,,EROPS w AC,,,,,,,,,,,Standard,,,,,,None or Unspecified,,,,Steel,None or Unspecified,None or Unspecified,None or Unspecified,None or Unspecified,Double,,,,,
9061,1730920,56000,1553742,132,1.0,1985,,,5/14/1991 0:00,PC400,PC400,,,,Large / Medium,"Hydraulic Excavator, Track - 40.0 to 50.0 Metric Tons",Illinois,TEX,Track Excavators,,EROPS w AC,,,,,,,,,,,Standard,,,,,,None or Unspecified,,,,Rubber,24 inch,None or Unspecified,None or Unspecified,None or Unspecified,Triple,,,,,
9061,1730984,42500,1125047,132,24.0,1984,,,8/9/1990 0:00,PC400,PC400,,,,Large / Medium,"Hydraulic Excavator, Track - 40.0 to 50.0 Metric Tons",Georgia,TEX,Track Excavators,,EROPS,,,,,,,,,,,Standard,,,,,,None or Unspecified,,,,Steel,None or Unspecified,None or Unspecified,None or Unspecified,None or Unspecified,Double,,,,,
9061,1731046,80000,1117556,132,6.0,1985,,,4/23/1991 0:00,PC400,PC400,,,,Large / Medium,"Hydraulic Excavator, Track - 40.0 to 50.0 Metric Tons",Kentucky,TEX,Track Excavators,,EROPS w AC,,,,,,,,,,,Standard,,,,,,None or Unspecified,,,,Rubber,None or Unspecified,None or Unspecified,None or Unspecified,None or Unspecified,Double,,,,,
9061,1731186,98000,1086044,132,4.0,1986,,,2/6/1990 0:00,PC400,PC400,,,,Large / Medium,"Hydraulic Excavator, Track - 40.0 to 50.0 Metric Tons",Florida,TEX,Track Excavators,,EROPS,,,,,,,,,,,Standard,,,,,,None or Unspecified,,,,Steel,36 inch,None or Unspecified,None or Unspecified,None or Unspecified,Triple,,,,,
9061,1731291,55000,1361629,132,6.0,1985,,,9/20/1991 0:00,PC400,PC400,,,,Large / Medium,"Hydraulic Excavator, Track - 40.0 to 50.0 Metric Tons",Colorado,TEX,Track Excavators,,EROPS,,,,,,,,,,,Standard,,,,,,None or Unspecified,,,,Steel,None or Unspecified,None or Unspecified,None or Unspecified,None or Unspecified,Double,,,,,
9061,1731294,45000,1195250,132,1.0,1985,,,3/26/1992 0:00,PC400,PC400,,,,Large / Medium,"Hydraulic Excavator, Track - 40.0 to 50.0 Metric Tons",Florida,TEX,Track Excavators,,EROPS,,,,,,,,,,,Standard,,,,,,None or Unspecified,,,,Steel,None or Unspecified,None or Unspecified,None or Unspecified,None or Unspecified,Triple,,,,,
9061,1731295,77500,1195250,132,1.0,1985,,,3/15/1990 0:00,PC400,PC400,,,,Large / Medium,"Hydraulic Excavator, Track - 40.0 to 50.0 Metric Tons",Florida,TEX,Track Excavators,,EROPS,,,,,,,,,,,Standard,,,,,,None or Unspecified,,,,Steel,None or Unspecified,None or Unspecified,None or Unspecified,None or Unspecified,Triple,,,,,
9061,1731324,107500,1534220,132,1.0,1985,,,5/25/1989 0:00,PC400,PC400,,,,Large / Medium,"Hydraulic Excavator, Track - 40.0 to 50.0 Metric Tons",Montana,TEX,Track Excavators,,EROPS w AC,,,,,,,,,,,2 Valve,,,,,,None or Unspecified,,,,,,,,,,,,,,
9061,1731369,61000,1500157,132,6.0,1985,,,11/7/1991 0:00,PC400,PC400,,,,Large / Medium,"Hydraulic Excavator, Track - 40.0 to 50.0 Metric Tons",Texas,TEX,Track Excavators,,OROPS,,,,,,,,,,,,,,,,,,,,,,,,None or Unspecified,,,,,,,
9061,1731380,51000,1466287,132,1.0,1985,,,11/13/1992 0:00,PC400,PC400,,,,Large / Medium,"Hydraulic Excavator, Track - 40.0 to 50.0 Metric Tons",Illinois,TEX,Track Excavators,,EROPS,,,,,,,,,,,2 Valve,,,,,,None or Unspecified,,,,,,,,,,,,,,
9061,1731443,47000,1188945,132,1.0,1985,,,11/13/1992 0:00,PC400,PC400,,,,Large / Medium,"Hydraulic Excavator, Track - 40.0 to 50.0 Metric Tons",Illinois,TEX,Track Excavators,,EROPS,,,,,,,,,,,Standard,,,,,,None or Unspecified,,,,Steel,None or Unspecified,None or Unspecified,None or Unspecified,None or Unspecified,Double,,,,,
9061,1731462,60000,1404598,132,1.0,1985,,,11/13/1992 0:00,PC400,PC400,,,,Large / Medium,"Hydraulic Excavator, Track - 40.0 to 50.0 Metric Tons",Illinois,TEX,Track Excavators,,EROPS,,,,,,,,,,,2 Valve,,,,,,None or Unspecified,,,,,,,,,,,,,,
9061,1731463,70000,1404598,132,1.0,1986,,,11/16/1993 0:00,PC400,PC400,,,,Large / Medium,"Hydraulic Excavator, Track - 40.0 to 50.0 Metric Tons",Wisconsin,TEX,Track Excavators,,EROPS,,,,,,,,,,,2 Valve,,,,,,None or Unspecified,,,,,,,,,,,,,,
9061,1731479,67000,1397426,132,19.0,1986,,,5/13/1992 0:00,PC400,PC400,,,,Large / Medium,"Hydraulic Excavator, Track - 40.0 to 50.0 Metric Tons",California,TEX,Track Excavators,,EROPS,,,,,,,,,,,Standard,,,,,,None or Unspecified,,,,Steel,36 inch,None or Unspecified,None or Unspecified,None or Unspecified,Triple,,,,,
9061,1731524,66000,1166924,132,6.0,1986,,,11/5/1991 0:00,PC400,PC400,,,,Large / Medium,"Hydraulic Excavator, Track - 40.0 to 50.0 Metric Tons",Maine,TEX,Track Excavators,,OROPS,,,,,,,,,,,2 Valve,,,,,,None or Unspecified,,,,,,,,,,,,,,
9061,1731530,61000,1410355,132,1.0,1986,,,11/5/1992 0:00,PC400,PC400,,,,Large / Medium,"Hydraulic Excavator, Track - 40.0 to 50.0 Metric Tons",Maine,TEX,Track Excavators,,EROPS,,,,,,,,,,,Standard,,,,,,None or Unspecified,,,,Steel,32 inch,None or Unspecified,None or Unspecified,None or Unspecified,Triple,,,,,
9061,1731553,52000,1501066,132,24.0,1986,760.0,Low,6/20/1991 0:00,PC400,PC400,,,,Large / Medium,"Hydraulic Excavator, Track - 40.0 to 50.0 Metric Tons",Georgia,TEX,Track Excavators,,EROPS w AC,,,,,,,,,,,,,,,,,,,,,,,,None or Unspecified,,,,,,,
9061,1731683,70000,1083098,132,2.0,1987,,,1/23/1993 0:00,PC400,PC400,,,,Large / Medium,"Hydraulic Excavator, Track - 40.0 to 50.0 Metric Tons",New York,TEX,Track Excavators,,EROPS,,,,,,,,,,,2 Valve,,,,,,None or Unspecified,,,,,,,,,,,,,,
9061,1731684,75000,1083098,132,2.0,1986,,,12/19/1992 0:00,PC400,PC400,,,,Large / Medium,"Hydraulic Excavator, Track - 40.0 to 50.0 Metric Tons",New Jersey,TEX,Track Excavators,,EROPS,,,,,,,,,,,2 Valve,,,,,,None or Unspecified,,,,,,,,,,,,,,
9061,1731693,85000,1212691,132,1.0,1986,,,10/11/1990 0:00,PC400,PC400,,,,Large / Medium,"Hydraulic Excavator, Track - 40.0 to 50.0 Metric Tons",Florida,TEX,Track Excavators,,EROPS,,,,,,,,,,,Standard,,,,,,None or Unspecified,,,,Steel,None or Unspecified,None or Unspecified,None or Unspecified,None or Unspecified,Double,,,,,
9061,1731717,46500,1451620,132,2.0,1000,,,3/26/1998 0:00,PC400,PC400,,,,Large / Medium,"Hydraulic Excavator, Track - 40.0 to 50.0 Metric Tons",New Jersey,TEX,Track Excavators,,EROPS w AC,,,,,,,,,,,Standard,,,,,,None or Unspecified,,,,Rubber,None or Unspecified,None or Unspecified,None or Unspecified,None or Unspecified,Double,,,,,
9061,1731948,70000,1337145,132,6.0,1986,,,11/5/1991 0:00,PC400,PC400,,,,Large / Medium,"Hydraulic Excavator, Track - 40.0 to 50.0 Metric Tons",Maine,TEX,Track Excavators,,EROPS,,,,,,,,,,,Standard,,,,,,None or Unspecified,,,,Steel,32 inch,"11' 0""",None or Unspecified,None or Unspecified,Double,,,,,
9061,1731979,62000,1095374,132,1.0,1987,,,10/8/1991 0:00,PC400,PC400,,,,Large / Medium,"Hydraulic Excavator, Track - 40.0 to 50.0 Metric Tons",Washington,TEX,Track Excavators,,OROPS,,,,,,,,,,,,,,,,,,,,,,,,Manual,,,,,,,
9061,1731984,58000,1222963,132,1.0,1986,,,12/14/1992 0:00,PC400,PC400,,,,Large / Medium,"Hydraulic Excavator, Track - 40.0 to 50.0 Metric Tons",North Carolina,TEX,Track Excavators,,OROPS,,,,,,,,,,,2 Valve,,,,,,,,,,,None or Unspecified,,,,,,,,,
9061,1732000,61000,1412597,132,4.0,1987,,,2/5/1991 0:00,PC400,PC400,,,,Large / Medium,"Hydraulic Excavator, Track - 40.0 to 50.0 Metric Tons",Florida,TEX,Track Excavators,,EROPS,,,,,,,,,,,Standard,,,,,,None or Unspecified,,,,Steel,None or Unspecified,None or Unspecified,None or Unspecified,None or Unspecified,Double,,,,,
9061,1732006,78000,1381467,132,6.0,1986,,,2/19/1993 0:00,PC400,PC400,,,,Large / Medium,"Hydraulic Excavator, Track - 40.0 to 50.0 Metric Tons",Florida,TEX,Track Excavators,,EROPS,,,,,,,,,,,Standard,,,,,,None or Unspecified,,,,Steel,None or Unspecified,None or Unspecified,None or Unspecified,None or Unspecified,Double,,,,,
9061,1732008,80000,1098773,132,1.0,1987,,,10/30/1990 0:00,PC400,PC400,,,,Large / Medium,"Hydraulic Excavator, Track - 40.0 to 50.0 Metric Tons",Maryland,TEX,Track Excavators,,EROPS,,,,,,,,,,,Auxiliary,,,,,,Manual,,,,Steel,None or Unspecified,"11' 0""",None or Unspecified,None or Unspecified,Double,,,,,
9061,1732019,49000,1305204,132,1.0,1986,,,11/16/1993 0:00,PC400,PC400,,,,Large / Medium,"Hydraulic Excavator, Track - 40.0 to 50.0 Metric Tons",Wisconsin,TEX,Track Excavators,,EROPS,,,,,,,,,,,Standard,,,,,,None or Unspecified,,,,Steel,None or Unspecified,None or Unspecified,None or Unspecified,None or Unspecified,Triple,,,,,
9061,1732037,73000,1426530,132,1.0,1987,,,5/13/1993 0:00,PC400,PC400,,,,Large / Medium,"Hydraulic Excavator, Track - 40.0 to 50.0 Metric Tons",Pennsylvania,TEX,Track Excavators,,EROPS,,,,,,,,,,,2 Valve,,,,,,None or Unspecified,,,,,,,,,,,,,,
9061,1732063,62000,345598,132,18.0,1986,,,4/13/1991 0:00,PC400,PC400,,,,Large / Medium,"Hydraulic Excavator, Track - 40.0 to 50.0 Metric Tons",Pennsylvania,TEX,Track Excavators,,EROPS,,,,,,,,,,,Standard,,,,,,None or Unspecified,,,,Steel,None or Unspecified,"11' 0""",None or Unspecified,None or Unspecified,Double,,,,,
9061,1732122,85000,1289049,132,4.0,1987,,,2/4/1992 0:00,PC400,PC400,,,,Large / Medium,"Hydraulic Excavator, Track - 40.0 to 50.0 Metric Tons",Florida,TEX,Track Excavators,,EROPS,,,,,,,,,,,Standard,,,,,,None or Unspecified,,,,Steel,None or Unspecified,None or Unspecified,None or Unspecified,None or Unspecified,Double,,,,,
9061,1732139,15000,1318225,132,4.0,1000,,,11/13/2003 0:00,PC400,PC400,,,,Large / Medium,"Hydraulic Excavator, Track - 40.0 to 50.0 Metric Tons",Ohio,TEX,Track Excavators,,EROPS,,,,,,,,,,,Auxiliary,,,,,,None or Unspecified,,,,Steel,None or Unspecified,None or Unspecified,None or Unspecified,None or Unspecified,Double,,,,,
9061,1732144,57000,1151228,132,1.0,1987,,,11/22/1991 0:00,PC400,PC400,,,,Large / Medium,"Hydraulic Excavator, Track - 40.0 to 50.0 Metric Tons",Minnesota,TEX,Track Excavators,,EROPS,,,,,,,,,,,Standard,,,,,,None or Unspecified,,,,Steel,None or Unspecified,"11' 0""",None or Unspecified,None or Unspecified,Triple,,,,,
9061,1732145,87000,1151228,132,1.0,1987,,,3/14/1991 0:00,PC400,PC400,,,,Large / Medium,"Hydraulic Excavator, Track - 40.0 to 50.0 Metric Tons",Florida,TEX,Track Excavators,,EROPS,,,,,,,,,,,Standard,,,,,,None or Unspecified,,,,Steel,None or Unspecified,"11' 0""",None or Unspecified,None or Unspecified,Triple,,,,,
9061,1732146,73000,1151228,132,1.0,1987,,,4/21/1992 0:00,PC400,PC400,,,,Large / Medium,"Hydraulic Excavator, Track - 40.0 to 50.0 Metric Tons",Minnesota,TEX,Track Excavators,,EROPS,,,,,,,,,,,Standard,,,,,,None or Unspecified,,,,Steel,None or Unspecified,"11' 0""",None or Unspecified,None or Unspecified,Triple,,,,,
9061,1732151,77500,1474657,132,1.0,1987,,,3/14/1991 0:00,PC400,PC400,,,,Large / Medium,"Hydraulic Excavator, Track - 40.0 to 50.0 Metric Tons",Florida,TEX,Track Excavators,,EROPS,,,,,,,,,,,Standard,,,,,,None or Unspecified,,,,Steel,None or Unspecified,"11' 0""",None or Unspecified,None or Unspecified,Triple,,,,,
9061,1732168,67000,1099589,132,1.0,1987,,,10/30/1990 0:00,PC400,PC400,,,,Large / Medium,"Hydraulic Excavator, Track - 40.0 to 50.0 Metric Tons",Maryland,TEX,Track Excavators,,EROPS,,,,,,,,,,,Standard,,,,,,None or Unspecified,,,,Steel,None or Unspecified,None or Unspecified,None or Unspecified,None or Unspecified,Double,,,,,
9061,1732196,67500,1436515,132,1.0,1987,,,10/23/1991 0:00,PC400,PC400,,,,Large / Medium,"Hydraulic Excavator, Track - 40.0 to 50.0 Metric Tons",Maryland,TEX,Track Excavators,,EROPS,,,,,,,,,,,Standard,,,,,,None or Unspecified,,,,Steel,None or Unspecified,"11' 0""",None or Unspecified,None or Unspecified,Triple,,,,,
9061,1732214,12000,1373744,132,2.0,1000,,,3/14/2002 0:00,PC400,PC400,,,,Large / Medium,"Hydraulic Excavator, Track - 40.0 to 50.0 Metric Tons",New Jersey,TEX,Track Excavators,,EROPS,,,,,,,,,,,Standard,,,,,,None or Unspecified,,,,Steel,None or Unspecified,None or Unspecified,None or Unspecified,None or Unspecified,Double,,,,,
9061,1732234,65000,1415432,132,1.0,1987,,,3/30/1993 0:00,PC400,PC400,,,,Large / Medium,"Hydraulic Excavator, Track - 40.0 to 50.0 Metric Tons",Colorado,TEX,Track Excavators,,OROPS,,,,,,,,,,,2 Valve,,,,,,None or Unspecified,,,,,,,,,,,,,,
9061,1732240,65000,1227856,132,1.0,1987,,,3/30/1993 0:00,PC400,PC400,,,,Large / Medium,"Hydraulic Excavator, Track - 40.0 to 50.0 Metric Tons",Colorado,TEX,Track Excavators,,EROPS,,,,,,,,,,,Standard,,,,,,None or Unspecified,,,,Rubber,30 inch,"11' 0""",None or Unspecified,None or Unspecified,Triple,,,,,
9061,1732307,25000,1146882,132,8.0,1988,,,3/22/2006 0:00,PC400,PC400,,,,Large / Medium,"Hydraulic Excavator, Track - 40.0 to 50.0 Metric Tons",Mississippi,TEX,Track Excavators,,EROPS w AC,,,,,,,,,,,Standard,,,,,,None or Unspecified,,,,Steel,None or Unspecified,None or Unspecified,None or Unspecified,None or Unspecified,Double,,,,,
9061,1732584,45000,1115001,132,2.0,1988,,,6/19/1993 0:00,PC400,PC400,,,,Large / Medium,"Hydraulic Excavator, Track - 40.0 to 50.0 Metric Tons",New Hampshire,TEX,Track Excavators,,EROPS,,,,,,,,,,,Base + 1 Function,,,,,,,,,,,,,,,,,,,,
9061,1732589,30000,1544457,132,21.0,1000,,,4/30/1998 0:00,PC400,PC400,,,,Large / Medium,"Hydraulic Excavator, Track - 40.0 to 50.0 Metric Tons",Maine,TEX,Track Excavators,,EROPS,,,,,,,,,,,Standard,,,,,,None or Unspecified,,,,Steel,None or Unspecified,None or Unspecified,None or Unspecified,None or Unspecified,Double,,,,,
9061,1732615,45000,1531261,132,2.0,1988,,,5/15/1993 0:00,PC400,PC400,,,,Large / Medium,"Hydraulic Excavator, Track - 40.0 to 50.0 Metric Tons",New York,TEX,Track Excavators,,EROPS,,,,,,,,,,,Standard,,,,,,None or Unspecified,,,,Steel,None or Unspecified,None or Unspecified,None or Unspecified,None or Unspecified,Double,,,,,
9061,1732616,52000,1531261,132,2.0,1988,,,3/12/1993 0:00,PC400,PC400,,,,Large / Medium,"Hydraulic Excavator, Track - 40.0 to 50.0 Metric Tons",New Jersey,TEX,Track Excavators,,EROPS,,,,,,,,,,,Standard,,,,,,None or Unspecified,,,,Steel,None or Unspecified,None or Unspecified,None or Unspecified,None or Unspecified,Double,,,,,
9061,1732669,62000,1161296,132,1.0,1988,,,7/20/1993 0:00,PC400,PC400,,,,Large / Medium,"Hydraulic Excavator, Track - 40.0 to 50.0 Metric Tons",Georgia,TEX,Track Excavators,,EROPS,,,,,,,,,,,Standard,,,,,,None or Unspecified,,,,Rubber,None or Unspecified,None or Unspecified,None or Unspecified,None or Unspecified,Triple,,,,,
9061,1732691,80000,1549088,132,19.0,1988,,,3/25/1992 0:00,PC400,PC400,,,,Large / Medium,"Hydraulic Excavator, Track - 40.0 to 50.0 Metric Tons",Nevada,TEX,Track Excavators,,EROPS,,,,,,,,,,,Standard,,,,,,None or Unspecified,,,,Steel,32 inch,None or Unspecified,None or Unspecified,None or Unspecified,Triple,,,,,
9061,1732801,80000,269565,132,6.0,1988,,,4/23/1991 0:00,PC400,PC400,,,,Large / Medium,"Hydraulic Excavator, Track - 40.0 to 50.0 Metric Tons",Kentucky,TEX,Track Excavators,,OROPS,,,,,,,,,,,2 Valve,,,,,,None or Unspecified,,,,,,,,,,,,,,
9061,1732847,77500,1194318,132,6.0,1988,,,2/19/1993 0:00,PC400,PC400,,,,Large / Medium,"Hydraulic Excavator, Track - 40.0 to 50.0 Metric Tons",Florida,TEX,Track Excavators,,EROPS,,,,,,,,,,,Standard,,,,,,None or Unspecified,,,,Steel,None or Unspecified,None or Unspecified,None or Unspecified,None or Unspecified,Double,,,,,
9061,1758119,105000,1264769,132,6.0,1990,2490.0,High,11/5/1991 0:00,PC400,PC400,,,,Large / Medium,"Hydraulic Excavator, Track - 40.0 to 50.0 Metric Tons",Maine,TEX,Track Excavators,,EROPS,,,,,,,,,,,Standard,,,,,,None or Unspecified,,,,Steel,32 inch,None or Unspecified,None or Unspecified,None or Unspecified,Double,,,,,
9061,1762300,66000,1078995,132,1.0,1989,,,7/12/1993 0:00,PC400,PC400,,,,Large / Medium,"Hydraulic Excavator, Track - 40.0 to 50.0 Metric Tons",Texas,TEX,Track Excavators,,EROPS,,,,,,,,,,,Standard,,,,,,None or Unspecified,,,,Steel,None or Unspecified,None or Unspecified,None or Unspecified,None or Unspecified,Triple,,,,,
9061,1762301,102500,1375829,132,6.0,1989,2800.0,High,9/20/1991 0:00,PC400,PC400,,,,Large / Medium,"Hydraulic Excavator, Track - 40.0 to 50.0 Metric Tons",Colorado,TEX,Track Excavators,,EROPS,,,,,,,,,,,Standard,,,,,,None or Unspecified,,,,Steel,None or Unspecified,None or Unspecified,None or Unspecified,None or Unspecified,Double,,,,,
9061,1762353,105000,1286581,132,1.0,1990,,,10/14/1993 0:00,PC400,PC400,,,,Large / Medium,"Hydraulic Excavator, Track - 40.0 to 50.0 Metric Tons",Maine,TEX,Track Excavators,,EROPS,,,,,,,,,,,Standard,,,,,,None or Unspecified,,,,Steel,None or Unspecified,"11' 0""",None or Unspecified,None or Unspecified,Triple,,,,,
9061,1764532,24000,1021247,132,5.0,1000,,,4/27/2006 0:00,PC400,PC400,,,,Large / Medium,"Hydraulic Excavator, Track - 40.0 to 50.0 Metric Tons",Utah,TEX,Track Excavators,,EROPS,,,,,,,,,,,,,,,,,,,,,,,,None or Unspecified,,,,,,,
9061,1766444,50000,1520458,132,1.0,1991,,,6/17/1998 0:00,PC400,PC400,,,,Large / Medium,"Hydraulic Excavator, Track - 40.0 to 50.0 Metric Tons",Texas,TEX,Track Excavators,,EROPS,,,,,,,,,,,Standard,,,,,,None or Unspecified,,,,Steel,None or Unspecified,None or Unspecified,None or Unspecified,None or Unspecified,Double,,,,,
9061,1766725,55000,1278492,132,1.0,1990,,,6/17/1998 0:00,PC400,PC400,,,,Large / Medium,"Hydraulic Excavator, Track - 40.0 to 50.0 Metric Tons",Texas,TEX,Track Excavators,,EROPS,,,,,,,,,,,Standard,,,,,,None or Unspecified,,,,Steel,None or Unspecified,None or Unspecified,None or Unspecified,None or Unspecified,Double,,,,,
9061,1767982,55000,1000481,132,2.0,1996,,,5/15/2004 0:00,PC400,PC400,,,,Large / Medium,"Hydraulic Excavator, Track - 40.0 to 50.0 Metric Tons",Connecticut,TEX,Track Excavators,,EROPS,,,,,,,,,,,Standard,,,,,,Hydraulic,,,,Steel,36 inch,None or Unspecified,None or Unspecified,None or Unspecified,Double,,,,,
9061,1769823,83000,1379693,132,8.0,1989,,,5/25/2004 0:00,PC400,PC400,,,,Large / Medium,"Hydraulic Excavator, Track - 40.0 to 50.0 Metric Tons",Mississippi,TEX,Track Excavators,,EROPS w AC,,,,,,,,,,,Standard,,,,,,None or Unspecified,,,,Steel,None or Unspecified,None or Unspecified,None or Unspecified,None or Unspecified,Double,,,,,
9061,2399809,10000,1678205,136,2.0,1000,0.0,,3/20/2010 0:00,PC400,PC400,,,,Large / Medium,"Hydraulic Excavator, Track - 40.0 to 50.0 Metric Tons",Ohio,TEX,Track Excavators,,EROPS,,,,,,,,,,,Standard,,,,,,None or Unspecified,,,,Steel,None or Unspecified,None or Unspecified,None or Unspecified,None or Unspecified,Double,,,,,
9061,2403470,31000,1410170,136,1.0,1000,0.0,,3/29/2010 0:00,PC400,PC400,,,,Large / Medium,"Hydraulic Excavator, Track - 40.0 to 50.0 Metric Tons",Mississippi,TEX,Track Excavators,,EROPS w AC,,,,,,,,,,,Standard,,,,,,None or Unspecified,,,,Steel,None or Unspecified,"11' 0""",Manual,None or Unspecified,Double,,,,,
9061,2412018,20000,1183354,136,1.0,1990,0.0,,9/30/2008 0:00,PC400,PC400,,,,Large / Medium,"Hydraulic Excavator, Track - 40.0 to 50.0 Metric Tons",Minnesota,TEX,Track Excavators,,EROPS,,,,,,,,,,,Standard,,,,,,None or Unspecified,,,,Steel,None or Unspecified,None or Unspecified,None or Unspecified,None or Unspecified,Double,,,,,
9061,2413730,25500,1539802,136,16.0,1995,6400.0,Medium,11/27/2007 0:00,PC400,PC400,,,,Large / Medium,"Hydraulic Excavator, Track - 40.0 to 50.0 Metric Tons",Illinois,TEX,Track Excavators,,EROPS,,,,,,,,,,,Standard,,,,,,None or Unspecified,,,,Steel,None or Unspecified,None or Unspecified,None or Unspecified,None or Unspecified,Double,,,,,
9061,2414603,46000,1547381,136,1.0,1000,0.0,,3/25/2008 0:00,PC400,PC400,,,,Large / Medium,"Hydraulic Excavator, Track - 40.0 to 50.0 Metric Tons",Minnesota,TEX,Track Excavators,,EROPS,,,,,,,,,,,Standard,,,,,,None or Unspecified,,,,Steel,None or Unspecified,None or Unspecified,None or Unspecified,None or Unspecified,Double,,,,,
9061,2415009,50000,1108000,136,1.0,1999,0.0,,12/6/2007 0:00,PC400,PC400,,,,Large / Medium,"Hydraulic Excavator, Track - 40.0 to 50.0 Metric Tons",Texas,TEX,Track Excavators,,EROPS,,,,,,,,,,,Standard,,,,,,None or Unspecified,,,,Steel,None or Unspecified,None or Unspecified,None or Unspecified,None or Unspecified,Double,,,,,
9061,2415288,57500,1368889,136,4.0,2000,0.0,,2/11/2008 0:00,PC400,PC400,,,,Large / Medium,"Hydraulic Excavator, Track - 40.0 to 50.0 Metric Tons",Florida,TEX,Track Excavators,,EROPS,,,,,,,,,,,Standard,,,,,,None or Unspecified,,,,Steel,None or Unspecified,None or Unspecified,None or Unspecified,None or Unspecified,Double,,,,,
