ModelID,SalesID,SalePrice,MachineID,datasource,auctioneerID,YearMade,MachineHoursCurrentMeter,UsageBand,saledate,fiModelDesc,fiBaseModel,fiSecondaryDesc,fiModelSeries,fiModelDescriptor,ProductSize,fiProductClassDesc,state,ProductGroup,ProductGroupDesc,Drive_System,Enclosure,Forks,Pad_Type,Ride_Control,Stick,Transmission,Turbocharged,Blade_Extension,Blade_Width,Enclosure_Type,Engine_Horsepower,Hydraulics,Pushblock,Ripper,Scarifier,Tip_Control,Tire_Size,Coupler,Coupler_System,Grouser_Tracks,Hydraulics_Flow,Track_Type,Undercarriage_Pad_Width,Stick_Length,Thumb,Pattern_Changer,Grouser_Type,Backhoe_Mounting,Blade_Type,Travel_Controls,Differential_Type,Steering_Controls
9062,1730740,13000,562875,132,2.0,1000,,,2/4/2005 0:00,PC45,PC45,,,,Mini,"Hydraulic Excavator, Track - 4.0 to 5.0 Metric Tons",Florida,TEX,Track Excavators,,,,,,,,,,,,,,,,,,,,,,,,,,,,,,,,,
9062,1730744,13000,562875,132,2.0,1000,,,1/30/2005 0:00,PC45,PC45,,,,Mini,"Hydraulic Excavator, Track - 4.0 to 5.0 Metric Tons",Florida,TEX,Track Excavators,,,,,,,,,,,,,,,,,,,,,,,,,,,,,,,,,
9062,1730801,14000,1059369,132,99.0,1000,,,10/5/2004 0:00,PC45,PC45,,,,Mini,"Hydraulic Excavator, Track - 4.0 to 5.0 Metric Tons",Texas,TEX,Track Excavators,,EROPS w AC,,,,,,,,,,,Standard,,,,,,None or Unspecified,,,,Rubber,None or Unspecified,None or Unspecified,None or Unspecified,None or Unspecified,Double,,,,,
9062,1734794,15000,1232307,132,2.0,1996,,,12/29/2005 0:00,PC45,PC45,,,,Mini,"Hydraulic Excavator, Track - 4.0 to 5.0 Metric Tons",New York,TEX,Track Excavators,,EROPS,,,,,,,,,,,Standard,,,,,,None or Unspecified,,,,Steel,None or Unspecified,None or Unspecified,None or Unspecified,None or Unspecified,Double,,,,,
9062,1735227,16000,1119553,132,2.0,1991,,,2/2/1999 0:00,PC45,PC45,,,,Mini,"Hydraulic Excavator, Track - 4.0 to 5.0 Metric Tons",Florida,TEX,Track Excavators,,EROPS,,,,,,,,,,,2 Valve,,,,,,,,,,,None or Unspecified,,,,,,,,,
9062,1736510,18000,1224046,132,2.0,2000,,,9/13/2003 0:00,PC45,PC45,,,,Mini,"Hydraulic Excavator, Track - 4.0 to 5.0 Metric Tons",New Jersey,TEX,Track Excavators,,EROPS,,,,,,,,,,,2 Valve,,,,,,Manual,,,,,,,,,,,,,,
9062,1737607,13750,1492916,132,4.0,1000,,,2/12/2007 0:00,PC45,PC45,,,,Mini,"Hydraulic Excavator, Track - 4.0 to 5.0 Metric Tons",Florida,TEX,Track Excavators,,EROPS,,,,,,,,,,,,,,,,,,,,,,,,,,,,,,,
9062,1737608,13750,1492916,132,4.0,1000,,,2/15/2007 0:00,PC45,PC45,,,,Mini,"Hydraulic Excavator, Track - 4.0 to 5.0 Metric Tons",Florida,TEX,Track Excavators,,EROPS,,,,,,,,,,,,,,,,,,,,,,,,,,,,,,,
9062,1738173,10000,1356662,132,4.0,1000,,,2/16/2006 0:00,PC45,PC45,,,,Mini,"Hydraulic Excavator, Track - 4.0 to 5.0 Metric Tons",Florida,TEX,Track Excavators,,EROPS w AC,,,,,,,,,,,2 Valve,,,,,,,,,,,None or Unspecified,,,,,,,,,
9062,1738175,10000,1356662,132,4.0,1000,,,2/13/2006 0:00,PC45,PC45,,,,Mini,"Hydraulic Excavator, Track - 4.0 to 5.0 Metric Tons",Florida,TEX,Track Excavators,,EROPS w AC,,,,,,,,,,,2 Valve,,,,,,,,,,,None or Unspecified,,,,,,,,,
9062,1738176,10500,1356662,132,20.0,1000,,,4/13/2006 0:00,PC45,PC45,,,,Mini,"Hydraulic Excavator, Track - 4.0 to 5.0 Metric Tons",Arkansas,TEX,Track Excavators,,EROPS w AC,,,,,,,,,,,2 Valve,,,,,,,,,,,None or Unspecified,,,,,,,,,
9062,1740204,17000,1150812,132,8.0,1000,,,11/16/2005 0:00,PC45,PC45,,,,Mini,"Hydraulic Excavator, Track - 4.0 to 5.0 Metric Tons",Mississippi,TEX,Track Excavators,,EROPS,,,,,,,,,,,Standard,,,,,,None or Unspecified,,,,Steel,None or Unspecified,None or Unspecified,None or Unspecified,None or Unspecified,Double,,,,,
9062,1741013,14500,1392680,132,4.0,1000,,,2/12/2007 0:00,PC45,PC45,,,,Mini,"Hydraulic Excavator, Track - 4.0 to 5.0 Metric Tons",Florida,TEX,Track Excavators,,EROPS,,,,,,,,,,,Standard,,,,,,None or Unspecified,,,,Steel,None or Unspecified,None or Unspecified,Manual,None or Unspecified,Double,,,,,
9062,1741014,14500,1392680,132,4.0,1000,,,2/15/2007 0:00,PC45,PC45,,,,Mini,"Hydraulic Excavator, Track - 4.0 to 5.0 Metric Tons",Florida,TEX,Track Excavators,,EROPS,,,,,,,,,,,Standard,,,,,,None or Unspecified,,,,Steel,None or Unspecified,None or Unspecified,Manual,None or Unspecified,Double,,,,,
9062,1746163,12500,1205178,132,4.0,1000,,,2/10/2003 0:00,PC45,PC45,,,,Mini,"Hydraulic Excavator, Track - 4.0 to 5.0 Metric Tons",Florida,TEX,Track Excavators,,EROPS,,,,,,,,,,,Standard,,,,,,None or Unspecified,,,,Steel,None or Unspecified,None or Unspecified,None or Unspecified,None or Unspecified,Double,,,,,
9062,1747841,18500,1479618,132,2.0,1000,,,5/26/2004 0:00,PC45,PC45,,,,Mini,"Hydraulic Excavator, Track - 4.0 to 5.0 Metric Tons",Florida,TEX,Track Excavators,,EROPS,,,,,,,,,,,Standard,,,,,,None or Unspecified,,,,Steel,None or Unspecified,None or Unspecified,None or Unspecified,None or Unspecified,Double,,,,,
9062,1753318,14000,1117230,132,12.0,1998,,,9/21/2006 0:00,PC45,PC45,,,,Mini,"Hydraulic Excavator, Track - 4.0 to 5.0 Metric Tons",South Carolina,TEX,Track Excavators,,EROPS,,,,,,,,,,,Standard,,,,,,None or Unspecified,,,,Rubber,None or Unspecified,None or Unspecified,None or Unspecified,None or Unspecified,Double,,,,,
9062,1753528,12000,1464447,132,2.0,1000,,,5/9/2006 0:00,PC45,PC45,,,,Mini,"Hydraulic Excavator, Track - 4.0 to 5.0 Metric Tons",Texas,TEX,Track Excavators,,EROPS,,,,,,,,,,,Auxiliary,,,,,,None or Unspecified,,,,Steel,None or Unspecified,None or Unspecified,None or Unspecified,None or Unspecified,Double,,,,,
9062,1753532,10000,1441252,132,2.0,1999,,,11/16/2004 0:00,PC45,PC45,,,,Mini,"Hydraulic Excavator, Track - 4.0 to 5.0 Metric Tons",Texas,TEX,Track Excavators,,EROPS,,,,,,,,,,,Auxiliary,,,,,,None or Unspecified,,,,Steel,None or Unspecified,None or Unspecified,None or Unspecified,None or Unspecified,Double,,,,,
9062,1753537,9500,1418312,132,2.0,1999,,,12/7/2004 0:00,PC45,PC45,,,,Mini,"Hydraulic Excavator, Track - 4.0 to 5.0 Metric Tons",Texas,TEX,Track Excavators,,EROPS,,,,,,,,,,,Standard,,,,,,None or Unspecified,,,,Steel,None or Unspecified,None or Unspecified,None or Unspecified,None or Unspecified,Double,,,,,
9062,1753538,9500,1418312,132,2.0,1999,,,12/8/2004 0:00,PC45,PC45,,,,Mini,"Hydraulic Excavator, Track - 4.0 to 5.0 Metric Tons",Texas,TEX,Track Excavators,,EROPS,,,,,,,,,,,Standard,,,,,,None or Unspecified,,,,Steel,None or Unspecified,None or Unspecified,None or Unspecified,None or Unspecified,Double,,,,,
9062,1753550,11000,1185165,132,2.0,1999,,,11/16/2005 0:00,PC45,PC45,,,,Mini,"Hydraulic Excavator, Track - 4.0 to 5.0 Metric Tons",Texas,TEX,Track Excavators,,EROPS,,,,,,,,,,,Standard,,,,,,None or Unspecified,,,,Steel,None or Unspecified,None or Unspecified,None or Unspecified,None or Unspecified,Double,,,,,
9062,1774542,13500,1174395,132,2.0,1997,,,7/12/2003 0:00,PC45,PC45,,,,Mini,"Hydraulic Excavator, Track - 4.0 to 5.0 Metric Tons",New York,TEX,Track Excavators,,EROPS,,,,,,,,,,,Standard,,,,,,None or Unspecified,,,,Rubber,None or Unspecified,None or Unspecified,None or Unspecified,None or Unspecified,Double,,,,,
9062,1774543,13000,1187437,132,2.0,1997,,,7/12/2003 0:00,PC45,PC45,,,,Mini,"Hydraulic Excavator, Track - 4.0 to 5.0 Metric Tons",New York,TEX,Track Excavators,,EROPS,,,,,,,,,,,Standard,,,,,,None or Unspecified,,,,Rubber,None or Unspecified,None or Unspecified,None or Unspecified,None or Unspecified,Double,,,,,
9062,1774544,14500,1187437,132,2.0,1998,,,3/25/2004 0:00,PC45,PC45,,,,Mini,"Hydraulic Excavator, Track - 4.0 to 5.0 Metric Tons",New Jersey,TEX,Track Excavators,,EROPS,,,,,,,,,,,Standard,,,,,,None or Unspecified,,,,Rubber,None or Unspecified,None or Unspecified,None or Unspecified,None or Unspecified,Double,,,,,
9062,1774590,18000,1144907,132,7.0,2001,,,3/7/2007 0:00,PC45,PC45,,,,Mini,"Hydraulic Excavator, Track - 4.0 to 5.0 Metric Tons",Alabama,TEX,Track Excavators,,EROPS,,,,,,,,,,,Standard,,,,,,Manual,,,,Steel,None or Unspecified,None or Unspecified,None or Unspecified,None or Unspecified,Double,,,,,
9062,2408084,9250,1392108,136,14.0,1000,0.0,,6/7/2008 0:00,PC45,PC45,,,,Mini,"Hydraulic Excavator, Track - 4.0 to 5.0 Metric Tons",Connecticut,TEX,Track Excavators,,EROPS,,,,,,,,,,,Auxiliary,,,,,,None or Unspecified,,,,Rubber,None or Unspecified,None or Unspecified,None or Unspecified,None or Unspecified,Double,,,,,
9062,2423146,13500,1382884,136,1.0,1991,0.0,,3/18/2009 0:00,PC45,PC45,,,,Mini,"Hydraulic Excavator, Track - 4.0 to 5.0 Metric Tons",Washington,TEX,Track Excavators,,EROPS,,,,,,,,,,,Standard,,,,,,None or Unspecified,,,,Steel,None or Unspecified,None or Unspecified,Hydraulic,None or Unspecified,Double,,,,,
9062,2692276,9500,1019215,149,2.0,1000,0.0,,3/31/2011 0:00,PC45,PC45,,,,Mini,"Hydraulic Excavator, Track - 4.0 to 5.0 Metric Tons",New Jersey,TEX,Track Excavators,,EROPS w AC,,,,,,,,,,,Standard,,,,,,None or Unspecified,,,,Steel,None or Unspecified,None or Unspecified,None or Unspecified,None or Unspecified,Double,,,,,
