ModelID,SalesID,SalePrice,MachineID,datasource,auctioneerID,YearMade,MachineHoursCurrentMeter,UsageBand,saledate,fiModelDesc,fiBaseModel,fiSecondaryDesc,fiModelSeries,fiModelDescriptor,ProductSize,fiProductClassDesc,state,ProductGroup,ProductGroupDesc,Drive_System,Enclosure,Forks,Pad_Type,Ride_Control,Stick,Transmission,Turbocharged,Blade_Extension,Blade_Width,Enclosure_Type,Engine_Horsepower,Hydraulics,Pushblock,Ripper,Scarifier,Tip_Control,Tire_Size,Coupler,Coupler_System,Grouser_Tracks,Hydraulics_Flow,Track_Type,Undercarriage_Pad_Width,Stick_Length,Thumb,Pattern_Changer,Grouser_Type,Backhoe_Mounting,Blade_Type,Travel_Controls,Differential_Type,Steering_Controls
9113,1147766,14000,587890,121,3.0,1984,0.0,,8/11/2005 0:00,WA300,WA300,,,,Medium,Wheel Loader - 135.0 to 150.0 Horsepower,Florida,WL,Wheel Loader,,EROPS w AC,None or Unspecified,,None or Unspecified,,,,,,,,3 Valve,,,,,23.5,None or Unspecified,,,,,,,,,,,,,Standard,Conventional
9113,1172457,16500,846513,121,3.0,1984,0.0,,10/6/2005 0:00,WA300,WA300,,,,Medium,Wheel Loader - 135.0 to 150.0 Horsepower,Florida,WL,Wheel Loader,,EROPS w AC,,,,,,,,,,,Standard,,,,,,Manual,,,,,,,,,,,,,,
9113,1185089,26000,1059259,121,3.0,1999,20697.0,High,12/4/2008 0:00,WA300,WA300,,,,Medium,Wheel Loader - 135.0 to 150.0 Horsepower,Texas,WL,Wheel Loader,,EROPS w AC,None or Unspecified,,None or Unspecified,,,,,,,,2 Valve,,,,,23.5,None or Unspecified,,,,,,,,,,,,,Standard,Conventional
9113,1727905,33000,1273423,132,1.0,1984,,,5/18/1993 0:00,WA300,WA300,,,,Medium,Wheel Loader - 135.0 to 150.0 Horsepower,Maine,WL,Wheel Loader,,EROPS w AC,,,,,,,,,,,Standard,,,,,,None or Unspecified,,,,,,,,,,,,,,
9113,1727985,32000,1023004,132,1.0,1984,,,6/6/1991 0:00,WA300,WA300,,,,Medium,Wheel Loader - 135.0 to 150.0 Horsepower,Texas,WL,Wheel Loader,,EROPS w AC,,,,,,,,,,,Auxiliary,,,,,,Hydraulic,,,,,,,,,,,,,,
9113,1728015,57000,1551709,132,4.0,1984,,,2/1/1989 0:00,WA300,WA300,,,,Medium,Wheel Loader - 135.0 to 150.0 Horsepower,Florida,WL,Wheel Loader,,EROPS w AC,,,,,,,,,,,Auxiliary,,,,,,None or Unspecified,,,,,,,,,,,,,,
9113,1728135,26500,126377,132,4.0,1984,6820.0,Low,2/4/1992 0:00,WA300,WA300,,,,Medium,Wheel Loader - 135.0 to 150.0 Horsepower,Florida,WL,Wheel Loader,,EROPS w AC,,,,,,,,,,,Auxiliary,,,,,,None or Unspecified,,,,,,,,,,,,,,
9113,1728181,37000,880205,132,1.0,1984,,,10/8/1991 0:00,WA300,WA300,,,,Medium,Wheel Loader - 135.0 to 150.0 Horsepower,Washington,WL,Wheel Loader,,EROPS w AC,,,,,,,,,,,Standard,,,,,,None or Unspecified,,,,,,,,,,,,,,
9113,1728200,15000,1496901,132,1.0,1984,,,2/28/2007 0:00,WA300,WA300,,,,Medium,Wheel Loader - 135.0 to 150.0 Horsepower,Texas,WL,Wheel Loader,,EROPS w AC,Yes,,None or Unspecified,,,,,,,,2 Valve,,,,,20.5,Manual,,,,,,,,,,,,,Standard,Conventional
9113,1728339,26000,493597,132,1.0,1000,,,7/23/1996 0:00,WA300,WA300,,,,Medium,Wheel Loader - 135.0 to 150.0 Horsepower,Texas,WL,Wheel Loader,,EROPS w AC,None or Unspecified,,None or Unspecified,,,,,,,,2 Valve,,,,,20.5,None or Unspecified,,,,,,,,,,,,,Standard,Conventional
9113,1728348,16500,1013674,132,12.0,1985,,,4/3/2008 0:00,WA300,WA300,,,,Medium,Wheel Loader - 135.0 to 150.0 Horsepower,South Carolina,WL,Wheel Loader,,EROPS w AC,,,,,,,,,,,Standard,,,,,,None or Unspecified,,,,,,,,,,,,,,
9113,1728518,42000,382421,132,6.0,1984,,,1/25/1990 0:00,WA300,WA300,,,,Medium,Wheel Loader - 135.0 to 150.0 Horsepower,Florida,WL,Wheel Loader,,EROPS w AC,,,,,,,,,,,,,,,,23.5,,,,,,,,,,,,,,,
9113,1728891,40000,1082899,132,4.0,1985,,,2/6/1990 0:00,WA300,WA300,,,,Medium,Wheel Loader - 135.0 to 150.0 Horsepower,Florida,WL,Wheel Loader,,EROPS,None or Unspecified,,None or Unspecified,,,,,,,,2 Valve,,,,,20.5,None or Unspecified,,,,,,,,,,,,,Standard,Conventional
9113,1729063,48000,1059447,132,4.0,1984,,,2/1/1989 0:00,WA300,WA300,,,,Medium,Wheel Loader - 135.0 to 150.0 Horsepower,Florida,WL,Wheel Loader,,EROPS w AC,,,,,,,,,,,Standard,,,,,,None or Unspecified,,,,,,,,,,,,,,
9113,1729265,29000,1235033,132,4.0,1984,,,8/8/1991 0:00,WA300,WA300,,,,Medium,Wheel Loader - 135.0 to 150.0 Horsepower,North Carolina,WL,Wheel Loader,,EROPS w AC,,,,,,,,,,,Standard,,,,,,Manual,,,,,,,,,,,,,,
9113,1729499,38000,1213515,132,24.0,1985,,,11/7/1989 0:00,WA300,WA300,,,,Medium,Wheel Loader - 135.0 to 150.0 Horsepower,Georgia,WL,Wheel Loader,,EROPS,,,,,,,,,,,2 Valve,,,,,,,,,,,,,,,,,,,,
9113,1729734,25000,1170940,132,1.0,1000,,,8/20/1996 0:00,WA300,WA300,,,,Medium,Wheel Loader - 135.0 to 150.0 Horsepower,Texas,WL,Wheel Loader,,EROPS w AC,None or Unspecified,,None or Unspecified,,,,,,,,2 Valve,,,,,26.5,None or Unspecified,,,,,,,,,,,,,Standard,Conventional
9113,1729852,17000,399236,132,4.0,1000,,,2/9/2000 0:00,WA300,WA300,,,,Medium,Wheel Loader - 135.0 to 150.0 Horsepower,Florida,WL,Wheel Loader,,EROPS,None or Unspecified,,None or Unspecified,,,,,,,,2 Valve,,,,,20.5,None or Unspecified,,,,,,,,,,,,,Standard,Conventional
9113,1729887,29000,1527894,132,4.0,1985,,,10/18/1990 0:00,WA300,WA300,,,,Medium,Wheel Loader - 135.0 to 150.0 Horsepower,Maine,WL,Wheel Loader,,EROPS,None or Unspecified,,None or Unspecified,,,,,,,,2 Valve,,,,,20.5,None or Unspecified,,,,,,,,,,,,,Standard,Conventional
9113,1729888,40000,1527894,132,24.0,1985,,,7/20/1989 0:00,WA300,WA300,,,,Medium,Wheel Loader - 135.0 to 150.0 Horsepower,Georgia,WL,Wheel Loader,,EROPS,None or Unspecified,,None or Unspecified,,,,,,,,2 Valve,,,,,20.5,None or Unspecified,,,,,,,,,,,,,Standard,Conventional
9113,1729892,33000,1310207,132,1.0,1985,,,3/15/1990 0:00,WA300,WA300,,,,Medium,Wheel Loader - 135.0 to 150.0 Horsepower,Florida,WL,Wheel Loader,,EROPS w AC,,,,,,,,,,,Standard,,,,,,None or Unspecified,,,,,,,,,,,,,,
9113,1729938,34000,1423135,132,1.0,1985,,,6/4/1991 0:00,WA300,WA300,,,,Medium,Wheel Loader - 135.0 to 150.0 Horsepower,Oklahoma,WL,Wheel Loader,,EROPS,,,,,,,,,,,Auxiliary,,,,,,None or Unspecified,,,,,,,,,,,,,,
9113,1729939,47500,1423135,132,1.0,1986,,,8/24/1989 0:00,WA300,WA300,,,,Medium,Wheel Loader - 135.0 to 150.0 Horsepower,California,WL,Wheel Loader,,EROPS,,,,,,,,,,,Auxiliary,,,,,,None or Unspecified,,,,,,,,,,,,,,
9113,1729946,31000,1156034,132,99.0,1985,,,2/4/1991 0:00,WA300,WA300,,,,Medium,Wheel Loader - 135.0 to 150.0 Horsepower,Florida,WL,Wheel Loader,,OROPS,,,,,,,,,,,2 Valve,,,,,,,,,,,,,,,,,,,,
9113,1729955,22000,1386615,132,23.0,1000,,,10/5/1996 0:00,WA300,WA300,,,,Medium,Wheel Loader - 135.0 to 150.0 Horsepower,Pennsylvania,WL,Wheel Loader,,EROPS,None or Unspecified,,None or Unspecified,,,,,,,,2 Valve,,,,,26.5,None or Unspecified,,,,,,,,,,,,,Standard,Conventional
9113,1729962,35000,762648,132,23.0,1000,,,10/5/1996 0:00,WA300,WA300,,,,Medium,Wheel Loader - 135.0 to 150.0 Horsepower,Pennsylvania,WL,Wheel Loader,,EROPS w AC,None or Unspecified,,Yes,,,,,,,,2 Valve,,,,,17.5,None or Unspecified,,,,,,,,,,,,,Limited Slip,Conventional
9113,1730075,19000,1099757,132,10.0,1985,,,9/26/1996 0:00,WA300,WA300,,,,Medium,Wheel Loader - 135.0 to 150.0 Horsepower,Louisiana,WL,Wheel Loader,,EROPS w AC,,,,,,,,,,,2 Valve,,,,,,,,,,,,,,,,,,,,
9113,1730076,37000,1382447,132,10.0,1985,,,5/21/1993 0:00,WA300,WA300,,,,Medium,Wheel Loader - 135.0 to 150.0 Horsepower,Mississippi,WL,Wheel Loader,,EROPS,None or Unspecified,,None or Unspecified,,,,,,,,2 Valve,,,,,23.5,Manual,,,,,,,,,,,,,Standard,Conventional
9113,1730077,33000,1382447,132,10.0,1985,,,4/21/1993 0:00,WA300,WA300,,,,Medium,Wheel Loader - 135.0 to 150.0 Horsepower,Louisiana,WL,Wheel Loader,,EROPS,None or Unspecified,,None or Unspecified,,,,,,,,2 Valve,,,,,23.5,Manual,,,,,,,,,,,,,Standard,Conventional
9113,1730097,52000,1282810,132,1.0,1985,,,5/23/1989 0:00,WA300,WA300,,,,Medium,Wheel Loader - 135.0 to 150.0 Horsepower,Minnesota,WL,Wheel Loader,,EROPS w AC,None or Unspecified,,None or Unspecified,,,,,,,,2 Valve,,,,,20.5,Manual,,,,,,,,,,,,,Standard,Conventional
9113,1730130,29000,1083190,132,4.0,1984,,,2/1/1993 0:00,WA300,WA300,,,,Medium,Wheel Loader - 135.0 to 150.0 Horsepower,Florida,WL,Wheel Loader,,OROPS,None or Unspecified,,None or Unspecified,,,,,,,,2 Valve,,,,,20.5,None or Unspecified,,,,,,,,,,,,,Standard,Conventional
9113,1730131,37000,1083190,132,24.0,1985,,,9/7/1989 0:00,WA300,WA300,,,,Medium,Wheel Loader - 135.0 to 150.0 Horsepower,Florida,WL,Wheel Loader,,OROPS,None or Unspecified,,None or Unspecified,,,,,,,,2 Valve,,,,,20.5,None or Unspecified,,,,,,,,,,,,,Standard,Conventional
9113,1730133,26000,1412948,132,4.0,1985,,,8/8/1991 0:00,WA300,WA300,,,,Medium,Wheel Loader - 135.0 to 150.0 Horsepower,North Carolina,WL,Wheel Loader,,EROPS w AC,,,,,,,,,,,Standard,,,,,,None or Unspecified,,,,,,,,,,,,,,
9113,1730135,40000,1412948,132,24.0,1985,,,9/7/1989 0:00,WA300,WA300,,,,Medium,Wheel Loader - 135.0 to 150.0 Horsepower,Florida,WL,Wheel Loader,,EROPS w AC,,,,,,,,,,,Standard,,,,,,None or Unspecified,,,,,,,,,,,,,,
9113,1730136,40000,1412948,132,24.0,1985,,,11/7/1989 0:00,WA300,WA300,,,,Medium,Wheel Loader - 135.0 to 150.0 Horsepower,Georgia,WL,Wheel Loader,,EROPS w AC,,,,,,,,,,,Standard,,,,,,None or Unspecified,,,,,,,,,,,,,,
9113,1730141,37000,1542985,132,24.0,1985,,,9/7/1989 0:00,WA300,WA300,,,,Medium,Wheel Loader - 135.0 to 150.0 Horsepower,Florida,WL,Wheel Loader,,EROPS,None or Unspecified,,None or Unspecified,,,,,,,,2 Valve,,,,,20.5,None or Unspecified,,,,,,,,,,,,,Standard,Conventional
9113,1730164,27000,866720,132,1.0,1985,,,10/8/1992 0:00,WA300,WA300,,,,Medium,Wheel Loader - 135.0 to 150.0 Horsepower,Florida,WL,Wheel Loader,,EROPS,None or Unspecified,,None or Unspecified,,,,,,,,2 Valve,,,,,None or Unspecified,Manual,,,,,,,,,,,,,Standard,Conventional
9113,1730190,40000,1492245,132,24.0,1985,,,7/20/1989 0:00,WA300,WA300,,,,Medium,Wheel Loader - 135.0 to 150.0 Horsepower,Georgia,WL,Wheel Loader,,EROPS,Yes,,None or Unspecified,,,,,,,,2 Valve,,,,,20.5,None or Unspecified,,,,,,,,,,,,,Standard,Conventional
9113,1730192,42000,1492245,132,4.0,1985,,,2/6/1990 0:00,WA300,WA300,,,,Medium,Wheel Loader - 135.0 to 150.0 Horsepower,Florida,WL,Wheel Loader,,EROPS,Yes,,None or Unspecified,,,,,,,,2 Valve,,,,,20.5,None or Unspecified,,,,,,,,,,,,,Standard,Conventional
9113,1730194,32000,196424,132,1.0,1985,,,3/15/1990 0:00,WA300,WA300,,,,Medium,Wheel Loader - 135.0 to 150.0 Horsepower,Florida,WL,Wheel Loader,,EROPS w AC,None or Unspecified,,None or Unspecified,,,,,,,,2 Valve,,,,,20.5,None or Unspecified,,,,,,,,,,,,,Standard,Conventional
9113,1730237,36000,1398976,132,1.0,1985,,,3/15/1990 0:00,WA300,WA300,,,,Medium,Wheel Loader - 135.0 to 150.0 Horsepower,Florida,WL,Wheel Loader,,EROPS,,,,,,,,,,,Auxiliary,,,,,,None or Unspecified,,,,,,,,,,,,,,
9113,1730249,36000,1239842,132,1.0,1985,,,12/10/1992 0:00,WA300,WA300,,,,Medium,Wheel Loader - 135.0 to 150.0 Horsepower,Texas,WL,Wheel Loader,,EROPS,None or Unspecified,,None or Unspecified,,,,,,,,2 Valve,,,,,20.5,Manual,,,,,,,,,,,,,Standard,Conventional
9113,1730253,34000,1239842,132,1.0,1985,,,3/15/1990 0:00,WA300,WA300,,,,Medium,Wheel Loader - 135.0 to 150.0 Horsepower,Florida,WL,Wheel Loader,,EROPS,None or Unspecified,,None or Unspecified,,,,,,,,2 Valve,,,,,20.5,Manual,,,,,,,,,,,,,Standard,Conventional
9113,1730255,24500,1425538,132,1.0,1000,,,5/14/1996 0:00,WA300,WA300,,,,Medium,Wheel Loader - 135.0 to 150.0 Horsepower,North Carolina,WL,Wheel Loader,,EROPS,None or Unspecified,,None or Unspecified,,,,,,,,2 Valve,,,,,20.5,None or Unspecified,,,,,,,,,,,,,Standard,Conventional
9113,1730260,30500,1287448,132,2.0,1985,,,11/21/1992 0:00,WA300,WA300,,,,Medium,Wheel Loader - 135.0 to 150.0 Horsepower,Ohio,WL,Wheel Loader,,EROPS,Yes,,None or Unspecified,,,,,,,,2 Valve,,,,,26.5,Manual,,,,,,,,,,,,,Standard,Conventional
9113,1730410,31000,1089828,132,1.0,1985,,,11/18/1993 0:00,WA300,WA300,,,,Medium,Wheel Loader - 135.0 to 150.0 Horsepower,Texas,WL,Wheel Loader,,EROPS,,,,,,,,,,,Auxiliary,,,,,,None or Unspecified,,,,,,,,,,,,,,
9113,1730483,32500,1470079,132,2.0,1985,,,7/17/1993 0:00,WA300,WA300,,,,Medium,Wheel Loader - 135.0 to 150.0 Horsepower,New York,WL,Wheel Loader,,EROPS,,,,,,,,,,,Standard,,,,,,None or Unspecified,,,,,,,,,,,,,,
9113,1730512,39000,1501618,132,1.0,1986,,,9/28/1989 0:00,WA300,WA300,,,,Medium,Wheel Loader - 135.0 to 150.0 Horsepower,Arizona,WL,Wheel Loader,,OROPS,None or Unspecified,,None or Unspecified,,,,,,,,2 Valve,,,,,20.5,None or Unspecified,,,,,,,,,,,,,Standard,Conventional
9113,1730600,27000,1101958,132,1.0,1000,,,10/7/1996 0:00,WA300,WA300,,,,Medium,Wheel Loader - 135.0 to 150.0 Horsepower,California,WL,Wheel Loader,,EROPS,,,,,,,,,,,Standard,,,,,,None or Unspecified,,,,,,,,,,,,,,
9113,1730619,32500,1455494,132,19.0,1986,,,7/29/1992 0:00,WA300,WA300,,,,Medium,Wheel Loader - 135.0 to 150.0 Horsepower,California,WL,Wheel Loader,,OROPS,None or Unspecified,,None or Unspecified,,,,,,,,2 Valve,,,,,None or Unspecified,None or Unspecified,,,,,,,,,,,,,Standard,Conventional
9113,1730643,33000,1393196,132,4.0,1986,,,2/4/1992 0:00,WA300,WA300,,,,Medium,Wheel Loader - 135.0 to 150.0 Horsepower,Florida,WL,Wheel Loader,,EROPS,,,,,,,,,,,Standard,,,,,,None or Unspecified,,,,,,,,,,,,,,
9113,1730668,14500,1341961,132,4.0,1000,,,10/29/1998 0:00,WA300,WA300,,,,Medium,Wheel Loader - 135.0 to 150.0 Horsepower,South Carolina,WL,Wheel Loader,,EROPS,None or Unspecified,,None or Unspecified,,,,,,,,2 Valve,,,,,None or Unspecified,None or Unspecified,,,,,,,,,,,,,Standard,Conventional
9113,1730921,33000,1553742,132,6.0,1986,,,5/13/1993 0:00,WA300,WA300,,,,Medium,Wheel Loader - 135.0 to 150.0 Horsepower,Maine,WL,Wheel Loader,,EROPS w AC,,,,,,,,,,,Standard,,,,,,None or Unspecified,,,,,,,,,,,,,,
9113,1731377,32500,1130589,132,1.0,1987,,,3/21/1991 0:00,WA300,WA300,,,,Medium,Wheel Loader - 135.0 to 150.0 Horsepower,Colorado,WL,Wheel Loader,,EROPS,None or Unspecified,,None or Unspecified,,,,,,,,2 Valve,,,,,None or Unspecified,None or Unspecified,,,,,,,,,,,,,Standard,Conventional
9113,1731402,25000,1363684,132,1.0,1986,,,5/5/1992 0:00,WA300,WA300,,,,Medium,Wheel Loader - 135.0 to 150.0 Horsepower,Maryland,WL,Wheel Loader,,EROPS w AC,None or Unspecified,,None or Unspecified,,,,,,,,2 Valve,,,,,20.5,None or Unspecified,,,,,,,,,,,,,Standard,Conventional
9113,1736588,42500,1016504,132,2.0,1000,,,3/26/1998 0:00,WA300,WA300,,,,Medium,Wheel Loader - 135.0 to 150.0 Horsepower,New Jersey,WL,Wheel Loader,,EROPS,,,,,,,,,,,Auxiliary,,,,,,Manual,,,,,,,,,,,,,,
9113,1737560,13500,1277174,132,5.0,1000,,,1/23/2009 0:00,WA300,WA300,,,,Medium,Wheel Loader - 135.0 to 150.0 Horsepower,Connecticut,WL,Wheel Loader,,EROPS,None or Unspecified,,None or Unspecified,,,,,,,,2 Valve,,,,,20.5,None or Unspecified,,,,,,,,,,,,,Standard,Conventional
9113,1738847,20000,1482819,132,23.0,1000,,,10/5/1996 0:00,WA300,WA300,,,,Medium,Wheel Loader - 135.0 to 150.0 Horsepower,Pennsylvania,WL,Wheel Loader,,EROPS,None or Unspecified,,None or Unspecified,,,,,,,,2 Valve,,,,,None or Unspecified,None or Unspecified,,,,,,,,,,,,,Standard,Conventional
9113,1759718,38000,1436599,132,4.0,1989,,,10/7/1992 0:00,WA300,WA300,,,,Medium,Wheel Loader - 135.0 to 150.0 Horsepower,Florida,WL,Wheel Loader,,EROPS,None or Unspecified,,None or Unspecified,,,,,,,,2 Valve,,,,,None or Unspecified,None or Unspecified,,,,,,,,,,,,,Standard,Conventional
9113,1761206,44000,1435464,132,4.0,1989,,,2/5/1991 0:00,WA300,WA300,,,,Medium,Wheel Loader - 135.0 to 150.0 Horsepower,Florida,WL,Wheel Loader,,EROPS,None or Unspecified,,None or Unspecified,,,,,,,,2 Valve,,,,,20.5,None or Unspecified,,,,,,,,,,,,,Standard,Conventional
9113,1778958,39000,1151788,132,1.0,1986,,,9/5/1989 0:00,WA300,WA300,,,,Medium,Wheel Loader - 135.0 to 150.0 Horsepower,Arizona,WL,Wheel Loader,,OROPS,None or Unspecified,,None or Unspecified,,,,,,,,2 Valve,,,,,20.5,None or Unspecified,,,,,,,,,,,,,Standard,Conventional
9113,2397577,14750,1404594,136,4.0,1000,0.0,,2/11/2008 0:00,WA300,WA300,,,,Medium,Wheel Loader - 135.0 to 150.0 Horsepower,Florida,WL,Wheel Loader,,EROPS w AC,,,,,,,,,,,,,,,,None or Unspecified,,,,,,,,,,,,,,,
9113,2407063,28000,1441779,136,99.0,1999,0.0,,12/16/2009 0:00,WA300,WA300,,,,Medium,Wheel Loader - 135.0 to 150.0 Horsepower,California,WL,Wheel Loader,,EROPS w AC,None or Unspecified,,None or Unspecified,,,,,,,,2 Valve,,,,,20.5,None or Unspecified,,,,,,,,,,,,,Standard,Conventional
9113,2407064,36000,1643735,136,,1999,0.0,,8/4/2007 0:00,WA300,WA300,,,,Medium,Wheel Loader - 135.0 to 150.0 Horsepower,Michigan,WL,Wheel Loader,,EROPS w AC,None or Unspecified,,None or Unspecified,,,,,,,,2 Valve,,,,,20.5,None or Unspecified,,,,,,,,,,,,,Standard,Conventional
9113,2407067,31000,1096673,136,4.0,1999,0.0,,2/9/2009 0:00,WA300,WA300,,,,Medium,Wheel Loader - 135.0 to 150.0 Horsepower,Florida,WL,Wheel Loader,,EROPS w AC,Yes,,None or Unspecified,,,,,,,,2 Valve,,,,,None or Unspecified,Manual,,,,,,,,,,,,,Standard,Conventional
9113,2423230,13500,1708814,136,,1000,0.0,,1/23/2009 0:00,WA300,WA300,,,,Medium,Wheel Loader - 135.0 to 150.0 Horsepower,Connecticut,WL,Wheel Loader,,EROPS,None or Unspecified,,None or Unspecified,,,,,,,,2 Valve,,,,,20.5,None or Unspecified,,,,,,,,,,,,,Standard,Conventional
9113,4357146,34000,1112173,172,1.0,2001,5055.0,Medium,6/17/2009 0:00,WA300,WA300,,,,Medium,Wheel Loader - 135.0 to 150.0 Horsepower,Washington,WL,Wheel Loader,,EROPS,None or Unspecified,,None or Unspecified,,,,,,,,2 Valve,,,,,20.5,Manual,,,,,,,,,,,,,Standard,Conventional
9113,4364259,13000,2286085,172,1.0,1986,,,2/16/2009 0:00,WA300,WA300,,,,Medium,Wheel Loader - 135.0 to 150.0 Horsepower,Florida,WL,Wheel Loader,,OROPS,Yes,,None or Unspecified,,,,,,,,2 Valve,,,,,20.5,None or Unspecified,,,,,,,,,,,,,Standard,Conventional
