ModelID,SalesID,SalePrice,MachineID,datasource,auctioneerID,YearMade,MachineHoursCurrentMeter,UsageBand,saledate,fiModelDesc,fiBaseModel,fiSecondaryDesc,fiModelSeries,fiModelDescriptor,ProductSize,fiProductClassDesc,state,ProductGroup,ProductGroupDesc,Drive_System,Enclosure,Forks,Pad_Type,Ride_Control,Stick,Transmission,Turbocharged,Blade_Extension,Blade_Width,Enclosure_Type,Engine_Horsepower,Hydraulics,Pushblock,Ripper,Scarifier,Tip_Control,Tire_Size,Coupler,Coupler_System,Grouser_Tracks,Hydraulics_Flow,Track_Type,Undercarriage_Pad_Width,Stick_Length,Thumb,Pattern_Changer,Grouser_Type,Backhoe_Mounting,Blade_Type,Travel_Controls,Differential_Type,Steering_Controls
926,1277686,17750,1218578,132,20.0,1991,,,4/13/2006 0:00,1550LT,1550,,,LT,Medium,"Track Type Tractor, Dozer - 130.0 to 160.0 Horsepower",Arkansas,TTT,Track Type Tractors,,OROPS,,,,,Standard,,,,,,2 Valve,,None or Unspecified,,,,,,,,,,,,,,None or Unspecified,None or Unspecified,None or Unspecified,,
926,1277687,10000,1447203,132,1.0,1989,,,9/12/2006 0:00,1550LT,1550,,,LT,Medium,"Track Type Tractor, Dozer - 130.0 to 160.0 Horsepower",Ohio,TTT,Track Type Tractors,,OROPS,,,,,Standard,,,,,,2 Valve,,None or Unspecified,,,,,,,,,,,,,,None or Unspecified,None or Unspecified,None or Unspecified,,
926,1277688,17000,1462854,132,14.0,1990,,,3/26/2010 0:00,1550LT,1550,,,LT,Medium,"Track Type Tractor, Dozer - 130.0 to 160.0 Horsepower",Indiana,TTT,Track Type Tractors,,OROPS,,,,,Standard,,,,,,2 Valve,,None or Unspecified,,,,,,,,,,,,,,None or Unspecified,None or Unspecified,None or Unspecified,,
926,1277689,17000,1224171,132,14.0,1990,,,3/26/2010 0:00,1550LT,1550,,,LT,Medium,"Track Type Tractor, Dozer - 130.0 to 160.0 Horsepower",Indiana,TTT,Track Type Tractors,,OROPS,,,,,Standard,,,,,,2 Valve,,None or Unspecified,,,,,,,,,,,,,,None or Unspecified,None or Unspecified,None or Unspecified,,
926,1277690,21500,1348473,132,8.0,1993,,,9/12/2007 0:00,1550LT,1550,,,LT,Medium,"Track Type Tractor, Dozer - 130.0 to 160.0 Horsepower",Mississippi,TTT,Track Type Tractors,,OROPS,,,,,Standard,,,,,,2 Valve,,Single Shank,,,,,,,,,,,,,,None or Unspecified,PAT,None or Unspecified,,
926,1277691,35000,1121454,132,1.0,1993,,,3/17/2005 0:00,1550LT,1550,,,LT,Medium,"Track Type Tractor, Dozer - 130.0 to 160.0 Horsepower",Colorado,TTT,Track Type Tractors,,EROPS,,,,,Standard,,,,,,2 Valve,,Multi Shank,,,,,,,,,,,,,,None or Unspecified,PAT,None or Unspecified,,
926,2203924,17000,1709265,136,99.0,1000,937.0,Low,3/26/2010 0:00,1550LT,1550,,,LT,Medium,"Track Type Tractor, Dozer - 130.0 to 160.0 Horsepower",Indiana,TTT,Track Type Tractors,,OROPS,,,,,Powershift,,,,,,2 Valve,,None or Unspecified,,,,,,,,,,,,,,None or Unspecified,None or Unspecified,None or Unspecified,,
926,2203925,17000,1722419,136,99.0,1000,1630.0,Low,3/26/2010 0:00,1550LT,1550,,,LT,Medium,"Track Type Tractor, Dozer - 130.0 to 160.0 Horsepower",Indiana,TTT,Track Type Tractors,,OROPS,,,,,Powershift,,,,,,2 Valve,,None or Unspecified,,,,,,,,,,,,,,None or Unspecified,None or Unspecified,None or Unspecified,,
926,2203934,21500,1671325,136,,1993,,,9/12/2007 0:00,1550LT,1550,,,LT,Medium,"Track Type Tractor, Dozer - 130.0 to 160.0 Horsepower",Mississippi,TTT,Track Type Tractors,,OROPS,,,,,Standard,,,,,,2 Valve,,None or Unspecified,,,,,,,,,,,,,,None or Unspecified,None or Unspecified,None or Unspecified,,
926,4248599,10500,2306975,172,1.0,1990,5935.0,Low,9/29/2011 0:00,1550LT,1550,,,LT,Medium,"Track Type Tractor, Dozer - 130.0 to 160.0 Horsepower",Missouri,TTT,Track Type Tractors,,OROPS,,,,,Standard,,,,,,2 Valve,,None or Unspecified,,,,,,,,,,,,,,None or Unspecified,None or Unspecified,None or Unspecified,,
926,6257849,10500,1868226,149,1.0,1990,,,9/30/2011 0:00,1550LT,1550,,,LT,Medium,"Track Type Tractor, Dozer - 130.0 to 160.0 Horsepower",Missouri,TTT,Track Type Tractors,,EROPS,,,,,,,,,,,2 Valve,,None or Unspecified,,,,,,,,,,,,,,,,,,
