SalesID,1787949
SalePrice,8100
MachineID,1224681
datasource,132
auctioneerID,2.0
YearMade,1000
MachineHoursCurrentMeter,
UsageBand,
saledate,8/24/1996 0:00
fiModelDesc,MF70
fiBaseModel,MF70
fiSecondaryDesc,
fiModelSeries,
fiModelDescriptor,
ProductSize,
fiProductClassDesc,Backhoe Loader - 15.0 to 16.0 Ft Standard Digging Depth
state,New Jersey
ProductGroup,BL
ProductGroupDesc,Backhoe Loaders
Drive_System,Two Wheel Drive
Enclosure,EROPS
Forks,None or Unspecified
Pad_Type,None or Unspecified
Ride_Control,No
Stick,Standard
Transmission,Standard
Turbocharged,None or Unspecified
Blade_Extension,
Blade_Width,
Enclosure_Type,
Engine_Horsepower,
Hydraulics,
Pushblock,
Ripper,
Scarifier,
Tip_Control,
Tire_Size,
Coupler,
Coupler_System,
Grouser_Tracks,
Hydraulics_Flow,
Track_Type,
Undercarriage_Pad_Width,
Stick_Length,
Thumb,
Pattern_Changer,
Grouser_Type,
Backhoe_Mounting,
Blade_Type,
Travel_Controls,
Differential_Type,
Steering_Controls,
