ModelID,SalesID,SalePrice,MachineID,datasource,auctioneerID,YearMade,MachineHoursCurrentMeter,UsageBand,saledate,fiModelDesc,fiBaseModel,fiSecondaryDesc,fiModelSeries,fiModelDescriptor,ProductSize,fiProductClassDesc,state,ProductGroup,ProductGroupDesc,Drive_System,Enclosure,Forks,Pad_Type,Ride_Control,Stick,Transmission,Turbocharged,Blade_Extension,Blade_Width,Enclosure_Type,Engine_Horsepower,Hydraulics,Pushblock,Ripper,Scarifier,Tip_Control,Tire_Size,Coupler,Coupler_System,Grouser_Tracks,Hydraulics_Flow,Track_Type,Undercarriage_Pad_Width,Stick_Length,Thumb,Pattern_Changer,Grouser_Type,Backhoe_Mounting,Blade_Type,Travel_Controls,Differential_Type,Steering_Controls
9522,1185081,6500,1051555,121,3.0,2005,491.0,Low,12/4/2008 0:00,553,553,,,,,Skid Steer Loader - 701.0 to 976.0 Lb Operating Capacity,California,SSL,Skid Steer Loaders,,OROPS,None or Unspecified,,,,,,,,,,Auxiliary,,,,,,Manual,Yes,None or Unspecified,Standard,,,,,,,,,,,
9522,1207368,6750,1036003,121,3.0,2006,712.0,Low,9/24/2010 0:00,553,553,,,,,Skid Steer Loader - 701.0 to 976.0 Lb Operating Capacity,Maryland,SSL,Skid Steer Loaders,,OROPS,None or Unspecified,,,,,,,,,,Standard,,,,,,Manual,Yes,None or Unspecified,Standard,,,,,,,,,,,
9522,1215152,5500,1017612,121,3.0,2005,616.0,Low,6/29/2011 0:00,553,553,,,,,Skid Steer Loader - 701.0 to 976.0 Lb Operating Capacity,New York,SSL,Skid Steer Loaders,,OROPS,None or Unspecified,,,,,,,,,,Auxiliary,,,,,,Manual,Yes,None or Unspecified,Standard,,,,,,,,,,,
9522,1791738,9500,1318252,132,1.0,1997,,,3/10/1998 0:00,553,553,,,,,Skid Steer Loader - 701.0 to 976.0 Lb Operating Capacity,California,SSL,Skid Steer Loaders,,OROPS,None or Unspecified,,,,,,,,,,Standard,,,,,,None or Unspecified,None or Unspecified,None or Unspecified,Standard,,,,,,,,,,,
9522,1802694,7000,1490966,132,21.0,1977,,,5/6/1999 0:00,553,553,,,,,Skid Steer Loader - 701.0 to 976.0 Lb Operating Capacity,Maine,SSL,Skid Steer Loaders,,OROPS,None or Unspecified,,,,,,,,,,Standard,,,,,,None or Unspecified,None or Unspecified,None or Unspecified,Standard,,,,,,,,,,,
9522,1802695,5000,1296079,132,1.0,1994,,,11/17/1998 0:00,553,553,,,,,Skid Steer Loader - 701.0 to 976.0 Lb Operating Capacity,Texas,SSL,Skid Steer Loaders,,OROPS,None or Unspecified,,,,,,,,,,Standard,,,,,,None or Unspecified,None or Unspecified,None or Unspecified,Standard,,,,,,,,,,,
9522,1802697,5500,1416918,132,1.0,1000,,,6/26/2000 0:00,553,553,,,,,Skid Steer Loader - 701.0 to 976.0 Lb Operating Capacity,Minnesota,SSL,Skid Steer Loaders,,OROPS,None or Unspecified,,,,,,,,,,Standard,,,,,,None or Unspecified,None or Unspecified,None or Unspecified,Standard,,,,,,,,,,,
9522,1802698,5750,1320330,132,17.0,1995,,,10/22/2002 0:00,553,553,,,,,Skid Steer Loader - 701.0 to 976.0 Lb Operating Capacity,Idaho,SSL,Skid Steer Loaders,,OROPS,None or Unspecified,,,,,,,,,,Standard,,,,,,None or Unspecified,None or Unspecified,None or Unspecified,Standard,,,,,,,,,,,
9522,1802700,6100,1217813,132,18.0,1995,,,1/30/1999 0:00,553,553,,,,,Skid Steer Loader - 701.0 to 976.0 Lb Operating Capacity,Pennsylvania,SSL,Skid Steer Loaders,,OROPS,None or Unspecified,,,,,,,,,,Standard,,,,,,None or Unspecified,None or Unspecified,None or Unspecified,Standard,,,,,,,,,,,
9522,1802702,7500,1446109,132,2.0,1000,,,3/18/1999 0:00,553,553,,,,,Skid Steer Loader - 701.0 to 976.0 Lb Operating Capacity,New Jersey,SSL,Skid Steer Loaders,,OROPS,None or Unspecified,,,,,,,,,,Standard,,,,,,None or Unspecified,None or Unspecified,None or Unspecified,Standard,,,,,,,,,,,
9522,1802705,5000,1102228,132,1.0,1996,,,11/4/1999 0:00,553,553,,,,,Skid Steer Loader - 701.0 to 976.0 Lb Operating Capacity,Florida,SSL,Skid Steer Loaders,,OROPS,None or Unspecified,,,,,,,,,,Standard,,,,,,None or Unspecified,None or Unspecified,None or Unspecified,Standard,,,,,,,,,,,
9522,1802707,6250,1084631,132,2.0,1995,,,8/14/1999 0:00,553,553,,,,,Skid Steer Loader - 701.0 to 976.0 Lb Operating Capacity,Tennessee,SSL,Skid Steer Loaders,,OROPS,None or Unspecified,,,,,,,,,,Standard,,,,,,None or Unspecified,None or Unspecified,None or Unspecified,Standard,,,,,,,,,,,
9522,1802709,5250,1182751,132,2.0,1000,,,8/19/2000 0:00,553,553,,,,,Skid Steer Loader - 701.0 to 976.0 Lb Operating Capacity,Wisconsin,SSL,Skid Steer Loaders,,OROPS,None or Unspecified,,,,,,,,,,Standard,,,,,,None or Unspecified,None or Unspecified,None or Unspecified,Standard,,,,,,,,,,,
9522,1802711,7500,1080842,132,1.0,1996,,,5/22/2001 0:00,553,553,,,,,Skid Steer Loader - 701.0 to 976.0 Lb Operating Capacity,Arizona,SSL,Skid Steer Loaders,,OROPS,None or Unspecified,,,,,,,,,,Standard,,,,,,None or Unspecified,None or Unspecified,None or Unspecified,Standard,,,,,,,,,,,
9522,1802712,7500,1392913,132,1.0,1996,,,5/22/2001 0:00,553,553,,,,,Skid Steer Loader - 701.0 to 976.0 Lb Operating Capacity,Arizona,SSL,Skid Steer Loaders,,OROPS,None or Unspecified,,,,,,,,,,Standard,,,,,,None or Unspecified,None or Unspecified,None or Unspecified,Standard,,,,,,,,,,,
9522,1802713,5000,1260517,132,11.0,1000,,,3/21/2000 0:00,553,553,,,,,Skid Steer Loader - 701.0 to 976.0 Lb Operating Capacity,Mississippi,SSL,Skid Steer Loaders,,OROPS,None or Unspecified,,,,,,,,,,Standard,,,,,,None or Unspecified,None or Unspecified,None or Unspecified,Standard,,,,,,,,,,,
9522,1802714,6750,1260517,132,2.0,1000,,,11/21/1998 0:00,553,553,,,,,Skid Steer Loader - 701.0 to 976.0 Lb Operating Capacity,Ohio,SSL,Skid Steer Loaders,,OROPS,None or Unspecified,,,,,,,,,,Standard,,,,,,None or Unspecified,None or Unspecified,None or Unspecified,Standard,,,,,,,,,,,
9522,1802715,7500,1166150,132,2.0,1000,,,11/21/1998 0:00,553,553,,,,,Skid Steer Loader - 701.0 to 976.0 Lb Operating Capacity,Ohio,SSL,Skid Steer Loaders,,OROPS,None or Unspecified,,,,,,,,,,Standard,,,,,,None or Unspecified,None or Unspecified,None or Unspecified,Standard,,,,,,,,,,,
9522,1802716,5400,1285435,132,9.0,1997,,,5/15/2003 0:00,553,553,,,,,Skid Steer Loader - 701.0 to 976.0 Lb Operating Capacity,South Carolina,SSL,Skid Steer Loaders,,OROPS,None or Unspecified,,,,,,,,,,Standard,,,,,,None or Unspecified,None or Unspecified,None or Unspecified,Standard,,,,,,,,,,,
9522,1802718,7000,1252655,132,2.0,1000,,,3/30/2000 0:00,553,553,,,,,Skid Steer Loader - 701.0 to 976.0 Lb Operating Capacity,New Jersey,SSL,Skid Steer Loaders,,OROPS,None or Unspecified,,,,,,,,,,Standard,,,,,,None or Unspecified,None or Unspecified,None or Unspecified,Standard,,,,,,,,,,,
9522,1802719,5500,1252655,132,1.0,1996,,,3/29/2000 0:00,553,553,,,,,Skid Steer Loader - 701.0 to 976.0 Lb Operating Capacity,Maryland,SSL,Skid Steer Loaders,,OROPS,None or Unspecified,,,,,,,,,,Standard,,,,,,None or Unspecified,None or Unspecified,None or Unspecified,Standard,,,,,,,,,,,
9522,1802721,7000,1079883,132,1.0,1996,,,6/30/2005 0:00,553,553,,,,,Skid Steer Loader - 701.0 to 976.0 Lb Operating Capacity,Colorado,SSL,Skid Steer Loaders,,OROPS,None or Unspecified,,,,,,,,,,Standard,,,,,,None or Unspecified,None or Unspecified,None or Unspecified,Standard,,,,,,,,,,,
9522,1802722,4750,1079883,132,1.0,1995,,,3/16/2006 0:00,553,553,,,,,Skid Steer Loader - 701.0 to 976.0 Lb Operating Capacity,Colorado,SSL,Skid Steer Loaders,,OROPS,None or Unspecified,,,,,,,,,,Standard,,,,,,None or Unspecified,None or Unspecified,None or Unspecified,Standard,,,,,,,,,,,
9522,1802723,9000,1079883,132,6.0,1996,400.0,Medium,10/16/1997 0:00,553,553,,,,,Skid Steer Loader - 701.0 to 976.0 Lb Operating Capacity,New Mexico,SSL,Skid Steer Loaders,,OROPS,None or Unspecified,,,,,,,,,,Standard,,,,,,None or Unspecified,None or Unspecified,None or Unspecified,Standard,,,,,,,,,,,
9522,1802726,4750,1366168,132,2.0,1996,,,9/12/2002 0:00,553,553,,,,,Skid Steer Loader - 701.0 to 976.0 Lb Operating Capacity,Texas,SSL,Skid Steer Loaders,,OROPS,None or Unspecified,,,,,,,,,,Standard,,,,,,None or Unspecified,None or Unspecified,None or Unspecified,Standard,,,,,,,,,,,
9522,1802727,5000,1325940,132,1.0,1996,,,9/13/2005 0:00,553,553,,,,,Skid Steer Loader - 701.0 to 976.0 Lb Operating Capacity,Ohio,SSL,Skid Steer Loaders,,OROPS,None or Unspecified,,,,,,,,,,Standard,,,,,,None or Unspecified,None or Unspecified,None or Unspecified,Standard,,,,,,,,,,,
9522,1802728,5000,1532376,132,1.0,1996,,,9/13/2005 0:00,553,553,,,,,Skid Steer Loader - 701.0 to 976.0 Lb Operating Capacity,Ohio,SSL,Skid Steer Loaders,,OROPS,None or Unspecified,,,,,,,,,,Standard,,,,,,None or Unspecified,None or Unspecified,None or Unspecified,Standard,,,,,,,,,,,
9522,1802730,6000,1428807,132,1.0,1996,,,9/11/2001 0:00,553,553,,,,,Skid Steer Loader - 701.0 to 976.0 Lb Operating Capacity,California,SSL,Skid Steer Loaders,,OROPS,None or Unspecified,,,,,,,,,,Standard,,,,,,None or Unspecified,None or Unspecified,None or Unspecified,Standard,,,,,,,,,,,
9522,1802731,5000,1232603,132,1.0,1998,,,8/24/2006 0:00,553,553,,,,,Skid Steer Loader - 701.0 to 976.0 Lb Operating Capacity,Texas,SSL,Skid Steer Loaders,,OROPS,None or Unspecified,,,,,,,,,,Standard,,,,,,None or Unspecified,None or Unspecified,None or Unspecified,Standard,,,,,,,,,,,
9522,1802734,6500,1376144,132,14.0,1997,,,6/14/2002 0:00,553,553,,,,,Skid Steer Loader - 701.0 to 976.0 Lb Operating Capacity,Indiana,SSL,Skid Steer Loaders,,OROPS,None or Unspecified,,,,,,,,,,Standard,,,,,,None or Unspecified,None or Unspecified,None or Unspecified,Standard,,,,,,,,,,,
9522,1802735,6000,1226704,132,1.0,1997,,,9/11/2001 0:00,553,553,,,,,Skid Steer Loader - 701.0 to 976.0 Lb Operating Capacity,California,SSL,Skid Steer Loaders,,OROPS,None or Unspecified,,,,,,,,,,Standard,,,,,,None or Unspecified,None or Unspecified,None or Unspecified,Standard,,,,,,,,,,,
9522,1802736,6000,1475043,132,1.0,1997,,,8/29/2006 0:00,553,553,,,,,Skid Steer Loader - 701.0 to 976.0 Lb Operating Capacity,California,SSL,Skid Steer Loaders,,OROPS,None or Unspecified,,,,,,,,,,Standard,,,,,,None or Unspecified,None or Unspecified,None or Unspecified,Standard,,,,,,,,,,,
9522,1802737,6500,1475043,132,1.0,1997,,,2/27/2007 0:00,553,553,,,,,Skid Steer Loader - 701.0 to 976.0 Lb Operating Capacity,California,SSL,Skid Steer Loaders,,OROPS,None or Unspecified,,,,,,,,,,Standard,,,,,,None or Unspecified,None or Unspecified,None or Unspecified,Standard,,,,,,,,,,,
9522,1802738,6000,1475043,132,1.0,1997,,,9/11/2001 0:00,553,553,,,,,Skid Steer Loader - 701.0 to 976.0 Lb Operating Capacity,California,SSL,Skid Steer Loaders,,OROPS,None or Unspecified,,,,,,,,,,Standard,,,,,,None or Unspecified,None or Unspecified,None or Unspecified,Standard,,,,,,,,,,,
9522,1802739,5000,1472640,132,1.0,1997,,,11/17/2005 0:00,553,553,,,,,Skid Steer Loader - 701.0 to 976.0 Lb Operating Capacity,Texas,SSL,Skid Steer Loaders,,OROPS,None or Unspecified,,,,,,,,,,Standard,,,,,,None or Unspecified,None or Unspecified,None or Unspecified,Standard,,,,,,,,,,,
9522,1802741,8500,1107959,132,15.0,1997,,,4/13/2002 0:00,553,553,,,,,Skid Steer Loader - 701.0 to 976.0 Lb Operating Capacity,Pennsylvania,SSL,Skid Steer Loaders,,OROPS,None or Unspecified,,,,,,,,,,Standard,,,,,,None or Unspecified,None or Unspecified,None or Unspecified,Standard,,,,,,,,,,,
9522,1802742,13250,1446940,132,21.0,1998,,,2/28/1998 0:00,553,553,,,,,Skid Steer Loader - 701.0 to 976.0 Lb Operating Capacity,Maine,SSL,Skid Steer Loaders,,OROPS,None or Unspecified,,,,,,,,,,Standard,,,,,,None or Unspecified,None or Unspecified,None or Unspecified,Standard,,,,,,,,,,,
9522,1802744,7500,1357313,132,1.0,1997,,,6/14/2000 0:00,553,553,,,,,Skid Steer Loader - 701.0 to 976.0 Lb Operating Capacity,Texas,SSL,Skid Steer Loaders,,OROPS,None or Unspecified,,,,,,,,,,Standard,,,,,,None or Unspecified,None or Unspecified,None or Unspecified,Standard,,,,,,,,,,,
9522,1802745,5500,1436717,132,1.0,1997,,,6/27/2005 0:00,553,553,,,,,Skid Steer Loader - 701.0 to 976.0 Lb Operating Capacity,Minnesota,SSL,Skid Steer Loaders,,OROPS,None or Unspecified,,,,,,,,,,Standard,,,,,,None or Unspecified,None or Unspecified,None or Unspecified,Standard,,,,,,,,,,,
9522,1802747,10250,1538602,132,2.0,1998,300.0,Low,2/7/2000 0:00,553,553,,,,,Skid Steer Loader - 701.0 to 976.0 Lb Operating Capacity,Florida,SSL,Skid Steer Loaders,,OROPS,None or Unspecified,,,,,,,,,,Standard,,,,,,None or Unspecified,None or Unspecified,None or Unspecified,Standard,,,,,,,,,,,
9522,1802748,10250,1538602,132,2.0,1000,,,3/30/2000 0:00,553,553,,,,,Skid Steer Loader - 701.0 to 976.0 Lb Operating Capacity,New Jersey,SSL,Skid Steer Loaders,,OROPS,None or Unspecified,,,,,,,,,,Standard,,,,,,None or Unspecified,None or Unspecified,None or Unspecified,Standard,,,,,,,,,,,
9522,1807879,7000,1212411,132,1.0,1998,,,6/15/2001 0:00,553,553,,,,,Skid Steer Loader - 701.0 to 976.0 Lb Operating Capacity,Minnesota,SSL,Skid Steer Loaders,,OROPS,None or Unspecified,,,,,,,,,,Standard,,,,,,None or Unspecified,None or Unspecified,None or Unspecified,Standard,,,,,,,,,,,
9522,1807941,6000,1267599,132,9.0,1998,,,2/18/2002 0:00,553,553,,,,,Skid Steer Loader - 701.0 to 976.0 Lb Operating Capacity,Florida,SSL,Skid Steer Loaders,,OROPS,None or Unspecified,,,,,,,,,,Standard,,,,,,None or Unspecified,None or Unspecified,None or Unspecified,Standard,,,,,,,,,,,
9522,1807942,6000,1438930,132,1.0,1998,,,9/11/2001 0:00,553,553,,,,,Skid Steer Loader - 701.0 to 976.0 Lb Operating Capacity,California,SSL,Skid Steer Loaders,,OROPS,None or Unspecified,,,,,,,,,,Standard,,,,,,None or Unspecified,None or Unspecified,None or Unspecified,Standard,,,,,,,,,,,
9522,1807943,5500,1444352,132,1.0,1998,,,6/26/2000 0:00,553,553,,,,,Skid Steer Loader - 701.0 to 976.0 Lb Operating Capacity,Minnesota,SSL,Skid Steer Loaders,,OROPS,None or Unspecified,,,,,,,,,,Standard,,,,,,None or Unspecified,None or Unspecified,None or Unspecified,Standard,,,,,,,,,,,
9522,1807945,7500,1532951,132,2.0,1000,,,2/4/2007 0:00,553,553,,,,,Skid Steer Loader - 701.0 to 976.0 Lb Operating Capacity,Florida,SSL,Skid Steer Loaders,,OROPS,None or Unspecified,,,,,,,,,,Standard,,,,,,None or Unspecified,None or Unspecified,None or Unspecified,Standard,,,,,,,,,,,
9522,1807947,6100,1369162,132,2.0,1998,,,7/31/2004 0:00,553,553,,,,,Skid Steer Loader - 701.0 to 976.0 Lb Operating Capacity,Connecticut,SSL,Skid Steer Loaders,,OROPS,None or Unspecified,,,,,,,,,,Standard,,,,,,None or Unspecified,None or Unspecified,None or Unspecified,Standard,,,,,,,,,,,
9522,1807948,8250,1540282,132,2.0,1000,,,2/8/2001 0:00,553,553,,,,,Skid Steer Loader - 701.0 to 976.0 Lb Operating Capacity,Florida,SSL,Skid Steer Loaders,,OROPS,None or Unspecified,,,,,,,,,,Standard,,,,,,None or Unspecified,None or Unspecified,None or Unspecified,Standard,,,,,,,,,,,
9522,1807949,7000,1264427,132,1.0,1999,,,6/4/2002 0:00,553,553,,,,,Skid Steer Loader - 701.0 to 976.0 Lb Operating Capacity,California,SSL,Skid Steer Loaders,,OROPS,None or Unspecified,,,,,,,,,,Standard,,,,,,None or Unspecified,None or Unspecified,None or Unspecified,Standard,,,,,,,,,,,
9522,1807954,6500,1547926,132,1.0,1998,,,2/15/2005 0:00,553,553,,,,,Skid Steer Loader - 701.0 to 976.0 Lb Operating Capacity,Florida,SSL,Skid Steer Loaders,,OROPS,None or Unspecified,,,,,,,,,,Standard,,,,,,None or Unspecified,None or Unspecified,None or Unspecified,Standard,,,,,,,,,,,
9522,1807955,7000,1247467,132,1.0,1999,,,6/4/2002 0:00,553,553,,,,,Skid Steer Loader - 701.0 to 976.0 Lb Operating Capacity,California,SSL,Skid Steer Loaders,,OROPS,None or Unspecified,,,,,,,,,,Standard,,,,,,None or Unspecified,None or Unspecified,None or Unspecified,Standard,,,,,,,,,,,
9522,1807960,5750,1426746,132,1.0,1999,,,11/29/2005 0:00,553,553,,,,,Skid Steer Loader - 701.0 to 976.0 Lb Operating Capacity,Colorado,SSL,Skid Steer Loaders,,OROPS,None or Unspecified,,,,,,,,,,Standard,,,,,,None or Unspecified,None or Unspecified,None or Unspecified,Standard,,,,,,,,,,,
9522,1807964,9100,1269758,132,4.0,1999,,,2/10/2003 0:00,553,553,,,,,Skid Steer Loader - 701.0 to 976.0 Lb Operating Capacity,Florida,SSL,Skid Steer Loaders,,OROPS,None or Unspecified,,,,,,,,,,Standard,,,,,,None or Unspecified,None or Unspecified,None or Unspecified,Standard,,,,,,,,,,,
9522,1807966,7000,1355925,132,2.0,1999,,,3/23/2006 0:00,553,553,,,,,Skid Steer Loader - 701.0 to 976.0 Lb Operating Capacity,New Jersey,SSL,Skid Steer Loaders,,OROPS,None or Unspecified,,,,,,,,,,Standard,,,,,,None or Unspecified,None or Unspecified,None or Unspecified,Standard,,,,,,,,,,,
9522,1807967,9000,1341138,132,1.0,1999,,,3/17/2004 0:00,553,553,,,,,Skid Steer Loader - 701.0 to 976.0 Lb Operating Capacity,Texas,SSL,Skid Steer Loaders,,OROPS,None or Unspecified,,,,,,,,,,Standard,,,,,,None or Unspecified,None or Unspecified,None or Unspecified,Standard,,,,,,,,,,,
9522,1807970,7000,1405607,132,2.0,2000,,,12/2/2005 0:00,553,553,,,,,Skid Steer Loader - 701.0 to 976.0 Lb Operating Capacity,Kentucky,SSL,Skid Steer Loaders,,OROPS,None or Unspecified,,,,,,,,,,Standard,,,,,,None or Unspecified,None or Unspecified,None or Unspecified,Standard,,,,,,,,,,,
9522,1807971,6000,1405607,132,1.0,1999,,,9/13/2005 0:00,553,553,,,,,Skid Steer Loader - 701.0 to 976.0 Lb Operating Capacity,California,SSL,Skid Steer Loaders,,OROPS,None or Unspecified,,,,,,,,,,Standard,,,,,,None or Unspecified,None or Unspecified,None or Unspecified,Standard,,,,,,,,,,,
9522,1807972,6000,1518000,132,1.0,1999,,,8/29/2006 0:00,553,553,,,,,Skid Steer Loader - 701.0 to 976.0 Lb Operating Capacity,California,SSL,Skid Steer Loaders,,OROPS,None or Unspecified,,,,,,,,,,Standard,,,,,,None or Unspecified,None or Unspecified,None or Unspecified,Standard,,,,,,,,,,,
9522,1807973,7250,1450108,132,1.0,1998,,,3/21/2005 0:00,553,553,,,,,Skid Steer Loader - 701.0 to 976.0 Lb Operating Capacity,Arizona,SSL,Skid Steer Loaders,,OROPS,None or Unspecified,,,,,,,,,,Standard,,,,,,None or Unspecified,None or Unspecified,None or Unspecified,Standard,,,,,,,,,,,
9522,1807974,7250,1199335,132,1.0,1998,,,3/21/2005 0:00,553,553,,,,,Skid Steer Loader - 701.0 to 976.0 Lb Operating Capacity,Arizona,SSL,Skid Steer Loaders,,OROPS,None or Unspecified,,,,,,,,,,Standard,,,,,,None or Unspecified,None or Unspecified,None or Unspecified,Standard,,,,,,,,,,,
9522,1807975,7250,1176382,132,1.0,1998,,,3/21/2005 0:00,553,553,,,,,Skid Steer Loader - 701.0 to 976.0 Lb Operating Capacity,Arizona,SSL,Skid Steer Loaders,,OROPS,None or Unspecified,,,,,,,,,,Standard,,,,,,None or Unspecified,None or Unspecified,None or Unspecified,Standard,,,,,,,,,,,
9522,1807976,7000,1099701,132,1.0,1998,,,3/13/2003 0:00,553,553,,,,,Skid Steer Loader - 701.0 to 976.0 Lb Operating Capacity,Illinois,SSL,Skid Steer Loaders,,OROPS,None or Unspecified,,,,,,,,,,Standard,,,,,,None or Unspecified,None or Unspecified,None or Unspecified,Standard,,,,,,,,,,,
9522,1807979,7750,1507676,132,4.0,1999,,,2/12/2007 0:00,553,553,,,,,Skid Steer Loader - 701.0 to 976.0 Lb Operating Capacity,Florida,SSL,Skid Steer Loaders,,OROPS,None or Unspecified,,,,,,,,,,Standard,,,,,,None or Unspecified,None or Unspecified,None or Unspecified,Standard,,,,,,,,,,,
9522,1807980,7500,1332078,132,1.0,1998,,,5/30/2002 0:00,553,553,,,,,Skid Steer Loader - 701.0 to 976.0 Lb Operating Capacity,New Mexico,SSL,Skid Steer Loaders,,OROPS,None or Unspecified,,,,,,,,,,Standard,,,,,,None or Unspecified,None or Unspecified,None or Unspecified,Standard,,,,,,,,,,,
9522,1807983,7000,1091541,132,2.0,2000,,,3/23/2006 0:00,553,553,,,,,Skid Steer Loader - 701.0 to 976.0 Lb Operating Capacity,New Jersey,SSL,Skid Steer Loaders,,OROPS,None or Unspecified,,,,,,,,,,Standard,,,,,,None or Unspecified,None or Unspecified,None or Unspecified,Standard,,,,,,,,,,,
9522,1807984,11000,1387016,132,1.0,1998,,,3/26/2004 0:00,553,553,,,,,Skid Steer Loader - 701.0 to 976.0 Lb Operating Capacity,California,SSL,Skid Steer Loaders,,OROPS,None or Unspecified,,,,,,,,,,Standard,,,,,,None or Unspecified,None or Unspecified,None or Unspecified,Standard,,,,,,,,,,,
9522,1807985,5500,1163817,132,1.0,2000,,,5/26/2005 0:00,553,553,,,,,Skid Steer Loader - 701.0 to 976.0 Lb Operating Capacity,Florida,SSL,Skid Steer Loaders,,OROPS,None or Unspecified,,,,,,,,,,Standard,,,,,,None or Unspecified,None or Unspecified,None or Unspecified,Standard,,,,,,,,,,,
9522,1807986,6000,1347503,132,22.0,2000,,,12/3/2005 0:00,553,553,,,,,Skid Steer Loader - 701.0 to 976.0 Lb Operating Capacity,Minnesota,SSL,Skid Steer Loaders,,OROPS,None or Unspecified,,,,,,,,,,Standard,,,,,,None or Unspecified,None or Unspecified,None or Unspecified,Standard,,,,,,,,,,,
9522,1807989,6500,1236107,132,16.0,1000,,,4/24/2004 0:00,553,553,,,,,Skid Steer Loader - 701.0 to 976.0 Lb Operating Capacity,Ohio,SSL,Skid Steer Loaders,,OROPS,None or Unspecified,,,,,,,,,,Standard,,,,,,None or Unspecified,None or Unspecified,None or Unspecified,Standard,,,,,,,,,,,
9522,1807990,6000,1354328,132,1.0,2000,,,3/22/2006 0:00,553,553,,,,,Skid Steer Loader - 701.0 to 976.0 Lb Operating Capacity,California,SSL,Skid Steer Loaders,,OROPS,None or Unspecified,,,,,,,,,,Standard,,,,,,None or Unspecified,None or Unspecified,None or Unspecified,Standard,,,,,,,,,,,
9522,1807991,6500,1201954,132,17.0,1998,,,12/8/2005 0:00,553,553,,,,,Skid Steer Loader - 701.0 to 976.0 Lb Operating Capacity,Washington,SSL,Skid Steer Loaders,,OROPS,None or Unspecified,,,,,,,,,,Standard,,,,,,None or Unspecified,None or Unspecified,None or Unspecified,Standard,,,,,,,,,,,
9522,1807992,7000,1237678,132,1.0,2000,,,12/6/2005 0:00,553,553,,,,,Skid Steer Loader - 701.0 to 976.0 Lb Operating Capacity,Washington,SSL,Skid Steer Loaders,,OROPS,None or Unspecified,,,,,,,,,,Standard,,,,,,None or Unspecified,None or Unspecified,None or Unspecified,Standard,,,,,,,,,,,
9522,1807996,7000,1385721,132,1.0,2000,,,5/22/2007 0:00,553,553,,,,,Skid Steer Loader - 701.0 to 976.0 Lb Operating Capacity,California,SSL,Skid Steer Loaders,,OROPS,None or Unspecified,,,,,,,,,,Standard,,,,,,None or Unspecified,None or Unspecified,None or Unspecified,Standard,,,,,,,,,,,
9522,1807997,7000,1385721,132,1.0,2000,,,4/29/2008 0:00,553,553,,,,,Skid Steer Loader - 701.0 to 976.0 Lb Operating Capacity,California,SSL,Skid Steer Loaders,,OROPS,None or Unspecified,,,,,,,,,,Standard,,,,,,None or Unspecified,None or Unspecified,None or Unspecified,Standard,,,,,,,,,,,
9522,1807998,7500,1304124,132,1.0,2000,,,6/21/2006 0:00,553,553,,,,,Skid Steer Loader - 701.0 to 976.0 Lb Operating Capacity,Maryland,SSL,Skid Steer Loaders,,OROPS,None or Unspecified,,,,,,,,,,Standard,,,,,,None or Unspecified,None or Unspecified,None or Unspecified,Standard,,,,,,,,,,,
9522,1807999,9000,1325448,132,1.0,2001,,,3/29/2006 0:00,553,553,,,,,Skid Steer Loader - 701.0 to 976.0 Lb Operating Capacity,Texas,SSL,Skid Steer Loaders,,OROPS,None or Unspecified,,,,,,,,,,Standard,,,,,,None or Unspecified,None or Unspecified,None or Unspecified,Standard,,,,,,,,,,,
9522,1808000,6000,1166403,132,1.0,2001,,,12/12/2006 0:00,553,553,,,,,Skid Steer Loader - 701.0 to 976.0 Lb Operating Capacity,California,SSL,Skid Steer Loaders,,OROPS,None or Unspecified,,,,,,,,,,Standard,,,,,,None or Unspecified,None or Unspecified,None or Unspecified,Standard,,,,,,,,,,,
9522,1808003,7500,1442806,132,1.0,2002,,,9/13/2005 0:00,553,553,,,,,Skid Steer Loader - 701.0 to 976.0 Lb Operating Capacity,California,SSL,Skid Steer Loaders,,OROPS,None or Unspecified,,,,,,,,,,Standard,,,,,,None or Unspecified,None or Unspecified,None or Unspecified,Standard,,,,,,,,,,,
9522,1808006,9000,1146586,132,1.0,2002,,,3/22/2006 0:00,553,553,,,,,Skid Steer Loader - 701.0 to 976.0 Lb Operating Capacity,California,SSL,Skid Steer Loaders,,OROPS,None or Unspecified,,,,,,,,,,Standard,,,,,,None or Unspecified,None or Unspecified,None or Unspecified,Standard,,,,,,,,,,,
9522,1808013,6500,1164154,132,1.0,1998,,,12/8/2004 0:00,553,553,,,,,Skid Steer Loader - 701.0 to 976.0 Lb Operating Capacity,Texas,SSL,Skid Steer Loaders,,OROPS,None or Unspecified,,,,,,,,,,Standard,,,,,,None or Unspecified,None or Unspecified,None or Unspecified,Standard,,,,,,,,,,,
9522,1808023,5600,1102404,132,4.0,1000,,,6/17/2006 0:00,553,553,,,,,Skid Steer Loader - 701.0 to 976.0 Lb Operating Capacity,Pennsylvania,SSL,Skid Steer Loaders,,OROPS,None or Unspecified,,,,,,,,,,Standard,,,,,,None or Unspecified,None or Unspecified,None or Unspecified,Standard,,,,,,,,,,,
9522,1809271,6250,1379173,132,5.0,2002,,,12/18/2006 0:00,553,553,,,,,Skid Steer Loader - 701.0 to 976.0 Lb Operating Capacity,New Jersey,SSL,Skid Steer Loaders,,OROPS,None or Unspecified,,,,,,,,,,Standard,,,,,,None or Unspecified,None or Unspecified,None or Unspecified,Standard,,,,,,,,,,,
9522,1809272,7000,1173724,132,9.0,1000,,,11/17/2004 0:00,553,553,,,,,Skid Steer Loader - 701.0 to 976.0 Lb Operating Capacity,South Carolina,SSL,Skid Steer Loaders,,OROPS,None or Unspecified,,,,,,,,,,Standard,,,,,,None or Unspecified,None or Unspecified,None or Unspecified,Standard,,,,,,,,,,,
9522,1809273,7500,1547322,132,9.0,1000,,,5/19/2005 0:00,553,553,,,,,Skid Steer Loader - 701.0 to 976.0 Lb Operating Capacity,South Carolina,SSL,Skid Steer Loaders,,OROPS,None or Unspecified,,,,,,,,,,Standard,,,,,,None or Unspecified,None or Unspecified,None or Unspecified,Standard,,,,,,,,,,,
9522,1809274,7000,1547322,132,9.0,1000,,,2/16/2005 0:00,553,553,,,,,Skid Steer Loader - 701.0 to 976.0 Lb Operating Capacity,Florida,SSL,Skid Steer Loaders,,OROPS,None or Unspecified,,,,,,,,,,Standard,,,,,,None or Unspecified,None or Unspecified,None or Unspecified,Standard,,,,,,,,,,,
9522,1809276,9500,1554459,132,1.0,2002,,,9/24/2004 0:00,553,553,,,,,Skid Steer Loader - 701.0 to 976.0 Lb Operating Capacity,Minnesota,SSL,Skid Steer Loaders,,OROPS,None or Unspecified,,,,,,,,,,Standard,,,,,,None or Unspecified,None or Unspecified,None or Unspecified,Standard,,,,,,,,,,,
9522,1809281,7000,1089941,132,1.0,2003,783.0,Low,6/23/2008 0:00,553,553,,,,,Skid Steer Loader - 701.0 to 976.0 Lb Operating Capacity,California,SSL,Skid Steer Loaders,,OROPS,None or Unspecified,,,,,,,,,,Standard,,,,,,None or Unspecified,None or Unspecified,None or Unspecified,Standard,,,,,,,,,,,
9522,1809284,9000,1505073,132,1.0,2003,1368.0,Medium,2/15/2007 0:00,553,553,,,,,Skid Steer Loader - 701.0 to 976.0 Lb Operating Capacity,Arizona,SSL,Skid Steer Loaders,,OROPS,None or Unspecified,,,,,,,,,,Standard,,,,,,None or Unspecified,None or Unspecified,None or Unspecified,Standard,,,,,,,,,,,
9522,1809285,10000,1134573,132,1.0,2003,,,9/25/2007 0:00,553,553,,,,,Skid Steer Loader - 701.0 to 976.0 Lb Operating Capacity,Colorado,SSL,Skid Steer Loaders,,OROPS,None or Unspecified,,,,,,,,,,Standard,,,,,,None or Unspecified,None or Unspecified,None or Unspecified,Standard,,,,,,,,,,,
9522,1809286,6500,1189254,132,99.0,2003,1200.0,Medium,12/1/2007 0:00,553,553,,,,,Skid Steer Loader - 701.0 to 976.0 Lb Operating Capacity,California,SSL,Skid Steer Loaders,,OROPS,None or Unspecified,,,,,,,,,,Standard,,,,,,None or Unspecified,None or Unspecified,None or Unspecified,Standard,,,,,,,,,,,
9522,1809287,10000,1378590,132,1.0,2004,,,9/25/2007 0:00,553,553,,,,,Skid Steer Loader - 701.0 to 976.0 Lb Operating Capacity,Colorado,SSL,Skid Steer Loaders,,OROPS,None or Unspecified,,,,,,,,,,Standard,,,,,,None or Unspecified,None or Unspecified,None or Unspecified,Standard,,,,,,,,,,,
9522,1809288,10000,1348289,132,1.0,2004,,,9/25/2007 0:00,553,553,,,,,Skid Steer Loader - 701.0 to 976.0 Lb Operating Capacity,Colorado,SSL,Skid Steer Loaders,,OROPS,None or Unspecified,,,,,,,,,,Standard,,,,,,None or Unspecified,None or Unspecified,None or Unspecified,Standard,,,,,,,,,,,
9522,1809289,10000,1230419,132,1.0,2004,,,9/25/2007 0:00,553,553,,,,,Skid Steer Loader - 701.0 to 976.0 Lb Operating Capacity,Colorado,SSL,Skid Steer Loaders,,OROPS,None or Unspecified,,,,,,,,,,Standard,,,,,,None or Unspecified,None or Unspecified,None or Unspecified,Standard,,,,,,,,,,,
9522,1809291,8500,1084488,132,1.0,2003,,,11/16/2007 0:00,553,553,,,,,Skid Steer Loader - 701.0 to 976.0 Lb Operating Capacity,Arizona,SSL,Skid Steer Loaders,,OROPS,None or Unspecified,,,,,,,,,,Standard,,,,,,None or Unspecified,None or Unspecified,None or Unspecified,Standard,,,,,,,,,,,
9522,1809293,8500,1232418,132,1.0,2003,,,3/19/2007 0:00,553,553,,,,,Skid Steer Loader - 701.0 to 976.0 Lb Operating Capacity,California,SSL,Skid Steer Loaders,,OROPS,None or Unspecified,,,,,,,,,,Standard,,,,,,None or Unspecified,None or Unspecified,None or Unspecified,Standard,,,,,,,,,,,
9522,1812898,8500,1422433,132,1.0,2004,,,2/12/2008 0:00,553,553,,,,,Skid Steer Loader - 701.0 to 976.0 Lb Operating Capacity,Arizona,SSL,Skid Steer Loaders,,OROPS,None or Unspecified,,,,,,,,,,Standard,,,,,,None or Unspecified,None or Unspecified,None or Unspecified,Standard,,,,,,,,,,,
9522,1812899,8750,1255645,132,14.0,2004,1554.0,High,12/6/2007 0:00,553,553,,,,,Skid Steer Loader - 701.0 to 976.0 Lb Operating Capacity,Indiana,SSL,Skid Steer Loaders,,OROPS,None or Unspecified,,,,,,,,,,Standard,,,,,,None or Unspecified,None or Unspecified,None or Unspecified,Standard,,,,,,,,,,,
9522,1812902,7000,1475049,132,1.0,2004,498.0,Low,11/7/2008 0:00,553,553,,,,,Skid Steer Loader - 701.0 to 976.0 Lb Operating Capacity,Nevada,SSL,Skid Steer Loaders,,OROPS,None or Unspecified,,,,,,,,,,Auxiliary,,,,,,None or Unspecified,None or Unspecified,None or Unspecified,Standard,,,,,,,,,,,
9522,1812903,7100,1114343,132,14.0,2004,920.0,Low,12/11/2009 0:00,553,553,,,,,Skid Steer Loader - 701.0 to 976.0 Lb Operating Capacity,Indiana,SSL,Skid Steer Loaders,,OROPS,None or Unspecified,,,,,,,,,,Standard,,,,,,None or Unspecified,None or Unspecified,None or Unspecified,Standard,,,,,,,,,,,
9522,1812904,8500,1201514,132,1.0,2005,,,2/12/2008 0:00,553,553,,,,,Skid Steer Loader - 701.0 to 976.0 Lb Operating Capacity,Arizona,SSL,Skid Steer Loaders,,OROPS,None or Unspecified,,,,,,,,,,Standard,,,,,,None or Unspecified,None or Unspecified,None or Unspecified,Standard,,,,,,,,,,,
9522,1812905,7000,1514087,132,1.0,2004,,,8/21/2008 0:00,553,553,,,,,Skid Steer Loader - 701.0 to 976.0 Lb Operating Capacity,Arizona,SSL,Skid Steer Loaders,,OROPS,None or Unspecified,,,,,,,,,,Standard,,,,,,None or Unspecified,None or Unspecified,None or Unspecified,Standard,,,,,,,,,,,
9522,1812906,6000,1514087,132,1.0,2004,,,9/11/2008 0:00,553,553,,,,,Skid Steer Loader - 701.0 to 976.0 Lb Operating Capacity,Missouri,SSL,Skid Steer Loaders,,OROPS,None or Unspecified,,,,,,,,,,Standard,,,,,,None or Unspecified,None or Unspecified,None or Unspecified,Standard,,,,,,,,,,,
9522,1812907,6500,1490863,132,1.0,2004,,,6/8/2010 0:00,553,553,,,,,Skid Steer Loader - 701.0 to 976.0 Lb Operating Capacity,California,SSL,Skid Steer Loaders,,OROPS,None or Unspecified,,,,,,,,,,Standard,,,,,,None or Unspecified,None or Unspecified,None or Unspecified,Standard,,,,,,,,,,,
9522,1812908,8500,1284488,132,1.0,2004,,,2/12/2008 0:00,553,553,,,,,Skid Steer Loader - 701.0 to 976.0 Lb Operating Capacity,Arizona,SSL,Skid Steer Loaders,,OROPS,None or Unspecified,,,,,,,,,,Standard,,,,,,None or Unspecified,None or Unspecified,None or Unspecified,Standard,,,,,,,,,,,
9522,1812914,7500,1258133,132,2.0,2005,,,9/9/2006 0:00,553,553,,,,,Skid Steer Loader - 701.0 to 976.0 Lb Operating Capacity,New Hampshire,SSL,Skid Steer Loaders,,OROPS,None or Unspecified,,,,,,,,,,Standard,,,,,,None or Unspecified,None or Unspecified,None or Unspecified,Standard,,,,,,,,,,,
9522,1814006,6000,1235248,132,1.0,2005,,,10/21/2008 0:00,553,553,,,,,Skid Steer Loader - 701.0 to 976.0 Lb Operating Capacity,Mississippi,SSL,Skid Steer Loaders,,OROPS,None or Unspecified,,,,,,,,,,Standard,,,,,,None or Unspecified,None or Unspecified,None or Unspecified,Standard,,,,,,,,,,,
9522,1814009,6000,1469356,132,1.0,1000,,,10/21/2008 0:00,553,553,,,,,Skid Steer Loader - 701.0 to 976.0 Lb Operating Capacity,Mississippi,SSL,Skid Steer Loaders,,OROPS,None or Unspecified,,,,,,,,,,Auxiliary,,,,,,None or Unspecified,None or Unspecified,None or Unspecified,Standard,,,,,,,,,,,
9522,1814011,8500,1373689,132,1.0,2005,,,11/16/2007 0:00,553,553,,,,,Skid Steer Loader - 701.0 to 976.0 Lb Operating Capacity,Arizona,SSL,Skid Steer Loaders,,OROPS,None or Unspecified,,,,,,,,,,Standard,,,,,,None or Unspecified,None or Unspecified,None or Unspecified,Standard,,,,,,,,,,,
9522,1815120,7000,1175784,132,1.0,2000,,,2/20/2007 0:00,553,553,,,,,Skid Steer Loader - 701.0 to 976.0 Lb Operating Capacity,Florida,SSL,Skid Steer Loaders,,OROPS,None or Unspecified,,,,,,,,,,Standard,,,,,,None or Unspecified,None or Unspecified,None or Unspecified,Standard,,,,,,,,,,,
9522,1815121,7000,1175784,132,1.0,2000,,,2/23/2007 0:00,553,553,,,,,Skid Steer Loader - 701.0 to 976.0 Lb Operating Capacity,Florida,SSL,Skid Steer Loaders,,OROPS,None or Unspecified,,,,,,,,,,Standard,,,,,,None or Unspecified,None or Unspecified,None or Unspecified,Standard,,,,,,,,,,,
9522,2430650,5500,1498068,136,1.0,1000,0.0,,3/16/2010 0:00,553,553,,,,,Skid Steer Loader - 701.0 to 976.0 Lb Operating Capacity,Colorado,SSL,Skid Steer Loaders,,OROPS,None or Unspecified,,,,,,,,,,Auxiliary,,,,,,None or Unspecified,None or Unspecified,None or Unspecified,Standard,,,,,,,,,,,
9522,2430651,5000,1764121,136,,1000,0.0,,6/13/2009 0:00,553,553,,,,,Skid Steer Loader - 701.0 to 976.0 Lb Operating Capacity,Florida,SSL,Skid Steer Loaders,,OROPS,None or Unspecified,,,,,,,,,,Standard,,,,,,None or Unspecified,None or Unspecified,None or Unspecified,Standard,,,,,,,,,,,
9522,2430652,6500,1684164,136,,1000,2043.0,Low,6/27/2009 0:00,553,553,,,,,Skid Steer Loader - 701.0 to 976.0 Lb Operating Capacity,Wisconsin,SSL,Skid Steer Loaders,,OROPS,None or Unspecified,,,,,,,,,,Standard,,,,,,None or Unspecified,None or Unspecified,None or Unspecified,Standard,,,,,,,,,,,
9522,2430656,6250,1128162,136,5.0,2000,0.0,,3/26/2009 0:00,553,553,,,,,Skid Steer Loader - 701.0 to 976.0 Lb Operating Capacity,Connecticut,SSL,Skid Steer Loaders,,OROPS,None or Unspecified,,,,,,,,,,Auxiliary,,,,,,None or Unspecified,None or Unspecified,None or Unspecified,Standard,,,,,,,,,,,
9522,2430657,6500,1206286,136,1.0,2001,0.0,,6/17/2009 0:00,553,553,,,,,Skid Steer Loader - 701.0 to 976.0 Lb Operating Capacity,Washington,SSL,Skid Steer Loaders,,OROPS,None or Unspecified,,,,,,,,,,Auxiliary,,,,,,None or Unspecified,None or Unspecified,None or Unspecified,Standard,,,,,,,,,,,
9522,2433233,5500,1371210,136,1.0,2002,0.0,,3/27/2009 0:00,553,553,,,,,Skid Steer Loader - 701.0 to 976.0 Lb Operating Capacity,California,SSL,Skid Steer Loaders,,OROPS,None or Unspecified,,,,,,,,,,Auxiliary,,,,,,None or Unspecified,None or Unspecified,None or Unspecified,Standard,,,,,,,,,,,
9522,2433234,6500,1750844,136,1.0,2004,0.0,,6/8/2010 0:00,553,553,,,,,Skid Steer Loader - 701.0 to 976.0 Lb Operating Capacity,California,SSL,Skid Steer Loaders,,OROPS,None or Unspecified,,,,,,,,,,Auxiliary,,,,,,None or Unspecified,None or Unspecified,None or Unspecified,Standard,,,,,,,,,,,
9522,2433239,7000,1706075,136,2.0,2005,0.0,,3/6/2010 0:00,553,553,,,,,Skid Steer Loader - 701.0 to 976.0 Lb Operating Capacity,California,SSL,Skid Steer Loaders,,OROPS,None or Unspecified,,,,,,,,,,Auxiliary,,,,,,Manual,Yes,None or Unspecified,Standard,,,,,,,,,,,
9522,2433240,5550,1674914,136,,2005,0.0,,3/21/2009 0:00,553,553,,,,,Skid Steer Loader - 701.0 to 976.0 Lb Operating Capacity,Washington,SSL,Skid Steer Loaders,,OROPS,None or Unspecified,,,,,,,,,,Standard,,,,,,None or Unspecified,None or Unspecified,None or Unspecified,Standard,,,,,,,,,,,
9522,2433241,7000,1778187,136,2.0,2005,0.0,,3/6/2010 0:00,553,553,,,,,Skid Steer Loader - 701.0 to 976.0 Lb Operating Capacity,California,SSL,Skid Steer Loaders,,OROPS,None or Unspecified,,,,,,,,,,Auxiliary,,,,,,Manual,Yes,None or Unspecified,Standard,,,,,,,,,,,
9522,2433242,6250,1671006,136,2.0,2005,0.0,,3/6/2010 0:00,553,553,,,,,Skid Steer Loader - 701.0 to 976.0 Lb Operating Capacity,California,SSL,Skid Steer Loaders,,OROPS,None or Unspecified,,,,,,,,,,Auxiliary,,,,,,Manual,Yes,None or Unspecified,Standard,,,,,,,,,,,
9522,2433243,7000,1670820,136,2.0,2005,0.0,,3/6/2010 0:00,553,553,,,,,Skid Steer Loader - 701.0 to 976.0 Lb Operating Capacity,California,SSL,Skid Steer Loaders,,OROPS,None or Unspecified,,,,,,,,,,Auxiliary,,,,,,Manual,Yes,None or Unspecified,Standard,,,,,,,,,,,
9522,2433244,6250,1751938,136,2.0,2005,0.0,,3/6/2010 0:00,553,553,,,,,Skid Steer Loader - 701.0 to 976.0 Lb Operating Capacity,California,SSL,Skid Steer Loaders,,OROPS,None or Unspecified,,,,,,,,,,Auxiliary,,,,,,Manual,Yes,None or Unspecified,Standard,,,,,,,,,,,
9522,2433245,7000,1739335,136,2.0,2005,0.0,,3/6/2010 0:00,553,553,,,,,Skid Steer Loader - 701.0 to 976.0 Lb Operating Capacity,California,SSL,Skid Steer Loaders,,OROPS,None or Unspecified,,,,,,,,,,Auxiliary,,,,,,Manual,Yes,None or Unspecified,Standard,,,,,,,,,,,
9522,2433246,7000,1709026,136,2.0,2005,0.0,,3/6/2010 0:00,553,553,,,,,Skid Steer Loader - 701.0 to 976.0 Lb Operating Capacity,California,SSL,Skid Steer Loaders,,OROPS,None or Unspecified,,,,,,,,,,Auxiliary,,,,,,Manual,Yes,None or Unspecified,Standard,,,,,,,,,,,
9522,2434411,6500,1343400,136,1.0,2005,580.0,Low,4/15/2010 0:00,553,553,,,,,Skid Steer Loader - 701.0 to 976.0 Lb Operating Capacity,Arizona,SSL,Skid Steer Loaders,,OROPS,None or Unspecified,,,,,,,,,,Auxiliary,,,,,,None or Unspecified,None or Unspecified,None or Unspecified,Standard,,,,,,,,,,,
9522,2434418,6000,1210382,136,1.0,2006,2024.0,High,5/5/2009 0:00,553,553,,,,,Skid Steer Loader - 701.0 to 976.0 Lb Operating Capacity,Arizona,SSL,Skid Steer Loaders,,OROPS,None or Unspecified,,,,,,,,,,Auxiliary,,,,,,None or Unspecified,None or Unspecified,None or Unspecified,Standard,,,,,,,,,,,
9522,2434420,10000,1422894,136,1.0,1000,0.0,,5/20/2009 0:00,553,553,,,,,Skid Steer Loader - 701.0 to 976.0 Lb Operating Capacity,California,SSL,Skid Steer Loaders,,OROPS,None or Unspecified,,,,,,,,,,Auxiliary,,,,,,None or Unspecified,None or Unspecified,None or Unspecified,Standard,,,,,,,,,,,
9522,2434421,12250,804875,136,5.0,2006,0.0,,8/28/2009 0:00,553,553,,,,,Skid Steer Loader - 701.0 to 976.0 Lb Operating Capacity,Connecticut,SSL,Skid Steer Loaders,,EROPS,None or Unspecified,,,,,,,,,,Auxiliary,,,,,,None or Unspecified,None or Unspecified,None or Unspecified,Standard,,,,,,,,,,,
9522,2716984,5000,1375202,149,1.0,1999,795.0,Low,12/7/2010 0:00,553,553,,,,,Skid Steer Loader - 701.0 to 976.0 Lb Operating Capacity,California,SSL,Skid Steer Loaders,,OROPS,None or Unspecified,,,,,,,,,,Auxiliary,,,,,,None or Unspecified,None or Unspecified,None or Unspecified,Standard,,,,,,,,,,,
9522,2721529,5750,1822112,149,99.0,2005,729.0,Low,4/22/2010 0:00,553,553,,,,,Skid Steer Loader - 701.0 to 976.0 Lb Operating Capacity,California,SSL,Skid Steer Loaders,,OROPS,None or Unspecified,,,,,,,,,,Standard,,,,,,None or Unspecified,None or Unspecified,None or Unspecified,Standard,,,,,,,,,,,
9522,2724463,6750,1809624,149,2.0,2005,0.0,,3/25/2010 0:00,553,553,,,,,Skid Steer Loader - 701.0 to 976.0 Lb Operating Capacity,New Jersey,SSL,Skid Steer Loaders,,OROPS,None or Unspecified,,,,,,,,,,Auxiliary,,,,,,None or Unspecified,None or Unspecified,None or Unspecified,Standard,,,,,,,,,,,
9522,4372174,5500,1219441,172,1.0,2000,3878.0,Medium,2/25/2009 0:00,553,553,,,,,Skid Steer Loader - 701.0 to 976.0 Lb Operating Capacity,Arizona,SSL,Skid Steer Loaders,,OROPS,None or Unspecified,,,,,,,,,,Auxiliary,,,,,,None or Unspecified,None or Unspecified,None or Unspecified,Standard,,,,,,,,,,,
9522,4372724,6500,394066,172,1.0,2002,1465.0,Medium,2/16/2009 0:00,553,553,,,,,Skid Steer Loader - 701.0 to 976.0 Lb Operating Capacity,Florida,SSL,Skid Steer Loaders,,OROPS,Yes,,,,,,,,,,Auxiliary,,,,,,None or Unspecified,None or Unspecified,None or Unspecified,Standard,,,,,,,,,,,
9522,4375113,8000,1475049,172,1.0,2004,498.0,Low,2/6/2009 0:00,553,553,,,,,Skid Steer Loader - 701.0 to 976.0 Lb Operating Capacity,Nevada,SSL,Skid Steer Loaders,,OROPS,None or Unspecified,,,,,,,,,,Auxiliary,,,,,,None or Unspecified,None or Unspecified,None or Unspecified,Standard,,,,,,,,,,,
9522,4375118,7000,2275617,172,1.0,2004,4108.0,High,12/14/2011 0:00,553,553,,,,,Skid Steer Loader - 701.0 to 976.0 Lb Operating Capacity,California,SSL,Skid Steer Loaders,,OROPS,None or Unspecified,,,,,,,,,,Auxiliary,,,,,,None or Unspecified,None or Unspecified,None or Unspecified,Standard,,,,,,,,,,,
9522,4376407,9000,1397220,172,1.0,2006,223.0,Low,2/12/2010 0:00,553,553,,,,,Skid Steer Loader - 701.0 to 976.0 Lb Operating Capacity,California,SSL,Skid Steer Loaders,,EROPS,None or Unspecified,,,,,,,,,,Auxiliary,,,,,,None or Unspecified,None or Unspecified,None or Unspecified,Standard,,,,,,,,,,,
9522,4376408,6500,1441994,172,1.0,2005,1952.0,High,11/20/2009 0:00,553,553,,,,,Skid Steer Loader - 701.0 to 976.0 Lb Operating Capacity,Arizona,SSL,Skid Steer Loaders,,OROPS,None or Unspecified,,,,,,,,,,Auxiliary,,,,,,None or Unspecified,None or Unspecified,None or Unspecified,Standard,,,,,,,,,,,
9522,4376410,6500,1284783,172,1.0,2005,2382.0,High,11/20/2009 0:00,553,553,,,,,Skid Steer Loader - 701.0 to 976.0 Lb Operating Capacity,Arizona,SSL,Skid Steer Loaders,,OROPS,None or Unspecified,,,,,,,,,,Auxiliary,,,,,,None or Unspecified,None or Unspecified,None or Unspecified,Standard,,,,,,,,,,,
9522,4376416,6500,2307393,172,1.0,2006,947.0,Low,9/29/2011 0:00,553,553,,,,,Skid Steer Loader - 701.0 to 976.0 Lb Operating Capacity,Missouri,SSL,Skid Steer Loaders,,OROPS,None or Unspecified,,,,,,,,,,Auxiliary,,,,,,None or Unspecified,None or Unspecified,None or Unspecified,Standard,,,,,,,,,,,
9522,6311786,7000,1861897,149,1.0,2004,,,12/15/2011 0:00,553,553,,,,,Skid Steer Loader - 701.0 to 976.0 Lb Operating Capacity,California,SSL,Skid Steer Loaders,,OROPS,None or Unspecified,,,,,,,,,,Auxiliary,,,,,,None or Unspecified,None or Unspecified,None or Unspecified,Standard,,,,,,,,,,,
9522,6312419,6500,1924139,149,1.0,2006,,,9/30/2011 0:00,553,553,,,,,Skid Steer Loader - 701.0 to 976.0 Lb Operating Capacity,Missouri,SSL,Skid Steer Loaders,,OROPS,None or Unspecified,,,,,,,,,,Standard,,,,,,None or Unspecified,None or Unspecified,None or Unspecified,Standard,,,,,,,,,,,
