ModelID,SalesID,SalePrice,MachineID,datasource,auctioneerID,YearMade,MachineHoursCurrentMeter,UsageBand,saledate,fiModelDesc,fiBaseModel,fiSecondaryDesc,fiModelSeries,fiModelDescriptor,ProductSize,fiProductClassDesc,state,ProductGroup,ProductGroupDesc,Drive_System,Enclosure,Forks,Pad_Type,Ride_Control,Stick,Transmission,Turbocharged,Blade_Extension,Blade_Width,Enclosure_Type,Engine_Horsepower,Hydraulics,Pushblock,Ripper,Scarifier,Tip_Control,Tire_Size,Coupler,Coupler_System,Grouser_Tracks,Hydraulics_Flow,Track_Type,Undercarriage_Pad_Width,Stick_Length,Thumb,Pattern_Changer,Grouser_Type,Backhoe_Mounting,Blade_Type,Travel_Controls,Differential_Type,Steering_Controls
9529,1789289,4850,1173071,132,6.0,1980,,,4/18/1995 0:00,632,632,,,,,Skid Steer Loader - 976.0 to 1251.0 Lb Operating Capacity,Kentucky,SSL,Skid Steer Loaders,,OROPS,None or Unspecified,,,,,,,,,,Standard,,,,,,None or Unspecified,None or Unspecified,None or Unspecified,Standard,,,,,,,,,,,
9529,1791305,7000,1391855,132,1.0,1979,,,3/22/1994 0:00,632,632,,,,,Skid Steer Loader - 976.0 to 1251.0 Lb Operating Capacity,Colorado,SSL,Skid Steer Loaders,,OROPS,None or Unspecified,,,,,,,,,,Standard,,,,,,None or Unspecified,None or Unspecified,None or Unspecified,Standard,,,,,,,,,,,
9529,1791667,5600,1230997,132,22.0,1977,,,9/20/1997 0:00,632,632,,,,,Skid Steer Loader - 976.0 to 1251.0 Lb Operating Capacity,Minnesota,SSL,Skid Steer Loaders,,OROPS,None or Unspecified,,,,,,,,,,Standard,,,,,,None or Unspecified,None or Unspecified,None or Unspecified,Standard,,,,,,,,,,,
9529,1791668,5750,1159167,132,22.0,1977,,,12/3/2005 0:00,632,632,,,,,Skid Steer Loader - 976.0 to 1251.0 Lb Operating Capacity,Minnesota,SSL,Skid Steer Loaders,,OROPS,None or Unspecified,,,,,,,,,,Standard,,,,,,None or Unspecified,None or Unspecified,None or Unspecified,Standard,,,,,,,,,,,
9529,1791674,5500,1260495,132,2.0,1979,,,12/17/1994 0:00,632,632,,,,,Skid Steer Loader - 976.0 to 1251.0 Lb Operating Capacity,New Jersey,SSL,Skid Steer Loaders,,OROPS,None or Unspecified,,,,,,,,,,Standard,,,,,,None or Unspecified,None or Unspecified,None or Unspecified,Standard,,,,,,,,,,,
9529,1791684,8000,1415187,132,11.0,1980,,,3/30/1999 0:00,632,632,,,,,Skid Steer Loader - 976.0 to 1251.0 Lb Operating Capacity,Mississippi,SSL,Skid Steer Loaders,,OROPS,None or Unspecified,,,,,,,,,,Standard,,,,,,None or Unspecified,None or Unspecified,None or Unspecified,Standard,,,,,,,,,,,
9529,1791686,7750,1502151,132,2.0,1980,,,3/18/1999 0:00,632,632,,,,,Skid Steer Loader - 976.0 to 1251.0 Lb Operating Capacity,New Jersey,SSL,Skid Steer Loaders,,OROPS,None or Unspecified,,,,,,,,,,Standard,,,,,,None or Unspecified,None or Unspecified,None or Unspecified,Standard,,,,,,,,,,,
9529,1791688,5000,1375201,132,1.0,1000,,,3/20/2008 0:00,632,632,,,,,Skid Steer Loader - 976.0 to 1251.0 Lb Operating Capacity,North Dakota,SSL,Skid Steer Loaders,,OROPS,None or Unspecified,,,,,,,,,,Standard,,,,,,None or Unspecified,None or Unspecified,None or Unspecified,Standard,,,,,,,,,,,
9529,1791689,5000,1420254,132,1.0,1000,,,3/20/2008 0:00,632,632,,,,,Skid Steer Loader - 976.0 to 1251.0 Lb Operating Capacity,North Dakota,SSL,Skid Steer Loaders,,OROPS,None or Unspecified,,,,,,,,,,Standard,,,,,,None or Unspecified,None or Unspecified,None or Unspecified,Standard,,,,,,,,,,,
9529,1794853,5000,1176516,132,4.0,1000,,,2/11/1994 0:00,632,632,,,,,Skid Steer Loader - 976.0 to 1251.0 Lb Operating Capacity,Florida,SSL,Skid Steer Loaders,,OROPS,None or Unspecified,,,,,,,,,,Standard,,,,,,None or Unspecified,None or Unspecified,None or Unspecified,Standard,,,,,,,,,,,
