ModelID,SalesID,SalePrice,MachineID,datasource,auctioneerID,YearMade,MachineHoursCurrentMeter,UsageBand,saledate,fiModelDesc,fiBaseModel,fiSecondaryDesc,fiModelSeries,fiModelDescriptor,ProductSize,fiProductClassDesc,state,ProductGroup,ProductGroupDesc,Drive_System,Enclosure,Forks,Pad_Type,Ride_Control,Stick,Transmission,Turbocharged,Blade_Extension,Blade_Width,Enclosure_Type,Engine_Horsepower,Hydraulics,Pushblock,Ripper,Scarifier,Tip_Control,Tire_Size,Coupler,Coupler_System,Grouser_Tracks,Hydraulics_Flow,Track_Type,Undercarriage_Pad_Width,Stick_Length,Thumb,Pattern_Changer,Grouser_Type,Backhoe_Mounting,Blade_Type,Travel_Controls,Differential_Type,Steering_Controls
9545,1789091,5000,1376674,132,6.0,1982,,,4/7/1998 0:00,732,732,,,,,Skid Steer Loader - 1251.0 to 1351.0 Lb Operating Capacity,Kentucky,SSL,Skid Steer Loaders,,OROPS,None or Unspecified,,,,,,,,,,Standard,,,,,,None or Unspecified,None or Unspecified,None or Unspecified,Standard,,,,,,,,,,,
9545,1789111,7750,1301248,132,6.0,1979,,,12/15/1997 0:00,732,732,,,,,Skid Steer Loader - 1251.0 to 1351.0 Lb Operating Capacity,Kentucky,SSL,Skid Steer Loaders,,OROPS,None or Unspecified,,,,,,,,,,Standard,,,,,,None or Unspecified,None or Unspecified,None or Unspecified,Standard,,,,,,,,,,,
9545,1789112,5250,1301248,132,16.0,1979,,,9/11/1997 0:00,732,732,,,,,Skid Steer Loader - 1251.0 to 1351.0 Lb Operating Capacity,Ohio,SSL,Skid Steer Loaders,,OROPS,None or Unspecified,,,,,,,,,,Standard,,,,,,None or Unspecified,None or Unspecified,None or Unspecified,Standard,,,,,,,,,,,
9545,1789132,5750,1293975,132,21.0,1979,,,4/30/1998 0:00,732,732,,,,,Skid Steer Loader - 1251.0 to 1351.0 Lb Operating Capacity,Maine,SSL,Skid Steer Loaders,,OROPS,None or Unspecified,,,,,,,,,,Standard,,,,,,None or Unspecified,None or Unspecified,None or Unspecified,Standard,,,,,,,,,,,
9545,1791739,6500,1092414,132,1.0,1979,,,7/15/1997 0:00,732,732,,,,,Skid Steer Loader - 1251.0 to 1351.0 Lb Operating Capacity,Minnesota,SSL,Skid Steer Loaders,,OROPS,None or Unspecified,,,,,,,,,,Standard,,,,,,None or Unspecified,None or Unspecified,None or Unspecified,Standard,,,,,,,,,,,
9545,1791743,5000,1194956,132,2.0,1979,,,4/26/1997 0:00,732,732,,,,,Skid Steer Loader - 1251.0 to 1351.0 Lb Operating Capacity,Ohio,SSL,Skid Steer Loaders,,OROPS,None or Unspecified,,,,,,,,,,Standard,,,,,,None or Unspecified,None or Unspecified,None or Unspecified,Standard,,,,,,,,,,,
9545,1791744,6000,1328029,132,18.0,1979,,,10/14/2000 0:00,732,732,,,,,Skid Steer Loader - 1251.0 to 1351.0 Lb Operating Capacity,Pennsylvania,SSL,Skid Steer Loaders,,OROPS,None or Unspecified,,,,,,,,,,Standard,,,,,,None or Unspecified,None or Unspecified,None or Unspecified,Standard,,,,,,,,,,,
9545,1791750,5500,1380228,132,14.0,1000,,,7/19/1995 0:00,732,732,,,,,Skid Steer Loader - 1251.0 to 1351.0 Lb Operating Capacity,Wisconsin,SSL,Skid Steer Loaders,,OROPS,None or Unspecified,,,,,,,,,,Standard,,,,,,None or Unspecified,None or Unspecified,None or Unspecified,Standard,,,,,,,,,,,
9545,1791758,7000,1451788,132,2.0,1980,,,3/25/1994 0:00,732,732,,,,,Skid Steer Loader - 1251.0 to 1351.0 Lb Operating Capacity,New Jersey,SSL,Skid Steer Loaders,,OROPS,None or Unspecified,,,,,,,,,,Standard,,,,,,None or Unspecified,None or Unspecified,None or Unspecified,Standard,,,,,,,,,,,
9545,1791865,6750,1519516,132,2.0,1979,,,4/20/1996 0:00,732,732,,,,,Skid Steer Loader - 1251.0 to 1351.0 Lb Operating Capacity,Ohio,SSL,Skid Steer Loaders,,OROPS,None or Unspecified,,,,,,,,,,Standard,,,,,,None or Unspecified,None or Unspecified,None or Unspecified,Standard,,,,,,,,,,,
9545,1794269,8500,1119158,132,1.0,1980,,,3/30/2005 0:00,732,732,,,,,Skid Steer Loader - 1251.0 to 1351.0 Lb Operating Capacity,Washington,SSL,Skid Steer Loaders,,OROPS,None or Unspecified,,,,,,,,,,Standard,,,,,,None or Unspecified,None or Unspecified,None or Unspecified,Standard,,,,,,,,,,,
