ModelID,SalesID,SalePrice,MachineID,datasource,auctioneerID,YearMade,MachineHoursCurrentMeter,UsageBand,saledate,fiModelDesc,fiBaseModel,fiSecondaryDesc,fiModelSeries,fiModelDescriptor,ProductSize,fiProductClassDesc,state,ProductGroup,ProductGroupDesc,Drive_System,Enclosure,Forks,Pad_Type,Ride_Control,Stick,Transmission,Turbocharged,Blade_Extension,Blade_Width,Enclosure_Type,Engine_Horsepower,Hydraulics,Pushblock,Ripper,Scarifier,Tip_Control,Tire_Size,Coupler,Coupler_System,Grouser_Tracks,Hydraulics_Flow,Track_Type,Undercarriage_Pad_Width,Stick_Length,Thumb,Pattern_Changer,Grouser_Type,Backhoe_Mounting,Blade_Type,Travel_Controls,Differential_Type,Steering_Controls
9546,1789410,5000,1240680,132,2.0,1985,,,6/27/2003 0:00,741,741,,,,,Skid Steer Loader - 1251.0 to 1351.0 Lb Operating Capacity,Wisconsin,SSL,Skid Steer Loaders,,OROPS,None or Unspecified,,,,,,,,,,Standard,,,,,,None or Unspecified,None or Unspecified,None or Unspecified,Standard,,,,,,,,,,,
9546,1789417,8000,1125588,132,23.0,1988,,,3/24/1994 0:00,741,741,,,,,Skid Steer Loader - 1251.0 to 1351.0 Lb Operating Capacity,Pennsylvania,SSL,Skid Steer Loaders,,OROPS,None or Unspecified,,,,,,,,,,Standard,,,,,,None or Unspecified,None or Unspecified,None or Unspecified,Standard,,,,,,,,,,,
9546,1789436,6000,1355556,132,99.0,1987,,,4/21/1999 0:00,741,741,,,,,Skid Steer Loader - 1251.0 to 1351.0 Lb Operating Capacity,Wyoming,SSL,Skid Steer Loaders,,OROPS,None or Unspecified,,,,,,,,,,Standard,,,,,,None or Unspecified,None or Unspecified,None or Unspecified,Standard,,,,,,,,,,,
9546,1789440,4750,1547196,132,22.0,1987,,,3/21/1998 0:00,741,741,,,,,Skid Steer Loader - 1251.0 to 1351.0 Lb Operating Capacity,Minnesota,SSL,Skid Steer Loaders,,OROPS,None or Unspecified,,,,,,,,,,Standard,,,,,,None or Unspecified,None or Unspecified,None or Unspecified,Standard,,,,,,,,,,,
9546,1792101,5500,1312758,132,1.0,1981,,,3/20/2002 0:00,741,741,,,,,Skid Steer Loader - 1251.0 to 1351.0 Lb Operating Capacity,Texas,SSL,Skid Steer Loaders,,OROPS,None or Unspecified,,,,,,,,,,Standard,,,,,,None or Unspecified,None or Unspecified,None or Unspecified,Standard,,,,,,,,,,,
9546,1792102,5500,1312758,132,1.0,1981,,,6/12/2002 0:00,741,741,,,,,Skid Steer Loader - 1251.0 to 1351.0 Lb Operating Capacity,Texas,SSL,Skid Steer Loaders,,OROPS,None or Unspecified,,,,,,,,,,Standard,,,,,,None or Unspecified,None or Unspecified,None or Unspecified,Standard,,,,,,,,,,,
9546,1792103,5000,1165529,132,1.0,1981,,,5/16/1995 0:00,741,741,,,,,Skid Steer Loader - 1251.0 to 1351.0 Lb Operating Capacity,California,SSL,Skid Steer Loaders,,OROPS,None or Unspecified,,,,,,,,,,Standard,,,,,,None or Unspecified,None or Unspecified,None or Unspecified,Standard,,,,,,,,,,,
9546,1792106,5000,1160697,132,1.0,1981,,,6/20/1997 0:00,741,741,,,,,Skid Steer Loader - 1251.0 to 1351.0 Lb Operating Capacity,Washington,SSL,Skid Steer Loaders,,OROPS,None or Unspecified,,,,,,,,,,Standard,,,,,,None or Unspecified,None or Unspecified,None or Unspecified,Standard,,,,,,,,,,,
9546,1792111,6000,1208924,132,1.0,1983,,,6/7/2007 0:00,741,741,,,,,Skid Steer Loader - 1251.0 to 1351.0 Lb Operating Capacity,Texas,SSL,Skid Steer Loaders,,OROPS,None or Unspecified,,,,,,,,,,Standard,,,,,,None or Unspecified,None or Unspecified,None or Unspecified,Standard,,,,,,,,,,,
9546,1792116,7500,1126889,132,1.0,1986,,,4/15/1998 0:00,741,741,,,,,Skid Steer Loader - 1251.0 to 1351.0 Lb Operating Capacity,Idaho,SSL,Skid Steer Loaders,,OROPS,None or Unspecified,,,,,,,,,,Standard,,,,,,None or Unspecified,None or Unspecified,None or Unspecified,Standard,,,,,,,,,,,
9546,1792121,7500,1533340,132,1.0,1989,,,4/15/1998 0:00,741,741,,,,,Skid Steer Loader - 1251.0 to 1351.0 Lb Operating Capacity,Idaho,SSL,Skid Steer Loaders,,OROPS,None or Unspecified,,,,,,,,,,Standard,,,,,,None or Unspecified,None or Unspecified,None or Unspecified,Standard,,,,,,,,,,,
9546,1792123,6500,1190624,132,2.0,1988,,,2/8/1995 0:00,741,741,,,,,Skid Steer Loader - 1251.0 to 1351.0 Lb Operating Capacity,Florida,SSL,Skid Steer Loaders,,OROPS,None or Unspecified,,,,,,,,,,Standard,,,,,,None or Unspecified,None or Unspecified,None or Unspecified,Standard,,,,,,,,,,,
9546,4370166,5000,2310291,172,1.0,1981,2973.0,Low,8/16/2011 0:00,741,741,,,,,Skid Steer Loader - 1251.0 to 1351.0 Lb Operating Capacity,Florida,SSL,Skid Steer Loaders,,OROPS,None or Unspecified,,,,,,,,,,Auxiliary,,,,,,None or Unspecified,None or Unspecified,None or Unspecified,Standard,,,,,,,,,,,
9546,6310201,5000,1322794,149,1.0,1981,,,8/17/2011 0:00,741,741,,,,,Skid Steer Loader - 1251.0 to 1351.0 Lb Operating Capacity,Florida,SSL,Skid Steer Loaders,,OROPS,None or Unspecified,,,,,,,,,,Standard,,,,,,None or Unspecified,None or Unspecified,None or Unspecified,Standard,,,,,,,,,,,
