ModelID,SalesID,SalePrice,MachineID,datasource,auctioneerID,YearMade,MachineHoursCurrentMeter,UsageBand,saledate,fiModelDesc,fiBaseModel,fiSecondaryDesc,fiModelSeries,fiModelDescriptor,ProductSize,fiProductClassDesc,state,ProductGroup,ProductGroupDesc,Drive_System,Enclosure,Forks,Pad_Type,Ride_Control,Stick,Transmission,Turbocharged,Blade_Extension,Blade_Width,Enclosure_Type,Engine_Horsepower,Hydraulics,Pushblock,Ripper,Scarifier,Tip_Control,Tire_Size,Coupler,Coupler_System,Grouser_Tracks,Hydraulics_Flow,Track_Type,Undercarriage_Pad_Width,Stick_Length,Thumb,Pattern_Changer,Grouser_Type,Backhoe_Mounting,Blade_Type,Travel_Controls,Differential_Type,Steering_Controls
955,1144876,25000,1047865,121,3.0,2004,862.0,Low,5/19/2011 0:00,550HLGP,550,H,,LGP,,"Track Type Tractor, Dozer - 20.0 to 75.0 Horsepower",Florida,TTT,Track Type Tractors,,OROPS,,,,,Standard,,,,,,2 Valve,,None or Unspecified,,,,,,,,,,,,,,None or Unspecified,PAT,None or Unspecified,,
955,1195803,37000,1013568,121,3.0,2006,76.0,Low,11/19/2009 0:00,550HLGP,550,H,,LGP,,"Track Type Tractor, Dozer - 20.0 to 75.0 Horsepower",North Carolina,TTT,Track Type Tractors,,OROPS,,,,,Powershift,,,,,,2 Valve,,None or Unspecified,,,,,,,,,,,,,,None or Unspecified,None or Unspecified,None or Unspecified,,
955,2209738,27000,1671787,136,1.0,2000,,,12/11/2007 0:00,550HLGP,550,H,,LGP,,"Track Type Tractor, Dozer - 20.0 to 75.0 Horsepower",Minnesota,TTT,Track Type Tractors,,OROPS,,,,,Standard,,,,,,2 Valve,,None or Unspecified,,,,,,,,,,,,,,None or Unspecified,PAT,None or Unspecified,,
955,2209743,26000,1728177,136,,2001,,,9/26/2007 0:00,550HLGP,550,H,,LGP,,"Track Type Tractor, Dozer - 20.0 to 75.0 Horsepower",Texas,TTT,Track Type Tractors,,OROPS,,,,,Powershift,,,,,,2 Valve,,None or Unspecified,,,,,,,,,,,,,,None or Unspecified,PAT,None or Unspecified,,
955,2209748,23000,1261733,136,7.0,2002,,,4/24/2008 0:00,550HLGP,550,H,,LGP,,"Track Type Tractor, Dozer - 20.0 to 75.0 Horsepower",South Carolina,TTT,Track Type Tractors,,OROPS,,,,,Standard,,,,,,2 Valve,,None or Unspecified,,,,,,,,,,,,,,None or Unspecified,PAT,None or Unspecified,,
955,2491817,28500,1754650,149,2.0,2006,266.0,Low,9/22/2010 0:00,550HLGP,550,H,,LGP,,"Track Type Tractor, Dozer - 20.0 to 75.0 Horsepower",Illinois,TTT,Track Type Tractors,,OROPS,,,,,Standard,,,,,,2 Valve,,None or Unspecified,,,,,,,,,,,,,,None or Unspecified,PAT,None or Unspecified,,
955,2500627,20000,1888101,149,1.0,2000,3202.0,Low,3/31/2011 0:00,550HLGP,550,H,,LGP,,"Track Type Tractor, Dozer - 20.0 to 75.0 Horsepower",Georgia,TTT,Track Type Tractors,,OROPS,,,,,Standard,,,,,,2 Valve,,Multi Shank,,,,,,,,,,,,,,None or Unspecified,PAT,None or Unspecified,,
