ModelID,SalesID,SalePrice,MachineID,datasource,auctioneerID,YearMade,MachineHoursCurrentMeter,UsageBand,saledate,fiModelDesc,fiBaseModel,fiSecondaryDesc,fiModelSeries,fiModelDescriptor,ProductSize,fiProductClassDesc,state,ProductGroup,ProductGroupDesc,Drive_System,Enclosure,Forks,Pad_Type,Ride_Control,Stick,Transmission,Turbocharged,Blade_Extension,Blade_Width,Enclosure_Type,Engine_Horsepower,Hydraulics,Pushblock,Ripper,Scarifier,Tip_Control,Tire_Size,Coupler,Coupler_System,Grouser_Tracks,Hydraulics_Flow,Track_Type,Undercarriage_Pad_Width,Stick_Length,Thumb,Pattern_Changer,Grouser_Type,Backhoe_Mounting,Blade_Type,Travel_Controls,Differential_Type,Steering_Controls
9555,1158474,5750,1016359,121,3.0,1000,5199.0,Low,3/19/2009 0:00,7753,7753,,,,,Skid Steer Loader - 1601.0 to 1751.0 Lb Operating Capacity,Missouri,SSL,Skid Steer Loaders,,OROPS,None or Unspecified,,,,,,,,,,Auxiliary,,,,,,None or Unspecified,None or Unspecified,None or Unspecified,Standard,,,,,,,,,,,
9555,1789133,6800,1402626,132,4.0,1992,,,2/9/2004 0:00,7753,7753,,,,,Skid Steer Loader - 1601.0 to 1751.0 Lb Operating Capacity,Florida,SSL,Skid Steer Loaders,,OROPS,None or Unspecified,,,,,,,,,,Standard,,,,,,None or Unspecified,None or Unspecified,None or Unspecified,Standard,,,,,,,,,,,
9555,1789181,11500,1220270,132,6.0,1993,1300.0,Medium,2/11/1998 0:00,7753,7753,,,,,Skid Steer Loader - 1601.0 to 1751.0 Lb Operating Capacity,Florida,SSL,Skid Steer Loaders,,OROPS,None or Unspecified,,,,,,,,,,Standard,,,,,,None or Unspecified,None or Unspecified,None or Unspecified,Standard,,,,,,,,,,,
9555,1789233,6250,1137567,132,2.0,1000,,,3/19/2004 0:00,7753,7753,,,,,Skid Steer Loader - 1601.0 to 1751.0 Lb Operating Capacity,Alabama,SSL,Skid Steer Loaders,,OROPS,None or Unspecified,,,,,,,,,,Standard,,,,,,None or Unspecified,None or Unspecified,None or Unspecified,Standard,,,,,,,,,,,
9555,1791056,12250,1148069,132,4.0,1995,,,2/6/1997 0:00,7753,7753,,,,,Skid Steer Loader - 1601.0 to 1751.0 Lb Operating Capacity,Florida,SSL,Skid Steer Loaders,,OROPS,None or Unspecified,,,,,,,,,,Standard,,,,,,None or Unspecified,None or Unspecified,None or Unspecified,Standard,,,,,,,,,,,
9555,1791063,9250,1406670,132,10.0,1000,,,8/12/1999 0:00,7753,7753,,,,,Skid Steer Loader - 1601.0 to 1751.0 Lb Operating Capacity,Louisiana,SSL,Skid Steer Loaders,,OROPS,None or Unspecified,,,,,,,,,,Standard,,,,,,None or Unspecified,None or Unspecified,None or Unspecified,Standard,,,,,,,,,,,
9555,1794899,11500,1193928,132,1.0,1994,,,3/26/1998 0:00,7753,7753,,,,,Skid Steer Loader - 1601.0 to 1751.0 Lb Operating Capacity,Texas,SSL,Skid Steer Loaders,,OROPS,None or Unspecified,,,,,,,,,,Standard,,,,,,None or Unspecified,None or Unspecified,None or Unspecified,Standard,,,,,,,,,,,
9555,1796645,11000,1334377,132,6.0,1994,,,4/15/1997 0:00,7753,7753,,,,,Skid Steer Loader - 1601.0 to 1751.0 Lb Operating Capacity,Kentucky,SSL,Skid Steer Loaders,,OROPS,None or Unspecified,,,,,,,,,,Standard,,,,,,None or Unspecified,None or Unspecified,None or Unspecified,Standard,,,,,,,,,,,
9555,1796646,6250,1255564,132,12.0,1991,,,9/22/2010 0:00,7753,7753,,,,,Skid Steer Loader - 1601.0 to 1751.0 Lb Operating Capacity,South Carolina,SSL,Skid Steer Loaders,,OROPS,None or Unspecified,,,,,,,,,,Standard,,,,,,None or Unspecified,None or Unspecified,None or Unspecified,Standard,,,,,,,,,,,
9555,1796647,7000,1405886,132,2.0,1000,,,12/28/2000 0:00,7753,7753,,,,,Skid Steer Loader - 1601.0 to 1751.0 Lb Operating Capacity,New York,SSL,Skid Steer Loaders,,OROPS,None or Unspecified,,,,,,,,,,Standard,,,,,,None or Unspecified,None or Unspecified,None or Unspecified,Standard,,,,,,,,,,,
9555,1796648,11000,1535339,132,4.0,1000,,,2/6/1997 0:00,7753,7753,,,,,Skid Steer Loader - 1601.0 to 1751.0 Lb Operating Capacity,Florida,SSL,Skid Steer Loaders,,OROPS,None or Unspecified,,,,,,,,,,Standard,,,,,,None or Unspecified,None or Unspecified,None or Unspecified,Standard,,,,,,,,,,,
9555,1796651,10000,1327430,132,1.0,1991,,,6/24/1999 0:00,7753,7753,,,,,Skid Steer Loader - 1601.0 to 1751.0 Lb Operating Capacity,Colorado,SSL,Skid Steer Loaders,,OROPS,None or Unspecified,,,,,,,,,,Standard,,,,,,None or Unspecified,None or Unspecified,None or Unspecified,Standard,,,,,,,,,,,
9555,1796652,13000,1452973,132,21.0,1000,,,7/29/1995 0:00,7753,7753,,,,,Skid Steer Loader - 1601.0 to 1751.0 Lb Operating Capacity,Maine,SSL,Skid Steer Loaders,,OROPS,None or Unspecified,,,,,,,,,,Standard,,,,,,None or Unspecified,None or Unspecified,None or Unspecified,Standard,,,,,,,,,,,
9555,1796653,10500,1452973,132,6.0,1000,,,12/15/1997 0:00,7753,7753,,,,,Skid Steer Loader - 1601.0 to 1751.0 Lb Operating Capacity,Kentucky,SSL,Skid Steer Loaders,,OROPS,None or Unspecified,,,,,,,,,,Standard,,,,,,None or Unspecified,None or Unspecified,None or Unspecified,Standard,,,,,,,,,,,
9555,1796655,8500,1398718,132,12.0,1000,,,3/21/2000 0:00,7753,7753,,,,,Skid Steer Loader - 1601.0 to 1751.0 Lb Operating Capacity,South Carolina,SSL,Skid Steer Loaders,,OROPS,None or Unspecified,,,,,,,,,,Standard,,,,,,None or Unspecified,None or Unspecified,None or Unspecified,Standard,,,,,,,,,,,
9555,1796656,12750,1217478,132,2.0,1000,,,6/15/1996 0:00,7753,7753,,,,,Skid Steer Loader - 1601.0 to 1751.0 Lb Operating Capacity,New Jersey,SSL,Skid Steer Loaders,,OROPS,None or Unspecified,,,,,,,,,,Standard,,,,,,None or Unspecified,None or Unspecified,None or Unspecified,Standard,,,,,,,,,,,
9555,1796657,7500,1296597,132,1.0,1991,,,6/22/2001 0:00,7753,7753,,,,,Skid Steer Loader - 1601.0 to 1751.0 Lb Operating Capacity,Illinois,SSL,Skid Steer Loaders,,OROPS,None or Unspecified,,,,,,,,,,Standard,,,,,,None or Unspecified,None or Unspecified,None or Unspecified,Standard,,,,,,,,,,,
9555,1796658,6000,1390261,132,2.0,1992,,,2/23/2002 0:00,7753,7753,,,,,Skid Steer Loader - 1601.0 to 1751.0 Lb Operating Capacity,Georgia,SSL,Skid Steer Loaders,,OROPS,None or Unspecified,,,,,,,,,,Standard,,,,,,None or Unspecified,None or Unspecified,None or Unspecified,Standard,,,,,,,,,,,
9555,1796659,5900,1284918,132,8.0,1000,,,11/17/2004 0:00,7753,7753,,,,,Skid Steer Loader - 1601.0 to 1751.0 Lb Operating Capacity,Mississippi,SSL,Skid Steer Loaders,,OROPS,None or Unspecified,,,,,,,,,,Standard,,,,,,None or Unspecified,None or Unspecified,None or Unspecified,Standard,,,,,,,,,,,
9555,1796662,8250,1372179,132,1.0,1000,,,3/31/2006 0:00,7753,7753,,,,,Skid Steer Loader - 1601.0 to 1751.0 Lb Operating Capacity,North Carolina,SSL,Skid Steer Loaders,,OROPS,None or Unspecified,,,,,,,,,,Standard,,,,,,None or Unspecified,None or Unspecified,None or Unspecified,Standard,,,,,,,,,,,
9555,1796663,11000,1281519,132,4.0,1994,,,2/4/1999 0:00,7753,7753,,,,,Skid Steer Loader - 1601.0 to 1751.0 Lb Operating Capacity,Florida,SSL,Skid Steer Loaders,,OROPS,None or Unspecified,,,,,,,,,,Standard,,,,,,None or Unspecified,None or Unspecified,None or Unspecified,Standard,,,,,,,,,,,
9555,1796664,6750,1464190,132,8.0,1000,,,11/16/2005 0:00,7753,7753,,,,,Skid Steer Loader - 1601.0 to 1751.0 Lb Operating Capacity,Mississippi,SSL,Skid Steer Loaders,,OROPS,None or Unspecified,,,,,,,,,,Standard,,,,,,None or Unspecified,None or Unspecified,None or Unspecified,Standard,,,,,,,,,,,
9555,1796665,5000,1464190,132,10.0,1992,,,12/13/2005 0:00,7753,7753,,,,,Skid Steer Loader - 1601.0 to 1751.0 Lb Operating Capacity,Louisiana,SSL,Skid Steer Loaders,,OROPS,None or Unspecified,,,,,,,,,,Standard,,,,,,None or Unspecified,None or Unspecified,None or Unspecified,Standard,,,,,,,,,,,
9555,1796666,11500,1485828,132,1.0,1992,,,3/17/2005 0:00,7753,7753,,,,,Skid Steer Loader - 1601.0 to 1751.0 Lb Operating Capacity,Colorado,SSL,Skid Steer Loaders,,OROPS,None or Unspecified,,,,,,,,,,Standard,,,,,,None or Unspecified,None or Unspecified,None or Unspecified,Standard,,,,,,,,,,,
9555,1796667,8000,1391070,132,9.0,1992,,,11/21/2002 0:00,7753,7753,,,,,Skid Steer Loader - 1601.0 to 1751.0 Lb Operating Capacity,South Carolina,SSL,Skid Steer Loaders,,OROPS,None or Unspecified,,,,,,,,,,Standard,,,,,,None or Unspecified,None or Unspecified,None or Unspecified,Standard,,,,,,,,,,,
9555,1796669,8500,1467830,132,16.0,1000,,,5/17/2000 0:00,7753,7753,,,,,Skid Steer Loader - 1601.0 to 1751.0 Lb Operating Capacity,Ohio,SSL,Skid Steer Loaders,,OROPS,None or Unspecified,,,,,,,,,,Standard,,,,,,None or Unspecified,None or Unspecified,None or Unspecified,Standard,,,,,,,,,,,
9555,1796670,7500,1541115,132,1.0,1000,,,3/1/2006 0:00,7753,7753,,,,,Skid Steer Loader - 1601.0 to 1751.0 Lb Operating Capacity,Texas,SSL,Skid Steer Loaders,,OROPS,None or Unspecified,,,,,,,,,,Standard,,,,,,None or Unspecified,None or Unspecified,None or Unspecified,Standard,,,,,,,,,,,
9555,1796671,11250,1394881,132,2.0,1994,,,11/21/1998 0:00,7753,7753,,,,,Skid Steer Loader - 1601.0 to 1751.0 Lb Operating Capacity,Ohio,SSL,Skid Steer Loaders,,OROPS,None or Unspecified,,,,,,,,,,Standard,,,,,,None or Unspecified,None or Unspecified,None or Unspecified,Standard,,,,,,,,,,,
9555,1796672,12250,1394881,132,2.0,1994,,,9/19/1998 0:00,7753,7753,,,,,Skid Steer Loader - 1601.0 to 1751.0 Lb Operating Capacity,Ohio,SSL,Skid Steer Loaders,,OROPS,None or Unspecified,,,,,,,,,,Standard,,,,,,None or Unspecified,None or Unspecified,None or Unspecified,Standard,,,,,,,,,,,
9555,1796673,11750,1406795,132,2.0,1000,,,12/11/1999 0:00,7753,7753,,,,,Skid Steer Loader - 1601.0 to 1751.0 Lb Operating Capacity,Pennsylvania,SSL,Skid Steer Loaders,,OROPS,None or Unspecified,,,,,,,,,,Standard,,,,,,None or Unspecified,None or Unspecified,None or Unspecified,Standard,,,,,,,,,,,
9555,1796675,11500,1144928,132,21.0,1992,,,5/30/1996 0:00,7753,7753,,,,,Skid Steer Loader - 1601.0 to 1751.0 Lb Operating Capacity,Maine,SSL,Skid Steer Loaders,,OROPS,None or Unspecified,,,,,,,,,,Standard,,,,,,None or Unspecified,None or Unspecified,None or Unspecified,Standard,,,,,,,,,,,
9555,1796677,7000,1552439,132,8.0,1000,,,11/15/2001 0:00,7753,7753,,,,,Skid Steer Loader - 1601.0 to 1751.0 Lb Operating Capacity,Mississippi,SSL,Skid Steer Loaders,,OROPS,None or Unspecified,,,,,,,,,,Standard,,,,,,None or Unspecified,None or Unspecified,None or Unspecified,Standard,,,,,,,,,,,
9555,1796679,7500,1554647,132,1.0,1000,,,3/6/2006 0:00,7753,7753,,,,,Skid Steer Loader - 1601.0 to 1751.0 Lb Operating Capacity,Kansas,SSL,Skid Steer Loaders,,OROPS,None or Unspecified,,,,,,,,,,Standard,,,,,,None or Unspecified,None or Unspecified,None or Unspecified,Standard,,,,,,,,,,,
9555,1796682,9500,1279469,132,1.0,1992,,,3/16/2007 0:00,7753,7753,,,,,Skid Steer Loader - 1601.0 to 1751.0 Lb Operating Capacity,Minnesota,SSL,Skid Steer Loaders,,OROPS,None or Unspecified,,,,,,,,,,Standard,,,,,,None or Unspecified,None or Unspecified,None or Unspecified,Standard,,,,,,,,,,,
9555,1796686,7500,1194093,132,2.0,1000,,,2/8/2001 0:00,7753,7753,,,,,Skid Steer Loader - 1601.0 to 1751.0 Lb Operating Capacity,Florida,SSL,Skid Steer Loaders,,OROPS,None or Unspecified,,,,,,,,,,Standard,,,,,,None or Unspecified,None or Unspecified,None or Unspecified,Standard,,,,,,,,,,,
9555,1796687,13500,1194093,132,4.0,1000,,,2/6/1997 0:00,7753,7753,,,,,Skid Steer Loader - 1601.0 to 1751.0 Lb Operating Capacity,Florida,SSL,Skid Steer Loaders,,OROPS,None or Unspecified,,,,,,,,,,Standard,,,,,,None or Unspecified,None or Unspecified,None or Unspecified,Standard,,,,,,,,,,,
9555,1796688,8000,1263367,132,9.0,1992,,,2/17/2003 0:00,7753,7753,,,,,Skid Steer Loader - 1601.0 to 1751.0 Lb Operating Capacity,Florida,SSL,Skid Steer Loaders,,OROPS,None or Unspecified,,,,,,,,,,Standard,,,,,,None or Unspecified,None or Unspecified,None or Unspecified,Standard,,,,,,,,,,,
9555,1796689,8000,1162116,132,2.0,1992,,,12/28/2001 0:00,7753,7753,,,,,Skid Steer Loader - 1601.0 to 1751.0 Lb Operating Capacity,New York,SSL,Skid Steer Loaders,,OROPS,None or Unspecified,,,,,,,,,,Standard,,,,,,None or Unspecified,None or Unspecified,None or Unspecified,Standard,,,,,,,,,,,
9555,1796690,6750,1162116,132,2.0,1992,,,7/27/2002 0:00,7753,7753,,,,,Skid Steer Loader - 1601.0 to 1751.0 Lb Operating Capacity,Ohio,SSL,Skid Steer Loaders,,OROPS,None or Unspecified,,,,,,,,,,Standard,,,,,,None or Unspecified,None or Unspecified,None or Unspecified,Standard,,,,,,,,,,,
9555,1796691,9500,1521055,132,1.0,1000,,,5/4/2000 0:00,7753,7753,,,,,Skid Steer Loader - 1601.0 to 1751.0 Lb Operating Capacity,Iowa,SSL,Skid Steer Loaders,,OROPS,None or Unspecified,,,,,,,,,,Standard,,,,,,None or Unspecified,None or Unspecified,None or Unspecified,Standard,,,,,,,,,,,
9555,1796693,11250,1222238,132,2.0,1000,,,12/14/1996 0:00,7753,7753,,,,,Skid Steer Loader - 1601.0 to 1751.0 Lb Operating Capacity,Illinois,SSL,Skid Steer Loaders,,OROPS,None or Unspecified,,,,,,,,,,Standard,,,,,,None or Unspecified,None or Unspecified,None or Unspecified,Standard,,,,,,,,,,,
9555,1796694,9750,1222238,132,2.0,1000,,,11/16/1996 0:00,7753,7753,,,,,Skid Steer Loader - 1601.0 to 1751.0 Lb Operating Capacity,Ohio,SSL,Skid Steer Loaders,,OROPS,None or Unspecified,,,,,,,,,,Standard,,,,,,None or Unspecified,None or Unspecified,None or Unspecified,Standard,,,,,,,,,,,
9555,1796696,12000,1157317,132,1.0,1993,,,5/25/1995 0:00,7753,7753,,,,,Skid Steer Loader - 1601.0 to 1751.0 Lb Operating Capacity,Arizona,SSL,Skid Steer Loaders,,OROPS,None or Unspecified,,,,,,,,,,Standard,,,,,,None or Unspecified,None or Unspecified,None or Unspecified,Standard,,,,,,,,,,,
9555,1796698,11500,1085961,132,2.0,1997,730.0,Medium,2/7/2000 0:00,7753,7753,,,,,Skid Steer Loader - 1601.0 to 1751.0 Lb Operating Capacity,Florida,SSL,Skid Steer Loaders,,OROPS,None or Unspecified,,,,,,,,,,Standard,,,,,,None or Unspecified,None or Unspecified,None or Unspecified,Standard,,,,,,,,,,,
9555,1796699,8750,1345181,132,4.0,1993,,,2/5/1998 0:00,7753,7753,,,,,Skid Steer Loader - 1601.0 to 1751.0 Lb Operating Capacity,Florida,SSL,Skid Steer Loaders,,OROPS,None or Unspecified,,,,,,,,,,Standard,,,,,,None or Unspecified,None or Unspecified,None or Unspecified,Standard,,,,,,,,,,,
9555,1796701,8000,1550312,132,1.0,1993,,,4/5/2007 0:00,7753,7753,,,,,Skid Steer Loader - 1601.0 to 1751.0 Lb Operating Capacity,Colorado,SSL,Skid Steer Loaders,,OROPS,None or Unspecified,,,,,,,,,,Auxiliary,,,,,,None or Unspecified,None or Unspecified,None or Unspecified,Standard,,,,,,,,,,,
9555,1796705,6500,1453587,132,21.0,1993,,,9/27/2001 0:00,7753,7753,,,,,Skid Steer Loader - 1601.0 to 1751.0 Lb Operating Capacity,Maine,SSL,Skid Steer Loaders,,OROPS,None or Unspecified,,,,,,,,,,Standard,,,,,,None or Unspecified,None or Unspecified,None or Unspecified,Standard,,,,,,,,,,,
9555,1796706,9500,1178693,132,9.0,1993,2013.0,High,10/23/1997 0:00,7753,7753,,,,,Skid Steer Loader - 1601.0 to 1751.0 Lb Operating Capacity,South Carolina,SSL,Skid Steer Loaders,,OROPS,None or Unspecified,,,,,,,,,,Standard,,,,,,None or Unspecified,None or Unspecified,None or Unspecified,Standard,,,,,,,,,,,
9555,1796709,7850,1396900,132,2.0,1993,,,6/1/2003 0:00,7753,7753,,,,,Skid Steer Loader - 1601.0 to 1751.0 Lb Operating Capacity,Maine,SSL,Skid Steer Loaders,,OROPS,None or Unspecified,,,,,,,,,,Standard,,,,,,None or Unspecified,None or Unspecified,None or Unspecified,Standard,,,,,,,,,,,
9555,1796712,5500,1538292,132,1.0,1993,,,2/24/2004 0:00,7753,7753,,,,,Skid Steer Loader - 1601.0 to 1751.0 Lb Operating Capacity,Texas,SSL,Skid Steer Loaders,,OROPS,None or Unspecified,,,,,,,,,,Standard,,,,,,None or Unspecified,None or Unspecified,None or Unspecified,Standard,,,,,,,,,,,
9555,1796716,7000,1477347,132,8.0,1993,,,11/14/2007 0:00,7753,7753,,,,,Skid Steer Loader - 1601.0 to 1751.0 Lb Operating Capacity,Mississippi,SSL,Skid Steer Loaders,,OROPS,None or Unspecified,,,,,,,,,,Standard,,,,,,None or Unspecified,None or Unspecified,None or Unspecified,Standard,,,,,,,,,,,
9555,1796717,7500,1384378,132,1.0,1993,,,6/22/2001 0:00,7753,7753,,,,,Skid Steer Loader - 1601.0 to 1751.0 Lb Operating Capacity,Illinois,SSL,Skid Steer Loaders,,OROPS,None or Unspecified,,,,,,,,,,Standard,,,,,,None or Unspecified,None or Unspecified,None or Unspecified,Standard,,,,,,,,,,,
9555,1796718,7200,1222695,132,5.0,1000,,,9/9/2000 0:00,7753,7753,,,,,Skid Steer Loader - 1601.0 to 1751.0 Lb Operating Capacity,New York,SSL,Skid Steer Loaders,,OROPS,None or Unspecified,,,,,,,,,,Standard,,,,,,None or Unspecified,None or Unspecified,None or Unspecified,Standard,,,,,,,,,,,
9555,1796719,11500,1218054,132,1.0,1994,,,4/1/1999 0:00,7753,7753,,,,,Skid Steer Loader - 1601.0 to 1751.0 Lb Operating Capacity,Colorado,SSL,Skid Steer Loaders,,OROPS,None or Unspecified,,,,,,,,,,Standard,,,,,,None or Unspecified,None or Unspecified,None or Unspecified,Standard,,,,,,,,,,,
9555,1796720,12500,1445844,132,1.0,1993,,,5/27/1999 0:00,7753,7753,,,,,Skid Steer Loader - 1601.0 to 1751.0 Lb Operating Capacity,Arizona,SSL,Skid Steer Loaders,,OROPS,None or Unspecified,,,,,,,,,,Standard,,,,,,None or Unspecified,None or Unspecified,None or Unspecified,Standard,,,,,,,,,,,
9555,1796721,11000,1343329,132,1.0,1993,,,12/2/1998 0:00,7753,7753,,,,,Skid Steer Loader - 1601.0 to 1751.0 Lb Operating Capacity,Texas,SSL,Skid Steer Loaders,,OROPS,None or Unspecified,,,,,,,,,,Standard,,,,,,None or Unspecified,None or Unspecified,None or Unspecified,Standard,,,,,,,,,,,
9555,1796722,13000,1179644,132,2.0,1994,,,2/4/1998 0:00,7753,7753,,,,,Skid Steer Loader - 1601.0 to 1751.0 Lb Operating Capacity,Florida,SSL,Skid Steer Loaders,,OROPS,None or Unspecified,,,,,,,,,,Standard,,,,,,None or Unspecified,None or Unspecified,None or Unspecified,Standard,,,,,,,,,,,
9555,1796723,7000,1297021,132,1.0,1000,,,3/10/2005 0:00,7753,7753,,,,,Skid Steer Loader - 1601.0 to 1751.0 Lb Operating Capacity,California,SSL,Skid Steer Loaders,,OROPS,None or Unspecified,,,,,,,,,,Standard,,,,,,None or Unspecified,None or Unspecified,None or Unspecified,Standard,,,,,,,,,,,
9555,1796724,14250,1550087,132,99.0,1000,,,6/1/1996 0:00,7753,7753,,,,,Skid Steer Loader - 1601.0 to 1751.0 Lb Operating Capacity,Illinois,SSL,Skid Steer Loaders,,OROPS,None or Unspecified,,,,,,,,,,Standard,,,,,,None or Unspecified,None or Unspecified,None or Unspecified,Standard,,,,,,,,,,,
9555,1796725,14250,1550087,132,99.0,1994,,,11/23/1996 0:00,7753,7753,,,,,Skid Steer Loader - 1601.0 to 1751.0 Lb Operating Capacity,Illinois,SSL,Skid Steer Loaders,,OROPS,None or Unspecified,,,,,,,,,,Standard,,,,,,None or Unspecified,None or Unspecified,None or Unspecified,Standard,,,,,,,,,,,
9555,1796726,6500,1434731,132,1.0,1993,,,6/19/2008 0:00,7753,7753,,,,,Skid Steer Loader - 1601.0 to 1751.0 Lb Operating Capacity,Illinois,SSL,Skid Steer Loaders,,OROPS,None or Unspecified,,,,,,,,,,Standard,,,,,,None or Unspecified,None or Unspecified,None or Unspecified,Standard,,,,,,,,,,,
9555,1796727,6500,1496310,132,7.0,1994,,,4/16/2003 0:00,7753,7753,,,,,Skid Steer Loader - 1601.0 to 1751.0 Lb Operating Capacity,South Carolina,SSL,Skid Steer Loaders,,OROPS,None or Unspecified,,,,,,,,,,Standard,,,,,,None or Unspecified,None or Unspecified,None or Unspecified,Standard,,,,,,,,,,,
9555,1796728,11500,1125199,132,1.0,1994,,,4/1/1999 0:00,7753,7753,,,,,Skid Steer Loader - 1601.0 to 1751.0 Lb Operating Capacity,Colorado,SSL,Skid Steer Loaders,,OROPS,None or Unspecified,,,,,,,,,,Standard,,,,,,None or Unspecified,None or Unspecified,None or Unspecified,Standard,,,,,,,,,,,
9555,1796729,6200,1250454,132,13.0,1993,,,2/4/2006 0:00,7753,7753,,,,,Skid Steer Loader - 1601.0 to 1751.0 Lb Operating Capacity,Georgia,SSL,Skid Steer Loaders,,OROPS,None or Unspecified,,,,,,,,,,Standard,,,,,,None or Unspecified,None or Unspecified,None or Unspecified,Standard,,,,,,,,,,,
9555,1796733,7500,1513821,132,2.0,1000,,,3/10/2001 0:00,7753,7753,,,,,Skid Steer Loader - 1601.0 to 1751.0 Lb Operating Capacity,Pennsylvania,SSL,Skid Steer Loaders,,OROPS,None or Unspecified,,,,,,,,,,Standard,,,,,,None or Unspecified,None or Unspecified,None or Unspecified,Standard,,,,,,,,,,,
9555,1796734,9500,1457401,132,1.0,1993,,,3/29/1999 0:00,7753,7753,,,,,Skid Steer Loader - 1601.0 to 1751.0 Lb Operating Capacity,Nevada,SSL,Skid Steer Loaders,,OROPS,None or Unspecified,,,,,,,,,,Standard,,,,,,None or Unspecified,None or Unspecified,None or Unspecified,Standard,,,,,,,,,,,
9555,1796735,5500,1322276,132,1.0,1994,,,6/22/2004 0:00,7753,7753,,,,,Skid Steer Loader - 1601.0 to 1751.0 Lb Operating Capacity,Maryland,SSL,Skid Steer Loaders,,OROPS,None or Unspecified,,,,,,,,,,Standard,,,,,,None or Unspecified,None or Unspecified,None or Unspecified,Standard,,,,,,,,,,,
9555,1796736,10000,1377749,132,1.0,1993,,,3/22/2000 0:00,7753,7753,,,,,Skid Steer Loader - 1601.0 to 1751.0 Lb Operating Capacity,Washington,SSL,Skid Steer Loaders,,OROPS,None or Unspecified,,,,,,,,,,Standard,,,,,,None or Unspecified,None or Unspecified,None or Unspecified,Standard,,,,,,,,,,,
9555,1796738,8500,1420156,132,2.0,1000,,,1/19/2002 0:00,7753,7753,,,,,Skid Steer Loader - 1601.0 to 1751.0 Lb Operating Capacity,Ohio,SSL,Skid Steer Loaders,,OROPS,None or Unspecified,,,,,,,,,,Standard,,,,,,None or Unspecified,None or Unspecified,None or Unspecified,Standard,,,,,,,,,,,
9555,1796739,9000,1420156,132,2.0,1994,,,9/5/2002 0:00,7753,7753,,,,,Skid Steer Loader - 1601.0 to 1751.0 Lb Operating Capacity,New Hampshire,SSL,Skid Steer Loaders,,OROPS,None or Unspecified,,,,,,,,,,Standard,,,,,,None or Unspecified,None or Unspecified,None or Unspecified,Standard,,,,,,,,,,,
9555,1796740,5750,1405752,132,10.0,1993,,,10/21/2008 0:00,7753,7753,,,,,Skid Steer Loader - 1601.0 to 1751.0 Lb Operating Capacity,Louisiana,SSL,Skid Steer Loaders,,OROPS,None or Unspecified,,,,,,,,,,Standard,,,,,,None or Unspecified,None or Unspecified,None or Unspecified,Standard,,,,,,,,,,,
9555,1796742,6500,1410404,132,1.0,1993,,,10/4/2001 0:00,7753,7753,,,,,Skid Steer Loader - 1601.0 to 1751.0 Lb Operating Capacity,Colorado,SSL,Skid Steer Loaders,,OROPS,None or Unspecified,,,,,,,,,,Standard,,,,,,None or Unspecified,None or Unspecified,None or Unspecified,Standard,,,,,,,,,,,
9555,1796743,8500,1514295,132,1.0,1994,,,5/19/2004 0:00,7753,7753,,,,,Skid Steer Loader - 1601.0 to 1751.0 Lb Operating Capacity,Missouri,SSL,Skid Steer Loaders,,OROPS,None or Unspecified,,,,,,,,,,Standard,,,,,,None or Unspecified,None or Unspecified,None or Unspecified,Standard,,,,,,,,,,,
9555,1796745,6500,1471874,132,11.0,1993,,,10/12/2000 0:00,7753,7753,,,,,Skid Steer Loader - 1601.0 to 1751.0 Lb Operating Capacity,Mississippi,SSL,Skid Steer Loaders,,OROPS,None or Unspecified,,,,,,,,,,Standard,,,,,,None or Unspecified,None or Unspecified,None or Unspecified,Standard,,,,,,,,,,,
9555,1796756,8500,1397417,132,2.0,1994,,,11/1/2003 0:00,7753,7753,,,,,Skid Steer Loader - 1601.0 to 1751.0 Lb Operating Capacity,Georgia,SSL,Skid Steer Loaders,,OROPS,None or Unspecified,,,,,,,,,,Standard,,,,,,None or Unspecified,None or Unspecified,None or Unspecified,Standard,,,,,,,,,,,
9555,1796757,8100,1397417,132,2.0,1000,,,12/11/2003 0:00,7753,7753,,,,,Skid Steer Loader - 1601.0 to 1751.0 Lb Operating Capacity,Alabama,SSL,Skid Steer Loaders,,OROPS,None or Unspecified,,,,,,,,,,Standard,,,,,,None or Unspecified,None or Unspecified,None or Unspecified,Standard,,,,,,,,,,,
9555,1796759,9000,1221505,132,1.0,1000,,,4/20/1999 0:00,7753,7753,,,,,Skid Steer Loader - 1601.0 to 1751.0 Lb Operating Capacity,Utah,SSL,Skid Steer Loaders,,OROPS,None or Unspecified,,,,,,,,,,Standard,,,,,,None or Unspecified,None or Unspecified,None or Unspecified,Standard,,,,,,,,,,,
9555,1796760,10000,1480339,132,1.0,1994,,,4/4/2002 0:00,7753,7753,,,,,Skid Steer Loader - 1601.0 to 1751.0 Lb Operating Capacity,Colorado,SSL,Skid Steer Loaders,,OROPS,None or Unspecified,,,,,,,,,,Standard,,,,,,None or Unspecified,None or Unspecified,None or Unspecified,Standard,,,,,,,,,,,
9555,1796761,6500,1480339,132,1.0,1994,,,11/29/2005 0:00,7753,7753,,,,,Skid Steer Loader - 1601.0 to 1751.0 Lb Operating Capacity,Colorado,SSL,Skid Steer Loaders,,OROPS,None or Unspecified,,,,,,,,,,Standard,,,,,,None or Unspecified,None or Unspecified,None or Unspecified,Standard,,,,,,,,,,,
9555,1796762,7750,1431717,132,2.0,1000,,,12/28/2000 0:00,7753,7753,,,,,Skid Steer Loader - 1601.0 to 1751.0 Lb Operating Capacity,New York,SSL,Skid Steer Loaders,,OROPS,None or Unspecified,,,,,,,,,,Standard,,,,,,None or Unspecified,None or Unspecified,None or Unspecified,Standard,,,,,,,,,,,
9555,1796765,13500,1487888,132,1.0,1993,,,11/21/1996 0:00,7753,7753,,,,,Skid Steer Loader - 1601.0 to 1751.0 Lb Operating Capacity,Texas,SSL,Skid Steer Loaders,,OROPS,None or Unspecified,,,,,,,,,,Standard,,,,,,None or Unspecified,None or Unspecified,None or Unspecified,Standard,,,,,,,,,,,
9555,1796770,6500,1337097,132,1.0,1000,,,3/28/2007 0:00,7753,7753,,,,,Skid Steer Loader - 1601.0 to 1751.0 Lb Operating Capacity,Missouri,SSL,Skid Steer Loaders,,OROPS,None or Unspecified,,,,,,,,,,Standard,,,,,,None or Unspecified,None or Unspecified,None or Unspecified,Standard,,,,,,,,,,,
9555,1796771,8000,1537170,132,22.0,1000,,,9/15/2001 0:00,7753,7753,,,,,Skid Steer Loader - 1601.0 to 1751.0 Lb Operating Capacity,Minnesota,SSL,Skid Steer Loaders,,OROPS,None or Unspecified,,,,,,,,,,Standard,,,,,,None or Unspecified,None or Unspecified,None or Unspecified,Standard,,,,,,,,,,,
9555,1796773,11500,1381551,132,6.0,1994,,,11/18/1998 0:00,7753,7753,,,,,Skid Steer Loader - 1601.0 to 1751.0 Lb Operating Capacity,Wisconsin,SSL,Skid Steer Loaders,,OROPS,None or Unspecified,,,,,,,,,,Standard,,,,,,None or Unspecified,None or Unspecified,None or Unspecified,Standard,,,,,,,,,,,
9555,1796775,10000,541852,132,14.0,1000,,,12/8/2000 0:00,7753,7753,,,,,Skid Steer Loader - 1601.0 to 1751.0 Lb Operating Capacity,Indiana,SSL,Skid Steer Loaders,,OROPS,None or Unspecified,,,,,,,,,,Standard,,,,,,None or Unspecified,None or Unspecified,None or Unspecified,Standard,,,,,,,,,,,
9555,1796776,8750,1458182,132,22.0,1994,,,3/16/2002 0:00,7753,7753,,,,,Skid Steer Loader - 1601.0 to 1751.0 Lb Operating Capacity,Minnesota,SSL,Skid Steer Loaders,,OROPS,None or Unspecified,,,,,,,,,,Standard,,,,,,None or Unspecified,None or Unspecified,None or Unspecified,Standard,,,,,,,,,,,
9555,1796777,7750,1399277,132,2.0,1000,,,12/1/2000 0:00,7753,7753,,,,,Skid Steer Loader - 1601.0 to 1751.0 Lb Operating Capacity,New Jersey,SSL,Skid Steer Loaders,,OROPS,None or Unspecified,,,,,,,,,,Standard,,,,,,None or Unspecified,None or Unspecified,None or Unspecified,Standard,,,,,,,,,,,
9555,1796779,8000,1265079,132,1.0,1994,,,3/21/2007 0:00,7753,7753,,,,,Skid Steer Loader - 1601.0 to 1751.0 Lb Operating Capacity,Washington,SSL,Skid Steer Loaders,,OROPS,None or Unspecified,,,,,,,,,,Standard,,,,,,None or Unspecified,None or Unspecified,None or Unspecified,Standard,,,,,,,,,,,
9555,1796780,7750,1510406,132,4.0,1994,,,2/13/2007 0:00,7753,7753,,,,,Skid Steer Loader - 1601.0 to 1751.0 Lb Operating Capacity,Florida,SSL,Skid Steer Loaders,,OROPS,None or Unspecified,,,,,,,,,,Standard,,,,,,None or Unspecified,None or Unspecified,None or Unspecified,Standard,,,,,,,,,,,
9555,1796781,7750,1510406,132,4.0,1994,,,2/12/2007 0:00,7753,7753,,,,,Skid Steer Loader - 1601.0 to 1751.0 Lb Operating Capacity,Florida,SSL,Skid Steer Loaders,,OROPS,None or Unspecified,,,,,,,,,,Standard,,,,,,None or Unspecified,None or Unspecified,None or Unspecified,Standard,,,,,,,,,,,
9555,1796783,10000,1215397,132,2.0,1000,,,4/24/1999 0:00,7753,7753,,,,,Skid Steer Loader - 1601.0 to 1751.0 Lb Operating Capacity,Ohio,SSL,Skid Steer Loaders,,OROPS,None or Unspecified,,,,,,,,,,Standard,,,,,,None or Unspecified,None or Unspecified,None or Unspecified,Standard,,,,,,,,,,,
9555,1796784,5250,1360038,132,2.0,1995,,,10/11/2006 0:00,7753,7753,,,,,Skid Steer Loader - 1601.0 to 1751.0 Lb Operating Capacity,Florida,SSL,Skid Steer Loaders,,OROPS,None or Unspecified,,,,,,,,,,Standard,,,,,,None or Unspecified,None or Unspecified,None or Unspecified,Standard,,,,,,,,,,,
9555,1796785,12500,1095483,132,1.0,1994,,,9/30/1997 0:00,7753,7753,,,,,Skid Steer Loader - 1601.0 to 1751.0 Lb Operating Capacity,Ohio,SSL,Skid Steer Loaders,,OROPS,None or Unspecified,,,,,,,,,,Standard,,,,,,None or Unspecified,None or Unspecified,None or Unspecified,Standard,,,,,,,,,,,
9555,1796786,7000,1101439,132,1.0,1000,,,9/17/2003 0:00,7753,7753,,,,,Skid Steer Loader - 1601.0 to 1751.0 Lb Operating Capacity,Texas,SSL,Skid Steer Loaders,,OROPS,None or Unspecified,,,,,,,,,,Standard,,,,,,None or Unspecified,None or Unspecified,None or Unspecified,Standard,,,,,,,,,,,
9555,1796787,7000,1361916,132,2.0,1994,,,6/12/2002 0:00,7753,7753,,,,,Skid Steer Loader - 1601.0 to 1751.0 Lb Operating Capacity,Texas,SSL,Skid Steer Loaders,,OROPS,None or Unspecified,,,,,,,,,,Standard,,,,,,None or Unspecified,None or Unspecified,None or Unspecified,Standard,,,,,,,,,,,
9555,1796788,6500,1493997,132,99.0,1994,,,12/3/2010 0:00,7753,7753,,,,,Skid Steer Loader - 1601.0 to 1751.0 Lb Operating Capacity,Minnesota,SSL,Skid Steer Loaders,,OROPS,None or Unspecified,,,,,,,,,,Standard,,,,,,None or Unspecified,None or Unspecified,None or Unspecified,Standard,,,,,,,,,,,
9555,1796789,10500,1134616,132,4.0,1994,,,2/11/2008 0:00,7753,7753,,,,,Skid Steer Loader - 1601.0 to 1751.0 Lb Operating Capacity,Florida,SSL,Skid Steer Loaders,,OROPS,None or Unspecified,,,,,,,,,,Standard,,,,,,None or Unspecified,None or Unspecified,None or Unspecified,Standard,,,,,,,,,,,
9555,1796790,10500,1134616,132,4.0,1994,,,2/12/2008 0:00,7753,7753,,,,,Skid Steer Loader - 1601.0 to 1751.0 Lb Operating Capacity,Florida,SSL,Skid Steer Loaders,,OROPS,None or Unspecified,,,,,,,,,,Standard,,,,,,None or Unspecified,None or Unspecified,None or Unspecified,Standard,,,,,,,,,,,
9555,1796791,14500,1157196,132,17.0,1000,,,4/26/2001 0:00,7753,7753,,,,,Skid Steer Loader - 1601.0 to 1751.0 Lb Operating Capacity,Montana,SSL,Skid Steer Loaders,,OROPS,None or Unspecified,,,,,,,,,,Standard,,,,,,None or Unspecified,None or Unspecified,None or Unspecified,Standard,,,,,,,,,,,
9555,1796797,6500,1189256,132,1.0,1994,,,6/19/2008 0:00,7753,7753,,,,,Skid Steer Loader - 1601.0 to 1751.0 Lb Operating Capacity,Illinois,SSL,Skid Steer Loaders,,OROPS,None or Unspecified,,,,,,,,,,Standard,,,,,,None or Unspecified,None or Unspecified,None or Unspecified,Standard,,,,,,,,,,,
9555,1796798,6750,1478514,132,5.0,1000,,,5/6/2000 0:00,7753,7753,,,,,Skid Steer Loader - 1601.0 to 1751.0 Lb Operating Capacity,Connecticut,SSL,Skid Steer Loaders,,OROPS,None or Unspecified,,,,,,,,,,Standard,,,,,,None or Unspecified,None or Unspecified,None or Unspecified,Standard,,,,,,,,,,,
9555,1796799,6750,1478514,132,2.0,1000,,,3/16/2000 0:00,7753,7753,,,,,Skid Steer Loader - 1601.0 to 1751.0 Lb Operating Capacity,Colorado,SSL,Skid Steer Loaders,,OROPS,None or Unspecified,,,,,,,,,,Standard,,,,,,None or Unspecified,None or Unspecified,None or Unspecified,Standard,,,,,,,,,,,
9555,1796802,5750,1075438,132,1.0,1994,,,8/9/2008 0:00,7753,7753,,,,,Skid Steer Loader - 1601.0 to 1751.0 Lb Operating Capacity,Virginia,SSL,Skid Steer Loaders,,EROPS,None or Unspecified,,,,,,,,,,Standard,,,,,,None or Unspecified,None or Unspecified,None or Unspecified,Standard,,,,,,,,,,,
9555,1796805,8000,1547752,132,1.0,1994,,,4/8/1999 0:00,7753,7753,,,,,Skid Steer Loader - 1601.0 to 1751.0 Lb Operating Capacity,Georgia,SSL,Skid Steer Loaders,,OROPS,None or Unspecified,,,,,,,,,,Standard,,,,,,None or Unspecified,None or Unspecified,None or Unspecified,Standard,,,,,,,,,,,
9555,1796810,7500,1161139,132,1.0,1000,,,10/4/2006 0:00,7753,7753,,,,,Skid Steer Loader - 1601.0 to 1751.0 Lb Operating Capacity,Maryland,SSL,Skid Steer Loaders,,OROPS,None or Unspecified,,,,,,,,,,Standard,,,,,,None or Unspecified,None or Unspecified,None or Unspecified,Standard,,,,,,,,,,,
9555,1796811,8000,1096496,132,1.0,1994,,,4/27/2007 0:00,7753,7753,,,,,Skid Steer Loader - 1601.0 to 1751.0 Lb Operating Capacity,Missouri,SSL,Skid Steer Loaders,,OROPS,None or Unspecified,,,,,,,,,,Standard,,,,,,None or Unspecified,None or Unspecified,None or Unspecified,Standard,,,,,,,,,,,
9555,1796815,5500,1516952,132,1.0,1995,,,10/11/2002 0:00,7753,7753,,,,,Skid Steer Loader - 1601.0 to 1751.0 Lb Operating Capacity,Florida,SSL,Skid Steer Loaders,,OROPS,None or Unspecified,,,,,,,,,,Standard,,,,,,None or Unspecified,None or Unspecified,None or Unspecified,Standard,,,,,,,,,,,
9555,1796817,8250,1532552,132,2.0,1994,,,11/16/2002 0:00,7753,7753,,,,,Skid Steer Loader - 1601.0 to 1751.0 Lb Operating Capacity,Connecticut,SSL,Skid Steer Loaders,,OROPS,None or Unspecified,,,,,,,,,,Standard,,,,,,None or Unspecified,None or Unspecified,None or Unspecified,Standard,,,,,,,,,,,
9555,1796818,7000,1102323,132,1.0,1994,,,2/24/2004 0:00,7753,7753,,,,,Skid Steer Loader - 1601.0 to 1751.0 Lb Operating Capacity,Texas,SSL,Skid Steer Loaders,,OROPS,None or Unspecified,,,,,,,,,,Standard,,,,,,None or Unspecified,None or Unspecified,None or Unspecified,Standard,,,,,,,,,,,
9555,1796820,5400,1554214,132,16.0,1992,,,5/3/2001 0:00,7753,7753,,,,,Skid Steer Loader - 1601.0 to 1751.0 Lb Operating Capacity,Ohio,SSL,Skid Steer Loaders,,OROPS,None or Unspecified,,,,,,,,,,Standard,,,,,,None or Unspecified,None or Unspecified,None or Unspecified,Standard,,,,,,,,,,,
9555,1796935,9750,1224302,132,9.0,1993,6419.0,High,10/23/1997 0:00,7753,7753,,,,,Skid Steer Loader - 1601.0 to 1751.0 Lb Operating Capacity,South Carolina,SSL,Skid Steer Loaders,,OROPS,None or Unspecified,,,,,,,,,,Standard,,,,,,None or Unspecified,None or Unspecified,None or Unspecified,Standard,,,,,,,,,,,
9555,1797261,6250,1345222,132,10.0,1000,,,5/18/2000 0:00,7753,7753,,,,,Skid Steer Loader - 1601.0 to 1751.0 Lb Operating Capacity,Louisiana,SSL,Skid Steer Loaders,,OROPS,None or Unspecified,,,,,,,,,,Standard,,,,,,None or Unspecified,None or Unspecified,None or Unspecified,Standard,,,,,,,,,,,
9555,1797263,8000,1112330,132,4.0,1995,,,2/11/2002 0:00,7753,7753,,,,,Skid Steer Loader - 1601.0 to 1751.0 Lb Operating Capacity,Florida,SSL,Skid Steer Loaders,,OROPS,None or Unspecified,,,,,,,,,,Standard,,,,,,None or Unspecified,None or Unspecified,None or Unspecified,Standard,,,,,,,,,,,
9555,1800844,6000,1322848,132,1.0,1000,,,6/22/2004 0:00,7753,7753,,,,,Skid Steer Loader - 1601.0 to 1751.0 Lb Operating Capacity,Maryland,SSL,Skid Steer Loaders,,OROPS,None or Unspecified,,,,,,,,,,Standard,,,,,,None or Unspecified,None or Unspecified,None or Unspecified,Standard,,,,,,,,,,,
9555,1815528,8450,1222613,132,2.0,1000,,,6/19/1999 0:00,7753,7753,,,,,Skid Steer Loader - 1601.0 to 1751.0 Lb Operating Capacity,North Carolina,SSL,Skid Steer Loaders,,OROPS,None or Unspecified,,,,,,,,,,Standard,,,,,,None or Unspecified,None or Unspecified,None or Unspecified,Standard,,,,,,,,,,,
9555,2429343,8000,1550312,136,1.0,1993,0.0,,6/4/2009 0:00,7753,7753,,,,,Skid Steer Loader - 1601.0 to 1751.0 Lb Operating Capacity,Colorado,SSL,Skid Steer Loaders,,OROPS,None or Unspecified,,,,,,,,,,Auxiliary,,,,,,None or Unspecified,None or Unspecified,None or Unspecified,Standard,,,,,,,,,,,
9555,2713684,8000,1545261,149,1.0,1000,0.0,,7/13/2010 0:00,7753,7753,,,,,Skid Steer Loader - 1601.0 to 1751.0 Lb Operating Capacity,Illinois,SSL,Skid Steer Loaders,,OROPS,None or Unspecified,,,,,,,,,,Auxiliary,,,,,,None or Unspecified,None or Unspecified,None or Unspecified,Standard,,,,,,,,,,,
9555,2714531,6100,1498141,149,12.0,1994,0.0,,1/26/2011 0:00,7753,7753,,,,,Skid Steer Loader - 1601.0 to 1751.0 Lb Operating Capacity,South Carolina,SSL,Skid Steer Loaders,,EROPS,None or Unspecified,,,,,,,,,,Auxiliary,,,,,,None or Unspecified,None or Unspecified,None or Unspecified,Standard,,,,,,,,,,,
9555,2714532,7500,1490445,149,1.0,1994,0.0,,2/15/2011 0:00,7753,7753,,,,,Skid Steer Loader - 1601.0 to 1751.0 Lb Operating Capacity,Florida,SSL,Skid Steer Loaders,,OROPS,None or Unspecified,,,,,,,,,,Standard,,,,,,None or Unspecified,None or Unspecified,None or Unspecified,Standard,,,,,,,,,,,
