ModelID,SalesID,SalePrice,MachineID,datasource,auctioneerID,YearMade,MachineHoursCurrentMeter,UsageBand,saledate,fiModelDesc,fiBaseModel,fiSecondaryDesc,fiModelSeries,fiModelDescriptor,ProductSize,fiProductClassDesc,state,ProductGroup,ProductGroupDesc,Drive_System,Enclosure,Forks,Pad_Type,Ride_Control,Stick,Transmission,Turbocharged,Blade_Extension,Blade_Width,Enclosure_Type,Engine_Horsepower,Hydraulics,Pushblock,Ripper,Scarifier,Tip_Control,Tire_Size,Coupler,Coupler_System,Grouser_Tracks,Hydraulics_Flow,Track_Type,Undercarriage_Pad_Width,Stick_Length,Thumb,Pattern_Changer,Grouser_Type,Backhoe_Mounting,Blade_Type,Travel_Controls,Differential_Type,Steering_Controls
9573,1788923,8000,1317780,132,2.0,1000,,,9/28/2007 0:00,975,975,,,,,Skid Steer Loader - 2201.0 to 2701.0 Lb Operating Capacity,New Jersey,SSL,Skid Steer Loaders,,OROPS,None or Unspecified,,,,,,,,,,Standard,,,,,,None or Unspecified,None or Unspecified,None or Unspecified,Standard,,,,,,,,,,,
9573,1788925,5500,1308372,132,4.0,1000,,,2/4/1999 0:00,975,975,,,,,Skid Steer Loader - 2201.0 to 2701.0 Lb Operating Capacity,Florida,SSL,Skid Steer Loaders,,OROPS,None or Unspecified,,,,,,,,,,Standard,,,,,,None or Unspecified,None or Unspecified,None or Unspecified,Standard,,,,,,,,,,,
9573,1788936,4750,827054,132,99.0,1000,,,12/15/1994 0:00,975,975,,,,,Skid Steer Loader - 2201.0 to 2701.0 Lb Operating Capacity,Louisiana,SSL,Skid Steer Loaders,,OROPS,None or Unspecified,,,,,,,,,,Standard,,,,,,None or Unspecified,None or Unspecified,None or Unspecified,Standard,,,,,,,,,,,
9573,1789094,6600,1481794,132,9.0,1000,,,4/6/2000 0:00,975,975,,,,,Skid Steer Loader - 2201.0 to 2701.0 Lb Operating Capacity,Texas,SSL,Skid Steer Loaders,,OROPS,None or Unspecified,,,,,,,,,,Standard,,,,,,None or Unspecified,None or Unspecified,None or Unspecified,Standard,,,,,,,,,,,
9573,1789098,6500,1443260,132,1.0,1979,,,5/30/2003 0:00,975,975,,,,,Skid Steer Loader - 2201.0 to 2701.0 Lb Operating Capacity,Montana,SSL,Skid Steer Loaders,,EROPS,,,,,,,,,,,Auxiliary,,,,,,None or Unspecified,None or Unspecified,,,,,,,,,,,,,
9573,1789104,10000,276610,132,16.0,1979,,,6/8/2000 0:00,975,975,,,,,Skid Steer Loader - 2201.0 to 2701.0 Lb Operating Capacity,Ohio,SSL,Skid Steer Loaders,,OROPS,None or Unspecified,,,,,,,,,,Standard,,,,,,None or Unspecified,None or Unspecified,None or Unspecified,Standard,,,,,,,,,,,
9573,1789110,7000,1248898,132,1.0,1000,,,4/23/2002 0:00,975,975,,,,,Skid Steer Loader - 2201.0 to 2701.0 Lb Operating Capacity,Ohio,SSL,Skid Steer Loaders,,OROPS,None or Unspecified,,,,,,,,,,Standard,,,,,,None or Unspecified,None or Unspecified,None or Unspecified,Standard,,,,,,,,,,,
9573,1789139,10000,1494292,132,6.0,1000,,,7/18/1995 0:00,975,975,,,,,Skid Steer Loader - 2201.0 to 2701.0 Lb Operating Capacity,Maine,SSL,Skid Steer Loaders,,OROPS,None or Unspecified,,,,,,,,,,Standard,,,,,,None or Unspecified,None or Unspecified,None or Unspecified,Standard,,,,,,,,,,,
9573,1791317,14000,1272271,132,1.0,1982,,,3/28/1996 0:00,975,975,,,,,Skid Steer Loader - 2201.0 to 2701.0 Lb Operating Capacity,Colorado,SSL,Skid Steer Loaders,,OROPS,None or Unspecified,,,,,,,,,,Standard,,,,,,None or Unspecified,None or Unspecified,None or Unspecified,Standard,,,,,,,,,,,
9573,1791331,8500,1093992,132,1.0,1000,,,3/28/2007 0:00,975,975,,,,,Skid Steer Loader - 2201.0 to 2701.0 Lb Operating Capacity,Missouri,SSL,Skid Steer Loaders,,OROPS,None or Unspecified,,,,,,,,,,Standard,,,,,,None or Unspecified,None or Unspecified,None or Unspecified,Standard,,,,,,,,,,,
9573,1791422,8500,1197804,132,2.0,1986,,,5/13/2000 0:00,975,975,,,,,Skid Steer Loader - 2201.0 to 2701.0 Lb Operating Capacity,New York,SSL,Skid Steer Loaders,,OROPS,None or Unspecified,,,,,,,,,,Standard,,,,,,None or Unspecified,None or Unspecified,None or Unspecified,Standard,,,,,,,,,,,
9573,1791423,6500,1532906,132,6.0,1989,,,4/15/1997 0:00,975,975,,,,,Skid Steer Loader - 2201.0 to 2701.0 Lb Operating Capacity,Kentucky,SSL,Skid Steer Loaders,,OROPS,None or Unspecified,,,,,,,,,,Standard,,,,,,None or Unspecified,None or Unspecified,None or Unspecified,Standard,,,,,,,,,,,
9573,1791428,11500,1231005,132,7.0,1991,,,3/15/1996 0:00,975,975,,,,,Skid Steer Loader - 2201.0 to 2701.0 Lb Operating Capacity,Alabama,SSL,Skid Steer Loaders,,OROPS,None or Unspecified,,,,,,,,,,Standard,,,,,,None or Unspecified,None or Unspecified,None or Unspecified,Standard,,,,,,,,,,,
9573,1791429,7500,1428855,132,2.0,1000,,,9/28/2007 0:00,975,975,,,,,Skid Steer Loader - 2201.0 to 2701.0 Lb Operating Capacity,New Jersey,SSL,Skid Steer Loaders,,OROPS,None or Unspecified,,,,,,,,,,Standard,,,,,,None or Unspecified,None or Unspecified,None or Unspecified,Standard,,,,,,,,,,,
9573,1791430,6500,1517850,132,1.0,1000,,,3/30/2001 0:00,975,975,,,,,Skid Steer Loader - 2201.0 to 2701.0 Lb Operating Capacity,California,SSL,Skid Steer Loaders,,OROPS,None or Unspecified,,,,,,,,,,Standard,,,,,,None or Unspecified,None or Unspecified,None or Unspecified,Standard,,,,,,,,,,,
9573,1791432,10500,1391106,132,1.0,1979,,,3/25/2008 0:00,975,975,,,,,Skid Steer Loader - 2201.0 to 2701.0 Lb Operating Capacity,Minnesota,SSL,Skid Steer Loaders,,OROPS,None or Unspecified,,,,,,,,,,Standard,,,,,,None or Unspecified,None or Unspecified,None or Unspecified,Standard,,,,,,,,,,,
9573,1791436,12500,1267085,132,4.0,1989,,,2/11/1994 0:00,975,975,,,,,Skid Steer Loader - 2201.0 to 2701.0 Lb Operating Capacity,Florida,SSL,Skid Steer Loaders,,OROPS,None or Unspecified,,,,,,,,,,Standard,,,,,,None or Unspecified,None or Unspecified,None or Unspecified,Standard,,,,,,,,,,,
9573,1791437,7750,1267085,132,23.0,1000,,,10/22/1994 0:00,975,975,,,,,Skid Steer Loader - 2201.0 to 2701.0 Lb Operating Capacity,Pennsylvania,SSL,Skid Steer Loaders,,OROPS,None or Unspecified,,,,,,,,,,Standard,,,,,,None or Unspecified,None or Unspecified,None or Unspecified,Standard,,,,,,,,,,,
9573,1791439,11000,1172667,132,1.0,1000,,,6/22/1995 0:00,975,975,,,,,Skid Steer Loader - 2201.0 to 2701.0 Lb Operating Capacity,Colorado,SSL,Skid Steer Loaders,,OROPS,None or Unspecified,,,,,,,,,,Standard,,,,,,None or Unspecified,None or Unspecified,None or Unspecified,Standard,,,,,,,,,,,
9573,1791440,9500,1172667,132,1.0,1000,,,4/17/1997 0:00,975,975,,,,,Skid Steer Loader - 2201.0 to 2701.0 Lb Operating Capacity,Minnesota,SSL,Skid Steer Loaders,,OROPS,None or Unspecified,,,,,,,,,,Standard,,,,,,None or Unspecified,None or Unspecified,None or Unspecified,Standard,,,,,,,,,,,
9573,1791441,8500,1480695,132,1.0,1000,,,6/20/2006 0:00,975,975,,,,,Skid Steer Loader - 2201.0 to 2701.0 Lb Operating Capacity,Washington,SSL,Skid Steer Loaders,,OROPS,None or Unspecified,,,,,,,,,,Standard,,,,,,None or Unspecified,None or Unspecified,None or Unspecified,Standard,,,,,,,,,,,
9573,1791442,4750,1396287,132,23.0,1000,,,10/5/1996 0:00,975,975,,,,,Skid Steer Loader - 2201.0 to 2701.0 Lb Operating Capacity,Pennsylvania,SSL,Skid Steer Loaders,,OROPS,None or Unspecified,,,,,,,,,,Standard,,,,,,None or Unspecified,None or Unspecified,None or Unspecified,Standard,,,,,,,,,,,
9573,1791444,7500,1505744,132,1.0,1000,,,9/12/2002 0:00,975,975,,,,,Skid Steer Loader - 2201.0 to 2701.0 Lb Operating Capacity,Texas,SSL,Skid Steer Loaders,,OROPS,None or Unspecified,,,,,,,,,,Standard,,,,,,None or Unspecified,None or Unspecified,None or Unspecified,Standard,,,,,,,,,,,
9573,1791445,11000,1229168,132,1.0,1000,,,2/21/1996 0:00,975,975,,,,,Skid Steer Loader - 2201.0 to 2701.0 Lb Operating Capacity,California,SSL,Skid Steer Loaders,,OROPS,None or Unspecified,,,,,,,,,,Standard,,,,,,None or Unspecified,None or Unspecified,None or Unspecified,Standard,,,,,,,,,,,
9573,1791447,6500,1181725,132,15.0,1000,,,7/15/2004 0:00,975,975,,,,,Skid Steer Loader - 2201.0 to 2701.0 Lb Operating Capacity,Ohio,SSL,Skid Steer Loaders,,OROPS,None or Unspecified,,,,,,,,,,Standard,,,,,,None or Unspecified,None or Unspecified,None or Unspecified,Standard,,,,,,,,,,,
9573,1791448,9000,1291218,132,25.0,1000,,,5/4/1996 0:00,975,975,,,,,Skid Steer Loader - 2201.0 to 2701.0 Lb Operating Capacity,California,SSL,Skid Steer Loaders,,OROPS,None or Unspecified,,,,,,,,,,Standard,,,,,,None or Unspecified,None or Unspecified,None or Unspecified,Standard,,,,,,,,,,,
9573,1791449,7000,1332431,132,1.0,1000,,,3/2/2000 0:00,975,975,,,,,Skid Steer Loader - 2201.0 to 2701.0 Lb Operating Capacity,Nevada,SSL,Skid Steer Loaders,,OROPS,None or Unspecified,,,,,,,,,,Standard,,,,,,None or Unspecified,None or Unspecified,None or Unspecified,Standard,,,,,,,,,,,
9573,1791450,8500,1308413,132,6.0,1000,,,4/23/1996 0:00,975,975,,,,,Skid Steer Loader - 2201.0 to 2701.0 Lb Operating Capacity,Kentucky,SSL,Skid Steer Loaders,,OROPS,None or Unspecified,,,,,,,,,,Standard,,,,,,None or Unspecified,None or Unspecified,None or Unspecified,Standard,,,,,,,,,,,
9573,1791453,8000,1086763,132,6.0,1981,,,5/13/1997 0:00,975,975,,,,,Skid Steer Loader - 2201.0 to 2701.0 Lb Operating Capacity,Wyoming,SSL,Skid Steer Loaders,,OROPS,None or Unspecified,,,,,,,,,,Standard,,,,,,None or Unspecified,None or Unspecified,None or Unspecified,Standard,,,,,,,,,,,
9573,1791462,5500,1212157,132,16.0,1000,,,10/17/2002 0:00,975,975,,,,,Skid Steer Loader - 2201.0 to 2701.0 Lb Operating Capacity,Wisconsin,SSL,Skid Steer Loaders,,OROPS,None or Unspecified,,,,,,,,,,Standard,,,,,,None or Unspecified,None or Unspecified,None or Unspecified,Standard,,,,,,,,,,,
9573,1791463,11000,1372089,132,2.0,1000,,,7/31/1999 0:00,975,975,,,,,Skid Steer Loader - 2201.0 to 2701.0 Lb Operating Capacity,Ohio,SSL,Skid Steer Loaders,,OROPS,None or Unspecified,,,,,,,,,,Standard,,,,,,None or Unspecified,None or Unspecified,None or Unspecified,Standard,,,,,,,,,,,
9573,1791484,6250,1391757,132,2.0,1000,,,11/19/1994 0:00,975,975,,,,,Skid Steer Loader - 2201.0 to 2701.0 Lb Operating Capacity,Ohio,SSL,Skid Steer Loaders,,OROPS,None or Unspecified,,,,,,,,,,Standard,,,,,,None or Unspecified,None or Unspecified,None or Unspecified,Standard,,,,,,,,,,,
9573,1791512,5000,1199196,132,1.0,1978,,,5/30/1996 0:00,975,975,,,,,Skid Steer Loader - 2201.0 to 2701.0 Lb Operating Capacity,California,SSL,Skid Steer Loaders,,OROPS,None or Unspecified,,,,,,,,,,Standard,,,,,,None or Unspecified,None or Unspecified,None or Unspecified,Standard,,,,,,,,,,,
9573,1815308,7000,1494272,132,6.0,1000,,,6/4/1996 0:00,975,975,,,,,Skid Steer Loader - 2201.0 to 2701.0 Lb Operating Capacity,Maine,SSL,Skid Steer Loaders,,OROPS,None or Unspecified,,,,,,,,,,Standard,,,,,,None or Unspecified,None or Unspecified,None or Unspecified,Standard,,,,,,,,,,,
9573,1815498,9500,1170452,132,6.0,1984,,,12/13/1995 0:00,975,975,,,,,Skid Steer Loader - 2201.0 to 2701.0 Lb Operating Capacity,Kentucky,SSL,Skid Steer Loaders,,OROPS,None or Unspecified,,,,,,,,,,Standard,,,,,,None or Unspecified,None or Unspecified,None or Unspecified,Standard,,,,,,,,,,,
9573,1815515,8500,1264029,132,1.0,1990,,,9/30/1997 0:00,975,975,,,,,Skid Steer Loader - 2201.0 to 2701.0 Lb Operating Capacity,Ohio,SSL,Skid Steer Loaders,,OROPS,None or Unspecified,,,,,,,,,,Standard,,,,,,None or Unspecified,None or Unspecified,None or Unspecified,Standard,,,,,,,,,,,
9573,2713609,6500,1188855,149,1.0,1985,6613.0,Medium,12/9/2010 0:00,975,975,,,,,Skid Steer Loader - 2201.0 to 2701.0 Lb Operating Capacity,Illinois,SSL,Skid Steer Loaders,,OROPS,None or Unspecified,,,,,,,,,,Auxiliary,,,,,,None or Unspecified,None or Unspecified,None or Unspecified,Standard,,,,,,,,,,,
9573,4370082,5000,2300100,172,1.0,1987,3471.0,Low,8/9/2011 0:00,975,975,,,,,Skid Steer Loader - 2201.0 to 2701.0 Lb Operating Capacity,New York,SSL,Skid Steer Loaders,,OROPS,Yes,,,,,,,,,,Standard,,,,,,None or Unspecified,None or Unspecified,None or Unspecified,Standard,,,,,,,,,,,
9573,6310165,5000,1300071,149,1.0,1987,,,8/10/2011 0:00,975,975,,,,,Skid Steer Loader - 2201.0 to 2701.0 Lb Operating Capacity,New York,SSL,Skid Steer Loaders,,OROPS,Yes,,,,,,,,,,Standard,,,,,,None or Unspecified,None or Unspecified,None or Unspecified,Standard,,,,,,,,,,,
