ModelID,SalesID,SalePrice,MachineID,datasource,auctioneerID,YearMade,MachineHoursCurrentMeter,UsageBand,saledate,fiModelDesc,fiBaseModel,fiSecondaryDesc,fiModelSeries,fiModelDescriptor,ProductSize,fiProductClassDesc,state,ProductGroup,ProductGroupDesc,Drive_System,Enclosure,Forks,Pad_Type,Ride_Control,Stick,Transmission,Turbocharged,Blade_Extension,Blade_Width,Enclosure_Type,Engine_Horsepower,Hydraulics,Pushblock,Ripper,Scarifier,Tip_Control,Tire_Size,Coupler,Coupler_System,Grouser_Tracks,Hydraulics_Flow,Track_Type,Undercarriage_Pad_Width,Stick_Length,Thumb,Pattern_Changer,Grouser_Type,Backhoe_Mounting,Blade_Type,Travel_Controls,Differential_Type,Steering_Controls
9583,1789319,10750,1498905,132,20.0,1993,,,4/13/2006 0:00,X331,X331,,,,,"Hydraulic Excavator, Track - Unidentified (Compact Construction)",Arkansas,TEX,Track Excavators,,EROPS,,,,,,,,,,,Standard,,,,,,None or Unspecified,,,,Rubber,None or Unspecified,None or Unspecified,Hydraulic,None or Unspecified,Double,,,,,
9583,1797997,10000,1391746,132,12.0,1000,,,9/21/2005 0:00,X331,X331,,,,,"Hydraulic Excavator, Track - Unidentified (Compact Construction)",South Carolina,TEX,Track Excavators,,EROPS,,,,,,,,,,,Auxiliary,,,,,,None or Unspecified,,,,Rubber,None or Unspecified,None or Unspecified,None or Unspecified,None or Unspecified,Double,,,,,
9583,1798018,9000,1444757,132,1.0,1994,,,8/21/2007 0:00,X331,X331,,,,,"Hydraulic Excavator, Track - Unidentified (Compact Construction)",Ohio,TEX,Track Excavators,,EROPS,,,,,,,,,,,Standard,,,,,,None or Unspecified,,,,Steel,None or Unspecified,None or Unspecified,None or Unspecified,None or Unspecified,Double,,,,,
9583,1798030,8500,1228705,132,99.0,1994,,,8/4/2011 0:00,X331,X331,,,,,"Hydraulic Excavator, Track - Unidentified (Compact Construction)",Texas,TEX,Track Excavators,,EROPS,,,,,,,,,,,Auxiliary,,,,,,None or Unspecified,,,,Steel,None or Unspecified,None or Unspecified,None or Unspecified,None or Unspecified,Double,,,,,
9583,1802075,9000,1327949,132,8.0,1995,,,9/13/2006 0:00,X331,X331,,,,,"Hydraulic Excavator, Track - Unidentified (Compact Construction)",Mississippi,TEX,Track Excavators,,EROPS,,,,,,,,,,,Auxiliary,,,,,,None or Unspecified,,,,Rubber,None or Unspecified,None or Unspecified,None or Unspecified,None or Unspecified,Double,,,,,
9583,1802079,12500,1452739,132,1.0,1997,,,3/8/2006 0:00,X331,X331,,,,,"Hydraulic Excavator, Track - Unidentified (Compact Construction)",Illinois,TEX,Track Excavators,,EROPS,,,,,,,,,,,Standard,,,,,,None or Unspecified,,,,Rubber,None or Unspecified,None or Unspecified,None or Unspecified,None or Unspecified,Double,,,,,
9583,1802082,13250,1275125,132,11.0,1995,,,5/26/1999 0:00,X331,X331,,,,,"Hydraulic Excavator, Track - Unidentified (Compact Construction)",Mississippi,TEX,Track Excavators,,EROPS,,,,,,,,,,,Standard,,,,,,None or Unspecified,,,,Steel,None or Unspecified,None or Unspecified,None or Unspecified,None or Unspecified,Double,,,,,
9583,1802085,10000,1424900,132,2.0,1995,,,4/11/2008 0:00,X331,X331,,,,,"Hydraulic Excavator, Track - Unidentified (Compact Construction)",Georgia,TEX,Track Excavators,,EROPS,,,,,,,,,,,Standard,,,,,,None or Unspecified,,,,Rubber,None or Unspecified,None or Unspecified,None or Unspecified,None or Unspecified,Double,,,,,
9583,1802100,17000,1298101,132,8.0,1995,,,5/24/2006 0:00,X331,X331,,,,,"Hydraulic Excavator, Track - Unidentified (Compact Construction)",Mississippi,TEX,Track Excavators,,EROPS,,,,,,,,,,,Auxiliary,,,,,,None or Unspecified,,,,Steel,None or Unspecified,None or Unspecified,None or Unspecified,None or Unspecified,Double,,,,,
9583,1802101,8500,1298101,132,7.0,1995,,,3/8/2006 0:00,X331,X331,,,,,"Hydraulic Excavator, Track - Unidentified (Compact Construction)",Alabama,TEX,Track Excavators,,EROPS,,,,,,,,,,,Auxiliary,,,,,,None or Unspecified,,,,Steel,None or Unspecified,None or Unspecified,None or Unspecified,None or Unspecified,Double,,,,,
9583,1802121,8500,1362714,132,7.0,1995,,,3/8/2006 0:00,X331,X331,,,,,"Hydraulic Excavator, Track - Unidentified (Compact Construction)",Alabama,TEX,Track Excavators,,EROPS,,,,,,,,,,,Auxiliary,,,,,,None or Unspecified,,,,Steel,None or Unspecified,None or Unspecified,None or Unspecified,None or Unspecified,Double,,,,,
9583,1802122,15000,1362714,132,8.0,1995,,,5/24/2006 0:00,X331,X331,,,,,"Hydraulic Excavator, Track - Unidentified (Compact Construction)",Mississippi,TEX,Track Excavators,,EROPS,,,,,,,,,,,Auxiliary,,,,,,None or Unspecified,,,,Steel,None or Unspecified,None or Unspecified,None or Unspecified,None or Unspecified,Double,,,,,
9583,1802123,8500,1250136,132,7.0,1995,,,3/8/2006 0:00,X331,X331,,,,,"Hydraulic Excavator, Track - Unidentified (Compact Construction)",Alabama,TEX,Track Excavators,,EROPS,,,,,,,,,,,Standard,,,,,,None or Unspecified,,,,Steel,None or Unspecified,None or Unspecified,None or Unspecified,None or Unspecified,Double,,,,,
9583,1802434,11000,1232092,132,8.0,1000,,,9/13/2006 0:00,X331,X331,,,,,"Hydraulic Excavator, Track - Unidentified (Compact Construction)",Mississippi,TEX,Track Excavators,,EROPS,,,,,,,,,,,Standard,,,,,,None or Unspecified,,,,Steel,None or Unspecified,None or Unspecified,None or Unspecified,None or Unspecified,Double,,,,,
9583,1802448,7900,1223063,132,8.0,1998,,,5/29/2008 0:00,X331,X331,,,,,"Hydraulic Excavator, Track - Unidentified (Compact Construction)",Mississippi,TEX,Track Excavators,,EROPS,,,,,,,,,,,Standard,,,,,,None or Unspecified,,,,Steel,None or Unspecified,None or Unspecified,None or Unspecified,None or Unspecified,Double,,,,,
9583,1802452,9000,1271922,132,19.0,1999,,,6/23/2007 0:00,X331,X331,,,,,"Hydraulic Excavator, Track - Unidentified (Compact Construction)",Oklahoma,TEX,Track Excavators,,EROPS,,,,,,,,,,,Auxiliary,,,,,,None or Unspecified,,,,Steel,None or Unspecified,None or Unspecified,None or Unspecified,None or Unspecified,Double,,,,,
9583,1802466,14000,942271,132,1.0,1999,,,3/17/2004 0:00,X331,X331,,,,,"Hydraulic Excavator, Track - Unidentified (Compact Construction)",Texas,TEX,Track Excavators,,EROPS,,,,,,,,,,,Auxiliary,,,,,,None or Unspecified,,,,Steel,None or Unspecified,None or Unspecified,None or Unspecified,None or Unspecified,Double,,,,,
9583,1802505,12750,1426921,132,4.0,1999,,,6/17/2006 0:00,X331,X331,,,,,"Hydraulic Excavator, Track - Unidentified (Compact Construction)",Pennsylvania,TEX,Track Excavators,,EROPS,,,,,,,,,,,Standard,,,,,,None or Unspecified,,,,Rubber,None or Unspecified,None or Unspecified,None or Unspecified,None or Unspecified,Double,,,,,
9583,1802516,12500,1306773,132,4.0,1999,,,6/17/2006 0:00,X331,X331,,,,,"Hydraulic Excavator, Track - Unidentified (Compact Construction)",Pennsylvania,TEX,Track Excavators,,EROPS,,,,,,,,,,,Standard,,,,,,None or Unspecified,,,,Rubber,None or Unspecified,None or Unspecified,None or Unspecified,None or Unspecified,Double,,,,,
9583,1802554,9000,1361001,132,1.0,1000,,,5/24/2011 0:00,X331,X331,,,,,"Hydraulic Excavator, Track - Unidentified (Compact Construction)",Wisconsin,TEX,Track Excavators,,EROPS,,,,,,,,,,,Auxiliary,,,,,,None or Unspecified,,,,Rubber,None or Unspecified,None or Unspecified,None or Unspecified,None or Unspecified,Double,,,,,
