ModelID,SalesID,SalePrice,MachineID,datasource,auctioneerID,YearMade,MachineHoursCurrentMeter,UsageBand,saledate,fiModelDesc,fiBaseModel,fiSecondaryDesc,fiModelSeries,fiModelDescriptor,ProductSize,fiProductClassDesc,state,ProductGroup,ProductGroupDesc,Drive_System,Enclosure,Forks,Pad_Type,Ride_Control,Stick,Transmission,Turbocharged,Blade_Extension,Blade_Width,Enclosure_Type,Engine_Horsepower,Hydraulics,Pushblock,Ripper,Scarifier,Tip_Control,Tire_Size,Coupler,Coupler_System,Grouser_Tracks,Hydraulics_Flow,Track_Type,Undercarriage_Pad_Width,Stick_Length,Thumb,Pattern_Changer,Grouser_Type,Backhoe_Mounting,Blade_Type,Travel_Controls,Differential_Type,Steering_Controls
9595,1177673,15500,1035202,121,3.0,1000,0.0,,3/12/2008 0:00,L270,L270,,,,Large,Wheel Loader - 350.0 to 500.0 Horsepower,Illinois,WL,Wheel Loader,,EROPS w AC,None or Unspecified,,None or Unspecified,,,,,,,,2 Valve,,,,,None or Unspecified,None or Unspecified,,,,,,,,,,,,,Standard,Conventional
9595,1177674,15500,1052473,121,3.0,1000,7789.0,Low,3/12/2008 0:00,L270,L270,,,,Large,Wheel Loader - 350.0 to 500.0 Horsepower,Illinois,WL,Wheel Loader,,EROPS w AC,None or Unspecified,,None or Unspecified,,,,,,,,2 Valve,,,,,29.5,None or Unspecified,,,,,,,,,,,,,Standard,Conventional
9595,1179449,15500,1035202,121,3.0,1000,0.0,,4/17/2008 0:00,L270,L270,,,,Large,Wheel Loader - 350.0 to 500.0 Horsepower,Illinois,WL,Wheel Loader,,EROPS w AC,None or Unspecified,,None or Unspecified,,,,,,,,2 Valve,,,,,None or Unspecified,None or Unspecified,,,,,,,,,,,,,Standard,Conventional
9595,1179450,17000,1052473,121,3.0,1000,7789.0,Low,4/17/2008 0:00,L270,L270,,,,Large,Wheel Loader - 350.0 to 500.0 Horsepower,Illinois,WL,Wheel Loader,,EROPS w AC,None or Unspecified,,None or Unspecified,,,,,,,,2 Valve,,,,,29.5,None or Unspecified,,,,,,,,,,,,,Standard,Conventional
9595,1181038,13000,1027023,121,3.0,1000,6336.0,Low,7/24/2008 0:00,L270,L270,,,,Large,Wheel Loader - 350.0 to 500.0 Horsepower,Wisconsin,WL,Wheel Loader,,EROPS w AC,None or Unspecified,,None or Unspecified,,,,,,,,2 Valve,,,,,29.5,None or Unspecified,,,,,,,,,,,,,Standard,Conventional
9595,1207979,13000,1050336,121,3.0,1000,5658.0,Low,9/24/2010 0:00,L270,L270,,,,Large,Wheel Loader - 350.0 to 500.0 Horsepower,Iowa,WL,Wheel Loader,,EROPS w AC,None or Unspecified,,None or Unspecified,,,,,,,,2 Valve,,,,,None or Unspecified,None or Unspecified,,,,,,,,,,,,,Standard,Conventional
9595,1816632,17500,1159842,132,1.0,1988,,,11/12/2009 0:00,L270,L270,,,,Large,Wheel Loader - 350.0 to 500.0 Horsepower,Wisconsin,WL,Wheel Loader,,EROPS w AC,None or Unspecified,,None or Unspecified,,,,,,,,2 Valve,,,,,None or Unspecified,None or Unspecified,,,,,,,,,,,,,Standard,Conventional
9595,1816633,25000,1432491,132,22.0,1000,,,4/19/2001 0:00,L270,L270,,,,Large,Wheel Loader - 350.0 to 500.0 Horsepower,Minnesota,WL,Wheel Loader,,EROPS,None or Unspecified,,None or Unspecified,,,,,,,,2 Valve,,,,,None or Unspecified,None or Unspecified,,,,,,,,,,,,,Standard,Conventional
9595,1816634,15000,1329151,132,1.0,1989,,,8/21/2007 0:00,L270,L270,,,,Large,Wheel Loader - 350.0 to 500.0 Horsepower,Ohio,WL,Wheel Loader,,EROPS,None or Unspecified,,None or Unspecified,,,,,,,,2 Valve,,,,,None or Unspecified,None or Unspecified,,,,,,,,,,,,,Standard,Conventional
9595,2435365,17500,1722833,136,,1988,0.0,,10/30/2008 0:00,L270,L270,,,,Large,Wheel Loader - 350.0 to 500.0 Horsepower,Michigan,WL,Wheel Loader,,OROPS,None or Unspecified,,None or Unspecified,,,,,,,,2 Valve,,,,,None or Unspecified,None or Unspecified,,,,,,,,,,,,,Standard,Conventional
9595,2435406,15750,1767568,136,99.0,1000,261.0,Low,9/13/2008 0:00,L270,L270,,,,Large,Wheel Loader - 350.0 to 500.0 Horsepower,Tennessee,WL,Wheel Loader,,EROPS,None or Unspecified,,None or Unspecified,,,,,,,,2 Valve,,,,,None or Unspecified,None or Unspecified,,,,,,,,,,,,,Standard,Conventional
9595,2435409,15000,1666598,136,1.0,1000,0.0,,8/21/2007 0:00,L270,L270,,,,Large,Wheel Loader - 350.0 to 500.0 Horsepower,Ohio,WL,Wheel Loader,,EROPS,None or Unspecified,,None or Unspecified,,,,,,,,2 Valve,,,,,None or Unspecified,None or Unspecified,,,,,,,,,,,,,Standard,Conventional
9595,2435412,20000,1035202,136,1.0,1000,0.0,,6/19/2008 0:00,L270,L270,,,,Large,Wheel Loader - 350.0 to 500.0 Horsepower,Illinois,WL,Wheel Loader,,EROPS w AC,None or Unspecified,,None or Unspecified,,,,,,,,2 Valve,,,,,None or Unspecified,None or Unspecified,,,,,,,,,,,,,Standard,Conventional
