ModelID,SalesID,SalePrice,MachineID,datasource,auctioneerID,YearMade,MachineHoursCurrentMeter,UsageBand,saledate,fiModelDesc,fiBaseModel,fiSecondaryDesc,fiModelSeries,fiModelDescriptor,ProductSize,fiProductClassDesc,state,ProductGroup,ProductGroupDesc,Drive_System,Enclosure,Forks,Pad_Type,Ride_Control,Stick,Transmission,Turbocharged,Blade_Extension,Blade_Width,Enclosure_Type,Engine_Horsepower,Hydraulics,Pushblock,Ripper,Scarifier,Tip_Control,Tire_Size,Coupler,Coupler_System,Grouser_Tracks,Hydraulics_Flow,Track_Type,Undercarriage_Pad_Width,Stick_Length,Thumb,Pattern_Changer,Grouser_Type,Backhoe_Mounting,Blade_Type,Travel_Controls,Differential_Type,Steering_Controls
9853,1818507,17000,1555216,132,2.0,1000,,,3/18/1999 0:00,MG300,MG300,,,,,Motorgrader - 45.0 to 130.0 Horsepower,New Jersey,MG,Motor Graders,No,OROPS,,,,,None or Unspecified,,None or Unspecified,None or Unspecified,None or Unspecified,No,Base + 1 Function,None or Unspecified,None or Unspecified,None or Unspecified,None or Unspecified,None or Unspecified,,,,,,,,,,,,,,,
9853,1818532,11000,1420210,132,1.0,1000,,,3/2/2005 0:00,MG300,MG300,,,,,Motorgrader - 45.0 to 130.0 Horsepower,Texas,MG,Motor Graders,No,OROPS,,,,,None or Unspecified,,None or Unspecified,None or Unspecified,None or Unspecified,No,Base + 1 Function,None or Unspecified,None or Unspecified,None or Unspecified,None or Unspecified,None or Unspecified,,,,,,,,,,,,,,,
9853,1818573,23500,1078726,132,1.0,1985,,,4/16/1993 0:00,MG300,MG300,,,,,Motorgrader - 45.0 to 130.0 Horsepower,Texas,MG,Motor Graders,No,OROPS,,,,,None or Unspecified,,None or Unspecified,12',None or Unspecified,No,Base + 1 Function,Yes,None or Unspecified,Yes,Tip,None or Unspecified,,,,,,,,,,,,,,,
9853,1818574,15000,1480737,132,1.0,1986,,,3/23/2000 0:00,MG300,MG300,,,,,Motorgrader - 45.0 to 130.0 Horsepower,North Carolina,MG,Motor Graders,No,EROPS,,,,,None or Unspecified,,None or Unspecified,13',None or Unspecified,No,Base + 1 Function,None or Unspecified,Yes,None or Unspecified,None or Unspecified,None or Unspecified,,,,,,,,,,,,,,,
9853,1818575,9250,1098854,132,2.0,1000,,,7/20/2005 0:00,MG300,MG300,,,,,Motorgrader - 45.0 to 130.0 Horsepower,Texas,MG,Motor Graders,No,OROPS,,,,,None or Unspecified,,None or Unspecified,None or Unspecified,None or Unspecified,No,Base + 1 Function,None or Unspecified,None or Unspecified,None or Unspecified,None or Unspecified,None or Unspecified,,,,,,,,,,,,,,,
9853,1818576,13000,1408602,132,1.0,1000,,,3/29/2001 0:00,MG300,MG300,,,,,Motorgrader - 45.0 to 130.0 Horsepower,Maryland,MG,Motor Graders,No,EROPS,,,,,None or Unspecified,,None or Unspecified,12',None or Unspecified,No,Base + 1 Function,None or Unspecified,None or Unspecified,Yes,None or Unspecified,"13""",,,,,,,,,,,,,,,
9853,1818577,18000,1242413,132,4.0,1000,,,2/8/1996 0:00,MG300,MG300,,,,,Motorgrader - 45.0 to 130.0 Horsepower,Florida,MG,Motor Graders,No,EROPS,,,,,None or Unspecified,,None or Unspecified,12',None or Unspecified,No,Base + 1 Function,None or Unspecified,None or Unspecified,Yes,None or Unspecified,None or Unspecified,,,,,,,,,,,,,,,
9853,1818578,11000,1200051,132,7.0,1000,,,6/1/2000 0:00,MG300,MG300,,,,,Motorgrader - 45.0 to 130.0 Horsepower,Alabama,MG,Motor Graders,No,EROPS,,,,,None or Unspecified,,None or Unspecified,None or Unspecified,None or Unspecified,No,Base + 1 Function,None or Unspecified,None or Unspecified,Yes,None or Unspecified,"14""",,,,,,,,,,,,,,,
9853,1818579,14000,1347234,132,1.0,1000,,,6/14/2000 0:00,MG300,MG300,,,,,Motorgrader - 45.0 to 130.0 Horsepower,Texas,MG,Motor Graders,No,EROPS,,,,,None or Unspecified,,None or Unspecified,13',None or Unspecified,No,Base + 1 Function,Yes,Yes,None or Unspecified,None or Unspecified,None or Unspecified,,,,,,,,,,,,,,,
9853,1818582,13000,1281440,132,10.0,1000,,,6/27/2002 0:00,MG300,MG300,,,,,Motorgrader - 45.0 to 130.0 Horsepower,Louisiana,MG,Motor Graders,No,EROPS,,,,,Powershift,,None or Unspecified,13',None or Unspecified,No,Base + 1 Function,None or Unspecified,None or Unspecified,None or Unspecified,Sideshift & Tip,"17.5""",,,,,,,,,,,,,,,
9853,1818583,13000,1221278,132,10.0,1987,,,8/18/1999 0:00,MG300,MG300,,,,,Motorgrader - 45.0 to 130.0 Horsepower,Louisiana,MG,Motor Graders,No,EROPS w AC,,,,,Powershift,,None or Unspecified,14',None or Unspecified,No,Base + 1 Function,None or Unspecified,None or Unspecified,None or Unspecified,None or Unspecified,None or Unspecified,,,,,,,,,,,,,,,
9853,1818584,26000,1536404,132,1.0,1987,,,4/29/1991 0:00,MG300,MG300,,,,,Motorgrader - 45.0 to 130.0 Horsepower,Maryland,MG,Motor Graders,No,OROPS,,,,,None or Unspecified,,None or Unspecified,None or Unspecified,None or Unspecified,No,Base + 1 Function,None or Unspecified,None or Unspecified,None or Unspecified,None or Unspecified,None or Unspecified,,,,,,,,,,,,,,,
9853,1818585,21000,1152295,132,1.0,1984,,,7/12/1993 0:00,MG300,MG300,,,,,Motorgrader - 45.0 to 130.0 Horsepower,Texas,MG,Motor Graders,No,EROPS,,,,,None or Unspecified,,None or Unspecified,13',None or Unspecified,No,Base + 1 Function,None or Unspecified,None or Unspecified,Yes,Tip,None or Unspecified,,,,,,,,,,,,,,,
9853,1818587,21000,1115136,132,1.0,1984,,,3/26/1992 0:00,MG300,MG300,,,,,Motorgrader - 45.0 to 130.0 Horsepower,Florida,MG,Motor Graders,No,OROPS,,,,,None or Unspecified,,None or Unspecified,13',None or Unspecified,No,Base + 1 Function,None or Unspecified,None or Unspecified,None or Unspecified,None or Unspecified,"13""",,,,,,,,,,,,,,,
9853,1818589,18000,1344624,132,2.0,1000,,,9/18/1999 0:00,MG300,MG300,,,,,Motorgrader - 45.0 to 130.0 Horsepower,New Jersey,MG,Motor Graders,No,EROPS,,,,,None or Unspecified,,None or Unspecified,None or Unspecified,None or Unspecified,No,Base + 1 Function,None or Unspecified,None or Unspecified,None or Unspecified,None or Unspecified,None or Unspecified,,,,,,,,,,,,,,,
9853,1818590,17000,1463055,132,99.0,1986,,,7/20/2000 0:00,MG300,MG300,,,,,Motorgrader - 45.0 to 130.0 Horsepower,South Carolina,MG,Motor Graders,No,OROPS,,,,,None or Unspecified,,None or Unspecified,None or Unspecified,None or Unspecified,No,Base + 1 Function,None or Unspecified,None or Unspecified,Yes,None or Unspecified,"14""",,,,,,,,,,,,,,,
9853,1818591,11500,1463055,132,12.0,1000,,,3/21/2000 0:00,MG300,MG300,,,,,Motorgrader - 45.0 to 130.0 Horsepower,South Carolina,MG,Motor Graders,No,OROPS,,,,,None or Unspecified,,None or Unspecified,None or Unspecified,None or Unspecified,No,Base + 1 Function,None or Unspecified,None or Unspecified,Yes,None or Unspecified,"14""",,,,,,,,,,,,,,,
9853,1818592,27000,1436093,132,1.0,1986,,,6/24/1992 0:00,MG300,MG300,,,,,Motorgrader - 45.0 to 130.0 Horsepower,Texas,MG,Motor Graders,No,OROPS,,,,,None or Unspecified,,None or Unspecified,13',None or Unspecified,No,Base + 1 Function,Yes,Yes,None or Unspecified,Sideshift & Tip,None or Unspecified,,,,,,,,,,,,,,,
9853,1818593,29000,1107380,132,1.0,1986,,,10/16/1990 0:00,MG300,MG300,,,,,Motorgrader - 45.0 to 130.0 Horsepower,Texas,MG,Motor Graders,No,OROPS,,,,,None or Unspecified,,None or Unspecified,14',None or Unspecified,No,Base + 1 Function,None or Unspecified,None or Unspecified,Yes,Sideshift & Tip,None or Unspecified,,,,,,,,,,,,,,,
9853,1818594,21000,1107380,132,1.0,1986,,,7/12/1993 0:00,MG300,MG300,,,,,Motorgrader - 45.0 to 130.0 Horsepower,Texas,MG,Motor Graders,No,OROPS,,,,,None or Unspecified,,None or Unspecified,14',None or Unspecified,No,Base + 1 Function,None or Unspecified,None or Unspecified,Yes,Sideshift & Tip,None or Unspecified,,,,,,,,,,,,,,,
9853,1818595,13750,1383827,132,7.0,1000,,,4/21/2005 0:00,MG300,MG300,,,,,Motorgrader - 45.0 to 130.0 Horsepower,South Carolina,MG,Motor Graders,No,EROPS,,,,,None or Unspecified,,None or Unspecified,None or Unspecified,None or Unspecified,No,Base + 1 Function,None or Unspecified,None or Unspecified,Yes,None or Unspecified,"13""",,,,,,,,,,,,,,,
9853,1818598,31000,1285399,132,2.0,1000,,,2/2/1999 0:00,MG300,MG300,,,,,Motorgrader - 45.0 to 130.0 Horsepower,Florida,MG,Motor Graders,,EROPS,,,,,,,,,,,Standard,,,,,,,,,,,,,,,,,,,,
9853,1818599,25500,1235592,132,2.0,1000,,,3/20/1997 0:00,MG300,MG300,,,,,Motorgrader - 45.0 to 130.0 Horsepower,New Jersey,MG,Motor Graders,No,OROPS,,,,,None or Unspecified,,None or Unspecified,None or Unspecified,None or Unspecified,No,Base + 1 Function,None or Unspecified,None or Unspecified,None or Unspecified,None or Unspecified,None or Unspecified,,,,,,,,,,,,,,,
9853,1818600,12500,1454860,132,6.0,1000,,,4/15/1999 0:00,MG300,MG300,,,,,Motorgrader - 45.0 to 130.0 Horsepower,North Carolina,MG,Motor Graders,No,OROPS,,,,,None or Unspecified,,None or Unspecified,None or Unspecified,None or Unspecified,No,Base + 1 Function,None or Unspecified,None or Unspecified,None or Unspecified,None or Unspecified,None or Unspecified,,,,,,,,,,,,,,,
9853,1818601,14000,1357496,132,1.0,1987,,,8/26/2009 0:00,MG300,MG300,,,,,Motorgrader - 45.0 to 130.0 Horsepower,Texas,MG,Motor Graders,No,EROPS,,,,,None or Unspecified,,None or Unspecified,None or Unspecified,None or Unspecified,No,Base + 1 Function,None or Unspecified,None or Unspecified,None or Unspecified,None or Unspecified,None or Unspecified,,,,,,,,,,,,,,,
9853,1818908,16000,1545796,132,4.0,1000,,,2/5/1998 0:00,MG300,MG300,,,,,Motorgrader - 45.0 to 130.0 Horsepower,Florida,MG,Motor Graders,No,EROPS,,,,,None or Unspecified,,None or Unspecified,None or Unspecified,None or Unspecified,No,Base + 1 Function,None or Unspecified,None or Unspecified,Yes,Tip,None or Unspecified,,,,,,,,,,,,,,,
9853,1818909,14000,1545796,132,27.0,1986,,,12/28/2005 0:00,MG300,MG300,,,,,Motorgrader - 45.0 to 130.0 Horsepower,North Carolina,MG,Motor Graders,No,EROPS,,,,,None or Unspecified,,None or Unspecified,None or Unspecified,None or Unspecified,No,Base + 1 Function,None or Unspecified,None or Unspecified,Yes,Tip,None or Unspecified,,,,,,,,,,,,,,,
9853,2436265,14000,1317455,136,1.0,1000,0.0,,8/26/2009 0:00,MG300,MG300,,,,,Motorgrader - 45.0 to 130.0 Horsepower,Texas,MG,Motor Graders,No,EROPS,,,,,None or Unspecified,,None or Unspecified,12',None or Unspecified,No,Base + 1 Function,None or Unspecified,None or Unspecified,Yes,None or Unspecified,"13""",,,,,,,,,,,,,,,
9853,2436274,9000,1782820,136,,1987,8760.0,Low,10/10/2008 0:00,MG300,MG300,,,,,Motorgrader - 45.0 to 130.0 Horsepower,Virginia,MG,Motor Graders,No,EROPS,,,,,None or Unspecified,,None or Unspecified,12',None or Unspecified,No,Base + 1 Function,None or Unspecified,None or Unspecified,Yes,None or Unspecified,"14""",,,,,,,,,,,,,,,
