ModelID,SalesID,SalePrice,MachineID,datasource,auctioneerID,YearMade,MachineHoursCurrentMeter,UsageBand,saledate,fiModelDesc,fiBaseModel,fiSecondaryDesc,fiModelSeries,fiModelDescriptor,ProductSize,fiProductClassDesc,state,ProductGroup,ProductGroupDesc,Drive_System,Enclosure,Forks,Pad_Type,Ride_Control,Stick,Transmission,Turbocharged,Blade_Extension,Blade_Width,Enclosure_Type,Engine_Horsepower,Hydraulics,Pushblock,Ripper,Scarifier,Tip_Control,Tire_Size,Coupler,Coupler_System,Grouser_Tracks,Hydraulics_Flow,Track_Type,Undercarriage_Pad_Width,Stick_Length,Thumb,Pattern_Changer,Grouser_Type,Backhoe_Mounting,Blade_Type,Travel_Controls,Differential_Type,Steering_Controls
993,1277772,12000,1542608,132,1.0,1989,4400.0,Low,12/9/2010 0:00,850DLT,850,D,,LT,,"Track Type Tractor, Dozer - 75.0 to 85.0 Horsepower",Georgia,TTT,Track Type Tractors,,OROPS,,,,,Standard,,,,,,2 Valve,,None or Unspecified,,,,,,,,,,,,,,None or Unspecified,PAT,None or Unspecified,,
993,1277784,16000,1238239,132,5.0,1989,,,8/12/2006 0:00,850DLT,850,D,,LT,,"Track Type Tractor, Dozer - 75.0 to 85.0 Horsepower",Connecticut,TTT,Track Type Tractors,,OROPS,,,,,Standard,,,,,,2 Valve,,None or Unspecified,,,,,,,,,,,,,,None or Unspecified,PAT,None or Unspecified,,
993,1277808,10500,1370255,132,1.0,1989,,,4/10/2008 0:00,850DLT,850,D,,LT,,"Track Type Tractor, Dozer - 75.0 to 85.0 Horsepower",Tennessee,TTT,Track Type Tractors,,OROPS,,,,,Standard,,,,,,2 Valve,,None or Unspecified,,,,,,,,,,,,,,None or Unspecified,PAT,None or Unspecified,,
993,1277823,12000,1471723,132,12.0,1989,,,1/26/2011 0:00,850DLT,850,D,,LT,,"Track Type Tractor, Dozer - 75.0 to 85.0 Horsepower",South Carolina,TTT,Track Type Tractors,,OROPS,,,,,Standard,,,,,,2 Valve,,None or Unspecified,,,,,,,,,,,,,,None or Unspecified,PAT,None or Unspecified,,
993,1277860,18000,1402547,132,1.0,1990,,,4/11/2007 0:00,850DLT,850,D,,LT,,"Track Type Tractor, Dozer - 75.0 to 85.0 Horsepower",Ohio,TTT,Track Type Tractors,,OROPS,,,,,Standard,,,,,,2 Valve,,None or Unspecified,,,,,,,,,,,,,,None or Unspecified,PAT,None or Unspecified,,
993,1277870,14000,1414581,132,10.0,1990,,,10/21/2010 0:00,850DLT,850,D,,LT,,"Track Type Tractor, Dozer - 75.0 to 85.0 Horsepower",Louisiana,TTT,Track Type Tractors,,OROPS,,,,,Standard,,,,,,2 Valve,,None or Unspecified,,,,,,,,,,,,,,None or Unspecified,PAT,None or Unspecified,,
993,1277900,9500,1177733,132,1.0,1991,,,8/31/2010 0:00,850DLT,850,D,,LT,,"Track Type Tractor, Dozer - 75.0 to 85.0 Horsepower",Colorado,TTT,Track Type Tractors,,OROPS,,,,,Standard,,,,,,2 Valve,,Single Shank,,,,,,,,,,,,,,None or Unspecified,PAT,None or Unspecified,,
993,2197237,11000,1673028,136,,1986,,,9/19/2008 0:00,850DLT,850,D,,LT,,"Track Type Tractor, Dozer - 75.0 to 85.0 Horsepower",Virginia,TTT,Track Type Tractors,,OROPS,,,,,Standard,,,,,,2 Valve,,None or Unspecified,,,,,,,,,,,,,,None or Unspecified,PAT,None or Unspecified,,
993,2203831,18000,1695567,136,,1990,,,4/11/2007 0:00,850DLT,850,D,,LT,,"Track Type Tractor, Dozer - 75.0 to 85.0 Horsepower",Ohio,TTT,Track Type Tractors,,OROPS,,,,,Standard,,,,,,2 Valve,,None or Unspecified,,,,,,,,,,,,,,None or Unspecified,PAT,None or Unspecified,,
993,2203839,15750,1698946,136,,1990,,,6/19/2009 0:00,850DLT,850,D,,LT,,"Track Type Tractor, Dozer - 75.0 to 85.0 Horsepower",Indiana,TTT,Track Type Tractors,,OROPS,,,,,Standard,,,,,,2 Valve,,None or Unspecified,,,,,,,,,,,,,,None or Unspecified,PAT,None or Unspecified,,
993,2203840,9500,1711879,136,1.0,1990,,,9/9/2008 0:00,850DLT,850,D,,LT,,"Track Type Tractor, Dozer - 75.0 to 85.0 Horsepower",Ohio,TTT,Track Type Tractors,,OROPS,,,,,Standard,,,,,,2 Valve,,None or Unspecified,,,,,,,,,,,,,,None or Unspecified,PAT,None or Unspecified,,
993,2496951,12000,1940473,149,1.0,1989,4400.0,Low,12/9/2010 0:00,850DLT,850,D,,LT,,"Track Type Tractor, Dozer - 75.0 to 85.0 Horsepower",Georgia,TTT,Track Type Tractors,,OROPS,,,,,Standard,,,,,,2 Valve,,None or Unspecified,,,,,,,,,,,,,,None or Unspecified,PAT,None or Unspecified,,
993,2496954,12000,1845369,149,12.0,1000,0.0,,1/26/2011 0:00,850DLT,850,D,,LT,,"Track Type Tractor, Dozer - 75.0 to 85.0 Horsepower",South Carolina,TTT,Track Type Tractors,,OROPS,,,,,Standard,,,,,,2 Valve,,None or Unspecified,,,,,,,,,,,,,,None or Unspecified,PAT,None or Unspecified,,
993,2496964,9500,1840420,149,1.0,1991,0.0,,8/31/2010 0:00,850DLT,850,D,,LT,,"Track Type Tractor, Dozer - 75.0 to 85.0 Horsepower",Colorado,TTT,Track Type Tractors,,OROPS,,,,,Standard,,,,,,2 Valve,,Single Shank,,,,,,,,,,,,,,None or Unspecified,PAT,None or Unspecified,,
993,4248415,12000,2298003,172,1.0,1989,4400.0,Low,12/9/2010 0:00,850DLT,850,D,,LT,,"Track Type Tractor, Dozer - 75.0 to 85.0 Horsepower",Georgia,TTT,Track Type Tractors,,OROPS,,,,,Standard,,,,,,2 Valve,,None or Unspecified,,,,,,,,,,,,,,None or Unspecified,PAT,None or Unspecified,,
