ModelID,SalesID,SalePrice,MachineID,datasource,auctioneerID,YearMade,MachineHoursCurrentMeter,UsageBand,saledate,fiModelDesc,fiBaseModel,fiSecondaryDesc,fiModelSeries,fiModelDescriptor,ProductSize,fiProductClassDesc,state,ProductGroup,ProductGroupDesc,Drive_System,Enclosure,Forks,Pad_Type,Ride_Control,Stick,Transmission,Turbocharged,Blade_Extension,Blade_Width,Enclosure_Type,Engine_Horsepower,Hydraulics,Pushblock,Ripper,Scarifier,Tip_Control,Tire_Size,Coupler,Coupler_System,Grouser_Tracks,Hydraulics_Flow,Track_Type,Undercarriage_Pad_Width,Stick_Length,Thumb,Pattern_Changer,Grouser_Type,Backhoe_Mounting,Blade_Type,Travel_Controls,Differential_Type,Steering_Controls
999,1162324,19000,1021619,121,3.0,1994,6103.0,Medium,11/17/2005 0:00,850GLT,850,G,,LT,,"Track Type Tractor, Dozer - 85.0 to 105.0 Horsepower",Florida,TTT,Track Type Tractors,,OROPS,,,,,Standard,,,,,,2 Valve,,None or Unspecified,,,,,,,,,,,,,,None or Unspecified,None or Unspecified,None or Unspecified,,
999,1292019,28000,1143595,132,7.0,1994,,,3/4/2004 0:00,850GLT,850,G,,LT,,"Track Type Tractor, Dozer - 85.0 to 105.0 Horsepower",Alabama,TTT,Track Type Tractors,,OROPS,,,,,Standard,,,,,,2 Valve,,None or Unspecified,,,,,,,,,,,,,,None or Unspecified,PAT,None or Unspecified,,
999,1292020,25000,1161682,132,1.0,1994,,,11/16/2006 0:00,850GLT,850,G,,LT,,"Track Type Tractor, Dozer - 85.0 to 105.0 Horsepower",Texas,TTT,Track Type Tractors,,OROPS,,,,,Standard,,,,,,2 Valve,,None or Unspecified,,,,,,,,,,,,,,None or Unspecified,None or Unspecified,None or Unspecified,,
999,1292022,13000,1298812,132,1.0,1994,1978.0,Low,9/28/2010 0:00,850GLT,850,G,,LT,,"Track Type Tractor, Dozer - 85.0 to 105.0 Horsepower",North Carolina,TTT,Track Type Tractors,,OROPS,,,,,Standard,,,,,,2 Valve,,None or Unspecified,,,,,,,,,,,,,,None or Unspecified,PAT,None or Unspecified,,
999,1292027,29000,1334741,132,13.0,1995,,,3/19/2005 0:00,850GLT,850,G,,LT,,"Track Type Tractor, Dozer - 85.0 to 105.0 Horsepower",Tennessee,TTT,Track Type Tractors,,OROPS,,,,,Standard,,,,,,2 Valve,,Single Shank,,,,,,,,,,,,,,None or Unspecified,PAT,None or Unspecified,,
999,1292031,32500,1471121,132,16.0,1994,,,4/26/2007 0:00,850GLT,850,G,,LT,,"Track Type Tractor, Dozer - 85.0 to 105.0 Horsepower",Ohio,TTT,Track Type Tractors,,OROPS,,,,,Standard,,,,,,2 Valve,,None or Unspecified,,,,,,,,,,,,,,None or Unspecified,None or Unspecified,None or Unspecified,,
999,1292034,13000,1421053,132,1.0,1994,,,9/21/2009 0:00,850GLT,850,G,,LT,,"Track Type Tractor, Dozer - 85.0 to 105.0 Horsepower",Illinois,TTT,Track Type Tractors,,OROPS,,,,,Standard,,,,,,2 Valve,,None or Unspecified,,,,,,,,,,,,,,None or Unspecified,PAT,None or Unspecified,,
999,1292035,22500,1521044,132,7.0,1995,,,12/2/2004 0:00,850GLT,850,G,,LT,,"Track Type Tractor, Dozer - 85.0 to 105.0 Horsepower",Alabama,TTT,Track Type Tractors,,OROPS,,,,,Standard,,,,,,2 Valve,,None or Unspecified,,,,,,,,,,,,,,None or Unspecified,PAT,None or Unspecified,,
999,1292037,19000,1158874,132,3.0,1994,,,11/17/2005 0:00,850GLT,850,G,,LT,,"Track Type Tractor, Dozer - 85.0 to 105.0 Horsepower",California,TTT,Track Type Tractors,,OROPS,,,,,Standard,,,,,,2 Valve,,None or Unspecified,,,,,,,,,,,,,,None or Unspecified,PAT,None or Unspecified,,
999,1292040,17500,1324030,132,1.0,1994,,,2/21/2008 0:00,850GLT,850,G,,LT,,"Track Type Tractor, Dozer - 85.0 to 105.0 Horsepower",Florida,TTT,Track Type Tractors,,OROPS,,,,,Standard,,,,,,2 Valve,,None or Unspecified,,,,,,,,,,,,,,None or Unspecified,PAT,None or Unspecified,,
999,1292041,19750,1324030,132,20.0,1994,,,4/16/2008 0:00,850GLT,850,G,,LT,,"Track Type Tractor, Dozer - 85.0 to 105.0 Horsepower",Arkansas,TTT,Track Type Tractors,,OROPS,,,,,Standard,,,,,,2 Valve,,None or Unspecified,,,,,,,,,,,,,,None or Unspecified,PAT,None or Unspecified,,
999,1292043,27000,1498540,132,1.0,1994,,,3/8/2007 0:00,850GLT,850,G,,LT,,"Track Type Tractor, Dozer - 85.0 to 105.0 Horsepower",Illinois,TTT,Track Type Tractors,,OROPS,,,,,Standard,,,,,,2 Valve,,None or Unspecified,,,,,,,,,,,,,,None or Unspecified,PAT,None or Unspecified,,
999,1292045,39000,1327294,132,4.0,1994,,,2/15/2006 0:00,850GLT,850,G,,LT,,"Track Type Tractor, Dozer - 85.0 to 105.0 Horsepower",Florida,TTT,Track Type Tractors,,EROPS w AC,,,,,Standard,,,,,,2 Valve,,None or Unspecified,,,,,,,,,,,,,,None or Unspecified,PAT,None or Unspecified,,
999,1292046,24500,1281329,132,2.0,1994,,,1/13/2007 0:00,850GLT,850,G,,LT,,"Track Type Tractor, Dozer - 85.0 to 105.0 Horsepower",Ohio,TTT,Track Type Tractors,,OROPS,,,,,Standard,,,,,,2 Valve,,None or Unspecified,,,,,,,,,,,,,,None or Unspecified,PAT,None or Unspecified,,
999,1292047,24500,1206105,132,2.0,1994,,,1/13/2007 0:00,850GLT,850,G,,LT,,"Track Type Tractor, Dozer - 85.0 to 105.0 Horsepower",Ohio,TTT,Track Type Tractors,,OROPS,,,,,Standard,,,,,,2 Valve,,None or Unspecified,,,,,,,,,,,,,,None or Unspecified,PAT,None or Unspecified,,
999,1292049,16000,1318769,132,2.0,1994,,,6/4/2008 0:00,850GLT,850,G,,LT,,"Track Type Tractor, Dozer - 85.0 to 105.0 Horsepower",Texas,TTT,Track Type Tractors,,OROPS,,,,,Standard,,,,,,2 Valve,,None or Unspecified,,,,,,,,,,,,,,None or Unspecified,PAT,None or Unspecified,,
999,1292050,23000,1476325,132,1.0,1995,,,9/21/2007 0:00,850GLT,850,G,,LT,,"Track Type Tractor, Dozer - 85.0 to 105.0 Horsepower",Minnesota,TTT,Track Type Tractors,,EROPS,,,,,Standard,,,,,,2 Valve,,None or Unspecified,,,,,,,,,,,,,,None or Unspecified,PAT,None or Unspecified,,
999,1292051,29000,1159791,132,1.0,1995,,,1/26/2005 0:00,850GLT,850,G,,LT,,"Track Type Tractor, Dozer - 85.0 to 105.0 Horsepower",Mississippi,TTT,Track Type Tractors,,OROPS,,,,,Standard,,,,,,2 Valve,,None or Unspecified,,,,,,,,,,,,,,None or Unspecified,PAT,None or Unspecified,,
999,1292055,27000,1462827,132,1.0,1995,,,6/28/2005 0:00,850GLT,850,G,,LT,,"Track Type Tractor, Dozer - 85.0 to 105.0 Horsepower",Maryland,TTT,Track Type Tractors,,OROPS,,,,,Standard,,,,,,2 Valve,,None or Unspecified,,,,,,,,,,,,,,None or Unspecified,PAT,None or Unspecified,,
999,1292057,19000,1257732,132,1.0,1996,,,6/17/2009 0:00,850GLT,850,G,,LT,,"Track Type Tractor, Dozer - 85.0 to 105.0 Horsepower",Washington,TTT,Track Type Tractors,,OROPS,,,,,Standard,,,,,,2 Valve,,None or Unspecified,,,,,,,,,,,,,,None or Unspecified,PAT,None or Unspecified,,
999,1292058,19000,1232778,132,1.0,1996,,,4/13/2011 0:00,850GLT,850,G,,LT,,"Track Type Tractor, Dozer - 85.0 to 105.0 Horsepower",Texas,TTT,Track Type Tractors,,OROPS,,,,,Standard,,,,,,2 Valve,,None or Unspecified,,,,,,,,,,,,,,None or Unspecified,PAT,None or Unspecified,,
999,1292063,27000,1105027,132,2.0,1996,,,1/19/2008 0:00,850GLT,850,G,,LT,,"Track Type Tractor, Dozer - 85.0 to 105.0 Horsepower",Ohio,TTT,Track Type Tractors,,OROPS,,,,,Standard,,,,,,2 Valve,,None or Unspecified,,,,,,,,,,,,,,None or Unspecified,PAT,Pedal,,
999,1292065,27000,1305304,132,8.0,1996,,,9/22/2004 0:00,850GLT,850,G,,LT,,"Track Type Tractor, Dozer - 85.0 to 105.0 Horsepower",Mississippi,TTT,Track Type Tractors,,OROPS,,,,,Standard,,,,,,2 Valve,,None or Unspecified,,,,,,,,,,,,,,None or Unspecified,PAT,None or Unspecified,,
999,1292853,19000,1518201,132,1.0,1996,,,3/19/2010 0:00,850GLT,850,G,,LT,,"Track Type Tractor, Dozer - 85.0 to 105.0 Horsepower",Minnesota,TTT,Track Type Tractors,,OROPS,,,,,Standard,,,,,,2 Valve,,None or Unspecified,,,,,,,,,,,,,,None or Unspecified,PAT,None or Unspecified,,
999,1292854,28000,1316523,132,8.0,1996,,,7/11/2007 0:00,850GLT,850,G,,LT,,"Track Type Tractor, Dozer - 85.0 to 105.0 Horsepower",Mississippi,TTT,Track Type Tractors,,OROPS,,,,,Powershift,,,,,,2 Valve,,None or Unspecified,,,,,,,,,,,,,,None or Unspecified,PAT,Pedal,,
999,1292858,19000,1512309,132,1.0,1996,3320.0,Low,12/9/2010 0:00,850GLT,850,G,,LT,,"Track Type Tractor, Dozer - 85.0 to 105.0 Horsepower",Illinois,TTT,Track Type Tractors,,OROPS,,,,,Standard,,,,,,2 Valve,,None or Unspecified,,,,,,,,,,,,,,None or Unspecified,PAT,None or Unspecified,,
999,1292859,31000,1207682,132,1.0,1996,,,11/17/2005 0:00,850GLT,850,G,,LT,,"Track Type Tractor, Dozer - 85.0 to 105.0 Horsepower",Texas,TTT,Track Type Tractors,,OROPS,,,,,Standard,,,,,,2 Valve,,Multi Shank,,,,,,,,,,,,,,None or Unspecified,PAT,None or Unspecified,,
999,1292860,32000,1363349,132,1.0,1996,,,1/26/2005 0:00,850GLT,850,G,,LT,,"Track Type Tractor, Dozer - 85.0 to 105.0 Horsepower",Mississippi,TTT,Track Type Tractors,,OROPS,,,,,Standard,,,,,,2 Valve,,None or Unspecified,,,,,,,,,,,,,,None or Unspecified,PAT,None or Unspecified,,
999,1292862,24500,1405012,132,2.0,1996,,,2/4/2005 0:00,850GLT,850,G,,LT,,"Track Type Tractor, Dozer - 85.0 to 105.0 Horsepower",Florida,TTT,Track Type Tractors,,OROPS,,,,,Standard,,,,,,2 Valve,,None or Unspecified,,,,,,,,,,,,,,None or Unspecified,PAT,None or Unspecified,,
999,1292868,19500,1355838,132,1.0,1997,,,3/25/2010 0:00,850GLT,850,G,,LT,,"Track Type Tractor, Dozer - 85.0 to 105.0 Horsepower",Georgia,TTT,Track Type Tractors,,OROPS,,,,,Standard,,,,,,2 Valve,,None or Unspecified,,,,,,,,,,,,,,None or Unspecified,PAT,None or Unspecified,,
999,1292871,27000,1237900,132,8.0,1997,,,9/22/2004 0:00,850GLT,850,G,,LT,,"Track Type Tractor, Dozer - 85.0 to 105.0 Horsepower",Mississippi,TTT,Track Type Tractors,,OROPS,,,,,Powershift,,,,,,2 Valve,,None or Unspecified,,,,,,,,,,,,,,None or Unspecified,PAT,Pedal,,
999,1292872,21500,1079017,132,1.0,1997,,,12/16/2009 0:00,850GLT,850,G,,LT,,"Track Type Tractor, Dozer - 85.0 to 105.0 Horsepower",Maryland,TTT,Track Type Tractors,,OROPS,,,,,Standard,,,,,,2 Valve,,None or Unspecified,,,,,,,,,,,,,,None or Unspecified,PAT,None or Unspecified,,
999,1292882,22000,1373414,132,1.0,1997,,,3/27/2008 0:00,850GLT,850,G,,LT,,"Track Type Tractor, Dozer - 85.0 to 105.0 Horsepower",Texas,TTT,Track Type Tractors,,OROPS,,,,,Standard,,,,,,2 Valve,,None or Unspecified,,,,,,,,,,,,,,None or Unspecified,PAT,None or Unspecified,,
999,1292883,23000,1551717,132,14.0,1997,,,3/26/2010 0:00,850GLT,850,G,,LT,,"Track Type Tractor, Dozer - 85.0 to 105.0 Horsepower",Indiana,TTT,Track Type Tractors,,OROPS,,,,,Standard,,,,,,2 Valve,,None or Unspecified,,,,,,,,,,,,,,None or Unspecified,PAT,None or Unspecified,,
999,1292884,24000,1158120,132,1.0,1997,,,9/27/2006 0:00,850GLT,850,G,,LT,,"Track Type Tractor, Dozer - 85.0 to 105.0 Horsepower",Texas,TTT,Track Type Tractors,,OROPS,,,,,Standard,,,,,,2 Valve,,None or Unspecified,,,,,,,,,,,,,,None or Unspecified,PAT,None or Unspecified,,
999,1292889,36000,1388584,132,1.0,1998,,,8/24/2006 0:00,850GLT,850,G,,LT,,"Track Type Tractor, Dozer - 85.0 to 105.0 Horsepower",Texas,TTT,Track Type Tractors,,OROPS,,,,,Standard,,,,,,2 Valve,,None or Unspecified,,,,,,,,,,,,,,None or Unspecified,PAT,None or Unspecified,,
999,1292892,24500,1432771,132,7.0,1998,,,5/31/2006 0:00,850GLT,850,G,,LT,,"Track Type Tractor, Dozer - 85.0 to 105.0 Horsepower",Alabama,TTT,Track Type Tractors,,OROPS,,,,,Standard,,,,,,2 Valve,,None or Unspecified,,,,,,,,,,,,,,None or Unspecified,PAT,None or Unspecified,,
999,1292896,21000,1334040,132,1.0,1998,,,7/9/2008 0:00,850GLT,850,G,,LT,,"Track Type Tractor, Dozer - 85.0 to 105.0 Horsepower",Texas,TTT,Track Type Tractors,,OROPS,,,,,Standard,,,,,,2 Valve,,None or Unspecified,,,,,,,,,,,,,,None or Unspecified,PAT,None or Unspecified,,
999,1292898,21500,1393411,132,20.0,1998,3237.0,Low,10/27/2010 0:00,850GLT,850,G,,LT,,"Track Type Tractor, Dozer - 85.0 to 105.0 Horsepower",Arkansas,TTT,Track Type Tractors,,OROPS,,,,,Standard,,,,,,2 Valve,,None or Unspecified,,,,,,,,,,,,,,None or Unspecified,PAT,None or Unspecified,,
999,1292900,20000,1320779,132,1.0,1998,3862.0,Low,5/13/2010 0:00,850GLT,850,G,,LT,,"Track Type Tractor, Dozer - 85.0 to 105.0 Horsepower",Illinois,TTT,Track Type Tractors,,OROPS,,,,,Standard,,,,,,2 Valve,,None or Unspecified,,,,,,,,,,,,,,None or Unspecified,PAT,None or Unspecified,,
999,1292901,31000,1102789,132,1.0,1998,,,9/27/2006 0:00,850GLT,850,G,,LT,,"Track Type Tractor, Dozer - 85.0 to 105.0 Horsepower",Texas,TTT,Track Type Tractors,,OROPS,,,,,Standard,,,,,,2 Valve,,None or Unspecified,,,,,,,,,,,,,,None or Unspecified,PAT,None or Unspecified,,
999,1292903,21000,1554950,132,7.0,1998,,,10/22/2008 0:00,850GLT,850,G,,LT,,"Track Type Tractor, Dozer - 85.0 to 105.0 Horsepower",South Carolina,TTT,Track Type Tractors,,OROPS,,,,,Standard,,,,,,2 Valve,,None or Unspecified,,,,,,,,,,,,,,None or Unspecified,PAT,None or Unspecified,,
999,1292904,18500,1553830,132,2.0,1998,,,2/8/2008 0:00,850GLT,850,G,,LT,,"Track Type Tractor, Dozer - 85.0 to 105.0 Horsepower",Florida,TTT,Track Type Tractors,,OROPS,,,,,Standard,,,,,,2 Valve,,None or Unspecified,,,,,,,,,,,,,,None or Unspecified,PAT,Differential Steer,,
999,1292909,20000,1284323,132,1.0,1998,,,3/19/2009 0:00,850GLT,850,G,,LT,,"Track Type Tractor, Dozer - 85.0 to 105.0 Horsepower",Minnesota,TTT,Track Type Tractors,,OROPS,,,,,Standard,,,,,,2 Valve,,None or Unspecified,,,,,,,,,,,,,,None or Unspecified,PAT,None or Unspecified,,
999,1292912,22000,1363494,132,8.0,1998,,,9/18/2008 0:00,850GLT,850,G,,LT,,"Track Type Tractor, Dozer - 85.0 to 105.0 Horsepower",Mississippi,TTT,Track Type Tractors,,OROPS,,,,,Powershift,,,,,,2 Valve,,None or Unspecified,,,,,,,,,,,,,,None or Unspecified,PAT,Pedal,,
999,1292913,17500,1528555,132,1.0,1998,,,10/15/2008 0:00,850GLT,850,G,,LT,,"Track Type Tractor, Dozer - 85.0 to 105.0 Horsepower",Florida,TTT,Track Type Tractors,,OROPS,,,,,Standard,,,,,,2 Valve,,None or Unspecified,,,,,,,,,,,,,,None or Unspecified,PAT,None or Unspecified,,
999,1292915,42000,1092971,132,7.0,1998,,,6/2/2005 0:00,850GLT,850,G,,LT,,"Track Type Tractor, Dozer - 85.0 to 105.0 Horsepower",Alabama,TTT,Track Type Tractors,,EROPS w AC,,,,,Standard,,,,,,2 Valve,,None or Unspecified,,,,,,,,,,,,,,None or Unspecified,PAT,None or Unspecified,,
999,1292918,18500,1440657,132,99.0,1998,,,7/16/2009 0:00,850GLT,850,G,,LT,,"Track Type Tractor, Dozer - 85.0 to 105.0 Horsepower",Georgia,TTT,Track Type Tractors,,OROPS,,,,,Standard,,,,,,2 Valve,,Multi Shank,,,,,,,,,,,,,,None or Unspecified,PAT,None or Unspecified,,
999,1292919,17000,1440657,132,1.0,1998,,,9/18/2008 0:00,850GLT,850,G,,LT,,"Track Type Tractor, Dozer - 85.0 to 105.0 Horsepower",Georgia,TTT,Track Type Tractors,,OROPS,,,,,Standard,,,,,,2 Valve,,Multi Shank,,,,,,,,,,,,,,None or Unspecified,PAT,None or Unspecified,,
999,1292920,32000,1467812,132,1.0,1998,,,7/12/2006 0:00,850GLT,850,G,,LT,,"Track Type Tractor, Dozer - 85.0 to 105.0 Horsepower",Texas,TTT,Track Type Tractors,,OROPS,,,,,Standard,,,,,,2 Valve,,None or Unspecified,,,,,,,,,,,,,,None or Unspecified,PAT,None or Unspecified,,
999,1292921,23000,1366252,132,1.0,1998,,,8/21/2007 0:00,850GLT,850,G,,LT,,"Track Type Tractor, Dozer - 85.0 to 105.0 Horsepower",Ohio,TTT,Track Type Tractors,,OROPS,,,,,Standard,,,,,,2 Valve,,None or Unspecified,,,,,,,,,,,,,,None or Unspecified,PAT,None or Unspecified,,
999,1292923,27000,1214351,132,2.0,1999,,,1/19/2008 0:00,850GLT,850,G,,LT,,"Track Type Tractor, Dozer - 85.0 to 105.0 Horsepower",Ohio,TTT,Track Type Tractors,,OROPS,,,,,Standard,,,,,,2 Valve,,None or Unspecified,,,,,,,,,,,,,,None or Unspecified,PAT,None or Unspecified,,
999,1292925,30000,1194927,132,1.0,1998,,,4/2/2008 0:00,850GLT,850,G,,LT,,"Track Type Tractor, Dozer - 85.0 to 105.0 Horsepower",Maryland,TTT,Track Type Tractors,,OROPS,,,,,Standard,,,,,,2 Valve,,None or Unspecified,,,,,,,,,,,,,,None or Unspecified,PAT,None or Unspecified,,
999,1292927,24000,1534150,132,8.0,1998,,,11/14/2007 0:00,850GLT,850,G,,LT,,"Track Type Tractor, Dozer - 85.0 to 105.0 Horsepower",Mississippi,TTT,Track Type Tractors,,OROPS,,,,,Standard,,,,,,2 Valve,,None or Unspecified,,,,,,,,,,,,,,None or Unspecified,PAT,None or Unspecified,,
999,1292929,13000,1309631,132,1.0,1998,,,5/25/2010 0:00,850GLT,850,G,,LT,,"Track Type Tractor, Dozer - 85.0 to 105.0 Horsepower",Florida,TTT,Track Type Tractors,,OROPS,,,,,Standard,,,,,,2 Valve,,None or Unspecified,,,,,,,,,,,,,,None or Unspecified,PAT,None or Unspecified,,
999,1292932,22000,1545907,132,1.0,1998,,,6/7/2007 0:00,850GLT,850,G,,LT,,"Track Type Tractor, Dozer - 85.0 to 105.0 Horsepower",Texas,TTT,Track Type Tractors,,OROPS,,,,,Standard,,,,,,2 Valve,,None or Unspecified,,,,,,,,,,,,,,None or Unspecified,PAT,None or Unspecified,,
999,1292933,40000,1550012,132,1.0,1998,,,3/29/2004 0:00,850GLT,850,G,,LT,,"Track Type Tractor, Dozer - 85.0 to 105.0 Horsepower",Illinois,TTT,Track Type Tractors,,OROPS,,,,,Standard,,,,,,2 Valve,,None or Unspecified,,,,,,,,,,,,,,None or Unspecified,PAT,None or Unspecified,,
999,1292934,18000,1169912,132,7.0,1998,,,4/22/2010 0:00,850GLT,850,G,,LT,,"Track Type Tractor, Dozer - 85.0 to 105.0 Horsepower",South Carolina,TTT,Track Type Tractors,,OROPS,,,,,Standard,,,,,,2 Valve,,None or Unspecified,,,,,,,,,,,,,,None or Unspecified,PAT,None or Unspecified,,
999,1292936,26000,1178754,132,1.0,1998,,,6/26/2008 0:00,850GLT,850,G,,LT,,"Track Type Tractor, Dozer - 85.0 to 105.0 Horsepower",Georgia,TTT,Track Type Tractors,,OROPS,,,,,Standard,,,,,,2 Valve,,None or Unspecified,,,,,,,,,,,,,,None or Unspecified,PAT,None or Unspecified,,
999,1292937,41000,1275926,132,1.0,1999,,,3/29/2005 0:00,850GLT,850,G,,LT,,"Track Type Tractor, Dozer - 85.0 to 105.0 Horsepower",Texas,TTT,Track Type Tractors,,OROPS,,,,,Standard,,,,,,2 Valve,,None or Unspecified,,,,,,,,,,,,,,None or Unspecified,PAT,None or Unspecified,,
999,1292942,18000,1131253,132,15.0,1999,,,4/13/2011 0:00,850GLT,850,G,,LT,,"Track Type Tractor, Dozer - 85.0 to 105.0 Horsepower",Pennsylvania,TTT,Track Type Tractors,,OROPS,,,,,Powershift,,,,,,2 Valve,,None or Unspecified,,,,,,,,,,,,,,None or Unspecified,PAT,None or Unspecified,,
999,1292943,32000,1304304,132,1.0,1999,,,7/12/2006 0:00,850GLT,850,G,,LT,,"Track Type Tractor, Dozer - 85.0 to 105.0 Horsepower",Texas,TTT,Track Type Tractors,,OROPS,,,,,Standard,,,,,,2 Valve,,None or Unspecified,,,,,,,,,,,,,,None or Unspecified,PAT,None or Unspecified,,
999,1292945,33000,1102618,132,27.0,1999,,,12/29/2006 0:00,850GLT,850,G,,LT,,"Track Type Tractor, Dozer - 85.0 to 105.0 Horsepower",North Carolina,TTT,Track Type Tractors,,OROPS,,,,,Standard,,,,,,2 Valve,,None or Unspecified,,,,,,,,,,,,,,None or Unspecified,PAT,None or Unspecified,,
999,1292946,28000,1544921,132,7.0,1999,,,4/19/2007 0:00,850GLT,850,G,,LT,,"Track Type Tractor, Dozer - 85.0 to 105.0 Horsepower",South Carolina,TTT,Track Type Tractors,,OROPS,,,,,Standard,,,,,,2 Valve,,None or Unspecified,,,,,,,,,,,,,,None or Unspecified,PAT,None or Unspecified,,
999,1292949,18500,1128397,132,2.0,1999,,,1/26/2008 0:00,850GLT,850,G,,LT,,"Track Type Tractor, Dozer - 85.0 to 105.0 Horsepower",New Jersey,TTT,Track Type Tractors,,OROPS,,,,,Standard,,,,,,2 Valve,,None or Unspecified,,,,,,,,,,,,,,None or Unspecified,None or Unspecified,None or Unspecified,,
999,1292950,25500,1128397,132,2.0,1999,,,2/8/2008 0:00,850GLT,850,G,,LT,,"Track Type Tractor, Dozer - 85.0 to 105.0 Horsepower",Florida,TTT,Track Type Tractors,,OROPS,,,,,Standard,,,,,,2 Valve,,None or Unspecified,,,,,,,,,,,,,,None or Unspecified,None or Unspecified,None or Unspecified,,
999,1292952,33000,1466263,132,1.0,1999,,,11/16/2004 0:00,850GLT,850,G,,LT,,"Track Type Tractor, Dozer - 85.0 to 105.0 Horsepower",Texas,TTT,Track Type Tractors,,OROPS,,,,,Standard,,,,,,2 Valve,,None or Unspecified,,,,,,,,,,,,,,None or Unspecified,PAT,None or Unspecified,,
999,1292955,30000,1478544,132,1.0,1999,,,11/16/2004 0:00,850GLT,850,G,,LT,,"Track Type Tractor, Dozer - 85.0 to 105.0 Horsepower",Texas,TTT,Track Type Tractors,,OROPS,,,,,Standard,,,,,,2 Valve,,None or Unspecified,,,,,,,,,,,,,,None or Unspecified,PAT,None or Unspecified,,
999,1292956,19000,1106800,132,7.0,1999,,,3/2/2011 0:00,850GLT,850,G,,LT,,"Track Type Tractor, Dozer - 85.0 to 105.0 Horsepower",Alabama,TTT,Track Type Tractors,,OROPS,,,,,Standard,,,,,,2 Valve,,None or Unspecified,,,,,,,,,,,,,,None or Unspecified,PAT,None or Unspecified,,
999,1292961,23000,1470816,132,14.0,1999,,,3/26/2010 0:00,850GLT,850,G,,LT,,"Track Type Tractor, Dozer - 85.0 to 105.0 Horsepower",Indiana,TTT,Track Type Tractors,,OROPS,,,,,Standard,,,,,,2 Valve,,None or Unspecified,,,,,,,,,,,,,,None or Unspecified,PAT,None or Unspecified,,
999,1292963,42500,1138578,132,1.0,1999,,,3/29/2005 0:00,850GLT,850,G,,LT,,"Track Type Tractor, Dozer - 85.0 to 105.0 Horsepower",Texas,TTT,Track Type Tractors,,OROPS,,,,,Standard,,,,,,2 Valve,,None or Unspecified,,,,,,,,,,,,,,None or Unspecified,PAT,None or Unspecified,,
999,1292964,33000,1448976,132,1.0,1999,,,11/16/2004 0:00,850GLT,850,G,,LT,,"Track Type Tractor, Dozer - 85.0 to 105.0 Horsepower",Texas,TTT,Track Type Tractors,,OROPS,,,,,Standard,,,,,,2 Valve,,None or Unspecified,,,,,,,,,,,,,,None or Unspecified,PAT,None or Unspecified,,
999,1292966,32000,1207649,132,1.0,1999,,,8/24/2006 0:00,850GLT,850,G,,LT,,"Track Type Tractor, Dozer - 85.0 to 105.0 Horsepower",Texas,TTT,Track Type Tractors,,OROPS,,,,,Standard,,,,,,2 Valve,,None or Unspecified,,,,,,,,,,,,,,None or Unspecified,PAT,None or Unspecified,,
999,1292967,20000,1113791,132,20.0,1999,3343.0,Low,10/27/2010 0:00,850GLT,850,G,,LT,,"Track Type Tractor, Dozer - 85.0 to 105.0 Horsepower",Arkansas,TTT,Track Type Tractors,,OROPS,,,,,Standard,,,,,,2 Valve,,None or Unspecified,,,,,,,,,,,,,,None or Unspecified,PAT,None or Unspecified,,
999,1294101,33000,1364457,132,1.0,1999,,,11/16/2004 0:00,850GLT,850,G,,LT,,"Track Type Tractor, Dozer - 85.0 to 105.0 Horsepower",Texas,TTT,Track Type Tractors,,OROPS,,,,,Standard,,,,,,2 Valve,,None or Unspecified,,,,,,,,,,,,,,None or Unspecified,PAT,None or Unspecified,,
999,1294105,37500,1110865,132,2.0,2000,,,2/1/2004 0:00,850GLT,850,G,,LT,,"Track Type Tractor, Dozer - 85.0 to 105.0 Horsepower",Florida,TTT,Track Type Tractors,,OROPS,,,,,Standard,,,,,,2 Valve,,None or Unspecified,,,,,,,,,,,,,,None or Unspecified,PAT,None or Unspecified,,
999,1294106,37500,1247942,132,1.0,2000,,,6/16/2005 0:00,850GLT,850,G,,LT,,"Track Type Tractor, Dozer - 85.0 to 105.0 Horsepower",Texas,TTT,Track Type Tractors,,EROPS w AC,,,,,Standard,,,,,,2 Valve,,None or Unspecified,,,,,,,,,,,,,,None or Unspecified,PAT,None or Unspecified,,
999,2196139,21000,1756324,136,,1000,,,6/27/2008 0:00,850GLT,850,G,,LT,,"Track Type Tractor, Dozer - 85.0 to 105.0 Horsepower",Indiana,TTT,Track Type Tractors,,OROPS,,,,,Standard,,,,,,2 Valve,,None or Unspecified,,,,,,,,,,,,,,None or Unspecified,None or Unspecified,None or Unspecified,,
999,2205638,31500,1719940,136,,1995,,,3/23/2007 0:00,850GLT,850,G,,LT,,"Track Type Tractor, Dozer - 85.0 to 105.0 Horsepower",Indiana,TTT,Track Type Tractors,,OROPS,,,,,Standard,,,,,,2 Valve,,None or Unspecified,,,,,,,,,,,,,,None or Unspecified,PAT,None or Unspecified,,
999,2205686,23000,1688073,136,,1998,,,8/21/2007 0:00,850GLT,850,G,,LT,,"Track Type Tractor, Dozer - 85.0 to 105.0 Horsepower",Ohio,TTT,Track Type Tractors,,OROPS,,,,,Standard,,,,,,2 Valve,,None or Unspecified,,,,,,,,,,,,,,None or Unspecified,PAT,None or Unspecified,,
999,2207202,20000,1238406,136,1.0,1994,,,12/11/2007 0:00,850GLT,850,G,,LT,,"Track Type Tractor, Dozer - 85.0 to 105.0 Horsepower",Minnesota,TTT,Track Type Tractors,,OROPS,,,,,Standard,,,,,,2 Valve,,None or Unspecified,,,,,,,,,,,,,,None or Unspecified,PAT,None or Unspecified,,
999,2207208,32500,1200663,136,16.0,1994,,,4/26/2007 0:00,850GLT,850,G,,LT,,"Track Type Tractor, Dozer - 85.0 to 105.0 Horsepower",Ohio,TTT,Track Type Tractors,,OROPS,,,,,Standard,,,,,,2 Valve,,None or Unspecified,,,,,,,,,,,,,,None or Unspecified,None or Unspecified,None or Unspecified,,
999,2207213,22000,1325076,136,7.0,1994,,,3/12/2008 0:00,850GLT,850,G,,LT,,"Track Type Tractor, Dozer - 85.0 to 105.0 Horsepower",Alabama,TTT,Track Type Tractors,,OROPS,,,,,Standard,,,,,,2 Valve,,None or Unspecified,,,,,,,,,,,,,,None or Unspecified,PAT,None or Unspecified,,
999,2207214,17500,1325076,136,1.0,1994,,,2/19/2008 0:00,850GLT,850,G,,LT,,"Track Type Tractor, Dozer - 85.0 to 105.0 Horsepower",Florida,TTT,Track Type Tractors,,OROPS,,,,,Standard,,,,,,2 Valve,,None or Unspecified,,,,,,,,,,,,,,None or Unspecified,PAT,None or Unspecified,,
999,2207216,18000,1325076,136,7.0,1994,,,10/29/2008 0:00,850GLT,850,G,,LT,,"Track Type Tractor, Dozer - 85.0 to 105.0 Horsepower",Arkansas,TTT,Track Type Tractors,,OROPS,,,,,Standard,,,,,,2 Valve,,None or Unspecified,,,,,,,,,,,,,,None or Unspecified,PAT,None or Unspecified,,
999,2207217,19750,1325076,136,7.0,1994,,,4/16/2008 0:00,850GLT,850,G,,LT,,"Track Type Tractor, Dozer - 85.0 to 105.0 Horsepower",Arkansas,TTT,Track Type Tractors,,OROPS,,,,,Standard,,,,,,2 Valve,,None or Unspecified,,,,,,,,,,,,,,None or Unspecified,PAT,None or Unspecified,,
999,2207220,16000,1672908,136,,1994,,,6/4/2008 0:00,850GLT,850,G,,LT,,"Track Type Tractor, Dozer - 85.0 to 105.0 Horsepower",Texas,TTT,Track Type Tractors,,OROPS,,,,,Standard,,,,,,2 Valve,,None or Unspecified,,,,,,,,,,,,,,None or Unspecified,PAT,None or Unspecified,,
999,2207224,23000,1694619,136,1.0,1994,,,9/21/2007 0:00,850GLT,850,G,,LT,,"Track Type Tractor, Dozer - 85.0 to 105.0 Horsepower",Minnesota,TTT,Track Type Tractors,,OROPS,,,,,Standard,,,,,,2 Valve,,None or Unspecified,,,,,,,,,,,,,,None or Unspecified,None or Unspecified,None or Unspecified,,
999,2207229,19000,1772096,136,1.0,1996,,,6/17/2009 0:00,850GLT,850,G,,LT,,"Track Type Tractor, Dozer - 85.0 to 105.0 Horsepower",Washington,TTT,Track Type Tractors,,OROPS,,,,,Standard,,,,,,2 Valve,,None or Unspecified,,,,,,,,,,,,,,None or Unspecified,PAT,None or Unspecified,,
999,2207233,22000,1133132,136,14.0,1000,,,5/15/2009 0:00,850GLT,850,G,,LT,,"Track Type Tractor, Dozer - 85.0 to 105.0 Horsepower",Indiana,TTT,Track Type Tractors,,OROPS,,,,,Standard,,,,,,2 Valve,,None or Unspecified,,,,,,,,,,,,,,None or Unspecified,PAT,None or Unspecified,,
999,2207237,27000,574413,136,,1996,,,1/19/2008 0:00,850GLT,850,G,,LT,,"Track Type Tractor, Dozer - 85.0 to 105.0 Horsepower",Ohio,TTT,Track Type Tractors,,OROPS,,,,,Standard,,,,,,2 Valve,,None or Unspecified,,,,,,,,,,,,,,None or Unspecified,PAT,Pedal,,
999,2207511,15500,1731401,136,,1997,,,12/13/2008 0:00,850GLT,850,G,,LT,,"Track Type Tractor, Dozer - 85.0 to 105.0 Horsepower",Pennsylvania,TTT,Track Type Tractors,,OROPS,,,,,Standard,,,,,,2 Valve,,None or Unspecified,,,,,,,,,,,,,,None or Unspecified,PAT,None or Unspecified,,
999,2208194,29000,1226894,136,1.0,1996,,,9/11/2007 0:00,850GLT,850,G,,LT,,"Track Type Tractor, Dozer - 85.0 to 105.0 Horsepower",Ohio,TTT,Track Type Tractors,,OROPS,,,,,Standard,,,,,,2 Valve,,None or Unspecified,,,,,,,,,,,,,,None or Unspecified,PAT,None or Unspecified,,
999,2208196,28000,1706104,136,,1996,,,7/11/2007 0:00,850GLT,850,G,,LT,,"Track Type Tractor, Dozer - 85.0 to 105.0 Horsepower",Mississippi,TTT,Track Type Tractors,,OROPS,,,,,Powershift,,,,,,2 Valve,,None or Unspecified,,,,,,,,,,,,,,None or Unspecified,PAT,Pedal,,
999,2208202,34500,1759575,136,,1997,1697.0,Low,10/11/2007 0:00,850GLT,850,G,,LT,,"Track Type Tractor, Dozer - 85.0 to 105.0 Horsepower",Missouri,TTT,Track Type Tractors,,OROPS,,,,,Standard,,,,,,2 Valve,,None or Unspecified,,,,,,,,,,,,,,None or Unspecified,PAT,None or Unspecified,,
999,2208206,19500,161875,136,1.0,1997,,,3/25/2010 0:00,850GLT,850,G,,LT,,"Track Type Tractor, Dozer - 85.0 to 105.0 Horsepower",Georgia,TTT,Track Type Tractors,,OROPS,,,,,Standard,,,,,,2 Valve,,None or Unspecified,,,,,,,,,,,,,,None or Unspecified,PAT,None or Unspecified,,
999,2208208,18500,1647117,136,,1997,,,11/19/2008 0:00,850GLT,850,G,,LT,,"Track Type Tractor, Dozer - 85.0 to 105.0 Horsepower",South Carolina,TTT,Track Type Tractors,,OROPS,,,,,Standard,,,,,,2 Valve,,None or Unspecified,,,,,,,,,,,,,,None or Unspecified,PAT,None or Unspecified,,
999,2208209,24000,1764508,136,,1997,449500.0,High,4/21/2009 0:00,850GLT,850,G,,LT,,"Track Type Tractor, Dozer - 85.0 to 105.0 Horsepower",Arkansas,TTT,Track Type Tractors,,OROPS,,,,,Standard,,,,,,2 Valve,,None or Unspecified,,,,,,,,,,,,,,None or Unspecified,PAT,None or Unspecified,,
999,2208221,33500,1271295,136,5.0,1997,,,11/9/2007 0:00,850GLT,850,G,,LT,,"Track Type Tractor, Dozer - 85.0 to 105.0 Horsepower",Connecticut,TTT,Track Type Tractors,,OROPS,,,,,Standard,,,,,,2 Valve,,None or Unspecified,,,,,,,,,,,,,,None or Unspecified,PAT,None or Unspecified,,
999,2208223,15000,1654665,136,21.0,1000,5157.0,Medium,12/5/2009 0:00,850GLT,850,G,,LT,,"Track Type Tractor, Dozer - 85.0 to 105.0 Horsepower",Michigan,TTT,Track Type Tractors,,OROPS,,,,,Powershift,,,,,,2 Valve,,None or Unspecified,,,,,,,,,,,,,,None or Unspecified,PAT,None or Unspecified,,
999,2208228,27000,1156710,136,1.0,1998,,,9/9/2008 0:00,850GLT,850,G,,LT,,"Track Type Tractor, Dozer - 85.0 to 105.0 Horsepower",Ohio,TTT,Track Type Tractors,,OROPS,,,,,Standard,,,,,,2 Valve,,None or Unspecified,,,,,,,,,,,,,,None or Unspecified,PAT,None or Unspecified,,
999,2208230,44000,1784431,136,,1998,500.0,Low,10/11/2007 0:00,850GLT,850,G,,LT,,"Track Type Tractor, Dozer - 85.0 to 105.0 Horsepower",Missouri,TTT,Track Type Tractors,,OROPS,,,,,Standard,,,,,,2 Valve,,None or Unspecified,,,,,,,,,,,,,,None or Unspecified,PAT,None or Unspecified,,
999,2208234,25000,1664247,136,,1998,,,7/11/2008 0:00,850GLT,850,G,,LT,,"Track Type Tractor, Dozer - 85.0 to 105.0 Horsepower",Texas,TTT,Track Type Tractors,,OROPS,,,,,Standard,,,,,,2 Valve,,None or Unspecified,,,,,,,,,,,,,,None or Unspecified,PAT,None or Unspecified,,
999,2208236,21000,1344743,136,7.0,1998,,,10/22/2008 0:00,850GLT,850,G,,LT,,"Track Type Tractor, Dozer - 85.0 to 105.0 Horsepower",South Carolina,TTT,Track Type Tractors,,OROPS,,,,,Standard,,,,,,2 Valve,,None or Unspecified,,,,,,,,,,,,,,None or Unspecified,PAT,None or Unspecified,,
999,2208238,18500,1167113,136,7.0,1998,,,2/3/2008 0:00,850GLT,850,G,,LT,,"Track Type Tractor, Dozer - 85.0 to 105.0 Horsepower",Florida,TTT,Track Type Tractors,,OROPS,,,,,Powershift,,,,,,2 Valve,,None or Unspecified,,,,,,,,,,,,,,None or Unspecified,PAT,Differential Steer,,
999,2208242,20000,1273720,136,1.0,1998,,,3/19/2009 0:00,850GLT,850,G,,LT,,"Track Type Tractor, Dozer - 85.0 to 105.0 Horsepower",Minnesota,TTT,Track Type Tractors,,OROPS,,,,,Standard,,,,,,2 Valve,,None or Unspecified,,,,,,,,,,,,,,None or Unspecified,PAT,None or Unspecified,,
999,2208243,22000,1678156,136,,1998,,,9/18/2008 0:00,850GLT,850,G,,LT,,"Track Type Tractor, Dozer - 85.0 to 105.0 Horsepower",Mississippi,TTT,Track Type Tractors,,OROPS,,,,,Powershift,,,,,,2 Valve,,None or Unspecified,,,,,,,,,,,,,,None or Unspecified,PAT,Pedal,,
999,2208244,25500,1736546,136,,1998,,,6/20/2007 0:00,850GLT,850,G,,LT,,"Track Type Tractor, Dozer - 85.0 to 105.0 Horsepower",Louisiana,TTT,Track Type Tractors,,OROPS,,,,,Standard,,,,,,2 Valve,,None or Unspecified,,,,,,,,,,,,,,None or Unspecified,PAT,None or Unspecified,,
999,2208253,25000,1716192,136,,1998,,,4/16/2008 0:00,850GLT,850,G,,LT,,"Track Type Tractor, Dozer - 85.0 to 105.0 Horsepower",Arkansas,TTT,Track Type Tractors,,OROPS,,,,,Standard,,,,,,2 Valve,,None or Unspecified,,,,,,,,,,,,,,None or Unspecified,PAT,None or Unspecified,,
999,2208255,27000,1757615,136,,1999,,,1/19/2008 0:00,850GLT,850,G,,LT,,"Track Type Tractor, Dozer - 85.0 to 105.0 Horsepower",Ohio,TTT,Track Type Tractors,,OROPS,,,,,Standard,,,,,,2 Valve,,None or Unspecified,,,,,,,,,,,,,,None or Unspecified,PAT,None or Unspecified,,
999,2208258,30000,1698555,136,1.0,1998,,,4/2/2008 0:00,850GLT,850,G,,LT,,"Track Type Tractor, Dozer - 85.0 to 105.0 Horsepower",Maryland,TTT,Track Type Tractors,,OROPS,,,,,Standard,,,,,,2 Valve,,None or Unspecified,,,,,,,,,,,,,,None or Unspecified,PAT,None or Unspecified,,
999,2208259,24000,1556596,136,8.0,1998,,,11/14/2007 0:00,850GLT,850,G,,LT,,"Track Type Tractor, Dozer - 85.0 to 105.0 Horsepower",Mississippi,TTT,Track Type Tractors,,OROPS,,,,,Standard,,,,,,2 Valve,,None or Unspecified,,,,,,,,,,,,,,None or Unspecified,PAT,None or Unspecified,,
999,2208260,13000,1232197,136,1.0,1000,,,5/25/2010 0:00,850GLT,850,G,,LT,,"Track Type Tractor, Dozer - 85.0 to 105.0 Horsepower",Florida,TTT,Track Type Tractors,,OROPS,,,,,Standard,,,,,,2 Valve,,None or Unspecified,,,,,,,,,,,,,,None or Unspecified,PAT,None or Unspecified,,
999,2208263,22000,1768454,136,,1998,,,6/7/2007 0:00,850GLT,850,G,,LT,,"Track Type Tractor, Dozer - 85.0 to 105.0 Horsepower",Texas,TTT,Track Type Tractors,,OROPS,,,,,Standard,,,,,,2 Valve,,None or Unspecified,,,,,,,,,,,,,,None or Unspecified,PAT,None or Unspecified,,
999,2208264,28500,1645080,136,,1998,,,6/20/2007 0:00,850GLT,850,G,,LT,,"Track Type Tractor, Dozer - 85.0 to 105.0 Horsepower",Arkansas,TTT,Track Type Tractors,,OROPS,,,,,Powershift,,,,,,2 Valve,,None or Unspecified,,,,,,,,,,,,,,None or Unspecified,PAT,None or Unspecified,,
999,2208267,26000,1692869,136,1.0,1998,,,6/26/2008 0:00,850GLT,850,G,,LT,,"Track Type Tractor, Dozer - 85.0 to 105.0 Horsepower",Georgia,TTT,Track Type Tractors,,OROPS,,,,,Standard,,,,,,2 Valve,,None or Unspecified,,,,,,,,,,,,,,None or Unspecified,PAT,None or Unspecified,,
999,2208270,28000,1093684,136,7.0,1999,1989.0,Low,4/19/2007 0:00,850GLT,850,G,,LT,,"Track Type Tractor, Dozer - 85.0 to 105.0 Horsepower",South Carolina,TTT,Track Type Tractors,,OROPS,,,,,Standard,,,,,,2 Valve,,None or Unspecified,,,,,,,,,,,,,,None or Unspecified,PAT,None or Unspecified,,
999,2208272,25500,1678313,136,,1999,,,2/3/2008 0:00,850GLT,850,G,,LT,,"Track Type Tractor, Dozer - 85.0 to 105.0 Horsepower",Florida,TTT,Track Type Tractors,,OROPS,,,,,Standard,,,,,,2 Valve,,None or Unspecified,,,,,,,,,,,,,,None or Unspecified,None or Unspecified,None or Unspecified,,
999,2208273,18500,1678313,136,,1999,,,1/26/2008 0:00,850GLT,850,G,,LT,,"Track Type Tractor, Dozer - 85.0 to 105.0 Horsepower",New Jersey,TTT,Track Type Tractors,,OROPS,,,,,Standard,,,,,,2 Valve,,None or Unspecified,,,,,,,,,,,,,,None or Unspecified,None or Unspecified,None or Unspecified,,
999,2208276,36000,1666737,136,,1999,1800.0,Low,3/23/2007 0:00,850GLT,850,G,,LT,,"Track Type Tractor, Dozer - 85.0 to 105.0 Horsepower",Indiana,TTT,Track Type Tractors,,OROPS,,,,,Standard,,,,,,2 Valve,,None or Unspecified,,,,,,,,,,,,,,None or Unspecified,PAT,None or Unspecified,,
999,2210535,22000,1302085,136,99.0,1997,,,10/4/2007 0:00,850GLT,850,G,,LT,,"Track Type Tractor, Dozer - 85.0 to 105.0 Horsepower",Texas,TTT,Track Type Tractors,,OROPS,,,,,Standard,,,,,,2 Valve,,None or Unspecified,,,,,,,,,,,,,,None or Unspecified,PAT,None or Unspecified,,
999,2499965,13000,1270455,149,1.0,1994,1978.0,Low,9/28/2010 0:00,850GLT,850,G,,LT,,"Track Type Tractor, Dozer - 85.0 to 105.0 Horsepower",North Carolina,TTT,Track Type Tractors,,OROPS,,,,,Standard,,,,,,2 Valve,,None or Unspecified,,,,,,,,,,,,,,None or Unspecified,PAT,None or Unspecified,,
999,2499988,15000,1880099,149,2.0,1996,0.0,,8/19/2010 0:00,850GLT,850,G,,LT,,"Track Type Tractor, Dozer - 85.0 to 105.0 Horsepower",Florida,TTT,Track Type Tractors,,OROPS,,,,,Standard,,,,,,2 Valve,,None or Unspecified,,,,,,,,,,,,,,None or Unspecified,PAT,None or Unspecified,,
999,2499990,19000,1154865,149,1.0,1996,0.0,,4/13/2011 0:00,850GLT,850,G,,LT,,"Track Type Tractor, Dozer - 85.0 to 105.0 Horsepower",Texas,TTT,Track Type Tractors,,OROPS,,,,,Standard,,,,,,2 Valve,,None or Unspecified,,,,,,,,,,,,,,None or Unspecified,PAT,None or Unspecified,,
999,2500474,19000,1884624,149,1.0,1996,3320.0,Low,12/9/2010 0:00,850GLT,850,G,,LT,,"Track Type Tractor, Dozer - 85.0 to 105.0 Horsepower",Illinois,TTT,Track Type Tractors,,OROPS,,,,,Standard,,,,,,2 Valve,,None or Unspecified,,,,,,,,,,,,,,None or Unspecified,PAT,None or Unspecified,,
999,2500475,13500,1884624,149,2.0,1996,0.0,,11/6/2010 0:00,850GLT,850,G,,LT,,"Track Type Tractor, Dozer - 85.0 to 105.0 Horsepower",Wisconsin,TTT,Track Type Tractors,,OROPS,,,,,Standard,,,,,,2 Valve,,None or Unspecified,,,,,,,,,,,,,,None or Unspecified,PAT,None or Unspecified,,
999,2500476,15000,1884624,149,2.0,1996,0.0,,9/22/2010 0:00,850GLT,850,G,,LT,,"Track Type Tractor, Dozer - 85.0 to 105.0 Horsepower",Illinois,TTT,Track Type Tractors,,OROPS,,,,,Standard,,,,,,2 Valve,,None or Unspecified,,,,,,,,,,,,,,None or Unspecified,PAT,None or Unspecified,,
999,2500527,19500,1934071,149,26.0,1999,0.0,,3/2/2011 0:00,850GLT,850,G,,LT,,"Track Type Tractor, Dozer - 85.0 to 105.0 Horsepower",Alabama,TTT,Track Type Tractors,,OROPS,,,,,Standard,,,,,,2 Valve,,None or Unspecified,,,,,,,,,,,,,,None or Unspecified,PAT,None or Unspecified,,
999,4250453,21500,1359904,172,1.0,1997,2985.0,Low,12/16/2009 0:00,850GLT,850,G,,LT,,"Track Type Tractor, Dozer - 85.0 to 105.0 Horsepower",Maryland,TTT,Track Type Tractors,,OROPS,,,,,Standard,,,,,,2 Valve,,None or Unspecified,,,,,,,,,,,,,,None or Unspecified,PAT,None or Unspecified,,
999,4250521,18000,2303328,172,1.0,1997,6200.0,Medium,9/14/2011 0:00,850GLT,850,G,,LT,,"Track Type Tractor, Dozer - 85.0 to 105.0 Horsepower",Georgia,TTT,Track Type Tractors,,EROPS w AC,,,,,Standard,,,,,,2 Valve,,Multi Shank,,,,,,,,,,,,,,None or Unspecified,PAT,Differential Steer,,
999,4250541,16000,2303328,172,1.0,1999,,,10/3/2011 0:00,850GLT,850,G,,LT,,"Track Type Tractor, Dozer - 85.0 to 105.0 Horsepower",Texas,TTT,Track Type Tractors,,EROPS w AC,,,,,Standard,,,,,,2 Valve,,Multi Shank,,,,,,,,,,,,,,None or Unspecified,PAT,Differential Steer,,
999,4250554,18000,2303328,172,1.0,1997,6200.0,Medium,9/13/2011 0:00,850GLT,850,G,,LT,,"Track Type Tractor, Dozer - 85.0 to 105.0 Horsepower",Georgia,TTT,Track Type Tractors,,EROPS w AC,,,,,Standard,,,,,,2 Valve,,Multi Shank,,,,,,,,,,,,,,None or Unspecified,PAT,Differential Steer,,
999,4250559,17000,2303328,172,1.0,1999,4579.0,Low,9/15/2011 0:00,850GLT,850,G,,LT,,"Track Type Tractor, Dozer - 85.0 to 105.0 Horsepower",South Carolina,TTT,Track Type Tractors,,EROPS w AC,,,,,Standard,,,,,,2 Valve,,Multi Shank,,,,,,,,,,,,,,None or Unspecified,PAT,Differential Steer,,
999,6258367,30000,1841971,149,2.0,1000,,,10/25/2011 0:00,850GLT,850,G,,LT,,"Track Type Tractor, Dozer - 85.0 to 105.0 Horsepower",Florida,TTT,Track Type Tractors,,OROPS,,,,,Standard,,,,,,2 Valve,,None or Unspecified,,,,,,,,,,,,,,None or Unspecified,None or Unspecified,None or Unspecified,,
999,6258369,18500,1851808,149,2.0,1000,,,9/23/2011 0:00,850GLT,850,G,,LT,,"Track Type Tractor, Dozer - 85.0 to 105.0 Horsepower",Indiana,TTT,Track Type Tractors,,OROPS,,,,,Standard,,,,,,2 Valve,,None or Unspecified,,,,,,,,,,,,,,None or Unspecified,None or Unspecified,None or Unspecified,,
999,6258468,17000,1745894,149,1.0,1997,,,9/14/2011 0:00,850GLT,850,G,,LT,,"Track Type Tractor, Dozer - 85.0 to 105.0 Horsepower",Georgia,TTT,Track Type Tractors,,OROPS,,,,,Standard,,,,,,2 Valve,,None or Unspecified,,,,,,,,,,,,,,None or Unspecified,PAT,None or Unspecified,,
999,6258473,17000,1862353,149,99.0,1998,,,12/14/2011 0:00,850GLT,850,G,,LT,,"Track Type Tractor, Dozer - 85.0 to 105.0 Horsepower",Pennsylvania,TTT,Track Type Tractors,,OROPS,,,,,Standard,,,,,,2 Valve,,None or Unspecified,,,,,,,,,,,,,,None or Unspecified,None or Unspecified,None or Unspecified,,
999,6258476,16000,1864187,149,1.0,1999,,,10/4/2011 0:00,850GLT,850,G,,LT,,"Track Type Tractor, Dozer - 85.0 to 105.0 Horsepower",Texas,TTT,Track Type Tractors,,OROPS,,,,,Standard,,,,,,2 Valve,,None or Unspecified,,,,,,,,,,,,,,None or Unspecified,None or Unspecified,None or Unspecified,,
999,6258477,17000,1797762,149,1.0,1999,,,9/16/2011 0:00,850GLT,850,G,,LT,,"Track Type Tractor, Dozer - 85.0 to 105.0 Horsepower",South Carolina,TTT,Track Type Tractors,,OROPS,,,,,Standard,,,,,,2 Valve,,None or Unspecified,,,,,,,,,,,,,,None or Unspecified,PAT,None or Unspecified,,
